2011/01/04,924,928,922,926,3034790,926
2011/01/05,926,929,923,926,2894600,926
2011/01/06,938,940,935,939,3082210,939
2011/01/07,939,943,938,939,3740710,939
2011/01/11,937,944,937,942,3714630,942
2011/01/12,945,950,942,942,4443690,942
2011/01/13,953,954,949,953,3784210,953
2011/01/14,953,953,944,944,4317190,944
2011/01/17,949,951,942,944,1931900,944
2011/01/18,943,950,940,946,2601750,946
2011/01/19,949,953,947,952,4082720,952
2011/01/20,945,948,941,943,2744020,943
2011/01/21,944,945,923,924,5449890,924
2011/01/24,928,933,924,933,3450080,933
2011/01/25,936,946,934,945,5449810,945
2011/01/26,942,942,937,938,2696800,938
2011/01/27,942,946,938,945,2934310,945
2011/01/28,943,944,931,935,5495050,935
2011/01/31,921,927,918,926,2636330,926
2011/02/01,927,931,925,926,1215410,926
2011/02/02,935,947,935,945,3899820,945
2011/02/03,941,944,940,940,2434500,940
2011/02/04,951,956,949,950,2687550,950
2011/02/07,958,959,953,956,4350210,956
2011/02/08,960,961,957,960,1686180,960
2011/02/09,962,966,957,958,2320940,958
2011/02/10,956,963,955,961,2282420,961
2011/02/14,969,974,968,974,1774390,974
2011/02/15,976,979,974,978,1558350,978
2011/02/16,978,987,978,981,3434400,981
2011/02/17,988,992,986,989,3320350,989
2011/02/18,991,991,986,990,1632240,990
2011/02/21,986,990,984,988,2247440,988
2011/02/22,980,983,970,972,5122950,972
2011/02/23,964,973,962,963,2436390,963
2011/02/24,957,958,946,951,3133780,951
2011/02/25,950,958,949,957,2098420,957
2011/02/28,955,968,950,965,2511120,965
2011/03/01,970,979,970,978,1720620,978
2011/03/02,967,969,958,959,4498430,959
2011/03/03,959,965,959,963,2964380,963
2011/03/04,976,978,967,969,1426910,969
2011/03/07,966,966,953,956,2940500,956
2011/03/08,955,961,953,956,2911440,956
2011/03/09,963,967,957,961,2182040,961
2011/03/10,958,958,943,945,2869940,945
2011/03/11,936,941,930,931,2603100,931
2011/03/14,856,882,850,861,11348410,861
2011/03/15,815,817,715,783,15536400,783
2011/03/16,801,832,801,832,11302090,832
2011/03/17,791,837,791,826,13431770,826
2011/03/18,835,848,832,844,6518040,844
2011/03/22,879,886,871,885,8122770,885
2011/03/23,881,884,869,876,5458620,876
2011/03/24,877,879,867,870,2667960,870
2011/03/25,883,883,865,871,2887940,871
2011/03/28,872,877,866,873,2993420,873
2011/03/29,868,878,863,875,2551410,875
2011/03/30,875,890,873,888,5302690,888
2011/03/31,894,895,885,890,3356220,890
2011/04/01,893,898,886,888,2343810,888
2011/04/04,888,893,883,884,2362110,884
2011/04/05,885,885,865,872,4071380,872
2011/04/06,873,873,860,863,3393580,863
2011/04/07,870,874,864,865,3680240,865
2011/04/08,864,880,856,876,4267260,876
2011/04/11,873,880,872,875,1830560,875
2011/04/12,863,867,859,862,2997080,862
2011/04/13,861,870,859,869,1589980,869
2011/04/14,865,873,863,869,2273490,869
2011/04/15,869,871,864,865,922510,865
2011/04/18,864,867,860,861,1754800,861
2011/04/19,854,855,848,851,1346890,851
2011/04/20,859,863,856,860,2662770,860
2011/04/21,867,869,861,865,2200720,865
2011/04/22,861,869,858,865,1581790,865
2011/04/25,867,872,864,865,1182140,865
2011/04/26,862,863,855,856,1979790,856
2011/04/27,863,869,860,864,3140760,864
2011/04/28,868,876,866,873,2849740,873
2011/05/02,886,891,884,889,3281910,889
2011/05/06,879,882,875,879,1905710,879
2011/05/09,882,884,875,878,4164100,878
2011/05/10,880,884,874,881,2073660,881
2011/05/11,889,889,879,880,2786040,880
2011/05/12,876,882,872,872,2248690,872
2011/05/13,878,878,856,865,5896680,865
2011/05/16,858,860,853,854,4146030,854
2011/05/17,850,855,848,854,1653660,854
2011/05/18,854,865,854,862,1158920,862
2011/05/19,865,867,854,857,2696880,857
2011/05/20,855,859,851,853,1401100,853
2011/05/23,849,850,840,843,2167000,843
2011/05/24,837,844,836,844,1672550,844
2011/05/25,846,848,841,841,1657070,841
2011/05/26,848,853,847,850,3542950,850
2011/05/27,847,854,845,848,2935630,848
2011/05/30,846,850,842,846,3222920,846
2011/05/31,846,864,846,864,1432200,864
2011/06/01,861,865,858,865,3451680,865
2011/06/02,849,851,847,850,3044590,850
2011/06/03,849,852,840,841,1374210,841
2011/06/06,840,841,831,833,2556640,833
2011/06/07,831,840,830,839,1465030,839
2011/06/08,835,840,834,839,979480,839
2011/06/09,837,838,831,837,1967520,837
2011/06/10,843,849,839,842,1166210,842
2011/06/13,831,838,830,838,1125990,838
2011/06/14,838,848,836,847,1150570,847
2011/06/15,851,853,846,848,1075720,848
2011/06/16,842,845,837,837,1419790,837
2011/06/17,839,840,826,829,2509980,829
2011/06/20,834,837,830,833,2277970,833
2011/06/21,838,841,833,841,5390680,841
2011/06/22,846,857,845,855,4381910,855
2011/06/23,849,855,848,851,1149460,851
2011/06/24,852,860,852,859,1527150,859
2011/06/27,857,857,849,852,6783400,852
2011/06/28,857,860,852,855,2429060,855
2011/06/29,866,869,863,868,1810540,868
2011/06/30,874,875,869,874,967920,874
2011/07/01,881,882,876,879,1603720,879
2011/07/04,890,892,887,890,1808480,890
2011/07/05,892,894,890,894,1812230,894
2011/07/06,874,879,868,878,3439740,878
2011/07/07,879,879,874,877,2814120,877
2011/07/08,882,885,878,879,2926220,879
2011/07/11,878,879,874,876,2574030,876
2011/07/12,866,867,859,861,2668240,861
2011/07/13,860,868,858,865,1420060,865
2011/07/14,862,867,858,862,1855230,862
2011/07/15,860,866,860,865,1218220,865
2011/07/19,864,864,857,857,3146650,857
2011/07/20,868,870,863,865,1782500,865
2011/07/21,868,869,862,865,1749160,865
2011/07/22,871,875,869,872,1022510,872
2011/07/25,873,873,865,867,1204560,867
2011/07/26,868,875,866,872,1520980,872
2011/07/27,866,866,858,864,1670260,864
2011/07/28,856,856,849,852,1643890,852
2011/07/29,850,852,845,846,2452670,846
2011/08/01,851,863,850,857,1842910,857
2011/08/02,850,850,846,849,1577860,849
2011/08/03,835,835,829,829,2490730,829
2011/08/04,832,840,828,831,2536670,831
2011/08/05,797,806,796,804,5456220,804
2011/08/08,791,796,783,788,5026550,788
2011/08/09,765,775,748,773,8151750,773
2011/08/10,790,790,778,780,5602070,780
2011/08/11,764,776,764,776,3578110,776
2011/08/12,782,784,769,772,1501410,772
2011/08/15,784,785,776,780,1355410,780
2011/08/16,784,788,780,784,1315680,784
2011/08/17,780,782,774,781,905180,781
2011/08/18,781,781,770,772,3405240,772
2011/08/19,757,761,754,755,2717630,755
2011/08/22,755,757,746,748,2989180,748
2011/08/23,753,756,746,755,1874200,755
2011/08/24,761,764,744,747,2940810,747
2011/08/25,756,764,754,757,1734950,757
2011/08/26,753,760,753,760,2263990,760
2011/08/29,759,771,755,763,1651290,763
2011/08/30,774,778,770,773,1556290,773
2011/08/31,770,775,768,775,914050,775
2011/09/01,779,785,778,781,2988250,781
2011/09/02,776,778,771,775,2342010,775
2011/09/05,765,767,757,760,1591790,760
2011/09/06,752,755,744,744,3208540,744
2011/09/07,755,759,751,758,1538900,758
2011/09/08,765,768,758,760,1274180,760
2011/09/09,762,765,758,760,1446700,760
2011/09/12,746,747,742,746,2662690,746
2011/09/13,750,756,745,753,2351750,753
2011/09/14,753,757,744,746,1535200,746
2011/09/15,755,759,753,754,1441200,754
2011/09/16,764,772,762,772,2470750,772
2011/09/20,762,763,757,758,1670370,758
2011/09/21,758,762,757,759,1376310,759
2011/09/22,749,752,744,748,3737570,748
2011/09/26,747,749,731,733,5501400,733
2011/09/27,745,753,741,753,1841080,753
2011/09/28,759,767,759,766,2538250,766
2011/09/29,760,773,758,773,3331140,773
2011/09/30,774,777,766,772,2320400,772
2011/10/03,757,759,746,757,2711960,757
2011/10/04,745,751,740,747,2867370,747
2011/10/05,750,751,735,738,2745040,738
2011/10/06,742,751,742,746,3417050,746
2011/10/07,753,759,751,751,2381710,751
2011/10/11,764,769,763,764,2183600,764
2011/10/12,762,767,758,765,3174670,765
2011/10/13,771,774,768,769,2733310,769
2011/10/14,762,765,758,758,1724770,758
2011/10/17,770,775,768,774,2152730,774
2011/10/18,766,766,761,762,1903000,762
2011/10/19,767,770,761,763,2174110,763
2011/10/20,758,761,753,758,1768990,758
2011/10/21,757,757,753,756,863640,756
2011/10/24,762,767,761,766,1042020,766
2011/10/25,767,769,758,758,1527690,758
2011/10/26,751,763,747,757,1937940,757
2011/10/27,759,775,754,775,2727010,775
2011/10/28,787,790,781,783,4629330,783
2011/10/31,779,791,777,777,1618260,777
2011/11/01,767,772,764,765,1654780,765
2011/11/02,753,755,748,750,2927680,750
2011/11/04,759,764,756,763,2194120,763
2011/11/07,761,763,757,763,1344200,763
2011/11/08,758,761,748,751,1265470,751
2011/11/09,755,761,752,761,1775390,761
2011/11/10,742,745,738,742,3683880,742
2011/11/11,742,744,737,739,1330920,739
2011/11/14,748,751,745,746,1366270,746
2011/11/15,743,747,741,743,1005250,743
2011/11/16,741,743,734,736,1082660,736
2011/11/17,733,740,729,739,1547190,739
2011/11/18,730,733,728,732,1319640,732
2011/11/21,728,730,727,729,728060,729
2011/11/22,721,731,720,728,1911680,728
2011/11/24,717,723,716,716,2592140,716
2011/11/25,715,722,714,717,2670220,717
2011/11/28,724,731,724,727,3917290,727
2011/11/29,733,741,730,741,1756470,741
2011/11/30,735,740,732,740,1270530,740
2011/12/01,757,758,750,750,1754910,750
2011/12/02,752,756,751,756,1140480,756
2011/12/05,759,761,756,760,887950,760
2011/12/06,756,759,749,750,1340170,750
2011/12/07,751,761,751,761,1306530,761
2011/12/08,757,759,753,757,1520170,757
2011/12/09,748,753,745,748,1518930,748
2011/12/12,760,760,756,758,1157530,758
2011/12/13,746,754,746,752,960700,752
2011/12/14,747,750,746,749,914560,749
2011/12/15,742,744,736,736,1757860,736
2011/12/16,738,739,733,734,3642230,734
2011/12/19,730,732,722,727,1407020,727
2011/12/20,728,731,728,730,1329560,730
2011/12/21,740,740,734,737,964390,737
2011/12/22,736,737,732,734,3233640,734
2011/12/26,743,743,736,738,906560,738
2011/12/27,735,736,734,734,816050,734
2011/12/28,735,738,732,733,685280,733
2011/12/29,730,735,728,735,1146800,735
2011/12/30,738,740,735,740,906940,740
2012/01/04,748,756,748,753,3750490,753
2012/01/05,751,752,748,748,768970,748
2012/01/06,746,747,737,740,981260,740
2012/01/10,744,749,743,743,1801090,743
2012/01/11,745,747,742,743,823060,743
2012/01/12,743,744,736,738,1245420,738
2012/01/13,742,748,742,747,1201440,747
2012/01/16,740,740,733,738,2200430,738
2012/01/17,740,743,738,742,1546620,742
2012/01/18,741,751,740,747,3928660,747
2012/01/19,751,755,751,752,1113440,752
2012/01/20,763,769,761,768,3628620,768
2012/01/23,766,770,765,770,1580880,770
2012/01/24,771,773,767,769,1101790,769
2012/01/25,773,782,771,778,1467190,778
2012/01/26,780,780,775,775,1000620,775
2012/01/27,776,778,771,774,955690,774
2012/01/30,773,773,768,770,2586010,770
2012/01/31,769,771,764,764,1059920,764
2012/02/01,765,773,765,770,1472740,770
2012/02/02,774,779,773,775,2663530,775
2012/02/03,774,777,771,773,1454370,773
2012/02/06,782,784,780,782,1801570,782
2012/02/07,781,785,780,785,1235860,785
2012/02/08,788,794,788,794,1415870,794
2012/02/09,792,797,789,797,1995750,797
2012/02/10,797,799,790,792,1104160,792
2012/02/13,788,795,788,794,952450,794
2012/02/14,793,800,790,799,1776500,799
2012/02/15,803,818,803,816,2800990,816
2012/02/16,813,819,811,813,2242980,813
2012/02/17,824,828,821,822,2083140,822
2012/02/20,836,837,829,832,5135850,832
2012/02/21,831,834,827,828,1253640,828
2012/02/22,829,839,827,839,1403310,839
2012/02/23,839,844,833,840,2087770,840
2012/02/24,844,848,841,848,2260900,848
2012/02/27,852,857,847,850,2084620,850
2012/02/28,842,853,839,852,1568230,852
2012/02/29,856,861,847,847,1691080,847
2012/03/01,852,858,840,843,2840930,843
2012/03/02,853,854,847,852,1422440,852
2012/03/05,848,854,843,844,1191890,844
2012/03/06,846,849,837,839,1492960,839
2012/03/07,827,835,827,835,4754060,835
2012/03/08,842,853,842,853,2897780,853
2012/03/09,863,867,856,862,10542450,862
2012/03/12,868,869,858,858,2239500,858
2012/03/13,859,867,858,858,2796380,858
2012/03/14,875,875,871,872,3610000,872
2012/03/15,876,880,872,877,1070880,877
2012/03/16,877,880,875,880,2285420,880
2012/03/19,882,884,881,881,1739830,881
2012/03/21,883,883,871,873,6985750,873
2012/03/22,871,878,869,875,1985650,875
2012/03/23,867,869,865,865,3001350,865
2012/03/26,868,870,865,866,2842580,866
2012/03/27,877,886,876,884,3040870,884
2012/03/28,884,887,881,885,2019490,885
2012/03/29,883,884,877,881,1122700,881
2012/03/30,881,881,874,874,2090580,874
2012/04/02,884,886,877,877,4072410,877
2012/04/03,876,876,871,872,2415920,872
2012/04/04,875,875,855,858,4267530,858
2012/04/05,849,857,845,855,1540110,855
2012/04/06,848,852,845,848,2503840,848
2012/04/09,837,841,835,835,2883420,835
2012/04/10,838,844,833,835,2656920,835
2012/04/11,824,829,821,826,4566360,826
2012/04/12,827,832,825,832,922220,832
2012/04/13,839,841,835,837,3737290,837
2012/04/16,828,831,824,825,1967910,825
2012/04/17,826,829,823,825,1431170,825
2012/04/18,835,842,835,840,2701160,840
2012/04/19,835,838,833,835,1175940,835
2012/04/20,836,836,831,833,1667010,833
2012/04/23,837,841,829,830,2428550,830
2012/04/24,823,828,821,825,1387030,825
2012/04/25,834,834,829,831,1202370,831
2012/04/26,837,838,828,831,1529490,831
2012/04/27,831,840,821,825,2782240,825
2012/05/01,826,826,809,811,4639350,811
2012/05/02,815,817,811,813,1363600,813
2012/05/07,791,797,790,792,4667010,792
2012/05/08,797,799,794,798,1613240,798
2012/05/09,790,791,783,786,2171560,786
2012/05/10,781,791,781,785,1980850,785
2012/05/11,783,788,777,777,1461910,777
2012/05/14,779,783,775,775,926440,775
2012/05/15,770,773,761,766,3156680,766
2012/05/16,765,767,755,758,3437240,758
2012/05/17,757,769,754,767,1913070,767
2012/05/18,753,753,743,747,6057860,747
2012/05/21,747,749,742,746,2212040,746
2012/05/22,751,755,751,751,1945490,751
2012/05/23,752,752,740,742,1873450,742
2012/05/24,738,744,735,740,3149930,740
2012/05/25,743,745,738,740,1324940,740
2012/05/28,743,743,737,739,1266500,739
2012/05/29,738,746,734,746,1165780,746
2012/05/30,744,745,737,743,2107880,743
2012/05/31,734,739,730,735,4399810,735
2012/06/01,730,733,726,729,2041020,729
2012/06/04,714,715,711,714,3985300,714
2012/06/05,717,728,717,728,1938490,728
2012/06/06,732,740,728,738,4287790,738
2012/06/07,747,751,745,748,2492730,748
2012/06/08,749,749,733,735,2211070,735
2012/06/11,750,754,747,749,3123280,749
2012/06/12,738,745,735,742,1241780,742
2012/06/13,743,747,742,744,1940250,744
2012/06/14,740,747,740,746,1011570,746
2012/06/15,750,750,743,743,1901360,743
2012/06/18,760,762,757,759,1839230,759
2012/06/19,756,760,752,754,1329810,754
2012/06/20,760,768,760,765,1473560,765
2012/06/21,770,776,768,775,1562690,775
2012/06/22,765,774,765,771,2827230,771
2012/06/25,775,775,764,766,1170880,766
2012/06/26,760,764,753,759,1213510,759
2012/06/27,759,767,757,767,1094660,767
2012/06/28,773,780,773,777,1278850,777
2012/06/29,775,794,774,793,2975030,793
2012/07/02,800,800,790,792,1957650,792
2012/07/03,794,801,794,800,2080310,800
2012/07/04,804,804,799,801,1615280,801
2012/07/05,798,802,796,797,1567920,797
2012/07/06,783,784,774,777,1608160,777
2012/07/09,771,774,770,772,1829700,772
2012/07/10,771,777,765,766,1633170,766
2012/07/11,761,765,759,765,1003780,765
2012/07/12,766,766,752,754,1873780,754
2012/07/13,750,756,750,753,1308560,753
2012/07/17,750,756,747,747,1969530,747
2012/07/18,751,753,745,746,1043600,746
2012/07/19,752,757,751,752,1186050,752
2012/07/20,751,752,738,739,2636570,739
2012/07/23,733,735,725,726,2167210,726
2012/07/24,724,727,719,724,3422030,724
2012/07/25,718,718,708,711,4693920,711
2012/07/26,714,721,710,720,3001820,720
2012/07/27,730,732,726,732,1666250,732
2012/07/30,740,740,732,737,1110420,737
2012/07/31,733,744,733,742,1226130,742
2012/08/01,737,737,732,736,1475420,736
2012/08/02,737,742,734,738,894730,738
2012/08/03,732,732,725,729,9552480,729
2012/08/06,740,743,739,742,1578580,742
2012/08/07,743,751,740,751,1566810,751
2012/08/08,759,760,749,751,1300990,751
2012/08/09,750,758,749,758,1942580,758
2012/08/10,757,758,749,755,882350,755
2012/08/13,753,754,751,751,804900,751
2012/08/14,754,759,752,756,1359930,756
2012/08/15,758,758,749,754,1075580,754
2012/08/16,756,765,756,765,3236990,765
2012/08/17,767,772,764,772,1550660,772
2012/08/20,774,776,768,770,3054770,770
2012/08/21,770,774,770,771,1418370,771
2012/08/22,770,772,764,769,842990,769
2012/08/23,764,772,763,771,1210600,771
2012/08/24,764,765,760,765,1449200,765
2012/08/27,768,768,761,762,1531350,762
2012/08/28,765,766,749,753,1346320,753
2012/08/29,751,758,751,758,748180,758
2012/08/30,755,755,748,749,1243090,749
2012/08/31,744,746,737,737,1220470,737
2012/09/03,735,744,733,735,1522780,735
2012/09/04,733,735,728,732,2249330,732
2012/09/05,730,731,723,725,1661650,725
2012/09/06,725,726,721,723,1612100,723
2012/09/07,739,742,733,742,1457480,742
2012/09/10,739,744,738,744,840400,744
2012/09/11,738,739,734,739,2653610,739
2012/09/12,738,748,738,748,1603240,748
2012/09/13,743,752,743,751,959820,751
2012/09/14,761,766,756,762,3948050,762
2012/09/18,764,768,761,762,1167770,762
2012/09/19,767,775,762,769,2989330,769
2012/09/20,766,771,758,758,1511390,758
2012/09/21,760,766,759,763,1541040,763
2012/09/24,760,762,756,760,1108910,760
2012/09/25,760,763,755,762,1900080,762
2012/09/26,758,761,755,755,1046690,755
2012/09/27,751,761,751,760,1692500,760
2012/09/28,762,762,747,751,2493840,751
2012/10/01,742,746,740,745,1052340,745
2012/10/02,746,749,743,744,2250040,744
2012/10/03,742,745,737,740,2784830,740
2012/10/04,742,752,741,746,1996080,746
2012/10/05,749,751,745,751,1285470,751
2012/10/09,749,749,740,743,2622190,743
2012/10/10,730,732,728,730,2641820,730
2012/10/11,724,732,722,727,1947820,727
2012/10/12,728,735,728,731,1681630,731
2012/10/15,732,738,727,736,1880640,736
2012/10/16,741,746,739,744,1050090,744
2012/10/17,750,756,750,754,2960510,754
2012/10/18,760,766,758,764,3397800,764
2012/10/19,762,768,762,767,1162410,767
2012/10/22,756,768,756,767,1178590,767
2012/10/23,770,771,759,763,1642170,763
2012/10/24,752,763,752,757,2158780,757
2012/10/25,757,765,756,764,2299570,764
2012/10/26,764,767,754,755,1627210,755
2012/10/29,758,759,751,753,1433550,753
2012/10/30,756,758,747,747,3110910,747
2012/10/31,752,759,750,755,2539560,755
2012/11/01,755,758,751,757,794660,757
2012/11/02,764,766,762,765,1127030,765
2012/11/05,762,765,759,761,829890,761
2012/11/06,757,759,755,758,707910,758
2012/11/07,763,763,755,757,1008630,757
2012/11/08,750,753,746,748,1765020,748
2012/11/09,742,745,739,745,2928630,745
2012/11/12,741,741,736,736,951420,736
2012/11/13,737,738,731,734,1583350,734
2012/11/14,735,736,733,736,1360250,736
2012/11/15,739,750,737,749,2710300,749
2012/11/16,754,766,754,764,2423480,764
2012/11/19,772,778,768,775,4804700,775
2012/11/20,777,781,773,775,2068800,775
2012/11/21,780,783,776,780,3138870,780
2012/11/22,790,791,786,790,2632150,790
2012/11/26,799,802,793,794,3803990,794
2012/11/27,793,798,792,795,1401580,795
2012/11/28,793,794,785,786,754190,786
2012/11/29,789,794,789,794,1187280,794
2012/11/30,795,799,791,794,2948930,794
2012/12/03,797,800,794,795,1217740,795
2012/12/04,794,798,792,795,1056040,795
2012/12/05,792,801,791,797,1995660,797
2012/12/06,801,804,800,803,1696930,803
2012/12/07,802,805,802,802,2304550,802
2012/12/10,806,809,801,803,1230740,803
2012/12/11,804,804,797,801,2940800,801
2012/12/12,804,808,803,803,2693340,803
2012/12/13,811,817,811,812,3557750,812
2012/12/14,813,817,810,816,3002550,816
2012/12/17,829,829,821,823,4581820,823
2012/12/18,825,835,824,830,4055630,830
2012/12/19,842,854,842,852,5267210,852
2012/12/20,850,861,849,855,5812460,855
2012/12/21,863,866,843,846,5513760,846
2012/12/25,860,864,850,853,3213210,853
2012/12/26,858,864,856,864,1494780,864
2012/12/27,866,875,866,871,2974250,871
2012/12/28,875,878,870,876,5985870,876
2013/01/04,906,909,896,904,5091780,904
2013/01/07,908,911,895,898,2783910,898
2013/01/08,894,898,884,887,3342470,887
2013/01/09,877,899,877,896,3629260,896
2013/01/10,901,909,899,905,2825030,905
2013/01/11,911,918,911,913,4295010,913
2013/01/15,923,927,920,924,4271940,924
2013/01/16,921,921,903,903,7008930,903
2013/01/17,908,913,893,906,3598920,906
2013/01/18,925,927,921,926,7952210,926
2013/01/21,932,932,919,923,7402540,923
2013/01/22,924,929,910,920,5096020,920
2013/01/23,914,916,902,902,3431580,902
2013/01/24,900,915,898,912,1831230,912
2013/01/25,927,934,927,933,4701020,933
2013/01/28,938,942,930,930,3303100,930
2013/01/29,928,942,927,938,4740300,938
2013/01/30,940,952,939,952,5602780,952
2013/01/31,950,960,946,957,3577520,957
2013/02/01,963,966,959,961,3279690,961
2013/02/04,969,975,964,973,3703340,973
2013/02/05,962,971,957,957,5673830,957
2013/02/06,977,991,976,985,7107830,985
2013/02/07,981,992,980,986,6201530,986
2013/02/08,978,986,973,976,5359670,976
2013/02/12,993,997,986,987,4749210,987
2013/02/13,983,987,970,975,3065860,975
2013/02/14,977,980,968,972,2810090,972
2013/02/15,968,968,947,961,6367360,961
2013/02/18,973,982,970,981,3856730,981
2013/02/19,978,986,977,980,2035360,980
2013/02/20,990,994,988,992,2802460,992
2013/02/21,987,992,977,978,3911250,978
2013/02/22,974,983,965,982,4165370,982
2013/02/25,997,1000,994,997,3997670,997
2013/02/26,980,995,979,986,4619550,986
2013/02/27,985,987,971,971,5051610,971
2013/02/28,983,994,982,991,4322840,991
2013/03/01,990,1004,988,1003,5264820,1003
2013/03/04,1010,1020,1008,1010,3527140,1010
2013/03/05,1017,1019,1005,1007,4631260,1007
2013/03/06,1019,1022,1014,1021,6504960,1021
2013/03/07,1030,1032,1021,1023,3877550,1023
2013/03/08,1031,1042,1029,1041,3991040,1041
2013/03/11,1053,1064,1048,1060,7772250,1060
2013/03/12,1068,1070,1054,1054,5365740,1054
2013/03/13,1050,1059,1049,1051,5209070,1051
2013/03/14,1057,1059,1048,1057,2655190,1057
2013/03/15,1066,1073,1062,1072,4525100,1072
2013/03/18,1059,1060,1048,1049,3845780,1049
2013/03/19,1059,1068,1059,1066,3266830,1066
2013/03/21,1075,1083,1075,1078,10716000,1078
2013/03/22,1071,1072,1057,1057,5265570,1057
2013/03/25,1072,1073,1064,1069,3078270,1069
2013/03/26,1062,1070,1061,1065,6772920,1065
2013/03/27,1072,1077,1071,1077,1807610,1077
2013/03/28,1074,1075,1058,1067,6135820,1067
2013/03/29,1068,1069,1057,1065,4411730,1065
2013/04/01,1060,1061,1027,1029,8836870,1029
2013/04/02,1014,1026,997,1018,7975340,1018
2013/04/03,1024,1038,1020,1038,9405390,1038
2013/04/04,1025,1067,1018,1067,14666300,1067
2013/04/05,1135,1138,1093,1095,14913630,1095
2013/04/08,1130,1133,1114,1131,6625940,1131
2013/04/09,1137,1145,1125,1130,13809690,1130
2013/04/10,1132,1153,1130,1151,6233110,1151
2013/04/11,1166,1178,1164,1178,7065800,1178
2013/04/12,1176,1182,1170,1180,6508550,1180
2013/04/15,1170,1177,1160,1165,6479300,1165
2013/04/16,1135,1159,1134,1151,13392310,1151
2013/04/17,1162,1170,1159,1167,8317180,1167
2013/04/18,1157,1170,1153,1155,6947260,1155
2013/04/19,1157,1161,1144,1156,4402440,1156
2013/04/22,1177,1186,1174,1177,7117290,1177
2013/04/23,1174,1180,1171,1174,5744250,1174
2013/04/24,1187,1195,1183,1194,5958730,1194
2013/04/25,1199,1208,1196,1204,4713420,1204
2013/04/26,1208,1209,1192,1193,5981090,1193
2013/04/30,1188,1201,1188,1195,5355320,1195
2013/05/01,1196,1196,1187,1191,2588030,1191
2013/05/02,1185,1190,1179,1183,3659710,1183
2013/05/07,1213,1223,1213,1222,11071290,1222
2013/05/08,1224,1237,1222,1225,9080000,1225
2013/05/09,1233,1236,1214,1215,5102920,1215
2013/05/10,1243,1246,1235,1246,6744850,1246
2013/05/13,1259,1271,1258,1268,9172970,1268
2013/05/14,1272,1274,1264,1265,3357790,1265
2013/05/15,1284,1295,1282,1286,12839700,1286
2013/05/16,1294,1295,1266,1282,13233430,1282
2013/05/17,1277,1292,1272,1289,6973490,1289
2013/05/20,1301,1310,1298,1305,5068180,1305
2013/05/21,1304,1309,1300,1306,3097190,1306
2013/05/22,1315,1321,1311,1311,9464550,1311
2013/05/23,1316,1326,1220,1226,30287790,1226
2013/05/24,1243,1261,1181,1231,19468770,1231
2013/05/27,1195,1205,1185,1185,10863850,1185
2013/05/28,1171,1207,1170,1201,8834780,1201
2013/05/29,1229,1231,1203,1212,8031690,1212
2013/05/30,1186,1199,1159,1166,15550780,1166
2013/05/31,1184,1200,1163,1200,7105610,1200
2013/06/03,1151,1152,1125,1125,9628500,1125
2013/06/04,1116,1162,1106,1157,10062720,1157
2013/06/05,1156,1171,1120,1120,6768460,1120
2013/06/06,1101,1131,1099,1102,11870440,1102
2013/06/07,1081,1109,1062,1081,13804730,1081
2013/06/10,1125,1143,1121,1143,9025570,1143
2013/06/11,1146,1151,1125,1131,5710080,1131
2013/06/12,1110,1134,1102,1127,3539840,1127
2013/06/13,1104,1105,1068,1075,7418330,1075
2013/06/14,1102,1110,1085,1087,6410350,1087
2013/06/17,1083,1117,1078,1116,5384890,1116
2013/06/18,1118,1127,1109,1117,3604720,1117
2013/06/19,1139,1144,1126,1136,4435320,1136
2013/06/20,1130,1135,1118,1123,6610880,1123
2013/06/21,1093,1135,1088,1130,6783510,1130
2013/06/24,1143,1145,1117,1119,6235450,1119
2013/06/25,1122,1128,1095,1108,4321710,1108
2013/06/26,1126,1127,1099,1100,6204000,1100
2013/06/27,1113,1131,1102,1131,5516600,1131
2013/06/28,1148,1173,1146,1168,7761180,1168
2013/07/01,1177,1185,1163,1184,4124630,1184
2013/07/02,1197,1205,1190,1205,7046430,1205
2013/07/03,1207,1213,1200,1213,3907050,1213
2013/07/04,1201,1209,1199,1203,3583130,1203
2013/07/05,1212,1223,1211,1223,3926490,1223
2013/07/08,1218,1220,1187,1189,10190250,1189
2013/07/09,1204,1213,1197,1211,4268450,1211
2013/07/10,1214,1220,1201,1212,6232150,1212
2013/07/11,1201,1213,1196,1210,3716980,1210
2013/07/12,1213,1222,1210,1218,3501240,1218
2013/07/16,1226,1229,1222,1223,4580440,1223
2013/07/17,1218,1229,1218,1225,4475200,1225
2013/07/18,1230,1239,1230,1238,3190010,1238
2013/07/19,1244,1248,1213,1225,6537840,1225
2013/07/22,1238,1240,1222,1232,4939100,1232
2013/07/23,1224,1240,1223,1238,3849150,1238
2013/07/24,1235,1237,1228,1234,1534370,1234
2013/07/25,1233,1236,1215,1217,4425380,1217
2013/07/26,1197,1200,1179,1181,5434180,1181
2013/07/29,1155,1163,1142,1142,5312920,1142
2013/07/30,1142,1168,1140,1162,4364140,1162
2013/07/31,1156,1163,1143,1143,4535200,1143
2013/08/01,1148,1178,1148,1176,3531380,1176
2013/08/02,1194,1212,1189,1212,4355330,1212
2013/08/05,1200,1205,1194,1198,3530730,1198
2013/08/06,1197,1208,1183,1207,3451580,1207
2013/08/07,1184,1191,1168,1168,5740600,1168
2013/08/08,1163,1181,1150,1154,3305360,1154
2013/08/09,1158,1167,1150,1156,5748850,1156
2013/08/12,1148,1158,1142,1146,2542040,1146
2013/08/13,1162,1172,1159,1171,3750760,1171
2013/08/14,1178,1187,1166,1187,2803910,1187
2013/08/15,1171,1180,1162,1166,4449640,1166
2013/08/16,1150,1163,1149,1155,3106150,1155
2013/08/19,1154,1164,1151,1164,2273550,1164
2013/08/20,1153,1164,1139,1141,4514230,1141
2013/08/21,1140,1143,1125,1137,5875900,1137
2013/08/22,1130,1142,1126,1136,4010190,1136
2013/08/23,1153,1165,1150,1156,4421200,1156
2013/08/26,1162,1163,1149,1154,1955810,1154
2013/08/27,1148,1158,1146,1148,2055330,1148
2013/08/28,1122,1134,1118,1129,3826290,1129
2013/08/29,1128,1139,1125,1139,3197670,1139
2013/08/30,1139,1144,1117,1117,3400060,1117
2013/09/02,1124,1135,1121,1133,3505190,1133
2013/09/03,1148,1165,1148,1164,3573900,1164
2013/09/04,1154,1173,1153,1171,5797410,1171
2013/09/05,1177,1179,1165,1172,2735870,1172
2013/09/06,1175,1178,1158,1162,5488820,1162
2013/09/09,1198,1199,1182,1189,5841180,1189
2013/09/10,1196,1208,1196,1203,5133960,1203
2013/09/11,1212,1215,1201,1204,3563250,1204
2013/09/12,1204,1204,1193,1199,2423760,1199
2013/09/13,1197,1206,1189,1199,2241650,1199
2013/09/17,1204,1208,1195,1195,3557730,1195
2013/09/18,1203,1216,1200,1209,3721510,1209
2013/09/19,1220,1231,1214,1231,6158730,1231
2013/09/20,1236,1237,1231,1233,5248980,1233
2013/09/24,1224,1234,1221,1231,3248150,1231
2013/09/25,1230,1231,1222,1225,1858470,1225
2013/09/26,1225,1245,1214,1245,7950750,1245
2013/09/27,1246,1248,1239,1241,3098500,1241
2013/09/30,1219,1229,1215,1216,4220850,1216
2013/10/01,1219,1227,1215,1215,3799880,1215
2013/10/02,1216,1223,1193,1199,7961870,1199
2013/10/03,1197,1203,1194,1196,2398370,1196
2013/10/04,1187,1195,1178,1187,3655090,1187
2013/10/07,1187,1188,1169,1169,3389380,1169
2013/10/08,1165,1175,1161,1175,3706170,1175
2013/10/09,1165,1190,1160,1190,5063630,1190
2013/10/10,1194,1202,1190,1202,5179060,1202
2013/10/11,1218,1226,1215,1222,4967660,1222
2013/10/15,1230,1230,1219,1221,1861510,1221
2013/10/16,1220,1224,1216,1220,1518250,1220
2013/10/17,1232,1237,1222,1230,3317960,1230
2013/10/18,1230,1233,1224,1229,3733650,1229
2013/10/21,1235,1240,1231,1236,2063470,1236
2013/10/22,1237,1240,1233,1236,1265320,1236
2013/10/23,1243,1247,1217,1217,4504740,1217
2013/10/24,1213,1228,1208,1225,3306800,1225
2013/10/25,1225,1225,1201,1201,4159820,1201
2013/10/28,1215,1222,1207,1222,3432470,1222
2013/10/29,1215,1222,1211,1217,1556970,1217
2013/10/30,1226,1232,1223,1227,5185810,1227
2013/10/31,1227,1231,1216,1217,2942650,1217
2013/11/01,1224,1224,1200,1206,5771710,1206
2013/11/05,1216,1218,1199,1205,3785650,1205
2013/11/06,1202,1222,1202,1216,3062750,1216
2013/11/07,1217,1217,1206,1209,1842570,1209
2013/11/08,1195,1202,1193,1199,3195040,1199
2013/11/11,1214,1217,1204,1208,1938020,1208
2013/11/12,1210,1229,1209,1229,5166230,1229
2013/11/13,1226,1234,1222,1228,3083830,1228
2013/11/14,1234,1248,1232,1241,6378330,1241
2013/11/15,1253,1266,1252,1264,7579690,1264
2013/11/18,1270,1272,1262,1267,3907530,1267
2013/11/19,1260,1265,1256,1262,2319470,1262
2013/11/20,1264,1266,1255,1258,2131790,1258
2013/11/21,1263,1272,1261,1270,4244300,1270
2013/11/22,1280,1283,1267,1273,5280980,1273
2013/11/25,1279,1285,1277,1285,2588020,1285
2013/11/26,1277,1283,1275,1279,2478640,1279
2013/11/27,1271,1279,1269,1269,2872830,1269
2013/11/28,1282,1286,1279,1285,3449510,1285
2013/11/29,1279,1285,1272,1282,4110420,1282
2013/12/02,1284,1289,1279,1282,4823860,1282
2013/12/03,1288,1292,1282,1287,5624130,1287
2013/12/04,1274,1278,1263,1266,5488070,1266
2013/12/05,1264,1270,1251,1252,4379840,1252
2013/12/06,1250,1262,1250,1261,4038570,1261
2013/12/09,1277,1281,1275,1280,4720460,1280
2013/12/10,1281,1283,1276,1282,4731770,1282
2013/12/11,1275,1279,1267,1275,4129430,1275
2013/12/12,1266,1269,1260,1267,5092490,1267
2013/12/13,1274,1276,1255,1263,8043320,1263
2013/12/16,1262,1265,1246,1248,7735680,1248
2013/12/17,1257,1259,1253,1258,2913590,1258
2013/12/18,1254,1276,1254,1274,4633240,1274
2013/12/19,1287,1294,1284,1286,6904700,1286
2013/12/20,1285,1287,1280,1283,4479300,1283
2013/12/24,1290,1293,1278,1283,7056850,1283
2013/12/25,1279,1283,1276,1283,3915190,1283
2013/12/26,1289,1307,1288,1305,5023720,1305
2013/12/27,1310,1317,1301,1317,3097400,1317
2013/12/30,1325,1329,1321,1328,6415790,1328
2014/01/06,1323,1328,1309,1317,6371220,1317
2014/01/07,1313,1318,1307,1310,3506150,1310
2014/01/08,1319,1332,1316,1332,4295960,1332
2014/01/09,1330,1330,1316,1321,5548960,1321
2014/01/10,1316,1325,1311,1323,7267990,1323
2014/01/14,1300,1304,1290,1295,11628810,1295
2014/01/15,1314,1321,1309,1320,6366820,1320
2014/01/16,1326,1335,1320,1320,3968920,1320
2014/01/17,1317,1326,1315,1323,4135720,1323
2014/01/20,1323,1325,1314,1319,3014280,1319
2014/01/21,1322,1331,1321,1321,3446620,1321
2014/01/22,1322,1329,1312,1327,5062070,1327
2014/01/23,1334,1334,1313,1314,5216690,1314
2014/01/24,1296,1298,1283,1289,9123080,1289
2014/01/27,1256,1262,1251,1256,7940790,1256
2014/01/28,1258,1262,1250,1251,3987230,1251
2014/01/29,1267,1283,1265,1283,3816450,1283
2014/01/30,1253,1256,1242,1249,6161660,1249
2014/01/31,1262,1262,1235,1243,3428330,1243
2014/02/03,1236,1242,1220,1221,4230280,1221
2014/02/04,1182,1190,1162,1163,11087420,1163
2014/02/05,1185,1191,1169,1187,6048070,1187
2014/02/06,1191,1194,1182,1187,4281990,1187
2014/02/07,1208,1214,1201,1213,3151300,1213
2014/02/10,1235,1235,1218,1229,2898020,1229
2014/02/12,1244,1251,1241,1246,3172460,1246
2014/02/13,1246,1246,1221,1223,3572560,1223
2014/02/14,1226,1234,1197,1208,4370820,1208
2014/02/17,1208,1218,1197,1217,3428930,1217
2014/02/18,1223,1252,1220,1249,5142760,1249
2014/02/19,1244,1247,1236,1244,2023330,1244
2014/02/20,1236,1240,1216,1218,5451250,1218
2014/02/21,1232,1248,1232,1248,5981800,1248
2014/02/24,1244,1259,1229,1244,6508700,1244
2014/02/25,1253,1260,1250,1260,4884910,1260
2014/02/26,1246,1259,1245,1247,2697640,1247
2014/02/27,1245,1252,1238,1241,2094440,1241
2014/02/28,1240,1242,1227,1234,4008090,1234
2014/03/03,1220,1224,1204,1219,5146990,1219
2014/03/04,1210,1233,1210,1228,3777960,1228
2014/03/05,1246,1249,1237,1238,3216330,1238
2014/03/06,1239,1257,1236,1253,3851550,1253
2014/03/07,1264,1267,1253,1263,4298870,1263
2014/03/10,1254,1260,1247,1251,2166760,1251
2014/03/11,1256,1262,1251,1257,2086810,1257
2014/03/12,1242,1243,1230,1232,5367380,1232
2014/03/13,1230,1236,1224,1226,4710490,1226
2014/03/14,1204,1204,1186,1189,7328790,1189
2014/03/17,1183,1188,1171,1178,5340660,1178
2014/03/18,1201,1201,1189,1190,2303500,1190
2014/03/19,1196,1206,1181,1188,3844130,1188
2014/03/20,1194,1197,1170,1170,3166570,1170
2014/03/24,1173,1196,1173,1188,3698330,1188
2014/03/25,1180,1196,1178,1187,2772470,1187
2014/03/26,1197,1202,1188,1197,2111170,1197
2014/03/27,1181,1216,1181,1214,4204630,1214
2014/03/28,1208,1223,1204,1223,2512840,1223
2014/03/31,1234,1241,1225,1237,3268920,1237
2014/04/01,1241,1244,1233,1240,4786200,1240
2014/04/02,1245,1260,1244,1247,4688340,1247
2014/04/03,1251,1260,1249,1254,4798930,1254
2014/04/04,1250,1255,1249,1251,2470860,1251
2014/04/07,1236,1242,1229,1233,2629280,1233
2014/04/08,1224,1224,1208,1208,4076160,1208
2014/04/09,1195,1199,1181,1184,5738050,1184
2014/04/10,1199,1203,1180,1185,2408010,1185
2014/04/11,1159,1175,1153,1169,4606020,1169
2014/04/14,1163,1179,1161,1169,2625090,1169
2014/04/15,1179,1180,1168,1172,2726150,1172
2014/04/16,1182,1202,1181,1202,2488550,1202
2014/04/17,1201,1210,1197,1200,3071710,1200
2014/04/18,1206,1209,1201,1209,942460,1209
2014/04/21,1211,1218,1205,1207,2245390,1207
2014/04/22,1212,1214,1196,1198,1433300,1198
2014/04/23,1204,1209,1202,1208,2786240,1208
2014/04/24,1209,1210,1195,1200,1598420,1200
2014/04/25,1198,1213,1195,1204,2931030,1204
2014/04/28,1191,1197,1189,1196,3497250,1196
2014/04/30,1204,1206,1195,1198,2703910,1198
2014/05/01,1202,1218,1202,1218,3686480,1218
2014/05/02,1213,1218,1211,1216,2078510,1216
2014/05/07,1202,1205,1186,1186,6453160,1186
2014/05/08,1192,1203,1190,1196,3176940,1196
2014/05/09,1187,1206,1187,1202,2035540,1202
2014/05/12,1198,1205,1192,1194,2649930,1194
2014/05/13,1213,1217,1210,1215,3421980,1215
2014/05/14,1211,1219,1210,1219,1595860,1219
2014/05/15,1206,1214,1199,1212,3460510,1212
2014/05/16,1195,1196,1186,1196,7573830,1196
2014/05/19,1193,1198,1183,1187,2048700,1187
2014/05/20,1191,1195,1185,1190,2706100,1190
2014/05/21,1181,1187,1178,1187,4861240,1187
2014/05/22,1196,1209,1191,1205,4579450,1205
2014/05/23,1211,1223,1211,1216,6993280,1216
2014/05/26,1227,1231,1225,1231,2191880,1231
2014/05/27,1230,1241,1230,1232,5152460,1232
2014/05/28,1233,1239,1230,1233,3003690,1233
2014/05/29,1230,1241,1228,1238,2769840,1238
2014/05/30,1240,1242,1234,1234,3436490,1234
2014/06/02,1247,1260,1247,1258,4814240,1258
2014/06/03,1268,1271,1264,1264,4683290,1264
2014/06/04,1267,1271,1264,1269,2974950,1269
2014/06/05,1272,1277,1266,1271,2731720,1271
2014/06/06,1274,1277,1270,1272,4326100,1272
2014/06/09,1279,1282,1272,1273,1980260,1273
2014/06/10,1272,1279,1263,1266,4209040,1266
2014/06/11,1268,1280,1266,1280,6562840,1280
2014/06/12,1270,1278,1264,1274,3999700,1274
2014/06/13,1264,1285,1263,1282,3163030,1282
2014/06/16,1278,1280,1267,1273,2749040,1273
2014/06/17,1274,1280,1273,1276,2217440,1276
2014/06/18,1279,1288,1277,1288,2731870,1288
2014/06/19,1288,1308,1288,1306,7767170,1306
2014/06/20,1307,1313,1303,1306,4348090,1306
2014/06/23,1310,1312,1303,1306,4070490,1306
2014/06/24,1303,1311,1296,1307,4563510,1307
2014/06/25,1303,1306,1299,1299,7174870,1299
2014/06/26,1305,1307,1300,1303,2390970,1303
2014/06/27,1300,1303,1284,1293,3917320,1293
2014/06/30,1295,1303,1289,1302,2914280,1302
2014/07/01,1305,1320,1303,1317,2710270,1317
2014/07/02,1323,1326,1318,1320,2720390,1320
2014/07/03,1324,1325,1315,1319,3438880,1319
2014/07/04,1328,1330,1323,1323,5427760,1323
2014/07/07,1323,1327,1318,1318,5656940,1318
2014/07/08,1292,1301,1286,1294,4228930,1294
2014/07/09,1284,1292,1282,1289,2454830,1289
2014/07/10,1293,1293,1277,1278,1756150,1278
2014/07/11,1269,1276,1266,1275,3455340,1275
2014/07/14,1277,1287,1274,1285,1191860,1285
2014/07/15,1288,1298,1288,1292,1401850,1292
2014/07/16,1291,1297,1290,1294,1168080,1294
2014/07/17,1297,1299,1289,1293,2461200,1293
2014/07/18,1276,1283,1272,1283,3847930,1283
2014/07/22,1289,1295,1288,1291,1695100,1291
2014/07/23,1292,1296,1289,1291,1436380,1291
2014/07/24,1292,1296,1285,1290,2210110,1290
2014/07/25,1294,1300,1292,1300,3378970,1300
2014/07/28,1296,1307,1296,1304,5113350,1304
2014/07/29,1307,1311,1306,1310,4886910,1310
2014/07/30,1310,1312,1307,1311,3324890,1311
2014/07/31,1317,1320,1307,1308,4522730,1308
2014/08/01,1297,1305,1297,1301,4358860,1301
2014/08/04,1296,1300,1291,1295,2224540,1295
2014/08/05,1296,1298,1281,1281,3159270,1281
2014/08/06,1279,1279,1267,1271,5033350,1271
2014/08/07,1270,1278,1261,1278,5009370,1278
2014/08/08,1267,1267,1243,1248,7049720,1248
2014/08/11,1269,1273,1260,1271,2555070,1271
2014/08/12,1274,1281,1274,1277,2064430,1277
2014/08/13,1273,1282,1272,1279,1400200,1279
2014/08/14,1287,1290,1284,1288,2552620,1288
2014/08/15,1288,1291,1285,1288,1436640,1288
2014/08/18,1290,1292,1286,1289,1133310,1289
2014/08/19,1297,1301,1296,1300,2465980,1300
2014/08/20,1303,1304,1297,1300,1823020,1300
2014/08/21,1302,1311,1302,1310,2826580,1310
2014/08/22,1313,1314,1302,1304,3440960,1304
2014/08/25,1309,1311,1306,1311,1078900,1311
2014/08/26,1309,1312,1304,1304,1051350,1304
2014/08/27,1305,1311,1299,1306,1721890,1306
2014/08/28,1300,1300,1294,1300,1818710,1300
2014/08/29,1295,1301,1293,1295,1739230,1295
2014/09/01,1299,1303,1298,1303,1014350,1303
2014/09/02,1305,1321,1304,1317,3869640,1317
2014/09/03,1324,1326,1319,1322,2761180,1322
2014/09/04,1320,1321,1314,1316,891420,1316
2014/09/05,1323,1324,1310,1313,2012390,1313
2014/09/08,1316,1318,1311,1318,1263970,1318
2014/09/09,1325,1326,1319,1320,1582000,1320
2014/09/10,1313,1327,1312,1327,1655160,1327
2014/09/11,1331,1334,1328,1332,3321650,1332
2014/09/12,1332,1335,1327,1332,4695120,1332
2014/09/16,1332,1332,1327,1331,2267970,1331
2014/09/17,1331,1334,1324,1324,2882560,1324
2014/09/18,1333,1341,1333,1338,3678570,1338
2014/09/19,1343,1357,1341,1350,4130380,1350
2014/09/22,1352,1355,1345,1352,3792570,1352
2014/09/24,1339,1348,1339,1347,2669450,1347
2014/09/25,1359,1366,1356,1366,3060330,1366
2014/09/26,1352,1362,1351,1361,3775470,1361
2014/09/29,1370,1370,1362,1367,1962170,1367
2014/09/30,1362,1362,1343,1353,2073620,1353
2014/10/01,1356,1360,1347,1348,1496900,1348
2014/10/02,1331,1332,1306,1309,7302770,1309
2014/10/03,1302,1313,1301,1311,3919060,1311
2014/10/06,1327,1333,1321,1324,2569490,1324
2014/10/07,1324,1332,1317,1320,2621030,1320
2014/10/08,1299,1307,1296,1305,2262750,1305
2014/10/09,1308,1311,1287,1289,2858940,1289
2014/10/10,1265,1273,1263,1270,6167570,1270
2014/10/14,1243,1253,1238,1243,5680320,1243
2014/10/15,1247,1253,1238,1252,3258050,1252
2014/10/16,1223,1229,1217,1221,14468620,1221
2014/10/17,1225,1227,1202,1204,4947110,1204
2014/10/20,1238,1254,1235,1252,6154960,1252
2014/10/21,1255,1255,1227,1233,4163060,1233
2014/10/22,1254,1264,1250,1263,2273640,1263
2014/10/23,1258,1265,1250,1261,2344830,1261
2014/10/24,1278,1278,1265,1270,2959360,1270
2014/10/27,1280,1286,1275,1283,1590910,1283
2014/10/28,1278,1283,1273,1280,1936130,1280
2014/10/29,1287,1302,1287,1299,6543730,1299
2014/10/30,1303,1311,1301,1307,4188440,1307
2014/10/31,1321,1367,1321,1363,14224220,1363
2014/11/04,1423,1429,1396,1398,31176710,1398
2014/11/05,1387,1403,1387,1401,11270590,1401
2014/11/06,1406,1409,1382,1387,6700150,1387
2014/11/07,1395,1399,1391,1394,8024040,1394
2014/11/10,1385,1392,1382,1388,3118590,1388
2014/11/11,1393,1409,1393,1404,9452700,1404
2014/11/12,1417,1424,1405,1409,5892560,1409
2014/11/13,1407,1421,1400,1419,4562320,1419
2014/11/14,1431,1435,1415,1432,5533310,1432
2014/11/17,1423,1426,1392,1395,7196390,1395
2014/11/18,1413,1427,1413,1424,4054850,1424
2014/11/19,1430,1440,1425,1427,3584360,1427
2014/11/20,1435,1437,1426,1428,2354650,1428
2014/11/21,1429,1432,1414,1431,4213450,1431
2014/11/25,1444,1445,1436,1440,3078300,1440
2014/11/26,1434,1443,1434,1438,3864530,1438
2014/11/27,1432,1433,1420,1421,2768530,1421
2014/11/28,1426,1441,1426,1441,2941810,1441
2014/12/01,1443,1459,1443,1453,2573060,1453
2014/12/02,1445,1462,1444,1460,8194490,1460
2014/12/03,1468,1473,1459,1462,3373390,1462
2014/12/04,1473,1475,1468,1472,2519450,1472
2014/12/05,1471,1478,1465,1478,2183780,1478
2014/12/08,1484,1487,1473,1479,3739150,1479
2014/12/09,1467,1475,1465,1468,3418930,1468
2014/12/10,1452,1457,1430,1436,6304310,1436
2014/12/11,1412,1431,1408,1429,4027330,1429
2014/12/12,1429,1447,1425,1432,9002770,1432
2014/12/15,1413,1423,1408,1411,3379400,1411
2014/12/16,1390,1396,1380,1382,8911800,1382
2014/12/17,1375,1392,1374,1381,5379570,1381
2014/12/18,1417,1421,1404,1407,3482540,1407
2014/12/19,1437,1441,1427,1441,3809390,1441
2014/12/22,1446,1449,1438,1444,2279410,1444
2014/12/24,1460,1461,1454,1457,2254880,1457
2014/12/25,1453,1456,1449,1452,1214190,1452
2014/12/26,1451,1462,1451,1461,1041560,1461
2014/12/29,1466,1467,1442,1459,1900260,1459
2014/12/30,1457,1457,1439,1442,2129770,1442
2015/01/05,1431,1443,1419,1433,2245100,1433
2015/01/06,1407,1408,1391,1394,4340570,1394
2015/01/07,1384,1400,1382,1393,2763240,1393
2015/01/08,1405,1416,1403,1411,2386340,1411
2015/01/09,1419,1420,1407,1413,2318610,1413
2015/01/13,1395,1408,1384,1408,4057100,1408
2015/01/14,1397,1404,1387,1389,3255240,1389
2015/01/15,1392,1413,1391,1408,3782770,1408
2015/01/16,1383,1396,1374,1394,3881820,1394
2015/01/19,1406,1407,1396,1404,2485380,1404
2015/01/20,1406,1430,1406,1430,3355440,1430
2015/01/21,1424,1427,1414,1421,2687220,1421
2015/01/22,1422,1424,1412,1422,1266470,1422
2015/01/23,1436,1437,1431,1436,2863840,1436
2015/01/26,1419,1434,1419,1433,764800,1433
2015/01/27,1446,1459,1446,1457,3367840,1457
2015/01/28,1445,1468,1445,1464,5302440,1464
2015/01/29,1448,1458,1443,1445,1681700,1445
2015/01/30,1456,1463,1447,1447,4207130,1447
2015/02/02,1433,1445,1429,1442,5996810,1442
2015/02/03,1449,1449,1419,1424,3553200,1424
2015/02/04,1443,1458,1441,1449,3897780,1449
2015/02/05,1449,1453,1439,1443,2813940,1443
2015/02/06,1456,1457,1447,1450,1721300,1450
2015/02/09,1463,1464,1450,1457,3606350,1457
2015/02/10,1456,1461,1452,1460,3095280,1460
2015/02/12,1478,1489,1478,1483,7950850,1483
2015/02/13,1481,1486,1479,1483,2583400,1483
2015/02/16,1490,1498,1487,1493,1899780,1493
2015/02/17,1490,1497,1486,1495,2164080,1495
2015/02/18,1509,1519,1507,1517,3168370,1517
2015/02/19,1520,1531,1520,1529,4048450,1529
2015/02/20,1534,1536,1528,1534,2300000,1534
2015/02/23,1546,1548,1529,1537,3909030,1537
2015/02/24,1538,1544,1532,1543,3115490,1543
2015/02/25,1549,1550,1540,1544,7431260,1544
2015/02/26,1541,1558,1541,1558,4110800,1558
2015/02/27,1561,1565,1553,1560,4087360,1560
2015/03/02,1562,1569,1559,1560,2728540,1560
2015/03/03,1569,1569,1553,1564,2586430,1564
2015/03/04,1557,1557,1538,1554,3150660,1554
2015/03/05,1551,1561,1550,1560,3398180,1560
2015/03/06,1561,1577,1561,1577,4238980,1577
2015/03/09,1570,1572,1560,1566,2507570,1566
2015/03/10,1575,1577,1553,1560,2094380,1560
2015/03/11,1550,1568,1550,1562,3056340,1562
2015/03/12,1565,1586,1565,1585,2602320,1585
2015/03/13,1598,1605,1588,1599,4295540,1599
2015/03/16,1594,1605,1591,1597,3278840,1597
2015/03/17,1607,1614,1603,1609,2466110,1609
2015/03/18,1609,1623,1607,1622,1793340,1622
2015/03/19,1621,1625,1601,1613,4527520,1613
2015/03/20,1615,1618,1605,1618,2995200,1618
2015/03/23,1622,1632,1620,1630,2865030,1630
2015/03/24,1624,1628,1615,1623,3432290,1623
2015/03/25,1626,1630,1612,1629,4308780,1629
2015/03/26,1617,1618,1598,1606,4125030,1606
2015/03/27,1602,1623,1583,1595,12531080,1595
2015/03/30,1600,1610,1591,1607,5426240,1607
2015/03/31,1626,1628,1590,1590,4219900,1590
2015/04/01,1582,1589,1566,1576,6693490,1576
2015/04/02,1584,1614,1583,1601,4634710,1601
2015/04/03,1601,1613,1600,1613,2874400,1613
2015/04/06,1601,1611,1596,1610,2390530,1610
2015/04/07,1622,1633,1619,1628,3105020,1628
2015/04/08,1634,1643,1630,1637,3784450,1637
2015/04/09,1643,1646,1636,1644,3258340,1644
2015/04/10,1646,1647,1632,1641,1838290,1641
2015/04/13,1641,1642,1627,1635,2058660,1635
2015/04/14,1633,1642,1632,1640,2944220,1640
2015/04/15,1632,1643,1632,1638,2712020,1638
2015/04/16,1638,1650,1631,1650,3706050,1650
2015/04/17,1645,1648,1636,1638,2591620,1638
2015/04/20,1626,1641,1617,1630,1813400,1630
2015/04/21,1638,1658,1636,1658,3176920,1658
2015/04/22,1663,1677,1661,1672,3149710,1672
2015/04/23,1679,1686,1665,1675,3141910,1675
2015/04/24,1672,1675,1666,1671,1422760,1671
2015/04/27,1671,1674,1662,1668,2026000,1668
2015/04/28,1674,1682,1674,1680,1758280,1680
2015/04/30,1655,1658,1637,1640,4181450,1640
2015/05/01,1636,1639,1621,1635,2563630,1635
2015/05/07,1623,1636,1620,1626,3005800,1626
2015/05/08,1626,1644,1623,1640,1917510,1640
2015/05/11,1661,1664,1647,1648,2399640,1648
2015/05/12,1649,1652,1636,1652,2113310,1652
2015/05/13,1645,1657,1638,1653,2132530,1653
2015/05/14,1645,1652,1639,1641,2393950,1641
2015/05/15,1651,1660,1646,1657,2205650,1657
2015/05/18,1662,1678,1662,1678,2460260,1678
2015/05/19,1682,1690,1681,1685,3416370,1685
2015/05/20,1697,1703,1692,1697,3430410,1697
2015/05/21,1698,1708,1695,1698,2729740,1698
2015/05/22,1700,1701,1690,1699,2027950,1699
2015/05/25,1708,1713,1705,1712,1818610,1712
2015/05/26,1712,1715,1708,1711,1466650,1711
2015/05/27,1708,1718,1705,1714,2966700,1714
2015/05/28,1723,1733,1719,1726,3578780,1726
2015/05/29,1726,1734,1722,1722,2976460,1722
2015/06/01,1716,1734,1713,1731,2319600,1731
2015/06/02,1734,1736,1722,1726,2020980,1726
2015/06/03,1720,1726,1715,1723,2364210,1723
2015/06/04,1727,1730,1721,1727,2832480,1727
2015/06/05,1717,1722,1711,1719,3972150,1719
2015/06/08,1726,1726,1710,1716,2214580,1716
2015/06/09,1702,1705,1685,1687,6856340,1687
2015/06/10,1686,1700,1678,1680,3129360,1680
2015/06/11,1691,1705,1691,1702,1904670,1702
2015/06/12,1707,1709,1698,1704,1348540,1704
2015/06/15,1691,1706,1688,1704,1458100,1704
2015/06/16,1698,1701,1689,1691,1102610,1691
2015/06/17,1697,1698,1681,1686,1701010,1686
2015/06/18,1683,1684,1667,1668,3707450,1668
2015/06/19,1683,1687,1676,1682,3782350,1682
2015/06/22,1684,1702,1683,1700,2110840,1700
2015/06/23,1711,1730,1710,1730,5926360,1730
2015/06/24,1736,1740,1731,1733,4012260,1733
2015/06/25,1723,1731,1721,1722,5968390,1722
2015/06/26,1718,1726,1709,1719,4826410,1719
2015/06/29,1669,1693,1667,1678,4887980,1678
2015/06/30,1679,1687,1674,1681,2646790,1681
2015/07/01,1687,1691,1680,1689,2297680,1689
