2011/01/04,3760,3820,3755,3820,7090,3820
2011/01/05,3795,3810,3770,3800,3310,3800
2011/01/06,3815,3915,3815,3850,21700,3850
2011/01/07,3840,3935,3840,3900,9850,3900
2011/01/11,3850,3880,3830,3880,11180,3880
2011/01/12,3890,3890,3865,3875,3770,3875
2011/01/13,3890,3890,3875,3880,2160,3880
2011/01/14,3880,3880,3810,3820,2700,3820
2011/01/17,3820,3835,3770,3780,5350,3780
2011/01/18,3745,3795,3740,3775,5440,3775
2011/01/19,3795,3795,3750,3790,2730,3790
2011/01/20,3790,3810,3730,3765,4630,3765
2011/01/21,3745,3775,3740,3750,7550,3750
2011/01/24,3735,3745,3710,3715,28050,3715
2011/01/25,3710,3725,3695,3700,6270,3700
2011/01/26,3700,3700,3650,3690,11840,3690
2011/01/27,3690,3730,3655,3700,3820,3700
2011/01/28,3730,3730,3680,3695,1950,3695
2011/01/31,3650,3695,3635,3680,5010,3680
2011/02/01,3690,3700,3650,3655,4370,3655
2011/02/02,3670,3700,3670,3685,4370,3685
2011/02/03,3675,3700,3675,3700,1830,3700
2011/02/04,3685,3700,3685,3700,1510,3700
2011/02/07,3685,3725,3685,3715,5100,3715
2011/02/08,3720,3730,3715,3720,3430,3720
2011/02/09,3720,3735,3680,3700,8970,3700
2011/02/10,3700,3710,3675,3700,3920,3700
2011/02/14,3720,3770,3700,3740,17660,3740
2011/02/15,3770,3785,3750,3780,5560,3780
2011/02/16,3755,3785,3750,3785,5640,3785
2011/02/17,3790,3810,3775,3800,10190,3800
2011/02/18,3800,3855,3780,3830,26800,3830
2011/02/21,3830,3830,3750,3785,5900,3785
2011/02/22,3750,3770,3700,3700,9380,3700
2011/02/23,3650,3720,3635,3695,7860,3695
2011/02/24,3660,3695,3650,3660,4880,3660
2011/02/25,3665,3680,3640,3660,4650,3660
2011/02/28,3660,3690,3660,3690,2410,3690
2011/03/01,3695,3715,3695,3710,2240,3710
2011/03/02,3680,3690,3665,3685,4050,3685
2011/03/03,3700,3765,3685,3765,13620,3765
2011/03/04,3710,3760,3700,3740,6440,3740
2011/03/07,3755,3780,3725,3765,14830,3765
2011/03/08,3750,3765,3740,3765,1560,3765
2011/03/09,3785,3785,3740,3745,1960,3745
2011/03/10,3715,3745,3680,3700,5060,3700
2011/03/11,3670,3675,3615,3670,10290,3670
2011/03/14,3505,3570,3400,3500,62460,3500
2011/03/15,3485,3485,3105,3290,46400,3290
2011/03/16,3220,3640,3210,3510,47080,3510
2011/03/17,3340,3530,3340,3490,12540,3490
2011/03/18,3500,3540,3410,3470,23400,3470
2011/03/22,3500,3520,3475,3495,4810,3495
2011/03/23,3495,3495,3405,3430,16220,3430
2011/03/24,3460,3470,3430,3430,2700,3430
2011/03/25,3450,3485,3400,3455,11690,3455
2011/03/28,3505,3520,3455,3460,4490,3460
2011/03/29,3475,3510,3465,3490,2310,3490
2011/03/30,3500,3520,3490,3505,4010,3505
2011/03/31,3520,3580,3515,3570,13440,3570
2011/04/01,3580,3595,3565,3595,4780,3595
2011/04/04,3645,3685,3640,3675,5040,3675
2011/04/05,3685,3710,3670,3700,4840,3700
2011/04/06,3715,3795,3710,3795,6890,3795
2011/04/07,3800,3855,3795,3850,11870,3850
2011/04/08,3835,3835,3785,3830,4260,3830
2011/04/11,3780,3835,3770,3815,8800,3815
2011/04/12,3775,3780,3750,3780,4450,3780
2011/04/13,3745,3770,3710,3755,5460,3755
2011/04/14,3760,3775,3750,3760,2710,3760
2011/04/15,3735,3760,3725,3735,8210,3735
2011/04/18,3710,3730,3695,3720,3140,3720
2011/04/19,3655,3695,3655,3675,6010,3675
2011/04/20,3660,3695,3660,3665,2740,3665
2011/04/21,3700,3760,3685,3750,6290,3750
2011/04/22,3780,3780,3745,3750,3620,3750
2011/04/25,3705,3740,3695,3705,2560,3705
2011/04/26,3705,3705,3675,3675,2890,3675
2011/04/27,3675,3720,3665,3705,4040,3705
2011/04/28,3685,3705,3675,3680,3060,3680
2011/05/02,3655,3680,3645,3675,5340,3675
2011/05/06,3595,3595,3560,3570,10170,3570
2011/05/09,3590,3610,3570,3610,1960,3610
2011/05/10,3610,3615,3570,3575,3950,3575
2011/05/11,3680,3690,3600,3660,16020,3660
2011/05/12,3645,3655,3635,3655,2140,3655
2011/05/13,3620,3630,3610,3620,4160,3620
2011/05/16,3620,3620,3605,3620,560,3620
2011/05/17,3595,3620,3590,3595,2130,3595
2011/05/18,3590,3645,3585,3640,2830,3640
2011/05/19,3640,3645,3630,3645,1790,3645
2011/05/20,3610,3635,3610,3620,1310,3620
2011/05/23,3600,3600,3520,3555,3080,3555
2011/05/24,3520,3560,3510,3540,1710,3540
2011/05/25,3580,3580,3550,3565,1980,3565
2011/05/26,3590,3590,3550,3565,4950,3565
2011/05/27,3565,3565,3525,3555,10520,3555
2011/05/30,3520,3545,3515,3530,2720,3530
2011/05/31,3550,3550,3500,3535,5750,3535
2011/06/01,3545,3575,3540,3575,13220,3575
2011/06/02,3520,3535,3510,3520,3940,3520
2011/06/03,3510,3535,3510,3535,1580,3535
2011/06/06,3500,3515,3480,3515,3780,3515
2011/06/07,3525,3525,3495,3510,1560,3510
2011/06/08,3515,3515,3465,3510,3750,3510
2011/06/09,3510,3530,3470,3480,2100,3480
2011/06/10,3480,3490,3455,3455,3710,3455
2011/06/13,3415,3440,3415,3430,2740,3430
2011/06/14,3420,3510,3420,3470,9220,3470
2011/06/15,3510,3525,3500,3515,7940,3515
2011/06/16,3465,3495,3465,3475,8810,3475
2011/06/17,3475,3485,3455,3470,2170,3470
2011/06/20,3450,3450,3395,3420,5580,3420
2011/06/21,3410,3440,3410,3430,1530,3430
2011/06/22,3460,3460,3430,3445,2350,3445
2011/06/23,3410,3435,3400,3420,2450,3420
2011/06/24,3415,3495,3415,3455,3100,3455
2011/06/27,3440,3485,3440,3470,3840,3470
2011/06/28,3500,3500,3470,3475,2400,3475
2011/06/29,3480,3510,3480,3480,2050,3480
2011/06/30,3495,3510,3480,3495,1930,3495
2011/07/01,3495,3500,3485,3485,2270,3485
2011/07/04,3520,3530,3490,3530,1860,3530
2011/07/05,3540,3540,3510,3530,2440,3530
2011/07/06,3530,3540,3515,3525,2330,3525
2011/07/07,3505,3550,3505,3540,2210,3540
2011/07/08,3555,3555,3530,3530,1800,3530
2011/07/11,3530,3530,3490,3500,5670,3500
2011/07/12,3490,3490,3470,3480,3810,3480
2011/07/13,3465,3500,3455,3485,590,3485
2011/07/14,3495,3510,3470,3480,2370,3480
2011/07/15,3455,3495,3455,3490,900,3490
2011/07/19,3460,3480,3430,3460,1160,3460
2011/07/20,3490,3490,3430,3440,710,3440
2011/07/21,3400,3445,3395,3400,4660,3400
2011/07/22,3400,3440,3380,3400,2640,3400
2011/07/25,3395,3405,3350,3380,5530,3380
2011/07/26,3355,3370,3340,3360,2830,3360
2011/07/27,3340,3360,3330,3360,1700,3360
2011/07/28,3320,3345,3320,3345,3430,3345
2011/07/29,3325,3330,3310,3315,5760,3315
2011/08/01,3300,3330,3300,3315,4490,3315
2011/08/02,3300,3320,3290,3295,3330,3295
2011/08/03,3255,3265,3230,3230,5550,3230
2011/08/04,3200,3270,3200,3265,6270,3265
2011/08/05,3160,3195,3140,3195,6770,3195
2011/08/08,3105,3175,3015,3035,9660,3035
2011/08/09,3020,3035,2890,2995,17020,2995
2011/08/10,3055,3095,3055,3055,4150,3055
2011/08/11,3010,3055,2995,3030,4930,3030
2011/08/12,3080,3095,3055,3085,2420,3085
2011/08/15,3090,3115,3090,3105,2740,3105
2011/08/16,3190,3230,3130,3165,4610,3165
2011/08/17,3165,3165,3130,3165,1420,3165
2011/08/18,3115,3120,3080,3105,2160,3105
2011/08/19,3005,3050,2998,2999,3380,2999
2011/08/22,2960,3000,2955,2955,2300,2955
2011/08/23,2956,3000,2930,2955,1350,2955
2011/08/24,3000,3000,2960,2960,780,2960
2011/08/25,2960,2993,2960,2965,1770,2965
2011/08/26,2960,2988,2960,2965,940,2965
2011/08/29,3000,3000,2965,2988,630,2988
2011/08/30,3040,3070,3040,3070,1060,3070
2011/08/31,3050,3070,3005,3055,8670,3055
2011/09/01,3025,3060,3025,3030,990,3030
2011/09/02,3015,3015,2950,2965,2850,2965
2011/09/05,2950,2979,2930,2930,1600,2930
2011/09/06,2905,2938,2876,2877,2800,2877
2011/09/07,2900,2938,2900,2915,1270,2915
2011/09/08,2932,2950,2921,2922,750,2922
2011/09/09,2930,2970,2922,2964,1370,2964
2011/09/12,2939,2959,2901,2910,1620,2910
2011/09/13,2902,2925,2870,2900,1000,2900
2011/09/14,2900,2900,2810,2810,2600,2810
2011/09/15,2850,2870,2812,2812,1590,2812
2011/09/16,2849,2855,2831,2831,860,2831
2011/09/20,2825,2825,2800,2822,1580,2822
2011/09/21,2776,2826,2761,2786,2640,2786
2011/09/22,2780,2780,2738,2760,1790,2760
2011/09/26,2641,2689,2599,2599,9870,2599
2011/09/27,2580,2621,2580,2621,5410,2621
2011/09/28,2635,2680,2610,2610,7280,2610
2011/09/29,2560,2591,2550,2585,3380,2585
2011/09/30,2560,2610,2560,2600,1620,2600
2011/10/03,2550,2605,2520,2560,2340,2560
2011/10/04,2500,2500,2462,2495,4800,2495
2011/10/05,2401,2450,2400,2439,11170,2439
2011/10/06,2450,2487,2421,2439,2220,2439
2011/10/07,2500,2540,2461,2523,2370,2523
2011/10/11,2673,2673,2587,2637,7450,2637
2011/10/12,2600,2696,2600,2696,5700,2696
2011/10/13,2721,2815,2721,2809,4300,2809
2011/10/14,2810,2810,2750,2764,2510,2764
2011/10/17,2818,2819,2790,2801,1820,2801
2011/10/18,2716,2760,2716,2746,1820,2746
2011/10/19,2796,2800,2700,2700,3690,2700
2011/10/20,2656,2684,2600,2617,2750,2617
2011/10/21,2600,2698,2600,2698,2640,2698
2011/10/24,2670,2719,2615,2719,930,2719
2011/10/25,2773,2773,2736,2740,800,2740
2011/10/26,2690,2780,2690,2780,1840,2780
2011/10/27,2780,2799,2754,2779,1330,2779
2011/10/28,2820,2855,2790,2808,17930,2808
2011/10/31,2828,2935,2800,2896,5820,2896
2011/11/01,2851,2886,2851,2857,1670,2857
2011/11/02,2811,2880,2804,2880,2380,2880
2011/11/04,2923,2930,2901,2925,2390,2925
2011/11/07,2975,2987,2937,2960,5100,2960
2011/11/08,2980,2980,2950,2966,1490,2966
2011/11/09,2960,2987,2950,2970,2570,2970
2011/11/10,2940,2940,2850,2872,1550,2872
2011/11/11,2901,2910,2870,2875,760,2875
2011/11/14,2885,2955,2885,2915,830,2915
2011/11/15,2920,2930,2875,2900,1030,2900
2011/11/16,2870,2890,2830,2875,1310,2875
2011/11/17,2810,2845,2782,2845,1150,2845
2011/11/18,2834,2834,2782,2805,1780,2805
2011/11/21,2829,2829,2720,2780,1000,2780
2011/11/22,2726,2788,2726,2775,700,2775
2011/11/24,2715,2738,2710,2726,1490,2726
2011/11/25,2726,2737,2715,2735,1060,2735
2011/11/28,2735,2760,2730,2730,980,2730
2011/11/29,2743,2775,2741,2760,1000,2760
2011/11/30,2760,2778,2731,2772,1330,2772
2011/12/01,2850,2900,2850,2853,3130,2853
2011/12/02,2848,2848,2804,2828,920,2828
2011/12/05,2800,2849,2751,2755,3660,2755
2011/12/06,2755,2775,2709,2729,2960,2729
2011/12/07,2700,2740,2676,2730,2430,2730
2011/12/08,2725,2729,2675,2710,1250,2710
2011/12/09,2676,2717,2675,2717,1260,2717
2011/12/12,2720,2729,2710,2726,1450,2726
2011/12/13,2725,2725,2590,2608,7810,2608
2011/12/14,2602,2609,2575,2580,5840,2580
2011/12/15,2567,2567,2415,2485,8660,2485
2011/12/16,2500,2560,2485,2512,3340,2512
2011/12/19,2512,2519,2450,2480,4650,2480
2011/12/20,2490,2517,2481,2496,2430,2496
2011/12/21,2500,2507,2460,2460,2170,2460
2011/12/22,2478,2478,2425,2425,3090,2425
2011/12/26,2432,2460,2405,2419,6100,2419
2011/12/27,2418,2419,2405,2406,2060,2406
2011/12/28,2406,2424,2402,2416,1460,2416
2011/12/29,2402,2409,2380,2400,3930,2400
2011/12/30,2400,2422,2400,2410,5380,2410
2012/01/04,2450,2460,2401,2433,1850,2433
2012/01/05,2420,2424,2401,2420,1950,2420
2012/01/06,2425,2449,2406,2420,1480,2420
2012/01/10,2438,2490,2435,2489,6640,2489
2012/01/11,2492,2499,2482,2495,3240,2495
2012/01/12,2495,2510,2481,2510,4140,2510
2012/01/13,2509,2509,2486,2497,4510,2497
2012/01/16,2495,2495,2455,2465,1800,2465
2012/01/17,2450,2495,2431,2492,7420,2492
2012/01/18,2515,2515,2460,2485,7290,2485
2012/01/19,2510,2510,2470,2492,4740,2492
2012/01/20,2510,2525,2500,2515,4680,2515
2012/01/23,2540,2545,2526,2535,3490,2535
2012/01/24,2550,2550,2535,2540,2960,2540
2012/01/25,2545,2550,2535,2549,8000,2549
2012/01/26,2550,2566,2541,2559,3010,2559
2012/01/27,2570,2574,2555,2568,2220,2568
2012/01/30,2570,2577,2511,2511,4420,2511
2012/01/31,2505,2525,2501,2508,730,2508
2012/02/01,2508,2521,2508,2509,780,2509
2012/02/02,2512,2549,2512,2546,580,2546
2012/02/03,2533,2560,2533,2560,1230,2560
2012/02/06,2560,2580,2547,2574,6370,2574
2012/02/07,2570,2570,2520,2525,2810,2525
2012/02/08,2546,2570,2530,2551,2200,2551
2012/02/09,2568,2574,2530,2569,2810,2569
2012/02/10,2570,2590,2567,2590,4850,2590
2012/02/13,2600,2600,2565,2592,3090,2592
2012/02/14,2595,2595,2574,2583,1770,2583
2012/02/15,2600,2617,2590,2605,6610,2605
2012/02/16,2610,2630,2600,2607,2850,2607
2012/02/17,2623,2656,2623,2655,8460,2655
2012/02/20,2749,2749,2720,2720,8690,2720
2012/02/21,2747,2750,2690,2703,5490,2703
2012/02/22,2730,2739,2726,2735,3100,2735
2012/02/23,2735,2777,2735,2777,2120,2777
2012/02/24,2798,2815,2790,2815,3350,2815
2012/02/27,2897,2910,2850,2907,8050,2907
2012/02/28,2857,2894,2853,2894,6350,2894
2012/02/29,2882,2910,2882,2885,7020,2885
2012/03/01,2885,2899,2850,2865,3020,2865
2012/03/02,2854,2897,2850,2889,3070,2889
2012/03/05,2897,2909,2880,2880,3970,2880
2012/03/06,2880,2891,2805,2836,3150,2836
2012/03/07,2686,2773,2661,2750,8680,2750
2012/03/08,2775,2809,2761,2809,2320,2809
2012/03/09,2860,2900,2839,2882,2930,2882
2012/03/12,2890,2898,2862,2863,4840,2863
2012/03/13,2866,2900,2856,2856,5770,2856
2012/03/14,2910,2920,2876,2876,13540,2876
2012/03/15,2850,2880,2840,2865,3910,2865
2012/03/16,2851,2870,2851,2868,4560,2868
2012/03/19,2897,2897,2877,2880,3460,2880
2012/03/21,2880,2880,2842,2860,7620,2860
2012/03/22,2841,2860,2833,2860,3350,2860
2012/03/23,2800,2805,2792,2796,3770,2796
2012/03/26,2796,2796,2745,2753,4320,2753
2012/03/27,2760,2778,2756,2773,6210,2773
2012/03/28,2769,2769,2738,2745,3890,2745
2012/03/29,2720,2729,2670,2695,7580,2695
2012/03/30,2662,2688,2652,2675,4490,2675
2012/04/02,2674,2700,2655,2700,1650,2700
2012/04/03,2697,2705,2680,2700,900,2700
2012/04/04,2700,2719,2683,2700,1900,2700
2012/04/05,2655,2707,2653,2700,3510,2700
2012/04/06,2695,2711,2685,2711,3870,2711
2012/04/09,2685,2703,2685,2700,860,2700
2012/04/10,2686,2700,2663,2691,4290,2691
2012/04/11,2682,2698,2662,2683,2880,2683
2012/04/12,2669,2720,2669,2720,2670,2720
2012/04/13,2770,2770,2735,2765,3010,2765
2012/04/16,2700,2745,2692,2723,8320,2723
2012/04/17,2713,2722,2713,2714,740,2714
2012/04/18,2753,2790,2711,2771,3060,2771
2012/04/19,2794,2794,2778,2782,1940,2782
2012/04/20,2783,2800,2771,2791,3450,2791
2012/04/23,2791,2805,2791,2794,1090,2794
2012/04/24,2770,2800,2746,2746,4430,2746
2012/04/25,2751,2793,2751,2780,1390,2780
2012/04/26,2784,2800,2768,2785,1530,2785
2012/04/27,2801,2801,2786,2798,1410,2798
2012/05/01,2788,2794,2760,2792,710,2792
2012/05/02,2751,2820,2751,2820,2600,2820
2012/05/07,2777,2805,2761,2786,1520,2786
2012/05/08,2800,2802,2776,2802,1270,2802
2012/05/09,2791,2798,2761,2782,2220,2782
2012/05/10,2750,2778,2742,2771,1000,2771
2012/05/11,2722,2750,2722,2722,1170,2722
2012/05/14,2726,2760,2726,2735,2110,2735
2012/05/15,2700,2710,2680,2710,5090,2710
2012/05/16,2690,2690,2500,2665,4890,2665
2012/05/17,2580,2650,2575,2640,9970,2640
2012/05/18,2570,2580,2525,2566,2320,2566
2012/05/21,2576,2615,2575,2598,1310,2598
2012/05/22,2619,2670,2608,2622,1650,2622
2012/05/23,2626,2649,2585,2611,570,2611
2012/05/24,2620,2630,2607,2628,200,2628
2012/05/25,2582,2600,2580,2580,840,2580
2012/05/28,2545,2551,2529,2550,1290,2550
2012/05/29,2540,2615,2531,2601,1200,2601
2012/05/30,2605,2620,2588,2600,710,2600
2012/05/31,2550,2631,2525,2629,2500,2629
2012/06/01,2538,2599,2538,2558,2430,2558
2012/06/04,2500,2529,2490,2495,2430,2495
2012/06/05,2440,2460,2440,2448,3730,2448
2012/06/06,2480,2575,2475,2528,1970,2528
2012/06/07,2578,2578,2544,2544,2090,2544
2012/06/08,2640,2640,2569,2569,1600,2569
2012/06/11,2580,2620,2578,2620,1350,2620
2012/06/12,2600,2600,2560,2573,350,2573
2012/06/13,2573,2599,2567,2599,250,2599
2012/06/14,2598,2599,2577,2597,220,2597
2012/06/15,2554,2580,2554,2558,290,2558
2012/06/18,2585,2604,2582,2587,450,2587
2012/06/19,2600,2604,2590,2604,580,2604
2012/06/20,2610,2627,2600,2627,1450,2627
2012/06/21,2604,2627,2600,2600,1390,2600
2012/06/22,2590,2590,2548,2582,860,2582
2012/06/25,2619,2619,2566,2597,670,2597
2012/06/26,2547,2581,2547,2576,1250,2576
2012/06/27,2551,2570,2551,2570,480,2570
2012/06/28,2599,2599,2572,2598,930,2598
2012/06/29,2571,2608,2571,2606,2390,2606
2012/07/02,2630,2630,2610,2611,870,2611
2012/07/03,2602,2630,2600,2613,580,2613
2012/07/04,2630,2639,2615,2619,1110,2619
2012/07/05,2630,2630,2606,2609,2100,2609
2012/07/06,2629,2629,2607,2610,740,2610
2012/07/09,2611,2625,2590,2590,1150,2590
2012/07/10,2577,2597,2576,2597,380,2597
2012/07/11,2551,2598,2550,2598,300,2598
2012/07/12,2564,2587,2562,2565,240,2565
2012/07/13,2565,2619,2548,2619,2080,2619
2012/07/17,2606,2606,2569,2580,960,2580
2012/07/18,2598,2598,2575,2595,910,2595
2012/07/19,2583,2627,2530,2627,3290,2627
2012/07/20,2629,2630,2602,2602,680,2602
2012/07/23,2550,2559,2522,2530,1890,2530
2012/07/24,2500,2530,2500,2520,1250,2520
2012/07/25,2480,2525,2479,2525,880,2525
2012/07/26,2513,2550,2500,2530,930,2530
2012/07/27,2530,2560,2530,2535,720,2535
2012/07/30,2549,2549,2521,2545,1030,2545
2012/07/31,2531,2549,2513,2524,860,2524
2012/08/01,2503,2540,2501,2540,1110,2540
2012/08/02,2524,2541,2524,2525,370,2525
2012/08/03,2501,2532,2500,2523,1360,2523
2012/08/06,2520,2550,2520,2535,2930,2535
2012/08/07,2526,2568,2526,2568,650,2568
2012/08/08,2556,2588,2556,2571,1290,2571
2012/08/09,2572,2588,2565,2573,1780,2573
2012/08/10,2551,2555,2551,2555,390,2555
2012/08/13,2571,2571,2550,2565,630,2565
2012/08/14,2559,2569,2540,2551,900,2551
2012/08/15,2540,2542,2525,2525,790,2525
2012/08/16,2510,2575,2502,2575,1950,2575
2012/08/17,2525,2559,2525,2530,400,2530
2012/08/20,2557,2557,2457,2457,4210,2457
2012/08/21,2490,2490,2470,2473,1580,2473
2012/08/22,2498,2498,2470,2487,310,2487
2012/08/23,2462,2479,2460,2461,810,2461
2012/08/24,2457,2458,2450,2450,1720,2450
2012/08/27,2453,2542,2435,2476,2960,2476
2012/08/28,2428,2456,2422,2456,1550,2456
2012/08/29,2420,2457,2420,2442,1850,2442
2012/08/30,2427,2428,2425,2425,1000,2425
2012/08/31,2403,2415,2403,2407,960,2407
2012/09/03,2401,2411,2401,2410,860,2410
2012/09/04,2403,2410,2340,2340,2640,2340
2012/09/05,2340,2340,2300,2302,3830,2302
2012/09/06,2305,2312,2290,2291,1930,2291
2012/09/07,2313,2384,2313,2349,3030,2349
2012/09/10,2390,2420,2390,2404,3020,2404
2012/09/11,2418,2418,2371,2380,2730,2380
2012/09/12,2361,2369,2341,2363,4310,2363
2012/09/13,2365,2407,2365,2394,1830,2394
2012/09/14,2544,2550,2452,2475,7260,2475
2012/09/18,2445,2445,2409,2429,6050,2429
2012/09/19,2407,2443,2400,2433,4070,2433
2012/09/20,2410,2430,2400,2401,1730,2401
2012/09/21,2400,2416,2381,2412,1920,2412
2012/09/24,2380,2399,2371,2399,2290,2399
2012/09/25,2361,2386,2355,2363,1190,2363
2012/09/26,2354,2362,2340,2340,1710,2340
2012/09/27,2302,2400,2302,2395,3510,2395
2012/09/28,2360,2400,2355,2394,2720,2394
2012/10/01,2388,2388,2351,2370,1010,2370
2012/10/02,2364,2378,2364,2365,510,2365
2012/10/03,2380,2380,2355,2367,670,2367
2012/10/04,2355,2378,2355,2378,680,2378
2012/10/05,2365,2380,2344,2369,1160,2369
2012/10/09,2339,2400,2338,2385,2720,2385
2012/10/10,2371,2378,2282,2369,3520,2369
2012/10/11,2376,2391,2362,2362,1100,2362
2012/10/12,2378,2378,2355,2374,620,2374
2012/10/15,2360,2370,2356,2359,1460,2359
2012/10/16,2366,2380,2366,2371,900,2371
2012/10/17,2372,2397,2370,2397,1380,2397
2012/10/18,2393,2440,2393,2423,1760,2423
2012/10/19,2430,2492,2426,2491,3750,2491
2012/10/22,2477,2480,2440,2453,2230,2453
2012/10/23,2488,2488,2420,2454,1620,2454
2012/10/24,2430,2449,2420,2444,590,2444
2012/10/25,2448,2450,2435,2450,400,2450
2012/10/26,2430,2430,2390,2410,1760,2410
2012/10/29,2382,2388,2371,2374,1100,2374
2012/10/30,2373,2379,2370,2370,340,2370
2012/10/31,2369,2375,2363,2375,1010,2375
2012/11/01,2380,2430,2379,2430,2440,2430
2012/11/02,2449,2456,2430,2455,2210,2455
2012/11/05,2460,2460,2440,2445,1120,2445
2012/11/06,2435,2455,2381,2423,1590,2423
2012/11/07,2423,2445,2400,2445,2270,2445
2012/11/08,2430,2436,2401,2436,470,2436
2012/11/09,2410,2439,2410,2439,1010,2439
2012/11/12,2420,2439,2420,2439,470,2439
2012/11/13,2435,2435,2383,2406,950,2406
2012/11/14,2407,2414,2372,2398,1140,2398
2012/11/15,2404,2404,2370,2391,370,2391
2012/11/16,2362,2380,2362,2367,3060,2367
2012/11/19,2385,2400,2380,2380,700,2380
2012/11/20,2386,2407,2386,2398,890,2398
2012/11/21,2392,2406,2385,2399,1840,2399
2012/11/22,2415,2420,2360,2420,3970,2420
2012/11/26,2439,2440,2422,2424,1500,2424
2012/11/27,2425,2433,2405,2427,910,2427
2012/11/28,2420,2427,2391,2396,2230,2396
2012/11/29,2400,2420,2392,2398,1270,2398
2012/11/30,2390,2420,2371,2400,2670,2400
2012/12/03,2409,2420,2381,2400,1900,2400
2012/12/04,2390,2403,2381,2403,810,2403
2012/12/05,2391,2500,2388,2470,12050,2470
2012/12/06,2494,2500,2478,2499,4280,2499
2012/12/07,2499,2530,2486,2530,3300,2530
2012/12/10,2550,2600,2543,2600,8340,2600
2012/12/11,2576,2600,2576,2591,1880,2591
2012/12/12,2595,2606,2590,2597,2260,2597
2012/12/13,2597,2605,2587,2591,5960,2591
2012/12/14,2580,2698,2580,2697,9500,2697
2012/12/17,2705,2730,2700,2703,8210,2703
2012/12/18,2718,2786,2714,2786,8370,2786
2012/12/19,2801,2814,2781,2785,7750,2785
2012/12/20,2785,2798,2761,2771,4860,2771
2012/12/21,2788,2810,2779,2797,4630,2797
2012/12/25,2790,2860,2790,2852,6220,2852
2012/12/26,2880,2916,2880,2905,4010,2905
2012/12/27,2921,2956,2917,2939,3580,2939
2012/12/28,2970,2975,2940,2971,2810,2971
2013/01/04,3095,3135,3055,3120,13470,3120
2013/01/07,3140,3155,3105,3120,4640,3120
2013/01/08,3145,3145,3050,3100,4200,3100
2013/01/09,3080,3110,3065,3105,3000,3105
2013/01/10,3095,3135,3095,3105,2240,3105
2013/01/11,3130,3140,3055,3075,4920,3075
2013/01/15,3175,3195,3155,3185,5330,3185
2013/01/16,3210,3210,3120,3140,4630,3140
2013/01/17,3090,3160,3070,3080,4800,3080
2013/01/18,3125,3190,3125,3190,2760,3190
2013/01/21,3195,3200,3150,3200,2570,3200
2013/01/22,3205,3205,3140,3195,1900,3195
2013/01/23,3175,3185,3125,3170,1660,3170
2013/01/24,3175,3210,3110,3155,3750,3155
2013/01/25,3170,3195,3120,3160,3430,3160
2013/01/28,3180,3230,3175,3205,4060,3205
2013/01/29,3210,3230,3195,3230,2720,3230
2013/01/30,3230,3255,3230,3240,4210,3240
2013/01/31,3265,3295,3245,3285,4910,3285
2013/02/01,3285,3360,3275,3360,5870,3360
2013/02/04,3390,3440,3360,3430,10840,3430
2013/02/05,3370,3420,3340,3420,6040,3420
2013/02/06,3430,3465,3430,3465,5910,3465
2013/02/07,3465,3465,3380,3430,2520,3430
2013/02/08,3400,3430,3400,3420,900,3420
2013/02/12,3395,3420,3385,3395,4020,3395
2013/02/13,3400,3400,3360,3385,1920,3385
2013/02/14,3350,3400,3350,3400,7640,3400
2013/02/15,3375,3420,3335,3420,5170,3420
2013/02/18,3435,3450,3380,3445,3540,3445
2013/02/19,3445,3445,3385,3420,6790,3420
2013/02/20,3400,3415,3350,3355,3900,3355
2013/02/21,3350,3350,3150,3210,8050,3210
2013/02/22,3070,3180,3015,3135,7400,3135
2013/02/25,3140,3170,3110,3130,5010,3130
2013/02/26,3075,3120,3065,3075,3940,3075
2013/02/27,3035,3125,2961,3120,10500,3120
2013/02/28,3130,3245,3015,3230,9610,3230
2013/03/01,3250,3250,3160,3210,32420,3210
2013/03/04,3195,3210,3080,3095,5840,3095
2013/03/05,3075,3170,3075,3095,6280,3095
2013/03/06,3160,3230,3155,3230,5140,3230
2013/03/07,3230,3230,3170,3170,2690,3170
2013/03/08,3210,3260,3200,3225,7000,3225
2013/03/11,3215,3225,3175,3175,3650,3175
2013/03/12,3200,3250,3175,3175,4000,3175
2013/03/13,3170,3175,3100,3110,2690,3110
2013/03/14,3070,3120,3060,3110,1990,3110
2013/03/15,3110,3150,3080,3105,3660,3105
2013/03/18,3070,3075,3040,3055,4150,3055
2013/03/19,3030,3050,3015,3015,5420,3015
2013/03/21,3075,3245,3075,3240,13060,3240
2013/03/22,3200,3230,3150,3220,2970,3220
2013/03/25,3165,3240,3150,3180,9360,3180
2013/03/26,3185,3185,3060,3140,5950,3140
2013/03/27,3110,3215,3100,3185,6230,3185
2013/03/28,3115,3115,3020,3055,4350,3055
2013/03/29,3055,3090,3020,3080,3100,3080
2013/04/01,3045,3050,2950,2950,5090,2950
2013/04/02,2949,2949,2890,2901,3080,2901
2013/04/03,2903,2919,2903,2906,2630,2906
2013/04/04,2881,2915,2870,2913,2910,2913
2013/04/05,2900,2930,2815,2853,8070,2853
2013/04/08,2850,2960,2811,2960,14230,2960
2013/04/09,2987,3050,2915,3020,6960,3020
2013/04/10,3000,3025,2978,2978,2360,2978
2013/04/11,3000,3020,2971,3010,6900,3010
2013/04/12,3000,3010,2952,2998,5540,2998
2013/04/15,2950,2950,2921,2932,3630,2932
2013/04/16,2881,2899,2851,2896,4690,2896
2013/04/17,2900,2904,2801,2868,14030,2868
2013/04/18,2850,2899,2820,2888,4060,2888
2013/04/19,2895,2980,2850,2946,10210,2946
2013/04/22,2995,2998,2922,2938,3100,2938
2013/04/23,2926,2956,2910,2925,3380,2925
2013/04/24,2925,2930,2830,2910,6420,2910
2013/04/25,2897,2963,2893,2960,4860,2960
2013/04/26,2969,2970,2920,2945,3250,2945
2013/04/30,2881,2910,2860,2901,2450,2901
2013/05/01,2882,2899,2875,2877,1240,2877
2013/05/02,2891,2891,2862,2862,1840,2862
2013/05/07,3020,3020,2880,2945,10250,2945
2013/05/08,2995,2996,2950,2961,6760,2961
2013/05/09,2970,2982,2961,2982,5410,2982
2013/05/10,2997,3020,2982,3015,7940,3015
2013/05/13,3050,3080,2973,2986,4670,2986
2013/05/14,3000,3005,2900,2956,6640,2956
2013/05/15,2960,2960,2914,2931,3910,2931
2013/05/16,2931,3050,2890,2990,12970,2990
2013/05/17,3020,3050,2970,3050,5030,3050
2013/05/20,3190,3195,3030,3170,18390,3170
2013/05/21,3150,3265,3140,3250,13800,3250
2013/05/22,3300,3405,3255,3360,12310,3360
2013/05/23,3380,3425,3200,3350,17230,3350
2013/05/24,3205,3350,3200,3320,13500,3320
2013/05/27,3340,3400,3220,3220,9940,3220
2013/05/28,3250,3450,3240,3380,11160,3380
2013/05/29,3450,3480,3360,3455,15410,3455
2013/05/30,3390,3420,3345,3370,14000,3370
2013/05/31,3350,3460,3340,3420,24680,3420
2013/06/03,3400,3400,3230,3390,6330,3390
2013/06/04,3330,3330,3240,3280,1700,3280
2013/06/05,3300,3300,3190,3190,3260,3190
2013/06/06,3175,3175,3120,3160,1450,3160
2013/06/07,2955,3005,2905,3005,5940,3005
2013/06/10,3000,3060,2951,3060,2400,3060
2013/06/11,2994,3060,2994,3055,2380,3055
2013/06/12,2990,2995,2935,2980,1450,2980
2013/06/13,2931,2939,2870,2910,2980,2910
2013/06/14,2925,2935,2860,2912,1930,2912
2013/06/17,2899,2930,2865,2930,1790,2930
2013/06/18,2900,2902,2851,2897,4440,2897
2013/06/19,2940,2944,2865,2893,770,2893
2013/06/20,2882,2887,2828,2850,4620,2850
2013/06/21,2750,2885,2620,2885,14470,2885
2013/06/24,2712,2759,2654,2690,17960,2690
2013/06/25,2590,2700,2495,2698,21380,2698
2013/06/26,2748,2748,2630,2651,5990,2651
2013/06/27,2651,2750,2631,2685,7240,2685
2013/06/28,2722,2801,2696,2800,5510,2800
2013/07/01,2750,2810,2743,2780,6130,2780
2013/07/02,2752,2779,2744,2761,1620,2761
2013/07/03,2760,2771,2740,2764,1360,2764
2013/07/04,2764,2850,2751,2850,3410,2850
2013/07/05,2872,2908,2851,2900,4800,2900
2013/07/08,2900,2900,2835,2870,2620,2870
2013/07/09,2833,2885,2830,2879,2640,2879
2013/07/10,2879,2879,2850,2879,2330,2879
2013/07/11,2884,3000,2868,2990,11010,2990
2013/07/12,2990,2990,2942,2960,3970,2960
2013/07/16,2959,2965,2921,2960,3500,2960
2013/07/17,2915,2972,2915,2930,3060,2930
2013/07/18,2931,2931,2870,2890,4790,2890
2013/07/19,2850,2852,2815,2825,4180,2825
2013/07/22,2800,2820,2680,2742,5110,2742
2013/07/23,2742,2868,2735,2850,9570,2850
2013/07/24,2865,2880,2825,2841,3230,2841
2013/07/25,2849,2880,2834,2860,5260,2860
2013/07/26,2859,2859,2820,2822,1520,2822
2013/07/29,2810,2810,2770,2788,1600,2788
2013/07/30,2780,2815,2780,2815,1160,2815
2013/07/31,2815,2848,2814,2848,820,2848
2013/08/01,2848,2855,2822,2844,500,2844
2013/08/02,2794,2870,2794,2849,5680,2849
2013/08/05,2791,2860,2791,2860,3980,2860
2013/08/06,2810,2856,2810,2856,2860,2856
2013/08/07,2711,2805,2710,2789,11780,2789
2013/08/08,2752,2814,2752,2810,1380,2810
2013/08/09,2792,2827,2792,2804,540,2804
2013/08/12,2791,2890,2791,2888,4250,2888
2013/08/13,2907,2968,2890,2966,6230,2966
2013/08/14,2966,3000,2966,2999,3460,2999
2013/08/15,2998,2999,2970,2988,3200,2988
2013/08/16,2930,3050,2930,2976,5370,2976
2013/08/19,2974,2975,2911,2955,1000,2955
2013/08/20,2954,2954,2900,2914,1390,2914
2013/08/21,2864,2890,2840,2881,1250,2881
2013/08/22,2850,2880,2850,2880,590,2880
2013/08/23,2851,2926,2851,2851,670,2851
2013/08/26,2900,2900,2835,2900,1430,2900
2013/08/27,2853,2894,2853,2894,1670,2894
2013/08/28,2844,2875,2831,2875,2440,2875
2013/08/29,2841,2894,2841,2894,1140,2894
2013/08/30,2844,2885,2835,2870,1730,2870
2013/09/02,2870,2918,2849,2918,2320,2918
2013/09/03,2928,2944,2876,2935,1730,2935
2013/09/04,2907,2980,2907,2980,540,2980
2013/09/05,2988,3020,2956,2999,3060,2999
2013/09/06,2962,3050,2958,3020,8130,3020
2013/09/09,2973,3145,2973,3145,4880,3145
2013/09/10,3100,3165,3090,3150,5340,3150
2013/09/11,3150,3200,3150,3195,6620,3195
2013/09/12,3190,3200,3125,3195,4400,3195
2013/09/13,3190,3190,3110,3165,1940,3165
2013/09/17,3105,3170,3080,3125,1700,3125
2013/09/18,3065,3120,3065,3115,1200,3115
2013/09/19,3110,3125,3085,3110,1390,3110
2013/09/20,3110,3130,3110,3130,420,3130
2013/09/24,3120,3125,3100,3100,730,3100
2013/09/25,3095,3100,3060,3100,960,3100
2013/09/26,3095,3095,3045,3075,640,3075
2013/09/27,3035,3050,3035,3035,150,3035
2013/09/30,2977,3045,2941,3035,1040,3035
2013/10/01,2980,3015,2980,3000,390,3000
2013/10/02,3000,3000,2970,2999,1170,2999
2013/10/03,2970,2999,2970,2999,70,2999
2013/10/04,2999,3045,2999,3045,600,3045
2013/10/07,3045,3045,2999,3045,1180,3045
2013/10/08,3025,3030,2995,3030,1990,3030
2013/10/09,3025,3030,2975,3030,580,3030
2013/10/10,3005,3030,3000,3030,1110,3030
2013/10/11,2997,3095,2997,3070,3270,3070
2013/10/15,3110,3110,3025,3055,910,3055
2013/10/16,3050,3065,3050,3060,1180,3060
2013/10/17,3050,3095,3040,3090,450,3090
2013/10/18,3045,3085,3025,3085,720,3085
2013/10/21,3035,3105,3020,3105,2990,3105
2013/10/22,3100,3100,3080,3080,480,3080
2013/10/23,3065,3115,3010,3010,2900,3010
2013/10/24,2986,3010,2970,3010,980,3010
2013/10/25,3010,3010,2993,2993,160,2993
2013/10/28,2989,2996,2989,2996,380,2996
2013/10/29,2980,3025,2960,2994,1000,2994
2013/10/30,2995,2995,2977,2995,820,2995
2013/10/31,2995,3030,2950,3025,1970,3025
2013/11/01,2995,3015,2941,3015,1180,3015
2013/11/05,2995,2995,2975,2975,170,2975
2013/11/06,2961,2976,2955,2960,330,2960
2013/11/07,2931,2960,2917,2930,760,2930
2013/11/08,2920,2921,2915,2916,340,2916
2013/11/11,2950,2965,2945,2951,4100,2951
2013/11/12,2915,2990,2915,2971,1280,2971
2013/11/13,2950,2950,2930,2930,740,2930
2013/11/14,2912,2915,2901,2905,1640,2905
2013/11/15,2900,2995,2886,2986,6840,2986
2013/11/18,2948,3080,2925,3075,5780,3075
2013/11/19,3070,3095,3020,3070,3840,3070
2013/11/20,3075,3100,3070,3100,8300,3100
2013/11/21,3100,3135,3050,3055,12530,3055
2013/11/22,3100,3145,3065,3140,8620,3140
2013/11/25,3150,3200,3120,3200,8140,3200
2013/11/26,3200,3250,3175,3250,8650,3250
2013/11/27,3240,3270,3160,3270,6780,3270
2013/11/28,3250,3295,3225,3295,6160,3295
2013/11/29,3250,3295,3250,3285,3970,3285
2013/12/02,3285,3320,3210,3275,16260,3275
2013/12/03,3225,3270,3220,3265,2200,3265
2013/12/04,3265,3305,3235,3295,8980,3295
2013/12/05,3290,3290,3275,3285,2690,3285
2013/12/06,3270,3285,3250,3285,1760,3285
2013/12/09,3300,3305,3270,3280,3590,3280
2013/12/10,3280,3295,3265,3280,3640,3280
2013/12/11,3250,3250,3220,3240,1720,3240
2013/12/12,3200,3240,3200,3235,1120,3235
2013/12/13,3210,3260,3205,3250,1800,3250
2013/12/16,3265,3265,3180,3200,3380,3200
2013/12/17,3170,3185,3160,3180,2060,3180
2013/12/18,3100,3165,3090,3150,1640,3150
2013/12/19,3160,3200,3130,3145,3150,3145
2013/12/20,3115,3130,3060,3060,4310,3060
2013/12/24,3000,3070,3000,3060,9590,3060
2013/12/25,3005,3050,3005,3005,4190,3005
2013/12/26,3045,3045,3005,3005,1920,3005
2013/12/27,2986,3100,2986,3090,2680,3090
2013/12/30,3130,3165,3025,3090,2000,3090
2014/01/06,3000,3040,2965,3040,5560,3040
2014/01/07,2982,3095,2982,3055,2670,3055
2014/01/08,3080,3080,3020,3060,5450,3060
2014/01/09,3080,3170,3040,3100,4240,3100
2014/01/10,3140,3140,3080,3105,530,3105
2014/01/14,2955,3045,2951,3000,4170,3000
2014/01/15,3000,3015,2900,2997,2890,2997
2014/01/16,2980,3015,2980,3015,2190,3015
2014/01/17,2981,3000,2981,3000,780,3000
2014/01/20,2998,2999,2981,2998,690,2998
2014/01/21,2999,3040,2970,3030,1640,3030
2014/01/22,3040,3050,3020,3050,770,3050
2014/01/23,3090,3090,2993,3000,1140,3000
2014/01/24,2990,3015,2890,3000,8230,3000
2014/01/27,2900,2950,2890,2950,3740,2950
2014/01/28,2909,2950,2909,2950,900,2950
2014/01/29,2932,2998,2932,2990,2020,2990
2014/01/30,2984,2984,2925,2960,1120,2960
2014/01/31,2951,2963,2915,2915,1150,2915
2014/02/03,2915,2915,2885,2885,2480,2885
2014/02/04,2849,2850,2721,2840,3980,2840
2014/02/05,2810,2833,2785,2810,1400,2810
2014/02/06,2820,2820,2741,2800,2380,2800
2014/02/07,2801,2895,2801,2895,800,2895
2014/02/10,2851,2979,2849,2930,3190,2930
2014/02/12,2945,3000,2926,3000,4600,3000
2014/02/13,2966,2986,2950,2985,1080,2985
2014/02/14,2935,2970,2903,2960,7530,2960
2014/02/17,2959,2965,2950,2958,940,2958
2014/02/18,2958,2986,2932,2980,1330,2980
2014/02/19,2948,3000,2948,3000,1010,3000
2014/02/20,2989,3015,2965,2986,2150,2986
2014/02/21,2972,2997,2938,2940,2530,2940
2014/02/24,2934,3000,2890,2894,2960,2894
2014/02/25,2900,2906,2825,2825,3400,2825
2014/02/26,2803,2816,2789,2790,2640,2790
2014/02/27,2825,2835,2814,2830,2250,2830
2014/02/28,2844,2885,2810,2810,2160,2810
2014/03/03,2810,2810,2751,2800,2380,2800
2014/03/04,2799,2800,2761,2800,850,2800
2014/03/05,2799,2844,2785,2820,2170,2820
2014/03/06,2820,2848,2795,2848,5060,2848
2014/03/07,2848,2920,2835,2848,2500,2848
2014/03/10,2873,2873,2800,2810,1500,2810
2014/03/11,2800,2802,2751,2759,1900,2759
2014/03/12,2751,2796,2734,2751,4070,2751
2014/03/13,2800,2829,2771,2775,2980,2775
2014/03/14,2765,2765,2735,2736,1540,2736
2014/03/17,2760,2760,2736,2740,800,2740
2014/03/18,2750,2823,2750,2776,350,2776
2014/03/19,2792,2792,2730,2745,520,2745
2014/03/20,2740,2800,2717,2750,1010,2750
2014/03/24,2780,2818,2720,2805,2910,2805
2014/03/25,2814,2850,2795,2810,900,2810
2014/03/26,2784,2810,2784,2810,180,2810
2014/03/27,2781,2820,2756,2820,560,2820
2014/03/28,2795,2840,2795,2840,500,2840
2014/03/31,2848,2865,2785,2865,1480,2865
2014/04/01,2880,2880,2778,2860,1200,2860
2014/04/02,2820,2870,2820,2868,1080,2868
2014/04/03,2868,2883,2842,2874,2800,2874
2014/04/04,2851,2856,2845,2850,250,2850
2014/04/07,2826,2834,2815,2831,1120,2831
2014/04/08,2781,2870,2781,2866,1750,2866
2014/04/09,2846,2880,2780,2820,2550,2820
2014/04/10,2826,2874,2826,2870,1140,2870
2014/04/11,2875,2889,2860,2889,1190,2889
2014/04/14,2883,2890,2858,2875,1840,2875
2014/04/15,2858,2885,2839,2855,840,2855
2014/04/16,2854,2894,2841,2860,1040,2860
2014/04/17,2892,2892,2850,2854,810,2854
2014/04/18,2858,2870,2850,2860,870,2860
2014/04/21,2846,2846,2836,2838,400,2838
2014/04/22,2835,2837,2795,2796,770,2796
2014/04/23,2825,2825,2770,2791,3910,2791
2014/04/24,2818,2818,2771,2771,1070,2771
2014/04/25,2750,2764,2741,2758,3930,2758
2014/04/28,2760,2761,2740,2740,1800,2740
2014/04/30,2790,2790,2760,2765,600,2765
2014/05/01,2753,2761,2747,2747,460,2747
2014/05/02,2752,2776,2750,2750,1090,2750
2014/05/07,2768,2768,2744,2744,220,2744
2014/05/08,2740,2746,2740,2746,150,2746
2014/05/09,2749,2749,2725,2730,1630,2730
2014/05/12,2759,2779,2720,2770,1460,2770
2014/05/13,2770,2780,2750,2760,600,2760
2014/05/14,2780,2780,2711,2780,1520,2780
2014/05/15,2730,2774,2727,2773,1290,2773
2014/05/16,2765,2765,2722,2760,480,2760
2014/05/19,2726,2734,2701,2710,4080,2710
2014/05/20,2729,2739,2722,2722,910,2722
2014/05/21,2733,2734,2708,2733,1080,2733
2014/05/22,2740,2760,2740,2759,1370,2759
2014/05/23,2767,2775,2747,2775,1210,2775
2014/05/26,2750,2773,2750,2766,920,2766
2014/05/27,2771,2778,2757,2778,1870,2778
2014/05/28,2759,2780,2750,2776,1180,2776
2014/05/29,2780,2793,2763,2763,1610,2763
2014/05/30,2790,2790,2753,2785,880,2785
2014/06/02,2798,2800,2751,2795,1070,2795
2014/06/03,2789,2798,2789,2798,340,2798
2014/06/04,2786,2792,2782,2790,740,2790
2014/06/05,2796,2796,2778,2790,160,2790
2014/06/06,2797,2797,2761,2766,260,2766
2014/06/09,2752,2785,2750,2766,4560,2766
2014/06/10,2775,2779,2700,2778,2910,2778
2014/06/11,2760,2761,2759,2759,650,2759
2014/06/12,2759,2759,2700,2740,1190,2740
2014/06/13,2738,2790,2738,2790,2420,2790
2014/06/16,2800,2815,2770,2805,3410,2805
2014/06/17,2795,2800,2770,2799,1310,2799
2014/06/18,2796,2796,2783,2793,340,2793
2014/06/19,2799,2799,2783,2783,570,2783
2014/06/20,2793,2793,2760,2788,1350,2788
2014/06/23,2750,2797,2750,2797,1410,2797
2014/06/24,2780,2799,2772,2791,560,2791
2014/06/25,2798,2798,2757,2790,2330,2790
2014/06/26,2791,2795,2772,2790,1220,2790
2014/06/27,2772,2790,2761,2769,850,2769
2014/06/30,2795,2800,2768,2795,2400,2795
2014/07/01,2750,2795,2750,2788,1820,2788
2014/07/02,2777,2794,2777,2786,710,2786
2014/07/03,2782,2799,2782,2788,640,2788
2014/07/04,2788,2798,2784,2785,620,2785
2014/07/07,2799,2799,2777,2793,2560,2793
2014/07/08,2793,2795,2781,2793,530,2793
2014/07/09,2790,2790,2778,2784,610,2784
2014/07/10,2772,2775,2750,2773,770,2773
2014/07/11,2775,2780,2761,2766,960,2766
2014/07/14,2766,2779,2766,2775,370,2775
2014/07/15,2798,2799,2788,2798,1890,2798
2014/07/16,2791,2798,2785,2794,1060,2794
2014/07/17,2780,2781,2765,2774,1140,2774
2014/07/18,2761,2787,2741,2787,4300,2787
2014/07/22,2786,2797,2783,2785,1930,2785
2014/07/23,2778,2800,2774,2793,2350,2793
2014/07/24,2799,2828,2792,2828,6100,2828
2014/07/25,2836,2842,2832,2840,1670,2840
2014/07/28,2836,2930,2836,2928,5360,2928
2014/07/29,2981,2981,2930,2973,4370,2973
2014/07/30,2990,2993,2972,2987,2870,2987
2014/07/31,2991,2994,2970,2984,1960,2984
2014/08/01,2962,3000,2962,3000,4170,3000
2014/08/04,2993,3025,2979,3010,3270,3010
2014/08/05,3025,3040,2986,2989,1930,2989
2014/08/06,2980,2998,2962,2998,1930,2998
2014/08/07,2980,2996,2963,2982,2130,2982
2014/08/08,2951,2974,2940,2969,2130,2969
2014/08/11,2955,2994,2955,2993,1050,2993
2014/08/12,3000,3005,2989,2991,4320,2991
2014/08/13,2991,2992,2986,2989,1090,2989
2014/08/14,2952,2980,2952,2979,1560,2979
2014/08/15,2985,3000,2972,2999,1790,2999
2014/08/18,2982,2997,2971,2997,1350,2997
2014/08/19,3010,3010,2980,2994,1030,2994
2014/08/20,2994,2998,2977,2994,3250,2994
2014/08/21,2992,2992,2960,2985,1790,2985
2014/08/22,2970,2974,2960,2971,1760,2971
2014/08/25,2971,2975,2950,2975,860,2975
2014/08/26,2970,2970,2920,2937,1470,2937
2014/08/27,2923,2930,2890,2896,2230,2896
2014/08/28,2867,2918,2867,2913,1140,2913
2014/08/29,2870,2914,2870,2914,560,2914
2014/09/01,2934,2934,2912,2933,1130,2933
2014/09/02,2929,2950,2917,2949,3370,2949
2014/09/03,2955,2990,2955,2990,2990,2990
2014/09/04,2990,2990,2973,2980,2020,2980
2014/09/05,3000,3025,3000,3005,6530,3005
2014/09/08,3040,3040,3015,3015,3040,3015
2014/09/09,3025,3040,2995,3040,3590,3040
2014/09/10,3040,3040,2996,3015,3520,3015
2014/09/11,3040,3055,2997,2997,7990,2997
2014/09/12,3050,3050,3005,3010,3270,3010
2014/09/16,2995,2999,2992,2999,1180,2999
2014/09/17,2965,2985,2965,2985,920,2985
2014/09/18,2945,2996,2945,2992,2680,2992
2014/09/19,2992,3025,2992,3015,1520,3015
2014/09/22,3020,3030,2990,3010,2910,3010
2014/09/24,3000,3030,3000,3030,1570,3030
2014/09/25,3025,3030,3020,3020,6650,3020
2014/09/26,3020,3020,2992,3000,3260,3000
2014/09/29,2998,2999,2971,2991,2850,2991
2014/09/30,2971,2979,2947,2969,10380,2969
2014/10/01,2955,2970,2953,2955,2880,2955
2014/10/02,2950,2950,2925,2946,2510,2946
2014/10/03,2930,2979,2929,2950,2550,2950
2014/10/06,2948,2990,2948,2986,2210,2986
2014/10/07,2984,2990,2966,2981,440,2981
2014/10/08,2966,2981,2958,2980,5350,2980
2014/10/09,2981,3020,2981,2990,14960,2990
2014/10/10,2995,2995,2965,2969,12210,2969
2014/10/14,2952,2952,2920,2930,1140,2930
2014/10/15,2970,2970,2951,2952,2860,2952
2014/10/16,2952,2952,2933,2936,10430,2936
2014/10/17,2903,2914,2900,2902,2560,2902
2014/10/20,2913,2949,2913,2949,970,2949
2014/10/21,2965,2965,2935,2935,14420,2935
2014/10/22,2930,2969,2930,2959,12530,2959
2014/10/23,2941,2943,2924,2930,1400,2930
2014/10/24,2926,2940,2924,2940,340,2940
2014/10/27,2926,2945,2926,2930,15360,2930
2014/10/28,2890,2945,2890,2934,14250,2934
2014/10/29,2934,2988,2934,2966,12200,2966
2014/10/30,2962,2986,2952,2984,15440,2984
2014/10/31,2990,3030,2950,3010,7470,3010
2014/11/04,3030,3130,3030,3110,15650,3110
2014/11/05,3110,3160,3105,3150,10730,3150
2014/11/06,3125,3220,3125,3195,9280,3195
2014/11/07,3220,3470,3220,3390,27750,3390
2014/11/10,3320,3420,3300,3410,5200,3410
2014/11/11,3460,3540,3460,3525,14220,3525
2014/11/12,3530,3605,3525,3570,11830,3570
2014/11/13,3570,3585,3535,3585,5330,3585
2014/11/14,3585,3585,3385,3530,12420,3530
2014/11/17,3540,3600,3540,3575,6500,3575
2014/11/18,3590,3620,3590,3605,9960,3605
2014/11/19,3545,3600,3545,3590,6720,3590
2014/11/20,3600,3635,3600,3635,7900,3635
2014/11/21,3620,3640,3615,3630,3770,3630
2014/11/25,3700,3805,3700,3770,15280,3770
2014/11/26,3750,3855,3750,3845,10460,3845
2014/11/27,3860,3990,3860,3985,13290,3985
2014/11/28,3990,4065,3990,4040,16070,4040
2014/12/01,4055,4115,4050,4100,10200,4100
2014/12/02,4090,4200,4015,4200,14520,4200
2014/12/03,4250,4490,4250,4405,19980,4405
2014/12/04,4415,4565,4355,4545,24320,4545
2014/12/05,4690,4800,4670,4800,39020,4800
2014/12/08,4870,5200,4870,5180,44450,5180
2014/12/09,5250,5440,5060,5340,60390,5340
2014/12/10,4870,5200,4805,5200,56430,5200
2014/12/11,5040,5220,5040,5120,36060,5120
2014/12/12,5090,5300,5080,5170,24220,5170
2014/12/15,5070,5170,5050,5090,10100,5090
2014/12/16,5000,5220,5000,5120,26310,5120
2014/12/17,5130,5350,5130,5310,23760,5310
2014/12/18,5450,5540,5430,5520,32500,5520
2014/12/19,5550,5640,5420,5530,18950,5530
2014/12/22,5640,5660,5570,5660,16900,5660
2014/12/24,5620,5620,5330,5360,25420,5360
2014/12/25,5280,5540,5280,5420,12340,5420
2014/12/26,5530,5620,5500,5580,15400,5580
2014/12/29,5630,5760,5610,5690,13620,5690
2014/12/30,5690,5710,5640,5650,6900,5650
2015/01/05,5780,5960,5750,5950,21660,5950
2015/01/06,5870,5920,5810,5820,21630,5820
2015/01/07,5830,5890,5740,5770,10200,5770
2015/01/08,5840,5910,5680,5720,8340,5720
2015/01/09,5640,5810,5630,5780,21930,5780
2015/01/13,5560,5640,5550,5580,5930,5580
2015/01/14,5550,5770,5520,5690,14660,5690
2015/01/15,5660,5810,5660,5740,5980,5740
2015/01/16,5820,5880,5740,5790,8790,5790
2015/01/19,5790,5790,5350,5360,25130,5360
2015/01/20,5260,5470,5150,5310,13010,5310
2015/01/21,5350,5500,5350,5460,7460,5460
2015/01/22,5510,5570,5420,5420,1880,5420
2015/01/23,5530,5540,5450,5470,5410,5470
2015/01/26,5370,5410,5280,5300,4560,5300
2015/01/27,5420,5480,5210,5230,8080,5230
2015/01/28,5330,5330,5170,5200,7880,5200
2015/01/29,5120,5150,5010,5030,7080,5030
2015/01/30,5030,5140,4960,5000,11930,5000
2015/02/02,4940,4950,4840,4870,10590,4870
2015/02/03,4800,4850,4645,4710,10140,4710
2015/02/04,4750,4800,4745,4760,7950,4760
2015/02/05,4875,4980,4800,4835,9380,4835
2015/02/06,4755,4755,4490,4535,16460,4535
2015/02/09,4465,4580,4425,4550,6280,4550
2015/02/10,4465,4530,4455,4525,2890,4525
2015/02/12,4595,4615,4575,4610,6480,4610
2015/02/13,4610,4700,4610,4685,4990,4685
2015/02/16,4710,4900,4710,4860,4910,4860
2015/02/17,4970,4975,4930,4970,5960,4970
2015/02/18,4950,4965,4930,4960,2040,4960
2015/02/19,4970,4970,4835,4880,2490,4880
2015/02/20,4935,4935,4880,4880,1100,4880
2015/02/23,4885,4950,4885,4940,1330,4940
2015/02/24,4915,4950,4915,4950,900,4950
2015/02/25,4970,4970,4930,4965,2330,4965
2015/02/26,4940,5070,4920,5050,3930,5050
2015/02/27,5130,5180,5050,5070,9020,5070
2015/03/02,5270,5390,5200,5340,16560,5340
2015/03/03,5400,5400,5190,5280,5620,5280
2015/03/04,5180,5200,5080,5200,4200,5200
2015/03/05,5200,5200,4955,5020,4940,5020
2015/03/06,4990,5080,4970,5020,3700,5020
2015/03/09,4920,5160,4910,5050,3830,5050
2015/03/10,5100,5140,5040,5110,3380,5110
2015/03/11,5010,5180,5010,5100,3340,5100
2015/03/12,5030,5250,5030,5190,2190,5190
2015/03/13,5250,5280,5220,5240,4180,5240
2015/03/16,5240,5330,5180,5310,4220,5310
2015/03/17,5350,5380,5300,5330,5950,5330
2015/03/18,5390,5410,5350,5370,8060,5370
2015/03/19,5470,5470,5390,5390,6910,5390
2015/03/20,5450,5570,5450,5570,12810,5570
2015/03/23,5570,5670,5520,5600,11410,5600
2015/03/24,5660,5670,5490,5600,8610,5600
2015/03/25,5570,5630,5480,5630,6820,5630
2015/03/26,5540,5640,5540,5610,4850,5610
2015/03/27,5610,5630,5590,5630,1760,5630
2015/03/30,5610,5770,5580,5730,7590,5730
2015/03/31,5830,5910,5820,5880,9490,5880
2015/04/01,5810,5880,5700,5870,5790,5870
2015/04/02,5850,5950,5850,5910,8810,5910
2015/04/03,5940,5990,5920,5990,7500,5990
2015/04/06,5950,6080,5950,6080,5740,6080
2015/04/07,6120,6200,6090,6160,6340,6160
2015/04/08,6210,6290,6210,6290,6940,6290
2015/04/09,6300,6440,6250,6300,15010,6300
2015/04/10,6240,6340,6240,6320,6580,6320
2015/04/13,6330,6460,6330,6450,10840,6450
2015/04/14,6500,6540,6480,6540,11290,6540
2015/04/15,6550,6560,6400,6510,10980,6510
2015/04/16,6390,6700,6250,6620,28930,6620
2015/04/17,6660,6700,6540,6560,18160,6560
2015/04/20,6260,6500,6170,6300,18600,6300
2015/04/21,6300,6350,6230,6300,8190,6300
2015/04/22,6360,6490,6330,6470,8880,6470
2015/04/23,6550,6590,6520,6590,9900,6590
2015/04/24,6540,6590,6470,6570,17920,6570
2015/04/27,6590,6800,6560,6790,11750,6790
2015/04/28,6820,7000,6810,6960,22120,6960
2015/04/30,6900,6940,6850,6870,9450,6870
2015/05/01,6670,6750,6670,6700,8640,6700
2015/05/07,6400,6410,6270,6280,14200,6280
2015/05/08,6200,6390,6200,6350,6880,6350
2015/05/11,6620,6800,6570,6670,17210,6670
2015/05/12,6700,6770,6610,6640,8290,6640
2015/05/13,6640,6690,6620,6650,2770,6650
2015/05/14,6580,6610,6530,6590,3590,6590
2015/05/15,6590,6600,6430,6490,3650,6490
2015/05/18,6470,6530,6410,6410,3290,6410
2015/05/19,6340,6540,6260,6470,11930,6470
2015/05/20,6550,6720,6540,6680,8280,6680
2015/05/21,6650,6680,6600,6630,4670,6630
2015/05/22,6650,6750,6640,6710,5110,6710
2015/05/25,6800,6970,6760,6950,14470,6950
2015/05/26,6990,7050,6880,6960,20480,6960
2015/05/27,6960,7000,6850,6900,10660,6900
2015/05/28,7000,7060,6720,6730,17680,6730
2015/05/29,6530,6740,6420,6700,18820,6700
2015/06/01,6700,6790,6650,6780,8650,6780
2015/06/02,6860,6900,6780,6820,9690,6820
2015/06/03,6840,6890,6760,6790,5510,6790
2015/06/04,6890,6990,6650,6770,22950,6770
2015/06/05,6850,6960,6810,6950,19660,6950
2015/06/08,6940,7050,6930,7040,16570,7040
2015/06/09,7030,7130,7000,7080,22880,7080
2015/06/10,7020,7070,7010,7050,16360,7050
2015/06/11,7020,7030,6930,6930,7650,6930
2015/06/12,6960,7100,6960,7090,12000,7090
2015/06/15,7080,7100,6980,6990,3450,6990
2015/06/16,6850,6880,6570,6730,19720,6730
2015/06/17,6630,6750,6610,6720,8100,6720
2015/06/18,6690,6750,6650,6650,5310,6650
2015/06/19,6460,6600,6350,6450,21310,6450
2015/06/22,6160,6350,6120,6340,17600,6340
2015/06/23,6260,6480,6240,6450,23090,6450
2015/06/24,6530,6630,6490,6600,11170,6600
2015/06/25,6650,6650,6500,6540,8700,6540
2015/06/26,6290,6330,6180,6250,17870,6250
2015/06/29,6100,6320,5700,5940,37950,5940
2015/06/30,5880,6160,5850,6150,16860,6150
2015/07/01,6150,6180,6110,6120,7550,6120
