2011/01/04,1200,1205,1190,1205,134980,1205
2011/01/05,1210,1210,1184,1191,99930,1191
2011/01/06,1199,1199,1181,1192,109230,1192
2011/01/07,1190,1190,1181,1186,81930,1186
2011/01/11,1184,1192,1180,1192,68200,1192
2011/01/12,1186,1191,1171,1187,97130,1187
2011/01/13,1191,1196,1188,1195,53340,1195
2011/01/14,1194,1195,1183,1195,44290,1195
2011/01/17,1197,1197,1182,1183,74460,1183
2011/01/18,1182,1182,1165,1166,82750,1166
2011/01/19,1161,1166,1155,1166,114140,1166
2011/01/20,1165,1173,1165,1167,41920,1167
2011/01/21,1161,1163,1147,1147,61960,1147
2011/01/24,1144,1152,1142,1152,62180,1152
2011/01/25,1157,1167,1157,1164,24920,1164
2011/01/26,1164,1170,1160,1170,34890,1170
2011/01/27,1169,1171,1162,1165,47540,1165
2011/01/28,1160,1165,1148,1160,41750,1160
2011/01/31,1151,1169,1151,1167,52050,1167
2011/02/01,1168,1172,1165,1168,29940,1168
2011/02/02,1176,1177,1167,1167,40980,1167
2011/02/03,1166,1167,1161,1164,22180,1164
2011/02/04,1165,1165,1158,1161,41460,1161
2011/02/07,1165,1165,1155,1157,40040,1157
2011/02/08,1145,1152,1137,1145,207310,1145
2011/02/09,1147,1147,1140,1143,28850,1143
2011/02/10,1139,1141,1131,1135,56430,1135
2011/02/14,1126,1128,1109,1113,115900,1113
2011/02/15,1107,1108,1095,1098,150980,1098
2011/02/16,1091,1110,1091,1110,162660,1110
2011/02/17,1117,1129,1115,1129,179680,1129
2011/02/18,1134,1144,1130,1143,105630,1143
2011/02/21,1145,1145,1132,1142,61090,1142
2011/02/22,1136,1140,1131,1139,87060,1139
2011/02/23,1132,1141,1131,1136,57010,1136
2011/02/24,1134,1145,1130,1140,43270,1140
2011/02/25,1137,1145,1137,1144,31430,1144
2011/02/28,1145,1149,1144,1148,45090,1148
2011/03/01,1150,1153,1145,1145,54650,1145
2011/03/02,1145,1145,1135,1141,40900,1141
2011/03/03,1142,1146,1135,1146,31180,1146
2011/03/04,1147,1151,1146,1148,24060,1148
2011/03/07,1150,1150,1145,1149,20120,1149
2011/03/08,1149,1150,1140,1141,26390,1141
2011/03/09,1141,1144,1138,1139,33100,1139
2011/03/10,1141,1141,1130,1133,37480,1133
2011/03/11,1128,1129,1122,1128,60390,1128
2011/03/14,933,1060,933,1044,308210,1044
2011/03/15,1016,1028,864,969,399180,969
2011/03/16,960,1028,960,1014,248520,1014
2011/03/17,999,1048,980,1041,167620,1041
2011/03/18,1040,1076,1039,1066,122230,1066
2011/03/22,1091,1103,1066,1099,146330,1099
2011/03/23,1094,1117,1082,1105,59060,1105
2011/03/24,1099,1105,1097,1103,33520,1103
2011/03/25,1098,1107,1095,1095,26210,1095
2011/03/28,1086,1089,1078,1079,69080,1079
2011/03/29,1068,1082,1065,1076,55860,1076
2011/03/30,1073,1090,1072,1080,311110,1080
2011/03/31,1085,1099,1085,1099,33830,1099
2011/04/01,1099,1114,1091,1114,50390,1114
2011/04/04,1115,1117,1110,1115,21640,1115
2011/04/05,1110,1118,1104,1116,41710,1116
2011/04/06,1116,1122,1111,1113,37750,1113
2011/04/07,1113,1117,1100,1103,35960,1103
2011/04/08,1101,1106,1097,1100,41940,1100
2011/04/11,1096,1098,1091,1097,37130,1097
2011/04/12,1094,1098,1088,1090,31920,1090
2011/04/13,1090,1091,1084,1087,37830,1087
2011/04/14,1083,1088,1081,1088,18100,1088
2011/04/15,1088,1096,1088,1096,16610,1096
2011/04/18,1096,1102,1095,1102,34860,1102
2011/04/19,1098,1101,1091,1099,17940,1099
2011/04/20,1100,1104,1099,1103,15060,1103
2011/04/21,1104,1108,1100,1101,15860,1101
2011/04/22,1102,1113,1101,1108,38200,1108
2011/04/25,1112,1113,1107,1110,22970,1110
2011/04/26,1111,1112,1101,1103,17760,1103
2011/04/27,1107,1111,1104,1111,21370,1111
2011/04/28,1116,1130,1115,1127,44620,1127
2011/05/02,1136,1141,1124,1125,65080,1125
2011/05/06,1115,1120,1115,1120,21300,1120
2011/05/09,1118,1118,1111,1111,19230,1111
2011/05/10,1114,1114,1104,1105,22570,1105
2011/05/11,1105,1105,1099,1101,16910,1101
2011/05/12,1101,1101,1091,1093,10760,1093
2011/05/13,1094,1095,1085,1090,27830,1090
2011/05/16,1089,1095,1085,1094,22820,1094
2011/05/17,1089,1096,1089,1095,10510,1095
2011/05/18,1092,1095,1091,1091,19850,1091
2011/05/19,1095,1096,1091,1095,19190,1095
2011/05/20,1089,1097,1089,1097,34250,1097
2011/05/23,1096,1096,1091,1095,28770,1095
2011/05/24,1091,1095,1090,1092,6710,1092
2011/05/25,1092,1095,1090,1091,14360,1091
2011/05/26,1094,1095,1091,1094,10480,1094
2011/05/27,1094,1099,1089,1097,21050,1097
2011/05/30,1099,1103,1099,1103,21530,1103
2011/05/31,1102,1109,1100,1109,15540,1109
2011/06/01,1105,1106,1102,1103,9840,1103
2011/06/02,1099,1102,1095,1101,13910,1101
2011/06/03,1101,1103,1100,1101,3090,1101
2011/06/06,1099,1101,1091,1093,10450,1093
2011/06/07,1090,1090,1077,1086,53620,1086
2011/06/08,1084,1084,1073,1073,32750,1073
2011/06/09,1073,1079,1070,1072,15800,1072
2011/06/10,1077,1077,1067,1070,23070,1070
2011/06/13,1069,1072,1067,1072,11190,1072
2011/06/14,1072,1079,1070,1070,10600,1070
2011/06/15,1073,1075,1072,1075,10240,1075
2011/06/16,1076,1076,1072,1074,4070,1074
2011/06/17,1071,1073,1067,1067,16620,1067
2011/06/20,1070,1073,1066,1069,42770,1069
2011/06/21,1069,1070,1063,1066,18010,1066
2011/06/22,1067,1069,1066,1069,8140,1069
2011/06/23,1068,1069,1061,1061,23710,1061
2011/06/24,1062,1063,1060,1063,24030,1063
2011/06/27,1062,1063,1059,1061,18420,1061
2011/06/28,1060,1063,1055,1061,99000,1061
2011/06/29,1064,1069,1062,1067,11110,1067
2011/06/30,1069,1075,1068,1071,25870,1071
2011/07/01,1075,1076,1070,1071,16470,1071
2011/07/04,1075,1079,1072,1077,24850,1077
2011/07/05,1077,1078,1074,1075,9580,1075
2011/07/06,1073,1074,1066,1071,37540,1071
2011/07/07,1071,1071,1066,1069,10180,1069
2011/07/08,1070,1070,1066,1066,17310,1066
2011/07/11,1068,1068,1061,1063,35540,1063
2011/07/12,1062,1065,1056,1065,36120,1065
2011/07/13,1060,1069,1058,1067,14110,1067
2011/07/14,1067,1067,1057,1057,25250,1057
2011/07/15,1063,1063,1057,1060,10740,1060
2011/07/19,1059,1063,1059,1059,16480,1059
2011/07/20,1059,1061,1058,1058,9630,1058
2011/07/21,1057,1059,1056,1059,13640,1059
2011/07/22,1056,1057,1054,1055,21750,1055
2011/07/25,1054,1054,1046,1052,39470,1052
2011/07/26,1049,1050,1043,1043,22840,1043
2011/07/27,1040,1046,1037,1043,62990,1043
2011/07/28,1041,1048,1037,1039,14550,1039
2011/07/29,1039,1050,1038,1050,28820,1050
2011/08/01,1045,1055,1045,1049,23490,1049
2011/08/02,1050,1052,1043,1046,13880,1046
2011/08/03,1040,1053,1039,1051,20100,1051
2011/08/04,1052,1059,1049,1059,21270,1059
2011/08/05,1043,1054,1037,1041,29430,1041
2011/08/08,1016,1030,997,1000,79100,1000
2011/08/09,975,989,957,989,91620,989
2011/08/10,1003,1003,981,986,49120,986
2011/08/11,979,983,970,977,31010,977
2011/08/12,985,985,977,981,22780,981
2011/08/15,985,999,981,999,37740,999
2011/08/16,1007,1008,1001,1008,20290,1008
2011/08/17,1010,1026,1005,1024,22050,1024
2011/08/18,1021,1027,1020,1023,25250,1023
2011/08/19,1010,1028,1010,1023,43270,1023
2011/08/22,1017,1022,1017,1021,22550,1021
2011/08/23,1018,1023,1016,1018,20450,1018
2011/08/24,1019,1021,1013,1017,9150,1017
2011/08/25,1018,1018,1011,1016,8070,1016
2011/08/26,1010,1014,1007,1013,13290,1013
2011/08/29,1013,1018,1011,1017,11340,1017
2011/08/30,1018,1019,1017,1017,9360,1017
2011/08/31,1017,1023,1017,1019,9130,1019
2011/09/01,1022,1028,1020,1026,15990,1026
2011/09/02,1025,1025,1020,1023,7460,1023
2011/09/05,1020,1024,1018,1019,24180,1019
2011/09/06,1019,1023,1005,1008,29390,1008
2011/09/07,1010,1010,1001,1003,12690,1003
2011/09/08,1006,1006,998,998,15320,998
2011/09/09,997,1004,996,1000,13340,1000
2011/09/12,997,1001,996,997,18700,997
2011/09/13,996,997,992,993,16480,993
2011/09/14,990,992,977,977,27420,977
2011/09/15,980,980,972,979,21690,979
2011/09/16,980,980,968,969,41810,969
2011/09/20,971,971,960,961,32580,961
2011/09/21,965,975,961,973,19250,973
2011/09/22,968,969,964,968,32110,968
2011/09/26,964,965,951,957,25630,957
2011/09/27,961,961,942,944,32560,944
2011/09/28,952,956,945,953,15090,953
2011/09/29,943,963,942,963,20100,963
2011/09/30,962,979,962,970,34570,970
2011/10/03,969,976,960,973,18910,973
2011/10/04,970,971,951,956,36410,956
2011/10/05,953,953,916,922,102570,922
2011/10/06,929,933,922,925,29370,925
2011/10/07,930,933,924,924,21910,924
2011/10/11,931,935,924,933,49920,933
2011/10/12,933,935,931,933,15860,933
2011/10/13,938,960,938,957,38750,957
2011/10/14,950,954,949,951,23450,951
2011/10/17,954,954,939,939,35840,939
2011/10/18,939,941,932,935,33500,935
2011/10/19,938,938,932,934,8630,934
2011/10/20,932,932,924,926,32930,926
2011/10/21,925,927,920,923,44360,923
2011/10/24,927,928,923,926,23900,926
2011/10/25,926,929,924,925,35800,925
2011/10/26,924,925,919,925,25220,925
2011/10/27,927,937,924,937,18080,937
2011/10/28,943,950,936,949,45710,949
2011/10/31,954,954,945,951,23780,951
2011/11/01,948,950,940,950,20250,950
2011/11/02,945,948,941,948,13400,948
2011/11/04,947,947,940,942,32140,942
2011/11/07,940,941,929,929,58440,929
2011/11/08,923,923,910,910,63360,910
2011/11/09,914,914,904,906,54770,906
2011/11/10,902,903,891,894,82180,894
2011/11/11,892,894,887,891,70070,891
2011/11/14,896,897,890,893,33190,893
2011/11/15,889,893,886,888,29130,888
2011/11/16,885,886,871,871,80060,871
2011/11/17,871,875,865,865,50430,865
2011/11/18,864,867,860,867,82990,867
2011/11/21,869,869,855,858,52130,858
2011/11/22,854,866,851,866,33950,866
2011/11/24,865,867,857,858,45350,858
2011/11/25,859,861,851,853,52990,853
2011/11/28,854,854,841,843,90690,843
2011/11/29,851,867,850,865,41070,865
2011/11/30,873,884,866,878,48740,878
2011/12/01,893,894,874,877,49250,877
2011/12/02,878,887,875,883,17470,883
2011/12/05,890,896,887,894,27020,894
2011/12/06,895,900,887,887,47110,887
2011/12/07,886,895,875,895,48410,895
2011/12/08,891,891,885,885,23670,885
2011/12/09,887,887,879,882,27270,882
2011/12/12,885,885,874,874,49970,874
2011/12/13,872,878,871,875,41800,875
2011/12/14,875,877,873,875,40290,875
2011/12/15,875,875,872,875,13550,875
2011/12/16,875,875,867,871,38440,871
2011/12/19,873,874,867,873,23710,873
2011/12/20,871,873,870,873,28540,873
2011/12/21,876,877,869,871,30280,871
2011/12/22,871,874,866,866,20630,866
2011/12/26,871,901,870,880,39100,880
2011/12/27,871,881,870,881,41700,881
2011/12/28,881,883,878,880,15850,880
2011/12/29,880,880,868,872,47380,872
2011/12/30,873,877,870,877,26090,877
2012/01/04,880,885,879,883,15700,883
2012/01/05,882,884,879,882,18350,882
2012/01/06,882,887,882,887,11650,887
2012/01/10,890,894,890,891,19480,891
2012/01/11,888,889,883,884,56300,884
2012/01/12,885,885,876,878,25730,878
2012/01/13,880,880,872,875,29210,875
2012/01/16,876,876,868,870,34870,870
2012/01/17,870,870,862,862,45190,862
2012/01/18,865,867,863,865,27250,865
2012/01/19,866,874,864,874,29020,874
2012/01/20,880,887,873,882,31950,882
2012/01/23,889,893,886,890,41980,890
2012/01/24,892,897,891,893,34640,893
2012/01/25,895,895,887,887,34820,887
2012/01/26,892,892,887,888,21550,888
2012/01/27,890,891,878,883,53720,883
2012/01/30,887,889,884,889,13670,889
2012/01/31,892,897,888,897,37240,897
2012/02/01,895,896,891,895,22240,895
2012/02/02,896,902,893,902,34520,902
2012/02/03,904,909,901,909,90080,909
2012/02/06,912,912,899,901,75760,901
2012/02/07,903,907,896,907,25360,907
2012/02/08,900,900,895,895,66200,895
2012/02/09,893,894,890,893,52490,893
2012/02/10,899,899,891,893,76450,893
2012/02/13,895,896,890,894,23650,894
2012/02/14,893,893,887,891,52080,891
2012/02/15,893,899,891,899,56670,899
2012/02/16,900,904,899,904,34660,904
2012/02/17,910,929,908,925,92010,925
2012/02/20,937,946,935,940,119080,940
2012/02/21,935,940,935,940,78280,940
2012/02/22,940,942,933,939,61740,939
2012/02/23,939,951,937,949,61140,949
2012/02/24,953,974,953,974,124370,974
2012/02/27,984,998,983,997,104220,997
2012/02/28,985,1008,983,1005,138930,1005
2012/02/29,999,1002,991,995,76540,995
2012/03/01,999,999,981,981,60290,981
2012/03/02,991,995,985,993,44970,993
2012/03/05,993,997,990,992,62280,992
2012/03/06,991,991,978,986,44280,986
2012/03/07,971,990,971,990,98740,990
2012/03/08,994,1007,994,1006,91870,1006
2012/03/09,1010,1013,1008,1009,66690,1009
2012/03/12,1015,1019,1008,1012,68950,1012
2012/03/13,1009,1017,1009,1009,47430,1009
2012/03/14,1016,1023,1016,1023,72500,1023
2012/03/15,1023,1029,1021,1029,90800,1029
2012/03/16,1031,1037,1030,1035,89870,1035
2012/03/19,1036,1047,1036,1044,37510,1044
2012/03/21,1044,1045,1023,1029,68380,1029
2012/03/22,1020,1026,1005,1007,88010,1007
2012/03/23,1000,1008,1000,1004,54300,1004
2012/03/26,1004,1015,1004,1009,58940,1009
2012/03/27,1020,1023,1018,1020,32090,1020
2012/03/28,1023,1028,1020,1020,32240,1020
2012/03/29,1020,1035,1019,1030,40660,1030
2012/03/30,1030,1039,1026,1036,22120,1036
2012/04/02,1038,1051,1037,1049,95730,1049
2012/04/03,1057,1062,1044,1047,95260,1047
2012/04/04,1047,1047,1025,1034,64080,1034
2012/04/05,1020,1028,1016,1019,87630,1019
2012/04/06,1016,1024,1013,1024,34110,1024
2012/04/09,1010,1030,1010,1019,134630,1019
2012/04/10,1021,1025,1016,1024,54480,1024
2012/04/11,1012,1019,1010,1013,43170,1013
2012/04/12,1018,1019,1011,1011,34490,1011
2012/04/13,1015,1022,1015,1022,18950,1022
2012/04/16,1018,1020,1013,1019,36220,1019
2012/04/17,1020,1020,1008,1010,57920,1010
2012/04/18,1018,1025,1018,1025,109180,1025
2012/04/19,1026,1036,1025,1026,80570,1026
2012/04/20,1028,1034,1022,1034,46240,1034
2012/04/23,1040,1041,1029,1030,66800,1030
2012/04/24,1028,1028,1020,1023,31290,1023
2012/04/25,1029,1034,1027,1030,30970,1030
2012/04/26,1030,1032,1022,1022,52510,1022
2012/04/27,1027,1034,1024,1028,37920,1028
2012/05/01,1027,1028,1019,1022,32290,1022
2012/05/02,1025,1030,1023,1028,19750,1028
2012/05/07,1016,1019,1006,1013,65400,1013
2012/05/08,1003,1004,992,997,77750,997
2012/05/09,997,999,993,997,82760,997
2012/05/10,993,1006,993,993,34110,993
2012/05/11,994,997,979,979,42410,979
2012/05/14,979,981,975,978,37050,978
2012/05/15,975,976,964,976,51980,976
2012/05/16,971,971,964,968,37440,968
2012/05/17,965,975,964,972,48440,972
2012/05/18,964,965,955,957,30750,957
2012/05/21,955,966,955,962,40500,962
2012/05/22,967,967,959,960,81700,960
2012/05/23,955,959,946,948,30260,948
2012/05/24,947,948,940,946,21240,946
2012/05/25,952,959,950,951,43820,951
2012/05/28,950,954,948,953,33810,953
2012/05/29,956,969,951,969,24910,969
2012/05/30,968,968,964,964,34450,964
2012/05/31,956,970,953,968,59380,968
2012/06/01,966,971,953,955,34600,955
2012/06/04,945,945,928,932,76610,932
2012/06/05,934,936,927,932,36670,932
2012/06/06,941,945,936,937,51420,937
2012/06/07,946,952,943,948,46890,948
2012/06/08,946,951,937,940,19050,940
2012/06/11,948,950,946,948,18160,948
2012/06/12,946,952,942,947,32980,947
2012/06/13,953,955,950,954,10540,954
2012/06/14,954,955,952,954,17250,954
2012/06/15,955,957,950,957,70190,957
2012/06/18,964,973,963,970,134050,970
2012/06/19,970,981,968,978,27730,978
2012/06/20,985,990,984,989,42030,989
2012/06/21,990,996,990,994,19740,994
2012/06/22,987,997,986,996,20410,996
2012/06/25,1001,1001,992,992,31200,992
2012/06/26,990,992,985,987,15190,987
2012/06/27,986,997,986,993,72220,993
2012/06/28,997,1007,995,1007,67370,1007
2012/06/29,1009,1025,1008,1015,55840,1015
2012/07/02,1026,1026,1020,1024,115100,1024
2012/07/03,1024,1027,1018,1021,65790,1021
2012/07/04,1022,1025,1013,1017,39160,1017
2012/07/05,1017,1018,1012,1012,12980,1012
2012/07/06,1012,1012,1005,1007,21770,1007
2012/07/09,1008,1010,1000,1000,41190,1000
2012/07/10,997,999,990,991,27630,991
2012/07/11,990,991,984,991,109770,991
2012/07/12,990,992,988,988,59300,988
2012/07/13,988,1001,985,1001,156080,1001
2012/07/17,1003,1010,998,1007,54950,1007
2012/07/18,1014,1019,1004,1007,47450,1007
2012/07/19,1009,1009,1001,1002,31190,1002
2012/07/20,1000,1000,992,999,75370,999
2012/07/23,998,1003,993,993,111540,993
2012/07/24,991,991,982,988,89440,988
2012/07/25,984,991,983,989,30940,989
2012/07/26,989,999,989,995,38710,995
2012/07/27,1001,1008,1000,1008,65220,1008
2012/07/30,1009,1014,1002,1005,117490,1005
2012/07/31,1001,1004,998,1003,66350,1003
2012/08/01,1002,1006,1000,1003,53820,1003
2012/08/02,1003,1007,1003,1003,54090,1003
2012/08/03,1006,1008,1001,1006,26180,1006
2012/08/06,1012,1014,1009,1012,60730,1012
2012/08/07,1013,1014,1009,1013,21280,1013
2012/08/08,1007,1009,997,997,52610,997
2012/08/09,1002,1002,996,996,61900,996
2012/08/10,998,999,961,989,320670,989
2012/08/13,992,993,989,992,24940,992
2012/08/14,991,997,990,995,60780,995
2012/08/15,995,998,994,996,198540,996
2012/08/16,998,1000,992,992,17870,992
2012/08/17,996,1001,995,1001,33510,1001
2012/08/20,1004,1004,1000,1003,11330,1003
2012/08/21,1004,1005,1002,1004,8660,1004
2012/08/22,1006,1011,1003,1011,25030,1011
2012/08/23,1013,1019,1012,1017,32110,1017
2012/08/24,1014,1024,1011,1023,72430,1023
2012/08/27,1030,1036,1026,1033,83240,1033
2012/08/28,1032,1032,1024,1030,77300,1030
2012/08/29,1030,1036,1028,1033,49600,1033
2012/08/30,1028,1031,1020,1022,79680,1022
2012/08/31,1020,1027,1019,1026,20480,1026
2012/09/03,1028,1029,1023,1023,12220,1023
2012/09/04,1023,1025,1015,1019,19490,1019
2012/09/05,1017,1024,1016,1017,13070,1017
2012/09/06,1021,1025,1021,1022,18600,1022
2012/09/07,1028,1029,1022,1026,20660,1026
2012/09/10,1028,1029,1024,1029,63410,1029
2012/09/11,1026,1026,1021,1025,50490,1025
2012/09/12,1022,1026,1021,1023,25810,1023
2012/09/13,1020,1029,1017,1029,18630,1029
2012/09/14,1031,1038,1030,1037,126130,1037
2012/09/18,1040,1040,1035,1040,50200,1040
2012/09/19,1045,1050,1041,1041,139400,1041
2012/09/20,1039,1049,1038,1048,66240,1048
2012/09/21,1049,1050,1043,1043,32560,1043
2012/09/24,1044,1049,1044,1049,46930,1049
2012/09/25,1050,1055,1046,1054,41550,1054
2012/09/26,1051,1067,1051,1064,49730,1064
2012/09/27,1063,1072,1060,1072,44580,1072
2012/09/28,1075,1079,1072,1078,62990,1078
2012/10/01,1078,1083,1071,1074,62280,1074
2012/10/02,1080,1083,1068,1068,28360,1068
2012/10/03,1066,1067,1060,1064,171380,1064
2012/10/04,1064,1073,1063,1068,148450,1068
2012/10/05,1069,1071,1067,1069,116520,1069
2012/10/09,1071,1080,1070,1071,39520,1071
2012/10/10,1072,1076,1070,1076,19620,1076
2012/10/11,1073,1076,1069,1076,50450,1076
2012/10/12,1077,1081,1075,1078,44250,1078
2012/10/15,1077,1080,1074,1080,23920,1080
2012/10/16,1079,1087,1079,1087,34090,1087
2012/10/17,1087,1093,1087,1093,37410,1093
2012/10/18,1096,1100,1091,1095,57810,1095
2012/10/19,1090,1095,1087,1094,39510,1094
2012/10/22,1086,1099,1086,1099,25410,1099
2012/10/23,1101,1103,1097,1099,39840,1099
2012/10/24,1099,1109,1098,1109,79150,1109
2012/10/25,1104,1110,1101,1110,72390,1110
2012/10/26,1111,1115,1108,1112,64560,1112
2012/10/29,1115,1127,1115,1120,210510,1120
2012/10/30,1121,1128,1106,1107,144130,1107
2012/10/31,1112,1117,1101,1116,134580,1116
2012/11/01,1117,1123,1117,1122,38570,1122
2012/11/02,1126,1135,1124,1135,68470,1135
2012/11/05,1133,1134,1120,1122,60540,1122
2012/11/06,1124,1125,1120,1120,51560,1120
2012/11/07,1115,1115,1106,1113,42520,1113
2012/11/08,1105,1106,1095,1098,56980,1098
2012/11/09,1091,1094,1086,1090,83690,1090
2012/11/12,1088,1089,1080,1081,59590,1081
2012/11/13,1082,1083,1075,1075,26120,1075
2012/11/14,1079,1095,1079,1095,39620,1095
2012/11/15,1088,1109,1088,1109,39760,1109
2012/11/16,1110,1114,1103,1105,35490,1105
2012/11/19,1114,1120,1108,1115,50640,1115
2012/11/20,1117,1117,1110,1110,43790,1110
2012/11/21,1113,1118,1111,1118,37180,1118
2012/11/22,1120,1121,1114,1119,41410,1119
2012/11/26,1122,1124,1115,1118,25980,1118
2012/11/27,1119,1119,1114,1117,16460,1117
2012/11/28,1115,1115,1109,1111,33910,1111
2012/11/29,1111,1113,1104,1108,35580,1108
2012/11/30,1111,1122,1108,1119,46590,1119
2012/12/03,1124,1129,1124,1125,42660,1125
2012/12/04,1126,1129,1120,1120,13150,1120
2012/12/05,1120,1122,1116,1120,44370,1120
2012/12/06,1122,1122,1117,1121,72310,1121
2012/12/07,1124,1124,1115,1120,91580,1120
2012/12/10,1115,1120,1114,1118,23020,1118
2012/12/11,1112,1117,1108,1110,68080,1110
2012/12/12,1108,1108,1102,1108,35310,1108
2012/12/13,1106,1113,1102,1113,65970,1113
2012/12/14,1113,1122,1113,1121,56930,1121
2012/12/17,1125,1130,1121,1130,79600,1130
2012/12/18,1130,1137,1130,1137,56290,1137
2012/12/19,1140,1147,1137,1147,118030,1147
2012/12/20,1145,1153,1142,1152,163630,1152
2012/12/21,1151,1173,1151,1173,224940,1173
2012/12/25,1173,1179,1170,1179,102830,1179
2012/12/26,1182,1183,1176,1179,64300,1179
2012/12/27,1185,1185,1171,1173,118790,1173
2012/12/28,1175,1183,1172,1181,69050,1181
2013/01/04,1211,1216,1195,1205,161570,1205
2013/01/07,1213,1216,1207,1207,74600,1207
2013/01/08,1206,1206,1188,1189,139470,1189
2013/01/09,1183,1193,1177,1188,116360,1188
2013/01/10,1198,1203,1195,1202,71130,1202
2013/01/11,1206,1217,1203,1208,82150,1208
2013/01/15,1218,1225,1210,1213,112550,1213
2013/01/16,1212,1212,1200,1200,79370,1200
2013/01/17,1200,1206,1194,1196,112820,1196
2013/01/18,1208,1215,1206,1215,86240,1215
2013/01/21,1223,1223,1213,1220,123240,1220
2013/01/22,1221,1221,1209,1216,116680,1216
2013/01/23,1214,1219,1211,1211,77510,1211
2013/01/24,1207,1224,1206,1224,55970,1224
2013/01/25,1230,1232,1228,1232,65690,1232
2013/01/28,1246,1260,1241,1257,145400,1257
2013/01/29,1260,1280,1259,1280,129250,1280
2013/01/30,1280,1310,1273,1310,246200,1310
2013/01/31,1308,1335,1295,1335,174090,1335
2013/02/01,1341,1348,1301,1323,268270,1323
2013/02/04,1340,1340,1313,1315,204860,1315
2013/02/05,1307,1311,1300,1302,126870,1302
2013/02/06,1306,1317,1306,1315,87030,1315
2013/02/07,1318,1320,1310,1315,41580,1315
2013/02/08,1310,1313,1305,1308,53070,1308
2013/02/12,1319,1322,1315,1320,53770,1320
2013/02/13,1316,1317,1300,1300,103130,1300
2013/02/14,1305,1310,1301,1302,45790,1302
2013/02/15,1304,1304,1282,1297,78340,1297
2013/02/18,1307,1314,1303,1312,89680,1312
2013/02/19,1313,1322,1309,1321,70870,1321
2013/02/20,1332,1339,1326,1339,107040,1339
2013/02/21,1338,1345,1336,1341,82210,1341
2013/02/22,1336,1345,1331,1343,115170,1343
2013/02/25,1350,1358,1346,1353,82660,1353
2013/02/26,1343,1370,1341,1362,70590,1362
2013/02/27,1378,1389,1376,1386,115240,1386
2013/02/28,1398,1404,1393,1396,166830,1396
2013/03/01,1407,1445,1407,1445,228070,1445
2013/03/04,1464,1493,1459,1474,210500,1474
2013/03/05,1488,1498,1460,1474,362950,1474
2013/03/06,1480,1482,1456,1469,216390,1469
2013/03/07,1479,1481,1462,1476,132640,1476
2013/03/08,1471,1474,1455,1459,166370,1459
2013/03/11,1466,1496,1464,1494,168910,1494
2013/03/12,1507,1516,1495,1505,168290,1505
2013/03/13,1512,1533,1508,1532,139110,1532
2013/03/14,1540,1660,1536,1598,198370,1598
2013/03/15,1632,1644,1600,1644,444430,1644
2013/03/18,1655,1655,1622,1633,366930,1633
2013/03/19,1638,1649,1600,1629,336430,1629
2013/03/21,1623,1629,1600,1629,231770,1629
2013/03/22,1640,1669,1634,1664,226440,1664
2013/03/25,1695,1787,1692,1787,516250,1787
2013/03/26,1759,1768,1720,1748,592550,1748
2013/03/27,1788,1821,1782,1813,501610,1813
2013/03/28,1846,1850,1770,1771,731410,1771
2013/03/29,1740,1758,1629,1743,919140,1743
2013/04/01,1744,1744,1621,1626,713090,1626
2013/04/02,1576,1649,1533,1640,752780,1640
2013/04/03,1654,1674,1594,1624,575030,1624
2013/04/04,1596,1708,1574,1708,945820,1708
2013/04/05,1948,1948,1756,1764,1254310,1764
2013/04/08,1819,1821,1775,1798,649460,1798
2013/04/09,1802,1803,1730,1740,573080,1740
2013/04/10,1715,1755,1709,1718,524920,1718
2013/04/11,1735,1740,1666,1719,610310,1719
2013/04/12,1696,1729,1696,1716,277050,1716
2013/04/15,1718,1722,1691,1700,215480,1700
2013/04/16,1650,1698,1640,1671,661910,1671
2013/04/17,1680,1687,1648,1656,281850,1656
2013/04/18,1648,1683,1641,1658,240260,1658
2013/04/19,1676,1728,1674,1728,349820,1728
2013/04/22,1738,1747,1711,1715,469420,1715
2013/04/23,1711,1714,1690,1705,212160,1705
2013/04/24,1713,1719,1690,1702,295840,1702
2013/04/25,1698,1707,1684,1702,184870,1702
2013/04/26,1709,1709,1682,1687,302340,1687
2013/04/30,1679,1707,1676,1704,241000,1704
2013/05/01,1702,1712,1701,1704,181290,1704
2013/05/02,1696,1697,1678,1684,173630,1684
2013/05/07,1705,1708,1685,1689,160970,1689
2013/05/08,1660,1673,1657,1661,293980,1661
2013/05/09,1658,1660,1611,1612,350570,1612
2013/05/10,1606,1620,1567,1575,450860,1575
2013/05/13,1560,1562,1482,1500,973390,1500
2013/05/14,1478,1504,1405,1468,2056670,1468
2013/05/15,1439,1458,1415,1442,1340530,1442
2013/05/16,1470,1507,1444,1478,1513350,1478
2013/05/17,1510,1619,1505,1619,2105210,1619
2013/05/20,1627,1629,1585,1629,1320720,1629
2013/05/21,1617,1618,1564,1581,587770,1581
2013/05/22,1561,1580,1538,1556,717470,1556
2013/05/23,1510,1516,1451,1462,788330,1462
2013/05/24,1485,1519,1402,1439,765550,1439
2013/05/27,1430,1486,1410,1475,799350,1475
2013/05/28,1490,1496,1458,1485,203950,1485
2013/05/29,1484,1488,1457,1477,272570,1477
2013/05/30,1460,1461,1433,1440,700400,1440
2013/05/31,1450,1471,1412,1431,649080,1431
2013/06/03,1419,1432,1410,1420,295000,1420
2013/06/04,1428,1430,1393,1425,516400,1425
2013/06/05,1415,1423,1387,1390,285140,1390
2013/06/06,1365,1378,1342,1342,417970,1342
2013/06/07,1327,1387,1320,1372,610890,1372
2013/06/10,1400,1411,1358,1368,383660,1368
2013/06/11,1376,1391,1353,1383,457920,1383
2013/06/12,1350,1353,1330,1342,235120,1342
2013/06/13,1325,1333,1313,1327,266330,1327
2013/06/14,1310,1399,1305,1393,282590,1393
2013/06/17,1392,1410,1352,1375,318000,1375
2013/06/18,1370,1384,1360,1379,139930,1379
2013/06/19,1399,1399,1376,1379,99100,1379
2013/06/20,1366,1366,1338,1339,200950,1339
2013/06/21,1309,1378,1309,1377,291670,1377
2013/06/24,1371,1384,1359,1368,186040,1368
2013/06/25,1356,1363,1342,1355,141160,1355
2013/06/26,1356,1365,1342,1360,160140,1360
2013/06/27,1368,1412,1360,1403,191340,1403
2013/06/28,1430,1475,1425,1473,320830,1473
2013/07/01,1480,1487,1449,1466,211940,1466
2013/07/02,1480,1485,1460,1468,196660,1468
2013/07/03,1470,1479,1455,1465,184950,1465
2013/07/04,1460,1484,1457,1468,155780,1468
2013/07/05,1479,1479,1466,1469,153960,1469
2013/07/08,1472,1475,1457,1457,157590,1457
2013/07/09,1455,1467,1451,1454,207760,1454
2013/07/10,1450,1455,1440,1450,194550,1450
2013/07/11,1446,1474,1446,1468,207330,1468
2013/07/12,1476,1499,1475,1491,355330,1491
2013/07/16,1500,1501,1472,1474,209270,1474
2013/07/17,1475,1478,1464,1466,189620,1466
2013/07/18,1474,1475,1469,1473,95060,1473
2013/07/19,1470,1473,1448,1450,241970,1450
2013/07/22,1454,1469,1449,1462,129720,1462
2013/07/23,1459,1476,1457,1467,183250,1467
2013/07/24,1461,1464,1453,1459,216500,1459
2013/07/25,1455,1464,1454,1459,279030,1459
2013/07/26,1453,1455,1447,1448,147590,1448
2013/07/29,1426,1435,1421,1425,241040,1425
2013/07/30,1416,1441,1409,1438,475860,1438
2013/07/31,1415,1422,1402,1408,278730,1408
2013/08/01,1408,1445,1407,1443,166360,1443
2013/08/02,1444,1453,1437,1441,172260,1441
2013/08/05,1442,1453,1440,1448,61660,1448
2013/08/06,1452,1452,1431,1442,200190,1442
2013/08/07,1428,1429,1411,1411,209540,1411
2013/08/08,1418,1425,1402,1414,154480,1414
2013/08/09,1409,1425,1402,1420,66590,1420
2013/08/12,1415,1420,1405,1411,66780,1411
2013/08/13,1410,1424,1409,1417,47070,1417
2013/08/14,1422,1436,1417,1435,55160,1435
2013/08/15,1422,1437,1422,1436,40120,1436
2013/08/16,1423,1435,1422,1422,125270,1422
2013/08/19,1428,1428,1410,1416,64550,1416
2013/08/20,1415,1415,1410,1411,56720,1411
2013/08/21,1409,1413,1394,1400,122740,1400
2013/08/22,1387,1404,1382,1383,102860,1383
2013/08/23,1390,1395,1383,1391,68480,1391
2013/08/26,1391,1391,1380,1380,69760,1380
2013/08/27,1381,1383,1367,1370,194380,1370
2013/08/28,1355,1374,1350,1365,253980,1365
2013/08/29,1366,1368,1355,1357,104630,1357
2013/08/30,1371,1375,1361,1370,51450,1370
2013/09/02,1372,1389,1371,1382,50040,1382
2013/09/03,1392,1398,1390,1393,55490,1393
2013/09/04,1399,1402,1393,1396,61340,1396
2013/09/05,1408,1412,1401,1408,85270,1408
2013/09/06,1411,1411,1393,1393,108560,1393
2013/09/09,1450,1455,1429,1450,212360,1450
2013/09/10,1468,1483,1457,1483,288820,1483
2013/09/11,1497,1500,1483,1497,249970,1497
2013/09/12,1492,1495,1475,1483,120120,1483
2013/09/13,1476,1498,1470,1486,228330,1486
2013/09/17,1492,1507,1492,1502,185910,1502
2013/09/18,1500,1508,1493,1504,117250,1504
2013/09/19,1515,1541,1511,1538,338500,1538
2013/09/20,1550,1551,1521,1534,336450,1534
2013/09/24,1520,1532,1509,1525,218110,1525
2013/09/25,1528,1559,1528,1549,275180,1549
2013/09/26,1550,1573,1531,1564,323380,1564
2013/09/27,1560,1591,1558,1588,200510,1588
2013/09/30,1574,1607,1566,1587,353320,1587
2013/10/01,1590,1593,1561,1576,256390,1576
2013/10/02,1565,1568,1512,1512,322610,1512
2013/10/03,1505,1537,1505,1533,266550,1533
2013/10/04,1523,1536,1502,1523,114800,1523
2013/10/07,1526,1539,1512,1517,162460,1517
2013/10/08,1500,1519,1494,1519,160750,1519
2013/10/09,1507,1549,1505,1549,138680,1549
2013/10/10,1551,1558,1539,1553,280440,1553
2013/10/11,1560,1567,1544,1546,153010,1546
2013/10/15,1555,1564,1544,1547,161070,1547
2013/10/16,1549,1555,1541,1542,106160,1542
2013/10/17,1555,1558,1548,1552,66810,1552
2013/10/18,1552,1554,1543,1546,119800,1546
2013/10/21,1553,1565,1553,1565,88420,1565
2013/10/22,1562,1564,1555,1556,96180,1556
2013/10/23,1556,1563,1554,1559,153720,1559
2013/10/24,1555,1559,1551,1557,108850,1557
2013/10/25,1553,1554,1550,1551,109480,1551
2013/10/28,1555,1557,1550,1550,56050,1550
2013/10/29,1550,1563,1550,1555,119940,1555
2013/10/30,1561,1576,1560,1572,161200,1572
2013/10/31,1568,1569,1556,1556,123740,1556
2013/11/01,1554,1566,1552,1559,187060,1559
2013/11/05,1556,1559,1546,1553,102100,1553
2013/11/06,1536,1547,1529,1533,188140,1533
2013/11/07,1530,1532,1503,1503,221320,1503
2013/11/08,1499,1512,1499,1503,232540,1503
2013/11/11,1512,1518,1506,1510,80390,1510
2013/11/12,1509,1515,1506,1509,146650,1509
2013/11/13,1510,1517,1506,1512,181930,1512
2013/11/14,1509,1526,1509,1526,132660,1526
2013/11/15,1541,1555,1536,1550,302670,1550
2013/11/18,1555,1557,1533,1535,212600,1535
2013/11/19,1533,1536,1523,1529,163640,1529
2013/11/20,1522,1527,1518,1522,113420,1522
2013/11/21,1518,1524,1511,1520,166600,1520
2013/11/22,1527,1529,1518,1520,167730,1520
2013/11/25,1522,1525,1516,1516,110540,1516
2013/11/26,1514,1522,1513,1522,114140,1522
2013/11/27,1521,1529,1516,1522,176050,1522
2013/11/28,1530,1538,1524,1535,97430,1535
2013/11/29,1540,1544,1538,1543,121750,1543
2013/12/02,1548,1558,1542,1556,186320,1556
2013/12/03,1555,1562,1551,1555,182670,1555
2013/12/04,1543,1555,1540,1546,179520,1546
2013/12/05,1541,1542,1532,1533,142030,1533
2013/12/06,1521,1541,1521,1527,252300,1527
2013/12/09,1532,1536,1526,1533,186210,1533
2013/12/10,1535,1539,1527,1531,163090,1531
2013/12/11,1528,1533,1526,1530,359330,1530
2013/12/12,1526,1527,1520,1521,137560,1521
2013/12/13,1522,1532,1522,1525,130330,1525
2013/12/16,1521,1523,1510,1512,217380,1512
2013/12/17,1511,1517,1508,1508,149510,1508
2013/12/18,1505,1524,1505,1520,175400,1520
2013/12/19,1525,1526,1515,1515,313980,1515
2013/12/20,1512,1530,1512,1528,350900,1528
2013/12/24,1528,1530,1520,1523,230140,1523
2013/12/25,1519,1521,1510,1519,449930,1519
2013/12/26,1521,1551,1521,1545,347670,1545
2013/12/27,1553,1562,1532,1552,244090,1552
2013/12/30,1567,1627,1565,1616,445670,1616
2014/01/06,1615,1615,1582,1599,371480,1599
2014/01/07,1600,1601,1578,1578,227460,1578
2014/01/08,1589,1589,1564,1573,176180,1573
2014/01/09,1578,1578,1559,1570,230060,1570
2014/01/10,1571,1584,1561,1573,170320,1573
2014/01/14,1560,1567,1555,1562,139220,1562
2014/01/15,1572,1580,1569,1580,76180,1580
2014/01/16,1587,1587,1575,1582,134680,1582
2014/01/17,1592,1606,1589,1593,430400,1593
2014/01/20,1598,1600,1586,1597,96220,1597
2014/01/21,1595,1599,1587,1591,147980,1591
2014/01/22,1598,1604,1591,1600,223270,1600
2014/01/23,1602,1602,1589,1591,111010,1591
2014/01/24,1582,1583,1564,1571,169170,1571
2014/01/27,1551,1568,1538,1562,270650,1562
2014/01/28,1569,1571,1556,1563,112040,1563
2014/01/29,1574,1597,1574,1595,137860,1595
2014/01/30,1575,1594,1571,1580,201390,1580
2014/01/31,1591,1599,1583,1592,171970,1592
2014/02/03,1586,1586,1569,1569,248860,1569
2014/02/04,1525,1552,1517,1538,266600,1538
2014/02/05,1560,1560,1542,1542,166520,1542
2014/02/06,1536,1546,1528,1533,137390,1533
2014/02/07,1537,1555,1532,1546,277150,1546
2014/02/10,1555,1555,1540,1546,144940,1546
2014/02/12,1558,1565,1550,1553,185050,1553
2014/02/13,1549,1552,1538,1538,127250,1538
2014/02/14,1541,1550,1526,1536,187460,1536
2014/02/17,1539,1554,1536,1550,119770,1550
2014/02/18,1551,1559,1548,1550,198870,1550
2014/02/19,1555,1564,1555,1560,108410,1560
2014/02/20,1563,1570,1554,1565,154870,1565
2014/02/21,1566,1575,1565,1575,104550,1575
2014/02/24,1580,1583,1564,1571,274130,1571
2014/02/25,1573,1582,1570,1580,122630,1580
2014/02/26,1580,1590,1579,1585,266740,1585
2014/02/27,1591,1596,1582,1595,226870,1595
2014/02/28,1591,1593,1576,1583,256700,1583
2014/03/03,1588,1591,1578,1590,204780,1590
2014/03/04,1573,1579,1573,1577,185240,1577
2014/03/05,1583,1585,1575,1577,118050,1577
2014/03/06,1577,1583,1567,1579,131550,1579
2014/03/07,1579,1589,1576,1582,151440,1582
2014/03/10,1580,1584,1567,1578,110820,1578
2014/03/11,1581,1582,1575,1582,102200,1582
2014/03/12,1570,1571,1552,1552,243870,1552
2014/03/13,1559,1562,1551,1562,157280,1562
2014/03/14,1551,1555,1543,1545,161730,1545
2014/03/17,1544,1551,1541,1551,196640,1551
2014/03/18,1560,1564,1546,1550,73180,1550
2014/03/19,1559,1559,1544,1546,108600,1546
2014/03/20,1546,1546,1535,1536,215220,1536
2014/03/24,1528,1557,1528,1554,210980,1554
2014/03/25,1547,1559,1538,1547,174120,1547
2014/03/26,1548,1557,1548,1555,186530,1555
2014/03/27,1554,1569,1550,1569,93590,1569
2014/03/28,1567,1583,1553,1572,164820,1572
2014/03/31,1590,1590,1547,1559,266060,1559
2014/04/01,1569,1575,1560,1567,166810,1567
2014/04/02,1573,1583,1572,1575,154230,1575
2014/04/03,1580,1589,1576,1582,205510,1582
2014/04/04,1577,1577,1562,1563,235490,1563
2014/04/07,1572,1586,1572,1578,145450,1578
2014/04/08,1575,1575,1556,1560,205450,1560
2014/04/09,1552,1561,1547,1551,175580,1551
2014/04/10,1563,1571,1557,1562,90860,1562
2014/04/11,1549,1559,1544,1549,238970,1549
2014/04/14,1546,1559,1542,1557,66800,1557
2014/04/15,1562,1562,1552,1553,138220,1553
2014/04/16,1553,1564,1553,1564,119630,1564
2014/04/17,1563,1570,1563,1567,86850,1567
2014/04/18,1569,1584,1569,1584,178940,1584
2014/04/21,1579,1579,1573,1573,76020,1573
2014/04/22,1580,1585,1574,1582,78540,1582
2014/04/23,1580,1581,1575,1578,85170,1578
2014/04/24,1579,1582,1578,1582,94790,1582
2014/04/25,1576,1583,1575,1581,129120,1581
2014/04/28,1580,1584,1578,1582,85910,1582
2014/04/30,1582,1588,1582,1588,149910,1588
2014/05/01,1590,1595,1590,1590,181380,1590
2014/05/02,1595,1598,1588,1592,371780,1592
2014/05/07,1573,1589,1570,1579,121250,1579
2014/05/08,1588,1588,1572,1583,83260,1583
2014/05/09,1580,1584,1579,1580,106110,1580
2014/05/12,1585,1588,1582,1586,198120,1586
2014/05/13,1587,1597,1585,1597,49880,1597
2014/05/14,1589,1600,1587,1590,99300,1590
2014/05/15,1591,1594,1586,1594,47240,1594
2014/05/16,1598,1599,1590,1599,70750,1599
2014/05/19,1599,1603,1592,1594,77340,1594
2014/05/20,1592,1598,1590,1595,63510,1595
2014/05/21,1590,1599,1590,1599,127860,1599
2014/05/22,1599,1606,1599,1603,100800,1603
2014/05/23,1607,1609,1605,1607,77200,1607
2014/05/26,1603,1610,1603,1608,81350,1608
2014/05/27,1608,1626,1605,1620,222770,1620
2014/05/28,1625,1639,1625,1635,218160,1635
2014/05/29,1640,1642,1627,1637,211290,1637
2014/05/30,1635,1646,1635,1643,190070,1643
2014/06/02,1647,1655,1645,1651,172220,1651
2014/06/03,1661,1661,1654,1658,411910,1658
2014/06/04,1654,1657,1638,1642,163230,1642
2014/06/05,1645,1648,1623,1623,177350,1623
2014/06/06,1637,1645,1635,1642,105280,1642
2014/06/09,1648,1653,1644,1649,75570,1649
2014/06/10,1651,1652,1635,1639,174400,1639
2014/06/11,1639,1651,1633,1651,65810,1651
2014/06/12,1649,1653,1641,1648,55720,1648
2014/06/13,1648,1665,1648,1664,85310,1664
2014/06/16,1661,1667,1660,1667,76860,1667
2014/06/17,1658,1666,1657,1660,110460,1660
2014/06/18,1664,1674,1663,1674,99010,1674
2014/06/19,1677,1678,1668,1674,191550,1674
2014/06/20,1680,1707,1677,1705,445450,1705
2014/06/23,1699,1703,1681,1685,199810,1685
2014/06/24,1682,1690,1675,1677,132020,1677
2014/06/25,1676,1680,1675,1678,95920,1678
2014/06/26,1682,1687,1675,1675,93060,1675
2014/06/27,1682,1689,1675,1680,128630,1680
2014/06/30,1688,1698,1682,1694,92200,1694
2014/07/01,1698,1701,1689,1694,143210,1694
2014/07/02,1699,1703,1696,1700,137460,1700
2014/07/03,1702,1706,1694,1699,168220,1699
2014/07/04,1702,1704,1688,1690,134930,1690
2014/07/07,1690,1695,1685,1694,53790,1694
2014/07/08,1688,1690,1685,1686,75410,1686
2014/07/09,1686,1689,1681,1687,69870,1687
2014/07/10,1690,1696,1682,1685,86530,1685
2014/07/11,1689,1689,1679,1682,119390,1682
2014/07/14,1680,1682,1678,1679,76930,1679
2014/07/15,1685,1700,1685,1700,132820,1700
2014/07/16,1702,1705,1698,1705,55990,1705
2014/07/17,1708,1708,1695,1699,157030,1699
2014/07/18,1691,1718,1686,1715,156500,1715
2014/07/22,1715,1720,1707,1714,78060,1714
2014/07/23,1713,1713,1708,1710,54260,1710
2014/07/24,1713,1713,1705,1709,77820,1709
2014/07/25,1715,1715,1702,1705,172440,1705
2014/07/28,1705,1707,1700,1701,186210,1701
2014/07/29,1701,1707,1701,1703,73060,1703
2014/07/30,1703,1718,1703,1717,128390,1717
2014/07/31,1718,1722,1711,1720,98960,1720
2014/08/01,1707,1721,1707,1716,100930,1716
2014/08/04,1719,1724,1715,1722,107070,1722
2014/08/05,1725,1729,1722,1728,62420,1728
2014/08/06,1710,1714,1701,1702,64510,1702
2014/08/07,1700,1702,1675,1681,282460,1681
2014/08/08,1677,1686,1666,1674,213730,1674
2014/08/11,1684,1702,1683,1691,206320,1691
2014/08/12,1693,1705,1693,1693,161080,1693
2014/08/13,1694,1700,1688,1699,92340,1699
2014/08/14,1696,1711,1696,1710,76320,1710
2014/08/15,1714,1716,1711,1714,76090,1714
2014/08/18,1721,1727,1718,1721,116730,1721
2014/08/19,1727,1730,1722,1727,63130,1727
2014/08/20,1721,1727,1721,1723,73500,1723
2014/08/21,1726,1733,1726,1730,120680,1730
2014/08/22,1735,1743,1734,1743,122310,1743
2014/08/25,1742,1744,1734,1739,96310,1739
2014/08/26,1735,1739,1731,1732,93540,1732
2014/08/27,1735,1744,1732,1744,85470,1744
2014/08/28,1737,1743,1733,1738,144950,1738
2014/08/29,1738,1745,1734,1739,102900,1739
2014/09/01,1738,1744,1736,1739,99470,1739
2014/09/02,1740,1750,1739,1743,101000,1743
2014/09/03,1745,1748,1738,1744,171250,1744
2014/09/04,1744,1745,1736,1739,61330,1739
2014/09/05,1746,1746,1726,1730,215960,1730
2014/09/08,1730,1735,1725,1729,82730,1729
2014/09/09,1730,1734,1720,1724,66920,1724
2014/09/10,1723,1736,1715,1736,217280,1736
2014/09/11,1740,1741,1730,1732,135410,1732
2014/09/12,1733,1737,1730,1731,49150,1731
2014/09/16,1732,1736,1728,1734,131440,1734
2014/09/17,1730,1737,1724,1726,72480,1726
2014/09/18,1734,1737,1726,1736,82980,1736
2014/09/19,1730,1740,1723,1740,158700,1740
2014/09/22,1744,1754,1740,1754,165610,1754
2014/09/24,1751,1752,1732,1740,210820,1740
2014/09/25,1740,1750,1738,1750,129380,1750
2014/09/26,1740,1750,1739,1749,111190,1749
2014/09/29,1754,1765,1750,1765,107040,1765
2014/09/30,1753,1769,1753,1759,177630,1759
2014/10/01,1770,1772,1758,1761,110890,1761
2014/10/02,1754,1756,1736,1737,119310,1737
2014/10/03,1743,1747,1728,1742,140580,1742
2014/10/06,1751,1760,1742,1754,106220,1754
2014/10/07,1750,1754,1744,1744,66280,1744
2014/10/08,1729,1736,1726,1733,56080,1733
2014/10/09,1740,1747,1729,1729,64110,1729
2014/10/10,1720,1735,1706,1735,86730,1735
2014/10/14,1723,1729,1717,1722,68900,1722
2014/10/15,1723,1731,1722,1728,57830,1728
2014/10/16,1711,1725,1705,1725,100220,1725
2014/10/17,1717,1719,1701,1702,84630,1702
2014/10/20,1712,1738,1711,1738,90650,1738
2014/10/21,1738,1741,1724,1726,48990,1726
2014/10/22,1740,1741,1721,1728,54720,1728
2014/10/23,1730,1738,1726,1737,41780,1737
2014/10/24,1748,1748,1730,1734,37060,1734
2014/10/27,1739,1746,1738,1746,60830,1746
2014/10/28,1745,1749,1738,1746,43170,1746
2014/10/29,1748,1754,1746,1750,190420,1750
2014/10/30,1748,1760,1746,1760,137300,1760
2014/10/31,1762,1810,1760,1801,379150,1801
2014/11/04,1908,1919,1838,1838,622170,1838
2014/11/05,1817,1831,1806,1826,360260,1826
2014/11/06,1810,1810,1768,1780,311690,1780
2014/11/07,1795,1800,1777,1783,193370,1783
2014/11/10,1787,1805,1785,1802,238170,1802
2014/11/11,1790,1809,1790,1801,507170,1801
2014/11/12,1809,1817,1805,1813,373980,1813
2014/11/13,1815,1828,1814,1828,117950,1828
2014/11/14,1830,1844,1821,1844,174160,1844
2014/11/17,1848,1848,1829,1837,186540,1837
2014/11/18,1845,1855,1840,1847,174590,1847
2014/11/19,1854,1862,1843,1856,99400,1856
2014/11/20,1870,1895,1870,1886,163290,1886
2014/11/21,1882,1894,1878,1893,174880,1893
2014/11/25,1909,1915,1897,1901,149300,1901
2014/11/26,1902,1914,1899,1908,202540,1908
2014/11/27,1908,1920,1905,1910,257550,1910
2014/11/28,1910,1938,1910,1929,194040,1929
2014/12/01,1936,1978,1936,1964,369020,1964
2014/12/02,1960,1983,1960,1975,232210,1975
2014/12/03,1986,2000,1985,1995,287200,1995
2014/12/04,1991,1992,1950,1956,466840,1956
2014/12/05,1943,1976,1942,1967,356120,1967
2014/12/08,1973,1974,1950,1954,226890,1954
2014/12/09,1946,1973,1945,1964,169180,1964
2014/12/10,1950,1963,1938,1959,313480,1959
2014/12/11,1935,1975,1933,1971,349580,1971
2014/12/12,1976,1989,1976,1984,237580,1984
2014/12/15,1980,1984,1969,1974,142520,1974
2014/12/16,1957,1966,1937,1940,209800,1940
2014/12/17,1933,1958,1931,1946,117630,1946
2014/12/18,1958,1961,1934,1947,459350,1947
2014/12/19,1957,1978,1955,1976,170470,1976
2014/12/22,1983,1983,1967,1978,141300,1978
2014/12/24,1983,1988,1976,1985,196300,1985
2014/12/25,1985,1989,1982,1985,83360,1985
2014/12/26,1988,1998,1985,1998,94780,1998
2014/12/29,2000,2010,1990,2005,168200,2005
2014/12/30,2010,2025,2010,2014,149380,2014
2015/01/05,2014,2030,2000,2022,119360,2022
2015/01/06,2003,2020,2000,2006,242800,2006
2015/01/07,2009,2039,2009,2015,211260,2015
2015/01/08,2031,2051,2028,2048,159890,2048
2015/01/09,2050,2066,2046,2061,294810,2061
2015/01/13,2081,2081,2056,2072,317480,2072
2015/01/14,2079,2103,2075,2103,346300,2103
2015/01/15,2111,2126,2104,2111,440970,2111
2015/01/16,2118,2124,2085,2111,344550,2111
2015/01/19,2124,2134,2091,2098,204430,2098
2015/01/20,2105,2114,2098,2113,225370,2113
2015/01/21,2110,2121,2099,2120,288670,2120
2015/01/22,2113,2113,2066,2071,435760,2071
2015/01/23,2082,2096,2080,2085,201820,2085
2015/01/26,2080,2080,2061,2069,205610,2069
2015/01/27,2062,2078,2051,2059,252330,2059
2015/01/28,2040,2050,2039,2047,289860,2047
2015/01/29,2039,2053,2021,2025,325590,2025
2015/01/30,2029,2037,2017,2022,369440,2022
2015/02/02,2019,2019,1965,1995,513680,1995
2015/02/03,1988,1988,1925,1938,740060,1938
2015/02/04,1951,1973,1924,1968,764710,1968
2015/02/05,1968,2011,1956,2002,745500,2002
2015/02/06,2010,2015,1996,2013,406690,2013
2015/02/09,2016,2016,1940,1953,623530,1953
2015/02/10,1946,1949,1915,1928,589170,1928
2015/02/12,1932,1963,1930,1959,341860,1959
2015/02/13,1966,1976,1955,1965,252980,1965
2015/02/16,1966,1972,1957,1967,249520,1967
2015/02/17,1958,1988,1954,1988,194060,1988
2015/02/18,1993,1999,1984,1999,198550,1999
2015/02/19,1997,1998,1978,1979,188570,1979
2015/02/20,1982,1986,1950,1961,462050,1961
2015/02/23,1965,1977,1964,1973,297920,1973
2015/02/24,1984,1994,1973,1994,205330,1994
2015/02/25,1993,1996,1982,1985,405270,1985
2015/02/26,1988,2024,1984,2018,463900,2018
2015/02/27,2028,2054,2021,2026,384330,2026
2015/03/02,2043,2048,2015,2017,349760,2017
2015/03/03,2025,2025,2012,2023,179600,2023
2015/03/04,2000,2007,1983,1996,250950,1996
2015/03/05,1986,1991,1964,1987,406200,1987
2015/03/06,1999,1999,1978,1997,283660,1997
2015/03/09,1978,1980,1954,1954,289910,1954
2015/03/10,1956,1958,1932,1933,417040,1933
2015/03/11,1921,1938,1915,1936,218150,1936
2015/03/12,1921,1935,1920,1920,433330,1920
2015/03/13,1921,1932,1917,1928,226770,1928
2015/03/16,1928,1946,1928,1946,141310,1946
2015/03/17,1952,1952,1930,1941,210440,1941
2015/03/18,1940,1950,1925,1948,135860,1948
2015/03/19,1955,1966,1947,1955,239950,1955
2015/03/20,1953,1959,1931,1952,162410,1952
2015/03/23,1966,1970,1959,1970,206650,1970
2015/03/24,1973,2000,1947,2000,279960,2000
2015/03/25,1988,2015,1988,2011,300040,2011
2015/03/26,2003,2011,1990,1991,238490,1991
2015/03/27,1987,2011,1978,2011,214870,2011
2015/03/30,1993,2012,1980,1983,143450,1983
2015/03/31,1995,2001,1977,1981,104430,1981
2015/04/01,1976,1976,1940,1956,331590,1956
2015/04/02,1951,1961,1942,1960,227420,1960
2015/04/03,1955,1972,1952,1972,142450,1972
2015/04/06,1967,1967,1955,1964,142790,1964
2015/04/07,1973,1986,1969,1983,125440,1983
2015/04/08,1982,1990,1977,1980,156330,1980
2015/04/09,1992,2011,1980,2011,337100,2011
2015/04/10,2015,2030,1997,2023,321250,2023
2015/04/13,2023,2027,2005,2016,212400,2016
2015/04/14,2014,2024,2011,2015,182250,2015
2015/04/15,2014,2018,2002,2002,154620,2002
2015/04/16,2001,2034,1998,2034,215990,2034
2015/04/17,2025,2028,2013,2014,295130,2014
2015/04/20,2000,2012,1991,1996,169650,1996
2015/04/21,2009,2015,2004,2005,69720,2005
2015/04/22,2010,2016,2007,2010,129120,2010
2015/04/23,2015,2022,2011,2014,73420,2014
2015/04/24,2013,2022,2013,2015,92020,2015
2015/04/27,2019,2020,2012,2014,73030,2014
2015/04/28,2010,2014,2000,2003,107020,2003
2015/04/30,1998,2000,1981,1987,229910,1987
2015/05/01,1971,1987,1962,1974,180370,1974
2015/05/07,1975,1975,1930,1935,354350,1935
2015/05/08,1944,1958,1942,1949,229910,1949
2015/05/11,1958,1974,1954,1971,153910,1971
2015/05/12,1965,1971,1953,1960,156780,1960
2015/05/13,1958,1958,1946,1953,171140,1953
2015/05/14,1949,1955,1944,1951,155560,1951
2015/05/15,1955,1961,1952,1958,282920,1958
2015/05/18,1958,1972,1957,1964,193310,1964
2015/05/19,1966,1972,1960,1966,124980,1966
2015/05/20,1970,1971,1962,1962,92860,1962
2015/05/21,1965,1971,1960,1966,240190,1966
2015/05/22,1967,1970,1963,1970,41810,1970
2015/05/25,1975,1996,1975,1996,114570,1996
2015/05/26,1992,1999,1988,1999,125890,1999
2015/05/27,1990,1995,1986,1995,92730,1995
2015/05/28,1992,2000,1986,1987,187970,1987
2015/05/29,1980,1995,1980,1987,184890,1987
2015/06/01,1979,1993,1976,1989,87340,1989
2015/06/02,1986,2000,1972,1976,236820,1976
2015/06/03,1973,1980,1963,1965,131520,1965
2015/06/04,1970,1970,1954,1959,237160,1959
2015/06/05,1952,1952,1939,1944,264030,1944
2015/06/08,1941,1947,1938,1940,167340,1940
2015/06/09,1935,1944,1930,1943,93960,1943
2015/06/10,1942,1952,1936,1937,169560,1937
2015/06/11,1938,1943,1928,1931,148840,1931
2015/06/12,1930,1937,1930,1934,61670,1934
2015/06/15,1934,1939,1930,1935,118890,1935
2015/06/16,1937,1941,1936,1937,101030,1937
2015/06/17,1938,1941,1931,1933,166020,1933
2015/06/18,1928,1933,1918,1931,149350,1931
2015/06/19,1930,1934,1921,1923,137810,1923
2015/06/22,1923,1949,1923,1936,142010,1936
2015/06/23,1938,1938,1927,1930,86770,1930
2015/06/24,1932,1933,1928,1928,57510,1928
2015/06/25,1926,1930,1925,1926,74240,1926
2015/06/26,1924,1948,1924,1946,119440,1946
2015/06/29,1926,1927,1915,1922,125700,1922
2015/06/30,1918,1932,1917,1918,61960,1918
2015/07/01,1920,1922,1911,1914,98960,1914
