2011/01/04,1150,1168,1148,1160,112800,1160
2011/01/05,1160,1164,1153,1157,84600,1157
2011/01/06,1160,1160,1144,1149,45100,1149
2011/01/07,1144,1148,1135,1148,31100,1148
2011/01/11,1148,1148,1136,1144,39100,1144
2011/01/12,1140,1147,1125,1145,82500,1145
2011/01/13,1146,1148,1142,1145,53500,1145
2011/01/14,1148,1148,1139,1148,33500,1148
2011/01/17,1155,1155,1139,1140,38100,1140
2011/01/18,1136,1136,1120,1121,36000,1121
2011/01/19,1115,1121,1113,1117,36200,1117
2011/01/20,1118,1125,1115,1119,37000,1119
2011/01/21,1115,1120,1101,1102,53300,1102
2011/01/24,1100,1108,1094,1106,25000,1106
2011/01/25,1112,1121,1110,1118,24100,1118
2011/01/26,1121,1123,1118,1120,13900,1120
2011/01/27,1123,1123,1115,1115,12800,1115
2011/01/28,1115,1117,1102,1117,26000,1117
2011/01/31,1101,1120,1101,1120,47400,1120
2011/02/01,1116,1124,1115,1124,88300,1124
2011/02/02,1129,1129,1115,1118,15000,1118
2011/02/03,1118,1119,1113,1117,4900,1117
2011/02/04,1123,1123,1113,1115,20800,1115
2011/02/07,1118,1118,1107,1110,30400,1110
2011/02/08,1110,1110,1100,1102,38600,1102
2011/02/09,1105,1108,1103,1105,30300,1105
2011/02/10,1104,1104,1094,1096,32800,1096
2011/02/14,1094,1094,1082,1090,21600,1090
2011/02/15,1081,1084,1066,1070,58300,1070
2011/02/16,1062,1083,1060,1083,67800,1083
2011/02/17,1095,1100,1085,1097,68000,1097
2011/02/18,1101,1111,1100,1111,30100,1111
2011/02/21,1113,1113,1103,1112,29900,1112
2011/02/22,1106,1111,1098,1107,43000,1107
2011/02/23,1104,1107,1100,1107,14400,1107
2011/02/24,1105,1110,1102,1103,25300,1103
2011/02/25,1103,1112,1103,1111,20000,1111
2011/02/28,1117,1120,1114,1120,18800,1120
2011/03/01,1125,1126,1120,1124,20800,1124
2011/03/02,1125,1125,1105,1112,31200,1112
2011/03/03,1113,1120,1107,1113,16300,1113
2011/03/04,1108,1113,1106,1108,20300,1108
2011/03/07,1110,1110,1107,1107,8400,1107
2011/03/08,1110,1110,1101,1105,18500,1105
2011/03/09,1106,1110,1100,1110,38100,1110
2011/03/10,1105,1109,1100,1107,37000,1107
2011/03/11,1100,1105,1090,1095,26800,1095
2011/03/14,915,1065,900,999,151100,999
2011/03/15,984,990,870,960,192800,960
2011/03/16,950,993,950,985,115700,985
2011/03/17,963,1013,950,991,178700,991
2011/03/18,992,1036,991,1030,195000,1030
2011/03/22,1056,1064,1035,1064,58500,1064
2011/03/23,1066,1076,1050,1067,48600,1067
2011/03/24,1065,1067,1056,1066,31100,1066
2011/03/25,1067,1067,1055,1055,33300,1055
2011/03/28,1043,1048,1039,1043,33100,1043
2011/03/29,1030,1040,1026,1034,18900,1034
2011/03/30,1035,1049,1035,1046,9800,1046
2011/03/31,1050,1060,1046,1060,18800,1060
2011/04/01,1053,1069,1053,1068,24100,1068
2011/04/04,1070,1077,1067,1074,14900,1074
2011/04/05,1078,1078,1064,1074,17000,1074
2011/04/06,1070,1079,1070,1072,17800,1072
2011/04/07,1076,1076,1060,1064,18900,1064
2011/04/08,1063,1065,1058,1058,13500,1058
2011/04/11,1060,1060,1051,1059,8800,1059
2011/04/12,1050,1055,1042,1047,15600,1047
2011/04/13,1043,1049,1043,1045,7900,1045
2011/04/14,1043,1047,1039,1046,13900,1046
2011/04/15,1040,1053,1040,1051,15600,1051
2011/04/18,1058,1061,1054,1061,8900,1061
2011/04/19,1057,1058,1053,1057,9000,1057
2011/04/20,1057,1062,1055,1061,8000,1061
2011/04/21,1061,1065,1058,1060,2900,1060
2011/04/22,1066,1068,1064,1068,14200,1068
2011/04/25,1068,1072,1066,1072,12500,1072
2011/04/26,1070,1070,1063,1063,7900,1063
2011/04/27,1066,1070,1065,1067,29900,1067
2011/04/28,1068,1081,1066,1079,180000,1079
2011/05/02,1080,1095,1080,1088,48400,1088
2011/05/06,1084,1090,1080,1086,19200,1086
2011/05/09,1088,1088,1080,1080,16600,1080
2011/05/10,1075,1075,1070,1070,28400,1070
2011/05/11,1078,1078,1062,1065,28200,1065
2011/05/12,1072,1072,1056,1056,10700,1056
2011/05/13,1057,1058,1047,1051,16200,1051
2011/05/16,1048,1057,1048,1052,7400,1052
2011/05/17,1050,1062,1050,1055,8800,1055
2011/05/18,1053,1062,1053,1059,13100,1059
2011/05/19,1063,1063,1056,1058,4800,1058
2011/05/20,1056,1060,1056,1060,8500,1060
2011/05/23,1061,1061,1054,1059,21400,1059
2011/05/24,1055,1057,1054,1057,19600,1057
2011/05/25,1059,1059,1054,1059,26400,1059
2011/05/26,1063,1063,1057,1058,14100,1058
2011/05/27,1060,1061,1056,1061,24000,1061
2011/05/30,1064,1065,1061,1064,7000,1064
2011/05/31,1065,1073,1064,1073,9100,1073
2011/06/01,1075,1075,1065,1065,22600,1065
2011/06/02,1064,1064,1059,1064,5200,1064
2011/06/03,1062,1065,1062,1065,2800,1065
2011/06/06,1067,1068,1055,1055,14400,1055
2011/06/07,1058,1058,1043,1047,50200,1047
2011/06/08,1050,1050,1038,1040,25200,1040
2011/06/09,1040,1046,1035,1039,15900,1039
2011/06/10,1039,1039,1031,1034,12300,1034
2011/06/13,1038,1038,1030,1034,13800,1034
2011/06/14,1038,1041,1035,1035,9100,1035
2011/06/15,1042,1042,1035,1035,12500,1035
2011/06/16,1040,1040,1034,1037,12400,1037
2011/06/17,1040,1040,1032,1032,9800,1032
2011/06/20,1038,1038,1029,1029,21800,1029
2011/06/21,1029,1034,1029,1030,9400,1030
2011/06/22,1034,1034,1029,1030,25800,1030
2011/06/23,1035,1036,1026,1029,35600,1029
2011/06/24,1029,1029,1026,1026,9500,1026
2011/06/27,1023,1028,1023,1025,24200,1025
2011/06/28,1023,1026,1019,1025,37300,1025
2011/06/29,1028,1031,1022,1031,22500,1031
2011/06/30,1034,1037,1028,1035,42300,1035
2011/07/01,1040,1040,1032,1036,38100,1036
2011/07/04,1041,1043,1034,1040,69600,1040
2011/07/05,1040,1043,1038,1038,26200,1038
2011/07/06,1037,1037,1023,1025,31600,1025
2011/07/07,1030,1030,1022,1026,14700,1026
2011/07/08,1029,1029,1023,1026,8000,1026
2011/07/11,1023,1026,1021,1022,10700,1022
2011/07/12,1020,1021,1014,1019,39600,1019
2011/07/13,1019,1024,1015,1023,9900,1023
2011/07/14,1023,1024,1015,1018,15100,1018
2011/07/15,1021,1021,1014,1019,15200,1019
2011/07/19,1015,1022,1015,1015,7900,1015
2011/07/20,1016,1020,1016,1018,5800,1018
2011/07/21,1018,1018,1013,1013,9700,1013
2011/07/22,1018,1018,1013,1015,8700,1015
2011/07/25,1015,1017,1007,1015,20400,1015
2011/07/26,1009,1015,1005,1006,40200,1006
2011/07/27,1004,1004,998,1003,39900,1003
2011/07/28,998,1003,995,997,157700,997
2011/07/29,1001,1008,999,1008,11800,1008
2011/08/01,1002,1014,1002,1007,8400,1007
2011/08/02,1010,1010,1006,1006,3900,1006
2011/08/03,1003,1011,1002,1011,17900,1011
2011/08/04,1007,1016,1007,1013,20100,1013
2011/08/05,1000,1010,1000,1002,20800,1002
2011/08/08,998,1000,971,974,196100,974
2011/08/09,963,964,931,963,115000,963
2011/08/10,978,985,957,961,58800,961
2011/08/11,957,957,945,948,45700,948
2011/08/12,962,968,950,953,24500,953
2011/08/15,956,972,955,971,26000,971
2011/08/16,983,985,974,985,19400,985
2011/08/17,990,1000,980,1000,17800,1000
2011/08/18,995,998,994,996,22800,996
2011/08/19,990,1001,983,998,38400,998
2011/08/22,986,1000,986,993,21700,993
2011/08/23,999,999,992,992,8400,992
2011/08/24,995,997,990,991,4500,991
2011/08/25,990,993,988,989,7800,989
2011/08/26,987,989,982,988,10400,988
2011/08/29,986,989,983,989,6400,989
2011/08/30,987,990,982,989,25100,989
2011/08/31,991,993,986,986,5500,986
2011/09/01,995,995,986,994,30500,994
2011/09/02,996,996,991,995,10600,995
2011/09/05,994,994,990,991,18500,991
2011/09/06,989,990,971,980,36300,980
2011/09/07,985,985,970,970,17100,970
2011/09/08,976,976,969,970,6900,970
2011/09/09,970,973,964,973,14800,973
2011/09/12,970,972,965,967,9000,967
2011/09/13,966,966,963,965,6200,965
2011/09/14,963,964,950,950,25800,950
2011/09/15,950,951,944,945,18800,945
2011/09/16,954,954,939,943,24500,943
2011/09/20,945,945,934,940,36100,940
2011/09/21,939,950,939,950,9300,950
2011/09/22,944,944,937,943,22300,943
2011/09/26,934,939,926,928,49400,928
2011/09/27,939,939,918,926,61200,926
2011/09/28,925,929,920,925,14900,925
2011/09/29,921,936,918,929,23300,929
2011/09/30,936,947,932,932,75300,932
2011/10/03,934,946,926,946,9600,946
2011/10/04,931,944,918,924,26300,924
2011/10/05,929,929,895,906,409000,906
2011/10/06,906,910,898,901,26100,901
2011/10/07,909,910,900,901,28600,901
2011/10/11,909,915,896,900,213400,900
2011/10/12,907,907,901,902,21000,902
2011/10/13,907,927,907,920,47200,920
2011/10/14,918,918,914,915,10300,915
2011/10/17,929,929,909,909,35600,909
2011/10/18,905,907,902,904,22700,904
2011/10/19,904,907,903,903,7900,903
2011/10/20,906,906,895,898,31900,898
2011/10/21,901,901,889,893,86600,893
2011/10/24,900,901,897,897,10100,897
2011/10/25,904,904,894,895,69800,895
2011/10/26,897,897,887,892,57000,892
2011/10/27,890,905,890,905,28500,905
2011/10/28,912,916,905,916,29100,916
2011/10/31,920,920,912,917,30800,917
2011/11/01,915,916,907,916,14300,916
2011/11/02,911,914,906,914,30500,914
2011/11/04,905,909,899,904,27000,904
2011/11/07,900,905,892,894,30600,894
2011/11/08,893,899,885,890,45900,890
2011/11/09,893,893,880,881,49700,881
2011/11/10,880,880,865,866,74100,866
2011/11/11,861,870,860,864,33000,864
2011/11/14,871,895,861,867,83700,867
2011/11/15,868,869,858,859,71100,859
2011/11/16,856,857,845,850,72400,850
2011/11/17,847,850,839,842,68300,842
2011/11/18,839,842,835,842,34000,842
2011/11/21,845,845,825,829,61800,829
2011/11/22,824,837,823,835,22400,835
2011/11/24,834,837,827,837,29500,837
2011/11/25,833,834,824,830,37700,830
2011/11/28,828,829,817,820,79400,820
2011/11/29,826,845,825,844,40500,844
2011/11/30,850,856,840,849,49000,849
2011/12/01,864,867,846,847,39100,847
2011/12/02,850,860,846,857,18600,857
2011/12/05,858,866,858,863,26600,863
2011/12/06,863,868,858,858,21800,858
2011/12/07,859,867,848,867,29300,867
2011/12/08,863,863,859,863,8400,863
2011/12/09,863,863,855,861,16600,861
2011/12/12,861,861,851,852,62800,852
2011/12/13,852,855,849,851,55100,851
2011/12/14,852,855,848,852,27100,852
2011/12/15,852,853,850,852,39900,852
2011/12/16,850,851,843,843,33800,843
2011/12/19,850,853,845,853,9500,853
2011/12/20,850,852,845,851,22400,851
2011/12/21,852,852,844,846,33400,846
2011/12/22,847,849,837,838,65400,838
2011/12/26,847,847,837,842,61500,842
2011/12/27,843,846,841,846,27000,846
2011/12/28,850,855,846,855,31500,855
2011/12/29,850,853,840,843,64400,843
2011/12/30,843,851,843,851,24900,851
2012/01/04,846,849,846,847,42600,847
2012/01/05,850,851,843,843,37800,843
2012/01/06,847,848,845,848,16900,848
2012/01/10,850,853,848,849,29600,849
2012/01/11,849,851,845,848,37900,848
2012/01/12,849,849,841,843,33500,843
2012/01/13,843,844,836,841,77600,841
2012/01/16,840,840,831,832,57200,832
2012/01/17,832,834,825,825,74600,825
2012/01/18,830,833,829,832,13800,832
2012/01/19,834,839,830,839,22500,839
2012/01/20,849,850,841,847,31800,847
2012/01/23,852,854,849,853,26000,853
2012/01/24,852,858,850,855,42200,855
2012/01/25,855,859,850,850,27600,850
2012/01/26,856,856,850,852,60400,852
2012/01/27,852,853,844,846,106200,846
2012/01/30,852,855,849,854,21100,854
2012/01/31,854,862,853,862,52900,862
2012/02/01,855,861,852,856,48300,856
2012/02/02,861,862,855,862,42600,862
2012/02/03,864,869,861,869,48500,869
2012/02/06,874,875,861,861,82000,861
2012/02/07,868,868,858,865,57200,865
2012/02/08,869,871,867,871,45700,871
2012/02/09,870,871,863,867,55500,867
2012/02/10,869,869,863,863,22200,863
2012/02/13,867,867,861,864,16700,864
2012/02/14,866,866,860,863,52400,863
2012/02/15,866,870,863,870,43900,870
2012/02/16,870,875,869,875,43500,875
2012/02/17,878,897,877,895,57400,895
2012/02/20,908,914,899,912,214300,912
2012/02/21,912,914,907,912,60500,912
2012/02/22,912,913,902,912,35600,912
2012/02/23,912,921,910,921,41500,921
2012/02/24,925,940,923,940,77600,940
2012/02/27,955,961,949,960,70500,960
2012/02/28,952,975,943,962,75400,962
2012/02/29,967,968,958,958,53800,958
2012/03/01,960,966,945,952,45800,952
2012/03/02,957,962,955,962,36300,962
2012/03/05,962,967,957,961,43000,961
2012/03/06,955,956,941,944,36600,944
2012/03/07,931,950,931,948,45200,948
2012/03/08,951,964,951,964,40700,964
2012/03/09,962,970,962,966,61800,966
2012/03/12,971,974,969,969,74900,969
2012/03/13,969,973,964,966,38400,966
2012/03/14,974,979,971,979,57700,979
2012/03/15,975,985,975,985,52500,985
2012/03/16,984,993,984,992,52200,992
2012/03/19,992,1005,991,1000,81300,1000
2012/03/21,1000,1000,980,983,51200,983
2012/03/22,975,981,965,972,43500,972
2012/03/23,968,970,962,963,29000,963
2012/03/26,966,970,964,966,20400,966
2012/03/27,972,979,972,975,19000,975
2012/03/28,982,982,977,978,33400,978
2012/03/29,977,988,974,985,17300,985
2012/03/30,985,990,985,990,13700,990
2012/04/02,991,1008,991,1004,90300,1004
2012/04/03,1008,1010,995,1000,70100,1000
2012/04/04,995,996,987,988,61500,988
2012/04/05,975,982,969,977,91000,977
2012/04/06,974,981,970,981,48200,981
2012/04/09,969,982,968,974,64700,974
2012/04/10,970,979,970,973,44700,973
2012/04/11,967,971,964,969,21800,969
2012/04/12,971,972,969,969,13700,969
2012/04/13,973,977,973,977,9300,977
2012/04/16,976,977,971,975,13600,975
2012/04/17,975,978,969,970,19400,970
2012/04/18,979,980,976,980,9200,980
2012/04/19,980,992,980,989,46900,989
2012/04/20,989,989,983,987,14700,987
2012/04/23,992,995,985,986,24300,986
2012/04/24,983,987,979,981,39600,981
2012/04/25,986,990,985,987,17300,987
2012/04/26,989,989,983,985,23100,985
2012/04/27,984,996,984,990,55400,990
2012/05/01,990,990,977,979,45700,979
2012/05/02,980,985,978,979,27900,979
2012/05/07,975,975,964,964,36800,964
2012/05/08,967,970,951,958,30300,958
2012/05/09,954,958,950,953,39600,953
2012/05/10,950,959,950,951,19200,951
2012/05/11,958,959,940,945,24100,945
2012/05/14,939,945,939,943,16200,943
2012/05/15,939,939,924,936,33900,936
2012/05/16,932,934,927,928,28500,928
2012/05/17,926,936,924,935,20500,935
2012/05/18,929,929,917,917,29700,917
2012/05/21,916,925,916,922,19400,922
2012/05/22,930,931,920,924,27800,924
2012/05/23,924,924,909,909,31700,909
2012/05/24,909,915,904,906,31900,906
2012/05/25,913,920,912,916,34500,916
2012/05/28,916,923,911,922,14900,922
2012/05/29,922,941,917,941,10500,941
2012/05/30,932,935,926,931,31100,931
2012/05/31,924,932,915,932,25900,932
2012/06/01,930,934,918,918,13200,918
2012/06/04,910,910,896,898,73500,898
2012/06/05,900,905,895,905,39300,905
2012/06/06,913,914,902,908,37400,908
2012/06/07,916,919,911,916,35000,916
2012/06/08,917,917,903,904,22500,904
2012/06/11,913,913,908,913,5900,913
2012/06/12,910,917,908,910,8600,910
2012/06/13,919,925,915,917,7600,917
2012/06/14,921,921,912,917,16000,917
2012/06/15,920,926,917,918,10200,918
2012/06/18,933,935,928,935,46800,935
2012/06/19,934,941,933,938,21100,938
2012/06/20,947,951,944,951,21900,951
2012/06/21,951,955,951,953,18400,953
2012/06/22,943,958,943,958,25300,958
2012/06/25,961,962,957,961,21600,961
2012/06/26,955,959,948,950,38300,950
2012/06/27,951,957,947,955,7300,955
2012/06/28,954,966,954,966,29600,966
2012/06/29,969,978,967,970,17900,970
2012/07/02,985,987,980,981,96300,981
2012/07/03,985,988,984,984,28000,984
2012/07/04,978,979,970,973,46800,973
2012/07/05,973,973,967,971,18500,971
2012/07/06,970,970,957,957,31800,957
2012/07/09,964,964,953,953,20600,953
2012/07/10,951,954,942,945,39400,945
2012/07/11,941,951,939,939,23800,939
2012/07/12,941,944,940,941,12900,941
2012/07/13,939,952,939,950,15200,950
2012/07/17,954,960,947,960,15300,960
2012/07/18,963,966,957,957,14400,957
2012/07/19,960,964,953,959,18200,959
2012/07/20,953,953,944,949,36300,949
2012/07/23,949,956,944,945,24500,945
2012/07/24,944,944,933,941,44900,941
2012/07/25,940,947,936,940,24900,940
2012/07/26,939,950,939,948,9700,948
2012/07/27,954,957,949,953,21300,953
2012/07/30,965,969,953,953,18000,953
2012/07/31,955,959,950,956,13600,956
2012/08/01,957,959,950,956,4700,956
2012/08/02,954,962,954,962,13900,962
2012/08/03,964,964,955,961,25200,961
2012/08/06,960,964,957,963,16000,963
2012/08/07,964,964,960,963,8600,963
2012/08/08,964,968,962,962,31300,962
2012/08/09,965,965,957,960,15300,960
2012/08/10,957,960,952,953,22000,953
2012/08/13,954,958,952,952,13700,952
2012/08/14,956,957,953,957,3800,957
2012/08/15,958,960,957,958,44200,958
2012/08/16,958,962,957,957,41200,957
2012/08/17,961,965,960,965,17700,965
2012/08/20,967,968,964,964,23900,964
2012/08/21,965,968,965,967,15900,967
2012/08/22,969,970,967,970,15700,970
2012/08/23,970,977,970,975,44900,975
2012/08/24,966,982,966,979,54000,979
2012/08/27,985,996,984,991,59200,991
2012/08/28,986,988,983,988,31100,988
2012/08/29,986,990,983,986,22400,986
2012/08/30,987,987,980,983,24900,983
2012/08/31,981,986,980,982,19200,982
2012/09/03,988,988,983,983,20100,983
2012/09/04,983,985,977,977,22100,977
2012/09/05,970,975,969,971,18700,971
2012/09/06,971,976,971,975,7400,975
2012/09/07,977,982,977,978,12300,978
2012/09/10,973,982,973,981,19600,981
2012/09/11,980,980,975,977,12100,977
2012/09/12,978,979,973,973,16200,973
2012/09/13,972,979,970,978,11700,978
2012/09/14,985,989,980,987,28400,987
2012/09/18,987,991,984,991,56600,991
2012/09/19,990,1004,990,996,131300,996
2012/09/20,994,999,989,999,33100,999
2012/09/21,1001,1001,996,997,20000,997
2012/09/24,999,1000,997,1000,25000,1000
2012/09/25,1000,1003,997,1002,16600,1002
2012/09/26,1004,1019,1002,1019,61000,1019
2012/09/27,1016,1021,1014,1018,32900,1018
2012/09/28,1025,1027,1020,1024,48600,1024
2012/10/01,1028,1030,1021,1029,41800,1029
2012/10/02,1029,1034,1027,1029,27900,1029
2012/10/03,1025,1025,1011,1012,59900,1012
2012/10/04,1013,1027,1013,1024,15300,1024
2012/10/05,1023,1026,1018,1022,23600,1022
2012/10/09,1021,1028,1019,1025,40400,1025
2012/10/10,1023,1028,1020,1028,23200,1028
2012/10/11,1025,1025,1020,1024,35300,1024
2012/10/12,1020,1030,1020,1029,35500,1029
2012/10/15,1026,1031,1025,1030,17000,1030
2012/10/16,1028,1039,1028,1039,30300,1039
2012/10/17,1039,1044,1036,1043,22800,1043
2012/10/18,1049,1050,1044,1045,39100,1045
2012/10/19,1042,1049,1038,1038,38800,1038
2012/10/22,1038,1049,1038,1048,14200,1048
2012/10/23,1050,1051,1047,1050,23400,1050
2012/10/24,1050,1060,1050,1060,40500,1060
2012/10/25,1059,1064,1056,1061,24500,1061
2012/10/26,1064,1066,1055,1058,69100,1058
2012/10/29,1058,1074,1058,1062,115400,1062
2012/10/30,1067,1073,1053,1054,41700,1054
2012/10/31,1060,1069,1054,1066,49600,1066
2012/11/01,1066,1070,1066,1069,12300,1069
2012/11/02,1074,1077,1070,1077,22200,1077
2012/11/05,1078,1080,1065,1065,64400,1065
2012/11/06,1064,1065,1053,1061,62600,1061
2012/11/07,1060,1062,1056,1061,17000,1061
2012/11/08,1057,1057,1041,1045,49100,1045
2012/11/09,1038,1049,1030,1044,89900,1044
2012/11/12,1040,1041,1032,1032,43100,1032
2012/11/13,1032,1036,1029,1032,15300,1032
2012/11/14,1029,1042,1029,1041,37600,1041
2012/11/15,1041,1059,1041,1059,28800,1059
2012/11/16,1059,1064,1054,1057,41000,1057
2012/11/19,1061,1068,1061,1064,20400,1064
2012/11/20,1065,1066,1059,1064,16800,1064
2012/11/21,1061,1067,1061,1066,24600,1066
2012/11/22,1068,1069,1061,1065,89100,1065
2012/11/26,1069,1069,1064,1066,29200,1066
2012/11/27,1068,1068,1062,1067,35800,1067
2012/11/28,1064,1064,1060,1061,28000,1061
2012/11/29,1060,1062,1052,1059,27300,1059
2012/11/30,1061,1069,1059,1067,29000,1067
2012/12/03,1071,1079,1071,1072,43200,1072
2012/12/04,1073,1078,1069,1069,16300,1069
2012/12/05,1068,1073,1067,1072,27000,1072
2012/12/06,1074,1074,1068,1070,35200,1070
2012/12/07,1075,1075,1066,1070,44200,1070
2012/12/10,1068,1070,1064,1066,29900,1066
2012/12/11,1064,1065,1058,1058,31500,1058
2012/12/12,1057,1062,1054,1061,34700,1061
2012/12/13,1060,1062,1055,1060,27800,1060
2012/12/14,1061,1070,1055,1070,39800,1070
2012/12/17,1074,1075,1070,1075,46500,1075
2012/12/18,1076,1084,1075,1084,41800,1084
2012/12/19,1089,1090,1080,1090,65500,1090
2012/12/20,1093,1099,1092,1099,37800,1099
2012/12/21,1100,1114,1100,1111,55500,1111
2012/12/25,1112,1129,1112,1127,58500,1127
2012/12/26,1135,1139,1127,1130,73200,1130
2012/12/27,1133,1137,1117,1128,105500,1128
2012/12/28,1125,1132,1119,1129,59900,1129
2013/01/04,1138,1155,1136,1155,112300,1155
2013/01/07,1165,1165,1145,1148,75400,1148
2013/01/08,1145,1145,1124,1131,107100,1131
2013/01/09,1130,1131,1119,1131,64300,1131
2013/01/10,1138,1143,1131,1142,26600,1142
2013/01/11,1143,1152,1142,1142,73200,1142
2013/01/15,1154,1155,1143,1150,66800,1150
2013/01/16,1149,1150,1137,1139,56300,1139
2013/01/17,1137,1144,1134,1138,33400,1138
2013/01/18,1145,1151,1143,1151,56400,1151
2013/01/21,1151,1156,1150,1154,47900,1154
2013/01/22,1153,1155,1145,1152,53000,1152
2013/01/23,1150,1154,1146,1149,40000,1149
2013/01/24,1146,1156,1145,1156,38900,1156
2013/01/25,1160,1164,1157,1164,95400,1164
2013/01/28,1169,1188,1169,1185,74000,1185
2013/01/29,1187,1207,1186,1201,61800,1201
2013/01/30,1215,1225,1202,1225,73000,1225
2013/01/31,1225,1250,1221,1250,76500,1250
2013/02/01,1260,1268,1228,1245,123200,1245
2013/02/04,1255,1255,1240,1245,74800,1245
2013/02/05,1240,1243,1223,1234,65300,1234
2013/02/06,1248,1255,1241,1254,42500,1254
2013/02/07,1255,1255,1242,1248,67600,1248
2013/02/08,1245,1249,1242,1246,35000,1246
2013/02/12,1257,1261,1251,1261,65100,1261
2013/02/13,1260,1260,1239,1240,166300,1240
2013/02/14,1247,1249,1242,1244,38300,1244
2013/02/15,1241,1242,1222,1238,87800,1238
2013/02/18,1247,1255,1247,1255,63400,1255
2013/02/19,1255,1257,1248,1257,36200,1257
2013/02/20,1261,1275,1261,1273,59100,1273
2013/02/21,1277,1284,1273,1278,47700,1278
2013/02/22,1276,1286,1268,1284,59200,1284
2013/02/25,1291,1300,1290,1300,42900,1300
2013/02/26,1283,1304,1280,1300,71800,1300
2013/02/27,1319,1330,1314,1330,81200,1330
2013/02/28,1339,1345,1336,1337,88400,1337
2013/03/01,1346,1380,1345,1370,160700,1370
2013/03/04,1390,1419,1390,1407,186800,1407
2013/03/05,1421,1429,1378,1392,222900,1392
2013/03/06,1395,1399,1375,1392,144300,1392
2013/03/07,1400,1404,1387,1389,55800,1389
2013/03/08,1389,1396,1381,1385,81700,1385
2013/03/11,1383,1412,1383,1406,104400,1406
2013/03/12,1413,1427,1410,1420,94000,1420
2013/03/13,1427,1449,1421,1447,95100,1447
2013/03/14,1465,1500,1454,1500,124900,1500
2013/03/15,1528,1541,1512,1541,273000,1541
2013/03/18,1562,1564,1533,1533,215800,1533
2013/03/19,1540,1550,1513,1526,129300,1526
2013/03/21,1526,1536,1520,1536,108500,1536
2013/03/22,1550,1585,1549,1580,141200,1580
2013/03/25,1620,1694,1602,1684,329800,1684
2013/03/26,1692,1707,1650,1680,290000,1680
2013/03/27,1736,1780,1720,1745,448100,1745
2013/03/28,1785,1786,1680,1702,353600,1702
2013/03/29,1668,1700,1550,1676,494400,1676
2013/04/01,1679,1679,1541,1578,455100,1578
2013/04/02,1460,1575,1451,1555,504900,1555
2013/04/03,1576,1597,1500,1534,262400,1534
2013/04/04,1508,1620,1490,1615,538800,1615
2013/04/05,1815,1815,1665,1685,632700,1685
2013/04/08,1750,1750,1672,1702,523800,1702
2013/04/09,1697,1697,1632,1634,437200,1634
2013/04/10,1621,1657,1610,1626,242500,1626
2013/04/11,1634,1640,1577,1622,395900,1622
2013/04/12,1602,1634,1602,1623,174100,1623
2013/04/15,1623,1629,1600,1610,113700,1610
2013/04/16,1570,1613,1559,1581,273200,1581
2013/04/17,1583,1592,1562,1565,149500,1565
2013/04/18,1551,1591,1551,1582,143300,1582
2013/04/19,1588,1640,1585,1629,216000,1629
2013/04/22,1645,1649,1620,1621,211800,1621
2013/04/23,1620,1622,1601,1612,133100,1612
2013/04/24,1624,1628,1600,1615,156600,1615
2013/04/25,1610,1618,1596,1611,127200,1611
2013/04/26,1615,1617,1595,1598,111700,1598
2013/04/30,1591,1615,1591,1615,104500,1615
2013/05/01,1609,1619,1608,1614,110500,1614
2013/05/02,1600,1601,1581,1583,145400,1583
2013/05/07,1605,1609,1585,1586,108700,1586
2013/05/08,1580,1590,1573,1580,149800,1580
2013/05/09,1575,1577,1531,1532,265400,1532
2013/05/10,1526,1539,1490,1492,369300,1492
2013/05/13,1468,1472,1411,1421,634500,1421
2013/05/14,1410,1429,1335,1397,803100,1397
2013/05/15,1367,1384,1344,1370,613800,1370
2013/05/16,1389,1436,1372,1404,581000,1404
2013/05/17,1434,1495,1427,1488,671500,1488
2013/05/20,1531,1555,1502,1555,541500,1555
2013/05/21,1541,1545,1488,1510,397500,1510
2013/05/22,1488,1508,1465,1475,273400,1475
2013/05/23,1445,1445,1388,1397,439000,1397
2013/05/24,1421,1448,1347,1376,398900,1376
2013/05/27,1354,1419,1354,1412,177800,1412
2013/05/28,1418,1429,1392,1416,117000,1416
2013/05/29,1416,1422,1390,1407,126500,1407
2013/05/30,1395,1395,1375,1378,101100,1378
2013/05/31,1389,1411,1358,1373,198300,1373
2013/06/03,1360,1373,1348,1351,195700,1351
2013/06/04,1370,1370,1330,1364,198300,1364
2013/06/05,1351,1351,1322,1329,147800,1329
2013/06/06,1312,1320,1288,1288,364600,1288
2013/06/07,1270,1327,1268,1314,395000,1314
2013/06/10,1335,1348,1299,1309,158800,1309
2013/06/11,1311,1329,1290,1323,121000,1323
2013/06/12,1294,1296,1272,1281,166400,1281
2013/06/13,1269,1276,1260,1265,124100,1265
2013/06/14,1266,1331,1262,1327,131100,1327
2013/06/17,1332,1338,1289,1306,143700,1306
2013/06/18,1309,1321,1301,1320,62400,1320
2013/06/19,1342,1342,1313,1319,60100,1319
2013/06/20,1308,1308,1280,1281,89800,1281
2013/06/21,1251,1315,1251,1314,129400,1314
2013/06/24,1315,1324,1302,1305,62600,1305
2013/06/25,1300,1302,1282,1287,55300,1287
2013/06/26,1293,1305,1281,1302,54600,1302
2013/06/27,1306,1353,1303,1350,94500,1350
2013/06/28,1360,1405,1360,1405,232200,1405
2013/07/01,1413,1419,1382,1396,126800,1396
2013/07/02,1418,1418,1394,1407,76200,1407
2013/07/03,1405,1414,1395,1401,94900,1401
2013/07/04,1385,1406,1385,1395,38900,1395
2013/07/05,1404,1404,1392,1397,34900,1397
2013/07/08,1398,1402,1387,1390,94400,1390
2013/07/09,1380,1393,1380,1382,49800,1382
2013/07/10,1376,1381,1369,1376,157500,1376
2013/07/11,1380,1401,1376,1398,115300,1398
2013/07/12,1405,1420,1402,1417,126700,1417
2013/07/16,1423,1424,1394,1394,119300,1394
2013/07/17,1397,1399,1385,1389,77600,1389
2013/07/18,1392,1401,1390,1397,50600,1397
2013/07/19,1399,1399,1375,1375,86500,1375
2013/07/22,1376,1396,1375,1392,59700,1392
2013/07/23,1388,1401,1387,1392,85500,1392
2013/07/24,1386,1393,1382,1383,58800,1383
2013/07/25,1385,1390,1382,1389,44600,1389
2013/07/26,1389,1389,1375,1378,133700,1378
2013/07/29,1365,1368,1355,1359,125100,1359
2013/07/30,1351,1351,1339,1339,113900,1339
2013/07/31,1332,1343,1325,1328,79000,1328
2013/08/01,1327,1371,1327,1365,108700,1365
2013/08/02,1369,1377,1365,1365,47000,1365
2013/08/05,1360,1378,1360,1376,25800,1376
2013/08/06,1376,1376,1356,1360,42100,1360
2013/08/07,1352,1353,1346,1347,55400,1347
2013/08/08,1347,1359,1340,1344,49000,1344
2013/08/09,1344,1356,1340,1356,22700,1356
2013/08/12,1352,1354,1345,1350,25500,1350
2013/08/13,1350,1354,1346,1352,12500,1352
2013/08/14,1357,1369,1355,1369,19800,1369
2013/08/15,1362,1375,1361,1375,19300,1375
2013/08/16,1360,1370,1360,1360,19900,1360
2013/08/19,1363,1364,1350,1355,50700,1355
2013/08/20,1356,1358,1346,1346,33600,1346
2013/08/21,1349,1354,1330,1343,36900,1343
2013/08/22,1328,1335,1324,1324,28700,1324
2013/08/23,1329,1334,1324,1331,40100,1331
2013/08/26,1329,1332,1325,1325,60700,1325
2013/08/27,1323,1323,1307,1313,91600,1313
2013/08/28,1294,1312,1293,1310,65400,1310
2013/08/29,1305,1308,1301,1308,22400,1308
2013/08/30,1311,1313,1303,1313,27500,1313
2013/09/02,1315,1331,1314,1327,42200,1327
2013/09/03,1337,1342,1334,1341,95500,1341
2013/09/04,1334,1338,1327,1331,32600,1331
2013/09/05,1339,1341,1333,1340,32700,1340
2013/09/06,1343,1343,1330,1330,24500,1330
2013/09/09,1390,1392,1360,1379,123400,1379
2013/09/10,1389,1409,1385,1407,121300,1407
2013/09/11,1419,1426,1410,1418,97000,1418
2013/09/12,1418,1420,1403,1411,55300,1411
2013/09/13,1402,1420,1402,1417,59200,1417
2013/09/17,1425,1429,1422,1427,31500,1427
2013/09/18,1422,1432,1418,1428,52700,1428
2013/09/19,1438,1465,1438,1461,91500,1461
2013/09/20,1466,1473,1446,1447,114400,1447
2013/09/24,1441,1451,1434,1447,50100,1447
2013/09/25,1448,1487,1448,1483,132100,1483
2013/09/26,1484,1492,1460,1481,140800,1481
2013/09/27,1480,1512,1479,1503,135600,1503
2013/09/30,1500,1530,1491,1509,204700,1509
2013/10/01,1514,1514,1482,1495,198400,1495
2013/10/02,1494,1494,1439,1439,163300,1439
2013/10/03,1428,1461,1427,1456,103900,1456
2013/10/04,1450,1460,1428,1448,59800,1448
2013/10/07,1449,1460,1438,1446,102100,1446
2013/10/08,1425,1445,1423,1445,89500,1445
2013/10/09,1431,1473,1431,1469,28100,1469
2013/10/10,1480,1482,1465,1475,48700,1475
2013/10/11,1480,1486,1471,1477,58400,1477
2013/10/15,1474,1483,1472,1474,56700,1474
2013/10/16,1471,1480,1467,1469,86100,1469
2013/10/17,1481,1484,1474,1479,45200,1479
2013/10/18,1479,1479,1469,1472,46700,1472
2013/10/21,1478,1489,1475,1489,92800,1489
2013/10/22,1487,1489,1480,1483,77100,1483
2013/10/23,1486,1489,1477,1481,184500,1481
2013/10/24,1472,1482,1472,1479,61200,1479
2013/10/25,1479,1479,1472,1475,135600,1475
2013/10/28,1484,1484,1474,1474,39100,1474
2013/10/29,1480,1481,1475,1481,43500,1481
2013/10/30,1479,1495,1479,1490,72100,1490
2013/10/31,1491,1491,1479,1480,148600,1480
2013/11/01,1476,1485,1476,1485,157900,1485
2013/11/05,1478,1483,1472,1481,111500,1481
2013/11/06,1463,1472,1459,1459,81900,1459
2013/11/07,1456,1460,1436,1436,145800,1436
2013/11/08,1432,1443,1430,1438,240400,1438
2013/11/11,1436,1444,1436,1443,55300,1443
2013/11/12,1446,1446,1440,1443,62200,1443
2013/11/13,1441,1448,1440,1443,56200,1443
2013/11/14,1442,1456,1442,1456,102200,1456
2013/11/15,1465,1484,1464,1484,280000,1484
2013/11/18,1480,1482,1466,1466,84600,1466
2013/11/19,1466,1466,1451,1462,81800,1462
2013/11/20,1452,1458,1452,1453,91200,1453
2013/11/21,1452,1455,1445,1445,99200,1445
2013/11/22,1456,1460,1452,1457,42200,1457
2013/11/25,1455,1456,1450,1450,42100,1450
2013/11/26,1445,1456,1445,1456,55100,1456
2013/11/27,1448,1461,1444,1457,71800,1457
2013/11/28,1460,1469,1457,1465,37700,1465
2013/11/29,1470,1471,1466,1468,120800,1468
2013/12/02,1468,1486,1468,1484,96700,1484
2013/12/03,1476,1489,1476,1483,95600,1483
2013/12/04,1475,1484,1470,1474,84000,1474
2013/12/05,1469,1473,1462,1465,35100,1465
2013/12/06,1453,1467,1450,1457,59400,1457
2013/12/09,1459,1465,1458,1463,51800,1463
2013/12/10,1468,1468,1459,1459,37400,1459
2013/12/11,1461,1462,1456,1459,52500,1459
2013/12/12,1457,1457,1452,1454,39700,1454
2013/12/13,1450,1460,1449,1454,47400,1454
2013/12/16,1447,1450,1440,1444,87000,1444
2013/12/17,1441,1446,1437,1443,65200,1443
2013/12/18,1434,1452,1434,1448,93500,1448
2013/12/19,1454,1456,1445,1448,162500,1448
2013/12/20,1445,1460,1443,1460,106300,1460
2013/12/24,1459,1461,1451,1451,148600,1451
2013/12/25,1444,1451,1440,1443,141400,1443
2013/12/26,1451,1480,1451,1475,84700,1475
2013/12/27,1480,1488,1462,1486,88700,1486
2013/12/30,1495,1550,1494,1533,250500,1533
2014/01/06,1530,1530,1498,1521,134100,1521
2014/01/07,1514,1514,1494,1496,157700,1496
2014/01/08,1501,1501,1483,1488,103700,1488
2014/01/09,1494,1494,1475,1480,134400,1480
2014/01/10,1485,1498,1478,1486,52100,1486
2014/01/14,1477,1484,1473,1478,76000,1478
2014/01/15,1489,1493,1486,1493,49500,1493
2014/01/16,1493,1500,1493,1498,166700,1498
2014/01/17,1514,1525,1508,1509,139600,1509
2014/01/20,1514,1514,1501,1513,73400,1513
2014/01/21,1509,1516,1507,1510,117600,1510
2014/01/22,1514,1517,1508,1516,122800,1516
2014/01/23,1520,1520,1505,1505,94500,1505
2014/01/24,1500,1500,1480,1499,103400,1499
2014/01/27,1470,1487,1456,1487,120400,1487
2014/01/28,1487,1491,1477,1479,42800,1479
2014/01/29,1494,1514,1493,1513,84600,1513
2014/01/30,1492,1511,1491,1500,98300,1500
2014/01/31,1510,1518,1497,1502,105200,1502
2014/02/03,1499,1503,1480,1480,80300,1480
2014/02/04,1450,1468,1441,1459,133300,1459
2014/02/05,1474,1475,1455,1459,62800,1459
2014/02/06,1456,1466,1455,1466,41400,1466
2014/02/07,1469,1480,1463,1480,72600,1480
2014/02/10,1483,1483,1471,1476,46000,1476
2014/02/12,1488,1497,1481,1481,63500,1481
2014/02/13,1477,1482,1468,1468,55700,1468
2014/02/14,1481,1481,1460,1470,35600,1470
2014/02/17,1476,1482,1471,1478,29400,1478
2014/02/18,1489,1489,1481,1483,51800,1483
2014/02/19,1489,1496,1487,1496,31300,1496
2014/02/20,1491,1497,1485,1494,67500,1494
2014/02/21,1494,1504,1494,1503,58700,1503
2014/02/24,1506,1510,1493,1499,47200,1499
2014/02/25,1499,1508,1499,1508,60300,1508
2014/02/26,1508,1517,1507,1516,69600,1516
2014/02/27,1519,1523,1510,1521,57200,1521
2014/02/28,1519,1519,1505,1516,78400,1516
2014/03/03,1515,1516,1507,1515,72900,1515
2014/03/04,1498,1508,1498,1508,92900,1508
2014/03/05,1505,1505,1495,1495,63600,1495
2014/03/06,1493,1497,1489,1497,84500,1497
2014/03/07,1497,1500,1495,1498,70900,1498
2014/03/10,1496,1501,1486,1497,67000,1497
2014/03/11,1498,1499,1493,1497,31000,1497
2014/03/12,1488,1490,1474,1474,82600,1474
2014/03/13,1480,1482,1475,1480,29600,1480
2014/03/14,1471,1478,1466,1467,145300,1467
2014/03/17,1461,1473,1461,1472,50100,1472
2014/03/18,1481,1481,1467,1475,41800,1475
2014/03/19,1474,1480,1470,1474,47600,1474
2014/03/20,1469,1470,1458,1459,95600,1459
2014/03/24,1450,1467,1448,1464,73900,1464
2014/03/25,1460,1476,1456,1470,81400,1470
2014/03/26,1470,1473,1468,1468,77400,1468
2014/03/27,1467,1488,1467,1487,70400,1487
2014/03/28,1482,1489,1476,1485,62300,1485
2014/03/31,1486,1490,1470,1472,103600,1472
2014/04/01,1473,1488,1473,1487,82400,1487
2014/04/02,1488,1500,1488,1494,72100,1494
2014/04/03,1496,1505,1496,1505,73600,1505
2014/04/04,1496,1496,1483,1483,90400,1483
2014/04/07,1486,1504,1486,1496,89300,1496
2014/04/08,1496,1496,1476,1481,106300,1481
2014/04/09,1471,1481,1470,1474,65300,1474
2014/04/10,1483,1492,1480,1482,39400,1482
2014/04/11,1471,1478,1470,1476,54000,1476
2014/04/14,1470,1483,1466,1483,57300,1483
2014/04/15,1486,1486,1471,1471,62900,1471
2014/04/16,1472,1481,1471,1481,44500,1481
2014/04/17,1482,1491,1482,1484,60900,1484
2014/04/18,1491,1503,1491,1501,81000,1501
2014/04/21,1496,1500,1492,1495,46800,1495
2014/04/22,1496,1504,1493,1500,59200,1500
2014/04/23,1497,1500,1493,1498,31600,1498
2014/04/24,1501,1501,1495,1500,28900,1500
2014/04/25,1499,1503,1493,1500,52100,1500
2014/04/28,1500,1503,1498,1498,33100,1498
2014/04/30,1503,1510,1501,1510,45300,1510
2014/05/01,1510,1519,1509,1519,58000,1519
2014/05/02,1510,1516,1506,1509,44500,1509
2014/05/07,1506,1515,1505,1508,45400,1508
2014/05/08,1508,1510,1496,1500,46300,1500
2014/05/09,1502,1508,1502,1504,18100,1504
2014/05/12,1515,1515,1507,1510,28700,1510
2014/05/13,1510,1516,1508,1513,76700,1513
2014/05/14,1514,1523,1514,1514,62400,1514
2014/05/15,1518,1518,1512,1515,107200,1515
2014/05/16,1521,1524,1513,1522,132900,1522
2014/05/19,1524,1525,1515,1515,38500,1515
2014/05/20,1514,1520,1514,1519,34700,1519
2014/05/21,1512,1524,1512,1522,31200,1522
2014/05/22,1524,1530,1524,1527,118600,1527
2014/05/23,1527,1532,1527,1531,81800,1531
2014/05/26,1530,1535,1529,1529,48200,1529
2014/05/27,1530,1549,1530,1547,79500,1547
2014/05/28,1549,1562,1549,1561,69400,1561
2014/05/29,1561,1561,1548,1557,57200,1557
2014/05/30,1559,1567,1558,1563,58400,1563
2014/06/02,1567,1575,1565,1568,79100,1568
2014/06/03,1576,1580,1570,1576,82600,1576
2014/06/04,1580,1580,1558,1566,57200,1566
2014/06/05,1565,1569,1546,1548,60300,1548
2014/06/06,1555,1568,1555,1559,54300,1559
2014/06/09,1560,1569,1560,1566,33800,1566
2014/06/10,1571,1571,1555,1555,29100,1555
2014/06/11,1557,1566,1556,1566,63600,1566
2014/06/12,1565,1572,1560,1568,29400,1568
2014/06/13,1568,1580,1566,1580,35800,1580
2014/06/16,1580,1584,1578,1583,43700,1583
2014/06/17,1580,1584,1578,1578,34000,1578
2014/06/18,1580,1594,1580,1594,53000,1594
2014/06/19,1591,1598,1588,1598,49400,1598
2014/06/20,1598,1622,1597,1622,143300,1622
2014/06/23,1620,1621,1597,1600,81100,1600
2014/06/24,1598,1599,1591,1595,51100,1595
2014/06/25,1594,1600,1593,1598,44400,1598
2014/06/26,1603,1606,1599,1601,27300,1601
2014/06/27,1605,1610,1601,1608,33300,1608
2014/06/30,1614,1618,1608,1618,42200,1618
2014/07/01,1619,1622,1612,1618,90000,1618
2014/07/02,1618,1623,1617,1617,45400,1617
2014/07/03,1620,1623,1610,1615,82400,1615
2014/07/04,1611,1614,1601,1602,75900,1602
2014/07/07,1598,1602,1597,1601,34000,1601
2014/07/08,1596,1600,1594,1598,32400,1598
2014/07/09,1592,1597,1591,1596,32600,1596
2014/07/10,1597,1606,1597,1598,68600,1598
2014/07/11,1604,1604,1590,1593,50200,1593
2014/07/14,1595,1595,1592,1593,24900,1593
2014/07/15,1596,1610,1596,1609,42700,1609
2014/07/16,1610,1615,1608,1610,31300,1610
2014/07/17,1615,1615,1606,1606,19500,1606
2014/07/18,1601,1619,1598,1619,58600,1619
2014/07/22,1616,1619,1611,1612,25300,1612
2014/07/23,1612,1617,1611,1614,27200,1614
2014/07/24,1612,1615,1610,1611,24300,1611
2014/07/25,1610,1614,1608,1612,30300,1612
2014/07/28,1614,1614,1608,1610,33800,1610
2014/07/29,1606,1616,1606,1614,40600,1614
2014/07/30,1614,1625,1611,1622,79500,1622
2014/07/31,1625,1632,1614,1632,87500,1632
2014/08/01,1615,1627,1615,1626,49300,1626
2014/08/04,1629,1629,1626,1627,30100,1627
2014/08/05,1631,1634,1629,1629,26500,1629
2014/08/06,1629,1632,1620,1620,40500,1620
2014/08/07,1620,1620,1601,1606,77300,1606
2014/08/08,1600,1610,1590,1601,72100,1601
2014/08/11,1614,1627,1612,1623,53100,1623
2014/08/12,1624,1631,1620,1622,37200,1622
2014/08/13,1622,1627,1618,1625,26800,1625
2014/08/14,1626,1637,1626,1635,53300,1635
2014/08/15,1637,1639,1636,1637,23900,1637
2014/08/18,1645,1650,1643,1643,39900,1643
2014/08/19,1650,1654,1649,1651,37200,1651
2014/08/20,1649,1650,1643,1649,36700,1649
2014/08/21,1649,1655,1647,1652,37000,1652
2014/08/22,1656,1665,1656,1665,66700,1665
2014/08/25,1663,1664,1656,1658,43600,1658
2014/08/26,1655,1659,1651,1652,58000,1652
2014/08/27,1651,1658,1651,1655,42800,1655
2014/08/28,1657,1662,1652,1660,96100,1660
2014/08/29,1661,1662,1655,1660,52000,1660
2014/09/01,1660,1662,1658,1660,32300,1660
2014/09/02,1664,1668,1660,1667,78300,1667
2014/09/03,1667,1667,1660,1662,56600,1662
2014/09/04,1651,1656,1646,1647,89000,1647
2014/09/05,1654,1654,1639,1639,52500,1639
2014/09/08,1641,1642,1636,1637,49700,1637
2014/09/09,1637,1638,1627,1629,58200,1629
2014/09/10,1629,1646,1625,1643,68300,1643
2014/09/11,1650,1651,1642,1645,35700,1645
2014/09/12,1647,1647,1641,1642,48400,1642
2014/09/16,1642,1659,1640,1651,323000,1651
2014/09/17,1650,1660,1637,1645,415400,1645
2014/09/18,1648,1657,1645,1654,217200,1654
2014/09/19,1657,1657,1645,1655,537000,1655
2014/09/22,1662,1670,1657,1670,372600,1670
2014/09/24,1669,1669,1647,1662,408500,1662
2014/09/25,1660,1666,1657,1663,44200,1663
2014/09/26,1663,1664,1654,1664,103600,1664
2014/09/29,1664,1675,1661,1674,82700,1674
2014/09/30,1664,1677,1663,1676,65700,1676
2014/10/01,1678,1685,1672,1673,44000,1673
2014/10/02,1665,1668,1646,1648,63000,1648
2014/10/03,1653,1657,1641,1652,68400,1652
2014/10/06,1661,1670,1654,1670,33000,1670
2014/10/07,1661,1665,1657,1659,36000,1659
2014/10/08,1642,1646,1641,1646,91300,1646
2014/10/09,1647,1655,1641,1641,88300,1641
2014/10/10,1629,1649,1627,1649,68600,1649
2014/10/14,1635,1640,1630,1633,63900,1633
2014/10/15,1634,1640,1634,1637,22500,1637
2014/10/16,1621,1632,1618,1632,36400,1632
2014/10/17,1626,1630,1611,1616,94600,1616
2014/10/20,1615,1652,1615,1652,83300,1652
2014/10/21,1651,1651,1638,1643,15700,1643
2014/10/22,1652,1655,1639,1641,14400,1641
2014/10/23,1647,1654,1641,1651,43700,1651
2014/10/24,1660,1660,1643,1645,25400,1645
2014/10/27,1646,1660,1646,1657,23700,1657
2014/10/28,1657,1659,1647,1656,29300,1656
2014/10/29,1660,1665,1656,1661,30300,1661
2014/10/30,1662,1670,1657,1670,35900,1670
2014/10/31,1671,1720,1671,1713,99000,1713
2014/11/04,1793,1815,1741,1753,319500,1753
2014/11/05,1724,1739,1711,1726,72700,1726
2014/11/06,1716,1716,1683,1687,99500,1687
2014/11/07,1708,1708,1691,1696,31200,1696
2014/11/10,1705,1714,1702,1712,30500,1712
2014/11/11,1718,1723,1711,1715,38500,1715
2014/11/12,1725,1732,1720,1730,45300,1730
2014/11/13,1728,1739,1726,1733,45200,1733
2014/11/14,1744,1756,1735,1753,76700,1753
2014/11/17,1767,1767,1740,1746,83600,1746
2014/11/18,1753,1763,1748,1748,99100,1748
2014/11/19,1768,1770,1756,1770,51900,1770
2014/11/20,1783,1799,1775,1791,64600,1791
2014/11/21,1790,1807,1786,1804,126800,1804
2014/11/25,1815,1822,1804,1805,90500,1805
2014/11/26,1809,1821,1806,1818,89000,1818
2014/11/27,1824,1827,1813,1814,60100,1814
2014/11/28,1812,1839,1812,1837,78500,1837
2014/12/01,1841,1882,1841,1863,121000,1863
2014/12/02,1869,1885,1867,1885,46400,1885
2014/12/03,1897,1904,1893,1902,95700,1902
2014/12/04,1903,1904,1848,1865,258800,1865
2014/12/05,1854,1880,1854,1873,104200,1873
2014/12/08,1880,1880,1861,1867,67900,1867
2014/12/09,1855,1879,1855,1867,81900,1867
2014/12/10,1853,1869,1841,1860,88500,1860
2014/12/11,1839,1880,1817,1880,99700,1880
2014/12/12,1880,1888,1877,1886,71700,1886
2014/12/15,1885,1885,1871,1871,46900,1871
2014/12/16,1864,1864,1840,1843,85700,1843
2014/12/17,1833,1859,1833,1844,54600,1844
2014/12/18,1854,1860,1838,1850,67100,1850
2014/12/19,1864,1879,1858,1875,67800,1875
2014/12/22,1885,1888,1872,1874,81600,1874
2014/12/24,1894,1920,1879,1883,158000,1883
2014/12/25,1888,1888,1883,1884,65100,1884
2014/12/26,1885,1896,1885,1893,59800,1893
2014/12/29,1897,1908,1889,1896,59500,1896
2014/12/30,1903,1921,1903,1911,76500,1911
2015/01/05,1912,1931,1904,1925,59200,1925
2015/01/06,1888,1915,1888,1899,70000,1899
2015/01/07,1903,1930,1903,1913,64500,1913
2015/01/08,1927,1945,1925,1942,115000,1942
2015/01/09,1950,1957,1940,1950,69500,1950
2015/01/13,1956,1965,1945,1962,50200,1962
2015/01/14,1970,1985,1966,1983,102300,1983
2015/01/15,1998,2010,1991,2000,137700,2000
2015/01/16,1996,2008,1973,1993,64300,1993
2015/01/19,2016,2020,1974,1984,93500,1984
2015/01/20,1997,1999,1983,1993,68200,1993
2015/01/21,1990,2005,1985,1989,48800,1989
2015/01/22,1999,1999,1954,1959,94000,1959
2015/01/23,1965,1979,1964,1971,37000,1971
2015/01/26,1975,1975,1947,1958,67200,1958
2015/01/27,1947,1963,1928,1939,125600,1939
2015/01/28,1928,1938,1923,1929,66000,1929
2015/01/29,1919,1936,1900,1902,116700,1902
2015/01/30,1903,1918,1903,1905,84400,1905
2015/02/02,1901,1901,1858,1885,116800,1885
2015/02/03,1867,1867,1813,1823,205200,1823
2015/02/04,1832,1850,1820,1850,144500,1850
2015/02/05,1854,1884,1835,1871,100400,1871
2015/02/06,1900,1915,1882,1910,141000,1910
2015/02/09,1917,1917,1841,1881,138400,1881
2015/02/10,1853,1853,1823,1832,69900,1832
2015/02/12,1848,1864,1830,1855,201600,1855
2015/02/13,1870,1877,1856,1862,52400,1862
2015/02/16,1873,1876,1862,1873,46000,1873
2015/02/17,1868,1885,1858,1885,37500,1885
2015/02/18,1899,1899,1886,1893,46100,1893
2015/02/19,1900,1900,1882,1884,50300,1884
2015/02/20,1883,1885,1862,1865,62000,1865
2015/02/23,1871,1884,1871,1884,35900,1884
2015/02/24,1889,1896,1882,1896,33900,1896
2015/02/25,1899,1902,1889,1896,69200,1896
2015/02/26,1896,1924,1892,1921,99600,1921
2015/02/27,1927,1950,1927,1931,122500,1931
2015/03/02,1937,1947,1922,1924,57000,1924
2015/03/03,1932,1935,1925,1928,56100,1928
2015/03/04,1902,1903,1878,1891,102400,1891
2015/03/05,1888,1888,1860,1882,103900,1882
2015/03/06,1890,1892,1874,1890,60200,1890
2015/03/09,1880,1880,1855,1859,103600,1859
2015/03/10,1858,1866,1835,1835,109000,1835
2015/03/11,1821,1835,1816,1833,90400,1833
2015/03/12,1829,1840,1821,1826,125000,1826
2015/03/13,1826,1838,1825,1832,73000,1832
2015/03/16,1836,1850,1836,1850,41700,1850
2015/03/17,1864,1864,1834,1837,109900,1837
2015/03/18,1841,1850,1826,1850,43600,1850
2015/03/19,1864,1865,1847,1855,52400,1855
2015/03/20,1850,1861,1835,1861,38800,1861
2015/03/23,1870,1877,1867,1873,182500,1873
2015/03/24,1884,1890,1847,1890,354700,1890
2015/03/25,1896,1922,1892,1918,248700,1918
2015/03/26,1918,1921,1896,1901,462500,1901
2015/03/27,1901,1919,1886,1908,362200,1908
2015/03/30,1894,1918,1880,1881,71500,1881
2015/03/31,1891,1902,1877,1879,69500,1879
2015/04/01,1875,1875,1843,1860,107200,1860
2015/04/02,1857,1859,1843,1856,65500,1856
2015/04/03,1856,1870,1850,1870,44300,1870
2015/04/06,1865,1865,1856,1865,30500,1865
2015/04/07,1870,1882,1865,1882,33500,1882
2015/04/08,1879,1889,1877,1883,48000,1883
2015/04/09,1898,1908,1881,1908,64800,1908
2015/04/10,1919,1923,1894,1922,119500,1922
2015/04/13,1920,1922,1905,1916,86800,1916
2015/04/14,1914,1918,1907,1915,47300,1915
2015/04/15,1907,1915,1901,1906,43800,1906
2015/04/16,1902,1928,1897,1928,51000,1928
2015/04/17,1925,1925,1912,1918,77900,1918
2015/04/20,1898,1905,1891,1891,67200,1891
2015/04/21,1909,1914,1904,1905,35100,1905
2015/04/22,1913,1915,1904,1906,48100,1906
2015/04/23,1909,1919,1907,1917,52000,1917
2015/04/24,1910,1921,1910,1914,111200,1914
2015/04/27,1914,1920,1908,1919,42100,1919
2015/04/28,1914,1917,1905,1907,56800,1907
2015/04/30,1905,1905,1889,1895,79200,1895
2015/05/01,1880,1890,1868,1884,120400,1884
2015/05/07,1889,1889,1842,1845,189000,1845
2015/05/08,1854,1865,1850,1856,70000,1856
2015/05/11,1873,1885,1864,1875,67800,1875
2015/05/12,1871,1876,1863,1869,49300,1869
2015/05/13,1867,1867,1852,1862,46400,1862
2015/05/14,1860,1864,1851,1855,36000,1855
2015/05/15,1859,1866,1859,1863,15200,1863
2015/05/18,1867,1875,1863,1874,27700,1874
2015/05/19,1872,1878,1863,1869,84100,1869
2015/05/20,1877,1877,1867,1874,34900,1874
2015/05/21,1871,1876,1866,1875,19700,1875
2015/05/22,1875,1877,1870,1874,16600,1874
2015/05/25,1878,1899,1878,1899,41100,1899
2015/05/26,1897,1898,1890,1896,26500,1896
2015/05/27,1892,1894,1884,1890,40900,1890
2015/05/28,1892,1897,1883,1889,34600,1889
2015/05/29,1887,1894,1883,1886,40200,1886
2015/06/01,1885,1890,1880,1890,21300,1890
2015/06/02,1890,1891,1878,1878,17800,1878
2015/06/03,1871,1875,1866,1868,17000,1868
2015/06/04,1870,1873,1863,1863,49800,1863
2015/06/05,1856,1856,1844,1851,168800,1851
2015/06/08,1850,1857,1847,1857,30100,1857
2015/06/09,1848,1853,1837,1847,45100,1847
2015/06/10,1853,1855,1845,1845,51000,1845
2015/06/11,1848,1851,1838,1838,41000,1838
2015/06/12,1838,1845,1838,1843,27700,1843
2015/06/15,1845,1850,1840,1845,27800,1845
2015/06/16,1851,1851,1847,1848,22400,1848
2015/06/17,1848,1850,1840,1840,37500,1840
2015/06/18,1836,1839,1829,1836,68100,1836
2015/06/19,1837,1840,1828,1828,41200,1828
2015/06/22,1828,1856,1828,1844,44500,1844
2015/06/23,1844,1844,1832,1841,34900,1841
2015/06/24,1847,1847,1837,1840,26400,1840
2015/06/25,1837,1840,1835,1839,21500,1839
2015/06/26,1835,1854,1835,1849,83200,1849
2015/06/29,1830,1836,1825,1835,44100,1835
2015/06/30,1825,1838,1825,1828,35300,1828
2015/07/01,1834,1834,1820,1823,35000,1823
