2011/11/29,780,816,740,740,532500,740
2011/11/30,754,761,706,736,104000,736
2011/12/01,730,732,702,704,37600,704
2011/12/02,700,701,683,688,29900,688
2011/12/05,686,728,678,693,30300,693
2011/12/06,693,693,676,686,19800,686
2011/12/07,681,709,670,700,25300,700
2011/12/08,703,703,678,680,13200,680
2011/12/09,674,678,670,671,9900,671
2011/12/12,675,675,667,669,7900,669
2011/12/13,675,717,670,688,12800,688
2011/12/14,711,711,682,689,7300,689
2011/12/15,682,710,682,699,5100,699
2011/12/16,700,700,680,680,4700,680
2011/12/19,680,683,680,682,1200,682
2011/12/20,690,693,640,669,9100,669
2011/12/21,673,707,653,707,15500,707
2011/12/22,701,746,672,705,41000,705
2011/12/26,710,718,701,701,2600,701
2011/12/27,701,701,695,697,4200,697
2011/12/28,717,717,671,672,10800,672
2011/12/29,682,685,670,684,1900,684
2011/12/30,673,719,673,697,5900,697
2012/01/04,687,690,682,682,3700,682
2012/01/05,686,695,676,678,2800,678
2012/01/06,676,676,662,672,2500,672
2012/01/10,683,683,667,667,1200,667
2012/01/11,667,670,658,658,4000,658
2012/01/12,659,659,656,658,1500,658
2012/01/13,658,668,658,668,1600,668
2012/01/16,670,670,660,661,1500,661
2012/01/17,662,662,653,661,2700,661
2012/01/18,660,660,655,656,400,656
2012/01/19,656,666,654,656,1900,656
2012/01/20,655,655,651,653,6000,653
2012/01/23,653,654,646,651,3600,651
2012/01/24,653,655,652,652,1500,652
2012/01/25,654,660,654,654,2100,654
2012/01/26,660,685,660,675,9500,675
2012/01/27,682,695,671,695,7500,695
2012/01/30,700,710,686,710,15300,710
2012/01/31,726,757,710,750,27000,750
2012/02/01,750,838,735,824,100900,824
2012/02/02,845,974,841,974,228700,974
2012/02/03,1110,1124,1058,1124,140800,1124
2012/02/06,1424,1424,1424,1424,22800,1424
2012/02/07,1724,1724,1470,1485,534400,1485
2012/02/08,1515,1580,1185,1185,361900,1185
2012/02/09,1191,1209,1080,1120,359600,1120
2012/02/10,1121,1198,1047,1135,332600,1135
2012/02/13,1190,1435,1144,1435,711400,1435
2012/02/14,1435,1471,1210,1214,388900,1214
2012/02/15,1180,1306,1143,1222,194100,1222
2012/02/16,1175,1205,1089,1119,104700,1119
2012/02/17,1090,1120,1052,1079,59700,1079
2012/02/20,1070,1170,1051,1170,83200,1170
2012/02/21,1140,1340,1102,1290,196200,1290
2012/02/22,1319,1320,1201,1201,76100,1201
2012/02/23,1165,1185,1120,1147,55700,1147
2012/02/24,1127,1219,1123,1146,52900,1146
2012/02/27,1146,1196,1146,1173,40000,1173
2012/02/28,1164,1300,1157,1240,123300,1240
2012/02/29,1260,1379,1240,1260,205600,1260
2012/03/01,1140,1235,1133,1195,88500,1195
2012/03/02,1215,1270,1181,1220,51200,1220
2012/03/05,1280,1280,1182,1217,47700,1217
2012/03/06,1185,1208,1150,1158,37500,1158
2012/03/07,1150,1150,1104,1130,37700,1130
2012/03/08,1107,1128,1090,1101,33500,1101
2012/03/09,1090,1108,1070,1097,35100,1097
2012/03/12,1048,1091,1023,1023,43200,1023
2012/03/13,1049,1049,1010,1025,36600,1025
2012/03/14,1036,1050,1011,1020,20200,1020
2012/03/15,1006,1008,985,988,31500,988
2012/03/16,985,999,976,978,23500,978
2012/03/19,1017,1028,1004,1005,13800,1005
2012/03/21,1020,1060,1000,1031,17500,1031
2012/03/22,1031,1034,1012,1019,13100,1019
2012/03/23,1005,1018,993,994,12800,994
2012/03/26,991,1005,980,985,7300,985
2012/03/27,998,998,985,990,5600,990
2012/03/28,999,1020,999,1007,7400,1007
2012/03/29,1007,1030,995,1021,8300,1021
2012/03/30,1049,1290,1049,1147,173400,1147
2012/04/02,1174,1179,1124,1158,45900,1158
2012/04/03,1177,1199,1140,1158,40300,1158
2012/04/04,1190,1259,1115,1154,71600,1154
2012/04/05,1130,1180,1130,1160,19400,1160
2012/04/06,1186,1270,1172,1269,59000,1269
2012/04/09,1300,1320,1270,1270,59100,1270
2012/04/10,1292,1292,1200,1211,29000,1211
2012/04/11,1156,1228,1150,1201,21100,1201
2012/04/12,1201,1210,1150,1171,15000,1171
2012/04/13,1210,1220,1192,1208,12800,1208
2012/04/16,1216,1216,1172,1204,11100,1204
2012/04/17,1209,1219,1180,1195,9900,1195
2012/04/18,1200,1250,1189,1243,20500,1243
2012/04/19,1244,1300,1221,1270,35100,1270
2012/04/20,1270,1278,1232,1247,23200,1247
2012/04/23,1232,1275,1207,1220,25800,1220
2012/04/24,1208,1232,1200,1200,22400,1200
2012/04/25,1205,1220,1201,1216,11600,1216
2012/04/26,1216,1238,1180,1184,12800,1184
2012/04/27,1240,1484,1240,1401,337300,1401
2012/05/01,1461,1701,1425,1701,278500,1701
2012/05/02,1821,1983,1684,1778,402200,1778
2012/05/07,1620,1652,1527,1573,131500,1573
2012/05/08,1601,1659,1450,1456,127800,1456
2012/05/09,1478,1506,1383,1383,93400,1383
2012/05/10,1403,1424,1339,1387,74100,1387
2012/05/11,1402,1436,1333,1340,46700,1340
2012/05/14,1350,1355,1250,1250,71600,1250
2012/05/15,1238,1240,1144,1230,71000,1230
2012/05/16,1221,1260,1196,1226,17500,1226
2012/05/17,1256,1312,1222,1246,40000,1246
2012/05/18,1190,1209,1146,1151,45900,1151
2012/05/21,1151,1220,1144,1180,13200,1180
2012/05/22,1200,1239,1200,1223,7000,1223
2012/05/23,1205,1223,1166,1166,9700,1166
2012/05/24,1160,1238,1129,1129,25300,1129
2012/05/25,1130,1140,1095,1115,12500,1115
2012/05/28,1101,1110,1050,1050,8500,1050
2012/05/29,1031,1182,1018,1141,16700,1141
2012/05/30,1187,1203,1142,1142,25300,1142
2012/05/31,1063,1140,1063,1117,11800,1117
2012/06/01,1150,1185,1150,1177,9000,1177
2012/06/04,1120,1173,1120,1158,4300,1158
2012/06/05,1080,1112,1040,1072,27600,1072
2012/06/06,1072,1144,1072,1114,5500,1114
2012/06/07,1142,1150,1120,1139,4200,1139
2012/06/08,1130,1130,1080,1130,4600,1130
2012/06/11,1100,1119,1090,1117,3900,1117
2012/06/12,1100,1128,1080,1100,4100,1100
2012/06/13,1130,1244,1126,1141,30900,1141
2012/06/14,1131,1140,1101,1108,8800,1108
2012/06/15,1110,1110,1080,1100,10800,1100
2012/06/18,1129,1180,1100,1151,7400,1151
2012/06/19,1150,1179,1150,1170,4200,1170
2012/06/20,1178,1218,1170,1192,11400,1192
2012/06/21,1183,1198,1161,1198,4200,1198
2012/06/22,1178,1185,1163,1170,2300,1170
2012/06/25,1177,1180,1102,1160,6500,1160
2012/06/26,1157,1158,1115,1119,5600,1119
2012/06/27,1128,1130,1091,1126,4900,1126
2012/06/28,1114,1143,1110,1120,2800,1120
2012/06/29,1125,1184,1125,1156,10600,1156
2012/07/02,1171,1175,1135,1168,5100,1168
2012/07/03,1165,1172,1152,1165,2300,1165
2012/07/04,1155,1167,1151,1167,1100,1167
2012/07/05,1171,1171,1152,1166,1100,1166
2012/07/06,1160,1160,1143,1143,3000,1143
2012/07/09,1140,1150,1130,1131,1200,1131
2012/07/10,1150,1150,1021,1107,6800,1107
2012/07/11,1070,1100,1051,1076,2800,1076
2012/07/12,1095,1095,1055,1055,6700,1055
2012/07/13,1084,1084,1060,1080,3200,1080
2012/07/17,1080,1122,1080,1114,2400,1114
2012/07/18,1125,1164,1114,1150,9000,1150
2012/07/19,1140,1140,1110,1110,1900,1110
2012/07/20,1147,1147,1113,1120,3800,1120
2012/07/23,1180,1310,1136,1136,130300,1136
2012/07/24,1164,1274,1143,1205,63500,1205
2012/07/25,1220,1235,1180,1186,19100,1186
2012/07/26,1180,1188,1141,1151,12900,1151
2012/07/27,1164,1188,1151,1152,9300,1152
2012/07/30,1186,1186,1151,1152,9600,1152
2012/07/31,1157,1185,1155,1158,5500,1158
2012/08/01,1162,1162,1121,1134,11300,1134
2012/08/02,1145,1149,1145,1146,800,1146
2012/08/03,1150,1150,1122,1122,2400,1122
2012/08/06,1127,1147,1113,1113,3800,1113
2012/08/07,1110,1110,1065,1110,8600,1110
2012/08/08,1090,1133,1090,1111,3300,1111
2012/08/09,1100,1100,1095,1095,3800,1095
2012/08/10,1118,1135,1101,1117,6500,1117
2012/08/13,1100,1131,1092,1103,3100,1103
2012/08/14,1093,1125,1093,1110,1900,1110
2012/08/15,1128,1128,1100,1120,2900,1120
2012/08/16,1120,1120,1104,1120,1400,1120
2012/08/17,1110,1136,1110,1136,2500,1136
2012/08/20,1136,1170,1136,1170,6800,1170
2012/08/21,1170,1217,1160,1170,10400,1170
2012/08/22,1170,1195,1170,1175,1200,1175
2012/08/23,1175,1180,1165,1165,1200,1165
2012/08/24,1150,1186,1150,1186,1800,1186
2012/08/27,1180,1180,1150,1160,2100,1160
2012/08/28,1107,1159,1104,1140,5000,1140
2012/08/29,1118,1140,1118,1124,1900,1124
2012/08/30,1121,1136,1118,1120,2800,1120
2012/08/31,1120,1150,1116,1117,4700,1117
2012/09/03,1120,1128,1120,1121,1500,1121
2012/09/04,1120,1129,1120,1120,1400,1120
2012/09/05,1130,1148,1125,1126,2600,1126
2012/09/06,1126,1133,1125,1133,300,1133
2012/09/07,1134,1134,1115,1120,1000,1120
2012/09/10,1150,1150,1121,1125,3800,1125
2012/09/11,1120,1150,1120,1128,2300,1128
2012/09/12,1124,1149,1124,1149,2800,1149
2012/09/13,1136,1150,1136,1150,3500,1150
2012/09/14,1116,1130,1113,1125,6800,1125
2012/09/18,1125,1140,1120,1130,2000,1130
2012/09/19,1123,1140,1123,1127,2100,1127
2012/09/20,1127,1130,1120,1130,2500,1130
2012/09/21,1120,1130,1120,1130,2100,1130
2012/09/24,1128,1128,1105,1105,1400,1105
2012/09/25,1106,1125,1106,1125,500,1125
2012/09/26,1134,1135,1111,1126,1900,1126
2012/09/27,1126,1126,1113,1123,1500,1123
2012/09/28,1105,1108,1100,1100,7000,1100
2012/10/01,1100,1100,1065,1095,3100,1095
2012/10/02,1124,1124,1076,1120,900,1120
2012/10/03,1108,1110,1090,1090,2300,1090
2012/10/04,1030,1065,1003,1040,9900,1040
2012/10/05,1040,1090,1040,1090,4500,1090
2012/10/09,1064,1088,1061,1066,2600,1066
2012/10/10,1078,1078,1064,1070,2700,1070
2012/10/11,1070,1073,1053,1053,1200,1053
2012/10/12,1053,1060,1045,1047,1200,1047
2012/10/15,1032,1039,1020,1020,2400,1020
2012/10/16,1020,1050,1020,1050,1200,1050
2012/10/17,1050,1055,1030,1050,1500,1050
2012/10/18,1050,1050,1032,1040,1100,1040
2012/10/19,1035,1039,1032,1033,2300,1033
2012/10/22,1031,1040,1023,1040,1800,1040
2012/10/23,1038,1049,1038,1049,1300,1049
2012/10/24,1038,1070,1033,1058,2600,1058
2012/10/25,1053,1085,1052,1085,1800,1085
2012/10/26,1085,1085,1060,1060,2600,1060
2012/10/29,1055,1084,1051,1079,700,1079
2012/10/30,1085,1085,1044,1047,2100,1047
2012/10/31,1050,1055,1040,1043,1300,1043
2012/11/01,1040,1040,1027,1034,6700,1034
2012/11/02,1040,1040,1016,1016,1800,1016
2012/11/05,1016,1034,1012,1015,4700,1015
2012/11/06,1041,1041,1012,1028,3300,1028
2012/11/07,1020,1049,1017,1018,4500,1018
2012/11/08,1012,1020,1005,1005,5700,1005
2012/11/09,1000,1015,1000,1002,2900,1002
2012/11/12,1010,1038,1007,1029,5900,1029
2012/11/13,1036,1036,980,1000,7300,1000
2012/11/14,1000,1000,999,1000,3800,1000
2012/11/15,993,998,971,984,2200,984
2012/11/16,982,1008,982,1008,3200,1008
2012/11/19,1008,1009,991,992,1900,992
2012/11/20,990,1001,990,992,2400,992
2012/11/21,994,1000,993,995,1000,995
2012/11/22,993,1009,993,998,1600,998
2012/11/26,1003,1007,998,998,2500,998
2012/11/27,1001,1010,1001,1006,700,1006
2012/11/28,1006,1010,998,999,2600,999
2012/11/29,997,1000,994,1000,5300,1000
2012/11/30,1000,1015,996,1001,1100,1001
2012/12/03,1011,1012,995,997,2300,997
2012/12/04,997,998,993,996,1700,996
2012/12/05,999,999,991,991,1700,991
2012/12/06,1006,1006,993,995,2600,995
2012/12/07,993,997,988,995,4300,995
2012/12/10,1007,1010,995,1005,5300,1005
2012/12/11,1000,1000,991,999,1100,999
2012/12/12,999,1004,996,1004,1100,1004
2012/12/13,1003,1003,990,996,3300,996
2012/12/14,995,995,987,994,3800,994
2012/12/17,990,990,980,987,3700,987
2012/12/18,983,983,930,950,6000,950
2012/12/19,937,940,907,920,11100,920
2012/12/20,920,920,896,905,8600,905
2012/12/21,910,925,905,915,3900,915
2012/12/25,905,916,900,905,6100,905
2012/12/26,917,928,915,928,2800,928
2012/12/27,928,928,915,915,4200,915
2012/12/28,913,924,913,920,1400,920
2013/01/04,935,950,923,929,8900,929
2013/01/07,951,954,947,947,6500,947
2013/01/08,950,952,946,950,900,950
2013/01/09,957,970,955,960,2500,960
2013/01/10,977,1007,975,975,8900,975
2013/01/11,998,999,975,988,5800,988
2013/01/15,1003,1003,981,986,3700,986
2013/01/16,990,1000,990,994,4300,994
2013/01/17,996,996,985,995,2800,995
2013/01/18,985,995,985,995,2800,995
2013/01/21,988,1002,988,990,3800,990
2013/01/22,991,1001,987,1001,2800,1001
2013/01/23,1000,1010,986,999,4400,999
2013/01/24,1000,1001,987,987,2900,987
2013/01/25,990,996,990,995,1800,995
2013/01/28,997,999,991,999,3600,999
2013/01/29,1000,1000,990,998,3600,998
2013/01/30,1005,1148,1004,1148,21300,1148
2013/01/31,1148,1325,1080,1230,38000,1230
2013/02/01,1200,1200,1140,1145,15700,1145
2013/02/04,1198,1198,1145,1161,11100,1161
2013/02/05,1178,1178,1161,1175,2900,1175
2013/02/06,1200,1200,1170,1185,8300,1185
2013/02/07,1199,1199,1140,1178,5000,1178
2013/02/08,1180,1180,1140,1140,6300,1140
2013/02/12,1165,1165,1110,1110,5300,1110
2013/02/13,1110,1140,1080,1085,5500,1085
2013/02/14,1071,1075,1070,1072,1200,1072
2013/02/15,1098,1098,1040,1060,4300,1060
2013/02/18,1075,1088,1053,1055,3000,1055
2013/02/19,1205,1270,1137,1233,40600,1233
2013/02/20,1315,1315,1190,1190,40400,1190
2013/02/21,1189,1199,1150,1165,14900,1165
2013/02/22,1187,1194,1152,1194,4900,1194
2013/02/25,1240,1330,1223,1260,55100,1260
2013/02/26,1240,1282,1200,1238,21200,1238
2013/02/27,1294,1486,1294,1440,131800,1440
2013/02/28,1395,1740,1370,1715,158600,1715
2013/03/01,1675,1990,1600,1900,137600,1900
2013/03/04,1980,1988,1800,1803,115500,1803
2013/03/05,1840,1910,1702,1825,62100,1825
2013/03/06,1751,1788,1602,1670,94400,1670
2013/03/07,1685,1734,1590,1613,54200,1613
2013/03/08,1635,1674,1596,1630,25400,1630
2013/03/11,1574,1590,1412,1439,67600,1439
2013/03/12,1440,1500,1402,1450,29500,1450
2013/03/13,1438,1619,1438,1608,31800,1608
2013/03/14,1693,1728,1614,1614,73200,1614
2013/03/15,1605,1620,1551,1551,26900,1551
2013/03/18,1510,1527,1481,1505,16200,1505
2013/03/19,1517,1535,1500,1535,12300,1535
2013/03/21,1554,1558,1515,1550,7800,1550
2013/03/22,1551,1555,1517,1533,10300,1533
2013/03/25,1520,1535,1505,1505,5800,1505
2013/03/26,1529,1540,1480,1500,11000,1500
2013/03/27,1450,1510,1450,1471,6900,1471
2013/03/28,1450,1480,1380,1385,16700,1385
2013/03/29,1355,1385,1345,1350,9300,1350
2013/04/01,1400,1400,1275,1275,11400,1275
2013/04/02,1215,1255,1200,1255,18600,1255
2013/04/03,1300,1351,1255,1323,10600,1323
2013/04/04,1323,1380,1280,1348,6800,1348
2013/04/05,1348,1348,1300,1329,7800,1329
2013/04/08,1332,1448,1332,1409,12200,1409
2013/04/09,1430,1430,1379,1385,11800,1385
2013/04/10,1391,1398,1380,1380,3800,1380
2013/04/11,1395,1420,1357,1360,6700,1360
2013/04/12,1388,1388,1348,1351,6000,1351
2013/04/15,1358,1467,1358,1449,9800,1449
2013/04/16,1445,1445,1411,1421,4400,1421
2013/04/17,1420,1459,1390,1426,10000,1426
2013/04/18,1455,1460,1407,1410,8100,1410
2013/04/19,1485,1660,1478,1640,49700,1640
2013/04/22,1700,1710,1620,1628,32800,1628
2013/04/23,1700,1700,1650,1679,19100,1679
2013/04/24,1720,1723,1650,1653,33700,1653
2013/04/25,1697,1709,1662,1686,32600,1686
2013/04/26,1683,1686,1661,1670,20900,1670
2013/04/30,1663,1684,1651,1655,9400,1655
2013/05/01,1655,1655,1620,1620,7100,1620
2013/05/02,1590,1621,1561,1588,7000,1588
2013/05/07,1600,1648,1595,1617,14600,1617
2013/05/08,1620,1660,1620,1626,14000,1626
2013/05/09,1669,1669,1626,1630,5900,1630
2013/05/10,1650,1650,1621,1637,9300,1637
2013/05/13,1631,1660,1620,1620,14000,1620
2013/05/14,1626,1641,1601,1620,14800,1620
2013/05/15,1640,1641,1576,1580,21300,1580
2013/05/16,1581,1581,1430,1535,21500,1535
2013/05/17,1615,1935,1590,1935,211500,1935
2013/05/20,2335,2335,2332,2335,134900,2335
2013/05/21,2170,2650,2012,2200,324400,2200
2013/05/22,2050,2152,1901,1959,87100,1959
2013/05/23,1919,1925,1630,1654,83100,1654
2013/05/24,1727,1800,1666,1794,47500,1794
2013/05/27,1720,1770,1720,1720,17100,1720
2013/05/28,1700,1760,1689,1715,15100,1715
2013/05/29,1740,1759,1700,1707,18900,1707
2013/05/30,1677,1707,1600,1638,29400,1638
2013/05/31,1650,1690,1611,1637,9400,1637
2013/06/03,1637,1640,1600,1625,11300,1625
2013/06/04,1600,1611,1579,1585,12500,1585
2013/06/05,1615,1710,1578,1578,23900,1578
2013/06/06,1522,1550,1400,1449,27400,1449
2013/06/07,1375,1410,1298,1355,37200,1355
2013/06/10,1490,1534,1411,1517,18800,1517
2013/06/11,1517,1520,1445,1519,7800,1519
2013/06/12,1451,1500,1451,1500,6000,1500
2013/06/13,1499,1499,1453,1465,6300,1465
2013/06/14,1499,1499,1480,1490,2800,1490
2013/06/17,1501,1550,1490,1530,7600,1530
2013/06/18,1560,1560,1500,1530,3700,1530
2013/06/19,1530,1530,1500,1500,6900,1500
2013/06/20,1485,1519,1450,1470,6700,1470
2013/06/21,1410,1470,1410,1461,6500,1461
2013/06/24,1460,1490,1430,1450,2500,1450
2013/06/25,1440,1450,1342,1372,8200,1372
2013/06/26,1380,1380,1300,1300,10900,1300
2013/06/27,1330,1340,1215,1315,8300,1315
2013/06/28,1321,1387,1321,1374,3600,1374
2013/07/01,1380,1460,1380,1460,6300,1460
2013/07/02,1481,1510,1480,1480,9200,1480
2013/07/03,1510,1520,1486,1491,3000,1491
2013/07/04,1518,1530,1492,1530,4400,1530
2013/07/05,1570,1580,1520,1525,7600,1525
2013/07/08,1563,1571,1515,1517,8500,1517
2013/07/09,1520,1540,1500,1540,6200,1540
2013/07/10,1550,1594,1537,1537,12900,1537
2013/07/11,1550,1550,1502,1512,5000,1512
2013/07/12,1513,1549,1513,1519,2700,1519
2013/07/16,1559,1590,1549,1570,13000,1570
2013/07/17,1569,1605,1525,1597,17100,1597
2013/07/18,1598,1660,1583,1660,18300,1660
2013/07/19,1671,1700,1610,1666,18000,1666
2013/07/22,1698,1720,1640,1653,16800,1653
2013/07/23,1665,1743,1650,1743,19100,1743
2013/07/24,1783,1811,1740,1770,28300,1770
2013/07/25,1788,1788,1692,1701,19700,1701
2013/07/26,1691,1691,1661,1663,6600,1663
2013/07/29,1610,1610,1530,1531,11300,1531
2013/07/30,1515,1589,1515,1578,4700,1578
2013/07/31,1603,1639,1593,1600,4300,1600
2013/08/01,1613,1650,1530,1639,6300,1639
2013/08/02,1699,1699,1616,1616,5900,1616
2013/08/05,1590,1610,1530,1591,3600,1591
2013/08/06,1591,1591,1549,1582,2800,1582
2013/08/07,1600,1600,1541,1550,2900,1550
2013/08/08,1531,1570,1531,1541,2000,1541
2013/08/09,1543,1583,1531,1549,2300,1549
2013/08/12,1548,1587,1530,1530,2400,1530
2013/08/13,1570,1570,1517,1533,3500,1533
2013/08/14,1530,1540,1517,1540,1800,1540
2013/08/15,1539,1546,1515,1515,1600,1515
2013/08/16,1510,1535,1502,1509,3600,1509
2013/08/19,1503,1515,1502,1515,2200,1515
2013/08/20,1537,1563,1515,1515,3300,1515
2013/08/21,1506,1510,1405,1428,9800,1428
2013/08/22,1447,1447,1398,1414,7600,1414
2013/08/23,1444,1474,1410,1410,3100,1410
2013/08/26,1455,1470,1426,1426,2600,1426
2013/08/27,1415,1425,1400,1418,7400,1418
2013/08/28,1380,1410,1361,1390,6600,1390
2013/08/29,1408,1408,1366,1366,3000,1366
2013/08/30,1363,1390,1362,1365,2000,1365
2013/09/02,1375,1415,1372,1403,1500,1403
2013/09/03,1403,1430,1403,1415,3100,1415
2013/09/04,1415,1440,1400,1433,3600,1433
2013/09/05,1455,1460,1435,1460,2900,1460
2013/09/06,1460,1460,1430,1450,4600,1450
2013/09/09,1460,1470,1446,1447,10000,1447
2013/09/10,1471,1471,1439,1439,4300,1439
2013/09/11,1451,1458,1447,1447,3000,1447
2013/09/12,1477,1477,1455,1455,1400,1455
2013/09/13,1452,1455,1440,1453,3000,1453
2013/09/17,1505,1534,1475,1475,6800,1475
2013/09/18,1475,1490,1423,1455,5900,1455
2013/09/19,1475,1497,1474,1490,2900,1490
2013/09/20,1518,1586,1500,1580,12400,1580
2013/09/24,1632,1694,1620,1622,24200,1622
2013/09/25,1591,1597,1576,1590,21300,1590
2013/09/26,1585,1610,1577,1610,5400,1610
2013/09/27,1600,1600,1590,1597,7100,1597
2013/09/30,1580,1580,1480,1529,9100,1529
2013/10/01,1530,1559,1516,1559,5000,1559
2013/10/02,1530,1566,1523,1525,4800,1525
2013/10/03,1522,1522,1500,1511,5600,1511
2013/10/04,1500,1511,1495,1500,3600,1500
2013/10/07,1526,1528,1501,1501,2300,1501
2013/10/08,1500,1500,1480,1484,7500,1484
2013/10/09,1465,1502,1465,1496,1800,1496
2013/10/10,1510,1510,1488,1500,3200,1500
2013/10/11,1508,1519,1503,1519,1200,1519
2013/10/15,1519,1550,1510,1516,4900,1516
2013/10/16,1511,1560,1511,1514,4100,1514
2013/10/17,1516,1531,1512,1520,1400,1520
2013/10/18,1544,1544,1513,1516,1000,1516
2013/10/21,1550,1550,1522,1522,1100,1522
2013/10/22,1540,1545,1524,1526,3500,1526
2013/10/23,1547,1547,1516,1516,3000,1516
2013/10/24,1512,1530,1510,1510,2900,1510
2013/10/25,1521,1529,1520,1529,1400,1529
2013/10/28,1520,1530,1471,1530,8800,1530
2013/10/29,1530,1531,1511,1527,4300,1527
2013/10/30,1527,1527,1496,1510,3900,1510
2013/10/31,1507,1529,1496,1502,2200,1502
2013/11/01,1490,1490,1470,1489,2400,1489
2013/11/05,1497,1502,1439,1502,4700,1502
2013/11/06,1485,1499,1475,1498,1400,1498
2013/11/07,1490,1490,1463,1485,500,1485
2013/11/08,1455,1480,1450,1465,4000,1465
2013/11/11,1490,1490,1446,1460,2600,1460
2013/11/12,1452,1480,1446,1480,1000,1480
2013/11/13,1490,1490,1490,1490,200,1490
2013/11/14,1452,1460,1447,1447,5100,1447
2013/11/15,1477,1484,1452,1468,2300,1468
2013/11/18,1484,1484,1457,1475,2900,1475
2013/11/19,1475,1475,1461,1462,6800,1462
2013/11/20,1477,1480,1463,1464,3300,1464
2013/11/21,1464,1477,1464,1477,2700,1477
2013/11/22,1480,1493,1480,1491,3200,1491
2013/11/25,1500,1505,1497,1497,2400,1497
2013/11/26,1501,1528,1500,1515,3600,1515
2013/11/27,1519,1520,1515,1515,1700,1515
2013/11/28,1520,1520,1516,1519,5100,1519
2013/11/29,1525,1525,1510,1513,5000,1513
2013/12/02,1528,1539,1515,1528,2700,1528
2013/12/03,1550,1550,1530,1535,1600,1535
2013/12/04,1540,1540,1520,1535,2100,1535
2013/12/05,1516,1524,1515,1515,1600,1515
2013/12/06,1508,1509,1496,1500,3100,1500
2013/12/09,1504,1505,1504,1505,600,1505
2013/12/10,1512,1530,1512,1525,3500,1525
2013/12/11,1525,1580,1520,1548,15100,1548
2013/12/12,1551,1570,1533,1540,4500,1540
2013/12/13,1560,1560,1535,1546,2100,1546
2013/12/16,1651,1651,1588,1615,23000,1615
2013/12/17,1604,1609,1562,1571,9000,1571
2013/12/18,1572,1585,1572,1580,1700,1580
2013/12/19,1580,1619,1580,1590,7200,1590
2013/12/20,1609,1609,1550,1594,6400,1594
2013/12/24,1590,1620,1560,1560,11500,1560
2013/12/25,1555,1589,1545,1545,6100,1545
2013/12/26,1551,1599,1551,1570,1900,1570
2013/12/27,1595,1595,1575,1575,2200,1575
2013/12/30,1553,1600,1553,1600,5200,1600
2014/01/06,1616,1640,1600,1640,11300,1640
2014/01/07,1650,1664,1630,1648,14800,1648
2014/01/08,1650,1725,1650,1710,27300,1710
2014/01/09,1700,1720,1695,1697,6000,1697
2014/01/10,1690,1714,1677,1710,4500,1710
2014/01/14,1705,1730,1677,1711,12000,1711
2014/01/15,1733,1733,1712,1725,7700,1725
2014/01/16,1730,1749,1725,1739,6800,1739
2014/01/17,1716,1744,1710,1720,8900,1720
2014/01/20,1724,1732,1720,1726,6500,1726
2014/01/21,1730,1735,1713,1721,4100,1721
2014/01/22,1720,1725,1710,1725,6400,1725
2014/01/23,1717,1730,1716,1716,5300,1716
2014/01/24,1707,1707,1685,1700,4200,1700
2014/01/27,1625,1665,1625,1664,5900,1664
2014/01/28,1645,1648,1630,1631,4300,1631
2014/01/29,1659,1668,1659,1668,1300,1668
2014/01/30,1660,1660,1601,1637,10100,1637
2014/01/31,1631,1643,1592,1607,4000,1607
2014/02/03,1550,1553,1515,1515,6200,1515
2014/02/04,1501,1570,1500,1512,18100,1512
2014/02/05,1586,1590,1501,1505,9100,1505
2014/02/06,1500,1522,1500,1520,2600,1520
2014/02/07,1503,1543,1503,1535,5500,1535
2014/02/10,1575,1579,1541,1565,2100,1565
2014/02/12,1566,1594,1566,1593,1400,1593
2014/02/13,1593,1593,1548,1554,1400,1554
2014/02/14,1550,1575,1545,1545,2200,1545
2014/02/17,1545,1568,1500,1568,1900,1568
2014/02/18,1528,1567,1528,1535,700,1535
2014/02/19,1570,1570,1540,1550,1500,1550
2014/02/20,1585,1589,1550,1569,5600,1569
2014/02/21,1571,1598,1570,1575,600,1575
2014/02/24,1580,1590,1570,1589,2400,1589
2014/02/25,1600,1600,1570,1570,1800,1570
2014/02/26,1552,1579,1552,1572,500,1572
2014/02/27,1561,1598,1561,1570,1900,1570
2014/02/28,1555,1570,1551,1551,1700,1551
2014/03/03,1591,1596,1555,1575,3600,1575
2014/03/04,1565,1565,1558,1562,500,1562
2014/03/05,1556,1587,1556,1563,2200,1563
2014/03/06,1570,1588,1570,1586,3400,1586
2014/03/07,1614,1614,1587,1611,1900,1611
2014/03/10,1575,1600,1571,1574,3300,1574
2014/03/11,1573,1590,1573,1580,1700,1580
2014/03/12,1571,1571,1566,1570,2000,1570
2014/03/13,1560,1570,1558,1558,1600,1558
2014/03/14,1558,1569,1530,1537,3100,1537
2014/03/17,1520,1550,1516,1550,400,1550
2014/03/18,1540,1550,1511,1511,1300,1511
2014/03/19,1510,1520,1502,1520,1400,1520
2014/03/20,1504,1507,1465,1465,4600,1465
2014/03/24,1466,1500,1465,1465,1400,1465
2014/03/25,1493,1494,1462,1492,900,1492
2014/03/26,1474,1499,1455,1455,1800,1455
2014/03/27,1485,1485,1485,1485,300,1485
2014/03/28,1485,1489,1460,1489,1100,1489
2014/03/31,1492,1500,1467,1489,1400,1489
2014/04/01,1500,1500,1481,1481,2100,1481
2014/04/02,1510,1580,1507,1545,2900,1545
2014/04/03,1545,1549,1545,1549,500,1549
2014/04/04,1549,1549,1519,1544,1500,1544
2014/04/07,1544,1544,1527,1535,500,1535
2014/04/08,1520,1521,1491,1520,1500,1520
2014/04/09,1496,1545,1491,1545,300,1545
2014/04/10,1550,1550,1510,1517,1900,1517
2014/04/11,1490,1490,1490,1490,1400,1490
2014/04/14,1540,1540,1540,1540,100,1540
2014/04/15,1548,1548,1501,1501,300,1501
2014/04/16,1500,1519,1500,1519,200,1519
2014/04/17,1497,1497,1495,1495,1100,1495
2014/04/18,1501,1501,1486,1486,300,1486
2014/04/21,1549,1549,1548,1548,800,1548
2014/04/22,1547,1547,1488,1488,2700,1488
2014/04/23,1528,1528,1528,1528,200,1528
2014/04/24,1494,1534,1494,1502,600,1502
2014/04/25,1500,1510,1500,1510,500,1510
2014/04/28,1527,1527,1486,1494,600,1494
2014/04/30,1523,1523,1493,1493,400,1493
2014/05/01,1505,1509,1482,1508,900,1508
2014/05/07,1504,1504,1483,1483,300,1483
2014/05/08,1500,1500,1486,1486,1300,1486
2014/05/12,1539,1539,1506,1506,800,1506
2014/05/13,1490,1490,1488,1488,300,1488
2014/05/14,1488,1488,1488,1488,200,1488
2014/05/15,1490,1495,1490,1495,200,1495
2014/05/16,1495,1500,1491,1499,2300,1499
2014/05/19,1491,1491,1488,1488,700,1488
2014/05/20,1519,1519,1482,1485,1800,1485
2014/05/21,1481,1488,1481,1482,700,1482
2014/05/22,1477,1505,1477,1488,900,1488
2014/05/23,1480,1483,1479,1482,500,1482
2014/05/26,1482,1494,1479,1494,800,1494
2014/05/27,1485,1485,1485,1485,200,1485
2014/05/28,1484,1485,1475,1481,1300,1481
2014/05/29,1483,1499,1481,1499,500,1499
2014/05/30,1500,1511,1499,1499,3800,1499
2014/06/02,1500,1500,1494,1494,1500,1494
2014/06/03,1515,1515,1500,1510,1800,1510
2014/06/04,1520,1520,1501,1501,500,1501
2014/06/05,1503,1517,1480,1499,2500,1499
2014/06/06,1499,1520,1499,1520,1100,1520
2014/06/09,1542,1550,1521,1540,2400,1540
2014/06/10,1550,1589,1549,1554,7600,1554
2014/06/11,1522,1542,1500,1501,9800,1501
2014/06/12,1521,1521,1503,1511,1400,1511
2014/06/13,1508,1530,1508,1529,2300,1529
2014/06/16,1525,1548,1516,1545,10800,1545
2014/06/17,1548,1550,1517,1522,2100,1522
2014/06/18,1522,1522,1520,1520,1300,1520
2014/06/19,1514,1518,1510,1518,3700,1518
2014/06/20,1534,1534,1506,1512,3200,1512
2014/06/23,1508,1509,1505,1508,2000,1508
2014/06/24,1504,1519,1500,1519,2900,1519
2014/06/25,1491,1503,1490,1500,7000,1500
2014/06/26,1500,1500,1483,1500,2000,1500
2014/06/27,1500,1500,1482,1485,2700,1485
2014/06/30,1500,1505,1496,1496,2100,1496
2014/07/01,1510,1510,1505,1509,1400,1509
2014/07/02,1515,1518,1500,1500,900,1500
2014/07/03,1508,1520,1500,1520,1900,1520
2014/07/04,1520,1530,1511,1528,4500,1528
2014/07/07,1530,1540,1525,1539,5900,1539
2014/07/08,1535,1535,1522,1528,4800,1528
2014/07/09,1528,1570,1528,1555,11100,1555
2014/07/10,1556,1562,1544,1545,4000,1545
2014/07/11,1530,1553,1530,1530,2100,1530
2014/07/14,1534,1534,1513,1514,1800,1514
2014/07/15,1520,1548,1519,1530,1000,1530
2014/07/16,1569,1569,1528,1528,1900,1528
2014/07/17,1529,1529,1528,1528,200,1528
2014/07/18,1538,1538,1525,1527,1500,1527
2014/07/22,1527,1529,1506,1516,2600,1516
2014/07/23,1529,1529,1529,1529,100,1529
2014/07/24,1530,1550,1530,1545,1400,1545
2014/07/25,1558,1558,1520,1523,400,1523
2014/07/28,1525,1540,1522,1540,1600,1540
2014/07/29,1533,1533,1531,1531,1700,1531
2014/07/30,1531,1531,1531,1531,100,1531
2014/07/31,1532,1565,1532,1550,3100,1550
2014/08/01,1549,1687,1534,1609,3200,1609
2014/08/04,1603,1603,1550,1557,5700,1557
2014/08/05,1611,1616,1557,1557,1700,1557
2014/08/06,1550,1557,1540,1542,2600,1542
2014/08/07,1543,1550,1543,1544,800,1544
2014/08/08,1543,1544,1520,1523,3100,1523
2014/08/11,1584,1584,1531,1562,1400,1562
2014/08/12,1560,1560,1529,1534,1500,1534
2014/08/13,1549,1549,1549,1549,200,1549
2014/08/14,1549,1549,1538,1548,500,1548
2014/08/15,1550,1550,1550,1550,300,1550
2014/08/18,1550,1550,1542,1542,500,1542
2014/08/19,1560,1562,1549,1562,700,1562
2014/08/20,1583,1584,1554,1554,2000,1554
2014/08/21,1553,1555,1551,1551,700,1551
2014/08/22,1551,1551,1548,1548,1200,1548
2014/08/25,1540,1543,1528,1528,1600,1528
2014/08/26,1540,1540,1531,1531,400,1531
2014/08/27,1546,1546,1546,1546,300,1546
2014/08/28,1546,1546,1535,1535,300,1535
2014/08/29,1530,1532,1530,1532,400,1532
2014/09/01,1564,1590,1520,1531,5500,1531
2014/09/02,1534,1549,1534,1534,600,1534
2014/09/03,1550,1584,1550,1551,1700,1551
2014/09/04,1551,1569,1541,1547,1700,1547
2014/09/05,1569,1584,1550,1550,6300,1550
2014/09/08,1546,1546,1512,1518,5300,1518
2014/09/09,1519,1537,1519,1520,1000,1520
2014/09/10,1543,1548,1525,1525,2300,1525
2014/09/11,1523,1523,1519,1519,1400,1519
2014/09/12,1525,1525,1517,1525,700,1525
2014/09/16,1525,1540,1516,1516,1700,1516
2014/09/17,1520,1530,1517,1530,600,1530
2014/09/18,1517,1530,1517,1530,1000,1530
2014/09/19,1510,1526,1503,1526,3400,1526
2014/09/22,1546,1548,1530,1546,1100,1546
2014/09/24,1545,1545,1522,1544,400,1544
2014/09/25,1535,1535,1521,1521,1700,1521
2014/09/26,1515,1521,1503,1507,1700,1507
2014/09/29,1540,1540,1520,1520,1800,1520
2014/09/30,1525,1525,1510,1510,800,1510
2014/10/01,1510,1514,1510,1514,200,1514
2014/10/02,1505,1505,1500,1500,4100,1500
2014/10/03,1500,1500,1496,1496,1900,1496
2014/10/06,1528,1538,1506,1506,300,1506
2014/10/07,1530,1530,1500,1510,2300,1510
2014/10/08,1506,1510,1495,1509,4200,1509
2014/10/09,1520,1520,1500,1518,1000,1518
2014/10/10,1520,1520,1501,1520,2800,1520
2014/10/14,1510,1516,1497,1516,3800,1516
2014/10/15,1506,1506,1500,1505,600,1505
2014/10/16,1500,1502,1490,1502,1500,1502
2014/10/17,1499,1499,1490,1491,1800,1491
2014/10/20,1519,1519,1510,1517,1000,1517
2014/10/21,1512,1518,1503,1503,3300,1503
2014/10/22,1503,1504,1498,1498,1400,1498
2014/10/23,1500,1513,1500,1501,600,1501
2014/10/24,1561,1561,1505,1513,3300,1513
2014/10/27,1510,1524,1501,1501,900,1501
2014/10/28,1501,1519,1501,1503,800,1503
2014/10/29,1505,1510,1501,1501,2300,1501
2014/10/30,1492,1495,1488,1493,3800,1493
2014/10/31,1493,1500,1480,1500,2900,1500
2014/11/04,1500,1521,1498,1512,5500,1512
2014/11/05,1505,1512,1500,1506,2900,1506
2014/11/06,1505,1506,1505,1506,300,1506
2014/11/07,1515,1530,1515,1530,2200,1530
2014/11/10,1510,1528,1510,1523,1900,1523
2014/11/11,1529,1530,1518,1518,2100,1518
2014/11/12,1524,1530,1510,1510,2800,1510
2014/11/13,1534,1534,1512,1522,2000,1522
2014/11/14,1529,1530,1515,1530,1700,1530
2014/11/17,1521,1530,1515,1526,3800,1526
2014/11/18,1520,1535,1520,1535,2500,1535
2014/11/19,1531,1533,1526,1533,1700,1533
2014/11/20,1545,1570,1537,1551,4700,1551
2014/11/21,1631,1648,1590,1590,18000,1590
2014/11/25,1596,1633,1571,1580,5900,1580
2014/11/26,1588,1600,1588,1590,1800,1590
2014/11/27,1572,1590,1572,1572,600,1572
2014/11/28,1572,1575,1550,1550,4200,1550
2014/12/01,1550,1560,1550,1560,1300,1560
2014/12/02,1560,1610,1560,1571,2800,1571
2014/12/03,1575,1600,1575,1585,800,1585
2014/12/04,1600,1600,1575,1575,900,1575
2014/12/05,1585,1598,1585,1598,500,1598
2014/12/08,1599,1605,1576,1577,3400,1577
2014/12/09,1561,1578,1560,1560,3200,1560
2014/12/10,1595,1595,1561,1565,2200,1565
2014/12/11,1551,1556,1551,1554,800,1554
2014/12/12,1551,1565,1525,1525,3100,1525
2014/12/15,1427,1450,1372,1444,14400,1444
2014/12/16,1450,1461,1420,1441,2300,1441
2014/12/17,1430,1497,1426,1497,2300,1497
2014/12/18,1496,1496,1450,1452,2400,1452
2014/12/19,1509,1509,1490,1491,2400,1491
2014/12/22,1505,1517,1491,1491,1600,1491
2014/12/24,1495,1495,1460,1460,1100,1460
2014/12/25,1452,1452,1398,1440,6200,1440
2014/12/26,1412,1458,1412,1441,2500,1441
2014/12/29,1440,1465,1440,1443,700,1443
2014/12/30,1449,1460,1439,1439,1900,1439
2015/01/05,1440,1470,1440,1442,2300,1442
2015/01/06,1450,1450,1439,1450,1200,1450
2015/01/07,1450,1501,1450,1499,2700,1499
2015/01/08,1507,1515,1507,1515,2600,1515
2015/01/09,1500,1500,1484,1495,1100,1495
2015/01/13,1518,1518,1480,1480,1200,1480
2015/01/14,1481,1520,1481,1514,1600,1514
2015/01/15,1502,1502,1500,1500,600,1500
2015/01/16,1500,1515,1450,1450,2900,1450
2015/01/19,1481,1499,1481,1481,700,1481
2015/01/20,1523,1523,1491,1491,1500,1491
2015/01/21,1480,1480,1480,1480,100,1480
2015/01/22,1510,1510,1490,1495,500,1495
2015/01/23,1485,1486,1485,1486,400,1486
2015/01/26,1510,1510,1484,1484,300,1484
2015/01/27,1466,1507,1466,1475,2000,1475
2015/01/28,1500,1500,1499,1499,1100,1499
2015/01/29,1505,1505,1499,1499,200,1499
2015/01/30,1509,1509,1486,1486,600,1486
2015/02/02,1485,1485,1484,1484,300,1484
2015/02/03,1485,1485,1481,1481,200,1481
2015/02/04,1480,1510,1480,1510,1700,1510
2015/02/05,1510,1510,1510,1510,400,1510
2015/02/06,1510,1522,1505,1521,800,1521
2015/02/09,1515,1518,1503,1518,400,1518
2015/02/10,1530,1531,1506,1530,1500,1530
2015/02/12,1530,1532,1519,1521,1400,1521
2015/02/13,1515,1521,1508,1521,900,1521
2015/02/16,1521,1540,1511,1511,700,1511
2015/02/17,1519,1540,1508,1520,900,1520
2015/02/18,1520,1540,1510,1510,600,1510
2015/02/20,1534,1534,1510,1510,2000,1510
2015/02/23,1511,1534,1511,1530,1300,1530
2015/02/24,1534,1535,1516,1516,700,1516
2015/02/25,1511,1521,1511,1511,600,1511
2015/02/26,1507,1510,1506,1506,1000,1506
2015/02/27,1503,1503,1444,1460,3200,1460
2015/03/02,1498,1498,1476,1476,400,1476
2015/03/03,1478,1494,1478,1490,700,1490
2015/03/04,1490,1491,1482,1482,700,1482
2015/03/05,1495,1495,1495,1495,400,1495
2015/03/06,1485,1485,1474,1480,1200,1480
2015/03/09,1472,1486,1471,1486,700,1486
2015/03/10,1484,1484,1479,1479,1900,1479
2015/03/11,1470,1482,1470,1482,300,1482
2015/03/12,1497,1497,1471,1480,500,1480
2015/03/13,1500,1500,1480,1480,1300,1480
2015/03/16,1471,1492,1461,1461,2500,1461
2015/03/17,1460,1478,1457,1460,1400,1460
2015/03/18,1456,1478,1453,1478,1400,1478
2015/03/19,1460,1466,1460,1466,500,1466
2015/03/20,1480,1480,1460,1460,1800,1460
2015/03/23,1465,1465,1465,1465,400,1465
2015/03/24,1465,1465,1465,1465,600,1465
2015/03/25,1470,1475,1467,1467,700,1467
2015/03/26,1465,1465,1462,1462,600,1462
2015/03/27,1462,1462,1462,1462,100,1462
2015/03/30,1487,1495,1463,1463,1100,1463
2015/03/31,1462,1464,1461,1462,1700,1462
2015/04/01,1462,1462,1460,1460,500,1460
2015/04/02,1460,1460,1460,1460,500,1460
2015/04/03,1462,1478,1460,1472,1200,1472
2015/04/06,1472,1480,1470,1480,700,1480
2015/04/07,1488,1488,1477,1477,1300,1477
2015/04/08,1487,1487,1478,1479,1000,1479
2015/04/09,1481,1485,1480,1480,1800,1480
2015/04/10,1498,1498,1483,1485,900,1485
2015/04/13,1495,1495,1490,1490,700,1490
2015/04/14,1480,1495,1480,1495,1000,1495
2015/04/16,1488,1497,1485,1485,600,1485
2015/04/17,1488,1488,1486,1487,500,1487
2015/04/20,1497,1497,1483,1494,2300,1494
2015/04/21,1498,1498,1487,1487,1000,1487
2015/04/22,1496,1519,1492,1494,2400,1494
2015/04/23,1478,1494,1478,1494,3800,1494
2015/04/24,1494,1494,1482,1485,900,1485
2015/04/27,1485,1492,1481,1492,800,1492
2015/04/28,1500,1530,1481,1530,8000,1530
2015/04/30,1510,1510,1477,1477,4400,1477
2015/05/01,1475,1480,1472,1476,1400,1476
2015/05/07,1500,1535,1500,1500,4100,1500
2015/05/08,1501,1520,1500,1500,400,1500
2015/05/11,1510,1510,1491,1499,1700,1499
2015/05/12,1501,1507,1491,1507,900,1507
2015/05/13,1505,1505,1492,1499,1000,1499
2015/05/14,1480,1499,1480,1496,2400,1496
2015/05/15,1499,1499,1470,1480,4300,1480
2015/05/18,1480,1500,1480,1500,1500,1500
2015/05/19,1499,1499,1482,1497,600,1497
2015/05/20,1499,1499,1484,1499,900,1499
2015/05/22,1496,1496,1484,1484,200,1484
2015/05/25,1484,1489,1481,1489,1300,1489
2015/05/26,1495,1495,1490,1490,1300,1490
2015/05/27,1488,1489,1484,1484,1700,1484
2015/05/28,1484,1486,1484,1484,1200,1484
2015/05/29,1490,1490,1481,1481,700,1481
2015/06/01,1480,1481,1480,1481,300,1481
2015/06/02,1481,1482,1481,1481,1000,1481
2015/06/03,1484,1491,1482,1491,600,1491
2015/06/04,1495,1520,1495,1515,4300,1515
2015/06/05,1515,1519,1489,1519,600,1519
2015/06/08,1518,1520,1517,1520,2000,1520
2015/06/09,1487,1497,1487,1497,600,1497
2015/06/10,1524,1524,1524,1524,500,1524
2015/06/11,1507,1507,1507,1507,100,1507
2015/06/12,1508,1508,1506,1506,400,1506
2015/06/15,1500,1500,1494,1494,1400,1494
2015/06/16,1492,1493,1485,1485,1700,1485
2015/06/17,1508,1508,1508,1508,100,1508
2015/06/18,1496,1499,1470,1486,3300,1486
2015/06/19,1472,1480,1471,1472,1000,1472
2015/06/22,1499,1499,1499,1499,600,1499
2015/06/23,1507,1507,1473,1473,1200,1473
2015/06/24,1503,1506,1492,1493,1700,1493
2015/06/25,1510,1580,1509,1567,12500,1567
2015/06/26,1571,1571,1515,1545,8200,1545
2015/06/29,1515,1555,1511,1520,5400,1520
2015/06/30,1513,1547,1511,1522,6100,1522
2015/07/01,1550,1550,1530,1530,2800,1530
