2011/01/04,8120,8170,8080,8170,8826,8170
2011/01/05,7950,7950,7870,7890,60070,7890
2011/01/06,7910,7940,7870,7920,13627,7920
2011/01/07,7850,7850,7790,7830,14028,7830
2011/01/11,7820,7840,7810,7830,5877,7830
2011/01/12,7870,7940,7870,7920,8576,7920
2011/01/13,7940,7940,7880,7890,6495,7890
2011/01/14,7790,7790,7700,7750,24753,7750
2011/01/17,7640,7680,7600,7600,13868,7600
2011/01/18,7560,7580,7520,7580,8003,7580
2011/01/19,7660,7730,7650,7730,7444,7730
2011/01/20,7690,7690,7600,7650,4704,7650
2011/01/21,7440,7450,7300,7320,16704,7320
2011/01/24,7350,7480,7350,7460,5587,7460
2011/01/25,7280,7280,7150,7180,22513,7180
2011/01/26,7060,7100,7000,7040,13889,7040
2011/01/27,7250,7310,7140,7190,6687,7190
2011/01/28,7040,7180,6980,7050,15379,7050
2011/01/31,7310,7420,7310,7420,10253,7420
2011/02/01,7430,7430,7360,7380,4936,7380
2011/02/02,7470,7480,7440,7480,6018,7480
2011/02/03,7480,7480,7440,7470,1997,7470
2011/02/04,7530,7600,7530,7600,5998,7600
2011/02/07,7640,7700,7640,7680,4892,7680
2011/02/08,7760,7770,7710,7770,5752,7770
2011/02/09,7850,7950,7830,7930,13630,7930
2011/02/10,7930,7930,7900,7910,8875,7910
2011/02/14,7850,7910,7840,7900,8855,7900
2011/02/15,8040,8080,7990,8070,14256,8070
2011/02/16,8080,8090,8040,8060,5865,8060
2011/02/17,8080,8110,8010,8070,12186,8070
2011/02/18,8170,8270,8140,8160,20151,8160
2011/02/21,8490,8730,8420,8630,23949,8630
2011/02/22,8960,9200,8600,8870,26397,8870
2011/02/23,8920,8920,8620,8800,43513,8800
2011/02/24,8920,8980,8900,8910,13365,8910
2011/02/25,8790,8800,8550,8660,23667,8660
2011/02/28,8840,8860,8770,8810,11102,8810
2011/03/01,8920,8980,8880,8970,9525,8970
2011/03/02,9130,9200,9080,9200,16060,9200
2011/03/03,9220,9240,9150,9230,14312,9230
2011/03/04,9120,9230,9100,9210,11481,9210
2011/03/07,9450,9660,9440,9600,18657,9600
2011/03/08,9610,9690,9530,9590,37611,9590
2011/03/09,9570,9650,9530,9620,14577,9620
2011/03/10,9600,9620,9510,9580,14815,9580
2011/03/11,9280,9460,9270,9270,31136,9270
2011/03/14,9120,9450,9030,9270,35638,9270
2011/03/15,9200,9370,8710,9180,35912,9180
2011/03/16,8730,9080,8700,8820,19329,8820
2011/03/17,8520,8700,8500,8610,9626,8610
2011/03/18,8890,9220,8890,9210,10051,9210
2011/03/22,9500,9510,9350,9440,15665,9440
2011/03/23,9500,9500,9360,9430,6797,9430
2011/03/24,9620,9680,9620,9650,20498,9650
2011/03/25,9760,9800,9620,9800,14455,9800
2011/03/28,9780,9790,9730,9770,6169,9770
2011/03/29,9780,9780,9550,9660,7347,9660
2011/03/30,9780,9880,9660,9880,11689,9880
2011/03/31,10000,10080,10000,10040,12037,10040
2011/04/01,10270,10290,10140,10280,41002,10280
2011/04/04,10380,10420,10350,10370,27158,10370
2011/04/05,10530,10780,10520,10660,33354,10660
2011/04/06,10930,11050,10860,10880,64725,10880
2011/04/07,11000,11000,10950,10970,34889,10970
2011/04/08,10990,11090,10880,11080,42950,11080
2011/04/11,11310,11530,11300,11520,54407,11520
2011/04/12,11170,11170,10750,10850,64589,10850
2011/04/13,10720,11020,10710,11020,48696,11020
2011/04/14,11000,11110,10900,11100,21593,11100
2011/04/15,11440,11440,11310,11360,46829,11360
2011/04/18,11630,11650,11570,11570,38846,11570
2011/04/19,11530,11560,11370,11480,41151,11480
2011/04/20,11730,11910,11690,11870,39330,11870
2011/04/21,12070,12240,12040,12230,58033,12230
2011/04/22,12370,12580,12310,12370,66397,12370
2011/04/25,12710,13090,12670,12980,66784,12980
2011/04/26,12310,12380,11800,12170,119561,12170
2011/04/27,12130,12180,12000,12130,41984,12130
2011/04/28,12900,12900,12570,12610,58181,12610
2011/05/02,11590,11980,11500,11750,93462,11750
2011/05/06,9350,9450,9110,9220,226981,9220
2011/05/09,9320,9630,9280,9540,113887,9540
2011/05/10,9980,9980,9780,9830,90899,9830
2011/05/11,10110,10320,10080,10320,74878,10320
2011/05/12,9500,9560,9350,9380,131858,9380
2011/05/13,9250,9280,8910,9030,107866,9030
2011/05/16,9150,9220,8940,8980,39413,8980
2011/05/17,8780,8860,8710,8750,67888,8750
2011/05/18,8860,8940,8820,8920,38827,8920
2011/05/19,9190,9290,9180,9200,30998,9200
2011/05/20,9160,9190,9140,9150,13323,9150
2011/05/23,9200,9220,9050,9060,20765,9060
2011/05/24,9110,9230,9110,9230,18158,9230
2011/05/25,9550,9570,9500,9500,34143,9500
2011/05/26,9790,10000,9780,10000,51537,10000
2011/05/27,9620,9780,9580,9690,31954,9690
2011/05/30,9750,9800,9670,9710,19858,9710
2011/05/31,9730,9780,9720,9770,13258,9770
2011/06/01,9900,9900,9720,9720,20453,9720
2011/06/02,9420,9530,9400,9500,20312,9500
2011/06/03,9300,9360,9170,9230,34704,9230
2011/06/06,9300,9410,9260,9390,17270,9390
2011/06/07,9330,9400,9330,9380,10015,9380
2011/06/08,9430,9450,9340,9390,10330,9390
2011/06/09,9340,9370,9260,9320,16550,9320
2011/06/10,9540,9620,9450,9510,24535,9510
2011/06/13,9210,9280,9170,9220,25066,9220
2011/06/14,9060,9100,9000,9040,27423,9040
2011/06/15,9140,9160,9050,9060,10058,9060
2011/06/16,9140,9160,9080,9110,11215,9110
2011/06/17,9110,9150,9080,9100,6313,9100
2011/06/20,9210,9220,9100,9110,8465,9110
2011/06/21,9170,9210,9160,9200,10375,9200
2011/06/22,9300,9340,9270,9270,8238,9270
2011/06/23,9300,9300,9230,9270,7789,9270
2011/06/24,9080,9090,9020,9020,17630,9020
2011/06/27,8830,8830,8700,8730,29515,8730
2011/06/28,8680,8710,8620,8660,15486,8660
2011/06/29,8800,8820,8730,8820,10239,8820
2011/06/30,8980,8980,8900,8960,12596,8960
2011/07/01,8900,8950,8860,8860,10347,8860
2011/07/04,8800,8810,8740,8770,11670,8770
2011/07/05,8780,8850,8750,8760,10233,8760
2011/07/06,9140,9170,9070,9160,24525,9160
2011/07/07,9240,9300,9220,9290,13986,9290
2011/07/08,9390,9440,9350,9390,20598,9390
2011/07/11,9420,9420,9370,9410,12041,9410
2011/07/12,9160,9210,9110,9170,14152,9170
2011/07/13,9180,9260,9180,9260,9473,9260
2011/07/14,9650,9690,9510,9630,33737,9630
2011/07/15,9640,9700,9600,9640,38124,9640
2011/07/19,10050,10200,10050,10200,48182,10200
2011/07/20,9890,9910,9820,9820,22911,9820
2011/07/21,9970,10010,9940,9970,19817,9970
2011/07/22,9820,9840,9760,9800,14707,9800
2011/07/25,9990,10070,9960,10010,21743,10010
2011/07/26,9990,10010,9910,9950,16766,9950
2011/07/27,10050,10100,10030,10080,12952,10080
2011/07/28,9980,9980,9920,9920,7993,9920
2011/07/29,9850,9850,9640,9660,15540,9660
2011/08/01,9610,9710,9600,9660,9988,9660
2011/08/02,9690,9760,9650,9750,14372,9750
2011/08/03,9990,9990,9910,9950,12155,9950
2011/08/04,10100,10480,10070,10420,53526,10420
2011/08/05,9770,9900,9730,9830,43607,9830
2011/08/08,9850,10110,9820,10000,27617,10000
2011/08/09,9790,9830,9470,9570,38164,9570
2011/08/10,9600,9640,9320,9390,37216,9390
2011/08/11,9640,9830,9590,9690,50402,9690
2011/08/12,9600,9610,9510,9560,14172,9560
2011/08/15,9570,9670,9560,9670,6301,9670
2011/08/16,9800,9820,9730,9770,5307,9770
2011/08/17,9860,9860,9810,9860,9449,9860
2011/08/18,9900,9920,9850,9910,9562,9910
2011/08/19,10000,10010,9940,9990,23293,9990
2011/08/22,10600,10690,10470,10690,51401,10690
2011/08/23,10700,10740,10550,10660,30400,10660
2011/08/24,10200,10300,10130,10130,22789,10130
2011/08/25,9850,9870,9600,9730,39648,9730
2011/08/26,9970,10060,9850,9850,28718,9850
2011/08/29,10010,10030,9910,9950,20735,9950
2011/08/30,9910,10020,9840,9870,7961,9870
2011/08/31,10020,10070,9990,10070,8812,10070
2011/09/01,10100,10120,10080,10100,7827,10100
2011/09/02,10090,10160,10070,10140,7238,10140
2011/09/05,10510,10550,10380,10500,27578,10500
2011/09/06,10450,10520,10400,10500,16570,10500
2011/09/07,10330,10380,10050,10130,14720,10130
2011/09/08,10190,10210,10140,10150,14761,10150
2011/09/09,10260,10410,10230,10370,22937,10370
2011/09/12,10070,10180,10030,10060,22732,10060
2011/09/13,9950,10020,9910,9980,10924,9980
2011/09/14,10030,10090,9900,9910,15522,9910
2011/09/15,9850,9910,9770,9840,11786,9840
2011/09/16,9680,9720,9610,9640,14504,9640
2011/09/20,9630,9680,9490,9490,12588,9490
2011/09/21,9560,9660,9510,9640,8344,9640
2011/09/22,9620,9630,9530,9530,6630,9530
2011/09/26,8030,8030,8030,8030,5217,8030
2011/09/27,7500,7780,7360,7780,67944,7780
2011/09/28,7850,7850,7550,7620,27343,7620
2011/09/29,7210,7630,7210,7630,20822,7630
2011/09/30,7680,7680,7500,7600,11201,7600
2011/10/03,7440,7540,7330,7420,19103,7420
2011/10/04,7350,7570,7350,7540,10059,7540
2011/10/05,7350,7390,7200,7200,14376,7200
2011/10/06,7280,7440,7280,7350,9783,7350
2011/10/07,7700,7890,7660,7800,15030,7800
2011/10/11,7810,7880,7810,7820,9777,7820
2011/10/12,7750,7870,7750,7770,4186,7770
2011/10/13,7960,7980,7890,7930,5914,7930
2011/10/14,7850,7850,7670,7750,7728,7750
2011/10/17,7850,7860,7760,7800,4804,7800
2011/10/18,7700,7720,7650,7660,4409,7660
2011/10/19,7680,7750,7640,7670,3144,7670
2011/10/20,7560,7580,7400,7490,6304,7490
2011/10/21,7390,7500,7390,7420,3703,7420
2011/10/24,7560,7620,7510,7590,7316,7590
2011/10/25,7580,7620,7280,7510,12273,7510
2011/10/26,7820,7980,7820,7980,16297,7980
2011/10/27,8000,8080,7950,7990,8540,7990
2011/10/28,8400,8510,8330,8400,17379,8400
2011/10/31,8440,8710,8380,8460,19732,8460
2011/11/01,8420,8500,8370,8450,8799,8450
2011/11/02,8150,8270,8120,8270,9248,8270
2011/11/04,8460,8470,8400,8470,10782,8470
2011/11/07,8470,8530,8360,8500,7685,8500
2011/11/08,8640,8640,8520,8600,8586,8600
2011/11/09,8620,8630,8540,8560,9824,8560
2011/11/10,8340,8400,8130,8300,13387,8300
2011/11/11,8310,8370,8260,8300,6953,8300
2011/11/14,8500,8520,8440,8510,6617,8510
2011/11/15,8350,8430,8240,8340,6650,8340
2011/11/16,8400,8400,8270,8270,3211,8270
2011/11/17,8160,8260,8160,8190,12462,8190
2011/11/18,7740,7830,7640,7690,18904,7690
2011/11/21,7750,7920,7750,7860,5637,7860
2011/11/22,7690,7700,7600,7650,6954,7650
2011/11/24,7710,7800,7660,7770,10364,7770
2011/11/25,7710,7820,7700,7750,2843,7750
2011/11/28,7730,7840,7730,7770,4713,7770
2011/11/29,7910,7960,7860,7960,4501,7960
2011/11/30,7970,7970,7890,7920,6202,7920
2011/12/01,8070,8130,8060,8120,9517,8120
2011/12/02,8030,8140,8030,8080,7167,8080
2011/12/05,8110,8120,8060,8060,2128,8060
2011/12/06,7870,7930,7870,7890,13472,7890
2011/12/07,8020,8050,7930,7990,4388,7990
2011/12/08,8000,8020,7950,7950,4071,7950
2011/12/09,7820,7850,7770,7820,6978,7820
2011/12/12,7940,7940,7750,7750,5746,7750
2011/12/13,7660,7740,7650,7700,3760,7700
2011/12/14,7640,7690,7610,7680,2838,7680
2011/12/15,7380,7390,7080,7080,46566,7080
2011/12/16,7170,7270,7150,7250,23010,7250
2011/12/19,7360,7360,7050,7050,13942,7050
2011/12/20,7060,7150,7050,7060,13427,7060
2011/12/21,7240,7280,7220,7250,5817,7250
2011/12/22,7240,7240,7150,7160,2660,7160
2011/12/26,7200,7200,7070,7140,5991,7140
2011/12/27,7070,7130,7060,7090,5298,7090
2011/12/28,7050,7100,7030,7050,3414,7050
2011/12/29,6810,6820,6630,6650,25295,6650
2011/12/30,6750,6800,6720,6790,8756,6790
2012/01/04,7050,7160,7030,7090,14453,7090
2012/01/05,7130,7180,7060,7180,3525,7180
2012/01/06,7120,7200,7120,7150,5363,7150
2012/01/10,7030,7140,6960,7140,4453,7140
2012/01/11,7270,7300,7210,7220,7854,7220
2012/01/12,7250,7280,7230,7250,4958,7250
2012/01/13,7250,7290,7190,7240,4618,7240
2012/01/16,7200,7220,7150,7150,2527,7150
2012/01/17,7230,7330,7230,7320,5690,7320
2012/01/18,7320,7330,7230,7300,3176,7300
2012/01/19,7380,7400,7340,7360,7557,7360
2012/01/20,7400,7430,7380,7400,4163,7400
2012/01/23,7620,7850,7620,7800,20835,7800
2012/01/24,7890,7890,7780,7800,6363,7800
2012/01/25,7820,7930,7820,7930,4863,7930
2012/01/26,8100,8120,8040,8060,7117,8060
2012/01/27,8150,8170,8110,8150,6687,8150
2012/01/30,8220,8230,8080,8120,7545,8120
2012/01/31,8050,8100,7990,7990,3933,7990
2012/02/01,7920,7980,7900,7980,6675,7980
2012/02/02,8120,8120,7990,8060,7443,8060
2012/02/03,8140,8190,8130,8190,6429,8190
2012/02/06,8110,8180,8080,8140,4615,8140
2012/02/07,8110,8130,8070,8080,4636,8080
2012/02/08,8200,8260,8190,8260,7902,8260
2012/02/09,8260,8270,8200,8240,2095,8240
2012/02/10,8270,8290,8190,8250,9706,8250
2012/02/13,8160,8250,8160,8210,3071,8210
2012/02/14,8200,8210,8160,8180,2885,8180
2012/02/15,8210,8300,8210,8280,7097,8280
2012/02/16,8290,8290,8200,8200,4310,8200
2012/02/17,8230,8380,8230,8330,15995,8330
2012/02/20,8400,8450,8400,8440,8799,8440
2012/02/21,8430,8530,8410,8530,9957,8530
2012/02/22,8610,8690,8580,8690,13438,8690
2012/02/23,8690,8740,8670,8700,7711,8700
2012/02/24,8800,9070,8780,9040,28465,9040
2012/02/27,9190,9210,9120,9170,15395,9170
2012/02/28,9090,9100,8990,9090,14126,9090
2012/02/29,9540,9550,9320,9450,20531,9450
2012/03/01,9050,9160,9000,9040,21368,9040
2012/03/02,9180,9180,9110,9140,5812,9140
2012/03/05,9010,9100,8890,8930,12294,8930
2012/03/06,8780,8880,8700,8710,16248,8710
2012/03/07,8380,8500,8370,8450,26341,8450
2012/03/08,8640,8690,8620,8670,6689,8670
2012/03/09,8810,8840,8710,8790,7711,8790
2012/03/12,9000,9000,8840,8870,11237,8870
2012/03/13,8810,8890,8800,8840,3545,8840
2012/03/14,8770,8930,8720,8720,7939,8720
2012/03/15,8620,8620,8500,8510,15237,8510
2012/03/16,8550,8670,8550,8600,5447,8600
2012/03/19,8600,8690,8580,8650,5686,8650
2012/03/21,8510,8590,8500,8540,5085,8540
2012/03/22,8500,8600,8470,8500,5071,8500
2012/03/23,8370,8370,8300,8340,6509,8340
2012/03/26,8350,8480,8350,8460,5565,8460
2012/03/27,8600,8660,8510,8660,4138,8660
2012/03/28,8660,8660,8560,8580,2999,8580
2012/03/29,8500,8510,8420,8440,2777,8440
2012/03/30,8450,8450,8400,8420,2025,8420
2012/04/02,8520,8570,8460,8570,2660,8570
2012/04/03,8600,8630,8530,8540,1595,8540
2012/04/04,8520,8600,8440,8440,2983,8440
2012/04/05,8240,8290,8190,8290,4525,8290
2012/04/06,8300,8510,8300,8390,3379,8390
2012/04/09,8340,8340,8250,8290,1854,8290
2012/04/10,8250,8320,8200,8260,2004,8260
2012/04/11,8150,8190,8120,8170,2589,8170
2012/04/12,8170,8220,8120,8170,837,8170
2012/04/13,8350,8350,8290,8340,2643,8340
2012/04/16,8200,8230,8100,8110,5868,8110
2012/04/17,8180,8180,8100,8100,1195,8100
2012/04/18,8200,8260,8150,8220,2749,8220
2012/04/19,8200,8240,8160,8180,1770,8180
2012/04/20,8160,8240,8160,8230,829,8230
2012/04/23,8250,8250,8150,8160,361,8160
2012/04/24,8060,8060,7920,7970,7785,7970
2012/04/25,7930,7990,7920,7960,2073,7960
2012/04/26,7950,7990,7920,7920,699,7920
2012/04/27,7970,7990,7920,7920,2447,7920
2012/05/01,7920,7940,7850,7850,1878,7850
2012/05/02,7910,7910,7810,7880,3654,7880
2012/05/07,7680,7810,7650,7670,4700,7670
2012/05/08,7660,7660,7560,7590,6235,7590
2012/05/09,7460,7500,7380,7410,8094,7410
2012/05/10,7310,7440,7310,7440,18179,7440
2012/05/11,7350,7370,7320,7320,4188,7320
2012/05/14,7270,7330,7270,7270,4452,7270
2012/05/15,7190,7200,7110,7110,4159,7110
2012/05/16,7100,7100,7000,7000,4246,7000
2012/05/17,7000,7120,7000,7120,5030,7120
2012/05/18,7110,7180,7030,7150,7537,7150
2012/05/21,7300,7320,7240,7300,5187,7300
2012/05/22,7290,7290,7220,7260,5799,7260
2012/05/23,7170,7200,7070,7100,3737,7100
2012/05/24,7050,7090,7030,7070,4466,7070
2012/05/25,7200,7200,7120,7160,2283,7160
2012/05/28,7210,7250,7200,7210,5678,7210
2012/05/29,7200,7280,7180,7210,1390,7210
2012/05/30,7150,7190,7070,7100,4452,7100
2012/05/31,7060,7090,7030,7070,1488,7070
2012/06/01,7030,7050,6930,6980,4338,6980
2012/06/04,7110,7170,7090,7150,3919,7150
2012/06/05,7050,7120,7050,7120,1433,7120
2012/06/06,7150,7290,7130,7280,3362,7280
2012/06/07,7460,7510,7430,7460,4676,7460
2012/06/08,7300,7300,7190,7240,4721,7240
2012/06/11,7360,7360,7310,7310,1485,7310
2012/06/12,7250,7280,7210,7250,2290,7250
2012/06/13,7350,7350,7280,7330,1461,7330
2012/06/14,7290,7380,7290,7370,1827,7370
2012/06/15,7370,7370,7210,7220,4692,7220
2012/06/18,7300,7300,7220,7230,2962,7230
2012/06/19,7270,7270,7210,7230,586,7230
2012/06/20,7220,7240,7160,7190,3528,7190
2012/06/21,7120,7120,7070,7120,6379,7120
2012/06/22,7000,7000,6900,6940,14051,6940
2012/06/25,6930,6940,6890,6930,5835,6930
2012/06/26,7030,7030,6960,6990,3304,6990
2012/06/27,6940,6940,6880,6910,9856,6910
2012/06/28,6880,6890,6840,6840,10305,6840
2012/06/29,6780,6840,6680,6840,8379,6840
2012/07/02,6980,6990,6920,6950,6258,6950
2012/07/03,6970,7080,6960,7080,6444,7080
2012/07/04,7190,7190,7140,7140,4201,7140
2012/07/05,7150,7190,7110,7120,2490,7120
2012/07/06,7040,7060,7000,7040,2985,7040
2012/07/09,6870,6930,6840,6910,4678,6910
2012/07/10,6960,6960,6910,6950,1766,6950
2012/07/11,6840,6850,6800,6820,4069,6820
2012/07/12,6890,6890,6820,6840,1274,6840
2012/07/13,6840,6890,6840,6860,1420,6860
2012/07/17,6860,6930,6850,6870,3602,6870
2012/07/18,6870,6870,6810,6820,2038,6820
2012/07/19,6810,6840,6800,6840,1085,6840
2012/07/20,6830,6860,6790,6800,2213,6800
2012/07/23,6790,6790,6720,6730,2644,6730
2012/07/24,6720,6760,6710,6760,3123,6760
2012/07/25,6700,6710,6650,6700,6359,6700
2012/07/26,6790,6800,6760,6800,1924,6800
2012/07/27,6840,6860,6810,6840,2095,6840
2012/07/30,6890,6890,6830,6870,3073,6870
2012/07/31,6950,7000,6940,6970,3339,6970
2012/08/01,6910,6930,6860,6900,2820,6900
2012/08/02,6830,6880,6710,6850,3249,6850
2012/08/03,6760,6760,6740,6750,1273,6750
2012/08/06,6890,6920,6890,6890,3472,6890
2012/08/07,6910,6920,6880,6890,911,6890
2012/08/08,6940,6990,6940,6960,3110,6960
2012/08/09,6950,7020,6950,7000,5563,7000
2012/08/10,6970,7000,6960,6960,755,6960
2012/08/13,6960,7000,6960,6970,1302,6970
2012/08/14,6920,6950,6910,6930,2162,6930
2012/08/15,6940,6980,6920,6940,2638,6940
2012/08/16,6950,7020,6950,7020,1814,7020
2012/08/17,7070,7100,7070,7090,3941,7090
2012/08/20,7070,7120,7070,7100,2270,7100
2012/08/21,7200,7240,7180,7230,5007,7230
2012/08/22,7330,7370,7330,7360,5398,7360
2012/08/23,7430,7570,7420,7570,11842,7570
2012/08/24,7590,7610,7500,7520,7828,7520
2012/08/27,7710,7800,7700,7770,12833,7770
2012/08/28,7690,7700,7590,7640,9203,7640
2012/08/29,7640,7670,7600,7630,9993,7630
2012/08/30,7640,7650,7600,7630,3277,7630
2012/08/31,7510,7560,7500,7540,5720,7540
2012/09/03,7780,7880,7780,7860,20216,7860
2012/09/04,7970,8000,7940,8000,10130,8000
2012/09/05,8000,8000,7960,7980,7614,7980
2012/09/06,7990,8100,7980,8100,10308,8100
2012/09/07,8090,8100,7940,8030,9518,8030
2012/09/10,8270,8390,8260,8370,14579,8370
2012/09/11,8270,8340,8250,8280,8837,8280
2012/09/12,8180,8300,8180,8290,7597,8290
2012/09/13,8200,8210,8150,8150,7946,8150
2012/09/14,8500,8560,8460,8550,24104,8550
2012/09/18,8530,8530,8410,8470,25290,8470
2012/09/19,8600,8700,8550,8700,22138,8700
2012/09/20,8600,8620,8460,8460,11220,8460
2012/09/21,8510,8620,8510,8570,9115,8570
2012/09/24,8470,8510,8340,8390,8735,8390
2012/09/25,8340,8410,8280,8290,11268,8290
2012/09/26,8300,8360,8220,8300,13356,8300
2012/09/27,8300,8370,8260,8370,8683,8370
2012/09/28,8500,8500,8440,8500,6803,8500
2012/10/01,8410,8430,8370,8390,1636,8390
2012/10/02,8520,8570,8510,8570,3704,8570
2012/10/03,8540,8570,8500,8570,2932,8570
2012/10/04,8590,8650,8560,8620,5976,8620
2012/10/05,8660,8690,8630,8650,3164,8650
2012/10/09,8420,8450,8400,8410,4653,8410
2012/10/10,8320,8350,8300,8310,9876,8310
2012/10/11,8310,8380,8310,8380,5945,8380
2012/10/12,8420,8450,8380,8380,3156,8380
2012/10/15,8200,8240,8160,8220,12802,8220
2012/10/16,8100,8150,8100,8150,4536,8150
2012/10/17,8230,8250,8190,8210,4222,8210
2012/10/18,8260,8320,8250,8290,8330,8290
2012/10/19,8230,8230,8180,8190,4793,8190
2012/10/22,7980,8110,7970,8110,6729,8110
2012/10/23,8160,8170,8110,8120,3045,8120
2012/10/24,8010,8050,8000,8040,3733,8040
2012/10/25,8010,8080,8010,8080,11277,8080
2012/10/26,8150,8150,8000,8010,5201,8010
2012/10/29,8040,8100,8040,8100,4649,8100
2012/10/30,8010,8040,7970,7970,9185,7970
2012/10/31,8010,8030,7990,8000,3719,8000
2012/11/01,8130,8190,8110,8190,10314,8190
2012/11/02,8190,8200,8080,8110,6230,8110
2012/11/05,7870,7900,7820,7850,16235,7850
2012/11/06,7880,7890,7850,7860,4320,7860
2012/11/07,8070,8160,8020,8120,19739,8120
2012/11/08,8030,8060,8000,8060,7904,8060
2012/11/09,8110,8150,8100,8140,6945,8140
2012/11/12,8180,8200,8160,8190,2799,8190
2012/11/13,8140,8140,8060,8090,5485,8090
2012/11/14,8130,8190,8130,8180,3076,8180
2012/11/15,8240,8320,8220,8280,12023,8280
2012/11/16,8330,8360,8300,8310,17364,8310
2012/11/19,8320,8370,8320,8360,6013,8360
2012/11/20,8470,8520,8470,8490,7180,8490
2012/11/21,8520,8570,8480,8480,6685,8480
2012/11/22,8680,8700,8650,8690,11419,8690
2012/11/26,8840,8860,8810,8840,16778,8840
2012/11/27,8840,8870,8820,8870,3725,8870
2012/11/28,8800,8820,8710,8720,11207,8720
2012/11/29,8690,8750,8680,8710,10196,8710
2012/11/30,8860,8900,8830,8900,14680,8900
2012/12/03,8730,8770,8720,8740,10861,8740
2012/12/04,8710,8710,8590,8620,5387,8620
2012/12/05,8620,8620,8480,8590,6735,8590
2012/12/06,8570,8570,8480,8480,3284,8480
2012/12/07,8560,8610,8560,8590,3645,8590
2012/12/10,8600,8640,8600,8610,1229,8610
2012/12/11,8630,8630,8550,8570,3177,8570
2012/12/12,8570,8600,8560,8580,7487,8580
2012/12/13,8740,8750,8630,8670,9742,8670
2012/12/14,8570,8650,8570,8630,9172,8630
2012/12/17,8590,8590,8500,8530,7692,8530
2012/12/18,8550,8610,8530,8590,3182,8590
2012/12/19,8420,8460,8390,8430,13636,8430
2012/12/20,8270,8290,8210,8230,8644,8230
2012/12/21,8000,8010,7840,7890,43265,7890
2012/12/25,7960,8020,7950,7970,7071,7970
2012/12/26,8030,8070,8000,8070,5471,8070
2012/12/27,8120,8130,8070,8100,6362,8100
2012/12/28,8190,8250,8190,8250,4781,8250
2013/01/04,8350,8350,8110,8220,13730,8220
2013/01/07,8350,8430,8330,8390,22367,8390
2013/01/08,8320,8340,8260,8280,4258,8280
2013/01/09,8300,8350,8290,8350,2610,8350
2013/01/10,8400,8410,8360,8380,2366,8380
2013/01/11,8630,8630,8570,8630,12913,8630
2013/01/15,8710,8720,8660,8680,7143,8680
2013/01/16,8750,8770,8670,8670,8739,8670
2013/01/17,8770,8770,8660,8730,3767,8730
2013/01/18,8880,8990,8880,8960,18893,8960
2013/01/21,8970,9050,8950,8950,8769,8950
2013/01/22,8970,9040,8940,8960,4625,8960
2013/01/23,8940,8980,8920,8920,5134,8920
2013/01/24,8950,8980,8900,8950,5487,8950
2013/01/25,8980,9000,8950,9000,9611,9000
2013/01/28,8950,8950,8900,8940,3445,8940
2013/01/29,8750,8860,8740,8840,7437,8840
2013/01/30,8940,8980,8920,8950,3796,8950
2013/01/31,9110,9160,9110,9160,7611,9160
2013/02/01,9090,9090,9030,9070,6628,9070
2013/02/04,9270,9280,9220,9260,16562,9260
2013/02/05,9180,9230,9160,9200,7431,9200
2013/02/06,9350,9360,9330,9340,7438,9340
2013/02/07,9340,9370,9330,9340,5257,9340
2013/02/08,9280,9280,9210,9210,4285,9210
2013/02/12,9170,9170,9100,9110,6751,9110
2013/02/13,9110,9150,9070,9090,4973,9090
2013/02/14,9010,9090,9000,9050,2461,9050
2013/02/15,8900,8910,8790,8840,9479,8840
2013/02/18,8770,8950,8770,8850,3681,8850
2013/02/19,8840,8880,8810,8830,2744,8830
2013/02/20,8700,8740,8650,8670,9652,8670
2013/02/21,8470,8480,8350,8400,22501,8400
2013/02/22,8380,8500,8380,8500,6407,8500
2013/02/25,8550,8560,8470,8540,4294,8540
2013/02/26,8520,8520,8380,8410,8803,8410
2013/02/27,8520,8530,8450,8460,9865,8460
2013/02/28,8470,8490,8430,8490,5386,8490
2013/03/01,8420,8420,8310,8360,9121,8360
2013/03/04,8430,8500,8430,8440,5099,8440
2013/03/05,8420,8480,8410,8460,3364,8460
2013/03/06,8470,8490,8460,8490,3395,8490
2013/03/07,8540,8610,8510,8520,6857,8520
2013/03/08,8630,8690,8630,8670,5633,8670
2013/03/11,8760,8810,8750,8800,9518,8800
2013/03/12,8810,8850,8810,8810,6207,8810
2013/03/13,8800,8840,8800,8800,3892,8800
2013/03/14,8800,8800,8620,8730,4156,8730
2013/03/15,8670,8780,8670,8780,3164,8780
2013/03/18,8630,8680,8520,8560,14054,8560
2013/03/19,8650,8730,8650,8690,3098,8690
2013/03/21,8710,8720,8670,8700,4291,8700
2013/03/22,8700,8710,8660,8670,4079,8670
2013/03/25,8570,8620,8550,8620,3704,8620
2013/03/26,8560,8560,8530,8540,2178,8540
2013/03/27,8600,8600,8540,8540,1977,8540
2013/03/28,8530,8540,8510,8510,1780,8510
2013/03/29,8510,8520,8420,8430,4627,8430
2013/04/01,8410,8420,8310,8330,4116,8330
2013/04/02,8250,8260,8190,8200,4435,8200
2013/04/03,8140,8140,7940,7970,17686,7970
2013/04/04,7930,8040,7820,8040,10308,8040
2013/04/05,8110,8240,8100,8150,10814,8150
2013/04/08,8500,8500,8420,8450,5607,8450
2013/04/09,8530,8550,8490,8550,5961,8550
2013/04/10,8660,8700,8660,8680,11546,8680
2013/04/11,8650,8650,8560,8640,4405,8640
2013/04/12,8630,8670,8610,8610,6065,8610
2013/04/15,8020,8080,7690,7770,46693,7770
2013/04/16,7490,7590,7270,7540,27434,7540
2013/04/17,7680,7680,7400,7500,12294,7500
2013/04/18,7540,7540,7360,7390,10371,7390
2013/04/19,7470,7480,7380,7410,10048,7410
2013/04/22,7490,7490,7420,7440,10314,7440
2013/04/23,7460,7460,7380,7410,11122,7410
2013/04/24,7410,7420,7350,7360,5426,7360
2013/04/25,7400,7440,7360,7390,11855,7390
2013/04/26,7630,7750,7600,7680,17972,7680
2013/04/30,7720,7720,7660,7690,8086,7690
2013/05/01,7700,7700,7660,7700,5658,7700
2013/05/02,7540,7540,7430,7490,14115,7490
2013/05/07,7650,7670,7520,7540,10906,7540
2013/05/08,7530,7570,7500,7550,3998,7550
2013/05/09,7550,7590,7520,7520,4451,7520
2013/05/10,7540,7640,7540,7600,8144,7600
2013/05/13,7700,7700,7610,7640,9998,7640
2013/05/14,7630,7660,7610,7630,4194,7630
2013/05/15,7630,7630,7520,7530,6253,7530
2013/05/16,7380,7430,7330,7390,10356,7390
2013/05/17,7390,7420,7350,7410,7663,7410
2013/05/20,7320,7320,7090,7160,26801,7160
2013/05/21,7370,7480,7340,7440,13155,7440
2013/05/22,7340,7400,7320,7380,1945,7380
2013/05/23,7370,7380,7270,7300,6450,7300
2013/05/24,7370,7380,7300,7330,5260,7330
2013/05/27,7280,7280,7230,7260,1642,7260
2013/05/28,7250,7320,7250,7300,6198,7300
2013/05/29,7300,7300,7260,7300,4047,7300
2013/05/30,7290,7290,7240,7250,3008,7250
2013/05/31,7350,7360,7320,7350,6503,7350
2013/06/03,7230,7230,7190,7190,7610,7190
2013/06/04,7200,7220,7180,7200,7480,7200
2013/06/05,7200,7220,7160,7180,2399,7180
2013/06/06,7150,7150,7090,7090,3995,7090
2013/06/07,7060,7060,6980,6990,6792,6990
2013/06/10,6860,6880,6850,6850,11232,6850
2013/06/11,6880,6920,6880,6880,2724,6880
2013/06/12,6800,6800,6680,6710,9273,6710
2013/06/13,6690,6690,6580,6620,8963,6620
2013/06/14,6680,6690,6590,6620,2791,6620
2013/06/17,6640,6740,6620,6740,4780,6740
2013/06/18,6700,6720,6650,6680,3468,6680
2013/06/19,6690,6690,6590,6590,6616,6590
2013/06/20,6570,6610,6550,6580,2552,6580
2013/06/21,6170,6330,6050,6250,19407,6250
2013/06/24,6350,6400,6320,6330,5898,6330
2013/06/25,6320,6320,6180,6250,4923,6250
2013/06/26,6260,6280,6060,6150,5517,6150
2013/06/27,6000,6160,6000,6160,5164,6160
2013/06/28,6090,6160,6000,6160,4005,6160
2013/07/01,6350,6370,6280,6330,6379,6330
2013/07/02,6380,6390,6350,6380,6445,6380
2013/07/03,6380,6380,6310,6370,3831,6370
2013/07/04,6360,6390,6320,6370,6762,6370
2013/07/05,6350,6350,6230,6260,5126,6260
2013/07/08,6210,6220,6160,6210,4058,6210
2013/07/09,6250,6340,6250,6340,4159,6340
2013/07/10,6350,6350,6200,6230,2962,6230
2013/07/11,6330,6380,6290,6380,6479,6380
2013/07/12,6400,6410,6310,6350,3869,6350
2013/07/16,6330,6370,6300,6320,6067,6320
2013/07/17,6360,6370,6300,6300,7287,6300
2013/07/18,6140,6210,6140,6150,14719,6150
2013/07/19,6210,6250,6200,6250,3772,6250
2013/07/22,6350,6370,6290,6370,7834,6370
2013/07/23,6470,6510,6440,6450,16110,6450
2013/07/24,6490,6500,6390,6480,13396,6480
2013/07/25,6480,6480,6360,6400,6821,6400
2013/07/26,6450,6450,6330,6370,4041,6370
2013/07/29,6300,6300,6160,6190,11059,6190
2013/07/30,6200,6240,6190,6210,3110,6210
2013/07/31,6230,6280,6200,6230,4054,6230
2013/08/01,6230,6250,6190,6190,5426,6190
2013/08/02,6230,6240,6160,6190,2638,6190
2013/08/05,6280,6300,6240,6280,2365,6280
2013/08/06,6240,6240,6130,6150,9688,6150
2013/08/07,6100,6100,6010,6010,23299,6010
2013/08/08,6020,6100,6020,6080,3466,6080
2013/08/09,6180,6210,6160,6190,8800,6190
2013/08/12,6320,6460,6290,6460,11954,6460
2013/08/13,6550,6550,6470,6510,8303,6510
2013/08/14,6590,6640,6570,6610,11991,6610
2013/08/15,6720,6840,6720,6790,8285,6790
2013/08/16,6980,7110,6980,7110,14951,7110
2013/08/19,7130,7280,7130,7250,21058,7250
2013/08/20,7170,7190,6860,6860,13057,6860
2013/08/21,7020,7080,6980,6980,10553,6980
2013/08/22,7000,7090,6910,7070,3010,7070
2013/08/23,7190,7200,7110,7120,8291,7120
2013/08/26,7390,7500,7390,7470,23851,7470
2013/08/27,7520,7520,7360,7470,7651,7470
2013/08/28,7500,7630,7450,7610,12173,7610
2013/08/29,7520,7540,7330,7390,7913,7390
2013/08/30,7290,7380,7290,7310,6373,7310
2013/09/02,7250,7490,7190,7480,6636,7480
2013/09/03,7520,7560,7490,7550,6279,7550
2013/09/04,7570,7640,7420,7490,8633,7490
2013/09/05,7370,7380,7200,7260,3555,7260
2013/09/06,7300,7310,7260,7290,4123,7290
2013/09/09,7490,7500,7390,7430,2700,7430
2013/09/10,7370,7420,7270,7300,2741,7300
2013/09/11,7220,7300,7200,7280,4306,7280
2013/09/12,7290,7300,7150,7190,3057,7190
2013/09/13,6900,6970,6830,6830,9004,6830
2013/09/17,6820,6860,6820,6830,6318,6830
2013/09/18,6800,6800,6670,6780,8101,6780
2013/09/19,7130,7180,7080,7170,11745,7170
2013/09/20,7190,7220,7160,7210,3653,7210
2013/09/24,6790,6860,6780,6840,9360,6840
2013/09/25,6800,6800,6740,6770,4644,6770
2013/09/26,6770,6800,6770,6790,2848,6790
2013/09/27,6800,6800,6740,6750,2278,6750
2013/09/30,6770,6770,6700,6740,3769,6740
2013/10/01,6750,6760,6720,6750,2170,6750
2013/10/02,6540,6550,6490,6520,15659,6520
2013/10/03,6640,6690,6600,6690,6204,6690
2013/10/04,6660,6670,6630,6640,2735,6640
2013/10/07,6700,6700,6630,6670,1323,6670
2013/10/08,6810,6850,6770,6810,8600,6810
2013/10/09,6830,6850,6810,6840,1714,6840
2013/10/10,6730,6750,6700,6750,4045,6750
2013/10/11,6740,6760,6700,6710,2825,6710
2013/10/15,6640,6640,6580,6590,7198,6590
2013/10/16,6600,6620,6590,6620,2085,6620
2013/10/17,6650,6700,6590,6620,4437,6620
2013/10/18,6740,6770,6710,6740,5074,6740
2013/10/21,6780,6830,6740,6820,2938,6820
2013/10/22,6850,6870,6820,6860,2581,6860
2013/10/23,7000,7030,6930,6980,7559,6980
2013/10/24,6900,6980,6900,6960,2364,6960
2013/10/25,7000,7000,6890,6890,2879,6890
2013/10/28,6960,6960,6890,6930,2460,6930
2013/10/29,6900,6940,6890,6920,869,6920
2013/10/30,6930,6970,6910,6960,1860,6960
2013/10/31,6980,6990,6930,6940,2854,6940
2013/11/01,6810,6830,6750,6780,4341,6780
2013/11/05,6740,6750,6710,6720,5510,6720
2013/11/06,6720,6750,6710,6750,891,6750
2013/11/07,6760,6800,6740,6760,963,6760
2013/11/08,6720,6730,6680,6720,1396,6720
2013/11/11,6670,6710,6640,6650,3596,6650
2013/11/12,6650,6670,6620,6640,2973,6640
2013/11/13,6510,6530,6490,6510,8936,6510
2013/11/14,6500,6560,6470,6550,5245,6550
2013/11/15,6550,6590,6540,6590,3346,6590
2013/11/18,6610,6610,6550,6570,4078,6570
2013/11/19,6460,6460,6390,6420,13661,6420
2013/11/20,6460,6480,6430,6480,1324,6480
2013/11/21,6390,6390,6300,6310,34245,6310
2013/11/22,6370,6400,6370,6380,6426,6380
2013/11/25,6390,6390,6320,6350,8680,6350
2013/11/26,6460,6490,6450,6450,6654,6450
2013/11/27,6340,6410,6340,6400,3430,6400
2013/11/28,6360,6370,6330,6370,2749,6370
2013/11/29,6400,6410,6380,6380,1234,6380
2013/12/02,6430,6430,6380,6410,10503,6410
2013/12/03,6270,6300,6220,6290,13643,6290
2013/12/04,6220,6220,6180,6200,13002,6200
2013/12/05,6300,6350,6300,6300,8176,6300
2013/12/06,6210,6260,6210,6260,4293,6260
2013/12/09,6330,6350,6310,6330,3757,6330
2013/12/10,6410,6430,6400,6420,16653,6420
2013/12/11,6540,6570,6520,6560,16014,6560
2013/12/12,6550,6560,6530,6540,3831,6540
2013/12/13,6370,6370,6300,6340,6109,6340
2013/12/16,6350,6370,6320,6340,2591,6340
2013/12/17,6440,6520,6430,6520,6117,6520
2013/12/18,6410,6460,6410,6430,1738,6430
2013/12/19,6430,6480,6350,6370,12484,6370
2013/12/20,6270,6330,6260,6270,22281,6270
2013/12/24,6340,6350,6300,6340,4230,6340
2013/12/25,6340,6360,6310,6320,3318,6320
2013/12/26,6360,6390,6350,6370,2166,6370
2013/12/27,6470,6520,6470,6490,8830,6490
2013/12/30,6630,6640,6520,6530,18196,6530
2014/01/06,6630,6630,6570,6580,6857,6580
2014/01/07,6590,6630,6580,6630,2875,6630
2014/01/08,6570,6570,6500,6500,7004,6500
2014/01/09,6430,6480,6420,6450,4254,6450
2014/01/10,6440,6520,6430,6520,3831,6520
2014/01/14,6570,6600,6560,6590,7487,6590
2014/01/15,6620,6620,6560,6580,2307,6580
2014/01/16,6600,6620,6590,6610,3904,6610
2014/01/17,6590,6600,6570,6600,3146,6600
2014/01/20,6630,6650,6610,6630,4797,6630
2014/01/21,6640,6650,6610,6620,1206,6620
2014/01/22,6520,6540,6510,6530,4323,6530
2014/01/23,6520,6520,6460,6490,4225,6490
2014/01/24,6530,6530,6490,6510,1501,6510
2014/01/27,6450,6450,6400,6420,11039,6420
2014/01/28,6350,6470,6340,6470,7185,6470
2014/01/29,6360,6380,6330,6380,3351,6380
2014/01/30,6370,6370,6290,6330,8248,6330
2014/01/31,6240,6240,6200,6220,14849,6220
2014/02/03,6190,6200,6160,6180,12623,6180
2014/02/04,6150,6220,6150,6200,8435,6200
2014/02/05,6210,6260,6200,6220,9469,6220
2014/02/06,6310,6400,6310,6350,7876,6350
2014/02/07,6380,6390,6330,6380,1407,6380
2014/02/10,6390,6450,6390,6440,4035,6440
2014/02/12,6470,6500,6460,6480,3354,6480
2014/02/13,6500,6520,6460,6500,5274,6500
2014/02/14,6540,6660,6540,6620,22379,6620
2014/02/17,6850,6940,6840,6910,19971,6910
2014/02/18,6910,6960,6870,6870,10162,6870
2014/02/19,6960,6990,6910,6910,17646,6910
2014/02/20,6880,6900,6810,6900,18541,6900
2014/02/21,6910,6940,6870,6940,10144,6940
2014/02/24,6950,7010,6900,6960,9009,6960
2014/02/25,7020,7040,6990,7010,6425,7010
2014/02/26,7000,7020,6970,7000,3871,7000
2014/02/27,6780,6820,6760,6790,6610,6790
2014/02/28,6770,6800,6730,6740,4408,6740
2014/03/03,6780,6850,6770,6830,3395,6830
2014/03/04,6870,6870,6800,6850,3099,6850
2014/03/05,6800,6800,6750,6780,4348,6780
2014/03/06,6760,6820,6760,6810,1962,6810
2014/03/07,6890,6940,6890,6920,5461,6920
2014/03/10,6750,6760,6670,6720,8004,6720
2014/03/11,6720,6770,6720,6770,1261,6770
2014/03/12,6730,6870,6730,6810,1745,6810
2014/03/13,6870,6900,6830,6880,4453,6880
2014/03/14,6790,6840,6720,6740,3231,6740
2014/03/17,6820,6830,6720,6770,10135,6770
2014/03/18,6730,6750,6680,6700,1601,6700
2014/03/19,6670,6670,6580,6610,4347,6610
2014/03/20,6600,6650,6600,6640,4205,6640
2014/03/24,6540,6540,6410,6490,5122,6490
2014/03/25,6360,6450,6350,6420,3171,6420
2014/03/26,6400,6450,6400,6420,3226,6420
2014/03/27,6370,6370,6290,6340,5260,6340
2014/03/28,6340,6370,6310,6360,2366,6360
2014/03/31,6450,6450,6400,6450,3598,6450
2014/04/01,6440,6440,6310,6420,1535,6420
2014/04/02,6370,6490,6370,6480,3271,6480
2014/04/03,6510,6550,6500,6540,4311,6540
2014/04/04,6450,6510,6450,6490,688,6490
2014/04/07,6460,6490,6440,6450,1640,6450
2014/04/08,6480,6480,6440,6450,343,6450
2014/04/09,6440,6460,6400,6460,1254,6460
2014/04/10,6410,6420,6380,6400,1748,6400
2014/04/11,6400,6410,6360,6410,722,6410
2014/04/14,6430,6430,6370,6400,3376,6400
2014/04/15,6370,6410,6370,6370,1043,6370
2014/04/16,6280,6300,6230,6270,10240,6270
2014/04/17,6330,6330,6250,6270,11389,6270
2014/04/18,6290,6340,6270,6290,4122,6290
2014/04/21,6300,6330,6230,6250,8702,6250
2014/04/22,6290,6290,6230,6250,2587,6250
2014/04/23,6250,6280,6250,6280,1105,6280
2014/04/24,6250,6280,6250,6260,2007,6260
2014/04/25,6270,6330,6270,6290,8652,6290
2014/04/28,6320,6320,6290,6310,1270,6310
2014/04/30,6270,6290,6240,6250,3525,6250
2014/05/01,6220,6220,6140,6160,15495,6160
2014/05/02,6140,6150,6130,6130,14758,6130
2014/05/07,6230,6270,6210,6260,13471,6260
2014/05/08,6210,6210,6160,6190,5018,6190
2014/05/09,6160,6160,6120,6140,12934,6140
2014/05/12,6140,6160,6120,6160,4600,6160
2014/05/13,6230,6270,6220,6220,5664,6220
2014/05/14,6260,6290,6240,6280,3220,6280
2014/05/15,6300,6320,6290,6310,2423,6310
2014/05/16,6230,6230,6200,6230,5604,6230
2014/05/19,6190,6210,6170,6210,7664,6210
2014/05/20,6190,6200,6180,6190,2047,6190
2014/05/21,6190,6220,6180,6220,1423,6220
2014/05/22,6230,6250,6190,6230,2892,6230
2014/05/23,6200,6250,6200,6240,1222,6240
2014/05/26,6250,6250,6230,6240,1800,6240
2014/05/27,6240,6250,6210,6220,1460,6220
2014/05/28,6130,6180,6120,6140,11487,6140
2014/05/29,6140,6140,6090,6130,8196,6130
2014/05/30,6110,6140,6080,6110,5748,6110
2014/06/02,6060,6060,6000,6010,28196,6010
2014/06/03,6050,6070,6040,6070,4199,6070
2014/06/04,6080,6090,6060,6090,2830,6090
2014/06/05,6060,6080,6060,6080,2577,6080
2014/06/06,6110,6140,6110,6140,4864,6140
2014/06/09,6150,6150,6100,6130,1330,6130
2014/06/10,6130,6130,6110,6130,1138,6130
2014/06/11,6150,6180,6150,6170,2522,6170
2014/06/12,6160,6180,6150,6170,1391,6170
2014/06/13,6230,6250,6220,6230,7428,6230
2014/06/16,6280,6300,6260,6260,13024,6260
2014/06/17,6240,6250,6200,6220,5878,6220
2014/06/18,6290,6310,6270,6270,11211,6270
2014/06/19,6330,6350,6310,6340,11475,6340
2014/06/20,6570,6600,6560,6590,20943,6590
2014/06/23,6580,6630,6580,6620,7893,6620
2014/06/24,6620,6630,6590,6610,10180,6610
2014/06/25,6630,6640,6570,6590,6193,6590
2014/06/26,6640,6660,6620,6630,4908,6630
2014/06/27,6640,6690,6600,6670,26758,6670
2014/06/30,6660,6680,6590,6680,15510,6680
2014/07/01,6670,6700,6640,6670,11220,6670
2014/07/02,6690,6690,6630,6630,4312,6630
2014/07/03,6680,6710,6680,6680,14663,6680
2014/07/04,6710,6720,6640,6720,6176,6720
2014/07/07,6700,6710,6560,6570,10708,6570
2014/07/08,6640,6670,6640,6650,6151,6650
2014/07/09,6620,6690,6590,6690,10886,6690
2014/07/10,6690,6710,6680,6710,5485,6710
2014/07/11,6760,6810,6760,6800,20073,6800
2014/07/14,6800,6800,6710,6720,5496,6720
2014/07/15,6650,6650,6610,6620,4598,6620
2014/07/16,6580,6610,6550,6600,4371,6600
2014/07/17,6600,6630,6590,6630,2512,6630
2014/07/18,6680,6700,6660,6670,5229,6670
2014/07/22,6660,6670,6620,6620,2617,6620
2014/07/23,6630,6670,6630,6640,2026,6640
2014/07/24,6650,6650,6600,6600,3403,6600
2014/07/25,6500,6570,6490,6510,5383,6510
2014/07/28,6560,6640,6560,6560,4031,6560
2014/07/29,6560,6590,6540,6580,1462,6580
2014/07/30,6550,6590,6550,6590,1304,6590
2014/07/31,6590,6630,6590,6630,2548,6630
2014/08/01,6580,6580,6550,6580,966,6580
2014/08/04,6570,6570,6520,6560,1483,6560
2014/08/05,6470,6510,6460,6500,5692,6500
2014/08/06,6380,6400,6350,6390,5829,6390
2014/08/07,6400,6440,6400,6430,2074,6430
2014/08/08,6420,6420,6330,6370,8248,6370
2014/08/11,6350,6370,6330,6350,1747,6350
2014/08/12,6400,6420,6380,6410,2241,6410
2014/08/13,6380,6420,6380,6420,959,6420
2014/08/14,6400,6400,6360,6400,2094,6400
2014/08/15,6400,6400,6370,6390,1065,6390
2014/08/18,6280,6290,6250,6280,8388,6280
2014/08/19,6300,6320,6280,6310,1758,6310
2014/08/20,6260,6290,6260,6280,1930,6280
2014/08/21,6270,6330,6270,6280,6108,6280
2014/08/22,6310,6330,6300,6330,1540,6330
2014/08/25,6330,6340,6310,6340,614,6340
2014/08/26,6300,6330,6290,6320,520,6320
2014/08/27,6340,6340,6320,6330,1288,6330
2014/08/28,6350,6360,6320,6340,2442,6340
2014/08/29,6350,6370,6340,6360,3660,6360
2014/09/01,6360,6360,6340,6360,1494,6360
2014/09/02,6360,6390,6350,6390,1595,6390
2014/09/03,6330,6340,6320,6320,4133,6320
2014/09/04,6320,6330,6300,6320,4389,6320
2014/09/05,6320,6320,6290,6310,911,6310
2014/09/08,6350,6350,6310,6350,1267,6350
2014/09/09,6340,6340,6310,6330,2921,6330
2014/09/10,6330,6340,6310,6330,1622,6330
2014/09/11,6320,6350,6320,6340,2491,6340
2014/09/12,6280,6290,6230,6260,26078,6260
2014/09/16,6250,6300,6250,6300,3360,6300
2014/09/17,6300,6300,6280,6300,1462,6300
2014/09/18,6300,6310,6280,6310,655,6310
2014/09/19,6310,6340,6290,6330,3259,6330
2014/09/22,6170,6170,5950,6030,69899,6030
2014/09/24,6100,6100,6060,6090,14245,6090
2014/09/25,6100,6100,6000,6000,23569,6000
2014/09/26,5990,6050,5980,6050,11054,6050
2014/09/29,6060,6070,6010,6030,5534,6030
2014/09/30,6030,6030,6010,6030,3210,6030
2014/10/01,5940,5950,5870,5940,30494,5940
2014/10/02,5940,5960,5930,5940,4462,5940
2014/10/03,5900,5920,5870,5890,11085,5890
2014/10/06,5900,5900,5820,5850,15349,5850
2014/10/07,5940,5970,5910,5970,6506,5970
2014/10/08,5880,5950,5870,5920,4288,5920
2014/10/09,5940,5950,5920,5940,3412,5940
2014/10/10,5930,5940,5890,5900,2850,5900
2014/10/14,5900,5930,5890,5900,3431,5900
2014/10/15,5900,5900,5850,5880,2480,5880
2014/10/16,5860,5870,5830,5860,6853,5860
2014/10/17,5830,5850,5820,5840,3709,5840
2014/10/20,5820,5850,5810,5830,15372,5830
2014/10/21,5820,5850,5820,5840,1633,5840
2014/10/22,5870,5880,5860,5860,2290,5860
2014/10/23,5840,5840,5780,5840,6764,5840
2014/10/24,5840,5870,5840,5860,1328,5860
2014/10/27,5840,5850,5820,5840,2923,5840
2014/10/28,5860,5880,5820,5850,3105,5850
2014/10/29,5850,5900,5850,5880,5442,5880
2014/10/30,5890,5900,5840,5870,2707,5870
2014/10/31,5770,5790,5700,5740,27598,5740
2014/11/04,5770,5790,5750,5770,5840,5770
2014/11/05,5790,5820,5750,5800,6564,5800
2014/11/06,5700,5780,5700,5750,8682,5750
2014/11/07,5780,5790,5650,5660,15392,5660
2014/11/10,5750,5810,5750,5760,8737,5760
2014/11/11,5780,5780,5710,5740,3274,5740
2014/11/12,5740,5770,5740,5750,4056,5750
2014/11/13,5790,5800,5730,5770,9646,5770
2014/11/14,5770,5780,5740,5750,6226,5750
2014/11/17,5900,6040,5900,5960,21002,5960
2014/11/18,5970,5970,5900,5930,6313,5930
2014/11/19,5970,5980,5930,5940,5759,5940
2014/11/20,5990,5990,5950,5980,6675,5980
2014/11/21,6010,6020,6000,6020,6784,6020
2014/11/25,6100,6140,6100,6110,13231,6110
2014/11/26,6150,6150,6130,6140,6568,6140
2014/11/27,6120,6120,5980,6040,8486,6040
2014/11/28,5980,6010,5970,5990,6855,5990
2014/12/01,5690,5810,5550,5790,30983,5790
2014/12/02,6050,6100,6000,6100,23029,6100
2014/12/03,6130,6170,6080,6100,18009,6100
2014/12/04,6150,6190,6140,6170,12122,6170
2014/12/05,6200,6210,6160,6160,9334,6160
2014/12/08,6150,6200,6150,6190,5604,6190
2014/12/09,6150,6190,6130,6150,13975,6150
2014/12/10,6290,6380,6280,6340,30608,6340
2014/12/11,6270,6320,6270,6300,13057,6300
2014/12/12,6370,6370,6310,6350,3170,6350
2014/12/15,6300,6300,6210,6230,5451,6230
2014/12/16,6080,6080,5900,6000,21006,6000
2014/12/17,5800,5940,5790,5940,17379,5940
2014/12/18,5970,5970,5860,5940,6861,5940
2014/12/19,5930,5970,5880,5960,4013,5960
2014/12/22,6000,6030,5950,6000,6599,6000
2014/12/24,6000,6000,5920,5960,6338,5960
2014/12/25,5920,5970,5890,5970,7536,5970
2014/12/26,5980,6040,5950,6040,6941,6040
2014/12/29,6060,6120,6040,6110,5092,6110
2014/12/30,6020,6040,5950,5980,9238,5980
2015/01/05,5980,6050,5950,6050,4216,6050
2015/01/06,6060,6090,6030,6040,1944,6040
2015/01/07,6010,6150,6010,6080,10958,6080
2015/01/08,6160,6180,6100,6140,4871,6140
2015/01/09,6100,6130,6060,6110,5648,6110
2015/01/13,6110,6210,6100,6210,10713,6210
2015/01/14,6220,6270,6120,6120,9452,6120
2015/01/15,6190,6190,6140,6180,5263,6180
2015/01/16,6160,6200,6150,6180,4103,6180
2015/01/19,6460,6520,6410,6480,30070,6480
2015/01/20,6470,6530,6410,6480,15008,6480
2015/01/21,6590,6680,6560,6650,24938,6650
2015/01/22,6620,6660,6540,6660,13713,6660
2015/01/23,6700,6780,6690,6720,23694,6720
2015/01/26,6680,6750,6680,6700,4955,6700
2015/01/27,6640,6650,6540,6590,6178,6590
2015/01/28,6590,6650,6590,6620,8236,6620
2015/01/29,6550,6630,6500,6510,9529,6510
2015/01/30,6300,6300,6230,6240,19369,6240
2015/02/02,6320,6340,6300,6330,2231,6330
2015/02/03,6340,6350,6300,6330,3477,6330
2015/02/04,6340,6390,6330,6370,3292,6370
2015/02/05,6370,6410,6350,6350,2366,6350
2015/02/06,6320,6370,6310,6350,1468,6350
2015/02/09,6270,6270,6210,6230,4297,6230
2015/02/10,6290,6320,6270,6310,1735,6310
2015/02/12,6310,6330,6270,6270,3063,6270
2015/02/13,6280,6300,6270,6280,2513,6280
2015/02/16,6370,6500,6370,6400,5138,6400
2015/02/17,6410,6420,6360,6390,2552,6390
2015/02/18,6180,6190,6140,6180,29803,6180
2015/02/19,6170,6190,6150,6180,8912,6180
2015/02/20,6140,6150,6120,6140,4856,6140
2015/02/23,6120,6120,6050,6090,7768,6090
2015/02/24,6070,6110,6070,6090,1733,6090
2015/02/25,6110,6180,6100,6120,9049,6120
2015/02/26,6150,6170,6130,6160,2428,6160
2015/02/27,6160,6190,6160,6190,2387,6190
2015/03/02,6190,6280,6190,6280,4511,6280
2015/03/03,6200,6230,6050,6150,13084,6150
2015/03/04,6120,6130,6080,6120,3750,6120
2015/03/05,6080,6110,6060,6110,5273,6110
2015/03/06,6110,6120,6090,6090,2236,6090
2015/03/09,6020,6030,5950,6010,19690,6010
2015/03/10,5980,6010,5970,6010,7179,6010
2015/03/11,5970,5980,5950,5970,5275,5970
2015/03/12,5940,5940,5900,5920,14812,5920
2015/03/13,5920,5990,5920,5980,5977,5980
2015/03/16,5980,5990,5930,5980,6160,5980
2015/03/17,5980,5980,5900,5920,6424,5920
2015/03/18,5880,5940,5880,5930,3882,5930
2015/03/19,6000,6030,5980,5990,5288,5990
2015/03/20,6070,6100,5990,6070,7072,6070
2015/03/23,6260,6280,6220,6230,16009,6230
2015/03/24,6310,6320,6240,6250,12594,6250
2015/03/25,6270,6330,6270,6270,5605,6270
2015/03/26,6280,6300,6270,6290,3780,6290
2015/03/27,6320,6320,6300,6300,3533,6300
2015/03/30,6250,6280,6220,6240,5572,6240
2015/03/31,6220,6240,6150,6160,6142,6160
2015/04/01,6150,6350,6150,6250,4499,6250
2015/04/02,6320,6320,6280,6320,4314,6320
2015/04/03,6220,6320,6220,6270,2688,6270
2015/04/06,6320,6330,6320,6330,3263,6330
2015/04/07,6320,6330,6270,6300,2904,6300
2015/04/08,6280,6300,6270,6270,3775,6270
2015/04/09,6180,6230,6110,6120,8437,6120
2015/04/10,6140,6140,6100,6130,3605,6130
2015/04/13,6160,6270,6150,6180,3123,6180
2015/04/14,6120,6140,6070,6070,5480,6070
2015/04/15,6060,6080,6050,6080,5173,6080
2015/04/16,6080,6150,6080,6130,3863,6130
2015/04/17,6100,6100,6060,6080,3686,6080
2015/04/20,6080,6100,6060,6060,5308,6060
2015/04/21,6040,6040,5960,6010,14982,6010
2015/04/22,6040,6040,6020,6030,3287,6030
2015/04/23,5990,6000,5970,6000,12002,6000
2015/04/24,6010,6010,5970,6000,8961,6000
2015/04/27,5970,5970,5910,5940,17728,5940
2015/04/28,6150,6150,6080,6120,15306,6120
2015/04/30,6150,6200,6130,6140,8551,6140
2015/05/01,6060,6080,6040,6080,4542,6080
2015/05/07,6120,6160,6110,6130,6467,6130
2015/05/08,6120,6150,6080,6120,2718,6120
2015/05/11,6140,6160,6140,6150,1787,6150
2015/05/12,6120,6130,6090,6110,2844,6110
2015/05/13,6150,6180,6150,6170,6375,6170
2015/05/14,6290,6370,6290,6340,25378,6340
2015/05/15,6450,6480,6360,6430,24922,6430
2015/05/18,6480,6580,6480,6570,16410,6570
2015/05/19,6570,6590,6490,6500,20913,6500
2015/05/20,6400,6420,6380,6400,4859,6400
2015/05/21,6420,6450,6410,6450,3289,6450
2015/05/22,6410,6440,6410,6430,1907,6430
2015/05/25,6420,6450,6420,6430,1863,6430
2015/05/26,6440,6460,6440,6450,1647,6450
2015/05/27,6430,6430,6390,6420,3871,6420
2015/05/28,6400,6460,6390,6420,4337,6420
2015/05/29,6420,6440,6410,6410,10256,6410
2015/06/01,6420,6450,6420,6420,567,6420
2015/06/02,6450,6490,6450,6480,4174,6480
2015/06/03,6450,6580,6450,6520,14845,6520
2015/06/04,6420,6440,6400,6420,3768,6420
2015/06/05,6320,6320,6290,6290,4363,6290
2015/06/08,6300,6320,6300,6310,2894,6310
2015/06/09,6240,6290,6230,6260,5854,6260
2015/06/10,6240,6260,6170,6190,11656,6190
2015/06/11,6190,6200,6180,6200,3396,6200
2015/06/12,6230,6230,6170,6190,3686,6190
2015/06/15,6190,6190,6150,6150,5909,6150
2015/06/16,6190,6210,6180,6200,4618,6200
2015/06/17,6230,6230,6180,6180,2791,6180
2015/06/18,6210,6220,6190,6220,1546,6220
2015/06/19,6220,6220,6200,6220,3638,6220
2015/06/22,6220,6220,6180,6200,4467,6200
2015/06/23,6230,6250,6210,6210,3938,6210
2015/06/24,6170,6170,6130,6170,8477,6170
2015/06/25,6180,6180,6150,6170,4903,6170
2015/06/26,6150,6150,6100,6110,15037,6110
2015/06/29,6130,6130,6080,6100,5096,6100
2015/06/30,6080,6080,6000,6020,23267,6020
2015/07/01,6050,6070,6030,6050,8243,6050
