2011/01/04,1054,1055,1048,1050,7960,1050
2011/01/05,1051,1051,1046,1046,3970,1046
2011/01/06,1070,1071,1060,1066,9550,1066
2011/01/07,1068,1073,1067,1073,2660,1073
2011/01/11,1094,1094,1063,1075,16780,1075
2011/01/12,1085,1085,1069,1071,11500,1071
2011/01/13,1077,1077,1073,1075,4140,1075
2011/01/14,1079,1079,1072,1072,3210,1072
2011/01/17,1076,1076,1070,1076,11030,1076
2011/01/18,1080,1080,1077,1079,6120,1079
2011/01/19,1085,1085,1075,1077,5460,1077
2011/01/20,1071,1073,1066,1068,5050,1068
2011/01/21,1071,1075,1066,1073,4200,1073
2011/01/24,1074,1078,1070,1074,7890,1074
2011/01/25,1085,1085,1076,1076,3210,1076
2011/01/26,1083,1083,1074,1074,2860,1074
2011/01/27,1080,1080,1078,1078,2080,1078
2011/01/28,1084,1084,1079,1081,3360,1081
2011/01/31,1075,1075,1062,1068,8130,1068
2011/02/01,1072,1072,1070,1072,4180,1072
2011/02/02,1076,1077,1072,1072,1480,1072
2011/02/03,1073,1075,1071,1074,4030,1074
2011/02/04,1079,1079,1074,1078,1180,1078
2011/02/07,1087,1089,1087,1089,5010,1089
2011/02/08,1097,1099,1094,1097,3170,1097
2011/02/09,1099,1105,1099,1105,4030,1105
2011/02/10,1104,1108,1101,1106,1670,1106
2011/02/14,1127,1129,1123,1123,9130,1123
2011/02/15,1124,1125,1121,1125,2750,1125
2011/02/16,1127,1136,1127,1136,6920,1136
2011/02/17,1142,1142,1133,1133,9340,1133
2011/02/18,1135,1135,1133,1133,5930,1133
2011/02/21,1135,1135,1129,1133,9620,1133
2011/02/22,1128,1128,1118,1121,9670,1121
2011/02/23,1114,1117,1106,1111,8310,1111
2011/02/24,1101,1103,1092,1092,8710,1092
2011/02/25,1081,1091,1081,1091,4540,1091
2011/02/28,1096,1098,1091,1098,6610,1098
2011/03/01,1109,1113,1107,1113,4680,1113
2011/03/02,1111,1111,1088,1090,21330,1090
2011/03/03,1096,1102,1093,1102,7190,1102
2011/03/04,1117,1123,1117,1122,3960,1122
2011/03/07,1115,1115,1104,1106,7420,1106
2011/03/08,1103,1105,1103,1103,2490,1103
2011/03/09,1110,1118,1110,1118,4170,1118
2011/03/10,1113,1114,1107,1108,4160,1108
2011/03/11,1099,1100,1096,1098,7330,1098
2011/03/14,1082,1093,1082,1088,7980,1088
2011/03/15,1112,1150,1048,1061,22880,1061
2011/03/16,1051,1071,1051,1062,7100,1062
2011/03/17,1047,1047,1018,1033,14760,1033
2011/03/18,1044,1075,1044,1075,5470,1075
2011/03/22,1105,1105,1076,1079,21750,1079
2011/03/23,1081,1082,1072,1073,5190,1073
2011/03/24,1078,1078,1073,1073,4370,1073
2011/03/25,1075,1083,1075,1083,9150,1083
2011/03/28,1096,1099,1089,1097,7050,1097
2011/03/29,1099,1099,1095,1098,1690,1098
2011/03/30,1110,1118,1105,1118,2360,1118
2011/03/31,1130,1130,1120,1122,3180,1122
2011/04/01,1135,1168,1128,1133,5570,1133
2011/04/04,1157,1195,1143,1165,8860,1165
2011/04/05,1176,1176,1150,1154,11830,1154
2011/04/06,1163,1169,1158,1166,14160,1166
2011/04/07,1175,1176,1167,1169,9800,1169
2011/04/08,1171,1171,1164,1168,14480,1168
2011/04/11,1171,1171,1162,1168,15660,1168
2011/04/12,1165,1165,1136,1143,19950,1143
2011/04/13,1130,1146,1130,1146,2820,1146
2011/04/14,1142,1142,1133,1139,5900,1139
2011/04/15,1130,1134,1125,1128,19780,1128
2011/04/18,1130,1132,1127,1127,2870,1127
2011/04/19,1112,1112,1102,1104,9720,1104
2011/04/20,1108,1118,1108,1118,2350,1118
2011/04/21,1126,1131,1124,1129,2400,1129
2011/04/22,1130,1132,1125,1132,2400,1132
2011/04/25,1140,1142,1136,1141,4060,1141
2011/04/26,1135,1135,1124,1129,5200,1129
2011/04/27,1134,1136,1133,1134,1820,1134
2011/04/28,1144,1149,1141,1146,6590,1146
2011/05/02,1149,1153,1146,1153,10850,1153
2011/05/06,1109,1119,1091,1091,32080,1091
2011/05/09,1109,1111,1096,1096,12470,1096
2011/05/10,1101,1102,1089,1090,9980,1090
2011/05/11,1099,1110,1099,1106,2810,1106
2011/05/12,1105,1105,1094,1094,3670,1094
2011/05/13,1099,1104,1094,1099,3770,1099
2011/05/16,1100,1100,1086,1086,12020,1086
2011/05/17,1084,1089,1083,1089,1910,1089
2011/05/18,1090,1097,1088,1091,2880,1091
2011/05/19,1102,1106,1099,1104,2930,1104
2011/05/20,1103,1109,1100,1109,2380,1109
2011/05/23,1100,1100,1093,1095,4390,1095
2011/05/24,1090,1090,1086,1086,6760,1086
2011/05/25,1087,1088,1075,1077,13850,1077
2011/05/26,1096,1096,1087,1089,6650,1089
2011/05/27,1090,1090,1081,1081,5410,1081
2011/05/30,1088,1088,1083,1085,3040,1085
2011/05/31,1090,1096,1084,1096,1160,1096
2011/06/01,1111,1111,1103,1108,4550,1108
2011/06/02,1088,1091,1078,1079,11260,1079
2011/06/03,1079,1079,1072,1073,19780,1073
2011/06/06,1075,1075,1060,1064,12550,1064
2011/06/07,1064,1064,1057,1060,8220,1060
2011/06/08,1060,1062,1054,1056,7230,1056
2011/06/09,1050,1050,1038,1038,13790,1038
2011/06/10,1053,1053,1037,1037,10180,1037
2011/06/13,1033,1034,1029,1030,12160,1030
2011/06/14,1033,1040,1028,1039,4790,1039
2011/06/15,1044,1049,1041,1044,7620,1044
2011/06/16,1035,1038,1027,1027,11080,1027
2011/06/17,1032,1034,1027,1028,5270,1028
2011/06/20,1027,1027,1016,1018,13030,1018
2011/06/21,1026,1029,1024,1028,4720,1028
2011/06/22,1041,1042,1039,1040,6570,1040
2011/06/23,1034,1037,1033,1034,2650,1034
2011/06/24,1031,1038,1031,1037,5670,1037
2011/06/27,1028,1028,1020,1022,7890,1022
2011/06/28,1037,1038,1034,1035,3100,1035
2011/06/29,1046,1050,1043,1050,6390,1050
2011/06/30,1054,1055,1052,1055,4040,1055
2011/07/01,1075,1075,1063,1068,8470,1068
2011/07/04,1087,1087,1080,1081,7300,1081
2011/07/05,1081,1083,1080,1083,5330,1083
2011/07/06,1086,1090,1085,1090,6700,1090
2011/07/07,1090,1092,1087,1092,3470,1092
2011/07/08,1099,1101,1099,1101,4370,1101
2011/07/11,1086,1086,1077,1078,8150,1078
2011/07/12,1058,1065,1048,1050,13040,1050
2011/07/13,1045,1047,1043,1046,23280,1046
2011/07/14,1045,1045,1030,1037,20390,1037
2011/07/15,1035,1039,1033,1039,7140,1039
2011/07/19,1035,1035,1026,1026,11320,1026
2011/07/20,1047,1047,1038,1041,5090,1041
2011/07/21,1044,1044,1032,1032,5750,1032
2011/07/22,1044,1045,1039,1045,11260,1045
2011/07/25,1041,1041,1033,1036,11950,1036
2011/07/26,1038,1039,1031,1039,6050,1039
2011/07/27,1034,1034,1028,1028,9670,1028
2011/07/28,1018,1019,1010,1013,23220,1013
2011/07/29,1013,1013,997,999,27090,999
2011/08/01,1013,1038,1013,1038,10710,1038
2011/08/02,1023,1029,1021,1021,3970,1021
2011/08/03,1020,1020,1007,1009,12740,1009
2011/08/04,1010,1030,1010,1023,13460,1023
2011/08/05,1000,1015,997,1008,23130,1008
2011/08/08,990,990,943,943,39410,943
2011/08/09,920,920,851,871,61100,871
2011/08/10,931,932,901,910,17650,910
2011/08/11,878,885,875,880,20010,880
2011/08/12,904,904,884,884,10360,884
2011/08/15,914,916,908,911,6640,911
2011/08/16,919,922,914,916,13340,916
2011/08/17,908,914,903,906,11040,906
2011/08/18,904,905,896,900,10270,900
2011/08/19,880,880,860,863,50810,863
2011/08/22,858,863,854,856,23870,856
2011/08/23,861,868,860,868,3010,868
2011/08/24,882,883,871,874,19540,874
2011/08/25,880,889,880,886,7170,886
2011/08/26,883,886,880,881,3270,881
2011/08/29,884,892,882,891,2730,891
2011/08/30,903,909,902,904,11900,904
2011/08/31,908,908,901,903,7450,903
2011/09/01,910,917,909,911,5490,911
2011/09/02,906,906,901,902,5310,902
2011/09/05,892,893,877,879,29780,879
2011/09/06,869,869,860,860,21320,860
2011/09/07,870,873,870,872,12180,872
2011/09/08,892,893,884,887,10500,887
2011/09/09,889,891,887,889,3800,889
2011/09/12,872,875,862,863,15000,863
2011/09/13,864,868,864,867,5560,867
2011/09/14,862,869,858,859,6720,859
2011/09/15,872,872,864,869,7220,869
2011/09/16,880,885,877,885,5520,885
2011/09/20,870,873,866,869,7170,869
2011/09/21,870,874,867,874,3110,874
2011/09/22,860,869,848,852,56760,852
2011/09/26,842,842,828,831,16440,831
2011/09/27,840,847,840,846,10230,846
2011/09/28,849,849,844,846,3890,846
2011/09/29,835,845,831,845,8410,845
2011/09/30,841,845,841,843,3520,843
2011/10/03,832,832,826,826,12610,826
2011/10/04,815,817,803,805,18840,805
2011/10/05,815,820,807,811,8400,811
2011/10/06,823,825,822,825,3090,825
2011/10/07,847,847,840,842,10730,842
2011/10/11,863,865,853,854,16380,854
2011/10/12,856,862,856,862,12450,862
2011/10/13,874,882,872,882,10530,882
2011/10/14,877,881,875,881,4130,881
2011/10/17,898,902,893,902,8280,902
2011/10/18,875,883,872,880,10600,880
2011/10/19,895,896,891,892,3920,892
2011/10/20,888,890,885,887,2970,887
2011/10/21,890,890,884,889,2130,889
2011/10/24,898,902,894,902,3120,902
2011/10/25,902,906,898,903,2460,903
2011/10/26,893,901,888,901,6290,901
2011/10/27,908,913,905,913,4340,913
2011/10/28,943,943,930,932,11190,932
2011/10/31,932,957,930,956,23090,956
2011/11/01,929,936,922,927,9050,927
2011/11/02,909,911,900,911,4810,911
2011/11/04,930,941,930,936,9800,936
2011/11/07,943,943,936,938,5580,938
2011/11/08,936,938,930,934,2230,934
2011/11/09,932,940,931,933,2690,933
2011/11/10,908,922,900,919,7100,919
2011/11/11,922,922,911,917,5060,917
2011/11/14,926,937,926,933,3690,933
2011/11/15,925,927,913,925,2450,925
2011/11/16,925,925,910,913,5040,913
2011/11/17,909,911,901,910,6570,910
2011/11/18,900,905,895,901,5720,901
2011/11/21,894,894,889,893,4530,893
2011/11/22,882,888,882,883,5800,883
2011/11/24,871,871,855,855,16250,855
2011/11/25,853,858,850,855,6150,855
2011/11/28,860,875,860,875,6370,875
2011/11/29,890,895,886,892,10050,892
2011/11/30,892,892,887,887,2270,887
2011/12/01,924,924,917,921,9630,921
2011/12/02,926,928,921,928,1770,928
2011/12/05,936,936,931,933,7570,933
2011/12/06,922,922,903,911,39820,911
2011/12/07,911,918,911,918,1690,918
2011/12/08,918,918,912,917,3440,917
2011/12/09,904,904,890,893,26640,893
2011/12/12,906,910,902,910,4460,910
2011/12/13,895,896,888,891,8090,891
2011/12/14,882,884,881,882,5140,882
2011/12/15,871,871,861,866,19050,866
2011/12/16,874,881,870,875,7520,875
2011/12/19,870,870,862,865,4460,865
2011/12/20,869,870,863,867,3280,867
2011/12/21,888,889,882,886,4380,886
2011/12/22,892,892,887,887,6290,887
2011/12/26,902,907,900,903,13060,903
2011/12/27,899,903,898,903,1710,903
2011/12/28,904,904,899,904,3760,904
2011/12/29,890,894,888,893,4280,893
2011/12/30,898,900,894,895,2840,895
2012/01/04,907,909,903,905,8130,905
2012/01/05,906,906,903,905,5930,905
2012/01/06,905,906,901,901,2030,901
2012/01/10,903,904,900,902,8040,902
2012/01/11,903,905,902,905,3430,905
2012/01/12,905,905,903,904,2710,904
2012/01/13,909,910,908,909,7910,909
2012/01/16,910,910,902,904,6470,904
2012/01/17,905,912,905,912,4630,912
2012/01/18,909,913,903,913,1600,913
2012/01/19,919,925,917,919,3590,919
2012/01/20,934,934,921,932,5430,932
2012/01/23,932,932,929,932,3460,932
2012/01/24,936,936,930,932,2860,932
2012/01/25,941,949,941,949,18040,949
2012/01/26,950,950,948,948,6350,948
2012/01/27,951,951,940,943,5330,943
2012/01/30,941,941,933,935,4170,935
2012/01/31,930,932,927,930,3280,930
2012/02/01,930,931,927,929,5200,929
2012/02/02,940,942,937,942,3830,942
2012/02/03,940,940,937,940,2320,940
2012/02/06,951,954,951,953,12060,953
2012/02/07,953,956,952,956,4710,956
2012/02/08,960,966,958,966,12320,966
2012/02/09,966,968,964,967,5970,967
2012/02/10,975,975,971,974,2540,974
2012/02/13,973,976,970,976,9800,976
2012/02/14,972,977,972,977,4280,977
2012/02/15,981,988,981,988,8090,988
2012/02/16,979,979,972,974,11850,974
2012/02/17,990,993,990,992,7330,992
2012/02/20,1011,1014,1009,1012,11750,1012
2012/02/21,1013,1020,1009,1020,2660,1020
2012/02/22,1022,1022,1010,1020,16830,1020
2012/02/23,1016,1016,1010,1013,7740,1013
2012/02/24,1014,1018,1014,1018,5800,1018
2012/02/27,1035,1035,1026,1031,9370,1031
2012/02/28,1028,1028,1021,1026,9500,1026
2012/02/29,1028,1032,1020,1030,14790,1030
2012/03/01,1032,1033,1028,1030,8520,1030
2012/03/02,1035,1041,1034,1036,8260,1036
2012/03/05,1039,1039,1030,1034,7090,1034
2012/03/06,1030,1031,1025,1031,8680,1031
2012/03/07,1000,1003,994,1000,17030,1000
2012/03/08,1008,1017,1008,1017,7030,1017
2012/03/09,1029,1039,1029,1031,10570,1031
2012/03/12,1044,1044,1036,1039,22280,1039
2012/03/13,1040,1044,1039,1043,3140,1043
2012/03/14,1060,1065,1060,1065,13240,1065
2012/03/15,1069,1076,1068,1076,8790,1076
2012/03/16,1078,1078,1071,1075,11470,1075
2012/03/19,1076,1081,1075,1081,13850,1081
2012/03/21,1078,1082,1078,1080,10330,1080
2012/03/22,1078,1078,1073,1077,7460,1077
2012/03/23,1065,1065,1057,1061,5400,1061
2012/03/26,1063,1064,1057,1061,8200,1061
2012/03/27,1077,1081,1073,1077,7020,1077
2012/03/28,1077,1077,1075,1076,3490,1076
2012/03/29,1070,1071,1065,1068,6260,1068
2012/03/30,1063,1063,1053,1057,9480,1057
2012/04/02,1066,1070,1065,1070,6440,1070
2012/04/03,1067,1070,1065,1070,5140,1070
2012/04/04,1067,1067,1060,1065,5430,1065
2012/04/05,1054,1054,1047,1051,11970,1051
2012/04/06,1047,1049,1044,1046,5470,1046
2012/04/09,1029,1029,1010,1022,21280,1022
2012/04/10,1023,1028,1020,1025,5580,1025
2012/04/11,1000,1006,999,1004,11220,1004
2012/04/12,1012,1015,1007,1015,2700,1015
2012/04/13,1020,1032,1020,1028,4730,1028
2012/04/16,1016,1017,1004,1006,7090,1006
2012/04/17,1006,1009,1002,1005,2050,1005
2012/04/18,1024,1035,1022,1035,4730,1035
2012/04/19,1028,1029,1028,1029,2550,1029
2012/04/20,1030,1030,1026,1028,1240,1028
2012/04/23,1028,1029,1021,1026,5850,1026
2012/04/24,1013,1014,1008,1011,8390,1011
2012/04/25,1026,1027,1022,1024,4150,1024
2012/04/26,1030,1032,1027,1032,1340,1032
2012/04/27,1028,1033,1025,1026,3500,1026
2012/05/01,1022,1023,1014,1021,13030,1021
2012/05/02,1027,1033,1026,1033,6280,1033
2012/05/07,994,994,987,988,18740,988
2012/05/08,1003,1003,995,999,5350,999
2012/05/09,990,994,987,990,7050,990
2012/05/10,984,991,981,990,4240,990
2012/05/11,985,989,984,986,5450,986
2012/05/14,985,986,983,986,8930,986
2012/05/15,979,979,967,976,30510,976
2012/05/16,970,973,960,963,33580,963
2012/05/17,956,963,956,962,3350,962
2012/05/18,932,938,921,925,50970,925
2012/05/21,923,929,922,929,10290,929
2012/05/22,946,946,939,945,3840,945
2012/05/23,952,952,941,944,7260,944
2012/05/24,937,944,937,944,3000,944
2012/05/25,944,948,944,947,2000,947
2012/05/28,950,951,947,951,2840,951
2012/05/29,949,953,947,953,2620,953
2012/05/30,954,957,948,950,6810,950
2012/05/31,935,935,915,928,12190,928
2012/06/01,922,922,915,919,5690,919
2012/06/04,897,897,890,895,36180,895
2012/06/05,900,906,898,906,14750,906
2012/06/06,905,907,900,905,29810,905
2012/06/07,925,933,923,933,14430,933
2012/06/08,934,934,920,928,6290,928
2012/06/11,944,957,944,951,18460,951
2012/06/12,935,935,920,933,4420,933
2012/06/13,937,942,936,942,1170,942
2012/06/14,935,942,935,939,3950,939
2012/06/15,942,943,937,937,4090,937
2012/06/18,955,959,950,952,7340,952
2012/06/19,951,951,945,945,5480,945
2012/06/20,954,957,954,957,5980,957
2012/06/21,965,967,961,965,3510,965
2012/06/22,952,957,951,957,11100,957
2012/06/25,959,959,952,952,2120,952
2012/06/26,938,938,935,938,8650,938
2012/06/27,939,943,938,943,2040,943
2012/06/28,949,950,944,950,870,950
2012/06/29,939,958,939,955,3570,955
2012/07/02,975,975,964,967,7570,967
2012/07/03,970,974,968,974,1550,974
2012/07/04,981,982,979,981,3310,981
2012/07/05,981,983,977,978,2360,978
2012/07/06,982,982,972,972,10280,972
2012/07/09,966,966,960,965,9490,965
2012/07/10,967,967,958,959,5160,959
2012/07/11,953,954,948,954,5280,954
2012/07/12,956,958,951,951,3710,951
2012/07/13,945,950,945,950,3040,950
2012/07/17,952,959,950,959,2330,959
2012/07/18,964,964,959,959,1180,959
2012/07/19,965,969,961,965,2070,965
2012/07/20,969,970,965,968,2970,968
2012/07/23,954,954,945,946,10360,946
2012/07/24,940,941,935,940,3680,940
2012/07/25,928,929,922,925,15600,925
2012/07/26,931,935,927,934,5030,934
2012/07/27,952,957,950,957,2970,957
2012/07/30,972,973,967,968,1730,968
2012/07/31,967,974,966,971,5090,971
2012/08/01,968,968,962,968,2050,968
2012/08/02,968,971,966,971,1720,971
2012/08/03,960,960,954,956,2170,956
2012/08/06,982,986,978,978,7600,978
2012/08/07,978,980,978,980,1700,980
2012/08/08,988,990,986,987,5450,987
2012/08/09,988,993,986,993,7360,993
2012/08/10,992,992,987,992,2730,992
2012/08/13,992,992,984,988,5490,988
2012/08/14,989,995,987,995,3740,995
2012/08/15,996,997,991,994,4390,994
2012/08/16,997,1001,997,999,7120,999
2012/08/17,1008,1011,1007,1011,11300,1011
2012/08/20,1015,1019,1011,1015,4130,1015
2012/08/21,1009,1015,1009,1015,8250,1015
2012/08/22,1013,1015,1010,1010,2670,1010
2012/08/23,1006,1013,1006,1013,3940,1013
2012/08/24,1003,1005,999,1000,5670,1000
2012/08/27,1002,1006,1002,1005,5450,1005
2012/08/28,1005,1007,998,998,8200,998
2012/08/29,1002,1002,1000,1001,410,1001
2012/08/30,999,1003,998,998,1300,998
2012/08/31,995,997,993,995,4250,995
2012/09/03,993,994,992,994,2620,994
2012/09/04,997,1000,997,997,4280,997
2012/09/05,996,998,992,997,1430,997
2012/09/06,998,1000,995,1000,1550,1000
2012/09/07,1020,1020,1018,1019,5670,1019
2012/09/10,1025,1025,1018,1023,4860,1023
2012/09/11,1011,1018,1011,1015,1500,1015
2012/09/12,1017,1018,1014,1015,2640,1015
2012/09/13,1018,1022,1017,1019,7840,1019
2012/09/14,1031,1036,1031,1033,17320,1033
2012/09/18,1044,1049,1043,1044,6590,1044
2012/09/19,1047,1054,1044,1052,37630,1052
2012/09/20,1044,1049,1037,1037,20840,1037
2012/09/21,1040,1045,1039,1039,3480,1039
2012/09/24,1037,1040,1031,1032,27040,1032
2012/09/25,1031,1036,1031,1035,4090,1035
2012/09/26,1028,1030,1020,1021,22090,1021
2012/09/27,1014,1018,1012,1018,6290,1018
2012/09/28,1020,1026,1019,1024,3210,1024
2012/10/01,1020,1023,1012,1020,5610,1020
2012/10/02,1023,1026,1023,1026,4710,1026
2012/10/03,1026,1029,1026,1029,1570,1029
2012/10/04,1034,1038,1033,1038,2210,1038
2012/10/05,1040,1045,1040,1044,4700,1044
2012/10/09,1038,1044,1037,1044,6440,1044
2012/10/10,1025,1027,1020,1026,8960,1026
2012/10/11,1019,1022,1012,1020,6340,1020
2012/10/12,1023,1026,1018,1021,16270,1021
2012/10/15,1021,1022,1013,1017,23880,1017
2012/10/16,1031,1040,1028,1030,3570,1030
2012/10/17,1043,1047,1037,1039,7900,1039
2012/10/18,1049,1054,1042,1049,8470,1049
2012/10/19,1052,1054,1050,1050,2860,1050
2012/10/22,1040,1050,1032,1050,4510,1050
2012/10/23,1053,1054,1048,1053,3180,1053
2012/10/24,1038,1043,1033,1042,3130,1042
2012/10/25,1038,1043,1038,1043,2160,1043
2012/10/26,1047,1047,1040,1042,6390,1042
2012/10/29,1037,1041,1033,1038,2780,1038
2012/10/30,1038,1039,1034,1037,4280,1037
2012/10/31,1043,1044,1036,1042,1640,1042
2012/11/01,1042,1042,1039,1042,1840,1042
2012/11/02,1047,1054,1047,1050,9780,1050
2012/11/05,1048,1050,1044,1049,5630,1049
2012/11/06,1050,1051,1043,1043,4910,1043
2012/11/07,1050,1051,1043,1048,3920,1048
2012/11/08,1035,1039,1034,1039,6620,1039
2012/11/09,1034,1034,1025,1033,12440,1033
2012/11/12,1021,1030,1021,1028,10970,1028
2012/11/13,1032,1032,1027,1028,1570,1028
2012/11/14,1025,1027,1008,1021,10920,1021
2012/11/15,1022,1022,1015,1022,8500,1022
2012/11/16,1025,1027,1022,1025,2030,1025
2012/11/19,1031,1033,1027,1030,6210,1030
2012/11/20,1041,1045,1032,1040,2610,1040
2012/11/21,1043,1050,1040,1042,8100,1042
2012/11/22,1053,1060,1048,1055,10750,1055
2012/11/26,1066,1069,1064,1066,5410,1066
2012/11/27,1064,1066,1061,1066,6210,1066
2012/11/28,1062,1065,1058,1058,2330,1058
2012/11/29,1063,1070,1063,1070,7300,1070
2012/11/30,1070,1076,1067,1072,12140,1072
2012/12/03,1072,1079,1072,1077,12720,1077
2012/12/04,1072,1077,1072,1077,18810,1077
2012/12/05,1065,1076,1065,1075,8690,1075
2012/12/06,1075,1077,1073,1076,3070,1076
2012/12/07,1077,1080,1073,1075,12050,1075
2012/12/10,1079,1079,1073,1074,13850,1074
2012/12/11,1075,1075,1072,1075,5330,1075
2012/12/12,1080,1084,1079,1082,11060,1082
2012/12/13,1087,1099,1086,1094,10310,1094
2012/12/14,1099,1099,1095,1099,9600,1099
2012/12/17,1106,1109,1100,1107,12140,1107
2012/12/18,1109,1112,1107,1112,8360,1112
2012/12/19,1125,1128,1121,1128,13890,1128
2012/12/20,1119,1119,1111,1117,11840,1117
2012/12/21,1127,1127,1097,1097,17890,1097
2012/12/25,1108,1118,1107,1114,8680,1114
2012/12/26,1122,1123,1115,1120,13980,1120
2012/12/27,1120,1129,1120,1129,10690,1129
2012/12/28,1135,1139,1125,1139,16680,1139
2013/01/04,1191,1191,1173,1175,26500,1175
2013/01/07,1191,1191,1177,1182,22380,1182
2013/01/08,1177,1188,1177,1181,12280,1181
2013/01/09,1173,1188,1171,1188,10740,1188
2013/01/10,1188,1195,1188,1195,6360,1195
2013/01/11,1228,1230,1211,1226,40530,1226
2013/01/15,1233,1233,1214,1220,36840,1220
2013/01/16,1224,1225,1209,1211,14980,1211
2013/01/17,1215,1217,1200,1208,13860,1208
2013/01/18,1237,1244,1232,1241,9520,1241
2013/01/21,1245,1245,1237,1242,12290,1242
2013/01/22,1244,1245,1231,1231,9170,1231
2013/01/23,1231,1233,1225,1225,7860,1225
2013/01/24,1225,1234,1225,1234,9860,1234
2013/01/25,1246,1247,1240,1242,14000,1242
2013/01/28,1255,1256,1253,1256,15540,1256
2013/01/29,1254,1260,1253,1259,19450,1259
2013/01/30,1264,1266,1261,1263,8620,1263
2013/01/31,1267,1267,1263,1267,8670,1267
2013/02/01,1267,1275,1267,1275,18630,1275
2013/02/04,1304,1305,1293,1301,18840,1301
2013/02/05,1285,1291,1282,1291,31000,1291
2013/02/06,1302,1318,1299,1316,9530,1316
2013/02/07,1311,1312,1305,1308,13570,1308
2013/02/08,1309,1311,1302,1305,13330,1305
2013/02/12,1315,1318,1310,1313,20660,1313
2013/02/13,1315,1315,1306,1310,11810,1310
2013/02/14,1310,1314,1308,1310,4220,1310
2013/02/15,1310,1311,1293,1300,37170,1300
2013/02/18,1305,1316,1304,1316,8630,1316
2013/02/19,1319,1319,1314,1317,15900,1317
2013/02/20,1320,1323,1318,1323,14100,1323
2013/02/21,1315,1318,1303,1312,31410,1312
2013/02/22,1300,1302,1292,1295,20550,1295
2013/02/25,1314,1314,1303,1307,7820,1307
2013/02/26,1261,1268,1250,1265,56700,1265
2013/02/27,1262,1266,1255,1258,12800,1258
2013/02/28,1274,1283,1274,1281,11360,1281
2013/03/01,1285,1286,1281,1284,8270,1284
2013/03/04,1292,1295,1288,1292,11290,1292
2013/03/05,1303,1303,1294,1295,8400,1295
2013/03/06,1308,1310,1301,1309,7600,1309
2013/03/07,1313,1318,1312,1318,10700,1318
2013/03/08,1330,1348,1328,1348,29170,1348
2013/03/11,1360,1370,1352,1368,18190,1368
2013/03/12,1378,1381,1370,1376,15250,1376
2013/03/13,1370,1373,1356,1367,26460,1367
2013/03/14,1368,1369,1359,1368,7300,1368
2013/03/15,1370,1378,1365,1378,5000,1378
2013/03/18,1356,1359,1325,1332,48970,1332
2013/03/19,1347,1359,1347,1358,12590,1358
2013/03/21,1364,1370,1357,1361,14920,1361
2013/03/22,1345,1351,1335,1344,18470,1344
2013/03/25,1357,1358,1351,1358,11760,1358
2013/03/26,1355,1358,1323,1342,13350,1342
2013/03/27,1345,1354,1343,1349,7280,1349
2013/03/28,1334,1345,1330,1340,15540,1340
2013/03/29,1348,1349,1339,1344,13520,1344
2013/04/01,1345,1345,1333,1334,14870,1334
2013/04/02,1325,1332,1304,1321,19200,1321
2013/04/03,1336,1339,1325,1331,8290,1331
2013/04/04,1320,1340,1311,1340,16370,1340
2013/04/05,1370,1370,1351,1353,18330,1353
2013/04/08,1383,1383,1375,1383,12690,1383
2013/04/09,1400,1419,1396,1405,11760,1405
2013/04/10,1409,1425,1405,1425,11250,1425
2013/04/11,1441,1448,1434,1448,11650,1448
2013/04/12,1444,1448,1440,1440,11730,1440
2013/04/15,1421,1435,1401,1414,26800,1414
2013/04/16,1368,1390,1360,1387,34440,1387
2013/04/17,1393,1402,1387,1401,14880,1401
2013/04/18,1385,1391,1368,1372,18300,1372
2013/04/19,1372,1379,1370,1379,6050,1379
2013/04/22,1400,1409,1393,1394,12530,1394
2013/04/23,1400,1400,1386,1390,15420,1390
2013/04/24,1411,1417,1407,1416,12610,1416
2013/04/25,1419,1420,1415,1419,4530,1419
2013/04/26,1420,1426,1413,1416,17290,1416
2013/04/30,1422,1422,1417,1420,7100,1420
2013/05/01,1421,1421,1411,1411,12830,1411
2013/05/02,1406,1410,1403,1410,13480,1410
2013/05/07,1446,1459,1441,1448,36290,1448
2013/05/08,1455,1467,1453,1460,18430,1460
2013/05/09,1464,1474,1464,1472,9000,1472
2013/05/10,1480,1500,1475,1498,15410,1498
2013/05/13,1512,1513,1506,1510,23380,1510
2013/05/14,1518,1520,1510,1518,15650,1518
2013/05/15,1539,1548,1532,1547,14630,1547
2013/05/16,1548,1548,1541,1542,18200,1542
2013/05/17,1543,1547,1535,1546,20610,1546
2013/05/20,1555,1556,1546,1546,23870,1546
2013/05/21,1546,1552,1543,1545,13040,1545
2013/05/22,1545,1557,1545,1557,8660,1557
2013/05/23,1557,1562,1520,1535,35940,1535
2013/05/24,1543,1549,1486,1524,38520,1524
2013/05/27,1524,1524,1491,1491,18730,1491
2013/05/28,1492,1520,1492,1520,7110,1520
2013/05/29,1530,1534,1520,1530,14730,1530
2013/05/30,1509,1514,1499,1499,13870,1499
2013/05/31,1510,1519,1499,1513,6020,1513
2013/06/03,1485,1495,1470,1470,23520,1470
2013/06/04,1447,1483,1420,1483,40290,1483
2013/06/05,1459,1462,1442,1443,22090,1443
2013/06/06,1403,1420,1403,1415,40980,1415
2013/06/07,1385,1400,1375,1392,38050,1392
2013/06/10,1428,1437,1410,1426,15470,1426
2013/06/11,1441,1443,1423,1426,6970,1426
2013/06/12,1400,1400,1380,1393,12830,1393
2013/06/13,1360,1367,1335,1335,18630,1335
2013/06/14,1385,1387,1358,1382,11070,1382
2013/06/17,1369,1371,1356,1362,14230,1362
2013/06/18,1370,1376,1364,1372,12950,1372
2013/06/19,1384,1398,1382,1394,6620,1394
2013/06/20,1385,1386,1374,1380,20110,1380
2013/06/21,1352,1369,1350,1367,11410,1367
2013/06/24,1355,1367,1350,1350,14260,1350
2013/06/25,1340,1348,1330,1331,6680,1331
2013/06/26,1341,1359,1340,1347,6260,1347
2013/06/27,1357,1367,1340,1366,5580,1366
2013/06/28,1381,1394,1376,1378,7320,1378
2013/07/01,1396,1399,1391,1395,4640,1395
2013/07/02,1410,1410,1403,1404,9510,1404
2013/07/03,1425,1427,1411,1418,9580,1418
2013/07/04,1417,1417,1408,1413,4110,1413
2013/07/05,1423,1433,1420,1432,5240,1432
2013/07/08,1447,1449,1433,1440,8500,1440
2013/07/09,1436,1450,1435,1450,5270,1450
2013/07/10,1460,1460,1442,1448,8430,1448
2013/07/11,1450,1454,1446,1451,5330,1451
2013/07/12,1457,1461,1452,1454,5340,1454
2013/07/16,1456,1459,1454,1457,6870,1457
2013/07/17,1447,1459,1447,1453,7550,1453
2013/07/18,1452,1460,1450,1460,12150,1460
2013/07/19,1470,1477,1460,1464,4730,1464
2013/07/22,1480,1484,1474,1479,4370,1479
2013/07/23,1479,1480,1472,1474,5150,1474
2013/07/24,1474,1479,1471,1476,4360,1476
2013/07/25,1477,1484,1476,1484,5490,1484
2013/07/26,1475,1484,1465,1475,5350,1475
2013/07/29,1469,1469,1454,1456,6280,1456
2013/07/30,1454,1457,1450,1454,6840,1454
2013/07/31,1461,1464,1457,1459,3020,1459
2013/08/01,1460,1460,1455,1458,4420,1458
2013/08/02,1480,1487,1453,1487,13490,1487
2013/08/05,1489,1497,1479,1488,9060,1488
2013/08/06,1481,1483,1471,1483,8720,1483
2013/08/07,1459,1461,1449,1452,11440,1452
2013/08/08,1447,1452,1442,1442,10460,1442
2013/08/09,1447,1455,1445,1455,8380,1455
2013/08/12,1450,1450,1441,1446,9230,1446
2013/08/13,1452,1459,1450,1457,5310,1457
2013/08/14,1467,1482,1463,1479,8170,1479
2013/08/15,1469,1471,1467,1467,4350,1467
2013/08/16,1448,1461,1447,1453,6280,1453
2013/08/19,1454,1457,1448,1448,4800,1448
2013/08/20,1446,1450,1437,1441,11890,1441
2013/08/21,1442,1448,1439,1445,5050,1445
2013/08/22,1439,1444,1429,1436,13940,1436
2013/08/23,1458,1469,1454,1466,8860,1466
2013/08/26,1474,1474,1467,1468,2120,1468
2013/08/27,1461,1470,1450,1458,4550,1458
2013/08/28,1438,1469,1400,1431,17260,1431
2013/08/29,1431,1434,1425,1432,5700,1432
2013/08/30,1436,1459,1435,1450,4500,1450
2013/09/02,1450,1456,1443,1452,3290,1452
2013/09/03,1466,1470,1455,1470,5520,1470
2013/09/04,1474,1474,1467,1474,6560,1474
2013/09/05,1478,1479,1471,1478,7490,1478
2013/09/06,1478,1481,1469,1472,10040,1472
2013/09/09,1483,1488,1477,1486,5950,1486
2013/09/10,1499,1500,1490,1496,10650,1496
2013/09/11,1503,1519,1502,1512,19160,1512
2013/09/12,1517,1520,1510,1511,7580,1511
2013/09/13,1506,1509,1506,1506,3380,1506
2013/09/17,1510,1514,1508,1513,7160,1513
2013/09/18,1515,1519,1514,1515,11640,1515
2013/09/19,1519,1533,1516,1533,9810,1533
2013/09/20,1534,1542,1534,1539,14450,1539
2013/09/24,1526,1527,1516,1520,10460,1520
2013/09/25,1517,1520,1511,1516,3440,1516
2013/09/26,1516,1522,1513,1518,2250,1518
2013/09/27,1521,1524,1516,1520,4670,1520
2013/09/30,1515,1518,1507,1512,8920,1512
2013/10/01,1507,1518,1507,1514,13600,1514
2013/10/02,1515,1515,1504,1504,13150,1504
2013/10/03,1499,1500,1494,1499,13370,1499
2013/10/04,1489,1498,1480,1487,18310,1487
2013/10/07,1484,1489,1480,1484,7580,1484
2013/10/08,1476,1481,1470,1481,16410,1481
2013/10/09,1470,1477,1470,1474,14830,1474
2013/10/10,1478,1478,1468,1475,11190,1475
2013/10/11,1495,1504,1482,1502,20420,1502
2013/10/15,1520,1520,1509,1516,6720,1516
2013/10/16,1510,1519,1510,1516,8630,1516
2013/10/17,1527,1530,1524,1525,5410,1525
2013/10/18,1533,1535,1527,1535,14270,1535
2013/10/21,1537,1549,1535,1549,18800,1549
2013/10/22,1549,1550,1547,1550,7210,1550
2013/10/23,1554,1556,1547,1550,10350,1550
2013/10/24,1547,1550,1547,1550,8380,1550
2013/10/25,1559,1559,1545,1550,23670,1550
2013/10/28,1550,1556,1549,1554,9050,1554
2013/10/29,1555,1558,1554,1554,4930,1554
2013/10/30,1561,1566,1560,1566,10220,1566
2013/10/31,1561,1569,1560,1561,10250,1561
2013/11/01,1563,1566,1559,1559,7330,1559
2013/11/05,1562,1570,1562,1570,8480,1570
2013/11/06,1568,1574,1565,1573,6770,1573
2013/11/07,1575,1577,1571,1574,7770,1574
2013/11/08,1559,1568,1549,1551,19380,1551
2013/11/11,1566,1568,1563,1566,7960,1566
2013/11/12,1573,1575,1569,1574,12790,1574
2013/11/13,1574,1574,1569,1569,7300,1569
2013/11/14,1575,1586,1572,1586,28660,1586
2013/11/15,1600,1606,1592,1598,20720,1598
2013/11/18,1610,1611,1603,1603,12180,1603
2013/11/19,1608,1608,1593,1601,17860,1601
2013/11/20,1607,1609,1595,1598,24800,1598
2013/11/21,1595,1599,1590,1590,7420,1590
2013/11/22,1615,1620,1611,1617,43150,1617
2013/11/25,1620,1644,1618,1643,31510,1643
2013/11/26,1636,1640,1630,1639,18460,1639
2013/11/27,1629,1634,1625,1632,23020,1632
2013/11/28,1639,1642,1638,1642,16450,1642
2013/11/29,1645,1650,1645,1650,22410,1650
2013/12/02,1656,1657,1648,1655,42180,1655
2013/12/03,1657,1668,1654,1665,48900,1665
2013/12/04,1632,1639,1622,1629,34940,1629
2013/12/05,1627,1627,1617,1620,36200,1620
2013/12/06,1610,1618,1600,1618,18120,1618
2013/12/09,1654,1655,1638,1646,34670,1646
2013/12/10,1640,1651,1640,1651,28100,1651
2013/12/11,1641,1645,1637,1639,28570,1639
2013/12/12,1618,1622,1616,1620,20160,1620
2013/12/13,1636,1636,1624,1630,17480,1630
2013/12/16,1628,1629,1616,1618,39220,1618
2013/12/17,1630,1635,1629,1635,29020,1635
2013/12/18,1626,1636,1625,1633,42910,1633
2013/12/19,1667,1678,1655,1662,72270,1662
2013/12/20,1665,1668,1663,1666,60610,1666
2013/12/24,1671,1700,1671,1682,76460,1682
2013/12/25,1683,1697,1683,1694,112300,1694
2013/12/26,1705,1720,1705,1719,28440,1719
2013/12/27,1724,1727,1718,1726,42730,1726
2013/12/30,1740,1740,1729,1732,54400,1732
2014/01/06,1712,1714,1695,1695,74440,1695
2014/01/07,1695,1703,1693,1702,20670,1702
2014/01/08,1710,1716,1706,1714,16110,1714
2014/01/09,1715,1715,1709,1715,11590,1715
2014/01/10,1712,1717,1711,1716,16750,1716
2014/01/14,1697,1697,1685,1690,62790,1690
2014/01/15,1719,1724,1713,1718,16600,1718
2014/01/16,1730,1731,1723,1726,11530,1726
2014/01/17,1719,1723,1715,1720,14850,1720
2014/01/20,1718,1719,1709,1713,18390,1713
2014/01/21,1715,1719,1715,1718,11740,1718
2014/01/22,1719,1719,1710,1715,19380,1715
2014/01/23,1719,1724,1714,1717,9980,1717
2014/01/24,1700,1707,1686,1694,44770,1694
2014/01/27,1652,1663,1645,1660,37890,1660
2014/01/28,1650,1654,1645,1652,24240,1652
2014/01/29,1678,1679,1671,1678,20280,1678
2014/01/30,1644,1658,1640,1652,22470,1652
2014/01/31,1662,1664,1656,1663,10700,1663
2014/02/03,1650,1662,1647,1658,12030,1658
2014/02/04,1620,1636,1616,1623,26150,1623
2014/02/05,1649,1649,1620,1627,13230,1627
2014/02/06,1630,1636,1623,1634,5190,1634
2014/02/07,1650,1650,1641,1649,6490,1649
2014/02/10,1669,1683,1657,1673,10610,1673
2014/02/12,1696,1697,1688,1691,7670,1691
2014/02/13,1699,1699,1679,1682,4090,1682
2014/02/14,1697,1697,1678,1684,2650,1684
2014/02/17,1696,1696,1679,1681,7990,1681
2014/02/18,1685,1696,1681,1695,6090,1695
2014/02/19,1696,1699,1687,1687,5770,1687
2014/02/20,1683,1686,1667,1667,4570,1667
2014/02/21,1682,1688,1682,1686,7300,1686
2014/02/24,1686,1693,1682,1683,6090,1683
2014/02/25,1694,1697,1691,1692,14710,1692
2014/02/26,1690,1697,1690,1696,3140,1696
2014/02/27,1695,1695,1690,1692,2830,1692
2014/02/28,1696,1696,1687,1687,3780,1687
2014/03/03,1680,1681,1665,1671,22730,1671
2014/03/04,1668,1675,1666,1675,3310,1675
2014/03/05,1689,1698,1685,1697,14210,1697
2014/03/06,1699,1710,1699,1705,10260,1705
2014/03/07,1718,1725,1711,1718,8170,1718
2014/03/10,1719,1726,1708,1714,3320,1714
2014/03/11,1714,1720,1712,1713,2240,1713
2014/03/12,1708,1710,1703,1703,4050,1703
2014/03/13,1713,1713,1705,1709,4250,1709
2014/03/14,1685,1695,1660,1665,21180,1665
2014/03/17,1665,1665,1661,1664,6040,1664
2014/03/18,1683,1699,1681,1690,3830,1690
2014/03/19,1694,1694,1688,1688,6350,1688
2014/03/20,1690,1692,1684,1684,4480,1684
2014/03/24,1703,1703,1693,1699,26970,1699
2014/03/25,1692,1696,1686,1693,8980,1693
2014/03/26,1703,1703,1691,1693,2750,1693
2014/03/27,1689,1690,1684,1689,3930,1689
2014/03/28,1685,1694,1685,1693,2380,1693
2014/03/31,1707,1718,1705,1711,7000,1711
2014/04/01,1715,1718,1711,1714,3720,1714
2014/04/02,1729,1749,1729,1741,14920,1741
2014/04/03,1750,1750,1742,1744,1800,1744
2014/04/04,1741,1744,1741,1742,3520,1742
2014/04/07,1725,1727,1710,1718,16140,1718
2014/04/08,1709,1713,1700,1700,3810,1700
2014/04/09,1700,1704,1696,1698,5500,1698
2014/04/10,1715,1718,1711,1714,22790,1714
2014/04/11,1692,1692,1683,1685,14600,1685
2014/04/14,1670,1672,1660,1667,29480,1667
2014/04/15,1675,1687,1675,1687,7960,1687
2014/04/16,1695,1706,1694,1706,5580,1706
2014/04/17,1708,1708,1701,1702,2830,1702
2014/04/18,1710,1712,1707,1707,2070,1707
2014/04/21,1715,1717,1710,1713,5080,1713
2014/04/22,1717,1717,1712,1713,7380,1713
2014/04/23,1720,1729,1716,1720,8980,1720
2014/04/24,1729,1730,1724,1724,2220,1724
2014/04/25,1725,1725,1720,1720,2780,1720
2014/04/28,1715,1718,1703,1708,7890,1708
2014/04/30,1722,1723,1713,1717,7490,1717
2014/05/01,1723,1725,1722,1722,7810,1722
2014/05/02,1722,1727,1722,1726,5840,1726
2014/05/07,1717,1718,1707,1707,10490,1707
2014/05/08,1718,1720,1714,1714,3470,1714
2014/05/09,1717,1717,1708,1710,5310,1710
2014/05/12,1722,1724,1716,1722,3170,1722
2014/05/13,1730,1735,1730,1735,12300,1735
2014/05/14,1733,1735,1731,1735,2970,1735
2014/05/15,1729,1729,1722,1728,3240,1728
2014/05/16,1714,1714,1708,1709,15350,1709
2014/05/19,1714,1715,1710,1710,4100,1710
2014/05/20,1713,1715,1712,1714,1340,1714
2014/05/21,1707,1707,1700,1702,12770,1702
2014/05/22,1709,1719,1709,1719,7050,1719
2014/05/23,1720,1727,1720,1722,7180,1722
2014/05/26,1728,1734,1725,1727,8750,1727
2014/05/27,1732,1735,1731,1735,5050,1735
2014/05/28,1738,1740,1737,1740,3510,1740
2014/05/29,1741,1742,1737,1740,4710,1740
2014/05/30,1742,1745,1742,1744,4460,1744
2014/06/02,1748,1754,1747,1753,13400,1753
2014/06/03,1758,1758,1751,1755,8610,1755
2014/06/04,1745,1749,1743,1744,4100,1744
2014/06/05,1744,1748,1742,1745,3280,1745
2014/06/06,1750,1753,1747,1751,6670,1751
2014/06/09,1759,1760,1753,1759,9820,1759
2014/06/10,1757,1760,1681,1745,27620,1745
2014/06/11,1749,1750,1744,1747,4190,1747
2014/06/12,1744,1747,1742,1742,3270,1742
2014/06/13,1736,1740,1734,1740,4100,1740
2014/06/16,1739,1740,1736,1738,10980,1738
2014/06/17,1743,1747,1740,1741,1830,1741
2014/06/18,1746,1750,1746,1748,2020,1748
2014/06/19,1751,1753,1749,1752,3850,1752
2014/06/20,1755,1759,1753,1758,6740,1758
2014/06/23,1760,1760,1755,1756,4410,1756
2014/06/24,1755,1756,1752,1753,5080,1753
2014/06/25,1751,1754,1751,1752,4760,1752
2014/06/26,1753,1755,1751,1755,2840,1755
2014/06/27,1755,1755,1741,1741,13090,1741
2014/06/30,1748,1750,1746,1750,4910,1750
2014/07/01,1755,1755,1752,1753,5580,1753
2014/07/02,1758,1764,1757,1764,5490,1764
2014/07/03,1769,1770,1766,1770,4980,1770
2014/07/04,1784,1784,1779,1782,4750,1782
2014/07/07,1777,1781,1777,1781,6920,1781
2014/07/08,1773,1778,1766,1773,13010,1773
2014/07/09,1762,1764,1757,1761,13450,1761
2014/07/10,1762,1763,1760,1760,2400,1760
2014/07/11,1755,1758,1750,1750,10170,1750
2014/07/14,1751,1755,1751,1755,4410,1755
2014/07/15,1760,1762,1758,1762,3400,1762
2014/07/16,1758,1765,1758,1765,2680,1765
2014/07/17,1770,1770,1766,1769,2990,1769
2014/07/18,1762,1762,1748,1757,21730,1757
2014/07/22,1762,1767,1760,1767,3420,1767
2014/07/23,1770,1770,1765,1769,2300,1769
2014/07/24,1770,1774,1766,1769,3130,1769
2014/07/25,1773,1778,1770,1778,3110,1778
2014/07/28,1774,1778,1773,1775,5340,1775
2014/07/29,1777,1780,1775,1778,5110,1778
2014/07/30,1778,1780,1775,1780,2150,1780
2014/07/31,1781,1785,1781,1785,2010,1785
2014/08/01,1762,1771,1760,1766,19050,1766
2014/08/04,1760,1787,1757,1776,14990,1776
2014/08/05,1780,1780,1771,1776,3350,1776
2014/08/06,1771,1777,1753,1753,9190,1753
2014/08/07,1753,1757,1750,1750,7210,1750
2014/08/08,1748,1754,1732,1733,13880,1733
2014/08/11,1743,1752,1743,1751,7780,1751
2014/08/12,1755,1756,1746,1754,3600,1754
2014/08/13,1752,1755,1741,1755,5600,1755
2014/08/14,1759,1769,1755,1769,7310,1769
2014/08/15,1769,1773,1766,1773,2820,1773
2014/08/18,1778,1779,1774,1776,4640,1776
2014/08/19,1784,1785,1775,1784,5930,1784
2014/08/20,1785,1785,1781,1784,2540,1784
2014/08/21,1787,1789,1787,1788,9730,1788
2014/08/22,1789,1793,1789,1793,6130,1793
2014/08/25,1795,1798,1793,1798,5970,1798
2014/08/26,1798,1800,1793,1800,4490,1800
2014/08/27,1802,1805,1795,1803,5790,1803
2014/08/28,1808,1808,1800,1802,3420,1802
2014/08/29,1803,1805,1798,1804,2950,1804
2014/09/01,1807,1808,1805,1808,7150,1808
2014/09/02,1810,1817,1809,1817,9470,1817
2014/09/03,1819,1827,1817,1826,9500,1826
2014/09/04,1831,1833,1823,1832,4640,1832
2014/09/05,1834,1837,1834,1837,4450,1837
2014/09/08,1844,1846,1837,1839,7170,1839
2014/09/09,1844,1847,1839,1846,4560,1846
2014/09/10,1843,1848,1841,1848,6110,1848
2014/09/11,1854,1854,1850,1853,3850,1853
2014/09/12,1856,1863,1855,1860,3660,1860
2014/09/16,1860,1860,1849,1850,12360,1850
2014/09/17,1850,1850,1843,1848,7960,1848
2014/09/18,1864,1873,1862,1873,11070,1873
2014/09/19,1880,1903,1880,1899,8670,1899
2014/09/22,1902,1903,1883,1892,9100,1892
2014/09/24,1870,1871,1858,1870,23810,1870
2014/09/25,1872,1880,1872,1880,11010,1880
2014/09/26,1858,1874,1852,1874,20340,1874
2014/09/29,1878,1879,1871,1878,4470,1878
2014/09/30,1875,1875,1863,1867,7600,1867
2014/10/01,1870,1872,1865,1872,3290,1872
2014/10/02,1850,1854,1843,1847,21300,1847
2014/10/03,1840,1852,1838,1852,11180,1852
2014/10/06,1872,1874,1864,1873,10800,1873
2014/10/07,1856,1865,1850,1855,11540,1855
2014/10/08,1830,1837,1819,1834,18700,1834
2014/10/09,1842,1843,1829,1834,6650,1834
2014/10/10,1807,1813,1795,1800,17500,1800
2014/10/14,1774,1778,1752,1762,37180,1762
2014/10/15,1768,1775,1758,1764,13990,1764
2014/10/16,1740,1741,1729,1729,29320,1729
2014/10/17,1734,1738,1727,1737,16630,1737
2014/10/20,1773,1786,1761,1777,19290,1777
2014/10/21,1777,1780,1762,1763,12380,1763
2014/10/22,1800,1810,1794,1810,7540,1810
2014/10/23,1807,1807,1795,1805,6210,1805
2014/10/24,1825,1825,1818,1824,3210,1824
2014/10/27,1830,1834,1829,1834,9130,1834
2014/10/28,1831,1831,1812,1825,7430,1825
2014/10/29,1830,1835,1827,1828,3940,1828
2014/10/30,1833,1838,1833,1838,3260,1838
2014/10/31,1850,1880,1840,1860,36280,1860
2014/11/04,1902,1907,1896,1907,20790,1907
2014/11/05,1902,1912,1901,1907,7610,1907
2014/11/06,1912,1941,1912,1929,15520,1929
2014/11/07,1940,1944,1939,1944,4150,1944
2014/11/10,1945,1946,1938,1940,7090,1940
2014/11/11,1948,1955,1937,1955,6890,1955
2014/11/12,1959,1960,1952,1952,7880,1952
2014/11/13,1954,1963,1952,1963,15890,1963
2014/11/14,1963,1968,1960,1965,5490,1965
2014/11/17,1972,1974,1962,1962,8560,1962
2014/11/18,1985,1990,1979,1990,5200,1990
2014/11/19,2000,2010,2000,2006,5530,2006
2014/11/20,2033,2044,2018,2040,11020,2040
2014/11/21,2040,2071,2026,2030,9520,2030
2014/11/25,2046,2080,2046,2060,22510,2060
2014/11/26,2060,2074,2060,2074,8460,2074
2014/11/27,2060,2071,2060,2067,6330,2067
2014/11/28,2075,2180,2070,2096,22490,2096
2014/12/01,2093,2115,2091,2105,31360,2105
2014/12/02,2110,2147,2103,2120,21000,2120
2014/12/03,2131,2139,2127,2129,9810,2129
2014/12/04,2138,2139,2129,2135,11630,2135
2014/12/05,2129,2138,2128,2137,8060,2137
2014/12/08,2150,2156,2149,2156,12830,2156
2014/12/09,2142,2146,2120,2125,12400,2125
2014/12/10,2110,2111,2060,2077,33160,2077
2014/12/11,2014,2047,2002,2026,29910,2026
2014/12/12,2049,2062,2044,2057,10210,2057
2014/12/15,2028,2031,2013,2019,19970,2019
2014/12/16,1999,2000,1974,1980,34180,1980
2014/12/17,1960,1979,1960,1979,13070,1979
2014/12/18,2045,2045,2028,2028,19940,2028
2014/12/19,2076,2086,2070,2086,13080,2086
2014/12/22,2095,2097,2083,2083,12080,2083
2014/12/24,2100,2113,2095,2095,14590,2095
2014/12/25,2100,2101,2092,2092,11210,2092
2014/12/26,2099,2099,2085,2098,9830,2098
2014/12/29,2083,2088,2077,2080,12610,2080
2014/12/30,2081,2088,2074,2074,9130,2074
2015/01/05,2073,2073,2065,2071,14870,2071
2015/01/06,2030,2035,2002,2017,24800,2017
2015/01/07,2015,2015,2000,2011,20170,2011
2015/01/08,2028,2035,2024,2034,9940,2034
2015/01/09,2051,2057,2044,2048,12050,2048
2015/01/13,2035,2035,2013,2030,15530,2030
2015/01/14,2009,2015,1990,2001,16060,2001
2015/01/15,1996,2004,1994,2004,14930,2004
2015/01/16,1982,1985,1969,1983,23190,1983
2015/01/19,2002,2004,1984,1997,10250,1997
2015/01/20,1994,2012,1994,2012,5400,2012
2015/01/21,2019,2019,2006,2011,8930,2011
2015/01/22,2013,2013,2005,2005,5090,2005
2015/01/23,2030,2035,2020,2034,5920,2034
2015/01/26,2024,2024,2002,2007,10230,2007
2015/01/27,2024,2027,2017,2027,4080,2027
2015/01/28,2018,2031,2014,2031,6420,2031
2015/01/29,2007,2013,2003,2010,10040,2010
2015/01/30,2028,2029,2018,2028,6310,2028
2015/02/02,2011,2017,2008,2017,11320,2017
2015/02/03,2020,2020,2004,2010,11350,2010
2015/02/04,2020,2029,2008,2024,4860,2024
2015/02/05,2019,2020,2015,2020,4830,2020
2015/02/06,2025,2029,2024,2029,2380,2029
2015/02/09,2031,2040,2028,2033,7490,2033
2015/02/10,2029,2034,2028,2034,2930,2034
2015/02/12,2050,2056,2040,2051,8670,2051
2015/02/13,2048,2055,2048,2054,4990,2054
2015/02/16,2054,2060,2054,2060,8930,2060
2015/02/17,2061,2061,2055,2059,2870,2059
2015/02/18,2068,2075,2068,2072,8080,2072
2015/02/19,2065,2074,2065,2071,5140,2071
2015/02/20,2071,2075,2069,2070,7270,2070
2015/02/23,2080,2088,2075,2080,13070,2080
2015/02/24,2078,2085,2078,2085,10840,2085
2015/02/25,2095,2098,2085,2086,9870,2086
2015/02/26,2089,2100,2089,2099,9960,2099
2015/02/27,2100,2101,2091,2092,10260,2092
2015/03/02,2104,2105,2098,2101,9530,2101
2015/03/03,2128,2128,2111,2112,4770,2112
2015/03/04,2108,2108,2100,2105,5850,2105
2015/03/05,2100,2102,2096,2102,2730,2102
2015/03/06,2105,2110,2103,2110,3680,2110
2015/03/09,2100,2106,2095,2104,11290,2104
2015/03/10,2109,2110,2099,2101,2900,2101
2015/03/11,2079,2087,2076,2085,10990,2085
2015/03/12,2081,2086,2077,2086,5070,2086
2015/03/13,2092,2103,2092,2100,5870,2100
2015/03/16,2091,2094,2083,2089,7490,2089
2015/03/17,2102,2103,2094,2101,4560,2101
2015/03/18,2099,2100,2096,2098,2230,2098
2015/03/19,2105,2106,2101,2104,4880,2104
2015/03/20,2096,2100,2095,2096,8290,2096
2015/03/23,2104,2107,2101,2105,13950,2105
2015/03/24,2102,2109,2100,2101,4030,2101
2015/03/25,2098,2104,2097,2103,4950,2103
2015/03/26,2084,2090,2074,2077,13030,2077
2015/03/27,2074,2084,2074,2083,5980,2083
2015/03/30,2078,2078,2068,2070,7240,2070
2015/03/31,2085,2090,2085,2090,8050,2090
2015/04/01,2079,2079,2056,2069,7360,2069
2015/04/02,2070,2076,2068,2075,1720,2075
2015/04/03,2076,2080,2072,2075,13660,2075
2015/04/06,2062,2074,2057,2070,9840,2070
2015/04/07,2085,2095,2082,2093,6060,2093
2015/04/08,2100,2100,2095,2098,3810,2098
2015/04/09,2100,2101,2097,2100,5830,2100
2015/04/10,2107,2111,2104,2110,7880,2110
2015/04/13,2115,2120,2111,2113,5140,2113
2015/04/14,2112,2114,2110,2110,7540,2110
2015/04/15,2108,2113,2108,2113,3160,2113
2015/04/16,2113,2120,2113,2118,4750,2118
2015/04/17,2120,2120,2110,2111,4430,2111
2015/04/20,2100,2102,2095,2097,9170,2097
2015/04/21,2102,2106,2100,2105,4120,2105
2015/04/22,2109,2112,2103,2103,7680,2103
2015/04/23,2115,2123,2110,2120,4720,2120
2015/04/24,2117,2122,2117,2119,2800,2119
2015/04/27,2121,2122,2117,2122,5320,2122
2015/04/28,2122,2124,2118,2124,4650,2124
2015/04/30,2119,2125,2111,2119,10940,2119
2015/05/01,2122,2122,2110,2117,12410,2117
2015/05/07,2110,2118,2105,2115,8570,2115
2015/05/08,2115,2118,2106,2117,4810,2117
2015/05/11,2130,2131,2124,2129,10740,2129
2015/05/12,2124,2129,2124,2129,5690,2129
2015/05/13,2125,2129,2123,2129,2180,2129
2015/05/14,2126,2129,2123,2127,3520,2127
2015/05/15,2136,2138,2134,2138,7200,2138
2015/05/18,2139,2150,2135,2147,10660,2147
2015/05/19,2150,2155,2140,2152,7880,2152
2015/05/20,2155,2158,2154,2157,5750,2157
2015/05/21,2160,2165,2159,2165,6270,2165
2015/05/22,2168,2179,2168,2179,6640,2179
2015/05/25,2180,2182,2175,2182,6660,2182
2015/05/26,2180,2185,2180,2185,4220,2185
2015/05/27,2185,2187,2180,2184,7410,2184
2015/05/28,2197,2229,2197,2207,18890,2207
2015/05/29,2219,2221,2216,2219,10670,2219
2015/06/01,2215,2230,2211,2229,7760,2229
2015/06/02,2239,2250,2229,2248,8170,2248
2015/06/03,2244,2248,2227,2235,11240,2235
2015/06/04,2228,2232,2212,2216,10830,2216
2015/06/05,2210,2215,2201,2207,10390,2207
2015/06/08,2220,2221,2213,2218,4700,2218
2015/06/09,2202,2208,2190,2195,12000,2195
2015/06/10,2190,2193,2165,2165,15600,2165
2015/06/11,2181,2190,2180,2190,5470,2190
2015/06/12,2197,2198,2187,2198,6620,2198
2015/06/15,2190,2192,2180,2192,7940,2192
2015/06/16,2185,2188,2175,2180,4960,2180
2015/06/17,2181,2185,2174,2185,8190,2185
2015/06/18,2182,2182,2166,2170,10540,2170
2015/06/19,2179,2186,2177,2186,3460,2186
2015/06/22,2186,2186,2183,2185,6670,2185
2015/06/23,2199,2205,2193,2205,7320,2205
2015/06/24,2213,2213,2206,2209,5220,2209
2015/06/25,2208,2208,2204,2207,4950,2207
2015/06/26,2200,2205,2189,2194,9220,2194
2015/06/29,2149,2149,2130,2142,31230,2142
2015/06/30,2120,2128,2120,2124,49020,2124
2015/07/01,2127,2140,2126,2140,6790,2140
