2011/01/04,1720,1742,1720,1730,23360,1730
2011/01/05,1726,1752,1726,1743,17370,1743
2011/01/06,1761,1761,1745,1752,19940,1752
2011/01/07,1752,1755,1744,1752,13120,1752
2011/01/11,1750,1771,1745,1771,28200,1771
2011/01/12,1770,1785,1760,1760,54820,1760
2011/01/13,1776,1779,1760,1773,22950,1773
2011/01/14,1780,1800,1780,1800,25640,1800
2011/01/17,1823,1830,1801,1819,82510,1819
2011/01/18,1825,1825,1800,1803,43710,1803
2011/01/19,1818,1819,1805,1808,11080,1808
2011/01/20,1807,1815,1782,1794,13960,1794
2011/01/21,1789,1792,1701,1727,64510,1727
2011/01/24,1710,1735,1705,1722,15040,1722
2011/01/25,1745,1771,1736,1771,20140,1771
2011/01/26,1759,1765,1750,1750,19090,1750
2011/01/27,1750,1762,1745,1745,22030,1745
2011/01/28,1750,1750,1719,1746,30500,1746
2011/01/31,1705,1728,1691,1716,29390,1716
2011/02/01,1724,1739,1724,1739,7790,1739
2011/02/02,1758,1778,1757,1778,18050,1778
2011/02/03,1755,1777,1755,1769,10430,1769
2011/02/04,1769,1779,1751,1775,10660,1775
2011/02/07,1775,1790,1772,1783,20640,1783
2011/02/08,1785,1790,1775,1784,27560,1784
2011/02/09,1785,1785,1752,1765,7370,1765
2011/02/10,1750,1765,1740,1765,19260,1765
2011/02/14,1755,1775,1750,1775,12660,1775
2011/02/15,1762,1797,1762,1788,25170,1788
2011/02/16,1781,1790,1775,1790,16060,1790
2011/02/17,1782,1800,1782,1797,13020,1797
2011/02/18,1787,1815,1786,1815,52190,1815
2011/02/21,1815,1832,1813,1832,27040,1832
2011/02/22,1823,1836,1781,1804,19670,1804
2011/02/23,1764,1798,1762,1794,12120,1794
2011/02/24,1760,1779,1719,1744,35760,1744
2011/02/25,1716,1748,1716,1748,15570,1748
2011/02/28,1769,1788,1751,1788,14910,1788
2011/03/01,1806,1809,1791,1809,18900,1809
2011/03/02,1769,1796,1769,1795,11760,1795
2011/03/03,1795,1808,1795,1807,5240,1807
2011/03/04,1808,1830,1802,1819,24680,1819
2011/03/07,1819,1825,1788,1801,10140,1801
2011/03/08,1800,1809,1790,1793,3170,1793
2011/03/09,1800,1805,1767,1786,10640,1786
2011/03/10,1778,1778,1723,1727,25790,1727
2011/03/11,1720,1740,1698,1698,51310,1698
2011/03/14,1438,1498,1400,1431,61670,1431
2011/03/15,1371,1380,1131,1200,69490,1200
2011/03/16,1238,1334,1238,1334,40050,1334
2011/03/17,1274,1379,1251,1355,18640,1355
2011/03/18,1404,1470,1404,1469,37810,1469
2011/03/22,1639,1639,1550,1578,38810,1578
2011/03/23,1580,1600,1540,1571,30440,1571
2011/03/24,1581,1581,1535,1540,15640,1540
2011/03/25,1546,1568,1516,1529,20030,1529
2011/03/28,1530,1530,1470,1470,16680,1470
2011/03/29,1453,1539,1453,1509,18240,1509
2011/03/30,1511,1561,1511,1550,12170,1550
2011/03/31,1567,1597,1551,1568,20830,1568
2011/04/01,1582,1600,1574,1574,11260,1574
2011/04/04,1581,1599,1574,1580,11290,1580
2011/04/05,1590,1590,1536,1538,10520,1538
2011/04/06,1542,1542,1519,1526,7140,1526
2011/04/07,1531,1548,1523,1524,6680,1524
2011/04/08,1516,1575,1514,1575,10460,1575
2011/04/11,1574,1580,1556,1573,3670,1573
2011/04/12,1551,1554,1541,1545,3100,1545
2011/04/13,1535,1547,1535,1542,4300,1542
2011/04/14,1541,1572,1541,1569,5700,1569
2011/04/15,1573,1587,1565,1566,4690,1566
2011/04/18,1580,1580,1567,1570,1300,1570
2011/04/19,1563,1565,1544,1563,2220,1563
2011/04/20,1567,1579,1564,1564,1850,1564
2011/04/21,1564,1589,1564,1579,11460,1579
2011/04/22,1574,1597,1573,1580,9420,1580
2011/04/25,1590,1610,1590,1605,7470,1605
2011/04/26,1610,1612,1593,1601,4510,1601
2011/04/27,1615,1623,1599,1609,6610,1609
2011/04/28,1611,1632,1606,1627,13470,1627
2011/05/02,1648,1648,1634,1641,7290,1641
2011/05/06,1584,1640,1584,1619,8060,1619
2011/05/09,1619,1647,1612,1622,4200,1622
2011/05/10,1630,1630,1618,1628,1520,1628
2011/05/11,1623,1639,1623,1629,3210,1629
2011/05/12,1611,1635,1611,1617,3690,1617
2011/05/13,1625,1625,1595,1601,3600,1601
2011/05/16,1599,1599,1540,1551,12450,1551
2011/05/17,1532,1552,1521,1552,4530,1552
2011/05/18,1558,1562,1532,1549,5390,1549
2011/05/19,1556,1577,1551,1554,8500,1554
2011/05/20,1555,1580,1555,1579,7750,1579
2011/05/23,1579,1579,1558,1558,1870,1558
2011/05/24,1554,1564,1540,1563,2310,1563
2011/05/25,1569,1569,1543,1554,1730,1554
2011/05/26,1530,1550,1530,1533,10930,1533
2011/05/27,1530,1545,1530,1542,1020,1542
2011/05/30,1550,1553,1548,1552,460,1552
2011/05/31,1554,1568,1553,1565,2450,1565
2011/06/01,1570,1571,1553,1568,2100,1568
2011/06/02,1553,1553,1538,1547,2580,1547
2011/06/03,1550,1550,1535,1535,1150,1535
2011/06/06,1535,1535,1515,1518,3620,1518
2011/06/07,1520,1535,1520,1530,1570,1530
2011/06/08,1538,1542,1532,1538,460,1538
2011/06/09,1520,1537,1520,1534,1520,1534
2011/06/10,1535,1539,1522,1522,4090,1522
2011/06/13,1519,1527,1506,1527,2210,1527
2011/06/14,1525,1527,1520,1524,520,1524
2011/06/15,1539,1540,1512,1520,1670,1520
2011/06/16,1520,1520,1508,1508,3450,1508
2011/06/17,1508,1515,1501,1502,6690,1502
2011/06/20,1501,1501,1469,1470,12290,1470
2011/06/21,1470,1475,1466,1466,5270,1466
2011/06/22,1488,1490,1473,1480,1680,1480
2011/06/23,1479,1479,1460,1461,4860,1461
2011/06/24,1462,1468,1458,1460,2850,1460
2011/06/27,1459,1464,1455,1457,2410,1457
2011/06/28,1480,1480,1458,1459,2910,1459
2011/06/29,1479,1482,1470,1482,420,1482
2011/06/30,1478,1478,1464,1464,5390,1464
2011/07/01,1465,1465,1450,1451,7590,1451
2011/07/04,1467,1475,1452,1463,3810,1463
2011/07/05,1470,1474,1459,1474,5310,1474
2011/07/06,1475,1475,1450,1452,4960,1452
2011/07/07,1454,1458,1453,1456,1470,1456
2011/07/08,1457,1480,1457,1475,5080,1475
2011/07/11,1462,1474,1461,1474,1020,1474
2011/07/12,1468,1468,1421,1434,9970,1434
2011/07/13,1444,1444,1432,1441,1210,1441
2011/07/14,1435,1445,1433,1440,1970,1440
2011/07/15,1428,1443,1427,1442,3060,1442
2011/07/19,1447,1447,1435,1435,1130,1435
2011/07/20,1448,1455,1438,1446,1040,1446
2011/07/21,1439,1457,1439,1445,1630,1445
2011/07/22,1450,1464,1450,1453,2510,1453
2011/07/25,1454,1500,1454,1490,9440,1490
2011/07/26,1471,1500,1471,1487,6880,1487
2011/07/27,1494,1494,1472,1474,3090,1474
2011/07/28,1464,1472,1453,1461,1290,1461
2011/07/29,1452,1460,1438,1438,1210,1438
2011/08/01,1442,1465,1442,1458,690,1458
2011/08/02,1456,1456,1431,1433,1550,1433
2011/08/03,1427,1428,1405,1411,3340,1411
2011/08/04,1412,1428,1404,1418,1540,1418
2011/08/05,1370,1385,1300,1384,9280,1384
2011/08/08,1366,1378,1337,1348,3490,1348
2011/08/09,1281,1319,1260,1319,7730,1319
2011/08/10,1360,1375,1307,1310,4020,1310
2011/08/11,1276,1343,1276,1343,3230,1343
2011/08/12,1354,1369,1320,1340,4110,1340
2011/08/15,1342,1355,1336,1351,2220,1351
2011/08/16,1367,1370,1322,1324,3070,1324
2011/08/17,1340,1377,1338,1377,2390,1377
2011/08/18,1372,1372,1354,1361,1050,1361
2011/08/19,1333,1347,1331,1332,1490,1332
2011/08/22,1312,1341,1288,1289,2350,1289
2011/08/23,1291,1306,1291,1306,3080,1306
2011/08/24,1334,1334,1292,1294,9220,1294
2011/08/25,1322,1322,1294,1307,2800,1307
2011/08/26,1307,1329,1300,1329,2980,1329
2011/08/29,1340,1379,1332,1372,2750,1372
2011/08/30,1377,1395,1375,1381,1920,1381
2011/08/31,1379,1386,1376,1384,980,1384
2011/09/01,1380,1403,1377,1379,1810,1379
2011/09/02,1356,1378,1351,1366,1180,1366
2011/09/05,1349,1368,1334,1359,1450,1359
2011/09/06,1333,1343,1260,1291,4240,1291
2011/09/07,1298,1336,1298,1330,1070,1330
2011/09/08,1308,1330,1296,1296,1590,1296
2011/09/09,1308,1308,1295,1308,680,1308
2011/09/12,1292,1310,1281,1310,3360,1310
2011/09/13,1283,1300,1283,1296,220,1296
2011/09/14,1282,1284,1260,1261,2420,1261
2011/09/15,1272,1300,1261,1262,1300,1262
2011/09/16,1262,1279,1262,1276,1480,1276
2011/09/20,1274,1275,1254,1268,1220,1268
2011/09/21,1259,1265,1255,1255,950,1255
2011/09/22,1240,1250,1211,1231,2630,1231
2011/09/26,1193,1215,1152,1153,6140,1153
2011/09/27,1207,1207,1180,1195,2500,1195
2011/09/28,1204,1205,1182,1193,530,1193
2011/09/29,1173,1221,1161,1221,2570,1221
2011/09/30,1230,1230,1206,1218,2470,1218
2011/10/03,1211,1211,1191,1198,690,1198
2011/10/04,1174,1188,1164,1187,760,1187
2011/10/05,1184,1184,1160,1160,1080,1160
2011/10/06,1180,1180,1153,1172,450,1172
2011/10/07,1175,1179,1174,1175,180,1175
2011/10/11,1184,1224,1184,1205,3760,1205
2011/10/12,1210,1210,1194,1205,630,1205
2011/10/13,1211,1268,1211,1255,4200,1255
2011/10/14,1264,1265,1255,1264,5960,1264
2011/10/17,1265,1288,1260,1270,2410,1270
2011/10/18,1254,1254,1239,1242,3170,1242
2011/10/19,1245,1255,1235,1250,3310,1250
2011/10/20,1235,1237,1233,1235,560,1235
2011/10/21,1232,1232,1220,1223,2570,1223
2011/10/24,1231,1235,1229,1235,1280,1235
2011/10/25,1220,1239,1220,1225,870,1225
2011/10/26,1201,1225,1201,1225,910,1225
2011/10/27,1229,1235,1227,1235,640,1235
2011/10/28,1256,1256,1235,1239,11620,1239
2011/10/31,1226,1252,1226,1251,3070,1251
2011/11/01,1231,1231,1207,1215,3100,1215
2011/11/02,1189,1195,1181,1184,2850,1184
2011/11/04,1190,1195,1187,1191,1400,1191
2011/11/07,1189,1200,1182,1192,910,1192
2011/11/08,1206,1224,1200,1201,3000,1201
2011/11/09,1195,1207,1195,1207,520,1207
2011/11/10,1194,1194,1171,1183,2600,1183
2011/11/11,1180,1188,1178,1185,50,1185
2011/11/14,1187,1200,1187,1198,980,1198
2011/11/15,1198,1198,1183,1183,880,1183
2011/11/16,1174,1190,1165,1165,720,1165
2011/11/17,1161,1170,1156,1170,440,1170
2011/11/18,1155,1157,1140,1157,2460,1157
2011/11/21,1141,1150,1135,1135,870,1135
2011/11/22,1143,1143,1125,1141,1070,1141
2011/11/24,1123,1141,1122,1138,1300,1138
2011/11/25,1142,1142,1130,1142,30,1142
2011/11/28,1150,1158,1146,1158,920,1158
2011/11/29,1176,1176,1166,1172,890,1172
2011/11/30,1168,1180,1165,1180,1210,1180
2011/12/01,1198,1199,1182,1185,1940,1185
2011/12/02,1197,1197,1161,1192,1570,1192
2011/12/05,1218,1229,1201,1204,2320,1204
2011/12/06,1210,1222,1205,1205,3470,1205
2011/12/07,1215,1215,1204,1206,580,1206
2011/12/08,1194,1210,1194,1195,470,1195
2011/12/09,1190,1200,1180,1200,1730,1200
2011/12/12,1214,1214,1205,1209,280,1209
2011/12/13,1200,1215,1200,1213,1040,1213
2011/12/14,1216,1216,1207,1207,240,1207
2011/12/15,1209,1209,1178,1178,2020,1178
2011/12/16,1199,1200,1178,1182,430,1182
2011/12/19,1194,1200,1112,1164,27690,1164
2011/12/20,1165,1180,1165,1180,960,1180
2011/12/21,1199,1199,1172,1186,2520,1186
2011/12/22,1190,1190,1161,1170,7520,1170
2011/12/26,1169,1174,1145,1147,7050,1147
2011/12/27,1148,1153,1147,1149,1350,1149
2011/12/28,1148,1160,1148,1155,3040,1155
2011/12/29,1150,1159,1147,1151,660,1151
2011/12/30,1154,1169,1150,1164,1180,1164
2012/01/04,1182,1182,1164,1181,1830,1181
2012/01/05,1160,1175,1160,1175,1390,1175
2012/01/06,1163,1170,1155,1163,830,1163
2012/01/10,1167,1167,1162,1162,310,1162
2012/01/11,1160,1160,1150,1158,790,1158
2012/01/12,1158,1158,1131,1142,930,1142
2012/01/13,1137,1150,1137,1150,1540,1150
2012/01/16,1143,1149,1135,1135,570,1135
2012/01/17,1151,1151,1123,1130,1170,1130
2012/01/18,1123,1136,1121,1125,1650,1125
2012/01/19,1123,1144,1123,1130,560,1130
2012/01/20,1126,1140,1123,1140,2200,1140
2012/01/23,1149,1155,1144,1155,750,1155
2012/01/24,1150,1157,1140,1157,4150,1157
2012/01/25,1155,1160,1155,1158,620,1158
2012/01/26,1153,1155,1145,1148,3340,1148
2012/01/27,1145,1145,1138,1140,1800,1140
2012/01/30,1130,1149,1130,1149,980,1149
2012/01/31,1130,1145,1130,1144,460,1144
2012/02/01,1144,1150,1132,1149,920,1149
2012/02/02,1153,1160,1148,1148,2800,1148
2012/02/03,1145,1150,1145,1150,860,1150
2012/02/06,1151,1160,1151,1158,3210,1158
2012/02/07,1158,1161,1146,1153,900,1153
2012/02/08,1158,1170,1158,1170,3920,1170
2012/02/09,1177,1196,1166,1196,5230,1196
2012/02/10,1205,1207,1192,1193,2950,1193
2012/02/13,1200,1201,1195,1198,400,1198
2012/02/14,1200,1200,1191,1197,500,1197
2012/02/15,1199,1200,1197,1199,970,1199
2012/02/16,1191,1201,1190,1199,3320,1199
2012/02/17,1206,1206,1199,1200,2600,1200
2012/02/20,1202,1210,1201,1202,1610,1202
2012/02/21,1200,1219,1200,1216,3530,1216
2012/02/22,1225,1237,1221,1237,6840,1237
2012/02/23,1260,1260,1245,1260,4100,1260
2012/02/24,1261,1261,1250,1259,5470,1259
2012/02/27,1258,1265,1256,1256,5440,1256
2012/02/28,1254,1254,1225,1235,2800,1235
2012/02/29,1235,1240,1227,1228,2270,1228
2012/03/01,1227,1234,1218,1218,1010,1218
2012/03/02,1211,1228,1203,1228,1430,1228
2012/03/05,1235,1235,1216,1220,1370,1220
2012/03/06,1222,1222,1216,1218,1730,1218
2012/03/07,1207,1212,1200,1205,1860,1205
2012/03/08,1201,1237,1201,1224,4590,1224
2012/03/09,1242,1244,1231,1232,1470,1232
2012/03/12,1239,1240,1232,1240,4010,1240
2012/03/13,1250,1260,1247,1252,3000,1252
2012/03/14,1268,1272,1260,1271,4900,1271
2012/03/15,1269,1269,1246,1247,5790,1247
2012/03/16,1250,1250,1244,1246,1660,1246
2012/03/19,1255,1255,1243,1243,3530,1243
2012/03/21,1243,1250,1243,1250,2880,1250
2012/03/22,1249,1249,1246,1249,520,1249
2012/03/23,1240,1247,1240,1245,850,1245
2012/03/26,1244,1244,1237,1237,1060,1237
2012/03/27,1235,1244,1230,1240,2700,1240
2012/03/28,1240,1240,1232,1236,2340,1236
2012/03/29,1247,1247,1239,1246,810,1246
2012/03/30,1245,1246,1236,1240,910,1240
2012/04/02,1249,1249,1241,1241,1820,1241
2012/04/03,1244,1245,1240,1240,390,1240
2012/04/04,1240,1245,1205,1208,4960,1208
2012/04/05,1200,1220,1182,1220,8810,1220
2012/04/06,1215,1223,1215,1220,200,1220
2012/04/09,1222,1222,1201,1216,320,1216
2012/04/10,1226,1226,1210,1219,690,1219
2012/04/11,1199,1218,1199,1200,1310,1200
2012/04/12,1200,1220,1200,1203,710,1203
2012/04/13,1227,1239,1222,1238,1440,1238
2012/04/16,1237,1237,1223,1227,480,1227
2012/04/17,1220,1225,1220,1221,500,1221
2012/04/18,1226,1233,1226,1231,320,1231
2012/04/19,1222,1234,1222,1225,520,1225
2012/04/20,1228,1230,1228,1228,560,1228
2012/04/23,1249,1249,1236,1236,620,1236
2012/04/24,1230,1231,1200,1223,2160,1223
2012/04/25,1223,1224,1223,1224,170,1224
2012/04/26,1241,1241,1223,1227,430,1227
2012/04/27,1238,1238,1223,1236,1090,1236
2012/05/01,1238,1238,1227,1227,2020,1227
2012/05/02,1233,1240,1227,1240,570,1240
2012/05/07,1220,1230,1181,1181,2310,1181
2012/05/08,1163,1199,1163,1190,1470,1190
2012/05/09,1182,1194,1182,1184,450,1184
2012/05/10,1163,1180,1163,1180,1470,1180
2012/05/11,1180,1190,1161,1162,1440,1162
2012/05/14,1153,1156,1140,1150,1480,1150
2012/05/15,1137,1137,1031,1112,4280,1112
2012/05/16,1124,1125,1119,1119,580,1119
2012/05/17,1115,1135,1115,1135,720,1135
2012/05/18,1135,1135,1108,1109,2640,1109
2012/05/21,1111,1111,1101,1110,1360,1110
2012/05/22,1110,1126,1110,1125,500,1125
2012/05/23,1125,1125,1098,1105,3310,1105
2012/05/24,1098,1098,1080,1097,2920,1097
2012/05/25,1095,1112,1087,1089,1430,1089
2012/05/28,1111,1111,1065,1072,1270,1072
2012/05/29,1061,1095,1060,1080,1230,1080
2012/05/30,1080,1080,1072,1078,130,1078
2012/05/31,1050,1060,1050,1060,6960,1060
2012/06/01,1060,1060,1051,1051,180,1051
2012/06/04,1031,1040,1028,1040,1720,1040
2012/06/05,1021,1043,1021,1043,270,1043
2012/06/06,1049,1051,1045,1051,240,1051
2012/06/07,1078,1078,1044,1071,760,1071
2012/06/08,1078,1079,1045,1064,880,1064
2012/06/11,1069,1070,1068,1068,760,1068
2012/06/12,1061,1067,1059,1067,550,1067
2012/06/13,1070,1070,1069,1069,110,1069
2012/06/14,1065,1070,1063,1070,270,1070
2012/06/15,1066,1075,1066,1075,420,1075
2012/06/18,1065,1095,1065,1095,1080,1095
2012/06/19,1095,1095,1080,1080,730,1080
2012/06/20,1080,1097,1080,1090,280,1090
2012/06/21,1099,1103,1095,1097,540,1097
2012/06/22,1070,1110,1070,1110,940,1110
2012/06/25,1120,1125,1110,1110,780,1110
2012/06/26,1105,1109,1085,1106,610,1106
2012/06/27,1095,1103,1085,1100,450,1100
2012/06/28,1098,1129,1098,1120,670,1120
2012/06/29,1128,1128,1110,1120,670,1120
2012/07/02,1149,1149,1127,1127,980,1127
2012/07/03,1127,1131,1127,1127,370,1127
2012/07/04,1144,1144,1117,1119,560,1119
2012/07/05,1119,1125,1119,1120,520,1120
2012/07/06,1121,1121,1115,1121,350,1121
2012/07/09,1121,1121,1115,1116,280,1116
2012/07/10,1122,1122,1110,1110,380,1110
2012/07/11,1109,1109,1101,1102,250,1102
2012/07/12,1106,1106,1088,1106,630,1106
2012/07/13,1108,1109,1095,1105,370,1105
2012/07/17,1089,1090,1089,1090,880,1090
2012/07/18,1109,1109,1086,1094,410,1094
2012/07/19,1094,1094,1094,1094,80,1094
2012/07/20,1094,1094,1086,1086,50,1086
2012/07/23,1085,1087,1067,1067,370,1067
2012/07/24,1080,1080,1058,1064,500,1064
2012/07/25,1075,1083,1041,1044,1260,1044
2012/07/26,1038,1076,1038,1064,1260,1064
2012/07/27,1077,1077,1065,1070,1170,1070
2012/07/30,1080,1080,1056,1056,150,1056
2012/07/31,1065,1070,1060,1070,460,1070
2012/08/01,1069,1069,1048,1068,30,1068
2012/08/02,1069,1070,1064,1064,190,1064
2012/08/03,1053,1053,1050,1050,160,1050
2012/08/06,1060,1069,1050,1069,280,1069
2012/08/07,1041,1070,1041,1070,590,1070
2012/08/08,1074,1074,1055,1060,960,1060
2012/08/09,1053,1071,1053,1068,920,1068
2012/08/10,1083,1083,1078,1078,230,1078
2012/08/13,1065,1065,1065,1065,20,1065
2012/08/14,1060,1065,1057,1065,1100,1065
2012/08/15,1062,1070,1056,1056,260,1056
2012/08/16,1050,1061,1041,1061,1350,1061
2012/08/17,1070,1099,1062,1064,880,1064
2012/08/20,1079,1079,1073,1077,450,1077
2012/08/21,1073,1079,1072,1072,380,1072
2012/08/22,1071,1080,1067,1067,390,1067
2012/08/23,1067,1099,1067,1071,360,1071
2012/08/24,1066,1080,1066,1080,280,1080
2012/08/27,1053,1090,1041,1080,2810,1080
2012/08/28,1069,1078,1055,1078,370,1078
2012/08/29,1053,1088,1053,1079,370,1079
2012/08/30,1079,1079,1060,1062,360,1062
2012/08/31,1052,1067,1052,1056,970,1056
2012/09/03,1058,1077,1051,1051,2870,1051
2012/09/04,1054,1055,1050,1050,160,1050
2012/09/05,1046,1071,1043,1062,470,1062
2012/09/06,1040,1063,1040,1062,630,1062
2012/09/07,1072,1072,1037,1052,1590,1052
2012/09/10,1069,1070,1062,1062,110,1062
2012/09/11,1069,1069,1062,1062,70,1062
2012/09/12,1072,1089,1068,1080,1630,1080
2012/09/13,1070,1091,1070,1086,1920,1086
2012/09/14,1091,1099,1077,1093,740,1093
2012/09/18,1093,1100,1093,1100,410,1100
2012/09/19,1100,1114,1100,1101,1200,1101
2012/09/20,1095,1127,1095,1115,3760,1115
2012/09/21,1111,1121,1108,1113,410,1113
2012/09/24,1097,1111,1095,1105,890,1105
2012/09/25,1111,1122,1105,1106,500,1106
2012/09/26,1102,1131,1101,1111,2510,1111
2012/09/27,1108,1113,1108,1113,90,1113
2012/09/28,1119,1155,1110,1139,2570,1139
2012/10/01,1126,1149,1125,1134,550,1134
2012/10/02,1132,1144,1127,1134,330,1134
2012/10/03,1135,1163,1135,1136,2630,1136
2012/10/04,1141,1164,1141,1161,1210,1161
2012/10/05,1168,1195,1168,1195,1400,1195
2012/10/09,1195,1198,1189,1189,1140,1189
2012/10/10,1189,1189,1141,1179,600,1179
2012/10/11,1145,1175,1143,1147,200,1147
2012/10/12,1145,1157,1145,1145,230,1145
2012/10/15,1141,1145,1112,1133,1300,1133
2012/10/16,1125,1140,1125,1135,270,1135
2012/10/17,1150,1152,1144,1152,160,1152
2012/10/18,1157,1170,1157,1169,2080,1169
2012/10/19,1158,1170,1157,1165,250,1165
2012/10/22,1165,1190,1164,1190,2720,1190
2012/10/23,1190,1192,1186,1192,230,1192
2012/10/24,1185,1198,1155,1188,2710,1188
2012/10/25,1189,1197,1189,1189,280,1189
2012/10/26,1194,1194,1180,1180,160,1180
2012/10/29,1180,1182,1180,1182,100,1182
2012/10/30,1173,1184,1166,1166,240,1166
2012/10/31,1166,1167,1158,1161,270,1161
2012/11/01,1167,1180,1167,1180,90,1180
2012/11/02,1178,1187,1174,1182,1410,1182
2012/11/05,1187,1190,1182,1188,360,1188
2012/11/06,1185,1191,1180,1180,1130,1180
2012/11/07,1180,1183,1170,1180,430,1180
2012/11/08,1155,1178,1155,1161,140,1161
2012/11/09,1155,1206,1155,1183,2610,1183
2012/11/12,1207,1234,1205,1210,2580,1210
2012/11/13,1217,1217,1200,1200,430,1200
2012/11/14,1215,1273,1215,1244,4100,1244
2012/11/15,1259,1299,1259,1280,4000,1280
2012/11/16,1308,1309,1232,1232,4220,1232
2012/11/19,1262,1297,1262,1297,5880,1297
2012/11/20,1297,1297,1252,1289,2630,1289
2012/11/21,1277,1290,1242,1289,560,1289
2012/11/22,1280,1294,1280,1280,1020,1280
2012/11/26,1290,1290,1272,1285,450,1285
2012/11/27,1260,1285,1260,1265,930,1265
2012/11/28,1267,1300,1267,1283,5490,1283
2012/11/29,1288,1320,1281,1319,2680,1319
2012/11/30,1311,1331,1273,1314,3710,1314
2012/12/03,1340,1340,1325,1336,5180,1336
2012/12/04,1325,1332,1313,1331,4220,1331
2012/12/05,1310,1330,1310,1329,420,1329
2012/12/06,1330,1349,1300,1319,7430,1319
2012/12/07,1314,1355,1314,1352,2600,1352
2012/12/10,1340,1375,1337,1374,4820,1374
2012/12/11,1378,1409,1356,1409,5650,1409
2012/12/12,1402,1420,1385,1417,3960,1417
2012/12/13,1399,1431,1399,1408,1650,1408
2012/12/14,1411,1413,1395,1400,850,1400
2012/12/17,1450,1522,1410,1461,19320,1461
2012/12/18,1479,1495,1460,1478,1550,1478
2012/12/19,1478,1494,1478,1492,5230,1492
2012/12/20,1490,1490,1421,1424,5540,1424
2012/12/21,1439,1450,1421,1421,1140,1421
2012/12/25,1451,1465,1435,1465,2640,1465
2012/12/26,1441,1479,1441,1462,2670,1462
2012/12/27,1475,1479,1451,1451,1460,1451
2012/12/28,1485,1485,1462,1462,2280,1462
2013/01/04,1505,1509,1488,1490,2150,1490
2013/01/07,1495,1506,1490,1506,2610,1506
2013/01/08,1530,1559,1501,1522,7120,1522
2013/01/09,1525,1526,1516,1516,1140,1516
2013/01/10,1525,1555,1525,1555,7990,1555
2013/01/11,1571,1684,1559,1597,18280,1597
2013/01/15,1650,1779,1650,1729,16600,1729
2013/01/16,1735,1755,1681,1710,8270,1710
2013/01/17,1710,1749,1665,1700,6330,1700
2013/01/18,1740,1850,1721,1847,24260,1847
2013/01/21,1850,1920,1836,1886,11150,1886
2013/01/22,1900,1980,1880,1969,14410,1969
2013/01/23,1970,1979,1850,1908,14330,1908
2013/01/24,1902,1978,1857,1944,9250,1944
2013/01/25,1990,2041,1950,2041,13170,2041
2013/01/28,2049,2195,2049,2191,26790,2191
2013/01/29,2198,2200,2027,2043,51640,2043
2013/01/30,1998,2013,1887,1962,27390,1962
2013/01/31,1951,1960,1921,1946,5920,1946
2013/02/01,1929,1982,1927,1935,9130,1935
2013/02/04,2030,2030,1876,1913,15610,1913
2013/02/05,1850,1939,1810,1911,6660,1911
2013/02/06,1948,2019,1948,1961,18760,1961
2013/02/07,1988,1988,1913,1965,3560,1965
2013/02/08,1963,2000,1921,1992,7790,1992
2013/02/12,2042,2042,2010,2010,4820,2010
2013/02/13,2000,2000,1922,1981,8520,1981
2013/02/14,1999,2049,1988,2011,6000,2011
2013/02/15,2091,2250,2091,2250,57620,2250
2013/02/18,2450,2644,2321,2620,241580,2620
2013/02/19,2480,2660,2372,2560,281400,2560
2013/02/20,2617,2825,2610,2790,225110,2790
2013/02/21,2800,2839,2600,2679,209010,2679
2013/02/22,2580,2695,2560,2680,105940,2680
2013/02/25,2730,2739,2630,2647,41140,2647
2013/02/26,2570,2670,2570,2601,29640,2601
2013/02/27,2616,2660,2616,2630,20630,2630
2013/02/28,2694,2694,2640,2670,19970,2670
2013/03/01,2697,2947,2677,2918,136660,2918
2013/03/04,3000,3065,2930,3040,97620,3040
2013/03/05,3065,3300,3015,3250,144650,3250
2013/03/06,3350,3365,3240,3350,110260,3350
2013/03/07,3380,3555,3300,3555,123960,3555
2013/03/08,3570,3840,3150,3490,259150,3490
2013/03/11,3525,3650,3315,3480,151490,3480
2013/03/12,3435,3435,3270,3270,116650,3270
2013/03/13,3140,3385,3070,3300,162220,3300
2013/03/14,3340,3450,3300,3450,103010,3450
2013/03/15,3550,3600,3460,3550,98100,3550
2013/03/18,3560,3590,3450,3465,78230,3465
2013/03/19,3520,3550,3475,3550,44320,3550
2013/03/21,3600,3850,3585,3850,167680,3850
2013/03/22,3920,3920,3780,3895,132160,3895
2013/03/25,3960,3980,3650,3870,156330,3870
2013/03/26,3700,3865,3655,3795,137740,3795
2013/03/27,3850,3850,3550,3725,132870,3725
2013/03/28,3630,3710,3585,3665,62210,3665
2013/03/29,3675,3690,3555,3580,53520,3580
2013/04/01,3570,3590,3300,3330,63070,3330
2013/04/02,3180,3450,3110,3400,70260,3400
2013/04/03,3470,3470,3380,3420,30890,3420
2013/04/04,3390,3495,3325,3495,31480,3495
2013/04/05,3600,3650,3385,3385,62940,3385
2013/04/08,3385,3445,3345,3385,44940,3385
2013/04/09,3350,3400,3315,3315,25670,3315
2013/04/10,3290,3465,3285,3460,44380,3460
2013/04/11,3540,3595,3470,3555,31910,3555
2013/04/12,3560,3595,3495,3590,18240,3590
2013/04/15,3575,3600,3520,3600,19240,3600
2013/04/16,3530,3880,3530,3880,117680,3880
2013/04/17,3940,4520,3940,4520,202770,4520
2013/04/18,4660,4860,4410,4580,274920,4580
2013/04/19,4620,4660,4380,4500,70890,4500
2013/04/22,4630,4660,4470,4610,42130,4610
2013/04/23,4595,5280,4545,5200,170130,5200
2013/04/24,5360,5970,5220,5970,282420,5970
2013/04/25,6470,6970,5900,6970,625540,6970
2013/04/26,6500,6820,5970,6100,396750,6100
2013/04/30,6300,6480,6180,6400,113310,6400
2013/05/01,6360,6390,5860,5870,107090,5870
2013/05/02,5680,6320,5510,6280,201690,6280
2013/05/07,6580,6590,6350,6480,109150,6480
2013/05/08,6500,6620,6250,6590,131760,6590
2013/05/09,6590,6630,6460,6500,69460,6500
2013/05/10,7500,7500,7140,7500,195240,7500
2013/05/13,9000,9000,8900,9000,152040,9000
2013/05/14,10500,10500,9500,9980,395700,9980
2013/05/15,10410,10490,8490,8820,260250,8820
2013/05/16,9090,9650,7500,8800,287250,8800
2013/05/17,7900,8860,7900,8430,148430,8430
2013/05/20,8860,8880,8260,8330,83700,8330
2013/05/21,8070,8090,7120,7260,147410,7260
2013/05/22,6860,8090,6450,7320,286360,7320
2013/05/23,7020,7560,6410,6410,138490,6410
2013/05/24,6990,7410,6450,7400,215130,7400
2013/05/27,7100,7670,6750,7150,135150,7150
2013/05/28,7300,8000,7260,8000,129590,8000
2013/05/29,8300,8300,7710,7850,86690,7850
2013/05/30,7460,7710,7010,7460,63570,7460
2013/05/31,7690,8070,7420,7960,90020,7960
2013/06/03,7810,8110,7610,7730,62670,7730
2013/06/04,7710,8030,7600,7900,40440,7900
2013/06/05,7890,7960,7460,7550,30260,7550
2013/06/06,7100,7430,6300,6750,73350,6750
2013/06/07,6310,6650,5800,6220,108170,6220
2013/06/10,7160,7220,6900,7220,58780,7220
2013/06/11,7590,8150,7410,7870,110510,7870
2013/06/12,7610,7960,7360,7960,53300,7960
2013/06/13,7740,7890,7630,7760,28190,7760
2013/06/14,8000,8250,7700,7720,60330,7720
2013/06/17,7800,7930,7610,7790,19140,7790
2013/06/18,7890,8010,7820,7820,17300,7820
2013/06/19,8030,8030,7670,7810,10830,7810
2013/06/20,7620,7910,7620,7720,9600,7720
2013/06/21,7570,7820,7460,7690,12900,7690
2013/06/24,7840,7860,7660,7690,7000,7690
2013/06/25,7720,7720,7340,7510,11990,7510
2013/06/26,7440,7480,6200,6400,39000,6400
2013/06/27,6400,6900,6000,6530,27290,6530
2013/06/28,6670,7030,6500,6930,25890,6930
2013/07/01,7120,7900,7120,7870,41100,7870
2013/07/02,8010,8080,7710,7940,28020,7940
2013/07/03,7850,7850,7620,7660,8350,7660
2013/07/04,7450,7550,7200,7420,15790,7420
2013/07/05,7570,7700,7530,7530,7110,7530
2013/07/08,7700,7750,7300,7300,13490,7300
2013/07/09,7230,7400,6800,6850,27100,6850
2013/07/10,6550,7050,6520,6760,24040,6760
2013/07/11,6780,6830,6680,6760,8270,6760
2013/07/12,6850,7020,6760,6800,9220,6800
2013/07/16,6900,7000,6700,6720,7380,6720
2013/07/17,6660,6700,6310,6400,25670,6400
2013/07/18,6370,6810,6360,6810,21550,6810
2013/07/19,6800,6820,6500,6600,14370,6600
2013/07/22,6700,6740,6520,6600,5860,6600
2013/07/23,6550,6660,6510,6510,5270,6510
2013/07/24,6490,6650,6430,6500,7690,6500
2013/07/25,6480,6670,6450,6500,33930,6500
2013/07/26,6470,6580,6410,6500,6200,6500
2013/07/29,6780,7240,6500,6970,39000,6970
2013/07/30,6270,6440,6150,6270,27260,6270
2013/07/31,6340,6400,5570,5630,42080,5630
2013/08/01,5330,5710,4950,5480,47480,5480
2013/08/02,5650,5830,5500,5720,17770,5720
2013/08/05,5520,5800,5520,5600,7930,5600
2013/08/06,5400,5420,5150,5280,24400,5280
2013/08/07,5020,5200,4800,4830,44790,4830
2013/08/08,4830,5170,4800,4805,29740,4805
2013/08/09,5150,5170,4920,5130,27000,5130
2013/08/12,4930,5020,4750,4775,16910,4775
2013/08/13,4830,4960,4810,4835,9000,4835
2013/08/14,4965,5050,4845,4955,14430,4955
2013/08/15,4885,4945,4850,4885,5280,4885
2013/08/16,4850,4990,4825,4900,5100,4900
2013/08/19,4920,5030,4875,5030,5420,5030
2013/08/20,4970,5070,4910,4935,7000,4935
2013/08/21,4905,4970,4800,4800,6710,4800
2013/08/22,4710,4730,4530,4560,13130,4560
2013/08/23,4630,4650,4295,4305,20200,4305
2013/08/26,4195,4480,4190,4480,15750,4480
2013/08/27,4410,4910,4335,4800,16070,4800
2013/08/28,4660,5050,4530,4530,39030,4530
2013/08/29,4740,4840,4700,4790,17040,4790
2013/08/30,4920,5010,4815,4850,8560,4850
2013/09/02,4920,5050,4880,4950,7210,4950
2013/09/03,5080,5320,4905,5150,20740,5150
2013/09/04,5050,5330,5020,5250,11210,5250
2013/09/05,5360,5730,5290,5600,28660,5600
2013/09/06,5700,5940,5510,5540,58200,5540
2013/09/09,5840,5880,5500,5600,17380,5600
2013/09/10,5600,5600,5260,5310,19200,5310
2013/09/11,5230,5550,5150,5460,20850,5460
2013/09/12,5520,5580,5380,5460,7160,5460
2013/09/13,5530,5530,5420,5490,7130,5490
2013/09/17,5500,5620,5450,5570,9400,5570
2013/09/18,5620,6000,5510,5900,33680,5900
2013/09/19,6090,6100,5840,5940,25340,5940
2013/09/20,5960,5990,5840,5900,7690,5900
2013/09/24,5880,5910,5810,5810,6280,5810
2013/09/25,5740,5750,5520,5520,6010,5520
2013/09/26,5500,5720,5500,5670,8060,5670
2013/09/27,5620,5830,5620,5830,6990,5830
2013/09/30,5790,5820,5700,5710,6110,5710
2013/10/01,5750,5830,5640,5730,4980,5730
2013/10/02,5630,5710,5560,5610,4870,5610
2013/10/03,5510,5560,5440,5520,6630,5520
2013/10/04,5420,5650,5420,5530,8850,5530
2013/10/07,5630,5640,5250,5260,9000,5260
2013/10/08,5060,5240,5040,5210,10170,5210
2013/10/09,5140,5450,5100,5340,10000,5340
2013/10/10,5380,5400,5250,5330,2940,5330
2013/10/11,5510,5510,5410,5450,10540,5450
2013/10/15,5540,5540,5420,5440,3470,5440
2013/10/16,6000,6180,5790,5930,90720,5930
2013/10/17,6020,6070,5770,5800,42070,5800
2013/10/18,5800,6000,5800,5950,20730,5950
2013/10/21,5950,6050,5900,6000,12110,6000
2013/10/22,6050,6050,5960,6010,8910,6010
2013/10/23,6030,6030,5910,5910,9840,5910
2013/10/24,5920,6050,5910,5990,8600,5990
2013/10/25,6010,6020,5900,5950,6790,5950
2013/10/28,5960,6060,5960,6050,11330,6050
2013/10/29,6000,6100,5900,5920,11030,5920
2013/10/30,5320,5370,4975,5000,125140,5000
2013/10/31,5100,5370,5000,5140,53530,5140
2013/11/01,5200,5260,4960,5100,20150,5100
2013/11/05,5000,5100,4980,5020,8160,5020
2013/11/06,4980,5090,4835,4875,27890,4875
2013/11/07,4920,4940,4855,4880,8650,4880
2013/11/08,4850,4905,4805,4815,5800,4815
2013/11/11,4815,4830,4690,4695,10260,4695
2013/11/12,4570,4780,4555,4730,16090,4730
2013/11/13,4740,4905,4720,4865,10640,4865
2013/11/14,4860,5120,4860,4990,21940,4990
2013/11/15,5050,5130,5000,5080,21200,5080
2013/11/18,5180,5180,5100,5120,14770,5120
2013/11/19,5120,5240,5120,5180,19360,5180
2013/11/20,5210,5210,5140,5160,6470,5160
2013/11/21,5170,5170,5130,5170,5410,5170
2013/11/22,5170,5220,5000,5100,16080,5100
2013/11/25,5130,5130,5000,5010,7780,5010
2013/11/26,4980,5180,4930,5180,18560,5180
2013/11/27,5200,5370,5190,5270,38370,5270
2013/11/28,5330,5360,5230,5340,11510,5340
2013/11/29,5390,5390,5310,5340,9360,5340
2013/12/02,5360,5640,5360,5600,29700,5600
2013/12/03,5690,5840,5640,5800,33070,5800
2013/12/04,5750,5780,5610,5760,22470,5760
2013/12/05,5790,5940,5740,5870,32940,5870
2013/12/06,5870,5900,5710,5900,13290,5900
2013/12/09,5940,6030,5890,5940,31100,5940
2013/12/10,5940,5980,5480,5850,23100,5850
2013/12/11,5850,5850,5600,5650,14160,5650
2013/12/12,5520,5820,5460,5730,32780,5730
2013/12/13,5760,5760,5680,5680,5690,5680
2013/12/16,5670,5700,5410,5450,8910,5450
2013/12/17,5540,5600,5470,5530,6370,5530
2013/12/18,5550,5570,5480,5510,9140,5510
2013/12/19,5690,5690,5470,5490,17130,5490
2013/12/20,5570,5590,5460,5570,10830,5570
2013/12/24,5550,5570,5370,5370,23200,5370
2013/12/25,5370,5550,5360,5550,18100,5550
2013/12/26,5630,6120,5520,6070,71490,6070
2013/12/27,6270,6270,5910,6070,57610,6070
2013/12/30,6090,6210,5980,6190,34760,6190
2014/01/06,6200,6260,6020,6080,19310,6080
2014/01/07,6020,6040,5900,5910,11470,5910
2014/01/08,6020,6150,5990,6140,11300,6140
2014/01/09,6100,6190,6070,6130,13050,6130
2014/01/10,6150,6190,6060,6100,13980,6100
2014/01/14,5950,6080,5920,5950,21170,5950
2014/01/15,6100,6100,6000,6020,6630,6020
2014/01/16,6070,6100,5900,5940,8990,5940
2014/01/17,5910,6010,5850,6000,8130,6000
2014/01/20,6020,6030,5930,5950,4650,5950
2014/01/21,5980,6110,5960,6060,14470,6060
2014/01/22,6100,6130,6060,6110,7630,6110
2014/01/23,6110,6130,5940,5960,11220,5960
2014/01/24,5820,6050,5700,5920,23250,5920
2014/01/27,5560,5710,5560,5580,18300,5580
2014/01/28,5600,5790,5580,5600,11680,5600
2014/01/29,5780,5920,5760,5880,12980,5880
2014/01/30,5680,5770,5610,5700,8040,5700
2014/01/31,5780,5820,5550,5620,8440,5620
2014/02/03,5570,5580,5400,5430,14610,5430
2014/02/04,5140,5490,5080,5300,40470,5300
2014/02/05,5500,5550,5100,5290,18350,5290
2014/02/06,5340,5690,5340,5570,11950,5570
2014/02/07,5670,5700,5550,5590,8070,5590
2014/02/10,5570,5720,5570,5710,8370,5710
2014/02/12,5880,5900,5770,5830,12160,5830
2014/02/13,5820,5820,5650,5710,5240,5710
2014/02/14,5660,5700,5480,5520,6990,5520
2014/02/17,5530,5600,5400,5480,3340,5480
2014/02/18,5580,5810,5580,5810,8150,5810
2014/02/19,5720,5880,5690,5690,5060,5690
2014/02/20,5700,5910,5610,5640,15270,5640
2014/02/21,5700,5770,5640,5640,8550,5640
2014/02/24,5660,5880,5650,5810,9100,5810
2014/02/25,5900,6200,5850,6080,37800,6080
2014/02/26,6010,6080,5940,5990,11740,5990
2014/02/27,5960,5960,5740,5780,14700,5780
2014/02/28,5830,5830,5650,5670,4420,5670
2014/03/03,5610,5680,5470,5630,8530,5630
2014/03/04,5530,5720,5530,5700,3820,5700
2014/03/05,5780,5850,5750,5750,7380,5750
2014/03/06,5770,5910,5700,5860,6770,5860
2014/03/07,5870,5890,5850,5850,3740,5850
2014/03/10,5830,5880,5830,5870,2880,5870
2014/03/11,5880,5880,5800,5830,2140,5830
2014/03/12,5710,5750,5710,5710,1860,5710
2014/03/13,5680,5750,5630,5630,1830,5630
2014/03/14,5550,5620,5420,5470,9030,5470
2014/03/17,5470,5490,5330,5370,5090,5370
2014/03/18,5500,5530,5380,5430,7630,5430
2014/03/19,5460,5460,5250,5370,3130,5370
2014/03/20,5300,5340,5130,5140,4780,5140
2014/03/24,5170,5260,5140,5170,2300,5170
2014/03/25,5100,5100,4885,4885,14080,4885
2014/03/26,4860,5010,4850,4950,9100,4950
2014/03/27,4815,4990,4730,4965,14410,4965
2014/03/28,4905,5070,4905,5060,5920,5060
2014/03/31,5070,5090,5000,5030,5810,5030
2014/04/01,5070,5070,4940,5050,5500,5050
2014/04/02,5090,5140,5060,5120,3130,5120
2014/04/03,5180,5200,5120,5130,5090,5130
2014/04/04,5140,5150,5070,5090,2560,5090
2014/04/07,4975,5040,4975,5000,3890,5000
2014/04/08,4950,4950,4805,4820,13860,4820
2014/04/09,4815,4825,4765,4825,4330,4825
2014/04/10,4895,4930,4755,4820,5770,4820
2014/04/11,4610,4750,4600,4750,9840,4750
2014/04/14,4650,4750,4650,4700,5870,4700
2014/04/15,4710,4760,4640,4645,3570,4645
2014/04/16,4655,4780,4645,4760,5110,4760
2014/04/17,4900,5240,4860,5010,25850,5010
2014/04/18,5020,5050,4960,4970,4740,4970
2014/04/21,5040,5060,4910,4950,3300,4950
2014/04/22,4950,4950,4805,4805,4730,4805
2014/04/23,4850,4865,4800,4865,3080,4865
2014/04/24,4855,4900,4820,4820,1840,4820
2014/04/25,4805,4875,4800,4810,2160,4810
2014/04/28,4785,4840,4770,4820,3200,4820
2014/04/30,4995,5120,4885,4885,21390,4885
2014/05/01,4925,4950,4865,4950,6310,4950
2014/05/02,4960,4970,4935,4970,1910,4970
2014/05/07,4935,4935,4830,4850,3580,4850
2014/05/08,4875,4900,4775,4775,3580,4775
2014/05/09,4765,4765,4615,4640,9340,4640
2014/05/12,4620,4620,4550,4550,6590,4550
2014/05/13,4565,4630,4545,4605,4070,4605
2014/05/14,4550,4665,4550,4645,2150,4645
2014/05/15,4575,4715,4575,4670,2990,4670
2014/05/16,4670,4710,4610,4675,1710,4675
2014/05/19,4705,4705,4525,4525,3610,4525
2014/05/20,4500,4580,4460,4535,8920,4535
2014/05/21,4530,4720,4525,4705,8560,4705
2014/05/22,4730,4870,4705,4805,9780,4805
2014/05/23,4860,4900,4815,4840,5240,4840
2014/05/26,4900,5070,4895,4975,11740,4975
2014/05/27,5020,5100,5000,5020,7700,5020
2014/05/28,5070,5310,5050,5210,21950,5210
2014/05/29,5190,5530,5180,5530,24430,5530
2014/05/30,5610,5690,5360,5580,19110,5580
2014/06/02,5700,5720,5600,5720,15160,5720
2014/06/03,5710,5720,5560,5690,12880,5690
2014/06/04,5610,5910,5550,5880,30310,5880
2014/06/05,5930,5930,5770,5780,16240,5780
2014/06/06,5800,5990,5750,5950,18620,5950
2014/06/09,6050,6180,6000,6140,35830,6140
2014/06/10,6160,6160,5920,6030,17760,6030
2014/06/11,5930,6130,5880,6110,16280,6110
2014/06/12,6000,6130,6000,6120,7110,6120
2014/06/13,6060,6170,6050,6170,16730,6170
2014/06/16,6150,6160,6000,6070,10610,6070
2014/06/17,6010,6110,5970,6080,9770,6080
2014/06/18,6060,6110,5980,6030,24350,6030
2014/06/19,6070,6100,5810,5940,19810,5940
2014/06/20,5870,5900,5730,5820,14760,5820
2014/06/23,5800,5890,5770,5860,7800,5860
2014/06/24,5840,5890,5790,5810,5440,5810
2014/06/25,5800,5840,5650,5650,10820,5650
2014/06/26,5650,5730,5610,5710,8920,5710
2014/06/27,5630,5730,5550,5650,31330,5650
2014/06/30,5650,5740,5630,5690,6060,5690
2014/07/01,5740,5780,5720,5780,4530,5780
2014/07/02,5850,5960,5810,5930,22870,5930
2014/07/03,5980,6040,5860,5920,5720,5920
2014/07/04,5950,5980,5750,5880,6850,5880
2014/07/07,5850,5860,5780,5780,5490,5780
2014/07/08,5770,5780,5700,5770,3470,5770
2014/07/09,5660,5710,5580,5640,10890,5640
2014/07/10,5650,5670,5490,5500,4860,5500
2014/07/11,5410,5580,5390,5580,7490,5580
2014/07/14,5580,5600,5570,5580,1870,5580
2014/07/15,5590,5670,5560,5660,6030,5660
2014/07/16,5640,5660,5550,5550,2450,5550
2014/07/17,5550,5600,5470,5470,2710,5470
2014/07/18,5400,5470,5370,5450,3380,5450
2014/07/22,5470,5500,5460,5500,2380,5500
2014/07/23,5520,5530,5430,5470,4020,5470
2014/07/24,5500,5500,5460,5470,1520,5470
2014/07/25,5470,5520,5440,5520,4710,5520
2014/07/28,5480,5600,5450,5520,5670,5520
2014/07/29,5510,5540,5370,5470,9860,5470
2014/07/30,5410,5500,5400,5430,4480,5430
2014/07/31,5460,5470,5330,5330,6110,5330
2014/08/01,5290,5300,5230,5270,12300,5270
2014/08/04,5220,5410,5220,5320,6510,5320
2014/08/05,5350,5370,5160,5160,5180,5160
2014/08/06,5100,5200,5100,5130,5250,5130
2014/08/07,5120,5190,5000,5090,13100,5090
2014/08/08,5010,5040,4835,5020,13720,5020
2014/08/11,5070,5070,4990,5040,5340,5040
2014/08/12,5030,5450,5000,5270,15270,5270
2014/08/13,5240,5240,5020,5040,8550,5040
2014/08/14,5100,5120,5000,5050,6540,5050
2014/08/15,5050,5100,5010,5100,2960,5100
2014/08/18,5090,5090,4970,4970,8750,4970
2014/08/19,4970,5050,4955,4965,5230,4965
2014/08/20,5000,5020,4980,4980,790,4980
2014/08/21,4975,5080,4975,5050,4010,5050
2014/08/22,5100,5230,5090,5090,6180,5090
2014/08/25,5100,5190,5100,5150,1640,5150
2014/08/26,5120,5170,5070,5080,3420,5080
2014/08/27,5120,5190,5110,5140,1830,5140
2014/08/28,5100,5110,5040,5040,1860,5040
2014/08/29,5000,5040,5000,5020,2130,5020
2014/09/01,4980,5030,4980,5010,4530,5010
2014/09/02,4990,5050,4990,5000,2570,5000
2014/09/03,5020,5050,5020,5030,1220,5030
2014/09/04,5030,5030,4905,4935,9090,4935
2014/09/05,4935,4935,4810,4835,8860,4835
2014/09/08,4805,4910,4805,4830,7290,4830
2014/09/09,4820,4940,4820,4910,6610,4910
2014/09/10,4905,4930,4830,4850,2240,4850
2014/09/11,4830,4895,4820,4885,3410,4885
2014/09/12,4900,4960,4885,4885,4740,4885
2014/09/16,4915,4915,4850,4885,3740,4885
2014/09/17,4875,4885,4820,4845,1850,4845
2014/09/18,4895,4995,4870,4945,5930,4945
2014/09/19,4965,5040,4935,5010,5370,5010
2014/09/22,5020,5050,4990,4995,2630,4995
2014/09/24,4985,4985,4920,4925,3070,4925
2014/09/25,4965,4965,4915,4930,1450,4930
2014/09/26,4900,4925,4885,4915,2960,4915
2014/09/29,4950,4950,4890,4890,1520,4890
2014/09/30,4860,4875,4820,4825,4770,4825
2014/10/01,4820,4820,4630,4680,6970,4680
2014/10/02,4570,4635,4560,4615,6300,4615
2014/10/03,4650,4715,4630,4715,2390,4715
2014/10/06,4750,4750,4710,4710,1880,4710
2014/10/07,4675,4710,4655,4655,1750,4655
2014/10/08,4600,4630,4585,4625,4000,4625
2014/10/09,4625,4635,4530,4535,2360,4535
2014/10/10,4465,4465,4250,4320,20380,4320
2014/10/14,4160,4240,4090,4120,15870,4120
2014/10/15,4115,4190,4050,4190,10740,4190
2014/10/16,4015,4065,3955,4020,10240,4020
2014/10/17,4000,4030,3975,4030,8450,4030
2014/10/20,4200,4200,4060,4095,25530,4095
2014/10/21,4100,4125,4030,4050,5910,4050
2014/10/22,4120,4240,4100,4230,8440,4230
2014/10/23,4225,4300,4225,4245,4700,4245
2014/10/24,4350,4350,4270,4290,4960,4290
2014/10/27,4360,4385,4300,4340,2910,4340
2014/10/28,4340,4340,4315,4330,1720,4330
2014/10/29,4335,4410,4335,4380,11370,4380
2014/10/30,4290,4345,4165,4165,16050,4165
2014/10/31,4205,4250,4130,4250,11700,4250
2014/11/04,4460,4490,4275,4330,27260,4330
2014/11/05,4325,4340,4275,4340,6350,4340
2014/11/06,4360,4440,4340,4340,10050,4340
2014/11/07,4400,4400,4310,4345,3690,4345
2014/11/10,4300,4345,4285,4320,5950,4320
2014/11/11,4355,4425,4350,4380,6300,4380
2014/11/12,4440,4440,4365,4365,7150,4365
2014/11/13,4350,4355,4315,4330,3680,4330
2014/11/14,4340,4390,4325,4360,3880,4360
2014/11/17,4415,4415,4305,4305,5360,4305
2014/11/18,4330,4370,4320,4370,3920,4370
2014/11/19,4385,4400,4340,4380,2610,4380
2014/11/20,4400,4405,4345,4350,2820,4350
2014/11/21,4350,4360,4300,4360,4030,4360
2014/11/25,4380,4390,4370,4375,2360,4375
2014/11/26,4370,4380,4365,4370,2580,4370
2014/11/27,4370,4370,3995,4290,11030,4290
2014/11/28,4280,4295,4250,4270,4000,4270
2014/12/01,4295,4295,4240,4240,3280,4240
2014/12/02,4275,4295,4240,4240,5960,4240
2014/12/03,4290,4310,4250,4265,5000,4265
2014/12/04,4255,4290,4205,4215,3250,4215
2014/12/05,4200,4645,4165,4550,32730,4550
2014/12/08,4890,4910,4525,4525,35680,4525
2014/12/09,4545,4695,4510,4575,9300,4575
2014/12/10,4505,4580,4460,4550,5690,4550
2014/12/11,4350,4495,4315,4395,7940,4395
2014/12/12,4430,4435,4265,4315,5000,4315
2014/12/15,4300,4325,4250,4260,4520,4260
2014/12/16,4120,4190,4105,4115,8350,4115
2014/12/17,4030,4330,4030,4240,15180,4240
2014/12/18,4390,4390,4280,4335,4220,4335
2014/12/19,4295,4370,4285,4360,5770,4360
2014/12/22,4300,4320,4260,4270,4390,4270
2014/12/24,4200,4230,4165,4165,8990,4165
2014/12/25,4110,4175,4080,4080,12520,4080
2014/12/26,4085,4240,4085,4240,6260,4240
2014/12/29,4290,4290,4220,4250,6630,4250
2014/12/30,4185,4245,4150,4150,5110,4150
2015/01/05,4140,4245,4140,4230,5150,4230
2015/01/06,4175,4210,4130,4165,2640,4165
2015/01/07,4165,4310,4155,4205,4610,4205
2015/01/08,4300,4420,4270,4300,8840,4300
2015/01/09,4345,4345,4200,4205,2780,4205
2015/01/13,4230,4230,4170,4170,1670,4170
2015/01/14,4225,4225,4135,4150,1600,4150
2015/01/15,4115,4135,4105,4120,2270,4120
2015/01/16,4100,4125,4035,4085,5050,4085
2015/01/19,4135,4135,4000,4015,7210,4015
2015/01/20,4085,4085,3980,4030,3360,4030
2015/01/21,4000,4065,4000,4065,1460,4065
2015/01/22,4060,4060,4015,4035,1060,4035
2015/01/23,4035,4035,3920,3970,5030,3970
2015/01/26,3965,3970,3950,3960,1060,3960
2015/01/27,3980,3990,3960,3990,2120,3990
2015/01/28,3990,4000,3970,3995,950,3995
2015/01/29,3980,4035,3970,3970,2770,3970
2015/01/30,4000,4000,3955,3960,1650,3960
2015/02/02,3925,3940,3905,3920,2570,3920
2015/02/03,3955,4000,3935,3935,1680,3935
2015/02/04,3925,3950,3905,3910,2670,3910
2015/02/05,3905,3940,3905,3930,890,3930
2015/02/06,3945,3945,3905,3910,1650,3910
2015/02/09,3925,4005,3925,4000,3590,4000
2015/02/10,3990,4055,3990,4055,3830,4055
2015/02/12,4085,4110,4035,4080,4990,4080
2015/02/13,4060,4085,4045,4065,1350,4065
2015/02/16,4080,4140,4080,4125,4630,4125
2015/02/17,4120,4145,4085,4090,3290,4090
2015/02/18,4080,4115,4080,4085,1120,4085
2015/02/19,4085,4095,4075,4080,970,4080
2015/02/20,4100,4100,4070,4070,1500,4070
2015/02/23,4075,4100,4060,4060,1390,4060
2015/02/24,4050,4070,4050,4070,1900,4070
2015/02/25,4040,4085,4040,4075,4590,4075
2015/02/26,4085,4160,4085,4140,4560,4140
2015/02/27,4100,4140,4100,4110,1450,4110
2015/03/02,4120,4150,4090,4100,1560,4100
2015/03/03,4080,4125,4075,4100,2460,4100
2015/03/04,4055,4095,4050,4060,1630,4060
2015/03/05,4050,4100,4050,4100,1490,4100
2015/03/06,4115,4115,4090,4115,1750,4115
2015/03/09,4100,4110,4070,4090,830,4090
2015/03/10,4110,4110,4060,4065,750,4065
2015/03/11,4035,4095,4035,4095,1330,4095
2015/03/12,4060,4100,4060,4075,1740,4075
2015/03/13,4080,4080,4045,4045,1240,4045
2015/03/16,4035,4035,3995,3995,4940,3995
2015/03/17,3990,4025,3990,4025,540,4025
2015/03/18,4005,4030,3990,4020,2080,4020
2015/03/19,4005,4015,3990,4005,2420,4005
2015/03/20,4000,4080,4000,4050,5580,4050
2015/03/23,4065,4115,4065,4065,4130,4065
2015/03/24,4085,4085,4065,4085,1290,4085
2015/03/25,4085,4150,4070,4145,9570,4145
2015/03/26,4185,4190,4135,4180,3480,4180
2015/03/27,4160,4225,4150,4205,8280,4205
2015/03/30,4250,4265,4215,4235,4440,4235
2015/03/31,4250,4415,4250,4370,11940,4370
2015/04/01,4415,4415,4230,4295,7030,4295
2015/04/02,4250,4375,4205,4270,5730,4270
2015/04/03,4260,4260,4220,4220,2240,4220
2015/04/06,4230,4245,4190,4215,1180,4215
2015/04/07,4230,4270,4225,4235,1130,4235
2015/04/08,4245,4345,4245,4345,3500,4345
2015/04/09,4330,4330,4285,4295,4440,4295
2015/04/10,4295,4325,4265,4280,2390,4280
2015/04/13,4270,4325,4270,4325,1700,4325
2015/04/14,4345,4410,4330,4395,5120,4395
2015/04/15,4440,4450,4395,4395,4130,4395
2015/04/16,4440,4450,4380,4450,3870,4450
2015/04/17,4440,4440,4385,4405,1870,4405
2015/04/20,4345,4395,4340,4375,3420,4375
2015/04/21,4355,4400,4355,4390,2660,4390
2015/04/22,4400,4440,4400,4430,2380,4430
2015/04/23,4450,4450,4405,4405,1810,4405
2015/04/24,4400,4430,4400,4415,1960,4415
2015/04/27,4435,4435,4400,4430,660,4430
2015/04/28,4430,4430,4370,4370,1770,4370
2015/04/30,4415,4680,4415,4475,20190,4475
2015/05/01,4405,4435,4255,4255,11540,4255
2015/05/07,4270,4440,4270,4390,7820,4390
2015/05/08,4330,4590,4330,4460,9230,4460
2015/05/11,4450,4500,4450,4480,2340,4480
2015/05/12,4510,4550,4450,4460,3280,4460
2015/05/13,4435,4500,4435,4500,1140,4500
2015/05/14,4500,4520,4450,4465,1950,4465
2015/05/15,4470,4470,4420,4425,550,4425
2015/05/18,4455,4475,4420,4420,910,4420
2015/05/19,4480,4480,4420,4420,2220,4420
2015/05/20,4495,4510,4460,4510,2530,4510
2015/05/21,4510,4510,4495,4495,720,4495
2015/05/22,4495,4515,4475,4515,3410,4515
2015/05/25,4525,4535,4490,4510,2740,4510
2015/05/26,4500,4515,4480,4480,530,4480
2015/05/27,4435,4475,4415,4430,710,4430
2015/05/28,4460,4460,4420,4425,1590,4425
2015/05/29,4420,4450,4415,4435,1890,4435
2015/06/01,4450,4485,4445,4465,700,4465
2015/06/02,4510,4515,4465,4465,2700,4465
2015/06/03,4460,4495,4460,4470,1710,4470
2015/06/04,4535,4790,4535,4625,13510,4625
2015/06/05,4660,4735,4610,4735,4900,4735
2015/06/08,4735,4735,4655,4670,2840,4670
2015/06/09,4655,4655,4625,4630,2320,4630
2015/06/10,4620,4630,4600,4600,1700,4600
2015/06/11,4600,4650,4600,4650,1150,4650
2015/06/12,4670,4680,4640,4660,1290,4660
2015/06/15,4630,4660,4630,4660,890,4660
2015/06/16,4660,4670,4630,4660,2870,4660
2015/06/17,4660,4660,4620,4640,370,4640
2015/06/18,4620,4640,4590,4600,1490,4600
2015/06/19,4605,4675,4605,4620,740,4620
2015/06/22,4650,4695,4650,4655,1980,4655
2015/06/23,4700,4715,4665,4705,5050,4705
2015/06/24,4720,4800,4720,4750,13760,4750
2015/06/25,4730,4750,4700,4700,2930,4700
2015/06/26,4700,4700,4670,4695,510,4695
2015/06/29,4415,4625,4410,4570,4950,4570
2015/06/30,4485,4590,4485,4500,1660,4500
2015/07/01,4480,4570,4480,4550,2130,4550
