2011/01/04,133,133,131,133,2001500,133
2011/01/05,133,133,130,130,1752600,130
2011/01/06,132,133,131,133,1403900,133
2011/01/07,133,134,132,134,907300,134
2011/01/11,133,134,132,133,736500,133
2011/01/12,133,137,133,136,3988200,136
2011/01/13,139,142,137,138,14595700,138
2011/01/14,139,140,138,140,2147200,140
2011/01/17,141,141,136,137,3105100,137
2011/01/18,136,139,136,138,1755100,138
2011/01/19,139,139,137,138,910200,138
2011/01/20,137,137,136,136,1243200,136
2011/01/21,136,137,133,133,2152500,133
2011/01/24,134,134,131,134,1787100,134
2011/01/25,133,137,133,136,1367000,136
2011/01/26,134,136,133,133,5910600,133
2011/01/27,134,135,133,135,1183800,135
2011/01/28,133,134,130,131,1603000,131
2011/01/31,129,130,128,130,842100,130
2011/02/01,130,130,128,129,1225600,129
2011/02/02,130,134,130,134,1086500,134
2011/02/03,133,134,131,131,489600,131
2011/02/04,134,135,133,134,853100,134
2011/02/07,135,136,133,135,841000,135
2011/02/08,136,137,134,137,853900,137
2011/02/09,137,138,136,137,1632600,137
2011/02/10,137,137,135,137,765900,137
2011/02/14,138,140,138,138,3090300,138
2011/02/15,139,140,138,139,867100,139
2011/02/16,139,142,139,141,3526200,141
2011/02/17,142,143,141,142,4088500,142
2011/02/18,143,143,141,141,1522500,141
2011/02/21,141,143,141,143,1269100,143
2011/02/22,141,141,137,139,1535000,139
2011/02/23,136,138,135,137,1796000,137
2011/02/24,135,138,135,136,2081100,136
2011/02/25,135,137,135,137,991900,137
2011/02/28,137,139,135,139,806100,139
2011/03/01,139,142,139,141,1806700,141
2011/03/02,139,140,138,139,3541300,139
2011/03/03,138,139,137,138,317000,138
2011/03/04,140,140,138,138,1108600,138
2011/03/07,138,138,136,137,1047900,137
2011/03/08,136,137,135,136,460700,136
2011/03/09,136,137,136,137,712400,137
2011/03/10,136,136,133,133,1559400,133
2011/03/11,132,133,131,132,1791800,132
2011/03/14,120,125,110,121,5468400,121
2011/03/15,115,117,100,110,4572300,110
2011/03/16,113,116,110,114,6757300,114
2011/03/17,108,113,108,110,2909600,110
2011/03/18,114,116,113,114,2440400,114
2011/03/22,120,125,119,124,3296400,124
2011/03/23,124,124,121,122,1110000,122
2011/03/24,123,123,121,121,721800,121
2011/03/25,122,122,118,120,1899700,120
2011/03/28,120,121,119,120,1180600,120
2011/03/29,119,121,118,119,1996000,119
2011/03/30,119,120,117,119,3147100,119
2011/03/31,120,122,120,121,1120200,121
2011/04/01,121,123,121,121,799400,121
2011/04/04,122,122,119,119,1025400,119
2011/04/05,121,121,117,119,1824200,119
2011/04/06,119,119,116,117,1213400,117
2011/04/07,118,119,117,118,934000,118
2011/04/08,118,122,117,120,2260600,120
2011/04/11,121,121,119,120,1418700,120
2011/04/12,119,120,118,118,545900,118
2011/04/13,119,121,119,120,644800,120
2011/04/14,120,121,119,120,913200,120
2011/04/15,121,121,118,119,1280000,119
2011/04/18,119,119,118,118,368000,118
2011/04/19,116,117,115,116,1818900,116
2011/04/20,117,117,116,117,341200,117
2011/04/21,118,118,115,117,781800,117
2011/04/22,116,117,115,116,386500,116
2011/04/25,116,117,116,116,267600,116
2011/04/26,116,116,115,115,546100,115
2011/04/27,117,117,116,116,379400,116
2011/04/28,116,118,116,117,975900,117
2011/05/02,119,121,119,121,2364900,121
2011/05/06,118,120,118,120,563000,120
2011/05/09,120,121,120,120,121400,120
2011/05/10,121,122,120,121,426100,121
2011/05/11,123,123,120,121,1522500,121
2011/05/12,120,121,119,121,1047200,121
2011/05/13,121,121,116,117,2226600,117
2011/05/16,117,117,115,116,1234000,116
2011/05/17,116,117,114,116,1679900,116
2011/05/18,116,119,116,119,1411800,119
2011/05/19,119,119,115,115,687500,115
2011/05/20,115,116,114,115,1624100,115
2011/05/23,115,115,113,114,657500,114
2011/05/24,113,114,113,113,913400,113
2011/05/25,113,114,113,114,212000,114
2011/05/26,114,114,113,113,1267000,113
2011/05/27,114,115,113,114,1151000,114
2011/05/30,113,114,112,114,1448400,114
2011/05/31,113,115,113,115,2261000,115
2011/06/01,115,115,113,114,189300,114
2011/06/02,113,114,113,114,616000,114
2011/06/03,113,113,111,111,885400,111
2011/06/06,111,111,109,109,1527600,109
2011/06/07,109,111,108,111,1011200,111
2011/06/08,111,112,110,112,4543500,112
2011/06/09,110,111,110,110,575400,110
2011/06/10,111,112,110,111,841200,111
2011/06/13,110,111,109,111,1138600,111
2011/06/14,111,114,110,114,1254500,114
2011/06/15,113,113,112,112,578900,112
2011/06/16,111,113,111,112,430500,112
2011/06/17,112,112,110,111,148800,111
2011/06/20,110,112,110,110,302500,110
2011/06/21,111,112,111,112,141300,112
2011/06/22,113,114,112,114,437000,114
2011/06/23,113,115,113,114,682200,114
2011/06/24,113,116,113,116,632400,116
2011/06/27,114,115,113,115,564800,115
2011/06/28,116,117,115,115,289600,115
2011/06/29,116,117,116,116,275200,116
2011/06/30,118,119,117,119,3177100,119
2011/07/01,120,121,119,119,706800,119
2011/07/04,122,123,121,122,1147000,122
2011/07/05,122,124,122,122,2238400,122
2011/07/06,123,124,121,124,760400,124
2011/07/07,122,124,122,124,1042700,124
2011/07/08,125,125,123,123,1597500,123
2011/07/11,122,123,122,122,670300,122
2011/07/12,121,121,119,120,767600,120
2011/07/13,117,118,117,118,2130200,118
2011/07/14,118,118,116,116,679200,116
2011/07/15,116,116,115,116,1598400,116
2011/07/19,114,115,113,115,2497500,115
2011/07/20,116,117,115,116,633100,116
2011/07/21,116,116,115,115,666500,115
2011/07/22,117,120,117,119,999500,119
2011/07/25,118,119,117,117,764800,117
2011/07/26,117,119,117,118,136400,118
2011/07/27,117,117,116,116,638700,116
2011/07/28,115,116,114,116,669600,116
2011/07/29,114,116,114,115,1601300,115
2011/08/01,116,118,116,117,470900,117
2011/08/02,117,117,116,117,177500,117
2011/08/03,115,115,113,114,985400,114
2011/08/04,114,115,113,113,738000,113
2011/08/05,112,112,110,111,6801300,111
2011/08/08,109,110,108,109,1659200,109
2011/08/09,106,107,103,107,3216500,107
2011/08/10,109,109,106,107,1416100,107
2011/08/11,105,106,104,106,1691100,106
2011/08/12,107,107,104,106,1448600,106
2011/08/15,106,107,104,106,972100,106
2011/08/16,106,107,105,105,1657600,105
2011/08/17,105,107,105,106,663500,106
2011/08/18,106,107,105,106,565900,106
2011/08/19,104,105,103,105,1203200,105
2011/08/22,104,105,103,104,1435900,104
2011/08/23,103,104,103,103,772000,103
2011/08/24,104,105,102,102,2663800,102
2011/08/25,102,105,102,104,1617000,104
2011/08/26,102,104,102,104,824400,104
2011/08/29,104,104,102,104,821200,104
2011/08/30,104,106,104,106,1026500,106
2011/08/31,105,106,105,106,356700,106
2011/09/01,106,108,106,107,293900,107
2011/09/02,105,106,104,106,899900,106
2011/09/05,104,104,102,103,1560000,103
2011/09/06,102,103,101,102,1661100,102
2011/09/07,101,103,101,103,950000,103
2011/09/08,103,104,102,102,414400,102
2011/09/09,102,103,102,103,290000,103
2011/09/12,100,102,100,100,2275100,100
2011/09/13,101,103,101,103,1465100,103
2011/09/14,102,103,101,101,745900,101
2011/09/15,102,103,102,102,853300,102
2011/09/16,104,106,104,106,1334100,106
2011/09/20,104,105,103,103,1496400,103
2011/09/21,103,104,103,103,223100,103
2011/09/22,102,103,101,103,607500,103
2011/09/26,102,103,101,103,3035300,103
2011/09/27,104,106,104,106,831500,106
2011/09/28,106,109,106,108,809300,108
2011/09/29,107,110,105,110,4770700,110
2011/09/30,110,111,109,109,748400,109
2011/10/03,107,108,106,107,795100,107
2011/10/04,106,106,105,106,915100,106
2011/10/05,106,107,103,103,1501300,103
2011/10/06,104,106,104,104,293900,104
2011/10/07,105,107,104,104,624800,104
2011/10/11,106,107,105,105,606100,105
2011/10/12,105,106,105,105,1439700,105
2011/10/13,105,106,105,106,2530700,106
2011/10/14,104,106,104,105,593400,105
2011/10/17,105,107,105,106,716400,106
2011/10/18,104,106,104,104,394800,104
2011/10/19,105,106,105,106,528200,106
2011/10/20,105,106,105,105,473600,105
2011/10/21,105,106,104,105,225800,105
2011/10/24,106,106,105,106,212500,106
2011/10/25,106,106,103,105,610000,105
2011/10/26,103,104,102,103,758400,103
2011/10/27,104,108,103,108,1008000,108
2011/10/28,109,110,108,108,633200,108
2011/10/31,108,110,107,107,761600,107
2011/11/01,106,107,106,106,418600,106
2011/11/02,105,105,103,104,539300,104
2011/11/04,105,106,104,106,926800,106
2011/11/07,105,106,105,105,312600,105
2011/11/08,105,106,103,104,1274000,104
2011/11/09,104,105,103,104,2148600,104
2011/11/10,102,103,101,103,1074300,103
2011/11/11,102,103,101,103,1310500,103
2011/11/14,103,104,103,104,540600,104
2011/11/15,103,104,103,104,143300,104
2011/11/16,104,104,103,104,114800,104
2011/11/17,102,104,102,104,915900,104
2011/11/18,102,103,101,103,445800,103
2011/11/21,101,103,101,103,541100,103
2011/11/22,102,103,102,102,277800,102
2011/11/24,102,102,101,101,1186700,101
2011/11/25,101,102,100,102,646800,102
2011/11/28,102,103,101,102,1616800,102
2011/11/29,102,103,101,103,984800,103
2011/11/30,102,103,101,103,1003100,103
2011/12/01,105,106,103,104,2181400,104
2011/12/02,103,105,103,105,538100,105
2011/12/05,104,106,104,106,455000,106
2011/12/06,105,107,104,104,856000,104
2011/12/07,104,107,104,107,697800,107
2011/12/08,106,107,106,106,280900,106
2011/12/09,105,107,105,105,441500,105
2011/12/12,106,107,106,106,292400,106
2011/12/13,105,107,105,106,530500,106
2011/12/14,105,105,104,104,579600,104
2011/12/15,104,105,103,105,436900,105
2011/12/16,105,105,103,104,133600,104
2011/12/19,103,103,102,103,556400,103
2011/12/20,103,103,102,103,708600,103
2011/12/21,103,104,102,103,714700,103
2011/12/22,102,103,102,102,200500,102
2011/12/26,103,103,102,102,393000,102
2011/12/27,102,103,102,102,878900,102
2011/12/28,102,103,101,101,395300,101
2011/12/29,101,102,101,101,1465200,101
2011/12/30,102,103,101,103,690000,103
2012/01/04,103,106,103,105,1730300,105
2012/01/05,106,106,105,105,800200,105
2012/01/06,105,105,104,104,133200,104
2012/01/10,104,105,104,104,1407400,104
2012/01/11,105,106,104,105,1567000,105
2012/01/12,105,105,104,104,1005000,104
2012/01/13,105,106,104,104,389100,104
2012/01/16,103,104,102,103,761300,103
2012/01/17,103,104,103,104,278700,104
2012/01/18,104,105,103,103,912500,103
2012/01/19,104,105,104,104,513000,104
2012/01/20,106,110,106,109,2889700,109
2012/01/23,109,111,109,109,1488100,109
2012/01/24,110,111,109,109,1767500,109
2012/01/25,109,111,109,110,1167600,110
2012/01/26,110,110,109,109,460200,109
2012/01/27,109,110,109,110,219600,110
2012/01/30,110,110,108,109,910000,109
2012/01/31,109,110,108,109,359900,109
2012/02/01,109,111,109,111,565900,111
2012/02/02,111,114,111,113,1950900,113
2012/02/03,112,113,111,111,324500,111
2012/02/06,113,114,112,113,719400,113
2012/02/07,112,114,112,113,215200,113
2012/02/08,114,116,114,116,1139000,116
2012/02/09,116,118,115,118,1049600,118
2012/02/10,117,117,114,114,516000,114
2012/02/13,115,116,114,116,995000,116
2012/02/14,116,118,115,118,265300,118
2012/02/15,117,122,117,121,1747400,121
2012/02/16,119,121,118,118,1851400,118
2012/02/17,121,122,119,119,1136700,119
2012/02/20,121,122,120,122,1089900,122
2012/02/21,121,121,119,121,858900,121
2012/02/22,119,122,119,121,1115200,121
2012/02/23,120,123,119,123,1705800,123
2012/02/24,123,125,122,123,4462200,123
2012/02/27,126,127,125,125,1977500,125
2012/02/28,123,124,122,124,1020700,124
2012/02/29,126,127,123,123,1379900,123
2012/03/01,124,126,122,123,1302100,123
2012/03/02,124,125,124,125,444800,125
2012/03/05,125,125,123,123,911500,123
2012/03/06,123,124,122,123,651600,123
2012/03/07,121,122,121,122,502900,122
2012/03/08,122,125,122,124,689400,124
2012/03/09,126,128,125,126,2016800,126
2012/03/12,127,127,125,125,566200,125
2012/03/13,126,128,125,126,1243800,126
2012/03/14,128,129,128,129,580000,129
2012/03/15,129,129,127,129,1332300,129
2012/03/16,128,130,127,129,784100,129
2012/03/19,130,131,129,131,1684400,131
2012/03/21,129,130,128,129,1285900,129
2012/03/22,128,130,128,129,506400,129
2012/03/23,127,128,127,128,117000,128
2012/03/26,127,128,125,126,453300,126
2012/03/27,127,130,127,129,638300,129
2012/03/28,129,130,128,129,2196200,129
2012/03/29,128,129,127,128,734500,128
2012/03/30,128,128,125,126,1023100,126
2012/04/02,127,128,126,127,415100,127
2012/04/03,127,127,124,126,644400,126
2012/04/04,125,125,122,123,1332100,123
2012/04/05,122,122,120,122,1080000,122
2012/04/06,120,122,120,121,713000,121
2012/04/09,119,120,118,119,725300,119
2012/04/10,119,121,119,120,822300,120
2012/04/11,117,119,117,119,874000,119
2012/04/12,120,120,118,119,687900,119
2012/04/13,121,122,120,122,859500,122
2012/04/16,120,120,118,118,591400,118
2012/04/17,119,120,118,118,209000,118
2012/04/18,121,122,120,120,517600,120
2012/04/19,120,121,120,120,130700,120
2012/04/20,120,121,119,120,442500,120
2012/04/23,119,120,118,119,412600,119
2012/04/24,118,118,116,116,1136000,116
2012/04/25,118,119,117,117,235600,117
2012/04/26,118,119,117,117,205000,117
2012/04/27,118,120,117,117,449900,117
2012/05/01,116,117,114,114,1573800,114
2012/05/02,115,116,114,115,1137200,115
2012/05/07,113,113,112,112,971000,112
2012/05/08,113,113,112,113,127700,113
2012/05/09,111,112,111,111,376600,111
2012/05/10,111,112,110,110,1220900,110
2012/05/11,111,111,108,108,873800,108
2012/05/14,109,111,109,110,694500,110
2012/05/15,109,109,107,109,894000,109
2012/05/16,108,108,106,106,1848200,106
2012/05/17,106,109,106,108,1612700,108
2012/05/18,106,106,104,105,1185500,105
2012/05/21,104,106,104,104,725100,104
2012/05/22,105,107,105,107,733700,107
2012/05/23,106,106,105,105,801400,105
2012/05/24,105,106,105,105,488800,105
2012/05/25,105,106,105,105,631000,105
2012/05/28,105,106,104,106,177700,106
2012/05/29,105,106,104,105,302100,105
2012/05/30,106,106,104,105,586400,105
2012/05/31,104,104,103,104,193100,104
2012/06/01,103,104,103,104,154300,104
2012/06/04,102,102,100,101,1420900,101
2012/06/05,102,104,102,104,383700,104
2012/06/06,105,106,104,106,2634500,106
2012/06/07,107,108,106,107,495500,107
2012/06/08,108,108,105,106,534300,106
2012/06/11,107,108,106,106,338800,106
2012/06/12,105,106,104,106,302900,106
2012/06/13,105,107,104,105,669300,105
2012/06/14,105,108,105,106,328300,106
2012/06/15,107,109,106,109,1096300,109
2012/06/18,110,111,109,110,587700,110
2012/06/19,110,110,109,110,257000,110
2012/06/20,110,112,110,111,1260700,111
2012/06/21,112,113,112,113,421800,113
2012/06/22,112,113,111,111,412600,111
2012/06/25,113,113,110,110,504600,110
2012/06/26,111,111,108,109,605400,109
2012/06/27,109,112,109,112,1404000,112
2012/06/28,112,115,112,115,632700,115
2012/06/29,113,117,113,115,938400,115
2012/07/02,117,117,115,115,299700,115
2012/07/03,116,119,116,117,584900,117
2012/07/04,119,119,117,117,720400,117
2012/07/05,117,119,117,119,783000,119
2012/07/06,118,119,117,117,756000,117
2012/07/09,116,117,116,116,183000,116
2012/07/10,117,118,115,116,937500,116
2012/07/11,113,114,111,111,6804800,111
2012/07/12,112,113,110,110,897100,110
2012/07/13,110,111,110,111,220800,111
2012/07/17,110,111,110,111,739300,111
2012/07/18,110,111,109,109,191300,109
2012/07/19,109,111,109,110,462400,110
2012/07/20,110,110,106,106,1353200,106
2012/07/23,105,106,104,105,1219600,105
2012/07/24,104,105,103,105,831400,105
2012/07/25,103,105,102,104,1121500,104
2012/07/26,104,107,103,107,2338800,107
2012/07/27,109,109,107,108,1600500,108
2012/07/30,110,110,109,109,333500,109
2012/07/31,109,110,108,110,1250100,110
2012/08/01,108,109,107,108,332200,108
2012/08/02,109,111,109,110,870300,110
2012/08/03,108,108,107,108,328200,108
2012/08/06,110,110,109,109,448700,109
2012/08/07,110,110,109,110,188900,110
2012/08/08,111,112,109,109,596900,109
2012/08/09,109,111,109,110,531700,110
2012/08/10,110,111,108,109,371000,109
2012/08/13,110,110,109,109,159300,109
2012/08/14,109,109,108,109,898100,109
2012/08/15,109,109,107,108,373000,108
2012/08/16,108,110,108,108,3865100,108
2012/08/17,110,111,110,111,883800,111
2012/08/20,112,112,110,112,354100,112
2012/08/21,112,112,111,111,184300,111
2012/08/22,112,112,110,111,222400,111
2012/08/23,111,112,110,112,136600,112
2012/08/24,111,111,110,110,91100,110
2012/08/27,111,111,110,110,61200,110
2012/08/28,110,111,108,108,623200,108
2012/08/29,108,110,108,110,56900,110
2012/08/30,108,110,108,109,564600,109
2012/08/31,108,108,107,107,308400,107
2012/09/03,107,109,107,108,441100,108
2012/09/04,108,108,106,107,612700,107
2012/09/05,106,107,105,106,483200,106
2012/09/06,106,107,105,107,441900,107
2012/09/07,109,109,107,109,601900,109
2012/09/10,109,109,108,108,394500,108
2012/09/11,108,108,107,108,257700,108
2012/09/12,108,110,108,109,242100,109
2012/09/13,109,111,109,110,426400,110
2012/09/14,111,114,111,112,1202800,112
2012/09/18,113,115,112,114,526900,114
2012/09/19,113,115,113,113,873600,113
2012/09/20,113,114,112,113,860000,113
2012/09/21,113,113,112,113,134600,113
2012/09/24,113,113,112,112,231900,112
2012/09/25,113,114,112,114,1636900,114
2012/09/26,113,113,112,113,1557300,113
2012/09/27,112,114,111,112,1227400,112
2012/09/28,112,113,110,111,978300,111
2012/10/01,111,111,109,110,899000,110
2012/10/02,111,111,109,109,154900,109
2012/10/03,109,110,109,110,77200,110
2012/10/04,109,112,109,111,193900,111
2012/10/05,112,112,110,110,62300,110
2012/10/09,110,111,109,109,93100,109
2012/10/10,109,109,107,108,472400,108
2012/10/11,108,108,107,107,131200,107
2012/10/12,108,109,108,108,865000,108
2012/10/15,108,109,107,109,53300,109
2012/10/16,109,110,109,109,538300,109
2012/10/17,110,111,110,110,196200,110
2012/10/18,111,113,111,112,728400,112
2012/10/19,112,113,111,112,136000,112
2012/10/22,112,113,111,112,220100,112
2012/10/23,113,114,111,113,1596100,113
2012/10/24,111,112,111,111,1020100,111
2012/10/25,111,112,111,112,235600,112
2012/10/26,111,112,110,110,215300,110
2012/10/29,111,111,110,110,806800,110
2012/10/30,110,112,110,111,1252200,111
2012/10/31,111,111,110,111,238400,111
2012/11/01,111,112,110,111,152300,111
2012/11/02,111,112,111,111,271000,111
2012/11/05,111,112,111,112,743600,112
2012/11/06,110,111,110,111,3186700,111
2012/11/07,111,111,110,110,218800,110
2012/11/08,109,110,109,109,146300,109
2012/11/09,109,109,108,109,364600,109
2012/11/12,108,109,108,108,1186800,108
2012/11/13,109,109,107,108,606500,108
2012/11/14,108,109,108,109,159600,109
2012/11/15,108,111,108,110,332800,110
2012/11/16,112,115,112,114,1230400,114
2012/11/19,115,116,114,115,833900,115
2012/11/20,115,116,114,114,391200,114
2012/11/21,116,116,114,114,423000,114
2012/11/22,116,117,115,117,1562600,117
2012/11/26,116,118,116,116,429900,116
2012/11/27,116,117,116,117,424900,117
2012/11/28,116,117,115,115,97900,115
2012/11/29,117,117,116,116,355600,116
2012/11/30,117,118,116,116,599700,116
2012/12/03,118,118,117,118,316800,118
2012/12/04,117,117,116,116,446900,116
2012/12/05,116,117,116,116,517300,116
2012/12/06,118,118,117,118,584700,118
2012/12/07,117,119,117,118,439000,118
2012/12/10,119,120,117,118,1285200,118
2012/12/11,117,117,117,117,77500,117
2012/12/12,119,119,117,118,960700,118
2012/12/13,119,121,119,120,1127000,120
2012/12/14,120,120,118,120,981100,120
2012/12/17,122,122,121,122,2648100,122
2012/12/18,122,126,122,126,3740000,126
2012/12/19,127,129,127,129,3765900,129
2012/12/20,128,132,128,129,3310000,129
2012/12/21,133,133,127,129,3220800,129
2012/12/25,131,132,130,130,980900,130
2012/12/26,131,132,131,132,794000,132
2012/12/27,133,134,132,133,1184900,133
2012/12/28,134,134,131,133,2836300,133
2013/01/04,138,140,137,140,2553000,140
2013/01/07,140,141,137,137,3403600,137
2013/01/08,137,137,134,135,3408100,135
2013/01/09,134,138,133,138,2645700,138
2013/01/10,139,142,138,140,4394200,140
2013/01/11,143,143,140,142,1537700,142
2013/01/15,142,143,141,141,2134200,141
2013/01/16,142,142,138,138,2632600,138
2013/01/17,139,140,136,140,1189600,140
2013/01/18,142,143,140,143,1873400,143
2013/01/21,142,142,140,142,1694300,142
2013/01/22,141,142,139,139,1461200,139
2013/01/23,139,140,138,138,1708900,138
2013/01/24,137,140,137,140,446800,140
2013/01/25,141,142,141,142,973800,142
2013/01/28,143,143,141,143,10391200,143
2013/01/29,143,148,142,148,6224900,148
2013/01/30,147,148,145,147,1723700,147
2013/01/31,148,152,148,151,4685200,151
2013/02/01,152,153,150,150,2073900,150
2013/02/04,152,156,151,156,3306800,156
2013/02/05,153,157,152,154,5590500,154
2013/02/06,157,158,156,156,3122400,156
2013/02/07,156,160,156,159,4441400,159
2013/02/08,157,158,155,156,3054700,156
2013/02/12,160,162,160,160,2986300,160
2013/02/13,161,162,157,159,4257900,159
2013/02/14,158,159,155,157,3482800,157
2013/02/15,155,155,149,152,5466900,152
2013/02/18,154,159,154,159,1782400,159
2013/02/19,159,160,158,159,2082500,159
2013/02/20,160,160,158,160,1864400,160
2013/02/21,158,159,156,156,2544600,156
2013/02/22,155,157,152,156,2684200,156
2013/02/25,159,160,158,158,2065600,158
2013/02/26,154,158,154,158,3265300,158
2013/02/27,157,157,153,154,2552900,154
2013/02/28,156,157,155,156,970400,156
2013/03/01,157,159,156,159,1548500,159
2013/03/04,160,163,160,162,3359100,162
2013/03/05,163,166,161,162,5412900,162
2013/03/06,165,165,162,163,3142200,163
2013/03/07,164,165,161,161,3051200,161
2013/03/08,163,165,162,165,2287000,165
2013/03/11,166,174,166,174,5648700,174
2013/03/12,177,179,171,172,5476000,172
2013/03/13,172,174,170,172,2370400,172
2013/03/14,171,173,170,173,2245600,173
2013/03/15,174,174,172,173,2461000,173
2013/03/18,170,171,168,168,1375200,168
2013/03/19,171,172,170,172,1038100,172
2013/03/21,174,175,173,174,1378500,174
2013/03/22,173,173,170,170,1094300,170
2013/03/25,173,173,171,173,1398900,173
2013/03/26,171,172,170,170,903900,170
2013/03/27,172,173,171,171,1656300,171
2013/03/28,171,172,168,171,1782900,171
2013/03/29,170,171,168,170,1686300,170
2013/04/01,169,170,162,162,2259400,162
2013/04/02,159,166,158,165,3296200,165
2013/04/03,165,166,163,165,3231900,165
2013/04/04,164,175,162,174,3964900,174
2013/04/05,183,189,181,183,10630000,183
2013/04/08,188,191,186,191,8127400,191
2013/04/09,193,193,186,188,7108200,188
2013/04/10,187,195,186,195,8757700,195
2013/04/11,196,197,193,197,5794800,197
2013/04/12,195,196,193,196,3050700,196
2013/04/15,193,194,189,191,3108700,191
2013/04/16,185,188,184,185,3774600,185
2013/04/17,188,192,187,190,2935200,190
2013/04/18,190,195,188,189,2455500,189
2013/04/19,191,191,186,189,2268200,189
2013/04/22,192,193,190,190,3323800,190
2013/04/23,191,191,188,188,857600,188
2013/04/24,191,191,188,189,2021400,189
2013/04/25,190,194,189,193,3720600,193
2013/04/26,194,194,192,192,1085300,192
2013/04/30,192,195,192,193,1683100,193
2013/05/01,194,194,191,192,1033800,192
2013/05/02,192,194,191,192,1433900,192
2013/05/07,197,198,196,196,2400300,196
2013/05/08,197,198,196,196,3951600,196
2013/05/09,198,198,194,194,2173900,194
2013/05/10,198,199,196,199,5542300,199
2013/05/13,200,207,199,207,15805400,207
2013/05/14,207,208,202,202,3888500,202
2013/05/15,207,211,206,207,4240900,207
2013/05/16,206,207,200,201,5504700,201
2013/05/17,200,201,199,200,1332300,200
2013/05/20,203,203,200,201,2205700,201
2013/05/21,199,199,196,198,1482600,198
2013/05/22,198,201,198,200,9892100,200
2013/05/23,199,199,178,181,8779300,181
2013/05/24,184,188,174,179,11187600,179
2013/05/27,175,181,173,173,4963800,173
2013/05/28,173,178,172,177,3082400,177
2013/05/29,181,181,176,178,3240000,178
2013/05/30,171,175,168,169,9212100,169
2013/05/31,173,173,171,173,4505000,173
2013/06/03,169,170,161,162,5715800,162
2013/06/04,162,175,161,174,4088800,174
2013/06/05,172,174,166,167,1892900,167
2013/06/06,164,170,164,166,2099100,166
2013/06/07,162,169,160,164,984300,164
2013/06/10,170,173,169,171,1036400,171
2013/06/11,173,174,170,172,1777200,172
2013/06/12,169,171,166,171,858700,171
2013/06/13,167,168,163,165,3194100,165
2013/06/14,170,170,164,167,2238900,167
2013/06/17,162,167,161,167,1567400,167
2013/06/18,166,167,164,164,721100,164
2013/06/19,168,171,168,171,641900,171
2013/06/20,170,172,169,169,1141000,169
2013/06/21,164,170,164,169,1164400,169
2013/06/24,172,172,168,168,834000,168
2013/06/25,168,170,166,169,1023600,169
2013/06/26,170,171,168,169,1770000,169
2013/06/27,171,172,169,171,357600,171
2013/06/28,175,182,174,181,1447300,181
2013/07/01,183,185,179,184,2102200,184
2013/07/02,185,186,182,185,1224100,185
2013/07/03,185,187,184,186,1775500,186
2013/07/04,185,186,185,186,785300,186
2013/07/05,187,189,187,189,1543200,189
2013/07/08,190,191,185,185,2292900,185
2013/07/09,188,190,188,190,2253000,190
2013/07/10,187,188,184,186,1711000,186
2013/07/11,184,185,183,184,351700,184
2013/07/12,185,186,185,185,514400,185
2013/07/16,187,188,186,186,261500,186
2013/07/17,185,187,185,186,7156600,186
2013/07/18,188,191,188,190,3227500,190
2013/07/19,192,193,188,190,2710600,190
2013/07/22,192,192,189,191,2203500,191
2013/07/23,189,192,189,192,461200,192
2013/07/24,190,191,189,191,634500,191
2013/07/25,190,191,186,186,786300,186
2013/07/26,183,183,178,180,1939500,180
2013/07/29,174,175,172,172,1868000,172
2013/07/30,173,177,172,176,3545100,176
2013/07/31,175,176,174,174,641000,174
2013/08/01,174,181,174,181,987500,181
2013/08/02,183,186,183,186,1767200,186
2013/08/05,184,184,182,182,1059600,182
2013/08/06,182,184,180,184,923400,184
2013/08/07,181,181,178,178,1092700,178
2013/08/08,176,180,175,175,2322100,175
2013/08/09,178,178,175,177,613800,177
2013/08/12,175,176,174,175,553300,175
2013/08/13,177,178,176,178,186100,178
2013/08/14,178,179,176,179,262700,179
2013/08/15,177,178,176,177,885600,177
2013/08/16,173,175,173,175,665100,175
2013/08/19,174,176,174,175,321100,175
2013/08/20,175,176,172,173,990100,173
2013/08/21,173,173,170,172,1605100,172
2013/08/22,171,173,170,173,462100,173
2013/08/23,175,176,173,174,912600,174
2013/08/26,175,176,173,174,144800,174
2013/08/27,173,175,173,173,119400,173
2013/08/28,170,173,168,173,2615100,173
2013/08/29,170,171,169,170,1389900,170
2013/08/30,171,172,168,169,1673400,169
2013/09/02,168,170,168,170,298600,170
2013/09/03,171,176,171,175,990500,175
2013/09/04,175,178,174,177,512700,177
2013/09/05,178,178,176,177,332400,177
2013/09/06,177,178,174,174,483300,174
2013/09/09,179,180,177,179,2010800,179
2013/09/10,179,183,179,183,2930200,183
2013/09/11,184,184,180,180,797900,180
2013/09/12,180,182,179,180,707400,180
2013/09/13,181,182,179,181,1073400,181
2013/09/17,180,181,179,180,658100,180
2013/09/18,180,184,180,184,636900,184
2013/09/19,185,186,184,185,1963400,185
2013/09/20,187,188,185,188,4262500,188
2013/09/24,186,187,185,187,1236900,187
2013/09/25,187,187,185,186,1522700,186
2013/09/26,186,190,185,190,2145000,190
2013/09/27,190,190,188,188,649000,188
2013/09/30,184,186,183,184,1214600,184
2013/10/01,184,185,183,183,322400,183
2013/10/02,183,184,180,182,489100,182
2013/10/03,181,182,180,180,303100,180
2013/10/04,180,180,178,179,840300,179
2013/10/07,180,182,177,177,408700,177
2013/10/08,177,179,176,178,413300,178
2013/10/09,177,180,176,180,851800,180
2013/10/10,181,181,179,179,632600,179
2013/10/11,182,185,182,184,866900,184
2013/10/15,187,187,183,183,2672700,183
2013/10/16,183,185,183,184,758500,184
2013/10/17,186,186,184,185,912700,185
2013/10/18,186,186,185,185,234600,185
2013/10/21,186,187,185,186,167000,186
2013/10/22,185,187,185,187,1169100,187
2013/10/23,186,188,182,182,2058200,182
2013/10/24,182,184,180,184,1721800,184
2013/10/25,182,182,179,179,891900,179
2013/10/28,181,183,180,182,292500,182
2013/10/29,181,182,181,182,926100,182
2013/10/30,183,183,182,183,875300,183
2013/10/31,184,184,180,181,445500,181
2013/11/01,182,182,178,178,232900,178
2013/11/05,180,181,178,178,1459200,178
2013/11/06,179,181,178,181,271600,181
2013/11/07,180,180,179,179,468400,179
2013/11/08,177,179,177,177,827700,177
2013/11/11,180,181,179,181,584000,181
2013/11/12,180,184,180,183,519800,183
2013/11/13,184,186,184,186,774900,186
2013/11/14,187,189,186,187,1726400,187
2013/11/15,190,192,188,192,3036600,192
2013/11/18,192,195,192,193,1770000,193
2013/11/19,191,193,190,190,1133300,190
2013/11/20,191,192,188,188,1035800,188
2013/11/21,189,192,189,190,1628300,190
2013/11/22,192,192,190,191,2087000,191
2013/11/25,192,192,190,192,1280200,192
2013/11/26,191,192,191,192,704200,192
2013/11/27,191,191,190,191,719400,191
2013/11/28,191,192,190,192,1311800,192
2013/11/29,191,191,189,189,354100,189
2013/12/02,190,191,189,190,1142500,190
2013/12/03,191,194,191,192,999700,192
2013/12/04,190,190,187,187,1405200,187
2013/12/05,188,189,186,186,1347300,186
2013/12/06,186,187,184,185,2627100,185
2013/12/09,189,189,187,187,749200,187
2013/12/10,188,189,187,189,370800,189
2013/12/11,188,188,186,186,1600600,186
2013/12/12,186,187,185,187,511400,187
2013/12/13,186,187,185,185,2248500,185
2013/12/16,185,185,183,183,1427400,183
2013/12/17,184,186,184,185,1247000,185
2013/12/18,185,190,185,190,1018600,190
2013/12/19,191,193,191,192,2300600,192
2013/12/20,191,192,190,191,1006600,191
2013/12/24,192,192,189,189,3906200,189
2013/12/25,189,191,189,190,1450500,190
2013/12/26,192,195,191,194,1609100,194
2013/12/27,195,197,193,197,1557400,197
2013/12/30,197,200,197,200,1415000,200
2014/01/06,198,200,196,199,1509200,199
2014/01/07,199,199,197,197,1004400,197
2014/01/08,198,201,197,201,1821700,201
2014/01/09,200,201,198,200,1749800,200
2014/01/10,198,201,198,200,1065200,200
2014/01/14,196,198,195,196,1885800,196
2014/01/15,198,199,197,198,1554400,198
2014/01/16,200,201,197,197,1125800,197
2014/01/17,197,200,197,200,316600,200
2014/01/20,200,200,198,199,264500,199
2014/01/21,198,200,197,197,1479300,197
2014/01/22,197,200,197,198,2292300,198
2014/01/23,199,202,197,197,2267400,197
2014/01/24,195,195,191,192,2104400,192
2014/01/27,188,188,186,187,1378600,187
2014/01/28,188,188,186,188,2408700,188
2014/01/29,189,191,189,191,1539100,191
2014/01/30,186,187,182,184,2697000,184
2014/01/31,186,186,182,183,836200,183
2014/02/03,182,183,178,179,2030200,179
2014/02/04,174,176,171,172,2272100,172
2014/02/05,175,176,173,176,1501000,176
2014/02/06,176,176,174,175,655200,175
2014/02/07,178,181,176,181,4650300,181
2014/02/10,182,183,179,181,465700,181
2014/02/12,182,183,180,180,1112200,180
2014/02/13,181,181,177,178,242000,178
2014/02/14,178,179,175,176,1255600,176
2014/02/17,176,177,173,177,478200,177
2014/02/18,177,185,177,185,1634200,185
2014/02/19,183,184,182,184,645200,184
2014/02/20,183,183,178,178,462300,178
2014/02/21,181,182,180,181,216400,181
2014/02/24,182,183,178,179,758400,179
2014/02/25,182,183,181,183,547600,183
2014/02/26,182,182,181,181,175900,181
2014/02/27,179,180,177,177,387300,177
2014/02/28,178,178,175,176,705100,176
2014/03/03,175,176,171,176,1032000,176
2014/03/04,172,176,172,174,568300,174
2014/03/05,178,178,176,177,419900,177
2014/03/06,176,180,176,180,613500,180
2014/03/07,180,181,178,180,1545900,180
2014/03/10,179,179,177,179,273500,179
2014/03/11,178,180,178,178,354500,178
2014/03/12,177,177,174,174,841600,174
2014/03/13,174,175,174,174,976200,174
2014/03/14,171,171,168,169,1182100,169
2014/03/17,168,169,166,167,919400,167
2014/03/18,169,170,167,167,1577400,167
2014/03/19,168,171,167,168,888900,168
2014/03/20,169,170,165,165,2388900,165
2014/03/24,166,168,166,167,297200,167
2014/03/25,165,168,164,167,1032800,167
2014/03/26,168,170,166,167,380600,167
2014/03/27,167,170,166,170,581600,170
2014/03/28,170,174,169,172,620100,172
2014/03/31,175,176,174,175,930800,175
2014/04/01,178,178,176,177,2460500,177
2014/04/02,178,182,178,180,1480500,180
2014/04/03,180,181,179,179,555300,179
2014/04/04,179,180,179,179,373600,179
2014/04/07,177,178,175,176,1182000,176
2014/04/08,173,174,171,173,1405200,173
2014/04/09,170,171,168,169,1097900,169
2014/04/10,171,171,167,168,403500,168
2014/04/11,165,168,164,168,956400,168
2014/04/14,165,168,164,166,1325600,166
2014/04/15,168,168,165,166,1076400,166
2014/04/16,167,172,167,170,1210000,170
2014/04/17,171,172,169,170,667300,170
2014/04/18,172,172,170,170,277400,170
2014/04/21,171,172,169,169,405600,169
2014/04/22,171,171,167,167,441000,167
2014/04/23,169,170,168,170,213600,170
2014/04/24,170,170,168,169,169200,169
2014/04/25,169,170,168,169,116500,169
2014/04/28,167,168,166,167,422800,167
2014/04/30,168,169,167,169,167700,169
2014/05/01,169,172,169,172,481800,172
2014/05/02,171,173,171,172,1306800,172
2014/05/07,170,170,167,167,786000,167
2014/05/08,169,170,168,170,168100,170
2014/05/09,169,172,168,170,419900,170
2014/05/12,170,171,169,170,420000,170
2014/05/13,173,174,172,174,708700,174
2014/05/14,173,173,172,172,269000,172
2014/05/15,172,173,170,172,655100,172
2014/05/16,169,170,168,169,254900,169
2014/05/19,169,169,167,168,356800,168
2014/05/20,168,168,166,167,1181900,167
2014/05/21,166,167,164,166,1236900,166
2014/05/22,167,169,165,168,1711800,168
2014/05/23,169,171,169,169,1609600,169
2014/05/26,172,173,171,173,2013800,173
2014/05/27,174,174,172,172,1853700,172
2014/05/28,172,173,172,172,1493100,172
2014/05/29,171,173,171,171,4233500,171
2014/05/30,173,173,171,171,1140300,171
2014/06/02,172,175,172,174,649400,174
2014/06/03,176,178,175,177,1014100,177
2014/06/04,177,177,175,176,2838900,176
2014/06/05,176,178,176,177,1430400,177
2014/06/06,177,179,177,178,366000,178
2014/06/09,179,179,177,177,864300,177
2014/06/10,177,179,177,177,2266900,177
2014/06/11,178,181,178,180,1118700,180
2014/06/12,179,182,179,181,906500,181
2014/06/13,180,183,179,183,391100,183
2014/06/16,182,182,181,181,597600,181
2014/06/17,182,183,180,182,1748300,182
2014/06/18,182,184,181,183,623500,183
2014/06/19,184,188,183,187,770300,187
2014/06/20,188,189,186,187,3393200,187
2014/06/23,187,187,185,185,802900,185
2014/06/24,184,186,183,186,1021100,186
2014/06/25,185,186,184,185,255600,185
2014/06/26,185,185,184,184,331800,184
2014/06/27,183,184,181,183,754600,183
2014/06/30,182,184,181,184,293800,184
2014/07/01,183,187,183,185,1509300,185
2014/07/02,188,188,186,187,452900,187
2014/07/03,187,187,185,185,569300,185
2014/07/04,186,188,186,187,1818200,187
2014/07/07,187,187,185,186,263000,186
2014/07/08,185,186,183,185,648600,185
2014/07/09,184,184,182,183,800400,183
2014/07/10,184,184,180,181,811700,181
2014/07/11,177,178,176,177,452400,177
2014/07/14,177,178,176,178,1423200,178
2014/07/15,178,180,178,179,359600,179
2014/07/16,179,180,178,178,166500,178
2014/07/17,179,180,177,178,390200,178
2014/07/18,176,177,176,177,222800,177
2014/07/22,176,178,176,177,783500,177
2014/07/23,177,178,176,177,1835400,177
2014/07/24,177,177,175,177,1860000,177
2014/07/25,176,178,175,178,3444100,178
2014/07/28,176,180,176,179,556300,179
2014/07/29,180,180,178,178,490500,178
2014/07/30,178,181,178,180,574700,180
2014/07/31,181,183,180,180,552300,180
2014/08/01,179,181,179,180,476900,180
2014/08/04,180,180,177,178,966000,178
2014/08/05,178,178,175,175,2667400,175
2014/08/06,174,175,172,172,1672200,172
2014/08/07,173,175,171,174,670300,174
2014/08/08,173,173,169,170,968800,170
2014/08/11,173,174,172,173,212100,173
2014/08/12,173,175,173,175,243800,175
2014/08/13,174,176,173,176,449100,176
2014/08/14,176,176,175,175,653300,175
2014/08/15,176,176,175,176,322300,176
2014/08/18,177,177,174,175,147900,175
2014/08/19,177,177,176,176,200300,176
2014/08/20,177,178,176,176,481800,176
2014/08/21,177,179,176,179,1821200,179
2014/08/22,180,180,178,178,454200,178
2014/08/25,178,179,178,178,302000,178
2014/08/26,178,179,177,178,390300,178
2014/08/27,177,178,176,177,537300,177
2014/08/28,177,178,176,178,1094600,178
2014/08/29,177,178,176,177,405600,177
2014/09/01,178,178,177,178,470300,178
2014/09/02,178,181,178,181,762800,181
2014/09/03,181,183,181,181,1271700,181
2014/09/04,183,183,181,182,361400,182
2014/09/05,182,183,180,181,431000,181
2014/09/08,182,182,180,182,178500,182
2014/09/09,182,182,180,180,110700,180
2014/09/10,179,183,179,183,902300,183
2014/09/11,183,184,183,184,801400,184
2014/09/12,183,185,183,184,567100,184
2014/09/16,183,183,182,182,479600,182
2014/09/17,182,182,180,180,316500,180
2014/09/18,183,184,183,184,628000,184
2014/09/19,184,187,184,185,1559100,185
2014/09/22,187,187,185,186,806100,186
2014/09/24,185,187,185,187,828600,187
2014/09/25,187,189,187,189,1107400,189
2014/09/26,186,188,186,188,831000,188
2014/09/29,189,189,187,187,558900,187
2014/09/30,187,187,184,186,805500,186
2014/10/01,186,188,185,187,888000,187
2014/10/02,184,184,181,181,311600,181
2014/10/03,180,183,180,182,724300,182
2014/10/06,184,185,183,184,153000,184
2014/10/07,183,185,183,183,561400,183
2014/10/08,180,181,179,180,540000,180
2014/10/09,181,182,179,179,426100,179
2014/10/10,176,176,175,175,781500,175
2014/10/14,172,174,171,172,642500,172
2014/10/15,172,173,171,172,232200,172
2014/10/16,168,169,167,167,868100,167
2014/10/17,168,168,164,164,2158500,164
2014/10/20,169,171,168,169,661300,169
2014/10/21,171,171,167,167,1168700,167
2014/10/22,170,172,170,171,1897500,171
2014/10/23,170,173,170,171,516700,171
2014/10/24,174,174,172,172,771400,172
2014/10/27,174,174,172,174,916000,174
2014/10/28,174,175,173,174,878100,174
2014/10/29,176,178,176,177,1230500,177
2014/10/30,178,180,178,180,1335100,180
2014/10/31,182,189,181,189,2883100,189
2014/11/04,197,198,193,194,4866300,194
2014/11/05,193,194,191,194,999400,194
2014/11/06,194,195,189,190,1193400,190
2014/11/07,191,192,190,191,825500,191
2014/11/10,190,192,190,191,603700,191
2014/11/11,192,194,191,192,1474600,192
2014/11/12,194,196,192,192,1922100,192
2014/11/13,192,194,192,194,883000,194
2014/11/14,195,195,193,194,1846300,194
2014/11/17,196,196,191,193,2390100,193
2014/11/18,194,196,194,195,1088100,195
2014/11/19,196,197,195,195,3344600,195
2014/11/20,196,198,196,196,1921800,196
2014/11/21,196,197,194,197,1267500,197
2014/11/25,197,199,197,197,1722700,197
2014/11/26,198,198,196,197,429200,197
2014/11/27,196,197,194,194,306900,194
2014/11/28,194,198,194,198,764400,198
2014/12/01,197,199,197,198,1243400,198
2014/12/02,197,199,196,199,725300,199
2014/12/03,198,199,197,198,2706400,198
2014/12/04,199,200,198,199,1610400,199
2014/12/05,198,201,198,201,1422600,201
2014/12/08,201,201,199,200,1468600,200
2014/12/09,200,201,199,201,2147100,201
2014/12/10,200,200,195,197,3745600,197
2014/12/11,193,195,192,194,1020300,194
2014/12/12,193,196,192,193,2077600,193
2014/12/15,191,192,190,191,705700,191
2014/12/16,189,189,186,188,812100,188
2014/12/17,186,189,186,188,974800,188
2014/12/18,191,193,189,189,1597500,189
2014/12/19,193,196,192,195,1966700,195
2014/12/22,195,195,192,193,783000,193
2014/12/24,195,196,195,196,842700,196
2014/12/25,196,196,195,196,372100,196
2014/12/26,195,197,195,197,503000,197
2014/12/29,197,197,194,195,747600,195
2014/12/30,195,196,194,194,254100,194
2015/01/05,194,194,190,192,716400,192
2015/01/06,188,189,186,187,1008500,187
2015/01/07,186,186,184,185,752300,185
2015/01/08,187,187,185,185,1124800,185
2015/01/09,187,187,185,185,449200,185
2015/01/13,184,185,181,185,836000,185
2015/01/14,183,183,181,181,1065900,181
2015/01/15,182,184,181,183,693200,183
2015/01/16,180,182,179,181,1835400,181
2015/01/19,183,183,180,180,432100,180
2015/01/20,182,185,181,185,465300,185
2015/01/21,185,185,181,182,541900,182
2015/01/22,182,182,181,182,323000,182
2015/01/23,185,185,183,183,180600,183
2015/01/26,182,183,182,183,725000,183
2015/01/27,185,189,185,189,990600,189
2015/01/28,186,189,186,189,1129500,189
2015/01/29,186,187,185,185,329200,185
2015/01/30,187,188,186,186,254800,186
2015/02/02,184,184,184,184,306100,184
2015/02/03,186,186,182,184,472100,184
2015/02/04,185,190,185,188,1395800,188
2015/02/05,189,192,187,189,2218000,189
2015/02/06,191,192,191,192,384900,192
2015/02/09,194,195,193,195,3684600,195
2015/02/10,194,195,193,194,301700,194
2015/02/12,196,200,196,198,3697800,198
2015/02/13,199,201,199,200,1368800,200
2015/02/16,201,207,201,206,2296800,206
2015/02/17,204,207,204,204,807400,204
2015/02/18,206,211,206,210,6437200,210
2015/02/19,211,216,211,215,4129900,215
2015/02/20,217,217,213,214,1812900,214
2015/02/23,217,218,211,212,1788600,212
2015/02/24,211,214,211,213,3036200,213
2015/02/25,215,215,212,214,3388300,214
2015/02/26,214,217,213,217,5274200,217
2015/02/27,219,219,215,216,3303100,216
2015/03/02,218,218,214,215,1296900,215
2015/03/03,216,216,212,214,1145600,214
2015/03/04,213,213,209,210,1263400,210
2015/03/05,211,213,211,212,1649700,212
2015/03/06,214,217,213,217,1136400,217
2015/03/09,216,216,214,216,1270000,216
2015/03/10,216,216,211,211,2016000,211
2015/03/11,210,213,210,211,636700,211
2015/03/12,213,217,213,215,3814600,215
2015/03/13,217,221,217,220,2767400,220
2015/03/16,219,224,219,221,1125700,221
2015/03/17,223,224,220,220,1528500,220
2015/03/18,220,223,219,222,1635700,222
2015/03/19,222,222,217,219,1422800,219
2015/03/20,218,220,217,219,341900,219
2015/03/23,220,220,219,220,898200,220
2015/03/24,219,220,217,218,363400,218
2015/03/25,218,219,217,218,358500,218
2015/03/26,217,218,214,214,453900,214
2015/03/27,216,219,212,214,1034100,214
2015/03/30,213,216,211,216,1133200,216
2015/03/31,217,218,211,211,680300,211
2015/04/01,211,213,209,212,758100,212
2015/04/02,212,218,212,216,927100,216
2015/04/03,216,217,213,215,677900,215
2015/04/06,213,214,212,213,204100,213
2015/04/07,215,219,215,218,833800,218
2015/04/08,218,220,217,219,545600,219
2015/04/09,219,219,217,217,193200,217
2015/04/10,217,218,216,216,243100,216
2015/04/13,216,216,215,215,468000,215
2015/04/14,215,218,215,217,802300,217
2015/04/15,216,218,216,217,270700,217
2015/04/16,217,226,217,226,1478000,226
2015/04/17,226,230,224,230,3515100,230
2015/04/20,227,231,224,228,1195600,228
2015/04/21,229,234,229,234,2628600,234
2015/04/22,234,241,234,239,1588100,239
2015/04/23,241,242,233,237,4464400,237
2015/04/24,235,238,235,235,4205800,235
2015/04/27,236,236,233,235,1803200,235
2015/04/28,236,237,235,236,398600,236
2015/04/30,234,235,230,233,1153600,233
2015/05/01,231,232,228,230,1540800,230
2015/05/07,229,231,228,229,842800,229
2015/05/08,229,238,229,238,1346400,238
2015/05/11,241,244,236,237,1636200,237
2015/05/12,236,238,234,237,654200,237
2015/05/13,236,237,233,235,1495500,235
2015/05/14,233,234,229,229,573000,229
2015/05/15,231,235,229,235,2889100,235
2015/05/18,235,242,235,241,1689200,241
2015/05/19,241,243,240,241,1955400,241
2015/05/20,243,245,242,244,2012700,244
2015/05/21,244,247,242,244,1586500,244
2015/05/22,245,245,241,243,821500,243
2015/05/25,246,247,245,245,1446200,245
2015/05/26,245,246,244,244,596700,244
2015/05/27,243,246,242,245,3812200,245
2015/05/28,246,252,246,252,1653900,252
2015/05/29,252,254,249,252,4319400,252
2015/06/01,250,255,249,255,721100,255
2015/06/02,255,255,248,248,3609700,248
2015/06/03,249,250,247,248,2813500,248
2015/06/04,249,253,248,251,2026500,251
2015/06/05,249,249,245,248,1474000,248
2015/06/08,255,255,247,248,4509100,248
2015/06/09,246,248,243,243,1126500,243
2015/06/10,244,246,241,243,1829300,243
2015/06/11,244,247,244,245,1230400,245
2015/06/12,246,247,243,246,1073600,246
2015/06/15,244,247,244,246,702100,246
2015/06/16,245,245,240,241,2779100,241
2015/06/17,240,242,238,239,2200100,239
2015/06/18,238,239,235,235,1647900,235
2015/06/19,240,240,236,239,1026700,239
2015/06/22,239,246,239,246,2854500,246
2015/06/23,247,251,247,249,851700,249
2015/06/24,254,254,248,251,4736400,251
2015/06/25,250,251,249,250,1958300,250
2015/06/26,250,252,247,252,1331300,252
2015/06/29,234,246,234,245,1206400,245
2015/06/30,244,245,240,244,1792800,244
2015/07/01,243,246,242,244,442400,244
