2011/01/04,8790,8790,8790,8790,209,8790
2011/01/06,8760,8760,8760,8760,84,8760
2011/01/12,8780,8780,8750,8750,3,8750
2011/01/17,8870,8880,8870,8880,325,8880
2011/01/18,8840,8900,8840,8900,2,8900
2011/01/19,8880,8880,8880,8880,3,8880
2011/01/20,8840,8840,8820,8820,174,8820
2011/01/21,8750,8760,8750,8750,333,8750
2011/01/25,8730,8770,8730,8770,509,8770
2011/02/01,8620,8620,8620,8620,85,8620
2011/02/02,8700,8700,8700,8700,10,8700
2011/02/07,8980,8980,8960,8960,5,8960
2011/02/14,9090,9090,9080,9080,5,9080
2011/02/16,9090,9110,9090,9110,4,9110
2011/02/18,9200,9200,9200,9200,3,9200
2011/02/21,9210,9210,9210,9210,10,9210
2011/02/22,9160,9180,9160,9180,6,9180
2011/02/24,9100,9100,9020,9020,416,9020
2011/02/28,9060,9110,9060,9110,220,9110
2011/03/01,9180,9220,9180,9220,2,9220
2011/03/02,9160,9160,9100,9100,418,9100
2011/03/04,9160,9160,9160,9160,2,9160
2011/03/07,9020,9020,8980,8980,314,8980
2011/03/10,9020,9020,9020,9020,56,9020
2011/03/15,6910,6910,6910,6910,10,6910
2011/03/16,7510,7630,7510,7630,3,7630
2011/03/17,7630,7630,7630,7630,5,7630
2011/03/18,7780,7780,7780,7780,100,7780
2011/03/22,7930,8160,7930,8160,121,8160
2011/03/23,8200,8200,8200,8200,50,8200
2011/03/24,8000,8000,8000,8000,100,8000
2011/03/25,8150,8150,8090,8090,11,8090
2011/03/28,8030,8030,7980,7980,5,7980
2011/03/29,7940,7960,7940,7960,213,7960
2011/03/30,8200,8210,8200,8200,256,8200
2011/03/31,8250,8270,8250,8270,168,8270
2011/04/01,8300,8310,8230,8230,805,8230
2011/04/04,8290,8290,8220,8220,342,8220
2011/04/05,8250,8250,8110,8130,168,8130
2011/04/06,8080,8080,8080,8080,166,8080
2011/04/07,8150,8150,8130,8130,581,8130
2011/04/08,8200,8200,8150,8150,2,8150
2011/04/11,8320,8320,8320,8320,12,8320
2011/04/12,8250,8250,8190,8190,329,8190
2011/04/13,8180,8180,8180,8180,164,8180
2011/04/14,8210,8210,8180,8180,165,8180
2011/04/15,8260,8260,8260,8260,1,8260
2011/04/18,8250,8310,8250,8310,94,8310
2011/04/19,8200,8200,8200,8200,1,8200
2011/04/20,8300,8310,8300,8310,243,8310
2011/04/27,8180,8180,8180,8180,82,8180
2011/04/28,8250,8350,8250,8340,261,8340
2011/05/06,8400,8400,8400,8400,15,8400
2011/05/09,8400,8400,8310,8310,208,8310
2011/05/10,8320,8320,8320,8320,205,8320
2011/05/11,8400,8400,8380,8380,616,8380
2011/05/12,8310,8310,8310,8310,47,8310
2011/05/13,8460,8460,8260,8260,295,8260
2011/05/16,8300,8300,8300,8300,2,8300
2011/05/17,8270,8270,8260,8260,24,8260
2011/05/23,8290,8290,8290,8290,1,8290
2011/05/30,8400,8400,8400,8400,196,8400
2011/05/31,8480,8500,8480,8500,392,8500
2011/06/01,8570,8570,8570,8570,1,8570
2011/06/06,8440,8440,8420,8420,204,8420
2011/06/07,8400,8400,8380,8380,26,8380
2011/06/08,8470,8470,8450,8450,384,8450
2011/06/10,8600,8620,8550,8580,23,8580
2011/06/13,8490,8510,8490,8510,113,8510
2011/06/14,8650,8650,8640,8640,198,8640
2011/06/15,8610,8610,8600,8610,203,8610
2011/06/17,8510,8510,8510,8510,190,8510
2011/06/20,8460,8460,8460,8460,10,8460
2011/06/21,8500,8560,8500,8560,2,8560
2011/06/23,8630,8630,8630,8630,29,8630
2011/06/28,8620,8620,8620,8620,1,8620
2011/06/29,8730,8780,8730,8780,6,8780
2011/07/05,8870,8910,8870,8910,195,8910
2011/07/07,8960,8960,8960,8960,4901,8960
2011/07/08,9040,9050,9040,9040,123,9040
2011/07/11,9040,9090,9040,9090,24,9090
2011/07/12,9040,9070,9030,9070,405,9070
2011/07/13,8920,8980,8920,8980,5310,8980
2011/07/14,8950,8960,8920,8960,31,8960
2011/07/19,9000,9000,9000,9000,3,9000
2011/07/20,9070,9070,9050,9050,101,9050
2011/07/21,9070,9070,9070,9070,2,9070
2011/07/22,9040,9090,9040,9090,278,9090
2011/07/25,9060,9060,9060,9060,191,9060
2011/07/26,9030,9040,9030,9040,50,9040
2011/07/27,9000,9000,8940,8940,5,8940
2011/07/28,8820,8820,8820,8820,38,8820
2011/07/29,8790,8790,8790,8790,16,8790
2011/08/03,8740,8740,8740,8740,10,8740
2011/08/04,8680,8680,8680,8680,38,8680
2011/08/05,8460,8460,8460,8460,10,8460
2011/08/08,8400,8400,8340,8340,124,8340
2011/08/09,8040,8080,8010,8080,27,8080
2011/08/10,8340,8360,8320,8360,9,8360
2011/08/11,8230,8480,8230,8480,45,8480
2011/08/12,8560,8560,8450,8520,39,8520
2011/08/15,8600,8600,8530,8530,4,8530
2011/08/16,8590,8590,8520,8520,3,8520
2011/08/17,8540,8540,8490,8490,8,8490
2011/08/19,8420,8420,8420,8420,36,8420
2011/08/22,8450,8450,8450,8450,10,8450
2011/08/25,8510,8520,8510,8520,9,8520
2011/08/26,8390,8390,8390,8390,1,8390
2011/08/29,8390,8390,8390,8390,1,8390
2011/09/07,8480,8480,8480,8480,23,8480
2011/09/08,8620,8620,8620,8620,1,8620
2011/09/15,8680,8680,8680,8680,34,8680
2011/09/16,8680,8680,8680,8680,1,8680
2011/09/20,8600,8600,8600,8600,1,8600
2011/09/26,8610,8610,8610,8610,34,8610
2011/09/28,8800,8810,8800,8810,43,8810
2011/09/29,8680,8690,8680,8690,102,8690
2011/09/30,8920,8920,8900,8900,16,8900
2011/10/03,8820,8830,8800,8810,49,8810
2011/10/05,8790,8800,8720,8800,67,8800
2011/10/06,8850,8880,8850,8880,250,8880
2011/10/07,8930,8930,8850,8850,2,8850
2011/10/11,8940,8940,8860,8860,78,8860
2011/10/13,8860,8860,8860,8860,2,8860
2011/10/17,8760,8760,8760,8760,35,8760
2011/10/18,8700,8700,8680,8680,12,8680
2011/10/20,8740,8740,8740,8740,1,8740
2011/10/24,8760,8760,8760,8760,2,8760
2011/10/28,8720,8720,8720,8720,1,8720
2011/11/02,8680,8680,8630,8630,36,8630
2011/11/08,8710,8710,8710,8710,1,8710
2011/11/16,8610,8610,8610,8610,1,8610
2011/11/17,8570,8570,8570,8570,1,8570
2011/11/18,8530,8530,8530,8530,1,8530
2011/11/22,8540,8540,8540,8540,1,8540
2011/11/25,8430,8430,8430,8430,6,8430
2011/11/28,8340,8340,8340,8340,220,8340
2011/12/13,8640,8640,8640,8640,5,8640
2011/12/15,8660,8660,8650,8650,82,8650
2011/12/16,8660,8660,8660,8660,1,8660
2011/12/21,8720,8720,8700,8700,9,8700
2011/12/22,8720,8720,8720,8720,4,8720
2011/12/26,8680,8680,8680,8680,4,8680
2011/12/27,8700,8700,8700,8700,1,8700
2011/12/28,8680,8680,8680,8680,1,8680
2011/12/29,8710,8710,8710,8710,1,8710
2011/12/30,8730,8760,8730,8760,35,8760
2012/01/04,8800,8800,8800,8800,1,8800
2012/01/05,8780,8780,8780,8780,1,8780
2012/01/06,8730,8730,8730,8730,1,8730
2012/01/10,8810,8820,8810,8820,57,8820
2012/01/11,8810,8810,8810,8810,2,8810
2012/01/12,8730,8730,8720,8720,2,8720
2012/01/13,8780,8780,8780,8780,1,8780
2012/01/16,8690,8690,8690,8690,2,8690
2012/01/17,8690,8690,8690,8690,1,8690
2012/01/18,8680,8690,8680,8690,35,8690
2012/01/19,8700,8700,8700,8700,1,8700
2012/01/20,8630,8630,8630,8630,1,8630
2012/01/23,8650,8650,8650,8650,1,8650
2012/01/24,8690,8690,8690,8690,1,8690
2012/01/25,8770,8770,8770,8770,1,8770
2012/01/26,8740,8740,8730,8730,2,8730
2012/01/27,8740,8740,8740,8740,1,8740
2012/01/30,8790,8790,8790,8790,1,8790
2012/01/31,8780,8780,8780,8780,1,8780
2012/02/01,8810,8810,8810,8810,1,8810
2012/02/02,8730,8860,8730,8860,30,8860
2012/02/03,8810,8810,8810,8810,17,8810
2012/02/06,8860,8860,8860,8860,31,8860
2012/02/07,8850,8850,8850,8850,1,8850
2012/02/08,8890,8900,8890,8900,21,8900
2012/02/09,8890,8890,8890,8890,1,8890
2012/02/10,8960,8960,8960,8960,1,8960
2012/02/13,8950,8950,8950,8950,1,8950
2012/02/14,8930,8930,8930,8930,1,8930
2012/02/15,9000,9030,9000,9030,3,9030
2012/02/16,9030,9030,9030,9030,2,9030
2012/02/17,9130,9130,9110,9110,16,9110
2012/02/20,9180,9180,9130,9130,123,9130
2012/02/21,9080,9100,9080,9100,5,9100
2012/02/22,9190,9200,9190,9200,12,9200
2012/02/23,9230,9230,9230,9230,1,9230
2012/02/24,9230,9250,9220,9220,55,9220
2012/02/27,9250,9250,9170,9190,269,9190
2012/02/28,9190,9230,9190,9230,14,9230
2012/02/29,9350,9350,9350,9350,1,9350
2012/03/01,9300,9300,9300,9300,112,9300
2012/03/02,9350,9350,9350,9350,1,9350
2012/03/05,9380,9400,9380,9390,15,9390
2012/03/06,9370,9370,9370,9370,1,9370
2012/03/07,9300,9340,9300,9330,119,9330
2012/03/08,9450,9450,9450,9450,11,9450
2012/03/09,9600,9600,9540,9540,41,9540
2012/03/12,9540,9580,9540,9580,3,9580
2012/03/13,9530,9610,9530,9580,35,9580
2012/03/14,9600,9600,9600,9600,1,9600
2012/03/15,9600,9610,9600,9610,2,9610
2012/03/16,9590,9590,9590,9590,2,9590
2012/03/19,9600,9640,9600,9640,17,9640
2012/03/21,9610,9660,9610,9660,11,9660
2012/03/22,9670,9670,9670,9670,1,9670
2012/03/23,9690,9690,9690,9690,1,9690
2012/03/26,9690,9690,9690,9690,3,9690
2012/03/27,9750,9810,9750,9810,212,9810
2012/03/28,9840,9840,9840,9840,17,9840
2012/03/29,9890,9930,9890,9930,3,9930
2012/03/30,9970,9970,9970,9970,3,9970
2012/04/02,10010,10010,9980,9980,35,9980
2012/04/03,9990,9990,9990,9990,55,9990
2012/04/04,9870,9870,9830,9830,2,9830
2012/04/05,9780,9780,9780,9780,1,9780
2012/04/06,9750,9750,9750,9750,2,9750
2012/04/09,9780,9780,9770,9770,5,9770
2012/04/10,9780,9780,9740,9780,4,9780
2012/04/11,9670,9670,9650,9650,38,9650
2012/04/13,9800,9800,9780,9800,23,9800
2012/04/16,9800,9800,9800,9800,2,9800
2012/04/17,9840,9840,9840,9840,2,9840
2012/04/18,9920,9920,9900,9910,16,9910
2012/04/19,9830,9830,9830,9830,1,9830
2012/04/20,9800,9800,9800,9800,20,9800
2012/04/23,9830,9830,9830,9830,2,9830
2012/04/24,9690,9690,9690,9690,1,9690
2012/04/25,9760,9760,9760,9760,1,9760
2012/04/26,9850,9850,9850,9850,1,9850
2012/04/27,9790,9790,9790,9790,1,9790
2012/05/01,9690,9690,9690,9690,2,9690
2012/05/02,9700,9700,9700,9700,2,9700
2012/05/07,9550,9580,9550,9560,59,9560
2012/05/08,9620,9620,9620,9620,6,9620
2012/05/09,9570,9570,9570,9570,1,9570
2012/05/10,9450,9450,9450,9450,1,9450
2012/05/11,9380,9380,9300,9300,13,9300
2012/05/14,9340,9390,9340,9390,2,9390
2012/05/15,9240,9280,9230,9280,3,9280
2012/05/16,9230,9230,9230,9230,55,9230
2012/05/17,9190,9190,9190,9190,1,9190
2012/05/18,9140,9140,9140,9140,1,9140
2012/05/21,9190,9190,9170,9170,31,9170
2012/05/22,9210,9210,9210,9210,1,9210
2012/05/23,9110,9110,9080,9080,310,9080
2012/05/24,9060,9060,9060,9060,1,9060
2012/05/25,9110,9120,9110,9120,331,9120
2012/05/28,9160,9170,9160,9170,331,9170
2012/05/29,9130,9140,9120,9140,448,9140
2012/05/30,9140,9150,9140,9150,201,9150
2012/05/31,9120,9120,9120,9120,100,9120
2012/06/01,9160,9160,9140,9150,102,9150
2012/06/04,9000,9060,9000,9060,120,9060
2012/06/05,9070,9070,9040,9040,170,9040
2012/06/06,9070,9070,9070,9070,221,9070
2012/06/07,9110,9130,9110,9130,26,9130
2012/06/08,8990,8990,8970,8970,201,8970
2012/06/11,9060,9060,8990,8990,104,8990
2012/06/12,8910,8910,8900,8900,2,8900
2012/06/13,8920,8920,8920,8920,1,8920
2012/06/14,8860,8860,8850,8850,56,8850
2012/06/15,8940,8940,8940,8940,1,8940
2012/06/18,8990,8990,8970,8970,206,8970
2012/06/19,9000,9000,8970,8970,101,8970
2012/06/20,9100,9100,9100,9100,1,9100
2012/06/21,9170,9170,9170,9170,1,9170
2012/06/25,9120,9120,9100,9110,191,9110
2012/06/26,9070,9070,9070,9070,160,9070
2012/06/27,9200,9200,9200,9200,140,9200
2012/06/28,9320,9330,9310,9330,324,9330
2012/06/29,9410,9450,9410,9450,21,9450
2012/07/02,9420,9420,9420,9420,300,9420
2012/07/04,9490,9490,9490,9490,10,9490
2012/07/05,9470,9470,9470,9470,6,9470
2012/07/06,9500,9500,9500,9500,20,9500
2012/07/19,9380,9380,9380,9380,20,9380
2012/07/23,9250,9250,9220,9220,64,9220
2012/07/26,9100,9170,9100,9170,8,9170
2012/07/30,9260,9270,9220,9270,332,9270
2012/07/31,9290,9290,9290,9290,10,9290
2012/08/02,9260,9260,9260,9260,340,9260
2012/08/13,9560,9560,9560,9560,3,9560
2012/08/14,9590,9610,9590,9610,3,9610
2012/08/15,9600,9600,9600,9600,1,9600
2012/08/17,9580,9580,9580,9580,1,9580
2012/08/20,9610,9610,9610,9610,1,9610
2012/08/21,9650,9650,9650,9650,1,9650
2012/08/22,9640,9640,9640,9640,1,9640
2012/08/23,9600,9600,9600,9600,1,9600
2012/08/24,9600,9600,9600,9600,5,9600
2012/08/27,9610,9610,9610,9610,1,9610
2012/08/28,9600,9600,9560,9560,6,9560
2012/08/29,9510,9510,9500,9500,25,9500
2012/08/30,9450,9460,9400,9420,111,9420
2012/08/31,9420,9420,9420,9420,5,9420
2012/09/03,9440,9440,9440,9440,1,9440
2012/09/04,9310,9310,9310,9310,30,9310
2012/09/05,9270,9270,9240,9240,31,9240
2012/09/07,9130,9130,9130,9130,1,9130
2012/09/10,9190,9190,9190,9190,100,9190
2012/09/11,9190,9190,9190,9190,30,9190
2012/09/14,9310,9310,9310,9310,1,9310
2012/09/18,9240,9240,9240,9240,5,9240
2012/09/19,9240,9240,9240,9240,11,9240
2012/09/24,9330,9330,9330,9330,5,9330
2012/09/28,9400,9400,9400,9400,1,9400
2012/10/03,9090,9090,9090,9090,20,9090
2012/10/04,9140,9140,9140,9140,7,9140
2012/10/05,9110,9120,9100,9100,7450,9100
2012/10/09,9100,9120,9100,9100,1783,9100
2012/10/11,9000,9000,9000,9000,11,9000
2012/10/12,9010,9010,9010,9010,1,9010
2012/10/15,8930,8930,8930,8930,1,8930
2012/10/16,9090,9090,9090,9090,1,9090
2012/10/22,9160,9200,9160,9200,101,9200
2012/10/24,9210,9210,9210,9210,5,9210
2012/10/25,9400,9400,9400,9400,1,9400
2012/10/26,9420,9420,9400,9400,8,9400
2012/10/30,9400,9400,9400,9400,1,9400
2012/11/01,9330,9340,9330,9340,2,9340
2012/11/06,9150,9150,9150,9150,1,9150
2012/11/07,9160,9160,9160,9160,1,9160
2012/11/08,9030,9030,9030,9030,1,9030
2012/11/09,9000,9000,9000,9000,10,9000
2012/11/15,8930,8930,8930,8930,100,8930
2012/11/21,9050,9060,9050,9060,2,9060
2012/11/22,9040,9040,9040,9040,108,9040
2012/11/26,9070,9070,9060,9070,12,9070
2012/11/27,9070,9170,9070,9170,3,9170
2012/11/28,9170,9170,9170,9170,27,9170
2012/12/03,9260,9260,9260,9260,20,9260
2012/12/06,9410,9410,9410,9410,1,9410
2012/12/10,9420,9420,9420,9420,1,9420
2012/12/11,9420,9420,9420,9420,27,9420
2012/12/12,9480,9480,9440,9440,4,9440
2012/12/17,9460,9460,9460,9460,1,9460
2012/12/19,9500,9500,9500,9500,18,9500
2012/12/21,9580,9580,9580,9580,2,9580
2012/12/27,9660,9660,9660,9660,1,9660
2012/12/28,9690,9690,9690,9690,10,9690
2013/01/10,10140,10140,10090,10090,4,10090
2013/01/11,10140,10140,10140,10140,1,10140
2013/01/15,10260,10260,10260,10260,1,10260
2013/01/18,10290,10350,10290,10350,14,10350
2013/01/21,10370,10370,10370,10370,12,10370
2013/01/22,10340,10340,10340,10340,1,10340
2013/01/23,10360,10360,10360,10360,15,10360
2013/01/24,10220,10220,10220,10220,1,10220
2013/01/25,10350,10410,10350,10410,5,10410
2013/01/29,10530,10530,10480,10480,31,10480
2013/01/30,10510,10620,10510,10610,7,10610
2013/01/31,10620,10620,10590,10590,25,10590
2013/02/01,10730,10730,10730,10730,4,10730
2013/02/04,10770,10770,10770,10770,2,10770
2013/02/05,10680,10680,10680,10680,7,10680
2013/02/06,10790,10790,10790,10790,2,10790
2013/02/08,10550,10790,10550,10790,505,10790
2013/02/12,10860,10880,10860,10880,9,10880
2013/02/13,10830,10830,10710,10710,5,10710
2013/02/15,10730,10730,10630,10630,33,10630
2013/02/18,10710,10710,10710,10710,9,10710
2013/02/19,10910,10910,10910,10910,56,10910
2013/02/20,11010,11010,11010,11010,21,11010
2013/02/21,11000,11000,11000,11000,1,11000
2013/02/22,10920,10920,10920,10920,1,10920
2013/02/25,11110,11110,11060,11060,76,11060
2013/02/26,10920,10970,10920,10970,2,10970
2013/02/27,10910,10920,10800,10800,353,10800
2013/02/28,10820,10930,10820,10930,48,10930
2013/03/01,11080,11080,11080,11080,300,11080
2013/03/04,11170,11190,11160,11190,82,11190
2013/03/05,11330,11370,11330,11370,22,11370
2013/03/06,11420,11570,11390,11570,43,11570
2013/03/07,11680,11680,11580,11580,212,11580
2013/03/11,11850,11880,11830,11870,146,11870
2013/03/12,11880,11880,11820,11820,59,11820
2013/03/13,11750,11750,11670,11670,112,11670
2013/03/14,11710,11800,11710,11800,203,11800
2013/03/15,11840,12050,11840,12050,217,12050
2013/03/19,12040,12040,12040,12040,23,12040
2013/03/21,12260,12400,12260,12400,120,12400
2013/03/22,12350,12360,12300,12300,183,12300
2013/03/25,12350,12450,12350,12450,182,12450
2013/03/26,12380,12540,12380,12510,858,12510
2013/03/27,12620,12670,12610,12670,450,12670
2013/03/28,12780,12780,12690,12690,1138,12690
2013/03/29,12730,12730,12550,12660,968,12660
2013/04/01,12690,12690,12320,12320,886,12320
2013/04/02,12180,12450,12000,12450,40,12450
2013/04/03,12510,12590,12510,12590,3,12590
2013/04/04,12570,12940,12380,12940,94,12940
2013/04/05,13240,13540,13150,13420,1084,13420
2013/04/08,14020,14020,13570,13740,469,13740
2013/04/09,13950,13950,13740,13740,195,13740
2013/04/10,13710,13920,13700,13850,451,13850
2013/04/11,14010,14010,13800,13980,395,13980
2013/04/12,14140,14140,13850,13920,388,13920
2013/04/15,13850,13850,13630,13770,600,13770
2013/04/16,13390,13600,13130,13600,187,13600
2013/04/17,13800,13890,13800,13890,27,13890
2013/04/18,13820,13820,13820,13820,10,13820
2013/04/19,13860,13950,13850,13950,836,13950
2013/04/22,14050,14280,14050,14280,351,14280
2013/04/23,14290,14290,14190,14230,167,14230
2013/04/24,14330,14350,14210,14280,180,14280
2013/04/25,14310,14310,14290,14310,428,14310
2013/04/26,14290,14290,14140,14210,823,14210
2013/04/30,14280,14350,14280,14350,22,14350
2013/05/01,14290,14300,14280,14300,19,14300
2013/05/02,14260,14260,14260,14260,3,14260
2013/05/07,14440,14510,14410,14500,535,14500
2013/05/08,14630,14650,14500,14650,76,14650
2013/05/09,14600,14600,14500,14500,59,14500
2013/05/10,14540,14540,14420,14500,176,14500
2013/05/13,14600,14600,14450,14540,102,14540
2013/05/14,14550,14550,14450,14550,12,14550
2013/05/15,14650,14840,14650,14750,97,14750
2013/05/16,14840,14840,14340,14500,70,14500
2013/05/17,14530,14540,14530,14530,16,14530
2013/05/20,14670,14670,14530,14590,122,14590
2013/05/21,14530,14530,14400,14490,665,14490
2013/05/22,14500,14660,14400,14660,195,14660
2013/05/23,14560,14760,13840,13840,2341,13840
2013/05/24,13660,14450,13550,13800,832,13800
2013/05/27,13580,13620,13290,13610,822,13610
2013/05/28,13260,13600,13260,13560,744,13560
2013/05/29,13850,13920,13850,13920,16,13920
2013/05/30,13390,13420,13360,13360,284,13360
2013/05/31,13370,13400,13150,13250,1037,13250
2013/06/03,13010,13040,12790,12790,51,12790
2013/06/04,12730,12990,12500,12990,66,12990
2013/06/05,12900,12900,12900,12900,1,12900
2013/06/06,12440,12440,12370,12370,511,12370
2013/06/07,12110,12170,12090,12150,34,12150
2013/06/10,13050,13050,12650,12700,60,12700
2013/06/11,12800,12800,12700,12700,912,12700
2013/06/12,12400,12510,12300,12510,720,12510
2013/06/13,12520,12520,12110,12200,1214,12200
2013/06/14,13100,13100,12410,12410,4,12410
2013/06/17,12110,12110,12110,12110,1,12110
2013/06/18,12730,12730,12670,12670,100,12670
2013/06/19,12910,12910,12870,12870,54,12870
2013/06/20,12780,12780,12740,12780,1278,12780
2013/06/21,12770,12780,12770,12780,2,12780
2013/06/24,13240,13240,12950,12950,106,12950
2013/06/26,12920,12950,12710,12710,917,12710
2013/06/27,12890,12890,12890,12890,30,12890
2013/06/28,13210,13460,13210,13460,20,13460
2013/07/01,13560,13680,13460,13680,128,13680
2013/07/02,13810,14010,13810,14010,18,14010
2013/07/03,14060,14060,14060,14060,4,14060
2013/07/04,13910,13910,13910,13910,1,13910
2013/07/05,14000,14040,14000,14040,11,14040
2013/07/08,14250,14370,14140,14140,107,14140
2013/07/09,14390,14430,14390,14430,11,14430
2013/07/10,14470,14470,14390,14390,418,14390
2013/07/11,14390,14390,14310,14310,11,14310
2013/07/12,14430,14430,14430,14430,3,14430
2013/07/16,14680,14680,14350,14350,28,14350
2013/07/17,14200,14300,14180,14290,22,14290
2013/07/18,14420,14500,14420,14500,8,14500
2013/07/19,14640,14640,14360,14360,67,14360
2013/07/22,14540,14540,14540,14540,8,14540
2013/07/23,14390,14450,14390,14420,37,14420
2013/07/24,14380,14380,14340,14340,15,14340
2013/07/25,14340,14340,14340,14340,1,14340
2013/07/26,14100,14100,14020,14020,3,14020
2013/07/29,13750,13750,13570,13570,47,13570
2013/07/30,13620,13640,13620,13640,2,13640
2013/07/31,13600,13600,13600,13600,10,13600
2013/08/02,13940,14090,13940,14090,53,14090
2013/08/06,14000,14000,13800,13800,184,13800
2013/08/07,13830,13830,13800,13800,17,13800
2013/08/08,13700,13750,13700,13750,4,13750
2013/08/09,13340,13350,13210,13210,74,13210
2013/08/12,13100,13200,13100,13200,21,13200
2013/08/13,13420,13420,13390,13390,11,13390
2013/08/14,13440,13440,13440,13440,1,13440
2013/08/15,13360,13360,13360,13360,3,13360
2013/08/16,13250,13250,13250,13250,3,13250
2013/08/19,13250,13250,13250,13250,1,13250
2013/08/20,13150,13150,13150,13150,10,13150
2013/08/21,13010,13010,12950,12950,14,12950
2013/08/23,13270,13270,13270,13270,7,13270
2013/08/26,13410,13410,13290,13290,2,13290
2013/08/27,13200,13200,13200,13200,55,13200
2013/08/28,12950,12950,12940,12940,541,12940
2013/08/29,13120,13160,13120,13150,905,13150
2013/08/30,13230,13230,13100,13100,1000,13100
2013/09/02,13100,13100,13100,13100,1025,13100
2013/09/03,13160,13410,13160,13410,1741,13410
2013/09/04,13300,13450,13300,13450,2000,13450
2013/09/05,13380,13380,13350,13350,2050,13350
2013/09/06,13350,13350,13350,13350,1000,13350
2013/09/09,13480,13600,13480,13600,806,13600
2013/09/10,13700,13700,13670,13670,1035,13670
2013/09/11,13690,13750,13640,13640,2519,13640
2013/09/12,13550,13550,13530,13530,1001,13530
2013/09/13,13490,13490,13490,13490,1,13490
2013/09/17,13630,13630,13510,13520,31,13520
2013/09/18,13440,13580,13400,13580,1013,13580
2013/09/19,13680,13730,13680,13730,14,13730
2013/09/20,13760,13880,13760,13880,13,13880
2013/09/24,13610,13690,13610,13690,12,13690
2013/09/25,13670,13670,13670,13670,1,13670
2013/09/26,13800,13830,13800,13830,12,13830
2013/09/27,13910,13910,13910,13910,63,13910
2013/09/30,13780,13780,13780,13780,12,13780
2013/10/01,13740,13800,13740,13800,20,13800
2013/10/02,13730,13730,13600,13600,17,13600
2013/10/03,13390,13470,13390,13470,2,13470
2013/10/04,13370,13370,13370,13370,1,13370
2013/10/07,13270,13270,13140,13140,71,13140
2013/10/08,13130,13140,13130,13140,25,13140
2013/10/09,13170,13170,13170,13170,40,13170
2013/10/11,13500,13500,13500,13500,1,13500
2013/10/15,13630,13630,13620,13620,4,13620
2013/10/16,13690,13690,13670,13670,3,13670
2013/10/17,13680,13680,13680,13680,1,13680
2013/10/21,13700,13750,13700,13750,31,13750
2013/10/22,13790,13790,13790,13790,1,13790
2013/10/23,13800,13800,13770,13770,211,13770
2013/10/24,13560,13580,13560,13580,2,13580
2013/10/25,13550,13550,13550,13550,3,13550
2013/10/28,13700,13700,13700,13700,40,13700
2013/10/29,13610,13740,13610,13740,10,13740
2013/10/30,13750,13800,13750,13800,95,13800
2013/10/31,13710,13810,13710,13730,19,13730
2013/11/01,13750,13750,13750,13750,10,13750
2013/11/07,13510,13510,13510,13510,7,13510
2013/11/08,13310,13310,13180,13180,11,13180
2013/11/14,13650,13750,13650,13750,23,13750
2013/11/15,13890,13930,13890,13930,79,13930
2013/11/18,13930,13990,13930,13950,130,13950
2013/11/19,13950,14000,13950,14000,3,14000
2013/11/20,13990,14000,13990,14000,2,14000
2013/11/21,13990,14160,13990,14160,15,14160
2013/11/22,14200,14250,14000,14000,32,14000
2013/11/27,14110,14110,14110,14110,5,14110
2013/11/28,14110,14170,14110,14170,32,14170
2013/11/29,14170,14200,14170,14200,2,14200
2013/12/03,14190,14190,14190,14190,1,14190
2013/12/04,14120,14120,14120,14120,34,14120
2013/12/05,14110,14110,14110,14110,3,14110
2013/12/06,13850,13850,13850,13850,3,13850
2013/12/09,14030,14050,14030,14050,4,14050
2013/12/10,14090,14090,14090,14090,10,14090
2013/12/12,14120,14120,14060,14060,30,14060
2013/12/13,14120,14120,14030,14030,30,14030
2013/12/16,14020,14020,14020,14020,35,14020
2013/12/19,14320,14500,14320,14500,27,14500
2013/12/20,14400,14400,14400,14400,25,14400
2013/12/24,14450,14510,14430,14430,28,14430
2013/12/26,14550,14600,14550,14600,222,14600
2013/12/27,14780,14790,14750,14750,46,14750
2013/12/30,14950,14980,14950,14980,10,14980
2014/01/06,15000,15000,14880,14880,307,14880
2014/01/07,14750,14750,14750,14750,10,14750
2014/01/08,15030,15120,15030,15120,205,15120
2014/01/09,15020,15020,15020,15020,15,15020
2014/01/14,14700,14780,14700,14780,226,14780
2014/01/15,14830,14870,14830,14840,200,14840
2014/01/16,14850,14850,14850,14850,1,14850
2014/01/17,14920,14940,14910,14910,500,14910
2014/01/21,14820,14910,14820,14910,806,14910
2014/01/22,14840,14840,14760,14780,4,14780
2014/01/23,14750,14750,14730,14730,2,14730
2014/01/24,14380,14530,14300,14300,36,14300
2014/01/27,14130,14130,14130,14130,3,14130
2014/01/28,14130,14130,14130,14130,7,14130
2014/01/30,14300,14300,14300,14300,20,14300
2014/01/31,14300,14300,14300,14300,200,14300
2014/02/03,14000,14000,13960,13960,14,13960
2014/02/04,13660,13660,13340,13340,12,13340
2014/02/05,13480,13480,13480,13480,10,13480
2014/02/07,13410,13480,13400,13460,1146,13460
2014/02/10,13590,13650,13590,13650,35,13650
2014/02/14,13730,13730,13730,13730,2,13730
2014/02/18,13720,13720,13720,13720,1,13720
2014/02/20,13600,13600,13580,13580,8,13580
2014/02/21,13750,13790,13750,13790,4,13790
2014/02/26,13830,13830,13830,13830,9,13830
2014/02/27,13700,13700,13700,13700,1,13700
2014/02/28,13550,13550,13550,13550,1,13550
2014/03/03,13360,13360,13180,13180,19,13180
2014/03/05,13600,13600,13600,13600,3,13600
2014/03/06,13670,13670,13670,13670,1,13670
2014/03/10,13680,13680,13680,13680,1,13680
2014/03/12,13650,13650,13650,13650,1,13650
2014/03/13,13420,13420,13420,13420,3,13420
2014/03/14,13370,13370,13340,13340,14,13340
2014/03/17,13130,13130,13130,13130,10,13130
2014/03/18,13280,13280,13280,13280,5,13280
2014/03/20,13380,13380,13120,13120,10,13120
2014/03/24,13470,13470,13470,13470,3,13470
2014/03/25,13380,13380,13380,13380,3,13380
2014/03/26,13300,13300,13270,13270,7,13270
2014/03/27,13420,13620,13420,13610,57,13610
2014/04/01,13900,13900,13860,13860,24,13860
2014/04/02,14000,14000,14000,14000,1,14000
2014/04/03,14000,14000,13900,13960,154,13960
2014/04/04,13930,13990,13930,13990,53,13990
2014/04/07,13950,13950,13930,13930,12,13930
2014/04/11,13900,13900,13900,13900,4,13900
2014/04/14,13310,13400,13310,13310,29,13310
2014/04/15,13400,13400,13240,13240,29,13240
2014/04/16,13280,13380,13280,13380,23,13380
2014/04/21,13570,13570,13570,13570,1,13570
2014/04/22,13590,13590,13590,13590,1,13590
2014/04/24,13580,13580,13580,13580,1,13580
2014/04/25,13650,13650,13650,13650,6,13650
2014/05/01,13750,13750,13750,13750,7,13750
2014/05/02,13780,13780,13780,13780,5,13780
2014/05/09,13800,13800,13800,13800,47,13800
2014/05/12,13850,13850,13850,13850,220,13850
2014/05/13,13850,13850,13850,13850,5,13850
2014/05/15,13700,13700,13700,13700,10,13700
2014/05/16,13560,13560,13560,13560,3,13560
2014/05/19,13770,13770,13770,13770,3,13770
2014/05/22,13860,13860,13860,13860,2,13860
2014/05/23,13990,14000,13990,14000,24,14000
2014/05/27,14150,14150,14150,14150,16,14150
2014/05/30,14210,14210,14210,14210,3,14210
2014/06/02,14300,14300,14300,14300,3,14300
2014/06/09,14490,14490,14490,14490,1,14490
2014/06/10,14290,14300,14290,14300,206,14300
2014/06/12,14170,14170,14170,14170,6,14170
2014/06/13,14180,14180,14180,14180,12,14180
2014/06/16,14280,14280,14280,14280,30,14280
2014/06/19,14350,14350,14280,14280,2,14280
2014/06/23,14550,14550,14550,14550,3,14550
2014/06/27,14550,14550,14550,14550,25,14550
2014/06/30,14500,14600,14500,14600,21,14600
2014/07/02,14770,14770,14750,14750,11,14750
2014/07/04,14670,14670,14670,14670,300,14670
2014/07/07,14640,14640,14640,14640,10,14640
2014/07/08,14640,14640,14640,14640,3,14640
2014/07/10,14590,14590,14590,14590,1,14590
2014/07/15,14510,14510,14510,14510,7,14510
2014/07/16,14450,14450,14450,14450,7,14450
2014/07/17,14440,14440,14440,14440,2,14440
2014/07/24,14410,14410,14410,14410,5,14410
2014/07/29,14660,14680,14660,14680,6,14680
2014/07/31,14610,14610,14610,14610,20,14610
2014/08/04,14480,14480,14480,14480,30,14480
2014/08/07,14300,14300,14300,14300,35,14300
2014/08/14,14540,14580,14540,14580,621,14580
2014/08/18,14600,14600,14600,14600,1,14600
2014/08/19,14640,14640,14640,14640,9,14640
2014/08/22,14560,14560,14560,14560,10,14560
2014/09/01,14150,14150,14150,14150,10,14150
2014/09/02,14180,14180,14180,14180,5,14180
2014/09/18,14450,14450,14380,14380,12,14380
2014/09/19,14490,14610,14490,14610,63,14610
2014/09/22,14580,14580,14580,14580,1,14580
2014/09/24,14650,14650,14650,14650,10,14650
2014/09/25,14700,14770,14700,14770,17,14770
2014/09/29,14840,14840,14840,14840,10,14840
2014/09/30,14900,14900,14900,14900,22,14900
2014/10/01,14870,14900,14870,14900,238,14900
2014/10/02,14770,14770,14710,14710,35,14710
2014/10/03,14770,14770,14710,14710,101,14710
2014/10/06,14730,14870,14730,14870,85,14870
2014/10/09,14620,14620,14620,14620,44,14620
2014/10/10,14470,14500,14470,14500,33,14500
2014/10/14,14350,14380,14350,14380,36,14380
2014/10/15,14330,14390,14330,14350,5,14350
2014/10/16,14200,14200,14100,14100,6,14100
2014/10/17,14100,14100,13900,13900,65,13900
2014/10/24,14370,14370,14370,14370,40,14370
2014/10/27,14360,14360,14360,14360,20,14360
2014/10/30,14710,14800,14710,14800,16,14800
2014/10/31,14950,15000,14950,15000,22,15000
2014/11/04,16200,16200,15440,15440,45,15440
2014/11/05,15340,15420,15340,15420,640,15420
2014/11/06,15330,15330,15330,15330,5,15330
2014/11/11,15460,15600,15460,15600,296,15600
2014/11/12,15920,15920,15850,15850,608,15850
2014/11/13,15840,15960,15750,15960,348,15960
2014/11/14,16110,16120,16040,16040,33,16040
2014/11/17,16120,16120,15770,15770,51,15770
2014/11/18,15910,15980,15910,15980,31,15980
2014/11/19,16180,16180,15890,15890,209,15890
2014/11/21,15620,15620,15620,15620,20,15620
2014/11/25,15860,15860,15860,15860,6,15860
2014/11/26,15720,15720,15710,15710,125,15710
2014/11/27,15640,15640,15600,15600,6,15600
2014/11/28,15750,15750,15750,15750,3,15750
2014/12/01,15770,15810,15770,15810,30,15810
2014/12/02,15810,15810,15810,15810,41,15810
2014/12/03,15910,15940,15910,15940,16,15940
2014/12/08,15900,15900,15790,15800,385,15800
2014/12/09,15790,15790,15770,15770,8,15770
2014/12/10,15630,15630,15630,15630,1,15630
2014/12/11,15560,15560,15560,15560,20,15560
2014/12/12,15600,15600,15600,15600,7,15600
2014/12/15,15680,15680,15680,15680,5,15680
2014/12/16,15370,15370,15300,15300,121,15300
2014/12/17,15300,15300,15300,15300,100,15300
2014/12/18,15690,15690,15690,15690,1,15690
2014/12/19,15800,15820,15800,15820,23,15820
2014/12/24,16000,16020,16000,16010,70,16010
2014/12/25,16020,16020,16020,16020,6,16020
2014/12/26,16010,16010,16010,16010,101,16010
2014/12/29,16010,16040,16010,16040,26,16040
2014/12/30,16020,16020,16020,16020,60,16020
2015/01/05,15970,15970,15800,15800,105,15800
2015/01/06,15800,15800,15800,15800,249,15800
2015/01/07,15610,15610,15610,15610,9,15610
2015/01/08,15780,15780,15780,15780,1,15780
2015/01/09,16030,16030,15870,15870,10,15870
2015/01/13,15720,15720,15720,15720,2,15720
2015/01/19,15560,15560,15560,15560,1,15560
2015/01/22,15950,15950,15950,15950,1,15950
2015/01/23,15980,15980,15980,15980,1,15980
2015/01/26,15750,15860,15750,15860,21,15860
2015/01/27,16010,16010,16010,16010,1,16010
2015/01/28,16210,16350,16210,16350,131,16350
2015/02/03,16240,16240,16180,16180,4,16180
2015/02/04,16350,16350,16350,16350,251,16350
2015/02/05,16600,16730,16600,16710,10,16710
2015/02/06,16780,16780,16780,16780,3,16780
2015/02/09,16810,16810,16810,16810,1,16810
2015/02/12,16900,17110,16900,17110,2,17110
2015/02/13,17110,17110,17110,17110,20,17110
2015/02/16,17200,17200,17200,17200,6,17200
2015/02/17,17010,17210,17010,17210,7,17210
2015/02/18,17210,17210,17210,17210,1,17210
2015/02/23,17460,17460,17440,17440,11,17440
2015/02/24,17400,17450,17400,17450,302,17450
2015/02/25,17850,17850,17300,17510,257,17510
2015/02/26,17490,17490,17490,17490,1,17490
2015/02/27,17740,17740,17740,17740,11,17740
2015/03/02,17850,17850,17740,17740,22,17740
2015/03/04,17750,17750,17730,17730,206,17730
2015/03/05,17580,17700,17580,17700,5,17700
2015/03/06,17930,17930,17930,17930,10,17930
2015/03/09,18120,18120,18050,18050,9,18050
2015/03/10,18300,18300,18070,18070,30,18070
2015/03/11,17990,17990,17740,17740,112,17740
2015/03/12,17990,18180,17990,18010,21,18010
2015/03/13,18300,18300,18290,18290,214,18290
2015/03/16,18390,18400,18220,18220,102,18220
2015/03/17,18370,18370,18370,18370,47,18370
2015/03/18,18210,18210,18210,18210,20,18210
2015/03/19,18600,18600,18350,18350,102,18350
2015/03/23,18630,18900,18630,18900,94,18900
2015/03/24,18630,18850,18630,18850,106,18850
2015/03/25,18800,18800,18800,18800,51,18800
2015/03/26,18480,18480,18480,18480,30,18480
2015/03/27,18720,18720,18720,18720,20,18720
2015/03/30,18740,18740,18690,18690,30,18690
2015/03/31,18730,18890,18730,18870,60,18870
2015/04/01,18660,18660,18210,18450,140,18450
2015/04/03,18730,18730,18730,18730,10,18730
2015/04/06,18980,18980,18710,18980,117,18980
2015/04/07,19180,19240,18900,18900,161,18900
2015/04/08,18920,19320,18920,19320,361,19320
2015/04/09,19420,19630,19310,19620,68,19620
2015/04/10,19780,19910,19730,19890,148,19890
2015/04/13,19960,19960,19650,19830,290,19830
2015/04/14,19840,19940,19840,19840,54,19840
2015/04/15,19840,19840,19730,19730,27,19730
2015/04/16,19600,19600,19340,19400,99,19400
2015/04/17,19180,19180,19180,19180,19,19180
2015/04/20,18870,19220,18870,18990,43,18990
2015/04/21,19130,19130,19130,19130,20,19130
2015/04/22,19370,19410,19220,19360,383,19360
2015/04/23,19490,19490,19190,19280,148,19280
2015/04/24,19070,19070,19070,19070,25,19070
2015/04/27,19350,19350,19310,19310,2,19310
2015/04/28,19260,19450,19260,19310,4,19310
2015/04/30,19280,19280,19000,19000,24,19000
2015/05/01,18790,18900,18790,18900,50,18900
2015/05/07,18850,18850,18850,18850,5,18850
2015/05/08,18750,18750,18750,18750,56,18750
2015/05/11,19160,19170,18940,18940,74,18940
2015/05/13,19100,19100,19100,19100,1,19100
2015/05/14,19000,19000,19000,19000,20,19000
2015/05/15,19190,19190,19190,19190,5,19190
2015/05/18,19220,19360,19220,19360,6,19360
2015/05/19,19450,19500,19450,19500,52,19500
2015/05/20,19880,19910,19650,19670,211,19670
2015/05/21,19850,19850,19630,19660,52,19660
2015/05/22,19690,19690,19690,19690,40,19690
2015/05/25,19720,19720,19720,19720,10,19720
2015/05/26,19820,19820,19820,19820,35,19820
2015/05/27,20000,20000,19900,19900,3,19900
2015/05/28,19810,19810,19810,19810,3,19810
2015/06/01,19700,19970,19590,19970,26,19970
2015/06/02,19790,19980,19790,19800,27,19800
2015/06/05,19830,19830,19830,19830,5,19830
2015/06/08,19870,19980,19870,19980,2,19980
2015/06/09,19840,19840,19780,19780,4,19780
2015/06/11,19450,19790,19450,19790,70,19790
2015/06/12,19880,19880,19880,19880,1,19880
2015/06/15,19920,19920,19920,19920,19,19920
2015/06/16,20150,20160,19890,19930,52,19930
2015/06/18,20180,20180,19920,19920,171,19920
2015/06/22,20370,20480,20370,20480,25,20480
2015/06/23,20500,20600,20500,20600,43,20600
2015/06/24,20620,20660,20620,20660,48,20660
2015/06/25,20880,20880,20750,20750,26,20750
2015/06/26,21010,21010,20760,20780,38,20780
2015/06/29,19780,20430,19780,20350,32,20350
2015/06/30,20810,20820,20570,20680,68,20680
