2011/01/17,9060,9080,9060,9080,110,9080
2011/01/21,8920,8920,8920,8920,10,8920
2011/02/09,9140,9140,9140,9140,10,9140
2011/02/10,9180,9180,9180,9180,110,9180
2011/02/15,9230,9230,9230,9230,10,9230
2011/02/18,9350,9350,9350,9350,3,9350
2011/02/24,9230,9230,9230,9230,1,9230
2011/03/14,8330,8480,8330,8480,11,8480
2011/03/15,7650,7710,7650,7710,230,7710
2011/03/16,7650,7710,7650,7710,70,7710
2011/03/17,7820,7820,7790,7790,21,7790
2011/03/18,7900,7900,7900,7900,1,7900
2011/03/22,8190,8190,8190,8190,27,8190
2011/03/25,8100,8100,8100,8100,1,8100
2011/03/29,8190,8190,8190,8190,1,8190
2011/03/31,8420,8420,8420,8420,5,8420
2011/04/18,8410,8410,8410,8410,6,8410
2011/04/28,8440,8450,8440,8450,14,8450
2011/05/16,8430,8430,8430,8430,1,8430
2011/05/23,8430,8430,8430,8430,1,8430
2011/06/15,8740,8740,8740,8740,2,8740
2011/06/21,8610,8610,8610,8610,1,8610
2011/06/29,8610,8840,8610,8840,2,8840
2011/07/05,8990,8990,8990,8990,1,8990
2011/07/14,9250,9250,9250,9250,11,9250
2011/07/29,9000,9000,9000,9000,1,9000
2011/08/11,8430,8430,8430,8430,1,8430
2011/08/12,8710,8710,8710,8710,1,8710
2011/09/14,8840,8840,8840,8840,10,8840
2011/09/15,8860,8860,8860,8860,1,8860
2011/09/22,8770,8770,8770,8770,1,8770
2011/09/26,8710,8710,8710,8710,1,8710
2011/10/05,9010,9010,9010,9010,1,9010
2011/10/11,9020,9020,9020,9020,1,9020
2011/10/26,8780,8780,8780,8780,1,8780
2011/11/22,8720,8720,8720,8720,1,8720
2011/12/08,8850,8850,8850,8850,1,8850
2011/12/22,8900,8900,8900,8900,1,8900
2012/02/20,9130,9130,9130,9130,3,9130
2012/02/22,9200,9200,9200,9200,3,9200
2012/02/28,9190,9190,9190,9190,1,9190
2012/02/29,9300,9350,9300,9350,11,9350
2012/04/11,9740,9740,9740,9740,2,9740
2012/04/13,9870,9870,9870,9870,2,9870
2012/04/23,9800,9810,9800,9810,62,9810
2012/05/15,9210,9210,9210,9210,1,9210
2012/06/13,8930,8930,8930,8930,1,8930
2012/06/20,9080,9080,9080,9080,1,9080
2012/07/03,9450,9450,9450,9450,1,9450
2012/08/28,9610,9610,9610,9610,1,9610
2012/12/19,9470,9470,9470,9470,1,9470
2012/12/28,9800,9800,9800,9800,1,9800
2013/01/04,9960,9960,9960,9960,5,9960
2013/01/15,10290,10290,10290,10290,1,10290
2013/01/16,10260,10260,10260,10260,5,10260
2013/02/08,10540,10750,10540,10750,503,10750
2013/02/20,10900,10900,10900,10900,2,10900
2013/02/21,10980,10980,10980,10980,26,10980
2013/02/26,10940,10980,10940,10980,5,10980
2013/02/27,10920,10920,10840,10840,2,10840
2013/02/28,10770,10770,10770,10770,21,10770
2013/03/01,10940,10940,10940,10940,3,10940
2013/03/04,11210,11210,11210,11210,1,11210
2013/03/06,11500,11500,11500,11500,1,11500
2013/03/07,11700,11700,11700,11700,10,11700
2013/03/08,11620,11620,11620,11620,14,11620
2013/03/13,11750,11750,11660,11660,2,11660
2013/03/15,11840,11870,11840,11870,31,11870
2013/03/18,11990,11990,11990,11990,10,11990
2013/03/21,12310,12310,12240,12300,8,12300
2013/03/26,12420,12420,12420,12420,1,12420
2013/03/28,12740,12740,12740,12740,1,12740
2013/04/01,12670,12670,12670,12670,1,12670
2013/04/02,12260,12420,12260,12420,2,12420
2013/04/03,12460,12560,12460,12560,3,12560
2013/04/04,12540,12540,12540,12540,4,12540
2013/04/12,13910,13910,13910,13910,1,13910
2013/04/15,13830,13830,13830,13830,31,13830
2013/04/16,13570,13770,13570,13770,21,13770
2013/04/17,13850,13850,13850,13850,5,13850
2013/04/19,13910,13910,13910,13910,30,13910
2013/04/23,14310,14310,14310,14310,10,14310
2013/04/24,14350,14350,14210,14210,32,14210
2013/04/26,14240,14240,14240,14240,1,14240
2013/04/30,14310,14310,14310,14310,1,14310
2013/05/01,14410,14410,14410,14410,1,14410
2013/05/02,14330,14330,14330,14330,10,14330
2013/05/07,14450,14450,14450,14450,20,14450
2013/05/08,14600,14600,14600,14600,20,14600
2013/05/09,14600,14600,14450,14450,38,14450
2013/05/13,14550,14550,14550,14550,10,14550
2013/05/15,14770,14780,14770,14780,6,14780
2013/05/16,14450,14450,14450,14450,1,14450
2013/05/17,14560,14920,14560,14620,342,14620
2013/05/20,14740,14740,14740,14740,6,14740
2013/05/21,14420,14420,14420,14420,45,14420
2013/05/22,14590,14590,14590,14590,1,14590
2013/05/23,14350,14350,14350,14350,1,14350
2013/05/24,13880,13920,13550,13650,129,13650
2013/05/27,13500,13500,13500,13500,2,13500
2013/05/28,13370,13370,13370,13370,20,13370
2013/05/30,13150,13150,13130,13130,81,13130
2013/05/31,13230,13230,13230,13230,81,13230
2013/06/03,13000,13000,13000,13000,1,13000
2013/06/07,12120,12120,12120,12120,1,12120
2013/06/11,12710,12710,12710,12710,1,12710
2013/07/01,13650,13650,13650,13650,4,13650
2013/07/03,13950,13950,13950,13950,3,13950
2013/07/08,14220,14220,14220,14220,5,14220
2013/07/24,14520,14520,14500,14500,3,14500
2013/07/25,14420,14420,14320,14320,3,14320
2013/07/26,14160,14160,14160,14160,1,14160
2013/07/29,13610,13610,13610,13610,2,13610
2013/08/07,13780,13780,13780,13780,1,13780
2013/08/08,13410,13410,13410,13410,36,13410
2013/08/12,13310,13310,13310,13310,36,13310
2013/08/13,13450,13450,13450,13450,1,13450
2013/08/14,13500,13500,13500,13500,1,13500
2013/08/20,13250,13250,13250,13250,1,13250
2013/09/05,13460,13460,13460,13460,1,13460
2013/09/11,13680,13680,13680,13680,1,13680
2013/09/12,13560,13560,13560,13560,1,13560
2013/09/13,13520,13520,13520,13520,1,13520
2013/09/17,13520,13520,13520,13520,18,13520
2013/09/18,13560,13560,13560,13560,20,13560
2013/09/26,13910,13910,13910,13910,10,13910
2013/09/30,13780,13780,13780,13780,1,13780
2013/10/01,13810,13820,13780,13780,12,13780
2013/10/04,13400,13400,13400,13400,1,13400
2013/10/07,13200,13200,13200,13200,10,13200
2013/10/15,13640,13640,13640,13640,2,13640
2013/10/17,13640,13740,13640,13660,382,13660
2013/10/22,13790,13790,13790,13790,2,13790
2013/10/23,13600,13600,13600,13600,18,13600
2013/10/24,13670,13670,13670,13670,19,13670
2013/10/31,13730,13730,13730,13730,1,13730
2013/11/07,13550,13550,13540,13540,2,13540
2013/11/08,13410,13410,13410,13410,1,13410
2013/11/21,14100,14100,14100,14100,1,14100
2013/11/28,14240,14240,14240,14240,1,14240
2013/12/03,14350,14350,14350,14350,1,14350
2013/12/13,14110,14110,14110,14110,5,14110
2013/12/18,14110,14110,14110,14110,1,14110
2013/12/30,14940,14940,14940,14940,1,14940
2014/01/15,14880,14880,14870,14870,12,14870
2014/01/16,14700,14700,14700,14700,7,14700
2014/01/17,14680,14680,14680,14680,5,14680
2014/01/21,14790,14790,14790,14790,6,14790
2014/01/23,14600,14600,14600,14600,1,14600
2014/01/24,14400,14400,14400,14400,5,14400
2014/01/30,14270,14270,14220,14220,6,14220
2014/02/14,13720,13720,13720,13720,1,13720
2014/02/17,13350,13350,13350,13350,1,13350
2014/02/24,13700,13700,13700,13700,1,13700
2014/02/27,13670,13670,13670,13670,1,13670
2014/04/08,13840,13840,13830,13830,15,13830
2014/04/11,13300,13300,13300,13300,1,13300
2014/04/14,13240,13240,13240,13240,1,13240
2014/05/13,13790,13790,13790,13790,1,13790
2014/06/02,14250,14250,14250,14250,1,14250
2014/06/03,14340,14340,14340,14340,1,14340
2014/06/09,14470,14470,14470,14470,2,14470
2014/06/19,14330,14330,14330,14330,1,14330
2014/06/26,14410,14410,14410,14410,1,14410
2014/07/03,14680,14680,14680,14680,1,14680
2014/07/08,14630,14630,14630,14630,1,14630
2014/07/10,14600,14600,14600,14600,3,14600
2014/07/11,14420,14420,14420,14420,1,14420
2014/07/15,14580,14580,14580,14580,1,14580
2014/07/18,14360,14360,14360,14360,1,14360
2014/07/29,14620,14620,14620,14620,3,14620
2014/08/14,14540,14540,14540,14540,2,14540
2014/08/20,14600,14600,14600,14600,4,14600
2014/08/26,14380,14380,14380,14380,1,14380
2014/09/22,14450,14450,14450,14450,5,14450
2014/10/06,14740,14740,14740,14740,1,14740
2014/10/07,14980,14980,14980,14980,22,14980
2014/10/08,14460,14460,14460,14460,22,14460
2014/10/14,14220,14220,14220,14220,1,14220
2014/10/15,14240,14240,14240,14240,21,14240
2014/10/31,14900,14900,14900,14900,1,14900
2014/12/25,16050,16050,16050,16050,5,16050
2015/01/07,15630,15670,15620,15660,18,15660
2015/01/14,15520,15520,15520,15520,2,15520
2015/01/16,15340,15340,15340,15340,3,15340
2015/01/20,15660,15660,15660,15660,2,15660
2015/01/26,15410,15410,15410,15410,1,15410
2015/02/13,16880,16880,16880,16880,1,16880
2015/02/17,17020,17020,17020,17020,1,17020
2015/02/18,17150,17150,17150,17150,6,17150
2015/02/19,17210,17210,17210,17210,2,17210
2015/02/20,17200,17200,17200,17200,3,17200
2015/02/27,17310,17530,17310,17530,2,17530
2015/03/02,17730,17730,17730,17730,5,17730
2015/03/03,17770,17770,17770,17770,10,17770
2015/03/04,17660,17660,17660,17660,19,17660
2015/03/05,17560,17560,17560,17560,34,17560
2015/03/23,18690,18690,18690,18690,1,18690
2015/03/27,18500,18500,18500,18500,1,18500
2015/04/01,18100,18100,18100,18100,6,18100
2015/04/07,18920,18920,18910,18920,28,18920
2015/04/08,19110,19110,19110,19110,5,19110
2015/04/16,19350,19350,19350,19350,5,19350
2015/04/24,19500,19500,19500,19500,1,19500
2015/04/27,19160,19160,19160,19160,4,19160
2015/04/28,19350,19350,19350,19350,3,19350
2015/04/30,18920,18920,18920,18920,1,18920
2015/05/18,19310,19310,19310,19310,3,19310
2015/05/26,19840,19840,19840,19840,4,19840
2015/05/27,19880,19880,19880,19880,20,19880
2015/06/02,19900,19900,19900,19900,1,19900
2015/06/05,19900,19900,19900,19900,1,19900
2015/06/16,19910,19910,19910,19910,1,19910
2015/06/18,19870,19870,19870,19870,1,19870
2015/06/23,20620,20620,20620,20620,1,20620
2015/06/29,20600,20600,20600,20600,20,20600
2015/07/01,20890,20890,20890,20890,11,20890
