2011/01/04,43100,43400,43100,43400,110,43400
2011/01/05,43750,43800,43350,43450,520,43450
2011/01/06,43450,43600,43400,43600,660,43600
2011/01/07,43850,43850,43500,43550,520,43550
2011/01/11,43700,43700,43550,43600,630,43600
2011/01/12,43650,43650,43450,43500,330,43500
2011/01/13,43600,43700,43500,43600,660,43600
2011/01/14,43500,43700,43500,43650,220,43650
2011/01/17,43700,43700,43500,43500,830,43500
2011/01/18,43600,43600,43400,43500,170,43500
2011/01/19,43650,43650,43500,43600,160,43600
2011/01/20,43650,43650,43550,43550,210,43550
2011/01/21,43600,43650,43500,43550,540,43550
2011/01/24,43700,43800,43550,43550,340,43550
2011/01/25,43550,43800,43550,43650,140,43650
2011/01/26,43650,43650,43500,43600,530,43600
2011/01/27,43500,43550,43450,43500,290,43500
2011/01/28,43600,43650,43550,43600,460,43600
2011/01/31,43700,43700,43400,43500,630,43500
2011/02/01,43600,43600,43500,43600,290,43600
2011/02/02,43550,43550,43500,43500,330,43500
2011/02/03,43450,43600,43450,43600,190,43600
2011/02/04,43600,43600,43500,43550,170,43550
2011/02/07,43600,43900,43600,43800,480,43800
2011/02/08,43750,43750,43600,43600,150,43600
2011/02/09,43700,43800,43700,43700,110,43700
2011/02/10,43800,43800,43700,43800,90,43800
2011/02/14,43700,43700,43200,43400,1570,43400
2011/02/15,43500,43500,43100,43300,530,43300
2011/02/16,43400,43400,43200,43250,290,43250
2011/02/17,43300,43500,43250,43500,420,43500
2011/02/18,43550,43550,43400,43450,250,43450
2011/02/21,43450,43650,43450,43500,220,43500
2011/02/22,43600,43600,43400,43400,540,43400
2011/02/23,43550,43550,43300,43300,530,43300
2011/02/24,43500,43600,43350,43350,190,43350
2011/02/25,43450,43450,43300,43400,250,43400
2011/02/28,43450,43450,43200,43300,1100,43300
2011/03/01,43400,43400,43300,43400,210,43400
2011/03/02,43400,43400,43300,43350,180,43350
2011/03/03,43550,43550,43350,43350,180,43350
2011/03/04,43400,43500,43400,43500,170,43500
2011/03/07,43600,43600,43450,43600,290,43600
2011/03/08,43500,43500,43350,43400,280,43400
2011/03/09,43400,43600,43400,43400,130,43400
2011/03/10,43500,43500,43400,43450,150,43450
2011/03/11,43400,43400,43300,43400,320,43400
2011/03/14,43200,43200,42800,43050,1360,43050
2011/03/15,43000,43150,42100,42400,1250,42400
2011/03/16,42400,42950,42300,42950,570,42950
2011/03/17,42050,42400,41800,42400,1180,42400
2011/03/18,42850,43300,42500,43100,780,43100
2011/03/22,43100,43500,43100,43400,700,43400
2011/03/23,43500,43500,43350,43400,670,43400
2011/03/24,43350,43350,43150,43150,510,43150
2011/03/25,43450,43450,43200,43250,370,43250
2011/03/28,43450,43450,43250,43400,610,43400
2011/03/29,43450,43450,43350,43350,650,43350
2011/03/30,43450,43600,43450,43600,210,43600
2011/03/31,43800,43950,43700,43950,500,43950
2011/04/01,44100,44400,44100,44350,1120,44350
2011/04/04,45350,45350,44700,44950,1530,44950
2011/04/05,45250,45250,44950,45050,1150,45050
2011/04/06,45100,45400,45050,45200,810,45200
2011/04/07,45550,45600,45150,45200,740,45200
2011/04/08,45100,45150,45000,45150,790,45150
2011/04/11,45500,45550,45200,45400,440,45400
2011/04/12,45400,45400,45150,45150,750,45150
2011/04/13,45150,45150,44700,44700,830,44700
2011/04/14,44850,44850,44700,44700,830,44700
2011/04/15,44750,44800,44700,44800,330,44800
2011/04/18,44800,44800,44350,44350,800,44350
2011/04/19,44450,44500,44000,44000,1520,44000
2011/04/20,44200,44200,44000,44150,190,44150
2011/04/21,44250,44500,44250,44450,380,44450
2011/04/22,44200,44450,44200,44400,630,44400
2011/04/25,44400,44450,44300,44450,330,44450
2011/04/26,44400,44400,44250,44250,230,44250
2011/04/27,44400,44400,44300,44400,420,44400
2011/04/28,44500,44700,44500,44500,220,44500
2011/05/02,44500,44550,44400,44500,660,44500
2011/05/06,44000,44050,43800,44000,1730,44000
2011/05/09,44300,44300,43950,44000,520,44000
2011/05/10,44000,44000,43950,44000,190,44000
2011/05/11,44000,44050,43950,44000,470,44000
2011/05/12,44000,44000,43700,43700,580,43700
2011/05/13,43800,44000,43700,44000,550,44000
2011/05/16,43700,43900,43500,43550,1350,43550
2011/05/17,43550,43800,43550,43700,420,43700
2011/05/18,43900,43950,43750,43950,550,43950
2011/05/19,44000,44000,43800,44000,970,44000
2011/05/20,44050,44050,44000,44050,370,44050
2011/05/23,44050,44050,43900,43900,770,43900
2011/05/24,43900,44100,43900,44100,280,44100
2011/05/25,44050,44100,43900,44000,460,44000
2011/05/26,43950,44100,43950,44000,540,44000
2011/05/27,43950,44000,43950,44000,170,44000
2011/05/30,44050,44050,44000,44050,460,44050
2011/05/31,44050,44100,44050,44100,280,44100
2011/06/01,44200,44250,44200,44250,240,44250
2011/06/02,44200,44200,44100,44100,600,44100
2011/06/03,44300,44300,44200,44250,250,44250
2011/06/06,44300,44400,44250,44350,440,44350
2011/06/07,44350,44350,44250,44250,590,44250
2011/06/08,44200,44200,43950,44000,850,44000
2011/06/09,44050,44100,44000,44000,320,44000
2011/06/10,43950,43950,43750,43750,980,43750
2011/06/13,43900,43900,43700,43700,680,43700
2011/06/14,43750,43800,43750,43750,250,43750
2011/06/15,44000,44000,43800,43800,110,43800
2011/06/16,43850,43850,43600,43600,750,43600
2011/06/17,43600,43800,43500,43500,330,43500
2011/06/20,43700,43750,43400,43400,820,43400
2011/06/21,43450,43650,43400,43400,420,43400
2011/06/22,43800,43850,43750,43750,450,43750
2011/06/23,43800,43800,43650,43650,440,43650
2011/06/24,43850,43850,43650,43850,140,43850
2011/06/27,43900,43900,43750,43750,1530,43750
2011/06/28,43800,44000,43800,44000,160,44000
2011/06/29,44000,44050,43900,44050,340,44050
2011/06/30,44050,44050,43950,43950,420,43950
2011/07/01,44000,44000,43950,44000,530,44000
2011/07/04,44050,44100,44000,44000,650,44000
2011/07/05,44100,44100,43950,43950,580,43950
2011/07/06,43950,44000,43850,43900,270,43900
2011/07/07,43950,43950,43800,43800,340,43800
2011/07/08,43950,44000,43950,43950,180,43950
2011/07/11,44000,44000,43700,43700,940,43700
2011/07/12,43800,43800,42900,43000,4510,43000
2011/07/13,42900,43100,42800,42950,3050,42950
2011/07/14,43100,43100,42750,43000,660,43000
2011/07/15,43000,43000,42750,42750,770,42750
2011/07/19,42750,42850,42500,42500,1200,42500
2011/07/20,42550,42700,42450,42450,560,42450
2011/07/21,42450,42650,42450,42650,500,42650
2011/07/22,42750,42800,42650,42650,590,42650
2011/07/25,42750,42800,42500,42700,1320,42700
2011/07/26,42750,42750,42550,42600,830,42600
2011/07/27,42750,42750,42450,42550,1260,42550
2011/07/28,42400,42400,42200,42200,1430,42200
2011/07/29,42400,42400,41950,42200,1800,42200
2011/08/01,42450,42450,42200,42300,1610,42300
2011/08/02,42450,42500,42400,42500,530,42500
2011/08/03,42500,42500,42450,42500,220,42500
2011/08/04,42550,42650,42500,42550,630,42550
2011/08/05,42500,42550,42400,42500,590,42500
2011/08/08,41700,42100,41700,42000,720,42000
2011/08/09,41850,41900,41200,41500,1840,41500
2011/08/10,41650,42000,41650,42000,840,42000
2011/08/11,41850,41850,41500,41500,910,41500
2011/08/12,41650,41900,41650,41700,580,41700
2011/08/15,41900,42000,41900,42000,120,42000
2011/08/16,42000,42100,42000,42100,470,42100
2011/08/17,42000,42100,41950,42050,180,42050
2011/08/18,42000,42100,42000,42100,180,42100
2011/08/19,41950,42150,41950,42150,390,42150
2011/08/22,42250,42350,42200,42200,410,42200
2011/08/23,42100,42400,42100,42300,130,42300
2011/08/24,42300,42300,42300,42300,60,42300
2011/08/25,42400,42400,42200,42200,660,42200
2011/08/26,42200,42300,42200,42300,240,42300
2011/08/29,42400,42400,42300,42300,40,42300
2011/08/30,42300,42550,42300,42550,400,42550
2011/08/31,42500,42500,42400,42400,110,42400
2011/09/01,42400,42450,42300,42450,80,42450
2011/09/02,42350,42350,42200,42200,350,42200
2011/09/05,42200,42350,42200,42200,240,42200
2011/09/06,42200,42250,42050,42050,660,42050
2011/09/07,41900,42000,41900,41900,190,41900
2011/09/08,42200,42300,42200,42200,110,42200
2011/09/09,42300,42300,41900,41900,90,41900
2011/09/12,41900,41950,41650,41700,420,41700
2011/09/13,41700,41900,41650,41800,260,41800
2011/09/14,41700,41750,41000,41200,1190,41200
2011/09/15,41250,41300,41200,41200,310,41200
2011/09/16,41400,41400,41200,41250,160,41250
2011/09/20,41200,41200,41000,41000,390,41000
2011/09/21,41050,41050,41000,41050,590,41050
2011/09/22,40850,40850,40800,40850,530,40850
2011/09/26,40850,40850,40350,40350,2020,40350
2011/09/27,40300,40800,40300,40750,640,40750
2011/09/28,40750,40800,40350,40350,210,40350
2011/09/29,40350,40350,40350,40350,320,40350
2011/09/30,40500,40500,40350,40350,110,40350
2011/10/03,40500,40500,40350,40350,50,40350
2011/10/04,40300,40300,39950,40050,590,40050
2011/10/05,40050,40200,39850,39850,330,39850
2011/10/06,40150,40400,40150,40250,510,40250
2011/10/07,40400,40400,40150,40250,90,40250
2011/10/11,39950,40200,39950,40100,410,40100
2011/10/12,39900,40100,39900,39950,190,39950
2011/10/13,40100,40200,40100,40200,90,40200
2011/10/14,40200,40200,40150,40150,110,40150
2011/10/17,40200,40250,40150,40150,170,40150
2011/10/18,40150,40200,40100,40200,80,40200
2011/10/19,40200,40200,39950,39950,360,39950
2011/10/20,39950,40000,39950,39950,80,39950
2011/10/21,40000,40000,39950,39950,170,39950
2011/10/24,40000,40000,39900,39950,170,39950
2011/10/25,40000,40000,39850,40000,240,40000
2011/10/26,39900,39950,39850,39900,220,39900
2011/10/27,39850,40050,39850,39950,330,39950
2011/10/28,40150,40150,40000,40000,220,40000
2011/10/31,40150,41000,40150,40550,870,40550
2011/11/01,40700,40700,40200,40200,150,40200
2011/11/02,40050,40500,40050,40400,100,40400
2011/11/04,40500,40500,40300,40500,130,40500
2011/11/07,40300,40450,40150,40150,230,40150
2011/11/08,40100,40200,40000,40100,260,40100
2011/11/09,40050,40100,40000,40000,60,40000
2011/11/10,39950,39950,39800,39800,650,39800
2011/11/11,39950,39950,39600,39600,230,39600
2011/11/14,39550,39950,39550,39900,590,39900
2011/11/15,39750,40100,39750,40050,150,40050
2011/11/16,40000,40100,39900,40100,190,40100
2011/11/17,40000,40000,39850,39850,80,39850
2011/11/18,39850,39850,39750,39800,130,39800
2011/11/21,39800,39800,39550,39550,190,39550
2011/11/22,39600,39650,39550,39650,270,39650
2011/11/24,39500,39600,39500,39600,210,39600
2011/11/25,39500,39550,39500,39500,470,39500
2011/11/28,39350,39400,39350,39350,410,39350
2011/11/29,39450,39600,39450,39600,480,39600
2011/11/30,39550,39700,39500,39550,260,39550
2011/12/01,39900,40000,39750,39750,280,39750
2011/12/02,39800,40000,39800,40000,340,40000
2011/12/05,39850,40100,39850,40050,230,40050
2011/12/06,40400,40400,40050,40050,450,40050
2011/12/07,40000,40050,39950,39950,320,39950
2011/12/08,40000,40050,40000,40000,170,40000
2011/12/09,40100,40100,39900,39900,140,39900
2011/12/12,40050,40050,39900,39900,400,39900
2011/12/13,39900,39900,39700,39700,180,39700
2011/12/14,39700,39700,39500,39500,480,39500
2011/12/15,39450,39600,39450,39600,90,39600
2011/12/16,39500,39650,39500,39650,190,39650
2011/12/19,39650,39800,39600,39800,290,39800
2011/12/20,39700,39850,39700,39750,50,39750
2011/12/21,39900,39950,39700,39700,430,39700
2011/12/22,39650,39900,39650,39900,100,39900
2011/12/26,39900,39900,39600,39600,260,39600
2011/12/27,39600,39800,39600,39750,760,39750
2011/12/28,39700,39750,39600,39750,190,39750
2011/12/29,39800,39800,39700,39700,30,39700
2011/12/30,39650,39650,39550,39550,320,39550
2012/01/04,39400,39700,39400,39450,690,39450
2012/01/05,39100,39200,39000,39050,880,39050
2012/01/06,39050,39250,39050,39250,120,39250
2012/01/10,39200,39200,39000,39000,410,39000
2012/01/11,39000,39050,39000,39000,590,39000
2012/01/12,39000,39000,38850,38950,470,38950
2012/01/13,38950,39100,38900,39000,230,39000
2012/01/16,38950,38950,38800,38800,350,38800
2012/01/17,38800,38850,38800,38800,150,38800
2012/01/18,38800,39050,38800,38950,150,38950
2012/01/19,39050,39200,39000,39200,190,39200
2012/01/20,39200,39400,39050,39050,170,39050
2012/01/23,39400,39400,39200,39200,140,39200
2012/01/24,39200,39250,39200,39250,30,39250
2012/01/25,39250,39600,39250,39450,230,39450
2012/01/26,39500,39800,39500,39650,330,39650
2012/01/27,39550,39850,39550,39650,240,39650
2012/01/30,39800,39800,39700,39700,50,39700
2012/01/31,39650,39650,39500,39550,120,39550
2012/02/01,39650,39650,39450,39500,150,39500
2012/02/02,39500,39600,39500,39600,100,39600
2012/02/03,39700,39700,39600,39600,30,39600
2012/02/06,39600,39750,39500,39750,90,39750
2012/02/07,39850,39850,39750,39750,130,39750
2012/02/08,39950,39950,39800,39900,200,39900
2012/02/09,39900,40200,39900,40000,470,40000
2012/02/10,40400,40400,40100,40100,260,40100
2012/02/13,40050,40300,40050,40250,100,40250
2012/02/14,40100,40150,40100,40150,30,40150
2012/02/15,40300,40550,40300,40550,740,40550
2012/02/16,40450,40500,40400,40450,90,40450
2012/02/17,40450,40800,40450,40800,490,40800
2012/02/20,41100,41250,41050,41100,470,41100
2012/02/21,41250,41250,41050,41200,170,41200
2012/02/22,41250,41350,41100,41350,650,41350
2012/02/23,41400,41500,41400,41450,300,41450
2012/02/24,41500,41800,41500,41800,1090,41800
2012/02/27,41900,42150,41900,42000,610,42000
2012/02/28,42100,42100,41800,42100,290,42100
2012/02/29,42100,42200,41900,42000,130,42000
2012/03/01,42200,42300,41950,41950,210,41950
2012/03/02,42400,42400,42300,42300,240,42300
2012/03/05,42300,42500,42300,42400,250,42400
2012/03/06,42500,42550,42350,42400,380,42400
2012/03/07,42050,42050,41800,41950,390,41950
2012/03/08,42050,42150,42000,42100,210,42100
2012/03/09,42100,42500,42100,42500,700,42500
2012/03/12,42600,42600,42450,42550,230,42550
2012/03/13,42400,42650,42350,42650,760,42650
2012/03/14,42550,42800,42550,42750,640,42750
2012/03/15,42850,43050,42750,42850,820,42850
2012/03/16,42950,42950,42850,42850,140,42850
2012/03/19,42850,42900,42800,42800,220,42800
2012/03/21,42850,43000,42850,43000,530,43000
2012/03/22,42950,42950,42850,42900,280,42900
2012/03/23,42850,42850,42550,42600,230,42600
2012/03/26,42450,42900,42450,42800,600,42800
2012/03/27,42750,42900,42750,42850,470,42850
2012/03/28,42850,43000,42850,43000,370,43000
2012/03/29,42850,43000,42800,43000,80,43000
2012/03/30,42850,42850,42700,42700,260,42700
2012/04/02,42950,43100,42800,43100,730,43100
2012/04/03,43000,43000,42500,42500,250,42500
2012/04/04,42700,42700,42700,42700,50,42700
2012/04/05,42550,42550,42500,42500,390,42500
2012/04/06,42500,42500,42300,42300,170,42300
2012/04/09,42050,42150,41850,41950,370,41950
2012/04/10,41900,41950,41850,41850,110,41850
2012/04/11,41700,41700,41500,41500,400,41500
2012/04/12,41700,41750,41700,41750,100,41750
2012/04/13,41800,41900,41800,41900,50,41900
2012/04/16,41950,41950,41600,41600,380,41600
2012/04/18,41550,41900,41550,41900,280,41900
2012/04/19,41900,42100,41900,42100,120,42100
2012/04/20,42100,42100,41950,42050,60,42050
2012/04/23,42200,42200,42100,42100,610,42100
2012/04/24,42000,42050,42000,42000,280,42000
2012/04/25,42100,42100,42000,42050,110,42050
2012/04/26,42150,42150,42100,42100,30,42100
2012/04/27,42100,42150,42100,42150,50,42150
2012/05/01,41900,41900,41500,41500,430,41500
2012/05/02,41550,41950,41550,41950,70,41950
2012/05/07,41600,41600,41450,41500,370,41500
2012/05/08,41500,41550,41450,41450,120,41450
2012/05/09,41350,41550,41350,41400,130,41400
2012/05/10,41250,41350,41200,41200,610,41200
2012/05/11,41100,41500,41100,41200,110,41200
2012/05/14,41300,41300,41050,41050,130,41050
2012/05/15,41100,41400,41000,41000,210,41000
2012/05/16,41000,41300,41000,41250,110,41250
2012/05/17,41200,41200,41100,41100,70,41100
2012/05/18,41100,41100,40600,40600,460,40600
2012/05/21,40500,40650,40500,40600,120,40600
2012/05/22,40600,40900,40550,40850,150,40850
2012/05/23,40850,40850,40700,40700,50,40700
2012/05/24,40600,41100,40500,41100,90,41100
2012/05/25,40600,40950,40550,40900,130,40900
2012/05/28,40600,40800,40450,40450,390,40450
2012/05/29,40700,40700,40500,40700,60,40700
2012/05/30,40550,40550,40450,40450,170,40450
2012/05/31,40400,40650,40150,40150,260,40150
2012/06/01,40800,40800,40150,40200,90,40200
2012/06/04,40100,40200,40000,40000,380,40000
2012/06/05,40200,40300,40050,40050,170,40050
2012/06/06,40050,40300,40050,40300,80,40300
2012/06/07,40300,40650,40300,40650,240,40650
2012/06/08,40250,40400,40000,40350,140,40350
2012/06/11,40450,40900,40450,40450,60,40450
2012/06/12,40450,40700,40350,40700,40,40700
2012/06/13,40850,40850,40500,40500,110,40500
2012/06/14,40400,40400,40250,40250,40,40250
2012/06/15,40250,40250,40100,40100,90,40100
2012/06/18,40400,40400,40400,40400,20,40400
2012/06/20,40500,40750,40500,40550,90,40550
2012/06/21,40750,40750,40550,40550,30,40550
2012/06/22,40650,40950,40650,40900,130,40900
2012/06/25,40900,40950,40900,40900,60,40900
2012/06/26,40950,40950,40750,40850,300,40850
2012/06/27,40850,40850,40600,40600,20,40600
2012/06/28,40600,40600,40350,40350,190,40350
2012/06/29,40600,40650,40250,40550,110,40550
2012/07/02,40600,40850,40600,40850,150,40850
2012/07/03,40800,40850,40800,40800,70,40800
2012/07/04,40550,40950,40550,40950,120,40950
2012/07/05,40900,41000,40850,40850,140,40850
2012/07/06,40700,40750,40600,40700,60,40700
2012/07/09,40800,40800,40350,40450,250,40450
2012/07/10,40750,40750,40650,40650,60,40650
2012/07/11,40400,40550,40350,40550,140,40550
2012/07/12,40600,40650,40400,40400,80,40400
2012/07/13,40350,40350,40300,40350,250,40350
2012/07/17,40300,40300,40250,40300,140,40300
2012/07/18,40400,40800,40400,40400,50,40400
2012/07/19,40800,40800,40300,40350,310,40350
2012/07/20,40500,40700,40200,40200,120,40200
2012/07/23,40200,40200,39850,40150,800,40150
2012/07/24,40150,40150,39850,39900,160,39900
2012/07/25,39850,39850,39600,39600,440,39600
2012/07/26,39650,39750,39650,39650,60,39650
2012/07/27,40300,40300,40000,40000,60,40000
2012/07/30,40050,40050,40050,40050,10,40050
2012/07/31,40000,40150,39850,40150,70,40150
2012/08/01,40050,40050,39950,40000,80,40000
2012/08/02,40000,40100,39900,39900,270,39900
2012/08/03,39900,39900,39750,39850,170,39850
2012/08/06,40000,40100,40000,40100,20,40100
2012/08/07,40150,40200,40050,40200,40,40200
2012/08/08,39950,40050,39950,40050,30,40050
2012/08/09,40050,40050,40050,40050,10,40050
2012/08/10,40050,40050,40000,40000,140,40000
2012/08/13,39950,40050,39850,40000,250,40000
2012/08/14,40000,40000,40000,40000,10,40000
2012/08/15,40000,40150,40000,40050,430,40050
2012/08/16,40050,40150,40050,40150,140,40150
2012/08/17,40150,40250,39950,40250,180,40250
2012/08/20,40450,40500,40150,40500,180,40500
2012/08/21,40500,40500,40400,40400,50,40400
2012/08/22,40250,40500,40200,40200,100,40200
2012/08/23,40200,40400,40200,40200,150,40200
2012/08/24,40200,40400,40200,40400,100,40400
2012/08/27,40550,40600,40250,40550,60,40550
2012/08/28,40550,40550,40450,40450,250,40450
2012/08/29,40450,40450,40450,40450,80,40450
2012/08/30,40450,40450,40450,40450,20,40450
2012/08/31,40350,40450,40350,40450,80,40450
2012/09/03,40450,40450,40250,40250,320,40250
2012/09/04,40250,40300,40150,40300,90,40300
2012/09/05,40350,40450,40350,40450,50,40450
2012/09/06,40300,40300,40300,40300,40,40300
2012/09/07,40300,40600,40300,40600,180,40600
2012/09/10,40600,42000,40500,40500,350,40500
2012/09/11,40500,40700,40500,40500,170,40500
2012/09/12,40500,40800,40450,40450,50,40450
2012/09/13,40450,40500,40400,40400,60,40400
2012/09/14,40400,40800,40350,40800,140,40800
2012/09/18,40950,41000,40950,41000,210,41000
2012/09/19,41100,41300,40900,41300,430,41300
2012/09/20,41000,41400,40850,41000,130,41000
2012/09/21,40650,41000,40650,40750,170,40750
2012/09/24,40700,40700,40600,40700,100,40700
2012/09/25,40700,40950,40600,40600,380,40600
2012/09/26,40550,40550,40450,40450,480,40450
2012/09/27,40600,40650,40500,40650,50,40650
2012/09/28,40600,40600,40550,40550,80,40550
2012/10/01,40800,40800,40650,40750,60,40750
2012/10/02,40700,40750,40700,40750,90,40750
2012/10/03,40750,40850,40750,40850,60,40850
2012/10/04,40900,41100,40850,40900,330,40900
2012/10/05,41100,41100,40950,41000,190,41000
2012/10/09,41000,41000,40900,40950,180,40950
2012/10/10,40900,41100,40650,40650,200,40650
2012/10/11,40650,40650,40500,40550,270,40550
2012/10/12,40850,40850,40550,40550,90,40550
2012/10/15,40550,40950,40500,40950,270,40950
2012/10/16,40900,40900,40900,40900,70,40900
2012/10/17,41000,41000,40850,40900,230,40900
2012/10/18,41000,41100,41000,41100,200,41100
2012/10/19,41150,41200,41100,41200,90,41200
2012/10/22,41200,41400,41200,41400,230,41400
2012/10/23,41400,41700,41400,41700,550,41700
2012/10/24,41550,41750,41550,41750,130,41750
2012/10/25,41750,41750,41550,41750,50,41750
2012/10/26,41800,41800,41550,41750,310,41750
2012/10/29,41800,41800,41650,41750,50,41750
2012/10/30,41850,41850,41750,41750,60,41750
2012/10/31,41600,41600,41450,41500,120,41500
2012/11/01,41800,41800,41800,41800,20,41800
2012/11/02,41850,41850,41850,41850,110,41850
2012/11/05,41850,41850,41800,41850,80,41850
2012/11/06,41900,41950,41500,41500,210,41500
2012/11/07,41500,42000,41500,41600,120,41600
2012/11/08,41500,41500,41400,41400,230,41400
2012/11/09,41250,41550,41100,41550,160,41550
2012/11/12,41650,41650,41650,41650,10,41650
2012/11/13,41650,41650,41600,41600,90,41600
2012/11/14,41600,41600,41350,41350,40,41350
2012/11/15,41600,41650,41600,41650,120,41650
2012/11/16,41700,41800,41700,41800,160,41800
2012/11/19,41700,41950,41700,41950,100,41950
2012/11/20,41950,42000,41850,42000,170,42000
2012/11/21,42000,42100,42000,42000,220,42000
2012/11/22,42000,42200,42000,42100,240,42100
2012/11/26,42350,42500,42350,42400,410,42400
2012/11/27,42350,42500,42350,42450,310,42450
2012/11/28,42400,42400,42350,42350,50,42350
2012/11/29,42350,43050,42350,42800,1330,42800
2012/11/30,42600,43300,42600,43050,810,43050
2012/12/03,42950,43400,42950,43000,590,43000
2012/12/04,43000,43000,42700,42950,190,42950
2012/12/05,43000,43200,42900,43200,270,43200
2012/12/06,43250,43250,43000,43000,220,43000
2012/12/07,43000,43200,43000,43150,300,43150
2012/12/10,43150,43250,43000,43200,370,43200
2012/12/11,43200,43200,43100,43150,220,43150
2012/12/12,43100,43200,43100,43150,210,43150
2012/12/13,43300,43750,43300,43750,1340,43750
2012/12/14,43600,43800,43600,43800,460,43800
2012/12/17,43850,44150,43850,44100,830,44100
2012/12/18,44100,44100,43950,44000,90,44000
2012/12/19,44150,44500,44050,44500,320,44500
2012/12/20,44250,44500,44250,44300,440,44300
2012/12/21,44350,44350,44300,44300,180,44300
2012/12/25,44500,44650,44500,44550,660,44550
2012/12/26,44700,44800,44700,44700,150,44700
2012/12/27,44700,45150,44700,45150,490,45150
2012/12/28,45200,45700,45200,45700,1120,45700
2013/01/04,45950,45950,45750,45950,1080,45950
2013/01/07,45950,46400,45750,46400,760,46400
2013/01/08,45800,45800,45600,45750,660,45750
2013/01/09,45600,45650,45450,45650,670,45650
2013/01/10,45650,46000,45650,46000,360,46000
2013/01/11,46400,46700,46400,46700,770,46700
2013/01/15,46950,47200,46900,46900,1220,46900
2013/01/16,46750,46750,46000,46250,560,46250
2013/01/17,46350,46600,46350,46550,250,46550
2013/01/18,47000,47300,47000,47250,1650,47250
2013/01/21,47300,47350,46950,46950,580,46950
2013/01/22,47050,47150,46850,46850,470,46850
2013/01/23,46600,46650,46400,46400,670,46400
2013/01/24,46500,46900,46400,46900,670,46900
2013/01/25,46950,47400,46950,47350,830,47350
2013/01/28,47600,47600,47550,47550,690,47550
2013/01/29,47550,47600,47500,47500,670,47500
2013/01/30,47500,47650,47400,47650,320,47650
2013/01/31,47650,47700,47650,47650,180,47650
2013/02/01,47750,48200,47750,48200,2030,48200
2013/02/04,48650,48650,48500,48600,560,48600
2013/02/05,48550,48700,48250,48400,990,48400
2013/02/06,48800,49000,48750,49000,1130,49000
2013/02/07,49000,49000,48900,48900,190,48900
2013/02/08,48900,48950,48700,48850,290,48850
2013/02/12,48900,49050,48900,48950,390,48950
2013/02/13,48950,48950,48550,48550,800,48550
2013/02/14,48550,48700,48550,48650,80,48650
2013/02/15,48600,48600,48300,48450,750,48450
2013/02/18,48650,48850,48600,48700,330,48700
2013/02/19,48600,48700,48500,48700,190,48700
2013/02/20,48800,48800,48650,48750,190,48750
2013/02/21,48700,48700,48500,48500,170,48500
2013/02/22,48400,48450,48050,48300,400,48300
2013/02/25,48700,48700,48450,48700,640,48700
2013/02/26,48300,48300,47750,48150,1100,48150
2013/02/27,47750,47750,47500,47500,510,47500
2013/02/28,47750,48100,47750,48050,360,48050
2013/03/01,48000,48050,47950,48000,130,48000
2013/03/04,48050,48400,48050,48250,620,48250
2013/03/05,48300,48450,48300,48300,190,48300
2013/03/06,48400,48400,48050,48050,320,48050
2013/03/07,48100,48250,48100,48250,120,48250
2013/03/08,48450,48750,48450,48700,570,48700
2013/03/11,49000,49200,48950,48950,1010,48950
2013/03/12,49100,49200,48900,49200,540,49200
2013/03/13,49150,49450,49100,49300,540,49300
2013/03/14,49300,49300,49150,49150,170,49150
2013/03/15,49150,49450,49050,49350,610,49350
2013/03/18,49000,49300,48500,48500,920,48500
2013/03/19,49000,49300,49000,49200,310,49200
2013/03/21,49250,49350,49250,49250,430,49250
2013/03/22,49250,49250,48700,48700,700,48700
2013/03/25,49000,49150,48300,49000,320,49000
2013/03/26,48400,48700,48300,48600,830,48600
2013/03/27,48600,48900,48600,48750,120,48750
2013/03/28,48650,48650,48350,48500,250,48500
2013/03/29,48450,48550,48350,48450,380,48450
2013/04/01,48500,48550,48200,48400,630,48400
2013/04/02,48100,48150,47700,47900,1080,47900
2013/04/03,47900,48150,47900,48150,170,48150
2013/04/04,48100,48600,47900,48600,320,48600
2013/04/05,49500,50200,49500,49850,2880,49850
2013/04/08,51100,51300,51000,51200,1510,51200
2013/04/09,51900,51900,51600,51800,710,51800
2013/04/10,51800,51900,51700,51900,460,51900
2013/04/11,52000,52000,51900,51900,530,51900
2013/04/12,52000,52100,51900,52000,330,52000
2013/04/15,51000,51700,51000,51100,690,51100
2013/04/16,50800,51100,50600,50900,480,50900
2013/04/17,51100,51500,51100,51500,400,51500
2013/04/18,51100,51400,51100,51400,200,51400
2013/04/19,51500,51700,51400,51700,270,51700
2013/04/22,52100,52300,52000,52300,670,52300
2013/04/23,52400,52400,51900,52000,560,52000
2013/04/24,52200,52400,52100,52200,450,52200
2013/04/25,52100,52300,52100,52200,290,52200
2013/04/26,52300,52300,51800,52000,760,52000
2013/04/30,52100,52100,51600,52000,640,52000
2013/05/01,52000,52000,51700,51700,310,51700
2013/05/02,51700,52000,51600,51800,290,51800
2013/05/07,52400,52400,52000,52300,1830,52300
2013/05/08,52000,52000,51800,52000,490,52000
2013/05/09,52000,52100,51800,51900,490,51900
2013/05/10,52600,53000,52600,52900,1320,52900
2013/05/13,52900,53100,52700,52900,750,52900
2013/05/14,52900,52900,52600,52700,420,52700
2013/05/15,52800,52900,52700,52900,260,52900
2013/05/16,52800,52900,52600,52700,450,52700
2013/05/17,52800,53000,52800,52900,380,52900
2013/05/20,53200,53200,52800,53100,500,53100
2013/05/21,53000,53200,52700,53000,410,53000
2013/05/22,53100,53200,53000,53200,580,53200
2013/05/23,53200,53300,52600,52600,1080,52600
2013/05/24,52600,53000,52100,52400,580,52400
2013/05/27,52200,52500,51900,52400,850,52400
2013/05/28,52400,52800,51900,52800,680,52800
2013/05/29,52600,52600,52500,52600,40,52600
2013/05/30,51900,52200,51700,52200,280,52200
2013/05/31,52200,52200,52000,52000,40,52000
2013/06/03,51700,52000,51500,51800,420,51800
2013/06/04,51100,51400,51100,51400,290,51400
2013/06/05,51400,51700,51400,51600,150,51600
2013/06/06,50800,51100,50500,50800,450,50800
2013/06/07,50500,50500,49800,50200,1150,50200
2013/06/10,50900,51000,50700,50700,300,50700
2013/06/11,50700,50900,50400,50400,220,50400
2013/06/12,49750,50000,49700,49800,500,49800
2013/06/13,49500,49500,48550,48800,640,48800
2013/06/14,48900,49150,48900,49150,420,49150
2013/06/17,48900,49350,48650,49350,100,49350
2013/06/18,49300,49300,49050,49100,90,49100
2013/06/19,49800,49950,49550,49700,270,49700
2013/06/20,49800,49950,49800,49900,230,49900
2013/06/21,49850,49850,49350,49750,510,49750
2013/06/24,49950,49950,49300,49600,150,49600
2013/06/25,49050,49500,49000,49100,400,49100
2013/06/26,49000,49150,48900,48900,220,48900
2013/06/27,49200,49200,48600,48650,110,48650
2013/06/28,48950,49350,48900,49350,600,49350
2013/07/01,49350,49350,49250,49300,240,49300
2013/07/02,49350,49400,49300,49300,250,49300
2013/07/03,49450,50700,49450,49950,550,49950
2013/07/04,50000,50000,49950,49950,90,49950
2013/07/05,50100,50200,49750,50200,210,50200
2013/07/08,50000,50200,49800,49800,130,49800
2013/07/09,49350,49550,49350,49550,90,49550
2013/07/10,50300,50300,49500,49500,320,49500
2013/07/11,49300,49700,49300,49550,110,49550
2013/07/12,49600,50000,49600,50000,100,50000
2013/07/16,50000,50000,49800,50000,80,50000
2013/07/17,49750,50000,49700,50000,80,50000
2013/07/18,49900,50000,49800,50000,60,50000
2013/07/19,50000,50300,50000,50000,120,50000
2013/07/22,50200,50600,50000,50600,310,50600
2013/07/23,50500,50800,50500,50500,90,50500
2013/07/24,50400,50700,50400,50700,20,50700
2013/07/25,50800,50900,50400,50900,60,50900
2013/07/26,50300,50700,50000,50300,150,50300
2013/07/29,50600,50700,49650,49650,260,49650
2013/07/30,49950,50000,49850,50000,60,50000
2013/07/31,49900,50500,49900,49900,190,49900
2013/08/01,49700,50400,49700,50400,60,50400
2013/08/02,50000,50200,49900,50000,100,50000
2013/08/05,51000,51000,50000,50300,200,50300
2013/08/06,50500,50500,49900,50100,250,50100
2013/08/07,49950,49950,49150,49150,300,49150
2013/08/08,49750,50100,49400,49500,120,49500
2013/08/09,49800,49950,49400,49400,60,49400
2013/08/12,49400,49550,49300,49550,210,49550
2013/08/13,49900,49900,49800,49850,40,49850
2013/08/14,49950,49950,49500,49950,130,49950
2013/08/15,49950,49950,49950,49950,190,49950
2013/08/16,49600,50100,49500,50000,220,50000
2013/08/19,49700,49950,49700,49950,90,49950
2013/08/20,49800,49800,49700,49800,90,49800
2013/08/21,49900,49900,49850,49850,40,49850
2013/08/22,49950,50000,49700,49700,140,49700
2013/08/23,49950,49950,49700,49700,60,49700
2013/08/26,49800,49800,49750,49750,260,49750
2013/08/27,49950,49950,49950,49950,10,49950
2013/08/28,49700,49950,49650,49900,150,49900
2013/08/29,49800,49900,49600,49800,110,49800
2013/08/30,49650,49800,49650,49800,40,49800
2013/09/02,50000,50200,50000,50200,190,50200
2013/09/03,50300,50300,50000,50000,80,50000
2013/09/04,50400,50500,50400,50500,270,50500
2013/09/05,50500,50500,50500,50500,50,50500
2013/09/06,50500,50500,50500,50500,20,50500
2013/09/09,50100,50100,50100,50100,10,50100
2013/09/10,50100,50600,50100,50600,180,50600
2013/09/11,50600,50600,50600,50600,80,50600
2013/09/12,50700,50800,50600,50600,120,50600
2013/09/13,50800,50800,50800,50800,80,50800
2013/09/17,50600,50800,50300,50600,100,50600
2013/09/18,50600,50600,50400,50400,140,50400
2013/09/19,50400,50600,50300,50500,140,50500
2013/09/20,50600,50800,50600,50800,370,50800
2013/09/24,50800,51000,50800,51000,460,51000
2013/09/25,50800,50800,50800,50800,20,50800
2013/09/26,50900,50900,50900,50900,20,50900
2013/09/27,51000,51000,50300,50900,190,50900
2013/09/30,51000,51100,50600,51000,250,51000
2013/10/01,51000,51000,50600,50700,110,50700
2013/10/02,51100,51200,50900,51200,230,51200
2013/10/03,51000,51100,50700,51100,260,51100
2013/10/04,51000,51000,50600,50700,240,50700
2013/10/07,51100,51100,50600,51000,280,51000
2013/10/08,51000,51000,49800,50200,470,50200
2013/10/09,50100,50200,50000,50200,170,50200
2013/10/10,50300,50500,50000,50400,170,50400
2013/10/11,50400,50600,50000,50400,140,50400
2013/10/15,50200,50800,50200,50500,130,50500
2013/10/16,50600,50600,50500,50500,190,50500
2013/10/17,50500,50500,50400,50500,200,50500
2013/10/18,50600,50600,50500,50500,90,50500
2013/10/21,50600,50900,50400,50600,470,50600
2013/10/22,50800,50800,50600,50600,230,50600
2013/10/23,50600,50800,50600,50700,280,50700
2013/10/24,50600,50700,50500,50700,430,50700
2013/10/25,50700,50700,50600,50700,380,50700
2013/10/28,50800,50800,50700,50800,280,50800
2013/10/29,50800,50800,50600,50800,150,50800
2013/10/30,50600,50900,50600,50900,270,50900
2013/10/31,50900,51200,50900,50900,300,50900
2013/11/01,51000,51000,50700,50700,500,50700
2013/11/05,51100,51100,50800,50900,360,50900
2013/11/06,50600,51000,50600,51000,60,51000
2013/11/07,50700,50800,50700,50800,130,50800
2013/11/08,50800,50800,50500,50500,300,50500
2013/11/11,50300,50500,50300,50500,250,50500
2013/11/12,50800,50800,50500,50800,600,50800
2013/11/13,50600,50800,50600,50800,180,50800
2013/11/14,50800,50800,50500,50600,350,50600
2013/11/15,50800,51100,50800,51000,770,51000
2013/11/18,51000,51100,50800,50900,300,50900
2013/11/19,50900,50900,50800,50900,100,50900
2013/11/20,51000,51000,50900,50900,240,50900
2013/11/21,51000,51100,51000,51000,430,51000
2013/11/22,51100,51500,51100,51500,830,51500
2013/11/25,51100,51700,51100,51700,640,51700
2013/11/26,51700,51900,51600,51600,610,51600
2013/11/27,51800,51900,51600,51800,1110,51800
2013/11/28,52000,52300,52000,52200,910,52200
2013/11/29,52200,52600,52100,52500,970,52500
2013/12/02,52500,52500,52200,52200,990,52200
2013/12/03,52500,52500,52100,52500,920,52500
2013/12/04,52400,52500,52000,52500,200,52500
2013/12/05,51700,52400,51700,52200,830,52200
2013/12/06,51900,52100,51800,52000,270,52000
2013/12/09,52400,52500,52100,52400,460,52400
2013/12/10,52300,52600,52000,52600,1600,52600
2013/12/11,52600,52600,52400,52400,390,52400
2013/12/12,52500,52600,52300,52500,1080,52500
2013/12/13,52500,52600,52500,52600,140,52600
2013/12/16,52500,52500,52300,52400,600,52400
2013/12/17,52400,52500,52400,52500,440,52500
2013/12/18,52400,52500,52400,52400,940,52400
2013/12/19,52600,52800,52600,52700,1480,52700
2013/12/20,52800,53000,52600,53000,800,53000
2013/12/24,52700,52900,52600,52700,1670,52700
2013/12/25,52800,52900,52600,52900,1210,52900
2013/12/26,53600,53600,53000,53200,1130,53200
2013/12/27,53000,53500,52900,52900,640,52900
2013/12/30,53800,53800,53100,53500,610,53500
2014/01/06,53600,53600,52800,53300,960,53300
2014/01/07,53000,53400,52900,53200,1040,53200
2014/01/08,53000,53400,53000,53400,370,53400
2014/01/09,53100,53300,53100,53300,410,53300
2014/01/10,53300,53300,53000,53300,80,53300
2014/01/14,52600,53200,52200,52600,1110,52600
2014/01/15,53300,53500,52800,53100,150,53100
2014/01/16,53200,53500,53200,53500,50,53500
2014/01/17,53500,53700,53500,53700,100,53700
2014/01/20,53700,53700,53300,53300,250,53300
2014/01/21,53700,53700,53200,53300,190,53300
2014/01/22,53300,53300,53300,53300,50,53300
2014/01/23,53500,53600,53300,53600,120,53600
2014/01/24,53500,53500,53200,53200,130,53200
2014/01/27,53000,53000,52000,52900,880,52900
2014/01/28,52800,53000,52600,53000,120,53000
2014/01/29,53600,53600,53300,53600,700,53600
2014/01/30,53300,53300,52700,52800,270,52800
2014/01/31,52500,52900,52500,52900,80,52900
2014/02/03,53400,53400,52900,53200,180,53200
2014/02/04,52700,52700,51800,52200,420,52200
2014/02/05,52200,52500,52200,52500,120,52500
2014/02/06,52200,52200,52000,52200,40,52200
2014/02/07,52800,52800,52600,52600,20,52600
2014/02/10,52900,52900,52700,52800,90,52800
2014/02/12,53000,53000,52900,53000,70,53000
2014/02/13,52800,52800,52700,52700,200,52700
2014/02/14,52700,52700,52700,52700,40,52700
2014/02/17,52700,53000,52700,53000,50,53000
2014/02/18,53000,53100,52900,53100,160,53100
2014/02/19,53100,53100,53000,53100,80,53100
2014/02/20,53000,53100,52800,52800,130,52800
2014/02/21,53000,53000,53000,53000,20,53000
2014/02/24,53300,53500,53100,53100,250,53100
2014/02/25,53200,53500,53200,53500,200,53500
2014/02/26,53500,53500,53200,53500,90,53500
2014/02/27,53500,53500,53300,53300,120,53300
2014/02/28,53300,53500,53200,53500,110,53500
2014/03/03,53400,53400,53100,53300,660,53300
2014/03/04,53300,53300,53000,53000,80,53000
2014/03/05,53400,53400,53400,53400,410,53400
2014/03/06,53300,53300,52900,53300,60,53300
2014/03/07,53300,53500,53100,53200,260,53200
2014/03/10,53500,53500,53300,53300,190,53300
2014/03/11,53600,53700,53500,53600,410,53600
2014/03/12,53500,53700,53500,53500,230,53500
2014/03/13,53700,53700,53600,53600,340,53600
2014/03/14,53500,53500,53200,53200,420,53200
2014/03/17,53100,53100,53000,53000,520,53000
2014/03/18,53500,53500,53200,53200,70,53200
2014/03/19,53200,53400,52900,53400,610,53400
2014/03/20,53400,53500,53000,53200,150,53200
2014/03/24,53300,53400,53200,53400,270,53400
2014/03/25,53400,53400,53000,53400,70,53400
2014/03/26,53400,53400,53100,53400,140,53400
2014/03/27,53400,53400,53200,53200,190,53200
2014/03/28,53200,53300,53100,53200,400,53200
2014/03/31,53400,53400,53300,53400,190,53400
2014/04/01,53500,53800,53500,53800,230,53800
2014/04/02,53800,54000,53700,54000,330,54000
2014/04/03,54000,54100,53800,53800,250,53800
2014/04/04,54000,54300,53900,54200,110,54200
2014/04/07,54200,54200,53700,53700,330,53700
2014/04/08,53600,53600,53500,53600,230,53600
2014/04/09,53600,53600,53200,53200,300,53200
2014/04/10,53800,53800,53400,53700,90,53700
2014/04/14,53700,53700,53500,53500,60,53500
2014/04/15,53800,53800,53600,53600,220,53600
2014/04/16,53700,53800,53500,53800,330,53800
2014/04/17,53800,53800,53700,53800,140,53800
2014/04/18,53800,53800,53700,53700,80,53700
2014/04/21,53700,53900,53600,53900,220,53900
2014/04/22,53900,53900,53700,53900,70,53900
2014/04/23,53900,53900,53700,53700,20,53700
2014/04/24,53700,53900,53700,53900,60,53900
2014/04/25,53800,53800,53800,53800,10,53800
2014/04/28,53900,53900,53700,53800,50,53800
2014/04/30,53700,53900,53700,53800,90,53800
2014/05/01,53800,53900,53700,53700,80,53700
2014/05/02,54000,54000,53900,54000,210,54000
2014/05/07,53800,53900,53600,53600,370,53600
2014/05/08,53600,54000,53600,53800,210,53800
2014/05/09,53700,53700,53600,53700,70,53700
2014/05/12,53600,53700,53500,53600,200,53600
2014/05/13,53600,53700,53500,53700,180,53700
2014/05/14,53600,53700,53600,53700,100,53700
2014/05/15,53600,53600,53500,53600,110,53600
2014/05/16,53600,53700,53500,53500,480,53500
2014/05/19,53500,53600,53500,53500,240,53500
2014/05/20,53500,53600,53500,53500,80,53500
2014/05/21,53400,53400,53400,53400,160,53400
2014/05/22,53400,53400,53300,53300,620,53300
2014/05/23,53500,53500,53400,53500,190,53500
2014/05/26,53500,53500,53400,53400,190,53400
2014/05/27,53300,53600,53300,53600,260,53600
2014/05/28,53600,53600,53600,53600,10,53600
2014/05/29,53600,53600,53400,53400,240,53400
2014/05/30,53400,53400,53400,53400,30,53400
2014/06/02,53600,53700,53600,53700,170,53700
2014/06/03,53700,53800,53600,53800,220,53800
2014/06/04,53900,54000,53800,54000,360,54000
2014/06/05,54000,54100,53500,54000,230,54000
2014/06/06,53900,53900,53600,53700,50,53700
2014/06/09,53600,53800,53600,53700,120,53700
2014/06/10,53700,53700,53600,53700,230,53700
2014/06/11,53700,53700,53600,53600,200,53600
2014/06/12,53600,53700,53500,53600,400,53600
2014/06/13,53600,53600,53500,53500,100,53500
2014/06/16,53500,53600,53500,53500,490,53500
2014/06/17,53600,53600,53500,53500,130,53500
2014/06/18,53600,53600,53600,53600,40,53600
2014/06/19,53600,53600,53500,53600,150,53600
2014/06/20,53600,53700,53600,53600,230,53600
2014/06/23,53700,53700,53600,53600,180,53600
2014/06/24,53600,53600,53500,53600,130,53600
2014/06/25,53600,53600,53600,53600,40,53600
2014/06/26,53700,53700,53500,53500,160,53500
2014/06/27,53500,53800,53500,53600,100,53600
2014/06/30,53600,53700,53600,53700,30,53700
2014/07/01,53700,53700,53600,53700,230,53700
2014/07/02,53800,53800,53700,53700,90,53700
2014/07/03,53600,53800,53600,53700,80,53700
2014/07/04,53700,53900,53700,53800,260,53800
2014/07/07,53900,53900,53700,53800,640,53800
2014/07/08,53700,53700,53600,53600,250,53600
2014/07/09,53600,53600,53600,53600,120,53600
2014/07/10,53600,53600,53600,53600,40,53600
2014/07/11,53600,53600,53400,53600,450,53600
2014/07/14,53500,53600,53400,53500,210,53500
2014/07/15,53500,53700,53500,53700,120,53700
2014/07/16,53500,53600,53500,53500,400,53500
2014/07/17,53700,53700,53500,53500,730,53500
2014/07/18,53500,53600,53400,53600,220,53600
2014/07/22,53600,53700,53500,53700,180,53700
2014/07/23,53500,53600,53400,53500,310,53500
2014/07/24,53600,53600,53500,53500,170,53500
2014/07/25,53600,53600,53600,53600,30,53600
2014/07/28,53600,53700,53500,53700,240,53700
2014/07/29,53700,53700,53600,53600,60,53600
2014/07/30,53500,53500,53500,53500,120,53500
2014/07/31,53700,53700,53700,53700,30,53700
2014/08/01,53700,53700,53600,53600,80,53600
2014/08/04,53700,53800,53700,53800,270,53800
2014/08/05,53700,53900,53700,53800,100,53800
2014/08/06,53800,53800,53700,53700,200,53700
2014/08/07,53700,53800,53700,53800,40,53800
2014/08/08,53700,53700,53500,53700,490,53700
2014/08/11,53700,53800,53700,53800,40,53800
2014/08/12,53800,53800,53700,53700,150,53700
2014/08/13,53800,53800,53700,53700,80,53700
2014/08/14,53800,53800,53700,53700,110,53700
2014/08/15,53800,53900,53800,53900,230,53900
2014/08/18,53800,53900,53800,53800,190,53800
2014/08/19,53900,53900,53800,53900,220,53900
2014/08/20,53900,54100,53800,54000,450,54000
2014/08/21,54100,54200,54100,54200,310,54200
2014/08/22,54200,54300,54200,54200,160,54200
2014/08/25,54400,54500,54300,54300,220,54300
2014/08/26,54300,54600,54300,54300,170,54300
2014/08/27,54300,54500,54300,54500,160,54500
2014/08/28,54600,54600,54500,54600,110,54600
2014/08/29,54600,54600,54500,54600,50,54600
2014/09/01,54600,54800,54600,54700,170,54700
2014/09/02,54700,55300,54600,55000,270,55000
2014/09/03,55000,55200,55000,55000,410,55000
2014/09/04,55000,55100,54900,55000,190,55000
2014/09/05,55000,55100,54900,54900,340,54900
2014/09/08,54900,54900,54700,54700,470,54700
2014/09/09,54700,55000,54700,55000,250,55000
2014/09/10,55000,55000,54800,55000,110,55000
2014/09/11,54900,55200,54800,54900,510,54900
2014/09/12,55100,55200,54900,55100,80,55100
2014/09/16,55100,55100,54900,55100,260,55100
2014/09/17,55000,55100,55000,55100,40,55100
2014/09/18,55100,55500,55100,55300,670,55300
2014/09/19,55600,55600,55100,55500,370,55500
2014/09/22,55600,55800,55600,55800,230,55800
2014/09/24,55800,56000,55600,55600,450,55600
2014/09/25,55800,55800,55700,55700,80,55700
2014/09/26,55700,55900,55700,55900,260,55900
2014/09/29,55900,56000,55700,55700,220,55700
2014/09/30,55900,55900,55800,55800,70,55800
2014/10/01,56000,56100,56000,56100,80,56100
2014/10/02,56000,56400,55800,56100,180,56100
2014/10/03,56000,56100,55900,56000,260,56000
2014/10/06,56100,56100,56000,56100,120,56100
2014/10/07,55900,56500,55900,56500,270,56500
2014/10/08,56400,56400,55800,55800,390,55800
2014/10/09,55800,56000,55800,55800,150,55800
2014/10/10,55800,56100,55700,55700,140,55700
2014/10/14,55500,55500,55300,55400,540,55400
2014/10/15,55400,55600,55200,55400,180,55400
2014/10/16,55500,55600,55300,55600,470,55600
2014/10/17,55500,55500,55200,55200,320,55200
2014/10/20,55000,55400,54900,55400,470,55400
2014/10/21,55400,55400,55400,55400,30,55400
2014/10/22,55400,55400,55300,55400,210,55400
2014/10/24,55700,55700,55400,55400,80,55400
2014/10/27,55300,55700,55300,55700,80,55700
2014/10/28,55700,55700,55500,55600,50,55600
2014/10/29,55600,55900,55600,55900,70,55900
2014/10/30,56000,56100,55900,56100,100,56100
2014/10/31,56000,56500,56000,56500,330,56500
2014/11/04,57100,57500,57100,57400,630,57400
2014/11/05,57400,57600,57200,57500,410,57500
2014/11/06,57700,58000,57600,57600,350,57600
2014/11/07,57600,58000,57600,57800,200,57800
2014/11/10,58000,58000,58000,58000,240,58000
2014/11/11,57800,58000,57800,58000,210,58000
2014/11/12,58200,58700,58200,58500,210,58500
2014/11/13,58600,58600,58300,58300,200,58300
2014/11/14,58600,58700,58400,58400,80,58400
2014/11/17,58700,58900,58700,58800,240,58800
2014/11/18,58900,59000,58600,59000,560,59000
2014/11/19,59000,59000,58700,59000,340,59000
2014/11/20,60000,60000,59600,59700,530,59700
2014/11/21,60200,60200,59800,60000,270,60000
2014/11/25,59800,61000,59800,59900,470,59900
2014/11/26,59900,60600,59900,60500,290,60500
2014/11/27,60500,60500,60100,60400,310,60400
2014/11/28,60500,62000,60300,60500,530,60500
2014/12/01,60700,60800,60700,60800,150,60800
2014/12/02,60900,62000,60700,60700,610,60700
2014/12/03,61700,61700,60900,60900,260,60900
2014/12/04,61500,61500,61000,61500,380,61500
2014/12/05,61500,61700,60900,61600,620,61600
2014/12/08,61600,62000,61600,61700,210,61700
2014/12/09,61800,61900,61500,61700,180,61700
2014/12/10,61900,62000,61100,61600,570,61600
2014/12/11,61600,61600,60000,61100,670,61100
2014/12/12,61600,61600,60600,61000,120,61000
2014/12/15,61000,61000,60600,60800,140,60800
2014/12/16,60700,60800,60100,60200,420,60200
2014/12/17,59600,60000,59200,59700,590,59700
2014/12/18,60000,61200,60000,60300,210,60300
2014/12/19,61300,61300,60700,60700,250,60700
2014/12/22,61300,61400,60700,61100,280,61100
2014/12/24,61500,61500,61200,61400,250,61400
2014/12/25,61500,61600,61100,61400,380,61400
2014/12/26,61200,61300,61200,61300,410,61300
2014/12/29,61300,61300,61100,61300,120,61300
2014/12/30,61300,61300,61100,61300,170,61300
2015/01/05,61400,61400,61000,61000,530,61000
2015/01/06,60900,60900,60400,60800,330,60800
2015/01/07,60700,60700,60200,60500,480,60500
2015/01/08,60200,60500,60200,60500,150,60500
2015/01/09,60300,60400,60200,60200,180,60200
2015/01/13,60100,60200,59800,59900,620,59900
2015/01/14,59900,59900,59300,59400,510,59400
2015/01/15,59400,59800,59300,59400,140,59400
2015/01/16,59000,59200,58900,59000,540,59000
2015/01/19,59300,59600,59100,59200,230,59200
2015/01/20,59200,60000,59200,60000,290,60000
2015/01/21,60000,60000,59000,59500,210,59500
2015/01/22,59500,59500,59200,59300,70,59300
2015/01/23,59500,59600,59300,59300,180,59300
2015/01/26,59000,59500,58700,58900,840,58900
2015/01/27,59100,59300,59000,59000,150,59000
2015/01/28,59000,59400,59000,59300,140,59300
2015/01/29,59200,59300,59200,59300,130,59300
2015/01/30,59300,59300,59000,59300,80,59300
2015/02/02,59000,59400,58900,59400,310,59400
2015/02/03,59400,59400,58600,59000,260,59000
2015/02/04,59000,59200,58700,59200,230,59200
2015/02/05,59000,59400,58900,59300,200,59300
2015/02/06,59000,59100,58800,58800,80,58800
2015/02/09,59100,59100,58800,58800,110,58800
2015/02/10,58800,59000,58800,58900,110,58900
2015/02/12,58900,59000,58900,59000,380,59000
2015/02/13,59000,59100,59000,59100,90,59100
2015/02/16,59000,59100,59000,59000,150,59000
2015/02/17,59000,59000,58800,59000,160,59000
2015/02/18,59000,59000,59000,59000,30,59000
2015/02/19,58700,59000,58700,58700,250,58700
2015/02/20,58900,58900,58800,58900,70,58900
2015/02/23,58900,58900,58600,58900,390,58900
2015/02/24,58900,58900,58500,58600,340,58600
2015/02/25,58500,58700,58400,58700,240,58700
2015/02/26,58700,58900,58700,58700,190,58700
2015/02/27,58700,58900,58700,58700,190,58700
2015/03/02,58900,58900,58700,58900,110,58900
2015/03/03,59000,59000,59000,59000,220,59000
2015/03/04,59000,59000,58900,59000,130,59000
2015/03/05,58800,58900,58700,58700,210,58700
2015/03/06,58600,58700,58600,58600,480,58600
2015/03/09,58700,58700,58100,58300,700,58300
2015/03/10,58600,58600,58500,58500,130,58500
2015/03/11,58500,58500,58300,58300,110,58300
2015/03/12,58400,58400,58200,58200,140,58200
2015/03/13,58500,58500,58100,58100,190,58100
2015/03/16,58100,58400,58000,58400,460,58400
2015/03/17,58400,58400,57800,57900,530,57900
2015/03/18,57900,58000,57900,58000,130,58000
2015/03/19,57900,58400,57900,58400,180,58400
2015/03/20,58400,58600,58400,58600,340,58600
2015/03/23,58600,58600,58000,58000,380,58000
2015/03/24,58400,58400,58000,58000,240,58000
2015/03/25,58400,58500,58400,58400,120,58400
2015/03/26,58200,58500,58200,58500,80,58500
2015/03/27,58200,58400,57900,58200,370,58200
2015/03/30,58200,58400,58000,58000,160,58000
2015/03/31,58200,58300,58000,58300,50,58300
2015/04/01,58400,58400,58100,58400,300,58400
2015/04/02,58100,58400,58100,58400,160,58400
2015/04/03,58400,58600,58400,58500,310,58500
2015/04/06,58500,58600,58500,58600,110,58600
2015/04/07,58600,58600,58500,58500,260,58500
2015/04/08,58400,58600,58300,58300,160,58300
2015/04/09,58500,58500,58400,58400,30,58400
2015/04/10,58400,58400,58300,58300,70,58300
2015/04/13,58400,58400,58100,58300,420,58300
2015/04/14,58200,58200,57700,57900,1070,57900
2015/04/15,57900,57900,57700,57900,160,57900
2015/04/16,57900,58000,57900,58000,300,58000
2015/04/17,57900,58000,57900,57900,90,57900
2015/04/20,58000,58000,57900,57900,60,57900
2015/04/21,57800,57900,57800,57800,80,57800
2015/04/22,57800,57800,57600,57600,140,57600
2015/04/23,57800,57900,57700,57700,150,57700
2015/04/24,57800,57800,57800,57800,100,57800
2015/04/27,57800,57900,57800,57900,70,57900
2015/04/28,57800,58000,57800,57900,240,57900
2015/04/30,57800,58000,57800,58000,160,58000
2015/05/01,58000,58300,58000,58200,390,58200
2015/05/07,58100,58200,58100,58200,170,58200
2015/05/08,58200,58400,58200,58300,190,58300
2015/05/11,58300,58300,58200,58300,70,58300
2015/05/12,58400,58500,58000,58400,200,58400
2015/05/13,58400,58500,58000,58300,150,58300
2015/05/14,58400,58400,58200,58200,20,58200
2015/05/15,58200,58200,58100,58200,50,58200
2015/05/18,58400,58400,58400,58400,60,58400
2015/05/19,58400,58400,58100,58300,480,58300
2015/05/20,58300,58300,57200,58200,500,58200
2015/05/21,58300,58300,58300,58300,60,58300
2015/05/22,58300,58300,58300,58300,60,58300
2015/05/25,58300,58300,58200,58300,130,58300
2015/05/26,58300,58300,58100,58100,200,58100
2015/05/27,58300,58500,58300,58500,1050,58500
2015/05/28,58500,59300,58500,58700,740,58700
2015/05/29,58900,58900,58800,58900,60,58900
2015/06/01,59400,59400,58900,59200,380,59200
2015/06/02,59500,59600,59300,59500,270,59500
2015/06/03,59500,59800,59300,59600,260,59600
2015/06/04,59500,59500,59300,59300,410,59300
2015/06/05,59500,59500,59300,59500,440,59500
2015/06/08,59300,59500,58700,59100,630,59100
2015/06/09,59100,59100,59000,59000,40,59000
2015/06/10,59000,59300,58400,58400,420,58400
2015/06/11,58400,58400,58000,58200,480,58200
2015/06/12,58300,58500,58300,58400,280,58400
2015/06/15,58500,58600,58200,58600,140,58600
2015/06/17,58700,58700,58500,58700,70,58700
2015/06/18,58700,58800,58700,58700,70,58700
2015/06/19,58700,59000,58700,59000,120,59000
2015/06/22,58700,59000,58700,59000,50,59000
2015/06/23,59000,59000,58900,59000,110,59000
2015/06/24,59000,59200,58900,59000,250,59000
2015/06/25,59200,59200,58800,59000,140,59000
2015/06/26,58800,58900,58600,58700,480,58700
2015/06/29,58400,58400,58000,58100,690,58100
2015/06/30,58000,58300,58000,58100,120,58100
2015/07/01,58400,58400,58200,58300,90,58300
