2011/01/04,1826,1826,1795,1801,570,1801
2011/01/05,1787,1787,1782,1782,710,1782
2011/01/06,1839,1845,1839,1845,20,1845
2011/01/07,1828,1828,1828,1828,30,1828
2011/01/11,1819,1830,1819,1828,390,1828
2011/01/13,1881,1881,1875,1875,480,1875
2011/01/14,1876,1876,1863,1863,1280,1863
2011/01/17,1865,1889,1865,1885,130,1885
2011/01/18,1882,1882,1857,1867,1210,1867
2011/01/19,1875,1885,1875,1884,1570,1884
2011/01/20,1924,1926,1870,1921,2420,1921
2011/01/21,1910,1938,1886,1886,660,1886
2011/01/24,1934,1934,1884,1920,2050,1920
2011/01/25,1967,1967,1939,1965,890,1965
2011/01/26,1955,1955,1867,1867,440,1867
2011/01/27,1907,1922,1810,1811,3020,1811
2011/01/28,1816,1820,1816,1816,1030,1816
2011/01/31,1776,1930,1776,1930,1740,1930
2011/02/02,1929,1929,1917,1917,750,1917
2011/02/03,1880,1925,1868,1880,340,1880
2011/02/04,1900,1900,1880,1880,1860,1880
2011/02/07,1890,1890,1890,1890,150,1890
2011/02/08,1890,1890,1880,1880,260,1880
2011/02/09,1920,1920,1900,1900,430,1900
2011/02/10,1910,1920,1901,1920,290,1920
2011/02/14,1900,1900,1858,1900,410,1900
2011/02/15,1890,1890,1880,1880,830,1880
2011/02/16,1858,1858,1825,1850,1600,1850
2011/02/17,1849,1849,1835,1835,430,1835
2011/02/18,1899,1899,1852,1852,260,1852
2011/02/21,1878,1878,1835,1850,890,1850
2011/02/22,1830,1844,1825,1844,630,1844
2011/02/23,1766,1766,1700,1744,3840,1744
2011/02/24,1744,1765,1730,1730,1810,1730
2011/02/28,1810,1810,1810,1810,70,1810
2011/03/01,1799,1799,1779,1779,540,1779
2011/03/02,1819,1819,1800,1800,260,1800
2011/03/04,1819,1869,1819,1827,2350,1827
2011/03/07,1840,1840,1831,1831,620,1831
2011/03/08,1825,1825,1820,1820,150,1820
2011/03/10,1785,1785,1775,1775,30,1775
2011/03/11,1772,1772,1772,1772,50,1772
2011/03/14,1692,1747,1692,1726,520,1726
2011/03/15,1701,1725,1629,1629,1360,1629
2011/03/16,1601,1644,1601,1627,1350,1627
2011/03/17,1627,1640,1600,1615,510,1615
2011/03/18,1650,1690,1650,1690,20,1690
2011/03/23,1750,1750,1750,1750,20,1750
2011/03/25,1710,1710,1710,1710,1570,1710
2011/03/28,1774,1774,1774,1774,110,1774
2011/03/30,1738,1738,1738,1738,220,1738
2011/03/31,1785,1785,1785,1785,10,1785
2011/04/01,1814,1850,1814,1828,1140,1828
2011/04/04,1827,1827,1827,1827,10,1827
2011/04/05,1867,1889,1867,1884,400,1884
2011/04/06,1844,1889,1844,1889,670,1889
2011/04/07,1889,1889,1888,1888,120,1888
2011/04/08,1850,1879,1810,1879,410,1879
2011/04/11,1880,1880,1880,1880,210,1880
2011/04/12,1850,1850,1792,1792,230,1792
2011/04/13,1780,1799,1780,1799,110,1799
2011/04/14,1754,1754,1754,1754,20,1754
2011/04/18,1794,1794,1750,1750,20,1750
2011/04/19,1735,1735,1735,1735,2190,1735
2011/04/20,1775,1775,1775,1775,10,1775
2011/04/21,1771,1771,1771,1771,30,1771
2011/04/22,1811,1811,1811,1811,50,1811
2011/04/25,1802,1819,1802,1819,610,1819
2011/04/26,1768,1768,1768,1768,300,1768
2011/05/06,1747,1747,1689,1709,260,1709
2011/05/09,1708,1708,1708,1708,120,1708
2011/05/10,1708,1708,1671,1707,740,1707
2011/05/11,1700,1700,1700,1700,10,1700
2011/05/12,1676,1676,1676,1676,200,1676
2011/05/16,1694,1694,1681,1681,150,1681
2011/05/17,1716,1716,1681,1681,110,1681
2011/05/18,1721,1721,1697,1720,230,1720
2011/05/19,1743,1793,1743,1788,500,1788
2011/05/20,1788,1798,1749,1753,210,1753
2011/05/23,1762,1770,1762,1770,30,1770
2011/05/24,1756,1756,1756,1756,1500,1756
2011/05/25,1757,1770,1757,1770,50,1770
2011/05/26,1763,1781,1763,1770,910,1770
2011/05/27,1770,1770,1770,1770,60,1770
2011/05/30,1784,1784,1707,1707,40,1707
2011/05/31,1784,1790,1750,1790,600,1790
2011/06/01,1767,1767,1767,1767,500,1767
2011/06/03,1769,1799,1769,1799,60,1799
2011/06/06,1762,1762,1762,1762,20,1762
2011/06/07,1722,1726,1721,1726,170,1726
2011/06/08,1743,1743,1743,1743,510,1743
2011/06/10,1783,1783,1783,1783,10,1783
2011/06/14,1783,1783,1783,1783,100,1783
2011/06/15,1714,1714,1714,1714,10,1714
2011/06/17,1710,1710,1710,1710,120,1710
2011/06/20,1673,1673,1673,1673,110,1673
2011/06/21,1685,1685,1685,1685,550,1685
2011/06/22,1725,1725,1696,1696,210,1696
2011/06/23,1699,1699,1683,1683,80,1683
2011/06/24,1683,1683,1677,1677,190,1677
2011/06/27,1647,1647,1647,1647,10,1647
2011/06/28,1632,1632,1632,1632,150,1632
2011/06/29,1712,1712,1678,1682,380,1682
2011/07/05,1722,1722,1705,1705,140,1705
2011/07/06,1669,1670,1669,1670,220,1670
2011/07/11,1733,1733,1693,1693,220,1693
2011/07/12,1693,1693,1670,1671,1150,1671
2011/07/14,1711,1711,1700,1700,200,1700
2011/07/15,1713,1713,1713,1713,100,1713
2011/07/19,1753,1753,1744,1744,60,1744
2011/07/20,1779,1779,1740,1753,140,1753
2011/07/21,1735,1740,1735,1740,220,1740
2011/07/22,1780,1780,1710,1710,60,1710
2011/07/25,1701,1701,1690,1690,730,1690
2011/07/26,1681,1681,1680,1680,230,1680
2011/07/27,1682,1682,1682,1682,300,1682
2011/07/28,1682,1682,1680,1680,120,1680
2011/07/29,1680,1680,1668,1668,110,1668
2011/08/01,1660,1660,1650,1650,160,1650
2011/08/05,1662,1662,1640,1640,470,1640
2011/08/08,1640,1640,1620,1620,370,1620
2011/08/09,1600,1600,1577,1577,990,1577
2011/08/11,1562,1562,1561,1561,230,1561
2011/08/12,1625,1625,1591,1591,250,1591
2011/08/15,1597,1597,1597,1597,10,1597
2011/08/16,1637,1637,1637,1637,60,1637
2011/08/19,1604,1604,1604,1604,100,1604
2011/08/22,1643,1644,1640,1644,670,1644
2011/08/24,1650,1670,1650,1670,520,1670
2011/08/29,1745,1745,1745,1745,100,1745
2011/08/30,1739,1739,1721,1725,200,1725
2011/09/05,1759,1759,1759,1759,50,1759
2011/09/06,1707,1707,1701,1701,110,1701
2011/09/07,1717,1721,1717,1721,1060,1721
2011/09/09,1739,1739,1739,1739,10,1739
2011/09/12,1699,1728,1699,1728,1050,1728
2011/09/13,1687,1687,1686,1686,990,1686
2011/09/16,1670,1670,1670,1670,2380,1670
2011/09/20,1605,1605,1605,1605,100,1605
2011/09/21,1596,1596,1596,1596,10,1596
2011/09/22,1596,1596,1596,1596,110,1596
2011/09/26,1556,1556,1468,1471,3170,1471
2011/09/27,1530,1530,1510,1510,110,1510
2011/09/28,1506,1506,1495,1495,1060,1495
2011/09/29,1443,1460,1443,1460,440,1460
2011/09/30,1485,1485,1481,1481,110,1481
2011/10/03,1481,1481,1401,1401,300,1401
2011/10/04,1431,1431,1401,1401,70,1401
2011/10/05,1400,1400,1391,1400,230,1400
2011/10/06,1408,1408,1390,1390,20,1390
2011/10/07,1391,1414,1390,1391,740,1391
2011/10/11,1414,1424,1414,1422,520,1422
2011/10/13,1511,1511,1486,1486,770,1486
2011/10/14,1495,1495,1495,1495,10,1495
2011/10/20,1470,1470,1440,1470,270,1470
2011/10/24,1475,1475,1458,1458,90,1458
2011/10/25,1488,1488,1488,1488,50,1488
2011/10/27,1477,1487,1477,1487,80,1487
2011/10/31,1457,1457,1457,1457,100,1457
2011/11/02,1487,1487,1487,1487,30,1487
2011/11/04,1482,1490,1482,1490,200,1490
2011/11/07,1520,1520,1482,1482,70,1482
2011/11/08,1451,1473,1451,1473,300,1473
2011/11/09,1452,1452,1428,1428,2900,1428
2011/11/10,1458,1558,1458,1558,320,1558
2011/11/14,1403,1403,1403,1403,10,1403
2011/11/15,1408,1408,1405,1405,470,1405
2011/11/16,1413,1413,1413,1413,170,1413
2011/11/17,1408,1468,1408,1468,40,1468
2011/11/18,1424,1424,1389,1389,120,1389
2011/11/21,1419,1419,1388,1388,490,1388
2011/11/22,1365,1365,1365,1365,150,1365
2011/11/24,1340,1340,1340,1340,190,1340
2011/11/25,1363,1363,1363,1363,10,1363
2011/11/28,1363,1371,1352,1352,140,1352
2011/11/29,1382,1382,1352,1352,110,1352
2011/11/30,1352,1352,1352,1352,20,1352
2011/12/01,1382,1382,1382,1382,300,1382
2011/12/02,1361,1361,1361,1361,110,1361
2011/12/05,1361,1390,1361,1390,30,1390
2011/12/06,1368,1369,1355,1369,120,1369
2011/12/12,1387,1387,1333,1363,140,1363
2011/12/14,1340,1370,1333,1333,90,1333
2011/12/15,1330,1337,1330,1337,320,1337
2011/12/20,1397,1397,1397,1397,40,1397
2011/12/26,1393,1393,1393,1393,10,1393
2011/12/28,1393,1428,1393,1428,40,1428
2011/12/29,1428,1428,1428,1428,20,1428
2011/12/30,1427,1427,1410,1410,100,1410
2012/01/04,1450,1450,1450,1450,100,1450
2012/01/10,1450,1450,1450,1450,90,1450
2012/01/11,1420,1420,1420,1420,50,1420
2012/01/12,1420,1450,1420,1450,210,1450
2012/01/13,1433,1433,1389,1403,240,1403
2012/01/16,1388,1388,1350,1350,400,1350
2012/01/19,1410,1410,1410,1410,30,1410
2012/01/20,1440,1440,1440,1440,10,1440
2012/01/25,1417,1422,1417,1422,340,1422
2012/01/26,1392,1449,1392,1449,440,1449
2012/01/30,1415,1415,1415,1415,50,1415
2012/01/31,1413,1413,1392,1392,100,1392
2012/02/01,1407,1407,1407,1407,210,1407
2012/02/02,1420,1420,1420,1420,20,1420
2012/02/06,1450,1450,1450,1450,80,1450
2012/02/07,1420,1420,1420,1420,50,1420
2012/02/09,1432,1432,1432,1432,130,1432
2012/02/10,1436,1454,1436,1454,730,1454
2012/02/13,1484,1484,1454,1454,70,1454
2012/02/14,1484,1484,1484,1484,10,1484
2012/02/15,1500,1504,1481,1481,380,1481
2012/02/20,1551,1581,1551,1551,160,1551
2012/02/21,1551,1551,1551,1551,90,1551
2012/02/23,1544,1544,1544,1544,300,1544
2012/02/27,1595,1595,1595,1595,50,1595
2012/02/28,1575,1583,1575,1583,580,1583
2012/02/29,1596,1596,1596,1596,120,1596
2012/03/01,1610,1611,1610,1611,210,1611
2012/03/02,1611,1651,1611,1651,40,1651
2012/03/05,1642,1664,1640,1664,410,1664
2012/03/09,1660,1674,1660,1674,330,1674
2012/03/12,1677,1677,1667,1667,200,1667
2012/03/13,1658,1658,1658,1658,30,1658
2012/03/14,1694,1705,1694,1705,640,1705
2012/03/15,1739,1739,1739,1739,20,1739
2012/03/16,1699,1699,1699,1699,100,1699
2012/03/21,1700,1700,1700,1700,200,1700
2012/03/23,1729,1729,1729,1729,50,1729
2012/03/26,1739,1739,1739,1739,30,1739
2012/03/29,1720,1720,1718,1718,430,1718
2012/03/30,1678,1718,1678,1701,220,1701
2012/04/02,1750,1778,1750,1778,1020,1778
2012/04/03,1778,1778,1778,1778,80,1778
2012/04/04,1774,1780,1772,1780,300,1780
2012/04/05,1780,1780,1780,1780,40,1780
2012/04/06,1745,1760,1745,1760,200,1760
2012/04/09,1778,1781,1778,1780,900,1780
2012/04/10,1786,1787,1786,1787,50,1787
2012/04/11,1708,1708,1708,1708,50,1708
2012/04/12,1709,1709,1709,1709,800,1709
2012/04/13,1780,1780,1778,1778,100,1778
2012/04/16,1767,1767,1767,1767,40,1767
2012/04/17,1727,1727,1727,1727,40,1727
2012/04/20,1719,1719,1719,1719,250,1719
2012/04/23,1780,1794,1780,1794,80,1794
2012/04/24,1773,1773,1763,1763,110,1763
2012/04/25,1800,1812,1800,1812,220,1812
2012/04/27,1815,1822,1815,1822,350,1822
2012/05/01,1820,1820,1820,1820,20,1820
2012/05/02,1796,1810,1796,1806,420,1806
2012/05/07,1733,1733,1733,1733,30,1733
2012/05/08,1787,1787,1770,1770,50,1770
2012/05/09,1691,1691,1691,1691,40,1691
2012/05/10,1691,1691,1691,1691,10,1691
2012/05/11,1712,1712,1710,1710,50,1710
2012/05/14,1600,1600,1600,1600,50,1600
2012/05/15,1683,1683,1644,1644,70,1644
2012/05/16,1717,1717,1717,1717,10,1717
2012/05/18,1727,1727,1707,1707,360,1707
2012/05/25,1623,1623,1620,1620,90,1620
2012/05/31,1630,1630,1601,1601,240,1601
2012/06/01,1600,1600,1600,1600,250,1600
2012/06/08,1700,1700,1700,1700,100,1700
2012/06/15,1660,1660,1620,1620,90,1620
2012/06/22,1658,1658,1658,1658,500,1658
2012/07/02,1817,1850,1817,1850,350,1850
2012/07/03,1850,1861,1850,1861,510,1861
2012/07/04,1870,1900,1833,1900,1640,1900
2012/07/05,1900,1900,1900,1900,2710,1900
2012/07/06,1905,1976,1905,1972,680,1972
2012/07/09,1934,1972,1934,1972,90,1972
2012/07/10,1950,1976,1950,1976,20,1976
2012/07/11,1980,1995,1924,1972,2020,1972
2012/07/12,1966,1966,1921,1921,230,1921
2012/07/13,1961,1968,1961,1968,100,1968
2012/07/17,2050,2050,2016,2016,990,2016
2012/07/18,2047,2047,2027,2027,740,2027
2012/07/19,2063,2069,2060,2069,1280,2069
2012/07/20,2110,2131,2100,2113,1520,2113
2012/07/23,2131,2131,2081,2081,1160,2081
2012/07/24,1996,2000,1990,2000,1020,2000
2012/07/25,1922,1951,1922,1942,1080,1942
2012/07/26,1978,2010,1978,2010,1000,2010
2012/07/27,1960,1989,1960,1984,530,1984
2012/07/30,2051,2052,2051,2051,310,2051
2012/07/31,2082,2082,2032,2045,70,2045
2012/08/01,2095,2095,2085,2085,430,2085
2012/08/02,2041,2055,2041,2051,420,2051
2012/08/03,2044,2044,2007,2031,410,2031
2012/08/06,2028,2028,1981,1981,650,1981
2012/08/07,1999,1999,1999,1999,10,1999
2012/08/08,2003,2003,1999,1999,200,1999
2012/08/09,1959,2005,1959,2002,460,2002
2012/08/10,2061,2061,2049,2049,40,2049
2012/08/15,2016,2016,2016,2016,30,2016
2012/08/16,2031,2076,2026,2026,760,2026
2012/08/17,2016,2065,2016,2050,900,2050
2012/08/20,2095,2100,2095,2100,430,2100
2012/08/21,2140,2177,2140,2177,910,2177
2012/08/22,2205,2230,2205,2220,230,2220
2012/08/23,2213,2213,2213,2213,100,2213
2012/08/24,2180,2202,2180,2202,50,2202
2012/08/27,2230,2230,2230,2230,70,2230
2012/08/28,2150,2150,2124,2124,170,2124
2012/08/29,2120,2120,2120,2120,40,2120
2012/08/30,2161,2211,2161,2205,60,2205
2012/08/31,2222,2222,2222,2222,10,2222
2012/09/03,2122,2122,2050,2050,500,2050
2012/09/04,2220,2250,2220,2250,1510,2250
2012/09/05,2244,2244,2175,2175,220,2175
2012/09/06,2125,2125,2125,2125,100,2125
2012/09/07,2160,2160,2160,2160,100,2160
2012/09/11,2160,2162,2155,2162,180,2162
2012/09/13,2125,2125,2125,2125,30,2125
2012/09/14,2150,2150,2150,2150,110,2150
2012/09/18,2100,2123,2100,2105,80,2105
2012/09/20,2136,2136,2136,2136,10,2136
2012/09/24,2024,2025,2024,2025,50,2025
2012/09/25,2042,2042,2042,2042,10,2042
2012/09/26,2021,2021,2021,2021,10,2021
2012/09/27,1994,1994,1954,1954,110,1954
2012/09/28,1990,1990,1990,1990,20,1990
2012/10/01,2010,2010,1995,2010,30,2010
2012/10/02,1970,1970,1970,1970,10,1970
2012/10/04,1930,1930,1930,1930,50,1930
2012/10/09,1950,1950,1950,1950,140,1950
2012/10/10,1950,1950,1950,1950,10,1950
2012/10/15,1990,1990,1990,1990,4100,1990
2012/10/16,1950,1950,1929,1934,270,1934
2012/10/17,1920,1920,1920,1920,30,1920
2012/10/22,1940,1940,1940,1940,80,1940
2012/10/23,1940,1940,1940,1940,100,1940
2012/10/25,1920,1920,1920,1920,10,1920
2012/10/29,2000,2000,2000,2000,10,2000
2012/10/30,2050,2050,2050,2050,60,2050
2012/10/31,2050,2050,2050,2050,50,2050
2012/11/01,2048,2048,2048,2048,50,2048
2012/11/02,2048,2048,2048,2048,100,2048
2012/11/05,2032,2032,1980,1980,120,1980
2012/11/06,1940,1940,1940,1940,10,1940
2012/11/09,1930,1930,1930,1930,10,1930
2012/11/12,1920,1920,1860,1901,100,1901
2012/11/13,1860,1860,1800,1800,280,1800
2012/11/14,1800,1815,1800,1815,30,1815
2012/11/16,1840,1840,1840,1840,10,1840
2012/11/20,1855,1855,1835,1835,130,1835
2012/11/22,1801,1801,1801,1801,30,1801
2012/11/26,1865,1885,1865,1883,30,1883
2012/11/27,1885,1885,1885,1885,10,1885
2012/12/03,1912,1912,1912,1912,30,1912
2012/12/05,1926,1935,1926,1935,20,1935
2012/12/07,1960,1960,1960,1960,30,1960
2012/12/10,1950,1950,1942,1942,100,1942
2012/12/14,1957,1961,1957,1961,4150,1961
2012/12/17,2000,2000,2000,2000,240,2000
2012/12/18,1995,2009,1995,2009,50,2009
2012/12/20,1945,1945,1940,1940,160,1940
2012/12/21,1876,1920,1876,1920,30,1920
2012/12/25,1960,1960,1960,1960,50,1960
2012/12/28,1979,1979,1979,1979,10,1979
2013/01/04,1980,1980,1980,1980,50,1980
2013/01/07,1955,1955,1955,1955,50,1955
2013/01/09,1940,1940,1940,1940,200,1940
2013/01/10,1950,1950,1940,1940,500,1940
2013/01/11,1950,1952,1927,1927,610,1927
2013/01/15,2015,2015,2000,2015,440,2015
2013/01/17,2015,2035,2015,2035,350,2035
2013/01/18,2075,2075,2075,2075,50,2075
2013/01/21,2050,2050,2012,2012,250,2012
2013/01/22,2020,2020,2020,2020,10,2020
2013/01/23,1970,1970,1970,1970,50,1970
2013/01/24,2053,2053,2053,2053,300,2053
2013/01/25,2099,2099,2066,2066,200,2066
2013/01/28,2100,2100,2100,2100,100,2100
2013/01/29,1955,2090,1955,2090,20,2090
2013/01/30,2100,2100,2100,2100,50,2100
2013/01/31,2139,2185,2139,2178,160,2178
2013/02/01,2190,2190,2167,2167,80,2167
2013/02/04,2130,2190,2130,2169,4470,2169
2013/02/06,2210,2241,2210,2234,200,2234
2013/02/07,2200,2200,2200,2200,120,2200
2013/02/08,2250,2250,2214,2214,90,2214
2013/02/12,2216,2216,2216,2216,10,2216
2013/02/13,2220,2220,2220,2220,10,2220
2013/02/14,2220,2220,2220,2220,30,2220
2013/02/15,2086,2136,2070,2070,610,2070
2013/02/18,2021,2107,2021,2107,510,2107
2013/02/19,2140,2140,2140,2140,10,2140
2013/02/20,2140,2180,2130,2180,340,2180
2013/02/21,2190,2190,2190,2190,20,2190
2013/02/22,2200,2200,2200,2200,10,2200
2013/03/01,2158,2158,2158,2158,540,2158
2013/03/04,1918,2147,1918,2147,210,2147
2013/03/05,2160,2180,2160,2180,40,2180
2013/03/07,2130,2130,2130,2130,90,2130
2013/03/08,2100,2200,2100,2200,30,2200
2013/03/11,2250,2250,2250,2250,40,2250
2013/03/12,2250,2250,2250,2250,10,2250
2013/03/13,2200,2200,2100,2100,70,2100
2013/03/14,1910,1910,1910,1910,20,1910
2013/03/15,2175,2175,2175,2175,10,2175
2013/03/19,2105,2105,2105,2105,60,2105
2013/03/25,2605,2605,2605,2605,10,2605
2013/03/26,2100,2100,2100,2100,20,2100
2013/03/27,2190,2190,2190,2190,110,2190
2013/04/04,2150,2150,2150,2150,10,2150
2013/04/16,2250,2250,2250,2250,50,2250
2013/04/18,2000,2000,2000,2000,100,2000
2013/04/19,2180,2260,2180,2260,980,2260
2013/04/22,2220,2220,2220,2220,10,2220
2013/04/23,2080,2260,2080,2260,200,2260
2013/04/25,2080,2230,2080,2230,240,2230
2013/04/26,2000,2000,2000,2000,10,2000
2013/04/30,2200,2200,2200,2200,100,2200
2013/05/02,1870,1870,1870,1870,10,1870
2013/05/09,2260,2260,2260,2260,140,2260
2013/05/13,2297,2297,2297,2297,740,2297
2013/05/21,2297,2340,2297,2330,140,2330
2013/05/27,2530,2530,2530,2530,10,2530
2013/05/30,2110,2110,2110,2110,50,2110
2013/06/04,2390,2390,2390,2390,60,2390
2013/06/06,2400,2400,2400,2400,650,2400
2013/06/07,2400,2400,2400,2400,50,2400
2013/06/24,1930,1930,1930,1930,60,1930
2013/07/18,2337,2337,2337,2337,30,2337
2013/08/15,2150,2150,2150,2150,110,2150
2013/08/20,2250,2250,2250,2250,70,2250
2013/09/10,2000,2000,2000,2000,20,2000
2013/09/18,2132,2132,2132,2132,50,2132
2013/09/25,2200,2200,2200,2200,30,2200
2013/09/26,2150,2150,2150,2150,10,2150
2013/09/30,2110,2110,2110,2110,20,2110
2013/10/03,2110,2110,2110,2110,10,2110
2013/10/10,2396,2396,2396,2396,10,2396
2013/10/15,2312,2312,2312,2312,50,2312
2013/10/28,2300,2399,2300,2399,100,2399
2013/11/05,2118,2118,2118,2118,50,2118
2013/11/06,2103,2103,2100,2100,170,2100
2013/11/07,2050,2050,2050,2050,70,2050
2013/11/11,2390,2390,2390,2390,150,2390
2013/11/14,2390,2390,2390,2390,90,2390
2013/11/15,2348,2390,2348,2390,100,2390
2013/11/25,2313,2313,2263,2263,250,2263
2013/11/26,2500,2500,2450,2450,560,2450
2013/11/29,2500,2500,2390,2390,110,2390
2013/12/02,2500,2600,2500,2600,120,2600
2013/12/03,2202,2220,2202,2220,60,2220
2013/12/09,2480,2480,2460,2460,540,2460
2013/12/11,2590,2590,2590,2590,10,2590
2013/12/16,2307,2307,2307,2307,250,2307
2013/12/19,2307,2307,2307,2307,100,2307
2013/12/24,2590,2590,2480,2480,180,2480
2013/12/25,2460,2460,2460,2460,50,2460
2014/01/07,2352,2352,2352,2352,360,2352
2014/01/31,2343,2343,2343,2343,50,2343
2014/02/04,2348,2348,2348,2348,90,2348
2014/02/12,2357,2357,2357,2357,60,2357
2014/03/03,2600,2700,2600,2700,60,2700
2014/03/05,2700,2700,2650,2650,420,2650
2014/03/11,2889,2889,2889,2889,10,2889
2014/03/27,2386,2386,2386,2386,10,2386
2014/04/04,2510,2510,2510,2510,10,2510
2014/04/07,2600,2600,2600,2600,20,2600
2014/04/14,2768,2768,2768,2768,290,2768
2014/04/18,2600,2600,2600,2600,10,2600
2014/04/21,2790,2790,2790,2790,90,2790
2014/04/22,2740,2740,2740,2740,90,2740
2014/06/25,3045,3045,3045,3045,150,3045
2014/06/30,2953,2953,2953,2953,10,2953
2014/07/02,2800,2800,2800,2800,10,2800
2014/07/04,2700,2700,2700,2700,10,2700
2014/07/07,2700,2700,2700,2700,200,2700
2014/07/08,2650,2650,2650,2650,50,2650
2014/07/22,2543,2543,2543,2543,10,2543
2014/07/23,2500,2500,2300,2300,160,2300
2014/08/04,2634,2634,2634,2634,10,2634
2014/08/14,2819,2819,2819,2819,10,2819
2014/08/15,2195,2595,2195,2595,60,2595
2014/08/18,2685,2685,2685,2685,50,2685
2014/10/31,2430,2430,2430,2430,10,2430
2014/11/04,2600,2600,2600,2600,20,2600
2014/11/07,2183,2183,2183,2183,20,2183
2014/11/10,2599,2599,2400,2599,30,2599
2014/11/20,2450,2450,2450,2450,10,2450
2014/11/27,2428,2428,2428,2428,150,2428
2014/11/28,2750,2800,2750,2800,130,2800
2014/12/01,2391,2395,2391,2392,70,2392
2014/12/02,2415,2415,2415,2415,10,2415
2014/12/05,2415,2415,2415,2415,10,2415
2014/12/10,2431,2431,2425,2425,80,2425
2014/12/19,2700,2700,2700,2700,240,2700
2015/01/07,2630,2630,2630,2630,80,2630
2015/01/08,2800,2800,2800,2800,100,2800
2015/01/26,2923,2923,2600,2600,90,2600
2015/01/27,2261,2261,2261,2261,10,2261
2015/02/04,2906,2906,2906,2906,50,2906
2015/02/06,2392,2392,2342,2342,50,2342
2015/02/23,2412,2412,2412,2412,200,2412
2015/03/02,2455,2455,2455,2455,10,2455
2015/03/03,2759,2759,2759,2759,10,2759
2015/03/04,2564,2564,2564,2564,10,2564
2015/03/16,2686,2686,2686,2686,100,2686
2015/03/31,2660,2660,2650,2650,70,2650
2015/04/10,2590,2590,2590,2590,100,2590
2015/04/13,2590,2720,2585,2585,150,2585
2015/04/24,2550,2550,2550,2550,50,2550
2015/05/22,2530,2530,2530,2530,50,2530
2015/05/26,2589,2589,2589,2589,20,2589
2015/06/12,2506,2506,2506,2506,190,2506
2015/06/17,2590,2590,2590,2590,130,2590
2015/07/01,2770,2775,2770,2775,570,2775
