2011/01/04,99,101,99,101,37600,101
2011/01/05,102,102,100,101,21000,101
2011/01/06,101,102,100,101,24800,101
2011/01/07,101,101,100,100,29200,100
2011/01/11,101,102,101,102,30700,102
2011/01/12,103,104,102,104,126900,104
2011/01/13,106,111,105,111,254300,111
2011/01/14,111,112,105,107,189100,107
2011/01/17,107,107,104,105,59300,105
2011/01/18,105,107,104,106,33100,106
2011/01/19,106,107,105,107,41300,107
2011/01/20,107,107,106,107,67800,107
2011/01/21,107,107,105,107,108000,107
2011/01/24,106,106,101,103,99300,103
2011/01/25,104,107,104,107,63300,107
2011/01/26,107,107,106,107,14400,107
2011/01/27,106,107,106,106,15600,106
2011/01/28,106,106,105,105,25200,105
2011/01/31,104,104,102,103,35900,103
2011/02/01,104,104,103,103,3200,103
2011/02/02,105,107,104,107,32300,107
2011/02/03,106,113,105,112,119500,112
2011/02/04,112,112,107,109,91200,109
2011/02/07,112,115,110,113,88000,113
2011/02/08,115,120,113,118,173600,118
2011/02/09,119,125,114,121,378600,121
2011/02/10,106,109,105,108,375000,108
2011/02/14,109,111,108,110,94500,110
2011/02/15,111,112,110,111,69700,111
2011/02/16,112,112,109,111,49600,111
2011/02/17,111,117,111,115,81200,115
2011/02/18,123,126,120,124,756400,124
2011/02/21,125,126,123,126,137000,126
2011/02/22,124,125,123,124,100200,124
2011/02/23,123,130,123,128,108500,128
2011/02/24,126,127,122,123,109200,123
2011/02/25,122,124,122,124,15400,124
2011/02/28,124,127,123,126,19200,126
2011/03/01,130,135,125,134,131700,134
2011/03/02,134,135,130,130,183600,130
2011/03/03,132,135,131,131,29100,131
2011/03/04,131,135,131,135,85400,135
2011/03/07,136,145,132,136,168500,136
2011/03/08,135,138,134,138,48400,138
2011/03/09,138,144,138,143,127900,143
2011/03/10,143,143,136,136,98200,136
2011/03/11,132,134,132,134,39200,134
2011/03/14,89,110,88,88,258900,88
2011/03/15,88,95,58,75,359800,75
2011/03/16,84,87,80,80,105600,80
2011/03/17,80,92,80,91,126800,91
2011/03/18,93,100,92,96,134600,96
2011/03/22,100,114,100,113,118400,113
2011/03/23,111,121,109,117,132300,117
2011/03/24,121,145,121,142,299000,142
2011/03/25,150,150,121,130,267000,130
2011/03/28,139,139,114,123,101400,123
2011/03/29,112,121,111,114,87700,114
2011/03/30,113,120,111,115,33800,115
2011/03/31,118,131,116,122,57700,122
2011/04/01,125,130,118,129,50800,129
2011/04/04,132,133,121,123,66500,123
2011/04/05,120,122,114,115,42400,115
2011/04/06,117,117,113,114,11000,114
2011/04/07,114,115,110,113,18000,113
2011/04/08,110,114,110,112,5800,112
2011/04/11,115,116,113,115,4700,115
2011/04/12,111,117,111,113,16700,113
2011/04/13,115,122,110,121,62300,121
2011/04/14,128,128,121,123,63700,123
2011/04/15,122,124,118,120,22200,120
2011/04/18,135,141,120,123,394100,123
2011/04/19,121,123,116,120,74100,120
2011/04/20,120,120,117,118,35100,118
2011/04/21,122,122,116,117,31000,117
2011/04/22,118,119,116,116,43100,116
2011/04/25,117,124,117,119,34900,119
2011/04/26,119,119,116,117,17600,117
2011/04/27,118,119,117,118,10300,118
2011/04/28,120,137,118,119,421600,119
2011/05/02,121,124,120,122,56600,122
2011/05/06,120,122,120,121,16400,121
2011/05/09,121,124,121,122,13500,122
2011/05/10,122,127,122,123,56700,123
2011/05/11,124,126,123,123,23600,123
2011/05/12,123,123,117,119,33700,119
2011/05/13,119,120,116,117,24700,117
2011/05/16,115,119,114,118,19200,118
2011/05/17,118,119,114,116,20400,116
2011/05/18,114,114,112,113,37100,113
2011/05/19,112,113,109,109,66200,109
2011/05/20,109,110,104,106,51500,106
2011/05/23,105,106,104,105,35600,105
2011/05/24,103,104,97,102,44800,102
2011/05/25,103,103,101,103,16600,103
2011/05/26,104,107,103,104,11900,104
2011/05/27,104,106,102,105,11100,105
2011/05/30,104,104,103,104,4800,104
2011/05/31,102,105,102,105,8500,105
2011/06/01,105,108,104,108,50700,108
2011/06/02,107,108,105,105,9200,105
2011/06/03,107,133,107,109,513500,109
2011/06/06,112,114,105,107,139800,107
2011/06/07,107,109,107,109,22500,109
2011/06/08,108,109,105,108,50800,108
2011/06/09,109,112,107,107,30300,107
2011/06/10,108,120,108,110,220300,110
2011/06/13,109,112,108,109,28200,109
2011/06/14,109,111,107,110,15300,110
2011/06/15,111,123,109,117,242600,117
2011/06/16,115,116,112,114,30100,114
2011/06/17,114,115,113,113,8400,113
2011/06/20,113,114,112,113,10900,113
2011/06/21,114,114,112,113,15700,113
2011/06/22,113,114,112,113,8400,113
2011/06/23,113,114,113,113,7900,113
2011/06/24,113,115,112,115,15300,115
2011/06/27,115,115,114,114,7000,114
2011/06/28,114,115,114,114,9400,114
2011/06/29,114,114,110,112,70700,112
2011/06/30,112,122,111,113,149300,113
2011/07/01,114,115,113,114,10100,114
2011/07/04,115,115,113,113,20800,113
2011/07/05,113,115,113,114,10000,114
2011/07/06,116,116,114,115,10400,115
2011/07/07,115,115,113,114,3800,114
2011/07/08,114,115,113,115,6600,115
2011/07/11,115,115,113,113,6900,113
2011/07/12,113,114,112,113,9200,113
2011/07/13,112,113,112,113,5200,113
2011/07/14,113,114,113,114,2200,114
2011/07/15,114,114,113,113,2100,113
2011/07/19,113,113,112,113,2000,113
2011/07/20,112,113,111,112,19900,112
2011/07/21,110,111,109,111,41400,111
2011/07/22,111,113,111,113,79700,113
2011/07/25,114,115,113,114,32800,114
2011/07/26,116,116,115,115,15600,115
2011/07/27,114,115,112,112,9900,112
2011/07/28,112,113,110,112,10100,112
2011/07/29,111,112,111,111,6600,111
2011/08/01,112,113,111,113,1800,113
2011/08/02,113,114,112,114,7700,114
2011/08/03,112,113,110,110,8500,110
2011/08/04,111,111,110,110,5700,110
2011/08/05,106,109,104,106,67000,106
2011/08/08,105,105,102,102,14200,102
2011/08/09,100,102,96,97,25500,97
2011/08/10,105,105,101,103,14500,103
2011/08/11,100,102,100,101,10200,101
2011/08/12,102,104,102,104,13000,104
2011/08/15,104,108,103,107,29800,107
2011/08/16,110,110,106,107,7900,107
2011/08/17,107,107,105,105,2600,105
2011/08/18,104,105,100,103,31700,103
2011/08/19,100,102,98,100,33600,100
2011/08/22,100,113,100,101,88700,101
2011/08/23,102,102,100,100,9300,100
2011/08/24,102,102,101,102,1100,102
2011/08/25,101,103,101,103,8400,103
2011/08/26,103,103,102,102,5700,102
2011/08/29,102,102,101,101,5900,101
2011/08/30,102,103,101,102,4800,102
2011/08/31,102,103,101,103,86100,103
2011/09/01,103,105,102,103,63600,103
2011/09/02,103,103,101,102,6700,102
2011/09/05,102,102,102,102,1900,102
2011/09/06,101,102,97,98,13700,98
2011/09/07,100,115,99,101,277300,101
2011/09/08,103,103,101,102,26100,102
2011/09/09,102,103,100,103,9100,103
2011/09/12,102,104,101,102,11900,102
2011/09/13,102,102,100,101,23500,101
2011/09/14,101,103,100,100,21000,100
2011/09/15,104,110,101,103,50200,103
2011/09/16,102,103,102,103,12600,103
2011/09/20,104,104,103,103,1600,103
2011/09/21,103,104,103,104,18300,104
2011/09/22,103,104,102,103,10600,103
2011/09/26,105,105,100,102,35000,102
2011/09/27,100,101,100,100,7600,100
2011/09/28,100,101,99,99,7500,99
2011/09/29,100,100,100,100,2100,100
2011/09/30,100,102,100,102,4000,102
2011/10/03,100,101,100,101,3000,101
2011/10/04,100,101,100,100,4800,100
2011/10/05,101,102,101,102,2200,102
2011/10/06,100,101,100,101,1700,101
2011/10/07,101,101,100,101,1000,101
2011/10/11,101,102,101,102,3900,102
2011/10/12,102,103,101,102,9900,102
2011/10/13,104,104,101,102,9700,102
2011/10/14,103,103,102,102,9600,102
2011/10/17,102,103,101,101,4700,101
2011/10/18,101,102,101,102,13000,102
2011/10/19,101,103,101,103,6800,103
2011/10/20,102,102,101,101,1700,101
2011/10/21,102,109,97,98,242200,98
2011/10/24,99,100,98,100,23200,100
2011/10/25,101,101,100,101,6800,101
2011/10/26,101,101,99,100,11100,100
2011/10/27,100,100,99,99,18700,99
2011/10/28,100,101,100,100,8200,100
2011/10/31,101,102,100,101,11300,101
2011/11/01,100,101,100,100,7600,100
2011/11/02,101,101,100,100,9800,100
2011/11/04,101,101,98,99,30900,99
2011/11/07,100,100,96,97,61300,97
2011/11/08,98,98,94,94,38900,94
2011/11/09,94,96,94,96,18200,96
2011/11/10,93,94,93,94,16500,94
2011/11/11,92,94,92,94,11500,94
2011/11/14,94,95,94,95,4400,95
2011/11/15,96,96,94,95,2900,95
2011/11/16,96,96,95,95,1300,95
2011/11/17,94,94,93,94,1800,94
2011/11/18,94,99,94,96,36900,96
2011/11/21,96,101,95,97,49100,97
2011/11/22,97,101,97,98,24000,98
2011/11/24,98,98,97,97,6400,97
2011/11/25,97,97,96,97,9400,97
2011/11/28,96,97,96,96,6900,96
2011/11/29,96,96,95,96,6600,96
2011/11/30,96,97,96,97,3800,97
2011/12/01,96,98,96,98,16600,98
2011/12/02,97,99,97,99,14400,99
2011/12/05,99,102,99,102,23600,102
2011/12/06,104,104,99,100,43900,100
2011/12/07,99,100,99,100,8000,100
2011/12/08,100,101,99,99,15800,99
2011/12/09,99,99,98,99,7300,99
2011/12/12,101,101,100,100,5300,100
2011/12/13,100,101,100,100,7700,100
2011/12/14,101,102,100,100,8800,100
2011/12/15,100,101,99,100,21500,100
2011/12/16,100,101,99,99,17000,99
2011/12/19,99,101,99,101,17800,101
2011/12/20,101,101,99,100,7500,100
2011/12/21,100,100,100,100,3800,100
2011/12/22,100,103,100,102,18400,102
2011/12/26,103,103,100,101,31500,101
2011/12/27,101,102,100,101,5900,101
2011/12/28,101,101,100,101,500,101
2011/12/29,101,101,100,100,5800,100
2011/12/30,101,101,101,101,1100,101
2012/01/04,101,102,101,102,5700,102
2012/01/05,102,102,101,101,2900,101
2012/01/06,101,101,101,101,6300,101
2012/01/10,101,103,101,103,10800,103
2012/01/11,103,106,103,105,39500,105
2012/01/12,107,107,103,103,22600,103
2012/01/13,104,104,102,104,10100,104
2012/01/16,104,106,102,106,30500,106
2012/01/17,106,110,106,109,29600,109
2012/01/18,110,110,106,107,48700,107
2012/01/19,107,109,106,109,14300,109
2012/01/20,109,109,107,108,4200,108
2012/01/23,108,109,107,109,8400,109
2012/01/24,109,109,107,108,5200,108
2012/01/25,108,110,107,110,42400,110
2012/01/26,111,111,109,109,11200,109
2012/01/27,110,110,109,110,16800,110
2012/01/30,110,110,107,107,14400,107
2012/01/31,108,111,107,107,36300,107
2012/02/01,109,110,108,109,15800,109
2012/02/02,110,110,107,107,21800,107
2012/02/03,108,109,107,109,4500,109
2012/02/06,111,118,109,118,77000,118
2012/02/07,116,118,115,117,57400,117
2012/02/08,117,132,116,129,465000,129
2012/02/09,122,127,119,123,127600,123
2012/02/10,120,130,119,129,198200,129
2012/02/13,126,127,122,125,165000,125
2012/02/14,124,129,122,129,240500,129
2012/02/15,130,137,125,128,695900,128
2012/02/16,129,130,118,126,128600,126
2012/02/17,126,128,121,124,57300,124
2012/02/20,132,132,126,127,96300,127
2012/02/21,128,131,126,129,64200,129
2012/02/22,129,130,127,130,39500,130
2012/02/23,131,131,126,128,60800,128
2012/02/24,129,133,128,133,142700,133
2012/02/27,134,134,129,129,72300,129
2012/02/28,130,130,127,129,26800,129
2012/02/29,129,130,125,125,53700,125
2012/03/01,125,127,123,123,40100,123
2012/03/02,122,127,122,125,28700,125
2012/03/05,126,130,126,128,22200,128
2012/03/06,127,127,125,126,9100,126
2012/03/07,125,127,124,127,14400,127
2012/03/08,127,128,125,128,9100,128
2012/03/09,127,129,126,128,45900,128
2012/03/12,128,132,128,132,86200,132
2012/03/13,132,132,129,129,42900,129
2012/03/14,130,131,129,130,16300,130
2012/03/15,131,131,127,127,60400,127
2012/03/16,127,129,124,129,36000,129
2012/03/19,130,131,124,127,91000,127
2012/03/21,129,136,127,134,175400,134
2012/03/22,137,139,134,135,325200,135
2012/03/23,136,138,130,135,195300,135
2012/03/26,134,138,131,133,306700,133
2012/03/27,134,136,132,133,207400,133
2012/03/28,128,130,125,127,63300,127
2012/03/29,127,128,125,126,18200,126
2012/03/30,126,126,120,125,80200,125
2012/04/02,128,128,125,125,15900,125
2012/04/03,126,126,124,124,10700,124
2012/04/04,125,125,117,117,71200,117
2012/04/05,120,120,118,120,14900,120
2012/04/06,117,118,111,116,70100,116
2012/04/09,115,120,113,117,23000,117
2012/04/10,117,118,117,117,7500,117
2012/04/11,115,115,113,115,21000,115
2012/04/12,115,117,115,117,3700,117
2012/04/13,119,119,115,117,25900,117
2012/04/16,117,118,116,117,5800,117
2012/04/17,116,118,116,117,8800,117
2012/04/18,117,119,117,118,5700,118
2012/04/19,117,118,116,117,10000,117
2012/04/20,116,120,116,119,12600,119
2012/04/23,119,120,118,120,10200,120
2012/04/24,119,119,116,119,9600,119
2012/04/25,119,122,118,120,40900,120
2012/04/26,120,120,119,119,7800,119
2012/04/27,118,119,117,117,7000,117
2012/05/01,117,117,114,115,10900,115
2012/05/02,116,116,114,115,12900,115
2012/05/07,114,114,109,109,46800,109
2012/05/08,110,111,109,110,2600,110
2012/05/09,110,110,105,106,19700,106
2012/05/10,107,107,105,107,23700,107
2012/05/11,107,125,102,102,310300,102
2012/05/14,105,122,103,103,410500,103
2012/05/15,104,106,101,105,75400,105
2012/05/16,106,108,103,107,35800,107
2012/05/17,107,109,105,108,14100,108
2012/05/18,106,107,105,105,22800,105
2012/05/21,106,109,105,107,18700,107
2012/05/22,110,111,109,110,25500,110
2012/05/23,110,111,109,109,4600,109
2012/05/24,109,109,107,107,25400,107
2012/05/25,110,110,106,108,9700,108
2012/05/28,109,109,107,107,7700,107
2012/05/29,108,108,108,108,200,108
2012/05/30,108,108,108,108,200,108
2012/05/31,107,107,106,107,7500,107
2012/06/01,106,107,105,105,13100,105
2012/06/04,104,104,101,102,18400,102
2012/06/05,104,104,104,104,1700,104
2012/06/06,105,108,104,107,11600,107
2012/06/07,108,109,106,106,6600,106
2012/06/08,107,109,107,108,6400,108
2012/06/11,109,112,108,112,40900,112
2012/06/12,111,113,109,110,45100,110
2012/06/13,111,111,110,111,9500,111
2012/06/14,109,111,109,110,6700,110
2012/06/15,114,114,111,112,17700,112
2012/06/18,114,117,114,117,14100,117
2012/06/19,116,116,115,116,5400,116
2012/06/20,117,118,117,117,19300,117
2012/06/21,118,118,116,118,22400,118
2012/06/22,117,118,116,117,5600,117
2012/06/25,116,119,116,119,40400,119
2012/06/26,121,121,117,118,10400,118
2012/06/27,119,125,117,123,36500,123
2012/06/28,125,127,123,125,51600,125
2012/06/29,125,125,121,124,15800,124
2012/07/02,123,125,123,123,17100,123
2012/07/03,123,125,123,123,10300,123
2012/07/04,125,125,122,123,24700,123
2012/07/05,124,124,122,123,8300,123
2012/07/06,125,125,122,124,9200,124
2012/07/09,122,122,118,119,18100,119
2012/07/10,121,123,120,121,5000,121
2012/07/11,121,125,117,121,26300,121
2012/07/12,123,123,119,119,14900,119
2012/07/13,120,120,120,120,900,120
2012/07/17,121,121,120,120,4700,120
2012/07/18,121,121,116,116,9300,116
2012/07/19,116,120,116,117,6200,117
2012/07/20,120,120,117,117,7600,117
2012/07/23,117,121,115,121,48700,121
2012/07/24,118,118,116,117,18400,117
2012/07/25,117,118,114,117,20500,117
2012/07/26,122,122,117,117,27000,117
2012/07/27,117,118,117,118,3200,118
2012/07/30,124,124,120,123,20100,123
2012/07/31,124,125,122,124,17400,124
2012/08/01,123,125,122,123,10200,123
2012/08/02,124,125,122,124,6600,124
2012/08/03,121,122,120,121,6500,121
2012/08/06,122,123,120,120,5000,120
2012/08/07,121,121,120,121,2500,121
2012/08/08,121,123,121,123,8400,123
2012/08/09,124,124,122,123,9200,123
2012/08/10,123,125,123,125,5800,125
2012/08/13,125,125,122,123,51800,123
2012/08/14,123,124,122,122,10100,122
2012/08/15,122,123,121,121,8600,121
2012/08/16,121,122,121,122,2600,122
2012/08/17,122,122,121,121,3500,121
2012/08/20,120,121,120,121,6800,121
2012/08/21,121,121,119,119,22100,119
2012/08/22,120,120,119,120,2700,120
2012/08/23,119,120,119,119,20500,119
2012/08/24,119,119,118,118,7000,118
2012/08/27,119,119,117,118,5700,118
2012/08/28,119,119,118,118,12800,118
2012/08/29,118,118,117,117,6000,117
2012/08/30,118,118,117,117,500,117
2012/08/31,115,116,114,115,12400,115
2012/09/03,117,117,113,113,22000,113
2012/09/04,115,116,113,114,13700,114
2012/09/05,115,115,113,115,10900,115
2012/09/06,114,114,114,114,1800,114
2012/09/07,115,116,115,115,3500,115
2012/09/10,115,115,115,115,1900,115
2012/09/11,115,116,114,116,9200,116
2012/09/12,115,116,115,116,2300,116
2012/09/13,116,116,114,115,5300,115
2012/09/14,116,117,115,117,3800,117
2012/09/18,116,117,116,117,4900,117
2012/09/19,116,117,116,117,25800,117
2012/09/20,118,121,115,115,17300,115
2012/09/21,116,117,116,117,7000,117
2012/09/24,116,117,116,116,4000,116
2012/09/25,117,117,115,117,3700,117
2012/09/26,117,117,115,116,10300,116
2012/09/27,113,115,113,115,30800,115
2012/09/28,113,115,113,114,5600,114
2012/10/01,114,115,113,113,8700,113
2012/10/02,115,115,112,114,10100,114
2012/10/03,114,114,114,114,6700,114
2012/10/04,113,115,113,114,4300,114
2012/10/05,114,116,113,115,22600,115
2012/10/09,111,116,111,115,23800,115
2012/10/10,115,117,113,113,28800,113
2012/10/11,114,114,113,114,600,114
2012/10/12,114,115,113,114,8300,114
2012/10/15,113,114,113,113,15700,113
2012/10/16,114,114,114,114,4500,114
2012/10/17,114,115,113,114,7200,114
2012/10/18,114,115,114,115,5300,115
2012/10/19,115,116,114,115,8200,115
2012/10/22,114,115,114,115,500,115
2012/10/23,115,118,115,116,9400,116
2012/10/24,115,116,114,116,4400,116
2012/10/25,117,117,115,117,3500,117
2012/10/26,117,117,116,116,8200,116
2012/10/29,117,122,117,120,48100,120
2012/10/30,121,121,118,120,16300,120
2012/10/31,120,120,119,120,6700,120
2012/11/01,121,121,119,121,15000,121
2012/11/02,121,124,119,119,88100,119
2012/11/05,122,123,120,123,31300,123
2012/11/06,121,124,121,122,10000,122
2012/11/07,123,124,123,123,8700,123
2012/11/08,122,122,119,122,18400,122
2012/11/09,120,125,120,123,21700,123
2012/11/12,121,122,119,120,28900,120
2012/11/13,121,122,119,120,20100,120
2012/11/14,119,119,119,119,4900,119
2012/11/15,119,121,119,121,7900,121
2012/11/16,121,122,120,122,11900,122
2012/11/19,122,124,121,123,8600,123
2012/11/20,123,123,122,123,5800,123
2012/11/21,122,123,121,121,8900,121
2012/11/22,122,123,122,122,6300,122
2012/11/26,123,123,122,122,8800,122
2012/11/27,122,123,122,122,5500,122
2012/11/28,122,123,122,122,2800,122
2012/11/29,122,123,122,123,13200,123
2012/11/30,124,124,122,122,3100,122
2012/12/03,123,127,122,125,58900,125
2012/12/04,127,127,123,126,44200,126
2012/12/05,126,126,125,125,8100,125
2012/12/06,127,127,125,126,23100,126
2012/12/07,127,128,127,127,23700,127
2012/12/10,130,130,127,128,32100,128
2012/12/11,129,133,127,133,55500,133
2012/12/12,133,138,131,135,88900,135
2012/12/13,136,137,133,136,27600,136
2012/12/14,136,186,134,158,2649600,158
2012/12/17,153,162,145,148,523700,148
2012/12/18,144,146,140,144,121000,144
2012/12/19,143,144,135,137,280600,137
2012/12/20,138,145,138,141,176000,141
2012/12/21,142,145,136,137,78300,137
2012/12/25,138,139,135,139,52200,139
2012/12/26,138,144,138,141,53400,141
2012/12/27,138,146,137,145,160000,145
2012/12/28,143,147,143,147,132800,147
2013/01/04,148,149,145,148,67800,148
2013/01/07,155,155,149,150,129500,150
2013/01/08,149,150,145,148,120300,148
2013/01/09,148,150,146,149,90600,149
2013/01/10,150,150,146,148,82700,148
2013/01/11,150,150,148,149,47000,149
2013/01/15,150,161,148,161,401900,161
2013/01/16,160,169,156,160,891200,160
2013/01/17,158,160,154,158,200800,158
2013/01/18,159,160,151,155,168000,155
2013/01/21,155,155,145,155,109800,155
2013/01/22,155,156,151,153,49000,153
2013/01/23,153,156,150,154,62100,154
2013/01/24,153,153,150,152,24300,152
2013/01/25,154,156,152,154,60500,154
2013/01/28,153,157,153,156,82100,156
2013/01/29,155,160,155,158,190500,158
2013/01/30,159,160,157,158,66400,158
2013/01/31,160,160,156,158,84000,158
2013/02/01,159,159,146,157,130500,157
2013/02/04,156,160,155,158,169500,158
2013/02/05,159,160,155,157,81100,157
2013/02/06,158,163,157,158,194500,158
2013/02/07,158,158,156,156,53600,156
2013/02/08,158,159,155,157,68100,157
2013/02/12,158,162,158,161,181800,161
2013/02/13,161,162,153,158,265900,158
2013/02/14,155,157,151,154,110600,154
2013/02/15,154,154,144,144,152700,144
2013/02/18,144,151,144,148,51900,148
2013/02/19,148,156,148,155,76200,155
2013/02/20,154,157,153,154,49500,154
2013/02/21,154,156,149,154,64900,154
2013/02/22,154,155,151,155,23600,155
2013/02/25,154,157,151,153,80700,153
2013/02/26,152,154,150,151,49800,151
2013/02/27,150,153,150,150,47800,150
2013/02/28,151,155,150,155,167000,155
2013/03/01,152,155,150,154,188500,154
2013/03/04,156,159,154,156,130900,156
2013/03/05,158,160,151,151,482000,151
2013/03/06,153,158,153,157,212800,157
2013/03/07,159,160,156,157,272000,157
2013/03/08,158,161,157,160,246700,160
2013/03/11,162,169,156,159,684300,159
2013/03/12,159,165,156,158,260400,158
2013/03/13,158,161,157,160,96400,160
2013/03/14,160,163,160,163,61700,163
2013/03/15,163,164,160,162,138900,162
2013/03/18,163,163,159,161,80900,161
2013/03/19,160,162,159,161,80500,161
2013/03/21,162,163,161,162,76000,162
2013/03/22,161,163,160,163,131600,163
2013/03/25,162,163,161,163,137700,163
2013/03/26,163,163,156,159,224300,159
2013/03/27,157,157,151,153,175000,153
2013/03/28,153,153,149,151,84000,151
2013/03/29,152,153,149,152,37600,152
2013/04/01,153,153,144,144,109600,144
2013/04/02,139,146,137,144,108700,144
2013/04/03,148,149,144,147,46200,147
2013/04/04,148,149,145,149,44600,149
2013/04/05,152,157,151,153,136700,153
2013/04/08,155,157,151,156,146000,156
2013/04/09,157,159,152,152,105100,152
2013/04/10,153,156,152,153,114200,153
2013/04/11,156,156,152,155,61300,155
2013/04/12,156,159,152,155,64400,155
2013/04/15,154,157,153,154,46300,154
2013/04/16,153,153,149,153,90400,153
2013/04/17,154,154,150,150,37700,150
2013/04/18,152,154,151,152,55000,152
2013/04/19,153,153,147,150,163600,150
2013/04/22,152,156,149,153,425800,153
2013/04/23,160,160,154,156,129400,156
2013/04/24,156,168,156,165,515900,165
2013/04/25,164,191,164,178,1713700,178
2013/04/26,177,178,167,173,328100,173
2013/04/30,185,212,177,197,963100,197
2013/05/01,192,210,191,197,545800,197
2013/05/02,196,202,195,198,172600,198
2013/05/07,202,227,202,213,426300,213
2013/05/08,213,215,201,207,217100,207
2013/05/09,203,206,198,200,136800,200
2013/05/10,198,199,188,198,149400,198
2013/05/13,201,203,192,196,95300,196
2013/05/14,198,198,191,195,115500,195
2013/05/15,195,196,170,188,238500,188
2013/05/16,189,190,164,174,255900,174
2013/05/17,170,182,170,182,168500,182
2013/05/20,190,192,185,185,117200,185
2013/05/21,187,189,183,186,36800,186
2013/05/22,182,184,174,180,105900,180
2013/05/23,175,179,170,170,157400,170
2013/05/24,168,174,165,172,111300,172
2013/05/27,169,170,165,166,79400,166
2013/05/28,165,171,165,168,40300,168
2013/05/29,170,174,169,171,71700,171
2013/05/30,170,172,168,169,59400,169
2013/05/31,169,172,168,172,88900,172
2013/06/03,172,172,168,168,59500,168
2013/06/04,169,171,165,170,85000,170
2013/06/05,172,182,170,175,109000,175
2013/06/06,175,175,159,164,143600,164
2013/06/07,155,156,151,155,221400,155
2013/06/10,159,165,155,163,150400,163
2013/06/11,161,163,158,162,46900,162
2013/06/12,158,163,157,162,19500,162
2013/06/13,160,161,157,158,15800,158
2013/06/14,160,164,159,159,29300,159
2013/06/17,161,162,159,162,11900,162
2013/06/18,162,162,161,162,11900,162
2013/06/19,164,167,162,164,42200,164
2013/06/20,165,165,163,165,21500,165
2013/06/21,161,162,158,160,34400,160
2013/06/24,162,166,159,159,58100,159
2013/06/25,157,161,157,161,35700,161
2013/06/26,162,163,152,154,71100,154
2013/06/27,155,158,148,157,81000,157
2013/06/28,159,166,159,164,98100,164
2013/07/01,166,170,165,168,74600,168
2013/07/02,170,172,164,168,118300,168
2013/07/03,170,170,165,168,42500,168
2013/07/04,168,169,165,167,52700,167
2013/07/05,166,174,166,173,99900,173
2013/07/08,176,176,168,170,106800,170
2013/07/09,170,174,169,172,66400,172
2013/07/10,173,180,171,180,92000,180
2013/07/11,172,181,172,179,77200,179
2013/07/12,178,182,178,181,62300,181
2013/07/16,182,190,179,184,175100,184
2013/07/17,185,186,179,180,75600,180
2013/07/18,180,191,180,189,193800,189
2013/07/19,188,189,180,187,90000,187
2013/07/22,186,186,181,184,38400,184
2013/07/23,182,185,180,180,59500,180
2013/07/24,181,181,179,181,46100,181
2013/07/25,180,182,176,179,33500,179
2013/07/26,180,181,177,178,39700,178
2013/07/29,175,176,168,169,67100,169
2013/07/30,168,173,168,172,18700,172
2013/07/31,173,179,173,176,44400,176
2013/08/01,176,179,169,177,61700,177
2013/08/02,179,179,175,179,35400,179
2013/08/05,182,186,180,182,124300,182
2013/08/06,186,186,181,182,52800,182
2013/08/07,182,182,179,179,51700,179
2013/08/08,179,181,175,176,46600,176
2013/08/09,176,180,175,177,32600,177
2013/08/12,180,180,172,173,75800,173
2013/08/13,175,178,175,177,22400,177
2013/08/14,176,179,176,176,12000,176
2013/08/15,177,177,176,177,2100,177
2013/08/16,177,178,173,177,23900,177
2013/08/19,178,178,175,176,13200,176
2013/08/20,175,177,174,174,28100,174
2013/08/21,174,174,171,172,21500,172
2013/08/22,172,174,170,171,18900,171
2013/08/23,172,174,170,171,22000,171
2013/08/26,172,172,171,171,8200,171
2013/08/27,171,171,166,168,20100,168
2013/08/28,167,167,161,163,34400,163
2013/08/29,162,165,162,164,7000,164
2013/08/30,164,164,162,164,4400,164
2013/09/02,163,166,163,166,5200,166
2013/09/03,167,178,165,176,73300,176
2013/09/04,175,180,175,179,39400,179
2013/09/05,179,182,178,179,28200,179
2013/09/06,175,179,172,175,15700,175
2013/09/09,180,183,178,180,34400,180
2013/09/10,182,191,180,189,224800,189
2013/09/11,191,192,181,181,203800,181
2013/09/12,185,186,182,183,31700,183
2013/09/13,184,188,181,183,46300,183
2013/09/17,183,186,179,182,88000,182
2013/09/18,182,184,179,182,35900,182
2013/09/19,184,184,181,184,28600,184
2013/09/20,184,184,181,184,24700,184
2013/09/24,185,185,182,185,24300,185
2013/09/25,187,190,182,190,78400,190
2013/09/26,187,196,182,196,336200,196
2013/09/27,217,242,212,224,1675600,224
2013/09/30,215,223,211,219,407300,219
2013/10/01,217,233,215,219,182900,219
2013/10/02,215,220,205,209,195800,209
2013/10/03,204,209,201,206,101100,206
2013/10/04,203,208,200,205,48400,205
2013/10/07,210,228,210,218,238900,218
2013/10/08,215,234,212,231,460700,231
2013/10/09,235,239,225,235,269900,235
2013/10/10,238,238,226,228,149400,228
2013/10/11,230,231,215,222,233100,222
2013/10/15,220,222,214,216,111200,216
2013/10/16,217,219,212,215,85700,215
2013/10/17,216,218,212,215,75400,215
2013/10/18,270,278,251,251,1294400,251
2013/10/21,265,266,252,261,274200,261
2013/10/22,260,260,253,257,209500,257
2013/10/23,263,270,246,248,339100,248
2013/10/24,245,255,245,251,134300,251
2013/10/25,255,255,248,252,61500,252
2013/10/28,252,252,246,249,81600,249
2013/10/29,245,253,241,248,125800,248
2013/10/30,255,262,252,256,297200,256
2013/10/31,251,256,241,249,90100,249
2013/11/01,249,249,236,247,139000,247
2013/11/05,243,249,239,244,52700,244
2013/11/06,244,255,240,255,62800,255
2013/11/07,257,257,249,250,44700,250
2013/11/08,247,250,243,247,56800,247
2013/11/11,248,250,237,237,92300,237
2013/11/12,232,235,228,233,111500,233
2013/11/13,235,240,233,235,57400,235
2013/11/14,239,247,234,244,164600,244
2013/11/15,244,244,237,239,100400,239
2013/11/18,240,247,240,242,96700,242
2013/11/19,245,245,238,239,41500,239
2013/11/20,240,242,239,241,33200,241
2013/11/21,249,270,245,264,591600,264
2013/11/22,269,269,254,260,154100,260
2013/11/25,265,267,255,260,84300,260
2013/11/26,256,261,255,256,59600,256
2013/11/27,254,256,252,252,55600,252
2013/11/28,252,258,251,257,129900,257
2013/11/29,257,257,252,255,65500,255
2013/12/02,257,259,253,258,95100,258
2013/12/03,257,259,254,257,49100,257
2013/12/04,253,253,243,253,104700,253
2013/12/05,250,252,244,245,109800,245
2013/12/06,249,249,244,247,54600,247
2013/12/09,247,251,245,249,75700,249
2013/12/10,253,265,252,261,166700,261
2013/12/11,262,262,250,255,72300,255
2013/12/12,251,264,251,259,76200,259
2013/12/13,260,271,258,259,191500,259
2013/12/16,255,256,243,246,218900,246
2013/12/17,247,252,237,240,92800,240
2013/12/18,238,246,232,237,151000,237
2013/12/19,241,250,241,246,104900,246
2013/12/20,250,250,244,247,57700,247
2013/12/24,249,252,248,248,118700,248
2013/12/25,248,254,244,254,100800,254
2013/12/26,258,264,256,261,200700,261
2013/12/27,266,266,258,261,111900,261
2013/12/30,258,270,258,269,179700,269
2014/01/06,269,271,264,269,123500,269
2014/01/07,272,306,271,292,934800,292
2014/01/08,292,295,283,286,237900,286
2014/01/09,293,294,287,287,154200,287
2014/01/10,288,292,282,287,113000,287
2014/01/14,280,287,277,279,203000,279
2014/01/15,280,285,279,281,64800,281
2014/01/16,283,283,273,275,137900,275
2014/01/17,276,282,268,282,98200,282
2014/01/20,282,286,276,284,142800,284
2014/01/21,284,286,282,282,61300,282
2014/01/22,284,285,279,279,75200,279
2014/01/23,282,284,276,278,76700,278
2014/01/24,275,278,271,276,108000,276
2014/01/27,269,269,256,258,219900,258
2014/01/28,258,265,258,260,50000,260
2014/01/29,262,278,262,274,71500,274
2014/01/30,266,268,264,265,52200,265
2014/01/31,271,272,254,260,120000,260
2014/02/03,249,250,237,240,203000,240
2014/02/04,221,225,204,222,283000,222
2014/02/05,230,234,213,223,96600,223
2014/02/06,227,241,225,237,85200,237
2014/02/07,243,251,243,249,110000,249
2014/02/10,251,253,235,243,289300,243
2014/02/12,245,245,238,240,102700,240
2014/02/13,241,245,236,243,103400,243
2014/02/14,238,241,231,235,89700,235
2014/02/17,233,234,221,232,88300,232
2014/02/18,229,239,229,239,37900,239
2014/02/19,239,240,235,238,23000,238
2014/02/20,235,238,225,228,95700,228
2014/02/21,230,236,230,236,35300,236
2014/02/24,238,242,236,239,42800,239
2014/02/25,244,245,239,241,52300,241
2014/02/26,240,243,236,236,40900,236
2014/02/27,236,240,236,236,29000,236
2014/02/28,232,237,231,235,49200,235
2014/03/03,231,232,224,230,66400,230
2014/03/04,227,231,224,231,22500,231
2014/03/05,231,239,229,239,101200,239
2014/03/06,238,243,237,242,58300,242
2014/03/07,244,244,241,244,25600,244
2014/03/10,245,262,245,258,142300,258
2014/03/11,258,269,257,266,168800,266
2014/03/12,261,262,251,254,81600,254
2014/03/13,253,263,253,262,52200,262
2014/03/14,241,255,241,250,103700,250
2014/03/17,250,250,243,243,38100,243
2014/03/18,250,251,246,250,17500,250
2014/03/19,249,252,246,247,45400,247
2014/03/20,247,247,239,241,71400,241
2014/03/24,236,241,232,239,69000,239
2014/03/25,240,240,223,236,78800,236
2014/03/26,238,243,236,240,52200,240
2014/03/27,231,240,231,240,19700,240
2014/03/28,235,241,235,241,11800,241
2014/03/31,248,248,243,247,34500,247
2014/04/01,247,250,245,250,13100,250
2014/04/02,252,259,252,255,44700,255
2014/04/03,257,262,252,262,121100,262
2014/04/04,262,269,261,269,65600,269
2014/04/07,265,269,260,263,53900,263
2014/04/08,260,266,260,262,28900,262
2014/04/09,259,259,245,256,59000,256
2014/04/10,257,264,256,257,48800,257
2014/04/11,245,253,245,251,45400,251
2014/04/14,246,253,246,250,23900,250
2014/04/15,252,254,246,248,30100,248
2014/04/16,250,252,248,252,11800,252
2014/04/17,254,258,251,258,17400,258
2014/04/18,254,264,254,264,74300,264
2014/04/21,268,271,264,266,59800,266
2014/04/22,267,269,252,252,104100,252
2014/04/23,255,262,252,261,46300,261
2014/04/24,265,269,262,266,93000,266
2014/04/25,265,266,261,262,68900,262
2014/04/28,260,265,257,260,26500,260
2014/04/30,264,265,261,261,14600,261
2014/05/01,260,264,260,264,10400,264
2014/05/02,264,269,262,269,40600,269
2014/05/07,266,281,264,279,80200,279
2014/05/08,280,283,277,283,68200,283
2014/05/09,283,290,267,270,223200,270
2014/05/12,273,273,257,262,134500,262
2014/05/13,262,264,251,259,65200,259
2014/05/14,258,263,251,259,84500,259
2014/05/15,254,265,249,264,116500,264
2014/05/16,256,264,256,257,30600,257
2014/05/19,259,259,246,248,50000,248
2014/05/20,246,250,239,245,53700,245
2014/05/21,241,244,239,242,28800,242
2014/05/22,244,247,243,247,24600,247
2014/05/23,251,252,250,252,18100,252
2014/05/26,256,257,253,255,27400,255
2014/05/27,255,263,255,259,35600,259
2014/05/28,259,263,258,263,16800,263
2014/05/29,261,262,257,260,24800,260
2014/05/30,261,262,257,257,29800,257
2014/06/02,258,262,257,259,63000,259
2014/06/03,263,263,260,261,30100,261
2014/06/04,260,262,256,256,52700,256
2014/06/05,257,263,256,260,36000,260
2014/06/06,260,263,260,263,17400,263
2014/06/09,263,263,260,262,48700,262
2014/06/10,263,263,259,262,23200,262
2014/06/11,263,265,262,264,31500,264
2014/06/12,263,264,260,263,30000,263
2014/06/13,260,265,259,263,24700,263
2014/06/16,262,266,261,265,38200,265
2014/06/17,266,268,264,268,30100,268
2014/06/18,269,269,264,267,47600,267
2014/06/19,268,273,265,271,97000,271
2014/06/20,271,275,270,273,112500,273
2014/06/23,275,277,269,269,95700,269
2014/06/24,271,271,257,270,65800,270
2014/06/25,268,268,261,264,46400,264
2014/06/26,264,269,263,265,25700,265
2014/06/27,267,267,258,260,34000,260
2014/06/30,257,262,257,262,39000,262
2014/07/01,263,270,263,266,52600,266
2014/07/02,268,268,264,264,17500,264
2014/07/03,265,267,264,266,10000,266
2014/07/04,266,266,259,262,110800,262
2014/07/07,264,264,260,261,26200,261
2014/07/08,259,261,257,259,30600,259
2014/07/09,258,259,256,256,27500,256
2014/07/10,257,268,256,262,85600,262
2014/07/11,263,267,262,266,56500,266
2014/07/14,270,284,265,279,491600,279
2014/07/15,280,283,275,279,115600,279
2014/07/16,279,281,273,274,89700,274
2014/07/17,280,299,278,296,387300,296
2014/07/18,293,296,276,293,215700,293
2014/07/22,294,313,293,303,342100,303
2014/07/23,308,309,296,297,101900,297
2014/07/24,293,299,285,295,80000,295
2014/07/25,295,310,295,309,137400,309
2014/07/28,311,314,304,308,91300,308
2014/07/29,309,309,300,300,76900,300
2014/07/30,299,302,292,299,93900,299
2014/07/31,301,304,293,298,96800,298
2014/08/01,290,303,289,299,72800,299
2014/08/04,297,301,295,297,32800,297
2014/08/05,297,301,292,292,31000,292
2014/08/06,291,297,290,297,83200,297
2014/08/07,297,299,290,293,47600,293
2014/08/08,285,290,272,277,121600,277
2014/08/11,278,286,278,285,35100,285
2014/08/12,287,287,271,275,85200,275
2014/08/13,276,278,267,272,67700,272
2014/08/14,271,290,271,289,101100,289
2014/08/15,288,291,281,288,80100,288
2014/08/18,284,287,281,283,53000,283
2014/08/19,290,290,284,289,55000,289
2014/08/20,291,291,280,287,51100,287
2014/08/21,285,288,283,284,19800,284
2014/08/22,286,287,282,284,26600,284
2014/08/25,285,286,282,285,38700,285
2014/08/26,285,285,277,282,63300,282
2014/08/27,280,284,279,281,38800,281
2014/08/28,281,282,276,277,48600,277
2014/08/29,274,279,272,274,71700,274
2014/09/01,276,286,276,283,102600,283
2014/09/02,281,292,281,286,139900,286
2014/09/03,286,292,280,288,114200,288
2014/09/04,286,291,285,287,35700,287
2014/09/05,287,290,282,284,44100,284
2014/09/08,282,287,282,287,32600,287
2014/09/09,288,288,278,284,93600,284
2014/09/10,283,284,279,284,52200,284
2014/09/11,283,289,283,288,98800,288
2014/09/12,285,289,285,288,37800,288
2014/09/16,287,289,285,288,21600,288
2014/09/17,287,288,281,284,80800,284
2014/09/18,282,286,282,284,13200,284
2014/09/19,285,288,277,280,123500,280
2014/09/22,278,281,270,279,102200,279
2014/09/24,276,285,276,284,105300,284
2014/09/25,284,286,280,283,101500,283
2014/09/26,282,290,281,289,127700,289
2014/09/29,290,290,282,283,72800,283
2014/09/30,284,285,275,281,145400,281
2014/10/01,279,285,279,281,63800,281
2014/10/02,279,279,270,271,250400,271
2014/10/03,271,278,271,277,35100,277
2014/10/06,279,282,278,282,61000,282
2014/10/07,283,286,280,281,107500,281
2014/10/08,276,281,274,275,51200,275
2014/10/09,275,279,269,272,70600,272
2014/10/10,268,271,262,267,91900,267
2014/10/14,262,267,261,262,162000,262
2014/10/15,263,266,259,265,51800,265
2014/10/16,259,261,250,255,218900,255
2014/10/17,252,256,230,244,131600,244
2014/10/20,251,270,248,264,143300,264
2014/10/21,270,270,254,257,78800,257
2014/10/22,263,271,261,265,127400,265
2014/10/23,268,271,261,271,108500,271
2014/10/24,275,275,263,268,106600,268
2014/10/27,270,272,265,270,111800,270
2014/10/28,269,274,269,271,43600,271
2014/10/29,269,272,269,270,7700,270
2014/10/30,269,270,266,267,19700,267
2014/10/31,266,275,266,271,67600,271
2014/11/04,275,280,270,272,121000,272
2014/11/05,274,274,268,268,71400,268
2014/11/06,279,283,267,267,218800,267
2014/11/07,271,272,268,271,30400,271
2014/11/10,274,280,270,277,78700,277
2014/11/11,269,275,269,271,74400,271
2014/11/12,273,274,268,269,36400,269
2014/11/13,265,267,263,264,44800,264
2014/11/14,264,264,260,262,40100,262
2014/11/17,261,261,245,250,191700,250
2014/11/18,250,258,248,255,62200,255
2014/11/19,258,258,253,255,26700,255
2014/11/20,255,258,253,255,17500,255
2014/11/21,257,257,253,254,13000,254
2014/11/25,256,256,249,253,75400,253
2014/11/26,253,270,252,264,93900,264
2014/11/27,265,265,255,260,83600,260
2014/11/28,260,265,258,262,38200,262
2014/12/01,265,267,261,266,89600,266
2014/12/02,264,271,264,270,43700,270
2014/12/03,271,272,263,265,83000,265
2014/12/04,267,271,265,266,40200,266
2014/12/05,267,268,263,263,34400,263
2014/12/08,267,268,255,259,110500,259
2014/12/09,260,267,257,262,66100,262
2014/12/10,259,263,256,261,61000,261
2014/12/11,258,259,251,257,77400,257
2014/12/12,255,265,255,265,61400,265
2014/12/15,262,267,262,262,50600,262
2014/12/16,264,264,258,260,26100,260
2014/12/17,255,263,255,263,43300,263
2014/12/18,264,266,263,265,20900,265
2014/12/19,266,267,263,267,34800,267
2014/12/22,266,268,264,267,55600,267
2014/12/24,264,267,264,265,18800,265
2014/12/25,266,267,263,264,23400,264
2014/12/26,265,267,263,266,11900,266
2014/12/29,268,268,261,264,64700,264
2014/12/30,266,269,265,268,44600,268
2015/01/05,268,271,265,270,58600,270
2015/01/06,267,267,257,258,98400,258
2015/01/07,258,263,258,260,18900,260
2015/01/08,261,265,261,265,17400,265
2015/01/09,266,267,260,260,21700,260
2015/01/13,259,263,255,263,58500,263
2015/01/14,260,261,258,258,10000,258
2015/01/15,258,259,255,259,48500,259
2015/01/16,257,257,253,257,41300,257
2015/01/19,259,259,256,259,16000,259
2015/01/20,259,264,257,260,44900,260
2015/01/21,260,260,257,260,17000,260
2015/01/22,260,260,257,258,20700,258
2015/01/23,260,262,258,261,20100,261
2015/01/26,261,263,259,262,19400,262
2015/01/27,262,267,261,266,66200,266
2015/01/28,266,271,263,270,58500,270
2015/01/29,267,270,263,263,48600,263
2015/01/30,264,266,262,264,26200,264
2015/02/02,261,266,261,261,27400,261
2015/02/03,264,264,261,261,9800,261
2015/02/04,261,266,261,264,30800,264
2015/02/05,262,264,261,264,30500,264
2015/02/06,264,267,260,267,45100,267
2015/02/09,268,273,268,273,75600,273
2015/02/10,301,313,287,290,830300,290
2015/02/12,294,297,288,297,166400,297
2015/02/13,296,296,289,289,73400,289
2015/02/16,286,290,283,286,115400,286
2015/02/17,286,293,286,292,66400,292
2015/02/18,291,297,290,293,66700,293
2015/02/19,293,293,287,291,57700,291
2015/02/20,293,305,290,303,166100,303
2015/02/23,305,307,300,301,141200,301
2015/02/24,298,303,297,299,52300,299
2015/02/25,295,299,292,295,89700,295
2015/02/26,295,301,293,298,76500,298
2015/02/27,298,303,298,302,81200,302
2015/03/02,303,320,298,316,172000,316
2015/03/03,319,324,310,322,135600,322
2015/03/04,324,324,317,319,49500,319
2015/03/05,318,318,310,311,53300,311
2015/03/06,310,317,309,315,28400,315
2015/03/09,314,314,298,303,95900,303
2015/03/10,304,306,300,301,46800,301
2015/03/11,299,304,298,302,24900,302
2015/03/12,303,307,303,304,40300,304
2015/03/13,303,309,303,306,44400,306
2015/03/16,307,309,305,307,30900,307
2015/03/17,308,310,303,305,120200,305
2015/03/18,308,315,306,313,83800,313
2015/03/19,318,318,312,314,43500,314
2015/03/20,315,317,312,316,48000,316
2015/03/23,316,324,316,322,85600,322
2015/03/24,320,321,319,321,31300,321
2015/03/25,321,321,309,311,78700,311
2015/03/26,310,313,310,312,40400,312
2015/03/27,306,317,306,311,48600,311
2015/03/30,310,310,306,306,33500,306
2015/03/31,309,309,304,304,42700,304
2015/04/01,303,306,301,305,59400,305
2015/04/02,303,308,303,308,14200,308
2015/04/03,308,308,305,307,10000,307
2015/04/06,304,320,303,316,91600,316
2015/04/07,319,321,315,321,106400,321
2015/04/08,320,323,318,323,61300,323
2015/04/09,324,328,320,320,79200,320
2015/04/10,320,321,317,321,18700,321
2015/04/13,315,318,313,317,46100,317
2015/04/14,317,321,314,320,16500,320
2015/04/15,325,325,321,324,33500,324
2015/04/16,327,338,326,338,141700,338
2015/04/17,341,344,336,337,145800,337
2015/04/20,334,363,334,353,211100,353
2015/04/21,360,361,342,348,145400,348
2015/04/22,356,356,346,351,70600,351
2015/04/23,350,351,343,345,70600,345
2015/04/24,344,344,342,342,22000,342
2015/04/27,342,345,336,340,23600,340
2015/04/28,343,343,330,331,50800,331
2015/04/30,330,333,327,328,55600,328
2015/05/01,324,326,313,319,114300,319
2015/05/07,318,337,318,335,60400,335
2015/05/08,338,342,336,340,42700,340
2015/05/11,343,346,341,344,32200,344
2015/05/12,347,347,341,345,57700,345
2015/05/13,348,348,340,343,24400,343
2015/05/14,345,348,340,345,55300,345
2015/05/15,337,345,328,338,135200,338
2015/05/18,343,347,340,342,67500,342
2015/05/19,343,345,338,343,60100,343
2015/05/20,343,346,340,343,32000,343
2015/05/21,345,346,341,344,48000,344
2015/05/22,343,343,338,340,27600,340
2015/05/25,338,338,334,338,49700,338
2015/05/26,335,335,332,335,38900,335
2015/05/27,331,337,331,337,27300,337
2015/05/28,335,336,330,331,38100,331
2015/05/29,327,329,325,328,68900,328
2015/06/01,324,337,324,337,46800,337
2015/06/02,334,339,334,337,25700,337
2015/06/03,333,337,333,334,17000,334
2015/06/04,338,340,336,338,19400,338
2015/06/05,336,339,329,333,66600,333
2015/06/08,330,332,330,332,17400,332
2015/06/09,332,332,327,328,45900,328
2015/06/10,329,334,328,334,15300,334
2015/06/11,333,337,333,336,14200,336
2015/06/12,340,340,337,339,21000,339
2015/06/15,337,339,335,336,37000,336
2015/06/16,334,336,333,333,16100,333
2015/06/17,334,338,334,338,16500,338
2015/06/18,338,338,335,335,13200,335
2015/06/19,333,336,333,335,17000,335
2015/06/22,336,339,335,339,10600,339
2015/06/23,340,340,338,339,18600,339
2015/06/24,337,353,337,349,66800,349
2015/06/25,354,354,345,348,50000,348
2015/06/26,350,352,348,349,15000,349
2015/06/29,339,347,333,337,42400,337
2015/06/30,336,343,335,339,30400,339
2015/07/01,338,348,335,348,47900,348
