2011/01/11,138,138,138,138,5000,69
2011/01/13,136,136,136,136,2000,68
2011/01/14,138,138,138,138,1000,69
2011/01/17,146,146,146,146,3000,73
2011/01/19,140,140,140,140,9000,70
2011/01/20,140,140,138,138,3000,69
2011/01/24,138,140,138,140,3000,70
2011/01/25,140,140,140,140,4000,70
2011/01/26,140,140,140,140,5000,70
2011/01/27,140,140,139,140,7000,70
2011/01/28,138,138,138,138,9000,69
2011/01/31,148,148,148,148,17000,74
2011/02/01,143,143,140,140,6000,70
2011/02/07,133,135,133,134,12000,67
2011/02/09,140,140,140,140,1000,70
2011/02/10,145,145,138,138,3000,69
2011/02/14,140,142,140,142,3000,71
2011/02/15,140,140,140,140,5000,70
2011/02/18,146,146,146,146,1000,73
2011/02/21,144,144,142,142,4000,71
2011/03/03,148,148,148,148,1000,74
2011/03/09,144,144,144,144,4000,72
2011/03/10,147,148,147,148,3000,74
2011/03/14,154,155,150,154,37000,77
2011/03/15,160,160,150,150,19000,75
2011/03/24,158,162,154,162,25000,81
2011/03/25,172,189,172,180,46000,90
2011/03/28,178,180,178,178,16000,89
2011/03/30,166,168,156,168,11000,84
2011/03/31,178,178,178,178,14000,89
2011/04/01,170,174,170,174,3000,87
2011/04/04,169,169,166,166,3000,83
2011/04/05,166,178,163,178,20000,89
2011/04/11,162,164,162,164,3000,82
2011/04/13,153,153,148,150,14000,75
2011/04/14,150,152,150,150,4000,75
2011/04/19,150,152,150,150,11000,75
2011/04/25,152,155,151,154,13000,77
2011/04/28,155,155,152,152,18000,76
2011/05/02,150,150,148,148,4000,74
2011/05/09,152,152,152,152,4000,76
2011/05/12,155,158,155,158,4000,79
2011/05/13,157,157,148,154,9000,77
2011/05/16,151,151,150,150,9000,75
2011/05/18,154,154,154,154,3000,77
2011/05/20,159,159,154,154,3000,77
2011/05/23,150,150,150,150,2000,75
2011/05/24,157,157,152,152,3000,76
2011/05/30,158,160,158,160,6000,80
2011/05/31,165,165,156,156,17000,78
2011/06/09,153,156,153,156,3000,78
2011/06/10,164,164,160,160,3000,80
2011/06/17,160,162,158,158,6000,79
2011/06/20,158,160,158,160,3000,80
2011/06/24,159,160,159,160,4000,80
2011/06/28,160,160,160,160,1000,80
2011/06/29,160,162,160,162,22000,81
2011/06/30,158,158,158,158,21000,79
2011/07/01,153,154,151,154,17000,77
2011/07/04,152,154,152,154,6000,77
2011/07/05,152,152,152,152,2000,76
2011/07/08,154,154,151,152,19000,76
2011/07/11,154,154,152,152,7000,76
2011/07/12,153,153,152,152,9000,76
2011/07/15,153,153,148,150,13000,75
2011/07/25,153,153,152,152,5000,76
2011/07/26,153,154,152,154,8000,77
2011/07/28,151,154,151,154,5000,77
2011/08/01,151,151,149,150,6000,75
2011/08/02,148,150,146,150,6000,75
2011/08/18,145,145,142,142,8000,71
2011/08/19,146,146,146,146,1000,73
2011/08/22,146,146,146,146,2000,73
2011/08/26,142,142,142,142,8000,71
2011/08/29,143,143,142,142,5000,71
2011/08/31,142,142,142,142,16000,71
2011/09/01,144,144,144,144,2000,72
2011/09/05,140,140,140,140,5000,70
2011/09/15,140,140,140,140,4000,70
2011/09/22,145,146,145,146,2000,73
2011/09/27,145,145,142,142,8000,71
2011/09/30,148,148,148,148,13000,74
2011/10/04,146,146,146,146,1000,73
2011/10/05,144,144,144,144,2000,72
2011/10/25,146,146,146,146,2000,73
2011/10/26,146,146,144,144,3000,72
2011/10/27,149,149,146,146,6000,73
2011/10/31,148,148,144,144,16000,72
2011/11/02,142,142,142,142,2000,71
2011/11/07,142,142,138,138,8000,69
2011/11/08,135,135,130,130,2000,65
2011/11/09,128,130,128,130,4000,65
2011/11/14,128,130,128,130,2000,65
2011/11/18,130,130,130,130,1000,65
2011/11/21,130,130,130,130,2000,65
2011/11/25,134,137,132,132,12000,66
2011/11/29,139,142,139,142,3000,71
2011/11/30,144,144,144,144,13000,72
2011/12/09,139,139,136,136,2000,68
2011/12/12,140,140,140,140,1000,70
2011/12/13,140,140,140,140,8000,70
2011/12/14,144,144,144,144,4000,72
2011/12/16,140,142,140,142,2000,71
2011/12/26,141,142,140,140,14000,70
2011/12/27,140,141,140,140,12000,70
2011/12/29,142,144,141,144,8000,72
2012/01/05,141,141,139,140,4000,70
2012/01/06,138,138,138,138,1000,69
2012/01/10,138,138,138,138,2000,69
2012/01/11,140,140,140,140,3000,70
2012/01/13,138,138,138,138,2000,69
2012/01/17,141,141,135,140,22000,70
2012/01/18,140,142,138,142,10000,71
2012/01/25,147,147,143,146,7000,73
2012/01/31,138,140,138,140,16000,70
2012/02/06,140,140,140,140,1000,70
2012/02/08,143,143,142,142,3000,71
2012/02/13,138,138,138,138,2000,69
2012/02/14,140,142,140,142,2000,71
2012/02/15,140,140,140,140,2000,70
2012/02/16,140,140,140,140,1000,70
2012/02/17,140,140,140,140,1000,70
2012/02/20,140,140,138,138,6000,69
2012/02/21,140,140,140,140,1000,70
2012/03/02,142,142,142,142,1000,71
2012/03/05,140,140,136,136,12000,68
2012/03/06,135,136,132,134,10000,67
2012/03/07,133,136,133,136,2000,68
2012/03/13,135,136,134,136,5000,68
2012/03/14,139,139,134,134,4000,67
2012/03/29,139,139,138,138,2000,69
2012/03/30,138,140,138,140,14000,70
2012/04/06,140,140,140,140,4000,70
2012/04/09,140,140,140,140,1000,70
2012/04/10,140,140,140,140,1000,70
2012/04/11,139,139,138,138,3000,69
2012/04/20,142,142,142,142,2000,71
2012/04/25,140,142,140,142,3000,71
2012/05/01,141,141,138,138,2000,69
2012/05/08,142,142,142,142,1000,71
2012/05/15,141,141,139,140,11000,70
2012/05/18,137,137,136,136,2000,68
2012/05/23,140,140,140,140,1000,70
2012/05/24,141,141,140,140,5000,70
2012/05/25,144,144,140,140,12000,70
2012/05/28,140,140,140,140,1000,70
2012/05/29,144,144,144,144,1000,72
2012/06/05,140,140,140,140,1000,70
2012/06/12,140,140,140,140,1000,70
2012/06/13,138,138,138,138,2000,69
2012/06/14,140,140,140,140,3000,70
2012/06/15,142,142,142,142,2000,71
2012/06/18,142,142,140,140,11000,70
2012/06/19,142,142,142,142,1000,71
2012/06/21,142,142,142,142,2000,71
2012/06/25,148,150,145,148,12000,74
2012/06/27,150,160,148,148,14000,74
2012/06/28,148,150,146,146,11000,73
2012/07/02,151,151,150,150,4000,75
2012/07/04,156,156,156,156,21000,78
2012/07/05,156,160,156,160,16000,80
2012/07/06,160,160,160,160,2000,80
2012/07/10,165,165,164,164,5000,82
2012/07/11,162,165,156,156,3000,78
2012/07/24,160,160,160,160,1000,80
2012/07/25,162,163,160,160,5000,80
2012/07/27,170,170,166,166,22000,83
2012/07/30,165,166,165,166,4000,83
2012/07/31,166,166,166,166,10000,83
2012/08/03,156,156,156,156,1000,78
2012/08/08,160,160,160,160,2000,80
2012/08/13,156,156,156,156,2000,78
2012/08/14,151,152,151,152,5000,76
2012/08/17,150,150,150,150,1000,75
2012/08/20,150,150,150,150,1000,75
2012/08/24,157,158,157,158,2000,79
2012/08/27,159,159,158,158,11000,79
2012/09/07,152,152,152,152,7000,76
2012/09/13,156,156,156,156,1000,78
2012/09/14,158,160,158,160,3000,80
2012/09/18,157,160,157,160,7000,80
2012/09/19,162,162,161,162,3000,81
2012/09/20,169,169,164,164,3000,82
2012/09/24,166,166,166,166,3000,83
2012/09/25,170,170,160,160,11000,80
2012/09/27,163,165,162,162,7000,81
2012/10/02,158,158,158,158,2000,79
2012/10/03,158,158,158,158,1000,79
2012/10/05,158,158,158,158,1000,79
2012/10/09,160,160,158,158,3000,79
2012/10/10,160,160,160,160,1000,80
2012/10/11,160,160,160,160,6000,80
2012/10/12,162,162,162,162,1000,81
2012/10/15,161,161,156,156,6000,78
2012/10/25,158,158,150,156,27000,78
2012/10/31,158,158,158,158,11000,79
2012/11/05,158,158,158,158,2000,79
2012/11/06,158,158,158,158,2000,79
2012/11/07,160,160,160,160,1000,80
2012/11/15,152,155,152,154,22000,77
2012/11/20,160,160,160,160,2000,80
2012/11/27,159,160,159,160,5000,80
2012/11/29,159,160,159,160,3000,80
2012/12/05,161,161,158,158,5000,79
2012/12/06,160,160,160,160,11000,80
2012/12/10,168,170,167,168,18000,84
2012/12/13,172,174,168,172,15000,86
2012/12/17,200,200,179,190,41000,95
2012/12/18,191,216,191,214,19000,107
2012/12/20,251,251,229,242,28000,121
2012/12/25,231,231,220,220,16000,110
2012/12/26,233,235,225,226,17000,113
2012/12/27,234,234,226,232,24000,116
2013/01/04,238,265,238,248,15000,124
2013/01/10,232,235,232,232,7000,116
2013/01/11,232,232,232,232,1000,116
2013/01/15,232,240,228,228,9000,114
2013/01/16,240,240,227,230,12000,115
2013/01/22,226,226,226,226,2000,113
2013/01/24,231,232,229,232,4000,116
2013/01/25,226,230,226,228,10000,114
2013/01/31,236,236,236,236,13000,118
2013/02/04,236,236,236,236,4000,118
2013/02/05,235,236,234,236,5000,118
2013/02/06,236,236,236,236,5000,118
2013/02/07,236,236,226,230,8000,115
2013/02/08,236,236,232,232,2000,116
2013/02/12,231,231,230,230,5000,115
2013/02/15,222,222,216,216,12000,108
2013/02/18,229,230,228,230,15000,115
2013/02/20,228,228,226,226,2000,113
2013/02/21,229,230,229,230,4000,115
2013/02/26,233,233,230,230,10000,115
2013/02/27,238,238,235,236,8000,118
2013/02/28,236,238,236,238,12000,119
2013/03/05,236,238,236,238,16000,119
2013/03/08,239,239,236,236,4000,118
2013/03/11,236,240,236,236,11000,118
2013/03/12,236,236,230,230,8000,115
2013/03/13,233,236,233,236,3000,118
2013/03/15,253,253,245,252,17000,126
2013/03/18,246,246,243,246,5000,123
2013/03/25,242,247,242,244,4000,122
2013/03/27,245,246,244,244,6000,122
2013/03/28,245,246,245,246,4000,123
2013/03/29,242,246,238,238,16000,119
2013/04/09,237,237,236,236,9000,118
2013/04/10,237,239,236,238,7000,119
2013/04/15,234,234,234,234,3000,117
2013/04/16,233,234,233,234,3000,117
2013/04/17,234,234,234,234,2000,117
2013/04/18,234,234,234,234,1000,117
2013/04/19,232,234,232,234,6000,117
2013/04/23,235,238,231,234,16000,117
2013/04/24,237,238,237,238,8000,119
2013/04/25,239,250,239,246,22000,123
2013/04/26,251,265,250,258,35000,129
2013/04/30,258,259,242,258,40000,129
2013/05/01,256,260,256,260,6000,130
2013/05/02,258,258,250,250,9000,125
2013/05/07,245,250,245,250,29000,125
2013/05/09,250,254,248,250,9000,125
2013/05/10,247,250,247,250,14000,125
2013/05/16,235,235,232,232,11000,116
2013/05/21,238,238,235,236,8000,118
2013/05/23,237,237,228,228,14000,114
2013/05/27,225,225,220,220,5000,110
2013/05/31,239,240,239,240,13000,120
2013/06/07,220,220,198,198,6000,99
2013/06/11,208,208,208,208,1000,104
2013/06/12,216,216,216,216,1000,108
2013/06/13,230,230,230,230,1000,115
2013/06/14,214,214,214,214,1000,107
2013/06/17,220,220,220,220,1000,110
2013/06/21,204,206,204,204,4000,102
2013/06/25,220,220,220,220,4000,110
2013/06/27,214,214,193,200,24000,100
2013/06/28,208,208,208,208,8000,104
2013/07/02,208,208,206,206,7000,103
2013/07/04,218,220,215,220,9000,110
2013/07/05,218,220,218,220,3000,110
2013/07/09,217,218,216,216,3000,108
2013/07/10,224,224,224,224,4000,112
2013/07/11,216,216,216,216,2000,108
2013/07/19,216,222,216,222,4000,111
2013/07/22,225,225,216,216,10000,108
2013/07/23,216,216,216,216,2000,108
2013/07/24,216,216,210,216,6000,108
2013/07/30,222,222,222,222,1000,111
2013/07/31,230,230,230,230,11000,115
2013/08/01,216,216,216,216,2000,108
2013/08/02,216,216,216,216,1000,108
2013/08/06,215,220,215,220,6000,110
2013/08/12,215,215,212,212,4000,106
2013/08/13,218,218,218,218,3000,109
2013/08/14,220,220,220,220,1000,110
2013/08/15,222,222,222,222,1000,111
2013/08/19,226,226,226,226,1000,113
2013/08/20,226,226,218,218,2000,109
2013/08/27,224,224,224,224,3000,112
2013/09/05,223,223,220,220,8000,110
2013/09/10,227,240,227,240,10000,120
2013/09/11,244,244,244,244,10000,122
2013/09/19,240,247,238,238,20000,119
2013/09/20,238,250,238,248,7000,124
2013/09/26,243,244,240,244,7000,122
2013/10/01,254,254,254,254,2000,127
2013/10/02,246,246,246,246,1000,123
2013/10/08,226,226,226,226,4000,113
2013/10/10,242,242,242,242,1000,121
2013/10/21,238,238,238,238,1000,119
2013/10/22,230,230,230,230,3000,115
2013/10/23,232,232,232,232,2000,116
2013/10/24,235,242,235,242,5000,121
2013/11/11,235,235,232,234,4000,117
2013/11/13,234,234,234,234,1000,117
2013/11/19,234,234,234,234,2000,117
2013/11/20,235,235,234,234,3000,117
2013/11/28,238,240,238,240,3000,120
2013/11/29,237,238,237,238,20000,119
2013/12/02,238,238,238,238,1000,119
2013/12/04,234,234,230,230,4000,115
2013/12/10,230,230,230,230,3000,115
2013/12/13,234,234,225,234,6000,117
2013/12/16,237,237,224,224,10000,112
2013/12/25,229,230,229,230,4000,115
2013/12/30,247,247,240,240,13000,120
2014/01/06,252,255,248,248,13000,124
2014/01/07,245,253,245,246,8000,123
2014/01/10,255,255,251,252,4000,126
2014/01/16,264,270,264,270,8000,135
2014/01/17,269,269,268,268,4000,134
2014/01/20,268,270,266,270,3000,135
2014/01/31,265,265,254,254,13000,127
2014/02/03,262,262,262,262,1000,131
2014/02/04,252,260,252,260,3000,130
2014/02/06,269,269,260,260,7000,130
2014/02/13,250,250,250,250,1000,125
2014/02/25,242,242,242,242,1000,121
2014/02/26,242,244,242,244,2000,122
2014/02/27,244,248,244,248,10000,124
2014/03/03,269,269,250,250,5000,125
2014/03/05,246,246,246,246,7000,123
2014/03/06,250,250,250,250,1000,125
2014/03/11,251,251,250,250,3000,125
2014/03/12,246,246,246,246,1000,123
2014/03/14,242,242,242,242,2000,121
2014/03/17,250,264,250,264,7000,132
2014/03/25,246,246,246,246,1000,123
2014/03/27,250,250,250,250,3000,125
2014/03/31,276,276,270,270,13000,135
2014/04/01,262,262,250,250,9000,125
2014/04/07,254,254,254,254,1000,127
2014/04/11,250,250,250,250,6000,125
2014/04/15,255,255,250,250,2000,125
2014/04/21,264,264,264,264,1000,132
2014/04/23,254,254,254,254,1000,127
2014/04/24,260,262,257,262,13000,131
2014/04/25,262,262,258,258,8000,129
2014/05/02,285,307,285,296,44000,148
2014/05/09,325,332,325,330,21000,165
2014/05/13,320,320,295,300,16000,150
2014/05/20,323,330,323,330,8000,165
2014/05/23,335,350,332,350,22000,175
2014/05/26,348,350,348,348,13000,174
2014/05/27,349,372,349,372,27000,186
2014/05/28,373,382,361,382,27000,191
2014/05/30,397,398,392,398,20000,199
2014/06/02,398,398,398,398,2000,199
2014/06/09,390,390,382,382,5000,191
2014/06/11,377,377,376,376,7000,188
2014/06/13,380,380,376,380,12000,190
2014/06/16,388,390,383,390,20000,195
2014/06/19,410,413,396,410,32000,205
2014/06/20,396,400,396,398,5000,199
2014/06/23,400,400,400,400,2000,200
2014/06/24,399,399,392,392,3000,196
2014/06/25,399,399,396,396,2000,198
2014/06/27,399,399,390,390,11000,195
2014/07/01,398,398,398,398,1000,199
2014/07/02,394,398,392,398,4000,199
2014/07/04,392,392,392,392,2000,196
2014/07/07,388,392,386,392,5000,196
2014/07/10,393,397,389,396,6000,198
2014/07/14,398,398,386,390,4000,195
2014/07/15,395,395,394,394,5000,197
2014/07/16,394,405,390,396,25000,198
2014/07/18,396,398,395,396,7000,198
2014/07/24,402,405,400,404,5000,202
2014/07/25,408,410,408,410,13000,205
2014/07/28,405,408,405,406,8000,203
2014/08/05,410,410,410,410,1000,205
2014/08/07,410,410,410,410,2000,205
2014/08/08,410,410,404,404,3000,202
2014/08/11,402,402,402,402,1000,201
2014/08/12,396,396,365,380,31000,190
2014/08/14,380,382,380,382,2000,191
2014/08/15,385,386,385,386,5000,193
2014/08/18,386,400,386,388,9000,194
2014/08/19,388,389,388,388,8000,194
2014/08/28,469,520,460,490,32000,245
2014/09/01,547,568,535,562,71000,281
2014/09/03,542,543,531,538,34000,269
2014/09/05,549,549,538,544,6000,272
2014/09/08,540,544,520,544,5000,272
2014/09/09,544,544,535,540,4000,270
2014/09/12,525,530,520,530,34000,265
2014/09/19,504,520,492,520,12000,260
2014/09/22,502,514,498,514,26000,257
2014/09/24,507,519,506,518,8000,259
2014/09/26,266,275,251,275,17000,275
2014/09/29,267,275,267,273,29000,273
2014/09/30,260,269,260,269,20000,269
2014/10/01,269,269,257,265,14000,265
2014/10/02,260,261,252,260,14000,260
2014/10/03,253,256,252,256,17000,256
2014/10/07,261,261,252,256,4000,256
2014/10/08,246,254,246,254,12000,254
2014/10/09,259,260,247,255,10000,255
2014/10/10,258,258,248,254,9000,254
2014/10/14,246,255,246,255,4000,255
2014/10/15,255,255,247,254,4000,254
2014/10/16,240,249,232,249,20000,249
2014/10/17,259,259,259,259,2000,259
2014/10/20,258,258,257,257,3000,257
2014/10/21,255,259,247,259,10000,259
2014/10/22,248,256,248,250,46000,250
2014/10/23,250,256,247,251,20000,251
2014/10/24,251,257,251,255,16000,255
2014/10/27,257,257,252,255,22000,255
2014/10/28,243,255,243,252,8000,252
2014/10/29,253,254,250,254,15000,254
2014/10/30,252,255,252,255,3000,255
2014/10/31,255,260,243,250,36000,250
2014/11/04,250,254,232,251,62000,251
2014/11/05,250,251,249,250,5000,250
2014/11/06,250,250,250,250,4000,250
2014/11/07,242,249,242,249,16000,249
2014/11/10,233,249,231,243,82000,243
2014/11/11,237,246,235,243,29000,243
2014/11/12,240,247,240,243,18000,243
2014/11/13,243,248,241,244,19000,244
2014/11/14,245,247,241,247,16000,247
2014/11/17,246,249,243,248,10000,248
2014/11/18,240,247,238,243,34000,243
2014/11/19,243,243,235,241,22000,241
2014/11/20,241,245,238,245,7000,245
2014/11/21,241,246,237,244,62000,244
2014/11/25,247,247,246,246,14000,246
2014/11/26,246,255,246,254,28000,254
2014/11/27,251,253,251,253,14000,253
2014/11/28,254,279,254,275,73000,275
2014/12/01,268,313,264,290,179000,290
2014/12/02,291,295,280,291,131000,291
2014/12/03,291,300,267,292,114000,292
2014/12/04,290,290,275,275,74000,275
2014/12/05,275,285,272,278,28000,278
2014/12/08,277,289,275,280,31000,280
2014/12/09,278,288,275,278,43000,278
2014/12/10,281,288,273,275,38000,275
2014/12/11,265,271,264,268,14000,268
2014/12/12,261,266,241,251,88000,251
2014/12/15,250,250,239,242,58000,242
2014/12/16,250,263,241,244,34000,244
2014/12/17,248,248,243,245,11000,245
2014/12/18,246,248,238,240,18000,240
2014/12/19,245,256,239,242,36000,242
2014/12/22,242,255,235,235,55000,235
2014/12/24,235,245,228,235,49000,235
2014/12/25,230,238,226,237,52000,237
2014/12/26,238,243,232,241,69000,241
2014/12/29,239,245,239,244,23000,244
2014/12/30,244,252,243,252,39000,252
2015/01/05,251,259,249,258,6600,258
2015/01/06,250,256,249,251,7600,251
2015/01/07,249,260,247,251,23300,251
2015/01/08,251,258,248,248,11600,248
2015/01/09,248,255,244,248,5000,248
2015/01/13,241,248,235,235,9100,235
2015/01/14,243,256,235,244,19300,244
2015/01/15,245,245,236,243,6400,243
2015/01/16,235,242,230,234,29700,234
2015/01/19,240,240,223,230,20200,230
2015/01/20,238,240,227,240,24600,240
2015/01/21,235,236,229,230,16900,230
2015/01/22,227,232,226,229,127800,229
2015/01/23,231,233,229,231,28500,231
2015/01/26,232,240,232,235,36400,235
2015/01/27,243,245,235,238,25400,238
2015/01/28,239,239,234,234,33000,234
2015/01/29,234,234,228,231,26000,231
2015/01/30,235,235,231,233,33300,233
2015/02/02,232,233,230,230,6400,230
2015/02/03,231,232,229,232,12700,232
2015/02/04,234,234,230,230,7100,230
2015/02/05,232,233,226,231,13600,231
2015/02/06,231,311,227,311,859200,311
2015/02/09,351,391,334,338,2186700,338
2015/02/10,336,350,315,317,322700,317
2015/02/12,341,378,333,348,567800,348
2015/02/13,350,363,337,340,113200,340
2015/02/16,345,378,340,342,189800,342
2015/02/17,343,359,343,345,59200,345
2015/02/18,348,358,346,358,43800,358
2015/02/19,363,369,349,355,56300,355
2015/02/20,360,363,355,360,38800,360
2015/02/23,368,368,354,356,73200,356
2015/02/24,355,356,350,350,56400,350
2015/02/25,355,356,351,353,28000,353
2015/02/26,356,358,352,355,46900,355
2015/02/27,360,360,348,348,71900,348
2015/03/02,359,360,350,359,47500,359
2015/03/03,360,362,356,358,36100,358
2015/03/04,358,375,356,370,59000,370
2015/03/05,369,378,365,369,98800,369
2015/03/06,370,375,354,359,109400,359
2015/03/09,367,367,350,359,67000,359
2015/03/10,362,363,359,362,19700,362
2015/03/11,362,364,360,362,17200,362
2015/03/12,362,368,362,365,32900,365
2015/03/13,369,369,356,362,67200,362
2015/03/16,366,369,362,366,43900,366
2015/03/17,369,420,368,388,168300,388
2015/03/18,396,419,396,418,102600,418
2015/03/19,410,412,396,402,54700,402
2015/03/20,407,408,401,405,37000,405
2015/03/23,412,412,405,411,36600,411
2015/03/24,411,412,391,392,75100,392
2015/03/25,393,396,389,392,40600,392
2015/03/26,392,393,378,384,71000,384
2015/03/27,366,368,355,355,90500,355
2015/03/30,355,359,352,357,23000,357
2015/03/31,362,364,358,361,24200,361
2015/04/01,361,364,356,364,13800,364
2015/04/02,364,374,361,367,29400,367
2015/04/03,366,368,361,365,11600,365
2015/04/06,363,366,360,362,13200,362
2015/04/07,363,365,355,357,28900,357
2015/04/08,360,365,358,365,13500,365
2015/04/09,364,364,360,363,10400,363
2015/04/10,363,363,358,361,7800,361
2015/04/13,361,361,357,358,8500,358
2015/04/14,356,361,356,360,6000,360
2015/04/15,360,360,355,355,14200,355
2015/04/16,355,355,349,350,29000,350
2015/04/17,350,358,350,354,12000,354
2015/04/20,354,359,354,355,13900,355
2015/04/21,357,357,354,355,8400,355
2015/04/22,357,358,354,355,13600,355
2015/04/23,357,357,354,354,9100,354
2015/04/24,355,356,354,356,8000,356
2015/04/27,357,358,356,358,13200,358
2015/04/28,358,360,357,359,13200,359
2015/04/30,359,359,355,356,20600,356
2015/05/01,354,354,350,350,16800,350
2015/05/07,355,355,350,350,11400,350
2015/05/08,348,349,341,345,28500,345
2015/05/11,352,352,346,348,10300,348
2015/05/12,346,347,345,346,12300,346
2015/05/13,346,351,346,351,6900,351
2015/05/14,350,351,341,349,19300,349
2015/05/15,325,333,315,328,86600,328
2015/05/18,326,329,326,329,18200,329
2015/05/19,328,329,326,328,16800,328
2015/05/20,329,334,329,334,31300,334
2015/05/21,335,341,335,341,16900,341
2015/05/22,342,342,338,338,18000,338
2015/05/25,341,345,340,342,21100,342
2015/05/26,346,349,343,349,17200,349
2015/05/27,352,355,350,354,16700,354
2015/05/28,355,360,354,360,30900,360
2015/05/29,363,365,358,365,40000,365
2015/06/01,365,373,365,372,29700,372
2015/06/02,374,374,369,373,20900,373
2015/06/03,373,375,370,372,12600,372
2015/06/04,372,374,370,371,10900,371
2015/06/05,372,374,365,365,19300,365
2015/06/08,366,366,358,360,20700,360
2015/06/09,360,365,356,358,8600,358
2015/06/10,358,359,355,359,7300,359
2015/06/11,361,361,358,358,3400,358
2015/06/12,358,358,347,352,30300,352
2015/06/15,353,355,332,345,60800,345
2015/06/16,342,343,333,336,30600,336
2015/06/17,334,338,331,331,43100,331
2015/06/18,331,333,324,325,47400,325
2015/06/19,326,331,325,327,29300,327
2015/06/22,329,331,327,328,46200,328
2015/06/23,330,331,327,329,33900,329
2015/06/24,330,335,329,333,15600,333
2015/06/25,332,333,329,330,21900,330
2015/06/26,335,335,326,329,30900,329
2015/06/29,326,330,323,330,31300,330
2015/06/30,330,330,326,326,29600,326
2015/07/01,327,328,326,328,16900,328
