2011/01/04,395,395,380,380,3000,380
2011/01/06,381,381,381,381,2000,381
2011/01/07,385,385,385,385,1000,385
2011/01/11,386,386,386,386,2000,386
2011/01/12,399,399,391,391,2000,391
2011/01/14,407,410,392,392,3000,392
2011/01/20,403,403,403,403,1000,403
2011/01/25,403,403,403,403,1000,403
2011/01/31,391,391,391,391,2000,391
2011/02/02,399,400,399,400,2000,400
2011/02/04,383,383,383,383,1000,383
2011/02/07,383,383,383,383,1000,383
2011/02/08,383,383,383,383,2000,383
2011/02/14,383,383,383,383,2000,383
2011/02/15,384,393,384,393,2000,393
2011/02/16,393,393,393,393,4000,393
2011/02/17,393,393,393,393,1000,393
2011/02/18,393,393,393,393,1000,393
2011/02/24,393,393,393,393,1000,393
2011/02/25,393,393,393,393,1000,393
2011/03/01,393,393,393,393,2000,393
2011/03/03,393,393,393,393,1000,393
2011/03/04,393,393,393,393,2000,393
2011/03/10,393,393,393,393,2000,393
2011/03/14,481,481,481,481,12000,481
2011/03/15,480,480,420,455,6000,455
2011/03/16,460,480,460,478,16000,478
2011/03/17,480,480,480,480,2000,480
2011/03/18,479,480,479,480,5000,480
2011/03/22,480,514,480,514,7000,514
2011/03/23,514,514,490,510,8000,510
2011/03/24,510,510,500,500,6000,500
2011/03/25,500,500,500,500,6000,500
2011/03/28,500,510,481,481,7000,481
2011/03/29,480,480,480,480,2000,480
2011/03/30,488,515,488,515,5000,515
2011/03/31,520,525,510,510,5000,510
2011/04/01,509,509,490,490,6000,490
2011/04/04,495,500,495,500,3000,500
2011/04/05,504,504,504,504,1000,504
2011/04/06,524,585,524,566,24000,566
2011/04/07,570,651,570,577,43000,577
2011/04/08,600,645,591,604,47000,604
2011/04/11,606,610,567,567,15000,567
2011/04/12,597,597,572,576,13000,576
2011/04/13,537,554,535,554,4000,554
2011/04/14,560,560,540,543,7000,543
2011/04/15,540,550,540,541,5000,541
2011/04/18,571,571,571,571,1000,571
2011/04/19,541,546,541,546,2000,546
2011/04/20,549,550,549,549,4000,549
2011/04/21,540,549,540,549,2000,549
2011/04/22,524,524,522,522,6000,522
2011/04/25,522,522,518,518,4000,518
2011/04/26,523,525,523,525,2000,525
2011/04/27,529,529,529,529,1000,529
2011/04/28,520,520,515,515,3000,515
2011/05/02,515,517,505,515,6000,515
2011/05/10,515,515,515,515,3000,515
2011/05/16,515,515,495,495,12000,495
2011/05/17,485,486,485,486,2000,486
2011/05/18,481,481,480,480,3000,480
2011/05/19,465,465,465,465,1000,465
2011/05/20,457,457,457,457,1000,457
2011/05/24,450,450,450,450,1000,450
2011/05/25,442,442,435,435,3000,435
2011/05/26,430,430,430,430,1000,430
2011/05/30,430,430,430,430,3000,430
2011/05/31,430,430,430,430,3000,430
2011/06/01,422,437,422,437,7000,437
2011/06/02,430,437,428,428,4000,428
2011/06/03,429,430,429,430,3000,430
2011/06/07,428,428,428,428,1000,428
2011/06/08,431,437,420,420,10000,420
2011/06/09,427,427,427,427,1000,427
2011/06/13,427,427,427,427,3000,427
2011/06/14,435,499,435,499,13000,499
2011/06/16,467,467,452,452,4000,452
2011/06/21,468,468,468,468,1000,468
2011/06/22,476,476,476,476,1000,476
2011/06/27,455,455,455,455,3000,455
2011/07/05,471,471,471,471,1000,471
2011/07/11,479,487,479,487,5000,487
2011/07/12,472,472,472,472,2000,472
2011/07/14,496,496,496,496,1000,496
2011/07/22,471,471,471,471,1000,471
2011/07/25,471,471,471,471,1000,471
2011/07/29,447,447,447,447,1000,447
2011/08/03,455,455,455,455,1000,455
2011/08/04,455,455,455,455,1000,455
2011/08/09,408,418,403,418,3000,418
2011/08/10,418,433,418,433,3000,433
2011/08/11,433,433,433,433,4000,433
2011/09/14,440,440,440,440,1000,440
2011/09/16,441,441,441,441,1000,441
2011/09/22,410,411,405,405,4000,405
2011/09/26,405,405,390,390,3000,390
2011/09/27,400,400,400,400,1000,400
2011/09/28,401,401,401,401,1000,401
2011/10/04,405,405,405,405,2000,405
2011/10/05,405,405,405,405,2000,405
2011/10/06,420,420,420,420,1000,420
2011/10/07,420,420,420,420,1000,420
2011/10/17,420,420,420,420,1000,420
2011/10/20,410,410,410,410,3000,410
2011/11/07,407,407,407,407,1000,407
2011/11/08,410,418,410,418,2000,418
2011/11/09,418,418,418,418,1000,418
2011/11/10,418,418,418,418,2000,418
2011/11/11,418,418,418,418,1000,418
2011/11/18,402,402,402,402,1000,402
2011/11/21,402,405,402,405,2000,405
2011/11/22,405,405,405,405,1000,405
2011/11/24,409,409,401,407,4000,407
2011/11/25,410,418,410,418,2000,418
2011/11/28,418,426,418,426,2000,426
2011/11/29,426,426,426,426,1000,426
2011/12/01,434,434,434,434,1000,434
2011/12/02,434,434,434,434,1000,434
2011/12/06,421,429,421,429,2000,429
2011/12/07,429,437,429,437,2000,437
2011/12/08,437,437,437,437,1000,437
2011/12/12,450,458,450,458,2000,458
2011/12/13,458,458,458,458,4000,458
2011/12/19,458,458,458,458,1000,458
2011/12/20,440,440,440,440,1000,440
2012/01/11,455,455,455,455,3000,455
2012/01/12,460,460,460,460,2000,460
2012/01/13,460,460,448,448,5000,448
2012/01/17,450,460,450,458,6000,458
2012/01/18,450,456,450,456,4000,456
2012/01/19,456,456,454,455,3000,455
2012/01/23,442,444,442,444,3000,444
2012/01/25,449,450,449,450,3000,450
2012/01/26,450,452,450,452,3000,452
2012/01/27,426,442,426,442,4000,442
2012/01/30,442,442,442,442,1000,442
2012/01/31,442,442,442,442,1000,442
2012/02/08,445,448,445,448,3000,448
2012/02/10,448,448,448,448,1000,448
2012/02/14,448,448,448,448,1000,448
2012/02/17,448,448,448,448,5000,448
2012/02/20,434,445,434,445,2000,445
2012/02/27,445,445,445,445,1000,445
2012/02/29,445,445,445,445,1000,445
2012/03/01,445,445,445,445,1000,445
2012/03/02,445,450,445,450,5000,450
2012/03/06,460,460,460,460,3000,460
2012/03/09,446,454,446,454,2000,454
2012/03/12,454,454,454,454,1000,454
2012/03/13,456,464,456,464,3000,464
2012/03/14,460,460,459,459,4000,459
2012/03/15,451,451,450,450,4000,450
2012/03/23,447,447,445,445,2000,445
2012/03/29,445,445,445,445,1000,445
2012/04/02,445,445,445,445,1000,445
2012/04/03,450,450,448,448,3000,448
2012/04/04,451,451,451,451,2000,451
2012/04/05,451,451,451,451,1000,451
2012/04/10,451,452,451,452,2000,452
2012/04/11,450,450,450,450,1000,450
2012/04/16,426,450,426,450,2000,450
2012/04/24,440,440,440,440,1000,440
2012/04/25,440,440,440,440,2000,440
2012/05/07,440,440,440,440,1000,440
2012/05/11,445,445,445,445,1000,445
2012/05/14,446,446,446,446,1000,446
2012/05/15,447,447,445,445,8000,445
2012/05/18,421,421,413,413,2000,413
2012/05/22,446,446,414,414,10000,414
2012/05/30,415,415,415,415,1000,415
2012/05/31,420,420,420,420,1000,420
2012/06/04,420,420,420,420,1000,420
2012/06/06,435,435,435,435,1000,435
2012/06/11,435,435,435,435,1000,435
2012/06/14,413,413,413,413,1000,413
2012/06/20,429,429,429,429,1000,429
2012/06/21,422,422,422,422,1000,422
2012/06/25,422,422,420,420,5000,420
2012/06/29,420,420,420,420,1000,420
2012/07/02,420,420,412,412,3000,412
2012/07/06,418,418,418,418,1000,418
2012/07/10,418,418,418,418,3000,418
2012/07/17,411,411,411,411,2000,411
2012/07/18,411,411,408,408,2000,408
2012/08/08,416,416,415,415,5000,415
2012/08/17,422,422,422,422,1000,422
2012/08/27,422,422,422,422,2000,422
2012/08/28,410,410,410,410,1000,410
2012/09/03,402,402,402,402,4000,402
2012/09/05,405,405,405,405,1000,405
2012/09/13,405,405,405,405,2000,405
2012/09/14,413,413,413,413,1000,413
2012/09/20,405,405,405,405,2000,405
2012/10/04,406,406,406,406,1000,406
2012/10/11,406,406,406,406,1000,406
2012/10/22,406,406,406,406,1000,406
2012/10/23,470,470,470,470,8000,470
2012/10/24,406,406,406,406,3000,406
2012/11/02,414,414,414,414,1000,414
2012/11/13,414,414,414,414,2000,414
2012/11/28,414,414,406,406,6000,406
2012/11/30,406,406,406,406,1000,406
2012/12/04,413,413,413,413,1000,413
2012/12/05,413,420,413,420,2000,420
2012/12/10,420,420,420,420,5000,420
2012/12/11,434,434,434,434,2000,434
2012/12/13,415,415,415,415,2000,415
2012/12/17,425,425,425,425,1000,425
2012/12/18,435,450,435,450,3000,450
2012/12/19,440,445,440,445,5000,445
2012/12/20,445,445,445,445,3000,445
2012/12/21,445,445,440,440,3000,440
2012/12/25,440,440,440,440,3000,440
2012/12/26,440,440,440,440,2000,440
2012/12/27,440,440,440,440,2000,440
2012/12/28,440,440,431,432,7000,432
2013/01/04,436,445,436,445,5000,445
2013/01/07,452,452,452,452,1000,452
2013/01/08,452,461,452,461,8000,461
2013/01/10,469,480,469,480,3000,480
2013/01/11,480,480,480,480,2000,480
2013/01/15,480,484,465,484,7000,484
2013/01/16,470,484,455,455,11000,455
2013/01/17,458,458,457,457,2000,457
2013/01/18,473,481,473,481,4000,481
2013/01/21,471,481,471,481,4000,481
2013/01/22,473,473,473,473,3000,473
2013/01/24,457,457,455,455,6000,455
2013/01/28,471,471,459,459,4000,459
2013/01/29,433,440,433,440,4000,440
2013/01/30,458,458,440,440,3000,440
2013/01/31,465,465,465,465,1000,465
2013/02/01,465,465,465,465,1000,465
2013/02/06,443,443,443,443,1000,443
2013/02/07,442,442,442,442,1000,442
2013/02/12,442,442,442,442,1000,442
2013/02/13,448,448,448,448,1000,448
2013/02/14,449,449,441,441,6000,441
2013/02/18,440,440,440,440,6000,440
2013/02/19,440,440,440,440,1000,440
2013/02/21,450,450,450,450,2000,450
2013/02/25,465,465,452,452,4000,452
2013/03/01,459,459,455,455,2000,455
2013/03/04,464,472,464,472,3000,472
2013/03/05,466,466,466,466,1000,466
2013/03/06,465,465,465,465,1000,465
2013/03/07,471,471,471,471,1000,471
2013/03/08,466,466,466,466,1000,466
2013/03/13,530,546,530,546,21000,546
2013/03/14,626,626,558,558,21000,558
2013/03/15,578,590,551,551,6000,551
2013/03/18,551,551,534,536,4000,536
2013/03/19,526,539,526,539,5000,539
2013/03/21,526,526,526,526,2000,526
2013/03/22,525,540,525,540,4000,540
2013/03/25,540,540,540,540,1000,540
2013/03/27,525,525,520,520,2000,520
2013/03/28,525,525,525,525,1000,525
2013/04/02,506,506,489,489,3000,489
2013/04/05,520,530,520,530,4000,530
2013/04/09,520,520,520,520,2000,520
2013/04/10,523,530,520,530,4000,530
2013/04/11,535,535,526,526,4000,526
2013/04/12,526,526,526,526,5000,526
2013/04/15,530,560,525,525,8000,525
2013/04/16,520,520,520,520,1000,520
2013/04/23,530,530,530,530,1000,530
2013/04/24,540,540,540,540,1000,540
2013/04/25,541,541,540,540,2000,540
2013/04/30,540,540,540,540,26000,540
2013/05/01,540,540,540,540,3000,540
2013/05/02,571,571,571,571,1000,571
2013/05/07,622,622,622,622,3000,622
2013/05/08,622,622,572,572,7000,572
2013/05/09,585,585,585,585,1000,585
2013/05/10,585,585,585,585,1000,585
2013/05/14,578,578,578,578,4000,578
2013/05/15,579,579,549,549,4000,549
2013/05/16,549,549,542,542,2000,542
2013/05/17,552,562,552,562,2000,562
2013/05/20,562,572,542,570,6000,570
2013/05/22,548,548,548,548,2000,548
2013/05/23,545,545,540,541,5000,541
2013/05/24,540,550,540,550,4000,550
2013/05/27,550,550,540,540,7000,540
2013/05/30,520,530,520,530,2000,530
2013/05/31,520,530,520,530,2000,530
2013/06/06,522,522,520,520,2000,520
2013/06/11,520,520,520,520,1000,520
2013/06/14,528,550,528,550,8000,550
2013/06/25,510,510,510,510,1000,510
2013/06/26,510,530,510,530,2000,530
2013/06/28,529,529,529,529,1000,529
2013/07/01,509,509,509,509,5000,509
2013/07/02,509,509,509,509,1000,509
2013/07/04,520,520,516,516,2000,516
2013/07/05,512,520,510,510,3000,510
2013/07/10,519,546,519,546,8000,546
2013/07/11,545,545,545,545,2000,545
2013/07/12,544,544,544,544,1000,544
2013/07/16,530,530,530,530,1000,530
2013/07/18,530,530,530,530,1000,530
2013/07/22,517,517,517,517,3000,517
2013/07/23,507,507,507,507,3000,507
2013/07/25,508,510,508,510,2000,510
2013/08/12,510,511,510,511,2000,511
2013/08/14,512,515,512,515,2000,515
2013/08/15,522,522,519,519,3000,519
2013/08/19,526,530,526,530,2000,530
2013/08/20,527,528,527,528,3000,528
2013/08/21,527,537,527,537,2000,537
2013/08/23,530,531,530,531,3000,531
2013/08/26,531,531,531,531,1000,531
2013/08/27,525,525,525,525,1000,525
2013/08/28,524,525,524,525,2000,525
2013/08/29,533,533,533,533,1000,533
2013/08/30,530,530,530,530,1000,530
2013/09/02,540,545,540,541,5000,541
2013/09/05,559,560,559,560,2000,560
2013/09/09,588,590,588,590,3000,590
2013/09/10,590,590,578,578,6000,578
2013/09/12,598,600,598,600,9000,600
2013/09/13,700,700,700,700,16000,700
2013/09/17,850,850,850,850,11000,850
2013/09/18,895,895,759,762,117000,762
2013/09/19,837,840,799,807,43000,807
2013/09/20,829,850,805,835,18000,835
2013/09/24,800,800,780,785,13000,785
2013/09/25,805,805,769,769,10000,769
2013/09/26,752,767,752,767,8000,767
2013/09/27,781,781,781,781,2000,781
2013/09/30,787,787,758,779,5000,779
2013/10/01,760,760,760,760,2000,760
2013/10/02,755,755,755,755,1000,755
2013/10/03,740,740,711,735,5000,735
2013/10/04,712,712,702,703,13000,703
2013/10/07,700,700,645,650,49000,650
2013/10/08,642,664,642,664,8000,664
2013/10/09,669,682,668,682,12000,682
2013/10/10,686,695,685,695,7000,695
2013/10/11,695,710,690,691,11000,691
2013/10/15,701,710,701,710,3000,710
2013/10/17,696,698,688,688,9000,688
2013/10/18,696,699,689,699,4000,699
2013/10/21,709,714,709,710,3000,710
2013/10/22,725,728,725,728,19000,728
2013/10/23,728,731,728,730,5000,730
2013/10/24,725,725,719,720,4000,720
2013/10/25,720,720,715,715,3000,715
2013/10/28,730,730,730,730,3000,730
2013/10/29,730,730,730,730,2000,730
2013/10/30,721,722,721,722,2000,722
2013/11/01,722,722,708,708,4000,708
2013/11/06,708,708,708,708,2000,708
2013/11/07,729,743,728,743,3000,743
2013/11/08,725,740,725,740,3000,740
2013/11/11,740,740,705,725,9000,725
2013/11/12,715,715,715,715,1000,715
2013/11/13,720,740,720,740,5000,740
2013/11/14,745,745,735,735,4000,735
2013/11/15,743,743,736,739,8000,739
2013/11/18,740,740,740,740,3000,740
2013/11/19,740,740,736,736,5000,736
2013/11/20,733,745,733,745,6000,745
2013/11/21,745,757,745,755,8000,755
2013/11/22,760,770,760,770,6000,770
2013/11/25,770,799,770,790,14000,790
2013/11/26,790,790,746,755,19000,755
2013/11/27,753,776,753,776,8000,776
2013/11/28,785,785,770,770,9000,770
2013/11/29,775,790,775,790,6000,790
2013/12/02,790,795,790,795,7000,795
2013/12/03,799,808,795,808,15000,808
2013/12/04,807,809,806,806,7000,806
2013/12/05,817,817,807,813,7000,813
2013/12/06,813,813,805,805,6000,805
2013/12/09,805,811,803,811,7000,811
2013/12/10,809,812,809,811,3000,811
2013/12/11,811,812,811,811,3000,811
2013/12/12,804,815,804,815,5000,815
2013/12/13,803,803,801,803,7000,803
2013/12/16,818,820,750,794,50000,794
2013/12/17,784,784,750,775,21000,775
2013/12/18,760,795,760,790,16000,790
2013/12/19,790,790,787,787,4000,787
2013/12/20,781,790,777,781,14000,781
2013/12/24,780,790,779,779,7000,779
2013/12/25,779,786,757,760,21000,760
2013/12/26,772,795,766,795,19000,795
2013/12/27,796,796,792,792,3000,792
2013/12/30,792,800,791,800,13000,800
2014/01/06,803,803,799,800,5000,800
2014/01/07,800,800,799,799,2000,799
2014/01/08,803,841,803,834,21000,834
2014/01/09,838,855,838,855,9000,855
2014/01/10,856,896,855,896,19000,896
2014/01/14,890,891,839,840,18000,840
2014/01/15,861,895,861,895,9000,895
2014/01/16,910,920,905,920,21000,920
2014/01/17,928,959,918,959,23000,959
2014/01/20,944,956,935,946,10000,946
2014/01/21,946,950,943,945,11000,945
2014/01/22,945,946,915,929,20000,929
2014/01/23,944,944,944,944,1000,944
2014/01/24,940,940,916,916,3000,916
2014/01/27,915,920,910,920,5000,920
2014/01/28,905,910,890,910,6000,910
2014/01/29,925,925,914,915,10000,915
2014/01/31,909,915,909,915,2000,915
2014/02/03,900,900,900,900,1000,900
2014/02/04,836,836,779,801,18000,801
2014/02/05,801,801,786,796,4000,796
2014/02/06,799,800,799,800,3000,800
2014/02/07,830,834,827,827,6000,827
2014/02/10,830,856,830,856,4000,856
2014/02/12,861,878,856,878,24000,878
2014/02/14,851,851,830,830,6000,830
2014/02/17,850,850,820,820,3000,820
2014/02/19,850,859,850,859,3000,859
2014/02/20,840,840,840,840,1000,840
2014/02/21,840,855,840,855,2000,855
2014/02/24,854,854,848,848,3000,848
2014/02/25,853,882,853,882,9000,882
2014/02/26,885,886,885,885,4000,885
2014/02/27,885,900,885,900,5000,900
2014/02/28,900,925,900,925,20000,925
2014/03/03,865,895,850,895,9000,895
2014/03/04,895,948,895,948,19000,948
2014/03/06,948,955,920,920,9000,920
2014/03/07,920,940,920,920,5000,920
2014/03/10,935,940,935,940,7000,940
2014/03/11,915,1001,915,982,24000,982
2014/03/12,990,1005,982,1005,10000,1005
2014/03/13,1065,1305,1061,1200,191000,1200
2014/03/14,1180,1221,1150,1159,33000,1159
2014/03/17,1129,1181,1102,1102,19000,1102
2014/03/18,1105,1186,1105,1186,5000,1186
2014/03/19,1237,1238,1200,1200,8000,1200
2014/03/20,1100,1160,1099,1160,13000,1160
2014/03/25,1160,1160,1100,1100,2000,1100
2014/03/26,1150,1150,1150,1150,1000,1150
2014/03/28,1190,1190,1080,1100,8000,1100
2014/03/31,1190,1190,1190,1190,1000,1190
2014/04/01,1190,1190,1189,1189,3000,1189
2014/04/02,1190,1250,1190,1250,15000,1250
2014/04/03,1250,1278,1230,1278,7000,1278
2014/04/04,1278,1278,1278,1278,2000,1278
2014/04/08,1230,1230,1230,1230,1000,1230
2014/04/09,1140,1140,1100,1100,8000,1100
2014/04/10,1190,1190,1130,1130,4000,1130
2014/04/11,1130,1134,1130,1130,9000,1130
2014/04/14,1111,1130,1100,1107,9000,1107
2014/04/15,1100,1100,1100,1100,1000,1100
2014/04/16,1101,1130,1101,1130,2000,1130
2014/04/17,1118,1118,1118,1118,1000,1118
2014/04/18,1117,1180,1117,1160,9000,1160
2014/04/21,1150,1150,1150,1150,1000,1150
2014/04/22,1150,1150,1150,1150,1000,1150
2014/04/23,1150,1160,1150,1160,4000,1160
2014/04/25,1132,1132,1132,1132,3000,1132
2014/04/28,1150,1151,1150,1150,7000,1150
2014/05/07,1151,1151,1151,1151,2000,1151
2014/05/08,1152,1170,1152,1170,2000,1170
2014/05/09,1170,1190,1169,1190,7000,1190
2014/05/12,1145,1145,1140,1140,3000,1140
2014/05/13,1131,1160,1130,1160,3000,1160
2014/05/15,1149,1149,1120,1149,3000,1149
2014/05/19,1130,1130,1130,1130,1000,1130
2014/05/21,1110,1110,1110,1110,2000,1110
2014/05/26,1110,1130,1110,1130,3000,1130
2014/05/27,1130,1190,1130,1190,5000,1190
2014/06/02,1190,1190,1190,1190,1000,1190
2014/06/03,1190,1190,1190,1190,4000,1190
2014/06/09,1160,1160,1160,1160,1000,1160
2014/06/10,1180,1180,1180,1180,1000,1180
2014/06/11,1180,1180,1180,1180,1000,1180
2014/06/12,1180,1180,1180,1180,1000,1180
2014/06/13,1170,1170,1160,1160,3000,1160
2014/06/16,1040,1080,1040,1080,11000,1080
2014/06/17,1080,1150,1051,1150,4000,1150
2014/06/18,1159,1159,1159,1159,1000,1159
2014/06/19,1140,1140,1140,1140,1000,1140
2014/07/03,1100,1100,1100,1100,1000,1100
2014/07/04,1070,1070,1067,1067,8000,1067
2014/07/07,1075,1075,1075,1075,1000,1075
2014/07/09,1066,1074,1065,1074,3000,1074
2014/07/10,1074,1090,1074,1090,2000,1090
2014/07/11,1070,1080,1070,1079,3000,1079
2014/07/14,1090,1090,1084,1085,3000,1085
2014/07/18,1055,1055,1055,1055,1000,1055
2014/07/22,1064,1064,1064,1064,1000,1064
2014/07/25,1089,1089,1089,1089,2000,1089
2014/07/28,1089,1089,1089,1089,4000,1089
2014/08/15,1074,1074,1074,1074,2000,1074
2014/08/18,1051,1051,1050,1050,2000,1050
2014/08/19,1069,1072,1050,1050,6000,1050
2014/08/20,1050,1050,1050,1050,2000,1050
2014/08/21,1030,1050,1030,1050,3000,1050
2014/08/22,1040,1070,1040,1070,2000,1070
2014/08/25,1068,1068,1068,1068,1000,1068
2014/08/27,1065,1080,1065,1080,5000,1080
2014/08/28,1100,1100,1100,1100,1000,1100
2014/09/01,1073,1073,1073,1073,1000,1073
2014/09/02,1073,1073,1065,1065,2000,1065
2014/09/03,1065,1065,1065,1065,1000,1065
2014/09/08,1055,1055,1053,1053,3000,1053
2014/09/09,1055,1055,1055,1055,1000,1055
2014/09/11,1048,1048,1036,1036,3000,1036
2014/09/12,1010,1020,991,995,7000,995
2014/09/16,1010,1010,990,990,3000,990
2014/09/17,977,977,950,950,7000,950
2014/09/18,945,960,942,942,4000,942
2014/09/19,949,949,925,925,10000,925
2014/09/22,920,920,910,910,9000,910
2014/09/24,900,900,885,899,6000,899
2014/09/25,890,893,880,893,14000,893
2014/09/26,893,893,865,873,15000,873
2014/09/29,902,902,902,902,2000,902
2014/09/30,875,880,870,880,5000,880
2014/10/01,870,870,845,845,14000,845
2014/10/02,840,840,840,840,1000,840
2014/10/03,834,834,830,830,6000,830
2014/10/06,834,834,834,834,1000,834
2014/10/07,836,836,836,836,1000,836
2014/10/08,836,836,836,836,1000,836
2014/10/09,839,839,835,835,3000,835
2014/10/10,835,850,835,850,2000,850
2014/10/15,865,865,865,865,1000,865
2014/10/16,835,835,835,835,1000,835
2014/10/30,840,840,840,840,1000,840
2014/10/31,840,840,839,840,3000,840
2014/11/04,845,845,840,840,6000,840
2014/11/07,825,825,825,825,1000,825
2014/11/10,830,830,830,830,1000,830
2014/11/11,830,830,830,830,1000,830
2014/11/13,835,845,835,837,4000,837
2014/11/14,835,835,835,835,3000,835
2014/11/19,830,839,815,824,6000,824
2014/11/21,809,809,808,809,3000,809
2014/11/25,782,800,750,800,48000,800
2014/11/26,786,786,780,780,7000,780
2014/11/27,780,780,750,750,21000,750
2014/11/28,750,786,740,786,16000,786
2014/12/01,800,800,785,786,8000,786
2014/12/03,785,786,785,786,3000,786
2014/12/04,801,804,772,772,8000,772
2014/12/05,774,777,770,770,8000,770
2014/12/08,773,788,773,788,2000,788
2014/12/10,788,788,773,773,6000,773
2014/12/11,777,777,777,777,2000,777
2014/12/15,777,777,762,762,4000,762
2014/12/17,755,756,750,750,5000,750
2014/12/18,743,770,743,750,18000,750
2014/12/19,760,760,749,750,26000,750
2014/12/22,750,751,735,735,9000,735
2014/12/24,739,739,725,725,12000,725
2014/12/25,725,735,720,735,3000,735
2014/12/26,735,735,735,735,2000,735
2014/12/29,725,725,714,714,10000,714
2014/12/30,725,725,725,725,2000,725
2015/01/06,719,720,718,718,9000,718
2015/01/07,723,733,718,719,24000,719
2015/01/08,719,730,718,720,17000,720
2015/01/09,720,720,710,710,14000,710
2015/01/13,710,718,703,708,16000,708
2015/01/14,708,715,708,715,2000,715
2015/01/16,715,715,700,709,9000,709
2015/01/19,715,719,715,719,3000,719
2015/01/20,718,720,715,715,8000,715
2015/01/21,715,715,715,715,1000,715
2015/01/22,715,729,715,729,7000,729
2015/01/26,726,726,715,717,7000,717
2015/01/27,728,728,726,727,4000,727
2015/01/28,709,710,705,710,3000,710
2015/01/29,705,705,705,705,1000,705
2015/02/02,712,712,710,710,4000,710
2015/02/04,703,705,702,705,3000,705
2015/02/05,710,710,695,708,12000,708
2015/02/10,708,708,705,705,3000,705
2015/02/12,701,701,700,700,2000,700
2015/02/13,700,707,700,707,3000,707
2015/02/20,707,707,707,707,4000,707
2015/02/23,708,708,708,708,1000,708
2015/02/24,708,708,708,708,1000,708
2015/02/25,709,725,709,725,8000,725
2015/02/26,724,738,724,735,8000,735
2015/02/27,742,755,741,755,12000,755
2015/03/02,777,779,777,779,5000,779
2015/03/03,765,770,765,770,2000,770
2015/03/04,778,778,778,778,1000,778
2015/03/06,763,763,756,756,2000,756
2015/03/09,755,756,755,756,2000,756
2015/03/10,769,769,769,769,1000,769
2015/03/12,760,760,760,760,1000,760
2015/03/13,755,755,755,755,1000,755
2015/03/16,768,768,746,746,7000,746
2015/03/17,759,759,759,759,1000,759
2015/03/18,759,759,745,745,4000,745
2015/03/19,750,755,750,755,5000,755
2015/03/20,768,768,768,768,1000,768
2015/03/23,777,777,761,761,4000,761
2015/03/24,770,770,770,770,1000,770
2015/03/25,770,770,770,770,2000,770
2015/03/27,755,755,755,755,1000,755
2015/03/31,767,767,767,767,1000,767
2015/04/01,769,769,767,767,3000,767
2015/04/02,767,767,767,767,1000,767
2015/04/03,767,767,767,767,1000,767
2015/04/06,770,770,766,766,5000,766
2015/04/07,775,775,770,770,4000,770
2015/04/08,777,784,775,784,8000,784
2015/04/10,784,784,780,780,2000,780
2015/04/13,789,789,774,774,2000,774
2015/04/14,779,780,774,780,4000,780
2015/04/15,789,789,785,785,2000,785
2015/04/16,785,785,785,785,2000,785
2015/04/21,775,775,775,775,1000,775
2015/04/22,785,785,785,785,1000,785
2015/04/24,790,794,790,794,2000,794
2015/05/01,779,789,779,789,3000,789
2015/05/11,789,800,789,800,7000,800
2015/05/14,800,813,800,813,4000,813
2015/05/18,815,815,815,815,1000,815
2015/05/19,800,815,800,815,4000,815
2015/05/20,800,830,800,830,7000,830
2015/05/22,830,830,830,830,1000,830
2015/05/25,830,830,814,819,6000,819
2015/05/27,819,819,819,819,1000,819
2015/05/28,817,817,817,817,1000,817
2015/05/29,820,820,820,820,1000,820
2015/06/01,814,814,814,814,2000,814
2015/06/02,814,814,810,810,4000,810
2015/06/04,818,820,818,819,5000,819
2015/06/05,819,819,819,819,1000,819
2015/06/08,819,820,813,820,4000,820
2015/06/09,820,820,817,817,6000,817
2015/06/10,821,821,817,820,4000,820
2015/06/11,827,828,820,828,12000,828
2015/06/12,838,845,831,843,17000,843
2015/06/15,860,875,828,829,40000,829
2015/06/16,839,839,814,814,10000,814
2015/06/17,814,824,814,824,3000,824
2015/06/18,815,820,815,815,4000,815
2015/06/19,815,820,815,820,2000,820
2015/06/22,829,829,829,829,2000,829
2015/06/23,824,824,815,815,9000,815
2015/06/24,815,815,815,815,1000,815
2015/06/25,815,815,815,815,1000,815
2015/06/26,818,818,810,810,4000,810
2015/06/29,810,810,797,797,9000,797
2015/06/30,797,800,797,800,3000,800
2015/07/01,810,810,810,810,3000,810
