2011/01/04,317,317,316,316,8000,316
2011/01/05,318,322,318,320,3000,320
2011/01/06,312,325,312,325,12000,325
2011/01/07,328,330,326,328,12000,328
2011/01/11,320,327,320,325,11000,325
2011/01/12,317,320,317,317,17000,317
2011/01/13,320,321,320,320,9000,320
2011/01/14,320,325,320,325,12000,325
2011/01/17,321,321,321,321,2000,321
2011/01/18,325,325,324,324,4000,324
2011/01/19,325,326,322,326,7000,326
2011/01/20,326,329,323,328,9000,328
2011/01/21,329,330,315,315,19000,315
2011/01/24,320,320,316,316,8000,316
2011/01/25,324,329,324,325,10000,325
2011/01/26,333,333,323,323,8000,323
2011/01/27,317,321,317,319,8000,319
2011/01/28,323,323,315,315,12000,315
2011/01/31,310,310,308,310,5000,310
2011/02/01,318,318,310,311,8000,311
2011/02/02,309,315,309,315,7000,315
2011/02/03,307,310,306,310,13000,310
2011/02/04,317,319,315,316,8000,316
2011/02/07,324,324,316,316,8000,316
2011/02/08,317,317,307,307,20000,307
2011/02/09,307,307,304,307,10000,307
2011/02/10,312,312,310,310,6000,310
2011/02/14,310,310,310,310,1000,310
2011/02/15,310,312,308,308,7000,308
2011/02/16,308,308,308,308,2000,308
2011/02/17,310,313,309,313,12000,313
2011/02/18,316,316,313,314,9000,314
2011/02/21,318,318,314,316,18000,316
2011/02/22,319,319,312,314,5000,314
2011/02/23,319,319,310,310,13000,310
2011/02/24,318,318,313,313,15000,313
2011/02/25,311,317,311,317,4000,317
2011/02/28,317,318,317,318,3000,318
2011/03/01,322,322,312,312,8000,312
2011/03/02,310,323,306,310,24000,310
2011/03/03,315,315,314,315,3000,315
2011/03/04,314,316,314,315,6000,315
2011/03/07,308,311,308,310,17000,310
2011/03/08,314,319,310,310,4000,310
2011/03/09,315,315,310,310,4000,310
2011/03/10,310,310,306,307,6000,307
2011/03/11,307,307,295,295,63000,295
2011/03/14,325,344,320,344,57000,344
2011/03/15,360,368,328,341,78000,341
2011/03/16,344,344,303,313,54000,313
2011/03/17,313,313,300,313,31000,313
2011/03/18,337,337,326,328,46000,328
2011/03/22,343,353,335,353,27000,353
2011/03/23,355,356,346,351,30000,351
2011/03/24,357,379,350,379,40000,379
2011/03/25,379,385,370,378,28000,378
2011/03/28,372,377,366,377,29000,377
2011/03/29,365,368,359,365,46000,365
2011/03/30,365,372,355,360,64000,360
2011/03/31,376,378,360,360,32000,360
2011/04/01,360,368,360,364,10000,364
2011/04/04,357,366,357,358,13000,358
2011/04/05,355,355,343,343,18000,343
2011/04/06,351,351,340,340,12000,340
2011/04/07,346,346,335,335,5000,335
2011/04/08,330,340,330,340,9000,340
2011/04/11,345,353,337,342,14000,342
2011/04/12,342,342,337,338,5000,338
2011/04/13,333,339,330,330,31000,330
2011/04/14,330,338,330,330,14000,330
2011/04/15,334,334,334,334,5000,334
2011/04/18,337,341,326,326,10000,326
2011/04/19,327,327,318,325,6000,325
2011/04/20,330,330,325,330,6000,330
2011/04/21,337,337,320,320,16000,320
2011/04/22,320,321,319,321,4000,321
2011/04/25,318,326,315,315,13000,315
2011/04/26,323,323,322,322,14000,322
2011/04/27,322,322,319,320,20000,320
2011/04/28,319,330,319,327,8000,327
2011/05/02,327,330,326,330,5000,330
2011/05/06,330,332,330,332,3000,332
2011/05/09,339,339,330,336,12000,336
2011/05/10,332,337,326,326,6000,326
2011/05/11,327,328,327,328,3000,328
2011/05/12,322,337,321,322,8000,322
2011/05/13,322,322,303,311,16000,311
2011/05/16,312,312,308,308,3000,308
2011/05/17,302,302,290,290,11000,290
2011/05/18,288,299,288,298,14000,298
2011/05/19,306,306,298,301,15000,301
2011/05/20,304,312,304,310,20000,310
2011/05/23,308,308,306,307,8000,307
2011/05/24,310,310,307,310,7000,310
2011/05/25,308,308,303,305,6000,305
2011/05/26,306,311,306,311,5000,311
2011/05/27,312,313,304,304,7000,304
2011/05/30,297,298,297,298,3000,298
2011/05/31,303,315,303,310,13000,310
2011/06/01,317,317,302,305,9000,305
2011/06/02,305,305,301,301,3000,301
2011/06/03,300,300,293,294,11000,294
2011/06/06,290,294,286,287,12000,287
2011/06/07,288,293,288,293,6000,293
2011/06/08,289,294,289,294,3000,294
2011/06/09,291,291,291,291,4000,291
2011/06/10,299,300,296,300,29000,300
2011/06/13,293,296,293,294,7000,294
2011/06/14,300,300,300,300,1000,300
2011/06/15,300,300,296,299,7000,299
2011/06/16,299,299,293,293,2000,293
2011/06/17,293,299,288,288,13000,288
2011/06/20,291,301,291,301,8000,301
2011/06/21,306,306,304,306,20000,306
2011/06/22,304,311,292,304,19000,304
2011/06/23,304,307,300,300,16000,300
2011/06/24,292,295,292,293,30000,293
2011/06/27,293,293,292,293,6000,293
2011/06/28,292,295,292,294,4000,294
2011/06/29,290,299,290,299,11000,299
2011/06/30,300,301,297,301,10000,301
2011/07/01,300,305,300,305,11000,305
2011/07/04,307,318,307,318,20000,318
2011/07/05,322,326,322,323,12000,323
2011/07/06,319,320,319,320,21000,320
2011/07/07,321,321,310,310,15000,310
2011/07/08,310,317,310,311,8000,311
2011/07/11,315,317,314,317,17000,317
2011/07/12,316,318,315,316,13000,316
2011/07/13,320,321,319,321,7000,321
2011/07/14,321,321,314,314,9000,314
2011/07/15,307,318,307,316,7000,316
2011/07/19,320,325,319,324,13000,324
2011/07/20,328,329,328,329,12000,329
2011/07/21,328,328,325,327,14000,327
2011/07/22,335,340,327,333,29000,333
2011/07/25,325,334,325,333,22000,333
2011/07/26,338,338,337,337,5000,337
2011/07/27,333,333,330,330,4000,330
2011/07/28,325,325,316,323,20000,323
2011/07/29,319,320,315,315,10000,315
2011/08/01,312,312,303,308,15000,308
2011/08/02,303,304,301,301,8000,301
2011/08/03,301,301,299,299,8000,299
2011/08/04,300,300,288,296,18000,296
2011/08/05,287,290,285,288,35000,288
2011/08/08,285,294,285,288,11000,288
2011/08/09,285,287,278,282,16000,282
2011/08/10,284,297,284,297,17000,297
2011/08/11,297,304,297,300,10000,300
2011/08/12,298,298,290,291,4000,291
2011/08/15,299,299,299,299,5000,299
2011/08/16,304,304,301,301,4000,301
2011/08/17,303,303,300,302,6000,302
2011/08/18,306,311,306,311,12000,311
2011/08/19,307,307,299,307,21000,307
2011/08/22,310,315,310,315,11000,315
2011/08/23,318,320,318,319,12000,319
2011/08/24,325,327,322,325,14000,325
2011/08/25,328,328,324,324,15000,324
2011/08/26,320,321,316,321,16000,321
2011/08/29,323,323,315,316,4000,316
2011/08/30,323,323,318,318,15000,318
2011/08/31,322,322,321,321,5000,321
2011/09/01,323,323,318,320,8000,320
2011/09/02,321,322,320,322,8000,322
2011/09/05,315,321,314,321,16000,321
2011/09/06,321,321,314,320,9000,320
2011/09/07,321,325,321,324,6000,324
2011/09/08,324,324,322,322,5000,322
2011/09/09,318,324,318,321,29000,321
2011/09/12,313,313,313,313,3000,313
2011/09/13,314,322,313,313,16000,313
2011/09/14,317,319,315,315,5000,315
2011/09/15,311,316,310,311,18000,311
2011/09/16,319,322,317,322,12000,322
2011/09/20,319,322,319,322,10000,322
2011/09/21,322,324,322,324,13000,324
2011/09/22,318,318,313,313,3000,313
2011/09/26,316,316,308,308,6000,308
2011/09/27,316,320,316,318,10000,318
2011/09/28,320,328,320,328,17000,328
2011/09/29,326,334,325,332,22000,332
2011/09/30,339,339,330,333,19000,333
2011/10/03,330,330,324,324,10000,324
2011/10/04,324,330,323,323,10000,323
2011/10/05,329,329,318,320,12000,320
2011/10/06,328,330,328,330,8000,330
2011/10/07,330,330,325,330,7000,330
2011/10/11,325,329,323,323,9000,323
2011/10/12,318,321,318,320,8000,320
2011/10/13,320,320,320,320,1000,320
2011/10/14,316,316,308,308,6000,308
2011/10/17,309,312,309,312,5000,312
2011/10/18,305,305,305,305,1000,305
2011/10/19,313,313,313,313,2000,313
2011/10/20,316,316,312,315,9000,315
2011/10/21,315,317,313,317,15000,317
2011/10/24,323,323,316,316,7000,316
2011/10/25,316,316,311,311,5000,311
2011/10/26,306,307,303,303,4000,303
2011/10/27,302,303,300,300,14000,300
2011/10/28,300,308,300,308,32000,308
2011/10/31,308,310,300,309,12000,309
2011/11/01,309,309,307,307,6000,307
2011/11/02,308,308,307,307,6000,307
2011/11/04,304,304,304,304,1000,304
2011/11/07,302,310,301,310,6000,310
2011/11/08,303,308,292,292,7000,292
2011/11/09,300,300,299,300,3000,300
2011/11/10,301,304,296,304,16000,304
2011/11/11,304,304,301,302,11000,302
2011/11/14,308,308,298,305,9000,305
2011/11/15,306,308,306,307,5000,307
2011/11/16,304,310,304,310,6000,310
2011/11/17,307,307,305,306,6000,306
2011/11/18,303,309,303,309,10000,309
2011/11/21,309,311,308,311,13000,311
2011/11/22,307,309,303,303,6000,303
2011/11/24,303,308,295,304,16000,304
2011/11/25,308,308,306,307,13000,307
2011/11/28,304,308,299,308,4000,308
2011/11/29,308,313,308,313,11000,313
2011/11/30,313,313,310,312,5000,312
2011/12/01,312,315,310,313,24000,313
2011/12/02,312,312,312,312,10000,312
2011/12/05,316,316,316,316,8000,316
2011/12/06,311,311,311,311,3000,311
2011/12/07,311,312,310,310,5000,310
2011/12/08,303,313,303,313,5000,313
2011/12/09,307,310,307,308,31000,308
2011/12/12,313,314,311,314,16000,314
2011/12/13,313,314,313,314,12000,314
2011/12/14,310,311,310,311,3000,311
2011/12/15,305,306,305,306,3000,306
2011/12/16,307,307,302,302,9000,302
2011/12/19,300,303,300,303,7000,303
2011/12/20,300,309,300,305,17000,305
2011/12/21,302,306,301,306,17000,306
2011/12/22,302,304,302,303,3000,303
2011/12/26,309,309,298,298,9000,298
2011/12/27,305,307,301,307,10000,307
2011/12/28,302,303,302,303,3000,303
2011/12/29,300,300,298,298,5000,298
2011/12/30,303,303,300,303,9000,303
2012/01/04,301,308,301,308,17000,308
2012/01/05,307,307,301,301,4000,301
2012/01/06,302,302,300,300,5000,300
2012/01/10,304,307,304,304,3000,304
2012/01/11,306,309,306,308,8000,308
2012/01/12,306,306,303,304,10000,304
2012/01/13,308,308,305,305,4000,305
2012/01/17,305,330,305,326,30000,326
2012/01/18,323,325,313,313,31000,313
2012/01/19,316,324,314,317,27000,317
2012/01/20,320,320,313,313,31000,313
2012/01/23,317,319,317,319,16000,319
2012/01/24,319,319,314,315,13000,315
2012/01/25,315,320,315,320,8000,320
2012/01/26,319,319,314,314,7000,314
2012/01/27,315,315,315,315,2000,315
2012/01/30,315,316,315,316,4000,316
2012/01/31,318,319,315,319,11000,319
2012/02/01,319,319,314,319,14000,319
2012/02/02,318,319,313,317,13000,317
2012/02/03,320,320,315,315,19000,315
2012/02/06,316,317,315,317,9000,317
2012/02/07,318,318,312,312,4000,312
2012/02/08,316,319,310,319,28000,319
2012/02/09,319,319,311,311,7000,311
2012/02/10,316,320,311,311,11000,311
2012/02/13,308,314,308,310,6000,310
2012/02/14,313,314,313,314,2000,314
2012/02/15,319,319,313,317,15000,317
2012/02/16,320,320,313,313,10000,313
2012/02/17,316,317,313,313,6000,313
2012/02/20,314,319,314,319,19000,319
2012/02/21,319,320,315,315,23000,315
2012/02/22,319,323,318,320,14000,320
2012/02/23,324,325,321,324,18000,324
2012/02/24,327,330,327,329,9000,329
2012/02/27,321,334,320,330,11000,330
2012/02/28,330,331,328,328,11000,328
2012/02/29,332,333,330,332,14000,332
2012/03/01,332,332,328,332,7000,332
2012/03/02,332,332,330,332,7000,332
2012/03/05,333,333,330,330,4000,330
2012/03/06,332,333,330,330,12000,330
2012/03/07,330,331,326,331,9000,331
2012/03/08,334,334,334,334,3000,334
2012/03/09,338,338,334,338,36000,338
2012/03/12,334,338,334,335,5000,335
2012/03/13,332,335,327,335,6000,335
2012/03/14,335,335,326,326,14000,326
2012/03/15,328,332,328,330,5000,330
2012/03/16,327,331,327,331,5000,331
2012/03/19,331,336,324,336,13000,336
2012/03/21,337,337,331,331,18000,331
2012/03/22,331,333,331,333,7000,333
2012/03/23,332,332,330,330,9000,330
2012/03/26,331,331,325,325,17000,325
2012/03/27,325,335,325,335,16000,335
2012/03/28,315,324,315,324,11000,324
2012/03/29,321,329,321,329,10000,329
2012/03/30,331,331,326,326,5000,326
2012/04/02,326,328,323,323,9000,323
2012/04/03,327,327,321,321,12000,321
2012/04/04,319,320,310,310,14000,310
2012/04/05,312,315,312,315,2000,315
2012/04/06,315,319,311,319,7000,319
2012/04/09,315,315,315,315,2000,315
2012/04/10,311,311,308,308,6000,308
2012/04/11,305,305,298,298,8000,298
2012/04/12,298,303,298,303,13000,303
2012/04/13,304,311,304,311,8000,311
2012/04/16,311,311,306,309,7000,309
2012/04/17,309,313,308,312,6000,312
2012/04/18,312,321,312,313,9000,313
2012/04/19,314,320,312,319,13000,319
2012/04/20,324,326,324,326,19000,326
2012/04/23,329,330,329,329,17000,329
2012/04/24,334,334,327,328,14000,328
2012/04/25,328,333,328,333,8000,333
2012/04/26,333,335,332,335,8000,335
2012/04/27,335,336,331,331,15000,331
2012/05/01,326,327,326,327,2000,327
2012/05/02,334,334,333,333,5000,333
2012/05/07,325,326,325,326,3000,326
2012/05/08,325,330,325,330,3000,330
2012/05/09,327,327,324,324,5000,324
2012/05/10,325,332,323,323,13000,323
2012/05/11,323,330,323,329,12000,329
2012/05/14,320,320,316,316,2000,316
2012/05/15,317,317,311,317,4000,317
2012/05/16,314,317,303,303,10000,303
2012/05/17,310,317,306,317,10000,317
2012/05/18,304,311,302,311,15000,311
2012/05/21,308,312,308,312,12000,312
2012/05/22,317,317,305,306,4000,306
2012/05/23,302,303,301,301,12000,301
2012/05/24,301,301,299,299,9000,299
2012/05/25,298,298,291,292,5000,292
2012/05/28,286,294,286,289,6000,289
2012/05/29,290,290,290,290,1000,290
2012/05/30,284,298,283,297,13000,297
2012/05/31,289,291,289,290,10000,290
2012/06/01,286,297,286,295,6000,295
2012/06/04,286,287,286,287,12000,287
2012/06/05,289,289,289,289,7000,289
2012/06/06,287,288,287,288,7000,288
2012/06/07,291,293,291,293,4000,293
2012/06/08,290,290,287,288,29000,288
2012/06/11,286,286,285,285,9000,285
2012/06/12,285,293,284,293,10000,293
2012/06/13,288,288,288,288,2000,288
2012/06/14,282,290,282,290,17000,290
2012/06/15,289,289,282,282,5000,282
2012/06/18,283,289,283,285,4000,285
2012/06/19,292,293,290,290,8000,290
2012/06/20,297,300,296,300,15000,300
2012/06/21,300,300,293,293,15000,293
2012/06/22,300,300,296,296,2000,296
2012/06/25,304,304,300,303,8000,303
2012/06/26,303,307,302,305,12000,305
2012/06/27,312,312,309,309,4000,309
2012/06/28,308,312,307,310,9000,310
2012/06/29,302,335,302,328,12000,328
2012/07/02,327,327,321,327,11000,327
2012/07/03,332,334,330,332,22000,332
2012/07/04,333,334,330,330,12000,330
2012/07/05,330,330,322,324,10000,324
2012/07/06,326,328,326,328,5000,328
2012/07/09,328,328,325,325,4000,325
2012/07/10,330,332,326,330,13000,330
2012/07/11,328,328,326,326,10000,326
2012/07/12,326,326,326,326,2000,326
2012/07/13,328,328,328,328,2000,328
2012/07/17,330,333,312,319,39000,319
2012/07/18,316,317,316,317,2000,317
2012/07/19,322,325,322,323,8000,323
2012/07/20,327,327,323,323,19000,323
2012/07/23,323,327,322,322,12000,322
2012/07/24,322,322,320,320,6000,320
2012/07/25,312,316,309,310,6000,310
2012/07/26,311,316,311,312,5000,312
2012/07/27,313,313,313,313,1000,313
2012/07/30,309,316,309,316,7000,316
2012/07/31,316,316,316,316,1000,316
2012/08/01,308,308,308,308,12000,308
2012/08/02,310,315,310,311,13000,311
2012/08/06,307,307,305,306,3000,306
2012/08/07,314,314,308,309,4000,309
2012/08/08,317,317,307,307,4000,307
2012/08/09,313,317,313,317,6000,317
2012/08/10,318,326,318,326,4000,326
2012/08/13,319,322,314,314,8000,314
2012/08/14,322,324,322,324,3000,324
2012/08/15,316,316,310,313,9000,313
2012/08/16,317,322,314,322,10000,322
2012/08/17,322,328,322,328,7000,328
2012/08/20,329,330,320,329,16000,329
2012/08/21,329,329,326,326,14000,326
2012/08/22,321,326,321,326,7000,326
2012/08/23,326,329,326,326,8000,326
2012/08/24,327,328,327,328,7000,328
2012/08/27,331,331,330,330,4000,330
2012/08/28,330,330,326,326,8000,326
2012/08/29,325,326,325,325,5000,325
2012/08/30,326,327,326,327,3000,327
2012/08/31,322,322,320,320,3000,320
2012/09/03,318,326,318,325,3000,325
2012/09/04,323,323,323,323,2000,323
2012/09/05,318,318,317,317,4000,317
2012/09/06,317,319,316,319,4000,319
2012/09/07,318,318,314,315,4000,315
2012/09/11,315,315,315,315,2000,315
2012/09/12,315,321,313,321,5000,321
2012/09/13,316,316,316,316,2000,316
2012/09/14,320,320,319,320,18000,320
2012/09/18,324,324,315,321,6000,321
2012/09/19,321,323,319,323,5000,323
2012/09/20,324,325,324,325,8000,325
2012/09/21,325,328,325,328,11000,328
2012/09/24,330,330,330,330,4000,330
2012/09/25,330,330,314,330,17000,330
2012/09/26,318,332,318,329,10000,329
2012/09/27,323,333,323,333,5000,333
2012/09/28,335,335,327,329,6000,329
2012/10/01,321,325,321,325,4000,325
2012/10/02,317,325,317,318,4000,318
2012/10/03,314,320,313,313,4000,313
2012/10/04,311,314,311,314,9000,314
2012/10/05,310,310,310,310,2000,310
2012/10/09,310,310,310,310,3000,310
2012/10/10,302,302,298,298,3000,298
2012/10/11,295,296,294,294,4000,294
2012/10/12,292,292,292,292,3000,292
2012/10/15,298,298,298,298,4000,298
2012/10/16,297,297,295,297,6000,297
2012/10/17,298,303,298,303,5000,303
2012/10/18,307,315,307,315,5000,315
2012/10/19,316,316,312,313,15000,313
2012/10/22,313,314,305,314,6000,314
2012/10/23,316,317,315,316,7000,316
2012/10/24,316,320,316,320,9000,320
2012/10/26,318,318,318,318,3000,318
2012/10/30,311,317,239,254,185000,254
2012/10/31,278,283,261,278,140000,278
2012/11/01,281,281,275,276,22000,276
2012/11/02,283,283,280,282,12000,282
2012/11/05,278,279,278,278,12000,278
2012/11/06,280,280,279,279,7000,279
2012/11/07,280,281,278,278,5000,278
2012/11/08,278,278,278,278,2000,278
2012/11/09,278,278,278,278,2000,278
2012/11/12,278,278,278,278,4000,278
2012/11/13,275,278,273,276,8000,276
2012/11/14,271,276,271,273,7000,273
2012/11/15,276,277,271,277,9000,277
2012/11/16,274,281,274,280,8000,280
2012/11/19,285,285,279,279,13000,279
2012/11/20,287,287,284,284,13000,284
2012/11/21,280,284,280,281,26000,281
2012/11/22,281,286,281,285,9000,285
2012/11/26,293,297,290,295,24000,295
2012/11/27,294,297,294,297,18000,297
2012/11/28,300,300,299,299,8000,299
2012/11/29,303,304,302,302,9000,302
2012/11/30,305,309,305,309,12000,309
2012/12/03,314,317,314,317,18000,317
2012/12/04,323,326,315,326,24000,326
2012/12/05,322,323,314,321,12000,321
2012/12/06,321,322,319,320,13000,320
2012/12/07,325,325,322,322,3000,322
2012/12/10,325,325,321,322,17000,322
2012/12/11,325,326,321,326,13000,326
2012/12/12,326,326,325,325,2000,325
2012/12/13,325,346,325,338,15000,338
2012/12/14,352,352,342,347,47000,347
2012/12/17,350,358,349,350,21000,350
2012/12/18,351,351,334,343,24000,343
2012/12/19,346,357,346,357,13000,357
2012/12/20,358,364,357,363,11000,363
2012/12/21,365,365,352,356,19000,356
2012/12/25,360,363,358,363,13000,363
2012/12/26,364,364,362,364,9000,364
2012/12/27,365,370,356,356,23000,356
2012/12/28,348,353,343,343,9000,343
2013/01/04,358,362,356,361,19000,361
2013/01/07,355,367,355,367,8000,367
2013/01/08,366,367,364,367,13000,367
2013/01/09,362,365,362,364,11000,364
2013/01/10,364,370,364,370,11000,370
2013/01/11,374,375,371,371,20000,371
2013/01/15,371,371,368,368,9000,368
2013/01/16,368,371,368,371,6000,371
2013/01/17,371,372,368,369,16000,369
2013/01/18,369,372,369,370,31000,370
2013/01/21,370,374,369,374,15000,374
2013/01/22,374,374,366,366,13000,366
2013/01/23,362,368,361,365,13000,365
2013/01/24,365,365,361,361,9000,361
2013/01/25,368,368,363,363,9000,363
2013/01/28,360,360,352,352,5000,352
2013/01/29,355,355,355,355,3000,355
2013/01/30,356,356,353,355,8000,355
2013/01/31,360,363,357,357,11000,357
2013/02/01,354,354,354,354,3000,354
2013/02/04,354,354,352,352,4000,352
2013/02/05,353,353,330,333,24000,333
2013/02/06,340,340,330,333,17000,333
2013/02/07,334,338,320,324,32000,324
2013/02/08,328,345,323,333,39000,333
2013/02/12,344,350,341,350,30000,350
2013/02/13,350,350,336,337,18000,337
2013/02/14,335,337,331,331,14000,331
2013/02/15,328,331,326,326,15000,326
2013/02/18,330,331,326,331,10000,331
2013/02/19,336,340,336,340,9000,340
2013/02/20,348,348,341,347,20000,347
2013/02/21,342,346,342,343,18000,343
2013/02/22,336,342,333,340,13000,340
2013/02/25,348,350,347,349,23000,349
2013/02/26,347,347,345,346,11000,346
2013/02/27,347,352,346,352,14000,352
2013/02/28,354,354,353,354,7000,354
2013/03/01,351,365,351,358,20000,358
2013/03/04,354,361,350,350,18000,350
2013/03/05,356,357,352,352,7000,352
2013/03/06,352,354,345,350,18000,350
2013/03/07,350,350,347,347,5000,347
2013/03/08,355,355,353,353,52000,353
2013/03/11,357,357,351,351,16000,351
2013/03/12,351,357,351,356,10000,356
2013/03/13,355,355,354,355,9000,355
2013/03/14,353,353,349,350,9000,350
2013/03/15,352,356,351,351,11000,351
2013/03/18,355,360,355,360,11000,360
2013/03/19,360,360,358,358,14000,358
2013/03/21,365,365,352,358,43000,358
2013/03/22,354,356,350,350,15000,350
2013/03/25,355,357,349,351,27000,351
2013/03/26,355,360,351,359,25000,359
2013/03/27,347,354,347,351,12000,351
2013/03/28,347,352,347,351,12000,351
2013/03/29,355,355,346,346,10000,346
2013/04/01,340,341,336,336,5000,336
2013/04/02,334,334,329,329,14000,329
2013/04/03,329,337,329,337,5000,337
2013/04/04,332,338,332,338,6000,338
2013/04/05,354,355,345,349,15000,349
2013/04/08,351,360,343,360,27000,360
2013/04/09,361,361,348,348,12000,348
2013/04/10,346,353,346,353,10000,353
2013/04/11,353,358,353,357,16000,357
2013/04/12,351,353,351,352,8000,352
2013/04/15,347,352,347,352,6000,352
2013/04/16,352,353,347,347,18000,347
2013/04/17,348,353,348,353,7000,353
2013/04/18,355,357,355,355,13000,355
2013/04/19,357,359,357,357,16000,357
2013/04/22,360,361,356,356,34000,356
2013/04/23,361,368,358,368,68000,368
2013/04/24,371,376,361,375,47000,375
2013/04/25,371,372,367,367,24000,367
2013/04/26,370,370,354,359,24000,359
2013/04/30,351,361,351,351,118000,351
2013/05/01,352,353,352,353,13000,353
2013/05/02,353,353,350,352,11000,352
2013/05/07,360,362,360,360,13000,360
2013/05/08,363,365,361,363,19000,363
2013/05/09,365,365,361,361,9000,361
2013/05/10,366,376,362,375,33000,375
2013/05/13,367,375,365,372,34000,372
2013/05/14,366,375,366,372,25000,372
2013/05/15,375,380,372,373,28000,373
2013/05/16,369,373,345,357,43000,357
2013/05/17,357,360,353,360,17000,360
2013/05/20,368,374,365,370,22000,370
2013/05/21,374,374,365,370,36000,370
2013/05/22,370,374,367,371,19000,371
2013/05/23,372,373,356,356,25000,356
2013/05/24,356,356,349,355,22000,355
2013/05/27,353,353,330,335,21000,335
2013/05/28,340,348,326,329,27000,329
2013/05/29,344,344,332,335,15000,335
2013/05/30,329,336,329,330,20000,330
2013/05/31,330,334,327,334,15000,334
2013/06/03,330,330,317,317,18000,317
2013/06/04,321,327,317,322,10000,322
2013/06/05,329,329,320,321,11000,321
2013/06/06,318,318,310,310,15000,310
2013/06/07,300,308,284,284,17000,284
2013/06/10,300,317,300,317,20000,317
2013/06/11,325,325,312,319,19000,319
2013/06/12,312,320,312,318,9000,318
2013/06/13,318,319,312,313,15000,313
2013/06/14,321,333,321,333,67000,333
2013/06/17,334,348,334,348,12000,348
2013/06/18,341,349,322,330,16000,330
2013/06/19,339,343,335,339,26000,339
2013/06/20,344,344,336,340,20000,340
2013/06/21,339,339,331,331,15000,331
2013/06/24,340,341,331,339,19000,339
2013/06/25,345,345,334,337,12000,337
2013/06/26,344,344,316,317,20000,317
2013/06/27,320,324,317,324,6000,324
2013/06/28,330,330,325,330,15000,330
2013/07/01,339,339,331,339,29000,339
2013/07/02,339,352,339,351,28000,351
2013/07/03,355,355,344,349,19000,349
2013/07/04,349,349,348,348,3000,348
2013/07/05,352,352,351,351,6000,351
2013/07/08,354,370,348,348,31000,348
2013/07/09,351,352,344,344,8000,344
2013/07/10,352,357,352,357,17000,357
2013/07/11,361,361,357,361,15000,361
2013/07/12,350,351,346,348,32000,348
2013/07/16,355,355,347,350,20000,350
2013/07/17,353,353,345,347,9000,347
2013/07/18,347,353,347,353,9000,353
2013/07/19,350,352,339,339,21000,339
2013/07/22,339,341,339,341,7000,341
2013/07/23,345,349,343,344,9000,344
2013/07/24,349,352,349,350,6000,350
2013/07/25,354,354,346,346,11000,346
2013/07/26,346,346,342,343,8000,343
2013/07/29,335,335,327,327,6000,327
2013/07/30,327,335,325,335,11000,335
2013/07/31,337,337,331,331,7000,331
2013/08/01,331,331,331,331,1000,331
2013/08/02,330,336,330,332,4000,332
2013/08/05,338,338,338,338,2000,338
2013/08/06,340,340,331,331,8000,331
2013/08/07,334,334,330,330,7000,330
2013/08/08,330,330,326,326,5000,326
2013/08/09,334,346,330,346,20000,346
2013/08/12,346,354,335,340,20000,340
2013/08/13,345,345,338,340,6000,340
2013/08/14,339,345,338,344,7000,344
2013/08/15,338,343,333,336,15000,336
2013/08/16,336,340,330,336,15000,336
2013/08/19,336,340,336,340,4000,340
2013/08/20,338,341,338,339,9000,339
2013/08/21,343,343,339,339,16000,339
2013/08/22,340,340,340,340,2000,340
2013/08/23,345,345,339,339,9000,339
2013/08/26,343,343,341,341,7000,341
2013/08/27,340,340,339,339,6000,339
2013/08/28,339,339,335,335,8000,335
2013/08/29,328,330,325,325,6000,325
2013/08/30,326,330,325,325,13000,325
2013/09/02,325,335,325,332,8000,332
2013/09/03,335,338,335,337,4000,337
2013/09/04,335,335,335,335,4000,335
2013/09/05,327,334,327,331,14000,331
2013/09/06,336,340,336,336,9000,336
2013/09/09,376,380,352,365,91000,365
2013/09/10,365,438,365,418,136000,418
2013/09/11,426,498,426,446,586000,446
2013/09/12,422,428,415,420,176000,420
2013/09/13,420,422,415,422,107000,422
2013/09/17,422,422,415,419,93000,419
2013/09/18,420,421,417,417,57000,417
2013/09/19,420,420,416,419,32000,419
2013/09/20,424,424,418,419,50000,419
2013/09/24,418,420,410,417,46000,417
2013/09/25,418,418,402,409,36000,409
2013/09/26,400,401,386,401,94000,401
2013/09/27,405,405,393,398,31000,398
2013/09/30,397,404,386,400,37000,400
2013/10/01,401,402,392,394,18000,394
2013/10/02,387,394,376,377,42000,377
2013/10/03,373,384,373,382,23000,382
2013/10/04,372,378,364,369,40000,369
2013/10/07,371,372,363,367,24000,367
2013/10/08,359,369,359,366,14000,366
2013/10/09,361,395,361,395,27000,395
2013/10/10,389,397,381,387,26000,387
2013/10/11,390,390,386,387,12000,387
2013/10/15,393,393,392,393,18000,393
2013/10/16,393,395,385,390,23000,390
2013/10/17,392,392,389,389,8000,389
2013/10/18,387,396,387,393,20000,393
2013/10/21,385,397,383,389,22000,389
2013/10/22,392,401,392,401,34000,401
2013/10/23,404,408,400,401,30000,401
2013/10/24,406,409,406,408,13000,408
2013/10/25,408,408,399,399,11000,399
2013/10/28,400,410,400,407,11000,407
2013/10/29,410,439,410,431,87000,431
2013/10/30,435,448,407,448,139000,448
2013/10/31,440,440,415,417,38000,417
2013/11/01,411,440,411,424,45000,424
2013/11/05,427,430,424,424,13000,424
2013/11/06,424,424,409,421,13000,421
2013/11/07,418,423,415,415,11000,415
2013/11/08,415,426,415,422,12000,422
2013/11/11,429,465,423,428,126000,428
2013/11/12,436,437,422,431,41000,431
2013/11/13,439,447,434,440,56000,440
2013/11/14,440,440,425,428,25000,428
2013/11/15,428,431,427,427,20000,427
2013/11/18,426,428,419,422,15000,422
2013/11/19,423,423,412,414,32000,414
2013/11/20,414,417,411,417,38000,417
2013/11/21,417,420,417,418,37000,418
2013/11/22,412,414,412,414,16000,414
2013/11/25,414,432,414,432,63000,432
2013/11/26,430,430,417,421,105000,421
2013/11/27,422,422,417,420,30000,420
2013/11/28,420,421,418,419,6000,419
2013/11/29,421,421,418,419,8000,419
2013/12/02,415,421,415,421,12000,421
2013/12/03,421,421,418,418,24000,418
2013/12/04,419,420,417,417,26000,417
2013/12/05,418,418,407,417,27000,417
2013/12/06,415,420,412,412,32000,412
2013/12/09,420,420,414,417,22000,417
2013/12/10,417,418,416,418,22000,418
2013/12/11,415,419,410,416,16000,416
2013/12/12,412,412,412,412,7000,412
2013/12/13,410,411,406,409,75000,409
2013/12/16,409,409,397,402,18000,402
2013/12/17,398,405,397,402,23000,402
2013/12/18,405,405,402,405,22000,405
2013/12/19,405,405,400,404,30000,404
2013/12/20,398,399,389,395,60000,395
2013/12/24,397,401,397,398,35000,398
2013/12/25,400,400,396,400,26000,400
2013/12/26,401,413,401,413,18000,413
2013/12/27,415,416,410,416,24000,416
2013/12/30,424,424,416,423,14000,423
2014/01/06,423,434,422,434,38000,434
2014/01/07,436,440,434,437,12000,437
2014/01/08,437,438,434,434,21000,434
2014/01/09,434,434,432,433,14000,433
2014/01/10,436,436,431,436,17000,436
2014/01/14,437,439,435,435,30000,435
2014/01/15,432,437,432,437,9000,437
2014/01/16,434,434,412,427,37000,427
2014/01/17,426,434,426,433,13000,433
2014/01/20,428,435,428,435,24000,435
2014/01/21,435,436,434,436,17000,436
2014/01/22,433,434,432,432,17000,432
2014/01/23,438,438,430,430,29000,430
2014/01/24,430,430,412,416,31000,416
2014/01/27,416,416,403,403,27000,403
2014/01/28,404,407,402,402,34000,402
2014/01/29,402,406,402,406,16000,406
2014/01/30,403,404,395,397,32000,397
2014/01/31,398,407,398,400,19000,400
2014/02/03,400,400,384,399,17000,399
2014/02/04,379,379,364,365,49000,365
2014/02/05,369,378,340,357,64000,357
2014/02/06,365,378,362,376,30000,376
2014/02/07,392,392,372,382,35000,382
2014/02/10,400,401,394,395,36000,395
2014/02/12,399,442,399,407,137000,407
2014/02/13,418,418,408,416,73000,416
2014/02/14,427,440,418,424,54000,424
2014/02/17,425,426,416,417,22000,417
2014/02/18,421,424,420,420,21000,420
2014/02/19,418,418,413,413,5000,413
2014/02/20,413,413,390,395,54000,395
2014/02/21,397,404,397,404,28000,404
2014/02/24,404,405,398,400,9000,400
2014/02/25,415,431,415,424,75000,424
2014/02/26,408,419,408,418,23000,418
2014/02/27,412,412,407,410,12000,410
2014/02/28,409,410,409,410,7000,410
2014/03/03,408,408,402,403,8000,403
2014/03/04,411,419,411,417,33000,417
2014/03/05,417,418,417,418,7000,418
2014/03/06,417,420,416,420,10000,420
2014/03/07,419,420,418,420,5000,420
2014/03/10,416,419,415,417,12000,417
2014/03/11,417,421,417,421,5000,421
2014/03/12,421,421,419,420,10000,420
2014/03/13,420,423,418,420,11000,420
2014/03/14,410,410,398,399,66000,399
2014/03/17,415,423,401,405,53000,405
2014/03/18,418,418,408,410,9000,410
2014/03/19,417,417,411,411,17000,411
2014/03/20,417,417,410,410,15000,410
2014/03/24,410,423,398,398,37000,398
2014/03/25,414,414,406,412,23000,412
2014/03/26,420,420,414,419,34000,419
2014/03/27,423,425,415,421,35000,421
2014/03/28,428,437,428,434,43000,434
2014/03/31,441,451,433,441,33000,441
2014/04/01,446,449,445,448,36000,448
2014/04/02,449,455,444,448,40000,448
2014/04/03,448,449,440,449,33000,449
2014/04/04,448,450,446,447,21000,447
2014/04/07,444,444,425,425,7000,425
2014/04/08,427,435,424,424,24000,424
2014/04/09,421,428,410,423,31000,423
2014/04/10,423,423,420,420,11000,420
2014/04/11,420,420,413,414,9000,414
2014/04/14,417,425,417,419,10000,419
2014/04/15,416,416,416,416,3000,416
2014/04/16,417,418,417,417,12000,417
2014/04/17,425,425,419,423,13000,423
2014/04/18,424,428,424,428,12000,428
2014/04/21,428,438,428,432,18000,432
2014/04/22,432,432,427,428,12000,428
2014/04/23,422,425,414,415,31000,415
2014/04/24,420,423,420,423,6000,423
2014/04/25,417,430,417,427,11000,427
2014/04/28,430,431,430,430,14000,430
2014/04/30,435,435,434,434,3000,434
2014/05/01,435,436,431,433,12000,433
2014/05/02,430,430,416,421,26000,421
2014/05/07,415,417,414,415,19000,415
2014/05/08,418,418,412,412,6000,412
2014/05/09,411,412,405,405,20000,405
2014/05/12,402,404,401,401,4000,401
2014/05/13,404,405,396,398,34000,398
2014/05/14,393,398,390,390,20000,390
2014/05/15,395,396,385,385,25000,385
2014/05/16,389,389,379,379,17000,379
2014/05/19,371,382,371,376,39000,376
2014/05/20,376,377,373,373,15000,373
2014/05/21,373,379,371,379,15000,379
2014/05/22,379,385,379,384,6000,384
2014/05/23,392,393,377,386,25000,386
2014/05/26,394,396,390,391,16000,391
2014/05/27,391,394,391,394,5000,394
2014/05/28,395,401,395,401,12000,401
2014/05/29,393,400,392,398,17000,398
2014/05/30,398,399,398,398,8000,398
2014/06/02,405,417,401,405,17000,405
2014/06/03,402,405,399,399,9000,399
2014/06/04,399,399,391,392,22000,392
2014/06/05,391,395,391,395,9000,395
2014/06/06,396,398,395,396,10000,396
2014/06/09,396,410,396,400,14000,400
2014/06/10,400,400,396,396,7000,396
2014/06/11,401,401,399,399,21000,399
2014/06/12,396,402,396,402,9000,402
2014/06/13,404,406,400,404,41000,404
2014/06/16,402,410,402,406,11000,406
2014/06/17,412,412,407,409,13000,409
2014/06/18,409,412,409,411,7000,411
2014/06/19,408,417,408,417,17000,417
2014/06/20,418,420,414,414,12000,414
2014/06/23,419,421,415,420,18000,420
2014/06/24,419,420,418,420,9000,420
2014/06/25,421,421,420,420,2000,420
2014/06/26,417,423,417,423,15000,423
2014/06/27,420,422,414,414,18000,414
2014/06/30,414,422,414,418,7000,418
2014/07/01,417,417,417,417,2000,417
2014/07/02,422,422,418,420,22000,420
2014/07/03,419,425,419,420,18000,420
2014/07/04,423,423,419,419,12000,419
2014/07/07,417,419,417,419,2000,419
2014/07/08,410,419,406,417,30000,417
2014/07/09,417,417,408,408,14000,408
2014/07/10,416,416,410,412,18000,412
2014/07/11,412,414,410,412,19000,412
2014/07/14,419,419,414,414,8000,414
2014/07/15,413,414,412,413,8000,413
2014/07/16,409,413,402,406,28000,406
2014/07/17,406,409,399,405,30000,405
2014/07/18,403,409,401,406,28000,406
2014/07/22,405,411,401,408,25000,408
2014/07/23,412,413,409,409,19000,409
2014/07/24,415,415,411,414,23000,414
2014/07/25,411,419,401,410,43000,410
2014/07/28,412,413,406,413,25000,413
2014/07/29,414,416,411,412,13000,412
2014/07/30,415,419,414,415,24000,415
2014/07/31,419,430,418,418,62000,418
2014/08/01,417,417,414,415,20000,415
2014/08/04,413,414,413,413,12000,413
2014/08/05,413,419,413,413,13000,413
2014/08/06,415,416,407,407,25000,407
2014/08/07,412,412,407,411,16000,411
2014/08/08,414,425,403,417,66000,417
2014/08/11,428,429,415,416,26000,416
2014/08/12,420,420,416,417,14000,417
2014/08/13,419,425,418,423,29000,423
2014/08/14,429,435,425,434,48000,434
2014/08/15,437,438,428,431,32000,431
2014/08/18,430,442,430,442,33000,442
2014/08/19,451,459,447,458,92000,458
2014/08/20,459,468,459,466,61000,466
2014/08/21,467,468,452,466,74000,466
2014/08/22,460,462,458,458,28000,458
2014/08/25,458,460,448,451,20000,451
2014/08/26,460,460,455,460,47000,460
2014/08/27,467,485,462,481,111000,481
2014/08/28,497,525,494,520,206000,520
2014/08/29,510,515,503,510,86000,510
2014/09/01,508,510,501,509,39000,509
2014/09/02,518,518,503,509,75000,509
2014/09/03,505,516,493,516,61000,516
2014/09/04,510,516,507,509,41000,509
2014/09/05,509,516,506,510,19000,510
2014/09/08,520,524,515,520,40000,520
2014/09/09,521,521,515,516,15000,516
2014/09/10,506,520,506,516,42000,516
2014/09/11,517,517,495,512,26000,512
2014/09/12,512,512,505,507,49000,507
2014/09/16,505,508,504,508,16000,508
2014/09/17,512,512,511,511,13000,511
2014/09/18,511,515,509,510,18000,510
2014/09/19,510,510,505,508,29000,508
2014/09/22,508,514,508,512,18000,512
2014/09/24,512,519,512,518,26000,518
2014/09/25,529,530,522,530,69000,530
2014/09/26,527,543,527,533,41000,533
2014/09/29,543,543,533,539,33000,539
2014/09/30,537,539,528,531,25000,531
2014/10/01,538,538,529,534,23000,534
2014/10/02,526,529,519,525,46000,525
2014/10/03,515,526,515,525,25000,525
2014/10/06,521,530,521,526,15000,526
2014/10/07,533,536,530,530,38000,530
2014/10/08,526,533,526,531,36000,531
2014/10/09,532,536,520,522,29000,522
2014/10/10,518,523,518,520,54000,520
2014/10/14,509,509,500,503,30000,503
2014/10/15,493,495,481,483,40000,483
2014/10/16,482,490,482,484,16000,484
2014/10/17,484,498,483,484,31000,484
2014/10/20,509,519,509,514,37000,514
2014/10/21,514,521,490,492,39000,492
2014/10/22,492,508,492,505,13000,505
2014/10/23,509,521,509,513,15000,513
2014/10/24,523,523,508,508,13000,508
2014/10/27,518,519,512,519,9000,519
2014/10/28,520,525,515,517,13000,517
2014/10/29,516,525,515,517,13000,517
2014/10/30,517,525,512,519,24000,519
2014/10/31,519,530,519,523,46000,523
2014/11/04,540,540,530,530,42000,530
2014/11/05,533,538,516,516,60000,516
2014/11/06,518,530,518,525,19000,525
2014/11/07,529,532,512,530,40000,530
2014/11/10,520,534,520,525,19000,525
2014/11/11,525,570,520,549,138000,549
2014/11/12,569,569,540,543,163000,543
2014/11/13,538,539,530,534,39000,534
2014/11/14,544,545,534,545,58000,545
2014/11/17,536,537,528,530,33000,530
2014/11/18,535,545,532,545,54000,545
2014/11/19,551,551,534,534,41000,534
2014/11/20,546,551,532,540,53000,540
2014/11/21,539,539,531,535,36000,535
2014/11/25,535,544,535,540,28000,540
2014/11/26,539,542,536,536,32000,536
2014/11/27,537,544,534,535,34000,535
2014/11/28,535,544,533,543,32000,543
2014/12/01,544,550,543,547,66000,547
2014/12/02,547,549,541,545,48000,545
2014/12/03,548,548,540,543,38000,543
2014/12/04,547,548,544,546,40000,546
2014/12/05,548,556,547,554,49000,554
2014/12/08,554,554,547,550,39000,550
2014/12/09,545,553,542,545,26000,545
2014/12/10,546,555,544,555,44000,555
2014/12/11,537,548,532,532,50000,532
2014/12/12,530,545,530,544,67000,544
2014/12/15,540,552,539,545,70000,545
2014/12/16,540,550,520,522,85000,522
2014/12/17,522,528,521,523,55000,523
2014/12/18,529,538,528,538,19000,538
2014/12/19,550,553,538,551,54000,551
2014/12/22,547,549,539,545,30000,545
2014/12/24,550,550,545,549,30000,549
2014/12/25,551,551,542,546,11000,546
2014/12/26,550,565,547,563,52000,563
2014/12/29,568,570,564,568,41000,568
2014/12/30,570,590,559,588,87000,588
2015/01/05,610,610,598,606,78000,606
2015/01/06,599,609,599,605,59000,605
2015/01/07,608,613,600,606,101000,606
2015/01/08,612,618,609,617,61000,617
2015/01/09,618,624,616,623,65000,623
2015/01/13,624,636,615,634,49000,634
2015/01/14,641,658,594,595,142000,595
2015/01/15,603,624,600,622,71000,622
2015/01/16,622,636,622,635,46000,635
2015/01/19,635,640,623,636,102000,636
2015/01/20,634,641,634,641,75000,641
2015/01/21,634,650,634,647,34000,647
2015/01/22,648,650,632,642,27000,642
2015/01/23,647,655,636,655,38000,655
2015/01/26,662,685,659,678,79000,678
2015/01/27,685,685,666,678,33000,678
2015/01/28,668,689,668,689,38000,689
2015/01/29,680,692,672,677,43000,677
2015/01/30,689,704,687,690,100000,690
2015/02/02,694,696,681,690,38000,690
2015/02/03,686,699,663,665,75000,665
2015/02/04,668,687,668,684,29000,684
2015/02/05,683,683,671,676,26000,676
2015/02/06,676,685,667,685,39000,685
2015/02/09,690,724,690,710,192000,710
2015/02/10,695,722,695,720,80000,720
2015/02/12,725,738,725,728,77000,728
2015/02/13,743,749,743,743,80000,743
2015/02/16,745,749,720,724,61000,724
2015/02/17,714,718,701,716,71000,716
2015/02/18,731,731,718,719,34000,719
2015/02/19,724,735,724,734,41000,734
2015/02/20,735,748,732,739,90000,739
2015/02/23,749,749,729,730,44000,730
2015/02/24,742,746,731,734,54000,734
2015/02/25,736,739,731,735,48000,735
2015/02/26,736,736,723,733,39000,733
2015/02/27,737,737,722,729,30000,729
2015/03/02,727,728,698,705,94000,705
2015/03/03,700,710,700,702,33000,702
2015/03/04,700,704,682,690,127000,690
2015/03/05,688,700,688,696,47000,696
2015/03/06,696,705,696,698,41000,698
2015/03/09,697,704,697,702,33000,702
2015/03/10,712,712,697,707,38000,707
2015/03/11,705,710,704,710,31000,710
2015/03/12,713,747,711,734,89000,734
2015/03/13,734,749,734,741,66000,741
2015/03/16,734,741,734,735,28000,735
2015/03/17,744,744,731,734,26000,734
2015/03/18,731,734,727,729,43000,729
2015/03/19,723,735,718,727,32000,727
2015/03/20,727,734,723,733,23000,733
2015/03/23,734,739,727,739,42000,739
2015/03/24,730,730,724,725,40000,725
2015/03/25,721,723,689,693,226000,693
2015/03/26,685,701,684,693,228000,693
2015/03/27,697,715,693,696,63000,696
2015/03/30,690,696,690,695,29000,695
2015/03/31,700,705,694,705,71000,705
2015/04/01,692,701,691,695,74000,695
2015/04/02,703,709,697,705,78000,705
2015/04/03,705,705,696,699,35000,699
2015/04/06,695,696,685,690,36000,690
2015/04/07,690,700,689,697,40000,697
2015/04/08,702,702,683,692,20000,692
2015/04/09,696,696,688,690,19000,690
2015/04/10,698,700,686,695,33000,695
2015/04/13,703,703,690,694,23000,694
2015/04/14,697,697,688,688,9000,688
2015/04/15,693,705,693,702,45000,702
2015/04/16,704,704,691,699,29000,699
2015/04/17,693,696,688,688,21000,688
2015/04/20,685,685,679,683,27000,683
2015/04/21,684,690,684,689,14000,689
2015/04/22,690,690,685,687,8000,687
2015/04/23,685,688,674,679,43000,679
2015/04/24,679,685,679,680,8000,680
2015/04/27,677,683,677,681,18000,681
2015/04/28,671,689,671,683,46000,683
2015/04/30,680,680,675,675,23000,675
2015/05/01,669,674,659,673,49000,673
2015/05/07,673,674,664,664,15000,664
2015/05/08,664,664,660,662,31000,662
2015/05/11,670,673,664,668,33000,668
2015/05/12,668,676,668,675,20000,675
2015/05/13,679,684,664,664,84000,664
2015/05/14,654,660,640,642,73000,642
2015/05/15,645,650,643,646,27000,646
2015/05/18,645,651,644,650,41000,650
2015/05/19,644,650,641,648,40000,648
2015/05/20,653,653,648,653,44000,653
2015/05/21,651,663,651,662,37000,662
2015/05/22,662,662,657,660,12000,660
2015/05/25,656,664,654,660,20000,660
2015/05/26,660,660,658,660,10000,660
2015/05/27,654,663,654,662,31000,662
2015/05/28,659,661,654,658,40000,658
2015/05/29,658,670,658,670,25000,670
2015/06/01,675,676,660,674,28000,674
2015/06/02,667,669,666,667,7000,667
2015/06/03,663,674,663,666,45000,666
2015/06/04,668,673,668,671,10000,671
2015/06/05,672,672,667,667,33000,667
2015/06/08,670,673,666,666,30000,666
2015/06/09,668,669,653,653,42000,653
2015/06/10,653,666,653,659,39000,659
2015/06/11,667,667,653,661,29000,661
2015/06/12,669,669,658,665,63000,665
2015/06/15,669,670,662,667,23000,667
2015/06/16,670,670,665,667,10000,667
2015/06/17,667,667,659,660,31000,660
2015/06/18,660,663,657,657,22000,657
2015/06/19,663,663,655,655,28000,655
2015/06/22,655,658,652,653,42000,653
2015/06/23,653,659,651,659,31000,659
2015/06/24,659,662,655,660,26000,660
2015/06/25,660,665,659,663,16000,663
2015/06/26,658,665,658,664,11000,664
2015/06/29,662,662,647,655,47000,655
2015/06/30,655,655,638,652,29000,652
2015/07/01,647,650,638,643,27600,643
