2011/01/04,36,37,35,37,191000,37
2011/01/05,37,37,36,37,56000,37
2011/01/06,37,39,37,39,515000,39
2011/01/07,39,40,38,40,399000,40
2011/01/11,40,41,40,41,436000,41
2011/01/12,41,42,40,40,398000,40
2011/01/13,41,41,39,39,237000,39
2011/01/14,39,39,38,39,191000,39
2011/01/17,39,40,39,39,109000,39
2011/01/18,39,40,39,40,96000,40
2011/01/19,40,40,39,40,38000,40
2011/01/20,39,40,39,39,92000,39
2011/01/21,39,40,37,37,409000,37
2011/01/24,36,37,35,37,191000,37
2011/01/25,37,39,36,39,198000,39
2011/01/26,38,39,38,38,43000,38
2011/01/27,38,39,38,39,107000,39
2011/01/28,38,38,37,37,138000,37
2011/01/31,37,38,36,38,249000,38
2011/02/01,38,38,36,38,174000,38
2011/02/02,38,39,38,39,183000,39
2011/02/03,39,39,37,38,140000,38
2011/02/04,38,39,38,38,179000,38
2011/02/07,39,39,38,38,42000,38
2011/02/08,38,39,37,37,250000,37
2011/02/09,38,39,37,38,187000,38
2011/02/10,38,39,37,39,185000,39
2011/02/14,38,39,37,37,117000,37
2011/02/15,38,39,37,39,121000,39
2011/02/16,38,39,38,38,144000,38
2011/02/17,38,39,38,38,134000,38
2011/02/18,38,39,38,38,32000,38
2011/02/21,39,39,38,38,94000,38
2011/02/22,38,38,37,37,125000,37
2011/02/23,37,39,37,37,498000,37
2011/02/24,37,38,37,37,107000,37
2011/02/25,37,37,36,36,323000,36
2011/02/28,36,39,36,38,200000,38
2011/03/01,39,39,38,38,197000,38
2011/03/02,38,38,37,37,153000,37
2011/03/03,37,38,36,37,459000,37
2011/03/04,38,47,37,41,5400000,41
2011/03/07,42,42,39,40,785000,40
2011/03/08,40,41,39,39,241000,39
2011/03/09,40,41,39,39,281000,39
2011/03/10,39,39,36,37,741000,37
2011/03/11,36,38,36,38,802000,38
2011/03/14,58,68,47,68,13915000,68
2011/03/15,78,78,52,59,7700000,59
2011/03/16,55,59,52,55,2032000,55
2011/03/17,50,55,47,51,2268000,51
2011/03/18,51,56,51,53,1234000,53
2011/03/22,58,78,55,73,8267000,73
2011/03/23,77,103,76,103,20178000,103
2011/03/24,138,140,126,136,14125000,136
2011/03/25,135,135,110,115,7869000,115
2011/03/28,103,105,90,90,5262000,90
2011/03/29,87,107,86,101,11774000,101
2011/03/30,106,118,98,100,7690000,100
2011/03/31,99,101,92,94,1772000,94
2011/04/01,97,101,93,96,3319000,96
2011/04/04,99,104,97,99,5216000,99
2011/04/05,105,105,96,97,2928000,97
2011/04/06,97,98,89,89,2037000,89
2011/04/07,86,89,80,82,2573000,82
2011/04/08,85,89,81,82,2733000,82
2011/04/11,82,86,81,83,2776000,83
2011/04/12,82,84,79,79,1330000,79
2011/04/13,78,81,77,81,1562000,81
2011/04/14,78,82,78,80,1393000,80
2011/04/15,80,80,78,78,967000,78
2011/04/18,78,78,73,74,1167000,74
2011/04/19,71,72,69,70,1402000,70
2011/04/20,71,74,69,69,1260000,69
2011/04/21,71,71,65,66,1700000,66
2011/04/22,65,67,63,66,1838000,66
2011/04/25,69,71,67,67,1897000,67
2011/04/26,68,69,65,65,663000,65
2011/04/27,65,66,62,63,1026000,63
2011/04/28,63,66,62,65,889000,65
2011/05/02,70,75,67,75,2684000,75
2011/05/06,73,103,72,92,21169000,92
2011/05/09,102,113,99,106,25507000,106
2011/05/10,105,106,97,100,5359000,100
2011/05/11,99,99,93,93,2400000,93
2011/05/12,91,102,91,93,3414000,93
2011/05/13,93,94,86,88,1935000,88
2011/05/16,83,87,78,79,2863000,79
2011/05/17,80,80,74,75,1589000,75
2011/05/18,74,90,73,88,7116000,88
2011/05/19,91,94,84,84,4684000,84
2011/05/20,87,88,81,81,995000,81
2011/05/23,81,81,77,78,752000,78
2011/05/24,78,87,77,82,2920000,82
2011/05/25,84,85,78,78,943000,78
2011/05/26,78,82,76,79,2278000,79
2011/05/27,80,82,78,79,1630000,79
2011/05/30,80,81,78,79,778000,79
2011/05/31,80,82,79,79,1399000,79
2011/06/01,81,86,79,86,2712000,86
2011/06/02,84,90,82,84,7253000,84
2011/06/03,85,86,81,83,1860000,83
2011/06/06,84,86,81,81,1987000,81
2011/06/07,81,82,79,81,1295000,81
2011/06/08,81,81,79,80,1059000,80
2011/06/09,80,81,79,79,592000,79
2011/06/10,80,81,78,78,564000,78
2011/06/13,78,83,78,83,1273000,83
2011/06/14,82,84,81,83,830000,83
2011/06/15,83,84,80,80,1104000,80
2011/06/16,80,83,79,80,657000,80
2011/06/17,80,81,79,79,346000,79
2011/06/20,79,81,79,81,409000,81
2011/06/21,81,84,80,83,2472000,83
2011/06/22,83,84,81,83,1011000,83
2011/06/23,83,87,83,87,2599000,87
2011/06/24,87,88,85,86,1694000,86
2011/06/27,86,86,82,83,1232000,83
2011/06/28,84,84,82,82,491000,82
2011/06/29,83,84,82,83,353000,83
2011/06/30,83,83,81,83,309000,83
2011/07/01,83,83,81,83,276000,83
2011/07/04,82,83,82,82,412000,82
2011/07/05,82,84,82,83,663000,83
2011/07/06,84,84,82,82,337000,82
2011/07/07,82,84,81,82,526000,82
2011/07/08,83,83,82,82,191000,82
2011/07/11,82,83,81,81,237000,81
2011/07/12,81,82,78,78,1046000,78
2011/07/13,78,80,78,79,270000,79
2011/07/14,80,81,79,79,197000,79
2011/07/15,79,80,78,79,445000,79
2011/07/19,79,80,78,79,91000,79
2011/07/20,79,80,78,79,252000,79
2011/07/21,80,80,78,79,293000,79
2011/07/22,79,80,78,79,323000,79
2011/07/25,79,80,78,79,312000,79
2011/07/26,79,80,78,79,233000,79
2011/07/27,79,79,76,78,511000,78
2011/07/28,77,77,72,74,871000,74
2011/07/29,75,76,72,73,436000,73
2011/08/01,71,75,71,74,725000,74
2011/08/02,72,73,69,69,738000,69
2011/08/03,68,68,65,66,750000,66
2011/08/04,66,68,66,66,470000,66
2011/08/05,60,62,59,62,1560000,62
2011/08/08,61,62,57,58,1173000,58
2011/08/09,53,58,52,58,1693000,58
2011/08/10,61,65,60,63,1970000,63
2011/08/11,59,72,59,69,3228000,69
2011/08/12,69,71,67,67,1772000,67
2011/08/15,69,72,68,69,1686000,69
2011/08/16,70,71,68,69,890000,69
2011/08/17,69,76,69,76,2344000,76
2011/08/18,76,77,72,72,1945000,72
2011/08/19,70,72,69,70,1007000,70
2011/08/22,71,73,68,69,708000,69
2011/08/23,70,71,70,71,219000,71
2011/08/24,73,73,68,68,1053000,68
2011/08/25,69,71,69,70,329000,70
2011/08/26,69,72,69,72,434000,72
2011/08/29,72,75,71,73,1071000,73
2011/08/30,74,74,72,73,738000,73
2011/08/31,74,74,72,72,517000,72
2011/09/01,74,74,72,72,340000,72
2011/09/02,72,73,70,72,430000,72
2011/09/05,70,73,70,73,651000,73
2011/09/06,73,73,70,71,772000,71
2011/09/07,71,71,70,71,176000,71
2011/09/08,71,71,69,70,214000,70
2011/09/09,69,71,69,70,173000,70
2011/09/12,69,69,67,68,237000,68
2011/09/13,69,69,67,69,148000,69
2011/09/14,68,68,64,64,374000,64
2011/09/15,66,66,64,66,366000,66
2011/09/16,67,68,66,68,242000,68
2011/09/20,67,68,66,66,226000,66
2011/09/21,67,67,66,66,175000,66
2011/09/22,65,66,62,65,725000,65
2011/09/26,65,65,55,55,958000,55
2011/09/27,58,59,57,59,461000,59
2011/09/28,58,62,58,62,393000,62
2011/09/29,59,65,59,65,1074000,65
2011/09/30,66,67,63,64,326000,64
2011/10/03,63,67,63,65,888000,65
2011/10/04,64,66,62,65,641000,65
2011/10/05,65,65,61,61,544000,61
2011/10/06,62,64,61,63,156000,63
2011/10/07,64,65,63,65,143000,65
2011/10/11,66,68,66,66,400000,66
2011/10/12,68,70,66,69,723000,69
2011/10/13,70,70,69,70,382000,70
2011/10/14,69,73,68,68,1188000,68
2011/10/17,70,70,68,69,318000,69
2011/10/18,68,71,68,69,435000,69
2011/10/19,69,70,66,67,308000,67
2011/10/20,67,68,66,67,125000,67
2011/10/21,66,67,65,66,293000,66
2011/10/24,68,68,66,68,161000,68
2011/10/25,68,69,67,69,291000,69
2011/10/26,68,68,67,68,72000,68
2011/10/27,68,68,66,67,131000,67
2011/10/28,71,71,68,70,839000,70
2011/10/31,70,71,69,70,258000,70
2011/11/01,68,70,67,68,292000,68
2011/11/02,67,68,66,67,657000,67
2011/11/04,67,68,67,68,273000,68
2011/11/07,66,68,66,67,456000,67
2011/11/08,67,67,65,65,437000,65
2011/11/09,65,66,64,65,378000,65
2011/11/10,63,64,61,61,290000,61
2011/11/11,61,62,59,62,300000,62
2011/11/14,62,65,61,63,211000,63
2011/11/15,62,66,62,63,304000,63
2011/11/16,62,63,61,61,147000,61
2011/11/17,60,62,59,61,190000,61
2011/11/18,60,61,59,61,153000,61
2011/11/21,61,62,60,62,138000,62
2011/11/22,61,61,60,61,146000,61
2011/11/24,60,60,59,59,160000,59
2011/11/25,58,60,56,58,459000,58
2011/11/28,59,60,58,60,285000,60
2011/11/29,61,61,59,61,198000,61
2011/11/30,61,65,61,62,666000,62
2011/12/01,65,65,63,64,261000,64
2011/12/02,64,65,63,64,350000,64
2011/12/05,65,66,64,65,244000,65
2011/12/06,66,68,63,64,585000,64
2011/12/07,64,66,63,65,625000,65
2011/12/08,66,66,64,64,238000,64
2011/12/09,63,65,63,64,368000,64
2011/12/12,64,66,64,66,379000,66
2011/12/13,66,66,64,65,284000,65
2011/12/14,64,65,63,63,273000,63
2011/12/15,63,63,62,62,88000,62
2011/12/16,62,62,61,61,123000,61
2011/12/19,60,61,59,59,260000,59
2011/12/20,59,60,57,59,491000,59
2011/12/21,60,61,58,59,412000,59
2011/12/22,59,60,58,58,247000,58
2011/12/26,59,59,57,57,518000,57
2011/12/27,56,58,56,56,402000,56
2011/12/28,56,60,56,60,528000,60
2011/12/29,59,60,58,60,177000,60
2011/12/30,60,61,60,60,122000,60
2012/01/04,62,62,60,61,582000,61
2012/01/05,62,62,60,61,572000,61
2012/01/06,63,64,62,62,389000,62
2012/01/10,62,67,61,67,890000,67
2012/01/11,68,68,64,64,652000,64
2012/01/12,65,65,63,64,259000,64
2012/01/13,63,66,63,65,257000,65
2012/01/16,63,66,63,66,707000,66
2012/01/17,67,96,65,96,21382000,96
2012/01/18,92,99,83,88,20085000,88
2012/01/19,88,90,84,88,5267000,88
2012/01/20,86,86,80,82,3458000,82
2012/01/23,84,89,83,87,3899000,87
2012/01/24,88,93,85,86,3037000,86
2012/01/25,87,88,84,85,968000,85
2012/01/26,86,87,83,83,1172000,83
2012/01/27,84,84,82,82,723000,82
2012/01/30,81,84,80,84,1087000,84
2012/01/31,84,84,80,82,757000,82
2012/02/01,82,89,82,87,4741000,87
2012/02/02,87,88,85,87,1406000,87
2012/02/03,85,90,85,86,3605000,86
2012/02/06,90,94,88,92,6915000,92
2012/02/07,93,95,90,90,3287000,90
2012/02/08,91,92,90,90,1110000,90
2012/02/09,90,90,87,88,937000,88
2012/02/10,90,90,88,89,520000,89
2012/02/13,87,87,85,87,961000,87
2012/02/14,86,87,85,86,471000,86
2012/02/15,86,89,86,88,483000,88
2012/02/16,86,88,86,87,436000,87
2012/02/17,88,88,86,87,427000,87
2012/02/20,86,86,82,82,898000,82
2012/02/21,83,86,83,86,936000,86
2012/02/22,87,87,84,87,573000,87
2012/02/23,86,87,85,86,280000,86
2012/02/24,86,87,85,85,203000,85
2012/02/27,85,86,84,84,278000,84
2012/02/28,83,85,83,85,409000,85
2012/02/29,84,85,83,84,469000,84
2012/03/01,83,84,82,82,414000,82
2012/03/02,82,84,82,84,217000,84
2012/03/05,84,87,83,86,786000,86
2012/03/06,87,88,86,88,487000,88
2012/03/07,87,87,85,87,413000,87
2012/03/08,86,88,85,85,599000,85
2012/03/09,85,87,85,86,310000,86
2012/03/12,86,88,86,86,392000,86
2012/03/13,87,87,85,86,179000,86
2012/03/14,85,88,85,85,611000,85
2012/03/15,86,86,83,83,258000,83
2012/03/16,84,85,83,85,88000,85
2012/03/19,83,85,83,84,328000,84
2012/03/21,83,86,83,86,377000,86
2012/03/22,84,85,83,84,196000,84
2012/03/23,84,84,83,84,219000,84
2012/03/26,83,83,80,81,705000,81
2012/03/27,82,82,81,82,264000,82
2012/03/28,82,82,81,82,124000,82
2012/03/29,81,82,81,81,108000,81
2012/03/30,81,81,80,81,146000,81
2012/04/02,81,82,80,80,126000,80
2012/04/03,80,81,79,80,474000,80
2012/04/04,79,80,77,78,449000,78
2012/04/05,77,78,75,75,367000,75
2012/04/06,75,75,73,73,406000,73
2012/04/09,73,75,73,73,189000,73
2012/04/10,73,74,73,73,136000,73
2012/04/11,73,74,72,73,256000,73
2012/04/12,74,74,72,73,299000,73
2012/04/13,73,75,73,75,209000,75
2012/04/16,74,74,72,72,200000,72
2012/04/17,73,73,71,71,301000,71
2012/04/18,72,73,69,70,1102000,70
2012/04/19,71,71,68,68,621000,68
2012/04/20,68,68,65,67,468000,67
2012/04/23,67,70,67,68,508000,68
2012/04/24,68,69,68,69,175000,69
2012/04/25,69,70,68,68,384000,68
2012/04/26,69,70,69,69,114000,69
2012/04/27,69,71,68,69,371000,69
2012/05/01,70,71,66,66,380000,66
2012/05/02,66,67,65,66,178000,66
2012/05/07,65,65,63,63,258000,63
2012/05/08,63,65,63,65,94000,65
2012/05/09,64,65,64,64,137000,64
2012/05/10,62,64,61,64,390000,64
2012/05/11,63,64,59,59,659000,59
2012/05/14,59,59,56,56,322000,56
2012/05/15,56,56,51,55,651000,55
2012/05/16,53,55,52,52,220000,52
2012/05/17,53,56,53,56,191000,56
2012/05/18,54,54,52,54,325000,54
2012/05/21,53,57,53,57,241000,57
2012/05/22,58,59,56,57,154000,57
2012/05/23,57,57,55,55,182000,55
2012/05/24,57,58,56,57,90000,57
2012/05/25,57,57,56,57,37000,57
2012/05/28,57,57,55,55,52000,55
2012/05/29,55,56,55,55,111000,55
2012/05/30,53,54,53,54,244000,54
2012/05/31,53,54,53,53,153000,53
2012/06/01,53,54,52,52,277000,52
2012/06/04,51,54,50,53,203000,53
2012/06/05,53,53,51,53,131000,53
2012/06/06,53,55,53,55,126000,55
2012/06/07,56,56,55,56,137000,56
2012/06/08,56,56,54,55,105000,55
2012/06/11,55,57,55,55,105000,55
2012/06/12,54,57,54,57,109000,57
2012/06/13,57,58,55,56,135000,56
2012/06/14,55,56,55,55,35000,55
2012/06/15,56,57,55,56,46000,56
2012/06/18,57,58,57,57,126000,57
2012/06/19,57,60,57,57,115000,57
2012/06/20,57,61,57,60,226000,60
2012/06/21,60,62,59,62,299000,62
2012/06/22,61,66,60,66,498000,66
2012/06/25,67,70,67,67,685000,67
2012/06/26,66,68,64,64,378000,64
2012/06/27,64,67,64,67,246000,67
2012/06/28,69,70,67,68,283000,68
2012/06/29,68,70,68,70,246000,70
2012/07/02,70,70,68,68,259000,68
2012/07/03,69,70,68,68,372000,68
2012/07/04,69,70,69,70,548000,70
2012/07/05,70,72,68,69,624000,69
2012/07/06,69,71,68,68,720000,68
2012/07/09,69,70,65,65,592000,65
2012/07/10,67,70,67,67,688000,67
2012/07/11,67,67,64,65,453000,65
2012/07/12,64,65,63,63,235000,63
2012/07/13,64,65,62,65,417000,65
2012/07/17,65,65,64,64,398000,64
2012/07/18,62,63,58,58,806000,58
2012/07/19,59,60,58,59,213000,59
2012/07/20,59,59,56,57,264000,57
2012/07/23,57,57,54,54,302000,54
2012/07/24,54,55,54,55,234000,55
2012/07/25,55,55,53,55,381000,55
2012/07/26,55,58,54,58,229000,58
2012/07/27,59,59,57,58,145000,58
2012/07/30,59,60,56,58,139000,58
2012/07/31,58,60,57,60,231000,60
2012/08/01,59,60,58,59,80000,59
2012/08/02,58,59,58,58,179000,58
2012/08/03,57,57,55,55,326000,55
2012/08/06,55,56,54,55,378000,55
2012/08/07,55,55,54,54,173000,54
2012/08/08,55,57,55,56,222000,56
2012/08/09,56,56,55,56,222000,56
2012/08/10,56,57,55,57,102000,57
2012/08/13,57,57,56,57,113000,57
2012/08/14,56,59,56,59,426000,59
2012/08/15,58,62,58,58,411000,58
2012/08/16,58,60,58,60,185000,60
2012/08/17,61,61,59,59,229000,59
2012/08/20,60,60,59,59,245000,59
2012/08/21,59,62,59,61,312000,61
2012/08/22,60,60,59,60,195000,60
2012/08/23,60,61,59,60,75000,60
2012/08/24,60,60,58,58,116000,58
2012/08/27,58,59,58,58,75000,58
2012/08/28,57,57,55,56,243000,56
2012/08/29,55,56,55,55,107000,55
2012/08/30,55,56,55,55,235000,55
2012/08/31,55,55,54,54,163000,54
2012/09/03,54,55,54,54,155000,54
2012/09/04,54,55,54,54,190000,54
2012/09/05,54,54,53,54,203000,54
2012/09/06,53,53,52,52,78000,52
2012/09/07,53,54,53,53,190000,53
2012/09/10,53,54,53,54,183000,54
2012/09/11,54,54,53,54,181000,54
2012/09/12,53,54,53,53,200000,53
2012/09/13,54,55,53,54,251000,54
2012/09/14,56,57,55,57,272000,57
2012/09/18,57,59,57,59,224000,59
2012/09/19,59,59,58,59,275000,59
2012/09/20,59,61,58,58,262000,58
2012/09/21,58,58,57,57,107000,57
2012/09/24,56,56,55,55,133000,55
2012/09/25,55,55,54,55,165000,55
2012/09/26,54,55,54,54,113000,54
2012/09/27,54,55,54,55,78000,55
2012/09/28,56,56,55,55,62000,55
2012/10/01,55,55,54,55,98000,55
2012/10/02,54,55,53,53,171000,53
2012/10/03,53,54,52,52,192000,52
2012/10/04,53,54,53,53,267000,53
2012/10/05,55,55,54,54,143000,54
2012/10/09,54,54,53,53,56000,53
2012/10/10,53,54,52,52,323000,52
2012/10/11,52,52,51,51,158000,51
2012/10/12,52,53,50,50,542000,50
2012/10/15,50,52,50,51,177000,51
2012/10/16,51,53,51,53,159000,53
2012/10/17,53,55,53,55,339000,55
2012/10/18,55,55,54,55,165000,55
2012/10/19,53,55,53,55,199000,55
2012/10/22,54,55,53,55,195000,55
2012/10/23,55,55,52,53,729000,53
2012/10/24,53,54,50,50,993000,50
2012/10/25,51,55,51,55,781000,55
2012/10/26,55,56,53,55,903000,55
2012/10/29,56,57,55,56,603000,56
2012/10/30,57,57,55,56,557000,56
2012/10/31,56,56,55,55,393000,55
2012/11/01,55,55,53,54,421000,54
2012/11/02,54,55,54,55,200000,55
2012/11/05,55,55,54,55,157000,55
2012/11/06,55,55,54,55,147000,55
2012/11/07,55,55,53,53,302000,53
2012/11/08,53,54,53,54,122000,54
2012/11/09,53,54,53,53,140000,53
2012/11/12,53,54,53,53,56000,53
2012/11/13,53,53,51,53,364000,53
2012/11/14,52,53,52,52,82000,52
2012/11/15,53,57,53,56,727000,56
2012/11/16,56,56,54,56,563000,56
2012/11/19,57,58,55,56,720000,56
2012/11/20,57,58,56,58,463000,58
2012/11/21,58,59,57,58,353000,58
2012/11/22,59,59,58,59,383000,59
2012/11/26,59,61,59,59,441000,59
2012/11/27,58,66,57,66,1744000,66
2012/11/28,65,66,62,63,1380000,63
2012/11/29,65,68,64,67,1377000,67
2012/11/30,68,68,66,66,615000,66
2012/12/03,73,74,70,70,2319000,70
2012/12/04,70,70,67,69,1047000,69
2012/12/05,69,70,69,69,340000,69
2012/12/06,70,71,68,71,707000,71
2012/12/07,72,75,71,75,1622000,75
2012/12/10,81,82,74,75,2509000,75
2012/12/11,75,77,73,76,1512000,76
2012/12/12,76,78,75,76,1071000,76
2012/12/13,76,79,76,78,938000,78
2012/12/14,77,81,77,80,1292000,80
2012/12/17,83,84,79,79,1013000,79
2012/12/18,77,80,76,78,1023000,78
2012/12/19,80,86,79,86,2683000,86
2012/12/20,85,89,84,86,1972000,86
2012/12/21,87,90,84,86,1902000,86
2012/12/25,87,88,85,87,996000,87
2012/12/26,87,89,86,88,1058000,88
2012/12/27,89,89,87,87,1053000,87
2012/12/28,86,87,84,86,670000,86
2013/01/04,87,88,85,87,860000,87
2013/01/07,88,90,85,87,2415000,87
2013/01/08,87,90,87,87,1687000,87
2013/01/09,88,98,87,98,4229000,98
2013/01/10,100,103,96,98,4570000,98
2013/01/11,98,99,96,96,1324000,96
2013/01/15,97,100,96,96,1820000,96
2013/01/16,96,98,92,93,1265000,93
2013/01/17,92,93,86,89,1974000,89
2013/01/18,91,92,89,89,690000,89
2013/01/21,88,91,87,90,716000,90
2013/01/22,90,91,88,88,417000,88
2013/01/23,87,87,80,81,1082000,81
2013/01/24,80,84,80,83,835000,83
2013/01/25,84,84,82,83,719000,83
2013/01/28,84,84,82,82,495000,82
2013/01/29,82,85,81,83,393000,83
2013/01/30,86,92,86,91,2531000,91
2013/01/31,91,91,87,89,758000,89
2013/02/01,89,89,87,87,360000,87
2013/02/04,89,90,87,88,971000,88
2013/02/05,88,89,88,88,348000,88
2013/02/06,89,90,87,87,994000,87
2013/02/07,86,90,86,87,1141000,87
2013/02/08,88,88,86,86,344000,86
2013/02/12,86,87,82,83,600000,83
2013/02/13,82,82,73,75,1141000,75
2013/02/14,75,78,75,77,369000,77
2013/02/15,78,78,67,73,1245000,73
2013/02/18,75,78,75,77,437000,77
2013/02/19,77,82,77,81,693000,81
2013/02/20,82,83,81,83,442000,83
2013/02/21,83,84,81,82,407000,82
2013/02/22,81,81,78,80,502000,80
2013/02/25,81,82,80,82,218000,82
2013/02/26,79,81,79,81,290000,81
2013/02/27,81,85,81,83,800000,83
2013/02/28,84,85,82,82,264000,82
2013/03/01,83,83,80,80,435000,80
2013/03/04,81,82,81,81,399000,81
2013/03/05,82,82,80,81,357000,81
2013/03/06,81,82,80,80,273000,80
2013/03/07,81,82,80,80,405000,80
2013/03/08,80,80,78,79,824000,79
2013/03/11,80,83,80,82,606000,82
2013/03/12,83,83,80,80,180000,80
2013/03/13,80,80,79,79,378000,79
2013/03/14,79,79,77,79,645000,79
2013/03/15,80,80,77,77,675000,77
2013/03/18,77,78,76,76,204000,76
2013/03/19,76,79,76,77,371000,77
2013/03/21,78,81,77,80,1123000,80
2013/03/22,80,80,77,77,633000,77
2013/03/25,78,78,76,76,509000,76
2013/03/26,75,77,75,76,569000,76
2013/03/27,75,77,75,76,273000,76
2013/03/28,77,77,76,77,321000,77
2013/03/29,77,77,74,75,451000,75
2013/04/01,76,76,72,72,474000,72
2013/04/02,70,72,68,70,1055000,70
2013/04/03,71,73,71,73,346000,73
2013/04/04,72,75,71,75,356000,75
2013/04/05,77,77,74,75,594000,75
2013/04/08,75,80,75,80,1349000,80
2013/04/09,82,82,79,81,1319000,81
2013/04/10,81,83,80,80,553000,80
2013/04/11,82,82,80,81,357000,81
2013/04/12,81,81,79,81,463000,81
2013/04/15,81,82,79,81,392000,81
2013/04/16,78,81,78,81,332000,81
2013/04/17,81,82,80,81,446000,81
2013/04/18,80,84,80,80,1156000,80
2013/04/19,80,81,80,80,520000,80
2013/04/22,82,89,82,88,2427000,88
2013/04/23,92,102,91,96,11217000,96
2013/04/24,96,98,93,95,3331000,95
2013/04/25,93,94,91,92,1291000,92
2013/04/26,93,104,91,92,7075000,92
2013/04/30,94,97,93,94,2547000,94
2013/05/01,94,98,94,96,1300000,96
2013/05/02,95,96,94,95,1258000,95
2013/05/07,96,99,93,94,4059000,94
2013/05/08,95,97,95,95,1781000,95
2013/05/09,96,97,95,95,982000,95
2013/05/10,97,97,90,92,1817000,92
2013/05/13,91,91,87,90,1925000,90
2013/05/14,91,93,89,91,1094000,91
2013/05/15,93,93,88,88,1037000,88
2013/05/16,88,89,80,83,2194000,83
2013/05/17,85,89,84,87,1829000,87
2013/05/20,86,90,86,89,1548000,89
2013/05/21,89,92,88,89,2003000,89
2013/05/22,90,92,88,90,2703000,90
2013/05/23,91,92,81,81,2477000,81
2013/05/24,82,85,81,82,1698000,82
2013/05/27,81,81,79,80,1013000,80
2013/05/28,79,80,78,79,1277000,79
2013/05/29,80,81,78,81,1337000,81
2013/05/30,79,80,78,78,738000,78
2013/05/31,79,80,78,78,532000,78
2013/06/03,78,78,76,76,828000,76
2013/06/04,76,77,75,76,1147000,76
2013/06/05,78,81,76,76,1594000,76
2013/06/06,75,76,72,73,1418000,73
2013/06/07,71,71,67,68,1438000,68
2013/06/10,71,74,71,73,1058000,73
2013/06/11,72,74,71,72,904000,72
2013/06/12,70,74,70,73,536000,73
2013/06/13,71,71,69,70,695000,70
2013/06/14,72,72,70,70,613000,70
2013/06/17,71,73,70,73,326000,73
2013/06/18,72,74,71,73,563000,73
2013/06/19,75,76,74,75,539000,75
2013/06/20,74,75,73,73,281000,73
2013/06/21,72,73,70,72,936000,72
2013/06/24,72,73,70,70,922000,70
2013/06/25,70,71,69,69,946000,69
2013/06/26,70,71,69,69,848000,69
2013/06/27,69,71,68,71,926000,71
2013/06/28,71,73,71,73,1136000,73
2013/07/01,73,74,72,73,1204000,73
2013/07/02,74,77,74,77,1900000,77
2013/07/03,77,78,75,77,1309000,77
2013/07/04,77,78,77,78,1254000,78
2013/07/05,78,82,78,82,2152000,82
2013/07/08,83,84,80,80,1437000,80
2013/07/09,81,82,80,82,1272000,82
2013/07/10,82,82,80,80,905000,80
2013/07/11,80,82,80,82,1250000,82
2013/07/12,82,82,80,80,1027000,80
2013/07/16,80,82,80,81,653000,81
2013/07/17,80,81,80,81,773000,81
2013/07/18,81,82,80,81,730000,81
2013/07/19,81,82,80,81,1479000,81
2013/07/22,81,82,80,81,1006000,81
2013/07/23,81,82,81,81,805000,81
2013/07/24,81,81,80,81,679000,81
2013/07/25,81,81,80,80,758000,80
2013/07/26,79,79,78,78,936000,78
2013/07/29,77,78,73,74,1381000,74
2013/07/30,74,77,74,76,857000,76
2013/07/31,76,76,75,75,537000,75
2013/08/01,74,76,74,75,874000,75
2013/08/02,76,79,76,79,799000,79
2013/08/05,79,83,79,81,1067000,81
2013/08/06,80,81,79,81,447000,81
2013/08/07,80,80,78,79,571000,79
2013/08/08,79,80,78,79,515000,79
2013/08/09,79,79,77,77,418000,77
2013/08/12,77,78,77,77,375000,77
2013/08/13,78,79,77,79,256000,79
2013/08/14,79,79,77,79,380000,79
2013/08/15,79,79,77,77,564000,77
2013/08/16,78,79,77,79,530000,79
2013/08/19,78,78,77,78,372000,78
2013/08/20,78,79,77,77,207000,77
2013/08/21,78,80,78,78,725000,78
2013/08/22,78,80,77,79,508000,79
2013/08/23,80,80,78,79,460000,79
2013/08/26,80,82,79,81,790000,81
2013/08/27,81,82,81,82,690000,82
2013/08/28,81,82,80,81,646000,81
2013/08/29,81,82,80,81,349000,81
2013/08/30,81,81,80,80,337000,80
2013/09/02,80,82,80,81,459000,81
2013/09/03,83,84,82,84,908000,84
2013/09/04,85,87,83,85,1357000,85
2013/09/05,86,87,85,86,732000,86
2013/09/06,87,87,84,85,754000,85
2013/09/09,92,93,88,88,1977000,88
2013/09/10,89,117,89,114,21603000,114
2013/09/11,119,120,104,106,9812000,106
2013/09/12,103,111,102,109,4962000,109
2013/09/13,108,134,108,123,29213000,123
2013/09/17,124,138,123,129,21132000,129
2013/09/18,126,128,120,121,5168000,121
2013/09/19,123,131,123,131,7453000,131
2013/09/20,140,145,133,136,17135000,136
2013/09/24,134,138,132,138,3894000,138
2013/09/25,135,136,125,126,3061000,126
2013/09/26,123,134,123,133,5336000,133
2013/09/27,131,132,128,129,1779000,129
2013/09/30,128,131,126,129,1215000,129
2013/10/01,128,130,126,126,1258000,126
2013/10/02,127,129,121,122,1961000,122
2013/10/03,122,122,118,119,1603000,119
2013/10/04,118,119,114,115,1697000,115
2013/10/07,115,116,109,110,1612000,110
2013/10/08,110,117,109,117,2175000,117
2013/10/09,113,119,113,117,1480000,117
2013/10/10,118,122,116,117,1243000,117
2013/10/11,121,121,119,120,816000,120
2013/10/15,121,122,118,119,1011000,119
2013/10/16,118,119,116,116,808000,116
2013/10/17,121,123,117,118,857000,118
2013/10/18,120,124,118,123,1697000,123
2013/10/21,124,126,121,123,2002000,123
2013/10/22,123,128,122,128,3370000,128
2013/10/23,127,133,124,126,4056000,126
2013/10/24,125,130,123,129,1704000,129
2013/10/25,129,129,125,126,2533000,126
2013/10/28,129,176,126,174,37663000,174
2013/10/29,165,168,156,158,27853000,158
2013/10/30,165,182,158,161,24049000,161
2013/10/31,156,165,155,158,7237000,158
2013/11/01,158,160,149,156,5270000,156
2013/11/05,157,162,154,156,4837000,156
2013/11/06,155,163,152,160,5679000,160
2013/11/07,159,168,153,156,6911000,156
2013/11/08,154,159,153,158,2306000,158
2013/11/11,161,162,154,156,1750000,156
2013/11/12,154,157,153,155,1800000,155
2013/11/13,154,155,147,149,2455000,149
2013/11/14,150,153,147,149,2824000,149
2013/11/15,149,150,147,150,1865000,150
2013/11/18,149,149,146,146,1034000,146
2013/11/19,146,151,146,148,1454000,148
2013/11/20,150,151,147,148,1058000,148
2013/11/21,147,149,143,145,1829000,145
2013/11/22,144,145,141,142,1367000,142
2013/11/25,141,142,136,136,1658000,136
2013/11/26,136,143,135,141,1637000,141
2013/11/27,138,141,138,140,655000,140
2013/11/28,141,142,138,138,832000,138
2013/11/29,139,143,137,139,1458000,139
2013/12/02,139,140,138,139,481000,139
2013/12/03,140,140,137,138,522000,138
2013/12/04,137,137,135,135,688000,135
2013/12/05,135,137,132,132,874000,132
2013/12/06,131,134,131,133,1047000,133
2013/12/09,134,136,133,133,754000,133
2013/12/10,132,133,131,131,883000,131
2013/12/11,131,139,131,137,2616000,137
2013/12/12,136,139,134,135,1275000,135
2013/12/13,134,135,131,132,845000,132
2013/12/16,132,133,129,129,843000,129
2013/12/17,128,131,125,126,1600000,126
2013/12/18,127,129,125,127,702000,127
2013/12/19,129,129,127,128,460000,128
2013/12/20,127,127,124,125,794000,125
2013/12/24,124,124,119,121,1485000,121
2013/12/25,120,130,120,129,2612000,129
2013/12/26,130,138,130,137,2310000,137
2013/12/27,139,140,134,139,2447000,139
2013/12/30,139,147,138,143,3857000,143
2014/01/06,142,143,138,142,1491000,142
2014/01/07,141,145,138,139,1183000,139
2014/01/08,140,143,140,141,472000,141
2014/01/09,140,140,138,139,377000,139
2014/01/10,139,141,138,140,625000,140
2014/01/14,137,139,135,137,740000,137
2014/01/15,138,139,137,137,473000,137
2014/01/16,138,138,135,135,299000,135
2014/01/17,135,141,135,140,1016000,140
2014/01/20,140,141,138,140,578000,140
2014/01/21,140,142,139,139,421000,139
2014/01/22,139,139,135,137,548000,137
2014/01/23,139,141,136,136,819000,136
2014/01/24,135,136,134,134,542000,134
2014/01/27,132,132,127,127,1304000,127
2014/01/28,129,131,127,128,621000,128
2014/01/29,130,132,129,132,670000,132
2014/01/30,128,129,127,128,584000,128
2014/01/31,128,129,125,127,676000,127
2014/02/03,126,126,119,119,1087000,119
2014/02/04,109,112,105,107,2665000,107
2014/02/05,111,114,107,111,978000,111
2014/02/06,113,120,112,116,652000,116
2014/02/07,121,143,119,126,17338000,126
2014/02/10,126,131,126,128,1852000,128
2014/02/12,129,130,124,125,917000,125
2014/02/13,126,128,123,124,795000,124
2014/02/14,124,126,117,120,1379000,120
2014/02/17,122,123,118,122,437000,122
2014/02/18,121,127,120,126,735000,126
2014/02/19,126,130,125,126,738000,126
2014/02/20,125,127,122,124,618000,124
2014/02/21,125,126,124,125,280000,125
2014/02/24,125,127,124,126,514000,126
2014/02/25,126,127,125,126,489000,126
2014/02/26,126,128,126,127,952000,127
2014/02/27,126,127,122,122,739000,122
2014/02/28,122,122,118,119,786000,119
2014/03/03,118,118,115,117,569000,117
2014/03/04,117,120,116,120,313000,120
2014/03/05,122,122,120,121,454000,121
2014/03/06,121,124,120,124,396000,124
2014/03/07,125,127,124,125,586000,125
2014/03/10,125,129,125,129,874000,129
2014/03/11,127,128,125,126,593000,126
2014/03/12,124,126,122,122,410000,122
2014/03/13,122,123,121,121,359000,121
2014/03/14,118,120,117,118,694000,118
2014/03/17,118,118,114,114,483000,114
2014/03/18,117,118,116,118,368000,118
2014/03/19,116,117,113,114,444000,114
2014/03/20,113,113,110,112,616000,112
2014/03/24,112,119,112,118,395000,118
2014/03/25,118,119,116,116,553000,116
2014/03/26,117,118,114,114,385000,114
2014/03/27,114,119,113,119,243000,119
2014/03/28,118,122,117,122,242000,122
2014/03/31,123,123,119,122,338000,122
2014/04/01,122,128,122,127,1236000,127
2014/04/02,130,133,127,128,2100000,128
2014/04/03,128,130,126,127,500000,127
2014/04/04,127,130,127,129,432000,129
2014/04/07,125,129,124,125,407000,125
2014/04/08,124,125,122,123,479000,123
2014/04/09,120,122,119,120,517000,120
2014/04/10,122,123,119,119,357000,119
2014/04/11,117,119,115,118,371000,118
2014/04/14,117,119,117,117,285000,117
2014/04/15,118,119,117,117,279000,117
2014/04/16,117,122,117,122,468000,122
2014/04/17,123,123,121,122,230000,122
2014/04/18,122,124,120,122,601000,122
2014/04/21,123,123,121,121,207000,121
2014/04/22,121,124,121,121,736000,121
2014/04/23,122,123,121,121,341000,121
2014/04/24,123,128,122,128,1368000,128
2014/04/25,126,127,125,127,719000,127
2014/04/28,125,129,121,121,1867000,121
2014/04/30,122,122,117,117,962000,117
2014/05/01,117,119,117,118,518000,118
2014/05/02,118,120,118,119,253000,119
2014/05/07,117,118,117,117,417000,117
2014/05/08,118,119,117,118,324000,118
2014/05/09,117,118,115,115,699000,115
2014/05/12,116,116,110,111,907000,111
2014/05/13,112,113,109,113,960000,113
2014/05/14,113,113,109,111,475000,111
2014/05/15,111,112,110,112,295000,112
2014/05/16,111,111,108,109,263000,109
2014/05/19,110,110,105,105,492000,105
2014/05/20,103,105,102,103,519000,103
2014/05/21,101,104,100,102,629000,102
2014/05/22,102,107,102,106,572000,106
2014/05/23,109,111,108,109,470000,109
2014/05/26,109,110,108,109,162000,109
2014/05/27,109,111,108,109,349000,109
2014/05/28,109,114,109,112,627000,112
2014/05/29,111,113,111,113,338000,113
2014/05/30,113,114,110,111,227000,111
2014/06/02,111,113,111,113,149000,113
2014/06/03,113,114,111,111,247000,111
2014/06/04,112,114,111,112,356000,112
2014/06/05,114,115,113,114,257000,114
2014/06/06,114,116,114,115,357000,115
2014/06/09,115,115,114,115,289000,115
2014/06/10,114,116,113,113,282000,113
2014/06/11,112,113,112,112,178000,112
2014/06/12,111,113,111,113,154000,113
2014/06/13,112,114,112,113,216000,113
2014/06/16,112,114,112,112,143000,112
2014/06/17,112,114,112,113,283000,113
2014/06/18,114,116,114,115,239000,115
2014/06/19,116,118,114,116,1019000,116
2014/06/20,116,119,116,117,1099000,117
2014/06/23,117,118,116,116,308000,116
2014/06/24,115,117,114,115,283000,115
2014/06/25,118,118,115,115,401000,115
2014/06/26,116,117,115,116,211000,116
2014/06/27,117,117,114,114,462000,114
2014/06/30,114,116,114,116,206000,116
2014/07/01,116,117,115,116,227000,116
2014/07/02,116,117,116,117,122000,117
2014/07/03,116,116,115,116,176000,116
2014/07/04,116,116,115,115,133000,115
2014/07/07,115,117,115,115,185000,115
2014/07/08,115,118,115,118,438000,118
2014/07/09,118,118,116,117,316000,117
2014/07/10,117,117,113,113,389000,113
2014/07/11,113,115,113,115,298000,115
2014/07/14,115,115,114,115,74000,115
2014/07/15,115,115,113,114,154000,114
2014/07/16,115,116,114,116,365000,116
2014/07/17,116,123,116,118,3725000,118
2014/07/18,116,117,113,115,1233000,115
2014/07/22,117,135,116,126,8459000,126
2014/07/23,125,127,123,124,1965000,124
2014/07/24,123,126,122,122,663000,122
2014/07/25,123,125,122,125,957000,125
2014/07/28,125,129,125,127,1887000,127
2014/07/29,128,128,126,127,538000,127
2014/07/30,128,128,123,124,693000,124
2014/07/31,124,125,120,121,1058000,121
2014/08/01,118,121,118,120,732000,120
2014/08/04,120,127,119,121,1278000,121
2014/08/05,123,123,120,120,633000,120
2014/08/06,119,121,117,117,434000,117
2014/08/07,117,119,117,118,369000,118
2014/08/08,118,120,114,115,1081000,115
2014/08/11,117,119,116,119,373000,119
2014/08/12,119,119,117,118,371000,118
2014/08/13,118,120,117,120,313000,120
2014/08/14,121,125,121,125,1415000,125
2014/08/15,125,125,122,122,728000,122
2014/08/18,124,128,124,128,2371000,128
2014/08/19,128,129,125,127,989000,127
2014/08/20,128,129,125,126,1126000,126
2014/08/21,126,127,125,127,742000,127
2014/08/22,126,126,123,125,390000,125
2014/08/25,126,127,125,127,480000,127
2014/08/26,127,132,125,130,1933000,130
2014/08/27,130,135,129,134,3545000,134
2014/08/28,135,138,133,137,2995000,137
2014/08/29,137,138,134,137,1421000,137
2014/09/01,139,146,137,146,4949000,146
2014/09/02,148,149,143,144,2863000,144
2014/09/03,143,145,141,143,2188000,143
2014/09/04,144,145,141,144,1374000,144
2014/09/05,144,144,140,141,985000,141
2014/09/08,141,150,141,150,3671000,150
2014/09/09,152,159,150,155,6568000,155
2014/09/10,154,155,149,151,2226000,151
2014/09/11,153,153,149,149,827000,149
2014/09/12,148,151,147,147,1120000,147
2014/09/16,147,149,145,147,1036000,147
2014/09/17,147,149,146,147,541000,147
2014/09/18,147,147,141,141,1088000,141
2014/09/19,141,142,138,141,836000,141
2014/09/22,141,144,137,144,966000,144
2014/09/24,141,147,141,147,871000,147
2014/09/25,146,146,143,144,588000,144
2014/09/26,142,147,142,145,578000,145
2014/09/29,148,151,147,148,1321000,148
2014/09/30,147,149,143,145,1014000,145
2014/10/01,146,147,140,140,1231000,140
2014/10/02,138,139,135,135,821000,135
2014/10/03,136,141,136,141,648000,141
2014/10/06,143,145,142,145,707000,145
2014/10/07,144,144,139,140,518000,140
2014/10/08,138,139,136,139,517000,139
2014/10/09,140,141,132,132,698000,132
2014/10/10,130,131,128,130,741000,130
2014/10/14,128,131,127,130,611000,130
2014/10/15,131,134,131,134,512000,134
2014/10/16,130,132,127,128,761000,128
2014/10/17,129,132,128,129,789000,129
2014/10/20,132,134,131,133,639000,133
2014/10/21,134,138,133,134,847000,134
2014/10/22,137,138,136,137,397000,137
2014/10/23,137,141,137,139,999000,139
2014/10/24,141,141,137,138,660000,138
2014/10/27,139,152,138,147,2939000,147
2014/10/28,147,149,143,146,2025000,146
2014/10/29,146,146,143,143,733000,143
2014/10/30,144,145,142,142,580000,142
2014/10/31,143,146,142,146,779000,146
2014/11/04,148,149,145,146,769000,146
2014/11/05,145,146,144,145,467000,145
2014/11/06,144,148,143,144,986000,144
2014/11/07,144,145,142,143,381000,143
2014/11/10,142,143,141,142,268000,142
2014/11/11,142,144,140,144,400000,144
2014/11/12,144,144,138,138,896000,138
2014/11/13,138,139,136,138,439000,138
2014/11/14,140,140,138,140,188000,140
2014/11/17,140,146,138,142,1392000,142
2014/11/18,142,145,142,145,469000,145
2014/11/19,145,148,144,146,556000,146
2014/11/20,148,148,144,145,553000,145
2014/11/21,145,147,145,146,251000,146
2014/11/25,147,147,145,146,328000,146
2014/11/26,145,146,144,144,314000,144
2014/11/27,144,145,143,143,344000,143
2014/11/28,145,147,144,145,463000,145
2014/12/01,145,146,144,146,214000,146
2014/12/02,144,146,143,144,550000,144
2014/12/03,143,144,141,142,329000,142
2014/12/04,142,142,140,142,215000,142
2014/12/05,142,142,140,142,119000,142
2014/12/08,142,143,141,143,228000,143
2014/12/09,142,142,139,139,286000,139
2014/12/10,139,141,138,140,312000,140
2014/12/11,138,140,136,138,364000,138
2014/12/12,138,143,138,141,662000,141
2014/12/15,141,142,138,138,566000,138
2014/12/16,137,137,134,134,545000,134
2014/12/17,134,138,133,136,405000,136
2014/12/18,137,139,137,139,149000,139
2014/12/19,141,141,138,139,263000,139
2014/12/22,139,139,137,138,153000,138
2014/12/24,139,139,135,136,385000,136
2014/12/25,136,138,134,134,431000,134
2014/12/26,135,140,135,140,431000,140
2014/12/29,141,143,140,143,732000,143
2014/12/30,143,143,140,142,458000,142
2015/01/05,142,144,142,144,464000,144
2015/01/06,142,143,139,139,360000,139
2015/01/07,139,141,138,138,459000,138
2015/01/08,140,141,138,139,354000,139
2015/01/09,140,140,138,138,307000,138
2015/01/13,138,139,137,138,223000,138
2015/01/14,137,139,135,135,377000,135
2015/01/15,135,139,135,138,267000,138
2015/01/16,138,138,135,137,298000,137
2015/01/19,137,140,136,136,226000,136
2015/01/20,136,138,136,138,324000,138
2015/01/21,138,140,137,139,308000,139
2015/01/22,139,139,137,138,106000,138
2015/01/23,139,140,138,138,245000,138
2015/01/26,138,139,137,138,351000,138
2015/01/27,139,139,138,139,86000,139
2015/01/28,138,139,137,139,206000,139
2015/01/29,138,139,137,138,183000,138
2015/01/30,139,140,138,139,140000,139
2015/02/02,137,138,136,137,241000,137
2015/02/03,137,138,135,136,176000,136
2015/02/04,136,137,136,137,130000,137
2015/02/05,137,138,136,136,86000,136
2015/02/06,137,141,137,139,1450000,139
2015/02/09,141,145,140,144,1179000,144
2015/02/10,143,144,142,143,309000,143
2015/02/12,144,144,142,142,231000,142
2015/02/13,142,144,141,142,253000,142
2015/02/16,143,144,142,143,540000,143
2015/02/17,144,145,142,144,437000,144
2015/02/18,145,145,143,143,450000,143
2015/02/19,144,145,143,145,243000,145
2015/02/20,145,148,144,147,772000,147
2015/02/23,149,149,144,145,656000,145
2015/02/24,146,146,145,146,246000,146
2015/02/25,146,149,144,147,553000,147
2015/02/26,147,149,146,148,268000,148
2015/02/27,148,148,145,147,469000,147
2015/03/02,145,146,144,144,389000,144
2015/03/03,144,144,142,142,418000,142
2015/03/04,141,142,140,141,422000,141
2015/03/05,141,143,141,142,309000,142
2015/03/06,141,142,141,141,228000,141
2015/03/09,141,142,139,139,504000,139
2015/03/10,140,140,139,139,418000,139
2015/03/11,138,143,137,140,841000,140
2015/03/12,140,142,139,141,309000,141
2015/03/13,142,142,141,141,349000,141
2015/03/16,142,142,141,141,143000,141
2015/03/17,141,142,141,141,85000,141
2015/03/18,142,142,141,141,163000,141
2015/03/19,142,142,140,140,177000,140
2015/03/20,140,141,140,140,104000,140
2015/03/23,141,141,139,139,128000,139
2015/03/24,139,141,139,140,369000,140
2015/03/25,140,142,140,141,204000,141
2015/03/26,140,140,139,139,141000,139
2015/03/27,140,140,134,135,518000,135
2015/03/30,136,137,135,135,167000,135
2015/03/31,137,138,136,137,214000,137
2015/04/01,138,138,136,137,189000,137
2015/04/02,137,138,135,137,194000,137
2015/04/03,137,137,135,137,159000,137
2015/04/06,136,136,134,135,235000,135
2015/04/07,136,137,135,137,123000,137
2015/04/08,137,138,136,137,211000,137
2015/04/09,136,137,136,136,102000,136
2015/04/10,137,137,136,136,112000,136
2015/04/13,137,137,136,137,106000,137
2015/04/14,137,139,136,139,241000,139
2015/04/15,138,139,138,138,322000,138
2015/04/16,139,139,137,137,174000,137
2015/04/17,138,138,135,135,307000,135
2015/04/20,135,137,134,136,237000,136
2015/04/21,137,137,135,137,139000,137
2015/04/22,137,138,136,136,149000,136
2015/04/23,137,137,136,136,104000,136
2015/04/24,136,138,136,137,671000,137
2015/04/27,138,148,137,140,2061000,140
2015/04/28,142,142,140,142,684000,142
2015/04/30,142,142,140,141,362000,141
2015/05/01,139,139,138,138,197000,138
2015/05/07,138,138,137,137,206000,137
2015/05/08,139,139,138,139,167000,139
2015/05/11,140,141,138,139,248000,139
2015/05/12,139,139,130,132,1415000,132
2015/05/13,132,133,130,133,1005000,133
2015/05/14,133,133,131,133,551000,133
2015/05/15,133,133,131,131,332000,131
2015/05/18,132,132,129,130,702000,130
2015/05/19,130,133,130,132,327000,132
2015/05/20,130,132,130,132,318000,132
2015/05/21,132,137,132,135,870000,135
2015/05/22,134,138,134,136,546000,136
2015/05/25,137,139,135,139,417000,139
2015/05/26,139,139,138,138,237000,138
2015/05/27,138,140,138,140,266000,140
2015/05/28,140,140,139,139,244000,139
2015/05/29,139,140,138,140,241000,140
2015/06/01,139,141,139,140,363000,140
2015/06/02,140,141,139,140,188000,140
2015/06/03,139,141,138,138,441000,138
2015/06/04,138,139,138,138,307000,138
2015/06/05,138,139,138,138,192000,138
2015/06/08,139,139,137,137,259000,137
2015/06/09,137,138,136,136,289000,136
2015/06/10,136,137,136,136,82000,136
2015/06/11,137,138,137,137,151000,137
2015/06/12,138,138,137,138,223000,138
2015/06/15,137,137,136,137,220000,137
2015/06/16,136,137,136,136,97000,136
2015/06/17,136,137,134,135,526000,135
2015/06/18,135,135,132,133,275000,133
2015/06/19,135,135,133,133,152000,133
2015/06/22,133,135,133,134,415000,134
2015/06/23,134,134,133,134,167000,134
2015/06/24,134,134,133,134,167000,134
2015/06/25,134,135,133,133,155000,133
2015/06/26,133,134,132,133,215000,133
2015/06/29,130,131,129,130,389000,130
2015/06/30,130,132,130,132,343000,132
2015/07/01,132,134,132,132,323000,132
