2011/01/04,303,310,303,308,184000,308
2011/01/05,307,310,307,310,203000,310
2011/01/06,314,324,314,324,439000,324
2011/01/07,323,323,321,321,211000,321
2011/01/11,323,327,322,323,265000,323
2011/01/12,325,330,324,329,515000,329
2011/01/13,329,333,329,331,313000,331
2011/01/14,329,332,326,329,194000,329
2011/01/17,330,332,326,326,113000,326
2011/01/18,327,329,327,328,117000,328
2011/01/19,328,328,323,325,226000,325
2011/01/20,321,325,321,324,154000,324
2011/01/21,325,326,319,322,323000,322
2011/01/24,321,322,318,322,232000,322
2011/01/25,323,332,323,329,377000,329
2011/01/26,326,331,326,330,154000,330
2011/01/27,330,332,327,329,153000,329
2011/01/28,326,328,320,322,200000,322
2011/01/31,314,322,312,315,276000,315
2011/02/01,316,316,310,311,317000,311
2011/02/02,314,325,314,319,302000,319
2011/02/03,317,317,312,314,159000,314
2011/02/04,320,328,320,323,279000,323
2011/02/07,327,327,320,320,275000,320
2011/02/08,320,322,315,317,372000,317
2011/02/09,319,323,315,317,294000,317
2011/02/10,313,328,313,323,243000,323
2011/02/14,328,328,320,323,389000,323
2011/02/15,323,325,321,322,236000,322
2011/02/16,320,322,317,319,285000,319
2011/02/17,319,319,312,316,767000,316
2011/02/18,316,320,314,318,470000,318
2011/02/21,318,321,317,319,179000,319
2011/02/22,315,317,312,312,300000,312
2011/02/23,308,311,307,308,715000,308
2011/02/24,304,305,299,300,572000,300
2011/02/25,299,307,299,307,251000,307
2011/02/28,310,314,308,313,346000,313
2011/03/01,313,318,313,315,591000,315
2011/03/02,312,312,307,307,310000,307
2011/03/03,310,313,308,312,187000,312
2011/03/04,315,315,309,310,125000,310
2011/03/07,309,309,305,305,161000,305
2011/03/08,306,312,303,303,492000,303
2011/03/09,303,306,301,301,403000,301
2011/03/10,301,302,296,297,235000,297
2011/03/11,290,299,290,295,948000,295
2011/03/14,359,367,321,328,1188000,328
2011/03/15,328,328,257,291,1596000,291
2011/03/16,275,293,275,289,1831000,289
2011/03/17,265,294,265,293,1242000,293
2011/03/18,299,302,291,295,954000,295
2011/03/22,311,327,305,326,1469000,326
2011/03/23,327,349,325,338,1562000,338
2011/03/24,346,352,341,347,1020000,347
2011/03/25,349,350,337,340,756000,340
2011/03/28,339,339,330,334,576000,334
2011/03/29,325,327,321,324,667000,324
2011/03/30,327,330,322,327,592000,327
2011/03/31,328,329,322,329,671000,329
2011/04/01,329,330,324,324,285000,324
2011/04/04,321,325,320,321,408000,321
2011/04/05,319,323,312,317,533000,317
2011/04/06,318,318,310,314,544000,314
2011/04/07,317,317,307,307,401000,307
2011/04/08,304,314,304,312,537000,312
2011/04/11,313,314,309,312,297000,312
2011/04/12,307,308,304,306,474000,306
2011/04/13,304,309,303,308,414000,308
2011/04/14,308,316,306,315,570000,315
2011/04/15,311,313,305,308,464000,308
2011/04/18,305,307,303,303,391000,303
2011/04/19,298,302,298,301,464000,301
2011/04/20,302,305,301,302,423000,302
2011/04/21,305,306,301,302,469000,302
2011/04/22,299,300,295,299,375000,299
2011/04/25,297,301,295,296,344000,296
2011/04/26,298,298,294,296,350000,296
2011/04/27,299,302,297,299,560000,299
2011/04/28,301,305,297,300,488000,300
2011/05/02,300,303,298,301,368000,301
2011/05/06,299,304,298,301,372000,301
2011/05/09,304,305,302,302,188000,302
2011/05/10,302,305,302,305,177000,305
2011/05/11,306,307,303,304,311000,304
2011/05/12,300,303,298,298,255000,298
2011/05/13,297,306,293,297,654000,297
2011/05/16,300,311,300,305,804000,305
2011/05/17,304,311,302,308,586000,308
2011/05/18,306,318,306,314,536000,314
2011/05/19,315,321,309,311,652000,311
2011/05/20,306,311,305,305,316000,305
2011/05/23,306,306,301,302,235000,302
2011/05/24,303,307,301,305,453000,305
2011/05/25,303,303,297,297,257000,297
2011/05/26,297,297,291,295,464000,295
2011/05/27,295,298,293,295,347000,295
2011/05/30,293,295,290,294,180000,294
2011/05/31,295,298,293,293,329000,293
2011/06/01,292,297,287,297,767000,297
2011/06/02,290,292,289,291,355000,291
2011/06/03,288,292,287,287,294000,287
2011/06/06,285,287,281,282,204000,282
2011/06/07,282,287,282,286,214000,286
2011/06/08,287,289,282,288,290000,288
2011/06/09,287,287,284,285,95000,285
2011/06/10,289,289,286,286,439000,286
2011/06/13,283,286,283,285,183000,285
2011/06/14,286,291,286,290,225000,290
2011/06/15,295,296,292,292,239000,292
2011/06/16,287,289,285,285,293000,285
2011/06/17,283,284,272,272,450000,272
2011/06/20,273,277,272,276,181000,276
2011/06/21,280,280,275,277,323000,277
2011/06/22,277,281,277,281,181000,281
2011/06/23,278,282,278,281,194000,281
2011/06/24,281,282,280,282,110000,282
2011/06/27,283,283,279,279,225000,279
2011/06/28,279,283,279,281,190000,281
2011/06/29,282,283,281,283,161000,283
2011/06/30,285,292,284,291,548000,291
2011/07/01,295,297,291,292,574000,292
2011/07/04,296,298,295,295,275000,295
2011/07/05,296,296,292,294,367000,294
2011/07/06,293,294,292,293,202000,293
2011/07/07,294,299,294,298,306000,298
2011/07/08,298,300,296,296,172000,296
2011/07/11,293,295,292,293,245000,293
2011/07/12,291,293,287,293,201000,293
2011/07/13,292,294,292,293,171000,293
2011/07/14,290,292,289,291,139000,291
2011/07/15,292,293,290,292,172000,292
2011/07/19,290,293,289,293,238000,293
2011/07/20,294,294,292,292,116000,292
2011/07/21,293,295,291,291,204000,291
2011/07/22,292,294,292,293,129000,293
2011/07/25,294,296,293,295,231000,295
2011/07/26,294,298,293,296,300000,296
2011/07/27,295,295,289,292,219000,292
2011/07/28,287,289,285,287,322000,287
2011/07/29,286,297,286,293,536000,293
2011/08/01,295,300,293,298,288000,298
2011/08/02,295,296,291,294,261000,294
2011/08/03,288,289,282,284,506000,284
2011/08/04,284,286,283,283,333000,283
2011/08/05,273,279,273,277,353000,277
2011/08/08,271,274,268,269,260000,269
2011/08/09,261,269,253,268,574000,268
2011/08/10,271,275,265,267,361000,267
2011/08/11,260,276,259,274,627000,274
2011/08/12,276,276,270,276,378000,276
2011/08/15,279,280,270,272,549000,272
2011/08/16,277,280,275,279,428000,279
2011/08/17,275,282,275,281,361000,281
2011/08/18,280,282,276,280,267000,280
2011/08/19,272,278,272,277,343000,277
2011/08/22,278,281,273,274,288000,274
2011/08/23,278,280,277,279,337000,279
2011/08/24,281,284,277,277,282000,277
2011/08/25,278,283,276,281,253000,281
2011/08/26,279,282,278,280,195000,280
2011/08/29,281,283,276,282,401000,282
2011/08/30,285,287,282,284,462000,284
2011/08/31,282,282,275,279,667000,279
2011/09/01,279,282,275,281,516000,281
2011/09/02,276,280,270,275,624000,275
2011/09/05,273,279,273,278,216000,278
2011/09/06,278,282,276,282,271000,282
2011/09/07,282,289,282,288,486000,288
2011/09/08,288,290,284,288,343000,288
2011/09/09,285,292,285,289,501000,289
2011/09/12,286,286,279,281,279000,281
2011/09/13,283,287,280,286,351000,286
2011/09/14,310,313,296,296,1920000,296
2011/09/15,300,302,298,299,599000,299
2011/09/16,302,302,299,300,345000,300
2011/09/20,299,299,293,295,282000,295
2011/09/21,296,296,290,290,232000,290
2011/09/22,285,290,284,289,478000,289
2011/09/26,286,287,280,281,460000,281
2011/09/27,285,289,282,289,523000,289
2011/09/28,290,305,287,305,767000,305
2011/09/29,300,307,299,307,482000,307
2011/09/30,308,308,302,306,351000,306
2011/10/03,298,311,295,307,706000,307
2011/10/04,304,307,301,303,429000,303
2011/10/05,306,306,300,301,514000,301
2011/10/06,301,305,299,300,229000,300
2011/10/07,300,305,299,299,212000,299
2011/10/11,301,302,299,299,231000,299
2011/10/12,300,304,300,300,435000,300
2011/10/13,300,302,297,298,164000,298
2011/10/14,294,295,293,294,146000,294
2011/10/17,298,300,294,298,224000,298
2011/10/18,299,299,292,292,189000,292
2011/10/19,293,295,283,286,332000,286
2011/10/20,286,288,283,288,155000,288
2011/10/21,286,289,285,286,122000,286
2011/10/24,290,293,287,290,196000,290
2011/10/25,290,291,284,285,242000,285
2011/10/26,282,286,280,283,250000,283
2011/10/27,285,286,279,286,272000,286
2011/10/28,284,289,282,282,420000,282
2011/10/31,282,288,279,279,398000,279
2011/11/01,277,283,277,283,259000,283
2011/11/02,278,282,278,280,234000,280
2011/11/04,283,287,281,285,223000,285
2011/11/07,285,288,284,288,191000,288
2011/11/08,285,287,267,270,595000,270
2011/11/09,276,281,273,281,239000,281
2011/11/10,275,284,269,275,568000,275
2011/11/11,273,275,267,273,287000,273
2011/11/14,275,278,273,275,170000,275
2011/11/15,273,276,270,274,203000,274
2011/11/16,270,271,265,265,246000,265
2011/11/17,265,271,260,270,313000,270
2011/11/18,268,275,267,273,405000,273
2011/11/21,274,275,273,275,337000,275
2011/11/22,274,280,273,277,309000,277
2011/11/24,273,280,272,276,252000,276
2011/11/25,274,276,272,275,316000,275
2011/11/28,278,281,276,278,273000,278
2011/11/29,278,280,276,279,173000,279
2011/11/30,276,279,275,278,196000,278
2011/12/01,279,280,277,278,93000,278
2011/12/02,277,283,277,283,193000,283
2011/12/05,281,287,280,286,237000,286
2011/12/06,287,288,280,281,351000,281
2011/12/07,281,284,276,283,478000,283
2011/12/08,282,283,279,281,119000,281
2011/12/09,276,279,276,279,407000,279
2011/12/12,280,281,279,279,120000,279
2011/12/13,275,278,275,276,221000,276
2011/12/14,275,277,271,273,288000,273
2011/12/15,269,272,262,271,651000,271
2011/12/16,271,276,271,272,233000,272
2011/12/19,269,272,265,268,362000,268
2011/12/20,266,272,266,271,256000,271
2011/12/21,275,276,272,273,265000,273
2011/12/22,271,273,269,270,137000,270
2011/12/26,271,271,270,271,73000,271
2011/12/27,271,277,270,275,237000,275
2011/12/28,275,276,275,275,63000,275
2011/12/29,275,277,273,275,122000,275
2011/12/30,276,282,276,280,138000,280
2012/01/04,286,290,284,285,390000,285
2012/01/05,285,285,282,282,251000,282
2012/01/06,282,283,280,282,191000,282
2012/01/10,286,297,286,294,629000,294
2012/01/11,295,295,290,293,277000,293
2012/01/12,293,293,289,291,178000,291
2012/01/13,293,294,289,292,148000,292
2012/01/16,289,294,288,294,251000,294
2012/01/17,293,310,292,306,823000,306
2012/01/18,311,311,303,304,612000,304
2012/01/19,302,306,300,301,310000,301
2012/01/20,305,309,302,308,559000,308
2012/01/23,309,314,309,312,523000,312
2012/01/24,314,314,310,310,217000,310
2012/01/25,309,312,308,309,247000,309
2012/01/26,313,316,305,306,616000,306
2012/01/27,304,306,297,300,766000,300
2012/01/30,300,303,300,300,417000,300
2012/01/31,298,304,298,304,407000,304
2012/02/01,303,309,301,306,385000,306
2012/02/02,309,310,308,309,224000,309
2012/02/03,306,308,305,305,238000,305
2012/02/06,308,309,307,308,166000,308
2012/02/07,309,315,309,312,386000,312
2012/02/08,310,315,310,313,409000,313
2012/02/09,312,313,307,307,376000,307
2012/02/10,308,308,304,308,383000,308
2012/02/13,305,305,295,300,678000,300
2012/02/14,284,292,283,290,1590000,290
2012/02/15,291,292,288,291,703000,291
2012/02/16,292,292,289,291,289000,291
2012/02/17,293,293,290,292,231000,292
2012/02/20,290,291,283,286,805000,286
2012/02/21,286,289,282,286,1097000,286
2012/02/22,288,289,286,288,596000,288
2012/02/23,286,293,286,291,696000,291
2012/02/24,291,292,289,290,483000,290
2012/02/27,290,292,289,290,611000,290
2012/02/28,290,294,289,294,400000,294
2012/02/29,295,295,292,292,575000,292
2012/03/01,292,295,290,292,513000,292
2012/03/02,292,293,290,291,413000,291
2012/03/05,290,292,290,291,283000,291
2012/03/06,290,294,289,294,442000,294
2012/03/07,291,294,291,294,276000,294
2012/03/08,296,296,293,294,233000,294
2012/03/09,296,296,294,296,598000,296
2012/03/12,296,297,292,293,424000,293
2012/03/13,292,298,291,291,682000,291
2012/03/14,295,296,293,294,411000,294
2012/03/15,295,295,293,293,203000,293
2012/03/16,293,294,292,292,341000,292
2012/03/19,292,294,292,294,337000,294
2012/03/21,294,296,291,292,465000,292
2012/03/22,291,292,288,289,452000,289
2012/03/23,289,289,286,286,370000,286
2012/03/26,287,288,286,287,533000,287
2012/03/27,289,291,285,288,739000,288
2012/03/28,285,285,278,280,766000,280
2012/03/29,280,283,277,278,1236000,278
2012/03/30,280,281,278,278,627000,278
2012/04/02,280,280,271,273,767000,273
2012/04/03,274,274,270,270,591000,270
2012/04/04,270,271,268,268,664000,268
2012/04/05,268,270,268,270,384000,270
2012/04/06,268,268,266,267,534000,267
2012/04/09,267,268,266,267,361000,267
2012/04/10,268,268,265,266,455000,266
2012/04/11,265,265,260,262,383000,262
2012/04/12,262,262,260,261,221000,261
2012/04/13,261,264,258,263,590000,263
2012/04/16,262,264,260,262,372000,262
2012/04/17,261,262,259,260,246000,260
2012/04/18,262,264,258,261,379000,261
2012/04/19,259,260,255,255,416000,255
2012/04/20,256,257,254,256,402000,256
2012/04/23,256,257,251,252,659000,252
2012/04/24,250,255,250,253,367000,253
2012/04/25,255,256,254,254,212000,254
2012/04/26,257,259,257,259,281000,259
2012/04/27,260,260,253,255,596000,255
2012/05/01,252,255,249,249,279000,249
2012/05/02,250,252,248,251,360000,251
2012/05/07,247,248,242,243,386000,243
2012/05/08,244,245,241,243,288000,243
2012/05/09,241,243,238,238,273000,238
2012/05/10,236,240,232,238,360000,238
2012/05/11,238,239,230,230,264000,230
2012/05/14,228,233,225,226,364000,226
2012/05/15,227,236,225,235,475000,235
2012/05/16,235,235,226,227,370000,227
2012/05/17,225,230,225,230,382000,230
2012/05/18,225,226,219,221,576000,221
2012/05/21,224,226,219,226,411000,226
2012/05/22,220,224,220,221,449000,221
2012/05/23,220,221,209,212,979000,212
2012/05/24,209,216,209,216,378000,216
2012/05/25,216,216,212,213,203000,213
2012/05/28,216,216,209,209,169000,209
2012/05/29,208,212,204,212,317000,212
2012/05/30,210,211,207,209,245000,209
2012/05/31,204,211,204,209,294000,209
2012/06/01,209,209,204,207,281000,207
2012/06/04,202,207,201,206,403000,206
2012/06/05,205,218,205,217,469000,217
2012/06/06,218,218,213,213,269000,213
2012/06/07,216,219,214,219,337000,219
2012/06/08,220,220,207,212,717000,212
2012/06/11,218,218,212,215,401000,215
2012/06/12,213,218,211,218,329000,218
2012/06/13,219,220,216,218,363000,218
2012/06/14,218,221,217,221,249000,221
2012/06/15,221,223,217,220,338000,220
2012/06/18,224,224,222,223,245000,223
2012/06/19,221,224,217,217,308000,217
2012/06/20,219,225,219,225,298000,225
2012/06/21,225,229,225,229,467000,229
2012/06/22,225,230,224,227,211000,227
2012/06/25,228,236,226,233,505000,233
2012/06/26,233,235,229,230,423000,230
2012/06/27,231,241,230,240,430000,240
2012/06/28,241,244,240,243,340000,243
2012/06/29,243,250,243,248,470000,248
2012/07/02,255,255,245,246,858000,246
2012/07/03,244,247,242,244,323000,244
2012/07/04,245,248,245,245,190000,245
2012/07/05,245,247,241,243,164000,243
2012/07/06,243,246,242,243,236000,243
2012/07/09,242,248,242,248,200000,248
2012/07/10,249,249,245,245,220000,245
2012/07/11,245,245,242,244,125000,244
2012/07/12,245,245,240,241,281000,241
2012/07/13,239,245,239,243,159000,243
2012/07/17,243,246,240,242,146000,242
2012/07/18,240,242,237,237,326000,237
2012/07/19,238,243,235,237,184000,237
2012/07/20,236,237,228,230,288000,230
2012/07/23,229,229,225,225,287000,225
2012/07/24,224,226,221,224,227000,224
2012/07/25,224,225,218,218,241000,218
2012/07/26,220,226,218,226,198000,226
2012/07/27,227,236,227,233,332000,233
2012/07/30,234,235,231,234,188000,234
2012/07/31,234,241,234,240,242000,240
2012/08/01,237,237,233,235,182000,235
2012/08/02,234,236,234,235,129000,235
2012/08/03,232,233,229,230,122000,230
2012/08/06,234,235,231,233,138000,233
2012/08/07,232,236,232,235,89000,235
2012/08/08,237,243,236,240,210000,240
2012/08/09,243,246,235,243,509000,243
2012/08/10,245,245,239,242,240000,242
2012/08/13,242,242,238,239,121000,239
2012/08/14,239,245,239,243,162000,243
2012/08/15,245,245,239,241,231000,241
2012/08/16,239,243,239,242,228000,242
2012/08/17,243,244,241,244,124000,244
2012/08/20,245,250,243,247,284000,247
2012/08/21,248,250,247,248,201000,248
2012/08/22,247,248,238,244,248000,244
2012/08/23,243,244,240,243,170000,243
2012/08/24,244,244,239,242,184000,242
2012/08/27,244,244,234,238,418000,238
2012/08/28,238,238,228,234,460000,234
2012/08/29,235,237,235,237,99000,237
2012/08/30,237,239,231,231,179000,231
2012/08/31,228,232,228,229,108000,229
2012/09/03,230,237,225,233,575000,233
2012/09/04,233,233,228,230,285000,230
2012/09/05,231,232,228,231,161000,231
2012/09/06,231,234,226,228,174000,228
2012/09/07,231,232,228,231,96000,231
2012/09/10,232,233,229,232,146000,232
2012/09/11,230,230,228,230,86000,230
2012/09/12,232,235,230,235,166000,235
2012/09/13,233,237,233,236,145000,236
2012/09/14,239,240,235,239,446000,239
2012/09/18,238,240,237,240,245000,240
2012/09/19,242,243,238,239,265000,239
2012/09/20,235,239,234,236,277000,236
2012/09/21,235,236,234,236,268000,236
2012/09/24,235,235,227,231,228000,231
2012/09/25,229,235,228,235,314000,235
2012/09/26,233,237,232,236,220000,236
2012/09/27,236,238,233,237,296000,237
2012/09/28,237,238,235,235,169000,235
2012/10/01,234,234,229,233,119000,233
2012/10/02,232,235,231,231,145000,231
2012/10/03,230,232,228,230,180000,230
2012/10/04,231,238,229,235,163000,235
2012/10/05,236,236,230,235,142000,235
2012/10/09,236,238,233,235,245000,235
2012/10/10,231,236,229,234,243000,234
2012/10/11,231,234,227,227,360000,227
2012/10/12,227,228,221,226,362000,226
2012/10/15,225,228,222,226,182000,226
2012/10/16,225,226,223,224,137000,224
2012/10/17,222,230,221,227,220000,227
2012/10/18,228,231,227,229,172000,229
2012/10/19,227,231,227,228,186000,228
2012/10/22,227,232,225,231,206000,231
2012/10/23,231,231,228,229,143000,229
2012/10/24,226,227,226,227,207000,227
2012/10/25,226,237,226,236,327000,236
2012/10/26,237,238,231,233,291000,233
2012/10/29,234,241,233,240,487000,240
2012/10/30,241,242,235,236,687000,236
2012/10/31,238,243,237,241,501000,241
2012/11/01,226,238,219,220,930000,220
2012/11/02,227,227,215,221,680000,221
2012/11/05,220,220,212,215,195000,215
2012/11/06,214,214,207,210,287000,210
2012/11/07,210,210,207,207,254000,207
2012/11/08,205,206,199,200,589000,200
2012/11/09,200,200,192,194,487000,194
2012/11/12,193,193,186,190,543000,190
2012/11/13,190,190,183,187,431000,187
2012/11/14,188,191,186,190,375000,190
2012/11/15,192,198,192,197,359000,197
2012/11/16,197,201,196,201,573000,201
2012/11/19,202,205,201,203,644000,203
2012/11/20,206,207,200,201,415000,201
2012/11/21,203,203,200,201,273000,201
2012/11/22,204,206,203,206,284000,206
2012/11/26,209,210,205,207,565000,207
2012/11/27,208,212,207,210,505000,210
2012/11/28,208,209,204,204,344000,204
2012/11/29,205,206,204,204,287000,204
2012/11/30,204,205,200,201,582000,201
2012/12/03,208,213,203,210,802000,210
2012/12/04,210,210,206,207,425000,207
2012/12/05,207,207,203,204,550000,204
2012/12/06,206,207,204,206,658000,206
2012/12/07,205,209,205,207,580000,207
2012/12/10,210,210,205,206,494000,206
2012/12/11,208,209,207,209,298000,209
2012/12/12,209,210,207,209,344000,209
2012/12/13,212,212,210,210,386000,210
2012/12/14,212,221,211,219,1191000,219
2012/12/17,222,224,219,219,742000,219
2012/12/18,221,230,220,227,1190000,227
2012/12/19,229,252,229,246,2428000,246
2012/12/20,247,250,242,246,1127000,246
2012/12/21,254,260,246,249,1606000,249
2012/12/25,258,258,252,253,661000,253
2012/12/26,260,263,255,263,1146000,263
2012/12/27,267,268,264,266,991000,266
2012/12/28,269,269,259,262,713000,262
2013/01/04,270,272,265,268,774000,268
2013/01/07,270,270,264,268,679000,268
2013/01/08,270,273,264,266,632000,266
2013/01/09,262,270,261,268,587000,268
2013/01/10,269,271,267,271,361000,271
2013/01/11,272,273,267,267,605000,267
2013/01/15,270,272,267,269,493000,269
2013/01/16,269,269,261,262,745000,262
2013/01/17,262,262,247,253,1052000,253
2013/01/18,256,257,248,255,895000,255
2013/01/21,261,262,253,257,684000,257
2013/01/22,257,257,250,252,649000,252
2013/01/23,250,250,241,243,634000,243
2013/01/24,238,247,238,246,441000,246
2013/01/25,252,255,249,253,606000,253
2013/01/28,256,256,245,246,752000,246
2013/01/29,246,247,238,242,871000,242
2013/01/30,243,254,242,251,684000,251
2013/01/31,253,255,249,251,689000,251
2013/02/01,252,254,246,246,568000,246
2013/02/04,248,248,242,245,437000,245
2013/02/05,242,247,240,240,862000,240
2013/02/06,242,245,241,242,740000,242
2013/02/07,241,245,240,244,687000,244
2013/02/08,245,245,239,241,578000,241
2013/02/12,242,244,236,241,875000,241
2013/02/13,217,226,213,215,2858000,215
2013/02/14,210,211,205,205,1780000,205
2013/02/15,206,208,197,200,1258000,200
2013/02/18,201,210,201,208,1256000,208
2013/02/19,206,211,205,207,1043000,207
2013/02/20,209,210,206,208,796000,208
2013/02/21,208,211,207,210,544000,210
2013/02/22,208,209,203,206,946000,206
2013/02/25,209,210,206,207,603000,207
2013/02/26,206,208,205,205,589000,205
2013/02/27,208,213,206,210,1033000,210
2013/02/28,209,210,205,208,1336000,208
2013/03/01,207,209,207,209,767000,209
2013/03/04,213,213,208,210,812000,210
2013/03/05,212,212,210,211,497000,211
2013/03/06,212,214,212,213,394000,213
2013/03/07,214,214,211,213,677000,213
2013/03/08,212,215,212,214,1121000,214
2013/03/11,217,225,216,219,1243000,219
2013/03/12,221,223,218,219,1733000,219
2013/03/13,221,224,220,220,703000,220
2013/03/14,221,223,218,221,1062000,221
2013/03/15,223,227,221,227,1451000,227
2013/03/18,219,223,217,220,1180000,220
2013/03/19,222,224,220,223,528000,223
2013/03/21,224,227,224,226,867000,226
2013/03/22,227,227,224,224,552000,224
2013/03/25,225,226,223,225,641000,225
2013/03/26,223,225,220,225,1010000,225
2013/03/27,224,226,221,225,700000,225
2013/03/28,224,224,219,224,390000,224
2013/03/29,224,224,219,221,715000,221
2013/04/01,219,225,218,222,685000,222
2013/04/02,220,220,212,217,941000,217
2013/04/03,215,219,213,218,523000,218
2013/04/04,215,225,213,225,723000,225
2013/04/05,227,230,224,227,1297000,227
2013/04/08,230,240,230,240,1193000,240
2013/04/09,240,248,240,244,1012000,244
2013/04/10,243,243,235,241,834000,241
2013/04/11,245,248,240,241,572000,241
2013/04/12,240,241,235,236,1019000,236
2013/04/15,235,238,233,234,490000,234
2013/04/16,232,235,230,230,735000,230
2013/04/17,233,234,231,232,321000,232
2013/04/18,232,235,231,232,390000,232
2013/04/19,231,241,231,238,1071000,238
2013/04/22,243,258,243,258,1869000,258
2013/04/23,258,310,258,304,5039000,304
2013/04/24,291,300,288,298,2260000,298
2013/04/25,298,299,288,294,1049000,294
2013/04/26,294,295,284,289,1192000,289
2013/04/30,290,294,287,287,449000,287
2013/05/01,287,297,285,292,821000,292
2013/05/02,293,293,280,283,735000,283
2013/05/07,290,299,290,293,786000,293
2013/05/08,295,298,292,293,562000,293
2013/05/09,293,294,289,289,304000,289
2013/05/10,294,296,286,289,720000,289
2013/05/13,294,295,288,291,408000,291
2013/05/14,288,320,288,319,3374000,319
2013/05/15,315,317,300,301,1640000,301
2013/05/16,301,301,286,290,994000,290
2013/05/17,290,316,290,313,2002000,313
2013/05/20,313,316,306,314,687000,314
2013/05/21,310,319,310,317,899000,317
2013/05/22,315,319,312,318,653000,318
2013/05/23,321,329,294,294,1813000,294
2013/05/24,300,310,292,301,1041000,301
2013/05/27,297,297,283,283,847000,283
2013/05/28,280,287,276,281,667000,281
2013/05/29,288,294,282,288,456000,288
2013/05/30,286,286,273,275,929000,275
2013/05/31,284,289,272,274,1070000,274
2013/06/03,271,271,265,266,847000,266
2013/06/04,260,270,256,268,965000,268
2013/06/05,269,286,266,269,1440000,269
2013/06/06,261,274,260,262,650000,262
2013/06/07,255,265,251,259,920000,259
2013/06/10,266,271,260,271,729000,271
2013/06/11,271,276,267,272,564000,272
2013/06/12,265,273,257,270,540000,270
2013/06/13,260,262,252,258,797000,258
2013/06/14,259,265,256,257,1171000,257
2013/06/17,256,269,256,269,523000,269
2013/06/18,274,277,261,264,575000,264
2013/06/19,272,279,271,275,821000,275
2013/06/20,271,275,268,269,606000,269
2013/06/21,261,266,259,264,945000,264
2013/06/24,270,271,266,267,291000,267
2013/06/25,268,268,258,264,296000,264
2013/06/26,267,267,254,254,423000,254
2013/06/27,257,262,254,260,433000,260
2013/06/28,265,276,263,275,728000,275
2013/07/01,279,284,275,283,581000,283
2013/07/02,289,295,285,295,682000,295
2013/07/03,295,296,288,292,314000,292
2013/07/04,292,293,288,289,148000,289
2013/07/05,289,295,288,295,345000,295
2013/07/08,298,298,288,288,371000,288
2013/07/09,293,296,289,296,207000,296
2013/07/10,296,297,291,295,253000,295
2013/07/11,290,303,290,302,499000,302
2013/07/12,300,315,298,312,1234000,312
2013/07/16,312,317,311,313,603000,313
2013/07/17,313,313,306,309,467000,309
2013/07/18,308,308,297,299,816000,299
2013/07/19,301,305,295,298,502000,298
2013/07/22,301,305,296,303,668000,303
2013/07/23,303,307,302,303,508000,303
2013/07/24,303,303,299,300,362000,300
2013/07/25,301,301,291,291,499000,291
2013/07/26,290,290,284,287,578000,287
2013/07/29,285,285,277,281,499000,281
2013/07/30,279,284,277,283,430000,283
2013/07/31,283,285,277,279,366000,279
2013/08/01,280,286,278,286,230000,286
2013/08/02,289,292,282,292,359000,292
2013/08/05,290,293,288,291,223000,291
2013/08/06,289,293,284,292,274000,292
2013/08/07,290,290,284,284,229000,284
2013/08/08,281,293,281,286,488000,286
2013/08/09,302,316,299,312,2581000,312
2013/08/12,309,320,307,314,1187000,314
2013/08/13,313,314,308,312,730000,312
2013/08/14,314,320,313,319,749000,319
2013/08/15,317,317,311,312,415000,312
2013/08/16,310,314,309,311,368000,311
2013/08/19,311,315,309,315,235000,315
2013/08/20,311,316,308,309,262000,309
2013/08/21,311,313,303,305,368000,305
2013/08/22,305,315,305,312,279000,312
2013/08/23,313,318,312,315,396000,315
2013/08/26,316,321,315,316,613000,316
2013/08/27,314,314,309,311,386000,311
2013/08/28,305,305,298,302,378000,302
2013/08/29,303,304,300,302,201000,302
2013/08/30,302,305,293,295,424000,295
2013/09/02,296,306,296,304,370000,304
2013/09/03,310,312,305,306,310000,306
2013/09/04,303,307,299,305,481000,305
2013/09/05,305,306,301,302,246000,302
2013/09/06,305,305,292,295,539000,295
2013/09/09,343,343,324,336,2824000,336
2013/09/10,343,384,343,367,5070000,367
2013/09/11,375,377,346,349,2803000,349
2013/09/12,349,352,339,346,1313000,346
2013/09/13,343,346,339,344,1061000,344
2013/09/17,345,352,343,344,851000,344
2013/09/18,345,345,332,336,1087000,336
2013/09/19,338,346,336,344,1322000,344
2013/09/20,348,350,342,347,975000,347
2013/09/24,344,346,338,344,534000,344
2013/09/25,343,343,333,335,662000,335
2013/09/26,330,344,326,344,1002000,344
2013/09/27,345,346,337,338,598000,338
2013/09/30,335,339,329,336,535000,336
2013/10/01,336,336,331,332,764000,332
2013/10/02,332,334,322,323,856000,323
2013/10/03,321,324,316,320,549000,320
2013/10/04,317,322,315,318,592000,318
2013/10/07,316,317,307,308,519000,308
2013/10/08,303,315,301,314,617000,314
2013/10/09,310,319,306,318,510000,318
2013/10/10,319,321,314,318,423000,318
2013/10/11,323,327,321,326,455000,326
2013/10/15,331,334,325,327,805000,327
2013/10/16,326,331,322,327,624000,327
2013/10/17,330,333,325,329,310000,329
2013/10/18,328,333,327,332,415000,332
2013/10/21,335,335,329,332,336000,332
2013/10/22,332,334,327,333,518000,333
2013/10/23,334,336,324,325,827000,325
2013/10/24,323,333,322,333,1030000,333
2013/10/25,333,340,330,333,800000,333
2013/10/28,350,352,334,343,1620000,343
2013/10/29,340,348,338,345,861000,345
2013/10/30,385,386,346,361,8963000,361
2013/10/31,362,367,356,358,1513000,358
2013/11/01,359,359,348,355,1249000,355
2013/11/05,356,356,347,351,825000,351
2013/11/06,350,353,346,352,565000,352
2013/11/07,354,361,348,350,889000,350
2013/11/08,345,352,345,351,545000,351
2013/11/11,353,354,345,351,752000,351
2013/11/12,351,360,346,354,1312000,354
2013/11/13,352,352,340,347,1161000,347
2013/11/14,347,357,346,352,958000,352
2013/11/15,354,357,351,355,943000,355
2013/11/18,360,360,351,353,657000,353
2013/11/19,351,356,350,353,471000,353
2013/11/20,354,359,354,357,843000,357
2013/11/21,358,362,357,361,824000,361
2013/11/22,363,363,356,361,754000,361
2013/11/25,362,364,357,361,708000,361
2013/11/26,357,363,357,359,679000,359
2013/11/27,357,358,344,348,1068000,348
2013/11/28,351,351,345,347,422000,347
2013/11/29,344,349,344,347,429000,347
2013/12/02,352,355,349,353,845000,353
2013/12/03,356,357,352,352,438000,352
2013/12/04,354,354,343,347,696000,347
2013/12/05,347,352,344,346,655000,346
2013/12/06,344,346,340,345,662000,345
2013/12/09,348,348,342,344,342000,344
2013/12/10,346,353,344,346,819000,346
2013/12/11,345,354,344,351,591000,351
2013/12/12,349,351,345,346,393000,346
2013/12/13,344,350,340,345,1232000,345
2013/12/16,345,345,334,334,716000,334
2013/12/17,334,339,334,337,392000,337
2013/12/18,335,343,335,342,392000,342
2013/12/19,345,348,340,342,535000,342
2013/12/20,344,344,338,341,528000,341
2013/12/24,342,345,336,338,617000,338
2013/12/25,335,342,335,340,668000,340
2013/12/26,340,355,340,355,888000,355
2013/12/27,356,360,353,360,844000,360
2013/12/30,365,368,362,365,1081000,365
2014/01/06,368,370,364,368,928000,368
2014/01/07,370,377,369,370,1036000,370
2014/01/08,377,384,375,384,1425000,384
2014/01/09,385,385,379,383,821000,383
2014/01/10,380,382,372,381,769000,381
2014/01/14,375,375,366,368,801000,368
2014/01/15,372,377,370,377,520000,377
2014/01/16,378,381,372,373,562000,373
2014/01/17,373,380,373,376,730000,376
2014/01/20,377,384,377,382,876000,382
2014/01/21,383,384,374,374,949000,374
2014/01/22,375,375,367,372,503000,372
2014/01/23,375,378,369,370,628000,370
2014/01/24,365,365,358,360,906000,360
2014/01/27,355,355,348,348,797000,348
2014/01/28,348,349,341,341,982000,341
2014/01/29,344,354,344,354,517000,354
2014/01/30,346,349,343,346,571000,346
2014/01/31,350,352,342,344,748000,344
2014/02/03,342,345,335,335,600000,335
2014/02/04,323,323,308,308,1134000,308
2014/02/05,314,320,306,313,962000,313
2014/02/06,316,331,315,325,862000,325
2014/02/07,330,338,324,329,634000,329
2014/02/10,337,338,331,336,375000,336
2014/02/12,339,342,336,338,381000,338
2014/02/13,341,344,335,337,610000,337
2014/02/14,334,336,324,327,910000,327
2014/02/17,326,335,318,334,387000,334
2014/02/18,334,339,329,337,521000,337
2014/02/19,329,330,325,326,1047000,326
2014/02/20,323,324,313,314,1073000,314
2014/02/21,317,322,317,321,531000,321
2014/02/24,323,330,321,327,615000,327
2014/02/25,329,332,326,330,430000,330
2014/02/26,327,334,327,330,448000,330
2014/02/27,329,331,325,327,417000,327
2014/02/28,325,326,321,322,591000,322
2014/03/03,320,324,316,323,609000,323
2014/03/04,321,327,318,325,385000,325
2014/03/05,329,329,323,325,451000,325
2014/03/06,321,332,321,331,694000,331
2014/03/07,334,337,331,335,299000,335
2014/03/10,336,337,333,335,278000,335
2014/03/11,335,340,335,338,382000,338
2014/03/12,335,336,327,328,329000,328
2014/03/13,328,330,326,329,333000,329
2014/03/14,325,327,318,320,1062000,320
2014/03/17,319,320,311,313,608000,313
2014/03/18,320,323,317,318,890000,318
2014/03/19,320,323,312,316,754000,316
2014/03/20,318,318,306,307,927000,307
2014/03/24,312,323,310,316,842000,316
2014/03/25,316,328,316,320,821000,320
2014/03/26,323,330,321,328,1066000,328
2014/03/27,327,338,322,336,1129000,336
2014/03/28,334,341,331,340,1079000,340
2014/03/31,342,342,329,339,798000,339
2014/04/01,341,343,336,341,861000,341
2014/04/02,342,344,336,336,945000,336
2014/04/03,338,340,331,331,709000,331
2014/04/04,328,332,323,327,885000,327
2014/04/07,324,328,320,322,525000,322
2014/04/08,319,322,315,317,560000,317
2014/04/09,315,317,308,308,842000,308
2014/04/10,312,314,310,311,626000,311
2014/04/11,306,315,304,312,950000,312
2014/04/14,310,317,310,312,596000,312
2014/04/15,315,320,313,317,825000,317
2014/04/16,320,330,320,328,671000,328
2014/04/17,330,343,330,341,1537000,341
2014/04/18,342,343,335,340,621000,340
2014/04/21,340,346,337,342,1027000,342
2014/04/22,345,357,343,352,1813000,352
2014/04/23,353,355,345,350,755000,350
2014/04/24,349,356,345,355,751000,355
2014/04/25,354,364,348,363,1242000,363
2014/04/28,362,362,355,358,541000,358
2014/04/30,360,360,352,358,610000,358
2014/05/01,358,361,350,361,500000,361
2014/05/02,359,359,353,357,379000,357
2014/05/07,351,354,335,338,1316000,338
2014/05/08,339,343,332,332,1250000,332
2014/05/09,331,335,328,331,779000,331
2014/05/12,332,334,331,332,754000,332
2014/05/13,336,339,334,338,466000,338
2014/05/14,337,341,333,335,1067000,335
2014/05/15,334,341,311,340,2543000,340
2014/05/16,335,335,313,315,1523000,315
2014/05/19,313,314,304,308,1505000,308
2014/05/20,308,314,308,312,1160000,312
2014/05/21,311,314,307,311,1044000,311
2014/05/22,310,314,308,313,935000,313
2014/05/23,313,318,312,317,1322000,317
2014/05/26,317,317,312,315,634000,315
2014/05/27,315,320,315,318,682000,318
2014/05/28,320,329,320,324,794000,324
2014/05/29,323,327,319,323,293000,323
2014/05/30,325,327,323,323,957000,323
2014/06/02,328,333,327,330,880000,330
2014/06/03,331,332,325,326,621000,326
2014/06/04,324,340,323,337,1245000,337
2014/06/05,340,342,335,337,681000,337
2014/06/06,340,345,339,344,1036000,344
2014/06/09,345,348,342,343,625000,343
2014/06/10,342,347,338,339,745000,339
2014/06/11,339,358,339,357,2985000,357
2014/06/12,351,359,346,357,1300000,357
2014/06/13,357,357,349,355,1262000,355
2014/06/16,355,355,347,352,615000,352
2014/06/17,352,355,348,354,812000,354
2014/06/18,354,360,354,359,841000,359
2014/06/19,359,369,357,365,1314000,365
2014/06/20,365,372,364,371,1209000,371
2014/06/23,371,372,366,369,486000,369
2014/06/24,370,372,363,372,569000,372
2014/06/25,370,376,369,371,494000,371
2014/06/26,403,406,393,403,4447000,403
2014/06/27,403,403,383,394,2912000,394
2014/06/30,393,398,390,394,2271000,394
2014/07/01,395,399,392,395,1696000,395
2014/07/02,398,398,393,394,922000,394
2014/07/03,392,393,387,389,1118000,389
2014/07/04,392,394,386,393,1081000,393
2014/07/07,392,394,391,394,531000,394
2014/07/08,393,397,388,396,839000,396
2014/07/09,391,395,389,391,560000,391
2014/07/10,391,394,386,388,619000,388
2014/07/11,382,391,380,391,499000,391
2014/07/14,387,393,385,390,613000,390
2014/07/15,393,396,392,394,556000,394
2014/07/16,391,398,389,395,861000,395
2014/07/17,397,405,397,400,1088000,400
2014/07/18,393,402,389,400,677000,400
2014/07/22,406,428,406,425,2150000,425
2014/07/23,425,436,425,429,1193000,429
2014/07/24,425,427,420,425,1055000,425
2014/07/25,430,444,429,436,1538000,436
2014/07/28,440,454,438,446,1377000,446
2014/07/29,450,454,444,449,913000,449
2014/07/30,449,450,443,447,1035000,447
2014/07/31,449,449,443,446,668000,446
2014/08/01,438,446,437,443,781000,443
2014/08/04,443,450,440,448,835000,448
2014/08/05,445,452,442,442,1203000,442
2014/08/06,441,450,441,442,1281000,442
2014/08/07,438,450,434,447,1309000,447
2014/08/08,503,509,472,487,6615000,487
2014/08/11,500,553,497,547,5939000,547
2014/08/12,540,569,523,525,7264000,525
2014/08/13,530,532,512,514,4112000,514
2014/08/14,520,536,510,533,3977000,533
2014/08/15,528,554,525,541,3729000,541
2014/08/18,547,559,539,554,2856000,554
2014/08/19,557,563,548,558,1466000,558
2014/08/20,559,561,549,553,1460000,553
2014/08/21,556,556,543,554,1321000,554
2014/08/22,554,555,533,536,1839000,536
2014/08/25,537,553,535,548,1651000,548
2014/08/26,546,568,546,564,2629000,564
2014/08/27,562,574,556,561,2897000,561
2014/08/28,562,567,551,555,2733000,555
2014/08/29,547,551,544,548,1250000,548
2014/09/01,550,558,546,557,1247000,557
2014/09/02,560,560,548,552,1595000,552
2014/09/03,557,557,546,550,2330000,550
2014/09/04,548,552,540,542,1775000,542
2014/09/05,547,551,542,544,1641000,544
2014/09/08,542,552,538,550,1173000,550
2014/09/09,549,558,547,548,1599000,548
2014/09/10,543,548,527,540,1476000,540
2014/09/11,541,541,522,525,1196000,525
2014/09/12,529,533,520,524,1274000,524
2014/09/16,521,527,519,525,708000,525
2014/09/17,526,528,521,522,551000,522
2014/09/18,527,528,517,519,700000,519
2014/09/19,524,532,522,527,1682000,527
2014/09/22,525,526,514,521,1072000,521
2014/09/24,519,545,516,543,1919000,543
2014/09/25,545,545,537,541,863000,541
2014/09/26,531,547,531,546,736000,546
2014/09/29,550,560,546,555,1040000,555
2014/09/30,551,554,540,551,1108000,551
2014/10/01,553,553,536,536,694000,536
2014/10/02,528,528,509,509,1875000,509
2014/10/03,505,527,504,521,1457000,521
2014/10/06,528,528,518,522,892000,522
2014/10/07,523,523,508,508,978000,508
2014/10/08,500,512,499,509,1128000,509
2014/10/09,508,509,474,475,1695000,475
2014/10/10,459,470,457,464,2488000,464
2014/10/14,450,460,448,454,1081000,454
2014/10/15,454,469,454,466,1217000,466
2014/10/16,453,460,448,449,1265000,449
2014/10/17,450,458,444,445,1240000,445
2014/10/20,458,474,458,472,1280000,472
2014/10/21,471,477,464,471,1497000,471
2014/10/22,481,490,478,489,1615000,489
2014/10/23,486,495,478,489,2473000,489
2014/10/24,494,495,479,481,1126000,481
2014/10/27,483,488,479,484,1064000,484
2014/10/28,483,488,477,478,1175000,478
2014/10/29,482,489,481,483,1550000,483
2014/10/30,480,490,476,479,1711000,479
2014/10/31,485,492,473,490,3554000,490
2014/11/04,512,515,491,492,1950000,492
2014/11/05,492,508,491,506,1946000,506
2014/11/06,512,514,501,504,1277000,504
2014/11/07,504,506,493,495,1106000,495
2014/11/10,493,496,485,487,836000,487
2014/11/11,486,492,480,491,911000,491
2014/11/12,494,498,461,463,3039000,463
2014/11/13,463,469,454,461,1788000,461
2014/11/14,468,468,452,467,2062000,467
2014/11/17,464,467,450,453,1505000,453
2014/11/18,458,472,458,471,1358000,471
2014/11/19,475,487,475,482,1239000,482
2014/11/20,485,490,475,475,715000,475
2014/11/21,475,478,466,476,1050000,476
2014/11/25,477,480,468,470,771000,470
2014/11/26,468,474,467,471,665000,471
2014/11/27,474,489,473,483,1920000,483
2014/11/28,485,498,482,491,1472000,491
2014/12/01,493,496,485,491,841000,491
2014/12/02,489,496,485,495,985000,495
2014/12/03,495,498,486,488,940000,488
2014/12/04,489,491,482,484,673000,484
2014/12/05,481,481,475,477,660000,477
2014/12/08,473,477,472,474,765000,474
2014/12/09,470,475,462,462,566000,462
2014/12/10,461,466,454,458,850000,458
2014/12/11,453,464,450,463,1113000,463
2014/12/12,457,473,457,467,1567000,467
2014/12/15,464,466,457,458,920000,458
2014/12/16,451,455,447,447,1278000,447
2014/12/17,446,454,445,445,958000,445
2014/12/18,458,464,452,460,1097000,460
2014/12/19,470,472,463,466,912000,466
2014/12/22,465,466,453,457,1228000,457
2014/12/24,465,465,454,457,612000,457
2014/12/25,453,458,452,456,737000,456
2014/12/26,452,465,452,464,1036000,464
2014/12/29,469,481,468,480,1578000,480
2014/12/30,482,482,471,478,1065000,478
2015/01/05,477,479,469,476,849000,476
2015/01/06,466,468,455,457,1496000,457
2015/01/07,456,460,450,450,813000,450
2015/01/08,453,457,448,450,784000,450
2015/01/09,453,455,448,450,929000,450
2015/01/13,446,446,441,446,573000,446
2015/01/14,444,447,437,438,615000,438
2015/01/15,438,453,438,450,942000,450
2015/01/16,439,444,434,443,916000,443
2015/01/19,443,446,437,442,569000,442
2015/01/20,441,444,436,440,913000,440
2015/01/21,440,440,433,437,729000,437
2015/01/22,436,437,427,431,776000,431
2015/01/23,434,435,429,433,599000,433
2015/01/26,429,435,427,429,603000,429
2015/01/27,430,435,429,434,679000,434
2015/01/28,432,438,431,435,913000,435
2015/01/29,432,434,428,429,673000,429
2015/01/30,434,434,423,424,1105000,424
2015/02/02,420,420,411,413,936000,413
2015/02/03,415,420,414,416,955000,416
2015/02/04,420,429,420,424,749000,424
2015/02/05,425,427,420,424,766000,424
2015/02/06,425,427,422,424,874000,424
2015/02/09,429,430,423,426,702000,426
2015/02/10,426,429,424,425,505000,425
2015/02/12,432,438,428,428,831000,428
2015/02/13,432,433,427,429,878000,429
2015/02/16,449,457,439,442,2236000,442
2015/02/17,439,439,432,436,1103000,436
2015/02/18,435,447,435,437,1372000,437
2015/02/19,438,447,438,447,1001000,447
2015/02/20,449,458,448,457,1183000,457
2015/02/23,463,466,460,464,1323000,464
2015/02/24,466,471,462,470,1396000,470
2015/02/25,472,477,469,475,1198000,475
2015/02/26,477,481,477,480,903000,480
2015/02/27,479,484,472,478,1417000,478
2015/03/02,479,480,472,476,838000,476
2015/03/03,474,479,466,471,1117000,471
2015/03/04,466,468,460,464,864000,464
2015/03/05,461,463,459,462,584000,462
2015/03/06,465,470,460,462,1105000,462
2015/03/09,459,460,454,456,765000,456
2015/03/10,459,460,454,456,580000,456
2015/03/11,452,473,452,471,1252000,471
2015/03/12,474,482,474,479,1149000,479
2015/03/13,483,483,469,474,1327000,474
2015/03/16,475,477,470,475,543000,475
2015/03/17,477,480,472,476,598000,476
2015/03/18,478,478,472,476,442000,476
2015/03/19,474,474,465,470,508000,470
2015/03/20,471,471,463,470,716000,470
2015/03/23,472,473,466,472,667000,472
2015/03/24,471,499,471,496,2267000,496
2015/03/25,506,518,501,518,3002000,518
2015/03/26,510,527,503,523,2271000,523
2015/03/27,522,526,509,513,1434000,513
2015/03/30,510,510,496,505,1557000,505
2015/03/31,515,520,504,507,843000,507
2015/04/01,505,508,493,504,898000,504
2015/04/02,504,519,504,514,1174000,514
2015/04/03,517,520,514,517,617000,517
2015/04/06,515,516,510,512,358000,512
2015/04/07,516,523,514,519,763000,519
2015/04/08,519,534,519,527,883000,527
2015/04/09,530,534,524,531,1261000,531
2015/04/10,533,536,526,533,904000,533
2015/04/13,529,536,527,529,485000,529
2015/04/14,527,536,527,536,538000,536
2015/04/15,532,544,532,544,1116000,544
2015/04/16,544,545,530,535,750000,535
2015/04/17,533,533,517,517,916000,517
2015/04/20,511,516,506,511,833000,511
2015/04/21,516,521,512,519,642000,519
2015/04/22,523,527,512,514,939000,514
2015/04/23,514,524,510,520,762000,520
2015/04/24,519,523,514,521,819000,521
2015/04/27,520,522,515,521,365000,521
2015/04/28,521,522,518,520,373000,520
2015/04/30,523,524,493,495,2286000,495
2015/05/01,495,496,484,488,1103000,488
2015/05/07,489,496,487,491,862000,491
2015/05/08,487,488,480,482,1124000,482
2015/05/11,491,494,487,491,1001000,491
2015/05/12,488,500,486,498,1232000,498
2015/05/13,495,501,491,499,1087000,499
2015/05/14,502,509,486,507,2672000,507
2015/05/15,510,510,492,495,1426000,495
2015/05/18,502,503,495,500,894000,500
2015/05/19,502,507,498,502,892000,502
2015/05/20,506,514,506,513,955000,513
2015/05/21,515,515,504,510,849000,510
2015/05/22,510,512,496,498,926000,498
2015/05/25,501,501,486,489,874000,489
2015/05/26,487,492,486,487,456000,487
2015/05/27,491,499,490,497,723000,497
2015/05/28,498,504,495,503,578000,503
2015/05/29,495,507,495,500,922000,500
2015/06/01,499,504,499,503,471000,503
2015/06/02,505,510,500,502,672000,502
2015/06/03,503,505,499,501,681000,501
2015/06/04,501,510,500,509,730000,509
2015/06/05,500,506,500,505,620000,505
2015/06/08,502,505,497,499,714000,499
2015/06/09,498,518,497,512,1602000,512
2015/06/10,510,513,505,505,748000,505
2015/06/11,505,522,505,518,761000,518
2015/06/12,525,525,520,521,972000,521
2015/06/15,517,517,509,515,500000,515
2015/06/16,524,527,514,522,1136000,522
2015/06/17,524,531,521,529,1154000,529
2015/06/18,529,529,515,522,1008000,522
2015/06/19,526,539,522,538,1492000,538
2015/06/22,540,549,540,548,968000,548
2015/06/23,548,550,539,543,1090000,543
2015/06/24,545,549,536,544,1096000,544
2015/06/25,546,554,544,547,1186000,547
2015/06/26,551,560,547,560,1492000,560
2015/06/29,545,556,544,547,1146000,547
2015/06/30,557,565,554,562,1657000,562
2015/07/01,556,569,553,568,1032000,568
