2011/01/04,436,439,426,434,48000,434
2011/01/05,434,442,434,440,49000,440
2011/01/06,440,443,439,442,64000,442
2011/01/07,445,450,444,447,63000,447
2011/01/11,450,450,430,449,51000,449
2011/01/12,450,450,441,444,50000,444
2011/01/13,444,447,440,443,64000,443
2011/01/14,443,446,440,442,48000,442
2011/01/17,441,443,441,441,30000,441
2011/01/18,443,444,441,444,20000,444
2011/01/19,442,444,441,444,30000,444
2011/01/20,443,444,438,440,54000,440
2011/01/21,441,441,430,430,61000,430
2011/01/24,437,439,431,436,42000,436
2011/01/25,438,439,435,438,54000,438
2011/01/26,434,444,434,442,62000,442
2011/01/27,447,450,445,448,134000,448
2011/01/28,450,451,447,447,92000,447
2011/01/31,446,451,440,449,62000,449
2011/02/01,450,462,449,456,70000,456
2011/02/02,460,468,460,466,80000,466
2011/02/03,466,468,462,468,51000,468
2011/02/04,460,467,452,467,93000,467
2011/02/07,465,472,465,468,73000,468
2011/02/08,472,475,468,472,47000,472
2011/02/09,472,472,458,465,69000,465
2011/02/10,460,474,457,473,40000,473
2011/02/14,473,478,469,476,54000,476
2011/02/15,477,480,475,479,45000,479
2011/02/16,479,485,478,482,58000,482
2011/02/17,483,483,467,480,38000,480
2011/02/18,481,486,481,486,31000,486
2011/02/21,482,485,478,481,35000,481
2011/02/22,480,480,474,476,29000,476
2011/02/23,468,481,468,480,58000,480
2011/02/24,480,480,468,468,58000,468
2011/02/25,465,467,456,466,65000,466
2011/02/28,467,468,458,468,47000,468
2011/03/01,469,481,469,481,44000,481
2011/03/02,475,475,468,468,28000,468
2011/03/03,469,470,466,469,8000,469
2011/03/04,471,474,470,472,14000,472
2011/03/07,472,474,462,465,35000,465
2011/03/08,463,471,463,465,17000,465
2011/03/09,471,471,462,463,30000,463
2011/03/10,463,463,453,454,28000,454
2011/03/11,449,450,445,446,91000,446
2011/03/14,481,484,450,460,196000,460
2011/03/15,468,468,400,437,129000,437
2011/03/16,413,429,400,417,163000,417
2011/03/17,405,414,400,410,81000,410
2011/03/18,434,434,423,426,87000,426
2011/03/22,442,443,434,440,144000,440
2011/03/23,457,457,447,452,161000,452
2011/03/24,452,456,450,452,92000,452
2011/03/25,460,462,456,458,74000,458
2011/03/28,465,465,454,457,100000,457
2011/03/29,441,451,439,447,73000,447
2011/03/30,446,448,439,448,54000,448
2011/03/31,444,452,437,452,81000,452
2011/04/01,444,451,444,449,40000,449
2011/04/04,443,444,434,435,72000,435
2011/04/05,427,427,413,418,74000,418
2011/04/06,417,417,406,413,105000,413
2011/04/07,405,409,400,403,106000,403
2011/04/08,398,408,397,403,98000,403
2011/04/11,405,412,405,409,166000,409
2011/04/12,405,406,403,404,69000,404
2011/04/13,403,407,401,405,43000,405
2011/04/14,405,416,404,412,102000,412
2011/04/15,413,415,407,407,32000,407
2011/04/18,407,407,404,404,83000,404
2011/04/19,401,403,399,401,35000,401
2011/04/20,397,402,397,398,92000,398
2011/04/21,405,405,398,398,61000,398
2011/04/22,398,403,398,403,42000,403
2011/04/25,403,404,403,403,36000,403
2011/04/26,403,409,400,402,54000,402
2011/04/27,418,420,408,411,257000,411
2011/04/28,416,416,405,408,161000,408
2011/05/02,412,415,410,413,136000,413
2011/05/06,412,414,410,414,49000,414
2011/05/09,414,415,414,414,33000,414
2011/05/10,414,416,412,414,54000,414
2011/05/11,416,417,413,417,46000,417
2011/05/12,417,417,412,412,50000,412
2011/05/13,417,417,405,407,113000,407
2011/05/16,407,407,399,399,94000,399
2011/05/17,399,400,394,395,112000,395
2011/05/18,396,400,395,399,86000,399
2011/05/19,400,400,398,398,70000,398
2011/05/20,401,405,398,399,29000,399
2011/05/23,400,400,394,395,55000,395
2011/05/24,396,398,395,398,37000,398
2011/05/25,395,397,394,396,44000,396
2011/05/26,400,401,398,401,65000,401
2011/05/27,401,405,401,404,38000,404
2011/05/30,403,411,400,410,63000,410
2011/05/31,412,415,410,414,57000,414
2011/06/01,416,416,404,409,46000,409
2011/06/02,407,411,406,411,62000,411
2011/06/03,408,410,398,398,81000,398
2011/06/06,400,402,398,398,93000,398
2011/06/07,398,402,398,402,98000,402
2011/06/08,401,401,398,400,19000,400
2011/06/09,400,400,396,400,43000,400
2011/06/10,400,402,399,399,73000,399
2011/06/13,400,400,398,399,33000,399
2011/06/14,400,400,398,399,65000,399
2011/06/15,400,400,398,398,38000,398
2011/06/16,399,400,397,399,46000,399
2011/06/17,400,400,396,396,53000,396
2011/06/20,395,398,395,395,24000,395
2011/06/21,395,397,395,396,42000,396
2011/06/22,397,400,396,397,181000,397
2011/06/23,397,398,395,395,74000,395
2011/06/24,395,397,394,396,109000,396
2011/06/27,403,403,392,395,446000,395
2011/06/28,400,401,397,397,150000,397
2011/06/29,400,400,398,400,104000,400
2011/06/30,403,403,400,401,169000,401
2011/07/01,404,410,403,409,187000,409
2011/07/04,416,420,413,420,176000,420
2011/07/05,424,425,422,424,116000,424
2011/07/06,425,426,421,426,93000,426
2011/07/07,427,427,423,426,94000,426
2011/07/08,426,433,426,432,153000,432
2011/07/11,426,434,426,433,116000,433
2011/07/12,429,429,422,427,87000,427
2011/07/13,426,432,425,429,83000,429
2011/07/14,431,431,427,429,38000,429
2011/07/15,425,432,425,431,38000,431
2011/07/19,432,433,430,431,39000,431
2011/07/20,432,434,432,434,43000,434
2011/07/21,433,434,432,434,33000,434
2011/07/22,435,442,435,442,70000,442
2011/07/25,442,445,441,443,77000,443
2011/07/26,447,447,442,445,95000,445
2011/07/27,446,446,441,441,83000,441
2011/07/28,435,435,423,426,68000,426
2011/07/29,428,431,426,427,48000,427
2011/08/01,431,435,425,426,46000,426
2011/08/02,426,426,422,424,54000,424
2011/08/03,416,425,413,418,90000,418
2011/08/04,421,422,411,416,62000,416
2011/08/05,405,406,399,404,66000,404
2011/08/08,402,403,398,399,49000,399
2011/08/09,391,395,386,395,81000,395
2011/08/10,410,410,400,401,52000,401
2011/08/11,393,401,393,401,64000,401
2011/08/12,402,404,402,403,47000,403
2011/08/15,406,410,405,405,29000,405
2011/08/16,408,410,401,402,32000,402
2011/08/17,403,403,399,400,26000,400
2011/08/18,403,403,401,401,22000,401
2011/08/19,399,401,396,401,52000,401
2011/08/22,400,402,398,399,36000,399
2011/08/23,403,404,401,402,34000,402
2011/08/24,405,405,398,400,81000,400
2011/08/25,400,404,398,402,58000,402
2011/08/26,400,402,399,401,49000,401
2011/08/29,404,404,399,399,40000,399
2011/08/30,402,407,401,407,47000,407
2011/08/31,405,410,403,404,78000,404
2011/09/01,407,407,402,406,51000,406
2011/09/02,404,406,404,405,24000,405
2011/09/05,401,406,401,401,26000,401
2011/09/06,403,403,399,401,31000,401
2011/09/07,403,403,399,401,20000,401
2011/09/08,403,405,400,400,24000,400
2011/09/09,398,403,396,400,94000,400
2011/09/12,399,399,392,394,71000,394
2011/09/13,398,399,397,399,26000,399
2011/09/14,400,400,394,396,26000,396
2011/09/15,400,400,396,398,34000,398
2011/09/16,401,407,400,407,71000,407
2011/09/20,401,404,400,401,56000,401
2011/09/21,399,401,399,401,37000,401
2011/09/22,398,400,397,397,60000,397
2011/09/26,399,399,394,394,44000,394
2011/09/27,398,399,395,399,61000,399
2011/09/28,394,398,394,397,36000,397
2011/09/29,397,408,397,408,53000,408
2011/09/30,405,405,397,404,71000,404
2011/10/03,398,398,393,395,45000,395
2011/10/04,390,392,390,392,35000,392
2011/10/05,396,396,384,384,78000,384
2011/10/06,389,389,384,388,16000,388
2011/10/07,388,391,386,387,77000,387
2011/10/11,390,397,389,395,95000,395
2011/10/12,392,397,389,395,53000,395
2011/10/13,399,400,397,397,34000,397
2011/10/14,397,401,395,397,41000,397
2011/10/17,400,400,396,399,36000,399
2011/10/18,398,398,392,396,39000,396
2011/10/19,396,396,388,392,45000,392
2011/10/20,390,392,384,386,61000,386
2011/10/21,386,386,384,385,30000,385
2011/10/24,386,394,385,391,40000,391
2011/10/25,389,392,386,386,45000,386
2011/10/26,386,393,385,392,58000,392
2011/10/27,393,394,389,389,52000,389
2011/10/28,391,397,391,394,87000,394
2011/10/31,395,396,393,394,19000,394
2011/11/01,394,394,392,392,25000,392
2011/11/02,392,392,385,388,60000,388
2011/11/04,389,390,387,390,18000,390
2011/11/07,389,389,387,388,22000,388
2011/11/08,386,388,382,383,50000,383
2011/11/09,386,386,384,386,19000,386
2011/11/10,384,384,379,381,44000,381
2011/11/11,382,382,380,381,21000,381
2011/11/14,383,383,378,381,12000,381
2011/11/15,382,383,381,383,15000,383
2011/11/16,381,381,376,380,36000,380
2011/11/17,381,381,377,378,19000,378
2011/11/18,378,381,378,381,24000,381
2011/11/21,381,382,377,382,20000,382
2011/11/22,377,378,377,378,16000,378
2011/11/24,376,378,375,378,30000,378
2011/11/25,379,381,372,381,54000,381
2011/11/28,382,383,380,381,22000,381
2011/11/29,382,383,381,383,26000,383
2011/11/30,381,384,380,381,23000,381
2011/12/01,384,385,382,382,25000,382
2011/12/02,385,385,383,385,12000,385
2011/12/05,386,387,385,386,40000,386
2011/12/06,387,389,387,387,38000,387
2011/12/07,389,391,386,391,64000,391
2011/12/08,390,390,386,388,64000,388
2011/12/09,388,389,388,389,63000,389
2011/12/12,392,392,387,387,40000,387
2011/12/13,389,392,386,392,43000,392
2011/12/14,389,390,387,387,25000,387
2011/12/15,386,386,385,385,17000,385
2011/12/16,386,386,383,383,23000,383
2011/12/19,381,383,381,382,30000,382
2011/12/20,385,389,385,389,42000,389
2011/12/21,389,391,387,391,25000,391
2011/12/22,392,393,390,393,66000,393
2011/12/26,394,398,392,398,70000,398
2011/12/27,399,400,396,399,49000,399
2011/12/28,396,398,396,396,9000,396
2011/12/29,395,395,391,391,13000,391
2011/12/30,394,394,391,393,12000,393
2012/01/04,393,400,393,394,21000,394
2012/01/05,397,399,397,399,15000,399
2012/01/06,394,399,394,395,16000,395
2012/01/10,398,400,398,400,20000,400
2012/01/11,400,401,398,400,21000,400
2012/01/12,400,402,397,399,59000,399
2012/01/13,397,398,396,398,20000,398
2012/01/16,398,398,396,396,10000,396
2012/01/17,396,400,396,398,29000,398
2012/01/18,400,401,397,399,26000,399
2012/01/19,401,401,398,400,29000,400
2012/01/20,400,406,400,406,79000,406
2012/01/23,403,405,401,405,49000,405
2012/01/24,404,407,404,404,23000,404
2012/01/25,403,413,403,413,58000,413
2012/01/26,409,416,409,414,79000,414
2012/01/27,411,416,411,416,32000,416
2012/01/30,411,414,411,411,38000,411
2012/01/31,410,410,401,404,34000,404
2012/02/01,403,408,403,407,18000,407
2012/02/02,406,412,405,406,23000,406
2012/02/03,406,406,402,402,34000,402
2012/02/06,403,412,402,405,58000,405
2012/02/07,407,409,405,406,37000,406
2012/02/08,406,414,406,414,73000,414
2012/02/09,414,414,410,410,29000,410
2012/02/10,409,411,405,405,41000,405
2012/02/13,407,413,407,413,38000,413
2012/02/14,414,415,411,412,17000,412
2012/02/15,411,421,411,418,78000,418
2012/02/16,419,422,417,417,54000,417
2012/02/17,415,424,415,421,55000,421
2012/02/20,418,428,418,423,75000,423
2012/02/21,420,428,420,428,38000,428
2012/02/22,429,444,427,440,73000,440
2012/02/23,440,440,435,439,44000,439
2012/02/24,439,447,439,445,57000,445
2012/02/27,443,446,441,441,50000,441
2012/02/28,441,442,436,441,61000,441
2012/02/29,441,443,440,441,27000,441
2012/03/01,443,443,425,438,58000,438
2012/03/02,438,439,436,436,25000,436
2012/03/05,437,438,435,438,15000,438
2012/03/06,436,437,421,430,48000,430
2012/03/07,425,439,425,438,59000,438
2012/03/08,442,449,441,448,98000,448
2012/03/09,456,459,453,457,104000,457
2012/03/12,455,455,448,448,38000,448
2012/03/13,448,454,448,452,41000,452
2012/03/14,452,455,452,452,50000,452
2012/03/15,455,455,448,453,49000,453
2012/03/16,454,455,452,455,44000,455
2012/03/19,453,458,452,458,31000,458
2012/03/21,456,457,450,450,42000,450
2012/03/22,446,450,446,450,16000,450
2012/03/23,448,450,446,448,42000,448
2012/03/26,448,451,447,451,53000,451
2012/03/27,451,453,450,452,67000,452
2012/03/28,436,450,433,450,60000,450
2012/03/29,447,451,440,451,51000,451
2012/03/30,450,454,448,449,42000,449
2012/04/02,447,448,441,441,41000,441
2012/04/03,440,443,431,435,31000,435
2012/04/04,431,436,423,433,27000,433
2012/04/05,425,434,412,430,52000,430
2012/04/06,423,425,420,425,18000,425
2012/04/09,417,419,414,414,29000,414
2012/04/10,411,428,410,418,39000,418
2012/04/11,415,418,411,416,20000,416
2012/04/12,421,423,416,422,27000,422
2012/04/13,422,426,415,415,24000,415
2012/04/16,414,417,410,413,42000,413
2012/04/17,417,417,402,409,36000,409
2012/04/18,410,419,410,419,38000,419
2012/04/19,412,412,407,412,18000,412
2012/04/20,411,411,393,406,90000,406
2012/04/23,403,408,400,402,54000,402
2012/04/24,400,408,400,408,78000,408
2012/04/25,411,430,409,424,88000,424
2012/04/26,428,429,418,429,58000,429
2012/04/27,424,424,419,420,35000,420
2012/05/01,426,426,411,411,36000,411
2012/05/02,418,418,410,410,44000,410
2012/05/07,406,407,400,400,30000,400
2012/05/08,402,403,398,398,45000,398
2012/05/09,402,420,398,418,93000,418
2012/05/10,410,420,410,417,19000,417
2012/05/11,418,423,410,410,52000,410
2012/05/14,410,415,409,415,29000,415
2012/05/15,404,409,403,407,63000,407
2012/05/16,407,407,393,394,39000,394
2012/05/17,400,406,395,400,63000,400
2012/05/18,401,401,393,396,64000,396
2012/05/21,396,399,395,399,56000,399
2012/05/22,401,414,401,414,50000,414
2012/05/23,410,410,404,407,29000,407
2012/05/24,405,405,396,400,34000,400
2012/05/25,398,400,387,393,81000,393
2012/05/28,389,392,387,387,44000,387
2012/05/29,390,394,386,393,41000,393
2012/05/30,393,393,387,387,27000,387
2012/05/31,385,386,382,382,36000,382
2012/06/01,386,386,379,379,46000,379
2012/06/04,377,378,370,375,23000,375
2012/06/05,378,379,375,379,16000,379
2012/06/06,384,385,382,385,14000,385
2012/06/07,386,395,385,395,20000,395
2012/06/08,397,397,384,386,43000,386
2012/06/11,384,389,381,385,46000,385
2012/06/12,385,394,383,394,25000,394
2012/06/13,393,394,388,388,15000,388
2012/06/14,388,391,388,390,6000,390
2012/06/15,388,395,387,395,19000,395
2012/06/18,395,400,395,395,23000,395
2012/06/19,394,395,393,394,8000,394
2012/06/20,399,400,397,399,16000,399
2012/06/21,398,409,398,409,44000,409
2012/06/22,409,419,408,419,32000,419
2012/06/25,421,423,418,419,47000,419
2012/06/26,419,424,418,420,46000,420
2012/06/27,424,424,419,424,34000,424
2012/06/28,426,428,423,424,38000,424
2012/06/29,430,433,428,433,54000,433
2012/07/02,432,435,428,428,15000,428
2012/07/03,422,432,422,426,36000,426
2012/07/04,422,430,422,430,28000,430
2012/07/05,424,428,424,426,23000,426
2012/07/06,427,430,427,428,31000,428
2012/07/09,430,430,426,427,24000,427
2012/07/10,428,430,426,428,23000,428
2012/07/11,430,430,425,429,38000,429
2012/07/12,432,432,426,426,20000,426
2012/07/13,426,429,422,424,19000,424
2012/07/17,416,423,414,423,19000,423
2012/07/18,419,419,412,412,9000,412
2012/07/19,416,425,411,421,41000,421
2012/07/20,425,425,417,418,25000,418
2012/07/23,416,419,415,415,38000,415
2012/07/24,415,423,412,418,34000,418
2012/07/25,418,422,414,417,74000,417
2012/07/26,423,424,419,424,62000,424
2012/07/27,425,429,422,427,42000,427
2012/07/30,430,434,425,434,35000,434
2012/07/31,432,432,402,430,50000,430
2012/08/01,422,425,417,418,27000,418
2012/08/02,417,422,417,422,21000,422
2012/08/03,417,417,412,412,17000,412
2012/08/06,412,414,404,410,28000,410
2012/08/07,409,411,403,407,28000,407
2012/08/08,412,412,403,406,30000,406
2012/08/09,410,410,404,409,13000,409
2012/08/10,409,411,405,410,9000,410
2012/08/13,406,410,404,404,30000,404
2012/08/14,403,408,403,408,17000,408
2012/08/15,408,410,403,405,27000,405
2012/08/16,410,410,400,409,49000,409
2012/08/17,408,415,408,412,25000,412
2012/08/20,412,412,408,408,21000,408
2012/08/21,409,409,404,404,47000,404
2012/08/22,402,404,401,402,36000,402
2012/08/23,402,406,402,403,20000,403
2012/08/24,402,403,402,403,33000,403
2012/08/27,400,404,400,401,49000,401
2012/08/28,401,401,396,396,38000,396
2012/08/29,397,398,396,396,16000,396
2012/08/30,400,400,394,394,20000,394
2012/08/31,395,401,393,393,51000,393
2012/09/03,393,394,391,391,30000,391
2012/09/04,394,396,390,396,29000,396
2012/09/05,391,393,386,390,65000,390
2012/09/06,390,397,389,397,34000,397
2012/09/07,403,404,397,398,40000,398
2012/09/10,399,400,398,399,20000,399
2012/09/11,402,402,390,393,42000,393
2012/09/12,397,397,392,395,35000,395
2012/09/13,396,396,393,395,22000,395
2012/09/14,395,399,395,398,59000,398
2012/09/18,398,400,397,399,39000,399
2012/09/19,402,410,400,410,39000,410
2012/09/20,408,408,401,403,26000,403
2012/09/21,403,404,401,404,30000,404
2012/09/24,404,406,399,404,40000,404
2012/09/25,404,410,404,410,68000,410
2012/09/26,402,409,402,409,43000,409
2012/09/27,409,415,408,409,82000,409
2012/09/28,411,411,404,407,27000,407
2012/10/01,408,408,397,401,25000,401
2012/10/02,401,401,396,396,24000,396
2012/10/03,400,402,394,394,24000,394
2012/10/04,398,398,393,393,18000,393
2012/10/05,399,399,394,394,14000,394
2012/10/09,398,398,393,393,12000,393
2012/10/10,399,399,390,391,32000,391
2012/10/11,394,414,394,414,79000,414
2012/10/12,413,413,406,409,48000,409
2012/10/15,409,409,405,405,10000,405
2012/10/16,409,410,402,402,23000,402
2012/10/17,406,406,400,400,54000,400
2012/10/18,400,404,400,402,34000,402
2012/10/19,401,401,395,396,43000,396
2012/10/22,396,401,396,396,29000,396
2012/10/23,397,397,392,394,55000,394
2012/10/24,392,397,392,396,33000,396
2012/10/25,397,397,392,396,70000,396
2012/10/26,396,397,390,393,100000,393
2012/10/29,393,395,391,393,40000,393
2012/10/30,392,394,382,384,114000,384
2012/10/31,389,392,387,389,69000,389
2012/11/01,390,390,387,388,24000,388
2012/11/02,391,398,391,397,63000,397
2012/11/05,399,400,395,396,74000,396
2012/11/06,396,397,394,395,24000,395
2012/11/07,396,401,395,400,126000,400
2012/11/08,399,400,396,396,22000,396
2012/11/09,394,396,389,395,70000,395
2012/11/12,392,393,389,389,28000,389
2012/11/13,389,389,382,385,59000,385
2012/11/14,385,385,381,381,49000,381
2012/11/15,384,388,382,388,38000,388
2012/11/16,389,393,388,393,53000,393
2012/11/19,391,399,391,396,45000,396
2012/11/20,399,401,397,400,35000,400
2012/11/21,400,400,396,399,20000,399
2012/11/22,399,402,399,401,28000,401
2012/11/26,402,404,401,401,35000,401
2012/11/27,402,405,400,405,44000,405
2012/11/28,404,404,402,403,18000,403
2012/11/29,404,404,402,402,15000,402
2012/11/30,403,405,399,401,44000,401
2012/12/03,404,404,402,403,14000,403
2012/12/04,403,405,403,403,39000,403
2012/12/05,403,407,403,407,59000,407
2012/12/06,408,414,408,414,54000,414
2012/12/07,416,419,414,418,65000,418
2012/12/10,421,423,418,419,65000,419
2012/12/11,421,423,419,423,47000,423
2012/12/12,425,433,421,430,97000,430
2012/12/13,435,436,430,436,63000,436
2012/12/14,438,440,436,439,88000,439
2012/12/17,440,448,440,443,73000,443
2012/12/18,444,449,444,446,32000,446
2012/12/19,448,455,448,455,81000,455
2012/12/20,455,464,452,463,72000,463
2012/12/21,461,480,460,480,141000,480
2012/12/25,480,484,473,484,150000,484
2012/12/26,486,489,485,489,92000,489
2012/12/27,490,490,477,487,134000,487
2012/12/28,485,506,481,506,170000,506
2013/01/04,511,524,511,522,89000,522
2013/01/07,535,537,530,534,86000,534
2013/01/08,528,532,522,524,121000,524
2013/01/09,514,522,513,519,93000,519
2013/01/10,519,524,510,523,80000,523
2013/01/11,525,530,512,513,92000,513
2013/01/15,518,518,514,516,99000,516
2013/01/16,520,521,517,518,74000,518
2013/01/17,518,523,516,521,84000,521
2013/01/18,525,526,519,524,67000,524
2013/01/21,524,531,524,529,56000,529
2013/01/22,528,535,527,531,63000,531
2013/01/23,530,533,527,528,68000,528
2013/01/24,528,531,527,530,59000,530
2013/01/25,530,531,528,530,63000,530
2013/01/28,530,531,525,527,52000,527
2013/01/29,529,529,526,527,30000,527
2013/01/30,527,531,526,529,80000,529
2013/01/31,529,529,523,528,37000,528
2013/02/01,528,532,528,531,85000,531
2013/02/04,532,532,513,529,63000,529
2013/02/05,516,517,496,501,309000,501
2013/02/06,506,510,500,504,231000,504
2013/02/07,499,509,482,505,142000,505
2013/02/08,508,508,498,503,64000,503
2013/02/12,503,503,497,501,68000,501
2013/02/13,495,498,491,492,42000,492
2013/02/14,492,492,485,489,38000,489
2013/02/15,485,490,470,471,134000,471
2013/02/18,471,489,471,488,96000,488
2013/02/19,491,497,490,490,45000,490
2013/02/20,490,496,487,496,78000,496
2013/02/21,496,496,486,489,113000,489
2013/02/22,481,489,480,487,74000,487
2013/02/25,492,493,486,487,62000,487
2013/02/26,483,487,483,484,57000,484
2013/02/27,480,483,477,477,65000,477
2013/02/28,483,483,475,478,110000,478
2013/03/01,479,479,475,477,76000,477
2013/03/04,481,484,480,480,91000,480
2013/03/05,484,484,477,478,85000,478
2013/03/06,478,483,476,483,101000,483
2013/03/07,483,490,481,490,80000,490
2013/03/08,493,508,492,505,182000,505
2013/03/11,506,508,491,491,184000,491
2013/03/12,495,497,480,481,207000,481
2013/03/13,480,485,472,472,178000,472
2013/03/14,474,475,471,471,133000,471
2013/03/15,472,477,472,476,111000,476
2013/03/18,484,490,478,487,198000,487
2013/03/19,495,504,492,503,185000,503
2013/03/21,506,508,501,508,180000,508
2013/03/22,509,509,504,504,104000,504
2013/03/25,505,509,503,503,148000,503
2013/03/26,497,504,497,504,84000,504
2013/03/27,501,507,487,504,119000,504
2013/03/28,504,505,495,499,81000,499
2013/03/29,499,499,483,491,49000,491
2013/04/01,494,494,476,476,62000,476
2013/04/02,476,476,468,474,66000,474
2013/04/03,471,483,471,480,35000,480
2013/04/04,479,503,475,500,115000,500
2013/04/05,500,505,499,503,137000,503
2013/04/08,506,520,506,519,231000,519
2013/04/09,525,529,522,529,272000,529
2013/04/10,529,529,520,525,109000,525
2013/04/11,525,529,511,517,84000,517
2013/04/12,522,522,517,520,52000,520
2013/04/15,511,518,507,508,69000,508
2013/04/16,511,529,505,526,181000,526
2013/04/17,514,523,512,517,212000,517
2013/04/18,518,550,516,548,382000,548
2013/04/19,541,544,526,540,102000,540
2013/04/22,563,564,556,559,156000,559
2013/04/23,561,565,557,563,73000,563
2013/04/24,566,568,562,567,91000,567
2013/04/25,563,570,563,568,60000,568
2013/04/26,567,567,559,567,63000,567
2013/04/30,560,590,555,586,123000,586
2013/05/01,590,590,583,586,73000,586
2013/05/02,576,583,568,574,31000,574
2013/05/07,576,588,576,577,72000,577
2013/05/08,586,586,561,569,71000,569
2013/05/09,562,572,551,552,106000,552
2013/05/10,556,566,545,547,103000,547
2013/05/13,565,579,556,577,133000,577
2013/05/14,584,594,584,592,151000,592
2013/05/15,595,595,570,576,107000,576
2013/05/16,576,581,555,568,95000,568
2013/05/17,568,593,567,588,137000,588
2013/05/20,583,585,571,575,82000,575
2013/05/21,579,587,572,573,48000,573
2013/05/22,572,574,560,571,71000,571
2013/05/23,571,571,545,545,169000,545
2013/05/24,537,561,530,544,156000,544
2013/05/27,544,544,510,510,61000,510
2013/05/28,510,510,499,501,98000,501
2013/05/29,505,544,505,527,122000,527
2013/05/30,514,527,498,504,131000,504
2013/05/31,504,511,496,505,121000,505
2013/06/03,500,505,483,483,127000,483
2013/06/04,480,504,469,483,212000,483
2013/06/05,480,498,478,478,144000,478
2013/06/06,475,475,450,456,198000,456
2013/06/07,456,457,442,453,80000,453
2013/06/10,454,476,454,475,89000,475
2013/06/11,467,477,467,468,95000,468
2013/06/12,461,466,452,455,100000,455
2013/06/13,451,458,446,453,82000,453
2013/06/14,456,456,449,451,110000,451
2013/06/17,458,470,456,468,77000,468
2013/06/18,473,473,453,454,126000,454
2013/06/19,462,472,460,470,79000,470
2013/06/20,474,474,461,467,59000,467
2013/06/21,457,462,456,458,77000,458
2013/06/24,465,465,459,460,73000,460
2013/06/25,463,465,455,457,123000,457
2013/06/26,465,465,453,454,37000,454
2013/06/27,462,462,453,458,53000,458
2013/06/28,466,472,464,470,78000,470
2013/07/01,476,495,473,494,71000,494
2013/07/02,495,498,484,496,85000,496
2013/07/03,497,498,491,494,30000,494
2013/07/04,496,500,493,499,52000,499
2013/07/05,506,512,502,507,44000,507
2013/07/08,510,511,485,491,131000,491
2013/07/09,500,505,493,504,58000,504
2013/07/10,507,510,503,507,56000,507
2013/07/11,509,511,501,510,60000,510
2013/07/12,506,511,505,508,44000,508
2013/07/16,510,515,504,510,48000,510
2013/07/17,512,513,503,513,45000,513
2013/07/18,514,515,504,506,85000,506
2013/07/19,509,509,502,504,68000,504
2013/07/22,509,511,504,509,69000,509
2013/07/23,507,508,500,503,81000,503
2013/07/24,503,505,497,499,53000,499
2013/07/25,503,505,500,501,84000,501
2013/07/26,497,500,491,491,70000,491
2013/07/29,492,492,470,476,75000,476
2013/07/30,473,481,467,479,71000,479
2013/07/31,479,479,468,470,47000,470
2013/08/01,476,476,470,473,33000,473
2013/08/02,480,480,469,479,42000,479
2013/08/05,475,477,474,476,23000,476
2013/08/06,481,490,477,489,83000,489
2013/08/07,490,490,475,475,66000,475
2013/08/08,474,478,472,472,26000,472
2013/08/09,474,480,474,479,33000,479
2013/08/12,479,480,474,476,23000,476
2013/08/13,484,484,471,477,68000,477
2013/08/14,480,480,475,480,35000,480
2013/08/15,478,479,472,474,37000,474
2013/08/16,475,475,471,471,38000,471
2013/08/19,474,479,474,479,18000,479
2013/08/20,479,479,472,472,25000,472
2013/08/21,472,472,468,468,34000,468
2013/08/22,471,471,465,468,27000,468
2013/08/23,478,478,474,474,20000,474
2013/08/26,478,480,477,478,28000,478
2013/08/27,480,480,475,478,30000,478
2013/08/28,473,474,469,469,47000,469
2013/08/29,475,475,468,470,25000,470
2013/08/30,470,470,462,463,45000,463
2013/09/02,462,469,460,463,36000,463
2013/09/03,466,467,464,465,43000,465
2013/09/04,461,467,461,465,33000,465
2013/09/05,465,468,462,466,23000,466
2013/09/06,470,470,465,468,40000,468
2013/09/09,476,479,473,479,63000,479
2013/09/10,478,486,478,485,59000,485
2013/09/11,490,499,485,489,69000,489
2013/09/12,490,495,487,492,25000,492
2013/09/13,486,495,479,482,141000,482
2013/09/17,489,490,485,486,73000,486
2013/09/18,489,490,479,482,72000,482
2013/09/19,484,487,483,485,64000,485
2013/09/20,485,493,480,493,144000,493
2013/09/24,493,493,486,493,87000,493
2013/09/25,495,497,491,494,72000,494
2013/09/26,488,495,486,490,58000,490
2013/09/27,492,493,486,487,39000,487
2013/09/30,489,489,482,484,56000,484
2013/10/01,486,487,482,482,39000,482
2013/10/02,484,486,471,472,76000,472
2013/10/03,467,467,465,465,65000,465
2013/10/04,461,470,457,464,77000,464
2013/10/07,457,468,457,462,36000,462
2013/10/08,460,464,460,463,28000,463
2013/10/09,463,477,461,477,49000,477
2013/10/10,473,475,469,471,42000,471
2013/10/11,472,476,472,475,49000,475
2013/10/15,479,482,473,476,96000,476
2013/10/16,475,480,470,480,70000,480
2013/10/17,480,485,477,478,60000,478
2013/10/18,483,485,480,480,51000,480
2013/10/21,477,484,477,482,51000,482
2013/10/22,484,485,480,485,34000,485
2013/10/23,483,487,483,484,50000,484
2013/10/24,481,484,480,483,41000,483
2013/10/25,487,487,480,484,50000,484
2013/10/28,484,486,481,484,45000,484
2013/10/29,487,496,485,493,120000,493
2013/10/30,494,499,492,497,93000,497
2013/10/31,495,504,490,495,140000,495
2013/11/01,503,503,485,485,118000,485
2013/11/05,479,484,477,481,65000,481
2013/11/06,478,488,478,481,36000,481
2013/11/07,486,486,481,485,30000,485
2013/11/08,477,482,474,479,68000,479
2013/11/11,487,487,474,476,45000,476
2013/11/12,481,484,477,481,44000,481
2013/11/13,478,478,473,476,39000,476
2013/11/14,478,484,478,483,56000,483
2013/11/15,485,488,483,486,52000,486
2013/11/18,488,488,484,484,51000,484
2013/11/19,484,485,482,483,19000,483
2013/11/20,483,486,482,486,27000,486
2013/11/21,486,488,484,488,34000,488
2013/11/22,488,489,484,486,42000,486
2013/11/25,489,493,488,492,59000,492
2013/11/26,485,494,485,494,56000,494
2013/11/27,494,494,490,492,33000,492
2013/11/28,490,490,488,489,12000,489
2013/11/29,490,495,488,494,74000,494
2013/12/02,498,500,496,498,99000,498
2013/12/03,499,500,494,499,79000,499
2013/12/04,497,497,492,492,44000,492
2013/12/05,491,494,489,492,32000,492
2013/12/06,489,494,489,492,28000,492
2013/12/09,496,496,494,494,43000,494
2013/12/10,495,497,494,495,62000,495
2013/12/11,495,497,494,494,39000,494
2013/12/12,496,496,494,494,39000,494
2013/12/13,494,494,483,490,130000,490
2013/12/16,484,488,483,483,45000,483
2013/12/17,482,492,481,485,59000,485
2013/12/18,487,490,485,490,64000,490
2013/12/19,487,496,487,496,97000,496
2013/12/20,492,492,484,486,80000,486
2013/12/24,482,487,482,486,70000,486
2013/12/25,488,495,487,493,116000,493
2013/12/26,493,499,491,498,91000,498
2013/12/27,496,499,492,497,73000,497
2013/12/30,500,518,500,516,137000,516
2014/01/06,516,519,510,515,85000,515
2014/01/07,514,519,508,513,44000,513
2014/01/08,515,517,507,517,49000,517
2014/01/09,516,517,511,514,42000,514
2014/01/10,512,515,506,515,46000,515
2014/01/14,507,507,504,504,41000,504
2014/01/15,506,506,502,503,32000,503
2014/01/16,500,503,500,500,40000,500
2014/01/17,503,507,500,503,37000,503
2014/01/20,508,513,503,510,37000,510
2014/01/21,511,513,510,513,29000,513
2014/01/22,513,513,509,511,24000,511
2014/01/23,510,520,506,509,48000,509
2014/01/24,505,507,500,501,67000,501
2014/01/27,500,500,491,492,65000,492
2014/01/28,493,494,490,490,58000,490
2014/01/29,491,493,485,486,134000,486
2014/01/30,485,485,479,480,66000,480
2014/01/31,483,489,480,482,32000,482
2014/02/03,480,483,478,479,54000,479
2014/02/04,470,470,450,453,124000,453
2014/02/05,456,466,455,456,75000,456
2014/02/06,464,464,456,457,40000,457
2014/02/07,455,464,455,463,71000,463
2014/02/10,467,475,467,469,27000,469
2014/02/12,465,474,465,472,60000,472
2014/02/13,472,476,468,468,23000,468
2014/02/14,467,470,463,463,46000,463
2014/02/17,465,472,465,466,16000,466
2014/02/18,465,471,465,470,36000,470
2014/02/19,465,473,465,473,38000,473
2014/02/20,469,471,466,466,18000,466
2014/02/21,472,475,470,472,23000,472
2014/02/24,472,475,469,472,35000,472
2014/02/25,479,480,472,479,34000,479
2014/02/26,474,485,474,481,28000,481
2014/02/27,480,480,477,477,24000,477
2014/02/28,477,480,472,474,39000,474
2014/03/03,475,475,470,475,40000,475
2014/03/04,470,478,470,478,20000,478
2014/03/05,482,482,474,476,23000,476
2014/03/06,477,480,477,479,14000,479
2014/03/07,480,482,466,482,47000,482
2014/03/10,480,480,475,478,23000,478
2014/03/11,478,481,478,480,13000,480
2014/03/12,479,479,475,475,19000,475
2014/03/13,475,479,473,476,26000,476
2014/03/14,476,476,470,470,93000,470
2014/03/17,468,469,460,463,42000,463
2014/03/18,475,475,470,474,21000,474
2014/03/19,470,472,470,471,14000,471
2014/03/20,471,471,455,455,68000,455
2014/03/24,455,476,455,476,57000,476
2014/03/25,478,483,460,476,128000,476
2014/03/26,478,484,475,483,86000,483
2014/03/27,478,480,470,478,38000,478
2014/03/28,482,482,479,481,42000,481
2014/03/31,483,485,480,483,37000,483
2014/04/01,485,485,475,483,47000,483
2014/04/02,483,485,483,483,47000,483
2014/04/03,484,485,481,483,27000,483
2014/04/04,484,490,482,487,31000,487
2014/04/07,487,487,482,483,8000,483
2014/04/08,483,483,469,469,25000,469
2014/04/09,471,471,464,464,42000,464
2014/04/10,468,474,465,465,20000,465
2014/04/11,460,467,460,462,23000,462
2014/04/14,462,470,460,467,12000,467
2014/04/15,465,467,464,464,12000,464
2014/04/16,463,468,462,468,19000,468
2014/04/17,470,474,463,470,26000,470
2014/04/18,467,467,465,466,21000,466
2014/04/21,466,469,465,465,10000,465
2014/04/22,465,467,461,463,22000,463
2014/04/23,471,490,468,480,148000,480
2014/04/24,480,483,470,472,55000,472
2014/04/25,476,477,469,476,41000,476
2014/04/28,472,477,468,471,24000,471
2014/04/30,477,477,470,471,25000,471
2014/05/01,476,476,473,475,13000,475
2014/05/02,472,473,470,472,20000,472
2014/05/07,468,468,461,463,60000,463
2014/05/08,466,469,461,463,69000,463
2014/05/09,462,464,461,462,47000,462
2014/05/12,462,462,455,456,91000,456
2014/05/13,458,462,458,458,45000,458
2014/05/14,461,461,459,461,17000,461
2014/05/15,457,459,457,458,35000,458
2014/05/16,458,458,456,456,42000,456
2014/05/19,456,457,455,455,11000,455
2014/05/20,458,458,453,453,21000,453
2014/05/21,452,454,452,454,11000,454
2014/05/22,455,456,455,456,6000,456
2014/05/23,459,461,459,461,26000,461
2014/05/26,465,465,464,465,18000,465
2014/05/27,468,468,466,467,18000,467
2014/05/28,464,469,461,468,25000,468
2014/05/29,468,468,464,467,13000,467
2014/05/30,465,468,463,464,15000,464
2014/06/02,470,470,467,468,15000,468
2014/06/03,470,470,466,467,21000,467
2014/06/04,467,467,466,466,4000,466
2014/06/05,465,467,461,465,28000,465
2014/06/06,464,468,462,468,26000,468
2014/06/09,468,472,465,470,32000,470
2014/06/10,473,473,466,466,24000,466
2014/06/11,464,470,464,468,22000,468
2014/06/12,472,472,465,467,15000,467
2014/06/13,466,471,463,466,64000,466
2014/06/16,472,472,463,464,33000,464
2014/06/17,468,469,466,467,18000,467
2014/06/18,472,472,467,469,16000,469
2014/06/19,468,474,468,474,38000,474
2014/06/20,474,475,472,474,30000,474
2014/06/23,472,476,472,473,31000,473
2014/06/24,472,478,472,477,32000,477
2014/06/25,479,479,477,478,33000,478
2014/06/26,479,480,478,478,26000,478
2014/06/27,480,480,477,479,33000,479
2014/06/30,477,483,477,481,20000,481
2014/07/01,481,497,481,489,72000,489
2014/07/02,492,492,488,489,38000,489
2014/07/03,487,491,487,489,24000,489
2014/07/04,489,490,487,490,38000,490
2014/07/07,490,490,488,490,29000,490
2014/07/08,491,491,488,489,44000,489
2014/07/09,490,490,488,488,19000,488
2014/07/10,489,489,487,488,29000,488
2014/07/11,488,488,479,482,22000,482
2014/07/14,474,480,473,478,18000,478
2014/07/15,475,480,474,476,45000,476
2014/07/16,477,479,477,478,14000,478
2014/07/17,478,485,477,480,55000,480
2014/07/18,480,484,477,481,42000,481
2014/07/22,485,485,480,481,31000,481
2014/07/23,484,488,484,484,31000,484
2014/07/24,486,489,485,486,34000,486
2014/07/25,490,492,488,491,64000,491
2014/07/28,491,493,485,488,57000,488
2014/07/29,494,496,490,494,61000,494
2014/07/30,495,497,490,492,69000,492
2014/07/31,497,497,493,493,43000,493
2014/08/01,492,492,480,480,34000,480
2014/08/04,482,487,482,483,58000,483
2014/08/05,479,484,479,479,49000,479
2014/08/06,486,486,470,473,37000,473
2014/08/07,472,480,470,477,46000,477
2014/08/08,477,481,474,479,36000,479
2014/08/11,482,486,482,484,28000,484
2014/08/12,490,493,488,488,28000,488
2014/08/13,489,495,489,491,39000,491
2014/08/14,487,493,487,489,19000,489
2014/08/15,488,496,488,493,37000,493
2014/08/18,493,495,492,493,24000,493
2014/08/19,494,495,494,495,20000,495
2014/08/20,490,498,490,498,17000,498
2014/08/21,498,501,494,500,50000,500
2014/08/22,500,505,497,497,35000,497
2014/08/25,500,500,499,499,17000,499
2014/08/26,500,503,499,500,19000,500
2014/08/27,503,505,499,499,25000,499
2014/08/28,491,497,491,495,19000,495
2014/08/29,495,499,495,497,16000,497
2014/09/01,503,503,492,492,45000,492
2014/09/02,499,503,497,499,43000,499
2014/09/03,496,503,496,502,26000,502
2014/09/04,501,502,497,500,21000,500
2014/09/05,499,502,496,499,11000,499
2014/09/08,500,501,498,500,12000,500
2014/09/09,498,498,495,495,9000,495
2014/09/10,495,502,494,501,25000,501
2014/09/11,500,500,496,499,16000,499
2014/09/12,498,499,496,496,54000,496
2014/09/16,496,497,495,495,12000,495
2014/09/17,496,500,496,498,31000,498
2014/09/18,500,503,495,496,50000,496
2014/09/19,496,501,496,499,27000,499
2014/09/22,500,501,499,500,9000,500
2014/09/24,499,501,498,501,24000,501
2014/09/25,501,505,501,505,67000,505
2014/09/26,497,497,495,497,37000,497
2014/09/29,495,496,492,494,33000,494
2014/09/30,490,493,487,491,29000,491
2014/10/01,490,499,490,495,60000,495
2014/10/02,491,491,485,485,39000,485
2014/10/03,483,484,480,481,19000,481
2014/10/06,486,489,483,486,16000,486
2014/10/07,488,493,486,490,32000,490
2014/10/08,486,490,483,485,17000,485
2014/10/09,488,488,484,484,9000,484
2014/10/10,483,483,478,478,22000,478
2014/10/14,477,481,470,471,40000,471
2014/10/15,471,473,467,473,30000,473
2014/10/16,467,474,465,465,34000,465
2014/10/17,466,469,459,459,28000,459
2014/10/20,475,476,473,476,15000,476
2014/10/21,469,474,464,470,31000,470
2014/10/22,471,478,471,477,21000,477
2014/10/23,476,477,474,474,9000,474
2014/10/24,478,479,475,477,17000,477
2014/10/27,481,481,478,478,20000,478
2014/10/28,478,480,476,476,14000,476
2014/10/29,476,483,473,482,25000,482
2014/10/30,482,483,472,474,31000,474
2014/10/31,475,492,475,487,81000,487
2014/11/04,493,494,482,488,66000,488
2014/11/05,491,492,487,488,42000,488
2014/11/06,488,495,484,488,43000,488
2014/11/07,484,491,484,489,33000,489
2014/11/10,489,495,484,492,40000,492
2014/11/11,490,495,490,495,19000,495
2014/11/12,495,495,491,494,21000,494
2014/11/13,490,493,489,493,14000,493
2014/11/14,495,495,492,493,46000,493
2014/11/17,490,491,487,488,33000,488
2014/11/18,491,491,485,490,42000,490
2014/11/19,487,490,487,487,25000,487
2014/11/20,489,489,485,485,29000,485
2014/11/21,483,484,481,483,26000,483
2014/11/25,483,485,483,483,32000,483
2014/11/26,480,481,479,479,56000,479
2014/11/27,478,482,478,479,19000,479
2014/11/28,479,479,476,478,24000,478
2014/12/01,479,482,478,480,45000,480
2014/12/02,482,482,480,481,29000,481
2014/12/03,483,486,480,486,49000,486
2014/12/04,483,488,483,488,47000,488
2014/12/05,486,489,480,487,68000,487
2014/12/08,487,489,487,489,49000,489
2014/12/09,488,489,485,488,59000,488
2014/12/10,489,489,482,485,65000,485
2014/12/11,485,489,484,487,42000,487
2014/12/12,489,494,486,486,106000,486
2014/12/15,486,488,485,485,19000,485
2014/12/16,485,485,476,478,59000,478
2014/12/17,478,488,478,485,23000,485
2014/12/18,489,495,486,492,57000,492
2014/12/19,492,496,491,494,47000,494
2014/12/22,492,495,492,493,25000,493
2014/12/24,495,495,493,495,35000,495
2014/12/25,497,497,493,497,55000,497
2014/12/26,497,500,497,499,51000,499
2014/12/29,500,501,497,498,52000,498
2014/12/30,502,502,499,499,38000,499
2015/01/05,499,502,499,501,28000,501
2015/01/06,500,500,491,492,45000,492
2015/01/07,492,496,492,494,21000,494
2015/01/08,495,498,495,495,25000,495
2015/01/09,494,496,494,494,18000,494
2015/01/13,492,492,490,492,32000,492
2015/01/14,494,497,491,493,26000,493
2015/01/15,490,495,490,495,12000,495
2015/01/16,493,495,492,493,21000,493
2015/01/19,494,500,494,497,32000,497
2015/01/20,499,500,496,500,22000,500
2015/01/21,499,500,497,497,23000,497
2015/01/22,497,498,491,496,19000,496
2015/01/23,498,498,495,498,20000,498
2015/01/26,499,502,496,501,60000,501
2015/01/27,501,501,497,499,20000,499
2015/01/28,493,501,493,498,44000,498
2015/01/29,497,497,490,490,35000,490
2015/01/30,494,495,491,495,23000,495
2015/02/02,492,494,479,492,78000,492
2015/02/03,492,492,484,486,58000,486
2015/02/04,486,493,486,492,23000,492
2015/02/05,490,492,483,488,32000,488
2015/02/06,493,497,493,497,45000,497
2015/02/09,498,502,498,502,59000,502
2015/02/10,502,502,498,498,11000,498
2015/02/12,498,505,498,502,39000,502
2015/02/13,502,506,502,506,49000,506
2015/02/16,507,509,506,508,25000,508
2015/02/17,505,522,505,519,124000,519
2015/02/18,527,527,515,524,84000,524
2015/02/19,520,523,518,522,57000,522
2015/02/20,522,524,518,519,45000,519
2015/02/23,518,522,511,514,29000,514
2015/02/24,514,515,510,514,27000,514
2015/02/25,516,517,514,517,27000,517
2015/02/26,517,518,515,517,49000,517
2015/02/27,516,517,515,517,25000,517
2015/03/02,517,520,510,520,30000,520
2015/03/03,520,523,519,523,59000,523
2015/03/04,523,523,520,521,29000,521
2015/03/05,520,522,520,521,14000,521
2015/03/06,522,528,521,527,33000,527
2015/03/09,527,530,522,525,31000,525
2015/03/10,529,530,525,526,38000,526
2015/03/11,525,529,520,522,38000,522
2015/03/12,522,525,522,525,31000,525
2015/03/13,530,530,526,526,114000,526
2015/03/16,529,531,527,531,52000,531
2015/03/17,532,541,532,539,47000,539
2015/03/18,540,541,535,541,42000,541
2015/03/19,536,544,534,539,79000,539
2015/03/20,536,544,535,542,49000,542
2015/03/23,540,547,540,545,44000,545
2015/03/24,548,550,544,548,121000,548
2015/03/25,548,552,548,552,88000,552
2015/03/26,532,548,531,539,138000,539
2015/03/27,533,538,524,527,50000,527
2015/03/30,525,531,521,522,40000,522
2015/03/31,524,527,515,516,48000,516
2015/04/01,513,514,508,510,42000,510
2015/04/02,516,521,513,519,47000,519
2015/04/03,521,521,517,518,27000,518
2015/04/06,512,517,512,515,21000,515
2015/04/07,518,518,513,518,27000,518
2015/04/08,518,523,517,521,48000,521
2015/04/09,520,520,516,517,17000,517
2015/04/10,516,520,515,518,89000,518
2015/04/13,515,519,515,517,65000,517
2015/04/14,513,521,513,521,43000,521
2015/04/15,516,520,516,516,40000,516
2015/04/16,516,521,516,518,30000,518
2015/04/17,521,521,517,517,34000,517
2015/04/20,519,520,516,517,33000,517
2015/04/21,517,524,516,519,44000,519
2015/04/22,519,524,519,523,27000,523
2015/04/23,523,525,521,523,26000,523
2015/04/24,524,525,520,525,53000,525
2015/04/27,533,533,525,526,41000,526
2015/04/28,527,532,525,527,19000,527
2015/04/30,523,523,520,521,30000,521
2015/05/01,520,526,516,517,38000,517
2015/05/07,521,522,499,522,85000,522
2015/05/08,512,519,512,515,117000,515
2015/05/11,515,522,515,516,75000,516
2015/05/12,516,521,515,518,56000,518
2015/05/13,518,520,516,519,35000,519
2015/05/14,519,520,517,519,56000,519
2015/05/15,519,535,519,529,137000,529
2015/05/18,539,543,533,539,98000,539
2015/05/19,535,545,534,542,108000,542
2015/05/20,542,544,532,544,69000,544
2015/05/21,541,545,540,545,76000,545
2015/05/22,544,551,543,549,90000,549
2015/05/25,551,555,548,555,58000,555
2015/05/26,550,556,550,554,61000,554
2015/05/27,551,553,548,552,31000,552
2015/05/28,552,554,549,554,23000,554
2015/05/29,553,556,547,553,44000,553
2015/06/01,553,555,550,553,32000,553
2015/06/02,553,555,550,554,40000,554
2015/06/03,553,555,547,555,23000,555
2015/06/04,554,563,551,561,111000,561
2015/06/05,561,561,546,549,97000,549
2015/06/08,552,557,547,552,117000,552
2015/06/09,554,554,547,548,49000,548
2015/06/10,545,552,542,542,67000,542
2015/06/11,542,554,540,546,53000,546
2015/06/12,552,553,545,552,79000,552
2015/06/15,553,553,546,548,28000,548
2015/06/16,554,554,545,548,29000,548
2015/06/17,549,549,540,542,17000,542
2015/06/18,543,546,537,543,50000,543
2015/06/19,543,569,541,569,127000,569
2015/06/22,560,568,555,562,50000,562
2015/06/23,562,567,558,567,66000,567
2015/06/24,567,567,557,564,68000,564
2015/06/25,564,573,562,571,75000,571
2015/06/26,563,575,561,573,74000,573
2015/06/29,568,572,563,568,63000,568
2015/06/30,562,578,562,566,72000,566
2015/07/01,565,575,561,568,42000,568
