2011/01/04,576,580,569,572,178000,572
2011/01/05,567,575,565,566,113000,566
2011/01/06,564,569,561,566,270000,566
2011/01/07,569,578,567,573,272000,573
2011/01/11,575,577,569,572,253000,572
2011/01/12,576,585,573,573,243000,573
2011/01/13,579,584,575,583,243000,583
2011/01/14,587,591,583,587,275000,587
2011/01/17,586,592,580,585,287000,585
2011/01/18,588,594,586,592,163000,592
2011/01/19,593,603,591,603,216000,603
2011/01/20,598,602,596,599,142000,599
2011/01/21,600,613,594,595,449000,595
2011/01/24,600,608,591,607,213000,607
2011/01/25,614,619,608,617,229000,617
2011/01/26,618,618,611,616,111000,616
2011/01/27,616,620,612,618,261000,618
2011/01/28,623,628,617,621,238000,621
2011/01/31,621,621,611,614,259000,614
2011/02/01,606,616,597,601,285000,601
2011/02/02,602,619,599,617,283000,617
2011/02/03,617,617,604,615,142000,615
2011/02/04,618,621,603,604,224000,604
2011/02/07,604,617,604,614,159000,614
2011/02/08,610,610,598,601,279000,601
2011/02/09,602,606,598,605,181000,605
2011/02/10,607,616,606,609,186000,609
2011/02/14,618,618,602,608,259000,608
2011/02/15,611,611,603,605,137000,605
2011/02/16,607,607,595,596,195000,596
2011/02/17,593,598,584,596,210000,596
2011/02/18,598,598,585,588,163000,588
2011/02/21,587,587,581,584,165000,584
2011/02/22,585,586,580,581,128000,581
2011/02/23,576,584,575,578,182000,578
2011/02/24,579,579,566,567,195000,567
2011/02/25,565,570,556,568,316000,568
2011/02/28,569,578,562,576,295000,576
2011/03/01,579,587,578,582,146000,582
2011/03/02,576,581,573,573,119000,573
2011/03/03,579,584,575,580,109000,580
2011/03/04,588,588,577,578,73000,578
2011/03/07,574,575,570,572,97000,572
2011/03/08,569,573,563,570,132000,570
2011/03/09,570,575,568,569,120000,569
2011/03/10,567,568,553,554,171000,554
2011/03/11,551,551,545,549,260000,549
2011/03/14,649,649,649,649,464000,649
2011/03/15,650,650,549,549,1028000,549
2011/03/16,554,595,554,595,597000,595
2011/03/17,560,613,560,597,654000,597
2011/03/18,607,626,607,621,414000,621
2011/03/22,660,686,647,685,576000,685
2011/03/23,690,714,682,703,950000,703
2011/03/24,718,727,692,693,823000,693
2011/03/25,733,734,705,717,666000,717
2011/03/28,717,717,696,710,382000,710
2011/03/29,698,704,670,691,454000,691
2011/03/30,697,697,682,685,277000,685
2011/03/31,681,683,662,668,365000,668
2011/04/01,661,678,661,667,233000,667
2011/04/04,670,679,666,674,239000,674
2011/04/05,675,683,657,670,361000,670
2011/04/06,661,666,642,646,392000,646
2011/04/07,648,660,634,635,410000,635
2011/04/08,622,646,615,635,559000,635
2011/04/11,640,674,639,671,422000,671
2011/04/12,661,668,645,649,510000,649
2011/04/13,645,664,643,656,572000,656
2011/04/14,666,702,652,692,1030000,692
2011/04/15,690,690,673,682,402000,682
2011/04/18,676,683,670,671,320000,671
2011/04/19,658,670,658,665,293000,665
2011/04/20,666,671,650,651,289000,651
2011/04/21,658,658,642,643,236000,643
2011/04/22,635,640,631,631,265000,631
2011/04/25,631,647,631,643,234000,643
2011/04/26,643,659,640,654,373000,654
2011/04/27,650,650,639,639,207000,639
2011/04/28,630,648,629,647,292000,647
2011/05/02,648,656,647,656,219000,656
2011/05/06,655,659,651,656,322000,656
2011/05/09,653,655,646,649,191000,649
2011/05/10,644,656,642,649,238000,649
2011/05/11,657,657,640,643,213000,643
2011/05/12,619,622,585,605,1076000,605
2011/05/13,605,605,585,590,433000,590
2011/05/16,590,594,586,591,301000,591
2011/05/17,590,596,587,594,309000,594
2011/05/18,584,593,581,590,297000,590
2011/05/19,591,591,579,585,318000,585
2011/05/20,580,594,573,586,478000,586
2011/05/23,578,581,563,569,240000,569
2011/05/24,570,577,569,577,224000,577
2011/05/25,570,573,564,565,116000,565
2011/05/26,566,573,563,570,199000,570
2011/05/27,564,574,564,571,114000,571
2011/05/30,571,576,566,574,142000,574
2011/05/31,577,579,572,572,156000,572
2011/06/01,577,581,573,580,216000,580
2011/06/02,570,580,569,575,218000,575
2011/06/03,569,577,568,570,213000,570
2011/06/06,570,571,566,568,150000,568
2011/06/07,564,577,563,576,142000,576
2011/06/08,569,578,569,575,143000,575
2011/06/09,567,571,565,569,152000,569
2011/06/10,577,577,568,569,202000,569
2011/06/13,569,574,568,573,149000,573
2011/06/14,569,591,569,589,236000,589
2011/06/15,579,598,576,594,497000,594
2011/06/16,597,600,588,592,263000,592
2011/06/17,589,595,578,584,207000,584
2011/06/20,580,606,580,605,266000,605
2011/06/21,605,618,601,615,324000,615
2011/06/22,615,637,613,634,268000,634
2011/06/23,633,660,630,646,399000,646
2011/06/24,651,652,629,637,166000,637
2011/06/27,645,650,633,641,186000,641
2011/06/28,637,664,637,663,341000,663
2011/06/29,666,668,652,656,256000,656
2011/06/30,663,663,640,650,244000,650
2011/07/01,655,659,645,658,149000,658
2011/07/04,658,659,651,654,188000,654
2011/07/05,651,657,651,655,97000,655
2011/07/06,648,648,638,646,279000,646
2011/07/07,647,664,647,662,270000,662
2011/07/08,660,665,659,660,130000,660
2011/07/11,660,668,658,665,200000,665
2011/07/12,655,659,655,658,111000,658
2011/07/13,658,660,656,657,71000,657
2011/07/14,649,654,648,651,107000,651
2011/07/15,642,646,640,643,202000,643
2011/07/19,634,643,632,642,147000,642
2011/07/20,645,649,642,646,165000,646
2011/07/21,646,646,634,639,178000,639
2011/07/22,639,650,635,647,169000,647
2011/07/25,647,650,642,646,127000,646
2011/07/26,642,650,642,646,76000,646
2011/07/27,646,646,636,639,83000,639
2011/07/28,633,633,625,631,145000,631
2011/07/29,622,625,616,617,196000,617
2011/08/01,623,632,622,631,83000,631
2011/08/02,631,631,623,625,146000,625
2011/08/03,619,620,615,617,94000,617
2011/08/04,622,637,622,624,196000,624
2011/08/05,602,614,602,612,180000,612
2011/08/08,596,598,590,591,202000,591
2011/08/09,588,588,561,588,268000,588
2011/08/10,598,603,588,592,132000,592
2011/08/11,582,623,580,623,228000,623
2011/08/12,630,630,613,623,205000,623
2011/08/15,621,637,616,629,133000,629
2011/08/16,633,634,618,622,112000,622
2011/08/17,622,640,622,638,141000,638
2011/08/18,645,658,639,653,304000,653
2011/08/19,646,648,642,643,222000,643
2011/08/22,645,653,635,638,302000,638
2011/08/23,628,635,605,608,632000,608
2011/08/24,608,626,605,619,629000,619
2011/08/25,620,626,612,618,301000,618
2011/08/26,624,639,619,629,259000,629
2011/08/29,623,655,621,646,275000,646
2011/08/30,656,688,653,667,516000,667
2011/08/31,677,685,654,668,371000,668
2011/09/01,668,671,654,667,335000,667
2011/09/02,658,675,658,671,333000,671
2011/09/05,671,683,665,683,257000,683
2011/09/06,693,695,670,675,337000,675
2011/09/07,677,680,668,671,199000,671
2011/09/08,670,670,661,667,240000,667
2011/09/09,657,671,655,667,364000,667
2011/09/12,655,658,653,653,88000,653
2011/09/13,657,657,641,652,143000,652
2011/09/14,646,667,646,650,218000,650
2011/09/15,656,660,646,654,130000,654
2011/09/16,655,674,647,672,382000,672
2011/09/20,667,667,649,652,178000,652
2011/09/21,652,658,641,651,201000,651
2011/09/22,642,648,635,635,182000,635
2011/09/26,637,654,617,624,197000,624
2011/09/27,634,641,624,637,113000,637
2011/09/28,638,675,638,671,346000,671
2011/09/29,670,694,666,693,317000,693
2011/09/30,688,688,670,682,246000,682
2011/10/03,672,700,670,696,489000,696
2011/10/04,689,709,687,705,358000,705
2011/10/05,700,720,698,710,661000,710
2011/10/06,710,720,697,699,210000,699
2011/10/07,703,703,680,697,293000,697
2011/10/11,700,708,692,694,172000,694
2011/10/12,696,706,690,702,125000,702
2011/10/13,705,705,687,690,130000,690
2011/10/14,685,718,668,715,460000,715
2011/10/17,720,725,712,712,173000,712
2011/10/18,702,716,702,709,104000,709
2011/10/19,711,711,695,697,165000,697
2011/10/20,689,689,673,677,267000,677
2011/10/21,671,677,662,663,230000,663
2011/10/24,664,680,664,674,293000,674
2011/10/25,672,681,670,674,250000,674
2011/10/26,667,711,654,687,509000,687
2011/10/27,681,688,664,668,344000,668
2011/10/28,674,689,672,686,188000,686
2011/10/31,684,703,680,690,260000,690
2011/11/01,685,691,669,673,252000,673
2011/11/02,668,674,659,674,172000,674
2011/11/04,675,682,665,676,240000,676
2011/11/07,678,689,673,687,350000,687
2011/11/08,690,696,681,683,206000,683
2011/11/09,686,688,672,687,164000,687
2011/11/10,673,680,668,678,182000,678
2011/11/11,684,684,649,660,290000,660
2011/11/14,661,670,652,659,306000,659
2011/11/15,656,667,654,661,214000,661
2011/11/16,661,666,652,658,198000,658
2011/11/17,662,671,654,660,119000,660
2011/11/18,651,659,637,647,295000,647
2011/11/21,653,659,641,653,135000,653
2011/11/22,652,657,644,652,150000,652
2011/11/24,642,657,636,651,130000,651
2011/11/25,652,652,634,643,162000,643
2011/11/28,649,655,643,644,141000,644
2011/11/29,649,661,640,660,151000,660
2011/11/30,650,673,650,661,154000,661
2011/12/01,659,666,653,657,145000,657
2011/12/02,659,679,658,678,182000,678
2011/12/05,683,683,664,668,233000,668
2011/12/06,667,670,653,653,139000,653
2011/12/07,650,663,621,637,771000,637
2011/12/08,637,648,632,644,402000,644
2011/12/09,643,647,639,643,159000,643
2011/12/12,653,670,648,669,373000,669
2011/12/13,677,701,667,695,532000,695
2011/12/14,700,716,700,707,846000,707
2011/12/15,707,723,702,721,746000,721
2011/12/16,724,750,724,735,1176000,735
2011/12/19,743,749,717,742,1062000,742
2011/12/20,749,757,742,747,418000,747
2011/12/21,742,760,742,757,515000,757
2011/12/22,751,754,728,731,442000,731
2011/12/26,721,740,717,722,681000,722
2011/12/27,725,743,725,733,312000,733
2011/12/28,733,739,721,727,306000,727
2011/12/29,723,765,723,752,816000,752
2011/12/30,753,765,730,736,648000,736
2012/01/04,761,764,751,758,571000,758
2012/01/05,770,799,765,786,1084000,786
2012/01/06,781,786,767,775,687000,775
2012/01/10,775,803,775,800,952000,800
2012/01/11,802,823,790,796,1279000,796
2012/01/12,788,793,771,782,946000,782
2012/01/13,785,807,785,804,705000,804
2012/01/16,798,826,790,823,1124000,823
2012/01/17,830,853,819,847,888000,847
2012/01/18,848,849,808,819,886000,819
2012/01/19,810,836,810,819,595000,819
2012/01/20,817,824,802,806,695000,806
2012/01/23,814,847,807,845,1050000,845
2012/01/24,850,850,834,842,541000,842
2012/01/25,833,849,829,841,382000,841
2012/01/26,841,845,835,845,355000,845
2012/01/27,845,856,835,840,357000,840
2012/01/30,840,841,823,828,550000,828
2012/01/31,820,859,820,851,722000,851
2012/02/01,840,850,838,844,802000,844
2012/02/02,849,873,840,863,624000,863
2012/02/03,860,861,850,853,324000,853
2012/02/06,862,867,857,864,285000,864
2012/02/07,852,861,848,852,507000,852
2012/02/08,910,953,885,896,4092000,896
2012/02/09,884,893,875,877,1288000,877
2012/02/10,878,880,865,869,815000,869
2012/02/13,868,869,851,857,739000,857
2012/02/14,865,879,861,873,673000,873
2012/02/15,873,874,852,855,777000,855
2012/02/16,867,867,851,854,575000,854
2012/02/17,868,878,864,872,908000,872
2012/02/20,876,882,856,857,520000,857
2012/02/21,857,875,853,872,480000,872
2012/02/22,873,889,873,887,601000,887
2012/02/23,887,887,875,881,546000,881
2012/02/24,878,887,875,881,279000,881
2012/02/27,875,878,865,869,343000,869
2012/02/28,864,874,862,869,535000,869
2012/02/29,877,884,871,877,649000,877
2012/03/01,874,889,869,876,534000,876
2012/03/02,872,878,866,874,611000,874
2012/03/05,873,898,873,898,784000,898
2012/03/06,903,934,903,929,1417000,929
2012/03/07,919,937,917,929,635000,929
2012/03/08,937,954,931,951,722000,951
2012/03/09,959,963,947,953,746000,953
2012/03/12,954,972,951,951,552000,951
2012/03/13,950,954,934,936,442000,936
2012/03/14,940,956,936,938,767000,938
2012/03/15,938,944,928,938,467000,938
2012/03/16,938,943,932,936,578000,936
2012/03/19,951,952,944,947,547000,947
2012/03/21,947,948,939,942,386000,942
2012/03/22,943,943,927,929,359000,929
2012/03/23,925,925,913,913,467000,913
2012/03/26,908,915,906,911,435000,911
2012/03/27,932,951,932,937,845000,937
2012/03/28,929,929,911,914,491000,914
2012/03/29,907,919,906,908,637000,908
2012/03/30,917,929,912,919,574000,919
2012/04/02,920,923,909,913,537000,913
2012/04/03,907,918,901,904,393000,904
2012/04/04,907,908,882,883,513000,883
2012/04/05,870,879,867,874,447000,874
2012/04/06,866,879,846,849,648000,849
2012/04/09,845,868,845,864,474000,864
2012/04/10,870,870,857,860,241000,860
2012/04/11,845,851,815,829,924000,829
2012/04/12,839,843,835,839,494000,839
2012/04/13,826,849,826,841,504000,841
2012/04/16,838,840,818,818,538000,818
2012/04/17,833,838,826,835,520000,835
2012/04/18,835,845,832,838,344000,838
2012/04/19,825,837,825,830,125000,830
2012/04/20,825,838,825,838,205000,838
2012/04/23,835,846,832,834,342000,834
2012/04/24,825,835,824,832,251000,832
2012/04/25,847,850,841,850,346000,850
2012/04/26,849,856,837,840,378000,840
2012/04/27,832,843,822,824,387000,824
2012/05/01,823,829,819,824,245000,824
2012/05/02,824,838,821,837,248000,837
2012/05/07,819,828,813,816,266000,816
2012/05/08,818,823,814,817,162000,817
2012/05/09,807,811,782,789,434000,789
2012/05/10,774,802,764,794,532000,794
2012/05/11,794,796,772,774,304000,774
2012/05/14,744,788,730,783,602000,783
2012/05/15,744,771,737,767,608000,767
2012/05/16,767,772,725,729,651000,729
2012/05/17,723,740,718,731,434000,731
2012/05/18,720,729,707,714,337000,714
2012/05/21,715,729,709,725,307000,725
2012/05/22,740,745,730,736,459000,736
2012/05/23,740,741,719,722,242000,722
2012/05/24,720,730,711,722,292000,722
2012/05/25,721,734,714,723,332000,723
2012/05/28,723,725,710,713,81000,713
2012/05/29,713,724,709,720,186000,720
2012/05/30,720,722,713,720,123000,720
2012/05/31,715,737,711,734,374000,734
2012/06/01,733,733,720,728,381000,728
2012/06/04,713,715,693,709,299000,709
2012/06/05,712,734,710,731,327000,731
2012/06/06,731,747,728,745,345000,745
2012/06/07,750,793,750,785,609000,785
2012/06/08,794,800,779,788,914000,788
2012/06/11,798,827,798,809,644000,809
2012/06/12,798,831,792,829,647000,829
2012/06/13,825,825,811,814,743000,814
2012/06/14,815,838,814,832,860000,832
2012/06/15,832,856,830,848,869000,848
2012/06/18,860,874,852,874,709000,874
2012/06/19,875,881,867,870,552000,870
2012/06/20,879,882,873,879,350000,879
2012/06/21,871,871,856,857,557000,857
2012/06/22,850,875,845,860,555000,860
2012/06/25,863,870,857,864,264000,864
2012/06/26,851,859,841,842,395000,842
2012/06/27,847,869,839,869,300000,869
2012/06/28,878,878,856,858,437000,858
2012/06/29,856,889,853,882,529000,882
2012/07/02,887,895,874,891,386000,891
2012/07/03,888,898,882,895,223000,895
2012/07/04,897,909,888,906,291000,906
2012/07/05,907,919,897,899,389000,899
2012/07/06,901,916,898,908,284000,908
2012/07/09,908,913,900,908,272000,908
2012/07/10,915,926,909,911,273000,911
2012/07/11,912,918,905,910,405000,910
2012/07/12,911,912,895,897,238000,897
2012/07/13,893,916,893,906,357000,906
2012/07/17,906,911,900,901,162000,901
2012/07/18,892,895,873,874,335000,874
2012/07/19,875,887,874,881,224000,881
2012/07/20,884,889,873,874,266000,874
2012/07/23,870,871,860,863,182000,863
2012/07/24,860,883,859,875,333000,875
2012/07/25,890,908,873,879,394000,879
2012/07/26,880,885,874,883,347000,883
2012/07/27,900,900,886,891,195000,891
2012/07/30,900,920,892,920,358000,920
2012/07/31,912,942,911,937,392000,937
2012/08/01,925,937,916,932,192000,932
2012/08/02,927,930,918,922,155000,922
2012/08/03,920,931,920,920,173000,920
2012/08/06,923,936,916,932,242000,932
2012/08/07,923,936,912,914,394000,914
2012/08/08,914,916,875,899,581000,899
2012/08/09,890,901,886,898,320000,898
2012/08/10,883,899,883,895,127000,895
2012/08/13,891,893,877,886,169000,886
2012/08/14,886,890,833,839,1098000,839
2012/08/15,853,859,839,858,704000,858
2012/08/16,857,861,847,850,492000,850
2012/08/17,851,863,847,854,455000,854
2012/08/20,854,867,852,861,321000,861
2012/08/21,862,898,861,895,683000,895
2012/08/22,900,918,896,915,740000,915
2012/08/23,909,911,899,904,342000,904
2012/08/24,894,903,890,900,163000,900
2012/08/27,910,912,884,897,226000,897
2012/08/28,900,900,874,879,253000,879
2012/08/29,884,892,877,878,158000,878
2012/08/30,880,881,864,865,252000,865
2012/08/31,855,868,854,855,186000,855
2012/09/03,848,861,847,849,222000,849
2012/09/04,857,883,849,882,431000,882
2012/09/05,882,892,878,880,291000,880
2012/09/06,880,884,876,879,374000,879
2012/09/07,894,896,879,882,205000,882
2012/09/10,878,878,867,868,157000,868
2012/09/11,856,863,839,841,386000,841
2012/09/12,841,849,840,842,317000,842
2012/09/13,843,852,841,850,114000,850
2012/09/14,848,855,845,853,309000,853
2012/09/18,849,857,847,853,258000,853
2012/09/19,855,865,846,862,281000,862
2012/09/20,857,868,855,865,318000,865
2012/09/21,859,870,859,865,125000,865
2012/09/24,866,879,863,879,274000,879
2012/09/25,865,894,862,893,448000,893
2012/09/26,867,893,867,888,211000,888
2012/09/27,888,899,880,895,185000,895
2012/09/28,895,908,890,905,361000,905
2012/10/01,905,905,882,893,258000,893
2012/10/02,878,895,876,886,162000,886
2012/10/03,886,886,874,874,111000,874
2012/10/04,874,883,867,880,128000,880
2012/10/05,873,882,873,880,81000,880
2012/10/09,892,894,882,888,196000,888
2012/10/10,873,884,863,884,316000,884
2012/10/11,882,888,876,877,204000,877
2012/10/12,883,890,881,885,148000,885
2012/10/15,885,888,877,878,81000,878
2012/10/16,878,888,875,876,159000,876
2012/10/17,876,876,850,861,676000,861
2012/10/18,862,863,828,830,660000,830
2012/10/19,832,851,827,846,407000,846
2012/10/22,840,870,837,864,382000,864
2012/10/23,867,867,844,847,166000,847
2012/10/24,834,854,834,850,188000,850
2012/10/25,871,877,861,866,732000,866
2012/10/26,865,877,857,860,374000,860
2012/10/29,851,887,851,886,284000,886
2012/10/30,890,907,886,895,504000,895
2012/10/31,904,909,890,904,346000,904
2012/11/01,900,908,895,905,244000,905
2012/11/02,910,933,910,930,377000,930
2012/11/05,937,937,904,916,279000,916
2012/11/06,929,933,920,928,163000,928
2012/11/07,928,931,903,904,271000,904
2012/11/08,904,904,877,880,443000,880
2012/11/09,875,880,867,875,277000,875
2012/11/12,864,873,855,858,193000,858
2012/11/13,855,863,848,863,173000,863
2012/11/14,864,889,863,887,234000,887
2012/11/15,917,935,902,934,586000,934
2012/11/16,921,932,904,932,476000,932
2012/11/19,937,945,931,934,239000,934
2012/11/20,927,933,916,920,403000,920
2012/11/21,922,934,909,915,289000,915
2012/11/22,910,924,910,920,121000,920
2012/11/26,930,930,908,912,195000,912
2012/11/27,916,930,913,925,181000,925
2012/11/28,930,930,918,920,101000,920
2012/11/29,920,939,920,932,202000,932
2012/11/30,934,954,933,948,357000,948
2012/12/03,969,975,961,965,407000,965
2012/12/04,954,972,951,965,376000,965
2012/12/05,972,991,969,986,473000,986
2012/12/06,1000,1021,1000,1008,623000,1008
2012/12/07,1022,1022,998,1006,279000,1006
2012/12/10,1006,1010,993,997,226000,997
2012/12/11,993,1007,993,1000,238000,1000
2012/12/12,1017,1030,1007,1020,499000,1020
2012/12/13,1013,1028,1008,1010,674000,1010
2012/12/14,1022,1036,1018,1025,657000,1025
2012/12/17,1049,1050,1030,1044,581000,1044
2012/12/18,1054,1105,1050,1105,901000,1105
2012/12/19,1133,1170,1112,1162,1031000,1162
2012/12/20,1160,1172,1135,1156,530000,1156
2012/12/21,1164,1169,1132,1146,472000,1146
2012/12/25,1153,1203,1153,1190,556000,1190
2012/12/26,1214,1214,1191,1195,502000,1195
2012/12/27,1204,1208,1179,1182,445000,1182
2012/12/28,1173,1191,1143,1190,371000,1190
2013/01/04,1229,1237,1209,1224,420000,1224
2013/01/07,1237,1276,1225,1256,589000,1256
2013/01/08,1251,1283,1239,1252,583000,1252
2013/01/09,1230,1263,1217,1241,681000,1241
2013/01/10,1241,1264,1239,1259,721000,1259
2013/01/11,1263,1280,1243,1276,741000,1276
2013/01/15,1293,1299,1260,1264,506000,1264
2013/01/16,1265,1280,1227,1240,838000,1240
2013/01/17,1230,1231,1158,1190,937000,1190
2013/01/18,1191,1220,1191,1215,617000,1215
2013/01/21,1211,1234,1206,1224,456000,1224
2013/01/22,1226,1246,1216,1233,541000,1233
2013/01/23,1217,1234,1205,1208,411000,1208
2013/01/24,1208,1242,1206,1226,406000,1226
2013/01/25,1246,1248,1237,1244,277000,1244
2013/01/28,1244,1245,1211,1213,366000,1213
2013/01/29,1193,1203,1166,1168,765000,1168
2013/01/30,1184,1249,1175,1238,929000,1238
2013/01/31,1240,1241,1215,1228,342000,1228
2013/02/01,1230,1247,1212,1235,469000,1235
2013/02/04,1251,1257,1184,1192,991000,1192
2013/02/05,1175,1204,1173,1176,467000,1176
2013/02/06,1250,1250,1208,1242,1493000,1242
2013/02/07,1241,1242,1213,1232,893000,1232
2013/02/08,1242,1274,1223,1266,1181000,1266
2013/02/12,1295,1312,1229,1230,1153000,1230
2013/02/13,1238,1254,1196,1212,1044000,1212
2013/02/14,1230,1239,1214,1238,499000,1238
2013/02/15,1220,1224,1185,1201,505000,1201
2013/02/18,1210,1236,1208,1227,258000,1227
2013/02/19,1222,1248,1219,1235,308000,1235
2013/02/20,1234,1238,1222,1224,356000,1224
2013/02/21,1220,1226,1202,1212,480000,1212
2013/02/22,1210,1210,1187,1193,580000,1193
2013/02/25,1203,1214,1198,1205,445000,1205
2013/02/26,1184,1200,1180,1186,447000,1186
2013/02/27,1197,1222,1188,1196,657000,1196
2013/02/28,1202,1224,1197,1218,420000,1218
2013/03/01,1207,1222,1203,1219,293000,1219
2013/03/04,1220,1232,1203,1203,669000,1203
2013/03/05,1216,1218,1194,1199,557000,1199
2013/03/06,1205,1219,1201,1208,478000,1208
2013/03/07,1207,1209,1191,1194,760000,1194
2013/03/08,1192,1194,1174,1178,971000,1178
2013/03/11,1184,1196,1164,1174,678000,1174
2013/03/12,1183,1189,1172,1184,539000,1184
2013/03/13,1183,1183,1161,1165,602000,1165
2013/03/14,1169,1173,1159,1165,666000,1165
2013/03/15,1175,1185,1161,1174,1016000,1174
2013/03/18,1174,1174,1160,1160,389000,1160
2013/03/19,1162,1166,1148,1150,767000,1150
2013/03/21,1152,1183,1152,1172,755000,1172
2013/03/22,1174,1177,1158,1158,537000,1158
2013/03/25,1166,1169,1156,1161,380000,1161
2013/03/26,1161,1163,1154,1163,416000,1163
2013/03/27,1158,1170,1156,1164,345000,1164
2013/03/28,1164,1164,1150,1159,307000,1159
2013/03/29,1159,1159,1130,1143,295000,1143
2013/04/01,1135,1140,1091,1094,376000,1094
2013/04/02,1073,1115,1061,1108,732000,1108
2013/04/03,1108,1114,1094,1097,579000,1097
2013/04/04,1098,1119,1085,1119,707000,1119
2013/04/05,1146,1146,1111,1121,894000,1121
2013/04/08,1129,1180,1124,1180,926000,1180
2013/04/09,1194,1257,1185,1256,1908000,1256
2013/04/10,1250,1272,1230,1254,1040000,1254
2013/04/11,1264,1269,1246,1261,862000,1261
2013/04/12,1246,1254,1218,1222,882000,1222
2013/04/15,1223,1245,1223,1228,593000,1228
2013/04/16,1205,1239,1191,1232,628000,1232
2013/04/17,1233,1245,1224,1228,394000,1228
2013/04/18,1234,1260,1227,1252,690000,1252
2013/04/19,1255,1261,1238,1258,597000,1258
2013/04/22,1269,1337,1269,1336,1135000,1336
2013/04/23,1349,1380,1340,1359,1181000,1359
2013/04/24,1375,1410,1370,1410,1176000,1410
2013/04/25,1405,1459,1385,1452,1001000,1452
2013/04/26,1460,1475,1422,1427,587000,1427
2013/04/30,1457,1467,1422,1458,515000,1458
2013/05/01,1459,1468,1441,1465,332000,1465
2013/05/02,1455,1460,1430,1442,327000,1442
2013/05/07,1445,1505,1444,1502,464000,1502
2013/05/08,1528,1598,1515,1586,847000,1586
2013/05/09,1588,1591,1521,1526,687000,1526
2013/05/10,1520,1585,1517,1582,770000,1582
2013/05/13,1583,1624,1577,1615,850000,1615
2013/05/14,1615,1690,1582,1676,1032000,1676
2013/05/15,1654,1663,1566,1580,858000,1580
2013/05/16,1576,1581,1481,1536,781000,1536
2013/05/17,1510,1571,1501,1545,1042000,1545
2013/05/20,1562,1570,1531,1551,371000,1551
2013/05/21,1550,1560,1500,1507,507000,1507
2013/05/22,1497,1530,1478,1502,892000,1502
2013/05/23,1502,1514,1402,1406,628000,1406
2013/05/24,1405,1434,1355,1386,613000,1386
2013/05/27,1380,1392,1336,1369,377000,1369
2013/05/28,1339,1387,1339,1364,440000,1364
2013/05/29,1390,1397,1364,1378,319000,1378
2013/05/30,1350,1378,1305,1311,735000,1311
2013/05/31,1340,1351,1310,1320,512000,1320
2013/06/03,1322,1361,1314,1315,506000,1315
2013/06/04,1323,1349,1295,1348,377000,1348
2013/06/05,1358,1420,1349,1361,635000,1361
2013/06/06,1361,1380,1300,1304,662000,1304
2013/06/07,1299,1337,1270,1310,752000,1310
2013/06/10,1358,1481,1354,1433,1569000,1433
2013/06/11,1430,1474,1412,1434,985000,1434
2013/06/12,1412,1443,1383,1437,494000,1437
2013/06/13,1438,1444,1376,1404,586000,1404
2013/06/14,1456,1518,1439,1483,1038000,1483
2013/06/17,1493,1577,1493,1565,1071000,1565
2013/06/18,1564,1564,1512,1536,770000,1536
2013/06/19,1559,1560,1501,1515,620000,1515
2013/06/20,1513,1545,1505,1542,612000,1542
2013/06/21,1517,1594,1510,1556,2034000,1556
2013/06/24,1599,1638,1595,1620,1718000,1620
2013/06/25,1620,1654,1595,1643,1041000,1643
2013/06/26,1667,1670,1566,1569,827000,1569
2013/06/27,1576,1632,1556,1632,551000,1632
2013/06/28,1624,1634,1600,1632,626000,1632
2013/07/01,1614,1688,1614,1682,795000,1682
2013/07/02,1682,1704,1666,1700,1076000,1700
2013/07/03,1699,1706,1650,1695,806000,1695
2013/07/04,1696,1750,1696,1741,990000,1741
2013/07/05,1772,1798,1742,1790,786000,1790
2013/07/08,1835,1835,1737,1741,576000,1741
2013/07/09,1765,1821,1751,1809,431000,1809
2013/07/10,1810,1886,1803,1872,899000,1872
2013/07/11,1872,1904,1846,1895,531000,1895
2013/07/12,1907,1918,1880,1898,617000,1898
2013/07/16,1898,1900,1847,1856,566000,1856
2013/07/17,1837,1839,1785,1834,812000,1834
2013/07/18,1815,1824,1773,1782,1178000,1782
2013/07/19,1772,1805,1730,1742,1212000,1742
2013/07/22,1737,1787,1731,1785,773000,1785
2013/07/23,1762,1775,1749,1756,353000,1756
2013/07/24,1734,1751,1721,1729,297000,1729
2013/07/25,1723,1740,1715,1720,309000,1720
2013/07/26,1660,1702,1660,1679,301000,1679
2013/07/29,1659,1661,1620,1621,341000,1621
2013/07/30,1620,1694,1620,1677,449000,1677
2013/07/31,1660,1684,1629,1670,455000,1670
2013/08/01,1670,1738,1659,1734,410000,1734
2013/08/02,1770,1845,1763,1838,974000,1838
2013/08/05,1869,1877,1810,1861,915000,1861
2013/08/06,1859,1859,1711,1756,1832000,1756
2013/08/07,1739,1803,1712,1715,1181000,1715
2013/08/08,1700,1731,1645,1657,630000,1657
2013/08/09,1640,1672,1635,1655,682000,1655
2013/08/12,1625,1668,1625,1650,388000,1650
2013/08/13,1673,1694,1667,1690,203000,1690
2013/08/14,1690,1694,1645,1677,235000,1677
2013/08/15,1640,1653,1603,1610,661000,1610
2013/08/16,1600,1626,1600,1608,227000,1608
2013/08/19,1600,1673,1599,1672,684000,1672
2013/08/20,1672,1688,1657,1661,420000,1661
2013/08/21,1660,1665,1621,1635,228000,1635
2013/08/22,1609,1657,1603,1650,248000,1650
2013/08/23,1665,1672,1650,1658,271000,1658
2013/08/26,1675,1689,1670,1679,270000,1679
2013/08/27,1680,1682,1652,1657,212000,1657
2013/08/28,1601,1643,1601,1626,372000,1626
2013/08/29,1616,1625,1570,1589,662000,1589
2013/08/30,1600,1617,1570,1579,336000,1579
2013/09/02,1575,1651,1575,1641,346000,1641
2013/09/03,1679,1683,1650,1667,228000,1667
2013/09/04,1667,1681,1645,1669,343000,1669
2013/09/05,1670,1670,1639,1642,507000,1642
2013/09/06,1636,1638,1598,1604,629000,1604
2013/09/09,1764,1780,1700,1714,1211000,1714
2013/09/10,1740,1989,1740,1925,3347000,1925
2013/09/11,2005,2005,1857,1864,1845000,1864
2013/09/12,1839,1889,1816,1832,886000,1832
2013/09/13,1807,1848,1792,1817,658000,1817
2013/09/17,1830,1847,1776,1778,898000,1778
2013/09/18,1772,1781,1730,1762,1156000,1762
2013/09/19,1790,1790,1749,1760,755000,1760
2013/09/20,1755,1779,1755,1761,637000,1761
2013/09/24,1755,1766,1725,1751,323000,1751
2013/09/25,1734,1740,1676,1687,791000,1687
2013/09/26,1694,1769,1663,1764,692000,1764
2013/09/27,1760,1760,1711,1738,532000,1738
2013/09/30,1687,1728,1676,1682,1004000,1682
2013/10/01,1682,1717,1682,1710,730000,1710
2013/10/02,1711,1729,1677,1686,552000,1686
2013/10/03,1689,1699,1664,1676,413000,1676
2013/10/04,1660,1686,1642,1671,498000,1671
2013/10/07,1672,1685,1621,1630,393000,1630
2013/10/08,1600,1645,1600,1636,449000,1636
2013/10/09,1610,1661,1595,1660,474000,1660
2013/10/10,1661,1680,1649,1666,408000,1666
2013/10/11,1685,1687,1666,1679,383000,1679
2013/10/15,1672,1682,1660,1667,364000,1667
2013/10/16,1661,1683,1658,1683,391000,1683
2013/10/17,1706,1730,1706,1725,523000,1725
2013/10/18,1734,1745,1714,1744,506000,1744
2013/10/21,1746,1769,1740,1760,584000,1760
2013/10/22,1761,1769,1721,1730,614000,1730
2013/10/23,1721,1737,1698,1706,458000,1706
2013/10/24,1725,1826,1721,1817,2176000,1817
2013/10/25,1815,1824,1780,1811,808000,1811
2013/10/28,1824,1855,1807,1853,637000,1853
2013/10/29,1842,1859,1831,1853,694000,1853
2013/10/30,1855,1859,1833,1841,799000,1841
2013/10/31,1841,1858,1825,1837,779000,1837
2013/11/01,1827,1833,1776,1822,608000,1822
2013/11/05,1782,1819,1782,1799,654000,1799
2013/11/06,1786,1830,1771,1817,579000,1817
2013/11/07,1798,1820,1765,1766,580000,1766
2013/11/08,1765,1825,1756,1821,823000,1821
2013/11/11,1834,1835,1790,1813,600000,1813
2013/11/12,1827,1863,1825,1851,793000,1851
2013/11/13,1850,1859,1807,1816,465000,1816
2013/11/14,1812,1835,1788,1799,684000,1799
2013/11/15,1799,1818,1769,1772,1125000,1772
2013/11/18,1782,1789,1763,1771,832000,1771
2013/11/19,1761,1772,1749,1762,716000,1762
2013/11/20,1755,1766,1734,1763,881000,1763
2013/11/21,1767,1782,1763,1768,397000,1768
2013/11/22,1767,1771,1715,1722,965000,1722
2013/11/25,1725,1736,1699,1708,514000,1708
2013/11/26,1711,1729,1711,1718,405000,1718
2013/11/27,1719,1724,1658,1664,709000,1664
2013/11/28,1671,1680,1658,1663,697000,1663
2013/11/29,1670,1694,1629,1631,1227000,1631
2013/12/02,1630,1666,1630,1661,960000,1661
2013/12/03,1690,1690,1672,1683,701000,1683
2013/12/04,1662,1678,1648,1649,470000,1649
2013/12/05,1640,1649,1620,1626,676000,1626
2013/12/06,1616,1637,1616,1631,446000,1631
2013/12/09,1643,1648,1633,1640,434000,1640
2013/12/10,1640,1690,1632,1685,747000,1685
2013/12/11,1673,1695,1667,1691,485000,1691
2013/12/12,1660,1672,1632,1636,807000,1636
2013/12/13,1628,1630,1605,1606,895000,1606
2013/12/16,1605,1615,1562,1568,752000,1568
2013/12/17,1575,1596,1575,1588,376000,1588
2013/12/18,1575,1586,1568,1575,643000,1575
2013/12/19,1600,1610,1582,1594,668000,1594
2013/12/20,1600,1669,1600,1669,1315000,1669
2013/12/24,1661,1667,1639,1656,709000,1656
2013/12/25,1654,1679,1641,1678,479000,1678
2013/12/26,1703,1745,1692,1743,826000,1743
2013/12/27,1743,1747,1710,1747,492000,1747
2013/12/30,1747,1754,1741,1747,490000,1747
2014/01/06,1747,1752,1713,1727,752000,1727
2014/01/07,1711,1725,1688,1702,752000,1702
2014/01/08,1700,1714,1697,1713,352000,1713
2014/01/09,1711,1718,1697,1715,591000,1715
2014/01/10,1700,1715,1694,1711,582000,1711
2014/01/14,1670,1691,1668,1671,513000,1671
2014/01/15,1680,1741,1680,1736,920000,1736
2014/01/16,1727,1743,1714,1717,471000,1717
2014/01/17,1697,1720,1697,1714,548000,1714
2014/01/20,1714,1719,1691,1696,341000,1696
2014/01/21,1694,1699,1674,1676,493000,1676
2014/01/22,1682,1683,1641,1649,581000,1649
2014/01/23,1659,1675,1633,1634,603000,1634
2014/01/24,1605,1617,1595,1606,815000,1606
2014/01/27,1586,1586,1564,1565,546000,1565
2014/01/28,1566,1576,1541,1541,527000,1541
2014/01/29,1575,1622,1564,1620,543000,1620
2014/01/30,1592,1607,1584,1600,534000,1600
2014/01/31,1616,1617,1591,1610,532000,1610
2014/02/03,1582,1603,1571,1583,538000,1583
2014/02/04,1523,1523,1481,1492,697000,1492
2014/02/05,1515,1535,1495,1529,516000,1529
2014/02/06,1540,1626,1534,1611,1028000,1611
2014/02/07,1590,1598,1503,1526,2031000,1526
2014/02/10,1540,1545,1515,1540,827000,1540
2014/02/12,1554,1575,1520,1528,801000,1528
2014/02/13,1526,1541,1492,1493,791000,1493
2014/02/14,1510,1524,1451,1508,787000,1508
2014/02/17,1515,1528,1473,1528,369000,1528
2014/02/18,1531,1546,1501,1541,417000,1541
2014/02/19,1519,1535,1511,1529,256000,1529
2014/02/20,1520,1520,1480,1485,359000,1485
2014/02/21,1500,1510,1480,1496,400000,1496
2014/02/24,1496,1514,1481,1500,257000,1500
2014/02/25,1521,1535,1517,1534,276000,1534
2014/02/26,1512,1528,1503,1522,318000,1522
2014/02/27,1518,1518,1482,1484,517000,1484
2014/02/28,1490,1500,1486,1499,341000,1499
2014/03/03,1490,1490,1458,1479,332000,1479
2014/03/04,1457,1463,1442,1458,514000,1458
2014/03/05,1473,1490,1449,1454,503000,1454
2014/03/06,1460,1460,1424,1449,723000,1449
2014/03/07,1465,1503,1463,1492,881000,1492
2014/03/10,1499,1528,1496,1514,623000,1514
2014/03/11,1514,1520,1490,1504,439000,1504
2014/03/12,1498,1514,1492,1494,500000,1494
2014/03/13,1485,1499,1478,1489,361000,1489
2014/03/14,1456,1465,1429,1430,549000,1430
2014/03/17,1431,1437,1364,1380,722000,1380
2014/03/18,1420,1425,1400,1403,355000,1403
2014/03/19,1412,1415,1379,1392,376000,1392
2014/03/20,1390,1396,1356,1356,542000,1356
2014/03/24,1359,1387,1345,1351,967000,1351
2014/03/25,1352,1357,1319,1342,745000,1342
2014/03/26,1343,1381,1343,1380,558000,1380
2014/03/27,1365,1385,1348,1383,520000,1383
2014/03/28,1377,1389,1354,1389,407000,1389
2014/03/31,1419,1429,1395,1425,650000,1425
2014/04/01,1440,1509,1426,1505,941000,1505
2014/04/02,1502,1519,1483,1488,663000,1488
2014/04/03,1489,1496,1465,1467,343000,1467
2014/04/04,1473,1503,1473,1501,417000,1501
2014/04/07,1480,1493,1471,1481,244000,1481
2014/04/08,1466,1479,1451,1454,270000,1454
2014/04/09,1454,1455,1428,1446,475000,1446
2014/04/10,1455,1467,1432,1433,290000,1433
2014/04/11,1396,1419,1394,1404,295000,1404
2014/04/14,1386,1425,1386,1419,203000,1419
2014/04/15,1419,1438,1409,1434,316000,1434
2014/04/16,1438,1488,1437,1488,1023000,1488
2014/04/17,1503,1511,1493,1506,612000,1506
2014/04/18,1506,1525,1497,1521,329000,1521
2014/04/21,1504,1528,1484,1488,421000,1488
2014/04/22,1502,1523,1498,1500,410000,1500
2014/04/23,1508,1514,1494,1503,315000,1503
2014/04/24,1495,1522,1495,1522,308000,1522
2014/04/25,1522,1532,1499,1502,569000,1502
2014/04/28,1515,1538,1496,1503,838000,1503
2014/04/30,1511,1562,1511,1559,1018000,1559
2014/05/01,1562,1569,1537,1569,466000,1569
2014/05/02,1549,1579,1543,1568,433000,1568
2014/05/07,1540,1555,1500,1511,574000,1511
2014/05/08,1517,1524,1500,1502,502000,1502
2014/05/09,1466,1515,1465,1482,541000,1482
2014/05/12,1516,1607,1512,1523,1639000,1523
2014/05/13,1515,1530,1493,1526,586000,1526
2014/05/14,1524,1550,1511,1529,536000,1529
2014/05/15,1529,1592,1529,1590,940000,1590
2014/05/16,1584,1605,1562,1587,1287000,1587
2014/05/19,1599,1599,1566,1570,631000,1570
2014/05/20,1579,1592,1563,1566,442000,1566
2014/05/21,1560,1565,1541,1554,367000,1554
2014/05/22,1564,1597,1564,1583,440000,1583
2014/05/23,1590,1595,1563,1567,352000,1567
2014/05/26,1583,1598,1559,1595,455000,1595
2014/05/27,1589,1601,1583,1583,364000,1583
2014/05/28,1595,1625,1592,1614,534000,1614
2014/05/29,1604,1620,1593,1604,385000,1604
2014/05/30,1614,1624,1599,1599,420000,1599
2014/06/02,1614,1641,1612,1634,516000,1634
2014/06/03,1650,1652,1635,1640,354000,1640
2014/06/04,1640,1671,1630,1661,569000,1661
2014/06/05,1674,1687,1627,1631,515000,1631
2014/06/06,1649,1665,1635,1650,524000,1650
2014/06/09,1650,1662,1645,1652,205000,1652
2014/06/10,1652,1664,1623,1644,342000,1644
2014/06/11,1623,1676,1622,1667,413000,1667
2014/06/12,1640,1654,1635,1639,251000,1639
2014/06/13,1622,1647,1613,1641,533000,1641
2014/06/16,1660,1735,1660,1718,1401000,1718
2014/06/17,1705,1731,1692,1696,751000,1696
2014/06/18,1705,1719,1685,1700,674000,1700
2014/06/19,1699,1717,1688,1698,778000,1698
2014/06/20,1698,1708,1673,1677,731000,1677
2014/06/23,1685,1705,1684,1694,671000,1694
2014/06/24,1676,1686,1654,1672,516000,1672
2014/06/25,1678,1715,1668,1708,720000,1708
2014/06/26,1708,1721,1697,1715,506000,1715
2014/06/27,1698,1706,1687,1692,442000,1692
2014/06/30,1695,1707,1682,1704,377000,1704
2014/07/01,1690,1718,1687,1711,316000,1711
2014/07/02,1717,1725,1698,1700,339000,1700
2014/07/03,1701,1715,1685,1687,372000,1687
2014/07/04,1687,1690,1667,1668,393000,1668
2014/07/07,1679,1692,1673,1689,273000,1689
2014/07/08,1696,1715,1682,1712,408000,1712
2014/07/09,1704,1716,1687,1694,342000,1694
2014/07/10,1705,1705,1687,1687,248000,1687
2014/07/11,1683,1694,1671,1691,319000,1691
2014/07/14,1678,1685,1669,1670,213000,1670
2014/07/15,1670,1689,1669,1682,257000,1682
2014/07/16,1680,1686,1675,1681,336000,1681
2014/07/17,1678,1694,1675,1685,247000,1685
2014/07/18,1675,1699,1666,1697,237000,1697
2014/07/22,1691,1752,1691,1748,707000,1748
2014/07/23,1748,1797,1748,1781,920000,1781
2014/07/24,1799,1804,1771,1784,662000,1784
2014/07/25,1784,1811,1780,1809,525000,1809
2014/07/28,1809,1824,1808,1816,249000,1816
2014/07/29,1815,1823,1797,1820,204000,1820
2014/07/30,1844,1849,1812,1825,613000,1825
2014/07/31,1830,1838,1780,1818,605000,1818
2014/08/01,1790,1866,1790,1847,1016000,1847
2014/08/04,1857,1867,1846,1853,352000,1853
2014/08/05,1870,1890,1863,1866,646000,1866
2014/08/06,1860,1873,1842,1852,397000,1852
2014/08/07,1852,1861,1821,1858,410000,1858
2014/08/08,1848,1864,1801,1805,571000,1805
2014/08/11,1845,1845,1811,1814,374000,1814
2014/08/12,1814,1831,1804,1817,340000,1817
2014/08/13,1830,1885,1822,1880,574000,1880
2014/08/14,1877,1893,1866,1889,524000,1889
2014/08/15,1897,1911,1877,1893,617000,1893
2014/08/18,1893,1928,1885,1923,430000,1923
2014/08/19,1939,1956,1905,1912,451000,1912
2014/08/20,1932,1974,1931,1952,606000,1952
2014/08/21,1974,1984,1947,1982,655000,1982
2014/08/22,1985,1990,1941,1950,424000,1950
2014/08/25,1960,1979,1958,1972,258000,1972
2014/08/26,1981,1988,1965,1974,328000,1974
2014/08/27,1986,2073,1981,2051,991000,2051
2014/08/28,2063,2080,2037,2053,759000,2053
2014/08/29,2060,2091,2035,2044,836000,2044
2014/09/01,2050,2095,2042,2091,476000,2091
2014/09/02,2100,2116,2073,2080,484000,2080
2014/09/03,2050,2079,2039,2065,644000,2065
2014/09/04,2050,2052,2023,2026,511000,2026
2014/09/05,2030,2064,2000,2002,792000,2002
2014/09/08,1990,2039,1986,2029,786000,2029
2014/09/09,2045,2076,2011,2013,626000,2013
2014/09/10,2028,2028,1982,2014,324000,2014
2014/09/11,2039,2049,2023,2035,614000,2035
2014/09/12,2024,2030,1982,1988,680000,1988
2014/09/16,1974,1981,1934,1941,955000,1941
2014/09/17,1950,1969,1940,1941,250000,1941
2014/09/18,1958,1970,1939,1945,347000,1945
2014/09/19,1985,1994,1959,1974,649000,1974
2014/09/22,1974,1974,1919,1937,506000,1937
2014/09/24,1948,2002,1944,1982,502000,1982
2014/09/25,2000,2020,1972,2020,515000,2020
2014/09/26,2000,2034,1992,2018,316000,2018
2014/09/29,2021,2046,2009,2045,251000,2045
2014/09/30,2039,2039,1990,2011,308000,2011
2014/10/01,2016,2040,2007,2011,320000,2011
2014/10/02,1981,1982,1926,1929,529000,1929
2014/10/03,1939,1970,1939,1957,257000,1957
2014/10/06,1990,2012,1975,2004,315000,2004
2014/10/07,2004,2023,1977,1985,442000,1985
2014/10/08,1950,1963,1933,1952,495000,1952
2014/10/09,1952,1953,1912,1916,440000,1916
2014/10/10,1903,1944,1903,1941,683000,1941
2014/10/14,1872,1891,1855,1873,445000,1873
2014/10/15,1873,1888,1839,1859,426000,1859
2014/10/16,1813,1824,1793,1796,597000,1796
2014/10/17,1800,1818,1776,1781,224000,1781
2014/10/20,1850,1870,1833,1845,374000,1845
2014/10/21,1833,1836,1790,1797,542000,1797
2014/10/22,1850,1892,1849,1889,649000,1889
2014/10/23,1868,1896,1856,1882,373000,1882
2014/10/24,1910,1920,1884,1890,169000,1890
2014/10/27,1915,1960,1914,1957,345000,1957
2014/10/28,1939,1957,1921,1926,251000,1926
2014/10/29,1950,1952,1933,1948,110000,1948
2014/10/30,1943,1977,1933,1961,343000,1961
2014/10/31,1971,2022,1952,2015,449000,2015
2014/11/04,2030,2053,2000,2017,568000,2017
2014/11/05,2029,2049,1995,2012,976000,2012
2014/11/06,2000,2000,1955,1957,669000,1957
2014/11/07,1957,1963,1934,1950,384000,1950
2014/11/10,1922,1938,1909,1937,366000,1937
2014/11/11,1921,1931,1904,1923,394000,1923
2014/11/12,1916,1929,1884,1898,667000,1898
2014/11/13,1901,1911,1872,1879,627000,1879
2014/11/14,1880,1888,1836,1851,657000,1851
2014/11/17,1825,1825,1769,1785,1008000,1785
2014/11/18,1786,1806,1754,1798,1716000,1798
2014/11/19,1810,1849,1804,1829,1002000,1829
2014/11/20,1847,1870,1816,1836,747000,1836
2014/11/21,1840,1846,1817,1826,551000,1826
2014/11/25,1842,1843,1820,1821,337000,1821
2014/11/26,1821,1844,1813,1834,490000,1834
2014/11/27,1848,1873,1844,1867,791000,1867
2014/11/28,1856,1885,1853,1881,343000,1881
2014/12/01,1888,1889,1828,1836,712000,1836
2014/12/02,1831,1863,1820,1860,432000,1860
2014/12/03,1885,1885,1853,1858,418000,1858
2014/12/04,1885,1925,1884,1925,704000,1925
2014/12/05,1900,1920,1890,1915,571000,1915
2014/12/08,1907,1957,1907,1956,527000,1956
2014/12/09,1950,1980,1932,1979,642000,1979
2014/12/10,1939,1957,1926,1952,702000,1952
2014/12/11,1908,1948,1908,1941,360000,1941
2014/12/12,1976,2045,1957,2027,958000,2027
2014/12/15,2000,2027,1996,2002,537000,2002
2014/12/16,1952,1978,1935,1936,504000,1936
2014/12/17,1906,1934,1904,1917,612000,1917
2014/12/18,1955,1974,1946,1961,298000,1961
2014/12/19,1988,1989,1957,1966,289000,1966
2014/12/22,1950,1955,1926,1945,314000,1945
2014/12/24,1955,1960,1943,1960,331000,1960
2014/12/25,1970,1980,1969,1976,194000,1976
2014/12/26,1958,1997,1958,1994,174000,1994
2014/12/29,1981,2006,1980,1989,277000,1989
2014/12/30,1998,1998,1974,1976,145000,1976
2015/01/05,1974,1974,1947,1953,219000,1953
2015/01/06,1920,1922,1893,1900,348000,1900
2015/01/07,1881,1914,1881,1884,257000,1884
2015/01/08,1884,1901,1881,1896,225000,1896
2015/01/09,1896,1915,1879,1902,429000,1902
2015/01/13,1861,1867,1833,1864,331000,1864
2015/01/14,1851,1858,1841,1847,233000,1847
2015/01/15,1850,1888,1850,1864,246000,1864
2015/01/16,1850,1867,1831,1862,1921000,1862
2015/01/19,1881,1893,1829,1833,1644000,1833
2015/01/20,1865,1867,1848,1854,302000,1854
2015/01/21,1868,1911,1859,1905,475000,1905
2015/01/22,1910,1913,1875,1911,311000,1911
2015/01/23,1911,1925,1905,1920,325000,1920
2015/01/26,1890,1927,1890,1918,245000,1918
2015/01/27,1918,1953,1918,1951,218000,1951
2015/01/28,1927,1967,1856,1865,1026000,1865
2015/01/29,1836,1863,1824,1828,474000,1828
2015/01/30,1850,1859,1815,1845,665000,1845
2015/02/02,1860,1860,1830,1839,181000,1839
2015/02/03,1860,1866,1813,1818,303000,1818
2015/02/04,1848,1851,1796,1799,400000,1799
2015/02/05,1752,1752,1628,1640,1651000,1640
2015/02/06,1659,1663,1596,1601,1469000,1601
2015/02/09,1610,1635,1598,1613,1368000,1613
2015/02/10,1628,1642,1603,1610,909000,1610
2015/02/12,1642,1645,1600,1614,1363000,1614
2015/02/13,1627,1673,1622,1662,1237000,1662
2015/02/16,1688,1740,1683,1734,1213000,1734
2015/02/17,1754,1755,1738,1748,887000,1748
2015/02/18,1773,1778,1720,1732,623000,1732
2015/02/19,1745,1745,1722,1727,424000,1727
2015/02/20,1727,1765,1708,1762,420000,1762
2015/02/23,1772,1772,1736,1746,283000,1746
2015/02/24,1744,1750,1724,1744,490000,1744
2015/02/25,1753,1773,1745,1771,515000,1771
2015/02/26,1751,1775,1749,1774,509000,1774
2015/02/27,1786,1822,1774,1790,920000,1790
2015/03/02,1808,1808,1764,1770,558000,1770
2015/03/03,1773,1790,1765,1777,515000,1777
2015/03/04,1794,1835,1789,1829,894000,1829
2015/03/05,1820,1835,1792,1802,502000,1802
2015/03/06,1790,1830,1790,1815,904000,1815
2015/03/09,1811,1840,1801,1828,787000,1828
2015/03/10,1831,1843,1812,1829,658000,1829
2015/03/11,1827,1880,1815,1871,793000,1871
2015/03/12,1860,1909,1857,1893,699000,1893
2015/03/13,1925,1925,1873,1881,800000,1881
2015/03/16,1880,1881,1820,1826,799000,1826
2015/03/17,1828,1857,1807,1856,965000,1856
2015/03/18,1838,1881,1838,1861,657000,1861
2015/03/19,1875,1880,1850,1867,561000,1867
2015/03/20,1886,1915,1865,1874,813000,1874
2015/03/23,1874,1889,1856,1865,336000,1865
2015/03/24,1848,1898,1848,1894,521000,1894
2015/03/25,1889,1923,1885,1916,589000,1916
2015/03/26,1877,1914,1875,1891,216000,1891
2015/03/27,1916,2020,1916,1944,1291000,1944
2015/03/30,1910,1975,1907,1961,790000,1961
2015/03/31,2001,2026,1966,1986,874000,1986
2015/04/01,1985,1985,1919,1935,744000,1935
2015/04/02,1935,1959,1920,1938,282000,1938
2015/04/03,1938,1944,1925,1936,117000,1936
2015/04/06,1912,1924,1908,1912,169000,1912
2015/04/07,1911,1929,1911,1926,221000,1926
2015/04/08,1923,1938,1915,1920,213000,1920
2015/04/09,1906,1914,1895,1903,309000,1903
2015/04/10,1890,1919,1881,1911,427000,1911
2015/04/13,1907,1919,1894,1919,253000,1919
2015/04/14,1895,1972,1890,1968,719000,1968
2015/04/15,1939,1968,1939,1962,413000,1962
2015/04/16,1942,2005,1939,2001,588000,2001
2015/04/17,2010,2021,1992,1994,336000,1994
2015/04/20,1963,1995,1953,1986,275000,1986
2015/04/21,1978,1999,1973,1975,173000,1975
2015/04/22,1972,1986,1965,1971,316000,1971
2015/04/23,1971,1983,1959,1975,125000,1975
2015/04/24,1975,2005,1962,1997,283000,1997
2015/04/27,1997,1999,1983,1994,140000,1994
2015/04/28,1993,1998,1970,1993,446000,1993
2015/04/30,1990,2020,1981,2003,546000,2003
2015/05/01,1981,1989,1972,1981,256000,1981
2015/05/07,1978,2010,1973,1977,477000,1977
2015/05/08,1984,2000,1979,1990,294000,1990
2015/05/11,2000,2020,1958,1982,556000,1982
2015/05/12,2019,2150,1990,2150,1688000,2150
2015/05/13,2130,2183,2130,2165,551000,2165
2015/05/14,2137,2180,2137,2161,315000,2161
2015/05/15,2160,2179,2141,2157,339000,2157
2015/05/18,2157,2199,2157,2192,342000,2192
2015/05/19,2200,2208,2184,2186,357000,2186
2015/05/20,2186,2208,2150,2164,474000,2164
2015/05/21,2164,2176,2105,2124,757000,2124
2015/05/22,2104,2143,2104,2113,407000,2113
2015/05/25,2108,2146,2107,2142,296000,2142
2015/05/26,2123,2148,2115,2123,210000,2123
2015/05/27,2118,2137,2092,2125,443000,2125
2015/05/28,2148,2157,2113,2117,439000,2117
2015/05/29,2117,2165,2117,2165,426000,2165
2015/06/01,2137,2180,2137,2176,307000,2176
2015/06/02,2160,2182,2144,2150,321000,2150
2015/06/03,2103,2133,2101,2120,281000,2120
2015/06/04,2120,2159,2114,2140,251000,2140
2015/06/05,2105,2114,2091,2095,341000,2095
2015/06/08,2095,2126,2091,2097,390000,2097
2015/06/09,2082,2110,2043,2047,402000,2047
2015/06/10,2046,2065,2025,2053,389000,2053
2015/06/11,2103,2149,2081,2126,645000,2126
2015/06/12,2135,2197,2135,2170,832000,2170
2015/06/15,2171,2191,2151,2184,319000,2184
2015/06/16,2190,2207,2184,2200,387000,2200
2015/06/17,2205,2254,2205,2226,400000,2226
2015/06/18,2204,2218,2166,2176,446000,2176
2015/06/19,2180,2196,2162,2183,341000,2183
2015/06/22,2186,2213,2186,2203,225000,2203
2015/06/23,2237,2252,2194,2205,437000,2205
2015/06/24,2193,2224,2124,2137,861000,2137
2015/06/25,2134,2136,2114,2118,283000,2118
2015/06/26,2138,2138,2105,2131,170000,2131
2015/06/29,2053,2109,2053,2090,173000,2090
2015/06/30,2089,2109,2072,2098,267000,2098
2015/07/01,2072,2122,2072,2113,307000,2113
