2011/01/04,337,337,333,335,15000,335
2011/01/05,335,337,335,337,7000,337
2011/01/06,336,337,335,335,17000,335
2011/01/07,335,336,335,336,5000,336
2011/01/11,336,338,336,337,5000,337
2011/01/12,340,340,334,334,15000,334
2011/01/13,335,337,335,336,11000,336
2011/01/14,336,337,336,336,6000,336
2011/01/17,336,338,336,338,21000,338
2011/01/18,338,340,337,340,11000,340
2011/01/19,340,340,337,337,7000,337
2011/01/20,337,343,330,343,39000,343
2011/01/21,344,346,338,338,20000,338
2011/01/24,340,344,340,343,9000,343
2011/01/25,339,342,339,340,17000,340
2011/01/26,348,348,348,348,1000,348
2011/01/27,349,349,348,348,5000,348
2011/01/28,350,350,344,345,4000,345
2011/01/31,340,348,340,347,8000,347
2011/02/02,345,347,345,345,4000,345
2011/02/03,342,343,342,343,2000,343
2011/02/04,343,344,342,344,7000,344
2011/02/07,344,345,344,345,7000,345
2011/02/08,348,348,345,345,9000,345
2011/02/09,349,349,344,344,9000,344
2011/02/10,343,346,343,346,6000,346
2011/02/14,347,348,344,348,26000,348
2011/02/15,347,350,345,350,25000,350
2011/02/16,350,351,350,351,10000,351
2011/02/17,354,354,348,348,11000,348
2011/02/18,353,354,351,351,17000,351
2011/02/21,360,360,355,355,25000,355
2011/02/22,358,358,355,355,10000,355
2011/02/23,355,358,354,357,9000,357
2011/02/24,355,356,353,356,9000,356
2011/02/25,358,358,352,352,21000,352
2011/02/28,350,351,348,351,12000,351
2011/03/01,351,353,351,353,3000,353
2011/03/03,352,352,352,352,3000,352
2011/03/04,355,355,352,352,7000,352
2011/03/07,350,350,345,346,13000,346
2011/03/08,344,346,344,346,7000,346
2011/03/09,349,350,349,349,6000,349
2011/03/10,349,349,346,346,5000,346
2011/03/11,342,343,342,343,12000,343
2011/03/14,346,365,336,336,107000,336
2011/03/15,341,341,307,307,54000,307
2011/03/16,299,340,299,338,27000,338
2011/03/17,303,346,303,346,30000,346
2011/03/18,338,350,338,350,20000,350
2011/03/22,356,380,356,380,56000,380
2011/03/23,382,390,362,384,78000,384
2011/03/24,397,399,387,389,55000,389
2011/03/25,399,400,392,399,108000,399
2011/03/28,420,464,420,461,225000,461
2011/03/29,453,453,413,450,101000,450
2011/03/30,455,456,430,442,62000,442
2011/03/31,438,438,428,434,46000,434
2011/04/01,433,450,433,438,83000,438
2011/04/04,444,450,438,443,41000,443
2011/04/05,448,448,429,429,50000,429
2011/04/06,427,430,407,410,46000,410
2011/04/07,416,427,406,410,22000,410
2011/04/08,402,409,393,409,59000,409
2011/04/11,404,406,401,402,14000,402
2011/04/12,401,407,400,402,16000,402
2011/04/13,403,410,403,410,15000,410
2011/04/14,416,430,415,422,42000,422
2011/04/15,429,435,426,430,45000,430
2011/04/18,430,437,428,430,16000,430
2011/04/19,429,435,421,435,14000,435
2011/04/20,435,435,428,433,18000,433
2011/04/21,434,434,421,423,27000,423
2011/04/22,420,420,417,420,10000,420
2011/04/25,420,423,412,420,32000,420
2011/04/26,427,427,419,423,8000,423
2011/04/27,420,424,419,419,16000,419
2011/04/28,416,419,413,419,13000,419
2011/05/02,415,415,408,414,31000,414
2011/05/06,410,410,402,402,11000,402
2011/05/09,408,410,408,410,7000,410
2011/05/10,418,419,412,418,10000,418
2011/05/11,419,422,418,421,6000,421
2011/05/12,421,421,421,421,2000,421
2011/05/13,413,413,391,394,75000,394
2011/05/16,380,388,371,374,34000,374
2011/05/17,380,380,356,364,32000,364
2011/05/18,365,365,360,360,20000,360
2011/05/19,366,366,366,366,3000,366
2011/05/20,365,365,365,365,2000,365
2011/05/23,366,366,362,362,3000,362
2011/05/24,362,363,362,363,8000,363
2011/05/25,364,364,364,364,14000,364
2011/05/26,361,361,357,357,6000,357
2011/05/27,357,365,357,365,2000,365
2011/05/31,365,365,365,365,13000,365
2011/06/01,363,363,360,360,13000,360
2011/06/02,356,360,356,360,9000,360
2011/06/03,361,361,359,359,6000,359
2011/06/06,359,359,356,356,11000,356
2011/06/07,357,357,353,353,7000,353
2011/06/08,356,356,346,346,23000,346
2011/06/09,350,353,349,353,12000,353
2011/06/10,353,353,348,351,40000,351
2011/06/13,353,355,353,354,8000,354
2011/06/14,357,357,357,357,1000,357
2011/06/15,357,357,356,356,13000,356
2011/06/16,353,356,353,356,15000,356
2011/06/17,356,356,354,354,7000,354
2011/06/20,354,355,352,352,8000,352
2011/06/21,352,352,352,352,7000,352
2011/06/22,353,353,350,352,16000,352
2011/06/23,351,354,351,354,6000,354
2011/06/24,355,357,355,356,5000,356
2011/06/27,350,350,350,350,18000,350
2011/06/28,357,357,354,354,12000,354
2011/06/29,355,357,355,357,2000,357
2011/06/30,358,358,354,354,9000,354
2011/07/01,353,360,351,360,18000,360
2011/07/04,357,357,353,353,29000,353
2011/07/05,353,354,351,354,12000,354
2011/07/06,350,354,350,352,23000,352
2011/07/07,352,352,349,349,10000,349
2011/07/08,350,350,350,350,4000,350
2011/07/11,351,351,349,349,7000,349
2011/07/12,351,351,349,350,8000,350
2011/07/13,349,353,349,351,9000,351
2011/07/14,351,353,348,353,21000,353
2011/07/15,347,348,346,347,57000,347
2011/07/19,348,350,347,347,14000,347
2011/07/20,348,348,346,346,30000,346
2011/07/21,346,348,346,346,6000,346
2011/07/22,346,349,345,349,24000,349
2011/07/25,342,343,342,343,70000,343
2011/07/26,345,345,343,344,7000,344
2011/07/27,343,343,343,343,1000,343
2011/07/28,343,343,343,343,28000,343
2011/07/29,340,340,337,337,6000,337
2011/08/01,338,338,337,337,2000,337
2011/08/02,335,335,334,334,3000,334
2011/08/03,334,334,328,328,13000,328
2011/08/04,331,343,322,327,21000,327
2011/08/05,322,322,316,316,17000,316
2011/08/08,315,315,305,305,17000,305
2011/08/09,300,306,286,297,41000,297
2011/08/10,302,304,301,301,19000,301
2011/08/11,297,309,297,309,14000,309
2011/08/12,310,310,305,306,16000,306
2011/08/15,305,306,301,301,31000,301
2011/08/16,306,306,301,301,11000,301
2011/08/17,301,305,301,303,4000,303
2011/08/18,307,307,302,302,6000,302
2011/08/19,300,300,300,300,7000,300
2011/08/22,300,300,300,300,6000,300
2011/08/23,308,308,308,308,1000,308
2011/08/24,308,318,306,318,6000,318
2011/08/25,310,310,310,310,18000,310
2011/08/26,306,306,305,305,2000,305
2011/08/29,306,306,303,303,4000,303
2011/08/30,303,303,303,303,1000,303
2011/08/31,304,305,301,302,16000,302
2011/09/01,302,309,302,305,7000,305
2011/09/02,303,308,303,308,34000,308
2011/09/05,308,308,305,305,5000,305
2011/09/06,303,304,303,303,11000,303
2011/09/07,302,302,302,302,1000,302
2011/09/08,302,302,302,302,4000,302
2011/09/09,303,304,303,303,7000,303
2011/09/12,304,304,303,303,10000,303
2011/09/13,304,304,303,304,4000,304
2011/09/14,304,304,303,303,9000,303
2011/09/15,301,301,301,301,16000,301
2011/09/16,302,302,302,302,5000,302
2011/09/20,303,303,299,299,7000,299
2011/09/21,302,302,302,302,1000,302
2011/09/22,301,301,297,297,11000,297
2011/09/26,296,296,291,292,21000,292
2011/09/27,293,293,293,293,1000,293
2011/09/28,293,295,293,295,7000,295
2011/09/29,294,294,294,294,3000,294
2011/09/30,294,294,294,294,1000,294
2011/10/03,289,292,289,292,7000,292
2011/10/04,291,291,290,290,7000,290
2011/10/05,294,294,294,294,6000,294
2011/10/06,290,290,290,290,4000,290
2011/10/07,290,290,279,283,8000,283
2011/10/11,290,296,288,296,7000,296
2011/10/14,291,296,291,296,4000,296
2011/10/17,295,295,295,295,15000,295
2011/10/19,295,295,295,295,1000,295
2011/10/20,294,294,291,293,3000,293
2011/10/21,296,296,290,292,5000,292
2011/10/24,288,293,288,291,18000,291
2011/10/25,295,295,292,292,19000,292
2011/10/26,290,290,286,287,5000,287
2011/10/27,287,290,287,290,4000,290
2011/10/28,294,295,294,295,2000,295
2011/10/31,295,295,295,295,1000,295
2011/11/01,294,294,292,293,5000,293
2011/11/02,291,295,290,295,4000,295
2011/11/04,295,295,295,295,2000,295
2011/11/07,295,295,291,291,5000,291
2011/11/08,292,292,292,292,1000,292
2011/11/09,296,296,289,293,13000,293
2011/11/10,297,297,295,295,6000,295
2011/11/11,295,295,295,295,3000,295
2011/11/14,297,297,297,297,4000,297
2011/11/15,289,291,289,291,26000,291
2011/11/16,291,291,288,288,4000,288
2011/11/17,288,288,288,288,2000,288
2011/11/18,286,289,286,289,3000,289
2011/11/22,288,288,286,286,9000,286
2011/11/24,287,290,287,290,7000,290
2011/11/25,289,289,288,288,17000,288
2011/11/28,285,285,284,284,4000,284
2011/11/29,276,284,275,284,14000,284
2011/11/30,285,286,285,286,5000,286
2011/12/01,286,287,285,287,5000,287
2011/12/02,291,291,288,290,7000,290
2011/12/05,293,296,293,294,10000,294
2011/12/06,295,299,290,293,40000,293
2011/12/07,291,293,291,293,2000,293
2011/12/08,294,306,293,306,22000,306
2011/12/09,314,314,298,301,66000,301
2011/12/12,308,308,301,305,7000,305
2011/12/13,305,308,305,305,8000,305
2011/12/14,309,314,309,314,8000,314
2011/12/15,306,306,297,303,22000,303
2011/12/16,301,301,301,301,2000,301
2011/12/19,302,304,302,303,4000,303
2011/12/20,303,306,301,306,16000,306
2011/12/21,307,307,302,306,7000,306
2011/12/22,306,312,306,309,9000,309
2011/12/26,305,306,304,304,20000,304
2011/12/27,299,300,297,297,27000,297
2011/12/28,297,297,297,297,2000,297
2011/12/29,295,295,295,295,4000,295
2011/12/30,296,296,296,296,4000,296
2012/01/04,296,301,296,301,6000,301
2012/01/05,301,302,300,302,21000,302
2012/01/06,302,305,301,302,7000,302
2012/01/10,302,302,301,301,8000,301
2012/01/11,304,305,302,302,17000,302
2012/01/12,304,318,304,318,14000,318
2012/01/13,314,323,314,322,12000,322
2012/01/16,326,326,324,325,19000,325
2012/01/17,323,323,318,318,3000,318
2012/01/18,321,323,319,320,5000,320
2012/01/19,323,331,323,331,19000,331
2012/01/20,333,334,325,325,13000,325
2012/01/23,331,331,327,329,9000,329
2012/01/24,331,345,331,339,42000,339
2012/01/25,345,347,335,347,34000,347
2012/01/26,348,352,344,352,10000,352
2012/01/27,349,349,349,349,3000,349
2012/01/30,350,350,336,336,14000,336
2012/01/31,339,340,339,340,13000,340
2012/02/01,342,345,341,341,11000,341
2012/02/02,341,342,337,342,16000,342
2012/02/03,345,345,343,343,3000,343
2012/02/06,346,346,344,344,4000,344
2012/02/07,340,340,339,340,9000,340
2012/02/08,343,345,342,345,9000,345
2012/02/09,346,348,343,348,6000,348
2012/02/10,348,348,342,343,12000,343
2012/02/13,343,348,340,348,18000,348
2012/02/14,349,351,348,350,12000,350
2012/02/15,349,349,349,349,12000,349
2012/02/16,351,351,349,349,4000,349
2012/02/17,354,354,350,350,10000,350
2012/02/20,350,350,347,350,12000,350
2012/02/21,348,348,347,347,3000,347
2012/02/22,347,347,347,347,2000,347
2012/02/23,350,354,350,350,17000,350
2012/02/24,354,365,353,359,26000,359
2012/02/27,364,372,364,364,28000,364
2012/02/28,361,370,360,370,16000,370
2012/02/29,373,377,372,372,13000,372
2012/03/01,364,370,361,361,13000,361
2012/03/02,363,365,348,363,21000,363
2012/03/05,364,367,363,367,16000,367
2012/03/06,365,365,362,362,7000,362
2012/03/07,370,374,363,373,38000,373
2012/03/08,371,375,368,375,19000,375
2012/03/09,379,386,376,386,21000,386
2012/03/12,390,392,390,392,7000,392
2012/03/13,393,405,393,405,30000,405
2012/03/14,402,410,402,409,35000,409
2012/03/15,410,412,409,409,27000,409
2012/03/16,401,404,400,400,19000,400
2012/03/19,405,409,402,409,8000,409
2012/03/21,405,405,396,401,13000,401
2012/03/22,404,407,400,402,10000,402
2012/03/23,402,406,402,406,11000,406
2012/03/26,405,407,405,405,43000,405
2012/03/27,406,406,399,403,22000,403
2012/03/28,410,410,400,400,57000,400
2012/03/29,401,401,388,393,43000,393
2012/03/30,385,397,385,393,24000,393
2012/04/02,396,402,395,399,11000,399
2012/04/03,400,401,400,400,11000,400
2012/04/04,397,398,395,395,10000,395
2012/04/05,396,396,393,393,6000,393
2012/04/09,388,388,373,376,7000,376
2012/04/10,372,373,366,369,10000,369
2012/04/11,368,369,361,365,16000,365
2012/04/12,371,377,371,377,4000,377
2012/04/13,377,390,377,390,10000,390
2012/04/16,390,390,386,386,12000,386
2012/04/19,386,386,382,382,5000,382
2012/04/20,376,380,376,380,5000,380
2012/04/23,380,380,380,380,5000,380
2012/04/24,380,380,377,377,13000,377
2012/04/25,373,374,373,374,16000,374
2012/04/26,374,374,373,373,5000,373
2012/04/27,373,373,371,373,13000,373
2012/05/01,383,398,382,398,28000,398
2012/05/02,399,399,398,398,6000,398
2012/05/07,399,399,385,385,25000,385
2012/05/09,380,380,370,378,11000,378
2012/05/10,383,383,382,383,6000,383
2012/05/11,381,383,381,382,7000,382
2012/05/14,374,376,371,373,19000,373
2012/05/15,365,365,341,344,29000,344
2012/05/16,341,344,330,330,70000,330
2012/05/17,325,330,325,330,11000,330
2012/05/18,329,329,322,327,8000,327
2012/05/21,327,334,326,329,10000,329
2012/05/22,340,340,340,340,3000,340
2012/05/23,338,344,336,337,9000,337
2012/05/24,338,343,338,343,4000,343
2012/05/25,348,348,335,339,19000,339
2012/05/28,339,339,339,339,2000,339
2012/05/29,337,337,337,337,1000,337
2012/05/30,336,337,336,336,7000,336
2012/05/31,335,335,329,331,8000,331
2012/06/01,331,332,331,332,3000,332
2012/06/04,330,331,327,330,11000,330
2012/06/05,338,338,328,328,12000,328
2012/06/06,330,338,330,336,7000,336
2012/06/07,339,345,336,344,15000,344
2012/06/08,359,360,357,357,41000,357
2012/06/11,349,349,349,349,1000,349
2012/06/12,349,354,349,354,3000,354
2012/06/13,352,352,352,352,5000,352
2012/06/14,352,356,352,356,4000,356
2012/06/15,360,360,355,355,15000,355
2012/06/18,353,353,345,346,4000,346
2012/06/20,351,351,351,351,3000,351
2012/06/21,353,353,353,353,1000,353
2012/06/22,354,355,351,355,9000,355
2012/06/25,353,353,353,353,16000,353
2012/06/27,356,356,356,356,1000,356
2012/06/28,356,364,356,363,42000,363
2012/06/29,363,363,362,362,2000,362
2012/07/02,363,363,363,363,2000,363
2012/07/03,366,369,366,369,4000,369
2012/07/04,369,371,369,371,5000,371
2012/07/05,371,371,371,371,6000,371
2012/07/06,370,370,370,370,2000,370
2012/07/09,370,370,369,369,8000,369
2012/07/10,370,371,370,370,8000,370
2012/07/11,370,374,368,374,8000,374
2012/07/12,376,381,375,381,11000,381
2012/07/13,374,382,374,381,13000,381
2012/07/17,370,370,365,367,48000,367
2012/07/18,368,368,366,366,5000,366
2012/07/19,367,370,367,370,2000,370
2012/07/20,368,371,367,367,7000,367
2012/07/23,370,372,370,370,7000,370
2012/07/24,372,372,368,368,14000,368
2012/07/25,367,367,358,358,49000,358
2012/07/27,358,361,358,361,2000,361
2012/07/30,357,357,357,357,2000,357
2012/08/01,354,356,354,356,3000,356
2012/08/03,352,352,352,352,4000,352
2012/08/06,360,360,355,355,8000,355
2012/08/09,355,355,355,355,2000,355
2012/08/10,354,360,354,360,10000,360
2012/08/13,361,362,361,362,4000,362
2012/08/14,363,367,363,367,8000,367
2012/08/15,359,367,359,367,16000,367
2012/08/16,368,368,368,368,5000,368
2012/08/17,367,370,367,370,15000,370
2012/08/20,377,377,376,376,2000,376
2012/08/21,383,383,380,380,12000,380
2012/08/22,380,380,380,380,2000,380
2012/08/23,382,385,382,385,4000,385
2012/08/24,379,385,379,385,19000,385
2012/08/27,384,384,384,384,14000,384
2012/08/28,375,380,375,380,3000,380
2012/08/29,375,375,375,375,9000,375
2012/08/30,380,380,380,380,1000,380
2012/08/31,380,384,377,384,8000,384
2012/09/03,368,385,368,385,2000,385
2012/09/04,377,377,374,374,3000,374
2012/09/05,380,380,378,378,6000,378
2012/09/06,375,375,375,375,3000,375
2012/09/10,375,375,375,375,1000,375
2012/09/11,371,371,370,370,4000,370
2012/09/12,370,372,370,372,3000,372
2012/09/13,372,377,372,377,3000,377
2012/09/14,378,382,377,382,11000,382
2012/09/18,381,381,381,381,10000,381
2012/09/19,380,380,380,380,1000,380
2012/09/20,381,381,375,375,3000,375
2012/09/21,378,385,378,385,3000,385
2012/09/24,385,390,385,389,26000,389
2012/09/25,394,394,392,392,12000,392
2012/09/26,385,385,385,385,5000,385
2012/09/27,381,381,380,380,8000,380
2012/09/28,375,375,371,371,6000,371
2012/10/01,371,371,371,371,2000,371
2012/10/02,375,375,375,375,1000,375
2012/10/04,377,380,377,380,3000,380
2012/10/05,387,387,385,385,4000,385
2012/10/09,381,381,381,381,1000,381
2012/10/10,381,381,380,380,4000,380
2012/10/12,380,385,380,385,8000,385
2012/10/15,384,384,384,384,20000,384
2012/10/17,380,380,380,380,1000,380
2012/10/22,379,380,379,380,4000,380
2012/10/23,381,385,381,382,3000,382
2012/10/24,385,387,385,387,9000,387
2012/10/25,382,382,377,377,16000,377
2012/10/26,374,374,374,374,2000,374
2012/10/30,376,377,376,377,2000,377
2012/10/31,376,376,376,376,2000,376
2012/11/01,377,377,376,376,2000,376
2012/11/02,378,378,378,378,1000,378
2012/11/05,381,381,378,378,5000,378
2012/11/06,377,378,377,378,3000,378
2012/11/07,386,405,386,386,49000,386
2012/11/08,384,384,384,384,4000,384
2012/11/09,384,384,380,380,10000,380
2012/11/12,385,385,385,385,1000,385
2012/11/13,384,384,382,382,3000,382
2012/11/14,382,386,382,386,4000,386
2012/11/15,381,383,381,382,19000,382
2012/11/16,382,382,382,382,1000,382
2012/11/19,385,388,385,388,6000,388
2012/11/20,388,388,388,388,2000,388
2012/11/21,388,389,388,389,2000,389
2012/11/22,389,397,388,397,9000,397
2012/11/26,397,397,389,389,21000,389
2012/11/28,391,391,391,391,2000,391
2012/11/30,393,395,393,395,2000,395
2012/12/03,396,403,396,400,10000,400
2012/12/04,400,400,399,400,11000,400
2012/12/05,401,404,401,401,14000,401
2012/12/06,404,405,403,404,10000,404
2012/12/07,405,406,404,406,19000,406
2012/12/10,406,407,405,407,50000,407
2012/12/11,402,402,402,402,3000,402
2012/12/12,403,403,402,402,4000,402
2012/12/13,403,403,403,403,4000,403
2012/12/14,402,402,398,401,11000,401
2012/12/17,393,397,388,388,29000,388
2012/12/18,389,389,387,387,4000,387
2012/12/19,388,392,388,392,6000,392
2012/12/20,394,396,393,393,21000,393
2012/12/21,394,394,390,391,11000,391
2012/12/25,392,395,390,390,20000,390
2012/12/26,390,396,390,396,3000,396
2012/12/27,401,405,401,405,15000,405
2012/12/28,405,405,400,405,25000,405
2013/01/04,409,412,409,409,16000,409
2013/01/07,412,425,412,421,29000,421
2013/01/08,425,425,417,424,27000,424
2013/01/09,417,417,416,416,4000,416
2013/01/10,417,420,417,420,24000,420
2013/01/11,420,425,412,418,26000,418
2013/01/15,424,424,423,423,16000,423
2013/01/16,421,425,421,421,23000,421
2013/01/17,421,421,415,417,11000,417
2013/01/18,418,420,418,420,6000,420
2013/01/21,420,421,420,420,10000,420
2013/01/22,418,420,416,419,9000,419
2013/01/23,420,420,417,417,7000,417
2013/01/24,417,424,417,424,7000,424
2013/01/25,421,427,421,427,22000,427
2013/01/28,422,422,420,420,17000,420
2013/01/29,421,421,420,420,2000,420
2013/01/30,417,430,415,425,21000,425
2013/01/31,425,433,425,428,19000,428
2013/02/01,428,428,425,425,9000,425
2013/02/04,428,443,428,436,26000,436
2013/02/05,436,444,432,441,13000,441
2013/02/06,437,443,432,440,35000,440
2013/02/07,438,445,438,445,14000,445
2013/02/08,442,443,441,441,8000,441
2013/02/12,442,443,442,442,5000,442
2013/02/13,441,441,433,436,17000,436
2013/02/14,428,443,428,443,5000,443
2013/02/15,444,444,428,435,60000,435
2013/02/18,440,442,440,442,5000,442
2013/02/19,443,443,440,440,8000,440
2013/02/20,445,445,441,444,16000,444
2013/02/21,448,448,443,446,8000,446
2013/02/22,442,444,439,444,14000,444
2013/02/25,443,443,440,440,14000,440
2013/02/26,436,437,436,436,8000,436
2013/02/27,438,438,438,438,1000,438
2013/02/28,443,465,443,456,49000,456
2013/03/01,460,460,447,452,6000,452
2013/03/04,451,467,451,463,29000,463
2013/03/05,470,470,463,463,16000,463
2013/03/06,469,479,469,476,18000,476
2013/03/07,477,485,473,477,24000,477
2013/03/08,480,490,480,490,9000,490
2013/03/11,498,512,496,507,49000,507
2013/03/12,517,540,508,509,30000,509
2013/03/13,509,515,509,514,14000,514
2013/03/14,515,516,507,510,16000,510
2013/03/15,515,520,511,511,32000,511
2013/03/18,515,556,515,556,94000,556
2013/03/19,555,598,551,587,87000,587
2013/03/21,592,598,572,585,57000,585
2013/03/22,575,590,571,574,29000,574
2013/03/25,576,585,573,585,41000,585
2013/03/26,580,584,577,577,11000,577
2013/03/27,570,574,564,574,21000,574
2013/03/28,566,572,560,563,49000,563
2013/03/29,565,566,560,560,30000,560
2013/04/01,569,578,522,524,26000,524
2013/04/02,524,524,500,520,21000,520
2013/04/03,513,529,505,520,33000,520
2013/04/04,520,520,514,520,7000,520
2013/04/05,533,570,533,570,48000,570
2013/04/08,578,580,568,570,25000,570
2013/04/09,580,580,555,568,26000,568
2013/04/10,565,567,558,562,16000,562
2013/04/11,572,572,553,563,7000,563
2013/04/12,560,560,550,560,23000,560
2013/04/15,570,573,561,561,22000,561
2013/04/16,551,555,541,549,22000,549
2013/04/17,550,555,550,555,9000,555
2013/04/18,550,560,548,550,9000,550
2013/04/19,559,559,550,551,8000,551
2013/04/22,560,569,560,569,29000,569
2013/04/23,570,580,570,579,48000,579
2013/04/24,582,586,582,586,44000,586
2013/04/25,586,587,579,580,24000,580
2013/04/26,582,583,575,580,16000,580
2013/04/30,579,580,579,580,11000,580
2013/05/01,680,680,680,680,34000,680
2013/05/02,780,780,780,780,314000,780
2013/05/07,785,798,766,780,319000,780
2013/05/08,786,890,771,855,167000,855
2013/05/09,880,915,830,839,113000,839
2013/05/10,830,835,811,835,95000,835
2013/05/13,685,717,685,699,266000,699
2013/05/14,709,722,700,713,89000,713
2013/05/15,720,730,710,722,63000,722
2013/05/16,722,722,652,671,56000,671
2013/05/17,681,716,681,708,25000,708
2013/05/20,710,720,710,714,26000,714
2013/05/21,714,731,714,731,18000,731
2013/05/22,716,724,715,724,25000,724
2013/05/23,724,724,688,690,44000,690
2013/05/24,699,705,676,677,44000,677
2013/05/27,658,680,652,680,37000,680
2013/05/28,663,673,663,672,5000,672
2013/05/29,685,686,685,686,4000,686
2013/05/30,685,685,673,683,11000,683
2013/05/31,680,698,680,698,17000,698
2013/06/03,690,695,681,681,27000,681
2013/06/04,684,688,671,673,28000,673
2013/06/05,683,684,678,678,10000,678
2013/06/06,678,678,621,635,64000,635
2013/06/07,620,625,583,620,70000,620
2013/06/10,619,630,619,630,51000,630
2013/06/11,631,632,611,621,13000,621
2013/06/12,620,625,620,625,7000,625
2013/06/13,625,625,612,612,5000,612
2013/06/14,613,613,595,595,26000,595
2013/06/17,588,590,569,590,27000,590
2013/06/18,585,592,584,592,5000,592
2013/06/19,597,600,597,600,6000,600
2013/06/20,607,609,606,606,11000,606
2013/06/21,605,605,583,599,15000,599
2013/06/24,599,599,588,589,4000,589
2013/06/25,593,593,590,590,14000,590
2013/06/26,590,591,570,570,20000,570
2013/06/27,562,569,550,569,10000,569
2013/06/28,565,576,546,576,28000,576
2013/07/01,575,576,566,571,14000,571
2013/07/02,577,593,577,593,9000,593
2013/07/03,602,609,600,609,5000,609
2013/07/04,605,615,605,610,20000,610
2013/07/05,613,650,613,650,16000,650
2013/07/08,660,700,660,682,43000,682
2013/07/09,673,677,671,677,10000,677
2013/07/10,683,690,683,690,7000,690
2013/07/11,700,720,699,711,33000,711
2013/07/12,720,723,712,723,18000,723
2013/07/16,738,738,721,735,46000,735
2013/07/17,720,730,720,730,5000,730
2013/07/18,729,729,719,721,12000,721
2013/07/19,706,715,700,701,32000,701
2013/07/22,700,713,700,710,6000,710
2013/07/23,712,724,712,724,7000,724
2013/07/24,726,735,726,735,33000,735
2013/07/25,740,740,715,715,37000,715
2013/07/26,702,703,700,700,7000,700
2013/07/29,700,700,695,695,8000,695
2013/07/30,690,690,689,689,2000,689
2013/07/31,685,685,676,678,4000,678
2013/08/01,708,708,700,700,4000,700
2013/08/02,709,712,708,708,10000,708
2013/08/05,708,720,708,711,5000,711
2013/08/07,711,720,709,720,7000,720
2013/08/08,709,709,709,709,7000,709
2013/08/09,709,709,676,682,20000,682
2013/08/12,672,690,672,690,8000,690
2013/08/13,680,690,680,690,10000,690
2013/08/14,695,695,695,695,1000,695
2013/08/15,705,705,700,700,9000,700
2013/08/16,701,701,701,701,1000,701
2013/08/19,695,700,695,700,16000,700
2013/08/20,687,687,677,680,20000,680
2013/08/21,680,680,680,680,2000,680
2013/08/22,680,680,678,679,6000,679
2013/08/23,684,690,684,690,2000,690
2013/08/26,688,688,678,678,9000,678
2013/08/27,678,678,678,678,4000,678
2013/08/28,674,674,673,673,2000,673
2013/08/29,672,672,660,660,24000,660
2013/08/30,660,660,654,654,8000,654
2013/09/02,654,654,654,654,2000,654
2013/09/03,655,665,655,665,2000,665
2013/09/04,665,665,665,665,3000,665
2013/09/05,675,675,675,675,4000,675
2013/09/06,680,700,680,700,12000,700
2013/09/09,704,704,700,704,12000,704
2013/09/10,708,720,706,717,42000,717
2013/09/11,719,722,715,719,30000,719
2013/09/12,721,722,686,702,42000,702
2013/09/13,705,707,705,706,6000,706
2013/09/17,706,706,692,697,12000,697
2013/09/18,697,697,686,690,8000,690
2013/09/19,691,702,691,700,8000,700
2013/09/20,692,695,685,693,14000,693
2013/09/24,699,700,698,700,38000,700
2013/09/25,710,712,702,706,22000,706
2013/09/26,716,716,710,711,7000,711
2013/09/27,718,725,718,719,27000,719
2013/09/30,726,726,719,720,10000,720
2013/10/01,720,720,706,716,7000,716
2013/10/02,716,716,694,704,25000,704
2013/10/03,714,714,700,701,8000,701
2013/10/04,694,700,692,694,12000,694
2013/10/07,694,694,692,692,7000,692
2013/10/08,691,696,691,696,3000,696
2013/10/09,695,695,695,695,1000,695
2013/10/10,695,695,695,695,5000,695
2013/10/11,698,708,698,708,3000,708
2013/10/15,705,706,697,701,17000,701
2013/10/16,694,695,693,693,5000,693
2013/10/17,696,700,695,700,3000,700
2013/10/18,700,701,700,701,2000,701
2013/10/21,701,710,701,709,26000,709
2013/10/22,709,710,706,706,50000,706
2013/10/23,709,713,709,713,9000,713
2013/10/24,711,716,710,716,29000,716
2013/10/25,720,723,710,720,25000,720
2013/10/28,722,722,711,720,21000,720
2013/10/29,720,725,713,725,25000,725
2013/10/30,727,740,727,740,67000,740
2013/10/31,746,746,716,716,37000,716
2013/11/01,731,735,713,732,24000,732
2013/11/05,733,735,730,730,15000,730
2013/11/06,726,726,719,725,14000,725
2013/11/07,733,740,726,738,22000,738
2013/11/08,731,731,726,730,22000,730
2013/11/11,730,730,725,725,15000,725
2013/11/12,730,738,729,738,12000,738
2013/11/13,733,733,713,730,8000,730
2013/11/14,730,730,726,730,5000,730
2013/11/15,730,730,730,730,25000,730
2013/11/18,730,735,730,735,23000,735
2013/11/19,734,735,734,735,7000,735
2013/11/20,735,740,730,739,36000,739
2013/11/21,739,745,739,745,25000,745
2013/11/22,744,744,742,742,3000,742
2013/11/25,745,745,740,742,19000,742
2013/11/26,747,751,742,749,49000,749
2013/11/27,753,753,745,752,10000,752
2013/11/28,758,759,749,749,19000,749
2013/11/29,750,750,740,740,13000,740
2013/12/02,750,760,740,750,27000,750
2013/12/03,750,756,748,750,13000,750
2013/12/04,750,753,746,753,35000,753
2013/12/05,760,769,746,755,39000,755
2013/12/06,758,765,754,754,22000,754
2013/12/09,760,770,758,770,23000,770
2013/12/10,770,777,764,765,57000,765
2013/12/11,765,765,748,751,15000,751
2013/12/12,750,750,741,741,32000,741
2013/12/13,745,747,745,747,10000,747
2013/12/16,750,755,749,750,25000,750
2013/12/17,752,755,750,753,7000,753
2013/12/18,750,750,725,746,26000,746
2013/12/19,745,748,740,740,21000,740
2013/12/20,740,740,718,735,21000,735
2013/12/24,735,747,732,735,20000,735
2013/12/25,743,745,733,745,32000,745
2013/12/30,735,741,726,726,15000,726
2014/01/06,741,744,729,744,11000,744
2014/01/07,745,750,741,748,15000,748
2014/01/08,748,748,748,748,2000,748
2014/01/09,748,770,748,760,8000,760
2014/01/10,762,762,762,762,1000,762
2014/01/14,763,771,763,771,8000,771
2014/01/15,779,779,748,770,31000,770
2014/01/16,784,784,760,760,13000,760
2014/01/17,775,775,760,774,5000,774
2014/01/20,772,772,772,772,1000,772
2014/01/21,772,772,772,772,1000,772
2014/01/22,774,774,770,770,7000,770
2014/01/23,767,770,767,770,5000,770
2014/01/24,760,763,760,763,9000,763
2014/01/27,763,763,750,750,10000,750
2014/01/28,765,770,764,770,8000,770
2014/01/29,778,779,777,779,23000,779
2014/01/30,770,770,770,770,4000,770
2014/01/31,779,780,760,760,9000,760
2014/02/03,761,778,759,760,32000,760
2014/02/04,750,780,720,767,38000,767
2014/02/05,761,770,760,760,13000,760
2014/02/07,780,780,779,779,3000,779
2014/02/10,780,782,780,782,11000,782
2014/02/12,785,787,785,785,5000,785
2014/02/13,790,790,785,786,16000,786
2014/02/14,785,785,770,778,13000,778
2014/02/17,790,790,790,790,14000,790
2014/02/18,794,800,794,800,18000,800
2014/02/19,800,802,800,802,9000,802
2014/02/20,802,803,801,803,13000,803
2014/02/21,803,807,800,807,14000,807
2014/02/24,807,808,803,808,7000,808
2014/02/25,808,810,808,810,70000,810
2014/02/26,810,818,810,818,5000,818
2014/02/27,803,813,800,813,8000,813
2014/02/28,811,811,810,810,3000,810
2014/03/03,808,808,800,800,10000,800
2014/03/04,812,812,800,800,5000,800
2014/03/05,800,800,795,795,5000,795
2014/03/06,795,795,777,790,14000,790
2014/03/07,790,790,781,781,8000,781
2014/03/10,772,775,768,774,46000,774
2014/03/11,775,778,771,775,71000,775
2014/03/12,775,780,775,780,5000,780
2014/03/13,777,777,775,775,42000,775
2014/03/14,769,769,720,729,27000,729
2014/03/17,735,738,731,735,41000,735
2014/03/18,735,735,735,735,1000,735
2014/03/19,735,735,733,735,17000,735
2014/03/20,735,735,716,732,32000,732
2014/03/24,735,739,734,734,46000,734
2014/03/25,734,744,720,735,46000,735
2014/03/26,735,755,735,751,9000,751
2014/03/27,735,742,705,739,20000,739
2014/03/31,735,743,735,742,7000,742
2014/04/01,749,765,749,765,12000,765
2014/04/03,763,764,753,764,8000,764
2014/04/04,763,773,763,769,11000,769
2014/04/07,769,774,769,774,15000,774
2014/04/08,774,774,757,757,4000,757
2014/04/09,772,774,748,755,28000,755
2014/04/10,763,765,763,764,4000,764
2014/04/14,760,768,758,768,12000,768
2014/04/15,768,768,758,766,13000,766
2014/04/16,769,778,769,777,9000,777
2014/04/17,775,783,775,782,8000,782
2014/04/18,782,783,780,780,8000,780
2014/04/21,780,780,760,765,40000,765
2014/04/22,772,772,764,767,15000,767
2014/04/23,763,766,758,761,8000,761
2014/04/24,758,758,751,751,10000,751
2014/04/25,756,756,742,752,15000,752
2014/04/28,752,752,745,750,16000,750
2014/04/30,750,750,750,750,5000,750
2014/05/01,750,750,750,750,9000,750
2014/05/02,755,765,755,760,16000,760
2014/05/07,759,759,750,750,45000,750
2014/05/08,744,755,744,750,10000,750
2014/05/09,750,750,749,750,4000,750
2014/05/12,740,750,723,723,13000,723
2014/05/13,750,750,723,723,19000,723
2014/05/14,714,726,714,726,4000,726
2014/05/15,714,725,706,725,20000,725
2014/05/16,730,745,730,730,4000,730
2014/05/19,734,734,686,700,41000,700
2014/05/20,687,700,687,700,4000,700
2014/05/21,690,700,690,700,2000,700
2014/05/22,713,728,713,728,3000,728
2014/05/23,728,749,728,749,6000,749
2014/05/26,757,757,755,757,12000,757
2014/05/27,757,757,750,756,3000,756
2014/05/28,743,756,735,756,6000,756
2014/05/30,752,757,752,755,12000,755
2014/06/02,742,753,742,747,7000,747
2014/06/03,747,747,747,747,1000,747
2014/06/04,750,754,748,754,18000,754
2014/06/05,759,760,759,760,5000,760
2014/06/06,760,762,760,761,18000,761
2014/06/09,763,769,763,769,14000,769
2014/06/10,777,777,775,775,27000,775
2014/06/11,778,778,778,778,1000,778
2014/06/12,778,778,777,777,2000,777
2014/06/13,779,785,770,785,15000,785
2014/06/16,777,777,770,770,10000,770
2014/06/19,785,785,772,781,6000,781
2014/06/20,785,795,781,795,5000,795
2014/06/23,796,798,796,798,4000,798
2014/06/24,798,798,798,798,2000,798
2014/06/25,800,800,800,800,5000,800
2014/06/26,785,785,780,780,3000,780
2014/06/27,780,780,780,780,2000,780
2014/06/30,780,798,755,798,4000,798
2014/07/01,785,785,785,785,1000,785
2014/07/02,785,785,781,781,4000,781
2014/07/04,793,795,788,795,13000,795
2014/07/07,795,795,790,790,8000,790
2014/07/08,790,795,787,790,11000,790
2014/07/09,785,785,766,770,17000,770
2014/07/10,765,775,765,769,8000,769
2014/07/11,762,770,762,769,14000,769
2014/07/14,769,772,764,772,15000,772
2014/07/15,765,765,761,761,20000,761
2014/07/16,760,761,760,760,4000,760
2014/07/17,760,775,760,766,5000,766
2014/07/18,774,779,774,779,4000,779
2014/07/22,786,810,779,790,27000,790
2014/07/23,791,800,788,791,20000,791
2014/07/24,796,800,795,800,17000,800
2014/07/25,799,805,799,800,33000,800
2014/07/28,800,800,785,800,4000,800
2014/07/29,799,799,799,799,2000,799
2014/07/30,804,804,800,800,10000,800
2014/07/31,805,805,797,797,6000,797
2014/08/01,800,800,794,794,4000,794
2014/08/04,794,794,786,794,4000,794
2014/08/05,803,805,803,804,9000,804
2014/08/06,803,803,794,794,9000,794
2014/08/07,802,802,802,802,1000,802
2014/08/08,797,797,797,797,14000,797
2014/08/11,797,797,797,797,1000,797
2014/08/12,795,795,795,795,1000,795
2014/08/14,791,800,791,800,3000,800
2014/08/15,800,800,786,786,6000,786
2014/08/18,791,791,791,791,2000,791
2014/08/19,787,800,787,800,3000,800
2014/08/20,800,800,797,797,5000,797
2014/08/21,798,800,798,800,3000,800
2014/08/22,800,802,800,802,14000,802
2014/08/25,802,802,800,800,10000,800
2014/08/26,801,810,801,810,10000,810
2014/08/28,808,808,808,808,2000,808
2014/09/01,809,815,809,815,11000,815
2014/09/02,815,817,815,816,5000,816
2014/09/03,816,816,816,816,2000,816
2014/09/04,815,815,815,815,3000,815
2014/09/05,808,808,793,793,5000,793
2014/09/08,793,800,793,795,6000,795
2014/09/09,794,800,794,800,4000,800
2014/09/10,795,800,795,800,4000,800
2014/09/11,781,800,781,800,7000,800
2014/09/12,800,810,800,800,10000,800
2014/09/16,800,815,800,814,12000,814
2014/09/17,815,815,794,815,4000,815
2014/09/18,800,810,800,810,2000,810
2014/09/19,805,809,805,809,2000,809
2014/09/22,809,814,809,810,8000,810
2014/09/24,808,816,800,816,9000,816
2014/09/25,805,818,805,818,14000,818
2014/09/26,810,810,810,810,10000,810
2014/09/29,801,828,801,813,8000,813
2014/09/30,813,815,813,815,5000,815
2014/10/01,816,816,816,816,4000,816
2014/10/02,811,811,801,801,17000,801
2014/10/03,808,811,808,811,4000,811
2014/10/06,811,815,811,815,5000,815
2014/10/07,815,818,815,818,5000,818
2014/10/08,811,815,810,815,7000,815
2014/10/09,807,807,801,801,6000,801
2014/10/10,805,805,805,805,10000,805
2014/10/14,805,806,805,806,4000,806
2014/10/15,810,810,810,810,7000,810
2014/10/16,810,810,809,810,11000,810
2014/10/17,810,810,807,810,11000,810
2014/10/20,801,810,801,803,4000,803
2014/10/21,799,800,798,800,6000,800
2014/10/22,800,801,800,801,2000,801
2014/10/23,801,801,801,801,2000,801
2014/10/24,802,804,800,800,6000,800
2014/10/27,800,800,800,800,14000,800
2014/10/28,795,795,795,795,7000,795
2014/10/29,800,800,795,800,5000,800
2014/10/30,800,800,800,800,4000,800
2014/10/31,804,804,800,800,3000,800
2014/11/04,800,819,800,819,15000,819
2014/11/05,819,819,819,819,6000,819
2014/11/06,819,820,806,820,5000,820
2014/11/07,813,828,808,815,14000,815
2014/11/10,811,835,810,835,10000,835
2014/11/11,810,835,810,827,21000,827
2014/11/12,834,834,807,807,26000,807
2014/11/13,810,813,810,813,2000,813
2014/11/14,803,834,803,834,7000,834
2014/11/17,860,880,835,852,53000,852
2014/11/18,852,853,838,853,17000,853
2014/11/19,853,853,853,853,2000,853
2014/11/20,853,853,853,853,22000,853
2014/11/21,853,869,852,869,24000,869
2014/11/25,854,869,854,860,23000,860
2014/11/26,860,863,852,853,17000,853
2014/11/27,840,853,831,851,7000,851
2014/11/28,859,859,856,856,4000,856
2014/12/01,848,856,841,855,24000,855
2014/12/02,855,860,855,860,14000,860
2014/12/03,860,860,860,860,19000,860
2014/12/04,859,875,853,875,40000,875
2014/12/05,875,876,842,856,40000,856
2014/12/08,864,870,861,870,6000,870
2014/12/09,863,883,863,883,14000,883
2014/12/10,893,950,891,935,35000,935
2014/12/11,926,926,896,900,11000,900
2014/12/12,901,901,895,895,3000,895
2014/12/15,903,903,888,900,12000,900
2014/12/16,900,900,884,899,14000,899
2014/12/17,899,899,885,889,5000,889
2014/12/18,888,906,881,899,32000,899
2014/12/19,900,916,900,913,10000,913
2014/12/22,905,925,905,906,20000,906
2014/12/24,906,911,906,911,7000,911
2014/12/25,911,911,900,911,8000,911
2014/12/26,905,905,905,905,2000,905
2014/12/29,909,909,909,909,1000,909
2014/12/30,910,925,910,925,4000,925
2015/01/05,938,938,923,923,5000,923
2015/01/06,923,930,915,920,5000,920
2015/01/07,920,920,920,920,1000,920
2015/01/08,916,940,907,940,6000,940
2015/01/09,925,925,925,925,1000,925
2015/01/14,944,970,944,970,9000,970
2015/01/15,979,979,934,935,8000,935
2015/01/16,950,950,950,950,2000,950
2015/01/20,950,955,950,955,6000,955
2015/01/21,980,980,979,980,8000,980
2015/01/22,965,983,965,983,6000,983
2015/01/23,983,983,965,980,11000,980
2015/01/26,989,990,989,990,6000,990
2015/01/27,990,999,990,995,6000,995
2015/01/28,980,980,980,980,2000,980
2015/01/29,966,966,966,966,1000,966
2015/01/30,996,996,985,995,9000,995
2015/02/02,981,990,980,980,5000,980
2015/02/03,980,980,980,980,14000,980
2015/02/04,980,980,968,980,8000,980
2015/02/05,980,980,950,980,15000,980
2015/02/06,980,980,965,965,10000,965
2015/02/09,974,974,971,971,5000,971
2015/02/10,962,970,962,970,20000,970
2015/02/12,968,968,966,966,5000,966
2015/02/13,951,953,951,952,15000,952
2015/02/16,955,955,954,954,9000,954
2015/02/17,954,954,953,954,5000,954
2015/02/18,941,941,900,900,16000,900
2015/02/19,900,928,900,910,20000,910
2015/02/20,910,920,910,916,5000,916
2015/02/23,915,923,915,917,24000,917
2015/02/24,917,918,910,910,20000,910
2015/02/25,901,916,895,895,13000,895
2015/02/26,909,909,885,900,9000,900
2015/02/27,890,890,888,888,2000,888
2015/03/02,890,890,868,868,16000,868
2015/03/03,875,875,870,870,14000,870
2015/03/04,873,873,862,862,14000,862
2015/03/05,866,866,855,855,42000,855
2015/03/06,855,860,855,857,9000,857
2015/03/09,857,857,850,857,7000,857
2015/03/10,860,875,860,870,6000,870
2015/03/11,875,876,873,873,5000,873
2015/03/12,877,877,877,877,4000,877
2015/03/13,877,877,850,855,23000,855
2015/03/16,856,875,856,875,20000,875
2015/03/17,860,875,860,874,12000,874
2015/03/18,876,876,875,876,4000,876
2015/03/19,876,876,850,850,18000,850
2015/03/20,850,851,850,850,5000,850
2015/03/23,850,850,850,850,10000,850
2015/03/24,850,857,850,857,4000,857
2015/03/25,855,855,855,855,4000,855
2015/03/26,860,860,850,850,4000,850
2015/03/27,848,850,840,845,9000,845
2015/03/30,845,845,845,845,4000,845
2015/03/31,831,831,831,831,2000,831
2015/04/01,844,844,844,844,1000,844
2015/04/02,852,852,848,848,2000,848
2015/04/03,848,848,841,841,4000,841
2015/04/06,840,840,830,833,7000,833
2015/04/07,840,841,840,841,2000,841
2015/04/09,841,841,838,838,6000,838
2015/04/10,840,840,840,840,1000,840
2015/04/13,840,840,840,840,3000,840
2015/04/14,841,849,840,849,16000,849
2015/04/15,850,850,846,846,16000,846
2015/04/16,856,856,856,856,1000,856
2015/04/17,855,855,855,855,1000,855
2015/04/20,855,855,826,830,8000,830
2015/04/21,830,831,828,831,4000,831
2015/04/22,831,840,831,840,6000,840
2015/04/24,840,840,840,840,8000,840
2015/04/27,840,850,835,835,9000,835
2015/04/28,815,835,815,835,5000,835
2015/04/30,845,845,845,845,1000,845
2015/05/01,846,846,846,846,2000,846
2015/05/07,906,906,899,899,4000,899
2015/05/08,890,890,880,880,4000,880
2015/05/11,900,900,897,897,10000,897
2015/05/13,882,882,880,880,4000,880
2015/05/14,880,880,867,870,5000,870
2015/05/15,888,888,870,870,12000,870
2015/05/18,840,840,838,840,6000,840
2015/05/19,840,855,840,849,6000,849
2015/05/20,849,850,849,850,3000,850
2015/05/21,850,851,845,845,10000,845
2015/05/22,850,850,850,850,1000,850
2015/05/25,850,850,850,850,8000,850
2015/05/26,850,850,850,850,4000,850
2015/05/27,865,877,855,877,6000,877
2015/05/28,876,876,865,865,6000,865
2015/05/29,880,880,865,865,7000,865
2015/06/01,889,889,888,888,2000,888
2015/06/02,880,880,870,870,7000,870
2015/06/03,875,875,873,873,6000,873
2015/06/04,870,870,870,870,7000,870
2015/06/05,871,871,860,860,9000,860
2015/06/08,873,879,873,879,2000,879
2015/06/09,871,880,871,874,13000,874
2015/06/10,874,876,871,873,31000,873
2015/06/11,873,890,873,886,32000,886
2015/06/12,880,880,873,880,9000,880
2015/06/15,880,885,880,885,16000,885
2015/06/17,875,875,860,875,5000,875
2015/06/18,880,880,880,880,2000,880
2015/06/19,865,873,862,862,7000,862
2015/06/22,862,866,862,865,6000,865
2015/06/23,865,865,865,865,8000,865
2015/06/24,875,875,875,875,1000,875
2015/06/25,875,875,867,869,12000,869
2015/06/26,870,870,870,870,2000,870
2015/06/29,869,869,854,865,3000,865
2015/06/30,851,859,850,859,5000,859
2015/07/01,852,860,850,860,12000,860
