2011/01/04,339,346,339,346,22000,346
2011/01/05,346,346,341,343,17000,343
2011/01/06,342,348,342,346,17000,346
2011/01/07,346,350,346,348,44000,348
2011/01/11,349,351,345,351,45000,351
2011/01/12,351,353,351,351,11000,351
2011/01/13,353,359,353,359,31000,359
2011/01/14,359,363,355,362,50000,362
2011/01/17,361,361,358,360,12000,360
2011/01/18,360,363,360,362,14000,362
2011/01/19,363,364,362,363,16000,363
2011/01/20,364,368,362,367,28000,367
2011/01/21,367,367,363,363,21000,363
2011/01/24,364,364,361,363,13000,363
2011/01/25,365,367,361,367,25000,367
2011/01/26,367,367,352,361,27000,361
2011/01/27,363,366,362,366,14000,366
2011/01/28,367,367,365,366,21000,366
2011/01/31,366,366,363,364,46000,364
2011/02/01,364,365,364,365,9000,365
2011/02/02,367,369,365,369,27000,369
2011/02/03,367,367,363,367,11000,367
2011/02/04,367,368,362,363,22000,363
2011/02/07,364,365,364,365,11000,365
2011/02/08,363,366,363,365,18000,365
2011/02/09,366,367,364,365,11000,365
2011/02/10,365,365,361,362,8000,362
2011/02/14,362,366,362,366,4000,366
2011/02/15,367,367,365,365,8000,365
2011/02/16,365,367,365,365,9000,365
2011/02/17,370,371,367,371,24000,371
2011/02/18,371,376,371,375,18000,375
2011/02/21,376,376,372,372,8000,372
2011/02/22,372,372,370,370,9000,370
2011/02/23,370,370,366,366,10000,366
2011/02/24,366,366,362,364,12000,364
2011/02/25,357,362,354,357,19000,357
2011/02/28,358,363,358,362,27000,362
2011/03/01,363,370,363,368,35000,368
2011/03/02,368,368,357,357,18000,357
2011/03/03,360,364,358,361,14000,361
2011/03/04,365,365,355,358,25000,358
2011/03/07,357,357,353,354,11000,354
2011/03/08,354,354,352,352,17000,352
2011/03/09,352,354,351,351,18000,351
2011/03/10,350,351,350,351,13000,351
2011/03/11,352,352,349,349,46000,349
2011/03/14,333,341,311,332,25000,332
2011/03/15,325,329,302,303,34000,303
2011/03/16,303,316,303,315,48000,315
2011/03/17,291,312,291,310,37000,310
2011/03/18,313,323,312,323,47000,323
2011/03/22,335,340,335,340,22000,340
2011/03/23,340,350,340,348,42000,348
2011/03/24,350,356,350,354,37000,354
2011/03/25,357,370,357,360,42000,360
2011/03/28,368,374,366,372,46000,372
2011/03/29,367,371,362,367,35000,367
2011/03/30,367,374,358,373,29000,373
2011/03/31,371,375,369,375,38000,375
2011/04/01,374,375,364,371,27000,371
2011/04/04,366,368,363,363,14000,363
2011/04/05,361,370,357,361,21000,361
2011/04/06,358,360,353,353,13000,353
2011/04/07,350,350,350,350,2000,350
2011/04/08,343,351,338,347,16000,347
2011/04/11,339,345,339,344,16000,344
2011/04/12,336,368,336,354,31000,354
2011/04/13,351,359,351,358,26000,358
2011/04/14,362,362,354,358,6000,358
2011/04/15,365,372,365,372,35000,372
2011/04/18,372,372,364,369,17000,369
2011/04/19,363,369,363,367,10000,367
2011/04/20,370,370,360,360,5000,360
2011/04/21,359,359,355,355,6000,355
2011/04/22,351,357,351,357,8000,357
2011/04/25,354,358,354,354,8000,354
2011/04/26,354,354,347,347,23000,347
2011/04/27,344,347,344,346,16000,346
2011/04/28,347,359,347,351,36000,351
2011/05/02,356,360,356,358,24000,358
2011/05/06,357,357,351,352,12000,352
2011/05/09,352,356,349,349,13000,349
2011/05/10,347,349,342,342,16000,342
2011/05/11,342,343,339,341,13000,341
2011/05/12,339,339,332,332,7000,332
2011/05/13,332,333,324,325,18000,325
2011/05/16,325,326,325,325,10000,325
2011/05/17,325,327,325,327,3000,327
2011/05/18,327,331,327,331,11000,331
2011/05/19,334,334,331,332,19000,332
2011/05/20,332,332,330,330,6000,330
2011/05/23,322,322,321,321,11000,321
2011/05/24,322,327,321,327,17000,327
2011/05/25,323,323,321,323,6000,323
2011/05/26,323,326,323,326,5000,326
2011/05/27,330,330,324,324,11000,324
2011/05/30,322,322,320,320,9000,320
2011/05/31,325,330,325,330,21000,330
2011/06/01,333,336,333,336,20000,336
2011/06/02,337,337,332,334,27000,334
2011/06/03,334,334,321,321,16000,321
2011/06/06,321,321,321,321,4000,321
2011/06/07,321,322,320,322,10000,322
2011/06/08,320,326,320,326,2000,326
2011/06/09,322,323,322,323,4000,323
2011/06/10,323,328,323,328,21000,328
2011/06/13,322,324,322,324,10000,324
2011/06/14,329,336,329,336,41000,336
2011/06/15,335,340,335,340,66000,340
2011/06/16,341,341,334,334,24000,334
2011/06/17,334,336,323,323,17000,323
2011/06/20,324,333,324,332,11000,332
2011/06/21,330,332,330,330,9000,330
2011/06/22,327,340,325,336,20000,336
2011/06/23,328,336,325,336,9000,336
2011/06/24,338,338,338,338,2000,338
2011/06/27,338,338,333,333,11000,333
2011/06/28,333,340,333,338,8000,338
2011/06/29,338,346,338,346,9000,346
2011/06/30,347,361,347,359,51000,359
2011/07/01,359,369,359,368,18000,368
2011/07/04,366,371,366,371,45000,371
2011/07/05,360,369,360,369,8000,369
2011/07/06,367,367,358,362,17000,362
2011/07/07,362,364,354,362,10000,362
2011/07/08,363,363,357,357,6000,357
2011/07/11,363,363,354,358,11000,358
2011/07/12,350,358,350,354,12000,354
2011/07/13,346,358,346,353,22000,353
2011/07/14,355,361,355,358,7000,358
2011/07/15,354,361,352,353,33000,353
2011/07/19,352,355,343,353,46000,353
2011/07/21,350,356,336,356,22000,356
2011/07/22,356,359,350,357,19000,357
2011/07/25,356,357,354,357,6000,357
2011/07/26,357,357,354,354,6000,354
2011/07/27,349,354,349,354,14000,354
2011/07/28,347,353,342,353,19000,353
2011/07/29,353,356,345,345,53000,345
2011/08/01,341,353,341,348,22000,348
2011/08/02,343,343,337,337,14000,337
2011/08/03,335,337,333,333,14000,333
2011/08/04,334,343,334,335,44000,335
2011/08/05,331,331,326,326,17000,326
2011/08/08,326,334,326,328,15000,328
2011/08/09,326,327,319,319,18000,319
2011/08/10,322,324,321,324,10000,324
2011/08/11,321,328,319,326,22000,326
2011/08/12,326,332,325,327,27000,327
2011/08/15,327,327,325,325,14000,325
2011/08/16,331,331,325,328,6000,328
2011/08/17,329,329,325,326,5000,326
2011/08/18,329,331,325,328,10000,328
2011/08/19,327,327,327,327,5000,327
2011/08/22,330,333,325,325,14000,325
2011/08/23,328,328,327,328,5000,328
2011/08/24,328,328,324,328,3000,328
2011/08/25,330,330,328,328,8000,328
2011/08/26,325,330,325,330,11000,330
2011/08/29,333,333,325,326,22000,326
2011/08/30,329,339,329,339,15000,339
2011/08/31,339,339,334,336,33000,336
2011/09/01,339,339,328,331,11000,331
2011/09/02,328,339,328,339,13000,339
2011/09/05,339,339,335,335,3000,335
2011/09/06,329,331,327,329,18000,329
2011/09/07,330,333,327,327,27000,327
2011/09/08,329,329,328,328,6000,328
2011/09/09,322,323,321,322,40000,322
2011/09/12,320,320,312,317,30000,317
2011/09/13,314,326,314,322,10000,322
2011/09/14,327,328,316,316,15000,316
2011/09/15,316,319,314,318,9000,318
2011/09/16,323,325,320,323,10000,323
2011/09/20,323,323,318,318,6000,318
2011/09/21,318,325,318,324,29000,324
2011/09/22,323,323,317,323,11000,323
2011/09/26,323,326,312,326,15000,326
2011/09/27,330,332,322,330,15000,330
2011/09/28,325,337,325,337,16000,337
2011/09/29,337,351,337,351,18000,351
2011/09/30,350,350,333,334,17000,334
2011/10/03,331,334,330,334,6000,334
2011/10/04,326,334,318,324,8000,324
2011/10/05,320,323,315,315,12000,315
2011/10/06,316,323,315,315,5000,315
2011/10/07,318,323,317,323,11000,323
2011/10/11,331,331,327,328,7000,328
2011/10/12,322,331,320,331,9000,331
2011/10/13,327,333,327,333,2000,333
2011/10/14,332,332,324,324,3000,324
2011/10/17,324,330,319,319,14000,319
2011/10/18,319,320,319,319,10000,319
2011/10/19,319,319,319,319,2000,319
2011/10/20,316,316,311,311,14000,311
2011/10/21,312,314,312,313,9000,313
2011/10/24,314,315,314,314,7000,314
2011/10/25,314,314,311,312,6000,312
2011/10/26,312,313,311,313,8000,313
2011/10/27,312,313,310,311,18000,311
2011/10/28,311,317,311,311,10000,311
2011/10/31,314,321,314,316,29000,316
2011/11/01,311,313,308,313,30000,313
2011/11/02,310,311,305,307,27000,307
2011/11/04,307,310,305,306,10000,306
2011/11/07,303,307,302,307,6000,307
2011/11/08,303,304,303,303,3000,303
2011/11/09,306,306,305,306,6000,306
2011/11/10,300,305,300,304,8000,304
2011/11/11,301,304,300,304,29000,304
2011/11/14,304,311,304,311,3000,311
2011/11/15,305,305,300,300,8000,300
2011/11/16,300,301,300,301,7000,301
2011/11/17,301,307,300,304,9000,304
2011/11/18,302,303,297,297,11000,297
2011/11/21,297,297,281,285,26000,285
2011/11/22,286,294,286,294,11000,294
2011/11/24,292,294,292,294,8000,294
2011/11/25,298,298,292,295,5000,295
2011/11/28,296,299,296,297,8000,297
2011/11/29,304,309,304,309,8000,309
2011/11/30,310,319,310,319,91000,319
2011/12/01,325,325,323,325,13000,325
2011/12/02,325,325,316,322,13000,322
2011/12/05,324,324,320,323,12000,323
2011/12/06,318,318,313,313,6000,313
2011/12/07,313,323,312,323,9000,323
2011/12/09,315,316,315,316,23000,316
2011/12/12,317,317,314,314,5000,314
2011/12/13,317,328,317,328,22000,328
2011/12/14,329,333,329,332,17000,332
2011/12/15,334,339,326,326,66000,326
2011/12/16,331,331,321,329,14000,329
2011/12/19,329,329,322,328,5000,328
2011/12/20,327,328,327,327,7000,327
2011/12/21,330,330,327,327,6000,327
2011/12/22,325,327,321,327,10000,327
2011/12/26,327,327,323,323,9000,323
2011/12/27,325,330,321,330,10000,330
2011/12/28,330,330,327,329,7000,329
2011/12/29,321,322,320,320,17000,320
2011/12/30,324,334,324,334,22000,334
2012/01/04,333,336,322,333,54000,333
2012/01/05,330,332,320,323,5000,323
2012/01/06,323,324,323,324,2000,324
2012/01/10,321,326,318,318,10000,318
2012/01/11,319,325,319,322,6000,322
2012/01/12,322,323,320,320,6000,320
2012/01/13,323,323,322,322,4000,322
2012/01/16,322,325,322,325,2000,325
2012/01/17,317,325,317,318,9000,318
2012/01/18,318,318,317,318,7000,318
2012/01/19,317,318,316,316,10000,316
2012/01/20,319,333,319,330,13000,330
2012/01/23,332,332,332,332,3000,332
2012/01/24,332,332,323,323,3000,323
2012/01/25,330,332,327,332,4000,332
2012/01/26,332,334,329,334,10000,334
2012/01/27,332,334,332,334,7000,334
2012/01/30,335,335,333,333,11000,333
2012/01/31,333,333,326,328,50000,328
2012/02/01,328,330,321,330,7000,330
2012/02/02,328,334,328,331,16000,331
2012/02/03,331,331,327,327,7000,327
2012/02/07,327,328,327,328,3000,328
2012/02/08,330,332,327,332,10000,332
2012/02/09,335,336,335,336,13000,336
2012/02/10,339,339,335,335,3000,335
2012/02/13,329,336,329,330,5000,330
2012/02/14,332,338,332,338,4000,338
2012/02/15,334,336,331,333,24000,333
2012/02/16,333,333,330,330,8000,330
2012/02/17,331,333,331,332,4000,332
2012/02/20,338,338,338,338,1000,338
2012/02/21,338,338,336,336,5000,336
2012/02/22,338,339,333,338,11000,338
2012/02/23,340,346,340,343,7000,343
2012/02/24,340,343,340,343,4000,343
2012/02/27,343,346,342,343,8000,343
2012/02/28,345,348,344,348,14000,348
2012/02/29,348,355,348,348,55000,348
2012/03/01,354,354,341,346,11000,346
2012/03/02,341,348,341,347,5000,347
2012/03/05,343,346,343,344,5000,344
2012/03/06,346,348,344,344,5000,344
2012/03/07,339,345,339,345,14000,345
2012/03/08,345,350,345,348,14000,348
2012/03/09,347,354,347,351,45000,351
2012/03/12,348,352,347,352,9000,352
2012/03/13,352,352,344,349,8000,349
2012/03/14,354,354,345,346,14000,346
2012/03/15,344,349,344,346,8000,346
2012/03/16,346,349,346,349,4000,349
2012/03/19,346,348,343,343,10000,343
2012/03/21,338,344,338,339,18000,339
2012/03/22,342,350,342,348,12000,348
2012/03/23,346,346,341,346,29000,346
2012/03/26,340,344,340,341,15000,341
2012/03/27,343,346,343,345,15000,345
2012/03/28,338,341,338,341,8000,341
2012/03/29,344,351,341,351,13000,351
2012/03/30,347,347,342,344,13000,344
2012/04/02,346,346,340,342,15000,342
2012/04/03,344,344,338,338,5000,338
2012/04/04,338,338,323,323,12000,323
2012/04/05,323,331,323,331,5000,331
2012/04/06,331,331,330,331,6000,331
2012/04/09,332,332,331,332,4000,332
2012/04/10,335,336,328,336,3000,336
2012/04/11,328,329,328,329,2000,329
2012/04/12,329,329,326,328,4000,328
2012/04/13,326,330,326,327,23000,327
2012/04/16,333,333,323,324,7000,324
2012/04/17,324,327,324,327,4000,327
2012/04/18,329,331,324,324,8000,324
2012/04/19,329,331,325,325,8000,325
2012/04/20,330,330,328,328,2000,328
2012/04/23,333,335,326,326,16000,326
2012/04/24,334,334,326,326,11000,326
2012/04/25,329,333,328,329,12000,329
2012/04/26,334,337,329,337,19000,337
2012/04/27,336,336,330,330,42000,330
2012/05/01,323,323,315,319,13000,319
2012/05/02,316,319,315,319,8000,319
2012/05/07,316,316,316,316,2000,316
2012/05/08,319,322,319,322,3000,322
2012/05/09,317,325,317,319,9000,319
2012/05/10,318,318,318,318,7000,318
2012/05/11,315,320,314,314,8000,314
2012/05/14,317,319,315,319,11000,319
2012/05/15,311,311,310,311,5000,311
2012/05/16,311,311,306,306,8000,306
2012/05/17,305,306,299,302,5000,302
2012/05/18,300,315,300,315,8000,315
2012/05/21,307,312,307,312,7000,312
2012/05/22,306,309,303,305,7000,305
2012/05/23,304,304,297,297,17000,297
2012/05/24,297,299,296,296,8000,296
2012/05/25,296,298,296,297,5000,297
2012/05/28,298,304,298,304,5000,304
2012/05/29,300,308,300,307,8000,307
2012/05/30,307,316,304,316,16000,316
2012/05/31,309,310,302,307,38000,307
2012/06/01,303,308,302,308,7000,308
2012/06/04,297,310,297,310,5000,310
2012/06/05,305,309,303,309,7000,309
2012/06/06,310,311,304,311,7000,311
2012/06/07,311,311,305,308,9000,308
2012/06/08,308,308,301,306,26000,306
2012/06/11,310,310,304,306,11000,306
2012/06/12,306,316,306,316,38000,316
2012/06/13,316,316,304,306,74000,306
2012/06/14,302,308,302,308,25000,308
2012/06/15,306,307,306,307,2000,307
2012/06/18,306,307,304,307,7000,307
2012/06/19,311,311,307,307,10000,307
2012/06/20,308,310,308,310,4000,310
2012/06/21,311,311,309,310,4000,310
2012/06/22,310,314,310,314,3000,314
2012/06/25,314,314,314,314,1000,314
2012/06/26,314,319,314,315,10000,315
2012/06/27,316,321,316,321,5000,321
2012/06/28,324,330,324,330,13000,330
2012/06/29,330,330,319,328,59000,328
2012/07/02,320,324,317,321,15000,321
2012/07/03,317,325,317,325,5000,325
2012/07/04,325,326,325,326,2000,326
2012/07/05,318,331,318,331,6000,331
2012/07/06,330,330,326,326,4000,326
2012/07/09,326,328,324,324,3000,324
2012/07/10,328,328,325,325,6000,325
2012/07/11,327,327,325,325,3000,325
2012/07/12,327,329,326,326,5000,326
2012/07/13,325,329,325,326,3000,326
2012/07/17,329,329,325,325,3000,325
2012/07/18,317,317,310,316,14000,316
2012/07/19,324,326,324,325,6000,325
2012/07/20,324,325,322,322,6000,322
2012/07/23,322,323,322,322,7000,322
2012/07/24,323,326,320,324,26000,324
2012/07/25,323,323,318,319,7000,319
2012/07/26,322,324,321,324,10000,324
2012/07/27,330,330,322,328,15000,328
2012/07/30,335,335,328,335,8000,335
2012/07/31,333,333,328,332,30000,332
2012/08/01,332,332,332,332,1000,332
2012/08/02,325,325,325,325,3000,325
2012/08/06,326,326,326,326,1000,326
2012/08/07,326,326,326,326,1000,326
2012/08/08,325,325,325,325,3000,325
2012/08/09,325,325,324,324,4000,324
2012/08/10,316,324,316,324,11000,324
2012/08/13,317,319,316,316,4000,316
2012/08/14,316,321,313,313,7000,313
2012/08/15,319,319,319,319,1000,319
2012/08/16,319,321,319,321,4000,321
2012/08/17,324,325,324,325,4000,325
2012/08/21,324,327,324,327,3000,327
2012/08/23,327,327,322,325,6000,325
2012/08/24,328,328,321,324,6000,324
2012/08/27,324,325,324,325,5000,325
2012/08/28,324,324,321,322,14000,322
2012/08/29,320,323,320,323,7000,323
2012/08/30,326,329,323,329,12000,329
2012/08/31,328,330,316,317,37000,317
2012/09/03,293,300,291,291,47000,291
2012/09/04,293,297,277,280,45000,280
2012/09/05,282,282,272,277,23000,277
2012/09/06,277,282,277,282,11000,282
2012/09/07,282,288,282,283,11000,283
2012/09/10,276,281,276,281,5000,281
2012/09/11,284,284,276,278,7000,278
2012/09/12,276,280,276,280,8000,280
2012/09/13,275,278,274,275,16000,275
2012/09/14,275,276,274,276,24000,276
2012/09/18,280,285,278,284,8000,284
2012/09/19,292,304,282,285,14000,285
2012/09/20,289,293,289,293,20000,293
2012/09/21,295,295,291,293,27000,293
2012/09/24,295,295,291,291,6000,291
2012/09/25,293,297,293,297,8000,297
2012/09/26,293,300,293,300,15000,300
2012/09/27,300,306,299,305,22000,305
2012/09/28,301,301,294,298,14000,298
2012/10/01,295,296,295,296,4000,296
2012/10/02,294,296,293,293,4000,293
2012/10/03,292,297,292,292,11000,292
2012/10/04,293,293,274,280,27000,280
2012/10/05,280,283,280,283,4000,283
2012/10/09,280,284,280,283,7000,283
2012/10/10,280,280,278,278,6000,278
2012/10/11,276,276,275,275,2000,275
2012/10/12,276,276,275,275,6000,275
2012/10/16,277,277,273,276,8000,276
2012/10/17,276,282,276,282,5000,282
2012/10/18,279,284,279,284,4000,284
2012/10/19,284,293,284,291,8000,291
2012/10/22,293,293,293,293,2000,293
2012/10/23,288,288,288,288,1000,288
2012/10/24,294,294,294,294,3000,294
2012/10/26,292,292,292,292,3000,292
2012/10/29,292,297,292,297,10000,297
2012/10/30,297,297,283,291,24000,291
2012/10/31,292,298,289,289,52000,289
2012/11/01,294,294,289,289,3000,289
2012/11/02,297,297,290,292,10000,292
2012/11/05,288,291,288,291,8000,291
2012/11/07,295,295,290,290,3000,290
2012/11/08,283,283,283,283,4000,283
2012/11/09,281,281,278,278,6000,278
2012/11/13,276,282,276,278,9000,278
2012/11/14,276,276,275,275,2000,275
2012/11/15,276,276,276,276,2000,276
2012/11/16,281,281,277,277,3000,277
2012/11/19,284,284,280,283,7000,283
2012/11/20,284,284,283,283,2000,283
2012/11/21,283,288,283,288,7000,288
2012/11/22,291,294,288,292,14000,292
2012/11/26,295,303,295,300,17000,300
2012/11/27,305,313,305,313,22000,313
2012/11/28,311,311,301,301,24000,301
2012/11/29,304,314,304,314,19000,314
2012/11/30,314,316,309,309,68000,309
2012/12/03,311,312,311,312,5000,312
2012/12/04,312,312,310,311,5000,311
2012/12/05,311,313,309,313,9000,313
2012/12/06,313,313,309,313,9000,313
2012/12/07,313,317,313,313,17000,313
2012/12/10,310,315,310,311,9000,311
2012/12/11,311,313,311,313,6000,313
2012/12/12,321,331,321,331,37000,331
2012/12/13,325,328,322,325,95000,325
2012/12/14,323,331,323,328,34000,328
2012/12/17,328,331,325,328,7000,328
2012/12/18,329,329,328,328,4000,328
2012/12/19,329,334,328,332,22000,332
2012/12/20,327,327,327,327,3000,327
2012/12/21,330,333,328,333,9000,333
2012/12/25,332,332,326,326,8000,326
2012/12/26,331,333,330,333,10000,333
2012/12/27,339,343,336,343,19000,343
2012/12/28,343,343,338,341,30000,341
2013/01/04,341,354,341,352,22000,352
2013/01/07,352,352,338,339,11000,339
2013/01/08,338,338,332,332,8000,332
2013/01/09,339,339,331,333,5000,333
2013/01/10,330,334,330,334,6000,334
2013/01/11,336,336,332,332,7000,332
2013/01/15,338,338,327,332,9000,332
2013/01/16,332,332,331,331,4000,331
2013/01/17,335,338,330,332,16000,332
2013/01/18,333,335,333,335,4000,335
2013/01/21,335,335,331,331,3000,331
2013/01/22,331,332,325,332,6000,332
2013/01/23,326,330,319,329,23000,329
2013/01/24,323,324,321,324,7000,324
2013/01/25,332,332,324,330,15000,330
2013/01/28,333,333,322,322,17000,322
2013/01/29,320,327,320,327,8000,327
2013/01/30,327,327,320,327,19000,327
2013/01/31,327,330,327,327,32000,327
2013/02/01,329,329,326,326,8000,326
2013/02/04,329,329,326,327,15000,327
2013/02/05,325,325,320,322,18000,322
2013/02/06,322,323,319,322,18000,322
2013/02/07,322,322,319,322,8000,322
2013/02/08,319,319,313,314,29000,314
2013/02/12,316,320,316,320,7000,320
2013/02/13,316,318,315,315,14000,315
2013/02/14,315,315,311,312,12000,312
2013/02/15,310,318,306,309,25000,309
2013/02/18,300,305,300,305,49000,305
2013/02/19,308,310,308,310,9000,310
2013/02/20,318,319,311,311,25000,311
2013/02/21,316,319,316,316,10000,316
2013/02/22,319,325,313,320,27000,320
2013/02/25,320,321,314,320,22000,320
2013/02/26,317,322,317,321,5000,321
2013/02/27,324,325,320,324,27000,324
2013/02/28,324,327,321,326,49000,326
2013/03/01,328,329,326,328,9000,328
2013/03/04,328,331,322,322,13000,322
2013/03/05,329,329,322,322,4000,322
2013/03/06,324,327,324,327,5000,327
2013/03/07,329,329,325,326,15000,326
2013/03/08,326,327,326,327,42000,327
2013/03/11,327,331,327,330,13000,330
2013/03/12,328,333,325,333,21000,333
2013/03/13,332,333,322,324,17000,324
2013/03/14,326,326,323,324,10000,324
2013/03/15,323,325,321,321,16000,321
2013/03/18,321,323,318,323,8000,323
2013/03/19,323,327,323,327,10000,327
2013/03/21,333,336,329,332,48000,332
2013/03/22,330,335,330,332,15000,332
2013/03/25,334,335,332,332,23000,332
2013/03/26,325,332,325,332,14000,332
2013/03/27,329,331,328,331,13000,331
2013/03/28,333,333,329,331,19000,331
2013/03/29,326,326,316,320,25000,320
2013/04/01,320,320,313,313,12000,313
2013/04/02,310,312,306,310,18000,310
2013/04/03,309,314,309,311,16000,311
2013/04/04,310,315,306,315,10000,315
2013/04/05,317,327,317,322,24000,322
2013/04/08,322,330,317,324,33000,324
2013/04/09,324,326,324,325,12000,325
2013/04/10,325,330,325,330,13000,330
2013/04/11,330,330,328,328,16000,328
2013/04/12,328,329,328,329,8000,329
2013/04/15,329,329,327,327,8000,327
2013/04/16,323,324,322,323,17000,323
2013/04/17,324,326,322,326,6000,326
2013/04/18,326,326,323,323,10000,323
2013/04/19,323,323,322,322,7000,322
2013/04/22,329,330,325,328,53000,328
2013/04/23,327,330,325,328,18000,328
2013/04/24,332,332,330,332,17000,332
2013/04/25,331,332,328,332,20000,332
2013/04/26,333,335,330,333,25000,333
2013/04/30,335,336,327,327,70000,327
2013/05/01,330,332,330,332,26000,332
2013/05/02,335,335,332,332,10000,332
2013/05/07,334,340,334,340,15000,340
2013/05/08,341,345,341,344,13000,344
2013/05/09,340,341,330,339,34000,339
2013/05/10,339,345,338,342,26000,342
2013/05/13,344,344,339,341,22000,341
2013/05/14,343,343,334,338,22000,338
2013/05/15,338,342,338,342,16000,342
2013/05/16,342,342,336,337,21000,337
2013/05/17,339,340,335,339,20000,339
2013/05/20,340,342,339,341,17000,341
2013/05/21,342,356,342,352,60000,352
2013/05/22,355,355,353,355,7000,355
2013/05/23,355,357,339,339,29000,339
2013/05/24,336,343,333,334,51000,334
2013/05/27,332,333,326,328,30000,328
2013/05/28,326,335,325,328,25000,328
2013/05/29,330,341,330,341,15000,341
2013/05/30,338,339,334,335,17000,335
2013/05/31,336,338,333,333,46000,333
2013/06/03,338,338,326,326,29000,326
2013/06/04,333,333,330,333,22000,333
2013/06/05,332,337,327,327,17000,327
2013/06/06,327,330,323,323,18000,323
2013/06/07,321,322,318,318,19000,318
2013/06/10,324,330,324,327,5000,327
2013/06/11,328,332,328,331,19000,331
2013/06/12,331,336,324,333,87000,333
2013/06/13,332,332,327,330,4000,330
2013/06/14,329,334,329,330,48000,330
2013/06/17,330,335,329,329,15000,329
2013/06/18,334,334,329,329,3000,329
2013/06/19,336,336,332,332,3000,332
2013/06/20,334,334,329,330,6000,330
2013/06/21,333,334,321,334,6000,334
2013/06/24,334,334,330,330,6000,330
2013/06/25,333,333,326,329,8000,329
2013/06/26,334,334,332,333,8000,333
2013/06/27,336,345,336,345,32000,345
2013/06/28,340,343,338,338,64000,338
2013/07/01,330,340,328,340,51000,340
2013/07/02,343,343,334,341,22000,341
2013/07/03,343,345,336,343,28000,343
2013/07/04,343,345,342,345,12000,345
2013/07/05,345,350,345,349,21000,349
2013/07/08,354,354,347,347,19000,347
2013/07/09,352,360,347,353,27000,353
2013/07/10,357,361,357,360,21000,360
2013/07/11,357,357,348,354,13000,354
2013/07/12,348,353,348,352,16000,352
2013/07/16,352,352,350,350,4000,350
2013/07/17,350,355,350,355,18000,355
2013/07/18,355,355,340,352,16000,352
2013/07/19,352,352,346,346,6000,346
2013/07/22,346,346,346,346,2000,346
2013/07/23,341,346,341,344,7000,344
2013/07/24,344,352,344,349,18000,349
2013/07/25,345,349,343,349,5000,349
2013/07/26,345,345,344,344,10000,344
2013/07/29,340,340,336,336,10000,336
2013/07/30,344,358,344,358,21000,358
2013/07/31,356,358,352,358,35000,358
2013/08/01,353,354,349,349,9000,349
2013/08/02,351,362,337,362,31000,362
2013/08/05,362,362,358,359,13000,359
2013/08/06,351,354,346,346,9000,346
2013/08/07,347,347,341,341,19000,341
2013/08/08,342,342,341,341,6000,341
2013/08/09,346,346,337,339,17000,339
2013/08/12,338,338,338,338,1000,338
2013/08/13,338,340,338,340,4000,340
2013/08/14,343,343,340,342,6000,342
2013/08/15,340,340,337,337,4000,337
2013/08/16,338,338,335,335,9000,335
2013/08/19,334,334,332,332,6000,332
2013/08/20,330,330,330,330,5000,330
2013/08/21,330,332,330,332,3000,332
2013/08/22,334,335,333,333,5000,333
2013/08/23,337,341,337,337,7000,337
2013/08/26,337,337,335,335,4000,335
2013/08/27,337,341,337,341,4000,341
2013/08/28,333,334,332,332,19000,332
2013/08/29,335,336,334,336,14000,336
2013/08/30,338,338,333,337,67000,337
2013/09/02,342,342,332,332,17000,332
2013/09/03,340,340,336,337,6000,337
2013/09/04,333,335,333,335,2000,335
2013/09/05,335,335,333,334,19000,334
2013/09/06,332,335,332,335,4000,335
2013/09/09,335,336,330,335,32000,335
2013/09/10,335,338,335,338,7000,338
2013/09/11,342,342,338,341,12000,341
2013/09/12,343,349,343,343,19000,343
2013/09/13,340,345,340,345,31000,345
2013/09/17,349,350,341,345,32000,345
2013/09/18,347,352,347,352,11000,352
2013/09/19,354,357,354,357,26000,357
2013/09/20,357,357,354,357,6000,357
2013/09/24,353,358,352,356,12000,356
2013/09/25,353,361,353,358,18000,358
2013/09/26,354,357,352,357,8000,357
2013/09/27,357,357,356,357,8000,357
2013/09/30,356,356,354,354,9000,354
2013/10/01,354,358,352,352,16000,352
2013/10/02,353,354,348,348,11000,348
2013/10/03,343,346,343,346,8000,346
2013/10/04,342,348,341,341,18000,341
2013/10/07,341,341,336,338,7000,338
2013/10/08,340,340,337,338,7000,338
2013/10/09,338,345,338,345,4000,345
2013/10/10,340,346,340,343,9000,343
2013/10/11,343,351,343,351,7000,351
2013/10/15,349,355,349,352,7000,352
2013/10/16,352,356,348,356,10000,356
2013/10/17,352,358,352,358,6000,358
2013/10/18,357,363,352,362,57000,362
2013/10/21,363,368,360,362,16000,362
2013/10/22,362,367,362,364,19000,364
2013/10/23,359,359,355,356,18000,356
2013/10/24,350,353,341,347,56000,347
2013/10/25,347,347,341,343,10000,343
2013/10/28,347,347,342,344,24000,344
2013/10/29,344,349,343,346,17000,346
2013/10/30,348,350,348,350,20000,350
2013/10/31,350,350,347,347,48000,347
2013/11/01,352,353,346,349,12000,349
2013/11/05,353,355,348,351,15000,351
2013/11/06,351,355,350,355,12000,355
2013/11/07,355,355,349,349,13000,349
2013/11/08,350,350,349,349,6000,349
2013/11/11,355,355,351,352,12000,352
2013/11/12,353,355,352,353,10000,353
2013/11/13,353,353,346,349,8000,349
2013/11/14,351,352,351,351,8000,351
2013/11/15,349,354,349,354,25000,354
2013/11/18,354,354,347,348,16000,348
2013/11/19,349,349,347,348,4000,348
2013/11/20,347,351,345,349,23000,349
2013/11/21,350,353,350,353,9000,353
2013/11/22,352,354,351,352,17000,352
2013/11/25,352,353,349,351,14000,351
2013/11/26,350,352,349,351,12000,351
2013/11/27,351,355,351,354,24000,354
2013/11/28,356,361,355,361,29000,361
2013/11/29,361,362,356,362,69000,362
2013/12/02,362,363,359,362,23000,362
2013/12/03,361,363,357,357,11000,357
2013/12/04,357,357,353,355,23000,355
2013/12/05,358,358,356,356,4000,356
2013/12/06,355,356,354,356,10000,356
2013/12/09,350,358,350,355,20000,355
2013/12/10,355,359,355,358,17000,358
2013/12/11,360,361,358,358,29000,358
2013/12/12,357,359,355,358,92000,358
2013/12/13,352,352,350,352,58000,352
2013/12/16,347,351,346,349,18000,349
2013/12/17,347,350,346,350,28000,350
2013/12/18,350,352,348,351,22000,351
2013/12/19,348,352,348,352,19000,352
2013/12/20,348,353,347,353,23000,353
2013/12/24,349,350,349,349,15000,349
2013/12/25,348,349,348,349,17000,349
2013/12/26,349,357,349,356,30000,356
2013/12/27,362,362,354,359,36000,359
2013/12/30,358,363,358,362,60000,362
2014/01/06,366,367,361,366,14000,366
2014/01/07,365,367,360,365,18000,365
2014/01/08,368,368,365,367,11000,367
2014/01/09,367,372,367,371,23000,371
2014/01/10,371,371,367,370,18000,370
2014/01/14,370,370,366,366,18000,366
2014/01/15,371,371,366,368,10000,368
2014/01/16,370,370,368,370,3000,370
2014/01/17,370,372,369,372,7000,372
2014/01/20,372,372,370,372,9000,372
2014/01/21,375,375,372,372,6000,372
2014/01/22,374,374,371,371,11000,371
2014/01/23,374,374,367,367,29000,367
2014/01/24,360,360,358,358,28000,358
2014/01/27,353,354,350,350,30000,350
2014/01/28,357,357,351,351,15000,351
2014/01/29,355,364,352,363,58000,363
2014/01/30,355,361,351,357,52000,357
2014/01/31,361,370,361,365,59000,365
2014/02/03,367,367,362,363,39000,363
2014/02/04,353,363,341,341,69000,341
2014/02/05,341,348,341,344,29000,344
2014/02/06,342,346,338,343,16000,343
2014/02/07,350,355,350,351,17000,351
2014/02/10,352,354,350,352,9000,352
2014/02/12,355,355,355,355,1000,355
2014/02/13,355,355,348,350,19000,350
2014/02/14,350,350,348,348,4000,348
2014/02/17,346,346,346,346,1000,346
2014/02/18,344,353,344,351,17000,351
2014/02/19,346,347,346,346,10000,346
2014/02/20,346,351,346,349,7000,349
2014/02/21,353,354,352,354,11000,354
2014/02/24,354,358,354,358,7000,358
2014/02/25,359,363,359,363,8000,363
2014/02/26,361,364,361,364,4000,364
2014/02/27,363,365,362,364,21000,364
2014/02/28,363,364,360,361,36000,361
2014/03/03,363,363,363,363,2000,363
2014/03/04,362,363,361,363,6000,363
2014/03/05,364,365,364,365,3000,365
2014/03/06,362,366,362,366,7000,366
2014/03/07,367,367,360,366,12000,366
2014/03/10,363,366,363,366,6000,366
2014/03/11,370,372,366,368,15000,368
2014/03/12,363,368,363,368,9000,368
2014/03/13,368,368,366,366,13000,366
2014/03/14,366,366,358,358,53000,358
2014/03/17,354,356,354,356,13000,356
2014/03/18,356,362,356,361,10000,361
2014/03/19,362,362,355,355,11000,355
2014/03/20,356,364,355,355,43000,355
2014/03/24,358,360,351,351,16000,351
2014/03/25,363,363,353,357,12000,357
2014/03/26,359,369,359,367,31000,367
2014/03/27,356,366,356,366,10000,366
2014/03/28,366,368,360,368,26000,368
2014/03/31,368,368,360,362,26000,362
2014/04/01,363,367,359,367,16000,367
2014/04/02,369,372,364,364,25000,364
2014/04/03,364,372,364,368,15000,368
2014/04/04,368,372,367,370,12000,370
2014/04/07,369,369,364,366,10000,366
2014/04/08,362,362,358,359,9000,359
2014/04/09,354,356,352,352,13000,352
2014/04/10,355,355,350,350,8000,350
2014/04/11,350,350,343,343,16000,343
2014/04/14,346,349,346,348,5000,348
2014/04/15,350,350,348,348,8000,348
2014/04/16,350,352,350,352,2000,352
2014/04/17,350,350,350,350,1000,350
2014/04/18,351,355,351,355,7000,355
2014/04/21,352,352,348,348,4000,348
2014/04/22,346,350,346,350,2000,350
2014/04/23,350,350,350,350,3000,350
2014/04/24,356,360,355,356,22000,356
2014/04/25,356,360,356,360,7000,360
2014/04/28,362,364,360,360,13000,360
2014/04/30,362,365,362,363,41000,363
2014/05/01,360,361,360,361,6000,361
2014/05/02,359,368,359,368,15000,368
2014/05/07,363,365,363,365,15000,365
2014/05/08,362,365,361,365,14000,365
2014/05/09,364,364,360,363,13000,363
2014/05/12,359,364,359,364,19000,364
2014/05/13,362,368,362,368,16000,368
2014/05/14,364,370,364,369,7000,369
2014/05/15,363,363,362,362,2000,362
2014/05/16,362,362,361,361,13000,361
2014/05/19,359,361,359,361,4000,361
2014/05/20,361,363,358,358,11000,358
2014/05/21,361,361,360,360,4000,360
2014/05/22,363,363,362,362,3000,362
2014/05/23,363,366,360,364,13000,364
2014/05/26,368,368,362,368,14000,368
2014/05/27,368,372,368,370,13000,370
2014/05/28,371,372,370,371,17000,371
2014/05/29,372,374,372,374,12000,374
2014/05/30,374,376,374,376,54000,376
2014/06/02,374,377,374,377,20000,377
2014/06/03,376,377,375,377,15000,377
2014/06/04,377,382,374,380,20000,380
2014/06/05,380,385,380,385,28000,385
2014/06/06,387,393,385,390,34000,390
2014/06/09,390,392,386,387,18000,387
2014/06/10,387,388,387,388,29000,388
2014/06/11,388,396,388,394,43000,394
2014/06/12,392,394,389,389,49000,389
2014/06/13,388,391,388,389,34000,389
2014/06/16,390,395,390,393,24000,393
2014/06/17,393,395,393,394,8000,394
2014/06/18,395,395,393,394,13000,394
2014/06/19,396,405,396,405,37000,405
2014/06/20,406,415,406,410,17000,410
2014/06/23,415,415,411,413,16000,413
2014/06/24,414,414,412,414,13000,414
2014/06/25,414,418,412,418,33000,418
2014/06/26,418,429,418,424,31000,424
2014/06/27,431,435,424,428,51000,428
2014/06/30,428,434,428,431,70000,431
2014/07/01,431,448,431,444,40000,444
2014/07/02,450,453,448,448,42000,448
2014/07/03,447,448,428,428,48000,428
2014/07/04,425,427,421,423,46000,423
2014/07/07,419,426,419,422,26000,422
2014/07/08,421,430,421,430,21000,430
2014/07/09,425,425,423,425,9000,425
2014/07/10,427,428,422,422,8000,422
2014/07/11,420,420,415,417,17000,417
2014/07/14,419,419,412,415,9000,415
2014/07/15,412,415,412,415,11000,415
2014/07/16,418,418,414,414,11000,414
2014/07/17,414,419,414,419,14000,419
2014/07/18,420,420,414,414,11000,414
2014/07/22,414,420,414,419,25000,419
2014/07/23,416,420,416,417,16000,417
2014/07/24,417,422,417,417,8000,417
2014/07/25,422,422,418,418,12000,418
2014/07/28,421,426,420,425,20000,425
2014/07/29,425,428,422,425,20000,425
2014/07/30,428,428,421,428,39000,428
2014/07/31,428,428,422,422,36000,422
2014/08/01,422,422,418,419,7000,419
2014/08/04,417,417,411,417,17000,417
2014/08/05,414,415,413,413,28000,413
2014/08/06,417,417,407,409,22000,409
2014/08/07,409,411,407,411,9000,411
2014/08/08,410,412,405,405,16000,405
2014/08/11,410,413,410,413,8000,413
2014/08/12,414,415,413,413,8000,413
2014/08/13,414,415,413,415,6000,415
2014/08/14,419,419,415,415,12000,415
2014/08/15,410,414,410,414,11000,414
2014/08/18,419,419,415,417,16000,417
2014/08/19,419,419,416,416,9000,416
2014/08/20,413,416,412,416,10000,416
2014/08/21,415,419,413,418,13000,418
2014/08/22,415,415,411,412,26000,412
2014/08/25,412,415,412,415,3000,415
2014/08/26,411,411,410,410,14000,410
2014/08/27,410,414,410,413,12000,413
2014/08/28,413,413,412,412,15000,412
2014/08/29,412,413,410,413,29000,413
2014/09/01,412,416,412,416,7000,416
2014/09/02,417,417,414,416,39000,416
2014/09/03,416,421,411,414,31000,414
2014/09/04,413,413,411,411,7000,411
2014/09/05,411,411,410,411,5000,411
2014/09/08,416,417,415,415,10000,415
2014/09/09,420,420,418,419,12000,419
2014/09/10,418,420,417,418,12000,418
2014/09/11,421,421,416,416,13000,416
2014/09/12,414,414,412,412,38000,412
2014/09/16,411,413,411,412,6000,412
2014/09/17,411,437,410,418,110000,418
2014/09/18,418,422,414,420,39000,420
2014/09/19,420,424,420,423,51000,423
2014/09/22,420,421,415,420,23000,420
2014/09/24,417,423,416,423,17000,423
2014/09/25,421,424,421,424,13000,424
2014/09/26,421,423,421,423,13000,423
2014/09/29,425,425,415,418,61000,418
2014/09/30,418,418,414,417,22000,417
2014/10/01,416,416,401,405,43000,405
2014/10/02,397,404,397,398,17000,398
2014/10/03,396,402,396,402,10000,402
2014/10/06,404,405,404,404,7000,404
2014/10/07,404,405,402,402,16000,402
2014/10/08,398,398,395,395,16000,395
2014/10/09,392,393,391,392,6000,392
2014/10/10,389,389,385,385,12000,385
2014/10/14,377,383,363,363,24000,363
2014/10/15,369,385,369,381,14000,381
2014/10/16,375,375,370,373,10000,373
2014/10/17,373,378,364,364,22000,364
2014/10/20,371,380,365,377,24000,377
2014/10/21,370,378,367,371,14000,371
2014/10/22,378,378,374,378,5000,378
2014/10/23,381,383,380,381,21000,381
2014/10/24,385,385,383,385,19000,385
2014/10/27,386,389,386,388,9000,388
2014/10/28,387,388,386,386,9000,386
2014/10/29,386,388,382,386,23000,386
2014/10/30,392,394,390,393,36000,393
2014/10/31,393,405,393,403,44000,403
2014/11/04,410,410,406,410,37000,410
2014/11/05,408,414,404,413,40000,413
2014/11/06,407,409,401,402,23000,402
2014/11/07,397,405,397,401,13000,401
2014/11/10,401,402,401,401,6000,401
2014/11/11,397,400,396,399,12000,399
2014/11/12,403,405,396,398,19000,398
2014/11/13,392,399,392,399,17000,399
2014/11/14,399,405,391,402,53000,402
2014/11/17,396,398,393,393,22000,393
2014/11/18,394,401,394,401,11000,401
2014/11/19,401,401,396,398,18000,398
2014/11/20,400,401,392,400,45000,400
2014/11/21,396,401,396,400,16000,400
2014/11/25,403,404,403,404,5000,404
2014/11/26,404,405,399,401,25000,401
2014/11/27,403,406,401,406,41000,406
2014/11/28,406,408,406,408,52000,408
2014/12/01,404,408,404,405,7000,405
2014/12/02,401,406,401,406,11000,406
2014/12/03,406,406,404,405,6000,405
2014/12/04,406,410,406,407,17000,407
2014/12/05,407,408,401,408,19000,408
2014/12/08,410,416,409,414,32000,414
2014/12/09,414,418,411,416,22000,416
2014/12/10,416,421,403,411,56000,411
2014/12/11,412,421,412,419,33000,419
2014/12/12,419,427,419,425,89000,425
2014/12/15,427,431,421,426,41000,426
2014/12/16,426,430,426,429,28000,429
2014/12/17,430,431,427,427,16000,427
2014/12/18,431,434,428,432,35000,432
2014/12/19,432,439,432,438,18000,438
2014/12/22,438,439,432,437,40000,437
2014/12/24,437,440,433,433,24000,433
2014/12/25,433,439,433,436,21000,436
2014/12/26,434,441,434,441,26000,441
2014/12/29,444,449,435,449,66000,449
2014/12/30,449,459,449,449,57000,449
2015/01/05,457,458,451,451,23000,451
2015/01/06,450,451,443,443,38000,443
2015/01/07,439,441,437,439,11000,439
2015/01/08,436,444,436,443,9000,443
2015/01/09,438,444,437,438,13000,438
2015/01/13,432,434,429,429,20000,429
2015/01/14,429,434,428,428,15000,428
2015/01/15,427,438,427,432,9000,432
2015/01/16,430,430,425,425,8000,425
2015/01/19,426,427,426,427,8000,427
2015/01/20,430,430,419,428,30000,428
2015/01/21,424,434,424,431,24000,431
2015/01/22,425,425,422,424,13000,424
2015/01/23,424,426,424,426,4000,426
2015/01/26,426,427,425,426,9000,426
2015/01/27,433,433,430,431,7000,431
2015/01/28,431,441,431,439,23000,439
2015/01/29,440,445,438,442,31000,442
2015/01/30,442,454,442,453,33000,453
2015/02/02,452,454,448,452,39000,452
2015/02/03,454,454,445,446,18000,446
2015/02/04,449,452,449,449,17000,449
2015/02/05,448,448,444,444,8000,444
2015/02/06,444,446,437,443,18000,443
2015/02/09,447,447,445,445,2000,445
2015/02/10,448,450,448,448,7000,448
2015/02/12,450,451,447,447,14000,447
2015/02/13,455,455,447,449,13000,449
2015/02/16,456,456,451,452,13000,452
2015/02/17,452,455,449,451,17000,451
2015/02/18,448,454,448,451,14000,451
2015/02/19,451,454,449,454,11000,454
2015/02/20,454,465,454,461,23000,461
2015/02/23,457,470,453,462,36000,462
2015/02/24,462,466,460,460,16000,460
2015/02/25,465,477,465,474,26000,474
2015/02/26,474,484,474,482,24000,482
2015/02/27,482,489,476,477,27000,477
2015/03/02,475,485,475,479,12000,479
2015/03/03,477,481,477,479,11000,479
2015/03/04,479,482,474,474,17000,474
2015/03/05,475,478,475,475,7000,475
2015/03/06,476,478,475,477,16000,477
2015/03/09,472,479,472,479,14000,479
2015/03/10,482,483,480,483,16000,483
2015/03/11,483,483,478,479,15000,479
2015/03/12,485,499,485,495,28000,495
2015/03/13,490,495,490,494,36000,494
2015/03/16,488,491,488,491,11000,491
2015/03/17,495,498,495,495,10000,495
2015/03/18,491,491,490,490,6000,490
2015/03/19,488,488,483,487,12000,487
2015/03/20,482,488,482,484,15000,484
2015/03/23,488,489,486,489,24000,489
2015/03/24,492,492,486,491,9000,491
2015/03/25,492,492,484,485,12000,485
2015/03/26,483,485,482,485,18000,485
2015/03/27,482,482,481,482,26000,482
2015/03/30,482,487,482,482,19000,482
2015/03/31,482,487,482,483,11000,483
2015/04/01,476,481,471,472,16000,472
2015/04/02,472,477,471,476,15000,476
2015/04/03,475,475,468,472,20000,472
2015/04/06,464,469,464,469,4000,469
2015/04/07,465,468,463,466,13000,466
2015/04/08,463,467,463,467,13000,467
2015/04/09,462,463,462,462,8000,462
2015/04/10,470,470,462,463,36000,463
2015/04/13,469,469,463,466,12000,466
2015/04/14,466,466,464,464,2000,464
2015/04/15,463,467,463,465,10000,465
2015/04/16,463,468,463,467,8000,467
2015/04/17,464,464,460,460,9000,460
2015/04/20,460,460,459,459,6000,459
2015/04/21,460,468,455,457,21000,457
2015/04/22,461,461,450,456,33000,456
2015/04/23,456,458,455,455,19000,455
2015/04/24,462,472,462,471,42000,471
2015/04/27,472,473,470,470,18000,470
2015/04/28,470,484,470,484,43000,484
2015/04/30,479,495,479,491,75000,491
2015/05/01,466,470,459,459,101000,459
2015/05/07,462,462,452,452,55000,452
2015/05/08,454,457,453,453,23000,453
2015/05/11,461,462,453,453,12000,453
2015/05/12,453,454,450,450,21000,450
2015/05/13,450,459,450,451,22000,451
2015/05/14,448,450,438,438,20000,438
2015/05/15,440,447,440,443,15000,443
2015/05/18,448,448,446,447,12000,447
2015/05/19,450,450,445,445,14000,445
2015/05/20,446,456,446,456,18000,456
2015/05/21,457,457,450,450,19000,450
2015/05/22,450,454,450,452,6000,452
2015/05/25,460,462,452,452,22000,452
2015/05/26,453,453,446,451,11000,451
2015/05/27,455,455,449,449,10000,449
2015/05/28,451,454,451,453,18000,453
2015/05/29,454,456,452,456,53000,456
2015/06/01,460,461,458,461,29000,461
2015/06/02,464,467,462,462,43000,462
2015/06/03,462,464,461,461,11000,461
2015/06/04,461,462,460,461,17000,461
2015/06/05,458,461,457,458,15000,458
2015/06/08,459,459,458,458,9000,458
2015/06/09,459,459,458,458,5000,458
2015/06/10,457,460,457,457,22000,457
2015/06/11,458,466,458,466,17000,466
2015/06/12,460,462,457,459,83000,459
2015/06/15,452,456,452,456,7000,456
2015/06/16,453,453,449,452,16000,452
2015/06/17,451,451,450,451,8000,451
2015/06/18,449,450,445,445,15000,445
2015/06/19,447,450,447,450,4000,450
2015/06/22,453,453,448,453,16000,453
2015/06/23,450,454,450,452,30000,452
2015/06/24,451,454,449,452,36000,452
2015/06/25,454,457,453,453,14000,453
2015/06/26,454,457,450,451,21000,451
2015/06/29,446,447,444,444,30000,444
2015/06/30,444,446,441,441,90000,441
2015/07/01,441,447,441,445,27000,445
