2011/01/04,984,1000,984,997,55700,997
2011/01/05,1000,1004,993,1002,46300,1002
2011/01/06,1003,1018,996,1007,34100,1007
2011/01/07,1012,1014,998,998,30000,998
2011/01/11,991,1012,991,1008,31700,1008
2011/01/12,1010,1013,990,993,53200,993
2011/01/13,999,1009,996,1006,25300,1006
2011/01/14,997,1012,994,1000,36600,1000
2011/01/17,1000,1008,996,1000,13800,1000
2011/01/18,1008,1014,1001,1001,42900,1001
2011/01/19,1006,1031,1000,1031,70100,1031
2011/01/20,1024,1030,1014,1019,27700,1019
2011/01/21,1013,1020,998,998,49700,998
2011/01/24,994,1009,994,1009,38000,1009
2011/01/25,1010,1055,1008,1053,65700,1053
2011/01/26,1055,1055,1040,1049,60500,1049
2011/01/27,1049,1057,1042,1052,18300,1052
2011/01/28,1044,1049,1031,1038,32800,1038
2011/01/31,1023,1031,1015,1015,30300,1015
2011/02/01,1025,1038,1000,1035,42500,1035
2011/02/02,1037,1061,1037,1055,48200,1055
2011/02/03,1055,1055,1031,1035,29200,1035
2011/02/04,1049,1055,1037,1042,62800,1042
2011/02/07,1042,1046,1034,1039,30100,1039
2011/02/08,1049,1055,1034,1035,32100,1035
2011/02/09,1045,1050,1033,1049,45600,1049
2011/02/10,1040,1070,1039,1067,39300,1067
2011/02/14,1067,1076,1064,1067,30700,1067
2011/02/15,1066,1068,1057,1063,18600,1063
2011/02/16,1063,1081,1060,1067,30200,1067
2011/02/17,1065,1088,1063,1086,46200,1086
2011/02/18,1089,1096,1087,1090,40800,1090
2011/02/21,1090,1090,1030,1061,62500,1061
2011/02/22,1052,1052,1034,1038,49300,1038
2011/02/23,1016,1029,1010,1010,61800,1010
2011/02/24,1010,1012,987,998,74800,998
2011/02/25,991,1015,990,1008,57000,1008
2011/02/28,1009,1040,1008,1030,64900,1030
2011/03/01,1031,1052,1029,1045,109600,1045
2011/03/02,1040,1053,1026,1027,52300,1027
2011/03/03,1036,1066,1036,1062,30500,1062
2011/03/04,1064,1075,1027,1029,72400,1029
2011/03/07,1029,1029,993,1000,73100,1000
2011/03/08,1000,1011,998,1000,36800,1000
2011/03/09,1001,1019,1000,1000,43000,1000
2011/03/10,996,996,978,983,36600,983
2011/03/11,981,993,976,976,102800,976
2011/03/14,901,995,901,980,95100,980
2011/03/15,900,943,854,899,100800,899
2011/03/16,880,930,880,925,115700,925
2011/03/17,924,945,888,938,76000,938
2011/03/18,948,991,940,991,81300,991
2011/03/22,1021,1074,1011,1056,96400,1056
2011/03/23,1071,1072,1000,1018,104100,1018
2011/03/24,1033,1040,1023,1024,36400,1024
2011/03/25,1040,1083,1034,1081,82800,1081
2011/03/28,1082,1089,1058,1087,60300,1087
2011/03/29,1069,1069,1019,1043,75800,1043
2011/03/30,1045,1054,1033,1050,36500,1050
2011/03/31,1054,1058,1041,1058,47000,1058
2011/04/01,1058,1065,1047,1050,41400,1050
2011/04/04,1053,1053,1030,1043,63800,1043
2011/04/05,1031,1032,1003,1022,61500,1022
2011/04/06,1029,1044,1018,1038,69100,1038
2011/04/07,1039,1049,1014,1015,31300,1015
2011/04/08,1015,1026,1005,1021,32900,1021
2011/04/11,1029,1035,1016,1021,34400,1021
2011/04/12,1012,1026,1002,1013,24400,1013
2011/04/13,1005,1023,1001,1019,24300,1019
2011/04/14,1020,1041,1013,1035,36300,1035
2011/04/15,1040,1046,1031,1040,23900,1040
2011/04/18,1027,1050,1027,1040,36200,1040
2011/04/19,1028,1030,1011,1022,26800,1022
2011/04/20,1020,1037,1013,1018,18400,1018
2011/04/21,1028,1031,1015,1021,33800,1021
2011/04/22,1011,1012,992,997,34700,997
2011/04/25,991,1005,988,992,43200,992
2011/04/26,999,1007,990,991,54200,991
2011/04/27,990,1002,976,982,39900,982
2011/04/28,997,1002,982,998,48500,998
2011/05/02,1016,1034,997,1032,72200,1032
2011/05/06,1024,1024,1010,1017,33600,1017
2011/05/09,1010,1014,994,1007,88100,1007
2011/05/10,1007,1015,986,1010,49600,1010
2011/05/11,1012,1016,988,997,45500,997
2011/05/12,992,993,975,975,38600,975
2011/05/13,973,980,951,965,54800,965
2011/05/16,960,962,945,945,37000,945
2011/05/17,948,952,933,933,47100,933
2011/05/18,934,964,901,952,67800,952
2011/05/19,956,956,929,936,34800,936
2011/05/20,939,954,936,940,29000,940
2011/05/23,941,941,924,933,25900,933
2011/05/24,933,943,926,936,19800,936
2011/05/25,933,941,908,922,63000,922
2011/05/26,922,922,895,904,62600,904
2011/05/27,904,936,892,922,44300,922
2011/05/30,913,918,903,906,38500,906
2011/05/31,901,910,898,906,49300,906
2011/06/01,906,912,895,908,40700,908
2011/06/02,899,913,899,911,29800,911
2011/06/03,902,908,876,881,56000,881
2011/06/06,884,884,855,860,42900,860
2011/06/07,850,861,839,859,76200,859
2011/06/08,859,869,859,863,24400,863
2011/06/09,873,892,866,886,60500,886
2011/06/10,890,899,879,885,91800,885
2011/06/13,880,892,868,884,55600,884
2011/06/14,884,900,871,898,42200,898
2011/06/15,904,904,870,898,60900,898
2011/06/16,891,891,863,863,85200,863
2011/06/17,867,870,829,839,98000,839
2011/06/20,848,860,842,856,31800,856
2011/06/21,865,875,857,873,35000,873
2011/06/22,876,899,876,897,43000,897
2011/06/23,897,905,883,897,38800,897
2011/06/24,893,918,893,918,37100,918
2011/06/27,915,919,904,906,24900,906
2011/06/28,906,926,906,926,37200,926
2011/06/29,939,948,929,948,46500,948
2011/06/30,950,959,939,945,43600,945
2011/07/01,954,969,941,958,63700,958
2011/07/04,968,968,932,937,88200,937
2011/07/05,938,944,905,912,83000,912
2011/07/06,913,929,913,923,65500,923
2011/07/07,921,926,912,918,42500,918
2011/07/08,920,925,914,917,30400,917
2011/07/11,907,934,905,932,56200,932
2011/07/12,931,948,920,945,51900,945
2011/07/13,945,957,941,953,26500,953
2011/07/14,949,949,914,918,30300,918
2011/07/15,919,927,906,926,35800,926
2011/07/19,923,924,913,923,18300,923
2011/07/20,924,927,910,913,16300,913
2011/07/21,915,915,901,905,11800,905
2011/07/22,903,914,900,914,37600,914
2011/07/25,914,935,914,932,36700,932
2011/07/26,932,945,931,939,26900,939
2011/07/27,926,932,904,920,25600,920
2011/07/28,911,917,902,917,31200,917
2011/07/29,919,927,905,905,29300,905
2011/08/01,901,924,899,915,19600,915
2011/08/02,910,910,887,894,34100,894
2011/08/03,881,889,864,866,29400,866
2011/08/04,870,873,857,857,27800,857
2011/08/05,850,855,832,838,50500,838
2011/08/08,826,826,820,821,28000,821
2011/08/09,812,837,795,831,52600,831
2011/08/10,842,849,836,839,19500,839
2011/08/11,838,859,835,859,42400,859
2011/08/12,872,876,860,875,26900,875
2011/08/15,890,895,869,884,37300,884
2011/08/16,885,896,884,888,23200,888
2011/08/17,888,891,877,887,15700,887
2011/08/18,888,898,876,881,32000,881
2011/08/19,866,873,853,868,22500,868
2011/08/22,861,877,853,861,23800,861
2011/08/23,874,886,874,882,28900,882
2011/08/24,880,892,875,882,29900,882
2011/08/25,895,919,895,912,43300,912
2011/08/26,915,927,913,922,30700,922
2011/08/29,929,935,913,929,26000,929
2011/08/30,939,953,929,943,45600,943
2011/08/31,933,952,933,945,38900,945
2011/09/01,936,942,925,934,20300,934
2011/09/02,934,955,922,955,30500,955
2011/09/05,940,942,918,923,10100,923
2011/09/06,923,929,900,906,26400,906
2011/09/07,913,926,909,923,25800,923
2011/09/08,938,948,930,947,21200,947
2011/09/09,935,950,930,945,83600,945
2011/09/12,930,930,927,927,10700,927
2011/09/13,924,947,917,946,16900,946
2011/09/14,948,953,917,920,23600,920
2011/09/15,932,943,927,940,16800,940
2011/09/16,940,960,940,960,27400,960
2011/09/20,943,943,922,924,14700,924
2011/09/21,939,949,923,923,26700,923
2011/09/22,928,940,905,928,21700,928
2011/09/26,924,925,898,898,27300,898
2011/09/27,897,939,897,939,29400,939
2011/09/28,935,980,935,980,60400,980
2011/09/29,976,997,968,996,81200,996
2011/09/30,998,1010,982,1010,33400,1010
2011/10/03,968,989,951,974,62100,974
2011/10/04,974,993,953,985,43800,985
2011/10/05,989,989,925,951,51500,951
2011/10/06,948,965,941,960,21900,960
2011/10/07,954,976,951,957,42200,957
2011/10/11,970,989,970,989,27200,989
2011/10/12,972,975,932,947,38400,947
2011/10/13,952,952,931,931,12500,931
2011/10/14,921,927,907,907,14800,907
2011/10/17,933,947,918,936,13700,936
2011/10/18,930,935,910,914,11100,914
2011/10/19,929,934,917,920,14300,920
2011/10/20,916,926,906,918,8600,918
2011/10/21,924,924,907,907,8800,907
2011/10/24,919,946,919,930,18300,930
2011/10/25,920,942,916,929,22200,929
2011/10/26,915,920,886,887,42600,887
2011/10/27,891,899,857,875,40400,875
2011/10/28,873,893,872,877,37000,877
2011/10/31,877,879,855,855,28200,855
2011/11/01,851,865,846,848,16900,848
2011/11/02,832,838,791,795,100000,795
2011/11/04,825,847,812,847,37700,847
2011/11/07,853,860,841,860,37500,860
2011/11/08,845,857,838,838,12800,838
2011/11/09,840,874,840,866,27400,866
2011/11/10,841,847,828,842,20200,842
2011/11/11,836,849,811,842,26200,842
2011/11/14,840,844,820,825,11400,825
2011/11/15,817,825,817,819,5300,819
2011/11/16,809,829,806,817,13600,817
2011/11/17,818,857,803,841,28500,841
2011/11/18,828,849,828,844,21000,844
2011/11/21,842,853,838,848,7600,848
2011/11/22,833,844,830,842,13400,842
2011/11/24,827,840,818,833,32100,833
2011/11/25,826,848,811,826,39100,826
2011/11/28,840,867,830,855,29900,855
2011/11/29,855,855,817,827,56300,827
2011/11/30,828,830,819,823,61300,823
2011/12/01,830,834,816,819,19200,819
2011/12/02,832,844,828,838,25000,838
2011/12/05,847,853,839,848,25100,848
2011/12/06,852,853,820,820,17200,820
2011/12/07,834,848,822,848,35100,848
2011/12/08,849,849,829,839,22600,839
2011/12/09,824,832,821,825,56800,825
2011/12/12,826,848,826,837,22400,837
2011/12/13,828,863,828,859,27900,859
2011/12/14,860,875,858,871,30000,871
2011/12/15,862,866,833,842,16900,842
2011/12/16,852,852,820,820,18500,820
2011/12/19,817,819,808,808,22200,808
2011/12/20,801,813,801,807,21800,807
2011/12/21,819,824,817,819,26700,819
2011/12/22,815,833,812,829,23800,829
2011/12/26,825,831,803,804,29400,804
2011/12/27,807,817,807,809,10300,809
2011/12/28,811,815,806,809,11500,809
2011/12/29,814,815,805,809,10800,809
2011/12/30,809,819,808,813,17700,813
2012/01/04,831,844,828,841,27100,841
2012/01/05,842,842,831,837,7000,837
2012/01/06,837,837,820,825,7500,825
2012/01/10,838,843,829,829,15800,829
2012/01/11,833,839,830,830,12400,830
2012/01/12,826,826,807,810,16700,810
2012/01/13,819,828,818,826,11600,826
2012/01/16,813,817,811,812,8200,812
2012/01/17,810,820,810,820,11100,820
2012/01/18,820,832,820,820,16700,820
2012/01/19,820,832,816,830,14600,830
2012/01/20,830,854,828,835,33000,835
2012/01/23,840,858,840,850,9100,850
2012/01/24,844,857,836,836,19800,836
2012/01/25,847,892,845,892,35600,892
2012/01/26,875,881,853,856,16200,856
2012/01/27,851,861,846,854,8100,854
2012/01/30,863,866,842,846,10600,846
2012/01/31,852,852,835,839,17300,839
2012/02/01,842,852,830,831,21300,831
2012/02/02,841,855,840,842,33900,842
2012/02/03,843,852,833,833,18400,833
2012/02/06,818,831,818,827,43900,827
2012/02/07,837,837,820,821,25000,821
2012/02/08,823,827,820,827,20200,827
2012/02/09,828,835,823,829,15500,829
2012/02/10,831,831,821,823,11600,823
2012/02/13,821,834,820,821,7500,821
2012/02/14,826,839,823,839,13700,839
2012/02/15,838,855,832,852,31400,852
2012/02/16,838,857,838,838,29300,838
2012/02/17,844,861,843,859,29100,859
2012/02/20,858,863,842,842,30000,842
2012/02/21,842,849,841,841,20100,841
2012/02/22,856,875,844,870,39100,870
2012/02/23,878,885,869,882,17100,882
2012/02/24,882,887,874,876,26300,876
2012/02/27,876,876,863,866,19500,866
2012/02/28,875,887,867,880,28700,880
2012/02/29,880,880,858,861,21400,861
2012/03/01,863,867,848,855,34000,855
2012/03/02,853,861,853,858,22800,858
2012/03/05,853,860,847,847,37100,847
2012/03/06,850,860,847,848,34200,848
2012/03/07,845,855,845,855,28800,855
2012/03/08,855,868,854,859,47200,859
2012/03/09,844,853,837,851,120600,851
2012/03/12,856,860,847,850,36800,850
2012/03/13,850,858,845,845,28100,845
2012/03/14,852,853,846,849,27600,849
2012/03/15,855,859,849,850,24900,850
2012/03/16,855,867,853,861,35900,861
2012/03/19,860,862,853,853,19200,853
2012/03/21,848,858,848,848,47100,848
2012/03/22,847,851,842,842,27700,842
2012/03/23,842,845,831,832,38600,832
2012/03/26,832,838,830,830,24200,830
2012/03/27,830,850,830,850,35700,850
2012/03/28,844,844,831,836,27400,836
2012/03/29,837,848,830,846,25200,846
2012/03/30,853,857,848,850,29800,850
2012/04/02,843,850,831,837,41900,837
2012/04/03,832,833,823,823,30600,823
2012/04/04,828,828,811,812,40000,812
2012/04/05,813,820,813,819,13700,819
2012/04/06,812,814,809,813,29900,813
2012/04/09,808,812,806,807,19200,807
2012/04/10,812,812,806,808,20900,808
2012/04/11,805,818,805,808,34000,808
2012/04/12,809,814,806,809,23700,809
2012/04/13,810,814,810,810,13400,810
2012/04/16,808,823,808,818,18000,818
2012/04/17,818,820,810,815,12400,815
2012/04/18,824,838,819,829,23000,829
2012/04/19,821,823,812,817,17900,817
2012/04/20,819,819,811,811,10000,811
2012/04/23,811,819,807,815,21000,815
2012/04/24,809,817,809,815,14000,815
2012/04/25,823,830,811,830,32700,830
2012/04/26,829,829,817,826,20500,826
2012/04/27,811,818,809,810,32300,810
2012/05/01,821,826,812,816,31500,816
2012/05/02,825,828,814,824,26100,824
2012/05/07,809,817,808,816,21600,816
2012/05/08,817,830,815,818,35900,818
2012/05/09,814,828,807,823,34500,823
2012/05/10,812,829,812,829,16900,829
2012/05/11,830,830,807,807,30800,807
2012/05/14,805,809,796,796,31200,796
2012/05/15,794,794,776,785,37700,785
2012/05/16,781,782,764,767,23100,767
2012/05/17,757,773,757,765,24400,765
2012/05/18,755,758,739,757,30400,757
2012/05/21,757,788,751,776,14600,776
2012/05/22,777,782,761,764,12700,764
2012/05/23,760,764,751,754,23500,754
2012/05/24,750,774,750,771,12200,771
2012/05/25,771,799,771,798,32100,798
2012/05/28,799,800,780,784,13200,784
2012/05/29,773,778,765,777,11100,777
2012/05/30,770,784,756,784,19700,784
2012/05/31,770,770,752,766,14300,766
2012/06/01,759,768,749,756,22800,756
2012/06/04,750,768,742,766,25400,766
2012/06/05,765,765,754,765,12700,765
2012/06/06,766,780,766,776,15800,776
2012/06/07,770,796,760,795,21000,795
2012/06/08,797,797,756,774,44400,774
2012/06/11,774,782,774,775,9200,775
2012/06/12,773,800,767,800,28500,800
2012/06/13,804,810,790,790,20700,790
2012/06/14,784,788,775,779,12400,779
2012/06/15,780,783,777,779,13200,779
2012/06/18,779,800,769,771,11600,771
2012/06/19,774,783,751,764,22400,764
2012/06/20,774,780,770,774,11900,774
2012/06/21,778,778,763,777,22600,777
2012/06/22,775,777,769,776,11300,776
2012/06/25,789,793,780,784,23000,784
2012/06/26,785,789,761,762,35300,762
2012/06/27,766,794,762,793,19900,793
2012/06/28,795,821,794,821,32700,821
2012/06/29,801,827,801,807,29600,807
2012/07/02,810,818,785,785,28900,785
2012/07/03,781,804,781,788,19700,788
2012/07/04,790,805,788,795,26200,795
2012/07/05,791,807,791,797,14700,797
2012/07/06,788,799,786,788,24800,788
2012/07/09,785,803,785,797,8500,797
2012/07/10,809,815,802,804,13600,804
2012/07/11,800,800,788,788,7300,788
2012/07/12,787,820,787,789,22400,789
2012/07/13,780,800,780,783,44800,783
2012/07/17,778,785,773,774,8600,774
2012/07/18,775,775,758,760,18000,760
2012/07/19,763,764,754,754,12900,754
2012/07/20,756,756,742,750,26100,750
2012/07/23,730,747,723,724,26500,724
2012/07/24,710,723,702,706,25800,706
2012/07/25,706,730,706,718,28500,718
2012/07/26,731,747,717,745,14900,745
2012/07/27,747,749,732,734,7300,734
2012/07/30,738,743,730,743,7300,743
2012/07/31,730,743,730,740,14900,740
2012/08/01,729,746,729,734,18700,734
2012/08/02,739,753,729,744,23500,744
2012/08/03,739,744,734,739,9900,739
2012/08/06,740,750,730,744,13400,744
2012/08/07,737,760,737,756,12200,756
2012/08/08,768,779,768,774,17200,774
2012/08/09,781,783,770,783,10900,783
2012/08/10,782,793,782,793,7900,793
2012/08/13,781,789,778,780,4700,780
2012/08/14,786,790,780,786,11800,786
2012/08/15,790,795,783,787,16200,787
2012/08/16,788,798,788,798,21500,798
2012/08/17,797,798,782,798,13700,798
2012/08/20,793,794,780,782,13000,782
2012/08/21,788,792,782,790,12400,790
2012/08/22,788,793,775,788,8900,788
2012/08/23,787,795,775,793,8000,793
2012/08/24,795,798,790,798,19400,798
2012/08/27,800,800,795,795,13100,795
2012/08/28,799,799,775,777,15300,777
2012/08/29,780,788,780,782,4900,782
2012/08/30,784,784,773,773,6500,773
2012/08/31,751,764,751,755,12300,755
2012/09/03,770,794,750,754,15700,754
2012/09/04,751,751,727,733,19600,733
2012/09/05,720,729,708,708,15200,708
2012/09/06,707,716,702,708,13600,708
2012/09/07,719,724,711,711,18200,711
2012/09/10,707,714,702,708,14900,708
2012/09/11,710,711,697,699,19500,699
2012/09/12,692,717,692,709,13300,709
2012/09/13,712,719,712,718,8600,718
2012/09/14,731,740,730,735,40000,735
2012/09/18,732,745,730,742,17400,742
2012/09/19,735,748,735,740,16900,740
2012/09/20,744,758,734,734,23100,734
2012/09/21,747,755,742,745,14900,745
2012/09/24,740,745,737,745,7900,745
2012/09/25,736,758,736,756,26500,756
2012/09/26,742,757,741,757,14800,757
2012/09/27,757,760,732,733,15300,733
2012/09/28,734,749,721,728,22000,728
2012/10/01,722,740,716,740,9900,740
2012/10/02,739,739,715,717,12900,717
2012/10/03,718,728,710,710,18800,710
2012/10/04,709,726,701,708,11400,708
2012/10/05,708,722,705,721,8900,721
2012/10/09,711,722,703,707,14000,707
2012/10/10,704,709,695,696,14000,696
2012/10/11,694,694,682,684,21300,684
2012/10/12,683,696,682,684,18400,684
2012/10/15,682,690,681,687,10700,687
2012/10/16,688,700,688,691,11100,691
2012/10/17,701,715,700,713,21000,713
2012/10/18,718,724,711,713,17100,713
2012/10/19,713,725,713,723,13500,723
2012/10/22,718,729,715,720,14200,720
2012/10/23,724,724,709,711,9100,711
2012/10/24,708,715,707,713,20500,713
2012/10/25,712,730,710,730,29600,730
2012/10/26,734,734,716,734,21500,734
2012/10/29,734,734,725,733,13700,733
2012/10/30,734,734,703,703,36000,703
2012/10/31,698,728,698,711,30700,711
2012/11/01,726,726,697,725,17700,725
2012/11/02,733,734,717,729,20500,729
2012/11/05,724,724,716,716,4000,716
2012/11/06,708,718,704,707,9500,707
2012/11/07,716,719,702,702,16900,702
2012/11/08,700,710,700,703,10900,703
2012/11/09,696,705,696,700,14500,700
2012/11/12,706,709,697,702,18200,702
2012/11/13,707,709,696,703,25700,703
2012/11/14,697,705,697,698,15100,698
2012/11/15,709,730,708,728,24200,728
2012/11/16,721,765,721,765,24800,765
2012/11/19,750,778,750,760,27700,760
2012/11/20,760,775,760,771,18000,771
2012/11/21,776,780,763,780,17800,780
2012/11/22,780,805,780,805,34100,805
2012/11/26,814,822,801,808,29500,808
2012/11/27,800,800,771,799,36700,799
2012/11/28,789,790,782,786,14500,786
2012/11/29,798,798,775,786,16800,786
2012/11/30,781,787,753,753,26300,753
2012/12/03,768,789,763,781,15900,781
2012/12/04,786,789,781,789,15300,789
2012/12/05,794,800,784,800,23800,800
2012/12/06,800,805,798,802,19900,802
2012/12/07,795,800,795,795,9500,795
2012/12/10,799,800,769,799,10500,799
2012/12/11,790,795,784,793,8300,793
2012/12/12,799,799,779,784,28600,784
2012/12/13,802,802,773,773,42400,773
2012/12/14,750,775,750,756,86400,756
2012/12/17,771,781,770,770,25100,770
2012/12/18,781,798,778,778,29700,778
2012/12/19,793,800,787,800,51800,800
2012/12/20,800,800,789,790,48100,790
2012/12/21,789,799,789,799,39000,799
2012/12/25,807,833,807,825,36400,825
2012/12/26,820,826,814,816,19500,816
2012/12/27,826,828,813,815,23900,815
2012/12/28,817,817,803,803,17900,803
2013/01/04,826,827,815,820,36500,820
2013/01/07,820,825,806,810,37500,810
2013/01/08,809,811,804,806,21100,806
2013/01/09,805,840,802,811,42500,811
2013/01/10,809,838,808,837,22700,837
2013/01/11,842,844,830,836,43500,836
2013/01/15,835,850,834,837,55400,837
2013/01/16,839,844,833,838,26000,838
2013/01/17,837,843,825,837,35000,837
2013/01/18,848,849,832,841,49700,841
2013/01/21,846,848,834,846,23300,846
2013/01/22,850,855,833,835,54600,835
2013/01/23,831,838,830,833,40000,833
2013/01/24,830,830,821,823,36000,823
2013/01/25,838,844,827,844,49400,844
2013/01/28,846,849,831,831,38300,831
2013/01/29,832,843,828,832,45200,832
2013/01/30,840,846,837,837,67600,837
2013/01/31,835,844,828,828,70800,828
2013/02/01,829,842,828,835,80200,835
2013/02/04,832,838,824,833,53700,833
2013/02/05,828,833,815,815,55800,815
2013/02/06,830,843,826,829,98900,829
2013/02/07,830,841,829,834,68500,834
2013/02/08,840,840,827,833,75700,833
2013/02/12,835,837,830,830,90900,830
2013/02/13,830,833,818,820,69300,820
2013/02/14,816,855,816,840,92100,840
2013/02/15,841,849,831,837,50900,837
2013/02/18,840,854,836,854,33900,854
2013/02/19,855,888,855,888,72800,888
2013/02/20,900,932,898,932,105300,932
2013/02/21,931,958,925,948,87300,948
2013/02/22,946,947,904,941,77500,941
2013/02/25,960,998,960,991,100700,991
2013/02/26,961,991,961,981,66200,981
2013/02/27,981,1008,981,996,55300,996
2013/02/28,1008,1010,999,1009,44300,1009
2013/03/01,1010,1019,991,1015,93200,1015
2013/03/04,1025,1046,1020,1026,58800,1026
2013/03/05,1032,1039,1004,1016,52700,1016
2013/03/06,1017,1030,976,987,63100,987
2013/03/07,980,989,963,979,70900,979
2013/03/08,950,985,950,970,113000,970
2013/03/11,985,1010,980,1008,56400,1008
2013/03/12,994,1002,964,980,42600,980
2013/03/13,980,981,968,975,32500,975
2013/03/14,975,990,967,985,33300,985
2013/03/15,986,1002,985,999,30600,999
2013/03/18,999,999,987,989,24600,989
2013/03/19,988,990,980,981,27600,981
2013/03/21,981,998,978,978,55700,978
2013/03/22,981,992,940,940,47300,940
2013/03/25,977,977,949,949,41600,949
2013/03/26,950,955,920,943,53300,943
2013/03/27,943,960,943,952,25000,952
2013/03/28,956,964,918,945,58100,945
2013/03/29,953,953,910,923,42500,923
2013/04/01,928,930,886,890,28400,890
2013/04/02,881,889,871,874,52300,874
2013/04/03,866,904,866,901,21900,901
2013/04/04,901,975,891,968,44000,968
2013/04/05,974,995,971,987,62300,987
2013/04/08,987,1007,967,1007,79400,1007
2013/04/09,1000,1006,981,983,41900,983
2013/04/10,986,1000,985,1000,28600,1000
2013/04/11,1000,1019,996,1012,45800,1012
2013/04/12,995,1004,984,992,24800,992
2013/04/15,987,988,975,981,19600,981
2013/04/16,970,980,955,955,47100,955
2013/04/17,968,974,958,969,20800,969
2013/04/18,962,980,946,974,37100,974
2013/04/19,974,974,951,957,24400,957
2013/04/22,968,983,968,975,13700,975
2013/04/23,976,981,972,977,19400,977
2013/04/24,980,982,964,976,43600,976
2013/04/25,982,995,980,988,50700,988
2013/04/26,998,1000,985,986,41200,986
2013/04/30,986,998,986,990,32900,990
2013/05/01,980,989,978,983,31300,983
2013/05/02,988,989,980,984,13900,984
2013/05/07,994,1019,994,1010,65200,1010
2013/05/08,1010,1035,1004,1030,72800,1030
2013/05/09,1032,1032,1013,1014,25100,1014
2013/05/10,1030,1032,1022,1029,32200,1029
2013/05/13,1032,1034,1017,1021,35800,1021
2013/05/14,1020,1036,1020,1026,27100,1026
2013/05/15,1043,1054,1041,1045,34600,1045
2013/05/16,1062,1075,1041,1075,60700,1075
2013/05/17,1080,1090,1077,1081,71500,1081
2013/05/20,1100,1127,1100,1118,54700,1118
2013/05/21,1155,1173,1141,1168,64800,1168
2013/05/22,1165,1179,1114,1152,63500,1152
2013/05/23,1150,1153,1012,1021,171300,1021
2013/05/24,1030,1172,1026,1060,294500,1060
2013/05/27,1072,1074,1032,1034,111700,1034
2013/05/28,1031,1040,1008,1015,66200,1015
2013/05/29,1032,1051,1009,1036,46800,1036
2013/05/30,1033,1033,985,985,79400,985
2013/05/31,992,1020,972,980,62300,980
2013/06/03,980,992,960,962,43800,962
2013/06/04,955,989,950,987,57700,987
2013/06/05,975,1001,950,950,45500,950
2013/06/06,941,950,920,928,67400,928
2013/06/07,920,937,902,912,40900,912
2013/06/10,957,981,950,968,29100,968
2013/06/11,960,979,950,963,39200,963
2013/06/12,961,990,945,979,32100,979
2013/06/13,955,959,908,909,47100,909
2013/06/14,918,931,897,897,141200,897
2013/06/17,902,929,902,912,44900,912
2013/06/18,942,951,923,940,57800,940
2013/06/19,951,964,921,926,39000,926
2013/06/20,928,937,911,921,63600,921
2013/06/21,910,938,903,925,52800,925
2013/06/24,922,932,910,915,27400,915
2013/06/25,910,916,896,910,47400,910
2013/06/26,925,925,884,887,25500,887
2013/06/27,902,945,899,945,45700,945
2013/06/28,960,976,945,976,43900,976
2013/07/01,971,977,955,976,21400,976
2013/07/02,978,990,968,990,25700,990
2013/07/03,979,990,974,974,33000,974
2013/07/04,972,985,970,983,12500,983
2013/07/05,988,995,985,995,21600,995
2013/07/08,1001,1010,1001,1005,30700,1005
2013/07/09,1013,1020,1007,1014,31700,1014
2013/07/10,1020,1029,1012,1015,17100,1015
2013/07/11,1017,1024,1001,1022,10000,1022
2013/07/12,1016,1025,1014,1024,17000,1024
2013/07/16,1019,1030,1013,1015,14300,1015
2013/07/17,1018,1040,1016,1032,20200,1032
2013/07/18,1037,1065,1035,1062,27100,1062
2013/07/19,1062,1063,1034,1035,46300,1035
2013/07/22,1035,1064,1035,1061,29100,1061
2013/07/23,1064,1088,1057,1084,66100,1084
2013/07/24,1200,1229,1124,1173,288500,1173
2013/07/25,1173,1224,1154,1213,212700,1213
2013/07/26,1190,1198,1160,1166,68100,1166
2013/07/29,1111,1143,1107,1120,73000,1120
2013/07/30,1109,1164,1101,1150,96900,1150
2013/07/31,1151,1241,1130,1215,168700,1215
2013/08/01,1202,1270,1200,1245,128900,1245
2013/08/02,1228,1250,1223,1249,104300,1249
2013/08/05,1230,1259,1221,1245,73900,1245
2013/08/06,1245,1299,1225,1293,90800,1293
2013/08/07,1267,1289,1249,1249,47200,1249
2013/08/08,1245,1286,1225,1227,100100,1227
2013/08/09,1228,1263,1228,1253,80800,1253
2013/08/12,1254,1296,1246,1286,101000,1286
2013/08/13,1286,1309,1247,1286,81000,1286
2013/08/14,1290,1298,1250,1288,56600,1288
2013/08/15,1289,1299,1265,1270,72300,1270
2013/08/16,1260,1270,1255,1264,80300,1264
2013/08/19,1264,1284,1262,1275,46200,1275
2013/08/20,1278,1303,1270,1294,68500,1294
2013/08/21,1282,1294,1143,1168,184300,1168
2013/08/22,1193,1222,1189,1209,115300,1209
2013/08/23,1249,1290,1230,1242,156300,1242
2013/08/26,1236,1243,1209,1226,48700,1226
2013/08/27,1210,1226,1205,1209,39000,1209
2013/08/28,1149,1189,1141,1175,60900,1175
2013/08/29,1175,1211,1175,1209,57100,1209
2013/08/30,1209,1220,1185,1187,56700,1187
2013/09/02,1200,1239,1199,1221,51000,1221
2013/09/03,1191,1210,1175,1192,133900,1192
2013/09/04,1195,1229,1190,1228,67800,1228
2013/09/05,1230,1242,1215,1239,41000,1239
2013/09/06,1229,1234,1211,1224,38900,1224
2013/09/09,1257,1284,1244,1252,142200,1252
2013/09/10,1270,1330,1266,1324,102500,1324
2013/09/11,1333,1335,1296,1307,83400,1307
2013/09/12,1320,1332,1300,1319,47000,1319
2013/09/13,1318,1371,1312,1359,131800,1359
2013/09/17,1361,1378,1345,1347,54200,1347
2013/09/18,1340,1340,1310,1318,55600,1318
2013/09/19,1329,1357,1329,1349,83200,1349
2013/09/20,1343,1365,1331,1363,62700,1363
2013/09/24,1350,1360,1332,1354,46600,1354
2013/09/25,1350,1350,1306,1341,57200,1341
2013/09/26,1330,1380,1307,1374,77100,1374
2013/09/27,1368,1393,1342,1377,110800,1377
2013/09/30,1381,1392,1369,1371,84300,1371
2013/10/01,1376,1415,1364,1396,90900,1396
2013/10/02,1385,1394,1330,1334,96400,1334
2013/10/03,1335,1428,1335,1412,175400,1412
2013/10/04,1400,1405,1351,1355,104700,1355
2013/10/07,1341,1353,1290,1328,85800,1328
2013/10/08,1319,1349,1300,1338,88000,1338
2013/10/09,1330,1339,1310,1323,65000,1323
2013/10/10,1323,1324,1286,1296,99100,1296
2013/10/11,1310,1338,1297,1327,182300,1327
2013/10/15,1347,1392,1347,1378,80000,1378
2013/10/16,1390,1415,1378,1413,77900,1413
2013/10/17,1429,1461,1428,1444,105100,1444
2013/10/18,1443,1459,1431,1447,83600,1447
2013/10/21,1458,1468,1444,1449,30700,1449
2013/10/22,1450,1457,1434,1454,36900,1454
2013/10/23,1456,1468,1411,1418,75100,1418
2013/10/24,1418,1447,1401,1442,50100,1442
2013/10/25,1450,1450,1401,1419,72000,1419
2013/10/28,1396,1466,1396,1459,75500,1459
2013/10/29,1472,1692,1472,1640,397000,1640
2013/10/30,1562,1608,1562,1581,196100,1581
2013/10/31,1581,1679,1568,1617,197200,1617
2013/11/01,1610,1620,1580,1599,84500,1599
2013/11/05,1600,1620,1567,1588,105600,1588
2013/11/06,1563,1588,1555,1561,49300,1561
2013/11/07,1561,1567,1506,1508,119700,1508
2013/11/08,1508,1561,1507,1543,89500,1543
2013/11/11,1575,1592,1521,1536,84300,1536
2013/11/12,1533,1576,1521,1573,62600,1573
2013/11/13,1586,1619,1557,1560,193600,1560
2013/11/14,1569,1593,1545,1579,77600,1579
2013/11/15,1595,1661,1576,1644,163400,1644
2013/11/18,1644,1699,1620,1658,147000,1658
2013/11/19,1658,1733,1658,1695,175400,1695
2013/11/20,1695,1728,1666,1688,141800,1688
2013/11/21,1704,1793,1698,1766,325100,1766
2013/11/22,1779,1787,1741,1782,186400,1782
2013/11/25,1770,1785,1728,1763,117300,1763
2013/11/26,1761,1799,1753,1767,127300,1767
2013/11/27,1755,1765,1727,1733,130700,1733
2013/11/28,1753,1775,1738,1762,111600,1762
2013/11/29,1741,1770,1728,1752,127200,1752
2013/12/02,1735,1750,1725,1739,58400,1739
2013/12/03,1758,1791,1742,1771,144900,1771
2013/12/04,1774,1793,1751,1756,89000,1756
2013/12/05,1757,1774,1744,1749,122200,1749
2013/12/06,1740,1829,1730,1823,238000,1823
2013/12/09,1845,1879,1830,1843,140800,1843
2013/12/10,1818,1826,1790,1818,197500,1818
2013/12/11,1835,1882,1823,1866,211400,1866
2013/12/12,1868,1904,1863,1895,180300,1895
2013/12/13,1864,1904,1854,1875,267300,1875
2013/12/16,1849,1860,1799,1801,108600,1801
2013/12/17,1809,1845,1799,1813,110600,1813
2013/12/18,1831,1849,1830,1835,156500,1835
2013/12/19,1840,1841,1813,1823,157400,1823
2013/12/20,1828,1853,1813,1819,136600,1819
2013/12/24,1801,1848,1800,1821,118300,1821
2013/12/25,1834,1868,1832,1855,134700,1855
2013/12/26,1879,1890,1855,1882,122500,1882
2013/12/27,1900,1928,1890,1910,171200,1910
2013/12/30,1950,1950,1902,1910,95000,1910
2014/01/06,1910,1919,1870,1891,103900,1891
2014/01/07,1910,1923,1883,1890,115500,1890
2014/01/08,1925,1925,1898,1921,121400,1921
2014/01/09,1925,1926,1908,1920,127400,1920
2014/01/10,1912,1919,1870,1900,108400,1900
2014/01/14,1875,1877,1843,1846,84900,1846
2014/01/15,1847,1879,1834,1876,60700,1876
2014/01/16,1876,1883,1819,1824,112900,1824
2014/01/17,1825,1871,1815,1864,109900,1864
2014/01/20,1864,1879,1842,1851,67700,1851
2014/01/21,1860,1890,1842,1845,98600,1845
2014/01/22,1839,1860,1820,1847,71300,1847
2014/01/23,1857,1857,1806,1806,109100,1806
2014/01/24,1769,1790,1749,1772,122200,1772
2014/01/27,1685,1753,1685,1713,111100,1713
2014/01/28,1704,1735,1693,1713,131300,1713
2014/01/29,1913,1950,1826,1867,453500,1867
2014/01/30,1840,1842,1791,1801,182900,1801
2014/01/31,1789,1844,1786,1834,186800,1834
2014/02/03,1816,1844,1787,1812,94800,1812
2014/02/04,1770,1799,1666,1667,140000,1667
2014/02/05,1673,1745,1673,1733,139900,1733
2014/02/06,1713,1739,1677,1684,120000,1684
2014/02/07,1705,1732,1699,1724,74600,1724
2014/02/10,1750,1762,1711,1738,51700,1738
2014/02/12,1749,1766,1743,1755,37100,1755
2014/02/13,1758,1776,1707,1710,60500,1710
2014/02/14,1710,1738,1663,1663,82400,1663
2014/02/17,1661,1689,1627,1682,54400,1682
2014/02/18,1689,1731,1663,1719,74900,1719
2014/02/19,1702,1720,1672,1676,84300,1676
2014/02/20,1660,1680,1623,1638,87600,1638
2014/02/21,1639,1683,1639,1678,71800,1678
2014/02/24,1678,1695,1634,1642,56400,1642
2014/02/25,1675,1693,1665,1689,49200,1689
2014/02/26,1653,1656,1625,1637,108200,1637
2014/02/27,1617,1639,1605,1625,69400,1625
2014/02/28,1623,1643,1610,1632,91700,1632
2014/03/03,1640,1649,1599,1613,70000,1613
2014/03/04,1612,1657,1600,1654,118900,1654
2014/03/05,1669,1680,1635,1641,79800,1641
2014/03/06,1636,1689,1636,1678,70700,1678
2014/03/07,1699,1715,1670,1685,69300,1685
2014/03/10,1700,1717,1686,1709,100500,1709
2014/03/11,1724,1738,1703,1723,81700,1723
2014/03/12,1707,1707,1667,1668,51000,1668
2014/03/13,1669,1688,1667,1671,39900,1671
2014/03/14,1635,1650,1605,1607,130000,1607
2014/03/17,1598,1605,1569,1573,65600,1573
2014/03/18,1611,1648,1599,1637,69100,1637
2014/03/19,1641,1641,1591,1606,71800,1606
2014/03/20,1595,1616,1559,1567,73400,1567
2014/03/24,1596,1732,1596,1667,160100,1667
2014/03/25,1680,1712,1668,1691,150800,1691
2014/03/26,1697,1740,1697,1723,284300,1723
2014/03/27,1705,1736,1669,1733,122100,1733
2014/03/28,1732,1784,1712,1771,187300,1771
2014/03/31,1782,1813,1721,1784,191400,1784
2014/04/01,1786,1834,1785,1804,180000,1804
2014/04/02,1820,1835,1784,1787,184600,1787
2014/04/03,1806,1843,1806,1811,160600,1811
2014/04/04,1811,1811,1734,1745,156200,1745
2014/04/07,1714,1730,1693,1706,126300,1706
2014/04/08,1694,1698,1654,1655,91600,1655
2014/04/09,1650,1659,1634,1641,86100,1641
2014/04/10,1650,1677,1616,1620,65600,1620
2014/04/11,1593,1604,1575,1584,56400,1584
2014/04/14,1584,1602,1572,1575,36400,1575
2014/04/15,1588,1590,1566,1579,58200,1579
2014/04/16,1590,1627,1590,1620,55200,1620
2014/04/17,1622,1629,1601,1614,52400,1614
2014/04/18,1617,1643,1612,1643,31800,1643
2014/04/21,1651,1652,1616,1617,30300,1617
2014/04/22,1639,1639,1600,1600,56100,1600
2014/04/23,1627,1629,1592,1606,37600,1606
2014/04/24,1606,1616,1583,1604,25600,1604
2014/04/25,1605,1645,1600,1620,64400,1620
2014/04/28,1610,1614,1570,1614,69500,1614
2014/04/30,1547,1563,1441,1460,251800,1460
2014/05/01,1453,1495,1444,1468,121500,1468
2014/05/02,1478,1495,1469,1494,63300,1494
2014/05/07,1481,1481,1444,1463,102300,1463
2014/05/08,1471,1491,1466,1481,63000,1481
2014/05/09,1478,1497,1464,1487,53400,1487
2014/05/12,1478,1495,1473,1478,55200,1478
2014/05/13,1495,1519,1483,1512,52600,1512
2014/05/14,1521,1523,1498,1518,48800,1518
2014/05/15,1484,1484,1454,1464,43600,1464
2014/05/16,1446,1446,1401,1410,82600,1410
2014/05/19,1424,1440,1400,1411,83500,1411
2014/05/20,1430,1430,1412,1418,48300,1418
2014/05/21,1420,1424,1395,1414,40900,1414
2014/05/22,1405,1427,1390,1418,65500,1418
2014/05/23,1420,1438,1408,1412,62600,1412
2014/05/26,1430,1458,1424,1457,55900,1457
2014/05/27,1470,1481,1463,1473,65100,1473
2014/05/28,1498,1515,1488,1501,65000,1501
2014/05/29,1497,1509,1486,1488,38500,1488
2014/05/30,1481,1494,1463,1468,32800,1468
2014/06/02,1480,1515,1468,1486,50000,1486
2014/06/03,1510,1515,1494,1502,34100,1502
2014/06/04,1490,1500,1481,1492,36000,1492
2014/06/05,1510,1510,1483,1505,51300,1505
2014/06/06,1501,1506,1477,1479,65900,1479
2014/06/09,1485,1486,1462,1480,60500,1480
2014/06/10,1490,1518,1487,1506,81800,1506
2014/06/11,1501,1501,1462,1480,78900,1480
2014/06/12,1473,1473,1453,1469,26600,1469
2014/06/13,1498,1498,1458,1482,85700,1482
2014/06/16,1473,1479,1459,1462,39800,1462
2014/06/17,1468,1487,1465,1478,46700,1478
2014/06/18,1478,1508,1475,1495,53700,1495
2014/06/19,1525,1546,1520,1538,89900,1538
2014/06/20,1531,1545,1517,1535,49500,1535
2014/06/23,1533,1537,1507,1511,29500,1511
2014/06/24,1518,1555,1512,1555,42100,1555
2014/06/25,1557,1592,1557,1576,70700,1576
2014/06/26,1582,1585,1555,1566,50200,1566
2014/06/27,1560,1573,1523,1541,27000,1541
2014/06/30,1545,1598,1545,1593,63300,1593
2014/07/01,1598,1598,1573,1590,62400,1590
2014/07/02,1575,1609,1560,1605,50100,1605
2014/07/03,1609,1610,1580,1592,32200,1592
2014/07/04,1602,1602,1565,1578,36300,1578
2014/07/07,1578,1590,1554,1560,36900,1560
2014/07/08,1548,1569,1534,1553,44300,1553
2014/07/09,1535,1551,1530,1546,71600,1546
2014/07/10,1559,1559,1513,1514,39300,1514
2014/07/11,1480,1507,1477,1500,37200,1500
2014/07/14,1481,1511,1481,1508,14600,1508
2014/07/15,1490,1528,1490,1526,42000,1526
2014/07/16,1517,1538,1516,1523,41500,1523
2014/07/17,1517,1521,1500,1516,37500,1516
2014/07/18,1490,1493,1475,1484,53400,1484
2014/07/22,1500,1527,1490,1522,48500,1522
2014/07/23,1522,1565,1522,1544,42500,1544
2014/07/24,1553,1569,1539,1555,49100,1555
2014/07/25,1567,1615,1567,1604,71000,1604
2014/07/28,1610,1625,1599,1624,57500,1624
2014/07/29,1641,1646,1540,1644,56400,1644
2014/07/30,1644,1644,1597,1630,118300,1630
2014/07/31,1620,1673,1605,1665,107600,1665
2014/08/01,1625,1642,1600,1606,80800,1606
2014/08/04,1607,1611,1584,1593,47100,1593
2014/08/05,1580,1593,1563,1564,51900,1564
2014/08/06,1560,1578,1554,1558,40200,1558
2014/08/07,1550,1557,1525,1541,47200,1541
2014/08/08,1519,1544,1503,1510,51400,1510
2014/08/11,1519,1552,1519,1549,18600,1549
2014/08/12,1555,1567,1550,1555,25300,1555
2014/08/13,1545,1569,1545,1563,26300,1563
2014/08/14,1577,1610,1574,1602,39800,1602
2014/08/15,1602,1625,1598,1603,64300,1603
2014/08/18,1591,1614,1571,1601,48400,1601
2014/08/19,1615,1616,1588,1595,28900,1595
2014/08/20,1595,1610,1583,1584,23800,1584
2014/08/21,1587,1664,1585,1662,88900,1662
2014/08/22,1668,1699,1668,1690,126100,1690
2014/08/25,1694,1699,1655,1670,38800,1670
2014/08/26,1670,1670,1642,1646,62500,1646
2014/08/27,1646,1695,1646,1684,97100,1684
2014/08/28,1675,1684,1659,1667,35800,1667
2014/08/29,1653,1684,1653,1671,46700,1671
2014/09/01,1662,1676,1662,1676,34000,1676
2014/09/02,1676,1677,1665,1672,76400,1672
2014/09/03,1676,1682,1665,1672,44600,1672
2014/09/04,1675,1675,1645,1648,32000,1648
2014/09/05,1655,1655,1603,1625,35600,1625
2014/09/08,1640,1660,1625,1648,44200,1648
2014/09/09,1675,1700,1629,1694,90400,1694
2014/09/10,1681,1733,1665,1729,89700,1729
2014/09/11,1750,1750,1708,1720,38500,1720
2014/09/12,1800,1857,1768,1774,304600,1774
2014/09/16,1761,1769,1743,1743,49700,1743
2014/09/17,1765,1769,1747,1747,31700,1747
2014/09/18,1752,1792,1752,1790,58000,1790
2014/09/19,1800,1837,1791,1833,107200,1833
2014/09/22,1816,1830,1781,1791,23400,1791
2014/09/24,1785,1819,1785,1814,58400,1814
2014/09/25,1822,1846,1811,1846,76600,1846
2014/09/26,1798,1846,1798,1819,43200,1819
2014/09/29,1839,1839,1800,1812,19200,1812
2014/09/30,1798,1812,1771,1795,42400,1795
2014/10/01,1812,1812,1746,1750,64500,1750
2014/10/02,1710,1710,1653,1655,81000,1655
2014/10/03,1651,1695,1651,1671,40500,1671
2014/10/06,1671,1684,1666,1677,34700,1677
2014/10/07,1688,1694,1635,1635,56100,1635
2014/10/08,1624,1639,1609,1627,45900,1627
2014/10/09,1640,1645,1601,1601,38100,1601
2014/10/10,1580,1615,1580,1599,73500,1599
2014/10/14,1550,1620,1550,1599,79900,1599
2014/10/15,1575,1629,1575,1611,38000,1611
2014/10/16,1580,1581,1528,1531,37800,1531
2014/10/17,1531,1555,1500,1502,47200,1502
2014/10/20,1535,1577,1535,1575,23500,1575
2014/10/21,1556,1574,1530,1536,27600,1536
2014/10/22,1566,1626,1566,1625,36400,1625
2014/10/23,1603,1627,1602,1617,35700,1617
2014/10/24,1645,1653,1635,1645,23800,1645
2014/10/27,1645,1671,1638,1669,19200,1669
2014/10/28,1660,1665,1643,1655,15000,1655
2014/10/29,1679,1703,1667,1698,60100,1698
2014/10/30,1759,1798,1733,1760,268200,1760
2014/10/31,1698,1785,1683,1759,137400,1759
2014/11/04,1812,1920,1809,1854,203100,1854
2014/11/05,1853,1884,1839,1876,78600,1876
2014/11/06,1888,1900,1851,1852,88200,1852
2014/11/07,1880,1880,1849,1855,31000,1855
2014/11/10,1860,1863,1844,1855,32300,1855
2014/11/11,1855,1875,1840,1868,49900,1868
2014/11/12,1877,1877,1844,1863,50700,1863
2014/11/13,1848,1875,1843,1870,43900,1870
2014/11/14,1900,1924,1867,1886,92600,1886
2014/11/17,1898,1910,1832,1841,77000,1841
2014/11/18,1859,1920,1859,1920,84700,1920
2014/11/19,1910,1913,1855,1857,78100,1857
2014/11/20,1840,1840,1811,1812,50400,1812
2014/11/21,1823,1828,1790,1821,38300,1821
2014/11/25,1824,1839,1779,1797,63400,1797
2014/11/26,1786,1806,1780,1782,45100,1782
2014/11/27,1782,1810,1740,1741,69600,1741
2014/11/28,1763,1775,1743,1747,53400,1747
2014/12/01,1747,1752,1717,1731,60100,1731
2014/12/02,1716,1770,1703,1765,64500,1765
2014/12/03,1770,1815,1770,1800,49500,1800
2014/12/04,1836,1893,1831,1863,128800,1863
2014/12/05,1882,1888,1855,1887,78100,1887
2014/12/08,1888,1918,1863,1878,40600,1878
2014/12/09,1867,1867,1843,1847,33400,1847
2014/12/10,1812,1834,1800,1806,37900,1806
2014/12/11,1783,1821,1766,1807,54000,1807
2014/12/12,1785,1837,1782,1818,79800,1818
2014/12/15,1785,1816,1761,1764,49600,1764
2014/12/16,1750,1760,1730,1730,52900,1730
2014/12/17,1722,1820,1722,1804,100800,1804
2014/12/18,1830,1853,1801,1808,73700,1808
2014/12/19,1826,1839,1778,1816,85700,1816
2014/12/22,1791,1814,1766,1812,49700,1812
2014/12/24,1820,1835,1808,1811,84900,1811
2014/12/25,1798,1854,1798,1842,45200,1842
2014/12/26,1842,1888,1839,1884,62500,1884
2014/12/29,1882,1890,1863,1885,32900,1885
2014/12/30,1880,1890,1862,1871,34800,1871
2015/01/05,1871,1882,1858,1865,32300,1865
2015/01/06,1840,1845,1790,1792,72100,1792
2015/01/07,1760,1792,1760,1785,46700,1785
2015/01/08,1785,1842,1785,1834,53200,1834
2015/01/09,1822,1859,1822,1854,52400,1854
2015/01/13,1829,1842,1796,1824,57700,1824
2015/01/14,1800,1822,1781,1787,25300,1787
2015/01/15,1783,1799,1766,1778,58900,1778
2015/01/16,1763,1776,1738,1751,57500,1751
2015/01/19,1769,1795,1752,1790,40600,1790
2015/01/20,1801,1862,1771,1862,60300,1862
2015/01/21,1862,1862,1821,1848,55000,1848
2015/01/22,1838,1853,1805,1839,44800,1839
2015/01/23,1850,1876,1844,1870,38200,1870
2015/01/26,1844,1861,1844,1853,14800,1853
2015/01/27,1871,1903,1868,1903,55400,1903
2015/01/28,1892,1933,1889,1928,57300,1928
2015/01/29,1917,1923,1895,1904,28900,1904
2015/01/30,1900,1915,1890,1908,36700,1908
2015/02/02,1873,1873,1816,1828,51600,1828
2015/02/03,1820,1829,1783,1789,55900,1789
2015/02/04,1820,1852,1808,1839,37100,1839
2015/02/05,1841,1842,1801,1809,18300,1809
2015/02/06,1840,1840,1803,1808,21100,1808
2015/02/09,1848,1848,1818,1823,13500,1823
2015/02/10,1838,1859,1825,1849,41600,1849
2015/02/12,1885,1936,1873,1923,94100,1923
2015/02/13,1940,1947,1911,1943,73300,1943
2015/02/16,1940,1955,1929,1931,60400,1931
2015/02/17,1954,2024,1952,2016,123700,2016
2015/02/18,2050,2063,2002,2007,89300,2007
2015/02/19,2000,2055,2000,2046,83900,2046
2015/02/20,2050,2060,2027,2045,76900,2045
2015/02/23,2050,2050,1991,2006,56600,2006
2015/02/24,2020,2029,1975,1984,76000,1984
2015/02/25,1968,2014,1968,1999,38400,1999
2015/02/26,2010,2051,2000,2048,49600,2048
2015/02/27,2050,2070,2035,2052,88500,2052
2015/03/02,2302,2385,2220,2257,287500,2257
2015/03/03,2265,2291,2248,2255,146900,2255
2015/03/04,2250,2272,2246,2250,103700,2250
2015/03/05,2250,2275,2227,2230,159000,2230
2015/03/06,2209,2226,2201,2206,117500,2206
2015/03/09,2200,2224,2190,2199,41500,2199
2015/03/10,2209,2240,2204,2221,103900,2221
2015/03/11,2222,2273,2222,2262,100700,2262
2015/03/12,2270,2349,2262,2346,128600,2346
2015/03/13,2498,2498,2431,2451,229500,2451
2015/03/16,2448,2469,2424,2461,96100,2461
2015/03/17,2465,2495,2455,2479,140800,2479
2015/03/18,2468,2485,2436,2474,125500,2474
2015/03/19,2481,2499,2445,2468,135700,2468
2015/03/20,2490,2490,2460,2477,85700,2477
2015/03/23,2457,2484,2448,2462,119400,2462
2015/03/24,2461,2485,2450,2460,66500,2460
2015/03/25,2451,2456,2402,2423,93300,2423
2015/03/26,2424,2451,2396,2438,107600,2438
2015/03/27,2348,2418,2348,2386,114600,2386
2015/03/30,2361,2377,2301,2375,121600,2375
2015/03/31,2376,2400,2335,2342,113600,2342
2015/04/01,2285,2295,2255,2276,123900,2276
2015/04/02,2242,2326,2238,2305,89000,2305
2015/04/03,2289,2348,2289,2343,58000,2343
2015/04/06,2315,2321,2286,2290,69400,2290
2015/04/07,2286,2304,2263,2270,186700,2270
2015/04/08,2290,2344,2281,2323,111400,2323
2015/04/09,2323,2390,2322,2377,86800,2377
2015/04/10,2396,2396,2343,2352,81800,2352
2015/04/13,2384,2442,2371,2411,129300,2411
2015/04/14,2377,2466,2377,2445,112400,2445
2015/04/15,2413,2464,2413,2445,100300,2445
2015/04/16,2446,2460,2394,2423,246500,2423
2015/04/17,2400,2406,2382,2387,54900,2387
2015/04/20,2350,2372,2262,2346,104600,2346
2015/04/21,2311,2319,2288,2301,155500,2301
2015/04/22,2316,2325,2301,2316,72900,2316
2015/04/23,2320,2326,2288,2304,84300,2304
2015/04/24,2303,2316,2290,2303,61800,2303
2015/04/27,2319,2326,2297,2323,46700,2323
2015/04/28,2324,2341,2271,2316,197700,2316
2015/04/30,2230,2325,2221,2288,181300,2288
2015/05/01,2260,2346,2260,2327,106400,2327
2015/05/07,2300,2368,2300,2318,73600,2318
2015/05/08,2299,2315,2251,2295,132800,2295
2015/05/11,2342,2377,2338,2341,81500,2341
2015/05/12,2314,2398,2314,2393,92200,2393
2015/05/13,2393,2424,2368,2417,75100,2417
2015/05/14,2384,2452,2384,2423,109100,2423
2015/05/15,2450,2455,2364,2385,49000,2385
2015/05/18,2385,2428,2385,2422,48700,2422
2015/05/19,2422,2450,2401,2409,48500,2409
2015/05/20,2409,2421,2374,2388,68300,2388
2015/05/21,2387,2409,2375,2393,48300,2393
2015/05/22,2393,2430,2392,2414,44200,2414
2015/05/25,2414,2447,2406,2420,40300,2420
2015/05/26,2400,2408,2377,2396,41400,2396
2015/05/27,2386,2405,2370,2394,127000,2394
2015/05/28,2390,2400,2375,2394,188700,2394
2015/05/29,2381,2390,2358,2385,68700,2385
2015/06/01,2384,2433,2383,2421,77200,2421
2015/06/02,2400,2414,2376,2410,51600,2410
2015/06/03,2400,2444,2391,2430,62900,2430
2015/06/04,2430,2475,2427,2448,71100,2448
2015/06/05,2448,2483,2439,2476,102700,2476
2015/06/08,2461,2466,2435,2443,39800,2443
2015/06/09,2425,2427,2399,2404,84400,2404
2015/06/10,2404,2444,2404,2413,63400,2413
2015/06/11,2413,2440,2384,2393,81400,2393
2015/06/12,2412,2444,2401,2408,133800,2408
2015/06/15,2408,2408,2355,2376,54300,2376
2015/06/16,2376,2380,2330,2351,63200,2351
2015/06/17,2371,2375,2332,2335,41400,2335
2015/06/18,2335,2352,2324,2325,35700,2325
2015/06/19,2320,2356,2320,2327,56900,2327
2015/06/22,2310,2363,2310,2354,57800,2354
2015/06/23,2387,2424,2368,2395,142300,2395
2015/06/24,2429,2494,2408,2451,179700,2451
2015/06/25,2486,2498,2430,2480,140800,2480
2015/06/26,2450,2483,2432,2469,88800,2469
2015/06/29,2419,2440,2378,2378,153000,2378
2015/06/30,2392,2405,2326,2349,120500,2349
2015/07/01,2379,2383,2335,2372,43900,2372
