2011/01/04,674,682,674,678,42000,678
2011/01/05,678,684,675,682,32000,682
2011/01/06,683,698,683,695,50000,695
2011/01/07,701,723,699,699,69000,699
2011/01/11,699,700,688,691,57000,691
2011/01/12,692,700,690,690,33000,690
2011/01/13,689,691,685,687,58000,687
2011/01/14,680,681,668,669,137000,669
2011/01/17,672,674,661,665,45000,665
2011/01/18,666,672,653,658,169000,658
2011/01/19,655,665,649,651,129000,651
2011/01/20,652,652,646,646,60000,646
2011/01/21,646,652,636,636,87000,636
2011/01/24,641,643,636,643,84000,643
2011/01/25,644,668,644,649,102000,649
2011/01/26,649,666,649,659,91000,659
2011/01/27,663,667,657,665,115000,665
2011/01/28,665,676,659,670,95000,670
2011/01/31,679,688,661,673,140000,673
2011/02/01,670,684,665,666,65000,666
2011/02/02,675,685,675,681,114000,681
2011/02/03,681,681,667,670,51000,670
2011/02/04,670,671,665,668,46000,668
2011/02/07,667,689,667,680,85000,680
2011/02/08,676,683,676,679,44000,679
2011/02/09,685,697,684,692,78000,692
2011/02/10,693,697,685,695,91000,695
2011/02/14,692,699,692,695,87000,695
2011/02/15,686,689,673,674,134000,674
2011/02/16,675,675,660,665,171000,665
2011/02/17,661,677,660,671,131000,671
2011/02/18,671,688,666,682,149000,682
2011/02/21,689,689,683,689,118000,689
2011/02/22,687,687,653,658,164000,658
2011/02/23,652,655,648,651,107000,651
2011/02/24,648,653,630,637,150000,637
2011/02/25,629,637,627,634,76000,634
2011/02/28,638,654,635,653,108000,653
2011/03/01,654,665,654,661,81000,661
2011/03/02,654,654,630,635,178000,635
2011/03/03,644,655,641,654,81000,654
2011/03/04,658,659,654,657,67000,657
2011/03/07,650,653,644,652,69000,652
2011/03/08,653,662,652,653,78000,653
2011/03/09,653,657,650,652,101000,652
2011/03/10,642,646,627,632,197000,632
2011/03/11,622,627,615,624,201000,624
2011/03/14,600,624,570,589,356000,589
2011/03/15,489,500,489,489,132000,489
2011/03/16,434,481,409,470,811000,470
2011/03/17,446,483,435,457,847000,457
2011/03/18,457,503,457,480,783000,480
2011/03/22,544,560,539,560,467000,560
2011/03/23,610,645,595,623,1215000,623
2011/03/24,628,650,623,647,587000,647
2011/03/25,650,663,628,640,577000,640
2011/03/28,620,631,618,627,321000,627
2011/03/29,644,692,627,689,895000,689
2011/03/30,681,687,664,666,835000,666
2011/03/31,676,708,668,702,988000,702
2011/04/01,706,755,705,743,1513000,743
2011/04/04,758,765,712,719,891000,719
2011/04/05,721,726,678,690,608000,690
2011/04/06,688,697,657,686,736000,686
2011/04/07,676,725,672,678,675000,678
2011/04/08,670,688,663,682,403000,682
2011/04/11,680,701,672,692,279000,692
2011/04/12,692,692,675,678,228000,678
2011/04/13,678,694,674,691,146000,691
2011/04/14,676,696,673,688,332000,688
2011/04/15,680,685,662,668,365000,668
2011/04/18,668,668,655,663,178000,663
2011/04/19,654,662,653,660,149000,660
2011/04/20,665,673,661,670,197000,670
2011/04/21,679,679,662,665,135000,665
2011/04/22,662,687,660,681,346000,681
2011/04/25,690,708,686,705,728000,705
2011/04/26,715,738,714,725,961000,725
2011/04/27,734,734,722,727,432000,727
2011/04/28,730,734,721,730,266000,730
2011/05/02,730,730,722,728,191000,728
2011/05/06,728,745,716,742,293000,742
2011/05/09,750,750,733,735,512000,735
2011/05/10,736,743,719,722,328000,722
2011/05/11,728,733,726,727,143000,727
2011/05/12,727,727,704,704,294000,704
2011/05/13,697,697,658,676,477000,676
2011/05/16,600,617,576,590,1035000,590
2011/05/17,591,612,590,611,553000,611
2011/05/18,606,615,602,609,239000,609
2011/05/19,620,626,617,623,355000,623
2011/05/20,616,622,604,604,276000,604
2011/05/23,600,609,600,608,199000,608
2011/05/24,598,614,597,611,171000,611
2011/05/25,620,631,620,626,302000,626
2011/05/26,636,636,618,623,194000,623
2011/05/27,624,626,617,623,114000,623
2011/05/30,627,628,619,622,119000,622
2011/05/31,622,632,622,630,90000,630
2011/06/01,634,640,629,640,111000,640
2011/06/02,628,633,625,632,100000,632
2011/06/03,633,635,614,614,97000,614
2011/06/06,606,619,586,589,157000,589
2011/06/07,585,598,574,594,113000,594
2011/06/08,585,597,580,593,111000,593
2011/06/09,590,590,583,585,107000,585
2011/06/10,588,601,588,591,142000,591
2011/06/13,587,597,587,596,103000,596
2011/06/14,586,609,581,608,236000,608
2011/06/15,601,601,590,600,134000,600
2011/06/16,590,590,574,575,173000,575
2011/06/17,566,567,547,559,333000,559
2011/06/20,539,553,534,537,531000,537
2011/06/21,527,543,522,540,463000,540
2011/06/22,539,543,528,541,428000,541
2011/06/23,531,543,530,542,361000,542
2011/06/24,543,559,542,559,215000,559
2011/06/27,557,565,556,560,170000,560
2011/06/28,568,574,563,568,152000,568
2011/06/29,571,586,571,585,237000,585
2011/06/30,604,605,590,605,275000,605
2011/07/01,609,612,600,603,212000,603
2011/07/04,596,609,596,598,170000,598
2011/07/05,584,592,582,585,211000,585
2011/07/06,575,589,574,582,298000,582
2011/07/07,584,595,580,591,146000,591
2011/07/08,597,607,596,604,162000,604
2011/07/11,604,604,593,595,94000,595
2011/07/12,585,593,583,589,131000,589
2011/07/13,589,597,588,592,85000,592
2011/07/14,583,587,571,573,120000,573
2011/07/15,572,577,572,577,68000,577
2011/07/19,573,578,568,574,82000,574
2011/07/20,575,579,571,571,30000,571
2011/07/21,564,569,563,564,41000,564
2011/07/22,564,577,564,576,108000,576
2011/07/25,566,577,564,564,93000,564
2011/07/26,555,563,555,559,95000,559
2011/07/27,551,553,546,550,76000,550
2011/07/28,548,549,541,543,105000,543
2011/07/29,536,545,530,540,128000,540
2011/08/01,546,575,546,567,81000,567
2011/08/02,560,566,555,564,160000,564
2011/08/03,555,562,555,560,148000,560
2011/08/04,557,571,554,555,113000,555
2011/08/05,550,550,538,543,117000,543
2011/08/08,550,555,530,531,146000,531
2011/08/09,517,524,497,524,183000,524
2011/08/10,574,591,560,572,656000,572
2011/08/11,560,580,560,580,170000,580
2011/08/12,577,579,560,562,136000,562
2011/08/15,570,570,560,562,67000,562
2011/08/16,563,563,556,559,63000,559
2011/08/17,559,562,554,562,59000,562
2011/08/18,568,568,551,553,110000,553
2011/08/19,546,548,537,539,56000,539
2011/08/22,536,536,506,506,147000,506
2011/08/23,506,514,504,510,136000,510
2011/08/24,526,551,526,535,193000,535
2011/08/25,536,552,536,542,82000,542
2011/08/26,536,547,536,546,86000,546
2011/08/29,546,566,540,562,78000,562
2011/08/30,568,585,568,576,82000,576
2011/08/31,579,581,567,581,73000,581
2011/09/01,578,578,563,565,88000,565
2011/09/02,565,565,551,561,50000,561
2011/09/05,546,547,541,541,62000,541
2011/09/06,540,540,515,518,108000,518
2011/09/07,523,532,520,527,105000,527
2011/09/08,527,542,520,534,104000,534
2011/09/09,538,542,534,536,106000,536
2011/09/12,536,549,510,512,110000,512
2011/09/13,522,525,520,522,36000,522
2011/09/14,520,524,493,493,70000,493
2011/09/15,496,519,496,505,94000,505
2011/09/16,509,517,506,516,94000,516
2011/09/20,506,508,501,501,38000,501
2011/09/21,500,500,472,472,139000,472
2011/09/22,471,471,456,456,121000,456
2011/09/26,455,458,422,448,210000,448
2011/09/27,452,460,452,457,85000,457
2011/09/28,461,483,458,483,77000,483
2011/09/29,482,518,477,512,120000,512
2011/09/30,508,513,476,496,255000,496
2011/10/03,485,485,455,477,166000,477
2011/10/04,468,478,453,469,236000,469
2011/10/05,469,488,448,481,201000,481
2011/10/06,485,500,485,496,71000,496
2011/10/07,504,516,500,502,198000,502
2011/10/11,502,506,472,476,116000,476
2011/10/12,464,466,456,458,142000,458
2011/10/13,457,481,457,476,187000,476
2011/10/14,476,479,470,479,63000,479
2011/10/17,486,500,478,496,69000,496
2011/10/18,485,489,484,487,17000,487
2011/10/19,488,488,480,484,12000,484
2011/10/20,484,484,469,480,39000,480
2011/10/21,480,480,473,477,9000,477
2011/10/24,485,499,477,496,38000,496
2011/10/25,492,503,492,498,55000,498
2011/10/26,500,502,494,495,63000,495
2011/10/27,495,497,486,495,109000,495
2011/10/28,503,530,499,515,156000,515
2011/10/31,515,529,513,522,86000,522
2011/11/01,518,518,500,503,75000,503
2011/11/02,491,498,481,496,104000,496
2011/11/04,496,508,488,491,59000,491
2011/11/07,484,492,484,487,49000,487
2011/11/08,490,490,476,478,43000,478
2011/11/09,478,483,469,475,85000,475
2011/11/10,471,499,466,499,172000,499
2011/11/11,495,503,493,497,110000,497
2011/11/14,577,577,546,553,872000,553
2011/11/15,546,556,534,536,367000,536
2011/11/16,537,545,526,541,267000,541
2011/11/17,548,548,538,544,178000,544
2011/11/18,543,546,540,542,269000,542
2011/11/21,542,545,539,540,155000,540
2011/11/22,540,540,532,533,159000,533
2011/11/24,533,541,531,537,289000,537
2011/11/25,537,563,536,548,586000,548
2011/11/28,551,564,550,563,216000,563
2011/11/29,569,593,568,588,413000,588
2011/11/30,588,591,576,588,230000,588
2011/12/01,590,606,588,596,274000,596
2011/12/02,597,605,597,605,261000,605
2011/12/05,612,626,610,619,353000,619
2011/12/06,620,626,608,609,464000,609
2011/12/07,615,622,598,622,242000,622
2011/12/08,622,622,599,602,202000,602
2011/12/09,584,614,583,613,517000,613
2011/12/12,613,613,587,593,157000,593
2011/12/13,592,604,590,592,172000,592
2011/12/14,592,608,590,598,207000,598
2011/12/15,590,598,590,597,124000,597
2011/12/16,598,606,595,598,117000,598
2011/12/19,598,599,578,588,169000,588
2011/12/20,606,606,589,592,331000,592
2011/12/21,601,612,594,608,153000,608
2011/12/22,609,618,572,582,383000,582
2011/12/26,584,587,564,572,127000,572
2011/12/27,572,580,572,579,40000,579
2011/12/28,585,585,571,576,62000,576
2011/12/29,575,583,566,581,52000,581
2011/12/30,581,603,577,594,126000,594
2012/01/04,604,613,597,606,146000,606
2012/01/05,606,608,594,601,141000,601
2012/01/06,603,610,597,603,110000,603
2012/01/10,607,613,603,608,106000,608
2012/01/11,608,623,602,618,99000,618
2012/01/12,617,642,616,640,200000,640
2012/01/13,629,635,600,610,375000,610
2012/01/16,590,590,522,526,990000,526
2012/01/17,519,528,487,503,1186000,503
2012/01/18,496,547,496,542,730000,542
2012/01/19,535,577,533,569,725000,569
2012/01/20,571,575,551,560,451000,560
2012/01/23,550,582,542,580,374000,580
2012/01/24,589,592,575,585,260000,585
2012/01/25,586,598,583,598,254000,598
2012/01/26,595,602,594,600,172000,600
2012/01/27,599,604,594,604,152000,604
2012/01/30,604,605,599,604,73000,604
2012/01/31,600,609,597,608,82000,608
2012/02/01,609,628,600,601,246000,601
2012/02/02,605,605,598,600,89000,600
2012/02/03,592,607,592,601,61000,601
2012/02/06,603,624,598,618,156000,618
2012/02/07,608,633,608,631,186000,631
2012/02/08,631,637,612,614,211000,614
2012/02/09,616,620,611,614,253000,614
2012/02/10,624,633,605,614,328000,614
2012/02/13,604,612,604,607,190000,607
2012/02/14,611,626,610,626,162000,626
2012/02/15,619,620,607,618,167000,618
2012/02/16,618,626,611,611,116000,611
2012/02/17,614,620,612,615,71000,615
2012/02/20,616,620,611,617,163000,617
2012/02/21,617,618,608,616,99000,616
2012/02/22,610,620,610,618,134000,618
2012/02/23,619,638,613,637,212000,637
2012/02/24,644,655,638,649,244000,649
2012/02/27,655,661,641,642,142000,642
2012/02/28,642,649,634,647,117000,647
2012/02/29,647,649,623,626,90000,626
2012/03/01,636,637,625,627,94000,627
2012/03/02,633,636,626,631,94000,631
2012/03/05,630,637,622,623,77000,623
2012/03/06,620,628,614,619,130000,619
2012/03/07,620,622,609,617,152000,617
2012/03/08,617,620,615,617,147000,617
2012/03/09,611,631,611,629,212000,629
2012/03/12,629,669,629,662,460000,662
2012/03/13,663,706,663,691,546000,691
2012/03/14,693,716,692,694,310000,694
2012/03/15,697,703,692,701,181000,701
2012/03/16,704,735,699,720,573000,720
2012/03/19,722,727,714,720,183000,720
2012/03/21,719,719,686,687,238000,687
2012/03/22,697,705,671,674,287000,674
2012/03/23,674,678,667,670,193000,670
2012/03/26,673,680,670,674,72000,674
2012/03/27,675,691,674,691,157000,691
2012/03/28,681,681,662,668,183000,668
2012/03/29,678,678,666,671,81000,671
2012/03/30,670,681,662,677,101000,677
2012/04/02,673,674,648,650,148000,650
2012/04/03,650,655,648,653,76000,653
2012/04/04,646,646,625,628,86000,628
2012/04/05,626,640,621,637,66000,637
2012/04/06,640,644,611,614,159000,614
2012/04/09,610,621,603,618,83000,618
2012/04/10,613,629,607,608,142000,608
2012/04/11,602,617,594,610,188000,610
2012/04/12,610,633,604,630,133000,630
2012/04/13,632,642,628,631,173000,631
2012/04/16,628,631,621,630,87000,630
2012/04/17,640,655,640,652,120000,652
2012/04/18,662,668,659,667,150000,667
2012/04/19,658,668,658,668,70000,668
2012/04/20,666,671,666,668,160000,668
2012/04/23,698,699,669,670,345000,670
2012/04/24,660,661,653,655,149000,655
2012/04/25,655,681,655,681,100000,681
2012/04/26,678,679,651,656,167000,656
2012/04/27,664,664,653,664,78000,664
2012/05/01,654,660,652,653,73000,653
2012/05/02,662,669,658,666,121000,666
2012/05/07,650,660,626,626,89000,626
2012/05/08,622,642,620,638,72000,638
2012/05/09,628,635,621,632,85000,632
2012/05/10,631,646,622,643,71000,643
2012/05/11,644,659,633,635,183000,635
2012/05/14,561,588,554,557,502000,557
2012/05/15,555,555,516,520,324000,520
2012/05/16,510,551,510,532,307000,532
2012/05/17,515,532,502,530,200000,530
2012/05/18,502,502,485,500,291000,500
2012/05/21,497,522,497,505,201000,505
2012/05/22,509,515,501,505,151000,505
2012/05/23,507,520,503,508,213000,508
2012/05/24,508,510,498,507,199000,507
2012/05/25,507,524,507,507,200000,507
2012/05/28,503,508,452,457,516000,457
2012/05/29,465,494,457,486,257000,486
2012/05/30,498,524,493,520,403000,520
2012/05/31,522,529,511,528,285000,528
2012/06/01,523,525,501,504,191000,504
2012/06/04,495,507,495,507,105000,507
2012/06/05,512,520,504,509,160000,509
2012/06/06,518,535,509,528,122000,528
2012/06/07,530,534,526,531,159000,531
2012/06/08,531,534,524,531,179000,531
2012/06/11,531,533,526,529,142000,529
2012/06/12,529,529,515,524,55000,524
2012/06/13,514,523,496,498,224000,498
2012/06/14,498,507,495,503,97000,503
2012/06/15,503,513,501,501,127000,501
2012/06/18,510,533,510,526,107000,526
2012/06/19,527,527,508,509,95000,509
2012/06/20,510,532,510,529,67000,529
2012/06/21,532,545,529,543,117000,543
2012/06/22,533,546,528,544,111000,544
2012/06/25,545,557,542,549,232000,549
2012/06/26,539,541,522,523,125000,523
2012/06/27,523,543,518,539,109000,539
2012/06/28,533,543,533,541,140000,541
2012/06/29,549,549,533,543,192000,543
2012/07/02,542,544,532,533,107000,533
2012/07/03,535,545,529,535,159000,535
2012/07/04,533,558,533,555,171000,555
2012/07/05,555,558,551,553,126000,553
2012/07/06,556,559,545,552,90000,552
2012/07/09,559,566,553,565,64000,565
2012/07/10,566,567,555,556,91000,556
2012/07/11,555,555,544,549,47000,549
2012/07/12,550,557,537,544,58000,544
2012/07/13,552,568,551,566,88000,566
2012/07/17,566,576,561,561,60000,561
2012/07/18,561,561,550,550,29000,550
2012/07/19,542,545,536,536,50000,536
2012/07/20,540,540,533,537,77000,537
2012/07/23,530,530,510,510,49000,510
2012/07/24,510,513,505,508,62000,508
2012/07/25,500,500,493,494,74000,494
2012/07/26,502,533,502,533,71000,533
2012/07/27,539,548,520,526,49000,526
2012/07/30,526,526,499,507,48000,507
2012/07/31,507,565,507,540,136000,540
2012/08/01,526,532,524,528,51000,528
2012/08/02,529,538,518,527,49000,527
2012/08/03,527,527,507,525,27000,525
2012/08/06,526,526,516,520,12000,520
2012/08/07,527,537,522,536,55000,536
2012/08/08,541,541,532,534,37000,534
2012/08/09,544,562,544,562,52000,562
2012/08/10,602,602,560,560,155000,560
2012/08/13,563,565,527,540,74000,540
2012/08/14,538,554,537,546,48000,546
2012/08/15,547,551,523,523,41000,523
2012/08/16,523,535,523,526,30000,526
2012/08/17,529,546,528,546,31000,546
2012/08/20,548,549,543,548,17000,548
2012/08/21,547,549,536,541,28000,541
2012/08/22,541,542,531,542,26000,542
2012/08/23,536,540,536,536,19000,536
2012/08/24,535,535,528,528,18000,528
2012/08/27,535,548,525,534,75000,534
2012/08/28,535,537,527,532,38000,532
2012/08/29,532,542,518,518,39000,518
2012/08/30,518,519,502,502,40000,502
2012/08/31,500,512,500,500,68000,500
2012/09/03,501,509,497,501,48000,501
2012/09/04,504,504,497,497,27000,497
2012/09/05,496,499,496,499,27000,499
2012/09/06,495,495,480,481,80000,481
2012/09/07,489,489,484,485,59000,485
2012/09/10,490,490,475,476,65000,476
2012/09/11,475,488,475,475,54000,475
2012/09/12,475,490,475,483,39000,483
2012/09/13,478,490,475,480,52000,480
2012/09/14,483,505,483,505,57000,505
2012/09/18,506,524,503,504,92000,504
2012/09/19,512,530,507,519,84000,519
2012/09/20,519,521,511,513,16000,513
2012/09/21,515,515,502,502,36000,502
2012/09/24,510,538,510,538,172000,538
2012/09/25,533,574,527,572,151000,572
2012/09/26,568,569,547,551,158000,551
2012/09/27,548,550,538,544,60000,544
2012/09/28,538,545,525,530,70000,530
2012/10/01,539,539,531,536,40000,536
2012/10/02,533,533,523,525,49000,525
2012/10/03,523,540,522,534,40000,534
2012/10/04,540,547,540,542,27000,542
2012/10/05,548,548,544,544,26000,544
2012/10/09,538,548,538,548,23000,548
2012/10/10,538,543,538,542,56000,542
2012/10/11,541,542,533,535,32000,535
2012/10/12,540,544,536,537,44000,537
2012/10/15,528,536,525,534,24000,534
2012/10/16,544,570,544,551,80000,551
2012/10/17,551,564,546,557,51000,557
2012/10/18,558,558,543,547,35000,547
2012/10/19,549,549,537,549,25000,549
2012/10/22,549,553,549,553,11000,553
2012/10/23,543,546,540,540,56000,540
2012/10/24,535,544,530,542,39000,542
2012/10/25,537,548,535,542,30000,542
2012/10/26,541,541,526,527,53000,527
2012/10/29,527,534,522,529,30000,529
2012/10/30,523,529,517,520,41000,520
2012/10/31,518,524,515,516,27000,516
2012/11/01,522,535,521,529,37000,529
2012/11/02,539,556,534,550,43000,550
2012/11/05,549,549,541,546,13000,546
2012/11/06,539,542,537,542,11000,542
2012/11/07,540,543,531,532,28000,532
2012/11/08,528,534,528,533,19000,533
2012/11/09,543,548,533,548,47000,548
2012/11/12,533,533,471,473,176000,473
2012/11/13,480,484,470,470,99000,470
2012/11/14,474,500,474,496,117000,496
2012/11/15,494,499,490,499,55000,499
2012/11/16,505,520,505,518,118000,518
2012/11/19,520,520,511,511,39000,511
2012/11/20,511,515,498,501,35000,501
2012/11/21,503,509,498,498,40000,498
2012/11/22,506,515,493,510,46000,510
2012/11/26,504,509,503,504,39000,504
2012/11/27,503,515,503,507,39000,507
2012/11/28,502,503,501,501,26000,501
2012/11/29,498,505,486,488,71000,488
2012/11/30,485,497,485,486,80000,486
2012/12/03,489,507,489,504,75000,504
2012/12/04,505,509,499,499,63000,499
2012/12/05,495,498,495,497,71000,497
2012/12/06,499,501,493,497,52000,497
2012/12/07,492,505,492,503,43000,503
2012/12/10,508,508,496,499,50000,499
2012/12/11,499,500,496,500,45000,500
2012/12/12,504,511,498,500,57000,500
2012/12/13,502,510,502,509,42000,509
2012/12/14,506,519,505,517,92000,517
2012/12/17,540,543,531,532,122000,532
2012/12/18,539,559,539,544,84000,544
2012/12/19,544,552,544,548,51000,548
2012/12/20,543,547,537,542,54000,542
2012/12/21,542,544,500,500,129000,500
2012/12/25,510,534,510,530,97000,530
2012/12/26,530,531,511,528,73000,528
2012/12/27,528,539,518,529,97000,529
2012/12/28,525,534,524,530,71000,530
2013/01/04,532,545,531,541,104000,541
2013/01/07,545,548,536,538,99000,538
2013/01/08,534,540,522,527,117000,527
2013/01/09,530,534,525,533,89000,533
2013/01/10,535,551,535,537,222000,537
2013/01/11,545,547,536,543,166000,543
2013/01/15,543,549,540,542,83000,542
2013/01/16,537,541,512,515,214000,515
2013/01/17,519,522,513,521,95000,521
2013/01/18,528,534,526,528,79000,528
2013/01/21,531,542,527,531,85000,531
2013/01/22,531,531,524,530,33000,530
2013/01/23,529,529,520,524,56000,524
2013/01/24,514,522,514,518,74000,518
2013/01/25,523,526,520,523,81000,523
2013/01/28,530,532,518,519,60000,519
2013/01/29,517,526,517,523,48000,523
2013/01/30,523,536,523,534,63000,534
2013/01/31,531,534,526,531,56000,531
2013/02/01,535,542,535,542,64000,542
2013/02/04,550,550,539,540,104000,540
2013/02/05,530,530,520,520,53000,520
2013/02/06,530,534,525,533,65000,533
2013/02/07,537,538,530,534,73000,534
2013/02/08,540,540,534,538,114000,538
2013/02/12,568,568,550,556,235000,556
2013/02/13,556,556,537,537,128000,537
2013/02/14,527,533,522,522,154000,522
2013/02/15,523,529,508,512,139000,512
2013/02/18,515,518,510,514,155000,514
2013/02/19,514,520,508,515,89000,515
2013/02/20,518,531,518,531,86000,531
2013/02/21,534,538,529,530,54000,530
2013/02/22,526,532,520,525,63000,525
2013/02/25,525,527,516,519,123000,519
2013/02/26,517,522,515,521,82000,521
2013/02/27,527,535,520,531,80000,531
2013/02/28,541,544,534,541,94000,541
2013/03/01,546,558,546,553,145000,553
2013/03/04,568,568,556,558,83000,558
2013/03/05,565,586,563,585,153000,585
2013/03/06,582,589,578,582,112000,582
2013/03/07,584,585,570,579,134000,579
2013/03/08,580,588,579,580,191000,580
2013/03/11,582,587,578,584,91000,584
2013/03/12,582,585,567,580,410000,580
2013/03/13,572,579,568,568,137000,568
2013/03/14,569,584,569,579,121000,579
2013/03/15,576,579,568,575,220000,575
2013/03/18,584,584,573,575,128000,575
2013/03/19,576,580,571,572,143000,572
2013/03/21,572,591,572,589,227000,589
2013/03/22,595,599,586,586,87000,586
2013/03/25,596,605,595,602,114000,602
2013/03/26,602,614,595,613,129000,613
2013/03/27,599,610,590,599,105000,599
2013/03/28,598,607,577,604,157000,604
2013/03/29,601,601,577,578,76000,578
2013/04/01,581,581,557,559,78000,559
2013/04/02,566,566,536,557,108000,557
2013/04/03,557,565,553,565,32000,565
2013/04/04,554,586,553,583,69000,583
2013/04/05,602,609,592,596,134000,596
2013/04/08,608,615,597,605,113000,605
2013/04/09,606,615,600,606,87000,606
2013/04/10,610,610,592,596,61000,596
2013/04/11,599,605,597,598,46000,598
2013/04/12,598,600,580,587,94000,587
2013/04/15,587,587,571,571,39000,571
2013/04/16,560,563,556,562,37000,562
2013/04/17,562,573,562,571,56000,571
2013/04/18,577,590,577,580,34000,580
2013/04/19,581,590,580,589,33000,589
2013/04/22,597,597,570,591,59000,591
2013/04/23,595,604,594,603,70000,603
2013/04/24,608,612,598,604,72000,604
2013/04/25,611,620,607,611,94000,611
2013/04/26,611,613,591,595,80000,595
2013/04/30,591,600,591,593,52000,593
2013/05/01,593,598,585,590,98000,590
2013/05/02,590,613,584,591,100000,591
2013/05/07,616,636,606,633,194000,633
2013/05/08,639,642,610,624,159000,624
2013/05/09,624,645,624,639,149000,639
2013/05/10,642,645,625,627,121000,627
2013/05/13,627,627,603,607,134000,607
2013/05/14,607,617,602,608,155000,608
2013/05/15,614,623,591,592,105000,592
2013/05/16,595,596,581,593,140000,593
2013/05/17,600,623,593,616,167000,616
2013/05/20,631,645,619,643,243000,643
2013/05/21,639,643,620,622,118000,622
2013/05/22,627,638,627,628,80000,628
2013/05/23,635,639,590,593,141000,593
2013/05/24,597,606,591,604,98000,604
2013/05/27,609,609,596,596,110000,596
2013/05/28,596,605,590,596,141000,596
2013/05/29,597,603,596,599,67000,599
2013/05/30,599,627,596,612,305000,612
2013/05/31,622,628,612,617,171000,617
2013/06/03,617,620,592,593,164000,593
2013/06/04,593,615,593,604,147000,604
2013/06/05,604,629,600,600,156000,600
2013/06/06,610,620,590,590,143000,590
2013/06/07,590,591,566,577,124000,577
2013/06/10,603,615,593,611,131000,611
2013/06/11,611,623,604,607,190000,607
2013/06/12,605,613,600,607,90000,607
2013/06/13,607,607,578,578,110000,578
2013/06/14,594,625,594,615,217000,615
2013/06/17,623,661,623,649,297000,649
2013/06/18,649,650,635,649,160000,649
2013/06/19,652,656,641,643,162000,643
2013/06/20,642,652,640,646,103000,646
2013/06/21,645,648,635,638,140000,638
2013/06/24,638,647,627,630,49000,630
2013/06/25,622,632,611,628,50000,628
2013/06/26,628,639,617,625,140000,625
2013/06/27,636,670,629,665,152000,665
2013/06/28,676,676,652,654,194000,654
2013/07/01,653,660,647,660,81000,660
2013/07/02,660,682,655,680,139000,680
2013/07/03,680,680,662,671,70000,671
2013/07/04,671,680,671,677,88000,677
2013/07/05,682,686,682,686,56000,686
2013/07/08,699,702,686,688,137000,688
2013/07/09,698,745,697,733,215000,733
2013/07/10,743,817,742,749,488000,749
2013/07/11,754,763,736,737,171000,737
2013/07/12,737,761,737,761,143000,761
2013/07/16,762,777,760,763,85000,763
2013/07/17,761,769,753,764,61000,764
2013/07/18,760,762,745,753,107000,753
2013/07/19,768,768,745,750,130000,750
2013/07/22,765,798,761,795,181000,795
2013/07/23,781,781,751,753,102000,753
2013/07/24,767,767,719,729,76000,729
2013/07/25,744,750,728,729,58000,729
2013/07/26,729,733,722,722,56000,722
2013/07/29,723,723,684,691,88000,691
2013/07/30,681,708,681,701,53000,701
2013/07/31,687,708,687,696,42000,696
2013/08/01,696,710,695,706,74000,706
2013/08/02,742,742,713,726,53000,726
2013/08/05,711,717,701,704,45000,704
2013/08/06,700,714,696,710,51000,710
2013/08/07,710,713,701,706,43000,706
2013/08/08,706,715,705,706,55000,706
2013/08/09,704,707,692,699,83000,699
2013/08/12,679,690,665,678,121000,678
2013/08/13,692,700,677,697,104000,697
2013/08/14,712,712,689,702,60000,702
2013/08/15,702,704,698,698,45000,698
2013/08/16,699,703,695,695,33000,695
2013/08/19,707,712,704,710,34000,710
2013/08/20,710,710,700,700,20000,700
2013/08/21,708,709,685,688,43000,688
2013/08/22,698,731,689,730,87000,730
2013/08/23,730,749,695,698,97000,698
2013/08/26,701,702,691,699,46000,699
2013/08/27,699,740,695,738,77000,738
2013/08/28,728,738,708,725,89000,725
2013/08/29,725,733,713,720,43000,720
2013/08/30,720,724,698,700,90000,700
2013/09/02,700,712,700,705,36000,705
2013/09/03,723,745,723,745,76000,745
2013/09/04,744,767,734,767,57000,767
2013/09/05,764,764,745,747,29000,747
2013/09/06,745,756,737,747,27000,747
2013/09/09,759,776,759,771,47000,771
2013/09/10,771,776,758,776,51000,776
2013/09/11,775,775,764,767,30000,767
2013/09/12,766,766,758,764,15000,764
2013/09/13,751,767,751,767,71000,767
2013/09/17,767,770,734,751,41000,751
2013/09/18,762,762,735,738,52000,738
2013/09/19,740,742,708,724,104000,724
2013/09/20,738,765,705,713,175000,713
2013/09/24,718,724,707,722,105000,722
2013/09/25,727,727,709,711,42000,711
2013/09/26,705,717,701,709,79000,709
2013/09/27,714,725,714,716,44000,716
2013/09/30,707,718,701,718,59000,718
2013/10/01,717,742,712,723,108000,723
2013/10/02,715,717,701,704,59000,704
2013/10/03,709,709,699,701,30000,701
2013/10/04,701,702,683,692,26000,692
2013/10/07,686,690,682,682,48000,682
2013/10/08,682,683,650,675,207000,675
2013/10/09,685,685,652,668,126000,668
2013/10/10,676,680,666,669,126000,669
2013/10/11,695,750,694,745,255000,745
2013/10/15,733,734,729,730,72000,730
2013/10/16,730,733,727,731,41000,731
2013/10/17,726,727,716,718,63000,718
2013/10/18,712,715,708,712,45000,712
2013/10/21,712,715,704,712,65000,712
2013/10/22,704,715,704,714,76000,714
2013/10/23,710,715,702,702,43000,702
2013/10/24,697,700,673,693,98000,693
2013/10/25,693,696,682,685,93000,685
2013/10/28,695,705,692,699,54000,699
2013/10/29,700,715,694,711,73000,711
2013/10/30,712,731,695,695,181000,695
2013/10/31,696,709,686,691,82000,691
2013/11/01,699,704,685,693,47000,693
2013/11/05,709,725,704,719,76000,719
2013/11/06,719,719,710,710,26000,710
2013/11/07,716,716,686,689,69000,689
2013/11/08,689,691,680,682,67000,682
2013/11/11,656,658,619,627,192000,627
2013/11/12,637,661,626,637,128000,637
2013/11/13,647,651,640,649,76000,649
2013/11/14,646,655,643,649,97000,649
2013/11/15,659,684,656,671,157000,671
2013/11/18,684,684,671,675,36000,675
2013/11/19,679,679,671,671,44000,671
2013/11/20,671,673,634,641,271000,641
2013/11/21,641,665,641,650,79000,650
2013/11/22,649,653,637,642,71000,642
2013/11/25,649,649,630,631,79000,631
2013/11/26,628,640,627,634,63000,634
2013/11/27,637,640,627,628,105000,628
2013/11/28,632,633,623,623,92000,623
2013/11/29,623,626,612,619,72000,619
2013/12/02,622,626,618,620,79000,620
2013/12/03,628,628,614,615,62000,615
2013/12/04,614,614,605,605,103000,605
2013/12/05,604,625,604,625,97000,625
2013/12/06,625,629,623,624,51000,624
2013/12/09,629,638,629,637,45000,637
2013/12/10,644,653,641,652,58000,652
2013/12/11,651,655,645,652,58000,652
2013/12/12,645,649,627,638,59000,638
2013/12/13,632,651,625,639,176000,639
2013/12/16,633,640,623,624,60000,624
2013/12/17,622,630,616,623,46000,623
2013/12/18,643,653,642,646,140000,646
2013/12/19,638,645,632,641,98000,641
2013/12/20,640,655,638,652,145000,652
2013/12/24,645,650,630,632,70000,632
2013/12/25,621,629,619,624,97000,624
2013/12/26,624,650,624,646,80000,646
2013/12/27,642,653,642,653,55000,653
2013/12/30,654,659,650,657,60000,657
2014/01/06,657,666,655,664,62000,664
2014/01/07,666,666,655,664,53000,664
2014/01/08,666,683,666,682,90000,682
2014/01/09,687,690,678,682,45000,682
2014/01/10,682,682,650,652,104000,652
2014/01/14,641,642,620,622,215000,622
2014/01/15,630,632,623,629,98000,629
2014/01/16,631,634,620,620,88000,620
2014/01/17,623,647,623,646,111000,646
2014/01/20,648,648,640,642,63000,642
2014/01/21,649,657,642,645,155000,645
2014/01/22,655,669,649,669,93000,669
2014/01/23,670,683,652,664,177000,664
2014/01/24,649,655,637,641,110000,641
2014/01/27,631,646,628,640,97000,640
2014/01/28,650,656,634,634,88000,634
2014/01/29,654,664,650,661,46000,661
2014/01/30,658,658,643,646,79000,646
2014/01/31,643,661,640,655,115000,655
2014/02/03,652,661,642,649,95000,649
2014/02/04,623,637,606,606,153000,606
2014/02/05,616,620,605,619,94000,619
2014/02/06,625,625,605,611,84000,611
2014/02/07,629,636,618,622,92000,622
2014/02/10,652,667,648,662,110000,662
2014/02/12,657,670,657,664,50000,664
2014/02/13,664,664,650,650,19000,650
2014/02/14,643,644,621,625,59000,625
2014/02/17,635,639,630,632,19000,632
2014/02/18,633,648,629,648,56000,648
2014/02/19,638,647,638,643,17000,643
2014/02/20,643,643,635,639,28000,639
2014/02/21,654,654,641,646,35000,646
2014/02/24,640,661,636,648,65000,648
2014/02/25,648,674,648,673,46000,673
2014/02/26,669,680,651,670,55000,670
2014/02/27,659,674,652,670,47000,670
2014/02/28,676,707,663,701,152000,701
2014/03/03,682,685,667,675,56000,675
2014/03/04,665,688,661,683,92000,683
2014/03/05,687,687,665,665,39000,665
2014/03/06,675,675,645,669,33000,669
2014/03/07,664,675,657,673,36000,673
2014/03/10,677,677,660,660,43000,660
2014/03/11,658,667,658,665,19000,665
2014/03/12,652,655,644,646,41000,646
2014/03/13,650,683,650,671,112000,671
2014/03/14,641,648,621,624,245000,624
2014/03/17,624,628,594,596,120000,596
2014/03/18,616,618,600,606,102000,606
2014/03/19,609,609,593,600,45000,600
2014/03/20,590,593,512,516,783000,516
2014/03/24,532,573,532,569,400000,569
2014/03/25,587,603,579,586,253000,586
2014/03/26,596,607,595,604,138000,604
2014/03/27,590,624,590,622,121000,622
2014/03/28,627,646,607,636,201000,636
2014/03/31,637,648,627,639,93000,639
2014/04/01,645,684,632,682,302000,682
2014/04/02,686,708,679,698,327000,698
2014/04/03,688,696,656,660,155000,660
2014/04/04,650,668,645,655,87000,655
2014/04/07,643,660,643,650,48000,650
2014/04/08,648,652,630,630,88000,630
2014/04/09,623,637,622,624,75000,624
2014/04/10,635,641,615,615,61000,615
2014/04/11,605,622,605,610,118000,610
2014/04/14,618,631,605,607,57000,607
2014/04/15,607,621,607,610,54000,610
2014/04/16,610,640,610,622,106000,622
2014/04/17,630,640,625,639,143000,639
2014/04/18,643,660,643,654,80000,654
2014/04/21,644,644,631,632,28000,632
2014/04/22,625,636,625,626,28000,626
2014/04/23,626,642,626,628,26000,628
2014/04/24,628,638,627,637,26000,637
2014/04/25,637,652,630,650,35000,650
2014/04/28,640,649,640,642,29000,642
2014/04/30,652,676,644,671,94000,671
2014/05/01,668,705,663,702,162000,702
2014/05/02,704,707,688,688,95000,688
2014/05/07,673,678,652,652,55000,652
2014/05/08,652,675,652,666,90000,666
2014/05/09,656,693,656,683,108000,683
2014/05/12,673,731,673,723,288000,723
2014/05/13,704,725,703,723,157000,723
2014/05/14,715,718,694,698,226000,698
2014/05/15,691,692,674,691,120000,691
2014/05/16,676,695,675,683,174000,683
2014/05/19,677,702,677,700,131000,700
2014/05/20,700,704,699,701,49000,701
2014/05/21,686,708,686,700,60000,700
2014/05/22,700,729,699,728,83000,728
2014/05/23,719,741,718,737,143000,737
2014/05/26,737,742,734,738,48000,738
2014/05/27,730,736,722,726,41000,726
2014/05/28,726,732,720,721,55000,721
2014/05/29,710,719,709,714,36000,714
2014/05/30,709,714,703,703,63000,703
2014/06/02,720,739,720,735,66000,735
2014/06/03,740,740,725,730,42000,730
2014/06/04,737,740,730,738,39000,738
2014/06/05,731,737,731,736,115000,736
2014/06/06,729,732,724,729,107000,729
2014/06/09,738,738,717,728,119000,728
2014/06/10,723,732,717,724,151000,724
2014/06/11,714,738,714,735,130000,735
2014/06/12,727,729,722,722,103000,722
2014/06/13,710,739,710,738,201000,738
2014/06/16,737,737,725,725,108000,725
2014/06/17,734,749,730,744,157000,744
2014/06/18,747,748,740,746,87000,746
2014/06/19,742,757,742,755,180000,755
2014/06/20,785,785,748,750,201000,750
2014/06/23,743,753,733,736,191000,736
2014/06/24,738,748,734,741,153000,741
2014/06/25,742,769,739,768,232000,768
2014/06/26,757,771,743,745,216000,745
2014/06/27,749,750,733,743,235000,743
2014/06/30,733,753,733,749,173000,749
2014/07/01,750,763,743,759,141000,759
2014/07/02,761,822,759,804,432000,804
2014/07/03,791,801,786,790,217000,790
2014/07/04,785,797,785,792,183000,792
2014/07/07,781,802,781,795,141000,795
2014/07/08,784,791,784,785,83000,785
2014/07/09,775,783,757,771,241000,771
2014/07/10,766,775,749,752,200000,752
2014/07/11,740,752,733,743,186000,743
2014/07/14,738,744,723,725,269000,725
2014/07/15,737,754,723,749,177000,749
2014/07/16,753,753,742,743,93000,743
2014/07/17,743,767,743,756,219000,756
2014/07/18,753,755,743,751,122000,751
2014/07/22,763,785,763,776,133000,776
2014/07/23,781,797,776,792,177000,792
2014/07/24,797,797,783,784,168000,784
2014/07/25,777,785,774,777,196000,777
2014/07/28,779,789,774,776,194000,776
2014/07/29,781,787,776,782,223000,782
2014/07/30,776,778,758,761,309000,761
2014/07/31,772,789,740,783,296000,783
2014/08/01,782,784,774,777,69000,777
2014/08/04,777,781,773,776,51000,776
2014/08/05,775,786,772,773,55000,773
2014/08/06,772,772,752,752,49000,752
2014/08/07,745,764,745,762,57000,762
2014/08/08,755,770,748,749,123000,749
2014/08/11,734,772,734,764,87000,764
2014/08/12,758,763,733,734,116000,734
2014/08/13,733,752,730,750,90000,750
2014/08/14,750,769,750,767,29000,767
2014/08/15,767,768,753,758,22000,758
2014/08/18,752,766,745,749,61000,749
2014/08/19,762,764,747,756,50000,756
2014/08/20,756,759,743,745,84000,745
2014/08/21,746,747,736,737,66000,737
2014/08/22,739,739,721,724,142000,724
2014/08/25,723,741,723,727,97000,727
2014/08/26,740,752,731,745,171000,745
2014/08/27,755,789,755,787,83000,787
2014/08/28,785,799,762,790,103000,790
2014/08/29,789,795,787,789,58000,789
2014/09/01,792,815,792,815,82000,815
2014/09/02,817,819,787,789,241000,789
2014/09/03,800,805,793,800,69000,800
2014/09/04,799,808,784,801,107000,801
2014/09/05,801,805,795,803,50000,803
2014/09/08,803,822,803,817,68000,817
2014/09/09,816,818,809,815,44000,815
2014/09/10,803,819,803,817,56000,817
2014/09/11,817,822,812,815,57000,815
2014/09/12,823,833,808,829,217000,829
2014/09/16,830,850,819,841,597000,841
2014/09/17,842,846,826,831,141000,831
2014/09/18,842,854,828,834,84000,834
2014/09/19,849,856,842,855,131000,855
2014/09/22,860,860,838,849,52000,849
2014/09/24,858,863,840,863,94000,863
2014/09/25,870,871,853,871,73000,871
2014/09/26,854,869,840,865,83000,865
2014/09/29,860,874,852,864,71000,864
2014/09/30,872,879,859,873,112000,873
2014/10/01,866,900,866,889,326000,889
2014/10/02,887,887,825,829,245000,829
2014/10/03,820,849,820,841,217000,841
2014/10/06,860,872,840,863,305000,863
2014/10/07,861,879,859,870,288000,870
2014/10/08,855,857,836,840,384000,840
2014/10/09,855,867,838,848,365000,848
2014/10/10,834,859,827,856,227000,856
2014/10/14,826,873,826,860,330000,860
2014/10/15,851,863,840,842,130000,842
2014/10/16,820,826,796,799,344000,799
2014/10/17,799,809,784,784,187000,784
2014/10/20,810,833,806,814,301000,814
2014/10/21,804,813,776,781,365000,781
2014/10/22,795,832,795,831,228000,831
2014/10/23,823,826,808,817,263000,817
2014/10/24,825,840,816,835,152000,835
2014/10/27,835,846,831,832,151000,832
2014/10/28,838,839,815,832,93000,832
2014/10/29,830,866,826,865,252000,865
2014/10/30,860,868,853,860,350000,860
2014/10/31,880,899,873,894,523000,894
2014/11/04,906,933,906,925,288000,925
2014/11/05,933,945,900,920,262000,920
2014/11/06,920,926,901,905,134000,905
2014/11/07,913,919,897,909,264000,909
2014/11/10,896,899,884,885,200000,885
2014/11/11,910,988,907,978,626000,978
2014/11/12,986,986,955,956,166000,956
2014/11/13,941,944,921,926,170000,926
2014/11/14,926,940,913,921,104000,921
2014/11/17,921,921,901,905,119000,905
2014/11/18,892,931,880,924,637000,924
2014/11/19,915,922,901,919,297000,919
2014/11/20,915,945,907,939,176000,939
2014/11/21,928,929,912,914,125000,914
2014/11/25,912,927,912,919,238000,919
2014/11/26,919,934,910,928,300000,928
2014/11/27,928,939,925,927,259000,927
2014/11/28,931,950,925,947,277000,947
2014/12/01,935,942,925,927,409000,927
2014/12/02,949,968,936,963,314000,963
2014/12/03,948,957,931,931,222000,931
2014/12/04,931,946,927,940,529000,940
2014/12/05,934,953,930,949,309000,949
2014/12/08,950,975,946,964,288000,964
2014/12/09,953,960,939,942,318000,942
2014/12/10,927,935,921,925,305000,925
2014/12/11,916,925,890,917,336000,917
2014/12/12,905,935,905,923,377000,923
2014/12/15,923,923,903,905,207000,905
2014/12/16,894,907,889,893,341000,893
2014/12/17,888,920,888,908,318000,908
2014/12/18,913,945,910,929,391000,929
2014/12/19,935,964,930,959,397000,959
2014/12/22,948,958,929,935,439000,935
2014/12/24,957,957,934,940,250000,940
2014/12/25,932,943,930,937,247000,937
2014/12/26,940,953,936,939,317000,939
2014/12/29,954,958,940,942,172000,942
2014/12/30,947,947,920,923,234000,923
2015/01/05,931,940,919,932,276000,932
2015/01/06,914,914,878,882,448000,882
2015/01/07,882,899,882,891,272000,891
2015/01/08,894,900,889,890,232000,890
2015/01/09,891,899,883,887,333000,887
2015/01/13,875,876,855,867,302000,867
2015/01/14,852,867,845,853,486000,853
2015/01/15,851,882,851,869,282000,869
2015/01/16,855,867,851,860,421000,860
2015/01/19,875,878,844,855,384000,855
2015/01/20,863,895,859,891,430000,891
2015/01/21,891,899,877,893,347000,893
2015/01/22,897,897,877,893,168000,893
2015/01/23,892,897,887,888,87000,888
2015/01/26,875,885,872,876,116000,876
2015/01/27,876,897,876,895,80000,895
2015/01/28,889,907,885,904,62000,904
2015/01/29,903,910,888,890,128000,890
2015/01/30,905,930,904,905,152000,905
2015/02/02,905,930,895,927,305000,927
2015/02/03,932,941,922,925,312000,925
2015/02/04,925,940,907,912,270000,912
2015/02/05,911,915,895,906,210000,906
2015/02/06,907,910,886,889,194000,889
2015/02/09,890,900,880,883,170000,883
2015/02/10,868,888,861,881,319000,881
2015/02/12,896,914,896,909,328000,909
2015/02/13,917,917,872,883,473000,883
2015/02/16,885,887,844,850,514000,850
2015/02/17,855,857,836,849,259000,849
2015/02/18,849,865,846,850,210000,850
2015/02/19,852,861,852,855,138000,855
2015/02/20,855,855,846,849,136000,849
2015/02/23,855,855,832,836,249000,836
2015/02/24,834,849,830,832,219000,832
2015/02/25,832,840,830,832,205000,832
2015/02/26,832,835,830,832,140000,832
2015/02/27,832,850,832,848,266000,848
2015/03/02,849,861,842,848,191000,848
2015/03/03,855,855,837,839,134000,839
2015/03/04,835,847,832,841,156000,841
2015/03/05,842,842,830,831,196000,831
2015/03/06,832,836,825,825,119000,825
2015/03/09,826,831,819,823,102000,823
2015/03/10,829,834,823,831,166000,831
2015/03/11,822,839,822,836,82000,836
2015/03/12,846,862,838,844,217000,844
2015/03/13,855,871,850,859,245000,859
2015/03/16,860,863,848,854,144000,854
2015/03/17,852,870,850,862,176000,862
2015/03/18,874,874,854,856,157000,856
2015/03/19,871,875,854,868,126000,868
2015/03/20,868,870,857,864,152000,864
2015/03/23,864,875,864,874,86000,874
2015/03/24,874,883,859,864,199000,864
2015/03/25,859,864,856,863,113000,863
2015/03/26,863,878,855,873,229000,873
2015/03/27,853,868,834,835,435000,835
2015/03/30,836,838,824,832,191000,832
2015/03/31,839,876,837,866,461000,866
2015/04/01,852,856,836,836,126000,836
2015/04/02,834,838,826,838,103000,838
2015/04/03,848,853,836,848,79000,848
2015/04/06,849,850,840,849,75000,849
2015/04/07,854,870,854,863,112000,863
2015/04/08,875,906,874,894,419000,894
2015/04/09,892,906,889,906,167000,906
2015/04/10,914,947,911,935,420000,935
2015/04/13,947,955,937,952,248000,952
2015/04/14,937,980,937,969,266000,969
2015/04/15,954,977,953,966,238000,966
2015/04/16,973,975,966,975,107000,975
2015/04/17,971,988,963,980,192000,980
2015/04/20,981,985,964,976,106000,976
2015/04/21,976,994,976,988,285000,988
2015/04/22,980,999,980,992,175000,992
2015/04/23,992,1014,992,1010,142000,1010
2015/04/24,1008,1039,1003,1034,249000,1034
2015/04/27,1064,1074,1026,1037,223000,1037
2015/04/28,1027,1038,1015,1034,175000,1034
2015/04/30,1017,1034,1012,1015,140000,1015
2015/05/01,1015,1030,1003,1025,146000,1025
2015/05/07,1007,1035,1002,1003,197000,1003
2015/05/08,981,1005,977,997,207000,997
2015/05/11,1055,1133,1043,1114,661000,1114
2015/05/12,1090,1101,1076,1094,236000,1094
2015/05/13,1094,1125,1083,1105,149000,1105
2015/05/14,1095,1111,1080,1085,130000,1085
2015/05/15,1081,1117,1081,1103,126000,1103
2015/05/18,1102,1110,1088,1095,173000,1095
2015/05/19,1079,1099,1075,1078,123000,1078
2015/05/20,1066,1080,1065,1074,120000,1074
2015/05/21,1074,1085,1052,1055,83000,1055
2015/05/22,1067,1084,1057,1069,124000,1069
2015/05/25,1069,1100,1069,1097,92000,1097
2015/05/26,1098,1137,1098,1122,105000,1122
2015/05/27,1120,1120,1085,1101,128000,1101
2015/05/28,1101,1127,1097,1103,100000,1103
2015/05/29,1113,1129,1113,1125,128000,1125
2015/06/01,1120,1140,1115,1136,127000,1136
2015/06/02,1135,1135,1093,1098,229000,1098
2015/06/03,1098,1127,1096,1117,305000,1117
2015/06/04,1135,1170,1110,1150,268000,1150
2015/06/05,1148,1169,1139,1141,140000,1141
2015/06/08,1130,1166,1130,1140,69000,1140
2015/06/09,1139,1139,1103,1103,131000,1103
2015/06/10,1115,1136,1096,1121,212000,1121
2015/06/11,1123,1134,1111,1118,137000,1118
2015/06/12,1137,1150,1126,1129,175000,1129
2015/06/15,1135,1139,1118,1128,36000,1128
2015/06/16,1128,1131,1112,1118,69000,1118
2015/06/17,1117,1126,1100,1118,252000,1118
2015/06/18,1118,1139,1118,1124,109000,1124
2015/06/19,1151,1175,1149,1164,147000,1164
2015/06/22,1151,1162,1144,1158,81000,1158
2015/06/23,1180,1221,1176,1203,112000,1203
2015/06/24,1193,1204,1136,1164,206000,1164
2015/06/25,1160,1206,1160,1202,220000,1202
2015/06/26,1190,1220,1185,1218,178000,1218
2015/06/29,1188,1213,1188,1201,161000,1201
2015/06/30,1201,1210,1197,1209,138000,1209
2015/07/01,1220,1239,1209,1235,115000,1235
