2011/01/04,1443,1462,1440,1443,87600,1443
2011/01/05,1431,1439,1422,1427,97200,1427
2011/01/06,1436,1475,1429,1472,143800,1472
2011/01/07,1466,1466,1436,1436,125800,1436
2011/01/11,1437,1461,1428,1457,114100,1457
2011/01/12,1469,1469,1437,1438,94900,1438
2011/01/13,1433,1451,1417,1424,140100,1424
2011/01/14,1413,1433,1413,1422,85800,1422
2011/01/17,1418,1424,1410,1414,88700,1414
2011/01/18,1412,1433,1412,1430,76700,1430
2011/01/19,1431,1439,1420,1430,78600,1430
2011/01/20,1413,1460,1413,1456,106700,1456
2011/01/21,1462,1475,1450,1452,168600,1452
2011/01/24,1460,1460,1443,1460,75900,1460
2011/01/25,1470,1479,1455,1465,61300,1465
2011/01/26,1458,1468,1441,1457,44900,1457
2011/01/27,1450,1458,1438,1447,50000,1447
2011/01/28,1441,1453,1414,1416,65500,1416
2011/01/31,1410,1410,1393,1403,37700,1403
2011/02/01,1416,1416,1390,1400,48100,1400
2011/02/02,1417,1429,1403,1406,109900,1406
2011/02/03,1385,1388,1354,1358,202900,1358
2011/02/04,1379,1397,1374,1392,161600,1392
2011/02/07,1387,1405,1386,1389,100700,1389
2011/02/08,1389,1392,1365,1365,102400,1365
2011/02/09,1367,1397,1367,1392,170000,1392
2011/02/10,1362,1404,1362,1389,96100,1389
2011/02/14,1500,1509,1458,1499,393800,1499
2011/02/15,1501,1520,1490,1503,208900,1503
2011/02/16,1503,1516,1461,1466,166600,1466
2011/02/17,1460,1493,1445,1491,192100,1491
2011/02/18,1490,1540,1487,1528,265600,1528
2011/02/21,1529,1529,1485,1489,128000,1489
2011/02/22,1480,1493,1439,1446,167800,1446
2011/02/23,1418,1453,1410,1434,144800,1434
2011/02/24,1422,1448,1421,1430,150900,1430
2011/02/25,1440,1477,1420,1471,225600,1471
2011/02/28,1471,1488,1431,1482,120700,1482
2011/03/01,1500,1559,1500,1551,214300,1551
2011/03/02,1520,1532,1501,1511,143200,1511
2011/03/03,1528,1567,1527,1563,218000,1563
2011/03/04,1592,1608,1563,1564,265200,1564
2011/03/07,1571,1579,1550,1574,209900,1574
2011/03/08,1582,1611,1582,1600,229500,1600
2011/03/09,1602,1637,1600,1636,197300,1636
2011/03/10,1635,1643,1627,1636,290800,1636
2011/03/11,1641,1641,1594,1625,340400,1625
2011/03/14,1533,1581,1511,1536,262900,1536
2011/03/15,1600,1613,1415,1528,518700,1528
2011/03/16,1524,1570,1465,1548,417700,1548
2011/03/17,1470,1507,1457,1471,520900,1471
2011/03/18,1533,1596,1530,1579,338600,1579
2011/03/22,1614,1707,1611,1700,264300,1700
2011/03/23,1674,1695,1583,1590,401600,1590
2011/03/24,1550,1593,1538,1550,414300,1550
2011/03/25,1590,1606,1557,1591,202400,1591
2011/03/28,1590,1593,1546,1586,166400,1586
2011/03/29,1557,1575,1515,1557,238400,1557
2011/03/30,1570,1614,1553,1608,132000,1608
2011/03/31,1608,1608,1550,1579,180600,1579
2011/04/01,1571,1584,1557,1559,94800,1559
2011/04/04,1580,1602,1573,1575,114100,1575
2011/04/05,1565,1566,1518,1547,107100,1547
2011/04/06,1551,1551,1518,1521,63000,1521
2011/04/07,1542,1549,1506,1507,71600,1507
2011/04/08,1506,1534,1505,1526,72900,1526
2011/04/11,1509,1538,1508,1513,82800,1513
2011/04/12,1500,1539,1491,1521,109400,1521
2011/04/13,1509,1530,1507,1514,45100,1514
2011/04/14,1514,1551,1506,1544,58300,1544
2011/04/15,1559,1559,1518,1527,62500,1527
2011/04/18,1514,1525,1497,1512,71300,1512
2011/04/19,1496,1514,1474,1506,61600,1506
2011/04/20,1501,1505,1468,1468,110600,1468
2011/04/21,1492,1496,1473,1490,129500,1490
2011/04/22,1489,1499,1482,1494,101200,1494
2011/04/25,1509,1529,1485,1496,119900,1496
2011/04/26,1480,1500,1480,1495,138700,1495
2011/04/27,1503,1546,1503,1532,128800,1532
2011/04/28,1531,1574,1531,1556,90100,1556
2011/05/02,1552,1566,1532,1548,142700,1548
2011/05/06,1541,1594,1535,1592,157200,1592
2011/05/09,1562,1566,1547,1557,152200,1557
2011/05/10,1557,1563,1536,1557,60900,1557
2011/05/11,1560,1561,1540,1550,114800,1550
2011/05/12,1545,1546,1524,1527,107600,1527
2011/05/13,1521,1526,1432,1470,182800,1470
2011/05/16,1460,1485,1434,1450,188400,1450
2011/05/17,1504,1531,1485,1514,318900,1514
2011/05/18,1535,1569,1535,1555,217900,1555
2011/05/19,1559,1562,1544,1553,183900,1553
2011/05/20,1560,1561,1543,1543,116800,1543
2011/05/23,1552,1552,1511,1524,95500,1524
2011/05/24,1518,1536,1505,1525,99000,1525
2011/05/25,1560,1562,1539,1549,119100,1549
2011/05/26,1536,1568,1536,1556,155600,1556
2011/05/27,1555,1581,1555,1579,163200,1579
2011/05/30,1573,1641,1570,1638,322100,1638
2011/05/31,1618,1640,1606,1624,305900,1624
2011/06/01,1615,1625,1591,1610,195400,1610
2011/06/02,1581,1619,1580,1609,146700,1609
2011/06/03,1590,1598,1564,1567,151800,1567
2011/06/06,1563,1575,1553,1560,103800,1560
2011/06/07,1552,1585,1550,1572,130800,1572
2011/06/08,1561,1589,1551,1573,151200,1573
2011/06/09,1580,1596,1569,1584,164200,1584
2011/06/10,1561,1588,1558,1569,185000,1569
2011/06/13,1550,1583,1550,1574,86200,1574
2011/06/14,1560,1591,1554,1580,152600,1580
2011/06/15,1573,1592,1559,1585,162100,1585
2011/06/16,1559,1576,1553,1558,153900,1558
2011/06/17,1558,1567,1538,1557,303000,1557
2011/06/20,1563,1580,1563,1577,158100,1577
2011/06/21,1576,1594,1566,1592,207100,1592
2011/06/22,1590,1613,1572,1602,206800,1602
2011/06/23,1590,1602,1576,1581,166700,1581
2011/06/24,1576,1582,1556,1557,197600,1557
2011/06/27,1557,1585,1553,1575,196600,1575
2011/06/28,1580,1581,1559,1570,93600,1570
2011/06/29,1587,1587,1569,1580,103100,1580
2011/06/30,1586,1594,1568,1592,128200,1592
2011/07/01,1585,1591,1562,1581,99300,1581
2011/07/04,1573,1584,1563,1566,156000,1566
2011/07/05,1568,1573,1560,1560,129200,1560
2011/07/06,1559,1578,1553,1570,73000,1570
2011/07/07,1565,1570,1561,1565,51600,1565
2011/07/08,1567,1593,1565,1585,120300,1585
2011/07/11,1580,1603,1579,1594,274300,1594
2011/07/12,1580,1584,1556,1571,95300,1571
2011/07/13,1571,1598,1571,1589,110000,1589
2011/07/14,1580,1592,1566,1583,142900,1583
2011/07/15,1580,1601,1575,1594,101500,1594
2011/07/19,1590,1592,1573,1579,146100,1579
2011/07/20,1584,1609,1584,1601,207800,1601
2011/07/21,1601,1601,1568,1576,137600,1576
2011/07/22,1579,1592,1575,1583,96700,1583
2011/07/25,1580,1583,1562,1563,69200,1563
2011/07/26,1594,1604,1578,1593,156000,1593
2011/07/27,1580,1585,1556,1572,90900,1572
2011/07/28,1561,1585,1558,1580,177900,1580
2011/07/29,1586,1592,1568,1574,103700,1574
2011/08/01,1566,1589,1566,1572,77900,1572
2011/08/02,1565,1565,1545,1561,88000,1561
2011/08/03,1539,1549,1522,1522,84300,1522
2011/08/04,1523,1538,1505,1509,67600,1509
2011/08/05,1449,1464,1443,1455,105900,1455
2011/08/08,1433,1446,1417,1418,97800,1418
2011/08/09,1388,1476,1348,1420,98000,1420
2011/08/10,1443,1461,1421,1425,80600,1425
2011/08/11,1414,1484,1411,1450,197200,1450
2011/08/12,1475,1488,1451,1472,154800,1472
2011/08/15,1497,1513,1432,1507,165000,1507
2011/08/16,1540,1540,1480,1491,114100,1491
2011/08/17,1489,1513,1480,1509,58600,1509
2011/08/18,1518,1524,1502,1518,106500,1518
2011/08/19,1494,1509,1485,1493,86900,1493
2011/08/22,1523,1571,1520,1561,416700,1561
2011/08/23,1560,1586,1547,1576,178000,1576
2011/08/24,1585,1600,1564,1574,116900,1574
2011/08/25,1580,1583,1553,1566,170700,1566
2011/08/26,1571,1575,1549,1563,93700,1563
2011/08/29,1575,1596,1559,1578,106400,1578
2011/08/30,1589,1618,1585,1610,171800,1610
2011/08/31,1605,1606,1578,1596,165500,1596
2011/09/01,1588,1608,1583,1594,207700,1594
2011/09/02,1580,1606,1566,1600,188800,1600
2011/09/05,1580,1588,1563,1576,137300,1576
2011/09/06,1577,1594,1550,1566,165700,1566
2011/09/07,1569,1598,1558,1594,165700,1594
2011/09/08,1598,1620,1594,1617,202800,1617
2011/09/09,1609,1677,1609,1646,301500,1646
2011/09/12,1614,1630,1592,1595,136400,1595
2011/09/13,1611,1618,1585,1606,89000,1606
2011/09/14,1606,1642,1595,1600,171700,1600
2011/09/15,1603,1640,1603,1633,203500,1633
2011/09/16,1668,1690,1636,1670,180000,1670
2011/09/20,1672,1690,1661,1677,248400,1677
2011/09/21,1656,1673,1616,1617,237500,1617
2011/09/22,1655,1675,1630,1643,245000,1643
2011/09/26,1643,1652,1588,1593,244400,1593
2011/09/27,1603,1633,1592,1625,198800,1625
2011/09/28,1650,1729,1650,1710,370900,1710
2011/09/29,1707,1743,1700,1743,160400,1743
2011/09/30,1740,1753,1731,1746,226800,1746
2011/10/03,1706,1751,1698,1747,110100,1747
2011/10/04,1747,1770,1726,1762,159300,1762
2011/10/05,1762,1763,1729,1739,133000,1739
2011/10/06,1740,1777,1732,1737,89800,1737
2011/10/07,1738,1766,1738,1740,191400,1740
2011/10/11,1770,1787,1756,1771,142400,1771
2011/10/12,1768,1768,1742,1749,84100,1749
2011/10/13,1759,1762,1713,1717,70200,1717
2011/10/14,1705,1728,1696,1722,123900,1722
2011/10/17,1746,1747,1719,1725,88200,1725
2011/10/18,1711,1730,1708,1711,78700,1711
2011/10/19,1710,1712,1654,1668,440600,1668
2011/10/20,1658,1695,1644,1684,262600,1684
2011/10/21,1690,1736,1683,1727,157700,1727
2011/10/24,1728,1739,1693,1697,137900,1697
2011/10/25,1700,1700,1656,1664,215400,1664
2011/10/26,1655,1677,1644,1649,173700,1649
2011/10/27,1651,1705,1646,1690,201800,1690
2011/10/28,1707,1715,1636,1656,238800,1656
2011/10/31,1690,1730,1687,1715,185000,1715
2011/11/01,1699,1710,1680,1685,121400,1685
2011/11/02,1666,1668,1634,1658,137300,1658
2011/11/04,1656,1696,1652,1682,140400,1682
2011/11/07,1699,1728,1692,1727,183900,1727
2011/11/08,1719,1734,1703,1713,111600,1713
2011/11/09,1718,1748,1718,1741,94200,1741
2011/11/10,1715,1754,1708,1752,134000,1752
2011/11/11,1750,1764,1746,1757,121100,1757
2011/11/14,1756,1772,1721,1729,134600,1729
2011/11/15,1728,1755,1720,1736,150600,1736
2011/11/16,1740,1770,1731,1741,145300,1741
2011/11/17,1725,1730,1703,1712,82900,1712
2011/11/18,1687,1735,1679,1733,106000,1733
2011/11/21,1746,1753,1737,1741,93300,1741
2011/11/22,1750,1761,1739,1756,166500,1756
2011/11/24,1741,1770,1734,1738,132500,1738
2011/11/25,1749,1765,1740,1741,105000,1741
2011/11/28,1751,1751,1715,1716,123700,1716
2011/11/29,1728,1755,1714,1750,107900,1750
2011/11/30,1764,1780,1745,1779,156600,1779
2011/12/01,1780,1780,1721,1721,121300,1721
2011/12/02,1733,1750,1730,1747,59000,1747
2011/12/05,1750,1758,1731,1755,71500,1755
2011/12/06,1753,1755,1730,1734,81000,1734
2011/12/07,1749,1756,1709,1723,145900,1723
2011/12/08,1715,1721,1696,1700,120500,1700
2011/12/09,1689,1700,1668,1686,129400,1686
2011/12/12,1726,1730,1654,1667,195100,1667
2011/12/13,1650,1690,1636,1681,226300,1681
2011/12/14,1660,1664,1625,1635,239500,1635
2011/12/15,1620,1628,1603,1613,145400,1613
2011/12/16,1622,1639,1616,1616,70700,1616
2011/12/19,1606,1618,1577,1615,117800,1615
2011/12/20,1605,1632,1600,1631,89600,1631
2011/12/21,1634,1635,1590,1617,158200,1617
2011/12/22,1618,1635,1605,1634,100900,1634
2011/12/26,1646,1648,1625,1642,73500,1642
2011/12/27,1632,1640,1623,1627,38400,1627
2011/12/28,1624,1634,1613,1620,54300,1620
2011/12/29,1619,1631,1607,1627,56300,1627
2011/12/30,1638,1647,1628,1647,72300,1647
2012/01/04,1698,1721,1698,1708,171400,1708
2012/01/05,1716,1750,1710,1741,236600,1741
2012/01/06,1732,1732,1699,1721,160700,1721
2012/01/10,1721,1738,1695,1709,200600,1709
2012/01/11,1709,1729,1706,1709,132500,1709
2012/01/12,1702,1706,1677,1682,94800,1682
2012/01/13,1688,1738,1684,1731,147400,1731
2012/01/16,1734,1745,1716,1736,111600,1736
2012/01/17,1738,1758,1733,1739,84100,1739
2012/01/18,1733,1752,1703,1703,98500,1703
2012/01/19,1715,1723,1688,1698,167000,1698
2012/01/20,1706,1721,1685,1691,129100,1691
2012/01/23,1701,1733,1698,1728,110500,1728
2012/01/24,1737,1737,1712,1728,80900,1728
2012/01/25,1735,1750,1723,1741,112500,1741
2012/01/26,1733,1733,1708,1719,84500,1719
2012/01/27,1717,1720,1698,1710,103300,1710
2012/01/30,1710,1730,1710,1710,53900,1710
2012/01/31,1703,1712,1695,1707,113500,1707
2012/02/01,1707,1738,1705,1729,79100,1729
2012/02/02,1722,1731,1702,1711,94100,1711
2012/02/03,1711,1718,1695,1700,46100,1700
2012/02/06,1700,1733,1691,1714,143200,1714
2012/02/07,1704,1707,1678,1698,124600,1698
2012/02/08,1705,1730,1700,1725,217000,1725
2012/02/09,1723,1723,1698,1716,184800,1716
2012/02/10,1717,1717,1656,1693,273200,1693
2012/02/13,1688,1688,1604,1652,477800,1652
2012/02/14,1659,1667,1637,1648,264600,1648
2012/02/15,1658,1658,1624,1630,307900,1630
2012/02/16,1631,1637,1616,1618,201600,1618
2012/02/17,1684,1684,1640,1645,288900,1645
2012/02/20,1644,1649,1607,1609,235200,1609
2012/02/21,1610,1649,1610,1640,238000,1640
2012/02/22,1670,1673,1640,1645,249400,1645
2012/02/23,1651,1651,1627,1638,242200,1638
2012/02/24,1630,1635,1608,1618,522900,1618
2012/02/27,1618,1626,1612,1616,282500,1616
2012/02/28,1615,1621,1595,1616,258300,1616
2012/02/29,1625,1635,1613,1626,255100,1626
2012/03/01,1638,1638,1609,1620,145500,1620
2012/03/02,1618,1634,1615,1633,190300,1633
2012/03/05,1641,1650,1631,1639,234300,1639
2012/03/06,1638,1652,1634,1644,251700,1644
2012/03/07,1627,1632,1618,1628,197100,1628
2012/03/08,1632,1669,1630,1668,361600,1668
2012/03/09,1661,1667,1639,1661,464000,1661
2012/03/12,1660,1681,1660,1667,331300,1667
2012/03/13,1666,1692,1662,1669,182100,1669
2012/03/14,1685,1693,1675,1684,196400,1684
2012/03/15,1686,1686,1664,1671,214600,1671
2012/03/16,1673,1687,1671,1679,223100,1679
2012/03/19,1687,1706,1687,1699,184300,1699
2012/03/21,1699,1699,1680,1681,123800,1681
2012/03/22,1680,1693,1672,1684,188700,1684
2012/03/23,1686,1714,1674,1704,340900,1704
2012/03/26,1713,1714,1698,1700,122200,1700
2012/03/27,1700,1703,1688,1700,133500,1700
2012/03/28,1687,1708,1679,1700,155100,1700
2012/03/29,1704,1715,1693,1702,159700,1702
2012/03/30,1709,1715,1696,1698,110300,1698
2012/04/02,1711,1711,1695,1697,142300,1697
2012/04/03,1702,1702,1681,1692,129600,1692
2012/04/04,1697,1698,1670,1681,120100,1681
2012/04/05,1668,1668,1645,1655,148300,1655
2012/04/06,1664,1694,1648,1653,258800,1653
2012/04/09,1636,1677,1630,1663,132000,1663
2012/04/10,1668,1675,1647,1653,102600,1653
2012/04/11,1625,1648,1620,1640,125700,1640
2012/04/12,1646,1650,1636,1643,95400,1643
2012/04/13,1640,1656,1637,1648,71400,1648
2012/04/16,1639,1661,1624,1645,120900,1645
2012/04/17,1631,1642,1621,1637,86900,1637
2012/04/18,1650,1689,1649,1664,180800,1664
2012/04/19,1670,1670,1640,1643,88700,1643
2012/04/20,1642,1649,1626,1644,73400,1644
2012/04/23,1644,1655,1637,1643,92700,1643
2012/04/24,1610,1620,1524,1570,602400,1570
2012/04/25,1581,1585,1567,1574,236500,1574
2012/04/26,1599,1605,1584,1597,229400,1597
2012/04/27,1600,1622,1593,1598,345900,1598
2012/05/01,1582,1611,1581,1603,229800,1603
2012/05/02,1618,1622,1597,1615,168100,1615
2012/05/07,1575,1579,1566,1571,91400,1571
2012/05/08,1575,1595,1569,1582,99400,1582
2012/05/09,1568,1572,1547,1555,114900,1555
2012/05/10,1536,1570,1523,1555,151100,1555
2012/05/11,1552,1555,1532,1535,93900,1535
2012/05/14,1517,1521,1503,1512,141200,1512
2012/05/15,1450,1518,1450,1513,130400,1513
2012/05/16,1506,1545,1485,1504,235500,1504
2012/05/17,1507,1524,1480,1511,149300,1511
2012/05/18,1496,1521,1485,1521,207000,1521
2012/05/21,1520,1536,1501,1524,155300,1524
2012/05/22,1525,1532,1512,1527,126700,1527
2012/05/23,1510,1510,1477,1488,185600,1488
2012/05/24,1480,1490,1456,1480,182100,1480
2012/05/25,1500,1500,1465,1471,145800,1471
2012/05/28,1477,1477,1439,1455,135700,1455
2012/05/29,1442,1474,1435,1471,156300,1471
2012/05/30,1480,1483,1457,1468,147500,1468
2012/05/31,1467,1518,1466,1515,196400,1515
2012/06/01,1489,1494,1437,1449,235400,1449
2012/06/04,1426,1448,1415,1440,281700,1440
2012/06/05,1441,1520,1441,1510,293600,1510
2012/06/06,1510,1517,1491,1506,154100,1506
2012/06/07,1491,1512,1482,1503,162200,1503
2012/06/08,1508,1512,1468,1488,173000,1488
2012/06/11,1503,1519,1497,1507,81000,1507
2012/06/12,1495,1524,1485,1516,157300,1516
2012/06/13,1509,1515,1497,1503,144000,1503
2012/06/14,1505,1515,1485,1494,100400,1494
2012/06/15,1500,1524,1490,1517,147300,1517
2012/06/18,1528,1540,1520,1530,153300,1530
2012/06/19,1552,1577,1539,1545,203900,1545
2012/06/20,1551,1558,1539,1541,124100,1541
2012/06/21,1555,1578,1540,1556,187900,1556
2012/06/22,1561,1572,1545,1549,94700,1549
2012/06/25,1561,1579,1550,1571,106300,1571
2012/06/26,1567,1580,1553,1566,168000,1566
2012/06/27,1565,1610,1558,1608,143700,1608
2012/06/28,1613,1642,1597,1638,188800,1638
2012/06/29,1610,1669,1602,1660,303000,1660
2012/07/02,1660,1661,1625,1625,114300,1625
2012/07/03,1631,1670,1631,1662,145300,1662
2012/07/04,1677,1719,1670,1712,351200,1712
2012/07/05,1704,1713,1672,1679,95100,1679
2012/07/06,1672,1711,1664,1678,121700,1678
2012/07/09,1663,1707,1649,1701,115000,1701
2012/07/10,1692,1720,1688,1708,179500,1708
2012/07/11,1708,1728,1697,1724,148800,1724
2012/07/12,1720,1738,1708,1716,137400,1716
2012/07/13,1704,1739,1704,1734,118200,1734
2012/07/17,1738,1740,1717,1721,126200,1721
2012/07/18,1721,1726,1685,1698,165300,1698
2012/07/19,1710,1733,1699,1730,163800,1730
2012/07/20,1737,1737,1696,1701,131200,1701
2012/07/23,1679,1694,1657,1657,127600,1657
2012/07/24,1658,1675,1639,1659,109400,1659
2012/07/25,1648,1679,1628,1657,118800,1657
2012/07/26,1672,1690,1661,1690,69200,1690
2012/07/27,1698,1698,1673,1689,60900,1689
2012/07/30,1689,1708,1685,1708,80200,1708
2012/07/31,1708,1722,1692,1710,130600,1710
2012/08/01,1691,1708,1677,1701,82500,1701
2012/08/02,1702,1717,1693,1698,31500,1698
2012/08/03,1674,1698,1657,1682,57500,1682
2012/08/06,1686,1717,1686,1706,62800,1706
2012/08/07,1705,1717,1696,1712,40600,1712
2012/08/08,1712,1738,1697,1719,92600,1719
2012/08/09,1720,1738,1693,1737,76800,1737
2012/08/10,1737,1737,1706,1721,91700,1721
2012/08/13,1738,1892,1731,1879,399600,1879
2012/08/14,1883,1910,1800,1808,330200,1808
2012/08/15,1810,1839,1807,1820,127500,1820
2012/08/16,1850,1877,1809,1815,195700,1815
2012/08/17,1850,1874,1810,1820,237300,1820
2012/08/20,1822,1848,1822,1824,145500,1824
2012/08/21,1828,1846,1815,1835,142600,1835
2012/08/22,1836,1861,1829,1856,119300,1856
2012/08/23,1861,1867,1837,1854,92700,1854
2012/08/24,1842,1863,1833,1857,92600,1857
2012/08/27,1860,1870,1837,1854,76800,1854
2012/08/28,1859,1860,1839,1850,150100,1850
2012/08/29,1845,1845,1791,1805,299200,1805
2012/08/30,1796,1824,1790,1793,195700,1793
2012/08/31,1788,1801,1776,1787,162900,1787
2012/09/03,1781,1813,1734,1741,277900,1741
2012/09/04,1734,1749,1710,1729,370200,1729
2012/09/05,1706,1725,1635,1659,476100,1659
2012/09/06,1660,1662,1631,1641,389700,1641
2012/09/07,1660,1663,1596,1607,489900,1607
2012/09/10,1618,1623,1593,1604,293300,1604
2012/09/11,1586,1600,1564,1581,393000,1581
2012/09/12,1565,1579,1532,1556,649900,1556
2012/09/13,1552,1552,1516,1537,436100,1537
2012/09/14,1544,1559,1515,1520,376500,1520
2012/09/18,1522,1555,1522,1553,427900,1553
2012/09/19,1547,1573,1547,1556,308500,1556
2012/09/20,1563,1609,1560,1601,657600,1601
2012/09/21,1601,1619,1573,1610,514800,1610
2012/09/24,1617,1617,1586,1593,216900,1593
2012/09/25,1574,1593,1569,1589,242500,1589
2012/09/26,1563,1583,1556,1578,192700,1578
2012/09/27,1579,1634,1575,1631,392800,1631
2012/09/28,1618,1641,1612,1638,429500,1638
2012/10/01,1626,1626,1585,1601,170300,1601
2012/10/02,1600,1634,1597,1628,262500,1628
2012/10/03,1633,1635,1583,1588,315200,1588
2012/10/04,1589,1603,1579,1589,352100,1589
2012/10/05,1591,1600,1585,1597,375700,1597
2012/10/09,1645,1685,1640,1670,497500,1670
2012/10/10,1644,1670,1628,1653,319400,1653
2012/10/11,1634,1639,1608,1623,228500,1623
2012/10/12,1626,1672,1625,1667,167700,1667
2012/10/15,1674,1682,1658,1667,179600,1667
2012/10/16,1678,1716,1678,1713,293200,1713
2012/10/17,1717,1720,1690,1698,160900,1698
2012/10/18,1698,1702,1670,1700,157100,1700
2012/10/19,1708,1708,1680,1686,112000,1686
2012/10/22,1671,1691,1670,1678,77700,1678
2012/10/23,1691,1708,1673,1699,134100,1699
2012/10/24,1673,1674,1651,1663,163500,1663
2012/10/25,1648,1720,1646,1695,188100,1695
2012/10/26,1696,1707,1666,1673,108800,1673
2012/10/29,1686,1728,1675,1718,290400,1718
2012/10/30,1700,1700,1663,1666,406500,1666
2012/10/31,1690,1725,1680,1694,394400,1694
2012/11/01,1690,1699,1681,1685,174000,1685
2012/11/02,1698,1729,1684,1690,222100,1690
2012/11/05,1686,1704,1676,1682,106800,1682
2012/11/06,1678,1678,1659,1666,77400,1666
2012/11/07,1675,1677,1655,1656,109500,1656
2012/11/08,1616,1647,1602,1605,200900,1605
2012/11/09,1601,1608,1596,1604,111000,1604
2012/11/12,1644,1644,1586,1601,212200,1601
2012/11/13,1597,1597,1561,1575,195500,1575
2012/11/14,1590,1600,1572,1593,137300,1593
2012/11/15,1594,1603,1579,1584,204200,1584
2012/11/16,1579,1629,1560,1626,272800,1626
2012/11/19,1644,1649,1608,1618,122400,1618
2012/11/20,1619,1623,1608,1614,97000,1614
2012/11/21,1626,1638,1609,1619,174600,1619
2012/11/22,1635,1639,1621,1629,106500,1629
2012/11/26,1642,1648,1611,1620,138900,1620
2012/11/27,1615,1629,1610,1623,114400,1623
2012/11/28,1624,1639,1612,1638,110200,1638
2012/11/29,1638,1653,1625,1625,148500,1625
2012/11/30,1625,1625,1599,1599,260500,1599
2012/12/03,1630,1640,1614,1628,227300,1628
2012/12/04,1637,1689,1633,1682,347900,1682
2012/12/05,1680,1704,1674,1680,223300,1680
2012/12/06,1690,1697,1673,1686,229400,1686
2012/12/07,1689,1702,1686,1686,99900,1686
2012/12/10,1700,1700,1680,1686,83200,1686
2012/12/11,1690,1695,1667,1687,129100,1687
2012/12/12,1699,1703,1684,1697,233800,1697
2012/12/13,1704,1704,1684,1687,117100,1687
2012/12/14,1686,1707,1685,1705,172200,1705
2012/12/17,1727,1728,1681,1687,260400,1687
2012/12/18,1688,1707,1677,1680,357300,1680
2012/12/19,1680,1689,1660,1683,356700,1683
2012/12/20,1684,1698,1668,1695,232900,1695
2012/12/21,1696,1696,1633,1643,449800,1643
2012/12/25,1653,1660,1639,1641,139000,1641
2012/12/26,1660,1662,1630,1637,181500,1637
2012/12/27,1642,1649,1636,1646,186900,1646
2012/12/28,1647,1648,1620,1631,139500,1631
2013/01/04,1671,1673,1635,1645,252900,1645
2013/01/07,1689,1689,1666,1675,168900,1675
2013/01/08,1683,1716,1678,1703,298200,1703
2013/01/09,1704,1771,1698,1765,526900,1765
2013/01/10,1771,1773,1748,1764,187700,1764
2013/01/11,1751,1768,1745,1754,175200,1754
2013/01/15,1782,1792,1759,1768,167100,1768
2013/01/16,1777,1804,1747,1781,276500,1781
2013/01/17,1772,1776,1739,1766,214100,1766
2013/01/18,1769,1785,1753,1784,200800,1784
2013/01/21,1786,1813,1766,1789,226400,1789
2013/01/22,1802,1807,1771,1785,190100,1785
2013/01/23,1777,1782,1760,1773,220200,1773
2013/01/24,1754,1785,1747,1763,193500,1763
2013/01/25,1790,1810,1781,1810,158900,1810
2013/01/28,1821,1829,1795,1799,156400,1799
2013/01/29,1787,1832,1787,1810,171500,1810
2013/01/30,1812,1883,1812,1832,225400,1832
2013/01/31,1832,1847,1823,1843,152800,1843
2013/02/01,1854,1862,1825,1827,156100,1827
2013/02/04,1857,1859,1835,1841,200800,1841
2013/02/05,1836,1857,1810,1820,197700,1820
2013/02/06,1831,1871,1821,1867,226800,1867
2013/02/07,1857,1895,1839,1889,301900,1889
2013/02/08,1888,1888,1851,1860,223500,1860
2013/02/12,1898,1908,1873,1893,218600,1893
2013/02/13,1850,1865,1733,1741,529200,1741
2013/02/14,1781,1894,1771,1834,841300,1834
2013/02/15,1800,1810,1757,1776,262000,1776
2013/02/18,1797,1884,1781,1844,373100,1844
2013/02/19,1848,1884,1837,1874,220900,1874
2013/02/20,1874,1957,1870,1928,384200,1928
2013/02/21,1920,1950,1912,1930,199200,1930
2013/02/22,1924,1947,1907,1928,192500,1928
2013/02/25,1955,2010,1955,1982,235000,1982
2013/02/26,1964,1987,1952,1975,191100,1975
2013/02/27,1995,2004,1962,1965,169900,1965
2013/02/28,1978,2030,1976,2025,171900,2025
2013/03/01,2029,2058,2015,2042,225300,2042
2013/03/04,2050,2119,2047,2082,259900,2082
2013/03/05,2116,2124,2090,2090,137200,2090
2013/03/06,2105,2105,2078,2088,180800,2088
2013/03/07,2086,2088,2013,2038,340300,2038
2013/03/08,2047,2107,2044,2105,299700,2105
2013/03/11,2120,2131,2084,2115,168700,2115
2013/03/12,2115,2117,2038,2052,258200,2052
2013/03/13,2051,2089,2050,2056,111800,2056
2013/03/14,2058,2110,2051,2109,197500,2109
2013/03/15,2079,2101,2061,2090,202800,2090
2013/03/18,2074,2074,2041,2058,187300,2058
2013/03/19,2052,2098,2043,2091,150600,2091
2013/03/21,2105,2117,2084,2104,191800,2104
2013/03/22,2091,2098,2037,2037,164300,2037
2013/03/25,2084,2144,2067,2129,327700,2129
2013/03/26,2131,2195,2129,2188,308000,2188
2013/03/27,2190,2222,2158,2169,191700,2169
2013/03/28,2140,2154,2098,2108,150500,2108
2013/03/29,2123,2140,2111,2129,91100,2129
2013/04/01,2142,2145,2051,2055,99600,2055
2013/04/02,2010,2088,1950,2039,236600,2039
2013/04/03,2027,2145,2022,2142,210900,2142
2013/04/04,2112,2131,2056,2129,151300,2129
2013/04/05,2155,2180,2115,2142,212100,2142
2013/04/08,2142,2179,2110,2142,214700,2142
2013/04/09,2143,2149,2092,2120,163900,2120
2013/04/10,2120,2180,2093,2178,215100,2178
2013/04/11,2177,2199,2146,2167,166700,2167
2013/04/12,2160,2165,2119,2123,101700,2123
2013/04/15,2151,2164,2100,2116,186000,2116
2013/04/16,2090,2113,2065,2082,171400,2082
2013/04/17,2100,2137,2081,2121,155100,2121
2013/04/18,2104,2120,2061,2067,200200,2067
2013/04/19,2079,2081,2038,2045,244900,2045
2013/04/22,2080,2108,2077,2097,239700,2097
2013/04/23,2092,2143,2091,2102,261300,2102
2013/04/24,2120,2170,2102,2170,237100,2170
2013/04/25,2170,2188,2159,2182,137400,2182
2013/04/26,2214,2279,2156,2166,360000,2166
2013/04/30,2166,2233,2166,2205,228600,2205
2013/05/01,2216,2255,2186,2245,174400,2245
2013/05/02,2245,2262,2224,2235,105400,2235
2013/05/07,2260,2307,2260,2302,135100,2302
2013/05/08,2304,2349,2293,2314,172600,2314
2013/05/09,2330,2348,2288,2297,109700,2297
2013/05/10,2327,2340,2301,2303,95700,2303
2013/05/13,2326,2335,2263,2292,136200,2292
2013/05/14,2270,2344,2270,2336,124000,2336
2013/05/15,2380,2380,2260,2290,262700,2290
2013/05/16,2250,2270,2192,2250,248100,2250
2013/05/17,2264,2385,2262,2370,321300,2370
2013/05/20,2388,2435,2362,2414,134200,2414
2013/05/21,2423,2467,2411,2425,165600,2425
2013/05/22,2436,2441,2345,2348,209500,2348
2013/05/23,2379,2489,2362,2366,407600,2366
2013/05/24,2302,2370,2265,2307,313400,2307
2013/05/27,2275,2299,2214,2256,172700,2256
2013/05/28,2218,2265,2158,2218,251000,2218
2013/05/29,2282,2357,2280,2318,223500,2318
2013/05/30,2310,2360,2245,2268,315400,2268
2013/05/31,2279,2353,2241,2250,168800,2250
2013/06/03,2242,2288,2215,2226,127500,2226
2013/06/04,2218,2253,2186,2240,126900,2240
2013/06/05,2221,2324,2211,2222,115200,2222
2013/06/06,2211,2267,2169,2192,173200,2192
2013/06/07,2207,2249,2150,2179,221500,2179
2013/06/10,2210,2300,2210,2289,207800,2289
2013/06/11,2290,2369,2285,2340,214800,2340
2013/06/12,2280,2280,2213,2234,210500,2234
2013/06/13,2196,2217,2161,2181,141900,2181
2013/06/14,2219,2242,2177,2177,173000,2177
2013/06/17,2174,2259,2174,2252,99400,2252
2013/06/18,2270,2300,2238,2241,117600,2241
2013/06/19,2241,2308,2237,2262,154200,2262
2013/06/20,2300,2400,2259,2392,339100,2392
2013/06/21,2393,2456,2357,2456,528600,2456
2013/06/24,2471,2489,2374,2385,266300,2385
2013/06/25,2355,2395,2300,2375,161300,2375
2013/06/26,2382,2401,2317,2331,102000,2331
2013/06/27,2376,2400,2337,2400,98100,2400
2013/06/28,2430,2455,2411,2440,134300,2440
2013/07/01,2441,2480,2418,2447,174500,2447
2013/07/02,2473,2530,2455,2526,133800,2526
2013/07/03,2537,2569,2467,2490,153400,2490
2013/07/04,2501,2539,2446,2450,131800,2450
2013/07/05,2454,2492,2450,2475,90600,2475
2013/07/08,2474,2498,2404,2407,123900,2407
2013/07/09,2456,2501,2441,2495,134700,2495
2013/07/10,2495,2530,2483,2502,137100,2502
2013/07/11,2505,2521,2468,2496,85800,2496
2013/07/12,2507,2518,2477,2511,94500,2511
2013/07/16,2514,2535,2497,2517,112400,2517
2013/07/17,2525,2550,2504,2550,123300,2550
2013/07/18,2561,2595,2561,2579,160800,2579
2013/07/19,2611,2619,2527,2535,153400,2535
2013/07/22,2569,2569,2521,2548,85600,2548
2013/07/23,2534,2577,2497,2525,99700,2525
2013/07/24,2513,2521,2480,2487,60600,2487
2013/07/25,2498,2501,2450,2495,73900,2495
2013/07/26,2448,2451,2414,2415,79900,2415
2013/07/29,2393,2414,2345,2352,84000,2352
2013/07/30,2325,2390,2325,2363,99600,2363
2013/07/31,2356,2374,2335,2367,63000,2367
2013/08/01,2378,2396,2360,2396,91100,2396
2013/08/02,2396,2470,2385,2470,69500,2470
2013/08/05,2471,2471,2426,2442,64400,2442
2013/08/06,2442,2456,2393,2443,70200,2443
2013/08/07,2405,2426,2350,2354,124200,2354
2013/08/08,2355,2385,2327,2332,94900,2332
2013/08/09,2327,2359,2315,2327,64700,2327
2013/08/12,2215,2254,2120,2244,463600,2244
2013/08/13,2245,2269,2227,2252,115200,2252
2013/08/14,2252,2310,2252,2307,149400,2307
2013/08/15,2308,2321,2286,2295,80000,2295
2013/08/16,2272,2300,2254,2286,105500,2286
2013/08/19,2279,2336,2279,2333,68500,2333
2013/08/20,2337,2339,2273,2278,82800,2278
2013/08/21,2279,2292,2225,2257,110400,2257
2013/08/22,2264,2280,2245,2262,68500,2262
2013/08/23,2250,2255,2206,2229,189500,2229
2013/08/26,2231,2250,2215,2225,111900,2225
2013/08/27,2229,2260,2202,2212,142900,2212
2013/08/28,2210,2216,2162,2195,126600,2195
2013/08/29,2197,2214,2175,2207,89000,2207
2013/08/30,2211,2215,2172,2180,104400,2180
2013/09/02,2179,2221,2179,2211,70100,2211
2013/09/03,2228,2255,2202,2224,96800,2224
2013/09/04,2219,2220,2185,2199,113100,2199
2013/09/05,2202,2227,2181,2213,144100,2213
2013/09/06,2209,2223,2185,2204,60600,2204
2013/09/09,2240,2289,2235,2265,112500,2265
2013/09/10,2280,2340,2275,2308,167200,2308
2013/09/11,2342,2358,2277,2284,129400,2284
2013/09/12,2292,2315,2284,2311,64200,2311
2013/09/13,2290,2339,2280,2312,180400,2312
2013/09/17,2309,2311,2241,2250,192700,2250
2013/09/18,2236,2271,2201,2242,299800,2242
2013/09/19,2272,2320,2272,2314,239900,2314
2013/09/20,2350,2377,2336,2345,218100,2345
2013/09/24,2333,2367,2333,2353,130200,2353
2013/09/25,2367,2367,2331,2345,157100,2345
2013/09/26,2330,2407,2330,2405,113800,2405
2013/09/27,2406,2409,2345,2382,98200,2382
2013/09/30,2368,2380,2340,2342,96100,2342
2013/10/01,2342,2381,2342,2366,107800,2366
2013/10/02,2372,2381,2321,2344,129400,2344
2013/10/03,2326,2364,2319,2327,80400,2327
2013/10/04,2306,2350,2300,2333,88100,2333
2013/10/07,2333,2340,2300,2319,94100,2319
2013/10/08,2291,2314,2263,2305,143300,2305
2013/10/09,2290,2318,2290,2310,128600,2310
2013/10/10,2311,2351,2311,2344,164100,2344
2013/10/11,2362,2379,2334,2354,151800,2354
2013/10/15,2379,2400,2354,2376,141800,2376
2013/10/16,2384,2394,2338,2345,149400,2345
2013/10/17,2348,2363,2332,2353,149500,2353
2013/10/18,2343,2350,2325,2344,273700,2344
2013/10/21,2351,2354,2315,2342,183600,2342
2013/10/22,2343,2349,2327,2343,166000,2343
2013/10/23,2336,2353,2306,2322,232000,2322
2013/10/24,2321,2361,2311,2351,137300,2351
2013/10/25,2364,2370,2330,2351,166200,2351
2013/10/28,2363,2428,2363,2426,193100,2426
2013/10/29,2425,2441,2401,2417,161000,2417
2013/10/30,2381,2382,2242,2279,710200,2279
2013/10/31,2272,2306,2272,2281,279200,2281
2013/11/01,2272,2273,2198,2226,267900,2226
2013/11/05,2227,2232,2166,2174,361300,2174
2013/11/06,2174,2213,2171,2179,246400,2179
2013/11/07,2187,2215,2139,2149,286900,2149
2013/11/08,2130,2160,2125,2137,219500,2137
2013/11/11,2140,2180,2118,2132,212700,2132
2013/11/12,2100,2134,2097,2108,301000,2108
2013/11/13,2102,2127,2076,2096,175400,2096
2013/11/14,2115,2123,2101,2117,127900,2117
2013/11/15,2144,2159,2121,2140,190600,2140
2013/11/18,2140,2161,2117,2125,204500,2125
2013/11/19,2120,2142,2077,2084,209300,2084
2013/11/20,2084,2119,2077,2099,192700,2099
2013/11/21,2116,2133,2096,2113,144500,2113
2013/11/22,2130,2130,2090,2096,111200,2096
2013/11/25,2123,2134,2114,2132,136400,2132
2013/11/26,2133,2133,2111,2116,88800,2116
2013/11/27,2130,2133,2108,2111,161500,2111
2013/11/28,2106,2123,2100,2107,57900,2107
2013/11/29,2110,2123,2105,2110,85100,2110
2013/12/02,2110,2189,2106,2184,339800,2184
2013/12/03,2190,2220,2185,2200,238400,2200
2013/12/04,2171,2200,2165,2170,185800,2170
2013/12/05,2150,2165,2130,2130,355500,2130
2013/12/06,2120,2147,2120,2140,165600,2140
2013/12/09,2179,2179,2129,2144,290800,2144
2013/12/10,2146,2180,2125,2171,179200,2171
2013/12/11,2170,2192,2140,2190,177800,2190
2013/12/12,2188,2243,2180,2232,287900,2232
2013/12/13,2240,2256,2219,2241,425600,2241
2013/12/16,2222,2242,2214,2221,289500,2221
2013/12/17,2213,2270,2213,2246,263600,2246
2013/12/18,2246,2253,2213,2222,232900,2222
2013/12/19,2237,2243,2218,2229,140900,2229
2013/12/20,2234,2234,2208,2220,240100,2220
2013/12/24,2229,2236,2221,2229,212200,2229
2013/12/25,2220,2230,2208,2222,200800,2222
2013/12/26,2230,2277,2230,2271,159600,2271
2013/12/27,2275,2290,2264,2284,217300,2284
2013/12/30,2285,2340,2273,2337,233200,2337
2014/01/06,2307,2332,2276,2278,224500,2278
2014/01/07,2278,2293,2242,2250,175300,2250
2014/01/08,2279,2283,2256,2274,95000,2274
2014/01/09,2288,2291,2256,2278,134200,2278
2014/01/10,2269,2295,2254,2293,167700,2293
2014/01/14,2260,2280,2239,2258,146700,2258
2014/01/15,2263,2293,2241,2290,172100,2290
2014/01/16,2295,2305,2281,2285,135700,2285
2014/01/17,2270,2281,2254,2275,174700,2275
2014/01/20,2276,2291,2272,2277,59800,2277
2014/01/21,2280,2297,2254,2271,208100,2271
2014/01/22,2265,2280,2227,2231,269600,2231
2014/01/23,2234,2240,2213,2228,200600,2228
2014/01/24,2220,2252,2213,2239,162400,2239
2014/01/27,2249,2249,2212,2219,228800,2219
2014/01/28,2221,2228,2189,2189,187200,2189
2014/01/29,2192,2249,2192,2248,92100,2248
2014/01/30,2208,2233,2183,2217,98000,2217
2014/01/31,2218,2234,2205,2229,128600,2229
2014/02/03,2204,2204,2160,2180,106900,2180
2014/02/04,1963,2151,1963,2103,298000,2103
2014/02/05,2110,2178,2083,2095,203400,2095
2014/02/06,2086,2141,2082,2123,87500,2123
2014/02/07,2137,2171,2113,2144,90200,2144
2014/02/10,2163,2186,2149,2159,85200,2159
2014/02/12,2059,2071,2026,2037,391400,2037
2014/02/13,2000,2000,1901,1921,746300,1921
2014/02/14,1906,1923,1874,1912,398300,1912
2014/02/17,1949,1979,1934,1973,291100,1973
2014/02/18,1970,2010,1961,2004,292000,2004
2014/02/19,2005,2023,1988,2018,218100,2018
2014/02/20,2018,2018,1962,1970,122200,1970
2014/02/21,1993,2017,1974,2014,183000,2014
2014/02/24,2034,2053,1994,2024,149500,2024
2014/02/25,2073,2103,2068,2096,261300,2096
2014/02/26,2096,2110,2068,2081,183800,2081
2014/02/27,2070,2088,2053,2066,127900,2066
2014/02/28,2074,2096,2053,2089,153300,2089
2014/03/03,2054,2078,2047,2060,197800,2060
2014/03/04,2042,2073,2034,2050,189000,2050
2014/03/05,2050,2077,2038,2051,89100,2051
2014/03/06,2040,2061,2033,2051,125100,2051
2014/03/07,2067,2080,2050,2072,79900,2072
2014/03/10,2091,2120,2080,2106,110300,2106
2014/03/11,2034,2094,2029,2076,155800,2076
2014/03/12,2065,2104,2054,2092,139100,2092
2014/03/13,2100,2131,2084,2101,178800,2101
2014/03/14,2083,2085,2029,2034,198600,2034
2014/03/17,2038,2038,1994,1998,129500,1998
2014/03/18,1998,2042,1989,2027,119500,2027
2014/03/19,2028,2068,2026,2053,68900,2053
2014/03/20,2080,2080,2040,2065,122400,2065
2014/03/24,2080,2238,2075,2166,332500,2166
2014/03/25,2194,2258,2135,2143,288600,2143
2014/03/26,2193,2220,2138,2154,289100,2154
2014/03/27,2155,2199,2137,2179,143000,2179
2014/03/28,2171,2182,2136,2182,181700,2182
2014/03/31,2183,2246,2169,2238,175000,2238
2014/04/01,2250,2293,2232,2260,200000,2260
2014/04/02,2261,2270,2221,2246,141900,2246
2014/04/03,2239,2255,2216,2227,125600,2227
2014/04/04,2213,2227,2189,2222,109500,2222
2014/04/07,2205,2221,2177,2187,104800,2187
2014/04/08,2149,2180,2130,2142,101600,2142
2014/04/09,2112,2131,2086,2099,123800,2099
2014/04/10,2117,2142,2104,2114,109000,2114
2014/04/11,2080,2129,2072,2090,108800,2090
2014/04/14,2080,2099,2075,2075,63000,2075
2014/04/15,2107,2125,2074,2088,122000,2088
2014/04/16,2098,2120,2086,2108,122300,2108
2014/04/17,2139,2170,2117,2149,138300,2149
2014/04/18,2152,2157,2127,2157,58300,2157
2014/04/21,2159,2208,2143,2148,116700,2148
2014/04/22,2155,2168,2140,2144,45700,2144
2014/04/23,2156,2156,2126,2150,39600,2150
2014/04/24,2128,2168,2106,2134,63500,2134
2014/04/25,2210,2239,2168,2181,171600,2181
2014/04/28,2179,2197,2168,2185,72100,2185
2014/04/30,2185,2213,2175,2209,80100,2209
2014/05/01,2227,2240,2196,2228,100300,2228
2014/05/02,2203,2253,2203,2242,88800,2242
2014/05/07,2211,2211,2147,2151,90800,2151
2014/05/08,2151,2165,2134,2156,70200,2156
2014/05/09,2136,2178,2136,2149,48900,2149
2014/05/12,2141,2156,2125,2130,47100,2130
2014/05/13,2160,2175,2145,2149,51700,2149
2014/05/14,2150,2160,2105,2139,79000,2139
2014/05/15,2138,2199,2082,2187,136000,2187
2014/05/16,2166,2234,2101,2225,179100,2225
2014/05/19,2213,2226,2137,2142,115400,2142
2014/05/20,2164,2172,2142,2169,54300,2169
2014/05/21,2156,2180,2152,2167,62500,2167
2014/05/22,2175,2200,2150,2187,64400,2187
2014/05/23,2225,2236,2205,2219,71100,2219
2014/05/26,2250,2265,2231,2265,79200,2265
2014/05/27,2265,2290,2256,2259,64400,2259
2014/05/28,2258,2309,2246,2287,99000,2287
2014/05/29,2283,2287,2236,2248,71900,2248
2014/05/30,2235,2268,2231,2259,195800,2259
2014/06/02,2270,2281,2241,2255,105800,2255
2014/06/03,2277,2296,2231,2233,92100,2233
2014/06/04,2232,2263,2215,2247,68000,2247
2014/06/05,2247,2307,2246,2298,146500,2298
2014/06/06,2303,2310,2281,2291,101200,2291
2014/06/09,2293,2293,2271,2282,138600,2282
2014/06/10,2300,2305,2281,2297,101600,2297
2014/06/11,2285,2320,2285,2320,109800,2320
2014/06/12,2295,2318,2295,2313,108900,2313
2014/06/13,2313,2319,2297,2314,156000,2314
2014/06/16,2303,2336,2303,2315,89300,2315
2014/06/17,2326,2348,2309,2340,88500,2340
2014/06/18,2350,2385,2349,2373,94500,2373
2014/06/19,2370,2457,2360,2449,207900,2449
2014/06/20,2485,2486,2416,2416,285000,2416
2014/06/23,2417,2440,2389,2404,115100,2404
2014/06/24,2404,2429,2392,2410,96300,2410
2014/06/25,2400,2410,2370,2380,97300,2380
2014/06/26,2370,2401,2360,2389,136200,2389
2014/06/27,2373,2380,2325,2340,189500,2340
2014/06/30,2340,2364,2333,2364,181800,2364
2014/07/01,2364,2380,2355,2369,160100,2369
2014/07/02,2365,2375,2354,2359,149200,2359
2014/07/03,2355,2363,2332,2343,213200,2343
2014/07/04,2350,2351,2334,2342,127800,2342
2014/07/07,2351,2364,2344,2348,45500,2348
2014/07/08,2348,2399,2336,2393,140100,2393
2014/07/09,2377,2395,2366,2372,128000,2372
2014/07/10,2375,2385,2340,2341,271100,2341
2014/07/11,2341,2359,2310,2349,121900,2349
2014/07/14,2344,2365,2320,2364,136800,2364
2014/07/15,2370,2400,2346,2363,113400,2363
2014/07/16,2360,2377,2345,2350,124100,2350
2014/07/17,2351,2365,2334,2348,150000,2348
2014/07/18,2328,2345,2307,2344,94600,2344
2014/07/22,2370,2381,2360,2366,79800,2366
2014/07/23,2370,2374,2357,2360,102500,2360
2014/07/24,2373,2389,2358,2386,208100,2386
2014/07/25,2403,2408,2381,2403,73000,2403
2014/07/28,2410,2410,2365,2391,67300,2391
2014/07/29,2403,2427,2385,2418,117800,2418
2014/07/30,2427,2427,2399,2405,60900,2405
2014/07/31,2422,2422,2393,2403,56000,2403
2014/08/01,2400,2420,2390,2400,89400,2400
2014/08/04,2398,2417,2391,2396,51300,2396
2014/08/05,2390,2405,2374,2381,102500,2381
2014/08/06,2387,2412,2387,2406,79400,2406
2014/08/07,2396,2419,2389,2407,114200,2407
2014/08/08,2383,2393,2307,2332,240700,2332
2014/08/11,2358,2365,2244,2346,206100,2346
2014/08/12,2350,2378,2337,2367,145000,2367
2014/08/13,2369,2412,2359,2412,85600,2412
2014/08/14,2420,2445,2418,2438,56700,2438
2014/08/15,2438,2476,2438,2472,90900,2472
2014/08/18,2450,2470,2440,2468,38900,2468
2014/08/19,2473,2480,2451,2467,65700,2467
2014/08/20,2480,2487,2462,2466,78900,2466
2014/08/21,2481,2511,2469,2507,101400,2507
2014/08/22,2515,2525,2472,2478,82800,2478
2014/08/25,2496,2496,2477,2486,40700,2486
2014/08/26,2485,2492,2475,2484,51700,2484
2014/08/27,2481,2502,2468,2483,80700,2483
2014/08/28,2465,2496,2433,2447,130900,2447
2014/08/29,2428,2487,2428,2467,86500,2467
2014/09/01,2500,2500,2470,2490,121100,2490
2014/09/02,2490,2505,2463,2499,132400,2499
2014/09/03,2510,2539,2501,2527,73800,2527
2014/09/04,2534,2543,2514,2518,83600,2518
2014/09/05,2540,2540,2497,2517,81100,2517
2014/09/08,2517,2545,2517,2529,69800,2529
2014/09/09,2529,2579,2529,2542,87000,2542
2014/09/10,2535,2581,2527,2571,102600,2571
2014/09/11,2595,2598,2558,2565,107200,2565
2014/09/12,2563,2573,2524,2552,120200,2552
2014/09/16,2563,2568,2501,2529,143100,2529
2014/09/17,2522,2526,2501,2513,76300,2513
2014/09/18,2513,2513,2466,2471,185800,2471
2014/09/19,2482,2504,2466,2483,170500,2483
2014/09/22,2478,2488,2441,2458,99000,2458
2014/09/24,2436,2475,2436,2467,75900,2467
2014/09/25,2484,2490,2454,2488,79700,2488
2014/09/26,2454,2487,2449,2467,70100,2467
2014/09/29,2484,2499,2465,2484,58900,2484
2014/09/30,2474,2486,2431,2453,71900,2453
2014/10/01,2441,2458,2414,2428,85900,2428
2014/10/02,2410,2477,2374,2375,137700,2375
2014/10/03,2360,2400,2360,2392,96700,2392
2014/10/06,2418,2435,2405,2413,67400,2413
2014/10/07,2411,2441,2403,2405,81400,2405
2014/10/08,2379,2417,2375,2396,101200,2396
2014/10/09,2394,2396,2340,2340,67800,2340
2014/10/10,2290,2337,2290,2312,66400,2312
2014/10/14,2272,2310,2270,2284,85600,2284
2014/10/15,2302,2336,2302,2314,103100,2314
2014/10/16,2280,2332,2250,2258,91000,2258
2014/10/17,2259,2311,2224,2225,126500,2225
2014/10/20,2275,2301,2254,2301,136600,2301
2014/10/21,2319,2319,2273,2290,129600,2290
2014/10/22,2330,2386,2330,2384,101200,2384
2014/10/23,2366,2395,2341,2366,105300,2366
2014/10/24,2395,2396,2361,2381,43300,2381
2014/10/27,2402,2418,2377,2406,27900,2406
2014/10/28,2407,2420,2376,2387,34500,2387
2014/10/29,2411,2441,2411,2428,51200,2428
2014/10/30,2440,2446,2405,2426,145300,2426
2014/10/31,2443,2470,2418,2450,177300,2450
2014/11/04,2530,2530,2454,2466,171700,2466
2014/11/05,2445,2452,2419,2433,121400,2433
2014/11/06,2450,2460,2401,2421,75600,2421
2014/11/07,2444,2463,2412,2445,76000,2445
2014/11/10,2437,2469,2432,2455,61600,2455
2014/11/11,2460,2483,2427,2450,95500,2450
2014/11/12,2460,2487,2373,2383,178500,2383
2014/11/13,2383,2418,2357,2413,63400,2413
2014/11/14,2429,2430,2375,2390,100800,2390
2014/11/17,2374,2400,2337,2346,123500,2346
2014/11/18,2371,2400,2370,2397,45600,2397
2014/11/19,2389,2454,2365,2420,120800,2420
2014/11/20,2450,2530,2430,2527,201100,2527
2014/11/21,2527,2555,2516,2548,198200,2548
2014/11/25,2526,2526,2478,2493,153600,2493
2014/11/26,2479,2524,2477,2504,43400,2504
2014/11/27,2497,2499,2461,2471,56800,2471
2014/11/28,2471,2485,2446,2464,70100,2464
2014/12/01,2465,2500,2463,2487,82200,2487
2014/12/02,2470,2523,2457,2522,60600,2522
2014/12/03,2523,2589,2523,2562,182600,2562
2014/12/04,2563,2598,2561,2573,78800,2573
2014/12/05,2577,2585,2562,2582,86900,2582
2014/12/08,2604,2682,2593,2682,130900,2682
2014/12/09,2668,2790,2618,2763,316700,2763
2014/12/10,2738,2759,2703,2736,142700,2736
2014/12/11,2687,2799,2620,2639,458700,2639
2014/12/12,2620,2670,2607,2634,196700,2634
2014/12/15,2635,2722,2635,2688,182600,2688
2014/12/16,2638,2665,2594,2608,139500,2608
2014/12/17,2591,2691,2589,2621,102300,2621
2014/12/18,2697,2697,2621,2650,131700,2650
2014/12/19,2709,2718,2626,2644,144700,2644
2014/12/22,2637,2659,2604,2642,97000,2642
2014/12/24,2676,2695,2632,2642,99600,2642
2014/12/25,2642,2655,2622,2641,43600,2641
2014/12/26,2625,2666,2625,2644,35000,2644
2014/12/29,2671,2710,2652,2681,44900,2681
2014/12/30,2685,2685,2630,2631,40000,2631
2015/01/05,2631,2675,2629,2651,68000,2651
2015/01/06,2614,2651,2600,2610,75400,2610
2015/01/07,2574,2598,2545,2564,104400,2564
2015/01/08,2576,2649,2576,2611,92300,2611
2015/01/09,2618,2625,2581,2598,73600,2598
2015/01/13,2578,2583,2555,2576,79700,2576
2015/01/14,2555,2576,2547,2556,73500,2556
2015/01/15,2553,2610,2541,2600,98200,2600
2015/01/16,2550,2583,2513,2560,96600,2560
2015/01/19,2561,2573,2527,2565,75000,2565
2015/01/20,2570,2664,2565,2660,121200,2660
2015/01/21,2643,2665,2626,2649,69300,2649
2015/01/22,2645,2662,2606,2659,63800,2659
2015/01/23,2674,2695,2631,2694,106000,2694
2015/01/26,2683,2739,2683,2728,74200,2728
2015/01/27,2767,2820,2755,2816,92900,2816
2015/01/28,2816,2842,2785,2831,78600,2831
2015/01/29,2820,2833,2784,2801,68500,2801
2015/01/30,2818,2842,2788,2813,75500,2813
2015/02/02,2780,2825,2761,2815,81600,2815
2015/02/03,2828,2875,2814,2825,125200,2825
2015/02/04,2835,2865,2814,2830,57400,2830
2015/02/05,2858,2867,2803,2808,81900,2808
2015/02/06,2824,2835,2784,2792,62400,2792
2015/02/09,2840,2840,2763,2770,88600,2770
2015/02/10,2750,2790,2690,2718,182300,2718
2015/02/12,2765,2782,2679,2701,187900,2701
2015/02/13,2678,2680,2577,2578,247400,2578
2015/02/16,2565,2604,2532,2537,231600,2537
2015/02/17,2552,2626,2550,2616,129000,2616
2015/02/18,2653,2718,2653,2676,203100,2676
2015/02/19,2700,2705,2671,2698,77600,2698
2015/02/20,2730,2734,2680,2732,108900,2732
2015/02/23,2708,2708,2649,2684,141200,2684
2015/02/24,2684,2746,2673,2719,175700,2719
2015/02/25,2748,2779,2728,2758,157100,2758
2015/02/26,2776,2819,2774,2817,100600,2817
2015/02/27,2817,2844,2783,2807,91400,2807
2015/03/02,2786,2851,2785,2840,89600,2840
2015/03/03,2848,2915,2835,2913,101300,2913
2015/03/04,2913,2913,2856,2883,62400,2883
2015/03/05,2883,2884,2848,2865,38500,2865
2015/03/06,2850,2873,2834,2860,47000,2860
2015/03/09,2859,2889,2808,2811,142700,2811
2015/03/10,2911,2914,2848,2889,126500,2889
2015/03/11,2850,2888,2838,2845,71600,2845
2015/03/12,2815,2849,2806,2813,102900,2813
2015/03/13,2783,2859,2750,2852,170100,2852
2015/03/16,2871,2960,2867,2950,133900,2950
2015/03/17,2962,2970,2916,2942,75900,2942
2015/03/18,2909,2951,2907,2938,53200,2938
2015/03/19,2920,2955,2905,2925,40500,2925
2015/03/20,2927,2980,2926,2972,68000,2972
2015/03/23,3000,3045,2988,3040,90500,3040
2015/03/24,3000,3055,2999,3030,106300,3030
2015/03/25,3050,3060,2985,3000,63600,3000
2015/03/26,2982,2983,2926,2967,67500,2967
2015/03/27,2948,3005,2916,2935,55700,2935
2015/03/30,2955,2955,2904,2920,38300,2920
2015/03/31,2975,3015,2945,2990,133100,2990
2015/04/01,2985,2996,2943,2972,122300,2972
2015/04/02,2972,3005,2951,2963,94000,2963
2015/04/03,2963,2987,2946,2974,79400,2974
2015/04/06,2950,2987,2935,2964,62500,2964
2015/04/07,2974,2992,2964,2991,118500,2991
2015/04/08,2997,3035,2992,3020,152700,3020
2015/04/09,3020,3025,2976,2986,108900,2986
2015/04/10,3000,3080,2978,3040,127400,3040
2015/04/13,3030,3110,3030,3105,88100,3105
2015/04/14,3135,3245,3130,3210,184100,3210
2015/04/15,3175,3230,3150,3195,76900,3195
2015/04/16,3205,3230,3190,3220,49800,3220
2015/04/17,3205,3205,3090,3105,77800,3105
2015/04/20,3065,3140,3065,3125,43300,3125
2015/04/21,3100,3125,3065,3125,54300,3125
2015/04/22,3100,3190,3100,3180,50600,3180
2015/04/23,3180,3200,3130,3135,31800,3135
2015/04/24,3165,3195,3145,3180,52800,3180
2015/04/27,3210,3245,3175,3220,98100,3220
2015/04/28,3240,3260,3195,3235,44600,3235
2015/04/30,3200,3235,3170,3215,57000,3215
2015/05/01,3150,3210,3140,3185,51200,3185
2015/05/07,3150,3215,3145,3150,35800,3150
2015/05/08,3145,3165,3090,3130,48500,3130
2015/05/11,3200,3250,3190,3250,57400,3250
2015/05/12,3205,3260,3195,3250,53900,3250
2015/05/13,3250,3270,3220,3260,65400,3260
2015/05/14,3275,3285,3175,3180,90800,3180
2015/05/15,3225,3300,3220,3245,80100,3245
2015/05/18,3265,3385,3260,3335,117100,3335
2015/05/19,3320,3360,3300,3305,130100,3305
2015/05/20,3330,3335,3285,3305,64400,3305
2015/05/21,3305,3340,3260,3270,78800,3270
2015/05/22,3260,3295,3240,3275,45300,3275
2015/05/25,3290,3320,3260,3295,76500,3295
2015/05/26,3255,3260,3155,3215,125100,3215
2015/05/27,3225,3260,3210,3260,70500,3260
2015/05/28,3265,3265,3220,3245,45500,3245
2015/05/29,3245,3300,3230,3295,100800,3295
2015/06/01,3250,3305,3250,3300,78600,3300
2015/06/02,3275,3290,3230,3230,76400,3230
2015/06/03,3220,3250,3220,3220,36100,3220
2015/06/04,3200,3200,3140,3180,104100,3180
2015/06/05,3140,3210,3135,3185,89600,3185
2015/06/08,3175,3200,3135,3165,52400,3165
2015/06/09,3100,3155,3085,3085,84200,3085
2015/06/10,3090,3155,3090,3115,108000,3115
2015/06/11,3105,3170,3100,3155,62500,3155
2015/06/12,3120,3165,3100,3110,141300,3110
2015/06/15,3095,3095,3050,3080,120600,3080
2015/06/16,3050,3090,3050,3060,68900,3060
2015/06/17,3055,3075,3050,3060,49300,3060
2015/06/18,3055,3070,3030,3050,74500,3050
2015/06/19,3050,3105,3035,3035,118300,3035
2015/06/22,3020,3070,3020,3055,54400,3055
2015/06/23,3080,3105,3065,3085,69200,3085
2015/06/24,3110,3120,3065,3085,76300,3085
2015/06/25,3075,3100,3045,3055,75000,3055
2015/06/26,3060,3065,3030,3050,55200,3050
2015/06/29,3000,3000,2952,2958,62000,2958
2015/06/30,2923,2984,2923,2954,71700,2954
2015/07/01,2953,2990,2926,2980,36200,2980
