2013/04/19,98000,98000,97000,97000,8,97000
2013/04/22,98000,98000,98000,98000,4,98000
2013/04/23,97800,97800,95400,95400,72,95400
2013/04/24,96500,96600,96000,96300,27,96300
2013/04/25,96800,96800,96500,96500,17,96500
2013/04/26,97300,98100,97200,98100,30,98100
2013/04/30,97100,97700,96500,96500,14,96500
2013/05/01,96500,96500,92000,92100,73,92100
2013/05/02,91800,92300,91800,92300,4,92300
2013/05/07,92800,92800,92500,92500,9,92500
2013/05/08,92400,96500,92400,96500,26,96500
2013/05/09,97300,97300,97000,97000,5,97000
2013/05/10,97200,97400,97100,97200,22,97200
2013/05/13,98300,99200,98300,99200,23,99200
2013/05/14,99600,99700,99600,99700,15,99700
2013/05/15,99800,100800,99800,100400,10,100400
2013/05/16,101000,101600,101000,101600,34,101600
2013/05/17,102300,102300,99800,100300,61,100300
2013/05/20,100500,100500,100500,100500,2,100500
2013/05/21,100200,100200,100200,100200,3,100200
2013/05/22,101000,101200,101000,101200,2,101200
2013/05/23,101900,120300,101900,115700,364,115700
2013/05/24,141500,145000,118000,128000,1088,128000
2013/05/27,128500,136300,127000,127400,596,127400
2013/05/28,126000,126000,119100,125500,187,125500
2013/05/29,125000,126700,121300,123400,177,123400
2013/05/30,127000,128900,124500,127900,171,127900
2013/05/31,124900,127600,124200,124200,66,124200
2013/06/03,127200,128000,125400,127400,48,127400
2013/06/04,127400,128100,125100,126000,161,126000
2013/06/05,124500,132900,124500,132900,115,132900
2013/06/06,141900,143100,136500,137900,163,137900
2013/06/07,149900,160000,135000,136000,300,136000
2013/06/10,139000,143000,136100,140200,108,140200
2013/06/11,141600,141900,138000,139700,108,139700
2013/06/12,141800,146200,141800,144100,380,144100
2013/06/13,150000,158600,147800,158600,181,158600
2013/06/14,159500,159500,144900,148600,299,148600
2013/06/17,146000,146900,142500,143600,174,143600
2013/06/18,141100,144000,141100,144000,53,144000
2013/06/19,146500,149200,143500,149000,45,149000
2013/06/20,150000,151700,145000,146500,51,146500
2013/06/21,152500,152500,146000,146200,61,146200
2013/06/24,144000,150300,143200,146900,41,146900
2013/06/25,146000,155300,146000,151200,113,151200
2013/06/26,148300,153100,148300,152200,32,152200
2013/06/27,149700,149700,147500,147700,51,147700
2013/06/28,147500,147500,144700,146800,14,146800
2013/07/01,146800,150500,146800,149800,115,149800
2013/07/02,149800,149800,148100,148100,5,148100
2013/07/03,146300,151300,146300,151300,52,151300
2013/07/04,155300,155300,149300,149300,19,149300
2013/07/05,151000,152900,147000,152900,13,152900
2013/07/08,151000,153900,149400,153400,30,153400
2013/07/09,152800,154500,150600,150600,24,150600
2013/07/10,150500,150500,147000,149000,44,149000
2013/07/11,150000,150000,145000,145000,16,145000
2013/07/12,142000,142000,138000,139800,30,139800
2013/07/16,135200,137000,135100,137000,22,137000
2013/07/17,139900,143000,139900,141500,38,141500
2013/07/18,138300,145400,138300,144200,21,144200
2013/07/19,149000,154000,146800,154000,59,154000
2013/07/22,154500,154500,144000,144500,276,144500
2013/07/23,145500,145500,132100,134000,280,134000
2013/07/24,132100,134000,128800,130000,122,130000
2013/07/25,125000,126000,122500,126000,125,126000
2013/07/26,124000,139500,124000,137300,315,137300
2013/07/29,143300,148600,143300,148500,256,148500
2013/07/30,147700,147700,137300,138800,325,138800
2013/07/31,141500,141500,133600,136500,159,136500
2013/08/01,136800,136800,131500,133400,113,133400
2013/08/02,131000,132500,130500,132500,24,132500
2013/08/05,135500,135500,132000,133400,33,133400
2013/08/06,131000,134900,131000,131700,300,131700
2013/08/07,135000,135600,132600,135000,125,135000
2013/08/08,135000,137900,133700,137300,37,137300
2013/08/09,137500,142000,137000,142000,58,142000
2013/08/12,148000,148000,138100,138100,24,138100
2013/08/13,141900,142000,138100,138100,21,138100
2013/08/14,136100,138100,135000,135000,68,135000
2013/08/15,141000,141900,136700,136700,11,136700
2013/08/16,142000,146500,139900,146500,53,146500
2013/08/19,147500,148800,145800,146300,71,146300
2013/08/20,147500,148000,147500,148000,89,148000
2013/08/21,148500,151000,146500,150000,100,150000
2013/08/22,151700,154000,151000,151100,85,151100
2013/08/23,147100,151100,145800,151100,136,151100
2013/08/26,148700,149000,148700,149000,4,149000
2013/08/27,148400,148400,148000,148000,3,148000
2013/08/28,154000,159100,150000,157000,78,157000
2013/08/29,153100,157400,153000,157300,17,157300
2013/08/30,152200,157700,152200,157700,22,157700
2013/09/02,155600,156000,155500,156000,8,156000
2013/09/03,156000,160000,155500,159900,19,159900
2013/09/04,160900,166500,160900,166500,19,166500
2013/09/05,168000,168000,163100,164000,9,164000
2013/09/06,164000,164000,163300,164000,5,164000
2013/09/09,164000,164000,160000,160800,7,160800
2013/09/10,156000,161000,155500,160000,27,160000
2013/09/11,156200,157500,153000,153000,14,153000
2013/09/12,156900,156900,149000,149000,44,149000
2013/09/13,152000,152000,148500,149000,23,149000
2013/09/17,148000,148000,145000,145000,37,145000
2013/09/18,148000,148000,140500,140500,91,140500
2013/09/19,138000,139100,138000,138600,23,138600
2013/09/20,137900,141000,137000,137000,52,137000
2013/09/24,136500,136500,134000,134000,53,134000
2013/09/25,137000,137200,135000,137000,91,137000
2013/09/26,137800,137800,136200,136200,69,136200
2013/09/27,136400,136400,135800,136200,7,136200
2013/09/30,140000,142500,137600,140400,149,140400
2013/10/01,140400,140400,136900,140000,39,140000
2013/10/02,138500,141200,137000,139500,74,139500
2013/10/03,138700,141000,138600,141000,12,141000
2013/10/04,143500,143500,138000,138700,49,138700
2013/10/07,139000,142000,136000,140000,78,140000
2013/10/08,140000,140000,138000,139500,15,139500
2013/10/09,138000,138700,136100,137000,29,137000
2013/10/10,135500,137200,132300,137200,308,137200
2013/10/11,132300,133000,130100,130300,75,130300
2013/10/15,130000,130000,127500,129200,43,129200
2013/10/16,131400,131400,126600,127100,56,127100
2013/10/17,127000,127000,120900,122800,256,122800
2013/10/18,125800,125800,118000,119300,134,119300
2013/10/21,114400,119200,114400,119200,141,119200
2013/10/22,119200,119400,116300,118100,12,118100
2013/10/23,118100,119000,116000,117500,149,117500
2013/10/24,117100,119000,117100,117700,41,117700
2013/10/25,117000,118900,115000,118300,102,118300
2013/10/28,116700,118400,116700,118400,16,118400
2013/10/29,120500,120500,117500,118000,33,118000
2013/10/30,115100,117100,114500,115100,59,115100
2013/10/31,117400,117400,115100,116400,91,116400
2013/11/01,116400,118000,116000,118000,23,118000
2013/11/05,117900,117900,112000,113000,100,113000
2013/11/06,113000,113500,110100,111000,77,111000
2013/11/07,111000,112900,110800,112900,12,112900
2013/11/08,114500,114500,110000,110000,104,110000
2013/11/11,111400,111400,107000,109400,51,109400
2013/11/12,111500,112400,108300,112400,37,112400
2013/11/13,109600,115000,109600,113800,40,113800
2013/11/14,113000,119400,113000,119400,134,119400
2013/11/15,121800,129000,121000,129000,454,129000
2013/11/18,131900,132500,128200,129300,136,129300
2013/11/19,127500,130500,123100,125200,67,125200
2013/11/20,126100,126200,126100,126200,3,126200
2013/11/21,125800,127000,124100,126000,25,126000
2013/11/22,125500,128000,125000,128000,120,128000
2013/11/25,128400,128400,125000,125000,27,125000
2013/11/26,125000,126000,121500,122500,46,122500
2013/11/27,119500,122500,119500,120600,39,120600
2013/11/28,120600,120800,119000,119000,37,119000
2013/11/29,119000,121900,118400,121800,72,121800
2013/12/02,119400,123100,119400,123100,9,123100
2013/12/03,121100,124200,121100,124200,4,124200
2013/12/04,124200,127000,124100,124400,38,124400
2013/12/05,127400,129500,126700,129500,94,129500
2013/12/06,130000,131000,127000,129200,81,129200
2013/12/09,127000,130200,126500,128100,59,128100
2013/12/10,126900,130500,126900,128500,30,128500
2013/12/11,128900,131900,128900,129500,75,129500
2013/12/12,129000,131500,127600,128700,27,128700
2013/12/13,127500,127500,127300,127300,4,127300
2013/12/16,128500,129300,128000,128800,172,128800
2013/12/18,125800,126500,125800,126000,44,126000
2013/12/19,123000,126300,120900,122500,102,122500
2013/12/20,121000,121000,121000,121000,5,121000
2013/12/24,118800,119900,118800,119700,33,119700
2013/12/25,119500,120000,117600,117600,67,117600
2013/12/26,117600,119500,117600,118500,23,118500
2013/12/27,120000,120000,118500,119700,16,119700
2013/12/30,119900,119900,116500,118100,48,118100
2014/01/06,119900,120000,117300,118000,62,118000
2014/01/07,119900,119900,115500,115800,50,115800
2014/01/08,118800,118800,112000,113100,71,113100
2014/01/09,116100,116100,111300,112000,37,112000
2014/01/10,113500,113500,110900,110900,72,110900
2014/01/14,112800,113500,111500,113400,48,113400
2014/01/15,114700,114900,111500,114900,62,114900
2014/01/16,115000,115000,111100,112900,44,112900
2014/01/17,111600,113400,109100,110500,245,110500
2014/01/20,111200,111200,107100,108400,90,108400
2014/01/21,107600,107800,106000,106000,180,106000
2014/01/22,108000,108000,103000,103000,92,103000
2014/01/23,101800,103100,101200,101600,71,101600
2014/01/24,103100,106900,103100,106500,58,106500
2014/01/27,112800,115000,111500,111500,220,111500
2014/01/28,111100,112900,110000,112000,57,112000
2014/01/29,112100,112800,110600,112800,68,112800
2014/01/30,117700,117700,114500,114500,141,114500
2014/01/31,112500,116000,112500,116000,106,116000
2014/02/03,117100,118000,117000,117200,62,117200
2014/02/04,119300,125000,119300,125000,487,125000
2014/02/05,122000,126200,120300,125800,211,125800
2014/02/06,125800,125800,122800,125000,127,125000
2014/02/07,125000,125000,122500,123000,54,123000
2014/02/10,121000,121900,119800,121900,46,121900
2014/02/12,130400,130400,121000,121000,72,121000
2014/02/13,119800,119800,116000,117000,53,117000
2014/02/14,115100,121000,114600,120500,48,120500
2014/02/17,120300,120300,118400,119900,12,119900
2014/02/18,118000,118000,116900,118000,33,118000
2014/02/20,120000,120000,119900,119900,7,119900
2014/02/21,116900,117200,116800,116800,8,116800
2014/02/24,116600,119000,116600,117900,13,117900
2014/02/25,115900,116600,115800,116500,14,116500
2014/02/26,119500,119500,114900,115200,20,115200
2014/02/27,114200,114200,113900,113900,14,113900
2014/02/28,114600,115500,113800,115500,6,115500
2014/03/03,118500,119500,116500,116500,9,116500
2014/03/04,117500,117500,117500,117500,1,117500
2014/03/05,120000,120000,117000,117000,2,117000
2014/03/06,116500,116500,115000,115000,11,115000
2014/03/10,117700,117700,116500,116500,2,116500
2014/03/11,116000,117300,114700,117300,6,117300
2014/03/12,117600,117600,115100,115500,17,115500
2014/03/13,115100,117000,113100,113600,53,113600
2014/03/14,115600,121000,115600,120000,127,120000
2014/03/17,121000,122100,119100,122100,35,122100
2014/03/18,121500,121500,115600,115600,34,115600
2014/03/19,118000,118000,114600,114900,23,114900
2014/03/20,114000,117300,113900,116000,23,116000
2014/03/24,117800,117800,114800,115000,21,115000
2014/03/25,117900,117900,113100,113500,55,113500
2014/03/26,115000,115000,110900,112200,132,112200
2014/03/27,112000,112500,109000,109000,97,109000
2014/03/28,110000,110000,108500,108600,24,108600
2014/03/31,108600,109700,108000,108000,63,108000
2014/04/01,108000,108700,107000,107000,42,107000
2014/04/02,106100,110000,106100,110000,24,110000
2014/04/03,110000,110000,108100,108100,24,108100
2014/04/04,108500,109400,108100,109000,10,109000
2014/04/07,112000,112000,107000,107600,119,107600
2014/04/08,106900,110700,106900,109800,26,109800
2014/04/09,110000,110000,106000,106500,122,106500
2014/04/10,106400,107400,104500,107400,49,107400
2014/04/11,107500,110500,107500,110500,191,110500
2014/04/14,110500,111400,107200,108400,27,108400
2014/04/15,106100,106100,104000,104000,82,104000
2014/04/16,105500,105500,104000,104200,39,104200
2014/04/17,104100,105000,102000,103100,88,103100
2014/04/18,102500,102500,101300,101300,78,101300
2014/04/21,101400,101400,100400,101100,52,101100
2014/04/22,101000,101000,100400,100800,22,100800
2014/04/23,102200,102200,100100,100100,60,100100
2014/04/24,100800,100800,99500,99500,105,99500
2014/04/25,99200,99600,99100,99300,34,99300
2014/04/28,101500,101500,99300,99300,26,99300
2014/04/30,100000,100000,96400,97000,120,97000
2014/05/01,97200,97200,94400,95000,186,95000
2014/05/02,94900,95800,93000,93800,176,93800
2014/05/07,93700,94800,92100,93500,227,93500
2014/05/08,92600,92600,90400,91500,203,91500
2014/05/09,91400,91900,90500,91200,69,91200
2014/05/12,90500,90500,87400,87500,106,87500
2014/05/13,87500,87500,86000,87000,60,87000
2014/05/14,88500,88500,85200,85200,87,85200
2014/05/15,85200,87900,85200,87200,311,87200
2014/05/16,89500,89500,87000,88100,148,88100
2014/05/19,88700,88700,86200,87000,102,87000
2014/05/20,86500,87700,86500,87000,9,87000
2014/05/21,88000,88000,85400,85400,33,85400
2014/05/22,85400,85400,83500,83700,46,83700
2014/05/23,85200,86600,83900,85400,47,85400
2014/05/26,87400,87400,84400,84400,15,84400
2014/05/27,85200,85800,84900,85000,55,85000
2014/05/28,85000,85000,84000,84000,35,84000
2014/05/29,84100,84100,82100,83300,37,83300
2014/05/30,83000,83000,81800,82000,88,82000
2014/06/02,81800,83000,81500,83000,54,83000
2014/06/03,83000,83000,83000,83000,3,83000
2014/06/04,84500,84500,82200,82200,18,82200
2014/06/05,82400,83100,82400,83100,8,83100
2014/06/06,84600,84600,82900,83100,218,83100
2014/06/09,83700,83700,81200,81500,162,81500
2014/06/10,81700,82100,81300,82000,101,82000
2014/06/11,82000,82000,76800,77000,668,77000
2014/06/12,77500,78700,77300,78100,374,78100
2014/06/13,78100,79200,77400,78200,111,78200
2014/06/16,78200,79000,77800,78200,66,78200
2014/06/17,77000,77100,74700,75400,215,75400
2014/06/18,74000,75100,73900,74200,79,74200
2014/06/19,73700,74100,72600,73500,1062,73500
2014/06/20,74700,74700,72000,73500,1419,73500
2014/06/23,73500,74500,73500,73900,435,73900
2014/06/24,74300,74300,72100,72300,1350,72300
2014/06/25,73200,73200,71000,71200,1184,71200
2014/06/26,71000,71000,68800,69200,1249,69200
2014/06/27,69400,72300,69000,70200,735,70200
2014/06/30,71300,71600,70300,70400,1266,70400
2014/07/01,71500,71500,69500,69900,1457,69900
2014/07/02,69700,69700,68700,69300,1083,69300
2014/07/03,69300,69300,68400,68600,931,68600
2014/07/04,68200,68200,66700,67100,1542,67100
2014/07/07,68000,68000,64800,64900,1727,64900
2014/07/08,65200,65800,62800,63000,1647,63000
2014/07/09,64000,64300,61100,61700,2511,61700
2014/07/10,61800,61900,59700,60800,2340,60800
2014/07/11,60800,62000,59800,61000,2193,61000
2014/07/14,60000,60600,58500,58700,1737,58700
2014/07/15,57300,59500,57300,59500,1627,59500
2014/07/16,59600,59600,58700,59400,428,59400
2014/07/17,59100,59300,58500,58600,2103,58600
2014/07/18,62000,62900,60600,62300,6218,62300
2014/07/22,60400,60400,59200,59200,1496,59200
2014/07/23,59200,60600,58400,60400,792,60400
2014/07/24,60400,60400,58900,59200,832,59200
2014/07/25,59500,59900,58600,59900,804,59900
2014/07/28,60000,61600,59900,61600,1003,61600
2014/07/29,61600,63300,61000,63200,3528,63200
2014/07/30,63800,64600,63600,64300,5281,64300
2014/07/31,65000,65000,63600,64500,2960,64500
2014/08/01,65500,66000,64400,65100,2953,65100
2014/08/04,65600,65600,64000,64500,2174,64500
2014/08/05,64300,64300,62500,64000,1480,64000
2014/08/06,64400,65300,63300,65000,1791,65000
2014/08/07,64700,65200,64200,64500,961,64500
2014/08/08,65500,69000,65500,67100,8438,67100
2014/08/11,65100,66600,64800,65700,1929,65700
2014/08/12,64700,64800,63500,63900,948,63900
2014/08/13,63900,63900,62400,62900,585,62900
2014/08/14,62100,62400,61400,61600,827,61600
2014/08/15,61600,61700,60900,61600,1212,61600
2014/08/18,60500,61600,60500,61400,142,61400
2014/08/19,61000,61100,60100,60200,1450,60200
2014/08/20,60000,60500,59700,59800,1658,59800
2014/08/21,60000,60800,59800,60100,1291,60100
2014/08/22,61000,61100,60400,60600,1185,60600
2014/08/25,60200,60600,59900,59900,547,59900
2014/08/26,59900,59900,59000,59200,1647,59200
2014/08/27,58900,58900,57300,57400,2418,57400
2014/08/28,57700,57700,55100,55700,4461,55700
2014/08/29,56000,56600,55500,55700,1255,55700
2014/09/01,55700,55700,53500,53600,1951,53600
2014/09/02,54000,54300,53000,54200,1180,54200
2014/09/03,53200,56200,53200,56200,532,56200
2014/09/04,56100,56100,54600,54700,199,54700
2014/09/05,54400,55700,54400,55400,477,55400
2014/09/08,55200,55200,53000,53400,1512,53400
2014/09/09,54000,54100,53100,54000,566,54000
2014/09/10,54200,54600,53000,53100,1200,53100
2014/09/11,53200,56000,53200,55800,1341,55800
2014/09/12,56100,56100,54300,54600,257,54600
2014/09/16,55500,55500,51800,51900,4810,51900
2014/09/17,51300,51700,50000,51100,2859,51100
2014/09/18,50200,52000,50200,52000,618,52000
2014/09/19,51000,52100,50600,51700,803,51700
2014/09/22,51600,51800,50900,50900,2477,50900
2014/09/24,51800,51800,50800,50900,1137,50900
2014/09/25,50700,50700,49700,50300,1185,50300
2014/09/26,51300,51600,50400,50600,536,50600
2014/09/29,50600,51000,50000,50500,1527,50500
2014/09/30,50300,51900,50300,51400,947,51400
2014/10/01,51800,52200,51400,51900,401,51900
2014/10/02,53000,55000,52400,54600,6955,54600
2014/10/03,54300,55600,53900,54300,1334,54300
2014/10/06,51800,52500,51500,52000,1356,52000
2014/10/07,53000,53000,51800,52800,500,52800
2014/10/08,54800,54900,53400,54400,5839,54400
2014/10/09,53200,56000,53200,56000,910,56000
2014/10/10,56900,58300,56200,57500,4452,57500
2014/10/14,59100,59600,58300,59100,5456,59100
2014/10/15,58500,58900,57400,57600,2975,57600
2014/10/16,58900,63200,58900,62800,13651,62800
2014/10/17,61900,67600,61900,66800,10246,66800
2014/10/20,60900,62600,60900,61500,1234,61500
2014/10/21,60800,62000,59900,62000,1018,62000
2014/10/22,58100,59400,57800,58300,586,58300
2014/10/23,58000,59300,57600,58100,507,58100
2014/10/24,57300,59500,56100,59200,607,59200
2014/10/27,58400,58800,57500,57500,329,57500
2014/10/28,58500,58500,57300,57400,102,57400
2014/10/29,57200,57200,54800,54900,728,54900
2014/10/30,53900,54800,53300,53300,528,53300
2014/10/31,52700,55900,52700,55900,588,55900
2014/11/04,56400,61800,56400,61800,5618,61800
2014/11/05,60800,60900,58700,60000,2611,60000
2014/11/06,58100,60700,58100,60100,732,60100
2014/11/07,59900,60500,58800,60400,257,60400
2014/11/10,59400,59600,58700,59200,286,59200
2014/11/11,58000,60000,58000,60000,1234,60000
2014/11/12,59100,62600,59100,61700,1310,61700
2014/11/13,62500,65000,61000,64900,2748,64900
2014/11/14,66100,68300,65100,67400,4795,67400
2014/11/17,67500,69900,67400,69200,4392,69200
2014/11/18,69000,69900,67700,69600,2266,69600
2014/11/19,69000,69000,66700,67500,1601,67500
2014/11/20,66600,66600,64300,64900,585,64900
2014/11/21,65000,67600,65000,66300,663,66300
2014/11/25,64500,66200,64500,65500,335,65500
2014/11/26,64700,65600,63900,63900,1007,63900
2014/11/27,64300,65200,64300,65000,372,65000
2014/11/28,64000,64900,64000,64800,82,64800
2014/12/01,65000,65500,64600,65500,44,65500
2014/12/02,65500,66200,65500,65900,161,65900
2014/12/03,66200,67900,65400,67900,721,67900
2014/12/04,68000,69900,68000,69400,1415,69400
2014/12/05,69400,70300,69000,69100,1025,69100
2014/12/08,70100,70300,69200,69300,150,69300
2014/12/09,70000,70000,67700,68300,1143,68300
2014/12/10,68400,72300,68400,69200,2415,69200
2014/12/11,69700,71500,65100,65100,1520,65100
2014/12/12,65400,65700,63800,64400,1310,64400
2014/12/15,65400,65400,63100,63300,917,63300
2014/12/16,63200,64700,63200,64400,353,64400
2014/12/17,64100,65000,61900,62200,636,62200
2014/12/18,60000,60900,59700,60800,381,60800
2014/12/19,58800,60500,58800,59900,542,59900
2014/12/22,59400,59700,58900,59700,201,59700
2014/12/24,57700,59600,57700,59500,242,59500
2014/12/25,58500,59600,58500,59600,325,59600
2014/12/26,59600,60900,59100,60200,397,60200
2014/12/29,60900,62700,60300,62000,1238,62000
2014/12/30,62000,62800,61300,62700,612,62700
2015/01/05,63700,63700,62100,63000,424,63000
2015/01/06,63900,64100,63000,64000,2427,64000
2015/01/07,64100,64600,63400,63800,2100,63800
2015/01/08,62800,63500,62600,63200,300,63200
2015/01/09,62000,63300,62000,63300,108,63300
2015/01/13,62300,62800,61700,62100,1321,62100
2015/01/14,62300,62300,61000,61900,142,61900
2015/01/15,61000,61000,58800,59600,1055,59600
2015/01/16,61600,61600,59100,59100,411,59100
2015/01/19,59000,59200,58000,58600,670,58600
2015/01/20,58200,58300,56400,56500,1094,56500
2015/01/21,56500,57000,55700,56500,246,56500
2015/01/22,56500,56900,55700,56300,1011,56300
2015/01/23,55600,56000,53900,54400,1477,54400
2015/01/26,55000,55500,53300,53400,491,53400
2015/01/27,53200,53200,51100,51600,2012,51600
2015/01/28,52100,52100,49500,50200,2471,50200
2015/01/29,50500,51300,50300,51000,536,51000
2015/01/30,50000,51100,50000,51100,706,51100
2015/02/02,51900,52000,51200,51600,1366,51600
2015/02/03,51500,53000,50800,53000,864,53000
2015/02/04,51300,52100,51300,51600,281,51600
2015/02/05,52400,52400,51400,51600,193,51600
2015/02/06,51600,52300,50500,52100,621,52100
2015/02/09,52000,52300,51400,52100,110,52100
2015/02/10,51600,52100,51400,51500,355,51500
2015/02/12,51500,51500,49900,50300,1161,50300
2015/02/13,51200,51200,49300,49600,1185,49600
2015/02/16,49500,49900,49450,49800,411,49800
2015/02/17,49500,49800,48300,48500,2153,48500
2015/02/18,48250,48250,47400,47800,1448,47800
2015/02/19,48400,48500,47700,48200,349,48200
2015/02/20,48200,48500,47850,48300,1052,48300
2015/02/23,48100,48250,48000,48050,846,48050
2015/02/24,48600,48700,46000,46100,3449,46100
2015/02/25,46150,46700,44300,44600,2163,44600
2015/02/26,44300,45750,44300,45700,653,45700
2015/02/27,45800,46650,45200,46550,838,46550
2015/03/02,46800,46850,46200,46600,190,46600
2015/03/03,46600,46650,45000,45400,596,45400
2015/03/04,46100,46550,45550,45900,261,45900
2015/03/05,45700,45700,44250,44400,1816,44400
2015/03/06,44350,44350,43350,43700,920,43700
2015/03/09,44150,44300,43100,43250,777,43250
2015/03/10,43000,43750,42800,43550,494,43550
2015/03/11,43650,44300,41850,42000,1330,42000
2015/03/12,42000,42000,41300,41400,1250,41400
2015/03/13,41100,41600,40750,41600,883,41600
2015/03/16,41300,42650,41300,42050,948,42050
2015/03/17,41850,41850,40750,41000,617,41000
2015/03/18,40300,41150,40300,41000,335,41000
2015/03/19,41150,41150,40350,40450,591,40450
2015/03/20,40650,40650,39500,39600,878,39600
2015/03/23,39300,39600,39300,39500,338,39500
2015/03/24,39500,40250,39300,40150,1187,40150
2015/03/25,40350,40400,39750,39950,255,39950
2015/03/26,40200,41350,40200,41100,607,41100
2015/03/27,41100,42400,40250,42050,771,42050
2015/03/30,41550,42050,41300,41650,396,41650
2015/03/31,40700,42600,40700,42600,355,42600
2015/04/01,42050,43700,42050,43100,443,43100
2015/04/02,42600,43050,42100,42250,107,42250
2015/04/03,41600,42050,41600,42000,108,42000
2015/04/06,43000,43000,41400,41800,128,41800
2015/04/07,41800,41900,41300,41700,92,41700
2015/04/08,41900,41900,40850,40950,569,40950
2015/04/09,40950,41100,40300,40650,196,40650
2015/04/10,40300,41000,40100,40450,301,40450
2015/04/13,40050,40500,40000,40250,447,40250
2015/04/14,40250,40600,40000,40400,187,40400
2015/04/15,40000,40650,39800,39850,386,39850
2015/04/16,40000,40050,39000,39000,969,39000
2015/04/17,39400,39700,38800,39450,798,39450
2015/04/20,40100,40200,39650,39850,267,39850
2015/04/21,39900,39900,39200,39400,424,39400
2015/04/22,39200,40050,39200,40000,199,40000
2015/04/23,39550,40050,39550,40050,139,40050
2015/04/24,40450,40450,39700,39750,114,39750
2015/04/27,40150,40200,39700,40000,1223,40000
2015/04/28,39700,40150,39500,39500,250,39500
2015/04/30,40050,40200,39450,39450,851,39450
2015/05/01,39850,39850,37800,37800,1794,37800
2015/05/07,38150,38200,37850,38100,207,38100
2015/05/08,37800,37800,36600,37150,1065,37150
2015/05/11,36700,36700,35350,35350,1051,35350
2015/05/12,35100,35150,34750,34800,473,34800
2015/05/13,34800,35250,33850,34050,1238,34050
2015/05/14,33850,34550,33600,33800,551,33800
2015/05/15,33600,33600,32550,32850,918,32850
2015/05/18,32250,32350,31900,32150,2567,32150
2015/05/19,31800,32350,31700,32200,2097,32200
2015/05/20,31850,32550,31850,32550,350,32550
2015/05/21,32550,32800,32200,32500,227,32500
2015/05/22,32600,32800,31700,31700,393,31700
2015/05/25,31700,31850,31350,31350,380,31350
2015/05/26,31600,31600,30950,31200,594,31200
2015/05/27,31400,31400,31100,31150,222,31150
2015/05/28,30750,31750,30750,31750,461,31750
2015/05/29,31750,31750,31250,31350,389,31350
2015/06/01,31350,31750,31350,31700,253,31700
2015/06/02,31800,31800,30800,31250,767,31250
2015/06/03,31250,31450,31050,31150,198,31150
2015/06/04,30950,31150,30500,30550,861,30550
2015/06/05,30850,31050,30850,31050,96,31050
2015/06/08,30700,30800,29990,30000,1432,30000
2015/06/09,30400,30600,30000,30450,597,30450
2015/06/10,29800,30100,29520,29880,1490,29880
2015/06/11,29660,29660,28310,28470,1943,28470
2015/06/12,28470,28470,28010,28170,835,28170
2015/06/15,28170,28250,28110,28110,697,28110
2015/06/16,28140,28250,28130,28140,511,28140
2015/06/17,28120,28370,28000,28240,674,28240
2015/06/18,28640,28640,28000,28130,798,28130
2015/06/19,27800,27970,27160,27180,2245,27180
2015/06/22,27500,27500,26350,26740,1314,26740
2015/06/23,26250,26250,25800,26080,858,26080
2015/06/24,25970,26430,25680,26430,858,26430
2015/06/25,26440,26440,25870,26250,1129,26250
2015/06/26,26080,26500,25410,26360,935,26360
2015/06/29,27860,29100,27550,28980,3239,28980
2015/06/30,29830,29830,28450,28450,1726,28450
2015/07/01,28150,28290,27500,27870,1883,27870
