2011/01/04,557,569,555,561,33000,561
2011/01/05,568,568,559,563,12700,563
2011/01/06,564,572,563,572,22900,572
2011/01/07,577,583,572,580,30400,580
2011/01/11,580,583,572,576,32800,576
2011/01/12,586,586,579,583,32500,583
2011/01/13,589,589,573,580,20900,580
2011/01/14,578,580,574,579,20600,579
2011/01/17,580,590,578,584,40400,584
2011/01/18,586,624,586,619,96300,619
2011/01/19,616,625,610,621,69700,621
2011/01/20,611,620,605,610,43300,610
2011/01/21,611,613,591,591,49100,591
2011/01/24,592,599,575,591,31800,591
2011/01/25,593,596,591,592,22000,592
2011/01/26,597,597,589,589,17700,589
2011/01/27,585,600,585,594,25900,594
2011/01/28,590,593,584,584,50500,584
2011/01/31,584,589,582,588,24800,588
2011/02/01,592,593,588,592,22300,592
2011/02/02,602,603,599,600,21800,600
2011/02/03,598,602,588,600,32000,600
2011/02/04,597,619,596,600,23900,600
2011/02/07,601,611,600,600,18800,600
2011/02/08,608,613,606,608,16500,608
2011/02/09,608,614,608,614,14100,614
2011/02/10,611,615,603,615,17400,615
2011/02/14,619,619,608,611,11000,611
2011/02/15,610,612,608,610,15100,610
2011/02/16,606,612,606,609,9800,609
2011/02/17,610,618,610,618,28000,618
2011/02/18,622,623,610,611,22900,611
2011/02/21,621,621,613,614,12600,614
2011/02/22,613,618,609,611,27100,611
2011/02/23,605,619,603,610,42500,610
2011/02/24,610,611,601,601,18500,601
2011/02/25,603,614,601,606,17900,606
2011/02/28,616,616,602,611,37800,611
2011/03/01,611,625,611,619,20100,619
2011/03/02,619,623,607,607,40800,607
2011/03/03,615,618,615,616,14900,616
2011/03/04,620,620,614,615,15900,615
2011/03/07,621,637,619,633,64700,633
2011/03/08,640,666,633,635,52800,635
2011/03/09,643,666,643,651,61400,651
2011/03/10,656,665,650,654,35400,654
2011/03/11,658,666,651,656,82500,656
2011/03/14,596,625,590,602,76800,602
2011/03/15,593,610,530,568,56500,568
2011/03/16,548,594,536,574,76900,574
2011/03/17,574,590,563,581,46800,581
2011/03/18,582,606,582,598,30900,598
2011/03/22,610,624,607,620,26100,620
2011/03/23,622,633,619,626,19400,626
2011/03/24,627,629,614,615,28100,615
2011/03/25,617,633,617,620,20200,620
2011/03/28,630,634,625,634,21700,634
2011/03/29,620,640,620,635,21600,635
2011/03/30,625,635,625,635,22600,635
2011/03/31,631,641,621,641,19100,641
2011/04/01,641,642,620,620,24900,620
2011/04/04,618,630,611,611,27100,611
2011/04/05,603,609,591,601,23300,601
2011/04/06,595,597,593,593,17500,593
2011/04/07,593,598,588,588,16100,588
2011/04/08,584,608,584,598,24300,598
2011/04/11,600,638,600,622,24400,622
2011/04/12,612,622,607,608,10400,608
2011/04/13,608,619,606,608,7700,608
2011/04/14,604,614,603,611,10900,611
2011/04/15,604,613,600,606,16000,606
2011/04/18,556,585,556,575,111800,575
2011/04/19,574,574,563,569,33900,569
2011/04/20,579,579,566,568,14500,568
2011/04/21,569,569,566,566,10000,566
2011/04/22,561,567,560,565,12900,565
2011/04/25,565,568,564,566,5300,566
2011/04/26,563,568,553,553,20600,553
2011/04/27,554,568,554,555,14100,555
2011/04/28,553,566,553,563,8900,563
2011/05/02,568,570,566,569,9300,569
2011/05/06,579,579,560,572,14200,572
2011/05/09,574,575,559,560,22700,560
2011/05/10,560,563,556,558,17600,558
2011/05/11,560,564,556,557,9800,557
2011/05/12,557,563,555,555,9000,555
2011/05/13,555,555,538,538,25500,538
2011/05/16,537,541,534,538,12100,538
2011/05/17,538,540,534,534,21300,534
2011/05/18,535,548,535,545,7600,545
2011/05/19,539,545,534,534,8600,534
2011/05/20,543,545,534,534,15300,534
2011/05/23,534,535,531,532,21800,532
2011/05/24,530,534,530,531,12400,531
2011/05/25,531,540,531,534,8300,534
2011/05/26,538,544,535,541,7700,541
2011/05/27,541,546,538,542,15700,542
2011/05/30,539,539,527,530,18000,530
2011/05/31,533,536,531,535,9800,535
2011/06/01,536,541,535,541,12500,541
2011/06/02,544,544,535,536,13700,536
2011/06/03,538,542,533,534,18000,534
2011/06/06,529,534,527,528,9600,528
2011/06/07,528,533,528,533,11500,533
2011/06/08,535,535,529,531,4500,531
2011/06/09,527,534,527,530,6500,530
2011/06/10,539,539,533,535,30400,535
2011/06/13,533,533,529,530,13200,530
2011/06/14,529,535,529,534,10200,534
2011/06/15,534,537,533,535,7000,535
2011/06/16,531,534,529,529,14300,529
2011/06/17,530,531,529,529,14900,529
2011/06/20,530,539,530,531,2600,531
2011/06/21,531,533,529,533,6800,533
2011/06/22,530,534,530,533,17300,533
2011/06/23,532,533,530,531,8900,531
2011/06/24,531,535,531,535,5700,535
2011/06/27,532,535,532,532,6800,532
2011/06/28,540,540,532,532,6700,532
2011/06/29,538,538,535,538,7500,538
2011/06/30,544,551,539,550,10100,550
2011/07/01,551,556,551,555,12400,555
2011/07/04,565,567,557,561,19600,561
2011/07/05,560,569,560,563,6300,563
2011/07/06,562,563,556,563,11600,563
2011/07/07,557,565,557,560,7200,560
2011/07/08,561,569,553,553,12400,553
2011/07/11,553,556,550,556,10700,556
2011/07/12,550,556,550,554,11800,554
2011/07/13,550,559,550,553,6000,553
2011/07/14,550,554,546,546,12900,546
2011/07/15,539,561,539,540,15900,540
2011/07/19,544,555,544,555,15800,555
2011/07/20,565,566,550,552,23800,552
2011/07/21,552,558,547,547,16200,547
2011/07/22,549,549,545,547,13300,547
2011/07/25,548,549,546,546,7900,546
2011/07/26,545,550,545,548,10800,548
2011/07/27,551,551,545,545,14700,545
2011/07/28,545,545,533,538,20300,538
2011/07/29,535,539,527,528,23600,528
2011/08/01,530,540,530,538,12200,538
2011/08/02,545,545,531,533,14300,533
2011/08/03,530,533,525,526,20900,526
2011/08/04,525,527,523,523,12800,523
2011/08/05,513,521,501,521,18600,521
2011/08/08,510,513,502,502,28000,502
2011/08/09,500,521,493,521,23300,521
2011/08/10,522,522,502,502,15900,502
2011/08/11,501,503,496,502,12600,502
2011/08/12,507,507,501,505,8200,505
2011/08/15,507,510,507,510,11900,510
2011/08/16,510,512,506,509,10600,509
2011/08/17,509,512,506,506,10700,506
2011/08/18,506,518,505,514,14700,514
2011/08/19,503,514,503,507,11200,507
2011/08/22,507,510,505,505,7300,505
2011/08/23,506,511,498,498,38400,498
2011/08/24,505,507,495,499,21200,499
2011/08/25,500,506,498,498,16400,498
2011/08/26,498,500,496,500,14200,500
2011/08/29,500,503,498,502,5100,502
2011/08/30,505,510,502,510,11600,510
2011/08/31,511,511,504,506,8300,506
2011/09/01,506,508,503,507,15200,507
2011/09/02,507,509,504,507,9300,507
2011/09/05,506,506,501,502,9800,502
2011/09/06,502,503,500,502,9000,502
2011/09/07,500,502,500,501,10600,501
2011/09/08,502,504,500,501,6200,501
2011/09/09,499,511,499,506,54400,506
2011/09/12,506,506,499,501,13600,501
2011/09/13,501,507,501,507,7000,507
2011/09/14,504,505,499,499,12600,499
2011/09/15,501,504,501,502,8400,502
2011/09/16,506,506,502,505,12400,505
2011/09/20,505,507,499,499,25300,499
2011/09/21,504,504,499,499,10900,499
2011/09/22,500,503,499,500,16800,500
2011/09/26,502,503,498,498,22400,498
2011/09/27,498,507,498,507,96000,507
2011/09/28,497,503,495,498,40200,498
2011/09/29,499,501,493,500,19800,500
2011/09/30,500,501,495,496,20500,496
2011/10/03,496,496,488,489,20400,489
2011/10/04,486,486,481,482,13300,482
2011/10/05,482,484,478,478,10300,478
2011/10/06,481,485,479,479,14400,479
2011/10/07,479,484,479,479,7200,479
2011/10/11,480,485,479,483,15600,483
2011/10/12,479,482,479,479,9200,479
2011/10/13,486,486,481,484,2200,484
2011/10/14,479,481,476,476,13300,476
2011/10/17,484,484,480,482,9300,482
2011/10/18,489,489,480,480,8800,480
2011/10/19,487,487,478,479,6300,479
2011/10/20,476,478,476,476,6600,476
2011/10/21,479,480,476,476,7100,476
2011/10/24,478,481,476,479,12500,479
2011/10/25,480,480,475,475,15700,475
2011/10/26,475,479,475,479,15600,479
2011/10/27,479,480,472,480,16300,480
2011/10/28,480,483,477,479,24400,479
2011/10/31,484,488,480,482,8700,482
2011/11/01,482,488,479,480,14200,480
2011/11/02,480,484,478,480,16400,480
2011/11/04,482,483,481,483,2900,483
2011/11/07,483,493,480,493,11100,493
2011/11/08,485,490,480,485,7900,485
2011/11/09,488,490,485,490,6200,490
2011/11/10,480,486,480,486,11800,486
2011/11/11,486,488,482,487,7400,487
2011/11/14,489,489,487,489,5000,489
2011/11/15,485,487,483,487,3600,487
2011/11/16,487,487,485,487,6400,487
2011/11/17,487,491,485,489,15500,489
2011/11/18,485,486,485,486,3300,486
2011/11/21,486,486,483,485,2100,485
2011/11/22,480,484,480,481,9600,481
2011/11/24,479,480,475,475,7100,475
2011/11/25,472,479,472,472,7200,472
2011/11/28,479,480,474,474,4000,474
2011/11/29,470,481,470,480,7000,480
2011/11/30,477,480,472,474,10300,474
2011/12/01,480,485,479,485,7300,485
2011/12/02,493,493,477,477,14200,477
2011/12/05,477,484,477,481,7200,481
2011/12/06,479,483,472,472,13200,472
2011/12/07,473,482,471,473,18100,473
2011/12/08,473,478,473,477,7800,477
2011/12/09,480,480,474,477,25300,477
2011/12/12,478,481,477,478,14000,478
2011/12/13,475,480,474,480,6100,480
2011/12/14,473,477,473,475,25500,475
2011/12/15,474,476,470,471,15800,471
2011/12/16,473,473,470,470,9100,470
2011/12/19,471,477,471,473,13100,473
2011/12/20,479,484,477,483,22300,483
2011/12/21,482,482,476,478,4100,478
2011/12/22,475,481,475,475,2600,475
2011/12/26,478,480,475,475,3300,475
2011/12/27,479,479,477,477,2300,477
2011/12/28,477,478,474,474,2900,474
2011/12/29,480,481,474,475,5400,475
2011/12/30,480,498,478,497,9800,497
2012/01/04,497,500,485,497,19600,497
2012/01/05,489,495,486,489,5800,489
2012/01/06,491,498,491,492,5400,492
2012/01/10,498,500,496,500,6000,500
2012/01/11,500,500,499,499,2600,499
2012/01/12,498,499,487,487,8300,487
2012/01/13,495,495,490,494,4400,494
2012/01/16,490,495,485,485,6300,485
2012/01/17,486,495,486,494,4800,494
2012/01/18,502,505,495,495,12400,495
2012/01/19,494,500,491,491,6100,491
2012/01/20,492,505,492,505,11600,505
2012/01/23,504,507,502,502,3300,502
2012/01/24,499,506,499,499,3400,499
2012/01/25,498,503,497,503,7200,503
2012/01/26,503,505,500,500,7900,500
2012/01/27,500,506,499,504,3700,504
2012/01/30,505,510,501,501,9000,501
2012/01/31,502,507,502,502,9200,502
2012/02/01,502,505,491,504,17700,504
2012/02/02,503,508,503,507,8900,507
2012/02/03,509,519,506,507,12700,507
2012/02/06,511,512,506,508,5700,508
2012/02/07,512,512,509,509,4000,509
2012/02/08,514,528,512,528,12600,528
2012/02/09,525,526,520,526,9300,526
2012/02/10,526,526,511,511,4900,511
2012/02/13,513,519,513,519,4600,519
2012/02/14,520,530,520,529,8300,529
2012/02/15,528,535,521,535,10900,535
2012/02/16,530,535,525,525,10200,525
2012/02/17,529,531,527,527,7100,527
2012/02/20,537,537,531,531,7600,531
2012/02/21,535,537,532,535,4000,535
2012/02/22,533,542,533,541,8200,541
2012/02/23,541,548,536,542,14100,542
2012/02/24,545,549,545,545,9900,545
2012/02/27,546,547,538,541,13500,541
2012/02/28,542,550,538,550,15100,550
2012/02/29,550,552,538,538,11800,538
2012/03/01,539,546,538,538,9400,538
2012/03/02,548,548,542,542,8700,542
2012/03/05,541,550,540,541,5000,541
2012/03/06,540,542,526,528,13600,528
2012/03/07,522,537,522,537,6100,537
2012/03/08,541,549,536,546,8900,546
2012/03/09,556,556,547,553,28800,553
2012/03/12,553,555,550,550,9900,550
2012/03/13,547,551,536,537,15800,537
2012/03/14,547,552,539,539,14500,539
2012/03/15,550,554,550,552,17100,552
2012/03/16,552,554,552,552,9600,552
2012/03/19,559,559,554,556,13900,556
2012/03/21,560,560,551,551,17000,551
2012/03/22,555,560,552,552,7100,552
2012/03/23,555,555,552,553,12000,553
2012/03/26,552,553,545,545,15400,545
2012/03/27,555,567,553,567,20200,567
2012/03/28,540,560,540,552,13800,552
2012/03/29,551,560,547,557,9700,557
2012/03/30,565,565,553,554,13000,554
2012/04/02,554,556,540,540,16200,540
2012/04/03,540,543,539,539,7600,539
2012/04/04,540,540,530,530,5900,530
2012/04/05,530,533,525,529,9600,529
2012/04/06,526,529,525,527,8600,527
2012/04/09,526,526,520,520,4500,520
2012/04/10,521,527,520,526,10400,526
2012/04/11,516,518,514,516,11000,516
2012/04/12,517,518,515,515,10200,515
2012/04/13,519,519,514,514,2500,514
2012/04/16,513,518,510,513,8300,513
2012/04/17,514,522,513,513,8500,513
2012/04/18,523,525,515,515,13100,515
2012/04/19,510,514,506,506,8700,506
2012/04/20,506,513,506,508,4300,508
2012/04/23,510,510,504,504,9800,504
2012/04/24,502,505,501,501,8500,501
2012/04/25,505,512,505,512,6300,512
2012/04/26,514,527,513,527,11600,527
2012/04/27,522,522,516,516,11400,516
2012/05/01,516,517,505,505,11400,505
2012/05/02,505,507,505,507,3500,507
2012/05/07,502,504,500,503,9200,503
2012/05/08,502,509,502,506,17400,506
2012/05/09,502,510,500,507,12500,507
2012/05/10,501,504,500,501,6800,501
2012/05/11,502,503,494,494,13900,494
2012/05/14,495,499,490,492,8700,492
2012/05/15,488,493,487,493,14700,493
2012/05/16,493,493,486,489,8500,489
2012/05/17,489,492,489,491,6500,491
2012/05/18,491,491,485,491,14900,491
2012/05/21,491,492,484,490,6600,490
2012/05/22,484,489,484,487,5300,487
2012/05/23,487,490,484,486,12300,486
2012/05/24,484,488,484,486,5500,486
2012/05/25,482,485,481,482,8400,482
2012/05/28,486,486,482,482,3600,482
2012/05/29,482,492,480,489,14300,489
2012/05/30,489,492,486,492,3800,492
2012/05/31,482,498,482,496,7100,496
2012/06/01,496,514,496,503,12800,503
2012/06/04,502,502,493,499,12700,499
2012/06/05,499,499,487,495,6900,495
2012/06/06,500,505,497,505,5800,505
2012/06/07,500,512,500,512,7100,512
2012/06/08,513,513,498,505,20900,505
2012/06/11,505,510,502,502,5700,502
2012/06/12,498,515,498,515,6300,515
2012/06/13,513,515,508,509,3000,509
2012/06/14,508,509,498,499,7500,499
2012/06/15,494,502,494,498,6900,498
2012/06/18,500,510,496,497,8900,497
2012/06/19,496,504,496,499,3500,499
2012/06/20,504,505,503,504,2400,504
2012/06/21,508,512,505,512,2300,512
2012/06/22,512,515,506,509,3300,509
2012/06/25,519,520,504,504,11100,504
2012/06/26,504,505,501,501,7900,501
2012/06/27,505,512,500,512,4300,512
2012/06/28,518,524,515,524,10100,524
2012/06/29,517,525,517,525,8400,525
2012/07/02,526,529,525,525,8000,525
2012/07/03,533,533,523,524,11500,524
2012/07/04,528,528,523,523,5900,523
2012/07/05,524,539,524,529,2900,529
2012/07/06,525,530,525,525,5100,525
2012/07/09,521,528,521,526,3700,526
2012/07/10,530,531,526,526,4700,526
2012/07/11,524,524,519,519,4000,519
2012/07/12,519,519,513,513,5500,513
2012/07/13,513,514,505,508,9000,508
2012/07/17,509,520,509,516,7100,516
2012/07/18,526,526,519,521,15700,521
2012/07/19,531,531,519,522,7700,522
2012/07/20,532,532,525,526,10000,526
2012/07/23,526,529,515,515,9300,515
2012/07/24,505,513,502,504,7100,504
2012/07/25,503,511,493,493,10800,493
2012/07/26,494,500,494,500,10000,500
2012/07/27,502,504,501,501,6500,501
2012/07/30,495,506,495,506,9600,506
2012/07/31,498,506,498,505,8600,505
2012/08/01,505,507,499,505,11200,505
2012/08/02,506,515,506,515,11500,515
2012/08/03,501,504,498,499,7500,499
2012/08/06,504,507,500,507,5700,507
2012/08/07,509,509,500,503,7100,503
2012/08/08,509,520,508,520,6600,520
2012/08/09,520,523,515,523,5700,523
2012/08/10,513,522,513,521,2400,521
2012/08/13,521,524,519,521,4600,521
2012/08/14,521,534,521,534,7300,534
2012/08/15,543,543,523,539,12900,539
2012/08/16,538,545,537,545,15800,545
2012/08/17,545,550,542,550,16000,550
2012/08/20,550,552,545,545,7900,545
2012/08/21,549,553,540,553,9800,553
2012/08/22,555,560,551,559,17200,559
2012/08/23,554,560,551,554,9600,554
2012/08/24,553,560,549,556,8300,556
2012/08/27,559,561,555,557,11800,557
2012/08/28,560,561,554,558,6400,558
2012/08/29,558,558,554,558,11300,558
2012/08/30,555,556,552,553,11500,553
2012/08/31,543,545,543,543,4600,543
2012/09/03,545,551,543,546,9200,546
2012/09/04,554,554,539,541,17100,541
2012/09/05,541,541,536,536,16600,536
2012/09/06,531,531,523,524,9500,524
2012/09/07,540,550,528,535,11100,535
2012/09/10,535,546,535,546,3200,546
2012/09/11,548,548,536,541,3400,541
2012/09/12,544,546,542,544,5400,544
2012/09/13,544,550,544,550,8500,550
2012/09/14,555,555,545,550,21800,550
2012/09/18,550,558,550,556,10100,556
2012/09/19,559,560,550,560,10500,560
2012/09/20,551,557,547,552,6900,552
2012/09/21,557,559,548,553,28000,553
2012/09/24,553,553,549,552,27400,552
2012/09/25,547,557,544,550,129800,550
2012/09/26,525,539,525,535,46800,535
2012/09/27,531,540,531,538,12700,538
2012/09/28,539,539,526,526,11500,526
2012/10/01,526,533,514,533,15300,533
2012/10/02,529,529,523,526,4800,526
2012/10/03,525,526,516,516,5800,516
2012/10/04,512,524,511,511,6900,511
2012/10/05,511,514,508,511,10300,511
2012/10/09,512,515,505,505,6300,505
2012/10/10,503,508,502,503,6600,503
2012/10/11,508,508,506,508,3400,508
2012/10/12,510,513,505,505,7900,505
2012/10/15,504,513,504,512,5300,512
2012/10/16,512,512,508,508,5700,508
2012/10/17,510,519,509,519,10300,519
2012/10/18,529,529,521,525,8400,525
2012/10/19,524,550,524,550,13400,550
2012/10/22,513,525,512,523,24500,523
2012/10/23,527,527,513,513,9200,513
2012/10/24,514,514,504,505,11100,505
2012/10/25,507,511,502,506,16600,506
2012/10/26,511,511,497,498,20500,498
2012/10/29,503,505,502,504,6000,504
2012/10/30,505,510,503,503,10200,503
2012/10/31,503,512,503,510,7600,510
2012/11/01,510,514,510,510,8300,510
2012/11/02,520,520,510,513,13000,513
2012/11/05,507,511,507,508,7100,508
2012/11/06,507,507,500,500,11900,500
2012/11/07,509,509,500,500,6100,500
2012/11/08,497,501,496,496,11600,496
2012/11/09,495,503,493,493,16100,493
2012/11/12,491,492,488,488,12600,488
2012/11/13,489,490,486,486,10600,486
2012/11/14,490,491,489,490,6200,490
2012/11/15,491,494,490,492,9800,492
2012/11/16,492,501,489,501,21100,501
2012/11/19,501,507,497,503,17500,503
2012/11/20,508,508,500,501,10200,501
2012/11/21,505,506,502,505,6200,505
2012/11/22,510,511,503,511,8400,511
2012/11/26,515,515,511,512,14200,512
2012/11/27,514,515,513,515,11700,515
2012/11/28,509,515,509,514,7600,514
2012/11/29,515,516,513,513,6000,513
2012/11/30,515,515,501,501,8400,501
2012/12/03,504,513,504,510,8300,510
2012/12/04,514,515,513,514,9000,514
2012/12/05,504,514,504,514,12000,514
2012/12/06,517,518,515,518,10200,518
2012/12/07,518,520,512,516,6400,516
2012/12/10,513,521,511,518,8600,518
2012/12/11,512,516,512,514,3200,514
2012/12/12,514,520,514,515,8300,515
2012/12/13,520,520,516,520,5600,520
2012/12/14,512,520,512,515,27700,515
2012/12/17,519,522,517,520,11200,520
2012/12/18,520,526,514,522,33300,522
2012/12/19,522,532,517,532,16400,532
2012/12/20,522,531,521,527,14400,527
2012/12/21,530,530,521,530,12800,530
2012/12/25,530,530,520,528,9700,528
2012/12/26,524,527,522,524,8800,524
2012/12/27,520,527,519,519,14700,519
2012/12/28,521,533,519,520,13500,520
2013/01/04,525,533,521,530,16100,530
2013/01/07,538,538,527,532,18200,532
2013/01/08,535,535,525,527,9100,527
2013/01/09,526,527,522,524,16700,524
2013/01/10,524,531,522,525,24000,525
2013/01/11,529,533,529,531,13700,531
2013/01/15,533,535,532,532,12400,532
2013/01/16,532,536,529,532,11000,532
2013/01/17,532,533,526,526,15200,526
2013/01/18,532,535,530,532,15300,532
2013/01/21,534,538,532,535,8000,535
2013/01/22,530,535,525,525,15600,525
2013/01/23,526,529,521,522,14100,522
2013/01/24,525,525,516,522,18500,522
2013/01/25,525,525,517,524,22400,524
2013/01/28,526,530,518,518,14500,518
2013/01/29,518,529,518,525,14400,525
2013/01/30,525,530,525,525,8000,525
2013/01/31,521,527,521,524,10900,524
2013/02/01,525,541,525,532,31000,532
2013/02/04,542,543,534,538,21800,538
2013/02/05,533,535,527,527,16900,527
2013/02/06,536,536,525,527,30800,527
2013/02/07,528,530,526,526,14300,526
2013/02/08,526,538,526,535,43200,535
2013/02/12,538,545,530,533,31200,533
2013/02/13,530,544,530,532,11800,532
2013/02/14,541,542,530,533,12700,533
2013/02/15,532,532,526,531,19900,531
2013/02/18,534,538,531,534,12600,534
2013/02/19,534,545,534,539,25000,539
2013/02/20,536,549,536,549,26000,549
2013/02/21,547,550,540,543,17000,543
2013/02/22,543,543,534,536,14300,536
2013/02/25,531,535,527,532,69500,532
2013/02/26,529,580,529,563,110800,563
2013/02/27,585,590,555,569,158700,569
2013/02/28,569,579,541,541,75600,541
2013/03/01,555,565,551,558,162500,558
2013/03/04,560,564,559,559,52100,559
2013/03/05,559,563,556,556,60400,556
2013/03/06,556,561,556,557,45700,557
2013/03/07,557,561,557,557,39600,557
2013/03/08,552,560,552,554,106900,554
2013/03/11,556,571,554,566,38300,566
2013/03/12,563,570,562,566,44700,566
2013/03/13,566,575,565,570,36100,570
2013/03/14,577,600,572,584,102300,584
2013/03/15,590,596,574,588,46500,588
2013/03/18,587,591,584,587,30900,587
2013/03/19,592,598,590,592,37000,592
2013/03/21,591,596,589,593,48000,593
2013/03/22,585,597,581,581,42800,581
2013/03/25,582,592,578,583,48300,583
2013/03/26,578,585,571,577,37900,577
2013/03/27,565,587,565,585,19400,585
2013/03/28,581,582,573,577,15100,577
2013/03/29,579,579,566,568,19800,568
2013/04/01,568,570,547,547,39900,547
2013/04/02,533,557,530,554,40000,554
2013/04/03,555,568,555,559,28300,559
2013/04/04,557,567,547,567,19400,567
2013/04/05,570,590,570,585,46900,585
2013/04/08,590,609,590,593,59000,593
2013/04/09,593,598,582,582,24000,582
2013/04/10,584,591,580,585,39800,585
2013/04/11,585,592,557,581,44200,581
2013/04/12,586,586,575,579,26300,579
2013/04/15,574,587,573,576,20400,576
2013/04/16,573,582,566,570,29100,570
2013/04/17,570,574,567,567,21300,567
2013/04/18,585,585,556,562,105700,562
2013/04/19,564,568,546,553,74700,553
2013/04/22,562,563,556,561,51600,561
2013/04/23,563,563,558,559,28000,559
2013/04/24,564,574,564,574,55000,574
2013/04/25,568,579,568,573,40200,573
2013/04/26,573,574,560,561,46500,561
2013/04/30,570,570,563,564,29300,564
2013/05/01,564,570,562,563,26300,563
2013/05/02,565,569,561,562,27600,562
2013/05/07,570,588,568,578,38600,578
2013/05/08,580,581,562,572,85000,572
2013/05/09,572,572,564,564,50300,564
2013/05/10,584,586,570,573,112800,573
2013/05/13,575,576,562,564,83600,564
2013/05/14,565,571,565,566,37000,566
2013/05/15,566,571,559,561,73300,561
2013/05/16,562,562,550,553,80100,553
2013/05/17,553,566,553,564,73800,564
2013/05/20,579,580,561,567,90700,567
2013/05/21,561,566,561,562,50600,562
2013/05/22,561,567,560,563,72500,563
2013/05/23,563,566,546,548,76900,548
2013/05/24,549,552,539,541,69700,541
2013/05/27,542,549,537,539,42600,539
2013/05/28,537,540,531,537,37200,537
2013/05/29,540,543,537,538,49500,538
2013/05/30,535,539,528,530,52000,530
2013/05/31,532,537,531,533,36500,533
2013/06/03,532,532,517,517,77900,517
2013/06/04,518,526,511,516,74300,516
2013/06/05,518,527,515,515,35100,515
2013/06/06,515,520,511,514,29100,514
2013/06/07,510,511,499,501,68200,501
2013/06/10,506,537,506,517,43900,517
2013/06/11,515,522,510,512,24400,512
2013/06/12,512,513,504,509,25300,509
2013/06/13,507,508,501,501,33600,501
2013/06/14,502,509,501,501,65900,501
2013/06/17,502,516,502,514,18300,514
2013/06/18,524,529,519,524,26400,524
2013/06/19,529,532,523,530,16300,530
2013/06/20,530,533,523,531,22500,531
2013/06/21,523,531,520,529,26000,529
2013/06/24,535,535,520,525,17800,525
2013/06/25,530,530,521,522,8800,522
2013/06/26,523,529,511,513,13500,513
2013/06/27,522,533,511,533,16800,533
2013/06/28,532,536,529,531,30600,531
2013/07/01,535,535,528,535,17700,535
2013/07/02,536,537,530,531,17300,531
2013/07/03,530,533,528,533,29100,533
2013/07/04,528,532,528,531,11600,531
2013/07/05,533,536,529,535,24100,535
2013/07/08,535,539,530,530,24800,530
2013/07/09,535,539,531,536,16800,536
2013/07/10,537,542,535,537,16200,537
2013/07/11,539,540,535,536,12000,536
2013/07/12,536,540,534,538,19500,538
2013/07/16,538,545,536,537,25900,537
2013/07/17,537,543,537,539,27500,539
2013/07/18,545,545,540,544,20900,544
2013/07/19,545,545,539,541,15800,541
2013/07/22,543,546,540,542,14000,542
2013/07/23,540,546,540,544,14900,544
2013/07/24,545,546,543,544,8200,544
2013/07/25,546,548,540,540,17400,540
2013/07/26,540,542,535,535,29700,535
2013/07/29,532,538,524,526,18500,526
2013/07/30,526,532,526,532,11600,532
2013/07/31,531,545,526,527,34600,527
2013/08/01,532,556,531,556,65200,556
2013/08/02,559,559,543,551,18800,551
2013/08/05,568,568,550,559,34700,559
2013/08/06,555,558,550,557,11200,557
2013/08/07,552,558,550,550,8800,550
2013/08/08,545,553,541,542,13400,542
2013/08/09,544,546,535,542,21100,542
2013/08/12,544,549,534,547,11500,547
2013/08/13,549,562,546,561,26900,561
2013/08/14,559,560,555,560,13000,560
2013/08/15,559,559,555,555,11800,555
2013/08/16,555,559,554,554,11500,554
2013/08/19,554,563,554,560,11200,560
2013/08/20,560,562,550,550,17200,550
2013/08/21,556,558,552,555,11400,555
2013/08/22,559,559,553,555,8800,555
2013/08/23,555,561,551,556,26700,556
2013/08/26,559,559,553,553,4100,553
2013/08/27,552,561,552,554,11800,554
2013/08/28,550,552,549,550,11800,550
2013/08/29,547,553,547,551,8000,551
2013/08/30,554,554,541,543,23100,543
2013/09/02,540,549,537,546,20800,546
2013/09/03,552,555,549,555,12300,555
2013/09/04,552,554,547,553,11700,553
2013/09/05,550,554,548,550,17000,550
2013/09/06,554,555,551,553,6500,553
2013/09/09,559,559,555,559,22600,559
2013/09/10,560,566,560,564,27700,564
2013/09/11,565,568,563,565,27100,565
2013/09/12,562,566,562,565,10900,565
2013/09/13,558,563,551,563,51000,563
2013/09/17,568,568,555,555,46500,555
2013/09/18,561,565,557,559,20400,559
2013/09/19,559,567,559,565,21300,565
2013/09/20,565,572,564,571,47500,571
2013/09/24,571,574,568,573,70100,573
2013/09/25,573,574,570,572,189000,572
2013/09/26,564,566,554,565,73400,565
2013/09/27,563,563,559,563,25000,563
2013/09/30,562,562,556,558,18300,558
2013/10/01,558,564,558,559,28200,559
2013/10/02,555,558,553,554,30200,554
2013/10/03,557,567,553,553,30100,553
2013/10/04,555,559,551,555,20700,555
2013/10/07,552,559,552,556,29600,556
2013/10/08,558,560,551,558,32400,558
2013/10/09,558,560,552,560,27400,560
2013/10/10,560,563,559,563,13400,563
2013/10/11,566,569,564,569,38600,569
2013/10/15,565,570,565,570,21200,570
2013/10/16,569,570,560,566,30400,566
2013/10/17,569,571,568,571,30800,571
2013/10/18,571,573,570,573,22000,573
2013/10/21,573,576,570,575,23900,575
2013/10/22,576,577,574,577,20800,577
2013/10/23,575,577,575,575,14600,575
2013/10/24,575,577,574,576,18700,576
2013/10/25,577,578,571,574,34600,574
2013/10/28,575,580,573,579,24900,579
2013/10/29,580,580,577,580,52800,580
2013/10/30,580,580,570,570,65400,570
2013/10/31,574,575,566,572,23800,572
2013/11/01,572,574,542,545,55100,545
2013/11/05,550,554,550,551,23900,551
2013/11/06,553,555,550,555,13400,555
2013/11/07,559,562,555,557,11300,557
2013/11/08,555,562,554,556,17000,556
2013/11/11,561,564,553,557,21800,557
2013/11/12,558,568,557,566,16200,566
2013/11/13,568,568,541,551,35700,551
2013/11/14,558,571,557,570,18400,570
2013/11/15,574,575,568,572,28100,572
2013/11/18,574,574,564,564,21800,564
2013/11/19,565,569,564,566,15200,566
2013/11/20,562,566,562,566,16000,566
2013/11/21,567,572,567,571,15000,571
2013/11/22,571,573,568,569,13300,569
2013/11/25,568,574,562,572,18700,572
2013/11/26,572,572,564,568,10200,568
2013/11/27,568,571,566,570,9800,570
2013/11/28,570,570,565,569,6700,569
2013/11/29,566,570,565,569,9600,569
2013/12/02,570,575,569,570,32900,570
2013/12/03,574,574,570,570,8700,570
2013/12/04,567,572,566,567,14100,567
2013/12/05,566,568,561,561,11900,561
2013/12/06,560,563,558,560,10500,560
2013/12/09,565,567,563,566,11100,566
2013/12/10,569,569,561,563,20700,563
2013/12/11,563,568,561,564,9400,564
2013/12/12,561,561,558,558,19400,558
2013/12/13,550,557,550,551,80700,551
2013/12/16,552,556,550,552,27300,552
2013/12/17,554,560,554,560,14100,560
2013/12/18,568,568,561,563,29100,563
2013/12/19,565,565,554,562,24600,562
2013/12/20,559,565,559,564,14400,564
2013/12/24,560,567,560,563,19400,563
2013/12/25,560,563,558,560,17100,560
2013/12/26,561,567,558,563,18900,563
2013/12/27,566,577,566,575,23700,575
2013/12/30,580,581,575,581,14300,581
2014/01/06,581,585,581,583,22100,583
2014/01/07,585,585,572,576,16300,576
2014/01/08,575,581,575,581,11400,581
2014/01/09,580,580,574,579,13500,579
2014/01/10,576,579,570,578,18100,578
2014/01/14,578,578,573,574,18700,574
2014/01/15,580,581,574,580,12500,580
2014/01/16,580,584,578,582,11800,582
2014/01/17,584,586,582,585,21300,585
2014/01/20,585,587,583,583,11400,583
2014/01/21,585,588,585,586,7800,586
2014/01/22,586,589,585,586,7300,586
2014/01/23,586,589,582,583,11100,583
2014/01/24,580,582,571,571,28500,571
2014/01/27,570,570,559,561,24300,561
2014/01/28,571,571,561,561,21200,561
2014/01/29,565,570,565,570,7600,570
2014/01/30,563,567,561,563,20600,563
2014/01/31,564,566,562,563,19200,563
2014/02/03,565,566,563,563,11200,563
2014/02/04,559,593,549,553,107500,553
2014/02/05,580,580,559,577,51000,577
2014/02/06,573,582,568,578,21700,578
2014/02/07,579,581,567,581,19700,581
2014/02/10,584,588,579,584,15500,584
2014/02/12,585,588,581,587,10600,587
2014/02/13,581,585,577,577,10200,577
2014/02/14,578,582,569,569,13600,569
2014/02/17,569,575,565,573,10000,573
2014/02/18,573,597,571,596,52100,596
2014/02/19,590,605,589,602,48600,602
2014/02/20,603,603,596,597,22500,597
2014/02/21,596,624,593,623,68800,623
2014/02/24,631,640,622,627,53500,627
2014/02/25,634,637,625,626,38000,626
2014/02/26,626,630,621,626,12300,626
2014/02/27,620,632,610,626,24000,626
2014/02/28,626,630,616,624,28900,624
2014/03/03,624,645,624,634,40600,634
2014/03/04,622,634,622,634,25500,634
2014/03/05,639,644,638,641,37800,641
2014/03/06,640,643,637,642,12300,642
2014/03/07,644,644,632,636,18600,636
2014/03/10,633,642,631,637,19600,637
2014/03/11,641,643,637,639,11400,639
2014/03/12,627,643,627,633,16900,633
2014/03/13,628,640,628,638,11700,638
2014/03/14,636,636,614,615,66900,615
2014/03/17,632,635,619,626,28200,626
2014/03/18,635,635,626,629,10800,629
2014/03/19,628,630,624,624,13300,624
2014/03/20,606,623,606,607,27900,607
2014/03/24,620,634,613,631,24400,631
2014/03/25,633,644,629,642,25400,642
2014/03/26,645,650,630,640,33800,640
2014/03/27,638,650,630,648,38500,648
2014/03/28,642,650,637,646,24500,646
2014/03/31,649,666,647,663,44400,663
2014/04/01,663,664,639,658,43400,658
2014/04/02,658,659,635,638,32600,638
2014/04/03,640,646,630,633,29800,633
2014/04/04,633,639,624,630,21300,630
2014/04/07,629,639,628,631,8900,631
2014/04/08,628,628,613,616,23500,616
2014/04/09,609,617,595,596,38100,596
2014/04/10,604,613,595,598,28300,598
2014/04/11,598,604,588,594,13900,594
2014/04/14,594,608,591,593,9400,593
2014/04/15,595,602,595,599,10000,599
2014/04/16,603,618,603,617,11300,617
2014/04/17,618,623,611,616,10900,616
2014/04/18,616,617,610,612,5700,612
2014/04/21,618,618,596,602,15000,602
2014/04/22,610,612,600,602,9000,602
2014/04/23,607,612,607,611,7800,611
2014/04/24,604,620,597,598,12900,598
2014/04/25,606,614,599,605,6000,605
2014/04/28,601,605,594,595,13200,595
2014/04/30,597,599,591,592,15900,592
2014/05/01,592,601,592,601,14500,601
2014/05/02,602,603,598,602,8200,602
2014/05/07,600,601,589,589,26600,589
2014/05/08,588,605,588,594,19200,594
2014/05/09,590,605,590,595,14300,595
2014/05/12,601,601,584,584,19300,584
2014/05/13,590,598,586,594,9400,594
2014/05/14,595,599,588,597,7400,597
2014/05/15,590,594,585,594,6200,594
2014/05/16,584,587,583,584,24100,584
2014/05/19,584,592,584,588,6700,588
2014/05/20,597,597,588,588,9800,588
2014/05/21,588,602,582,588,8300,588
2014/05/22,593,601,581,599,7400,599
2014/05/23,603,610,600,608,10800,608
2014/05/26,610,610,601,607,11600,607
2014/05/27,602,612,602,606,10000,606
2014/05/28,600,608,593,603,13900,603
2014/05/29,604,607,604,605,2700,605
2014/05/30,602,616,602,614,11900,614
2014/06/02,618,629,615,627,17000,627
2014/06/03,633,634,631,632,17400,632
2014/06/04,635,635,623,625,9300,625
2014/06/05,629,632,625,631,6500,631
2014/06/06,634,634,616,631,13400,631
2014/06/09,622,634,622,625,12800,625
2014/06/10,625,631,624,624,9300,624
2014/06/11,622,632,612,627,14600,627
2014/06/12,625,629,623,625,3200,625
2014/06/13,633,634,627,630,35500,630
2014/06/16,632,635,626,629,19600,629
2014/06/17,631,638,630,636,16000,636
2014/06/18,638,645,638,644,16900,644
2014/06/19,647,650,645,649,16100,649
2014/06/20,648,649,645,647,13200,647
2014/06/23,650,650,644,644,5800,644
2014/06/24,647,650,644,649,13900,649
2014/06/25,646,650,644,646,11000,646
2014/06/26,648,654,648,650,10400,650
2014/06/27,647,651,638,644,15700,644
2014/06/30,646,657,646,653,17200,653
2014/07/01,655,662,655,658,19200,658
2014/07/02,665,683,665,682,51700,682
2014/07/03,684,688,678,686,14700,686
2014/07/04,690,696,683,691,48100,691
2014/07/07,693,693,660,682,23600,682
2014/07/08,685,691,683,688,12800,688
2014/07/09,686,686,676,682,10200,682
2014/07/10,682,684,677,677,9700,677
2014/07/11,665,677,665,672,6500,672
2014/07/14,672,680,672,680,7100,680
2014/07/15,684,687,679,679,13400,679
2014/07/16,673,678,672,677,10200,677
2014/07/17,677,680,677,679,21600,679
2014/07/18,669,678,668,672,14400,672
2014/07/22,669,687,669,686,11600,686
2014/07/23,686,688,682,687,16300,687
2014/07/24,692,692,685,689,11600,689
2014/07/25,694,698,689,698,35600,698
2014/07/28,700,709,699,709,27900,709
2014/07/29,715,715,709,711,10900,711
2014/07/30,711,712,702,709,19000,709
2014/07/31,713,713,663,676,50500,676
2014/08/01,661,673,660,665,68900,665
2014/08/04,650,653,624,630,99700,630
2014/08/05,637,640,627,629,42700,629
2014/08/06,625,634,624,626,25900,626
2014/08/07,624,636,623,631,12500,631
2014/08/08,621,640,621,634,19700,634
2014/08/11,638,641,635,641,14600,641
2014/08/12,642,650,640,646,11700,646
2014/08/13,647,647,640,642,21800,642
2014/08/14,650,654,647,654,9200,654
2014/08/15,655,655,647,653,14700,653
2014/08/18,660,660,652,652,18500,652
2014/08/19,652,661,652,653,14500,653
2014/08/20,651,659,651,653,17300,653
2014/08/21,655,663,654,663,13100,663
2014/08/22,665,668,654,656,15100,656
2014/08/25,660,667,655,661,6200,661
2014/08/26,660,660,656,656,4800,656
2014/08/27,662,662,657,662,12000,662
2014/08/28,663,669,659,668,17100,668
2014/08/29,668,669,663,668,11300,668
2014/09/01,669,675,666,670,24300,670
2014/09/02,668,680,668,673,23900,673
2014/09/03,675,680,674,679,17800,679
2014/09/04,685,685,678,680,11500,680
2014/09/05,686,687,680,680,8500,680
2014/09/08,685,688,680,687,12100,687
2014/09/09,687,688,680,680,19500,680
2014/09/10,678,688,675,685,22400,685
2014/09/11,688,688,683,686,9500,686
2014/09/12,700,700,694,696,54400,696
2014/09/16,697,698,696,698,10600,698
2014/09/17,698,700,696,698,19100,698
2014/09/18,692,700,692,697,21100,697
2014/09/19,698,705,697,705,30800,705
2014/09/22,705,709,702,707,29800,707
2014/09/24,700,706,700,702,35100,702
2014/09/25,700,710,697,710,157600,710
2014/09/26,695,705,689,703,60100,703
2014/09/29,700,700,695,695,12400,695
2014/09/30,696,698,681,683,50900,683
2014/10/01,685,695,684,688,19800,688
2014/10/02,690,693,676,686,33300,686
2014/10/03,676,686,670,683,19600,683
2014/10/06,689,697,683,695,19400,695
2014/10/07,700,702,696,701,29600,701
2014/10/08,687,699,687,693,19900,693
2014/10/09,698,700,691,698,17300,698
2014/10/10,683,687,671,682,22400,682
2014/10/14,662,682,662,666,29800,666
2014/10/15,666,668,656,658,14700,658
2014/10/16,651,658,639,641,22000,641
2014/10/17,641,650,641,641,17900,641
2014/10/20,650,679,650,676,19400,676
2014/10/21,689,689,644,646,58700,646
2014/10/22,666,675,653,674,30400,674
2014/10/23,614,627,611,617,106900,617
2014/10/24,620,630,616,618,37400,618
2014/10/27,626,633,621,631,34000,631
2014/10/28,630,633,624,629,18200,629
2014/10/29,634,639,623,626,35100,626
2014/10/30,628,643,628,635,26500,635
2014/10/31,639,683,636,680,53000,680
2014/11/04,681,682,653,666,54300,666
2014/11/05,665,678,662,676,33600,676
2014/11/06,679,680,672,673,23400,673
2014/11/07,668,673,663,666,13400,666
2014/11/10,666,666,653,657,20800,657
2014/11/11,657,666,653,661,11300,661
2014/11/12,668,668,652,654,16900,654
2014/11/13,654,669,652,666,17600,666
2014/11/14,677,677,664,669,27100,669
2014/11/17,666,672,658,659,29100,659
2014/11/18,655,676,655,665,21500,665
2014/11/19,665,668,659,659,14100,659
2014/11/20,657,666,656,656,10300,656
2014/11/21,657,659,656,656,11400,656
2014/11/25,661,664,659,662,12800,662
2014/11/26,658,666,657,663,12600,663
2014/11/27,660,667,656,656,12800,656
2014/11/28,654,661,653,660,19100,660
2014/12/01,660,668,658,660,18700,660
2014/12/02,657,666,657,666,11800,666
2014/12/03,668,678,666,676,25500,676
2014/12/04,676,679,666,668,14800,668
2014/12/05,666,668,666,668,9400,668
2014/12/08,664,666,660,661,24400,661
2014/12/09,657,670,656,658,17700,658
2014/12/10,656,663,656,656,20500,656
2014/12/11,656,665,654,656,15900,656
2014/12/12,649,660,648,648,51300,648
2014/12/15,642,673,641,654,22900,654
2014/12/16,644,675,644,649,23000,649
2014/12/17,649,667,649,654,24200,654
2014/12/18,664,672,653,654,25400,654
2014/12/19,667,670,662,667,16200,667
2014/12/22,667,672,662,671,13200,671
2014/12/24,667,673,657,667,18000,667
2014/12/25,667,671,665,670,15000,670
2014/12/26,664,679,664,679,9600,679
2014/12/29,680,689,673,687,20000,687
2014/12/30,688,689,667,685,10100,685
2015/01/05,685,687,675,677,11400,677
2015/01/06,675,675,660,660,19500,660
2015/01/07,657,673,650,669,20800,669
2015/01/08,668,672,665,667,10800,667
2015/01/09,664,666,655,656,15300,656
2015/01/13,650,653,643,647,28000,647
2015/01/14,647,652,645,645,14900,645
2015/01/15,650,660,650,659,10400,659
2015/01/16,647,651,644,646,17300,646
2015/01/19,656,659,652,653,8800,653
2015/01/20,659,660,652,660,18400,660
2015/01/21,659,659,650,651,11200,651
2015/01/22,654,654,645,650,11000,650
2015/01/23,648,655,647,653,10000,653
2015/01/26,650,656,649,654,8200,654
2015/01/27,659,660,653,658,10400,658
2015/01/28,658,659,653,659,14500,659
2015/01/29,658,660,651,652,16400,652
2015/01/30,656,659,656,659,11800,659
2015/02/02,658,658,652,653,20100,653
2015/02/03,653,653,645,646,20700,646
2015/02/04,647,659,646,655,15900,655
2015/02/05,650,656,649,649,9700,649
2015/02/06,649,652,647,648,20900,648
2015/02/09,650,658,644,647,26700,647
2015/02/10,647,657,643,648,24200,648
2015/02/12,650,656,648,649,29700,649
2015/02/13,649,650,646,648,20900,648
2015/02/16,650,652,647,648,22600,648
2015/02/17,649,663,648,657,24600,657
2015/02/18,663,663,652,655,39400,655
2015/02/19,687,713,671,682,153200,682
2015/02/20,676,680,671,676,39500,676
2015/02/23,678,695,676,691,49000,691
2015/02/24,687,688,682,688,21000,688
2015/02/25,680,690,680,684,14000,684
2015/02/26,681,685,679,683,27800,683
2015/02/27,681,682,674,675,31300,675
2015/03/02,675,679,672,672,21400,672
2015/03/03,670,675,668,669,23100,669
2015/03/04,671,672,666,668,12800,668
2015/03/05,668,675,667,668,19200,668
2015/03/06,669,673,669,670,13200,670
2015/03/09,670,675,665,673,22300,673
2015/03/10,676,679,672,675,12100,675
2015/03/11,675,682,671,679,25500,679
2015/03/12,680,681,678,680,22400,680
2015/03/13,680,682,675,679,54400,679
2015/03/16,677,687,676,680,18800,680
2015/03/17,681,686,681,684,21800,684
2015/03/18,688,688,684,685,19000,685
2015/03/19,685,688,682,684,17400,684
2015/03/20,688,688,677,686,24200,686
2015/03/23,682,695,681,685,17900,685
2015/03/24,683,688,682,687,15500,687
2015/03/25,690,690,685,688,17700,688
2015/03/26,689,689,679,685,20700,685
2015/03/27,672,679,664,665,24100,665
2015/03/30,663,668,662,667,17100,667
2015/03/31,670,679,667,670,24300,670
2015/04/01,661,664,656,659,32100,659
2015/04/02,655,674,655,670,26100,670
2015/04/03,679,679,657,667,23800,667
2015/04/06,673,673,661,662,10000,662
2015/04/07,662,665,660,663,22300,663
2015/04/08,666,671,665,667,15800,667
2015/04/09,670,672,665,667,22400,667
2015/04/10,666,667,661,662,27900,662
2015/04/13,664,665,660,661,14400,661
2015/04/14,664,666,662,666,7500,666
2015/04/15,662,665,661,661,9800,661
2015/04/16,664,664,659,663,15100,663
2015/04/17,665,665,661,661,16900,661
2015/04/20,661,663,658,661,16600,661
2015/04/21,700,703,684,694,171900,694
2015/04/22,699,707,695,699,63700,699
2015/04/23,704,710,701,705,60400,705
2015/04/24,701,707,699,704,29200,704
2015/04/27,701,713,697,712,46900,712
2015/04/28,712,720,712,718,45200,718
2015/04/30,718,724,715,724,67000,724
2015/05/01,724,740,720,724,58300,724
2015/05/07,720,728,702,713,39300,713
2015/05/08,706,830,706,782,227800,782
2015/05/11,783,808,765,781,154700,781
2015/05/12,783,794,765,785,78800,785
2015/05/13,784,805,777,777,58100,777
2015/05/14,785,819,785,816,97200,816
2015/05/15,819,860,819,847,100100,847
2015/05/18,862,909,861,895,144100,895
2015/05/19,881,896,851,886,93900,886
2015/05/20,890,900,868,888,68400,888
2015/05/21,889,889,835,857,86600,857
2015/05/22,846,862,840,858,55000,858
2015/05/25,863,880,861,869,51800,869
2015/05/26,860,867,855,856,47600,856
2015/05/27,861,879,852,874,62400,874
2015/05/28,874,896,874,885,50600,885
2015/05/29,880,899,879,898,59200,898
2015/06/01,900,960,900,947,128300,947
2015/06/02,949,949,920,934,64600,934
2015/06/03,919,928,913,917,33300,917
2015/06/04,905,929,903,915,53600,915
2015/06/05,905,919,894,909,49500,909
2015/06/08,915,935,910,923,41700,923
2015/06/09,911,933,906,911,43100,911
2015/06/10,911,930,905,920,30700,920
2015/06/11,930,942,928,937,39100,937
2015/06/12,949,950,921,924,68100,924
2015/06/15,915,936,915,934,32800,934
2015/06/16,932,974,931,942,67800,942
2015/06/17,956,974,956,970,54800,970
2015/06/18,980,997,949,972,84500,972
2015/06/19,972,994,945,961,67100,961
2015/06/22,965,965,910,924,101800,924
2015/06/23,916,937,915,929,49900,929
2015/06/24,936,965,921,953,79200,953
2015/06/25,954,955,938,940,40400,940
2015/06/26,940,950,933,945,51100,945
2015/06/29,909,928,904,906,55100,906
2015/06/30,905,923,905,922,44200,922
2015/07/01,926,965,925,957,72300,957
