2011/01/04,104,105,103,104,89000,104
2011/01/05,105,107,105,107,209000,107
2011/01/06,107,109,107,108,267000,108
2011/01/07,108,109,107,108,89000,108
2011/01/11,108,111,107,110,154000,110
2011/01/12,110,114,109,110,396000,110
2011/01/13,110,111,108,109,206000,109
2011/01/14,109,110,108,109,72000,109
2011/01/17,113,116,113,116,663000,116
2011/01/18,116,118,114,118,355000,118
2011/01/19,118,119,118,118,236000,118
2011/01/20,117,117,115,115,150000,115
2011/01/21,114,114,110,112,255000,112
2011/01/24,111,111,110,111,58000,111
2011/01/25,112,112,110,111,74000,111
2011/01/26,111,113,111,112,30000,112
2011/01/27,113,116,113,116,166000,116
2011/01/28,116,116,113,115,160000,115
2011/01/31,114,115,113,114,102000,114
2011/02/01,114,115,113,115,99000,115
2011/02/02,115,116,114,116,114000,116
2011/02/03,116,117,114,117,58000,117
2011/02/04,118,119,116,118,226000,118
2011/02/07,119,122,119,120,214000,120
2011/02/08,121,122,120,121,147000,121
2011/02/09,122,123,119,122,197000,122
2011/02/10,122,127,122,124,385000,124
2011/02/14,126,126,123,125,141000,125
2011/02/15,125,129,124,127,571000,127
2011/02/16,128,129,127,128,271000,128
2011/02/17,128,129,125,125,172000,125
2011/02/18,124,126,124,125,127000,125
2011/02/21,126,126,123,126,97000,126
2011/02/22,124,125,122,124,103000,124
2011/02/23,121,123,121,121,103000,121
2011/02/24,121,121,116,118,185000,118
2011/02/25,116,117,114,116,92000,116
2011/02/28,120,120,118,119,37000,119
2011/03/01,122,122,120,120,29000,120
2011/03/02,119,121,118,119,85000,119
2011/03/03,119,120,117,118,97000,118
2011/03/04,120,120,118,118,55000,118
2011/03/07,118,119,117,117,63000,117
2011/03/08,118,119,118,119,48000,119
2011/03/09,120,120,118,118,79000,118
2011/03/10,118,118,115,115,110000,115
2011/03/11,114,115,113,115,105000,115
2011/03/14,85,102,85,94,267000,94
2011/03/15,89,91,72,80,381000,80
2011/03/16,75,89,74,89,515000,89
2011/03/17,85,100,84,97,188000,97
2011/03/18,99,100,97,99,127000,99
2011/03/22,101,102,100,102,167000,102
2011/03/23,102,102,100,101,87000,101
2011/03/24,100,102,100,100,77000,100
2011/03/25,102,105,101,101,105000,101
2011/03/28,102,104,100,104,51000,104
2011/03/29,104,104,102,104,30000,104
2011/03/30,102,104,102,104,46000,104
2011/03/31,105,114,103,104,258000,104
2011/04/01,105,108,105,106,83000,106
2011/04/04,108,110,107,108,52000,108
2011/04/05,108,108,104,104,72000,104
2011/04/06,104,105,96,100,178000,100
2011/04/07,103,121,101,110,2090000,110
2011/04/08,111,121,111,116,1114000,116
2011/04/11,118,120,114,114,283000,114
2011/04/12,114,114,109,110,163000,110
2011/04/13,108,111,108,109,92000,109
2011/04/14,110,113,109,110,139000,110
2011/04/15,113,113,108,109,127000,109
2011/04/18,109,116,109,113,263000,113
2011/04/19,113,113,110,111,75000,111
2011/04/20,112,114,112,113,76000,113
2011/04/21,114,114,109,109,118000,109
2011/04/22,109,109,107,109,56000,109
2011/04/25,108,110,108,109,64000,109
2011/04/26,108,108,107,107,31000,107
2011/04/27,107,108,104,106,68000,106
2011/04/28,109,109,106,108,62000,108
2011/05/02,109,110,107,110,38000,110
2011/05/06,109,109,108,108,6000,108
2011/05/09,110,110,107,108,18000,108
2011/05/10,109,109,107,108,27000,108
2011/05/11,108,108,106,106,88000,106
2011/05/12,105,106,105,106,78000,106
2011/05/13,106,106,102,103,116000,103
2011/05/16,103,103,101,102,45000,102
2011/05/17,100,101,100,100,35000,100
2011/05/18,100,101,99,100,49000,100
2011/05/19,101,101,100,101,43000,101
2011/05/20,100,100,99,99,64000,99
2011/05/23,98,99,97,97,37000,97
2011/05/24,96,98,95,97,35000,97
2011/05/25,97,97,93,93,116000,93
2011/05/26,94,101,94,97,124000,97
2011/05/27,95,96,94,95,146000,95
2011/05/30,93,94,91,93,199000,93
2011/05/31,93,94,93,93,128000,93
2011/06/01,93,95,93,93,98000,93
2011/06/02,93,93,93,93,51000,93
2011/06/03,93,94,92,92,35000,92
2011/06/06,92,92,92,92,63000,92
2011/06/07,92,94,92,93,55000,93
2011/06/08,93,94,92,92,106000,92
2011/06/09,92,95,92,94,146000,94
2011/06/10,95,95,93,93,109000,93
2011/06/13,93,99,93,96,96000,96
2011/06/14,96,96,94,96,72000,96
2011/06/15,97,97,96,96,39000,96
2011/06/16,96,97,95,95,25000,95
2011/06/17,97,97,93,94,84000,94
2011/06/20,94,95,93,94,24000,94
2011/06/21,96,96,94,95,53000,95
2011/06/22,96,99,96,99,80000,99
2011/06/23,99,99,98,99,58000,99
2011/06/24,100,100,98,99,31000,99
2011/06/27,99,99,97,98,18000,98
2011/06/28,99,100,98,99,156000,99
2011/06/29,99,100,99,99,55000,99
2011/06/30,100,100,98,98,63000,98
2011/07/01,100,100,97,98,89000,98
2011/07/04,99,104,99,101,235000,101
2011/07/05,102,104,102,102,114000,102
2011/07/06,103,103,102,102,28000,102
2011/07/07,104,104,102,102,72000,102
2011/07/08,103,103,101,101,94000,101
2011/07/11,102,103,101,103,25000,103
2011/07/12,101,102,101,102,34000,102
2011/07/13,101,103,100,103,61000,103
2011/07/14,103,103,101,101,35000,101
2011/07/15,102,103,102,102,46000,102
2011/07/19,102,106,101,104,177000,104
2011/07/20,104,105,104,105,23000,105
2011/07/21,105,110,105,106,287000,106
2011/07/22,107,107,105,106,71000,106
2011/07/25,106,108,106,106,55000,106
2011/07/26,106,106,105,105,20000,105
2011/07/27,105,105,102,102,67000,102
2011/07/28,102,102,101,102,44000,102
2011/07/29,102,102,101,101,28000,101
2011/08/01,101,104,101,102,21000,102
2011/08/02,102,103,102,103,21000,103
2011/08/03,101,101,100,100,41000,100
2011/08/04,100,100,99,100,36000,100
2011/08/05,96,98,95,97,48000,97
2011/08/08,95,96,94,95,54000,95
2011/08/09,91,94,90,94,110000,94
2011/08/10,97,97,94,94,24000,94
2011/08/11,94,95,93,95,43000,95
2011/08/12,96,96,95,96,8000,96
2011/08/15,97,98,96,96,36000,96
2011/08/16,98,98,96,97,20000,97
2011/08/17,96,97,96,96,19000,96
2011/08/18,97,97,96,96,29000,96
2011/08/19,94,96,94,95,42000,95
2011/08/22,93,94,93,94,40000,94
2011/08/23,94,94,93,93,22000,93
2011/08/24,93,95,93,94,65000,94
2011/08/25,95,96,95,95,17000,95
2011/08/26,95,95,93,94,35000,94
2011/08/29,95,95,94,94,26000,94
2011/08/30,96,97,95,96,26000,96
2011/08/31,96,96,94,94,27000,94
2011/09/01,95,96,94,96,29000,96
2011/09/02,94,95,94,94,17000,94
2011/09/05,93,94,93,93,12000,93
2011/09/06,93,93,93,93,31000,93
2011/09/07,92,95,92,95,25000,95
2011/09/08,95,95,93,95,37000,95
2011/09/09,94,95,93,94,66000,94
2011/09/12,94,94,92,93,51000,93
2011/09/13,92,93,91,92,64000,92
2011/09/14,92,92,91,91,28000,91
2011/09/15,91,91,89,90,70000,90
2011/09/16,91,94,91,94,69000,94
2011/09/20,92,93,92,92,12000,92
2011/09/21,93,93,92,92,13000,92
2011/09/22,93,94,92,92,77000,92
2011/09/26,90,91,89,89,49000,89
2011/09/27,92,93,91,93,13000,93
2011/09/28,94,95,93,95,38000,95
2011/09/29,95,95,94,95,27000,95
2011/09/30,95,95,93,94,25000,94
2011/10/03,93,94,93,93,19000,93
2011/10/04,92,92,90,90,44000,90
2011/10/05,90,91,90,90,37000,90
2011/10/06,91,91,90,91,28000,91
2011/10/07,90,91,90,90,62000,90
2011/10/11,92,92,90,91,35000,91
2011/10/12,90,91,90,91,41000,91
2011/10/13,91,91,91,91,57000,91
2011/10/14,91,91,90,90,27000,90
2011/10/17,93,93,91,92,45000,92
2011/10/18,91,92,91,92,19000,92
2011/10/19,93,93,91,91,11000,91
2011/10/20,91,91,90,90,42000,90
2011/10/21,91,92,90,91,15000,91
2011/10/24,92,93,92,93,11000,93
2011/10/25,93,93,90,90,28000,90
2011/10/26,90,92,90,91,56000,91
2011/10/27,91,93,91,93,18000,93
2011/10/28,93,93,92,92,41000,92
2011/10/31,92,93,91,93,28000,93
2011/11/01,91,92,91,91,10000,91
2011/11/02,90,90,89,89,58000,89
2011/11/04,89,91,89,89,33000,89
2011/11/07,89,90,89,90,23000,90
2011/11/08,90,91,89,89,32000,89
2011/11/09,89,90,89,90,13000,90
2011/11/10,88,89,88,89,29000,89
2011/11/11,88,89,88,89,16000,89
2011/11/14,88,90,88,89,20000,89
2011/11/15,89,90,89,90,4000,90
2011/11/16,89,89,88,88,14000,88
2011/11/17,87,88,87,88,31000,88
2011/11/18,87,88,87,88,7000,88
2011/11/21,88,88,86,86,41000,86
2011/11/22,85,85,84,84,82000,84
2011/11/24,84,84,81,82,105000,82
2011/11/25,83,83,82,82,39000,82
2011/11/28,82,84,82,83,26000,83
2011/11/29,85,86,85,86,15000,86
2011/11/30,87,89,87,88,53000,88
2011/12/01,90,90,89,90,94000,90
2011/12/02,90,91,89,90,48000,90
2011/12/05,90,92,90,91,98000,91
2011/12/06,92,93,90,90,97000,90
2011/12/07,90,92,90,92,29000,92
2011/12/08,92,94,91,94,41000,94
2011/12/09,93,93,92,93,61000,93
2011/12/12,94,100,94,99,756000,99
2011/12/13,100,105,97,102,616000,102
2011/12/14,105,105,97,98,343000,98
2011/12/15,101,105,95,97,427000,97
2011/12/16,97,97,96,96,38000,96
2011/12/19,96,96,92,94,86000,94
2011/12/20,94,97,94,97,72000,97
2011/12/21,97,97,93,93,77000,93
2011/12/22,93,93,91,92,79000,92
2011/12/26,92,92,91,91,66000,91
2011/12/27,90,92,90,92,78000,92
2011/12/28,92,93,90,92,52000,92
2011/12/29,92,92,90,92,59000,92
2011/12/30,92,92,90,92,37000,92
2012/01/04,92,93,91,93,34000,93
2012/01/05,93,93,91,92,27000,92
2012/01/06,92,93,91,92,28000,92
2012/01/10,93,93,91,92,31000,92
2012/01/11,93,93,91,91,62000,91
2012/01/12,91,102,90,99,2448000,99
2012/01/13,101,102,97,99,1098000,99
2012/01/16,98,105,97,97,803000,97
2012/01/17,97,97,93,95,468000,95
2012/01/18,97,97,94,96,150000,96
2012/01/19,96,97,94,97,239000,97
2012/01/20,97,98,95,96,185000,96
2012/01/23,97,97,96,97,139000,97
2012/01/24,98,99,96,96,145000,96
2012/01/25,97,98,96,98,239000,98
2012/01/26,99,100,97,99,368000,99
2012/01/27,101,105,98,100,885000,100
2012/01/30,103,103,100,101,500000,101
2012/01/31,101,102,99,101,151000,101
2012/02/01,101,101,99,100,117000,100
2012/02/02,100,100,98,99,194000,99
2012/02/03,100,100,97,97,196000,97
2012/02/06,99,99,97,99,152000,99
2012/02/07,98,99,97,99,61000,99
2012/02/08,98,101,98,100,260000,100
2012/02/09,99,100,97,99,210000,99
2012/02/10,99,99,97,97,254000,97
2012/02/13,97,104,97,99,897000,99
2012/02/14,101,101,99,100,223000,100
2012/02/15,100,100,100,100,90000,100
2012/02/16,100,102,99,100,314000,100
2012/02/17,101,102,101,102,89000,102
2012/02/20,101,102,100,101,139000,101
2012/02/21,102,106,101,106,413000,106
2012/02/22,107,107,104,106,397000,106
2012/02/23,105,106,103,105,270000,105
2012/02/24,106,108,105,107,487000,107
2012/02/27,109,109,105,106,338000,106
2012/02/28,104,107,102,106,339000,106
2012/02/29,105,106,103,103,252000,103
2012/03/01,102,104,100,102,247000,102
2012/03/02,101,103,100,102,109000,102
2012/03/05,102,103,101,101,43000,101
2012/03/06,101,102,100,101,89000,101
2012/03/07,100,102,100,102,66000,102
2012/03/08,103,103,102,103,98000,103
2012/03/09,103,104,102,102,113000,102
2012/03/12,103,105,103,103,198000,103
2012/03/13,104,106,104,104,143000,104
2012/03/14,106,106,103,104,239000,104
2012/03/15,103,103,102,103,129000,103
2012/03/16,102,104,102,104,57000,104
2012/03/19,103,104,103,103,49000,103
2012/03/21,103,104,102,102,94000,102
2012/03/22,102,104,102,103,68000,103
2012/03/23,103,104,102,102,145000,102
2012/03/26,102,103,101,101,51000,101
2012/03/27,102,102,101,101,63000,101
2012/03/28,101,102,99,102,108000,102
2012/03/29,102,102,101,101,74000,101
2012/03/30,102,102,100,100,79000,100
2012/04/02,102,102,100,100,103000,100
2012/04/03,101,101,99,99,123000,99
2012/04/04,99,100,98,98,86000,98
2012/04/05,98,98,97,98,80000,98
2012/04/06,97,97,97,97,64000,97
2012/04/09,96,97,96,97,14000,97
2012/04/10,97,97,96,96,83000,96
2012/04/11,96,96,95,95,83000,95
2012/04/12,96,97,95,97,70000,97
2012/04/13,97,98,97,97,19000,97
2012/04/16,96,97,96,96,38000,96
2012/04/17,96,96,95,95,47000,95
2012/04/18,96,97,96,97,30000,97
2012/04/19,96,97,96,97,20000,97
2012/04/20,98,98,97,98,9000,98
2012/04/23,97,97,96,97,40000,97
2012/04/24,96,97,96,96,32000,96
2012/04/25,97,97,95,95,55000,95
2012/04/26,97,97,95,95,26000,95
2012/04/27,96,96,95,95,33000,95
2012/05/01,95,95,94,95,30000,95
2012/05/02,95,96,94,95,23000,95
2012/05/07,94,94,93,94,56000,94
2012/05/08,95,95,94,95,9000,95
2012/05/09,94,95,93,93,36000,93
2012/05/10,93,93,92,93,60000,93
2012/05/11,93,93,86,87,142000,87
2012/05/14,87,87,86,87,94000,87
2012/05/15,86,86,82,85,175000,85
2012/05/16,85,85,83,85,90000,85
2012/05/17,82,85,82,85,179000,85
2012/05/18,83,83,82,83,45000,83
2012/05/21,83,85,83,84,101000,84
2012/05/22,85,86,85,86,43000,86
2012/05/23,85,86,84,85,63000,85
2012/05/24,85,86,85,85,20000,85
2012/05/25,86,87,85,87,33000,87
2012/05/28,85,88,85,88,22000,88
2012/05/29,87,87,86,86,23000,86
2012/05/30,86,86,85,86,38000,86
2012/05/31,85,85,84,84,10000,84
2012/06/01,84,84,83,83,22000,83
2012/06/04,82,82,81,81,60000,81
2012/06/05,82,84,81,84,92000,84
2012/06/06,83,85,83,85,35000,85
2012/06/07,86,88,85,87,88000,87
2012/06/08,88,88,85,87,52000,87
2012/06/11,88,88,86,87,67000,87
2012/06/12,86,88,86,88,30000,88
2012/06/13,89,89,87,87,17000,87
2012/06/14,86,88,85,88,35000,88
2012/06/15,89,89,86,86,34000,86
2012/06/18,87,88,86,86,16000,86
2012/06/19,86,87,86,86,21000,86
2012/06/20,86,88,86,88,24000,88
2012/06/21,89,89,88,88,23000,88
2012/06/22,88,88,87,87,24000,87
2012/06/25,88,89,88,88,53000,88
2012/06/26,88,88,87,88,33000,88
2012/06/27,88,88,87,88,18000,88
2012/06/28,89,90,88,90,51000,90
2012/06/29,90,91,89,90,87000,90
2012/07/02,92,92,90,91,42000,91
2012/07/03,91,92,90,92,57000,92
2012/07/04,93,94,92,93,122000,93
2012/07/05,92,92,90,90,86000,90
2012/07/06,89,89,89,89,19000,89
2012/07/09,88,90,88,90,37000,90
2012/07/10,91,91,89,89,23000,89
2012/07/11,89,89,88,88,6000,88
2012/07/12,88,88,87,87,24000,87
2012/07/13,87,87,87,87,23000,87
2012/07/17,87,88,86,86,16000,86
2012/07/18,86,86,82,83,105000,83
2012/07/19,84,86,84,85,42000,85
2012/07/20,85,89,85,86,64000,86
2012/07/23,85,86,84,84,33000,84
2012/07/24,84,85,84,85,35000,85
2012/07/25,86,86,84,84,18000,84
2012/07/26,85,86,84,86,14000,86
2012/07/27,87,87,86,86,19000,86
2012/07/30,86,87,86,87,24000,87
2012/07/31,86,88,85,88,32000,88
2012/08/01,87,87,86,87,31000,87
2012/08/02,87,89,87,88,22000,88
2012/08/03,88,88,86,86,10000,86
2012/08/06,86,87,86,87,4000,87
2012/08/07,87,87,86,86,38000,86
2012/08/08,87,87,84,86,70000,86
2012/08/09,86,87,85,87,17000,87
2012/08/10,87,87,86,87,20000,87
2012/08/13,87,87,86,87,18000,87
2012/08/14,87,90,87,89,25000,89
2012/08/15,90,90,88,89,31000,89
2012/08/16,88,90,87,90,64000,90
2012/08/17,91,91,88,88,32000,88
2012/08/20,89,89,88,88,28000,88
2012/08/21,89,89,87,87,8000,87
2012/08/22,88,88,86,86,40000,86
2012/08/23,85,86,85,85,48000,85
2012/08/24,86,87,86,87,27000,87
2012/08/27,87,88,87,87,12000,87
2012/08/28,87,87,85,85,59000,85
2012/08/29,86,86,85,85,16000,85
2012/08/30,84,84,83,83,66000,83
2012/08/31,83,83,81,82,100000,82
2012/09/03,83,84,82,82,52000,82
2012/09/04,82,83,82,82,19000,82
2012/09/05,83,83,81,81,31000,81
2012/09/06,81,82,80,80,64000,80
2012/09/07,81,82,81,81,18000,81
2012/09/10,82,82,81,82,24000,82
2012/09/11,82,83,81,82,26000,82
2012/09/12,82,83,81,83,66000,83
2012/09/13,83,83,81,82,38000,82
2012/09/14,83,83,82,82,113000,82
2012/09/18,83,84,82,83,55000,83
2012/09/19,84,86,84,85,83000,85
2012/09/20,85,85,83,83,36000,83
2012/09/21,83,84,83,83,27000,83
2012/09/24,83,83,82,83,32000,83
2012/09/25,83,84,82,84,49000,84
2012/09/26,84,84,83,84,33000,84
2012/09/27,84,84,82,83,17000,83
2012/09/28,84,84,82,82,29000,82
2012/10/01,82,83,82,82,9000,82
2012/10/02,82,83,82,83,6000,83
2012/10/03,83,83,82,82,14000,82
2012/10/04,82,82,81,81,28000,81
2012/10/05,82,82,81,81,64000,81
2012/10/09,82,83,82,83,12000,83
2012/10/10,83,83,81,81,27000,81
2012/10/11,81,82,81,81,18000,81
2012/10/12,81,81,81,81,7000,81
2012/10/15,80,80,80,80,4000,80
2012/10/16,81,82,80,82,15000,82
2012/10/17,82,84,82,82,36000,82
2012/10/18,83,84,82,84,15000,84
2012/10/19,84,84,83,83,20000,83
2012/10/22,83,84,83,83,9000,83
2012/10/23,83,84,83,83,30000,83
2012/10/24,83,84,83,84,39000,84
2012/10/25,83,84,83,84,17000,84
2012/10/26,84,84,83,84,14000,84
2012/10/29,84,84,83,84,13000,84
2012/10/30,83,85,83,83,66000,83
2012/10/31,84,85,83,85,37000,85
2012/11/01,84,85,83,83,48000,83
2012/11/02,84,84,83,84,46000,84
2012/11/05,84,85,84,84,44000,84
2012/11/06,84,85,84,84,46000,84
2012/11/07,84,85,84,85,11000,85
2012/11/08,84,84,83,83,39000,83
2012/11/09,83,84,83,83,15000,83
2012/11/12,83,84,83,83,27000,83
2012/11/13,84,84,83,83,53000,83
2012/11/14,83,83,81,82,66000,82
2012/11/15,82,83,82,83,20000,83
2012/11/16,83,84,82,84,75000,84
2012/11/19,85,85,84,85,18000,85
2012/11/20,85,86,84,84,61000,84
2012/11/21,84,85,84,84,23000,84
2012/11/22,85,85,84,84,44000,84
2012/11/26,85,86,84,86,69000,86
2012/11/27,86,87,86,87,109000,87
2012/11/28,87,87,84,84,153000,84
2012/11/29,86,86,85,85,41000,85
2012/11/30,86,86,85,85,26000,85
2012/12/03,85,86,85,85,26000,85
2012/12/04,85,86,85,86,66000,86
2012/12/05,86,86,85,86,35000,86
2012/12/06,86,90,86,89,483000,89
2012/12/07,90,92,89,90,301000,90
2012/12/10,90,90,89,90,61000,90
2012/12/11,89,89,87,89,58000,89
2012/12/12,91,91,89,90,55000,90
2012/12/13,90,90,88,88,136000,88
2012/12/14,88,88,86,87,223000,87
2012/12/17,87,87,86,86,59000,86
2012/12/18,86,88,86,87,68000,87
2012/12/19,88,90,88,90,161000,90
2012/12/20,89,89,88,89,91000,89
2012/12/21,89,91,86,87,341000,87
2012/12/25,90,90,88,89,92000,89
2012/12/26,90,91,89,90,172000,90
2012/12/27,90,93,90,92,576000,92
2012/12/28,92,92,89,91,327000,91
2013/01/04,92,94,91,92,328000,92
2013/01/07,92,94,91,93,176000,93
2013/01/08,93,95,93,94,193000,94
2013/01/09,94,99,93,98,688000,98
2013/01/10,98,102,96,100,717000,100
2013/01/11,102,102,96,97,565000,97
2013/01/15,100,100,97,97,264000,97
2013/01/16,98,98,95,96,226000,96
2013/01/17,96,97,93,94,273000,94
2013/01/18,96,97,95,96,350000,96
2013/01/21,97,98,95,98,319000,98
2013/01/22,98,104,97,104,1014000,104
2013/01/23,101,103,100,102,726000,102
2013/01/24,101,101,99,100,234000,100
2013/01/25,103,103,101,103,286000,103
2013/01/28,101,103,98,100,594000,100
2013/01/29,99,102,99,100,151000,100
2013/01/30,100,102,100,102,113000,102
2013/01/31,102,103,101,103,277000,103
2013/02/01,104,105,101,103,840000,103
2013/02/04,103,106,103,105,507000,105
2013/02/05,105,107,103,104,863000,104
2013/02/06,106,107,105,106,279000,106
2013/02/07,107,107,104,105,305000,105
2013/02/08,105,105,99,101,619000,101
2013/02/12,102,104,101,101,234000,101
2013/02/13,101,102,98,99,352000,99
2013/02/14,99,100,99,100,93000,100
2013/02/15,100,100,96,97,269000,97
2013/02/18,97,100,97,100,149000,100
2013/02/19,99,101,99,100,113000,100
2013/02/20,100,101,100,100,42000,100
2013/02/21,100,102,100,102,101000,102
2013/02/22,102,102,100,100,75000,100
2013/02/25,100,101,98,100,289000,100
2013/02/26,99,107,98,106,1101000,106
2013/02/27,109,119,108,110,2501000,110
2013/02/28,112,112,106,108,508000,108
2013/03/01,108,111,108,110,404000,110
2013/03/04,114,115,110,110,387000,110
2013/03/05,111,113,110,111,228000,111
2013/03/06,112,112,110,110,198000,110
2013/03/07,110,111,108,108,299000,108
2013/03/08,108,110,107,109,279000,109
2013/03/11,108,111,108,109,214000,109
2013/03/12,110,110,107,108,261000,108
2013/03/13,107,108,106,107,185000,107
2013/03/14,108,111,108,110,519000,110
2013/03/15,111,114,110,111,625000,111
2013/03/18,111,112,108,110,245000,110
2013/03/19,110,111,108,109,134000,109
2013/03/21,110,113,110,113,418000,113
2013/03/22,113,113,110,110,207000,110
2013/03/25,110,111,109,109,119000,109
2013/03/26,108,110,106,108,319000,108
2013/03/27,107,107,105,107,153000,107
2013/03/28,106,106,102,105,192000,105
2013/03/29,106,106,102,102,119000,102
2013/04/01,101,101,98,98,193000,98
2013/04/02,98,101,97,100,111000,100
2013/04/03,101,101,99,100,89000,100
2013/04/04,99,100,97,100,136000,100
2013/04/05,101,102,99,101,331000,101
2013/04/08,103,103,100,102,289000,102
2013/04/09,103,104,102,103,197000,103
2013/04/10,103,105,103,105,209000,105
2013/04/11,105,105,103,105,222000,105
2013/04/12,105,105,102,102,201000,102
2013/04/15,101,103,101,102,101000,102
2013/04/16,101,102,101,101,84000,101
2013/04/17,102,103,102,102,54000,102
2013/04/18,102,104,101,101,98000,101
2013/04/19,102,104,102,102,72000,102
2013/04/22,103,105,103,105,174000,105
2013/04/23,106,107,105,106,391000,106
2013/04/24,107,108,106,107,174000,107
2013/04/25,108,110,107,110,214000,110
2013/04/26,111,111,107,107,314000,107
2013/04/30,107,107,106,106,61000,106
2013/05/01,107,109,106,107,68000,107
2013/05/02,107,108,106,106,58000,106
2013/05/07,107,108,106,107,211000,107
2013/05/08,108,109,107,108,173000,108
2013/05/09,109,110,108,110,134000,110
2013/05/10,110,111,107,107,263000,107
2013/05/13,107,109,107,108,131000,108
2013/05/14,107,108,106,107,154000,107
2013/05/15,108,108,106,106,127000,106
2013/05/16,106,107,99,102,451000,102
2013/05/17,103,106,102,105,251000,105
2013/05/20,106,107,104,105,193000,105
2013/05/21,106,108,105,107,227000,107
2013/05/22,108,112,108,110,425000,110
2013/05/23,111,112,104,104,652000,104
2013/05/24,104,107,100,103,504000,103
2013/05/27,102,102,99,100,239000,100
2013/05/28,99,102,99,100,220000,100
2013/05/29,103,104,101,103,88000,103
2013/05/30,102,103,99,102,384000,102
2013/05/31,102,103,101,102,179000,102
2013/06/03,100,100,98,99,147000,99
2013/06/04,98,100,97,99,177000,99
2013/06/05,99,102,98,98,116000,98
2013/06/06,98,99,93,94,246000,94
2013/06/07,92,93,87,91,266000,91
2013/06/10,93,95,92,94,135000,94
2013/06/11,95,95,93,93,48000,93
2013/06/12,92,95,92,94,65000,94
2013/06/13,93,93,89,91,237000,91
2013/06/14,92,93,91,91,167000,91
2013/06/17,91,94,91,93,120000,93
2013/06/18,94,94,93,94,70000,94
2013/06/19,95,96,95,95,146000,95
2013/06/20,94,95,93,93,47000,93
2013/06/21,91,95,91,94,87000,94
2013/06/24,96,96,93,93,44000,93
2013/06/25,93,94,92,92,60000,92
2013/06/26,93,94,91,92,101000,92
2013/06/27,92,94,91,94,99000,94
2013/06/28,95,96,93,95,118000,95
2013/07/01,95,96,94,96,34000,96
2013/07/02,96,97,95,96,64000,96
2013/07/03,97,97,96,96,31000,96
2013/07/04,97,102,96,100,339000,100
2013/07/05,100,100,98,100,65000,100
2013/07/08,101,104,100,102,293000,102
2013/07/09,102,104,101,102,104000,102
2013/07/10,102,104,100,100,482000,100
2013/07/11,101,102,100,101,82000,101
2013/07/12,101,101,100,101,47000,101
2013/07/16,101,101,98,99,128000,99
2013/07/17,99,99,98,99,56000,99
2013/07/18,99,99,98,99,71000,99
2013/07/19,99,100,99,99,90000,99
2013/07/22,99,99,99,99,11000,99
2013/07/23,99,101,97,99,535000,99
2013/07/24,99,99,97,98,117000,98
2013/07/25,98,98,97,97,42000,97
2013/07/26,98,98,97,97,61000,97
2013/07/29,96,96,95,95,91000,95
2013/07/30,95,96,95,96,63000,96
2013/07/31,96,97,96,96,33000,96
2013/08/01,96,97,96,97,15000,97
2013/08/02,97,98,97,97,59000,97
2013/08/05,97,97,96,96,43000,96
2013/08/06,97,98,96,97,52000,97
2013/08/07,97,98,96,97,41000,97
2013/08/08,96,96,94,94,181000,94
2013/08/09,94,95,94,95,43000,95
2013/08/12,95,95,93,94,59000,94
2013/08/13,95,96,94,96,53000,96
2013/08/14,96,96,95,95,55000,95
2013/08/15,96,96,94,95,115000,95
2013/08/16,94,95,94,94,29000,94
2013/08/19,95,95,94,94,7000,94
2013/08/20,95,95,93,93,60000,93
2013/08/21,93,94,92,92,66000,92
2013/08/22,92,92,91,92,90000,92
2013/08/23,93,93,92,93,34000,93
2013/08/26,94,94,92,93,95000,93
2013/08/27,92,93,92,92,107000,92
2013/08/28,92,92,91,92,202000,92
2013/08/29,92,93,91,92,83000,92
2013/08/30,92,93,91,91,59000,91
2013/09/02,91,92,90,91,47000,91
2013/09/03,92,93,91,93,65000,93
2013/09/04,92,93,92,92,57000,92
2013/09/05,93,94,92,93,46000,93
2013/09/06,93,93,92,93,41000,93
2013/09/09,94,94,92,93,127000,93
2013/09/10,93,94,93,93,68000,93
2013/09/11,92,95,92,95,336000,95
2013/09/12,96,101,96,101,853000,101
2013/09/13,100,101,99,101,194000,101
2013/09/17,102,104,101,102,402000,102
2013/09/18,102,105,102,102,176000,102
2013/09/19,103,105,103,104,274000,104
2013/09/20,103,106,103,105,141000,105
2013/09/24,105,109,105,108,279000,108
2013/09/25,107,108,104,104,201000,104
2013/09/26,104,106,102,106,100000,106
2013/09/27,106,108,105,106,58000,106
2013/09/30,105,108,104,107,91000,107
2013/10/01,107,110,106,109,370000,109
2013/10/02,109,112,103,106,643000,106
2013/10/03,106,107,105,105,89000,105
2013/10/04,104,111,104,109,758000,109
2013/10/07,107,108,103,103,194000,103
2013/10/08,102,104,100,103,120000,103
2013/10/09,103,105,103,105,40000,105
2013/10/10,105,106,103,104,74000,104
2013/10/11,106,106,104,104,54000,104
2013/10/15,105,106,104,104,65000,104
2013/10/16,108,108,104,105,112000,105
2013/10/17,106,107,105,107,116000,107
2013/10/18,107,107,106,106,33000,106
2013/10/21,106,107,105,106,101000,106
2013/10/22,106,106,105,105,65000,105
2013/10/23,106,106,103,104,174000,104
2013/10/24,103,104,102,104,115000,104
2013/10/25,104,104,102,103,89000,103
2013/10/28,103,104,102,104,81000,104
2013/10/29,104,104,102,104,91000,104
2013/10/30,105,105,103,105,98000,105
2013/10/31,105,105,103,103,87000,103
2013/11/01,103,103,101,101,145000,101
2013/11/05,101,102,101,101,119000,101
2013/11/06,101,104,101,103,95000,103
2013/11/07,103,103,102,103,86000,103
2013/11/08,102,102,101,101,51000,101
2013/11/11,102,102,101,102,59000,102
2013/11/12,101,103,101,103,48000,103
2013/11/13,103,104,103,103,136000,103
2013/11/14,102,103,102,103,116000,103
2013/11/15,103,105,103,103,130000,103
2013/11/18,105,105,104,105,93000,105
2013/11/19,105,105,104,105,167000,105
2013/11/20,105,105,104,105,63000,105
2013/11/21,105,107,105,106,235000,106
2013/11/22,106,106,104,105,132000,105
2013/11/25,105,106,104,106,109000,106
2013/11/26,105,105,103,104,127000,104
2013/11/27,104,104,103,103,178000,103
2013/11/28,103,103,102,102,102000,102
2013/11/29,103,104,102,104,244000,104
2013/12/02,105,107,105,105,224000,105
2013/12/03,106,106,105,105,65000,105
2013/12/04,105,105,104,104,62000,104
2013/12/05,104,106,104,104,64000,104
2013/12/06,104,104,103,103,139000,103
2013/12/09,104,105,103,105,103000,105
2013/12/10,106,106,104,105,129000,105
2013/12/11,105,105,104,104,25000,104
2013/12/12,104,104,103,103,56000,103
2013/12/13,103,103,102,102,301000,102
2013/12/16,103,103,102,102,78000,102
2013/12/17,102,103,101,101,123000,101
2013/12/18,101,103,101,103,114000,103
2013/12/19,103,103,101,102,175000,102
2013/12/20,102,102,101,101,114000,101
2013/12/24,101,102,100,100,148000,100
2013/12/25,100,101,100,101,130000,101
2013/12/26,101,103,101,102,132000,102
2013/12/27,103,104,102,104,84000,104
2013/12/30,104,105,103,104,139000,104
2014/01/06,104,106,103,105,133000,105
2014/01/07,105,106,104,105,116000,105
2014/01/08,106,107,105,107,124000,107
2014/01/09,107,107,105,107,82000,107
2014/01/10,107,109,106,107,452000,107
2014/01/14,107,109,103,103,951000,103
2014/01/15,105,106,104,105,581000,105
2014/01/16,106,108,106,106,425000,106
2014/01/17,107,108,105,106,296000,106
2014/01/20,108,110,106,109,406000,109
2014/01/21,109,114,107,110,1508000,110
2014/01/22,113,134,113,120,11096000,120
2014/01/23,118,118,114,115,1267000,115
2014/01/24,112,114,111,113,502000,113
2014/01/27,109,111,108,109,462000,109
2014/01/28,110,111,108,108,238000,108
2014/01/29,110,111,109,110,180000,110
2014/01/30,110,110,105,107,361000,107
2014/01/31,107,107,104,105,214000,105
2014/02/03,102,104,102,102,324000,102
2014/02/04,98,100,96,96,776000,96
2014/02/05,99,99,97,97,263000,97
2014/02/06,98,100,98,99,164000,99
2014/02/07,100,100,98,99,422000,99
2014/02/10,100,101,99,101,307000,101
2014/02/12,101,102,100,101,403000,101
2014/02/13,101,101,99,99,243000,99
2014/02/14,99,100,97,97,355000,97
2014/02/17,99,99,97,99,105000,99
2014/02/18,99,101,99,100,163000,100
2014/02/19,100,100,99,99,86000,99
2014/02/20,100,100,98,100,105000,100
2014/02/21,101,101,99,100,156000,100
2014/02/24,101,102,100,100,99000,100
2014/02/25,101,102,100,102,103000,102
2014/02/26,102,102,100,102,106000,102
2014/02/27,102,102,100,100,69000,100
2014/02/28,100,100,99,99,101000,99
2014/03/03,100,100,98,98,100000,98
2014/03/04,98,100,98,100,104000,100
2014/03/05,100,101,99,100,127000,100
2014/03/06,101,101,100,100,37000,100
2014/03/07,101,102,100,100,139000,100
2014/03/10,101,101,100,100,20000,100
2014/03/11,101,101,100,100,11000,100
2014/03/12,99,100,98,98,414000,98
2014/03/13,99,100,98,99,125000,99
2014/03/14,98,98,97,97,252000,97
2014/03/17,96,97,95,96,360000,96
2014/03/18,97,98,97,97,49000,97
2014/03/19,97,98,97,97,32000,97
2014/03/20,98,98,96,96,138000,96
2014/03/24,96,98,96,97,134000,97
2014/03/25,98,98,97,98,41000,98
2014/03/26,99,99,98,99,95000,99
2014/03/27,97,100,97,99,130000,99
2014/03/28,99,99,98,99,132000,99
2014/03/31,100,100,98,100,94000,100
2014/04/01,100,101,99,100,114000,100
2014/04/02,101,101,100,100,118000,100
2014/04/03,101,101,100,101,83000,101
2014/04/04,101,101,100,100,92000,100
2014/04/07,100,100,99,100,55000,100
2014/04/08,99,100,99,99,56000,99
2014/04/09,99,99,98,98,41000,98
2014/04/10,100,100,98,98,43000,98
2014/04/11,98,98,97,97,195000,97
2014/04/14,97,98,97,97,8000,97
2014/04/15,98,98,97,97,33000,97
2014/04/16,97,99,97,99,80000,99
2014/04/17,99,100,98,99,96000,99
2014/04/18,99,99,98,98,61000,98
2014/04/21,98,99,98,98,30000,98
2014/04/22,98,98,97,97,32000,97
2014/04/23,98,98,97,97,183000,97
2014/04/24,97,97,96,97,38000,97
2014/04/25,97,98,97,98,38000,98
2014/04/28,97,98,96,97,83000,97
2014/04/30,98,98,97,97,20000,97
2014/05/01,98,98,97,98,39000,98
2014/05/02,98,99,97,99,59000,99
2014/05/07,97,98,97,97,60000,97
2014/05/08,97,98,97,97,55000,97
2014/05/09,99,99,97,98,78000,98
2014/05/12,98,98,97,97,48000,97
2014/05/13,98,98,97,97,26000,97
2014/05/14,98,98,97,97,48000,97
2014/05/15,98,98,96,96,57000,96
2014/05/16,97,97,96,96,29000,96
2014/05/19,96,97,95,95,56000,95
2014/05/20,95,96,95,95,47000,95
2014/05/21,95,95,93,93,140000,93
2014/05/22,95,96,94,96,62000,96
2014/05/23,96,96,95,96,57000,96
2014/05/26,96,96,95,95,60000,95
2014/05/27,96,96,95,96,28000,96
2014/05/28,96,96,95,96,49000,96
2014/05/29,95,96,95,96,13000,96
2014/05/30,95,97,95,96,47000,96
2014/06/02,97,97,96,97,21000,97
2014/06/03,97,98,96,97,45000,97
2014/06/04,97,98,97,97,33000,97
2014/06/05,97,98,97,97,18000,97
2014/06/06,98,98,98,98,54000,98
2014/06/09,98,99,97,97,103000,97
2014/06/10,99,100,98,98,109000,98
2014/06/11,98,100,98,98,49000,98
2014/06/12,98,99,98,98,20000,98
2014/06/13,99,100,98,100,104000,100
2014/06/16,100,100,98,98,33000,98
2014/06/17,99,100,99,99,29000,99
2014/06/18,100,100,99,99,19000,99
2014/06/19,99,101,99,101,137000,101
2014/06/20,100,101,99,99,55000,99
2014/06/23,100,101,99,101,121000,101
2014/06/24,100,102,100,102,163000,102
2014/06/25,101,102,100,101,61000,101
2014/06/26,101,101,99,100,107000,100
2014/06/27,100,100,99,99,67000,99
2014/06/30,99,102,99,100,139000,100
2014/07/01,101,102,100,100,122000,100
2014/07/02,101,101,100,100,160000,100
2014/07/03,101,102,101,101,143000,101
2014/07/04,101,102,101,101,63000,101
2014/07/07,102,104,102,102,297000,102
2014/07/08,103,103,102,102,84000,102
2014/07/09,102,102,101,101,87000,101
2014/07/10,102,102,100,101,120000,101
2014/07/11,100,100,99,99,83000,99
2014/07/14,100,101,99,101,49000,101
2014/07/15,102,103,101,101,71000,101
2014/07/16,101,101,100,100,121000,100
2014/07/17,100,100,99,99,77000,99
2014/07/18,99,99,97,98,173000,98
2014/07/22,98,100,98,100,248000,100
2014/07/23,99,100,98,100,184000,100
2014/07/24,99,102,99,99,375000,99
2014/07/25,99,100,99,100,101000,100
2014/07/28,100,100,99,100,129000,100
2014/07/29,100,101,100,100,85000,100
2014/07/30,100,101,100,100,99000,100
2014/07/31,101,101,100,100,68000,100
2014/08/01,100,100,99,99,42000,99
2014/08/04,99,99,99,99,95000,99
2014/08/05,100,100,98,98,68000,98
2014/08/06,98,98,98,98,49000,98
2014/08/07,98,99,98,98,30000,98
2014/08/08,99,99,97,99,166000,99
2014/08/11,99,100,99,99,50000,99
2014/08/12,98,99,98,98,24000,98
2014/08/13,99,99,98,98,62000,98
2014/08/14,99,100,99,100,46000,100
2014/08/15,100,100,98,99,52000,99
2014/08/18,99,99,99,99,9000,99
2014/08/19,100,100,99,99,61000,99
2014/08/20,99,100,99,99,37000,99
2014/08/21,99,100,99,100,21000,100
2014/08/22,99,100,99,99,63000,99
2014/08/25,100,100,99,100,17000,100
2014/08/26,100,100,99,99,102000,99
2014/08/27,100,100,99,100,33000,100
2014/08/28,100,101,99,101,123000,101
2014/08/29,101,101,100,101,30000,101
2014/09/01,100,101,100,100,74000,100
2014/09/02,101,102,100,101,135000,101
2014/09/03,102,102,100,101,42000,101
2014/09/04,101,101,100,100,53000,100
2014/09/05,101,101,99,99,160000,99
2014/09/08,100,100,99,100,75000,100
2014/09/09,100,101,99,101,150000,101
2014/09/10,101,124,100,111,7216000,111
2014/09/11,109,109,105,105,1140000,105
2014/09/12,105,106,104,104,355000,104
2014/09/16,105,105,104,104,155000,104
2014/09/17,104,104,101,102,400000,102
2014/09/18,103,103,101,101,321000,101
2014/09/19,102,103,102,103,122000,103
2014/09/22,102,103,102,103,55000,103
2014/09/24,102,103,101,102,159000,102
2014/09/25,104,104,102,102,289000,102
2014/09/26,102,105,102,104,168000,104
2014/09/29,104,105,103,104,66000,104
2014/09/30,104,104,102,103,111000,103
2014/10/01,103,105,102,103,128000,103
2014/10/02,103,103,101,101,182000,101
2014/10/03,101,102,101,101,150000,101
2014/10/06,102,102,100,101,281000,101
2014/10/07,101,102,100,101,80000,101
2014/10/08,101,101,100,100,142000,100
2014/10/09,100,100,98,99,298000,99
2014/10/10,98,98,97,98,189000,98
2014/10/14,97,98,96,97,159000,97
2014/10/15,97,98,97,98,50000,98
2014/10/16,97,99,97,97,108000,97
2014/10/17,97,97,96,96,75000,96
2014/10/20,97,99,97,99,75000,99
2014/10/21,98,99,97,98,77000,98
2014/10/22,98,99,97,99,135000,99
2014/10/23,99,99,98,98,56000,98
2014/10/24,98,99,97,97,43000,97
2014/10/27,99,99,97,98,33000,98
2014/10/28,98,99,97,97,20000,97
2014/10/29,98,99,97,98,161000,98
2014/10/30,98,100,98,98,184000,98
2014/10/31,99,100,99,100,70000,100
2014/11/04,102,103,100,101,308000,101
2014/11/05,101,102,100,102,84000,102
2014/11/06,102,103,101,101,92000,101
2014/11/07,101,102,101,101,33000,101
2014/11/10,101,102,101,101,28000,101
2014/11/11,101,102,100,100,54000,100
2014/11/12,100,102,100,101,39000,101
2014/11/13,102,102,101,102,57000,102
2014/11/14,102,103,101,101,84000,101
2014/11/17,103,103,101,101,88000,101
2014/11/18,101,102,101,102,42000,102
2014/11/19,102,105,102,103,393000,103
2014/11/20,104,104,102,103,78000,103
2014/11/21,104,105,104,104,229000,104
2014/11/25,105,105,102,103,150000,103
2014/11/26,103,104,103,103,114000,103
2014/11/27,103,105,103,104,109000,104
2014/11/28,104,104,102,103,183000,103
2014/12/01,103,104,102,103,115000,103
2014/12/02,103,104,102,104,53000,104
2014/12/03,104,104,103,103,70000,103
2014/12/04,103,103,102,103,78000,103
2014/12/05,102,103,102,103,76000,103
2014/12/08,103,103,102,103,83000,103
2014/12/09,102,103,102,102,45000,102
2014/12/10,102,102,100,101,277000,101
2014/12/11,101,101,99,100,333000,100
2014/12/12,100,101,100,100,92000,100
2014/12/15,100,100,99,99,100000,99
2014/12/16,99,100,99,99,82000,99
2014/12/17,98,100,98,98,148000,98
2014/12/18,99,100,99,99,85000,99
2014/12/19,99,100,99,100,108000,100
2014/12/22,100,100,99,99,73000,99
2014/12/24,100,100,99,100,111000,100
2014/12/25,100,100,98,99,195000,99
2014/12/26,99,100,99,99,127000,99
2014/12/29,100,101,100,100,126000,100
2014/12/30,100,100,99,100,105000,100
2015/01/05,99,101,99,101,48000,101
2015/01/06,100,100,99,99,123000,99
2015/01/07,99,99,98,99,444000,99
2015/01/08,99,100,99,99,58000,99
2015/01/09,99,99,99,99,50000,99
2015/01/13,99,100,98,99,79000,99
2015/01/14,99,99,98,99,64000,99
2015/01/15,99,99,98,99,31000,99
2015/01/16,99,99,98,99,72000,99
2015/01/19,99,101,99,100,181000,100
2015/01/20,100,101,100,101,142000,101
2015/01/21,100,101,99,100,98000,100
2015/01/22,100,100,99,99,46000,99
2015/01/23,100,100,99,99,113000,99
2015/01/26,100,101,99,100,145000,100
2015/01/27,100,100,99,100,149000,100
2015/01/28,100,101,99,101,46000,101
2015/01/29,100,101,100,100,60000,100
2015/01/30,100,101,99,101,57000,101
2015/02/02,100,100,99,99,65000,99
2015/02/03,99,100,98,99,257000,99
2015/02/04,99,100,98,100,127000,100
2015/02/05,99,100,99,100,42000,100
2015/02/06,100,100,99,99,85000,99
2015/02/09,100,101,100,100,114000,100
2015/02/10,101,102,100,102,166000,102
2015/02/12,102,102,101,101,107000,101
2015/02/13,102,102,101,101,65000,101
2015/02/16,101,103,101,103,257000,103
2015/02/17,103,103,102,102,135000,102
2015/02/18,102,103,102,102,184000,102
2015/02/19,102,103,102,103,148000,103
2015/02/20,103,106,103,104,424000,104
2015/02/23,105,106,103,104,271000,104
2015/02/24,105,106,104,106,244000,106
2015/02/25,106,108,105,105,354000,105
2015/02/26,106,107,105,106,191000,106
2015/02/27,106,106,104,105,252000,105
2015/03/02,104,105,104,105,125000,105
2015/03/03,105,105,103,103,139000,103
2015/03/04,104,105,103,105,136000,105
2015/03/05,104,104,103,104,109000,104
2015/03/06,105,105,104,104,82000,104
2015/03/09,105,105,103,104,161000,104
2015/03/10,104,104,103,103,145000,103
2015/03/11,103,104,103,103,114000,103
2015/03/12,104,105,103,105,229000,105
2015/03/13,105,106,104,105,122000,105
2015/03/16,105,106,103,103,307000,103
2015/03/17,103,104,103,103,65000,103
2015/03/18,104,104,103,103,65000,103
2015/03/19,103,103,102,102,183000,102
2015/03/20,103,103,102,103,63000,103
2015/03/23,103,104,102,103,188000,103
2015/03/24,103,104,103,103,137000,103
2015/03/25,103,104,103,104,57000,104
2015/03/26,104,104,102,103,131000,103
2015/03/27,102,102,100,100,216000,100
2015/03/30,101,101,100,100,48000,100
2015/03/31,101,101,100,100,138000,100
2015/04/01,101,101,100,101,113000,101
2015/04/02,100,101,100,101,108000,101
2015/04/03,101,102,100,101,125000,101
2015/04/06,101,104,101,101,164000,101
2015/04/07,103,103,102,103,97000,103
2015/04/08,104,105,104,105,480000,105
2015/04/09,106,108,103,107,747000,107
2015/04/10,109,109,106,108,587000,108
2015/04/13,106,106,105,106,141000,106
2015/04/14,106,106,104,105,150000,105
2015/04/15,105,106,104,106,117000,106
2015/04/16,106,106,105,105,44000,105
2015/04/17,106,106,105,105,71000,105
2015/04/20,105,105,104,105,38000,105
2015/04/21,105,105,104,105,101000,105
2015/04/22,104,105,104,104,78000,104
2015/04/23,105,105,103,103,134000,103
2015/04/24,103,104,103,103,38000,103
2015/04/27,104,104,103,104,41000,104
2015/04/28,104,104,103,103,48000,103
2015/04/30,103,104,101,102,281000,102
2015/05/01,102,102,101,102,79000,102
2015/05/07,102,102,101,101,42000,101
2015/05/08,102,103,102,103,63000,103
2015/05/11,103,103,102,102,62000,102
2015/05/12,102,103,102,103,86000,103
2015/05/13,103,103,100,101,468000,101
2015/05/14,102,102,100,100,103000,100
2015/05/15,101,101,100,100,230000,100
2015/05/18,101,101,100,101,39000,101
2015/05/19,100,102,100,102,118000,102
2015/05/20,102,104,102,104,278000,104
2015/05/21,104,104,103,103,253000,103
2015/05/22,103,105,103,104,211000,104
2015/05/25,105,106,104,105,152000,105
2015/05/26,104,105,104,105,27000,105
2015/05/27,105,105,104,104,179000,104
2015/05/28,105,107,104,105,320000,105
2015/05/29,105,105,104,105,88000,105
2015/06/01,105,106,105,105,148000,105
2015/06/02,106,107,105,107,195000,107
2015/06/03,106,106,105,105,117000,105
2015/06/04,106,106,105,106,87000,106
2015/06/05,106,106,105,106,84000,106
2015/06/08,106,107,105,105,129000,105
2015/06/09,105,106,104,104,195000,104
2015/06/10,104,105,104,104,46000,104
2015/06/11,105,107,105,107,269000,107
2015/06/12,107,107,106,106,113000,106
2015/06/15,107,107,105,106,191000,106
2015/06/16,106,106,105,105,26000,105
2015/06/17,105,105,103,103,174000,103
2015/06/18,104,104,103,103,43000,103
2015/06/19,103,104,103,103,19000,103
2015/06/22,103,104,103,104,136000,104
2015/06/23,104,106,104,105,103000,105
2015/06/24,105,109,105,107,471000,107
2015/06/25,106,109,106,109,550000,109
2015/06/26,109,112,107,108,1592000,108
2015/06/29,104,105,103,103,580000,103
2015/06/30,103,106,103,105,454000,105
2015/07/01,107,121,106,119,9313000,119
