2011/01/04,195,196,194,195,121000,195
2011/01/05,197,197,195,197,59000,197
2011/01/06,197,197,195,196,137000,196
2011/01/07,196,197,195,195,269000,195
2011/01/11,197,198,195,198,225000,198
2011/01/12,199,208,198,203,1871000,203
2011/01/13,205,206,201,201,339000,201
2011/01/14,202,202,200,201,295000,201
2011/01/17,206,213,206,207,1072000,207
2011/01/18,208,216,208,214,1011000,214
2011/01/19,216,216,210,211,412000,211
2011/01/20,210,211,209,209,229000,209
2011/01/21,209,209,205,205,251000,205
2011/01/24,205,206,203,205,136000,205
2011/01/25,207,209,206,208,138000,208
2011/01/26,205,206,204,206,241000,206
2011/01/27,207,212,206,208,445000,208
2011/01/28,210,210,206,208,208000,208
2011/01/31,205,207,204,207,140000,207
2011/02/01,209,209,205,207,318000,207
2011/02/02,208,210,207,209,174000,209
2011/02/03,209,210,208,209,68000,209
2011/02/04,211,214,211,213,278000,213
2011/02/07,214,214,211,212,203000,212
2011/02/08,210,212,209,211,340000,211
2011/02/09,211,212,210,212,109000,212
2011/02/10,210,213,210,212,140000,212
2011/02/14,214,215,212,212,240000,212
2011/02/15,211,214,211,212,230000,212
2011/02/16,213,219,213,216,579000,216
2011/02/17,218,218,214,217,227000,217
2011/02/18,217,217,215,215,99000,215
2011/02/21,214,216,214,215,68000,215
2011/02/22,213,213,209,211,323000,211
2011/02/23,209,213,209,209,173000,209
2011/02/24,210,211,208,208,147000,208
2011/02/25,208,210,207,209,146000,209
2011/02/28,209,210,206,208,204000,208
2011/03/01,210,212,209,210,168000,210
2011/03/02,209,210,207,207,146000,207
2011/03/03,210,210,208,208,103000,208
2011/03/04,210,212,210,210,59000,210
2011/03/07,210,210,208,208,57000,208
2011/03/08,208,210,208,208,60000,208
2011/03/09,209,211,209,210,56000,210
2011/03/10,209,211,206,206,163000,206
2011/03/11,201,205,201,202,524000,202
2011/03/14,179,192,179,187,245000,187
2011/03/15,182,182,160,161,462000,161
2011/03/16,165,173,165,171,397000,171
2011/03/17,161,172,161,172,484000,172
2011/03/18,173,183,173,179,514000,179
2011/03/22,185,190,184,188,267000,188
2011/03/23,188,190,185,190,282000,190
2011/03/24,188,190,184,185,238000,185
2011/03/25,190,191,187,188,343000,188
2011/03/28,191,191,185,189,404000,189
2011/03/29,186,186,182,186,196000,186
2011/03/30,185,188,184,188,137000,188
2011/03/31,187,187,183,186,152000,186
2011/04/01,188,189,184,184,113000,184
2011/04/04,184,185,183,184,109000,184
2011/04/05,185,185,180,180,194000,180
2011/04/06,179,180,177,178,160000,178
2011/04/07,178,186,177,183,328000,183
2011/04/08,182,189,182,187,363000,187
2011/04/11,187,192,186,190,277000,190
2011/04/12,187,187,184,185,213000,185
2011/04/13,185,187,185,185,81000,185
2011/04/14,185,191,185,188,173000,188
2011/04/15,188,190,187,187,87000,187
2011/04/18,189,195,187,189,322000,189
2011/04/19,188,188,186,187,47000,187
2011/04/20,188,190,186,186,107000,186
2011/04/21,187,187,183,185,140000,185
2011/04/22,185,186,183,184,85000,184
2011/04/25,186,186,183,184,60000,184
2011/04/26,182,183,181,182,176000,182
2011/04/27,182,183,180,182,92000,182
2011/04/28,183,183,180,181,173000,181
2011/05/02,183,183,182,183,72000,183
2011/05/06,182,183,181,183,36000,183
2011/05/09,183,183,181,181,67000,181
2011/05/10,181,183,181,183,66000,183
2011/05/11,182,183,182,183,110000,183
2011/05/12,182,182,180,180,52000,180
2011/05/13,180,180,177,177,157000,177
2011/05/16,177,178,175,175,81000,175
2011/05/17,175,178,175,175,70000,175
2011/05/18,175,177,175,177,40000,177
2011/05/19,178,178,175,175,35000,175
2011/05/20,175,177,174,174,71000,174
2011/05/23,174,177,174,174,73000,174
2011/05/24,175,177,174,175,39000,175
2011/05/25,178,178,174,174,93000,174
2011/05/26,176,178,175,177,52000,177
2011/05/27,177,177,175,176,51000,176
2011/05/30,175,176,175,175,40000,175
2011/05/31,177,178,177,177,80000,177
2011/06/01,178,178,175,176,75000,176
2011/06/02,175,176,173,173,75000,173
2011/06/03,173,174,171,171,126000,171
2011/06/06,171,171,170,171,76000,171
2011/06/07,171,171,170,170,32000,170
2011/06/08,170,170,168,169,106000,169
2011/06/09,167,170,167,169,90000,169
2011/06/10,167,172,167,169,286000,169
2011/06/13,167,168,167,168,79000,168
2011/06/14,167,170,167,170,100000,170
2011/06/15,169,170,169,170,53000,170
2011/06/16,169,170,168,168,34000,168
2011/06/17,168,169,165,165,147000,165
2011/06/20,166,168,166,166,67000,166
2011/06/21,166,168,166,168,125000,168
2011/06/22,168,172,168,172,117000,172
2011/06/23,170,172,170,172,56000,172
2011/06/24,173,174,172,174,94000,174
2011/06/27,174,174,171,172,77000,172
2011/06/28,172,174,171,172,62000,172
2011/06/29,174,177,174,177,189000,177
2011/06/30,177,180,175,180,345000,180
2011/07/01,179,179,176,177,325000,177
2011/07/04,179,183,179,181,227000,181
2011/07/05,179,182,179,181,81000,181
2011/07/06,180,181,179,180,79000,180
2011/07/07,181,183,181,183,77000,183
2011/07/08,182,183,182,182,69000,182
2011/07/11,182,183,179,179,87000,179
2011/07/12,178,180,178,178,89000,178
2011/07/13,178,181,178,180,59000,180
2011/07/14,178,181,178,181,55000,181
2011/07/15,179,180,179,180,81000,180
2011/07/19,180,180,177,179,82000,179
2011/07/20,180,180,179,180,34000,180
2011/07/21,180,180,179,179,39000,179
2011/07/22,179,182,179,182,81000,182
2011/07/25,182,182,179,179,53000,179
2011/07/26,180,181,179,179,61000,179
2011/07/27,179,180,177,177,74000,177
2011/07/28,177,177,176,177,53000,177
2011/07/29,177,178,175,177,92000,177
2011/08/01,179,179,176,178,78000,178
2011/08/02,178,178,173,175,131000,175
2011/08/03,173,173,171,171,85000,171
2011/08/04,171,173,171,171,109000,171
2011/08/05,170,170,167,168,110000,168
2011/08/08,167,168,166,166,106000,166
2011/08/09,164,164,160,163,154000,163
2011/08/10,168,168,164,167,119000,167
2011/08/11,165,168,165,168,90000,168
2011/08/12,169,169,164,166,180000,166
2011/08/15,169,170,167,167,84000,167
2011/08/16,168,168,167,168,44000,168
2011/08/17,168,168,167,167,28000,167
2011/08/18,167,168,166,167,45000,167
2011/08/19,165,168,165,167,74000,167
2011/08/22,167,169,166,166,81000,166
2011/08/23,167,169,167,168,102000,168
2011/08/24,169,170,168,169,52000,169
2011/08/25,172,172,168,169,187000,169
2011/08/26,169,169,166,168,71000,168
2011/08/29,167,168,165,167,118000,167
2011/08/30,170,170,168,169,92000,169
2011/08/31,169,171,168,170,88000,170
2011/09/01,172,172,170,171,75000,171
2011/09/02,171,171,169,169,48000,169
2011/09/05,167,168,167,167,38000,167
2011/09/06,167,168,166,167,80000,167
2011/09/07,168,169,166,168,80000,168
2011/09/08,170,170,169,170,43000,170
2011/09/09,168,172,168,169,193000,169
2011/09/12,167,168,166,167,42000,167
2011/09/13,168,168,167,168,69000,168
2011/09/14,168,170,165,167,107000,167
2011/09/15,167,168,166,168,40000,168
2011/09/16,168,173,168,173,129000,173
2011/09/20,170,172,170,170,59000,170
2011/09/21,170,170,167,167,62000,167
2011/09/22,165,166,161,163,200000,163
2011/09/26,164,164,160,161,72000,161
2011/09/27,162,163,161,163,89000,163
2011/09/28,165,169,165,168,120000,168
2011/09/29,168,170,168,170,113000,170
2011/09/30,171,172,169,172,90000,172
2011/10/03,171,171,169,169,166000,169
2011/10/04,167,167,166,166,44000,166
2011/10/05,166,166,163,163,75000,163
2011/10/06,163,164,163,164,55000,164
2011/10/07,165,165,164,164,41000,164
2011/10/11,164,166,164,166,78000,166
2011/10/12,166,167,166,167,75000,167
2011/10/13,168,168,166,167,23000,167
2011/10/14,165,165,163,163,81000,163
2011/10/17,163,164,163,164,88000,164
2011/10/18,164,164,163,163,11000,163
2011/10/19,164,164,163,163,52000,163
2011/10/20,164,164,162,162,37000,162
2011/10/21,162,163,160,160,119000,160
2011/10/24,161,161,160,161,157000,161
2011/10/25,161,161,158,158,218000,158
2011/10/26,159,161,158,161,96000,161
2011/10/27,161,161,158,159,239000,159
2011/10/28,160,162,160,162,282000,162
2011/10/31,162,165,162,163,166000,163
2011/11/01,161,163,161,162,61000,162
2011/11/02,161,161,159,160,137000,160
2011/11/04,159,160,159,160,59000,160
2011/11/07,159,159,158,159,89000,159
2011/11/08,159,159,156,158,115000,158
2011/11/09,158,158,154,157,171000,157
2011/11/10,154,154,152,154,102000,154
2011/11/11,153,153,146,149,316000,149
2011/11/14,152,152,147,150,180000,150
2011/11/15,150,150,149,149,68000,149
2011/11/16,150,150,146,148,203000,148
2011/11/17,147,150,144,147,200000,147
2011/11/18,145,146,141,142,326000,142
2011/11/21,143,145,143,145,142000,145
2011/11/22,142,145,141,145,148000,145
2011/11/24,144,145,142,144,144000,144
2011/11/25,145,145,144,144,83000,144
2011/11/28,144,147,144,145,96000,145
2011/11/29,146,148,145,148,85000,148
2011/11/30,148,150,148,149,137000,149
2011/12/01,151,152,150,151,92000,151
2011/12/02,150,152,150,151,47000,151
2011/12/05,151,154,151,154,80000,154
2011/12/06,153,154,149,149,86000,149
2011/12/07,149,154,149,153,97000,153
2011/12/08,154,155,152,155,75000,155
2011/12/09,152,154,152,153,171000,153
2011/12/12,154,155,153,154,85000,154
2011/12/13,154,154,153,154,43000,154
2011/12/14,153,154,152,152,87000,152
2011/12/15,156,156,151,152,161000,152
2011/12/16,151,152,149,149,88000,149
2011/12/19,148,149,148,148,62000,148
2011/12/20,149,151,148,150,99000,150
2011/12/21,151,153,150,152,202000,152
2011/12/22,153,153,151,153,80000,153
2011/12/26,154,154,151,152,161000,152
2011/12/27,150,152,150,152,48000,152
2011/12/28,151,151,150,150,36000,150
2011/12/29,150,151,150,151,32000,151
2011/12/30,152,153,151,153,57000,153
2012/01/04,157,160,157,160,196000,160
2012/01/05,160,170,159,166,305000,166
2012/01/06,164,165,163,163,98000,163
2012/01/10,161,169,161,164,156000,164
2012/01/11,165,167,164,166,66000,166
2012/01/12,167,167,164,165,83000,165
2012/01/13,167,167,165,167,80000,167
2012/01/16,169,193,169,173,1172000,173
2012/01/17,171,171,167,167,211000,167
2012/01/18,167,169,163,166,86000,166
2012/01/19,168,169,167,168,62000,168
2012/01/20,169,172,168,172,101000,172
2012/01/23,169,171,169,170,75000,170
2012/01/24,170,170,168,169,53000,169
2012/01/25,170,171,168,171,85000,171
2012/01/26,169,170,167,167,87000,167
2012/01/27,167,170,167,167,184000,167
2012/01/30,169,172,169,170,141000,170
2012/01/31,171,173,171,172,147000,172
2012/02/01,172,173,171,173,141000,173
2012/02/02,172,173,170,171,82000,171
2012/02/03,172,172,168,170,101000,170
2012/02/06,171,173,170,172,78000,172
2012/02/07,172,173,170,171,49000,171
2012/02/08,172,173,171,173,89000,173
2012/02/09,172,176,171,175,234000,175
2012/02/10,176,176,174,175,55000,175
2012/02/13,173,176,172,175,160000,175
2012/02/14,176,177,170,173,198000,173
2012/02/15,176,178,173,176,153000,176
2012/02/16,178,181,178,179,328000,179
2012/02/17,181,182,179,181,251000,181
2012/02/20,182,183,181,182,91000,182
2012/02/21,185,186,183,185,304000,185
2012/02/22,185,186,184,186,117000,186
2012/02/23,185,192,185,190,287000,190
2012/02/24,193,196,192,195,307000,195
2012/02/27,195,196,193,194,139000,194
2012/02/28,192,194,192,193,199000,193
2012/02/29,194,197,193,195,205000,195
2012/03/01,196,196,191,192,164000,192
2012/03/02,191,196,191,193,182000,193
2012/03/05,192,194,191,191,117000,191
2012/03/06,191,192,190,191,61000,191
2012/03/07,189,192,188,190,88000,190
2012/03/08,188,192,188,191,87000,191
2012/03/09,191,193,190,192,250000,192
2012/03/12,190,192,190,190,100000,190
2012/03/13,190,191,189,189,126000,189
2012/03/14,190,191,188,188,170000,188
2012/03/15,188,191,188,189,114000,189
2012/03/16,188,189,188,188,132000,188
2012/03/19,188,189,188,188,85000,188
2012/03/21,187,191,186,186,182000,186
2012/03/22,188,191,187,191,201000,191
2012/03/23,190,192,189,192,116000,192
2012/03/26,192,192,189,189,163000,189
2012/03/27,191,193,190,193,218000,193
2012/03/28,185,187,184,185,163000,185
2012/03/29,185,186,182,183,133000,183
2012/03/30,184,186,183,184,81000,184
2012/04/02,185,186,178,179,242000,179
2012/04/03,178,179,176,176,78000,176
2012/04/04,174,177,173,173,108000,173
2012/04/05,171,173,170,171,150000,171
2012/04/06,172,172,170,172,64000,172
2012/04/09,172,172,169,170,72000,170
2012/04/10,169,170,168,168,75000,168
2012/04/11,168,168,166,166,132000,166
2012/04/12,168,169,166,168,76000,168
2012/04/13,169,170,168,168,44000,168
2012/04/16,168,171,168,170,67000,170
2012/04/17,170,174,169,172,91000,172
2012/04/18,173,176,172,174,141000,174
2012/04/19,174,175,172,172,81000,172
2012/04/20,171,174,171,172,69000,172
2012/04/23,172,173,172,173,51000,173
2012/04/24,172,172,168,169,169000,169
2012/04/25,170,172,169,171,70000,171
2012/04/26,172,172,170,172,24000,172
2012/04/27,172,173,170,170,73000,170
2012/05/01,171,171,166,166,163000,166
2012/05/02,166,169,166,168,70000,168
2012/05/07,165,168,165,166,73000,166
2012/05/08,166,170,166,170,79000,170
2012/05/09,169,169,164,164,101000,164
2012/05/10,164,165,163,164,61000,164
2012/05/11,163,164,160,160,62000,160
2012/05/14,161,163,161,163,66000,163
2012/05/15,160,163,157,160,110000,160
2012/05/16,159,159,153,153,77000,153
2012/05/17,153,154,152,152,110000,152
2012/05/18,152,153,149,152,110000,152
2012/05/21,150,155,150,155,78000,155
2012/05/22,154,155,150,153,85000,153
2012/05/23,155,155,152,152,88000,152
2012/05/24,152,153,150,153,67000,153
2012/05/25,154,154,152,153,37000,153
2012/05/28,152,154,150,151,58000,151
2012/05/29,151,153,150,152,18000,152
2012/05/30,151,153,150,152,63000,152
2012/05/31,150,153,150,153,95000,153
2012/06/01,154,154,151,152,70000,152
2012/06/04,151,152,149,150,104000,150
2012/06/05,151,151,150,151,35000,151
2012/06/06,151,156,151,156,77000,156
2012/06/07,156,161,155,161,79000,161
2012/06/08,159,160,157,159,168000,159
2012/06/11,159,160,156,156,55000,156
2012/06/12,156,158,152,158,103000,158
2012/06/13,157,158,154,156,57000,156
2012/06/14,156,158,155,158,30000,158
2012/06/15,158,159,156,158,101000,158
2012/06/18,160,160,156,157,78000,157
2012/06/19,157,159,157,158,54000,158
2012/06/20,159,161,159,160,48000,160
2012/06/21,160,162,160,162,26000,162
2012/06/22,157,162,157,161,66000,161
2012/06/25,163,166,160,160,176000,160
2012/06/26,159,163,158,160,100000,160
2012/06/27,162,165,161,165,61000,165
2012/06/28,164,170,164,169,215000,169
2012/06/29,169,175,168,174,190000,174
2012/07/02,178,179,172,172,396000,172
2012/07/03,174,174,171,172,114000,172
2012/07/04,172,174,172,174,57000,174
2012/07/05,174,174,171,171,57000,171
2012/07/06,170,173,169,169,102000,169
2012/07/09,168,170,168,168,73000,168
2012/07/10,168,169,168,168,68000,168
2012/07/11,168,168,166,168,93000,168
2012/07/12,168,168,165,166,79000,166
2012/07/13,165,165,163,164,63000,164
2012/07/17,165,165,162,162,39000,162
2012/07/18,163,164,160,160,49000,160
2012/07/19,161,163,161,161,44000,161
2012/07/20,162,162,158,158,58000,158
2012/07/23,157,159,154,154,74000,154
2012/07/24,154,156,154,155,63000,155
2012/07/25,158,158,155,155,62000,155
2012/07/26,158,160,157,160,53000,160
2012/07/27,161,162,159,160,53000,160
2012/07/30,159,160,158,160,39000,160
2012/07/31,160,165,160,165,71000,165
2012/08/01,165,165,163,163,65000,163
2012/08/02,163,164,163,163,29000,163
2012/08/03,163,163,158,158,64000,158
2012/08/06,159,159,156,157,54000,157
2012/08/07,155,156,152,154,144000,154
2012/08/08,155,157,155,157,53000,157
2012/08/09,156,158,156,158,58000,158
2012/08/10,158,159,148,157,174000,157
2012/08/13,154,156,154,156,95000,156
2012/08/14,156,157,154,154,138000,154
2012/08/15,155,162,155,161,150000,161
2012/08/16,161,166,161,166,240000,166
2012/08/17,166,166,161,166,105000,166
2012/08/20,164,166,160,161,140000,161
2012/08/21,161,167,161,167,111000,167
2012/08/22,165,166,162,164,129000,164
2012/08/23,165,167,163,167,80000,167
2012/08/24,168,168,163,164,88000,164
2012/08/27,165,165,161,161,65000,161
2012/08/28,161,162,154,155,202000,155
2012/08/29,156,157,155,156,62000,156
2012/08/30,157,157,154,155,111000,155
2012/08/31,155,157,153,153,118000,153
2012/09/03,155,155,152,153,92000,153
2012/09/04,152,152,150,150,74000,150
2012/09/05,149,152,148,151,186000,151
2012/09/06,151,151,148,148,111000,148
2012/09/07,149,150,148,149,101000,149
2012/09/10,150,151,150,151,33000,151
2012/09/11,150,150,148,150,155000,150
2012/09/12,150,153,150,153,95000,153
2012/09/13,151,154,149,151,404000,151
2012/09/14,153,155,153,153,259000,153
2012/09/18,154,154,151,153,143000,153
2012/09/19,153,154,152,154,108000,154
2012/09/20,154,154,152,152,74000,152
2012/09/21,150,153,150,152,181000,152
2012/09/24,151,152,150,152,56000,152
2012/09/25,153,153,151,153,102000,153
2012/09/26,153,153,151,152,78000,152
2012/09/27,152,153,152,153,53000,153
2012/09/28,153,153,151,152,79000,152
2012/10/01,153,153,151,152,89000,152
2012/10/02,152,152,150,150,33000,150
2012/10/03,151,151,150,150,48000,150
2012/10/04,151,151,150,150,35000,150
2012/10/05,150,151,149,149,112000,149
2012/10/09,149,149,147,147,141000,147
2012/10/10,147,147,144,144,210000,144
2012/10/11,144,148,144,145,155000,145
2012/10/12,145,148,145,146,114000,146
2012/10/15,147,148,146,148,54000,148
2012/10/16,148,150,147,150,65000,150
2012/10/17,149,150,149,150,72000,150
2012/10/18,149,151,149,150,129000,150
2012/10/19,150,152,150,152,73000,152
2012/10/22,151,152,150,151,61000,151
2012/10/23,151,152,150,151,160000,151
2012/10/24,150,151,150,151,104000,151
2012/10/25,150,151,149,151,67000,151
2012/10/26,151,151,150,151,72000,151
2012/10/29,152,152,150,151,86000,151
2012/10/30,150,152,150,151,357000,151
2012/10/31,150,159,150,153,627000,153
2012/11/01,155,155,151,152,277000,152
2012/11/02,153,156,152,154,162000,154
2012/11/05,153,155,153,154,51000,154
2012/11/06,154,154,153,153,43000,153
2012/11/07,153,153,150,151,189000,151
2012/11/08,151,151,149,150,197000,150
2012/11/09,149,150,148,148,90000,148
2012/11/12,148,150,148,150,68000,150
2012/11/13,150,150,148,148,78000,148
2012/11/14,149,149,148,148,43000,148
2012/11/15,149,150,149,150,62000,150
2012/11/16,150,152,150,152,60000,152
2012/11/19,152,153,151,153,69000,153
2012/11/20,153,153,151,152,108000,152
2012/11/21,152,154,152,154,124000,154
2012/11/22,154,155,153,153,97000,153
2012/11/26,154,157,154,156,132000,156
2012/11/27,155,157,155,157,163000,157
2012/11/28,157,157,155,156,73000,156
2012/11/29,155,158,155,157,116000,157
2012/11/30,159,160,157,157,195000,157
2012/12/03,155,157,155,156,97000,156
2012/12/04,155,156,155,155,85000,155
2012/12/05,155,156,154,156,107000,156
2012/12/06,156,160,156,160,178000,160
2012/12/07,160,160,156,157,109000,157
2012/12/10,157,158,156,158,108000,158
2012/12/11,156,157,155,157,96000,157
2012/12/12,158,159,157,158,84000,158
2012/12/13,160,160,157,157,93000,157
2012/12/14,156,159,156,157,229000,157
2012/12/17,158,159,157,157,103000,157
2012/12/18,157,159,157,159,86000,159
2012/12/19,159,161,158,161,359000,161
2012/12/20,160,162,159,160,203000,160
2012/12/21,161,162,159,161,216000,161
2012/12/25,163,163,159,160,329000,160
2012/12/26,160,161,159,160,80000,160
2012/12/27,161,165,161,164,279000,164
2012/12/28,162,162,160,161,243000,161
2013/01/04,165,166,162,165,312000,165
2013/01/07,165,167,163,163,432000,163
2013/01/08,165,166,162,162,305000,162
2013/01/09,161,163,160,162,301000,162
2013/01/10,163,168,162,167,578000,167
2013/01/11,168,169,166,168,317000,168
2013/01/15,170,170,166,167,611000,167
2013/01/16,166,167,166,166,175000,166
2013/01/17,166,166,162,164,318000,164
2013/01/18,166,167,165,167,221000,167
2013/01/21,168,171,167,168,407000,168
2013/01/22,172,173,170,173,426000,173
2013/01/23,172,175,170,171,472000,171
2013/01/24,171,171,167,171,222000,171
2013/01/25,172,173,170,172,211000,172
2013/01/28,173,173,171,171,166000,171
2013/01/29,172,173,171,171,169000,171
2013/01/30,172,174,172,173,123000,173
2013/01/31,173,175,172,175,211000,175
2013/02/01,177,179,176,176,287000,176
2013/02/04,176,179,176,177,130000,177
2013/02/05,177,177,174,174,182000,174
2013/02/06,175,177,175,175,147000,175
2013/02/07,175,178,174,176,325000,176
2013/02/08,176,177,175,175,175000,175
2013/02/12,176,177,173,173,198000,173
2013/02/13,171,172,169,169,226000,169
2013/02/14,168,169,167,168,121000,168
2013/02/15,168,169,166,167,192000,167
2013/02/18,167,170,167,169,148000,169
2013/02/19,171,173,170,171,117000,171
2013/02/20,172,173,171,173,167000,173
2013/02/21,172,176,172,172,147000,172
2013/02/22,171,174,170,172,199000,172
2013/02/25,173,174,172,174,162000,174
2013/02/26,172,179,172,175,888000,175
2013/02/27,180,188,179,182,1629000,182
2013/02/28,180,182,178,180,435000,180
2013/03/01,179,179,177,178,282000,178
2013/03/04,181,184,179,180,388000,180
2013/03/05,182,183,179,179,169000,179
2013/03/06,180,181,180,181,113000,181
2013/03/07,182,182,180,181,265000,181
2013/03/08,181,183,180,180,437000,180
2013/03/11,181,185,181,183,387000,183
2013/03/12,183,184,181,181,359000,181
2013/03/13,181,181,179,180,308000,180
2013/03/14,180,184,179,180,476000,180
2013/03/15,180,181,179,179,333000,179
2013/03/18,179,179,177,177,255000,177
2013/03/19,178,179,178,178,202000,178
2013/03/21,180,191,179,188,1406000,188
2013/03/22,188,188,184,184,581000,184
2013/03/25,187,187,184,184,312000,184
2013/03/26,189,197,185,189,2734000,189
2013/03/27,185,187,183,187,666000,187
2013/03/28,187,187,183,185,348000,185
2013/03/29,183,183,178,178,566000,178
2013/04/01,181,181,175,175,440000,175
2013/04/02,171,174,168,172,519000,172
2013/04/03,172,176,172,175,203000,175
2013/04/04,172,178,172,177,361000,177
2013/04/05,184,184,180,181,465000,181
2013/04/08,184,186,182,185,537000,185
2013/04/09,185,186,182,185,374000,185
2013/04/10,185,187,183,187,275000,187
2013/04/11,188,189,187,189,272000,189
2013/04/12,186,192,186,186,956000,186
2013/04/15,184,184,181,181,243000,181
2013/04/16,180,182,179,181,258000,181
2013/04/17,181,183,180,182,116000,182
2013/04/18,182,184,180,182,128000,182
2013/04/19,182,183,181,182,126000,182
2013/04/22,183,184,182,182,179000,182
2013/04/23,182,184,182,184,168000,184
2013/04/24,185,185,183,185,229000,185
2013/04/25,185,186,183,185,248000,185
2013/04/26,185,186,180,181,265000,181
2013/04/30,181,185,181,183,144000,183
2013/05/01,183,184,182,182,147000,182
2013/05/02,184,184,183,183,106000,183
2013/05/07,185,187,184,186,170000,186
2013/05/08,186,187,184,185,175000,185
2013/05/09,184,185,183,184,108000,184
2013/05/10,185,186,184,184,177000,184
2013/05/13,185,186,184,185,155000,185
2013/05/14,185,186,183,183,217000,183
2013/05/15,184,186,183,183,208000,183
2013/05/16,184,184,182,183,229000,183
2013/05/17,182,186,182,185,204000,185
2013/05/20,186,187,185,185,245000,185
2013/05/21,186,190,186,190,378000,190
2013/05/22,190,192,188,191,432000,191
2013/05/23,190,190,178,178,480000,178
2013/05/24,179,183,175,178,346000,178
2013/05/27,179,179,175,175,141000,175
2013/05/28,174,176,174,175,110000,175
2013/05/29,177,178,175,176,159000,176
2013/05/30,175,175,173,173,209000,173
2013/05/31,175,176,174,175,201000,175
2013/06/03,176,176,171,171,215000,171
2013/06/04,171,172,166,172,357000,172
2013/06/05,171,173,168,168,187000,168
2013/06/06,167,169,164,164,302000,164
2013/06/07,162,163,157,158,203000,158
2013/06/10,160,165,160,165,171000,165
2013/06/11,165,166,162,162,141000,162
2013/06/12,162,163,159,162,287000,162
2013/06/13,160,160,155,156,302000,156
2013/06/14,158,162,158,160,467000,160
2013/06/17,161,165,161,165,42000,165
2013/06/18,165,165,164,164,46000,164
2013/06/19,166,168,166,168,184000,168
2013/06/20,168,169,165,168,119000,168
2013/06/21,164,168,161,168,469000,168
2013/06/24,168,169,167,167,88000,167
2013/06/25,169,169,166,167,89000,167
2013/06/26,168,168,166,166,57000,166
2013/06/27,168,171,166,171,184000,171
2013/06/28,172,179,172,179,379000,179
2013/07/01,180,180,173,176,276000,176
2013/07/02,177,179,176,179,63000,179
2013/07/03,179,179,176,179,128000,179
2013/07/04,178,179,178,178,53000,178
2013/07/05,179,179,178,179,114000,179
2013/07/08,179,179,176,176,101000,176
2013/07/09,178,178,176,178,128000,178
2013/07/10,177,180,176,178,162000,178
2013/07/11,178,179,175,178,111000,178
2013/07/12,179,180,177,179,129000,179
2013/07/16,180,180,179,180,120000,180
2013/07/17,179,180,179,180,100000,180
2013/07/18,180,180,179,180,55000,180
2013/07/19,180,181,177,178,178000,178
2013/07/22,177,183,177,180,299000,180
2013/07/23,180,184,180,183,314000,183
2013/07/24,184,184,178,183,103000,183
2013/07/25,183,183,180,180,84000,180
2013/07/26,180,180,178,178,118000,178
2013/07/29,177,177,171,171,134000,171
2013/07/30,171,179,171,178,113000,178
2013/07/31,176,177,175,175,103000,175
2013/08/01,175,178,175,178,82000,178
2013/08/02,179,180,178,180,69000,180
2013/08/05,179,181,179,180,45000,180
2013/08/06,179,182,179,182,47000,182
2013/08/07,179,181,178,178,69000,178
2013/08/08,178,180,176,177,105000,177
2013/08/09,176,178,176,176,75000,176
2013/08/12,175,179,175,179,92000,179
2013/08/13,177,180,177,179,41000,179
2013/08/14,180,182,180,182,82000,182
2013/08/15,182,182,179,180,53000,180
2013/08/16,179,180,177,178,74000,178
2013/08/19,179,179,178,178,25000,178
2013/08/20,178,179,176,176,50000,176
2013/08/21,176,177,175,176,60000,176
2013/08/22,174,175,173,175,71000,175
2013/08/23,177,177,174,176,71000,176
2013/08/26,176,178,176,178,36000,178
2013/08/27,177,178,176,176,60000,176
2013/08/28,175,175,173,174,105000,174
2013/08/29,175,176,173,174,68000,174
2013/08/30,174,175,172,172,113000,172
2013/09/02,174,176,173,174,90000,174
2013/09/03,177,179,176,179,63000,179
2013/09/04,176,179,175,176,99000,176
2013/09/05,176,178,175,178,80000,178
2013/09/06,177,178,175,178,57000,178
2013/09/09,179,180,178,179,64000,179
2013/09/10,179,179,176,178,142000,178
2013/09/11,179,179,178,179,53000,179
2013/09/12,179,179,177,178,35000,178
2013/09/13,180,182,178,179,332000,179
2013/09/17,179,179,177,178,114000,178
2013/09/18,178,180,178,179,185000,179
2013/09/19,180,180,179,180,197000,180
2013/09/20,181,182,180,182,274000,182
2013/09/24,180,183,180,182,231000,182
2013/09/25,183,187,181,182,320000,182
2013/09/26,182,185,181,185,164000,185
2013/09/27,185,185,182,183,267000,183
2013/09/30,182,184,181,183,88000,183
2013/10/01,184,185,181,183,303000,183
2013/10/02,185,185,182,182,152000,182
2013/10/03,182,185,182,184,188000,184
2013/10/04,184,206,184,204,11866000,204
2013/10/07,202,202,190,190,4847000,190
2013/10/08,187,190,185,188,863000,188
2013/10/09,186,191,184,189,978000,189
2013/10/10,189,189,185,186,400000,186
2013/10/11,188,189,185,187,362000,187
2013/10/15,188,189,185,187,338000,187
2013/10/16,187,188,184,187,269000,187
2013/10/17,187,191,187,190,547000,190
2013/10/18,188,189,186,189,287000,189
2013/10/21,190,191,188,191,406000,191
2013/10/22,191,191,186,190,572000,190
2013/10/23,189,190,186,186,411000,186
2013/10/24,187,188,185,188,254000,188
2013/10/25,187,188,186,186,272000,186
2013/10/28,186,189,185,187,324000,187
2013/10/29,186,187,185,187,141000,187
2013/10/30,187,190,186,188,399000,188
2013/10/31,187,188,183,185,680000,185
2013/11/01,185,185,182,183,346000,183
2013/11/05,184,184,181,182,266000,182
2013/11/06,182,184,182,183,172000,183
2013/11/07,183,183,180,181,227000,181
2013/11/08,180,181,176,180,307000,180
2013/11/11,181,182,179,180,232000,180
2013/11/12,181,183,180,183,167000,183
2013/11/13,183,183,182,183,86000,183
2013/11/14,181,184,181,184,213000,184
2013/11/15,184,185,183,184,288000,184
2013/11/18,184,186,184,186,284000,186
2013/11/19,186,186,184,184,141000,184
2013/11/20,184,185,184,185,158000,185
2013/11/21,185,187,184,186,166000,186
2013/11/22,187,187,183,185,322000,185
2013/11/25,185,188,184,187,442000,187
2013/11/26,185,187,185,186,143000,186
2013/11/27,186,187,185,187,193000,187
2013/11/28,187,189,186,187,199000,187
2013/11/29,187,187,185,186,109000,186
2013/12/02,187,188,186,187,118000,187
2013/12/03,188,188,186,186,182000,186
2013/12/04,186,186,183,184,231000,184
2013/12/05,185,185,183,183,112000,183
2013/12/06,182,185,182,185,286000,185
2013/12/09,185,185,184,185,98000,185
2013/12/10,185,187,184,185,163000,185
2013/12/11,185,186,185,185,86000,185
2013/12/12,183,184,182,182,122000,182
2013/12/13,181,182,178,179,706000,179
2013/12/16,180,181,179,179,185000,179
2013/12/17,180,181,179,181,168000,181
2013/12/18,181,181,180,181,188000,181
2013/12/19,181,182,179,181,218000,181
2013/12/20,180,181,179,181,229000,181
2013/12/24,180,181,177,180,327000,180
2013/12/25,178,181,178,181,339000,181
2013/12/26,180,183,180,182,136000,182
2013/12/27,183,186,182,186,214000,186
2013/12/30,187,187,185,186,204000,186
2014/01/06,189,191,187,190,291000,190
2014/01/07,191,194,189,190,312000,190
2014/01/08,190,193,189,193,198000,193
2014/01/09,191,192,190,191,124000,191
2014/01/10,191,195,190,190,469000,190
2014/01/14,190,193,189,189,243000,189
2014/01/15,190,196,189,194,309000,194
2014/01/16,195,196,193,193,182000,193
2014/01/17,193,195,192,193,129000,193
2014/01/20,194,197,193,196,229000,196
2014/01/21,197,226,195,215,7745000,215
2014/01/22,228,233,205,211,10122000,211
2014/01/23,214,227,205,214,4707000,214
2014/01/24,207,214,201,205,2202000,205
2014/01/27,198,202,197,198,596000,198
2014/01/28,200,205,197,197,585000,197
2014/01/29,201,203,200,203,227000,203
2014/01/30,199,200,197,199,288000,199
2014/01/31,199,201,195,199,286000,199
2014/02/03,198,199,190,195,725000,195
2014/02/04,188,188,180,184,771000,184
2014/02/05,186,187,180,185,674000,185
2014/02/06,185,191,184,188,341000,188
2014/02/07,189,193,189,190,210000,190
2014/02/10,192,193,191,192,109000,192
2014/02/12,194,197,194,196,243000,196
2014/02/13,198,198,194,197,270000,197
2014/02/14,197,197,189,194,244000,194
2014/02/17,195,195,191,194,115000,194
2014/02/18,193,194,192,194,117000,194
2014/02/19,192,196,192,193,143000,193
2014/02/20,193,194,191,193,118000,193
2014/02/21,193,197,193,196,107000,196
2014/02/24,196,202,196,199,388000,199
2014/02/25,201,201,198,200,182000,200
2014/02/26,200,200,197,197,96000,197
2014/02/27,197,197,195,195,115000,195
2014/02/28,197,199,195,197,180000,197
2014/03/03,198,200,192,195,176000,195
2014/03/04,194,197,193,197,124000,197
2014/03/05,199,199,197,198,95000,198
2014/03/06,198,200,197,200,112000,200
2014/03/07,201,201,198,200,101000,200
2014/03/10,201,201,197,199,125000,199
2014/03/11,197,199,197,199,119000,199
2014/03/12,198,199,196,196,179000,196
2014/03/13,196,197,196,196,131000,196
2014/03/14,194,195,192,192,509000,192
2014/03/17,193,194,190,190,155000,190
2014/03/18,193,194,192,192,128000,192
2014/03/19,192,194,188,192,250000,192
2014/03/20,190,193,189,192,286000,192
2014/03/24,194,199,193,196,277000,196
2014/03/25,198,200,197,199,303000,199
2014/03/26,201,201,198,200,361000,200
2014/03/27,190,196,190,194,345000,194
2014/03/28,196,199,194,198,220000,198
2014/03/31,200,200,197,200,203000,200
2014/04/01,200,200,197,200,218000,200
2014/04/02,199,200,196,196,229000,196
2014/04/03,196,200,196,199,190000,199
2014/04/04,198,200,198,199,181000,199
2014/04/07,194,199,194,195,220000,195
2014/04/08,195,195,191,191,179000,191
2014/04/09,191,192,188,189,210000,189
2014/04/10,190,192,188,188,117000,188
2014/04/11,187,190,186,187,125000,187
2014/04/14,187,190,187,188,73000,188
2014/04/15,189,189,188,188,68000,188
2014/04/16,189,192,189,192,56000,192
2014/04/17,191,192,190,190,92000,190
2014/04/18,191,191,188,190,103000,190
2014/04/21,190,191,188,190,62000,190
2014/04/22,190,191,189,189,60000,189
2014/04/23,189,191,189,189,89000,189
2014/04/24,188,190,188,189,90000,189
2014/04/25,190,191,189,191,148000,191
2014/04/28,189,190,189,190,96000,190
2014/04/30,190,192,189,192,179000,192
2014/05/01,194,196,193,195,186000,195
2014/05/02,194,195,192,194,53000,194
2014/05/07,193,193,189,189,178000,189
2014/05/08,189,191,189,189,58000,189
2014/05/09,189,190,188,188,61000,188
2014/05/12,189,189,186,188,147000,188
2014/05/13,189,190,189,190,60000,190
2014/05/14,189,190,187,188,59000,188
2014/05/15,188,189,185,185,155000,185
2014/05/16,184,185,179,179,290000,179
2014/05/19,181,181,180,180,69000,180
2014/05/20,180,181,179,179,59000,179
2014/05/21,179,181,179,180,59000,180
2014/05/22,182,185,182,184,105000,184
2014/05/23,185,186,183,186,73000,186
2014/05/26,186,188,185,186,103000,186
2014/05/27,186,187,184,185,135000,185
2014/05/28,187,187,184,185,107000,185
2014/05/29,185,186,184,184,50000,184
2014/05/30,185,186,180,180,268000,180
2014/06/02,182,184,182,184,168000,184
2014/06/03,185,185,184,184,95000,184
2014/06/04,184,185,184,184,67000,184
2014/06/05,186,186,184,185,79000,185
2014/06/06,184,187,184,187,104000,187
2014/06/09,187,187,185,185,61000,185
2014/06/10,186,189,184,184,164000,184
2014/06/11,184,187,184,187,119000,187
2014/06/12,186,187,185,185,100000,185
2014/06/13,184,187,184,185,268000,185
2014/06/16,185,187,184,184,131000,184
2014/06/17,185,188,185,188,219000,188
2014/06/18,187,187,186,187,93000,187
2014/06/19,187,189,186,186,331000,186
2014/06/20,187,188,186,186,236000,186
2014/06/23,186,188,186,188,149000,188
2014/06/24,188,189,187,189,103000,189
2014/06/25,188,189,187,187,146000,187
2014/06/26,188,189,187,187,173000,187
2014/06/27,188,188,185,185,232000,185
2014/06/30,187,190,186,190,515000,190
2014/07/01,189,190,188,189,382000,189
2014/07/02,190,190,188,189,190000,189
2014/07/03,189,189,188,189,62000,189
2014/07/04,189,190,189,190,80000,190
2014/07/07,190,190,189,189,156000,189
2014/07/08,190,190,187,189,270000,189
2014/07/09,189,189,188,188,170000,188
2014/07/10,188,189,188,188,75000,188
2014/07/11,186,188,186,186,95000,186
2014/07/14,188,188,187,188,66000,188
2014/07/15,188,188,188,188,54000,188
2014/07/16,189,189,188,189,92000,189
2014/07/17,189,189,188,189,91000,189
2014/07/18,187,188,186,186,91000,186
2014/07/22,186,196,186,193,912000,193
2014/07/23,194,197,189,192,666000,192
2014/07/24,194,206,194,199,1986000,199
2014/07/25,199,201,194,198,498000,198
2014/07/28,199,200,196,196,222000,196
2014/07/29,197,197,194,197,157000,197
2014/07/30,197,198,195,196,163000,196
2014/07/31,197,197,194,195,131000,195
2014/08/01,191,193,190,190,333000,190
2014/08/04,190,190,188,189,176000,189
2014/08/05,189,189,187,187,294000,187
2014/08/06,187,189,187,187,109000,187
2014/08/07,187,189,187,189,128000,189
2014/08/08,188,188,185,185,166000,185
2014/08/11,187,192,185,190,372000,190
2014/08/12,191,191,189,190,153000,190
2014/08/13,189,191,189,191,65000,191
2014/08/14,192,194,191,193,163000,193
2014/08/15,193,194,192,192,105000,192
2014/08/18,193,196,193,194,151000,194
2014/08/19,195,195,192,193,104000,193
2014/08/20,193,194,191,194,95000,194
2014/08/21,193,194,192,194,155000,194
2014/08/22,194,196,194,195,219000,195
2014/08/25,196,196,194,195,105000,195
2014/08/26,195,195,193,193,67000,193
2014/08/27,193,194,192,193,84000,193
2014/08/28,192,193,191,193,88000,193
2014/08/29,191,194,191,194,98000,194
2014/09/01,195,195,193,194,140000,194
2014/09/02,194,195,194,195,104000,195
2014/09/03,195,196,194,194,140000,194
2014/09/04,194,194,192,193,91000,193
2014/09/05,193,194,192,193,45000,193
2014/09/08,194,195,193,195,73000,195
2014/09/09,195,196,193,196,121000,196
2014/09/10,195,201,194,197,543000,197
2014/09/11,197,198,196,196,95000,196
2014/09/12,197,197,195,195,275000,195
2014/09/16,196,196,195,195,35000,195
2014/09/17,195,197,194,195,123000,195
2014/09/18,194,195,194,195,61000,195
2014/09/19,195,199,195,197,216000,197
2014/09/22,198,198,195,195,45000,195
2014/09/24,194,195,194,195,96000,195
2014/09/25,196,197,194,196,215000,196
2014/09/26,195,198,195,195,163000,195
2014/09/29,196,196,194,195,65000,195
2014/09/30,194,194,193,193,132000,193
2014/10/01,194,198,194,195,217000,195
2014/10/02,194,194,192,192,154000,192
2014/10/03,192,195,191,194,112000,194
2014/10/06,195,195,194,194,77000,194
2014/10/07,194,194,191,191,203000,191
2014/10/08,190,190,189,189,139000,189
2014/10/09,189,190,187,187,117000,187
2014/10/10,185,185,183,184,221000,184
2014/10/14,182,183,181,181,173000,181
2014/10/15,182,183,180,182,214000,182
2014/10/16,180,184,178,178,322000,178
2014/10/17,179,180,176,176,188000,176
2014/10/20,179,181,178,180,133000,180
2014/10/21,181,181,178,178,88000,178
2014/10/22,180,184,179,184,220000,184
2014/10/23,183,183,181,182,65000,182
2014/10/24,184,184,181,181,78000,181
2014/10/27,184,184,181,182,156000,182
2014/10/28,182,182,180,181,138000,181
2014/10/29,182,185,182,184,158000,184
2014/10/30,184,185,183,183,173000,183
2014/10/31,183,187,183,187,481000,187
2014/11/04,191,193,186,186,366000,186
2014/11/05,186,188,185,188,332000,188
2014/11/06,188,190,187,187,157000,187
2014/11/07,187,190,187,189,208000,189
2014/11/10,188,190,188,189,155000,189
2014/11/11,190,192,189,191,196000,191
2014/11/12,191,195,190,192,269000,192
2014/11/13,192,196,192,196,290000,196
2014/11/14,198,198,193,198,313000,198
2014/11/17,198,198,192,192,180000,192
2014/11/18,192,196,192,195,165000,195
2014/11/19,195,199,193,193,367000,193
2014/11/20,194,196,194,195,98000,195
2014/11/21,194,197,194,196,135000,196
2014/11/25,197,197,195,197,204000,197
2014/11/26,197,200,196,199,301000,199
2014/11/27,199,203,198,202,431000,202
2014/11/28,202,203,201,202,297000,202
2014/12/01,202,204,201,203,253000,203
2014/12/02,202,204,202,204,135000,204
2014/12/03,204,205,203,203,237000,203
2014/12/04,203,205,203,204,126000,204
2014/12/05,204,205,202,205,143000,205
2014/12/08,205,208,204,208,239000,208
2014/12/09,206,208,206,206,121000,206
2014/12/10,205,205,202,203,281000,203
2014/12/11,201,203,200,202,182000,202
2014/12/12,200,204,200,202,292000,202
2014/12/15,201,205,201,203,168000,203
2014/12/16,203,203,197,197,306000,197
2014/12/17,197,202,197,200,307000,200
2014/12/18,202,207,202,206,302000,206
2014/12/19,206,207,205,207,136000,207
2014/12/22,206,206,203,205,128000,205
2014/12/24,205,208,204,208,234000,208
2014/12/25,208,208,206,208,146000,208
2014/12/26,208,210,207,209,171000,209
2014/12/29,210,210,206,209,174000,209
2014/12/30,209,209,207,208,121000,208
2015/01/05,208,209,208,209,85000,209
2015/01/06,207,208,201,201,227000,201
2015/01/07,201,205,201,203,172000,203
2015/01/08,204,207,204,205,141000,205
2015/01/09,205,206,203,204,116000,204
2015/01/13,204,204,202,204,104000,204
2015/01/14,204,205,203,203,45000,203
2015/01/15,204,207,204,207,113000,207
2015/01/16,204,205,203,203,100000,203
2015/01/19,204,206,203,204,88000,204
2015/01/20,204,206,203,205,128000,205
2015/01/21,205,205,202,202,109000,202
2015/01/22,203,204,202,204,84000,204
2015/01/23,204,204,202,202,186000,202
2015/01/26,202,204,202,204,100000,204
2015/01/27,203,205,203,205,67000,205
2015/01/28,205,206,203,205,169000,205
2015/01/29,205,207,204,205,155000,205
2015/01/30,205,208,204,205,258000,205
2015/02/02,205,205,203,203,134000,203
2015/02/03,203,204,201,201,155000,201
2015/02/04,202,204,201,203,144000,203
2015/02/05,203,203,202,202,48000,202
2015/02/06,203,204,202,202,87000,202
2015/02/09,203,204,202,203,96000,203
2015/02/10,204,206,202,205,230000,205
2015/02/12,205,206,204,204,179000,204
2015/02/13,205,208,205,206,249000,206
2015/02/16,206,210,206,206,190000,206
2015/02/17,205,207,205,206,137000,206
2015/02/18,206,209,206,207,240000,207
2015/02/19,208,210,207,210,236000,210
2015/02/20,210,210,207,208,164000,208
2015/02/23,210,212,208,209,227000,209
2015/02/24,209,213,209,212,413000,212
2015/02/25,214,216,209,210,603000,210
2015/02/26,210,213,210,213,173000,213
2015/02/27,213,214,209,209,369000,209
2015/03/02,209,210,208,209,200000,209
2015/03/03,210,211,210,210,105000,210
2015/03/04,211,213,210,212,194000,212
2015/03/05,213,213,210,211,160000,211
2015/03/06,212,212,211,212,69000,212
2015/03/09,211,213,211,212,77000,212
2015/03/10,212,212,210,210,101000,210
2015/03/11,211,213,210,212,126000,212
2015/03/12,213,215,213,215,212000,215
2015/03/13,215,215,213,213,278000,213
2015/03/16,213,214,213,214,90000,214
2015/03/17,214,214,212,213,160000,213
2015/03/18,214,214,212,212,108000,212
2015/03/19,213,213,212,213,73000,213
2015/03/20,213,214,211,211,314000,211
2015/03/23,213,213,212,212,140000,212
2015/03/24,212,213,211,212,170000,212
2015/03/25,213,213,212,212,178000,212
2015/03/26,213,214,212,212,379000,212
2015/03/27,205,206,202,202,349000,202
2015/03/30,202,202,197,198,273000,198
2015/03/31,199,200,198,198,121000,198
2015/04/01,200,200,195,196,341000,196
2015/04/02,196,200,196,198,268000,198
2015/04/03,199,200,196,197,245000,197
2015/04/06,196,198,196,196,125000,196
2015/04/07,197,198,196,196,167000,196
2015/04/08,197,199,197,197,227000,197
2015/04/09,198,198,196,196,195000,196
2015/04/10,197,197,196,196,191000,196
2015/04/13,197,197,196,196,55000,196
2015/04/14,196,197,196,196,133000,196
2015/04/15,196,198,195,197,208000,197
2015/04/16,197,200,197,200,156000,200
2015/04/17,199,200,198,198,92000,198
2015/04/20,198,198,197,197,87000,197
2015/04/21,197,198,197,197,122000,197
2015/04/22,197,198,197,198,58000,198
2015/04/23,198,198,197,197,84000,197
2015/04/24,198,198,197,197,57000,197
2015/04/27,197,201,197,200,291000,200
2015/04/28,200,200,199,199,114000,199
2015/04/30,199,200,198,199,107000,199
2015/05/01,199,199,197,197,178000,197
2015/05/07,198,200,195,195,405000,195
2015/05/08,196,197,196,196,97000,196
2015/05/11,198,199,197,198,173000,198
2015/05/12,198,201,198,201,194000,201
2015/05/13,201,203,200,202,184000,202
2015/05/14,202,203,200,201,256000,201
2015/05/15,202,203,201,203,219000,203
2015/05/18,198,200,195,197,549000,197
2015/05/19,197,198,196,197,269000,197
2015/05/20,197,197,196,197,253000,197
2015/05/21,197,198,196,197,202000,197
2015/05/22,197,198,196,198,155000,198
2015/05/25,199,200,198,200,181000,200
2015/05/26,200,201,199,200,112000,200
2015/05/27,200,202,200,200,209000,200
2015/05/28,201,202,200,200,182000,200
2015/05/29,200,201,200,201,244000,201
2015/06/01,202,204,201,204,240000,204
2015/06/02,204,206,203,204,211000,204
2015/06/03,204,204,201,202,227000,202
2015/06/04,202,203,202,203,57000,203
2015/06/05,202,203,201,201,92000,201
2015/06/08,202,202,198,199,337000,199
2015/06/09,200,200,198,198,161000,198
2015/06/10,199,200,197,197,256000,197
2015/06/11,198,200,198,200,133000,200
2015/06/12,200,200,198,198,375000,198
2015/06/15,198,199,197,198,115000,198
2015/06/16,198,202,197,199,277000,199
2015/06/17,199,201,199,200,108000,200
2015/06/18,200,201,199,200,107000,200
2015/06/19,200,201,200,200,137000,200
2015/06/22,199,201,199,200,175000,200
2015/06/23,200,203,200,203,206000,203
2015/06/24,203,203,200,201,195000,201
2015/06/25,200,202,200,200,195000,200
2015/06/26,202,203,201,201,250000,201
2015/06/29,200,201,197,198,230000,198
2015/06/30,199,202,199,202,276000,202
2015/07/01,203,208,202,203,1097000,203
