2011/01/04,54500,55300,54200,55100,532,551
2011/01/05,54900,55100,54700,55000,131,550
2011/01/06,54800,55000,54700,54800,219,548
2011/01/07,55000,55800,54900,55800,388,558
2011/01/11,56000,56900,55700,56900,699,569
2011/01/12,56500,57000,56000,56300,625,563
2011/01/13,56500,56500,55300,55800,447,558
2011/01/14,55900,56500,55300,56500,470,565
2011/01/17,55900,56000,55200,55700,366,557
2011/01/18,55800,56300,55700,56300,251,563
2011/01/19,56500,56900,56300,56800,384,568
2011/01/20,56900,57000,56500,56500,275,565
2011/01/21,56500,56500,55000,55200,278,552
2011/01/24,55500,55500,54500,55000,117,550
2011/01/25,55300,56100,55300,56100,150,561
2011/01/26,55900,56500,55700,55800,169,558
2011/01/27,55700,56200,55600,55700,265,557
2011/01/28,55600,57900,55200,57900,1236,579
2011/01/31,57500,59300,57400,58600,1480,586
2011/02/01,58600,59800,58200,59700,756,597
2011/02/02,59800,60400,59300,59600,525,596
2011/02/03,59200,59400,58300,58500,283,585
2011/02/04,58900,59400,58700,59000,242,590
2011/02/07,59600,61100,59600,61100,752,611
2011/02/08,61700,63800,61400,63100,630,631
2011/02/09,63200,63700,61200,61600,474,616
2011/02/10,60600,61800,60400,61800,250,618
2011/02/14,62800,63000,62000,62900,229,629
2011/02/15,62900,63900,62200,63800,375,638
2011/02/16,64500,64500,61600,63000,296,630
2011/02/17,63100,63500,62200,63000,159,630
2011/02/18,63000,63700,62500,63400,388,634
2011/02/21,63400,64500,63200,64500,233,645
2011/02/22,64400,64500,63100,63900,479,639
2011/02/23,63000,65000,63000,63200,321,632
2011/02/24,62400,63200,62300,62500,261,625
2011/02/25,61500,62000,60600,62000,301,620
2011/02/28,61900,64200,61700,64200,252,642
2011/03/01,64400,64800,63900,64200,249,642
2011/03/02,63200,64100,63200,63800,148,638
2011/03/03,63800,64500,63500,64200,133,642
2011/03/04,65000,66400,64500,66400,582,664
2011/03/07,68400,72600,67600,69900,853,699
2011/03/08,71400,74800,70800,74100,1267,741
2011/03/09,73800,73800,70000,71300,550,713
2011/03/10,70700,72400,68600,72400,369,724
2011/03/11,69600,72000,69600,69700,389,697
2011/03/14,59700,60000,59700,59700,772,597
2011/03/15,49700,49700,49700,49700,426,497
2011/03/16,49000,54000,44200,47900,1846,479
2011/03/17,47850,54800,45000,54100,883,541
2011/03/18,54200,58900,54100,56600,556,566
2011/03/22,61600,62300,59500,60000,807,600
2011/03/23,60300,60300,58700,59700,276,597
2011/03/24,58700,58800,54500,55000,1007,550
2011/03/25,56000,58500,54500,58500,460,585
2011/03/28,57900,57900,54200,55000,448,550
2011/03/29,54000,56400,53000,56400,282,564
2011/03/30,56900,56900,55000,56100,216,561
2011/03/31,56600,56600,55500,56300,100,563
2011/04/01,56000,56500,55900,55900,168,559
2011/04/04,56100,56500,54800,55200,149,552
2011/04/05,55200,55700,54200,55500,162,555
2011/04/06,55500,55800,55000,55100,282,551
2011/04/07,55100,55900,54900,55900,105,559
2011/04/08,55400,56200,55400,56200,131,562
2011/04/11,56500,56800,56300,56300,85,563
2011/04/12,57400,57400,55300,56600,322,566
2011/04/13,56000,56600,55800,55800,177,558
2011/04/14,55800,56200,55300,55600,160,556
2011/04/15,55500,56500,55500,56300,110,563
2011/04/18,57600,58500,56900,58500,332,585
2011/04/19,58400,58400,55500,57700,156,577
2011/04/20,57600,57600,57100,57400,114,574
2011/04/21,58000,58100,57500,57600,100,576
2011/04/22,57700,57900,57300,57400,76,574
2011/04/25,57700,58000,57600,58000,57,580
2011/04/26,58000,58000,57200,57200,126,572
2011/04/27,57200,58800,57200,58800,192,588
2011/04/28,58800,59800,58500,59500,140,595
2011/05/02,59400,62000,58800,59800,445,598
2011/05/06,59400,59600,58500,59200,193,592
2011/05/09,59200,59200,58200,58200,89,582
2011/05/10,58200,58700,58000,58500,129,585
2011/05/11,58400,58900,58000,58500,163,585
2011/05/12,58500,58600,56000,57100,381,571
2011/05/13,56800,57000,55600,56000,363,560
2011/05/16,56000,56000,54500,55300,649,553
2011/05/17,55000,55400,54700,55400,127,554
2011/05/18,55200,56200,55200,56200,130,562
2011/05/19,56300,57400,55700,56000,219,560
2011/05/20,57000,57000,55800,55800,220,558
2011/05/23,55500,55500,54000,54600,248,546
2011/05/24,52600,54500,52600,54400,206,544
2011/05/25,54100,54900,53200,54400,297,544
2011/05/26,54400,55500,53500,53800,359,538
2011/05/27,53800,54000,53600,53900,73,539
2011/05/30,53900,54700,53700,54300,232,543
2011/05/31,54000,54800,53900,54700,231,547
2011/06/01,55000,55300,54500,55300,182,553
2011/06/02,54800,55100,54600,54800,99,548
2011/06/03,54800,55200,54600,54900,320,549
2011/06/06,55100,55200,54600,54800,82,548
2011/06/07,54900,54900,53800,54800,184,548
2011/06/08,54800,55100,54000,54500,202,545
2011/06/09,55000,55800,54700,55200,275,552
2011/06/10,55200,55300,54500,54900,161,549
2011/06/13,54800,55200,54300,55100,89,551
2011/06/14,54500,55900,54500,55900,199,559
2011/06/15,55900,56800,55900,56800,142,568
2011/06/16,57000,57000,55500,55800,200,558
2011/06/17,56100,56900,55300,55900,117,559
2011/06/20,56900,56900,56400,56700,76,567
2011/06/21,56700,56700,56100,56600,70,566
2011/06/22,56700,56900,55600,56400,166,564
2011/06/23,56700,56700,55400,55700,136,557
2011/06/24,56000,56200,55800,56000,126,560
2011/06/27,56000,57200,55900,56900,305,569
2011/06/28,55100,56100,55100,55700,213,557
2011/06/29,55900,56500,55900,56200,157,562
2011/06/30,56300,56900,56200,56900,209,569
2011/07/01,57000,57000,56500,56800,100,568
2011/07/04,57000,57400,56900,57300,165,573
2011/07/05,57000,57000,56100,56800,149,568
2011/07/06,57000,57000,56400,56800,103,568
2011/07/07,56800,56900,56500,56700,62,567
2011/07/08,56900,59600,56500,59600,507,596
2011/07/11,60100,61500,60100,60700,332,607
2011/07/12,60500,60500,59000,59400,240,594
2011/07/13,59400,59700,58900,59300,386,593
2011/07/14,59400,61000,58000,58900,505,589
2011/07/15,58500,59000,57300,58100,327,581
2011/07/19,58200,58300,56700,57200,378,572
2011/07/20,57700,59200,57100,59100,710,591
2011/07/21,58600,59300,58400,58500,150,585
2011/07/22,58300,59100,58300,59000,114,590
2011/07/25,59000,59000,58400,58900,93,589
2011/07/26,58700,59000,58400,58800,121,588
2011/07/27,58700,59000,58300,58500,236,585
2011/07/28,57600,58200,57500,57500,384,575
2011/07/29,57100,58100,57000,57200,221,572
2011/08/01,54200,56000,52900,55200,889,552
2011/08/02,55800,56600,55200,56100,312,561
2011/08/03,55500,56000,55000,55500,161,555
2011/08/04,55500,56700,55500,56000,70,560
2011/08/05,55000,55100,53500,53500,252,535
2011/08/08,53500,54800,53000,53500,180,535
2011/08/09,52500,53200,51200,53000,240,530
2011/08/10,54000,56000,53800,56000,146,560
2011/08/11,54500,54900,52500,54500,128,545
2011/08/12,55500,55500,54500,54800,54,548
2011/08/15,54800,56500,54800,56500,705,565
2011/08/16,56500,56500,56100,56400,78,564
2011/08/17,56500,57500,55500,55500,189,555
2011/08/18,57200,57200,56400,56800,159,568
2011/08/19,55800,57000,55700,57000,382,570
2011/08/22,56500,57000,55300,55400,159,554
2011/08/23,55800,55900,54900,55500,77,555
2011/08/24,55600,57000,53800,55100,391,551
2011/08/25,55100,55200,54300,55000,70,550
2011/08/26,55400,55400,54500,55400,36,554
2011/08/29,55500,55500,54300,55200,98,552
2011/08/30,55200,55300,54500,54700,156,547
2011/08/31,55000,55000,53800,54600,178,546
2011/09/01,54900,55300,54400,54700,183,547
2011/09/02,54900,55100,54300,55000,135,550
2011/09/05,55000,55500,54100,54200,103,542
2011/09/06,54200,54300,53700,53900,91,539
2011/09/07,54500,54600,54100,54500,53,545
2011/09/08,54900,54900,54300,54400,50,544
2011/09/09,54800,54900,54700,54900,113,549
2011/09/12,54300,54800,54300,54700,61,547
2011/09/13,54500,54500,54000,54100,131,541
2011/09/14,54200,54500,54000,54200,48,542
2011/09/15,54200,54300,54100,54200,54,542
2011/09/16,55200,55200,54300,54800,106,548
2011/09/20,54800,54800,54300,54400,70,544
2011/09/21,54600,54700,53200,53600,139,536
2011/09/22,53000,53200,52800,53000,156,530
2011/09/26,52000,52200,50800,50900,170,509
2011/09/27,51300,51800,51000,51800,63,518
2011/09/28,51900,52500,51900,52500,90,525
2011/09/29,53100,54900,52900,54800,199,548
2011/09/30,54800,54800,54000,54100,76,541
2011/10/03,54300,54300,54100,54300,35,543
2011/10/04,53700,53700,53400,53600,109,536
2011/10/05,53600,53600,52200,52300,115,523
2011/10/06,52600,52700,52000,52000,85,520
2011/10/07,52000,52300,51400,51400,109,514
2011/10/11,51400,51900,51300,51500,204,515
2011/10/12,51500,51600,51300,51500,212,515
2011/10/13,51800,51900,51500,51500,187,515
2011/10/14,51500,52000,51400,51600,145,516
2011/10/17,51600,51800,51600,51700,209,517
2011/10/18,51700,51700,51200,51200,163,512
2011/10/19,51300,51600,51000,51300,178,513
2011/10/20,51000,51100,50000,50300,869,503
2011/10/21,50600,50600,50000,50400,65,504
2011/10/24,50500,50800,50400,50700,101,507
2011/10/25,50700,50800,50400,50600,62,506
2011/10/26,50700,50700,50300,50400,52,504
2011/10/27,50300,50600,50200,50600,79,506
2011/10/28,50600,50600,49000,50100,592,501
2011/10/31,50100,50500,49750,50100,194,501
2011/11/01,50000,50600,50000,50400,136,504
2011/11/02,50400,50400,49750,50100,123,501
2011/11/04,50200,50500,50200,50300,56,503
2011/11/07,50200,50400,49750,50400,148,504
2011/11/08,50200,50500,49800,49800,183,498
2011/11/09,50000,50400,49750,50300,128,503
2011/11/10,50000,50000,49550,49800,135,498
2011/11/11,49600,49950,49600,49800,59,498
2011/11/15,50100,50400,49900,50300,52,503
2011/11/16,50600,50600,49900,50300,161,503
2011/11/17,50300,50500,49900,50500,94,505
2011/11/18,50300,50600,50100,50600,115,506
2011/11/21,51200,51200,50600,50600,93,506
2011/11/22,50600,50600,49900,49900,149,499
2011/11/25,50100,50200,50000,50100,33,501
2011/11/28,50200,50700,50200,50400,62,504
2011/11/29,51000,51100,50200,50700,131,507
2011/11/30,50800,50800,49950,50000,220,500
2011/12/01,50600,50800,50300,50500,73,505
2011/12/02,50500,50600,50200,50200,119,502
2011/12/05,50700,51500,50700,51100,209,511
2011/12/06,51100,51100,50400,50400,227,504
2011/12/07,50700,51200,50400,51100,151,511
2011/12/08,51400,51800,50600,51100,245,511
2011/12/09,51200,51300,49900,51000,489,510
2011/12/12,51300,51400,51100,51200,140,512
2011/12/13,51200,51200,50900,50900,215,509
2011/12/14,50900,51200,50600,50600,290,506
2011/12/15,50800,51300,50800,51100,208,511
2011/12/16,51500,51600,51200,51200,305,512
2011/12/19,51700,52000,51300,52000,337,520
2011/12/20,52000,52300,51800,52200,206,522
2011/12/21,52400,52600,52200,52400,268,524
2011/12/22,52400,52400,51800,51900,269,519
2011/12/26,52100,52300,51500,52100,405,521
2011/12/27,51700,52500,51100,52200,1327,522
2011/12/28,50100,50700,50000,50400,772,504
2011/12/29,50300,50300,49900,50100,208,501
2011/12/30,49950,50100,49900,50000,109,500
2012/01/04,50000,50100,49800,49900,206,499
2012/01/06,49950,50000,49800,49900,103,499
2012/01/10,50000,50100,49800,49800,87,498
2012/01/16,50100,50900,49950,50400,239,504
2012/01/17,50300,50800,49950,50200,203,502
2012/01/18,50200,50400,50100,50400,73,504
2012/01/19,50100,50300,50000,50300,120,503
2012/01/20,50500,50500,50200,50300,145,503
2012/01/23,50400,50600,50300,50400,117,504
2012/01/24,50500,50900,50400,50600,205,506
2012/01/25,50600,51400,50600,51400,243,514
2012/01/26,51400,51400,50600,50600,172,506
2012/01/27,51100,51300,50800,50900,196,509
2012/01/30,51200,51400,51000,51200,92,512
2012/01/31,51500,51500,51300,51500,113,515
2012/02/01,51000,51200,50500,50600,247,506
2012/02/02,50600,50800,50200,50300,120,503
2012/02/03,50100,50400,50000,50200,87,502
2012/02/06,50300,50600,50300,50400,91,504
2012/02/07,50600,50600,50300,50300,42,503
2012/02/08,50400,50500,50200,50500,84,505
2012/02/09,50400,50500,50300,50500,36,505
2012/02/10,50500,50500,49500,49800,514,498
2012/02/13,49950,50400,49900,50200,117,502
2012/02/14,50200,50500,50100,50500,64,505
2012/02/15,50600,50900,50500,50800,209,508
2012/02/16,50900,50900,50600,50700,132,507
2012/02/17,50700,50800,50600,50800,98,508
2012/02/20,50800,51300,50700,51000,191,510
2012/02/21,50800,51200,50700,50900,121,509
2012/02/22,51000,51500,50900,51500,152,515
2012/02/23,51500,51800,51200,51500,139,515
2012/02/24,51700,51700,51300,51500,159,515
2012/02/27,52200,52400,51900,52000,261,520
2012/02/28,51900,52100,51500,52100,147,521
2012/02/29,52100,52400,51400,51400,224,514
2012/03/01,51600,51900,51400,51400,97,514
2012/03/02,51600,52000,51600,52000,82,520
2012/03/05,52000,52400,51800,51800,175,518
2012/03/06,51800,51900,51700,51700,52,517
2012/03/07,51600,52000,51500,51800,109,518
2012/03/08,52100,52400,51900,52300,128,523
2012/03/09,52500,52800,52300,52700,206,527
2012/03/12,53500,54500,53400,53700,414,537
2012/03/13,54000,54800,54000,54700,343,547
2012/03/14,54800,55400,54800,54900,253,549
2012/03/15,55200,55200,54400,54600,213,546
2012/03/16,54100,55500,54100,55200,297,552
2012/03/19,55000,55000,54300,54300,114,543
2012/03/21,54400,54700,53900,53900,139,539
2012/03/22,54100,54100,53400,53800,116,538
2012/03/23,53800,53800,53000,53300,147,533
2012/03/26,53300,53900,53300,53700,168,537
2012/03/27,54000,54800,54000,54800,155,548
2012/03/28,54800,54900,54500,54600,180,546
2012/03/29,54800,55900,54600,55700,182,557
2012/03/30,56000,56300,55500,56200,339,562
2012/04/02,56300,56300,55500,55900,250,559
2012/04/03,56200,56200,55600,55900,120,559
2012/04/04,55900,55900,54900,54900,140,549
2012/04/05,54800,54900,54000,54800,175,548
2012/04/06,54600,55300,54300,55200,113,552
2012/04/09,55800,55800,55100,55500,170,555
2012/04/10,55400,56000,55400,55900,129,559
2012/04/11,55700,55700,55400,55500,151,555
2012/04/12,55700,55700,55100,55600,140,556
2012/04/13,55600,56000,55500,56000,87,560
2012/04/16,56300,56500,56000,56400,155,564
2012/04/17,56400,56900,56300,56900,199,569
2012/04/18,57100,57400,55500,56200,263,562
2012/04/19,55500,56000,55200,55600,117,556
2012/04/20,55600,55600,55300,55500,85,555
2012/04/23,55500,56000,54700,55100,197,551
2012/04/24,54800,55300,54300,54400,160,544
2012/04/25,54400,55300,54400,55100,110,551
2012/04/26,55400,55800,54500,54500,357,545
2012/04/27,55300,55900,54900,55400,218,554
2012/05/01,55500,55800,55000,55000,233,550
2012/05/02,55000,55000,54300,54900,183,549
2012/05/07,54100,54600,52800,53000,265,530
2012/05/08,53100,54100,53100,53900,52,539
2012/05/09,53400,53400,52100,52700,144,527
2012/05/10,52900,53100,52500,53000,58,530
2012/05/11,52800,53000,52000,52600,146,526
2012/05/14,52600,52600,51600,51600,144,516
2012/05/15,51000,51300,50200,50900,144,509
2012/05/16,50200,51200,50200,50500,125,505
2012/05/17,50500,51200,50400,51200,100,512
2012/05/18,50500,50800,50200,50800,129,508
2012/05/21,50800,51000,50400,50400,135,504
2012/05/22,50400,50800,50400,50800,120,508
2012/05/23,50900,50900,50400,50400,86,504
2012/05/24,50400,50600,50200,50300,142,503
2012/05/25,50100,50800,50000,50200,221,502
2012/05/28,50200,50500,50200,50300,114,503
2012/05/29,50300,50500,50200,50400,130,504
2012/05/30,50500,50500,50400,50500,95,505
2012/05/31,50400,50400,50200,50300,87,503
2012/06/01,50200,50400,50000,50300,170,503
2012/06/06,49850,50800,49850,50800,73,508
2012/06/07,51100,51200,50500,51100,64,511
2012/06/08,51000,51000,50300,50500,156,505
2012/06/11,50500,51400,50500,51200,110,512
2012/06/12,51500,53000,51200,53000,150,530
2012/06/13,53000,53000,51800,52200,109,522
2012/06/14,52300,52300,51700,51800,44,518
2012/06/15,51800,52000,51700,51800,37,518
2012/06/18,52900,52900,52200,52300,83,523
2012/06/19,52300,52500,52100,52500,37,525
2012/06/20,52800,52900,52100,52900,78,529
2012/06/21,52900,52900,52200,52600,45,526
2012/06/22,52200,53000,52200,52900,104,529
2012/06/25,52700,52900,52500,52600,101,526
2012/06/26,52000,52600,51800,51900,207,519
2012/06/27,51200,51200,50500,50600,195,506
2012/06/28,50600,50700,50200,50600,177,506
2012/06/29,50600,50900,50400,50700,152,507
2012/07/02,51300,51400,51000,51100,74,511
2012/07/03,51100,51300,51000,51200,67,512
2012/07/04,51600,51700,51200,51500,63,515
2012/07/05,51400,51400,51000,51400,86,514
2012/07/06,51000,51200,50700,50700,133,507
2012/07/09,50700,51000,50600,50700,89,507
2012/07/10,51000,51000,50800,50800,31,508
2012/07/11,50800,51000,50600,50700,73,507
2012/07/12,50700,51100,50700,50800,95,508
2012/07/13,51000,51000,50700,50900,79,509
2012/07/17,51000,51000,50200,50700,141,507
2012/07/18,50700,51000,50600,50600,62,506
2012/07/19,50600,50800,50400,50400,30,504
2012/07/20,50500,50500,50200,50300,73,503
2012/07/23,50500,50500,49800,49800,208,498
2012/07/26,50000,50000,49700,49900,62,499
2012/07/27,49750,50200,49750,49900,62,499
2012/07/30,49950,50700,49750,50700,126,507
2012/07/31,50700,50700,50400,50500,30,505
2012/08/01,50200,50300,49950,50000,36,500
2012/08/02,50400,50400,50000,50100,39,501
2012/08/07,49950,50000,49900,50000,29,500
2012/08/08,50000,50200,49950,50000,120,500
2012/08/09,50300,50300,49900,50200,131,502
2012/08/10,50200,50200,50000,50200,32,502
2012/08/13,50100,50400,50100,50300,49,503
2012/08/14,50500,51400,50400,51400,129,514
2012/08/15,51500,51700,50600,51200,121,512
2012/08/16,51500,51500,51200,51400,103,514
2012/08/17,51500,51500,50500,51000,121,510
2012/08/20,50900,51500,50900,51000,80,510
2012/08/21,51100,51700,51000,51500,50,515
2012/08/22,51600,51600,51200,51400,43,514
2012/08/23,51800,52000,51100,52000,105,520
2012/08/24,51900,51900,51100,51600,28,516
2012/08/27,51700,51900,51200,51400,46,514
2012/08/28,51300,51600,50900,51100,54,511
2012/08/29,51000,51200,50800,50800,52,508
2012/08/30,51100,51400,50800,50900,26,509
2012/08/31,50800,50900,50200,50900,70,509
2012/09/03,50900,51100,50900,51100,25,511
2012/09/04,50900,51000,50500,51000,33,510
2012/09/05,50900,51000,50400,50700,39,507
2012/09/06,50900,50900,50400,50400,53,504
2012/09/07,50500,50600,50200,50500,47,505
2012/09/10,51000,51300,50600,50700,60,507
2012/09/11,50900,51100,50600,50700,47,507
2012/09/12,51000,51000,50600,51000,51,510
2012/09/13,51100,51100,50700,51000,28,510
2012/09/14,51500,51500,51100,51200,90,512
2012/09/18,51700,51700,51400,51600,136,516
2012/09/19,51600,51700,51400,51700,58,517
2012/09/20,51700,51700,51500,51600,27,516
2012/09/21,51400,51600,51400,51500,70,515
2012/09/24,51600,51700,51600,51700,33,517
2012/09/25,51600,51700,51400,51700,77,517
2012/09/26,51700,52100,51500,52000,85,520
2012/09/27,52400,52600,52200,52600,88,526
2012/09/28,52600,53200,52600,52900,119,529
2012/10/01,53400,54000,53100,53600,135,536
2012/10/02,53600,53600,52600,52700,144,527
2012/10/03,53300,53300,52700,52900,40,529
2012/10/04,53000,53000,52700,52800,38,528
2012/10/05,52800,52900,52700,52700,62,527
2012/10/09,53000,53000,52600,53000,109,530
2012/10/10,52900,52900,52600,52800,52,528
2012/10/11,52700,52900,52600,52600,41,526
2012/10/12,52700,52900,51800,52000,156,520
2012/10/15,52000,52200,51800,52000,77,520
2012/10/16,52600,52600,51900,51900,112,519
2012/10/17,52700,52700,51900,52000,109,520
2012/10/18,52400,52500,51900,52500,164,525
2012/10/19,52700,53100,52500,53000,78,530
2012/10/22,53000,53900,52900,53900,129,539
2012/10/23,54000,54000,52900,53000,164,530
2012/10/24,53000,53500,52900,53500,52,535
2012/10/25,53500,53900,53400,53900,98,539
2012/10/26,53800,53900,53600,53800,47,538
2012/10/29,53800,54100,53600,54000,90,540
2012/10/30,54100,54200,53900,54000,91,540
2012/10/31,53000,53800,52600,53600,238,536
2012/11/01,54000,54000,53500,53600,35,536
2012/11/02,53600,53900,53500,53900,68,539
2012/11/05,53600,53800,53500,53800,70,538
2012/11/06,53900,53900,53400,53400,111,534
2012/11/07,53000,53400,53000,53400,85,534
2012/11/08,53200,53200,53000,53000,71,530
2012/11/09,53200,53200,52800,52900,71,529
2012/11/12,53000,53200,52900,52900,64,529
2012/11/13,52900,53000,52300,52500,137,525
2012/11/14,52500,52800,52000,52400,149,524
2012/11/15,52700,53000,52100,53000,81,530
2012/11/16,53300,53300,52900,53000,73,530
2012/11/19,52800,53600,52800,53400,92,534
2012/11/20,53800,53800,53500,53800,44,538
2012/11/21,53800,53900,53200,53300,127,533
2012/11/22,54000,54000,53600,53900,90,539
2012/11/26,54200,54200,53700,53900,129,539
2012/11/27,54100,54300,54000,54300,78,543
2012/11/28,54400,55300,54100,54800,255,548
2012/11/29,54800,55100,54700,55000,152,550
2012/11/30,54700,54800,53500,54600,524,546
2012/12/03,54800,55200,54600,55000,199,550
2012/12/04,55100,55100,54900,55100,158,551
2012/12/05,55000,55000,54800,55000,151,550
2012/12/06,55100,55100,54700,55000,153,550
2012/12/07,55100,55100,54200,55100,264,551
2012/12/10,55200,55200,54900,55000,183,550
2012/12/11,55000,55200,54800,55200,142,552
2012/12/12,55500,55500,55100,55500,162,555
2012/12/13,55600,55800,55600,55700,184,557
2012/12/14,55800,56000,55600,56000,199,560
2012/12/17,56400,56800,56100,56600,350,566
2012/12/18,56700,57000,56000,56700,264,567
2012/12/19,56800,57000,56700,57000,195,570
2012/12/20,57000,57000,56600,56700,247,567
2012/12/21,56700,56900,56500,56700,279,567
2012/12/25,56700,57300,56700,57300,1499,573
2012/12/26,54500,54700,54100,54600,1061,546
2012/12/27,54400,54500,54100,54200,322,542
2012/12/28,54200,57200,54100,54900,443,549
2013/01/04,55900,55900,54500,54700,290,547
2013/01/07,54800,55100,54600,54600,260,546
2013/01/08,55100,55200,54700,55100,235,551
2013/01/09,55100,55500,55000,55400,217,554
2013/01/10,55400,55400,55200,55400,131,554
2013/01/11,55500,55500,55000,55400,182,554
2013/01/15,56600,56600,55400,56000,389,560
2013/01/16,56300,56300,55600,56200,267,562
2013/01/17,56200,56300,55400,56000,294,560
2013/01/18,56000,56300,55400,55700,210,557
2013/01/21,56000,56000,55600,55900,244,559
2013/01/22,56200,56300,55900,56100,279,561
2013/01/23,56100,56400,56100,56200,194,562
2013/01/24,56300,56400,56000,56200,168,562
2013/01/25,56300,56500,56000,56500,382,565
2013/01/28,56500,56600,56300,56300,366,563
2013/01/29,56400,57100,56300,56900,356,569
2013/01/30,57000,57200,56900,57200,160,572
2013/01/31,57300,57600,57300,57500,226,575
2013/02/01,57600,58200,57200,57400,573,574
2013/02/04,57500,58300,57500,58300,212,583
2013/02/05,58300,59000,57700,58000,272,580
2013/02/06,58000,58000,57600,58000,194,580
2013/02/07,57900,58100,56700,57000,313,570
2013/02/08,57100,57600,57000,57000,80,570
2013/02/12,57000,57300,56000,56100,304,561
2013/02/13,56300,56600,56100,56100,147,561
2013/02/14,56100,56100,55800,56000,177,560
2013/02/15,56900,56900,55300,55600,325,556
2013/02/18,56000,57300,55800,57300,171,573
2013/02/19,57500,57700,56500,57700,357,577
2013/02/20,57600,57700,56800,57600,166,576
2013/02/21,57600,57800,57500,57700,84,577
2013/02/22,57400,57900,56800,56800,307,568
2013/02/25,57000,57900,57000,57700,512,577
2013/02/26,57600,58100,57500,58100,365,581
2013/02/27,58200,58800,58200,58400,686,584
2013/02/28,58900,60000,58500,59400,696,594
2013/03/01,59800,60500,59700,60500,817,605
2013/03/04,61500,62200,61400,61500,874,615
2013/03/05,62000,62100,61600,62000,308,620
2013/03/06,62100,62200,61800,62100,361,621
2013/03/07,62100,62200,61900,62000,286,620
2013/03/08,62100,62300,61900,62000,383,620
2013/03/11,62000,62100,61700,61800,425,618
2013/03/12,61900,62200,61800,62100,271,621
2013/03/13,62100,62200,61700,61700,460,617
2013/03/14,62200,62200,61800,62000,556,620
2013/03/15,62300,63100,62200,63100,525,631
2013/03/18,63200,64000,63100,63900,589,639
2013/03/19,64000,64500,63900,64400,470,644
2013/03/21,64800,66200,64700,66100,685,661
2013/03/22,66400,70600,66400,69500,1485,695
2013/03/25,70000,70900,69800,70400,756,704
2013/03/26,70400,78000,70000,74800,1540,748
2013/03/27,73500,77200,73500,76500,1613,765
2013/03/28,77000,78500,73700,75500,1672,755
2013/03/29,74100,76500,71000,74200,1400,742
2013/04/01,74300,74700,70400,70500,1151,705
2013/04/02,70100,70100,62400,69500,1307,695
2013/04/03,69800,70700,69000,69700,421,697
2013/04/04,69200,71500,65300,71300,507,713
2013/04/05,72100,72700,71100,71400,432,714
2013/04/08,71500,73900,71100,73800,911,738
2013/04/09,74000,74300,72600,72600,433,726
2013/04/10,72600,73000,71900,72200,326,722
2013/04/11,72600,73000,72100,72500,260,725
2013/04/12,72800,72800,72300,72600,117,726
2013/04/15,72500,72500,71800,72500,275,725
2013/04/16,71700,72200,71700,72000,246,720
2013/04/17,72300,72900,71900,72500,361,725
2013/04/18,72500,73500,72200,73100,366,731
2013/04/19,73300,73800,73000,73600,239,736
2013/04/22,74000,74700,73600,73900,610,739
2013/04/23,74300,74800,74000,74800,310,748
2013/04/24,75000,76000,73800,74500,700,745
2013/04/25,74500,74900,74000,74500,218,745
2013/04/26,74600,74700,73700,73700,324,737
2013/04/30,73500,74400,72900,74100,551,741
2013/05/01,70300,71200,69500,70500,1547,705
2013/05/02,70200,71000,70100,71000,505,710
2013/05/07,71400,71800,71000,71700,542,717
2013/05/08,72000,73000,71800,72400,348,724
2013/05/09,72300,72500,71800,71900,447,719
2013/05/10,71700,72200,71500,71600,418,716
2013/05/13,71500,72000,71400,71700,509,717
2013/05/14,71600,72900,71500,72800,490,728
2013/05/15,72900,73000,70600,70800,675,708
2013/05/16,70800,71100,66000,69200,887,692
2013/05/17,68300,70800,68300,70500,342,705
2013/05/20,70800,71600,70600,71100,224,711
2013/05/21,71300,71900,70500,70600,443,706
2013/05/22,70600,70900,70300,70400,226,704
2013/05/23,70400,70500,67500,67600,594,676
2013/05/24,67700,69000,66100,67800,526,678
2013/05/27,67000,67200,65100,66500,263,665
2013/05/28,65100,66400,65100,65900,259,659
2013/05/29,66300,68200,65900,67800,312,678
2013/05/30,67900,68000,66900,67800,253,678
2013/05/31,67300,68300,66900,67000,363,670
2013/06/03,66800,67300,66400,66400,254,664
2013/06/04,66200,66400,64400,64700,425,647
2013/06/05,65500,66500,65200,65600,334,656
2013/06/06,65200,65300,64300,64300,347,643
2013/06/07,63600,63700,60000,61800,573,618
2013/06/10,62200,64200,62200,64000,253,640
2013/06/11,64200,64900,63500,63700,169,637
2013/06/12,63700,64700,62700,64200,178,642
2013/06/13,64100,64300,62800,63000,283,630
2013/06/14,63200,63700,62500,62500,311,625
2013/06/17,63100,64700,62600,64000,278,640
2013/06/18,64400,64500,63500,63600,324,636
2013/06/19,64000,64800,63800,64400,255,644
2013/06/20,64600,64600,63800,64200,350,642
2013/06/21,62900,64000,62800,63600,218,636
2013/06/24,64100,65000,64100,64800,382,648
2013/06/25,64200,64800,63800,63900,466,639
2013/06/26,627,629,619,620,14200,620
2013/06/27,620,628,616,628,18900,628
2013/06/28,620,638,616,635,22600,635
2013/07/01,641,641,636,641,13100,641
2013/07/02,647,659,644,657,23300,657
2013/07/03,661,661,655,657,13500,657
2013/07/04,658,669,657,666,17500,666
2013/07/05,668,670,664,669,8700,669
2013/07/08,672,679,672,672,55600,672
2013/07/09,676,679,670,673,18400,673
2013/07/10,675,675,669,669,8100,669
2013/07/11,669,670,668,668,7700,668
2013/07/12,670,678,669,672,15000,672
2013/07/16,676,684,673,677,16300,677
2013/07/17,677,681,676,676,7500,676
2013/07/18,677,680,674,677,12800,677
2013/07/19,675,681,666,666,18100,666
2013/07/22,670,670,661,663,18400,663
2013/07/23,663,665,661,664,8600,664
2013/07/24,664,665,662,662,9000,662
2013/07/25,665,665,660,660,13100,660
2013/07/26,660,661,653,655,19800,655
2013/07/29,653,654,641,641,52300,641
2013/07/30,640,640,630,634,26900,634
2013/07/31,638,638,632,636,10800,636
2013/08/01,636,636,625,634,27400,634
2013/08/02,639,645,638,641,13700,641
2013/08/05,642,646,638,639,11000,639
2013/08/06,639,641,637,640,11000,640
2013/08/07,640,641,630,632,18300,632
2013/08/08,632,635,631,631,5500,631
2013/08/09,631,633,629,629,8400,629
2013/08/12,629,630,621,626,15000,626
2013/08/13,626,629,625,629,5700,629
2013/08/14,629,634,629,634,13400,634
2013/08/15,635,638,632,635,11100,635
2013/08/16,636,636,627,632,15500,632
2013/08/19,636,641,634,636,13700,636
2013/08/20,640,642,636,639,7800,639
2013/08/21,640,640,630,636,14000,636
2013/08/22,637,641,634,641,11300,641
2013/08/23,641,641,635,638,10100,638
2013/08/26,642,642,638,640,11300,640
2013/08/27,639,639,635,637,10000,637
2013/08/28,636,636,630,632,15400,632
2013/08/29,630,632,625,628,15800,628
2013/08/30,631,631,624,626,13200,626
2013/09/02,634,635,628,630,6600,630
2013/09/03,634,637,632,637,10900,637
2013/09/04,638,642,638,642,10400,642
2013/09/05,642,642,639,642,3700,642
2013/09/06,642,643,640,643,7000,643
2013/09/09,647,656,647,656,21000,656
2013/09/10,657,666,657,660,29600,660
2013/09/11,661,664,656,664,24800,664
2013/09/12,664,664,654,655,16600,655
2013/09/13,656,664,656,664,17700,664
2013/09/17,667,670,664,665,27100,665
2013/09/18,671,673,667,667,10000,667
2013/09/19,672,673,667,671,12200,671
2013/09/20,674,677,670,675,22400,675
2013/09/24,675,679,675,676,19300,676
2013/09/25,677,680,674,676,16900,676
2013/09/26,677,679,672,679,13700,679
2013/09/27,680,684,678,684,21600,684
2013/09/30,685,687,683,685,26700,685
2013/10/01,685,688,681,681,29900,681
2013/10/02,681,684,672,672,33600,672
2013/10/03,675,682,673,674,17200,674
2013/10/04,673,682,666,674,30200,674
2013/10/07,672,678,670,677,15800,677
2013/10/08,675,683,675,683,16200,683
2013/10/09,680,685,677,685,15400,685
2013/10/10,686,692,682,688,19900,688
2013/10/11,694,699,693,699,19000,699
2013/10/15,702,707,701,707,19300,707
2013/10/16,707,710,703,704,22500,704
2013/10/17,704,712,704,706,15400,706
2013/10/18,702,711,701,707,25600,707
2013/10/21,710,716,710,716,21400,716
2013/10/22,718,719,709,713,29100,713
2013/10/23,717,719,701,707,29600,707
2013/10/24,708,714,706,714,13200,714
2013/10/25,715,717,707,708,16900,708
2013/10/28,714,714,707,711,16800,711
2013/10/29,711,712,708,709,9300,709
2013/10/30,710,715,705,713,23300,713
2013/10/31,692,693,681,684,97500,684
2013/11/01,677,679,670,678,44000,678
2013/11/05,679,700,678,696,77700,696
2013/11/06,697,704,697,701,20000,701
2013/11/07,704,721,704,706,38500,706
2013/11/08,704,706,701,703,12900,703
2013/11/11,704,709,702,702,14500,702
2013/11/12,710,713,701,712,32600,712
2013/11/13,712,712,703,708,17400,708
2013/11/14,710,721,707,709,54400,709
2013/11/15,711,716,706,713,27900,713
2013/11/18,713,714,709,714,28700,714
2013/11/19,712,717,710,714,29400,714
2013/11/20,717,728,716,726,49700,726
2013/11/21,720,740,720,737,65100,737
2013/11/22,734,740,733,734,62300,734
2013/11/25,740,788,738,783,132800,783
2013/11/26,777,781,761,763,38400,763
2013/11/27,763,763,744,759,29500,759
2013/11/28,759,786,756,786,49000,786
2013/11/29,786,788,770,786,32600,786
2013/12/02,787,799,787,793,48400,793
2013/12/03,796,815,786,794,78000,794
2013/12/04,792,792,776,781,37800,781
2013/12/05,778,789,773,780,61900,780
2013/12/06,772,778,769,777,23100,777
2013/12/09,784,788,781,785,20100,785
2013/12/10,785,789,778,782,17600,782
2013/12/11,780,785,777,780,15100,780
2013/12/12,778,778,771,774,21900,774
2013/12/13,770,776,766,773,44700,773
2013/12/16,771,773,763,763,41700,763
2013/12/17,762,782,762,778,37400,778
2013/12/18,777,780,774,777,21300,777
2013/12/19,779,785,777,785,56100,785
2013/12/20,784,790,781,786,52500,786
2013/12/24,779,788,775,775,73500,775
2013/12/25,768,774,761,767,137900,767
2013/12/26,755,759,743,757,69800,757
2013/12/27,757,771,757,769,38300,769
2013/12/30,772,779,757,774,39400,774
2014/01/06,762,773,762,768,33800,768
2014/01/07,772,775,767,767,19600,767
2014/01/08,772,773,765,773,17700,773
2014/01/09,770,770,765,768,10500,768
2014/01/10,768,774,760,771,19400,771
2014/01/14,765,766,760,761,18300,761
2014/01/15,765,769,759,769,26200,769
2014/01/16,770,775,764,769,23000,769
2014/01/17,773,774,766,770,14300,770
2014/01/20,773,777,761,776,55200,776
2014/01/21,772,775,767,772,38900,772
2014/01/22,773,779,767,776,18500,776
2014/01/23,777,777,768,768,10800,768
2014/01/24,756,761,755,759,21400,759
2014/01/27,737,755,721,741,26200,741
2014/01/28,742,753,742,746,18500,746
2014/01/29,767,770,754,767,52600,767
2014/01/30,800,870,791,853,294700,853
2014/01/31,860,860,812,834,176900,834
2014/02/03,815,831,794,829,69300,829
2014/02/04,795,823,773,817,81600,817
2014/02/05,826,829,795,823,62300,823
2014/02/06,819,830,813,829,41000,829
2014/02/07,830,884,829,867,101300,867
2014/02/10,899,899,884,891,61100,891
2014/02/12,893,894,865,881,57700,881
2014/02/13,878,880,860,873,31000,873
2014/02/14,877,881,855,869,31500,869
2014/02/17,871,896,856,886,42900,886
2014/02/18,878,917,878,915,48900,915
2014/02/19,916,924,900,917,31300,917
2014/02/20,919,919,897,919,20300,919
2014/02/21,919,930,905,930,31200,930
2014/02/24,925,946,918,932,47700,932
2014/02/25,936,940,929,932,22800,932
2014/02/26,931,935,905,921,22000,921
2014/02/27,907,926,884,906,21000,906
2014/02/28,896,907,886,900,17300,900
2014/03/03,877,902,861,900,36500,900
2014/03/04,885,948,885,944,35900,944
2014/03/05,950,1013,949,995,140500,995
2014/03/06,1008,1011,978,979,53400,979
2014/03/07,990,1000,981,990,41100,990
2014/03/10,990,997,983,994,24500,994
2014/03/11,994,1007,988,989,30200,989
2014/03/12,983,986,955,967,39700,967
2014/03/13,954,978,954,964,24600,964
2014/03/14,955,960,927,948,64300,948
2014/03/17,950,950,899,929,43400,929
2014/03/18,930,968,929,947,45500,947
2014/03/19,953,956,927,936,43600,936
2014/03/20,926,926,882,888,62500,888
2014/03/24,907,950,900,905,76500,905
2014/03/25,920,938,906,924,58600,924
2014/03/26,950,956,922,939,71900,939
2014/03/27,940,940,926,938,41200,938
2014/03/28,944,966,923,965,51000,965
2014/03/31,970,991,964,990,53600,990
2014/04/01,990,1020,978,1019,55300,1019
2014/04/02,1045,1045,1026,1032,75600,1032
2014/04/03,1035,1044,1022,1041,39500,1041
2014/04/04,1039,1056,1032,1033,56300,1033
2014/04/07,1030,1030,1000,1018,44400,1018
2014/04/08,1000,1008,983,985,36900,985
2014/04/09,970,976,950,961,36000,961
2014/04/10,971,986,953,959,34300,959
2014/04/11,947,974,939,962,22200,962
2014/04/14,958,962,953,958,10000,958
2014/04/15,973,981,968,971,14700,971
2014/04/16,986,1007,986,991,24700,991
2014/04/17,1006,1015,982,1012,27100,1012
2014/04/18,990,1015,985,1008,24000,1008
2014/04/21,1015,1015,976,980,16500,980
2014/04/22,995,1007,988,989,16700,989
2014/04/23,1009,1032,1009,1029,49700,1029
2014/04/24,1035,1045,1027,1031,24100,1031
2014/04/25,1035,1039,1020,1032,21600,1032
2014/04/28,1030,1030,1001,1026,34900,1026
2014/04/30,1010,1020,997,1014,53900,1014
2014/05/01,997,1012,983,994,53800,994
2014/05/02,1001,1008,972,975,39100,975
2014/05/07,970,970,932,932,63800,932
2014/05/08,928,954,913,913,36500,913
2014/05/09,902,909,898,903,26100,903
2014/05/12,905,906,880,884,23700,884
2014/05/13,880,888,863,883,32400,883
2014/05/14,880,898,873,896,13900,896
2014/05/15,897,900,882,892,14200,892
2014/05/16,890,890,856,860,26000,860
2014/05/19,855,859,816,817,51000,817
2014/05/20,816,831,808,829,18600,829
2014/05/21,829,836,824,829,14000,829
2014/05/22,840,841,828,830,16000,830
2014/05/23,830,848,830,837,18400,837
2014/05/26,846,875,838,875,44100,875
2014/05/27,875,888,857,864,34400,864
2014/05/28,866,883,865,881,28100,881
2014/05/29,888,901,880,900,39400,900
2014/05/30,901,921,901,913,19300,913
2014/06/02,927,947,922,940,36900,940
2014/06/03,950,969,945,965,38600,965
2014/06/04,968,984,959,977,29300,977
2014/06/05,984,985,958,962,21100,962
2014/06/06,955,979,950,979,20100,979
2014/06/09,980,988,974,976,20700,976
2014/06/10,973,975,959,959,15800,959
2014/06/11,956,978,955,966,20300,966
2014/06/12,957,972,956,970,5700,970
2014/06/13,970,983,964,981,31700,981
2014/06/16,990,992,971,980,25700,980
2014/06/17,981,991,973,979,21500,979
2014/06/18,987,992,981,988,19800,988
2014/06/19,989,995,979,985,25000,985
2014/06/20,984,984,969,979,23300,979
2014/06/23,978,979,955,974,27200,974
2014/06/24,978,979,970,979,13000,979
2014/06/25,977,978,961,969,20600,969
2014/06/26,963,965,949,950,17700,950
2014/06/27,943,949,923,935,31900,935
2014/06/30,923,955,920,953,19200,953
2014/07/01,953,976,953,965,44000,965
2014/07/02,959,978,941,942,42500,942
2014/07/03,945,954,942,951,12500,951
2014/07/04,947,952,947,947,10400,947
2014/07/07,948,953,941,945,11000,945
2014/07/08,945,960,943,960,15000,960
2014/07/09,959,959,946,952,28700,952
2014/07/10,960,960,941,944,20600,944
2014/07/11,941,942,935,940,9500,940
2014/07/14,936,941,932,938,8300,938
2014/07/15,933,940,931,939,16000,939
2014/07/16,940,943,920,924,26700,924
2014/07/17,917,934,900,907,33500,907
2014/07/18,886,899,870,885,59300,885
2014/07/22,886,896,885,896,20200,896
2014/07/23,896,908,894,906,13100,906
2014/07/24,921,922,911,922,16900,922
2014/07/25,918,930,918,928,11800,928
2014/07/28,930,944,925,943,27700,943
2014/07/29,947,950,912,927,52000,927
2014/07/30,867,877,836,840,259700,840
2014/07/31,840,845,825,841,112900,841
2014/08/01,843,845,831,839,33300,839
2014/08/04,842,844,837,839,30900,839
2014/08/05,842,844,835,837,29200,837
2014/08/06,834,840,831,838,36500,838
2014/08/07,838,839,828,837,17400,837
2014/08/08,835,835,826,831,24500,831
2014/08/11,840,848,838,846,18100,846
2014/08/12,861,866,851,862,78000,862
2014/08/13,867,874,861,864,37400,864
2014/08/14,864,870,863,870,14800,870
2014/08/15,867,872,863,872,13800,872
2014/08/18,873,877,872,875,34900,875
2014/08/19,877,877,872,874,34300,874
2014/08/20,876,883,872,872,43700,872
2014/08/21,870,870,853,862,49800,862
2014/08/22,859,881,857,861,35400,861
2014/08/25,868,872,866,869,23400,869
2014/08/26,872,877,860,863,46300,863
2014/08/27,870,872,852,857,46400,857
2014/08/28,857,859,844,849,44900,849
2014/08/29,854,854,846,852,31800,852
2014/09/01,858,858,849,850,33600,850
2014/09/02,851,855,849,853,27600,853
2014/09/03,859,862,853,856,36600,856
2014/09/04,861,861,857,857,22600,857
2014/09/05,857,859,840,845,57800,845
2014/09/08,854,862,850,861,30700,861
2014/09/09,865,865,856,856,24900,856
2014/09/10,860,860,856,857,14600,857
2014/09/11,868,869,861,864,33700,864
2014/09/12,862,865,853,857,77800,857
2014/09/16,857,867,856,866,47400,866
2014/09/17,870,870,866,867,28400,867
2014/09/18,867,869,863,869,20100,869
2014/09/19,867,870,861,868,27200,868
2014/09/22,867,870,865,870,27600,870
2014/09/24,869,874,868,871,39700,871
2014/09/25,874,899,873,895,59900,895
2014/09/26,892,919,892,910,45200,910
2014/09/29,919,934,915,918,28500,918
2014/09/30,917,924,897,904,32800,904
2014/10/01,915,918,909,909,13100,909
2014/10/02,892,893,877,880,44900,880
2014/10/03,890,896,885,887,27900,887
2014/10/06,897,920,896,915,33400,915
2014/10/07,918,919,901,905,37200,905
2014/10/08,881,903,881,896,21200,896
2014/10/09,900,900,884,885,18000,885
2014/10/10,881,883,870,873,28700,873
2014/10/14,860,869,850,856,37100,856
2014/10/15,863,874,857,864,20500,864
2014/10/16,860,860,842,847,40600,847
2014/10/17,847,857,831,831,18400,831
2014/10/20,861,866,853,864,18900,864
2014/10/21,868,868,844,850,26200,850
2014/10/22,864,864,850,857,31600,857
2014/10/23,862,866,853,860,18700,860
2014/10/24,866,868,855,860,33700,860
2014/10/27,865,875,865,870,14600,870
2014/10/28,877,888,873,881,31400,881
2014/10/29,887,892,883,892,26200,892
2014/10/30,884,889,853,863,139700,863
2014/10/31,869,870,856,869,48100,869
2014/11/04,876,881,864,870,66700,870
2014/11/05,867,877,867,873,46000,873
2014/11/06,877,886,871,873,30100,873
2014/11/07,870,885,868,879,37500,879
2014/11/10,880,895,880,889,32200,889
2014/11/11,885,892,884,890,22400,890
2014/11/12,894,895,886,886,36300,886
2014/11/13,889,891,884,890,19500,890
2014/11/14,891,891,874,889,36300,889
2014/11/17,890,890,874,876,34200,876
2014/11/18,875,880,875,877,22100,877
2014/11/19,879,887,879,882,15900,882
2014/11/20,881,886,881,884,13000,884
2014/11/21,886,887,880,882,12800,882
2014/11/25,882,887,882,886,11200,886
2014/11/26,886,889,886,887,19100,887
2014/11/27,888,890,887,889,11400,889
2014/11/28,892,896,889,889,26600,889
2014/12/01,893,896,889,890,33200,890
2014/12/02,891,893,890,893,12100,893
2014/12/03,892,894,888,890,42000,890
2014/12/04,887,893,887,892,20200,892
2014/12/05,895,899,891,895,33300,895
2014/12/08,896,902,895,901,35400,901
2014/12/09,898,913,896,897,46100,897
2014/12/10,893,904,891,901,38700,901
2014/12/11,900,908,894,908,29800,908
2014/12/12,909,916,908,914,54700,914
2014/12/15,916,928,912,912,36600,912
2014/12/16,912,913,894,899,54400,899
2014/12/17,891,900,877,877,54400,877
2014/12/18,895,895,884,888,27500,888
2014/12/19,907,912,896,904,36900,904
2014/12/22,906,918,906,914,32900,914
2014/12/24,929,934,917,931,59300,931
2014/12/25,921,931,918,918,87700,918
2014/12/26,900,921,891,917,87900,917
2014/12/29,915,915,899,906,29400,906
2014/12/30,906,910,901,902,12100,902
2015/01/05,890,903,890,897,22600,897
2015/01/06,899,899,887,887,26400,887
2015/01/07,885,887,881,883,16300,883
2015/01/08,883,886,881,885,12300,885
2015/01/09,879,890,878,883,15900,883
2015/01/13,863,872,861,871,27900,871
2015/01/14,858,867,856,859,16900,859
2015/01/15,859,871,858,871,14700,871
2015/01/16,871,871,860,866,22800,866
2015/01/19,859,867,857,857,18800,857
2015/01/20,872,872,862,872,11200,872
2015/01/21,872,879,867,871,7900,871
2015/01/22,869,871,861,868,16700,868
2015/01/23,878,878,871,876,6800,876
2015/01/26,875,878,871,878,11800,878
2015/01/27,840,841,811,824,164500,824
2015/01/28,824,838,821,838,38500,838
2015/01/29,843,843,817,827,38800,827
2015/01/30,836,844,832,834,63300,834
2015/02/02,846,846,820,836,58500,836
2015/02/03,840,840,824,826,22200,826
2015/02/04,828,837,827,830,19600,830
2015/02/05,830,837,821,836,23900,836
2015/02/06,836,838,834,834,11000,834
2015/02/09,835,850,835,842,20100,842
2015/02/10,843,845,830,832,33900,832
2015/02/12,845,845,826,830,48500,830
2015/02/13,837,837,830,836,16400,836
2015/02/16,840,846,839,843,24100,843
2015/02/17,847,851,842,850,16700,850
2015/02/18,855,859,845,853,32000,853
2015/02/19,853,865,851,864,18300,864
2015/02/20,865,867,860,867,12800,867
2015/02/23,873,874,862,864,20100,864
2015/02/24,862,866,861,865,22100,865
2015/02/25,870,870,862,865,12800,865
2015/02/26,863,865,860,865,23100,865
2015/02/27,865,865,852,855,20400,855
2015/03/02,857,870,857,860,17500,860
2015/03/03,861,869,860,863,10700,863
2015/03/04,865,868,862,866,9600,866
2015/03/05,865,867,863,865,13700,865
2015/03/06,866,866,862,866,15300,866
2015/03/09,866,867,861,866,14600,866
2015/03/10,867,872,865,871,14400,871
2015/03/11,864,871,864,869,11400,869
2015/03/12,866,872,866,868,17000,868
2015/03/13,872,875,869,874,29700,874
2015/03/16,880,891,874,879,28300,879
2015/03/17,881,899,879,886,21500,886
2015/03/18,890,899,888,895,20600,895
2015/03/19,900,903,895,897,16100,897
2015/03/20,899,909,888,905,22800,905
2015/03/23,910,920,910,918,19300,918
2015/03/24,918,923,915,921,17300,921
2015/03/25,920,924,916,918,17100,918
2015/03/26,918,918,904,910,16700,910
2015/03/27,901,914,900,900,16000,900
2015/03/30,899,899,886,893,18400,893
2015/03/31,895,905,891,897,11500,897
2015/04/01,893,909,893,904,19500,904
2015/04/02,906,909,902,905,13500,905
2015/04/03,905,911,905,911,16300,911
2015/04/06,912,917,911,913,9800,913
2015/04/07,914,922,913,915,17900,915
2015/04/08,920,921,915,915,16700,915
2015/04/09,918,920,911,917,19300,917
2015/04/10,921,924,915,917,21600,917
2015/04/13,917,921,917,921,12600,921
2015/04/14,920,923,919,920,15500,920
2015/04/15,920,923,917,921,17100,921
2015/04/16,924,924,918,924,16100,924
2015/04/17,925,938,921,936,26100,936
2015/04/20,936,944,924,929,24300,929
2015/04/21,930,938,930,937,8100,937
2015/04/22,940,944,929,936,22600,936
2015/04/23,936,939,920,926,23900,926
2015/04/24,927,929,912,922,20600,922
2015/04/27,915,917,905,913,25000,913
2015/04/28,909,917,905,917,22400,917
2015/04/30,903,913,881,890,77500,890
2015/05/01,890,895,873,881,36300,881
2015/05/07,876,885,873,876,25500,876
2015/05/08,877,892,877,885,20200,885
2015/05/11,899,899,881,890,21700,890
2015/05/12,891,892,883,888,13400,888
2015/05/13,894,895,888,892,7900,892
2015/05/14,892,894,885,887,12900,887
2015/05/15,890,898,890,893,15800,893
2015/05/18,898,903,893,901,18500,901
2015/05/19,900,904,896,899,23500,899
2015/05/20,899,908,899,906,12900,906
2015/05/21,908,916,908,912,18000,912
2015/05/22,920,925,913,917,33200,917
2015/05/25,924,924,914,914,25500,914
2015/05/26,913,919,913,913,11700,913
2015/05/27,913,924,911,920,15600,920
2015/05/28,924,925,916,916,21700,916
2015/05/29,916,922,911,913,21000,913
2015/06/01,909,914,909,909,26500,909
2015/06/02,913,914,908,910,15300,910
2015/06/03,900,913,900,906,32500,906
2015/06/04,909,940,909,929,61400,929
2015/06/05,927,933,922,922,28400,922
2015/06/08,930,930,921,921,20700,921
2015/06/09,922,923,919,919,16800,919
2015/06/10,922,929,917,923,20200,923
2015/06/11,924,929,922,925,19800,925
2015/06/12,927,933,922,925,48700,925
2015/06/15,928,933,926,927,36100,927
2015/06/16,925,931,925,926,22100,926
2015/06/17,927,931,924,924,18200,924
2015/06/18,923,925,912,916,31500,916
2015/06/19,916,928,915,919,24000,919
2015/06/22,920,926,920,926,23900,926
2015/06/23,926,928,924,926,36100,926
2015/06/24,926,928,925,927,38700,927
2015/06/25,925,928,920,920,123900,920
2015/06/26,905,912,902,911,79300,911
2015/06/29,900,903,890,903,49000,903
2015/06/30,900,903,891,897,32800,897
2015/07/01,898,905,896,902,12900,902
