2011/01/05,30300,30300,30200,30200,22,302
2011/01/06,30050,30050,28860,29900,50,299
2011/01/13,28850,29300,28850,29300,13,293
2011/01/17,29300,29300,28500,28500,31,285
2011/01/19,28600,28600,28600,28600,1,286
2011/01/20,29600,29600,29600,29600,5,296
2011/01/21,29000,29000,28800,28800,8,288
2011/01/24,28800,28800,28500,28700,6,287
2011/01/25,29000,29000,28100,28800,24,288
2011/01/26,28700,28700,28700,28700,1,287
2011/01/27,28700,28700,28500,28500,6,285
2011/01/28,28300,28800,28300,28800,8,288
2011/01/31,28300,28300,26700,28000,52,280
2011/02/02,29000,29000,28000,28000,25,280
2011/02/04,28870,29300,28870,29300,13,293
2011/02/07,29270,30100,29270,30100,10,301
2011/02/10,30400,30400,30400,30400,1,304
2011/02/14,29600,29600,29200,29200,23,292
2011/02/16,29220,30000,29220,29900,18,299
2011/02/21,29780,29860,29700,29800,129,298
2011/02/22,29500,29600,29400,29400,43,294
2011/02/24,29490,29490,28800,28800,6,288
2011/02/25,30000,30000,29500,29500,16,295
2011/02/28,29010,29500,29000,29100,15,291
2011/03/04,29150,29800,29150,29300,4,293
2011/03/08,29500,31500,29500,31400,45,314
2011/03/09,30700,30700,29200,30100,26,301
2011/03/10,30100,30100,29600,29600,35,296
2011/03/11,29500,29600,29100,29100,25,291
2011/03/14,27100,27100,25220,26300,64,263
2011/03/15,25500,25500,21300,21300,118,213
2011/03/16,19800,24000,19800,22000,41,220
2011/03/17,20800,22000,20700,22000,14,220
2011/03/18,21500,24500,21500,24000,44,240
2011/03/22,25000,26700,25000,26500,9,265
2011/03/23,26500,26500,25900,25900,9,259
2011/03/24,26000,26010,25990,26000,68,260
2011/03/28,25400,25500,25400,25500,6,255
2011/03/29,25100,25100,24500,24500,13,245
2011/03/31,24000,24000,23000,23600,35,236
2011/04/01,24020,25000,24020,25000,8,250
2011/04/04,26000,26000,26000,26000,18,260
2011/04/05,26100,26200,26000,26200,14,262
2011/04/07,25200,25200,25200,25200,1,252
2011/04/08,25000,25000,24300,24300,13,243
2011/04/15,24970,25000,24970,25000,2,250
2011/04/19,24500,24500,24500,24500,11,245
2011/04/20,24500,24500,24500,24500,1,245
2011/04/21,25000,25190,25000,25100,5,251
2011/04/22,25200,26000,25200,26000,12,260
2011/04/25,26000,26600,26000,26600,12,266
2011/04/28,26300,26700,26300,26700,6,267
2011/05/02,27200,31700,27200,31700,268,317
2011/05/06,28100,33200,28000,32200,229,322
2011/05/09,32000,32000,29400,30100,100,301
2011/05/10,30000,31000,29800,29800,25,298
2011/05/12,29750,30950,29750,30800,63,308
2011/05/13,30000,32000,30000,32000,13,320
2011/05/17,30950,31450,30400,30400,7,304
2011/05/19,30700,31000,30200,30200,8,302
2011/05/20,30000,30100,30000,30100,3,301
2011/05/23,30000,30000,30000,30000,6,300
2011/05/25,30950,30950,29710,30100,18,301
2011/05/26,29600,29600,29600,29600,4,296
2011/05/31,29000,29000,29000,29000,1,290
2011/06/01,30000,30000,29300,29900,26,299
2011/06/08,29210,29210,29200,29200,7,292
2011/06/14,30500,30500,30500,30500,16,305
2011/06/16,31000,31000,31000,31000,20,310
2011/06/20,31800,31800,31750,31800,15,318
2011/06/21,31800,31950,31500,31500,50,315
2011/06/23,30800,31500,30800,31500,7,315
2011/06/24,30000,31800,30000,31400,27,314
2011/06/27,31400,31400,31100,31400,8,314
2011/06/28,31500,31900,31500,31900,8,319
2011/06/29,31900,31900,31900,31900,4,319
2011/07/01,31800,31800,31700,31700,2,317
2011/07/04,31950,31950,31000,31100,20,311
2011/07/05,31000,31500,31000,31500,9,315
2011/07/08,31600,31600,31600,31600,8,316
2011/07/11,31000,31600,31000,31600,6,316
2011/07/12,31950,31950,31600,31600,7,316
2011/07/13,31950,31950,31100,31500,7,315
2011/07/19,31500,31900,31500,31900,2,319
2011/07/20,31950,32000,31000,31300,42,313
2011/07/25,33000,33000,32250,32900,31,329
2011/07/28,32400,32400,31100,32400,26,324
2011/08/01,31900,32000,31050,32000,16,320
2011/08/03,31000,31000,31000,31000,20,310
2011/08/05,30550,30550,30200,30500,16,305
2011/08/08,29400,31500,29400,31500,25,315
2011/08/10,31500,31500,31500,31500,1,315
2011/08/17,30050,30050,30000,30000,2,300
2011/08/18,30100,30100,30000,30000,21,300
2011/08/22,29500,30100,29500,30000,23,300
2011/08/23,29700,30200,29700,30200,14,302
2011/08/24,30500,30600,30500,30500,12,305
2011/08/25,30700,30700,30700,30700,6,307
2011/08/29,31000,31000,31000,31000,6,310
2011/08/30,29610,30800,29610,30800,2,308
2011/09/02,30550,30550,29800,30500,17,305
2011/09/05,30500,30500,30000,30000,4,300
2011/09/07,30550,30600,30000,30600,10,306
2011/09/09,30400,30800,30400,30800,12,308
2011/09/14,29400,31000,29400,29500,25,295
2011/09/15,29400,29800,29400,29800,10,298
2011/09/20,30850,30900,30850,30900,46,309
2011/09/21,30900,30900,30800,30800,2,308
2011/09/26,30900,30900,29000,29000,17,290
2011/09/27,30800,30800,30800,30800,1,308
2011/09/28,29600,30500,29500,29500,13,295
2011/09/29,30900,30900,29500,29500,7,295
2011/10/03,29200,29200,29200,29200,2,292
2011/10/06,30800,30800,30800,30800,5,308
2011/10/07,30900,31900,30900,31900,8,319
2011/10/12,30500,30500,30500,30500,1,305
2011/10/13,29570,29650,29570,29600,11,296
2011/10/19,29550,30000,29000,29500,46,295
2011/10/20,31000,31000,31000,31000,30,310
2011/10/25,31000,31100,30950,31000,36,310
2011/10/27,31000,31300,31000,31300,31,313
2011/10/28,31300,31500,31300,31500,55,315
2011/10/31,32000,32200,32000,32200,60,322
2011/11/01,32000,32050,32000,32000,83,320
2011/11/02,32500,32500,31000,31100,21,311
2011/11/04,32000,32000,32000,32000,15,320
2011/11/07,32000,32000,32000,32000,30,320
2011/11/08,32000,32000,32000,32000,70,320
2011/11/09,32050,32500,32050,32500,85,325
2011/11/11,32400,32500,32000,32000,22,320
2011/11/14,32000,33000,32000,33000,49,330
2011/11/15,32500,32500,32500,32500,1,325
2011/11/17,33200,33800,33000,33800,18,338
2011/11/18,33650,34000,33650,34000,3,340
2011/11/21,33900,33900,33900,33900,2,339
2011/11/22,33700,33900,33700,33900,3,339
2011/11/24,34000,34400,33200,33500,25,335
2011/11/25,34500,34500,34500,34500,15,345
2011/11/28,34500,34500,34050,34400,3,344
2011/11/29,34200,34200,34200,34200,1,342
2011/11/30,34300,34300,34300,34300,4,343
2011/12/01,32900,33500,31600,33500,59,335
2011/12/02,33500,33500,31400,32100,10,321
2011/12/06,32800,32800,32800,32800,2,328
2011/12/07,32900,32900,32900,32900,1,329
2011/12/08,30800,33000,30800,33000,16,330
2011/12/09,31200,32800,31200,32800,15,328
2011/12/12,31550,32050,31550,32000,6,320
2011/12/13,33000,33000,33000,33000,6,330
2011/12/14,33000,33000,31800,32500,4,325
2011/12/15,31300,32000,31300,32000,9,320
2011/12/16,31200,31200,31200,31200,2,312
2011/12/19,31200,31200,31200,31200,2,312
2011/12/20,31100,31100,30000,31000,59,310
2011/12/21,31000,31100,31000,31100,22,311
2011/12/22,31300,31500,31300,31500,4,315
2011/12/26,33600,33600,33600,33600,23,336
2011/12/27,32000,32000,32000,32000,1,320
2011/12/28,31000,31000,31000,31000,4,310
2011/12/29,31000,31500,31000,31500,3,315
2011/12/30,31450,31500,31450,31500,4,315
2012/01/04,31600,32300,31600,32300,11,323
2012/01/05,32100,32200,32100,32200,12,322
2012/01/06,31800,31800,31800,31800,1,318
2012/01/11,31550,31600,31100,31100,9,311
2012/01/12,31050,31050,31000,31000,4,310
2012/01/16,31150,31250,30300,30300,4,303
2012/01/17,30600,30600,30100,30100,16,301
2012/01/20,31300,31300,31300,31300,1,313
2012/01/25,31750,31750,30700,30700,28,307
2012/02/01,31500,31800,31500,31800,10,318
2012/02/02,30600,31000,30600,31000,49,310
2012/02/03,30650,30800,30650,30800,24,308
2012/02/06,30800,31000,30700,30700,10,307
2012/02/07,30700,30700,30600,30600,6,306
2012/02/08,30350,30350,30100,30100,31,301
2012/02/09,30800,30800,30100,30400,3,304
2012/02/10,30400,30400,30000,30000,22,300
2012/02/13,30900,30900,29900,29900,22,299
2012/02/14,29900,30000,29900,30000,21,300
2012/02/16,30250,30250,29800,29800,7,298
2012/02/17,30100,30700,29800,30700,38,307
2012/02/20,30800,31000,30800,31000,19,310
2012/02/21,31000,31000,30300,30800,13,308
2012/02/24,31000,31400,30450,30600,8,306
2012/02/27,30650,31250,30600,30600,18,306
2012/02/28,30600,30600,30600,30600,4,306
2012/02/29,30800,30800,30800,30800,5,308
2012/03/01,30300,30500,30000,30000,24,300
2012/03/02,30700,30800,30100,30800,12,308
2012/03/06,30200,30700,30200,30700,12,307
2012/03/07,30300,30300,30000,30000,20,300
2012/03/08,30200,30500,30200,30500,21,305
2012/03/09,30500,30700,30500,30600,16,306
2012/03/12,30800,30800,30300,30600,14,306
2012/03/13,30350,30600,30200,30600,26,306
2012/03/14,30700,30700,30500,30500,21,305
2012/03/15,30300,30650,30300,30400,5,304
2012/03/16,30400,30900,30350,30900,30,309
2012/03/19,31300,31800,31000,31000,53,310
2012/03/21,31500,31800,31450,31800,21,318
2012/03/22,31850,32000,31850,32000,33,320
2012/03/26,32000,32000,31900,31900,24,319
2012/03/27,31300,32900,31300,32300,52,323
2012/03/28,29700,29700,28900,29200,126,292
2012/04/02,29600,29650,29000,29100,44,291
2012/04/03,29390,29390,29100,29100,11,291
2012/04/04,28900,28950,28900,28900,10,289
2012/04/06,28450,28450,28400,28400,2,284
2012/04/09,28000,28000,26800,27900,17,279
2012/04/10,27900,28000,27900,28000,9,280
2012/04/12,27740,27740,27700,27700,5,277
2012/04/16,28900,28900,28900,28900,25,289
2012/04/17,28800,28900,28800,28900,2,289
2012/04/18,29000,29000,29000,29000,1,290
2012/04/19,29000,29000,28500,29000,3,290
2012/04/20,29000,29000,28500,28500,4,285
2012/04/24,28240,28500,28240,28500,15,285
2012/04/25,28500,28500,28500,28500,18,285
2012/04/26,28490,28490,28400,28400,2,284
2012/05/07,28400,28400,28400,28400,6,284
2012/05/10,26900,26900,26900,26900,6,269
2012/05/11,27000,27020,27000,27000,4,270
2012/05/14,27000,27000,27000,27000,1,270
2012/05/15,27000,27000,26000,26000,10,260
2012/05/18,25810,27510,25810,27400,4,274
2012/05/22,27500,27500,25900,25900,8,259
2012/05/23,26300,26300,26300,26300,1,263
2012/05/25,27800,27800,27800,27800,6,278
2012/06/01,26200,26200,26200,26200,4,262
2012/06/05,23420,24400,23420,24400,3,244
2012/06/06,24400,24900,24400,24900,3,249
2012/06/07,25200,25200,23910,24400,11,244
2012/06/08,24300,24480,23300,23900,36,239
2012/06/12,24000,24500,24000,24500,6,245
2012/06/13,23600,23700,23600,23600,5,236
2012/06/14,23700,24100,23700,24100,4,241
2012/06/15,23600,24100,23600,24100,7,241
2012/06/18,24900,24900,24900,24900,7,249
2012/06/19,24000,24800,24000,24800,10,248
2012/06/20,24700,24700,24700,24700,2,247
2012/06/21,24800,24900,24800,24900,4,249
2012/06/26,24650,25300,24650,25300,2,253
2012/06/28,25200,25200,24800,24800,7,248
2012/06/29,24500,24500,24500,24500,4,245
2012/07/03,25000,25700,24990,25700,8,257
2012/07/05,25790,25790,25500,25500,3,255
2012/07/06,25500,25500,25500,25500,10,255
2012/07/11,25000,26000,24800,24800,31,248
2012/07/12,25300,25700,25300,25700,10,257
2012/07/18,25600,25600,25600,25600,2,256
2012/07/19,25800,25800,25800,25800,3,258
2012/07/23,26000,26000,26000,26000,5,260
2012/07/24,25600,25600,25400,25400,6,254
2012/07/31,23290,23900,23190,23900,16,239
2012/08/02,25050,25800,23800,25400,88,254
2012/08/03,25400,26190,25400,25900,27,259
2012/08/06,25890,25890,25800,25800,18,258
2012/08/07,25800,25800,25800,25800,1,258
2012/08/15,25790,25800,25500,25500,17,255
2012/08/16,25500,25500,25300,25500,24,255
2012/08/17,25500,25500,25500,25500,2,255
2012/08/20,25500,25500,25500,25500,2,255
2012/08/22,25570,25570,25500,25500,5,255
2012/08/23,25500,26000,25500,26000,35,260
2012/08/24,26000,26000,26000,26000,2,260
2012/08/27,26100,26100,26000,26000,10,260
2012/08/29,25230,25500,25230,25500,9,255
2012/08/31,24500,24500,24500,24500,7,245
2012/09/03,24500,24500,24500,24500,1,245
2012/09/12,27900,27900,27700,27700,7,277
2012/09/13,26890,26890,25500,26000,10,260
2012/09/18,25150,25150,24500,24500,10,245
2012/09/19,24520,24800,24500,24800,9,248
2012/09/24,24100,24100,24100,24100,6,241
2012/09/25,24600,24600,24600,24600,6,246
2012/09/26,25100,25100,25100,25100,1,251
2012/09/28,24100,24100,24100,24100,2,241
2012/10/01,24000,25000,24000,25000,7,250
2012/10/17,25600,25600,25600,25600,1,256
2012/10/22,25030,25400,25000,25400,5,254
2012/10/23,25400,25400,25000,25000,17,250
2012/10/24,25100,25100,25100,25100,3,251
2012/10/26,24900,24900,24900,24900,6,249
2012/10/30,25500,25500,25000,25000,26,250
2012/11/05,25280,25500,25280,25500,14,255
2012/11/06,25500,25500,25300,25300,8,253
2012/11/07,25300,25400,25000,25400,16,254
2012/11/08,25400,25400,25400,25400,2,254
2012/11/09,25400,25500,25000,25300,24,253
2012/11/14,24020,24020,23800,23800,34,238
2012/11/29,24400,24500,24400,24500,4,245
2012/12/12,24980,25000,24000,24000,33,240
2012/12/14,24210,24600,24210,24600,26,246
2012/12/25,25000,25000,24210,24500,82,245
2012/12/27,25440,25440,24500,25000,19,250
2012/12/28,25500,25500,25400,25400,19,254
2013/01/16,25390,25400,25000,25400,34,254
2013/01/21,25300,25300,24800,25300,8,253
2013/01/23,25110,25400,25020,25400,20,254
2013/01/29,26100,27100,26100,27100,55,271
2013/01/31,27090,29800,27090,29800,126,298
2013/02/08,27550,27550,27500,27500,9,275
2013/02/12,27010,28000,27010,28000,26,280
2013/02/15,26000,26000,25100,25100,23,251
2013/02/18,25100,25100,25100,25100,11,251
2013/02/19,25600,26000,25600,26000,4,260
2013/02/21,26060,26060,26000,26000,3,260
2013/02/22,26600,27000,26000,26000,4,260
2013/02/27,25900,25900,25900,25900,24,259
2013/02/28,25900,26300,25900,26000,57,260
2013/03/07,27010,27980,27010,27800,30,278
2013/03/08,27790,27980,27500,27800,11,278
2013/03/11,27990,27990,27900,27900,61,279
2013/03/14,27960,27960,27900,27900,11,279
2013/03/22,28460,30000,28300,30000,109,300
2013/03/26,28650,28800,28000,28200,73,282
2013/03/29,26010,26110,25460,25700,159,257
2013/04/03,25410,26000,25410,26000,13,260
2013/04/05,25310,25940,25150,25200,31,252
2013/04/10,25300,25500,25060,25100,31,251
2013/04/12,26000,26000,25300,25800,18,258
2013/04/15,25300,25970,25300,25600,15,256
2013/04/18,25240,25510,25100,25500,27,255
2013/04/22,25890,25890,25230,25500,12,255
2013/04/23,25500,26000,25500,25800,16,258
2013/04/25,25900,26200,25900,25900,31,259
2013/04/26,26010,26500,26010,26300,32,263
2013/05/01,26310,27430,26310,26600,130,266
2013/05/02,26800,27490,26000,26600,60,266
2013/05/08,26510,27050,26510,27000,19,270
2013/05/14,26250,26250,26000,26200,12,262
2013/05/15,26600,26600,26200,26200,46,262
2013/05/20,28190,29980,27520,28300,118,283
2013/05/21,28800,28800,26550,27200,41,272
2013/05/23,28490,28490,26910,27000,25,270
2013/05/28,26470,26470,26000,26000,5,260
2013/05/30,26000,26000,26000,26000,9,260
2013/06/03,25800,25800,25000,25300,44,253
2013/06/07,25000,25100,24120,24300,133,243
2013/06/11,24500,24600,24500,24500,7,245
2013/06/14,25000,25000,25000,25000,28,250
2013/06/17,25000,25000,25000,25000,12,250
2013/06/20,24000,25000,24000,25000,16,250
2013/06/21,24950,25000,24950,25000,16,250
2013/06/24,24000,24500,24000,24500,25,245
2013/06/25,25500,26490,23200,26000,42,260
2013/06/26,25750,25750,25000,25000,4,250
2013/06/28,25000,25000,23350,24000,39,240
2013/07/08,24510,24520,24200,24200,14,242
2013/07/09,24500,24500,24300,24300,4,243
2013/07/10,24500,24500,24500,24500,7,245
2013/07/11,24400,24400,24200,24200,20,242
2013/07/12,24210,24500,24210,24500,8,245
2013/07/19,25000,25000,24500,24500,9,245
2013/07/25,24740,24950,24250,24800,30,248
2013/07/29,24600,24600,24120,24400,8,244
2013/08/01,24020,24300,24020,24300,14,243
2013/08/02,26800,29300,26800,29300,253,293
2013/08/07,27000,27400,26600,27400,147,274
2013/08/08,27000,27000,26500,26700,74,267
2013/08/15,27000,27000,26000,27000,74,270
2013/08/16,26530,26700,26530,26700,6,267
2013/08/20,26730,27100,26210,27100,57,271
2013/08/21,27200,27200,26520,27100,22,271
2013/08/22,27090,27090,26990,27000,5,270
2013/08/28,26750,26790,26300,26300,7,263
2013/09/04,27100,27500,27100,27500,13,275
2013/09/09,27200,27930,27200,27500,21,275
2013/09/11,27910,27910,27000,27100,13,271
2013/09/26,298,299,280,280,1900,280
2013/09/27,280,295,279,281,3500,281
2013/09/30,281,300,275,290,7000,290
2013/10/01,370,370,330,370,312400,370
2013/10/02,394,450,383,450,122600,450
2013/10/03,530,530,530,530,112500,530
2013/10/04,458,530,430,430,362100,430
2013/10/07,408,419,366,381,124500,381
2013/10/08,373,380,358,364,44100,364
2013/10/09,356,369,349,363,32300,363
2013/10/10,360,377,357,365,38700,365
2013/10/11,368,391,365,366,47700,366
2013/10/15,360,369,355,363,10500,363
2013/10/16,355,360,346,352,17000,352
2013/10/17,357,360,352,360,17200,360
2013/10/18,366,376,360,367,32700,367
2013/10/21,375,375,355,362,11000,362
2013/10/22,363,363,356,356,10700,356
2013/10/23,355,369,355,365,8100,365
2013/10/24,366,369,359,365,9800,365
2013/10/25,364,372,360,372,6500,372
2013/10/28,380,385,375,375,15900,375
2013/10/29,367,374,365,373,9700,373
2013/10/30,381,381,366,375,8800,375
2013/10/31,379,383,367,367,12700,367
2013/11/01,367,430,367,375,113100,375
2013/11/05,399,455,368,455,156400,455
2013/11/06,470,530,404,404,355900,404
2013/11/07,412,414,383,387,52100,387
2013/11/08,380,384,361,368,40800,368
2013/11/11,364,397,360,368,24800,368
2013/11/12,371,379,351,355,16500,355
2013/11/13,353,356,338,350,35200,350
2013/11/14,345,348,334,347,15600,347
2013/11/15,346,350,337,350,12300,350
2013/11/18,342,350,342,345,2700,345
2013/11/19,345,350,337,340,9200,340
2013/11/20,347,348,340,342,7200,342
2013/11/21,350,379,350,361,33900,361
2013/11/22,369,369,346,346,12500,346
2013/11/25,346,353,343,345,6200,345
2013/11/26,344,354,343,344,10900,344
2013/11/27,344,349,342,342,2700,342
2013/11/28,345,348,342,348,5400,348
2013/11/29,345,350,340,343,5600,343
2013/12/02,343,345,333,339,10100,339
2013/12/03,339,349,325,336,25600,336
2013/12/04,328,345,326,335,5000,335
2013/12/05,339,345,332,334,5700,334
2013/12/06,338,339,332,335,5400,335
2013/12/09,327,336,327,333,5700,333
2013/12/10,331,331,328,330,3100,330
2013/12/11,335,337,330,330,7500,330
2013/12/12,326,335,325,328,9800,328
2013/12/13,327,337,327,337,6900,337
2013/12/16,337,340,328,330,7100,330
2013/12/17,325,334,325,330,10800,330
2013/12/18,328,330,320,330,8800,330
2013/12/19,329,332,321,327,9100,327
2013/12/20,322,327,320,327,4800,327
2013/12/24,322,327,312,319,6500,319
2013/12/25,324,324,316,324,6000,324
2013/12/26,324,334,324,325,1500,325
2013/12/27,326,330,325,328,4500,328
2013/12/30,330,344,328,344,12400,344
2014/01/06,352,355,347,352,14500,352
2014/01/07,383,395,365,373,48800,373
2014/01/08,370,384,364,381,17900,381
2014/01/09,381,383,373,381,7200,381
2014/01/10,381,390,379,390,8800,390
2014/01/14,380,389,376,386,17500,386
2014/01/15,390,395,389,390,8200,390
2014/01/16,387,387,381,387,4500,387
2014/01/17,380,410,380,402,20600,402
2014/01/20,405,435,404,420,15800,420
2014/01/21,425,430,410,418,7800,418
2014/01/22,410,412,407,410,4300,410
2014/01/23,410,420,400,403,11300,403
2014/01/24,392,403,389,394,12100,394
2014/01/27,387,402,371,396,16000,396
2014/01/28,388,410,382,405,17800,405
2014/01/29,407,430,405,415,20500,415
2014/01/30,409,410,391,400,11500,400
2014/01/31,410,410,392,400,13100,400
2014/02/03,381,388,362,383,22900,383
2014/02/04,311,327,303,318,83600,318
2014/02/05,334,334,306,320,36900,320
2014/02/06,312,340,312,337,10200,337
2014/02/07,341,341,328,335,10500,335
2014/02/10,345,345,329,336,11500,336
2014/02/12,342,342,316,320,6800,320
2014/02/13,320,322,310,310,9100,310
2014/02/14,313,318,305,305,5400,305
2014/02/17,311,314,308,309,800,309
2014/02/18,310,314,310,314,700,314
2014/02/19,325,325,313,313,2400,313
2014/02/20,320,320,308,308,2200,308
2014/02/21,310,314,310,314,1500,314
2014/02/24,315,319,315,319,700,319
2014/02/25,324,324,316,317,1600,317
2014/02/26,317,321,317,321,1900,321
2014/02/27,320,322,320,322,500,322
2014/02/28,319,322,310,317,3500,317
2014/03/03,312,317,311,317,2600,317
2014/03/04,309,311,307,311,2000,311
2014/03/05,312,312,309,312,1100,312
2014/03/06,309,319,309,317,800,317
2014/03/07,318,319,318,319,700,319
2014/03/10,320,324,320,324,200,324
2014/03/11,318,332,318,332,2500,332
2014/03/12,330,331,321,323,2000,323
2014/03/13,330,348,327,330,4300,330
2014/03/14,329,338,326,327,1500,327
2014/03/17,326,326,325,325,400,325
2014/03/18,317,322,317,322,1100,322
2014/03/20,312,312,307,310,4600,310
2014/03/24,312,312,312,312,100,312
2014/03/25,320,320,320,320,500,320
2014/03/26,310,310,310,310,300,310
2014/03/27,310,310,310,310,1000,310
2014/03/28,302,312,300,307,1100,307
2014/03/31,307,310,307,310,500,310
2014/04/01,302,302,294,296,5800,296
2014/04/02,291,295,287,291,9700,291
2014/04/03,291,291,280,282,13500,282
2014/04/04,289,289,280,286,5900,286
2014/04/07,287,288,282,288,1300,288
2014/04/08,284,284,280,282,7300,282
2014/04/09,279,280,279,279,1600,279
2014/04/10,278,283,278,279,1400,279
2014/04/11,279,279,269,269,7100,269
2014/04/14,274,275,268,268,3800,268
2014/04/15,268,270,268,270,1200,270
2014/04/16,270,270,260,270,5700,270
2014/04/17,266,268,262,265,2100,265
2014/04/18,263,267,263,267,1700,267
2014/04/21,269,270,267,268,1000,268
2014/04/22,266,268,266,266,1200,266
2014/04/23,267,270,266,270,600,270
2014/04/24,268,270,268,270,500,270
2014/04/25,270,270,267,267,4300,267
2014/04/28,270,270,263,263,600,263
2014/04/30,273,277,266,277,3500,277
2014/05/01,266,285,265,283,6000,283
2014/05/02,276,286,276,284,4100,284
2014/05/07,276,278,274,277,900,277
2014/05/08,270,273,262,262,5400,262
2014/05/09,260,261,255,256,3200,256
2014/05/12,262,262,259,261,1600,261
2014/05/13,251,262,250,262,11400,262
2014/05/14,261,262,256,260,1700,260
2014/05/15,259,263,256,258,1000,258
2014/05/16,256,258,247,258,1400,258
2014/05/19,251,256,247,256,600,256
2014/05/20,254,255,253,254,1000,254
2014/05/21,252,252,234,244,8100,244
2014/05/22,246,250,245,249,4000,249
2014/05/23,249,249,242,249,3500,249
2014/05/26,250,263,250,263,2000,263
2014/05/27,253,255,253,254,500,254
2014/05/28,252,255,252,255,800,255
2014/05/29,255,257,255,257,2200,257
2014/05/30,255,256,251,251,3800,251
2014/06/02,259,259,247,249,2300,249
2014/06/03,249,249,247,249,1300,249
2014/06/04,249,256,249,251,2600,251
2014/06/05,253,255,250,251,3000,251
2014/06/06,250,250,249,249,2800,249
2014/06/09,256,260,252,252,3700,252
2014/06/11,253,254,253,253,1200,253
2014/06/12,255,255,250,253,1700,253
2014/06/13,250,264,248,250,11400,250
2014/06/16,253,259,251,254,1400,254
2014/06/17,252,254,252,253,900,253
2014/06/18,257,262,257,262,2200,262
2014/06/19,263,275,263,272,6000,272
2014/06/20,272,290,272,273,14200,273
2014/06/23,273,280,273,274,2200,274
2014/06/24,279,279,268,277,4000,277
2014/06/25,277,278,267,278,2200,278
2014/06/26,271,283,271,271,5900,271
2014/06/27,271,271,265,266,2600,266
2014/06/30,268,272,268,272,2100,272
2014/07/01,270,270,270,270,200,270
2014/07/02,275,275,267,267,1400,267
2014/07/03,266,267,263,267,3300,267
2014/07/04,271,272,265,265,1700,265
2014/07/07,271,272,265,272,1600,272
2014/07/08,266,271,266,271,200,271
2014/07/09,267,272,267,272,600,272
2014/07/10,271,271,259,259,7500,259
2014/07/11,253,259,253,259,3400,259
2014/07/14,259,261,255,259,1300,259
2014/07/15,265,265,260,263,500,263
2014/07/18,266,266,256,260,1800,260
2014/07/22,267,267,260,260,1100,260
2014/07/23,261,263,261,263,300,263
2014/07/24,267,267,264,266,1100,266
2014/07/25,269,270,269,270,2400,270
2014/07/28,270,270,270,270,100,270
2014/07/29,270,270,266,266,400,266
2014/07/30,270,272,265,269,1500,269
2014/07/31,268,268,267,267,600,267
2014/08/01,268,268,261,262,2600,262
2014/08/04,261,263,261,263,600,263
2014/08/05,263,263,261,261,400,261
2014/08/06,262,262,256,260,2600,260
2014/08/07,260,267,259,259,1500,259
2014/08/08,256,260,250,250,5700,250
2014/08/11,260,260,251,251,2900,251
2014/08/12,251,252,246,248,2500,248
2014/08/13,250,252,250,252,1800,252
2014/08/14,251,253,250,253,800,253
2014/08/15,252,260,252,260,600,260
2014/08/18,261,263,261,263,600,263
2014/08/19,261,261,260,260,1400,260
2014/08/20,258,258,258,258,100,258
2014/08/21,258,258,258,258,100,258
2014/08/22,262,275,261,270,14300,270
2014/08/25,285,350,282,350,115900,350
2014/08/26,310,325,289,293,191000,293
2014/08/27,292,297,282,286,26000,286
2014/08/28,295,295,284,284,8000,284
2014/08/29,284,284,272,278,9400,278
2014/09/01,281,282,279,279,2900,279
2014/09/02,283,283,272,273,7700,273
2014/09/03,273,274,271,272,4100,272
2014/09/04,272,277,272,276,2900,276
2014/09/05,278,278,273,273,2800,273
2014/09/08,273,276,272,273,2700,273
2014/09/09,273,274,272,274,1300,274
2014/09/10,273,275,273,273,2100,273
2014/09/11,274,274,271,271,5000,271
2014/09/12,271,276,271,273,1400,273
2014/09/16,272,275,270,275,5200,275
2014/09/17,275,275,256,256,4600,256
2014/09/18,262,276,257,263,11400,263
2014/09/19,258,262,258,259,5300,259
2014/09/22,257,265,257,260,1100,260
2014/09/24,260,261,256,261,3700,261
2014/09/25,260,260,256,260,2600,260
2014/09/26,260,260,255,259,1300,259
2014/09/29,261,269,256,263,2100,263
2014/09/30,263,269,261,262,2500,262
2014/10/01,263,263,254,254,2700,254
2014/10/02,258,258,245,249,13200,249
2014/10/03,246,252,246,250,2800,250
2014/10/06,252,260,252,253,3000,253
2014/10/07,254,254,253,254,1000,254
2014/10/08,254,254,246,247,3100,247
2014/10/09,247,247,237,237,17400,237
2014/10/10,237,244,234,234,4300,234
2014/10/14,235,245,232,245,4700,245
2014/10/15,241,241,240,241,1100,241
2014/10/16,241,241,237,240,4000,240
2014/10/17,235,242,235,238,1200,238
2014/10/20,241,242,241,241,1600,241
2014/10/21,240,240,240,240,200,240
2014/10/22,241,241,240,240,200,240
2014/10/23,238,244,238,244,1000,244
2014/10/24,242,246,242,243,1000,243
2014/10/27,248,249,244,249,3400,249
2014/10/28,250,251,250,250,300,250
2014/10/29,249,252,249,249,400,249
2014/10/30,253,258,252,258,2700,258
2014/10/31,258,258,253,253,900,253
2014/11/04,248,248,242,243,6600,243
2014/11/05,243,246,241,245,3100,245
2014/11/06,242,250,242,250,2200,250
2014/11/07,247,247,247,247,1100,247
2014/11/10,239,246,239,246,4200,246
2014/11/11,243,246,243,246,200,246
2014/11/12,245,245,239,241,2800,241
2014/11/13,239,248,239,248,2000,248
2014/11/14,248,248,243,243,600,243
2014/11/17,242,250,242,250,1800,250
2014/11/18,244,250,244,250,1000,250
2014/11/19,250,250,248,248,1500,248
2014/11/20,244,251,244,251,2800,251
2014/11/21,245,253,245,253,3000,253
2014/11/25,252,252,250,250,1300,250
2014/11/26,251,260,251,260,4100,260
2014/11/27,258,258,251,253,4000,253
2014/11/28,253,256,253,255,1200,255
2014/12/01,255,258,254,254,2700,254
2014/12/02,253,257,252,255,3400,255
2014/12/03,253,258,252,256,2000,256
2014/12/04,250,255,249,255,7300,255
2014/12/05,255,258,255,257,2200,257
2014/12/08,259,259,257,257,1000,257
2014/12/09,249,252,249,251,1500,251
2014/12/10,249,253,249,252,2500,252
2014/12/11,248,250,248,248,1100,248
2014/12/12,248,251,246,251,900,251
2014/12/15,248,255,248,255,800,255
2014/12/16,248,250,248,250,1100,250
2014/12/17,250,250,244,248,1500,248
2014/12/18,250,250,243,243,6300,243
2014/12/19,242,250,241,250,1600,250
2014/12/22,251,251,225,225,25700,225
2014/12/24,233,245,211,225,52800,225
2014/12/25,221,226,217,224,10000,224
2014/12/26,222,225,220,225,5200,225
2014/12/29,223,234,223,228,7900,228
2014/12/30,231,238,231,236,5300,236
2015/01/05,236,239,234,235,2300,235
2015/01/06,232,236,231,234,1700,234
2015/01/07,232,232,232,232,300,232
2015/01/08,232,237,232,237,1400,237
2015/01/09,233,235,233,235,1000,235
2015/01/13,235,237,223,231,7600,231
2015/01/14,227,234,226,234,2100,234
2015/01/15,234,235,230,230,700,230
2015/01/16,234,235,234,234,500,234
2015/01/19,236,236,228,236,2300,236
2015/01/20,235,236,235,236,800,236
2015/01/21,230,236,230,232,600,232
2015/01/22,236,236,234,234,300,234
2015/01/23,234,234,231,231,1400,231
2015/01/26,232,234,232,232,1200,232
2015/01/27,235,236,232,234,1800,234
2015/01/28,232,236,231,236,2700,236
2015/01/29,234,234,230,230,1000,230
2015/01/30,231,232,230,230,3000,230
2015/02/02,231,231,231,231,300,231
2015/02/03,231,234,230,231,1700,231
2015/02/04,230,231,230,230,1500,230
2015/02/05,235,235,234,235,300,235
2015/02/09,230,232,227,227,1700,227
2015/02/10,225,232,225,232,2600,232
2015/02/12,234,235,234,234,2700,234
2015/02/13,233,233,228,228,600,228
2015/02/16,233,233,228,232,900,232
2015/02/17,232,232,230,230,600,230
2015/02/18,236,237,228,237,3600,237
2015/02/19,236,236,236,236,1600,236
2015/02/20,235,236,230,231,2500,231
2015/02/23,231,232,230,230,4100,230
2015/02/24,233,237,231,231,1800,231
2015/02/25,237,311,237,311,361400,311
2015/02/26,310,391,276,391,1920400,391
2015/02/27,455,471,447,471,258400,471
2015/03/02,551,551,551,551,29800,551
2015/03/03,451,475,451,451,439700,451
2015/03/04,403,451,371,377,873300,377
2015/03/05,380,409,355,364,467000,364
2015/03/06,362,362,331,343,154200,343
2015/03/09,330,338,326,326,70200,326
2015/03/10,333,399,318,327,493400,327
2015/03/11,318,320,307,317,68700,317
2015/03/12,310,339,306,306,66700,306
2015/03/13,315,319,302,307,37700,307
2015/03/16,305,323,304,318,50000,318
2015/03/17,302,310,292,299,41600,299
2015/03/18,293,297,285,288,19200,288
2015/03/19,284,318,283,302,89200,302
2015/03/20,299,299,287,289,15400,289
2015/03/23,296,306,291,293,21600,293
2015/03/24,297,373,297,373,506900,373
2015/03/25,453,453,453,453,72500,453
2015/03/26,397,438,374,379,893300,379
2015/03/27,379,398,343,350,161800,350
2015/03/30,341,344,327,327,62600,327
2015/03/31,335,338,320,333,67100,333
2015/04/01,325,332,317,320,23700,320
2015/04/02,320,334,315,315,30600,315
2015/04/03,319,395,315,340,481200,340
2015/04/06,332,394,319,339,283700,339
2015/04/07,350,384,342,363,178000,363
2015/04/08,375,440,372,391,555200,391
2015/04/09,379,386,363,367,97200,367
2015/04/10,363,368,351,356,43600,356
2015/04/13,380,416,361,379,227400,379
2015/04/14,370,378,367,370,48500,370
2015/04/15,368,398,367,373,49900,373
2015/04/16,380,383,370,371,22200,371
2015/04/17,372,378,355,358,33200,358
2015/04/20,364,364,342,348,30300,348
2015/04/21,355,393,350,361,140900,361
2015/04/22,361,367,356,363,19100,363
2015/04/23,366,374,361,362,17700,362
2015/04/24,368,368,360,361,11100,361
2015/04/27,366,366,352,358,29900,358
2015/04/28,354,358,352,353,9400,353
2015/04/30,355,359,340,351,22400,351
2015/05/01,333,344,321,325,28700,325
2015/05/07,328,330,310,314,20300,314
2015/05/08,321,338,317,317,44000,317
2015/05/11,319,330,319,327,17200,327
2015/05/12,323,350,323,330,25100,330
2015/05/13,370,410,344,344,915300,344
2015/05/14,336,349,321,326,72800,326
2015/05/15,338,388,335,362,372000,362
2015/05/18,377,377,343,345,67700,345
2015/05/19,344,354,336,340,39700,340
2015/05/20,344,347,337,343,19600,343
2015/05/21,347,347,332,337,27200,337
2015/05/22,344,344,333,340,18000,340
2015/05/25,336,340,336,339,10800,339
2015/05/26,340,343,336,340,14500,340
2015/05/27,340,345,340,343,18100,343
2015/05/28,347,347,342,342,9500,342
2015/05/29,343,343,337,340,11900,340
2015/06/01,338,339,334,339,10600,339
2015/06/02,339,342,336,338,11900,338
2015/06/03,345,346,337,340,18700,340
2015/06/04,337,350,337,342,20200,342
2015/06/05,345,368,342,349,75400,349
2015/06/08,355,358,340,340,40600,340
2015/06/09,344,344,336,337,14800,337
2015/06/10,333,337,332,334,14000,334
2015/06/11,336,341,335,338,7400,338
2015/06/12,344,344,337,342,14600,342
2015/06/15,342,342,333,341,13300,341
2015/06/16,335,338,333,336,11900,336
2015/06/17,335,339,333,333,7100,333
2015/06/18,331,336,330,334,5700,334
2015/06/19,333,337,332,336,4600,336
2015/06/22,336,339,334,339,4900,339
2015/06/23,336,339,333,337,3800,337
2015/06/24,337,339,336,339,2900,339
2015/06/25,339,340,336,338,3800,338
2015/06/26,338,342,334,334,9200,334
2015/06/29,330,330,316,330,12000,330
2015/06/30,330,335,327,333,3500,333
2015/07/01,328,337,328,337,2400,337
