2011/01/04,34000,34000,33300,33700,163,337
2011/01/06,33850,34500,33500,34400,293,344
2011/01/07,33800,34350,33300,34300,159,343
2011/01/13,33250,34500,33250,34000,171,340
2011/01/14,34450,35500,33800,34500,271,345
2011/01/17,34500,34900,34050,34900,145,349
2011/01/18,34800,35100,34250,35100,112,351
2011/01/20,34250,34900,34000,34000,155,340
2011/01/21,34000,34450,33150,34100,167,341
2011/01/24,37000,41100,36100,41100,7098,411
2011/01/25,39000,42700,38300,40200,4200,402
2011/01/26,40900,40900,39000,39000,927,390
2011/01/27,39450,39450,37300,38100,1065,381
2011/02/01,39000,39500,38550,38700,318,387
2011/02/03,40350,40900,38700,39500,478,395
2011/02/08,39650,39650,38550,39300,253,393
2011/02/09,39500,41100,39350,40900,711,409
2011/02/10,46500,47900,46400,47900,2462,479
2011/02/14,54000,54900,52900,54900,6452,549
2011/02/15,49900,56000,49050,55800,6211,558
2011/02/16,55500,63400,53000,59000,4238,590
2011/02/17,60000,63400,55500,57600,2932,576
2011/02/18,55000,56500,53100,54600,2272,546
2011/02/21,55000,57300,54100,55300,1002,553
2011/02/22,55200,55200,52200,53100,1160,531
2011/02/23,52100,53500,51900,52100,599,521
2011/02/24,52300,52500,49950,50900,954,509
2011/02/25,49950,50300,48600,49100,1102,491
2011/02/28,49750,52700,49200,51200,1427,512
2011/03/01,52300,55600,52300,53200,1925,532
2011/03/02,54600,56200,54100,54500,1467,545
2011/03/03,54800,55500,53100,54000,941,540
2011/03/04,54900,54900,53800,54800,438,548
2011/03/07,55100,55800,53900,54500,1345,545
2011/03/08,54300,54300,52900,53000,910,530
2011/03/09,53000,53300,52400,52600,618,526
2011/03/10,52700,52700,51200,51800,529,518
2011/03/11,50600,51900,50600,51300,346,513
2011/03/14,42300,43000,41300,41300,1922,413
2011/03/15,37800,37800,34300,34300,2811,343
2011/03/16,33000,38800,33000,37800,2076,378
2011/03/17,34800,39900,34700,38800,1027,388
2011/03/18,39500,44800,39500,44000,1274,440
2011/03/22,46000,47600,44500,46400,966,464
2011/03/23,45600,46800,45100,46000,590,460
2011/03/25,45900,46000,44500,44800,864,448
2011/03/29,42000,42500,40900,42200,588,422
2011/03/30,42000,43500,42000,43400,367,434
2011/03/31,43800,44450,43000,44300,476,443
2011/04/01,44100,44100,43250,43300,229,433
2011/04/04,43500,44000,43100,43600,409,436
2011/04/07,41750,42950,41700,42900,159,429
2011/04/08,42500,44900,42400,44900,304,449
2011/04/11,44400,45400,44400,45400,545,454
2011/04/12,45700,45700,44750,44800,323,448
2011/04/13,44950,46400,44800,46400,152,464
2011/04/14,46900,49700,46700,49400,602,494
2011/04/15,50400,50400,48500,49500,371,495
2011/04/18,49700,49700,47550,48500,290,485
2011/04/19,47500,48200,47500,47900,119,479
2011/04/20,47950,49000,47650,48000,246,480
2011/04/22,48500,48800,48050,48800,192,488
2011/04/28,48300,48300,48000,48300,85,483
2011/05/06,48200,48600,48000,48600,159,486
2011/05/10,48950,50600,48800,50400,408,504
2011/05/12,48600,48900,47600,48200,360,482
2011/05/13,48200,50100,47650,48800,526,488
2011/05/17,48300,48450,46800,47200,473,472
2011/05/18,47200,48400,46700,48400,191,484
2011/05/19,48350,48600,47500,48300,486,483
2011/05/23,48250,48350,48000,48100,197,481
2011/05/24,47700,48500,47700,48400,137,484
2011/05/30,48400,48900,48000,48000,279,480
2011/05/31,48500,48700,48200,48600,131,486
2011/06/02,49100,49550,48750,49300,269,493
2011/06/03,49600,49750,49100,49700,230,497
2011/06/09,49550,49650,48500,49200,173,492
2011/06/10,49600,49700,49200,49500,160,495
2011/06/13,49100,49750,49100,49300,151,493
2011/06/14,49300,49600,49150,49500,118,495
2011/06/15,49400,49600,49300,49500,123,495
2011/06/20,49550,50000,49400,49600,234,496
2011/06/21,49950,49950,49600,49900,235,499
2011/06/23,49700,51000,49700,50700,764,507
2011/06/24,50800,51400,48500,49800,1125,498
2011/06/27,50000,50000,49400,50000,685,500
2011/06/29,45900,45950,45000,45400,390,454
2011/07/01,44500,44500,43500,43700,494,437
2011/07/04,43700,43700,42600,42900,501,429
2011/07/05,42750,42950,42150,42800,359,428
2011/07/06,43100,44200,43050,43900,273,439
2011/07/08,43250,44550,43250,44200,204,442
2011/07/11,44750,45300,44350,44800,354,448
2011/07/12,44750,44750,43800,44300,240,443
2011/07/13,43700,44450,43350,44300,164,443
2011/07/14,44300,44750,43800,44300,146,443
2011/07/15,44000,44450,43800,44000,85,440
2011/07/19,43850,43900,43100,43100,222,431
2011/07/20,43800,43950,43100,43600,119,436
2011/07/21,43200,43550,43050,43300,200,433
2011/07/22,43350,43400,43100,43200,125,432
2011/07/26,43000,43000,42500,42900,168,429
2011/07/29,42000,42000,41150,41300,246,413
2011/08/01,40500,41000,40500,40700,266,407
2011/08/02,40500,40800,40000,40400,234,404
2011/08/04,39450,40300,39200,40000,320,400
2011/08/08,38200,39100,36000,39000,525,390
2011/08/09,35500,38400,35500,38400,488,384
2011/08/10,38750,40000,38750,40000,246,400
2011/08/11,41600,43900,41600,43200,1613,432
2011/08/15,43100,43500,42700,43400,339,434
2011/08/16,43500,45700,43500,45600,865,456
2011/08/17,44900,46000,44300,45700,437,457
2011/08/18,44300,45000,44000,44600,312,446
2011/08/22,42550,43000,42400,42700,133,427
2011/08/23,43200,43400,42750,43300,91,433
2011/08/24,42600,43300,42600,42900,78,429
2011/08/26,43000,43000,42100,42900,82,429
2011/08/30,43450,43700,43000,43000,75,430
2011/08/31,43100,45000,42500,45000,377,450
2011/09/01,44800,44800,43850,44700,59,447
2011/09/05,43900,44000,43100,43100,81,431
2011/09/06,43050,43300,41400,42500,142,425
2011/09/08,42800,43000,42250,42300,117,423
2011/09/09,42200,43450,42150,43200,140,432
2011/09/12,42000,43000,42000,42800,95,428
2011/09/13,42000,42500,42000,42200,28,422
2011/09/14,42850,42850,41000,41700,132,417
2011/09/15,41700,42300,41300,41700,94,417
2011/09/16,41700,42000,41050,41700,134,417
2011/09/20,41300,42000,41300,42000,121,420
2011/09/21,42350,43250,42350,42800,285,428
2011/09/22,43050,43100,42000,43000,64,430
2011/09/26,42050,42200,40300,41400,168,414
2011/09/27,41950,41950,40200,41300,199,413
2011/09/30,41050,43000,41050,43000,93,430
2011/10/11,42200,42900,42200,42600,78,426
2011/10/12,43000,43000,42800,43000,20,430
2011/10/13,43100,44350,42650,44300,205,443
2011/10/14,44000,44000,43550,43900,74,439
2011/10/17,43950,44600,43650,43900,50,439
2011/10/20,44150,44200,43200,44200,39,442
2011/10/25,44750,44750,43900,44100,103,441
2011/10/26,44000,44100,43700,44100,41,441
2011/10/27,43950,44300,43350,44200,43,442
2011/10/28,44450,44500,43700,44100,54,441
2011/10/31,44400,44400,43800,44400,143,444
2011/11/01,44050,44350,43800,43800,60,438
2011/11/04,43300,43300,43100,43300,57,433
2011/11/07,43850,43850,43300,43400,29,434
2011/11/08,43450,44000,43450,43600,38,436
2011/11/09,43450,43800,43000,43800,30,438
2011/11/10,42700,42800,41100,42500,142,425
2011/11/11,42100,43300,42100,43200,76,432
2011/11/14,43300,44200,43300,43700,39,437
2011/11/17,43200,43800,43200,43700,30,437
2011/11/18,43000,43150,42500,43000,102,430
2011/11/22,42200,42250,41150,42000,78,420
2011/11/24,41950,41950,41750,41900,33,419
2011/11/25,42000,42000,41300,41800,67,418
2011/11/28,41750,42650,41700,42600,16,426
2011/11/29,42600,42600,41950,42200,98,422
2011/11/30,41850,42000,41700,42000,83,420
2011/12/02,42900,42900,41900,42400,74,424
2011/12/06,42850,43100,42700,43000,128,430
2011/12/07,43000,43500,43000,43000,45,430
2011/12/09,42350,43000,42100,42600,36,426
2011/12/12,42800,43000,42700,43000,83,430
2011/12/13,43000,43000,41800,42400,262,424
2011/12/14,42300,42400,41950,42400,85,424
2011/12/16,42050,42500,42050,42100,100,421
2011/12/19,42350,42450,42100,42100,121,421
2011/12/26,42750,42750,42000,42100,287,421
2011/12/27,42450,42450,42000,42000,109,420
2011/12/29,42000,42350,42000,42300,42,423
2011/12/30,42100,42250,42000,42200,82,422
2012/01/04,42100,42350,41850,42100,182,421
2012/01/05,42200,42200,41800,42100,92,421
2012/01/06,42100,42100,42000,42100,50,421
2012/01/10,42100,42900,42050,42700,131,427
2012/01/11,42350,42700,42350,42700,58,427
2012/01/13,42700,42850,42600,42600,31,426
2012/01/16,42700,42900,42400,42800,112,428
2012/01/17,42800,42800,42400,42700,130,427
2012/01/20,42500,42650,42350,42400,49,424
2012/01/25,41750,41950,41500,41900,177,419
2012/01/26,42000,42000,41600,41900,56,419
2012/01/27,41950,42000,41700,42000,118,420
2012/02/06,42300,42750,42300,42400,102,424
2012/02/07,42500,42700,42150,42600,526,426
2012/02/08,42550,43200,42200,42900,132,429
2012/02/09,43000,43200,42850,43200,301,432
2012/02/13,43650,43650,43200,43500,98,435
2012/02/14,43700,43700,43300,43500,127,435
2012/02/15,43600,43950,43250,43900,204,439
2012/02/16,43600,44000,43550,44000,104,440
2012/02/20,44050,44450,44050,44400,82,444
2012/02/23,45500,46750,45500,46500,236,465
2012/02/24,46500,47000,46500,46800,108,468
2012/02/28,46550,47100,45150,47100,381,471
2012/02/29,47000,47100,46100,46400,159,464
2012/03/01,46050,46400,45500,45500,197,455
2012/03/05,47000,47000,46000,46200,95,462
2012/03/06,46300,46750,46200,46300,126,463
2012/03/08,46750,46750,46300,46600,88,466
2012/03/09,46500,47000,46300,47000,92,470
2012/03/13,47600,47900,47400,47700,166,477
2012/03/14,48100,48900,48100,48800,235,488
2012/03/15,52000,53500,50000,51600,1283,516
2012/03/16,52200,52400,50600,51700,384,517
2012/03/19,52100,53700,51800,53700,649,537
2012/03/21,53000,53500,51700,51700,446,517
2012/03/22,51900,52300,51400,51400,135,514
2012/03/23,51200,51300,50100,50900,266,509
2012/03/26,50600,51000,50500,50600,519,506
2012/03/27,50800,50800,49900,50600,294,506
2012/03/28,51000,52700,50900,52200,387,522
2012/03/29,52300,52800,52000,52700,369,527
2012/03/30,53000,56100,53000,55600,733,556
2012/04/02,55700,57200,55700,56900,688,569
2012/04/03,57000,57100,54200,55800,479,558
2012/04/04,55800,55800,53700,53700,397,537
2012/04/05,52800,55300,51200,55000,540,550
2012/04/06,54800,55400,54700,54900,244,549
2012/04/09,54500,55000,53500,55000,133,550
2012/04/10,54900,56200,54900,55500,264,555
2012/04/11,54100,55300,53500,55000,236,550
2012/04/12,54600,55500,54600,55500,112,555
2012/04/13,55300,56000,55100,55800,212,558
2012/04/16,56000,56000,55000,55500,168,555
2012/04/17,54800,55600,54800,55200,150,552
2012/04/18,55200,56500,55200,56300,324,563
2012/04/19,56300,56400,55500,56100,196,561
2012/04/20,55300,56000,55300,55900,167,559
2012/04/23,55900,56400,55500,56000,172,560
2012/04/24,55800,55800,54800,55600,381,556
2012/04/25,55000,55700,54900,55600,206,556
2012/04/26,55300,55600,55100,55200,180,552
2012/04/27,55100,55700,54900,54900,280,549
2012/05/01,54900,55300,54600,54600,184,546
2012/05/02,54500,54800,54200,54500,153,545
2012/05/07,53900,54000,52500,53800,267,538
2012/05/08,52500,53600,52500,53000,107,530
2012/05/09,52600,53000,51700,52000,203,520
2012/05/10,51600,52000,51400,51800,232,518
2012/05/11,51800,53000,51400,52800,206,528
2012/05/14,52800,53500,51300,52100,308,521
2012/05/15,50000,50900,47600,50700,593,507
2012/05/16,49700,51000,48900,50200,171,502
2012/05/17,50000,51300,49100,51300,126,513
2012/05/18,50500,51500,49850,51500,236,515
2012/05/21,50300,52000,50300,51500,74,515
2012/05/22,51400,52700,51400,52500,82,525
2012/05/23,53000,54200,52400,52500,235,525
2012/05/24,51500,52500,51500,52000,106,520
2012/05/25,51700,53300,51500,53200,277,532
2012/05/28,52500,53700,52400,53100,240,531
2012/05/29,53100,53300,52500,53300,251,533
2012/05/30,53300,54000,52800,53500,198,535
2012/05/31,53500,53500,52500,53400,177,534
2012/06/01,52700,53000,52000,52500,169,525
2012/06/04,51600,52500,51200,52000,165,520
2012/06/05,52100,52300,51600,52300,121,523
2012/06/06,52100,53000,52100,52800,193,528
2012/06/07,52800,53000,52300,52800,147,528
2012/06/08,52800,53000,52300,53000,266,530
2012/06/11,52700,53700,52000,53000,450,530
2012/06/12,52200,53000,52000,52500,179,525
2012/06/13,52500,52500,51500,51500,243,515
2012/06/14,51100,51800,51000,51600,195,516
2012/06/15,51000,51400,50600,50600,249,506
2012/06/18,50300,52500,50300,52500,412,525
2012/06/19,52500,52500,51500,52100,301,521
2012/06/20,51900,52200,51400,51700,497,517
2012/06/21,51700,53000,51200,52000,762,520
2012/06/22,51300,51800,51000,51500,978,515
2012/06/25,52100,53100,51800,52300,1715,523
2012/06/26,52100,52300,50700,51100,1379,511
2012/06/27,47600,48300,46100,47400,1003,474
2012/06/29,47000,47100,46650,46900,311,469
2012/07/02,47300,47400,46400,47000,423,470
2012/07/03,47200,47200,46500,47200,199,472
2012/07/09,46300,46300,45000,45100,466,451
2012/07/10,45050,45400,44550,44800,269,448
2012/07/11,44550,45100,44500,44800,173,448
2012/07/13,44150,44900,43850,44900,251,449
2012/07/17,45400,45400,44900,45000,76,450
2012/07/18,45000,45600,44950,45500,110,455
2012/07/20,44650,44900,44100,44300,182,443
2012/07/23,44050,44100,43300,43300,199,433
2012/07/24,43300,43500,42900,43000,178,430
2012/07/25,42500,42650,41900,41900,541,419
2012/07/27,43700,44100,43250,43900,74,439
2012/07/30,44000,44000,43650,43800,33,438
2012/07/31,43800,43900,43500,43900,41,439
2012/08/02,43900,43900,43100,43900,39,439
2012/08/03,43500,43500,42500,43100,74,431
2012/08/06,43250,43400,43100,43100,47,431
2012/08/07,43000,43100,42000,42600,309,426
2012/08/09,42650,43600,42650,43000,100,430
2012/08/10,43500,44150,43400,44100,122,441
2012/08/14,46850,48000,46850,47400,113,474
2012/08/17,46150,46600,46150,46600,57,466
2012/08/20,46900,47000,46600,46700,110,467
2012/08/21,46850,46850,46200,46400,64,464
2012/08/22,46450,46700,46300,46700,181,467
2012/08/23,46800,47000,46050,47000,171,470
2012/08/24,47200,47700,46800,47700,254,477
2012/08/27,47650,48500,47550,48200,247,482
2012/08/28,48100,48200,47000,47800,156,478
2012/08/30,47400,47800,47000,47100,121,471
2012/08/31,47100,47350,46950,47100,62,471
2012/09/03,47400,47400,46950,47400,112,474
2012/09/04,47400,47450,47050,47400,103,474
2012/09/07,47100,47200,46900,47000,90,470
2012/09/10,47200,47500,46400,47100,352,471
2012/09/12,47250,47400,47250,47400,50,474
2012/09/14,47800,49700,47500,49700,549,497
2012/09/18,49000,49500,48600,48600,293,486
2012/09/19,49000,49350,48750,49000,309,490
2012/09/20,49000,49100,48400,48400,162,484
2012/09/24,48200,48600,48200,48200,105,482
2012/09/25,48600,48600,48000,48400,126,484
2012/09/27,48100,48500,48000,48100,149,481
2012/09/28,48100,48200,47950,48100,197,481
2012/10/01,48000,48400,48000,48100,133,481
2012/10/02,48100,48300,48050,48300,90,483
2012/10/04,48200,48200,48000,48100,134,481
2012/10/05,48100,48650,48100,48500,364,485
2012/10/10,48800,48850,48500,48500,187,485
2012/10/11,48400,48450,48150,48200,173,482
2012/10/12,48200,48400,48100,48100,110,481
2012/10/15,48450,48450,48200,48300,42,483
2012/10/17,48250,48600,48200,48600,180,486
2012/10/18,48400,48700,48250,48700,70,487
2012/10/19,48700,48750,48400,48700,56,487
2012/10/22,48600,48800,48200,48800,113,488
2012/10/23,48800,49600,48800,49500,278,495
2012/10/25,49700,49700,49300,49300,161,493
2012/10/29,50000,50700,49950,50000,227,500
2012/10/30,50000,50000,49400,49600,201,496
2012/10/31,49600,49600,49300,49400,135,494
2012/11/01,49550,49700,49300,49700,56,497
2012/11/05,50200,50400,49750,50100,157,501
2012/11/06,50100,50500,50000,50000,183,500
2012/11/07,50000,50300,49650,49800,330,498
2012/11/08,49800,50200,49800,49800,269,498
2012/11/12,49800,49900,49550,49800,134,498
2012/11/13,49700,49700,48400,49000,299,490
2012/11/14,49000,49100,48400,49100,204,491
2012/11/16,49700,51200,49700,50600,585,506
2012/11/19,50900,52100,50300,52000,980,520
2012/11/20,51900,52000,51000,52000,383,520
2012/11/21,51500,52100,51300,51300,200,513
2012/11/22,51500,51900,51500,51900,112,519
2012/11/26,52000,52100,51000,51700,144,517
2012/11/27,51600,52300,51600,52300,152,523
2012/11/28,52400,52400,52100,52100,90,521
2012/11/29,52500,53300,52500,53300,227,533
2012/11/30,53000,53700,53000,53400,132,534
2012/12/03,53500,54500,53500,53900,187,539
2012/12/04,54500,54500,53600,54000,125,540
2012/12/05,53900,54200,53500,53500,69,535
2012/12/06,53600,54100,53600,54000,55,540
2012/12/07,53900,54200,53700,54100,152,541
2012/12/10,54100,54600,53800,54400,126,544
2012/12/11,54300,54700,54300,54500,132,545
2012/12/12,54500,54900,54500,54900,191,549
2012/12/13,54800,54900,54700,54700,129,547
2012/12/14,54800,55100,54600,55000,267,550
2012/12/17,55100,55400,54900,55200,231,552
2012/12/18,55200,55400,55200,55400,182,554
2012/12/19,55400,56400,55400,56200,449,562
2012/12/20,56100,56500,56100,56400,221,564
2012/12/21,56400,56700,56300,56300,501,563
2012/12/25,56600,57400,56600,57400,304,574
2012/12/26,57600,58900,57600,57900,527,579
2012/12/27,58200,58600,57800,58000,231,580
2012/12/28,58100,59300,58100,59100,371,591
2013/01/04,59600,63300,59500,62000,1066,620
2013/01/07,61500,62400,61500,62400,340,624
2013/01/08,62000,62300,61000,61700,317,617
2013/01/09,60900,61200,60400,60900,458,609
2013/01/10,61200,61500,60900,61500,232,615
2013/01/11,61500,61500,61000,61300,155,613
2013/01/15,61000,61400,60900,61100,416,611
2013/01/16,61300,61400,61000,61000,239,610
2013/01/17,61000,61200,60800,60900,235,609
2013/01/18,61100,61800,61100,61600,282,616
2013/01/21,61900,63300,61600,62600,1190,626
2013/01/22,62100,62500,62000,62500,411,625
2013/01/23,62500,63100,62000,62300,538,623
2013/01/24,62300,62500,62000,62300,301,623
2013/01/25,62500,62600,61400,62300,507,623
2013/01/28,62500,62600,62200,62500,408,625
2013/01/29,62300,63300,62300,62400,759,624
2013/01/30,62400,62800,62400,62700,270,627
2013/01/31,62700,62900,62500,62900,284,629
2013/02/01,63500,63900,62900,63300,362,633
2013/02/04,63900,65500,63600,65000,876,650
2013/02/05,64600,65600,63700,64100,587,641
2013/02/06,64300,65000,63900,64900,356,649
2013/02/07,65000,65100,64300,64800,207,648
2013/02/08,64400,64400,63300,63300,501,633
2013/02/12,63200,63900,62700,62800,503,628
2013/02/13,63100,63200,60300,61000,659,610
2013/02/14,60600,61400,60000,61300,390,613
2013/02/15,61400,61400,59800,60900,675,609
2013/02/18,60900,61000,60300,60800,215,608
2013/02/19,60900,62100,60900,62100,259,621
2013/02/20,62200,62700,62200,62500,187,625
2013/02/21,62700,62800,62300,62300,168,623
2013/02/22,62500,63000,62500,63000,245,630
2013/02/25,63200,63800,63200,63700,410,637
2013/02/26,63500,64000,63500,63800,416,638
2013/02/27,64000,64200,63900,64100,266,641
2013/02/28,64300,64800,64200,64700,399,647
2013/03/01,64900,65900,64600,65900,594,659
2013/03/04,66500,75600,66500,74000,3087,740
2013/03/05,73100,73100,70300,70500,1057,705
2013/03/06,70500,71200,69700,69900,737,699
2013/03/07,70100,71000,70100,70600,612,706
2013/03/08,70900,70900,69900,70600,400,706
2013/03/11,70600,70600,70000,70100,391,701
2013/03/12,70600,70600,67800,68300,526,683
2013/03/13,68100,69000,68000,68900,172,689
2013/03/14,69200,70500,69200,70400,395,704
2013/03/15,70500,71400,70500,71300,620,713
2013/03/18,72300,75000,71500,72900,471,729
2013/03/19,73100,73700,73100,73600,501,736
2013/03/21,73600,73800,73100,73800,512,738
2013/03/22,73700,74900,73700,74900,432,749
2013/03/25,75200,78100,75200,78100,825,781
2013/03/26,79300,79900,76500,77000,663,770
2013/03/27,77500,79400,77500,79400,224,794
2013/03/28,80000,80800,78500,79000,516,790
2013/03/29,79200,80000,78100,78200,352,782
2013/04/01,78200,80200,76000,76600,855,766
2013/04/02,72600,76800,70200,76100,730,761
2013/04/03,76600,78500,76600,78100,499,781
2013/04/04,78000,79500,77500,79500,494,795
2013/04/05,80100,80900,78500,78600,938,786
2013/04/08,78800,79300,78600,79200,393,792
2013/04/09,79400,79900,78900,79200,377,792
2013/04/10,79300,81100,79300,81100,483,811
2013/04/11,82700,83800,81200,82500,549,825
2013/04/12,84600,84900,82600,84500,583,845
2013/04/15,76000,77700,73900,77200,2062,772
2013/04/16,76900,77500,76000,77400,582,774
2013/04/17,78000,78500,77800,78100,245,781
2013/04/18,78700,79600,78500,79000,272,790
2013/04/19,80600,80600,78800,79400,355,794
2013/04/22,79400,80800,79400,80700,419,807
2013/04/23,80400,80900,80100,80700,260,807
2013/04/24,80900,81700,80800,81600,321,816
2013/04/25,82100,82800,80500,82400,514,824
2013/04/26,82900,83800,81700,83000,415,830
2013/04/30,83500,83800,82300,83300,335,833
2013/05/01,83800,84400,83500,83600,294,836
2013/05/02,83100,83600,83000,83600,184,836
2013/05/07,84400,87900,84100,87900,454,879
2013/05/08,88700,90000,88000,88600,583,886
2013/05/09,89600,90800,89300,89800,316,898
2013/05/10,89900,90500,89000,89000,342,890
2013/05/13,90000,90100,88800,89900,593,899
2013/05/14,90000,90000,88000,88400,577,884
2013/05/15,87400,89400,81500,82100,1146,821
2013/05/16,82100,82100,73900,78700,983,787
2013/05/17,78500,84600,78500,84500,453,845
2013/05/20,85000,86000,84700,85600,250,856
2013/05/21,85500,85600,83100,84200,325,842
2013/05/22,84100,84200,79900,81600,707,816
2013/05/23,82500,82500,75900,75900,1080,759
2013/05/24,76100,81000,76100,79000,310,790
2013/05/27,78500,79000,76000,78300,219,783
2013/05/28,76500,79600,76500,79100,334,791
2013/05/29,79600,82400,79400,82000,358,820
2013/05/30,82500,82500,79500,80400,237,804
2013/05/31,81800,81900,80100,81100,165,811
2013/06/03,80500,80700,79500,79500,117,795
2013/06/04,79500,79600,77300,79600,276,796
2013/06/05,79400,79800,78600,79000,124,790
2013/06/06,77700,78500,72700,73100,525,731
2013/06/07,70700,71000,66100,68000,604,680
2013/06/10,75000,75700,73000,75000,242,750
2013/06/11,75000,76300,74500,76200,164,762
2013/06/12,75500,76300,72200,76200,82,762
2013/06/13,75000,75500,73400,74500,189,745
2013/06/14,76500,76500,75000,76500,229,765
2013/06/17,76000,77400,75600,76800,298,768
2013/06/18,77300,78200,76800,78100,264,781
2013/06/19,78500,79000,78200,78800,392,788
2013/06/20,78000,78800,77700,78700,246,787
2013/06/21,77800,78200,77000,78200,277,782
2013/06/24,78300,79000,78000,79000,592,790
2013/06/25,77800,78800,77000,77900,834,779
2013/06/26,690,710,666,672,83400,672
2013/06/27,672,673,630,660,41900,660
2013/06/28,680,680,637,664,57000,664
2013/07/01,677,690,666,689,35100,689
2013/07/02,700,700,686,696,29700,696
2013/07/03,697,700,690,695,25800,695
2013/07/04,695,700,686,688,19800,688
2013/07/05,685,693,685,687,15100,687
2013/07/08,690,692,675,683,24000,683
2013/07/09,684,688,681,686,5800,686
2013/07/10,686,687,680,680,29100,680
2013/07/11,680,680,666,675,25700,675
2013/07/12,679,679,666,667,20000,667
2013/07/16,667,671,666,668,11900,668
2013/07/17,669,671,660,662,18200,662
2013/07/18,664,677,661,663,22900,663
2013/07/19,672,674,660,663,27200,663
2013/07/22,665,670,662,670,12600,670
2013/07/23,676,691,673,689,36700,689
2013/07/24,696,696,686,694,16600,694
2013/07/25,696,697,688,690,11800,690
2013/07/26,681,682,665,674,23500,674
2013/07/29,664,668,652,652,16800,652
2013/07/30,652,697,652,697,10200,697
2013/07/31,667,686,666,666,12100,666
2013/08/01,673,673,660,666,10100,666
2013/08/02,667,671,667,671,5400,671
2013/08/05,672,680,672,674,10400,674
2013/08/06,681,698,672,682,24300,682
2013/08/07,673,688,672,673,12900,673
2013/08/08,671,679,670,672,8300,672
2013/08/09,675,679,668,676,10200,676
2013/08/12,684,684,667,670,29000,670
2013/08/13,677,677,667,674,12100,674
2013/08/14,679,679,675,676,10200,676
2013/08/15,673,677,660,671,21100,671
2013/08/16,677,683,674,679,28700,679
2013/08/19,685,690,682,688,24400,688
2013/08/20,690,722,688,713,52400,713
2013/08/21,738,769,730,763,148200,763
2013/08/22,764,765,712,744,101800,744
2013/08/23,749,753,714,720,25700,720
2013/08/26,810,810,775,801,167100,801
2013/08/27,786,795,778,780,60200,780
2013/08/28,770,788,770,782,33000,782
2013/08/29,785,791,777,782,30000,782
2013/08/30,780,785,775,781,9800,781
2013/09/02,781,781,775,780,10600,780
2013/09/03,780,782,772,780,17100,780
2013/09/04,781,785,775,784,31700,784
2013/09/05,785,785,780,784,9500,784
2013/09/06,782,782,775,775,16500,775
2013/09/09,782,786,777,784,11600,784
2013/09/10,780,810,776,806,51000,806
2013/09/11,802,806,801,802,23100,802
2013/09/12,803,830,803,826,41700,826
2013/09/13,841,859,841,856,79100,856
2013/09/17,870,880,869,875,62500,875
2013/09/18,890,940,890,921,117500,921
2013/09/19,921,921,880,900,69100,900
2013/09/20,900,910,900,900,30400,900
2013/09/24,900,916,890,916,35800,916
2013/09/25,916,916,903,914,33100,914
2013/09/26,914,914,904,914,9900,914
2013/09/27,910,919,908,908,18700,908
2013/09/30,911,920,905,920,26700,920
2013/10/01,915,943,915,939,41100,939
2013/10/02,949,990,940,969,98200,969
2013/10/03,995,1025,970,1022,77300,1022
2013/10/04,1032,1039,987,995,62900,995
2013/10/07,980,980,942,950,63600,950
2013/10/08,930,934,905,925,56100,925
2013/10/09,912,943,911,943,24400,943
2013/10/10,943,944,926,940,35800,940
2013/10/11,955,980,938,940,36300,940
2013/10/15,943,958,930,931,23300,931
2013/10/16,928,932,925,927,18600,927
2013/10/17,935,936,922,923,35400,923
2013/10/18,915,933,915,926,18700,926
2013/10/21,925,938,925,932,17800,932
2013/10/22,936,940,929,934,13400,934
2013/10/23,934,938,930,935,27300,935
2013/10/24,932,934,925,934,24400,934
2013/10/25,948,948,929,937,13800,937
2013/10/28,935,940,935,935,16000,935
2013/10/29,935,936,905,923,25500,923
2013/10/30,927,944,917,917,38200,917
2013/10/31,928,928,919,919,11700,919
2013/11/01,915,920,895,910,50300,910
2013/11/05,910,927,900,927,14300,927
2013/11/06,925,926,915,922,12300,922
2013/11/07,924,933,922,931,13600,931
2013/11/08,925,935,925,931,8200,931
2013/11/11,934,943,926,926,49100,926
2013/11/12,920,927,920,923,22400,923
2013/11/13,923,933,921,929,18400,929
2013/11/14,931,952,931,944,43800,944
2013/11/15,944,963,944,963,36600,963
2013/11/18,972,978,969,976,24600,976
2013/11/19,980,987,969,987,16800,987
2013/11/20,990,993,976,988,23500,988
2013/11/21,981,988,977,983,16100,983
2013/11/22,985,985,974,978,26500,978
2013/11/25,981,984,974,976,19000,976
2013/11/26,977,978,975,978,10300,978
2013/11/27,1050,1090,1032,1051,157300,1051
2013/11/28,1065,1072,1045,1056,46200,1056
2013/11/29,1060,1085,1056,1080,78900,1080
2013/12/02,1140,1155,1110,1155,112400,1155
2013/12/03,1157,1170,1139,1150,90600,1150
2013/12/04,1140,1140,1060,1122,67100,1122
2013/12/05,1129,1135,1110,1111,33100,1111
2013/12/06,1111,1120,1081,1115,36100,1115
2013/12/09,1135,1135,1080,1085,51500,1085
2013/12/10,1085,1105,1078,1100,29600,1100
2013/12/11,1085,1130,1085,1105,44000,1105
2013/12/12,1115,1115,1091,1102,30700,1102
2013/12/13,1132,1133,1118,1124,45100,1124
2013/12/16,1160,1187,1145,1159,99000,1159
2013/12/17,1145,1161,1142,1153,61900,1153
2013/12/18,1153,1164,1150,1150,70800,1150
2013/12/19,1158,1180,1144,1144,81600,1144
2013/12/20,1147,1154,1135,1147,71800,1147
2013/12/24,1147,1160,1106,1110,105800,1110
2013/12/25,1101,1138,1101,1128,109000,1128
2013/12/26,1128,1189,1128,1183,66200,1183
2013/12/27,1200,1245,1200,1239,90900,1239
2013/12/30,1295,1359,1280,1327,88900,1327
2014/01/06,1331,1366,1295,1366,66500,1366
2014/01/07,1360,1364,1335,1344,49000,1344
2014/01/08,1340,1348,1325,1336,26500,1336
2014/01/09,1346,1350,1267,1293,55700,1293
2014/01/10,1280,1280,1239,1265,74300,1265
2014/01/14,1241,1340,1230,1310,67300,1310
2014/01/15,1340,1365,1321,1339,48900,1339
2014/01/16,1345,1390,1341,1365,55100,1365
2014/01/17,1365,1450,1361,1435,68600,1435
2014/01/20,1450,1450,1402,1450,34200,1450
2014/01/21,1451,1475,1418,1420,40300,1420
2014/01/22,1407,1450,1405,1440,34500,1440
2014/01/23,1453,1454,1436,1443,22700,1443
2014/01/24,1425,1429,1404,1425,35200,1425
2014/01/27,1350,1372,1344,1358,66100,1358
2014/01/28,1358,1425,1350,1410,36000,1410
2014/01/29,1440,1524,1427,1511,106600,1511
2014/01/30,1476,1576,1441,1539,271900,1539
2014/01/31,1576,1626,1538,1554,141500,1554
2014/02/03,1532,1590,1516,1526,86100,1526
2014/02/04,1306,1397,1251,1305,153700,1305
2014/02/05,1313,1382,1284,1309,88200,1309
2014/02/06,1305,1352,1305,1339,25400,1339
2014/02/07,1423,1423,1331,1355,46100,1355
2014/02/10,1545,1552,1442,1457,63300,1457
2014/02/12,1520,1520,1444,1461,40400,1461
2014/02/13,1450,1450,1390,1406,38100,1406
2014/02/14,1430,1486,1410,1469,62200,1469
2014/02/17,1487,1510,1429,1481,45000,1481
2014/02/18,1499,1507,1439,1497,22600,1497
2014/02/19,1480,1540,1480,1534,39600,1534
2014/02/20,1531,1599,1517,1533,83100,1533
2014/02/21,1533,1544,1510,1512,35000,1512
2014/02/24,1510,1522,1457,1487,37400,1487
2014/02/25,1506,1560,1499,1508,48400,1508
2014/02/26,1481,1497,1471,1473,31300,1473
2014/02/27,1473,1488,1428,1434,35400,1434
2014/02/28,1412,1412,1369,1378,58200,1378
2014/03/03,1378,1378,1318,1341,58600,1341
2014/03/04,1311,1364,1310,1362,42300,1362
2014/03/05,1399,1409,1344,1346,33400,1346
2014/03/06,1346,1375,1335,1362,40900,1362
2014/03/07,1359,1382,1341,1350,33900,1350
2014/03/10,1352,1367,1341,1345,26000,1345
2014/03/11,1342,1361,1340,1341,27400,1341
2014/03/12,1341,1343,1302,1303,42600,1303
2014/03/13,1303,1353,1297,1331,42700,1331
2014/03/14,1303,1363,1303,1342,51200,1342
2014/03/17,1380,1432,1357,1372,90400,1372
2014/03/18,1400,1400,1372,1375,33200,1375
2014/03/19,1399,1407,1362,1378,43000,1378
2014/03/20,1361,1395,1326,1349,66900,1349
2014/03/24,1340,1425,1340,1400,76200,1400
2014/03/25,1407,1429,1400,1400,57700,1400
2014/03/26,1420,1500,1420,1488,127200,1488
2014/03/27,1458,1508,1428,1500,114800,1500
2014/03/28,1500,1585,1500,1575,126000,1575
2014/03/31,1598,1618,1564,1618,109200,1618
2014/04/01,1590,1614,1553,1558,97900,1558
2014/04/02,1556,1574,1509,1534,62100,1534
2014/04/03,1528,1548,1480,1484,94100,1484
2014/04/04,1482,1506,1480,1487,64600,1487
2014/04/07,1483,1492,1445,1459,55100,1459
2014/04/08,1457,1467,1426,1431,46900,1431
2014/04/09,1411,1425,1402,1409,48800,1409
2014/04/10,1450,1484,1413,1414,45900,1414
2014/04/11,1400,1470,1391,1430,82000,1430
2014/04/14,1432,1468,1432,1461,35800,1461
2014/04/15,1492,1494,1470,1474,36300,1474
2014/04/16,1493,1514,1485,1504,57900,1504
2014/04/17,1514,1580,1507,1562,108000,1562
2014/04/18,1566,1566,1522,1559,58000,1559
2014/04/21,1559,1578,1537,1558,50300,1558
2014/04/22,1569,1574,1528,1530,25900,1530
2014/04/23,1540,1540,1511,1526,30400,1526
2014/04/24,1535,1561,1529,1560,41400,1560
2014/04/25,1559,1580,1550,1563,41000,1563
2014/04/28,1554,1554,1512,1518,61900,1518
2014/04/30,1544,1554,1529,1543,41100,1543
2014/05/01,1555,1576,1533,1574,33100,1574
2014/05/02,1585,1596,1563,1575,34100,1575
2014/05/07,1575,1575,1549,1549,20200,1549
2014/05/08,1550,1559,1525,1527,33700,1527
2014/05/09,1531,1585,1531,1584,43500,1584
2014/05/12,1521,1545,1451,1477,84800,1477
2014/05/13,1490,1505,1461,1476,44500,1476
2014/05/14,1476,1505,1476,1494,22000,1494
2014/05/15,1475,1504,1461,1492,25800,1492
2014/05/16,1466,1471,1444,1451,49700,1451
2014/05/19,1452,1466,1401,1410,45000,1410
2014/05/20,1408,1410,1386,1389,42900,1389
2014/05/21,1388,1394,1351,1353,49100,1353
2014/05/22,1385,1416,1373,1395,37200,1395
2014/05/23,1425,1461,1425,1458,39300,1458
2014/05/26,1465,1498,1465,1490,34800,1490
2014/05/27,1505,1525,1505,1513,25900,1513
2014/05/28,1513,1544,1513,1539,35100,1539
2014/05/29,1539,1546,1536,1543,29700,1543
2014/05/30,1538,1549,1533,1546,32900,1546
2014/06/02,1556,1593,1553,1580,42400,1580
2014/06/03,1590,1594,1566,1567,32200,1567
2014/06/04,1578,1597,1576,1592,29400,1592
2014/06/05,1591,1593,1570,1576,20000,1576
2014/06/06,1572,1605,1572,1598,39100,1598
2014/06/09,1616,1750,1616,1700,129500,1700
2014/06/10,1710,1742,1668,1721,82200,1721
2014/06/11,1712,1820,1706,1799,85900,1799
2014/06/12,1801,1825,1743,1763,52500,1763
2014/06/13,1750,1780,1730,1760,38100,1760
2014/06/16,1760,1763,1700,1722,59000,1722
2014/06/17,1719,1730,1700,1721,29400,1721
2014/06/18,1731,1747,1731,1738,16600,1738
2014/06/19,1743,1762,1735,1741,35800,1741
2014/06/20,1752,1760,1740,1740,22800,1740
2014/06/23,1748,1764,1735,1758,42300,1758
2014/06/24,1761,1776,1761,1765,29800,1765
2014/06/25,1765,1768,1725,1748,50400,1748
2014/06/26,1699,1705,1672,1683,51800,1683
2014/06/27,1682,1698,1660,1669,29500,1669
2014/06/30,1660,1699,1642,1692,27900,1692
2014/07/01,1682,1722,1682,1709,31400,1709
2014/07/02,1710,1721,1699,1699,16000,1699
2014/07/03,1710,1713,1691,1699,16400,1699
2014/07/04,1710,1718,1701,1709,11300,1709
2014/07/07,1720,1720,1711,1717,13700,1717
2014/07/08,1705,1777,1704,1772,46500,1772
2014/07/09,1765,1765,1729,1754,21500,1754
2014/07/10,1783,1800,1751,1756,47900,1756
2014/07/11,1756,1756,1699,1712,33100,1712
2014/07/14,1709,1710,1667,1681,25200,1681
2014/07/15,1681,1700,1667,1671,26500,1671
2014/07/16,1695,1695,1671,1673,14800,1673
2014/07/17,1694,1694,1661,1666,24300,1666
2014/07/18,1641,1666,1615,1636,46900,1636
2014/07/22,1626,1650,1623,1650,14700,1650
2014/07/23,1650,1665,1636,1655,16800,1655
2014/07/24,1660,1672,1656,1659,31000,1659
2014/07/25,1672,1685,1655,1680,27900,1680
2014/07/28,1699,1718,1693,1702,29600,1702
2014/07/29,1702,1714,1695,1699,13600,1699
2014/07/30,1715,1728,1694,1714,28200,1714
2014/07/31,1722,1722,1690,1691,20700,1691
2014/08/01,1651,1672,1650,1655,26600,1655
2014/08/04,1692,1722,1692,1709,39800,1709
2014/08/05,1721,1723,1707,1707,25200,1707
2014/08/06,1700,1704,1660,1673,20500,1673
2014/08/07,1660,1684,1651,1678,22600,1678
2014/08/08,1681,1683,1651,1666,18100,1666
2014/08/11,1723,1780,1692,1749,124100,1749
2014/08/12,1780,1786,1770,1772,30800,1772
2014/08/13,1772,1880,1763,1864,96000,1864
2014/08/14,1878,1956,1877,1907,83900,1907
2014/08/15,1910,1955,1856,1935,59200,1935
2014/08/18,1929,2040,1929,1989,86000,1989
2014/08/19,2029,2039,1953,1962,49600,1962
2014/08/20,1930,1936,1885,1896,48500,1896
2014/08/21,1891,1894,1849,1891,49400,1891
2014/08/22,1899,1900,1856,1871,24900,1871
2014/08/25,1869,1910,1855,1873,27500,1873
2014/08/26,1950,1980,1891,1960,57100,1960
2014/08/27,1960,1960,1907,1925,38100,1925
2014/08/28,1925,1925,1881,1889,26000,1889
2014/08/29,1909,1921,1872,1913,17800,1913
2014/09/01,1913,1922,1896,1899,9800,1899
2014/09/02,1906,1919,1882,1890,18200,1890
2014/09/03,1890,1905,1885,1890,16900,1890
2014/09/04,1881,1883,1841,1844,33800,1844
2014/09/05,1847,1869,1831,1837,19500,1837
2014/09/08,1892,1892,1864,1869,21300,1869
2014/09/09,1889,1911,1886,1887,22200,1887
2014/09/10,1893,1896,1871,1879,15300,1879
2014/09/11,1897,1900,1870,1899,22000,1899
2014/09/12,1885,1917,1885,1900,19400,1900
2014/09/16,2020,2020,1933,1947,54000,1947
2014/09/17,1941,1959,1915,1932,16600,1932
2014/09/18,1972,1973,1926,1929,18800,1929
2014/09/19,1929,1940,1917,1935,12500,1935
2014/09/22,1945,1960,1934,1938,17800,1938
2014/09/24,1930,1948,1863,1894,55000,1894
2014/09/25,1934,1934,1898,1908,20300,1908
2014/09/26,1917,1942,1885,1924,34100,1924
2014/09/29,1960,1990,1912,1919,46600,1919
2014/09/30,1939,1939,1910,1929,20800,1929
2014/10/01,1938,1958,1927,1927,20800,1927
2014/10/02,1900,1904,1874,1877,31800,1877
2014/10/03,1870,1895,1813,1824,88800,1824
2014/10/06,1830,1877,1818,1821,66400,1821
2014/10/07,1838,1838,1800,1800,34600,1800
2014/10/08,1753,1796,1740,1787,73900,1787
2014/10/09,1795,1804,1734,1742,34900,1742
2014/10/10,1681,1746,1681,1710,56400,1710
2014/10/14,1681,1724,1658,1703,47200,1703
2014/10/15,1705,1734,1668,1722,56900,1722
2014/10/16,1685,1767,1665,1694,46700,1694
2014/10/17,1710,1740,1705,1715,22400,1715
2014/10/20,1742,1810,1742,1809,31200,1809
2014/10/21,1816,1820,1782,1790,17200,1790
2014/10/22,1797,1850,1797,1833,27800,1833
2014/10/23,1849,1849,1818,1822,15000,1822
2014/10/24,1850,1856,1822,1828,12300,1828
2014/10/27,1857,1890,1842,1890,32300,1890
2014/10/28,1890,1900,1863,1878,13400,1878
2014/10/29,1877,1898,1856,1879,17900,1879
2014/10/30,1860,1881,1840,1861,27400,1861
2014/10/31,1879,1880,1834,1875,38900,1875
2014/11/04,1899,1905,1859,1870,58300,1870
2014/11/05,1883,1897,1859,1892,43700,1892
2014/11/06,1920,1925,1880,1889,48700,1889
2014/11/07,1900,1927,1900,1921,30200,1921
2014/11/10,1810,1838,1791,1828,116900,1828
2014/11/11,1828,1876,1817,1858,72300,1858
2014/11/12,1876,1876,1827,1840,40400,1840
2014/11/13,1810,1830,1750,1761,86900,1761
2014/11/14,1758,1765,1730,1745,43500,1745
2014/11/17,1751,1764,1737,1741,47400,1741
2014/11/18,1741,1765,1732,1742,46000,1742
2014/11/19,1742,1757,1720,1724,36000,1724
2014/11/20,1723,1744,1691,1704,57400,1704
2014/11/21,1705,1744,1699,1738,33100,1738
2014/11/25,1752,1799,1740,1790,44200,1790
2014/11/26,1798,1805,1782,1791,21100,1791
2014/11/27,1802,1802,1783,1783,15400,1783
2014/11/28,1800,1801,1784,1788,19700,1788
2014/12/01,1793,1854,1793,1841,39100,1841
2014/12/02,1844,1853,1835,1844,20000,1844
2014/12/03,1838,1846,1825,1826,18600,1826
2014/12/04,1828,1842,1822,1833,19700,1833
2014/12/05,1840,1840,1821,1831,12000,1831
2014/12/08,1831,1839,1818,1825,13200,1825
2014/12/09,1810,1820,1805,1806,16800,1806
2014/12/10,1792,1800,1770,1775,19600,1775
2014/12/11,1756,1789,1756,1784,7000,1784
2014/12/12,1765,1797,1765,1774,17800,1774
2014/12/15,1774,1819,1767,1800,20500,1800
2014/12/16,1790,1790,1760,1760,19800,1760
2014/12/17,1770,1788,1752,1776,20500,1776
2014/12/18,1778,1790,1775,1782,15600,1782
2014/12/19,1822,1822,1800,1816,18500,1816
2014/12/22,1830,1830,1790,1819,20500,1819
2014/12/24,1796,1824,1796,1815,19100,1815
2014/12/25,1818,1830,1802,1820,17700,1820
2014/12/26,1795,1815,1793,1803,27600,1803
2014/12/29,1818,1828,1816,1818,29700,1818
2014/12/30,1818,1818,1800,1806,18900,1806
2015/01/05,1806,1819,1800,1810,25400,1810
2015/01/06,1808,1808,1782,1782,22400,1782
2015/01/07,1780,1780,1740,1752,28000,1752
2015/01/08,1752,1798,1750,1754,26600,1754
2015/01/09,1755,1770,1754,1768,14400,1768
2015/01/13,1768,1793,1762,1788,19700,1788
2015/01/14,1795,1797,1771,1773,10300,1773
2015/01/15,1768,1795,1766,1794,13400,1794
2015/01/16,1794,1794,1760,1780,9500,1780
2015/01/19,1809,1809,1772,1779,26100,1779
2015/01/20,1779,1794,1770,1775,20100,1775
2015/01/21,1770,1771,1728,1730,47200,1730
2015/01/22,1730,1739,1711,1720,13200,1720
2015/01/23,1740,1747,1732,1747,9300,1747
2015/01/26,1745,1755,1730,1754,8600,1754
2015/01/27,1744,1752,1738,1742,8400,1742
2015/01/28,1745,1745,1732,1740,11800,1740
2015/01/29,1721,1737,1714,1715,23400,1715
2015/01/30,1736,1737,1713,1729,11500,1729
2015/02/02,1729,1729,1705,1713,14600,1713
2015/02/03,1713,1735,1713,1717,12500,1717
2015/02/04,1717,1733,1717,1729,6600,1729
2015/02/05,1720,1731,1708,1709,20100,1709
2015/02/06,1715,1735,1701,1730,26600,1730
2015/02/09,1715,1760,1715,1723,39400,1723
2015/02/10,1720,1734,1715,1723,22200,1723
2015/02/12,1723,1739,1716,1724,29200,1724
2015/02/13,1740,1746,1713,1721,24700,1721
2015/02/16,1747,1747,1720,1724,24200,1724
2015/02/17,1718,1727,1718,1719,11400,1719
2015/02/18,1725,1737,1715,1731,35800,1731
2015/02/19,1725,1763,1725,1761,40800,1761
2015/02/20,1764,1818,1764,1811,37400,1811
2015/02/23,1815,1830,1812,1827,29800,1827
2015/02/24,1840,1886,1840,1862,51100,1862
2015/02/25,1880,1889,1860,1884,28400,1884
2015/02/26,1884,1895,1850,1894,42000,1894
2015/02/27,1894,1918,1875,1895,39900,1895
2015/03/02,1919,1977,1913,1975,54700,1975
2015/03/03,2000,2005,1926,1942,38000,1942
2015/03/04,1918,1997,1918,1984,40600,1984
2015/03/05,1967,1984,1965,1982,17200,1982
2015/03/06,1982,1983,1936,1949,24700,1949
2015/03/09,1921,1965,1920,1953,12600,1953
2015/03/10,1945,1971,1940,1954,15300,1954
2015/03/11,1950,1970,1940,1963,20000,1963
2015/03/12,1963,1977,1959,1977,19500,1977
2015/03/13,1990,2028,1978,2019,62300,2019
2015/03/16,2045,2119,2045,2109,52600,2109
2015/03/17,2125,2168,2064,2101,44900,2101
2015/03/18,2115,2191,2115,2191,46500,2191
2015/03/19,2200,2327,2200,2311,87100,2311
2015/03/20,2358,2451,2313,2450,87800,2450
2015/03/23,2499,2499,2274,2324,87400,2324
2015/03/24,2318,2343,2247,2275,52900,2275
2015/03/25,2320,2320,2252,2260,22400,2260
2015/03/26,2259,2292,2258,2281,21800,2281
2015/03/27,2252,2340,2237,2310,30100,2310
2015/03/30,2300,2300,2250,2276,24200,2276
2015/03/31,2297,2376,2274,2315,32300,2315
2015/04/01,2320,2342,2269,2342,28700,2342
2015/04/02,2342,2368,2316,2330,27500,2330
2015/04/03,2360,2405,2360,2389,25400,2389
2015/04/06,2375,2475,2375,2463,26200,2463
2015/04/07,2499,2520,2432,2439,49600,2439
2015/04/08,2479,2510,2463,2488,25700,2488
2015/04/09,2488,2500,2463,2478,15700,2478
2015/04/10,2478,2485,2431,2437,23200,2437
2015/04/13,2406,2460,2402,2444,20000,2444
2015/04/14,2444,2467,2430,2467,9800,2467
2015/04/15,2467,2478,2433,2466,13100,2466
2015/04/16,2453,2454,2382,2402,30800,2402
2015/04/17,2388,2389,2330,2339,25100,2339
2015/04/20,2289,2353,2280,2295,19300,2295
2015/04/21,2315,2386,2315,2375,14700,2375
2015/04/22,2375,2420,2370,2403,20500,2403
2015/04/23,2428,2428,2404,2413,11400,2413
2015/04/24,2429,2429,2402,2411,13600,2411
2015/04/27,2405,2410,2368,2384,11600,2384
2015/04/28,2380,2383,2362,2371,18600,2371
2015/04/30,2362,2362,2285,2304,35500,2304
2015/05/01,2285,2285,2213,2229,25500,2229
2015/05/07,2195,2245,2195,2210,12800,2210
2015/05/08,2211,2280,2211,2266,16300,2266
2015/05/11,2016,2151,1972,2141,119700,2141
2015/05/12,2082,2144,2082,2135,40200,2135
2015/05/13,2135,2167,2127,2137,15500,2137
2015/05/14,2138,2164,2122,2130,26000,2130
2015/05/15,2163,2163,2128,2139,7500,2139
2015/05/18,2130,2162,2120,2147,19300,2147
2015/05/19,2150,2197,2150,2177,19400,2177
2015/05/20,2234,2256,2203,2236,22200,2236
2015/05/21,2236,2240,2210,2237,15800,2237
2015/05/22,2249,2249,2225,2233,8900,2233
2015/05/25,2235,2260,2235,2238,11900,2238
2015/05/26,2235,2235,2190,2217,15000,2217
2015/05/27,2200,2213,2194,2213,12400,2213
2015/05/28,2203,2237,2203,2220,8400,2220
2015/05/29,2199,2209,2191,2191,23500,2191
2015/06/01,2192,2231,2189,2223,13900,2223
2015/06/02,2223,2223,2201,2208,14500,2208
2015/06/03,2213,2227,2210,2227,10200,2227
2015/06/04,2231,2247,2225,2242,11400,2242
2015/06/05,2245,2249,2235,2237,20500,2237
2015/06/08,2225,2248,2217,2234,14800,2234
2015/06/09,2222,2225,2202,2204,19900,2204
2015/06/10,2193,2230,2193,2212,10000,2212
2015/06/11,2226,2228,2200,2205,13700,2205
2015/06/12,2201,2230,2200,2229,18600,2229
2015/06/15,2249,2320,2249,2296,48500,2296
2015/06/16,2323,2400,2320,2375,43000,2375
2015/06/17,2387,2398,2340,2376,37200,2376
2015/06/18,2381,2395,2350,2354,25300,2354
2015/06/19,2354,2398,2344,2386,23500,2386
2015/06/22,2400,2450,2380,2429,48900,2429
2015/06/23,2410,2424,2396,2422,29600,2422
2015/06/24,2420,2420,2402,2412,13100,2412
2015/06/25,2400,2426,2386,2413,29500,2413
2015/06/26,2377,2377,2330,2363,28900,2363
2015/06/29,2262,2323,2220,2285,27500,2285
2015/06/30,2271,2343,2271,2325,19600,2325
2015/07/01,2294,2361,2286,2347,19900,2347
