2011/01/06,45100,45200,45100,45200,4,226
2011/01/12,47000,52000,46300,51000,119,255
2011/01/17,49000,49500,48000,48000,9,240
2011/01/21,47500,48600,47500,48600,4,243
2011/01/28,50000,50200,46050,48000,149,240
2011/01/31,47650,47650,47600,47600,14,238
2011/02/01,50100,50100,50000,50000,6,250
2011/02/02,50100,52000,50000,51000,44,255
2011/02/04,50500,52000,50100,51000,11,255
2011/02/07,51000,51000,50600,50600,3,253
2011/02/08,51000,51700,50000,50000,8,250
2011/02/10,50200,50200,49600,49600,2,248
2011/02/15,50000,51100,50000,51000,3,255
2011/02/21,49950,55800,49500,52000,25,260
2011/02/22,52000,52000,50600,51600,15,258
2011/02/23,52000,52000,50300,52000,5,260
2011/02/25,253,253,217,243,4200,243
2011/02/28,230,250,230,250,1700,250
2011/03/01,250,250,234,234,1900,234
2011/03/02,238,314,238,262,133100,262
2011/03/03,263,270,246,252,69300,252
2011/03/04,252,253,240,246,23800,246
2011/03/07,250,250,246,247,5200,247
2011/03/08,246,251,246,249,7200,249
2011/03/09,249,249,249,249,500,249
2011/03/10,250,251,245,245,7400,245
2011/03/11,245,245,242,243,2500,243
2011/03/14,220,220,175,216,20700,216
2011/03/15,202,202,145,145,26400,145
2011/03/16,152,195,152,195,7900,195
2011/03/17,208,208,200,204,2500,204
2011/03/18,198,207,168,194,7800,194
2011/03/22,198,200,195,199,2600,199
2011/03/23,199,200,199,200,900,200
2011/03/24,207,207,196,196,1400,196
2011/03/25,194,198,194,198,1700,198
2011/03/28,196,200,195,200,800,200
2011/03/29,195,195,195,195,600,195
2011/03/30,190,194,185,189,3200,189
2011/03/31,189,190,183,185,7500,185
2011/04/01,188,193,188,190,400,190
2011/04/04,190,190,190,190,1500,190
2011/04/05,193,193,186,186,2300,186
2011/04/06,186,186,186,186,400,186
2011/04/08,176,189,176,189,400,189
2011/04/11,185,188,185,188,2100,188
2011/04/12,185,185,183,183,1200,183
2011/04/13,178,183,178,183,1100,183
2011/04/14,185,185,183,183,1100,183
2011/04/15,181,181,180,180,1000,180
2011/04/18,180,187,180,187,200,187
2011/04/19,185,189,185,189,800,189
2011/04/20,190,200,190,198,2900,198
2011/04/21,200,205,200,204,3400,204
2011/04/22,207,210,204,204,4100,204
2011/04/25,205,205,197,197,5400,197
2011/04/26,201,201,201,201,100,201
2011/04/27,205,205,194,194,900,194
2011/04/28,194,198,194,198,1500,198
2011/05/02,198,198,198,198,1700,198
2011/05/06,198,198,190,192,500,192
2011/05/09,191,193,191,191,1600,191
2011/05/10,193,193,193,193,300,193
2011/05/13,192,192,192,192,100,192
2011/05/16,192,197,191,197,1300,197
2011/05/17,191,196,190,196,600,196
2011/05/19,196,196,191,191,800,191
2011/05/20,191,191,191,191,100,191
2011/05/23,191,191,191,191,100,191
2011/05/24,185,185,178,178,2300,178
2011/05/25,189,189,189,189,100,189
2011/05/27,185,190,185,190,300,190
2011/05/30,190,190,190,190,100,190
2011/05/31,182,182,182,182,400,182
2011/06/01,186,186,186,186,100,186
2011/06/02,187,187,184,184,2300,184
2011/06/06,185,185,184,184,700,184
2011/06/07,184,184,180,182,600,182
2011/06/08,179,180,179,179,3200,179
2011/06/09,180,180,180,180,600,180
2011/06/13,180,180,180,180,400,180
2011/06/14,181,181,181,181,200,181
2011/06/15,181,181,181,181,400,181
2011/06/16,182,185,182,185,500,185
2011/06/20,183,183,183,183,100,183
2011/06/21,185,185,185,185,300,185
2011/06/22,185,185,185,185,300,185
2011/06/23,183,183,183,183,100,183
2011/06/24,185,185,185,185,100,185
2011/06/27,181,184,181,184,600,184
2011/06/28,185,185,180,180,500,180
2011/06/29,182,185,180,180,900,180
2011/06/30,180,184,180,184,400,184
2011/07/01,186,190,186,190,400,190
2011/07/04,190,197,190,195,3700,195
2011/07/05,195,201,195,201,800,201
2011/07/06,201,201,201,201,1200,201
2011/07/07,200,200,196,197,900,197
2011/07/08,194,200,194,199,600,199
2011/07/11,200,200,199,199,200,199
2011/07/12,198,198,198,198,100,198
2011/07/13,199,199,198,198,200,198
2011/07/14,199,199,199,199,100,199
2011/07/15,195,195,195,195,200,195
2011/07/19,195,199,194,199,300,199
2011/07/20,196,196,191,192,600,192
2011/07/21,192,192,192,192,800,192
2011/07/27,190,190,190,190,2000,190
2011/07/28,196,196,196,196,100,196
2011/07/29,196,197,196,197,200,197
2011/08/01,197,197,197,197,1500,197
2011/08/02,198,198,197,197,300,197
2011/08/03,187,189,181,187,13100,187
2011/08/04,184,190,184,190,2300,190
2011/08/05,181,181,176,180,3900,180
2011/08/08,180,180,180,180,1000,180
2011/08/09,175,180,175,180,1100,180
2011/08/10,180,180,180,180,1500,180
2011/08/12,175,175,175,175,400,175
2011/08/16,175,175,175,175,500,175
2011/08/17,179,183,178,183,400,183
2011/08/18,180,180,180,180,400,180
2011/08/19,178,178,177,177,900,177
2011/08/22,175,175,175,175,300,175
2011/08/23,172,179,171,179,900,179
2011/08/24,180,180,180,180,300,180
2011/08/25,180,180,180,180,200,180
2011/08/26,180,180,180,180,100,180
2011/08/29,173,176,173,175,900,175
2011/08/30,179,179,179,179,100,179
2011/08/31,175,175,175,175,2000,175
2011/09/01,176,179,176,179,300,179
2011/09/02,179,179,179,179,2100,179
2011/09/05,174,174,174,174,100,174
2011/09/08,179,179,179,179,400,179
2011/09/09,173,173,173,173,500,173
2011/09/12,173,173,173,173,200,173
2011/09/13,178,178,178,178,800,178
2011/09/14,177,178,172,178,1700,178
2011/09/15,178,178,177,177,200,177
2011/09/16,175,175,175,175,200,175
2011/09/21,178,179,178,179,300,179
2011/09/22,176,178,170,178,800,178
2011/09/26,170,178,166,177,1200,177
2011/09/27,168,176,168,176,300,176
2011/09/28,166,170,166,168,300,168
2011/09/29,168,168,168,168,100,168
2011/09/30,168,168,168,168,200,168
2011/10/03,168,173,168,173,400,173
2011/10/04,173,173,168,168,1700,168
2011/10/05,165,167,165,167,400,167
2011/10/06,165,165,165,165,100,165
2011/10/07,162,162,162,162,300,162
2011/10/11,165,165,165,165,100,165
2011/10/12,160,165,160,165,1100,165
2011/10/13,165,165,163,163,400,163
2011/10/14,161,163,159,163,600,163
2011/10/17,160,163,160,163,600,163
2011/10/19,165,165,165,165,100,165
2011/10/20,160,161,160,161,600,161
2011/10/27,164,164,160,160,300,160
2011/10/31,160,164,160,164,300,164
2011/11/01,164,164,158,158,1600,158
2011/11/02,160,160,160,160,1200,160
2011/11/04,155,155,150,155,3000,155
2011/11/07,160,160,152,157,500,157
2011/11/09,159,160,159,160,700,160
2011/11/10,160,160,159,159,1500,159
2011/11/11,151,151,151,151,1000,151
2011/11/14,152,155,152,155,200,155
2011/11/15,152,155,152,155,400,155
2011/11/16,152,153,152,152,400,152
2011/11/21,155,155,153,153,200,153
2011/11/25,153,153,153,153,200,153
2011/11/29,157,158,157,158,200,158
2011/12/01,158,160,158,159,1900,159
2011/12/02,159,159,159,159,500,159
2011/12/05,159,159,159,159,400,159
2011/12/06,165,165,159,159,2900,159
2011/12/07,160,160,160,160,200,160
2011/12/09,161,161,155,155,400,155
2011/12/12,161,164,161,164,200,164
2011/12/13,161,161,159,159,300,159
2011/12/14,161,161,158,158,1500,158
2011/12/15,161,167,161,167,800,167
2011/12/16,161,163,161,162,600,162
2011/12/19,170,170,169,170,1300,170
2011/12/20,168,168,164,164,400,164
2011/12/21,164,165,164,165,400,165
2011/12/22,160,160,157,157,2600,157
2011/12/26,162,164,162,164,700,164
2011/12/27,164,165,164,164,800,164
2011/12/28,169,214,169,210,75200,210
2011/12/29,200,287,193,240,591300,240
2011/12/30,264,287,213,213,369100,213
2012/01/04,221,224,207,214,114600,214
2012/01/05,213,222,208,219,26000,219
2012/01/06,222,222,200,208,24600,208
2012/01/10,200,205,197,203,33600,203
2012/01/11,204,226,201,206,45400,206
2012/01/12,205,206,200,200,10100,200
2012/01/13,200,201,199,200,6500,200
2012/01/16,199,199,194,196,7600,196
2012/01/17,194,200,194,199,8400,199
2012/01/18,195,201,193,196,9300,196
2012/01/19,197,200,192,193,7200,193
2012/01/20,194,214,194,199,22100,199
2012/01/23,200,200,197,197,4400,197
2012/01/24,201,201,195,197,3100,197
2012/01/25,197,200,194,196,5300,196
2012/01/26,196,197,194,197,6100,197
2012/01/27,197,202,194,198,9200,198
2012/01/30,198,209,198,203,11700,203
2012/01/31,206,243,190,192,144000,192
2012/02/01,193,198,183,187,49400,187
2012/02/02,188,191,187,188,3200,188
2012/02/03,188,188,184,186,7900,186
2012/02/06,188,194,188,188,2300,188
2012/02/07,188,190,188,190,7200,190
2012/02/08,190,193,189,193,3200,193
2012/02/09,192,194,185,187,13100,187
2012/02/10,186,191,186,188,6100,188
2012/02/13,188,189,187,189,3000,189
2012/02/14,194,194,191,191,7500,191
2012/02/15,194,196,191,195,9500,195
2012/02/16,196,202,196,201,19100,201
2012/02/17,201,203,198,203,5200,203
2012/02/20,204,207,204,207,8800,207
2012/02/21,210,214,204,205,13200,205
2012/02/22,206,208,204,207,6200,207
2012/02/23,208,211,208,211,4200,211
2012/02/24,211,215,208,210,12700,210
2012/02/27,217,222,212,222,21400,222
2012/02/28,222,234,218,230,31900,230
2012/02/29,229,234,223,233,11800,233
2012/03/01,235,236,226,228,17400,228
2012/03/02,225,227,220,226,6200,226
2012/03/05,224,230,224,229,12300,229
2012/03/06,225,231,225,229,5600,229
2012/03/07,225,226,221,225,4500,225
2012/03/08,224,236,224,233,9300,233
2012/03/09,235,240,228,237,22700,237
2012/03/12,252,257,245,247,24900,247
2012/03/13,250,250,244,245,8000,245
2012/03/14,246,254,246,250,14100,250
2012/03/15,257,263,254,258,17100,258
2012/03/16,260,280,258,269,54500,269
2012/03/19,271,288,271,287,49900,287
2012/03/21,281,281,267,276,19400,276
2012/03/22,277,287,277,284,14100,284
2012/03/23,284,284,270,279,15600,279
2012/03/26,278,283,268,271,15400,271
2012/03/27,267,273,259,272,21700,272
2012/03/28,270,278,260,273,19000,273
2012/03/29,271,290,239,247,267800,247
2012/03/30,248,249,238,245,95800,245
2012/04/02,253,253,240,242,27900,242
2012/04/03,242,245,240,243,12100,243
2012/04/04,242,248,238,239,18000,239
2012/04/05,239,239,233,237,8300,237
2012/04/06,234,237,230,231,13500,231
2012/04/09,231,234,228,233,9500,233
2012/04/10,230,232,228,230,13500,230
2012/04/11,228,230,227,229,2000,229
2012/04/12,226,228,225,226,8800,226
2012/04/13,226,231,226,231,6000,231
2012/04/16,230,235,229,231,6000,231
2012/04/17,235,235,230,231,4000,231
2012/04/18,236,237,233,236,3000,236
2012/04/19,236,245,236,240,8300,240
2012/04/20,239,244,239,240,3000,240
2012/04/23,236,241,236,239,2400,239
2012/04/24,238,238,235,235,1700,235
2012/04/25,236,236,233,236,4000,236
2012/04/26,235,254,235,251,40100,251
2012/04/27,243,252,240,246,15800,246
2012/05/01,248,248,237,240,8400,240
2012/05/02,238,242,238,242,1300,242
2012/05/07,237,241,235,237,4100,237
2012/05/08,236,239,232,236,6100,236
2012/05/09,236,236,229,230,3900,230
2012/05/10,230,234,230,231,2000,231
2012/05/11,231,234,223,223,10100,223
2012/05/14,220,259,220,246,47400,246
2012/05/15,257,293,194,194,448700,194
2012/05/16,206,227,203,214,65800,214
2012/05/17,210,224,210,217,16500,217
2012/05/18,212,214,209,211,2000,211
2012/05/21,209,213,205,208,7300,208
2012/05/22,209,216,209,212,5400,212
2012/05/23,216,217,206,207,5100,207
2012/05/24,210,214,204,205,7400,205
2012/05/25,205,216,204,210,5700,210
2012/05/28,210,214,207,208,4900,208
2012/05/29,215,242,210,210,29700,210
2012/05/30,215,215,211,212,3400,212
2012/05/31,211,219,211,219,1800,219
2012/06/01,220,227,215,216,6100,216
2012/06/04,216,216,210,210,1400,210
2012/06/06,215,216,215,216,300,216
2012/06/07,218,226,217,221,6000,221
2012/06/08,219,222,219,222,2000,222
2012/06/11,222,230,218,230,5600,230
2012/06/12,215,228,215,228,1400,228
2012/06/13,228,234,224,230,2500,230
2012/06/14,239,239,226,228,4800,228
2012/06/15,231,231,228,230,1600,230
2012/06/18,233,239,224,233,5500,233
2012/06/19,228,235,228,235,1500,235
2012/06/20,238,238,233,233,400,233
2012/06/21,230,253,230,235,11300,235
2012/06/22,235,242,229,242,3600,242
2012/06/25,239,248,238,248,6600,248
2012/06/26,248,263,240,245,22100,245
2012/06/27,248,248,231,242,10700,242
2012/06/28,255,260,236,236,11500,236
2012/06/29,240,270,236,253,50000,253
2012/07/02,255,260,245,245,24600,245
2012/07/03,245,253,242,253,8100,253
2012/07/04,259,259,248,251,13200,251
2012/07/05,252,254,249,250,3600,250
2012/07/06,250,250,244,244,14500,244
2012/07/09,243,246,238,240,10500,240
2012/07/10,240,246,237,242,3700,242
2012/07/11,243,243,240,241,1500,241
2012/07/12,242,244,239,244,1700,244
2012/07/13,240,240,233,234,7100,234
2012/07/17,240,252,240,245,9900,245
2012/07/18,249,252,242,247,5000,247
2012/07/19,248,260,248,253,9700,253
2012/07/20,253,255,246,253,2100,253
2012/07/23,253,253,234,234,12100,234
2012/07/24,239,239,230,232,4300,232
2012/07/25,230,234,224,229,6600,229
2012/07/26,230,231,229,230,1700,230
2012/07/27,234,234,227,234,4800,234
2012/07/30,237,239,229,233,4700,233
2012/07/31,230,240,230,240,1000,240
2012/08/01,240,263,240,256,14200,256
2012/08/02,249,251,241,246,7200,246
2012/08/03,253,253,251,251,1000,251
2012/08/06,255,261,247,254,5600,254
2012/08/07,247,247,233,243,3800,243
2012/08/08,241,244,240,243,1400,243
2012/08/09,247,247,247,247,300,247
2012/08/10,246,246,246,246,200,246
2012/08/13,245,259,244,246,3000,246
2012/08/14,250,250,250,250,200,250
2012/08/15,246,250,245,249,1900,249
2012/08/16,250,250,245,245,6600,245
2012/08/17,245,260,244,246,21000,246
2012/08/20,249,251,246,247,6500,247
2012/08/21,250,252,247,252,3000,252
2012/08/22,252,252,248,250,2300,250
2012/08/23,250,251,247,247,3500,247
2012/08/24,247,249,245,249,3800,249
2012/08/27,251,257,248,250,12200,250
2012/08/28,249,250,246,246,5600,246
2012/08/29,248,248,242,247,2500,247
2012/08/30,248,248,242,242,2200,242
2012/08/31,241,242,235,239,5400,239
2012/09/03,242,242,240,241,1600,241
2012/09/04,244,244,241,242,1000,242
2012/09/05,238,240,237,240,1000,240
2012/09/06,238,238,236,236,500,236
2012/09/07,244,244,244,244,1000,244
2012/09/10,244,250,244,249,5400,249
2012/09/11,243,251,240,243,2800,243
2012/09/12,243,259,243,259,8900,259
2012/09/13,251,253,250,251,4100,251
2012/09/14,251,251,248,250,4000,250
2012/09/18,251,251,250,250,1300,250
2012/09/19,248,251,248,251,2800,251
2012/09/20,249,253,249,252,3600,252
2012/09/21,254,254,248,250,1400,250
2012/09/24,250,254,250,253,5600,253
2012/09/25,252,253,251,253,1800,253
2012/09/26,251,252,248,250,6900,250
2012/09/27,251,251,250,250,2000,250
2012/09/28,254,256,250,253,4300,253
2012/10/01,256,256,255,256,4200,256
2012/10/02,257,259,257,258,7200,258
2012/10/03,259,260,257,257,1400,257
2012/10/04,256,256,253,255,3000,255
2012/10/05,258,258,256,257,4300,257
2012/10/09,245,248,233,243,32100,243
2012/10/10,244,244,237,240,3600,240
2012/10/11,240,243,238,243,4800,243
2012/10/12,245,252,238,244,25300,244
2012/10/15,245,245,238,239,8400,239
2012/10/16,242,242,238,241,5700,241
2012/10/17,243,243,238,238,4400,238
2012/10/18,240,240,237,239,1000,239
2012/10/19,235,240,235,237,2700,237
2012/10/22,236,243,236,237,2100,237
2012/10/23,237,237,235,236,1800,236
2012/10/24,235,235,234,235,4300,235
2012/10/25,235,235,231,234,7000,234
2012/10/26,234,234,233,234,1300,234
2012/10/29,234,234,225,229,8600,229
2012/10/30,231,235,230,230,4300,230
2012/10/31,232,232,232,232,700,232
2012/11/01,232,238,232,238,1800,238
2012/11/02,235,239,235,239,1000,239
2012/11/05,239,239,237,237,1600,237
2012/11/06,237,237,231,232,5800,232
2012/11/07,234,234,232,233,5000,233
2012/11/08,233,240,231,235,8600,235
2012/11/09,232,232,230,230,4200,230
2012/11/12,230,232,229,231,2000,231
2012/11/13,231,233,231,233,1500,233
2012/11/14,233,233,232,233,2700,233
2012/11/15,234,235,232,233,1700,233
2012/11/16,236,242,233,239,4900,239
2012/11/19,239,241,239,241,1000,241
2012/11/20,243,244,242,242,3100,242
2012/11/21,243,243,242,242,1300,242
2012/11/22,242,242,241,241,1600,241
2012/11/26,244,244,242,244,4500,244
2012/11/27,242,245,242,245,3200,245
2012/11/28,245,253,242,250,5100,250
2012/11/30,251,252,245,252,1800,252
2012/12/03,252,252,248,248,2300,248
2012/12/04,248,250,247,247,300,247
2012/12/05,246,248,246,248,6400,248
2012/12/06,249,249,248,249,1800,249
2012/12/07,249,249,246,247,3300,247
2012/12/10,247,250,242,245,5400,245
2012/12/11,246,246,243,243,3000,243
2012/12/13,244,246,244,245,5100,245
2012/12/14,247,249,245,249,5400,249
2012/12/17,255,255,252,253,3900,253
2012/12/18,250,253,250,253,4400,253
2012/12/19,254,254,253,254,1800,254
2012/12/20,255,255,254,254,600,254
2012/12/21,253,253,252,252,2600,252
2012/12/25,255,255,251,251,900,251
2012/12/26,251,251,251,251,100,251
2012/12/27,251,254,251,253,1000,253
2012/12/28,255,275,240,270,52400,270
2013/01/04,290,290,263,272,15300,272
2013/01/07,265,280,265,272,6700,272
2013/01/08,272,280,272,277,2700,277
2013/01/09,277,281,277,281,1900,281
2013/01/10,289,289,280,280,8200,280
2013/01/11,281,287,280,287,500,287
2013/01/15,281,281,278,278,2200,278
2013/01/16,279,279,275,275,2000,275
2013/01/17,275,275,270,270,1400,270
2013/01/18,269,279,269,275,3500,275
2013/01/21,275,280,273,276,2100,276
2013/01/22,268,280,268,278,5800,278
2013/01/23,278,278,273,278,1600,278
2013/01/24,281,281,281,281,1200,281
2013/01/25,285,285,281,281,5200,281
2013/01/28,284,284,281,281,2000,281
2013/01/29,277,285,274,280,4500,280
2013/01/30,275,280,275,280,7000,280
2013/01/31,280,281,280,281,500,281
2013/02/01,281,281,281,281,1000,281
2013/02/04,279,286,279,286,2800,286
2013/02/05,286,286,282,286,1600,286
2013/02/06,290,290,279,282,1300,282
2013/02/07,290,290,275,280,6500,280
2013/02/08,288,288,272,282,3300,282
2013/02/12,279,280,276,276,4800,276
2013/02/13,276,276,265,265,5800,265
2013/02/14,276,277,269,276,2200,276
2013/02/15,271,271,253,258,4700,258
2013/02/18,260,262,258,260,5100,260
2013/02/19,266,277,260,265,5500,265
2013/02/20,268,273,268,273,1600,273
2013/02/21,274,274,272,272,600,272
2013/02/22,272,274,270,274,2200,274
2013/02/25,270,274,266,266,4000,266
2013/02/26,266,266,266,266,1200,266
2013/02/27,265,266,260,260,10800,260
2013/02/28,265,273,265,270,1700,270
2013/03/01,270,272,265,272,2300,272
2013/03/04,270,270,264,266,4100,266
2013/03/05,268,270,262,263,13900,263
2013/03/06,283,283,268,268,6100,268
2013/03/07,273,281,273,277,7200,277
2013/03/08,280,281,278,278,800,278
2013/03/11,281,293,281,293,14100,293
2013/03/12,290,290,282,286,10400,286
2013/03/13,290,290,290,290,4800,290
2013/03/14,290,291,285,285,700,285
2013/03/15,292,297,283,297,7800,297
2013/03/18,298,305,290,290,25800,290
2013/03/19,305,315,301,302,14100,302
2013/03/21,303,319,303,308,12200,308
2013/03/22,309,313,309,310,3500,310
2013/03/25,319,330,311,311,15500,311
2013/03/26,320,325,320,324,3700,324
2013/03/27,321,328,316,316,9300,316
2013/03/28,316,335,316,328,14200,328
2013/03/29,330,330,290,308,73700,308
2013/04/01,309,317,292,299,16800,299
2013/04/02,299,304,297,300,8200,300
2013/04/03,307,309,303,309,2700,309
2013/04/04,304,304,300,300,2400,300
2013/04/05,303,305,303,305,2400,305
2013/04/08,309,318,308,318,3500,318
2013/04/09,321,321,313,313,900,313
2013/04/10,314,315,309,309,5800,309
2013/04/11,314,315,309,309,5700,309
2013/04/12,310,313,310,313,3100,313
2013/04/15,323,323,312,313,2200,313
2013/04/16,307,308,304,306,8300,306
2013/04/17,311,318,311,314,2300,314
2013/04/18,315,318,312,318,1600,318
2013/04/19,318,329,300,328,24200,328
2013/04/22,333,335,329,335,6000,335
2013/04/23,334,339,332,333,5000,333
2013/04/24,334,339,332,334,11800,334
2013/04/25,340,340,331,337,7300,337
2013/04/26,338,339,332,338,1500,338
2013/04/30,341,341,335,335,2800,335
2013/05/01,335,338,335,338,1400,338
2013/05/02,338,339,337,337,1700,337
2013/05/07,340,360,340,360,10800,360
2013/05/08,363,368,350,359,5600,359
2013/05/09,359,359,347,347,4800,347
2013/05/10,347,347,341,342,10500,342
2013/05/13,345,345,332,344,13400,344
2013/05/14,344,344,344,344,400,344
2013/05/15,345,350,336,336,11300,336
2013/05/16,339,339,307,320,35800,320
2013/05/17,323,342,322,335,5600,335
2013/05/20,338,344,338,343,3000,343
2013/05/21,342,342,332,335,2800,335
2013/05/22,335,335,331,334,3300,334
2013/05/23,343,343,320,320,8200,320
2013/05/24,319,330,314,326,4700,326
2013/05/27,324,324,315,315,2100,315
2013/05/28,310,315,301,315,5900,315
2013/05/29,315,319,312,319,900,319
2013/05/30,317,317,308,310,6800,310
2013/05/31,302,309,302,309,7300,309
2013/06/03,309,309,303,305,4600,305
2013/06/04,304,307,304,307,10100,307
2013/06/05,305,315,304,315,3100,315
2013/06/06,309,309,302,302,2800,302
2013/06/07,301,308,273,308,16600,308
2013/06/10,311,311,293,302,7700,302
2013/06/11,309,309,301,305,2800,305
2013/06/12,300,301,300,301,1700,301
2013/06/13,300,300,297,297,1900,297
2013/06/14,296,298,295,296,1500,296
2013/06/17,299,314,299,314,2400,314
2013/06/18,306,306,306,306,200,306
2013/06/19,306,319,306,306,4300,306
2013/06/20,300,313,300,313,900,313
2013/06/21,303,303,296,303,3000,303
2013/06/24,301,305,300,300,2500,300
2013/06/25,297,297,296,297,3000,297
2013/06/26,299,300,296,300,2700,300
2013/06/27,296,296,296,296,600,296
2013/06/28,297,310,294,310,4700,310
2013/07/01,310,310,305,305,3000,305
2013/07/02,305,318,305,313,2100,313
2013/07/03,309,310,308,309,2300,309
2013/07/04,309,309,307,307,400,307
2013/07/05,307,307,307,307,1200,307
2013/07/08,310,313,310,311,1600,311
2013/07/09,311,319,311,319,1300,319
2013/07/10,320,335,320,329,5900,329
2013/07/11,329,343,327,341,4600,341
2013/07/12,339,339,330,331,1200,331
2013/07/18,323,323,319,319,1100,319
2013/07/19,318,319,317,319,1000,319
2013/07/22,320,321,317,317,2800,317
2013/07/23,319,319,319,319,200,319
2013/07/24,321,321,320,320,300,320
2013/07/25,317,321,317,321,800,321
2013/07/26,320,320,314,314,3000,314
2013/07/29,311,323,311,311,900,311
2013/07/30,312,312,312,312,100,312
2013/07/31,312,315,312,315,500,315
2013/08/01,319,319,314,318,1600,318
2013/08/02,323,332,322,323,1800,323
2013/08/05,324,326,324,325,2700,325
2013/08/06,327,327,320,320,1000,320
2013/08/07,324,331,324,326,2900,326
2013/08/08,325,325,325,325,200,325
2013/08/09,322,322,319,320,700,320
2013/08/12,319,325,319,325,600,325
2013/08/13,325,325,325,325,300,325
2013/08/14,328,328,326,326,1100,326
2013/08/15,326,326,326,326,100,326
2013/08/16,328,328,328,328,500,328
2013/08/19,328,330,328,330,1400,330
2013/08/21,325,325,325,325,200,325
2013/08/23,325,325,320,324,1000,324
2013/08/26,326,328,326,328,700,328
2013/08/27,330,333,330,333,1400,333
2013/08/28,325,325,310,315,2100,315
2013/08/29,315,315,308,308,300,308
2013/08/30,309,314,309,314,200,314
2013/09/02,314,315,310,310,1000,310
2013/09/03,309,310,309,310,1100,310
2013/09/04,310,315,310,315,1700,315
2013/09/05,313,317,313,317,400,317
2013/09/06,313,313,312,313,700,313
2013/09/09,320,320,313,313,300,313
2013/09/10,316,319,316,319,700,319
2013/09/11,319,319,319,319,200,319
2013/09/13,319,319,319,319,600,319
2013/09/17,319,319,316,316,1000,316
2013/09/18,310,313,310,313,6200,313
2013/09/19,319,319,315,315,700,315
2013/09/20,312,313,311,311,800,311
2013/09/24,312,318,312,316,2500,316
2013/09/25,316,316,312,312,2400,312
2013/09/26,312,314,312,314,600,314
2013/09/27,315,317,315,317,1900,317
2013/09/30,322,326,319,326,12400,326
2013/10/01,328,328,325,328,2400,328
2013/10/02,329,329,318,322,2700,322
2013/10/03,322,322,321,321,300,321
2013/10/04,323,328,323,328,4600,328
2013/10/07,320,325,313,314,2500,314
2013/10/08,327,327,327,327,100,327
2013/10/10,317,325,317,325,1600,325
2013/10/11,323,360,323,330,15800,330
2013/10/15,330,343,330,340,23000,340
2013/10/16,341,355,339,345,6100,345
2013/10/17,353,365,342,349,13700,349
2013/10/18,345,353,331,353,9300,353
2013/10/21,356,356,345,353,3400,353
2013/10/22,352,353,345,345,6600,345
2013/10/23,346,346,344,344,2600,344
2013/10/24,345,345,343,344,1000,344
2013/10/25,342,342,339,339,4000,339
2013/10/28,340,346,339,346,300,346
2013/10/29,347,347,340,340,1400,340
2013/10/30,344,344,340,340,2800,340
2013/10/31,338,341,338,341,700,341
2013/11/01,341,341,335,335,2600,335
2013/11/05,337,340,335,335,2000,335
2013/11/07,337,337,337,337,100,337
2013/11/08,337,337,336,336,2100,336
2013/11/11,337,341,337,340,4500,340
2013/11/12,348,356,348,348,3000,348
2013/11/13,349,352,346,346,800,346
2013/11/14,348,348,347,347,200,347
2013/11/15,355,360,353,360,12100,360
2013/11/18,376,390,360,369,14200,369
2013/11/19,361,367,361,367,3000,367
2013/11/20,367,367,359,366,4000,366
2013/11/21,366,376,363,376,5400,376
2013/11/22,376,382,373,373,4800,373
2013/11/25,370,370,370,370,200,370
2013/11/26,370,370,370,370,200,370
2013/11/27,364,375,364,375,3700,375
2013/11/28,371,382,371,382,5400,382
2013/11/29,387,462,386,406,84700,406
2013/12/02,398,403,384,403,22800,403
2013/12/03,403,403,394,397,4000,397
2013/12/04,400,419,398,399,15700,399
2013/12/05,400,405,400,400,9300,400
2013/12/06,399,401,390,391,8400,391
2013/12/09,391,393,391,392,1700,392
2013/12/10,396,411,396,401,15000,401
2013/12/11,401,409,395,395,4700,395
2013/12/12,399,403,398,403,2000,403
2013/12/13,402,404,398,404,500,404
2013/12/16,406,406,395,396,5100,396
2013/12/17,390,391,390,391,4900,391
2013/12/18,400,400,372,390,18700,390
2013/12/19,389,389,389,389,5800,389
2013/12/20,390,391,385,385,5000,385
2013/12/24,380,382,374,381,51700,381
2013/12/25,381,384,374,384,9300,384
2013/12/26,380,385,380,380,2200,380
2013/12/27,388,457,381,405,47300,405
2013/12/30,400,418,390,400,27100,400
2014/01/06,408,409,400,409,12000,409
2014/01/07,409,428,409,428,19500,428
2014/01/08,428,428,418,423,6300,423
2014/01/09,425,425,420,422,600,422
2014/01/10,422,427,409,413,6700,413
2014/01/14,405,415,405,415,4600,415
2014/01/15,418,429,418,429,8200,429
2014/01/16,430,433,428,430,5500,430
2014/01/17,425,425,413,422,9300,422
2014/01/20,422,422,420,420,2600,420
2014/01/21,422,435,421,430,5900,430
2014/01/22,434,435,426,426,7500,426
2014/01/23,430,486,425,430,128800,430
2014/01/24,431,440,430,438,10700,438
2014/01/27,432,440,431,433,9700,433
2014/01/28,433,444,430,442,12400,442
2014/01/29,448,467,447,460,18400,460
2014/01/30,459,460,442,446,11000,446
2014/01/31,451,455,438,442,6400,442
2014/02/03,442,442,418,425,17400,425
2014/02/04,396,415,365,400,34000,400
2014/02/05,412,421,405,411,7600,411
2014/02/06,419,422,402,422,4800,422
2014/02/07,428,440,428,430,11200,430
2014/02/10,445,448,435,435,3600,435
2014/02/12,430,430,416,416,13100,416
2014/02/13,421,425,420,425,600,425
2014/02/14,432,432,400,401,14000,401
2014/02/17,401,401,395,400,6200,400
2014/02/18,398,411,398,411,1100,411
2014/02/19,412,412,406,406,600,406
2014/02/20,405,413,405,405,600,405
2014/02/21,405,405,397,397,6600,397
2014/02/24,391,400,391,400,3200,400
2014/02/25,400,405,400,403,900,403
2014/02/26,400,400,398,399,1800,399
2014/02/27,400,408,400,408,5700,408
2014/02/28,412,412,390,406,12400,406
2014/03/03,405,405,395,400,2500,400
2014/03/04,400,400,396,397,300,397
2014/03/05,397,397,397,397,700,397
2014/03/06,398,400,395,400,2000,400
2014/03/07,400,402,396,402,1700,402
2014/03/10,405,407,403,403,2100,403
2014/03/11,403,405,403,403,2200,403
2014/03/12,400,400,400,400,400,400
2014/03/13,400,405,400,405,800,405
2014/03/14,397,400,394,397,800,397
2014/03/17,400,400,398,399,300,399
2014/03/18,397,400,397,400,1400,400
2014/03/19,401,401,390,396,3200,396
2014/03/20,396,396,388,388,1400,388
2014/03/24,390,395,386,395,3000,395
2014/03/25,397,399,392,393,2500,393
2014/03/26,400,410,394,410,2600,410
2014/03/27,410,410,397,400,1500,400
2014/03/28,400,429,395,416,14000,416
2014/03/31,419,419,407,410,6900,410
2014/04/01,418,418,412,418,2000,418
2014/04/02,418,427,415,427,5600,427
2014/04/03,427,430,419,428,5900,428
2014/04/04,431,432,425,425,2300,425
2014/04/07,417,430,417,430,1600,430
2014/04/08,430,430,420,425,500,425
2014/04/09,425,425,413,414,1500,414
2014/04/10,426,426,410,411,5300,411
2014/04/11,412,412,400,407,3300,407
2014/04/14,399,401,399,401,1800,401
2014/04/15,399,405,399,405,800,405
2014/04/16,407,407,407,407,500,407
2014/04/17,408,408,408,408,200,408
2014/04/18,408,408,405,405,400,405
2014/04/22,405,408,402,408,1500,408
2014/04/23,408,408,408,408,100,408
2014/04/24,400,401,400,400,1700,400
2014/04/25,405,405,402,402,400,402
2014/04/28,405,405,405,405,200,405
2014/04/30,402,402,402,402,400,402
2014/05/01,416,416,401,406,6300,406
2014/05/02,404,404,404,404,3000,404
2014/05/07,411,411,411,411,100,411
2014/05/08,406,408,404,408,900,408
2014/05/09,407,407,404,404,200,404
2014/05/12,404,405,404,405,400,405
2014/05/13,405,409,403,403,500,403
2014/05/14,409,409,403,403,200,403
2014/05/15,403,405,403,405,400,405
2014/05/16,407,407,406,407,400,407
2014/05/19,407,408,386,394,2800,394
2014/05/20,390,400,390,400,3400,400
2014/05/21,400,400,398,398,700,398
2014/05/22,400,400,397,397,300,397
2014/05/23,400,407,400,400,400,400
2014/05/26,400,405,400,405,1100,405
2014/05/27,403,409,402,409,700,409
2014/05/28,403,403,403,403,100,403
2014/05/29,403,409,402,409,700,409
2014/05/30,407,413,407,413,600,413
2014/06/02,419,419,418,419,1700,419
2014/06/03,419,419,412,412,300,412
2014/06/05,412,417,412,417,500,417
2014/06/06,413,418,413,414,5600,414
2014/06/09,415,420,415,415,2100,415
2014/06/10,418,418,411,411,2500,411
2014/06/12,418,427,415,427,8400,427
2014/06/13,428,432,428,432,6700,432
2014/06/16,431,435,425,435,8200,435
2014/06/17,437,437,430,434,2700,434
2014/06/18,435,435,428,428,3300,428
2014/06/19,426,429,426,429,400,429
2014/06/20,426,426,422,423,1300,423
2014/06/23,434,434,418,421,4400,421
2014/06/24,426,426,426,426,400,426
2014/06/25,425,426,424,426,2800,426
2014/06/26,425,434,425,434,1400,434
2014/06/27,436,444,425,425,17500,425
2014/06/30,423,433,423,427,8700,427
2014/07/01,433,438,432,435,7200,435
2014/07/02,440,444,440,440,5500,440
2014/07/03,440,440,432,432,1200,432
2014/07/04,440,440,435,435,300,435
2014/07/07,435,440,435,437,3200,437
2014/07/08,437,440,435,440,3000,440
2014/07/09,443,443,435,440,1700,440
2014/07/11,441,441,438,438,1000,438
2014/07/14,442,442,439,440,3000,440
2014/07/15,440,440,435,435,2600,435
2014/07/16,433,436,433,435,1800,435
2014/07/17,435,442,435,442,1000,442
2014/07/18,426,436,423,436,4900,436
2014/07/22,433,433,429,429,1700,429
2014/07/23,428,437,428,437,2200,437
2014/07/24,429,436,429,436,600,436
2014/07/25,436,440,431,439,2100,439
2014/07/28,436,438,436,437,600,437
2014/07/29,439,450,439,450,9300,450
2014/07/30,442,450,440,440,11200,440
2014/07/31,444,449,443,443,3000,443
2014/08/01,444,448,441,448,2100,448
2014/08/04,447,449,433,438,3000,438
2014/08/05,438,438,437,437,1100,437
2014/08/06,437,440,437,440,400,440
2014/08/07,440,440,429,435,5000,435
2014/08/08,428,433,424,433,5200,433
2014/08/11,436,440,434,435,8400,435
2014/08/12,437,437,423,431,2700,431
2014/08/13,430,436,430,435,1600,435
2014/08/14,431,432,428,430,10100,430
2014/08/15,432,435,431,435,2400,435
2014/08/18,435,439,433,439,5300,439
2014/08/19,440,442,437,442,5800,442
2014/08/20,436,443,436,441,6300,441
2014/08/21,443,469,443,450,29100,450
2014/08/22,455,464,449,450,27700,450
2014/08/25,452,460,452,453,4600,453
2014/08/26,455,460,450,453,8500,453
2014/08/27,435,441,433,434,7500,434
2014/08/28,430,430,420,429,7000,429
2014/08/29,431,443,431,434,17000,434
2014/09/01,441,441,434,435,2200,435
2014/09/02,436,441,434,434,2500,434
2014/09/03,434,442,434,435,3600,435
2014/09/04,438,438,435,435,200,435
2014/09/05,434,435,434,434,3200,434
2014/09/08,437,446,437,444,6600,444
2014/09/09,444,444,440,441,2900,441
2014/09/10,449,449,447,449,2500,449
2014/09/11,450,450,445,445,1100,445
2014/09/12,450,453,446,453,5900,453
2014/09/16,455,455,440,454,2100,454
2014/09/17,454,454,441,450,7300,450
2014/09/18,450,450,435,442,3300,442
2014/09/19,442,446,442,446,700,446
2014/09/22,446,446,440,445,1300,445
2014/09/24,445,445,439,442,7800,442
2014/09/25,444,446,441,441,3700,441
2014/09/26,448,450,443,450,5900,450
2014/09/29,445,450,445,449,1400,449
2014/09/30,449,452,441,445,4600,445
2014/10/01,449,450,447,450,2600,450
2014/10/02,445,447,441,441,2900,441
2014/10/03,441,450,439,440,7600,440
2014/10/06,445,450,440,440,5000,440
2014/10/07,442,447,438,438,6600,438
2014/10/08,438,445,434,444,7900,444
2014/10/09,445,445,430,432,4900,432
2014/10/10,428,430,421,430,9800,430
2014/10/14,430,430,401,402,16000,402
2014/10/15,403,412,403,412,8900,412
2014/10/16,405,407,405,406,1700,406
2014/10/17,407,407,404,405,2400,405
2014/10/20,406,417,406,416,3200,416
2014/10/21,415,416,415,415,700,415
2014/10/22,415,418,412,412,900,412
2014/10/23,413,413,412,412,1100,412
2014/10/24,414,420,414,419,800,419
2014/10/27,422,426,421,421,2800,421
2014/10/28,423,423,420,420,1000,420
2014/10/29,418,426,417,426,4500,426
2014/10/30,426,426,417,417,3500,417
2014/10/31,418,422,417,422,1700,422
2014/11/04,427,428,418,421,8800,421
2014/11/05,427,427,424,424,1000,424
2014/11/06,435,435,426,429,1900,429
2014/11/07,434,434,432,432,800,432
2014/11/10,435,435,432,432,1200,432
2014/11/11,430,430,425,425,2300,425
2014/11/12,428,430,428,430,400,430
2014/11/13,430,430,428,428,700,428
2014/11/14,429,434,428,428,2400,428
2014/11/17,430,432,430,431,1300,431
2014/11/18,432,444,432,440,10000,440
2014/11/19,440,446,440,440,1700,440
2014/11/20,443,443,440,440,800,440
2014/11/21,442,442,442,442,100,442
2014/11/25,447,447,442,446,2000,446
2014/11/26,440,442,440,442,2100,442
2014/11/27,446,446,445,446,2200,446
2014/11/28,446,446,445,445,7600,445
2014/12/01,452,460,450,450,15900,450
2014/12/02,452,452,451,452,1500,452
2014/12/03,456,463,456,457,6900,457
2014/12/04,459,471,459,463,12700,463
2014/12/05,470,484,464,484,15100,484
2014/12/08,487,495,472,485,3500,485
2014/12/09,479,481,474,481,800,481
2014/12/10,488,488,477,477,2100,477
2014/12/11,474,475,467,467,3700,467
2014/12/12,467,476,467,473,1400,473
2014/12/15,478,478,464,465,2600,465
2014/12/16,474,474,454,458,6200,458
2014/12/17,459,465,459,465,1100,465
2014/12/18,469,475,460,470,2500,470
2014/12/19,472,472,466,472,500,472
2014/12/22,488,488,476,478,6100,478
2014/12/24,477,485,477,479,2300,479
2014/12/25,479,485,478,485,1600,485
2014/12/26,484,488,471,480,2600,480
2014/12/29,496,530,495,510,28900,510
2014/12/30,530,535,483,495,53000,495
2015/01/05,500,510,500,510,12700,510
2015/01/06,501,505,499,500,6100,500
2015/01/07,492,505,491,500,7800,500
2015/01/08,503,506,503,506,1900,506
2015/01/09,507,507,500,507,2200,507
2015/01/13,507,508,499,500,4700,500
2015/01/14,503,505,500,500,5600,500
2015/01/15,500,500,492,499,4600,499
2015/01/16,495,495,486,493,10800,493
2015/01/19,494,501,493,501,2200,501
2015/01/20,499,501,495,495,2100,495
2015/01/21,500,500,497,497,2000,497
2015/01/22,496,496,495,495,900,495
2015/01/23,500,500,495,495,2700,495
2015/01/26,500,501,499,499,1100,499
2015/01/27,499,506,499,506,4300,506
2015/01/28,505,510,501,510,3100,510
2015/01/29,510,525,503,521,10000,521
2015/01/30,528,535,521,535,5500,535
2015/02/02,543,543,534,538,6100,538
2015/02/03,535,543,525,543,7800,543
2015/02/04,552,564,551,564,14900,564
2015/02/05,566,576,559,575,13300,575
2015/02/06,583,610,577,577,21900,577
2015/02/09,595,650,595,616,26800,616
2015/02/10,618,618,602,610,8900,610
2015/02/12,610,618,600,614,9500,614
2015/02/13,618,620,590,620,22200,620
2015/02/16,624,625,580,605,19700,605
2015/02/17,605,605,582,597,5200,597
2015/02/18,588,588,565,568,12700,568
2015/02/19,567,582,561,582,4500,582
2015/02/20,609,609,590,602,14200,602
2015/02/23,625,625,600,613,11000,613
2015/02/24,608,612,605,612,2200,612
2015/02/25,611,630,596,602,15200,602
2015/02/26,609,611,590,608,5200,608
2015/02/27,605,605,585,600,9800,600
2015/03/02,606,608,588,590,6100,590
2015/03/03,591,599,590,592,4600,592
2015/03/04,594,594,585,586,2600,586
2015/03/05,580,585,573,574,6400,574
2015/03/06,575,605,575,590,5700,590
2015/03/09,586,586,578,581,4900,581
2015/03/10,581,585,581,581,1500,581
2015/03/11,581,583,578,583,5100,583
2015/03/12,583,588,581,587,2600,587
2015/03/13,586,590,580,590,3500,590
2015/03/16,590,590,585,587,2700,587
2015/03/17,587,595,584,584,1100,584
2015/03/18,592,594,590,594,3300,594
2015/03/19,591,596,591,595,2700,595
2015/03/20,597,615,594,606,7100,606
2015/03/23,614,627,610,615,15800,615
2015/03/24,619,620,605,612,11100,612
2015/03/25,610,612,608,609,5200,609
2015/03/26,609,612,600,600,3100,600
2015/03/27,601,608,597,605,5500,605
2015/03/30,606,615,596,613,16900,613
2015/03/31,606,612,581,606,38700,606
2015/04/01,552,584,551,584,59100,584
2015/04/02,572,580,565,579,12100,579
2015/04/03,566,570,565,565,12400,565
2015/04/06,561,579,556,556,10900,556
2015/04/07,558,566,557,566,6500,566
2015/04/08,573,573,563,566,5900,566
2015/04/09,575,575,567,569,3400,569
2015/04/10,576,576,567,575,4700,575
2015/04/13,565,570,565,569,6100,569
2015/04/14,573,575,569,575,4400,575
2015/04/15,574,575,569,575,2300,575
2015/04/16,576,595,576,580,8500,580
2015/04/17,581,589,581,583,2100,583
2015/04/20,583,587,581,582,3000,582
2015/04/21,583,592,583,592,2500,592
2015/04/22,594,596,592,596,5000,596
2015/04/23,596,600,592,594,1600,594
2015/04/24,594,594,590,593,2300,593
2015/04/27,591,598,586,591,3000,591
2015/04/28,596,597,582,592,4100,592
2015/04/30,593,593,560,572,8700,572
2015/05/01,573,577,573,577,4200,577
2015/05/07,575,575,555,563,4100,563
2015/05/08,564,570,561,570,5200,570
2015/05/11,567,590,567,585,6800,585
2015/05/12,590,595,586,591,13100,591
2015/05/13,596,630,596,604,20100,604
2015/05/14,606,612,605,607,8100,607
2015/05/15,606,610,600,609,10500,609
2015/05/18,605,605,600,605,5900,605
2015/05/19,601,608,599,608,4000,608
2015/05/20,606,614,586,614,3000,614
2015/05/21,614,614,601,601,1700,601
2015/05/22,610,615,608,609,5700,609
2015/05/25,618,618,606,606,1600,606
2015/05/26,615,624,610,624,6400,624
2015/05/27,625,637,621,627,26900,627
2015/05/28,636,644,626,636,5300,636
2015/05/29,636,641,632,639,1900,639
2015/06/01,646,646,611,633,4800,633
2015/06/02,633,640,630,640,1700,640
2015/06/03,640,651,640,640,5800,640
2015/06/04,640,642,635,642,1800,642
2015/06/05,645,658,645,658,5500,658
2015/06/08,674,680,659,671,15600,671
2015/06/09,680,688,671,688,5700,688
2015/06/10,698,698,688,697,3400,697
2015/06/11,697,699,696,699,1500,699
2015/06/12,697,697,662,687,2700,687
2015/06/15,687,687,655,672,4400,672
2015/06/16,665,665,633,647,15200,647
2015/06/17,641,645,630,640,6900,640
2015/06/18,632,640,630,640,1000,640
2015/06/19,630,645,620,630,6800,630
2015/06/22,630,644,630,644,2900,644
2015/06/23,637,643,636,642,3700,642
2015/06/24,643,659,643,645,2100,645
2015/06/25,643,643,636,636,2800,636
2015/06/26,635,643,632,636,4500,636
2015/06/29,637,640,627,631,3400,631
2015/06/30,628,640,628,635,2100,635
2015/07/01,645,660,636,649,10300,649
