2012/01/27,1015,1015,1008,1008,500,126
2012/01/30,1009,1009,1000,1000,2600,125
2012/02/01,1000,1005,1000,1000,900,125
2012/02/02,1000,1002,1000,1000,400,125
2012/02/09,985,985,956,968,4000,121
2012/03/09,1250,1368,1230,1336,45900,167
2012/03/13,1435,1520,1430,1520,58900,190
2012/03/23,1439,1439,1396,1400,9100,175
2012/03/27,1400,1432,1399,1432,8800,179
2012/04/02,809,820,800,804,45200,201
2012/04/12,760,772,756,772,20600,193
2012/04/20,757,766,752,764,17000,191
2012/05/01,731,747,725,744,18500,186
2012/05/08,719,728,718,728,8500,182
2012/05/09,725,731,719,728,15300,182
2012/05/22,640,649,640,644,4500,161
2012/05/24,685,704,672,704,24800,176
2012/05/25,704,710,686,700,6400,175
2012/06/14,725,739,703,704,22600,176
2012/06/15,719,720,700,700,26200,175
2012/06/19,708,718,698,700,12600,175
2012/06/22,698,700,692,700,7000,175
2012/06/25,698,708,696,700,10900,175
2012/07/13,663,670,659,660,5400,165
2012/07/18,672,674,666,672,3700,168
2012/07/24,685,685,676,676,3800,169
2012/08/02,699,701,689,700,6200,175
2012/08/09,696,696,695,696,1000,174
2012/08/10,698,699,695,696,5800,174
2012/08/22,738,742,734,736,7300,184
2012/08/27,750,764,749,764,10300,191
2012/09/05,733,733,692,708,11700,177
2012/09/12,698,705,695,700,2900,175
2012/09/13,700,723,700,700,4600,175
2012/09/19,700,700,680,700,10000,175
2012/09/20,715,715,700,708,12100,177
2012/10/02,735,736,727,732,4900,183
2012/10/05,781,783,760,780,30700,195
2012/10/10,771,772,752,760,11200,190
2012/10/11,752,767,751,756,15000,189
2012/11/02,733,754,732,748,41500,187
2012/11/06,747,752,732,732,9500,183
2012/11/14,714,719,712,716,4600,179
2012/11/26,768,768,759,760,13300,190
2012/11/30,755,755,748,748,4200,187
2012/12/05,750,753,748,752,3200,188
2012/12/10,775,777,771,776,41800,194
2012/12/18,830,844,820,844,39000,211
2012/12/19,851,878,849,872,56700,218
2012/12/25,861,888,845,888,88600,222
2012/12/27,876,920,875,920,23200,230
2013/01/08,1096,1096,1005,1040,28300,260
2013/01/16,1025,1076,1021,1072,54400,268
2013/01/18,1071,1096,1060,1096,31000,274
2013/01/21,1096,1119,1066,1080,30400,270
2013/02/05,1198,1261,1181,1208,41300,302
2013/02/12,1201,1248,1201,1240,45900,310
2013/02/15,1300,1318,1240,1264,50500,316
2013/02/19,1367,1428,1367,1428,53300,357
2013/02/25,1575,1609,1537,1576,71700,394
2013/03/13,1440,1484,1427,1484,21700,371
2013/03/15,1530,1549,1524,1540,48700,385
2013/03/22,1600,1655,1591,1624,33200,406
2013/03/25,1670,1728,1659,1708,60900,427
2013/03/27,842,900,805,900,85100,450
2013/03/28,915,1049,913,1008,202200,504
2013/03/29,1055,1055,971,992,129300,496
2013/04/01,994,998,855,872,128300,436
2013/04/02,851,949,811,924,124100,462
2013/04/03,950,989,945,970,78000,485
2013/04/05,990,995,956,964,79600,482
2013/04/18,996,1007,984,992,101600,496
2013/04/22,992,999,990,990,88100,495
2013/04/23,994,1000,991,994,98600,497
2013/04/24,994,999,976,984,136700,492
2013/04/25,942,954,937,942,162000,471
2013/04/26,942,950,931,948,97600,474
2013/05/02,943,963,941,960,54500,480
2013/05/07,965,969,945,954,60800,477
2013/05/09,940,949,933,936,37000,468
2013/05/10,937,940,916,922,56900,461
2013/05/13,925,928,912,914,42700,457
2013/05/15,906,920,870,882,88100,441
2013/05/16,870,875,803,844,106400,422
2013/05/20,925,925,889,894,39600,447
2013/05/24,831,868,730,790,140500,395
2013/05/27,790,793,760,778,51400,389
2013/05/30,817,822,746,760,103400,380
2013/05/31,748,775,730,736,68100,368
2013/06/03,730,760,728,736,54900,368
2013/06/06,745,749,717,730,63300,365
2013/06/07,700,701,644,672,75400,336
2013/06/10,702,723,702,720,38200,360
2013/06/12,710,732,704,732,15300,366
2013/06/17,740,746,738,738,15600,369
2013/06/18,750,750,735,736,25500,368
2013/06/19,738,750,723,732,13200,366
2013/06/20,751,751,735,738,25200,369
2013/06/25,715,717,684,706,28800,353
2013/06/26,700,709,690,690,22600,345
2013/06/27,694,694,680,694,17300,347
2013/06/28,695,725,693,724,27900,362
2013/07/04,728,734,728,732,11700,366
2013/07/08,746,747,734,734,17500,367
2013/07/09,744,744,734,740,12800,370
2013/07/10,746,746,734,734,16100,367
2013/07/12,734,734,728,730,7400,365
2013/07/16,735,735,728,728,13000,364
2013/07/22,730,734,726,732,9900,366
2013/07/24,740,740,726,728,11100,364
2013/07/25,733,733,726,726,6800,363
2013/07/26,728,730,721,730,13900,365
2013/07/29,729,729,712,712,19700,356
2013/07/30,704,720,701,714,11900,357
2013/07/31,717,717,704,704,10800,352
2013/08/01,704,710,701,710,8400,355
2013/08/02,707,710,703,710,14100,355
2013/08/05,710,715,709,710,12000,355
2013/08/06,710,712,707,710,12700,355
2013/08/09,706,707,702,702,13700,351
2013/08/13,707,707,691,694,14400,347
2013/08/14,694,700,693,700,13700,350
2013/08/15,700,702,698,700,7900,350
2013/08/16,700,702,698,698,13600,349
2013/08/20,708,708,698,698,15900,349
2013/08/23,695,696,693,694,9200,347
2013/08/27,707,707,677,696,27800,348
2013/08/30,691,693,674,676,24600,338
2013/09/03,658,673,658,662,29000,331
2013/09/04,662,672,659,670,26100,335
2013/09/06,679,685,671,674,13900,337
2013/09/09,694,696,686,688,16800,344
2013/09/13,705,708,697,698,23600,349
2013/09/18,712,718,710,710,12000,355
2013/09/19,713,727,711,726,22400,363
2013/09/24,741,766,741,766,26900,383
2013/09/26,773,789,771,786,32800,393
2013/09/27,795,820,792,810,37600,405
2013/10/02,810,813,781,786,31800,393
2013/10/03,780,792,777,790,20800,395
2013/10/04,780,786,755,776,31400,388
2013/10/08,751,770,741,766,19300,383
2013/10/15,795,799,793,798,15800,399
2013/10/16,792,805,792,802,35100,401
2013/10/21,824,840,822,836,45100,418
2013/10/22,842,850,840,846,38400,423
2013/10/23,849,849,836,836,28900,418
2013/10/25,833,844,828,838,35100,419
2013/10/28,838,842,833,838,31800,419
2013/10/30,795,800,790,790,23100,395
2013/10/31,790,790,780,780,18000,390
2013/11/01,775,775,749,750,34700,375
2013/11/06,750,760,750,752,11900,376
2013/11/07,759,764,758,758,11500,379
2013/11/08,751,754,749,750,13600,375
2013/11/11,751,754,750,750,9100,375
2013/11/12,750,754,750,752,7200,376
2013/11/13,752,763,752,762,18100,381
2013/11/18,777,834,773,784,45300,392
2013/11/19,785,798,785,796,10500,398
2013/11/20,800,800,789,798,11600,399
2013/11/22,802,802,793,796,14400,398
2013/11/27,790,792,785,786,8300,393
2013/11/28,782,788,782,786,5400,393
2013/11/29,786,786,775,778,9000,389
2013/12/03,786,788,778,778,14900,389
2013/12/06,773,775,768,770,6600,385
2013/12/10,779,779,772,778,10400,389
2013/12/11,780,780,772,774,8200,387
2013/12/12,771,775,771,774,4700,387
2013/12/16,758,764,719,736,46100,368
2013/12/17,736,743,736,742,9300,371
2013/12/18,742,753,742,748,13900,374
2013/12/24,742,744,732,734,27000,367
2013/12/26,720,740,720,740,13400,370
2013/12/27,750,757,746,746,12600,373
2013/12/30,748,764,748,764,18800,382
2014/01/06,770,791,760,770,22700,385
2014/01/10,799,799,793,796,22700,398
2014/01/15,794,797,791,796,11300,398
2014/01/16,797,800,796,798,27000,399
2014/01/20,838,838,827,836,26700,418
2014/01/21,837,840,820,820,30600,410
2014/01/22,831,832,824,832,15200,416
2014/01/23,836,853,832,838,40500,419
2014/01/24,832,840,831,834,20900,417
2014/01/27,830,830,809,814,17500,407
2014/01/28,830,834,826,826,14300,413
2014/01/29,838,840,833,838,14500,419
2014/01/30,835,835,820,820,9200,410
2014/02/03,835,835,826,828,15000,414
2014/02/13,809,816,805,814,7800,407
2014/02/18,793,806,793,806,8400,403
2014/02/19,809,810,797,806,10900,403
2014/02/20,810,810,789,794,20600,397
2014/02/26,801,816,800,808,10500,404
2014/02/27,810,810,800,800,5300,400
2014/03/13,816,816,810,814,15800,407
2014/03/14,808,810,796,800,34100,400
2014/03/17,804,810,800,802,14100,401
2014/03/18,810,812,804,810,12500,405
2014/03/19,815,815,809,814,10900,407
2014/03/24,808,820,808,820,18300,410
2014/04/01,880,880,870,880,24300,440
2014/04/02,888,894,884,890,32800,445
2014/04/03,891,893,880,882,34000,441
2014/04/07,885,889,885,886,21700,443
2014/04/09,881,883,872,872,27400,436
2014/04/10,876,880,874,878,18300,439
2014/04/14,869,872,868,868,13700,434
2014/04/16,869,874,869,872,14000,436
2014/04/17,875,877,874,876,24900,438
2014/04/21,877,880,877,878,27200,439
2014/04/22,876,878,872,872,35300,436
2014/04/25,825,849,816,846,90700,423
2014/04/30,841,841,834,838,15500,419
2014/05/01,825,833,822,828,23900,414
2014/05/02,830,835,829,834,13700,417
2014/05/07,834,834,812,812,19400,406
2014/05/09,813,820,802,810,15700,405
2014/05/13,800,810,800,808,11800,404
2014/05/15,810,810,796,800,10400,400
2014/05/16,800,800,783,788,18300,394
2014/05/20,805,805,796,796,21200,398
2014/05/26,812,813,808,812,9800,406
2014/05/28,815,816,809,814,8800,407
2014/05/29,814,816,810,814,12800,407
2014/06/09,828,830,826,828,13500,414
2014/06/10,828,829,823,828,13600,414
2014/06/11,825,830,825,828,14800,414
2014/06/12,828,830,826,828,6200,414
2014/06/13,828,829,819,824,26800,412
2014/06/17,826,829,823,828,13900,414
2014/06/18,828,832,826,830,6900,415
2014/06/27,828,830,821,822,9800,411
2014/06/30,820,832,820,828,8200,414
2014/07/01,826,832,825,832,11100,416
2014/07/04,833,838,833,834,7400,417
2014/07/07,839,839,835,838,8100,419
2014/07/08,849,854,842,848,23000,424
2014/07/09,850,850,842,848,7000,424
2014/07/10,848,852,845,848,8400,424
2014/07/16,849,854,846,850,7900,425
2014/07/17,855,855,848,850,8700,425
2014/07/30,866,867,848,852,37900,426
2014/07/31,848,851,842,848,13000,424
2014/08/01,840,852,840,850,10200,425
2014/08/04,857,860,850,852,11300,426
2014/08/06,840,844,840,840,7300,420
2014/08/08,849,850,838,842,6300,421
2014/08/13,850,858,847,854,6100,427
2014/08/14,853,858,853,858,5800,429
2014/08/18,859,864,858,864,5100,432
2014/08/19,867,870,863,870,12400,435
2014/08/20,870,874,866,874,16500,437
2014/08/21,874,874,867,870,7500,435
2014/08/26,872,874,866,874,9200,437
2014/08/27,874,874,870,874,3700,437
2014/08/28,874,876,872,876,10000,438
2014/08/29,876,878,863,872,15500,436
2014/09/02,850,868,849,866,13500,433
2014/09/03,860,868,858,868,6800,434
2014/09/05,864,870,862,866,5300,433
2014/09/08,866,871,850,862,12100,431
2014/09/12,875,875,865,872,19200,436
2014/09/16,875,877,869,876,10000,438
2014/09/18,883,889,878,888,21400,444
2014/09/19,897,897,883,896,22900,448
2014/09/24,896,900,893,900,10200,450
2014/09/25,902,910,895,908,15900,454
2014/09/26,903,916,902,916,18900,458
2014/09/29,920,930,919,926,22900,463
2014/10/01,933,940,930,940,16600,470
2014/10/07,945,945,935,936,14700,468
2014/10/10,904,909,891,898,17500,449
2014/10/14,882,902,871,884,16400,442
2014/10/16,918,918,875,894,15700,447
2014/10/17,912,912,882,886,13700,443
2014/10/22,905,915,904,908,6800,454
2014/10/27,904,908,903,904,21300,452
2014/10/29,858,882,858,876,36400,438
2014/10/31,887,898,885,898,18900,449
2014/11/05,895,895,888,892,15100,446
2014/11/06,892,897,887,890,10100,445
2014/11/07,885,891,879,890,12700,445
2014/11/10,898,898,889,898,9800,449
2014/11/11,898,898,885,888,11600,444
2014/11/12,888,890,884,884,6700,442
2014/11/17,890,894,887,888,4100,444
2014/11/19,898,900,895,900,10600,450
2014/11/28,900,904,898,902,11000,451
2014/12/01,906,910,900,910,12800,455
2014/12/02,913,913,890,894,18800,447
2014/12/03,895,899,890,892,11900,446
2014/12/05,899,899,891,896,9300,448
2014/12/10,890,895,889,892,18100,446
2014/12/12,881,899,881,890,18500,445
2014/12/16,907,912,895,902,16900,451
2014/12/17,905,913,905,906,17700,453
2014/12/18,912,932,909,932,28300,466
2014/12/19,933,938,921,934,21200,467
2014/12/29,940,940,932,938,8800,469
2014/12/30,943,944,935,940,12200,470
2015/01/06,948,948,938,938,16100,469
2015/01/08,943,949,939,944,13700,472
2015/01/09,949,949,940,942,13000,471
2015/01/13,943,947,940,944,15700,472
2015/01/15,942,950,942,948,17200,474
2015/01/22,950,977,949,972,43800,486
2015/01/26,977,998,977,998,35300,499
2015/01/27,998,1000,981,994,15600,497
2015/02/02,1032,1055,1031,1054,48500,527
2015/02/03,1062,1080,1000,1024,42000,512
2015/02/05,1047,1060,1041,1056,21000,528
2015/02/09,1039,1048,1039,1046,14800,523
2015/02/12,1053,1074,1053,1072,33300,536
2015/02/13,1075,1080,1065,1076,37900,538
2015/02/17,1100,1119,1085,1100,33700,550
2015/02/18,1112,1140,1111,1138,31000,569
2015/02/19,1148,1159,1142,1156,35300,578
2015/02/25,1108,1134,1108,1130,15000,565
2015/03/02,1132,1189,1128,1186,57400,593
2015/03/04,1157,1157,1139,1140,33400,570
2015/03/05,1136,1155,1136,1138,16700,569
2015/03/09,1147,1169,1139,1152,26300,576
2015/03/10,1152,1165,1152,1154,19800,577
2015/03/11,1159,1170,1155,1170,18600,585
2015/03/16,1211,1230,1205,1222,29900,611
2015/03/17,1245,1265,1233,1262,35200,631
2015/03/18,1262,1275,1255,1272,38900,636
2015/03/20,1281,1281,1265,1274,29500,637
2015/03/24,1279,1279,1266,1274,15000,637
2015/03/25,1265,1266,1238,1240,42900,620
2015/03/27,1298,1298,1250,1286,56300,643
2015/03/31,1319,1395,1318,1364,90000,682
2015/04/07,1500,1519,1480,1496,92700,748
2015/04/10,1554,1559,1450,1490,169400,745
2015/04/20,1386,1409,1385,1400,56400,700
2015/04/21,1396,1400,1361,1366,91300,683
2015/04/22,1366,1374,1363,1364,67300,682
2015/04/23,1355,1362,1350,1350,96800,675
2015/04/27,672,685,669,681,317600,681
2015/04/28,681,681,661,666,156800,666
2015/04/30,658,665,655,661,90600,661
2015/05/01,652,655,648,652,88300,652
2015/05/07,642,648,640,643,65500,643
2015/05/08,640,643,635,643,51000,643
2015/05/11,643,650,642,647,40000,647
2015/05/12,645,647,640,643,33400,643
2015/05/13,643,644,620,634,100500,634
2015/05/14,631,633,626,626,52700,626
2015/05/15,622,632,617,622,68100,622
2015/05/18,621,639,620,629,43000,629
2015/05/19,632,634,628,632,51600,632
2015/05/20,642,648,639,646,75300,646
2015/05/21,653,660,647,649,67900,649
2015/05/22,649,655,644,647,40200,647
2015/05/25,647,653,647,650,27300,650
2015/05/26,648,651,646,646,23800,646
2015/05/27,644,653,638,641,36200,641
2015/05/28,641,650,639,644,39500,644
2015/05/29,648,650,634,639,79700,639
2015/06/01,637,640,627,627,76400,627
2015/06/02,627,627,623,623,66100,623
2015/06/03,621,625,620,624,34900,624
2015/06/04,623,628,623,625,19800,625
2015/06/05,624,627,622,625,42800,625
2015/06/08,623,627,623,625,23300,625
2015/06/09,623,626,620,620,42000,620
2015/06/10,619,622,618,620,36700,620
2015/06/11,622,628,621,628,29200,628
2015/06/12,622,629,622,626,51800,626
2015/06/15,626,629,623,626,29100,626
2015/06/16,626,628,623,626,22900,626
2015/06/17,626,628,625,627,18100,627
2015/06/18,627,630,626,629,20500,629
2015/06/19,630,630,627,627,34300,627
2015/06/22,626,628,625,627,26500,627
2015/06/23,627,630,627,629,32400,629
2015/06/24,628,629,625,628,29000,628
2015/06/25,625,630,625,628,31100,628
2015/06/26,628,629,624,629,32000,629
2015/06/29,620,626,620,623,51000,623
2015/06/30,621,627,620,625,30400,625
2015/07/01,623,625,620,622,31600,622
