2011/01/04,395,395,391,393,17000,393
2011/01/05,391,397,391,397,22000,397
2011/01/06,394,397,394,397,21000,397
2011/01/07,397,397,395,396,17000,396
2011/01/11,397,398,396,398,28000,398
2011/01/12,401,402,400,401,85000,401
2011/01/13,401,403,401,401,15000,401
2011/01/14,401,402,400,400,29000,400
2011/01/17,402,402,401,401,20000,401
2011/01/18,401,401,399,400,18000,400
2011/01/19,400,403,400,403,17000,403
2011/01/20,403,405,402,405,22000,405
2011/01/21,406,407,403,403,26000,403
2011/01/24,406,406,402,404,34000,404
2011/01/25,404,404,400,401,47000,401
2011/01/26,400,402,400,401,19000,401
2011/01/27,400,403,400,403,18000,403
2011/01/28,403,404,396,396,53000,396
2011/01/31,397,398,393,398,29000,398
2011/02/01,399,399,396,398,28000,398
2011/02/02,399,400,399,400,32000,400
2011/02/03,400,400,395,396,33000,396
2011/02/04,396,400,396,400,18000,400
2011/02/07,400,401,400,400,16000,400
2011/02/08,402,402,400,401,27000,401
2011/02/09,401,402,401,401,15000,401
2011/02/10,401,408,401,408,27000,408
2011/02/14,410,410,409,409,66000,409
2011/02/15,409,410,407,407,18000,407
2011/02/16,408,412,408,408,16000,408
2011/02/17,408,413,408,413,30000,413
2011/02/18,418,418,412,412,28000,412
2011/02/21,416,421,415,416,16000,416
2011/02/22,415,420,412,412,12000,412
2011/02/23,411,411,408,408,36000,408
2011/02/24,406,407,404,405,28000,405
2011/02/25,403,406,403,404,43000,404
2011/02/28,405,405,402,403,27000,403
2011/03/01,403,407,403,406,20000,406
2011/03/02,405,406,402,402,28000,402
2011/03/03,403,408,403,408,8000,408
2011/03/04,410,410,407,407,25000,407
2011/03/07,407,408,405,406,18000,406
2011/03/08,405,410,405,406,16000,406
2011/03/09,407,411,407,409,33000,409
2011/03/10,409,409,404,404,27000,404
2011/03/11,405,407,403,406,122000,406
2011/03/14,401,406,385,396,67000,396
2011/03/15,381,381,355,363,85000,363
2011/03/16,359,390,354,390,73000,390
2011/03/17,382,388,374,388,71000,388
2011/03/18,390,410,390,410,67000,410
2011/03/22,414,416,410,414,50000,414
2011/03/23,414,414,412,413,33000,413
2011/03/24,413,418,413,413,39000,413
2011/03/25,418,420,414,415,71000,415
2011/03/28,417,419,415,419,102000,419
2011/03/29,410,412,403,412,54000,412
2011/03/30,414,416,410,416,36000,416
2011/03/31,416,416,408,414,25000,414
2011/04/01,408,413,403,405,27000,405
2011/04/04,400,403,400,401,18000,401
2011/04/05,393,397,389,390,35000,390
2011/04/06,389,397,385,385,21000,385
2011/04/07,378,379,374,378,35000,378
2011/04/08,373,394,373,389,50000,389
2011/04/11,384,395,384,395,28000,395
2011/04/12,395,396,388,390,40000,390
2011/04/13,385,395,385,391,31000,391
2011/04/14,383,386,383,383,23000,383
2011/04/15,379,383,377,378,31000,378
2011/04/18,378,386,378,380,10000,380
2011/04/19,378,378,376,376,18000,376
2011/04/20,376,385,376,378,23000,378
2011/04/21,379,379,376,379,18000,379
2011/04/22,380,386,380,386,25000,386
2011/04/25,385,389,382,382,30000,382
2011/04/26,382,382,375,375,22000,375
2011/04/27,376,376,373,374,18000,374
2011/04/28,375,380,375,380,7000,380
2011/05/02,381,382,380,380,15000,380
2011/05/06,380,388,380,386,12000,386
2011/05/09,386,386,381,382,19000,382
2011/05/10,378,378,374,378,11000,378
2011/05/11,380,385,380,383,24000,383
2011/05/12,383,384,380,382,34000,382
2011/05/13,379,379,372,372,30000,372
2011/05/16,372,372,371,371,9000,371
2011/05/17,371,372,366,366,25000,366
2011/05/18,369,369,369,369,8000,369
2011/05/19,366,369,366,369,8000,369
2011/05/20,368,377,368,371,21000,371
2011/05/23,371,371,368,368,11000,368
2011/05/24,366,368,366,368,26000,368
2011/05/25,367,367,359,360,40000,360
2011/05/26,361,362,361,362,14000,362
2011/05/27,359,360,357,357,14000,357
2011/05/30,358,358,353,354,16000,354
2011/05/31,354,358,354,358,9000,358
2011/06/01,361,362,357,358,14000,358
2011/06/02,357,359,354,359,25000,359
2011/06/03,353,357,353,353,23000,353
2011/06/06,356,362,356,362,17000,362
2011/06/07,358,358,356,356,10000,356
2011/06/08,356,356,353,353,10000,353
2011/06/09,356,359,352,359,14000,359
2011/06/10,364,368,363,368,80000,368
2011/06/13,368,368,366,367,42000,367
2011/06/14,365,365,364,365,12000,365
2011/06/15,371,371,368,370,24000,370
2011/06/16,368,368,368,368,5000,368
2011/06/17,368,368,355,355,28000,355
2011/06/20,356,365,356,364,6000,364
2011/06/21,359,370,359,369,19000,369
2011/06/22,369,375,369,375,17000,375
2011/06/23,372,380,368,376,23000,376
2011/06/24,380,383,380,383,24000,383
2011/06/27,382,382,379,379,26000,379
2011/06/28,378,378,370,371,6000,371
2011/06/29,377,378,370,376,12000,376
2011/06/30,376,382,370,382,21000,382
2011/07/01,383,390,383,387,32000,387
2011/07/04,391,391,389,390,14000,390
2011/07/05,391,396,391,395,14000,395
2011/07/06,394,399,388,399,17000,399
2011/07/07,395,403,394,403,29000,403
2011/07/08,406,412,406,412,52000,412
2011/07/11,406,420,406,420,83000,420
2011/07/12,418,421,417,420,143000,420
2011/07/13,420,420,414,414,14000,414
2011/07/14,413,414,402,407,21000,407
2011/07/15,407,409,403,405,17000,405
2011/07/19,408,411,405,409,20000,409
2011/07/20,414,420,410,420,22000,420
2011/07/21,417,418,415,418,10000,418
2011/07/22,420,422,420,422,30000,422
2011/07/25,422,422,412,417,49000,417
2011/07/26,415,416,411,414,10000,414
2011/07/27,411,411,407,407,11000,407
2011/07/28,405,410,392,397,27000,397
2011/07/29,392,392,385,385,23000,385
2011/08/01,386,401,386,390,11000,390
2011/08/02,390,390,387,387,6000,387
2011/08/03,376,387,374,381,35000,381
2011/08/04,381,387,375,375,24000,375
2011/08/05,370,372,370,370,19000,370
2011/08/08,370,372,370,371,16000,371
2011/08/09,368,368,361,364,32000,364
2011/08/10,371,380,371,378,27000,378
2011/08/11,379,382,372,382,23000,382
2011/08/12,387,394,384,390,48000,390
2011/08/15,395,395,379,379,30000,379
2011/08/16,385,385,380,384,10000,384
2011/08/17,387,387,375,378,14000,378
2011/08/18,376,384,376,382,11000,382
2011/08/19,376,387,372,387,16000,387
2011/08/22,387,391,380,391,16000,391
2011/08/23,397,400,396,399,15000,399
2011/08/24,401,404,398,401,24000,401
2011/08/25,405,406,397,397,33000,397
2011/08/26,401,402,401,402,7000,402
2011/08/29,402,408,399,408,18000,408
2011/08/30,410,417,409,417,19000,417
2011/08/31,418,418,415,416,26000,416
2011/09/01,417,418,415,418,20000,418
2011/09/02,415,420,409,418,23000,418
2011/09/05,414,415,405,407,10000,407
2011/09/06,410,417,407,417,17000,417
2011/09/07,417,418,415,418,23000,418
2011/09/08,418,418,417,418,9000,418
2011/09/09,417,422,417,422,82000,422
2011/09/12,422,422,413,418,38000,418
2011/09/13,418,421,416,420,26000,420
2011/09/14,420,421,413,413,14000,413
2011/09/15,418,420,410,420,20000,420
2011/09/16,421,422,421,421,56000,421
2011/09/20,417,420,413,420,12000,420
2011/09/21,419,419,416,417,13000,417
2011/09/22,416,416,407,409,20000,409
2011/09/26,408,413,405,408,27000,408
2011/09/27,409,419,409,419,26000,419
2011/09/28,422,426,420,424,47000,424
2011/09/29,425,427,424,426,50000,426
2011/09/30,426,426,423,423,16000,423
2011/10/03,423,424,422,422,21000,422
2011/10/04,423,423,416,420,9000,420
2011/10/05,422,422,407,408,20000,408
2011/10/06,415,415,412,415,10000,415
2011/10/07,419,425,419,420,25000,420
2011/10/11,420,424,420,424,21000,424
2011/10/12,424,424,423,423,36000,423
2011/10/13,423,423,422,422,5000,422
2011/10/14,418,418,410,412,10000,412
2011/10/17,413,416,411,416,9000,416
2011/10/18,416,416,410,410,10000,410
2011/10/19,410,411,409,409,5000,409
2011/10/20,406,406,400,400,9000,400
2011/10/21,400,404,397,403,11000,403
2011/10/24,409,418,409,417,22000,417
2011/10/25,418,418,411,414,19000,414
2011/10/26,406,406,400,401,8000,401
2011/10/27,406,407,395,400,34000,400
2011/10/28,402,418,400,412,30000,412
2011/10/31,412,413,401,401,11000,401
2011/11/01,407,408,394,407,20000,407
2011/11/02,402,402,391,392,23000,392
2011/11/04,390,398,389,398,21000,398
2011/11/07,400,403,400,403,7000,403
2011/11/08,395,395,391,392,7000,392
2011/11/09,392,392,389,390,28000,390
2011/11/10,389,393,389,393,10000,393
2011/11/11,393,406,393,406,15000,406
2011/11/14,407,409,403,403,47000,403
2011/11/15,404,404,403,404,4000,404
2011/11/16,402,402,399,399,3000,399
2011/11/17,405,405,394,395,11000,395
2011/11/18,391,396,391,392,11000,392
2011/11/21,386,398,386,398,17000,398
2011/11/22,398,405,398,404,14000,404
2011/11/24,402,410,402,407,20000,407
2011/11/25,408,408,400,400,27000,400
2011/11/28,401,407,401,402,7000,402
2011/11/29,407,408,404,408,11000,408
2011/11/30,404,406,398,400,9000,400
2011/12/01,408,412,406,412,19000,412
2011/12/02,416,423,414,423,21000,423
2011/12/05,423,423,413,418,24000,418
2011/12/06,410,414,403,403,25000,403
2011/12/07,405,411,405,410,14000,410
2011/12/08,405,408,399,400,25000,400
2011/12/09,395,403,395,402,72000,402
2011/12/12,402,403,401,403,38000,403
2011/12/13,398,402,398,400,12000,400
2011/12/14,400,400,394,394,16000,394
2011/12/15,394,395,393,393,9000,393
2011/12/16,398,398,378,378,21000,378
2011/12/19,380,381,375,376,40000,376
2011/12/20,372,384,372,384,10000,384
2011/12/21,384,384,379,380,17000,380
2011/12/22,377,382,377,380,31000,380
2011/12/26,380,381,375,378,40000,378
2011/12/27,374,384,374,381,20000,381
2011/12/28,376,377,376,377,3000,377
2011/12/29,375,379,375,377,10000,377
2011/12/30,378,383,378,380,10000,380
2012/01/04,380,393,380,386,32000,386
2012/01/05,386,386,379,379,22000,379
2012/01/06,379,382,379,381,4000,381
2012/01/10,385,394,385,393,22000,393
2012/01/11,393,395,391,394,25000,394
2012/01/12,394,394,381,382,51000,382
2012/01/13,382,386,382,386,8000,386
2012/01/16,383,388,383,387,8000,387
2012/01/17,386,391,385,385,7000,385
2012/01/18,390,395,390,395,8000,395
2012/01/19,390,392,389,392,7000,392
2012/01/20,391,399,387,399,25000,399
2012/01/23,399,400,395,400,11000,400
2012/01/24,400,400,397,400,13000,400
2012/01/25,400,400,393,398,29000,398
2012/01/26,396,400,396,396,15000,396
2012/01/27,396,399,396,397,7000,397
2012/01/30,396,396,390,390,14000,390
2012/01/31,391,396,390,396,14000,396
2012/02/01,394,395,388,388,18000,388
2012/02/02,389,400,389,400,17000,400
2012/02/03,397,398,397,397,10000,397
2012/02/06,395,399,391,399,13000,399
2012/02/07,394,398,392,392,9000,392
2012/02/08,397,400,394,400,22000,400
2012/02/09,400,404,398,403,20000,403
2012/02/10,403,403,398,398,19000,398
2012/02/13,398,405,398,405,30000,405
2012/02/14,405,407,402,407,17000,407
2012/02/15,410,414,408,414,35000,414
2012/02/16,406,413,406,406,8000,406
2012/02/17,408,415,406,407,19000,407
2012/02/20,408,412,408,408,11000,408
2012/02/21,408,410,408,409,10000,409
2012/02/22,411,417,408,417,38000,417
2012/02/23,418,419,412,417,33000,417
2012/02/24,419,421,418,418,31000,418
2012/02/27,421,421,415,418,24000,418
2012/02/28,419,419,415,418,28000,418
2012/02/29,421,421,415,415,25000,415
2012/03/01,415,419,415,418,15000,418
2012/03/02,418,420,415,419,32000,419
2012/03/05,419,419,409,411,35000,411
2012/03/06,412,414,411,411,10000,411
2012/03/07,411,412,408,412,22000,412
2012/03/08,412,415,411,415,24000,415
2012/03/09,419,421,418,420,98000,420
2012/03/12,420,421,413,413,46000,413
2012/03/13,413,417,413,413,24000,413
2012/03/14,419,420,412,412,32000,412
2012/03/15,415,418,415,415,22000,415
2012/03/16,417,419,415,415,34000,415
2012/03/19,418,420,417,419,23000,419
2012/03/21,417,419,413,413,48000,413
2012/03/22,417,419,417,419,16000,419
2012/03/23,417,422,416,422,36000,422
2012/03/26,424,425,418,418,56000,418
2012/03/27,421,425,419,425,109000,425
2012/03/28,401,413,400,403,69000,403
2012/03/29,403,411,403,408,39000,408
2012/03/30,412,412,405,408,25000,408
2012/04/02,408,408,397,397,30000,397
2012/04/03,395,397,395,395,16000,395
2012/04/04,395,399,393,397,22000,397
2012/04/05,392,400,392,398,19000,398
2012/04/06,398,400,397,400,24000,400
2012/04/09,397,397,392,392,12000,392
2012/04/10,397,398,392,392,24000,392
2012/04/11,391,394,391,394,25000,394
2012/04/12,394,394,390,390,48000,390
2012/04/13,388,391,387,388,9000,388
2012/04/16,388,394,387,394,15000,394
2012/04/17,394,395,389,395,11000,395
2012/04/18,399,409,396,405,30000,405
2012/04/19,402,405,402,403,6000,403
2012/04/20,404,405,400,403,17000,403
2012/04/23,408,408,406,406,5000,406
2012/04/24,406,406,396,400,35000,400
2012/04/25,398,398,395,395,23000,395
2012/04/26,402,402,400,400,12000,400
2012/04/27,400,400,395,395,12000,395
2012/05/01,397,397,390,390,8000,390
2012/05/02,393,393,385,388,10000,388
2012/05/07,382,388,378,379,29000,379
2012/05/08,384,384,373,380,36000,380
2012/05/09,380,381,379,379,9000,379
2012/05/10,378,383,375,377,25000,377
2012/05/11,379,381,379,379,23000,379
2012/05/14,379,379,367,367,64000,367
2012/05/15,367,375,364,375,29000,375
2012/05/16,371,373,364,364,21000,364
2012/05/17,366,367,359,361,27000,361
2012/05/18,360,368,359,361,37000,361
2012/05/21,368,368,350,355,22000,355
2012/05/22,355,365,353,355,41000,355
2012/05/23,355,358,353,356,27000,356
2012/05/24,355,358,355,358,32000,358
2012/05/25,364,364,355,357,32000,357
2012/05/28,365,366,359,366,4000,366
2012/05/29,365,367,361,365,16000,365
2012/05/30,362,362,356,356,21000,356
2012/05/31,363,370,355,355,30000,355
2012/06/01,355,364,355,355,22000,355
2012/06/04,353,363,350,363,47000,363
2012/06/05,363,364,360,361,10000,361
2012/06/06,361,362,357,362,18000,362
2012/06/07,354,363,353,363,13000,363
2012/06/08,368,369,360,369,60000,369
2012/06/11,366,375,366,372,23000,372
2012/06/12,371,378,366,378,42000,378
2012/06/13,379,379,376,376,8000,376
2012/06/14,380,380,377,379,10000,379
2012/06/15,383,383,355,355,53000,355
2012/06/18,366,366,360,360,15000,360
2012/06/19,361,361,360,360,7000,360
2012/06/20,360,364,355,358,44000,358
2012/06/21,358,361,358,361,11000,361
2012/06/22,360,366,360,365,29000,365
2012/06/25,369,369,365,365,28000,365
2012/06/26,364,368,364,365,21000,365
2012/06/27,366,366,363,365,24000,365
2012/06/28,365,375,365,372,26000,372
2012/06/29,368,381,368,376,35000,376
2012/07/02,381,382,374,374,25000,374
2012/07/03,379,381,374,377,23000,377
2012/07/04,381,381,378,378,27000,378
2012/07/05,378,384,378,382,25000,382
2012/07/06,385,391,385,388,41000,388
2012/07/09,386,394,386,392,26000,392
2012/07/10,395,397,394,395,47000,395
2012/07/11,395,402,394,399,74000,399
2012/07/12,397,397,381,382,168000,382
2012/07/13,385,392,381,382,32000,382
2012/07/17,384,395,384,395,8000,395
2012/07/18,395,396,387,387,9000,387
2012/07/19,395,396,394,395,15000,395
2012/07/20,391,394,389,394,19000,394
2012/07/23,394,394,387,387,32000,387
2012/07/24,390,390,388,389,31000,389
2012/07/25,389,389,382,382,50000,382
2012/07/26,385,385,376,376,10000,376
2012/07/27,377,383,376,382,13000,382
2012/07/30,390,390,381,382,16000,382
2012/07/31,383,383,382,382,4000,382
2012/08/01,386,386,380,381,7000,381
2012/08/02,382,390,375,379,17000,379
2012/08/03,375,380,375,375,17000,375
2012/08/06,376,379,364,378,11000,378
2012/08/07,379,388,379,383,6000,383
2012/08/08,390,390,385,385,13000,385
2012/08/09,385,390,384,390,17000,390
2012/08/10,385,394,385,393,16000,393
2012/08/13,393,396,393,395,25000,395
2012/08/14,397,399,396,396,32000,396
2012/08/15,399,399,386,396,12000,396
2012/08/16,401,406,400,406,35000,406
2012/08/17,406,406,401,405,24000,405
2012/08/20,401,407,401,405,15000,405
2012/08/21,405,410,405,410,20000,410
2012/08/22,410,410,408,408,16000,408
2012/08/23,412,413,410,411,29000,411
2012/08/24,410,415,410,415,24000,415
2012/08/27,415,415,401,409,24000,409
2012/08/28,413,413,409,412,15000,412
2012/08/29,408,409,401,405,13000,405
2012/08/30,408,408,402,402,8000,402
2012/08/31,402,407,394,394,10000,394
2012/09/03,390,401,390,401,8000,401
2012/09/04,396,396,373,383,23000,383
2012/09/05,387,389,380,389,18000,389
2012/09/06,394,394,387,388,21000,388
2012/09/07,390,396,390,393,14000,393
2012/09/10,393,393,391,392,8000,392
2012/09/11,392,400,392,400,17000,400
2012/09/12,400,403,400,403,38000,403
2012/09/13,405,407,403,407,7000,407
2012/09/14,411,411,406,409,55000,409
2012/09/18,411,412,411,412,9000,412
2012/09/19,406,408,405,408,17000,408
2012/09/20,408,408,406,408,8000,408
2012/09/21,411,413,409,412,25000,412
2012/09/24,412,413,411,413,17000,413
2012/09/25,413,415,413,415,43000,415
2012/09/26,413,415,412,415,14000,415
2012/09/27,415,424,415,421,35000,421
2012/09/28,423,423,413,413,17000,413
2012/10/01,411,411,393,411,14000,411
2012/10/02,403,403,396,399,14000,399
2012/10/03,399,406,398,399,13000,399
2012/10/04,399,399,388,388,39000,388
2012/10/05,393,393,386,391,10000,391
2012/10/09,391,391,385,387,25000,387
2012/10/10,387,388,384,384,14000,384
2012/10/11,389,389,385,386,21000,386
2012/10/12,384,388,384,386,40000,386
2012/10/15,385,387,382,384,12000,384
2012/10/16,384,384,381,382,17000,382
2012/10/17,384,386,382,386,16000,386
2012/10/18,386,394,386,389,26000,389
2012/10/19,389,396,389,396,14000,396
2012/10/22,388,398,387,398,21000,398
2012/10/23,397,397,391,392,14000,392
2012/10/24,389,395,389,395,23000,395
2012/10/25,397,397,395,397,33000,397
2012/10/26,400,400,392,396,34000,396
2012/10/29,396,397,396,396,8000,396
2012/10/30,393,397,384,384,14000,384
2012/10/31,392,395,386,394,33000,394
2012/11/01,395,395,388,390,17000,390
2012/11/02,390,393,390,393,14000,393
2012/11/05,389,390,389,390,3000,390
2012/11/06,389,389,386,389,11000,389
2012/11/07,393,393,393,393,2000,393
2012/11/08,390,392,390,391,7000,391
2012/11/09,391,393,389,393,20000,393
2012/11/12,392,392,384,385,38000,385
2012/11/13,384,385,383,383,14000,383
2012/11/14,387,387,381,381,12000,381
2012/11/15,383,384,381,384,10000,384
2012/11/16,385,389,383,389,10000,389
2012/11/19,390,392,387,392,15000,392
2012/11/20,394,401,393,396,27000,396
2012/11/21,396,400,396,400,26000,400
2012/11/22,398,400,396,398,25000,398
2012/11/26,398,398,388,395,49000,395
2012/11/27,397,400,395,397,37000,397
2012/11/28,394,402,394,402,9000,402
2012/11/29,403,403,399,399,16000,399
2012/11/30,400,401,397,397,25000,397
2012/12/03,397,397,397,397,3000,397
2012/12/04,394,402,394,402,17000,402
2012/12/05,406,406,401,406,30000,406
2012/12/06,406,409,400,404,35000,404
2012/12/07,405,406,402,402,13000,402
2012/12/10,402,405,402,405,8000,405
2012/12/11,407,411,407,411,16000,411
2012/12/12,411,411,398,401,46000,401
2012/12/13,412,412,409,409,23000,409
2012/12/14,415,415,398,402,91000,402
2012/12/17,406,408,405,406,19000,406
2012/12/18,408,409,402,402,21000,402
2012/12/19,406,406,405,406,13000,406
2012/12/20,402,405,402,403,27000,403
2012/12/21,405,405,400,400,59000,400
2012/12/25,402,403,398,401,52000,401
2012/12/26,403,403,399,402,50000,402
2012/12/27,402,402,400,401,40000,401
2012/12/28,399,401,395,395,45000,395
2013/01/04,403,403,399,399,61000,399
2013/01/07,404,404,400,404,25000,404
2013/01/08,406,406,400,406,42000,406
2013/01/09,406,407,403,407,18000,407
2013/01/10,407,409,405,409,14000,409
2013/01/11,412,414,409,414,29000,414
2013/01/15,414,417,413,416,39000,416
2013/01/16,414,415,411,411,13000,411
2013/01/17,409,410,405,406,28000,406
2013/01/18,408,413,408,413,25000,413
2013/01/21,411,416,410,416,31000,416
2013/01/22,416,416,408,410,19000,410
2013/01/23,409,412,408,410,18000,410
2013/01/24,410,415,410,415,31000,415
2013/01/25,416,418,413,417,38000,417
2013/01/28,418,418,415,415,12000,415
2013/01/29,415,418,415,415,20000,415
2013/01/30,414,415,414,414,16000,414
2013/01/31,415,416,414,415,16000,415
2013/02/01,416,418,413,414,28000,414
2013/02/04,418,418,412,415,25000,415
2013/02/05,417,417,413,413,36000,413
2013/02/06,413,416,413,415,22000,415
2013/02/07,415,417,413,417,38000,417
2013/02/08,418,418,414,416,37000,416
2013/02/12,416,419,415,416,47000,416
2013/02/13,414,415,412,414,32000,414
2013/02/14,413,414,410,410,23000,410
2013/02/15,410,412,405,406,36000,406
2013/02/18,407,410,402,408,57000,408
2013/02/19,409,413,409,412,30000,412
2013/02/20,412,416,412,414,22000,414
2013/02/21,414,419,414,418,23000,418
2013/02/22,416,420,415,418,40000,418
2013/02/25,422,425,418,420,47000,420
2013/02/26,420,424,420,422,20000,422
2013/02/27,423,423,419,419,29000,419
2013/02/28,416,422,416,422,35000,422
2013/03/01,420,423,417,421,26000,421
2013/03/04,426,450,425,444,100000,444
2013/03/05,439,439,428,433,71000,433
2013/03/06,433,441,433,438,37000,438
2013/03/07,438,439,435,436,53000,436
2013/03/08,440,444,440,441,138000,441
2013/03/11,450,457,437,439,211000,439
2013/03/12,440,441,434,438,102000,438
2013/03/13,441,441,435,437,37000,437
2013/03/14,444,444,435,435,47000,435
2013/03/15,438,441,428,428,161000,428
2013/03/18,430,431,425,426,118000,426
2013/03/19,427,437,427,435,48000,435
2013/03/21,435,447,435,443,110000,443
2013/03/22,445,447,443,443,62000,443
2013/03/25,450,450,445,447,95000,447
2013/03/26,446,449,446,447,144000,447
2013/03/27,435,437,419,435,94000,435
2013/03/28,435,435,430,435,42000,435
2013/03/29,435,435,422,422,31000,422
2013/04/01,420,421,403,403,44000,403
2013/04/02,408,408,400,400,70000,400
2013/04/03,400,406,400,406,30000,406
2013/04/04,403,411,401,411,44000,411
2013/04/05,418,428,415,421,61000,421
2013/04/08,421,435,416,435,94000,435
2013/04/09,434,437,432,435,58000,435
2013/04/10,433,435,431,432,32000,432
2013/04/11,437,439,434,439,45000,439
2013/04/12,439,441,438,439,51000,439
2013/04/15,439,439,432,435,24000,435
2013/04/16,431,434,430,431,33000,431
2013/04/17,431,436,431,434,17000,434
2013/04/18,434,434,430,430,33000,430
2013/04/19,434,434,426,426,48000,426
2013/04/22,426,430,425,430,33000,430
2013/04/23,432,433,424,430,27000,430
2013/04/24,434,438,432,438,40000,438
2013/04/25,438,439,432,438,51000,438
2013/04/26,436,439,432,435,24000,435
2013/04/30,426,428,425,425,33000,425
2013/05/01,425,429,423,425,28000,425
2013/05/02,425,429,425,427,15000,427
2013/05/07,426,432,426,429,37000,429
2013/05/08,431,433,428,428,31000,428
2013/05/09,431,432,428,428,17000,428
2013/05/10,430,431,428,428,43000,428
2013/05/13,429,432,428,431,46000,431
2013/05/14,431,431,428,428,25000,428
2013/05/15,427,427,425,426,35000,426
2013/05/16,425,426,420,420,37000,420
2013/05/17,420,425,420,425,31000,425
2013/05/20,428,429,425,426,31000,426
2013/05/21,428,430,425,426,34000,426
2013/05/22,428,429,425,426,31000,426
2013/05/23,426,427,420,420,56000,420
2013/05/24,417,420,410,411,99000,411
2013/05/27,403,408,400,401,49000,401
2013/05/28,401,404,400,401,43000,401
2013/05/29,402,406,401,401,29000,401
2013/05/30,401,405,398,398,78000,398
2013/05/31,404,405,401,403,24000,403
2013/06/03,400,402,393,393,71000,393
2013/06/04,394,395,390,392,63000,392
2013/06/05,393,400,393,395,31000,395
2013/06/06,397,397,390,390,24000,390
2013/06/07,390,394,386,386,45000,386
2013/06/10,394,396,391,396,27000,396
2013/06/11,396,401,395,395,26000,395
2013/06/12,395,405,393,405,60000,405
2013/06/13,398,398,394,394,28000,394
2013/06/14,393,399,390,391,133000,391
2013/06/17,388,398,388,394,27000,394
2013/06/18,399,399,388,388,40000,388
2013/06/19,389,391,389,391,25000,391
2013/06/20,391,392,391,392,13000,392
2013/06/21,391,395,388,389,43000,389
2013/06/24,395,399,395,395,19000,395
2013/06/25,396,396,391,391,36000,391
2013/06/26,392,392,390,390,18000,390
2013/06/27,390,399,390,398,42000,398
2013/06/28,399,409,398,409,41000,409
2013/07/01,409,409,398,402,32000,402
2013/07/02,407,407,402,405,51000,405
2013/07/03,409,409,404,404,29000,404
2013/07/04,405,405,400,404,18000,404
2013/07/05,403,405,401,405,25000,405
2013/07/08,405,406,402,402,58000,402
2013/07/09,406,406,404,404,23000,404
2013/07/10,406,408,404,405,78000,405
2013/07/11,406,409,405,408,98000,408
2013/07/12,408,408,404,405,166000,405
2013/07/16,406,408,405,406,13000,406
2013/07/17,406,409,405,405,51000,405
2013/07/18,405,408,404,405,34000,405
2013/07/19,409,409,406,407,15000,407
2013/07/22,407,410,405,407,25000,407
2013/07/23,407,408,406,408,19000,408
2013/07/24,407,409,407,409,29000,409
2013/07/25,404,405,403,403,54000,403
2013/07/26,403,403,400,400,31000,400
2013/07/29,400,400,395,395,36000,395
2013/07/30,395,399,395,398,34000,398
2013/07/31,399,399,394,394,27000,394
2013/08/01,393,395,393,395,24000,395
2013/08/02,395,397,394,397,23000,397
2013/08/05,396,400,396,400,15000,400
2013/08/06,398,400,396,400,25000,400
2013/08/07,400,400,395,395,39000,395
2013/08/08,394,395,393,394,25000,394
2013/08/09,398,398,394,394,34000,394
2013/08/12,394,398,394,395,45000,395
2013/08/13,395,397,394,397,22000,397
2013/08/14,395,398,395,398,24000,398
2013/08/15,398,398,394,395,21000,395
2013/08/16,395,397,395,395,25000,395
2013/08/19,397,397,395,396,9000,396
2013/08/20,395,396,394,394,22000,394
2013/08/21,395,395,394,395,18000,395
2013/08/22,396,397,394,397,20000,397
2013/08/23,398,398,395,397,24000,397
2013/08/26,395,396,395,395,22000,395
2013/08/27,394,395,394,395,14000,395
2013/08/28,394,395,393,394,20000,394
2013/08/29,393,393,393,393,7000,393
2013/08/30,395,395,390,390,54000,390
2013/09/02,391,394,391,394,8000,394
2013/09/03,394,394,389,392,45000,392
2013/09/04,393,393,390,391,19000,391
2013/09/05,392,397,392,396,15000,396
2013/09/06,396,397,396,397,5000,397
2013/09/09,400,401,397,398,32000,398
2013/09/10,400,402,400,401,28000,401
2013/09/11,404,405,402,403,24000,403
2013/09/12,405,407,403,407,43000,407
2013/09/13,407,408,407,407,80000,407
2013/09/17,408,409,404,404,18000,404
2013/09/18,404,406,403,406,12000,406
2013/09/19,409,410,405,409,25000,409
2013/09/20,406,409,406,409,25000,409
2013/09/24,408,408,406,406,36000,406
2013/09/25,405,407,402,406,35000,406
2013/09/26,401,407,398,407,22000,407
2013/09/27,403,408,403,408,16000,408
2013/09/30,402,404,400,404,11000,404
2013/10/01,401,402,400,400,15000,400
2013/10/02,401,401,398,400,18000,400
2013/10/03,398,401,398,399,23000,399
2013/10/04,398,399,395,397,30000,397
2013/10/07,402,405,401,403,26000,403
2013/10/08,403,403,398,399,15000,399
2013/10/09,399,400,399,400,20000,400
2013/10/10,399,403,399,402,14000,402
2013/10/11,402,404,402,404,16000,404
2013/10/15,404,404,401,403,36000,403
2013/10/16,401,404,401,404,10000,404
2013/10/17,403,405,402,405,19000,405
2013/10/18,406,407,401,405,29000,405
2013/10/21,407,407,402,406,24000,406
2013/10/22,406,407,404,405,32000,405
2013/10/23,406,406,403,405,19000,405
2013/10/24,402,407,402,407,33000,407
2013/10/25,402,403,401,402,62000,402
2013/10/28,402,403,401,402,16000,402
2013/10/29,401,401,399,400,40000,400
2013/10/30,404,408,400,407,73000,407
2013/10/31,407,407,405,405,35000,405
2013/11/01,405,406,402,405,46000,405
2013/11/05,403,404,401,403,26000,403
2013/11/06,401,403,400,401,29000,401
2013/11/07,400,401,395,398,56000,398
2013/11/08,398,398,396,397,16000,397
2013/11/11,398,399,395,396,40000,396
2013/11/12,396,399,395,399,70000,399
2013/11/13,399,400,397,399,31000,399
2013/11/14,400,400,398,400,35000,400
2013/11/15,400,404,400,403,74000,403
2013/11/18,402,402,398,398,56000,398
2013/11/19,398,400,397,399,25000,399
2013/11/20,397,398,396,397,54000,397
2013/11/21,396,399,396,397,91000,397
2013/11/22,397,399,397,398,55000,398
2013/11/25,397,399,397,398,32000,398
2013/11/26,398,399,396,396,61000,396
2013/11/27,396,398,395,395,57000,395
2013/11/28,396,397,395,395,57000,395
2013/11/29,395,396,395,395,54000,395
2013/12/02,396,397,395,395,53000,395
2013/12/03,396,398,395,396,66000,396
2013/12/04,396,396,392,393,179000,393
2013/12/05,392,393,391,392,69000,392
2013/12/06,391,393,391,392,57000,392
2013/12/09,393,394,393,394,43000,394
2013/12/10,394,395,393,395,60000,395
2013/12/11,394,394,391,392,94000,392
2013/12/12,392,394,392,392,52000,392
2013/12/13,389,390,389,389,208000,389
2013/12/16,390,390,387,387,73000,387
2013/12/17,387,389,387,389,36000,389
2013/12/18,388,390,387,390,55000,390
2013/12/19,390,391,388,388,72000,388
2013/12/20,388,390,387,388,54000,388
2013/12/24,388,389,387,387,77000,387
2013/12/25,387,388,386,387,128000,387
2013/12/26,388,390,388,389,74000,389
2013/12/27,391,393,390,393,58000,393
2013/12/30,394,397,394,396,83000,396
2014/01/06,396,397,395,397,77000,397
2014/01/07,397,398,396,397,50000,397
2014/01/08,398,399,396,398,52000,398
2014/01/09,398,398,397,398,40000,398
2014/01/10,397,399,396,399,53000,399
2014/01/14,399,400,398,398,81000,398
2014/01/15,398,400,398,400,28000,400
2014/01/16,400,402,400,400,80000,400
2014/01/17,401,404,401,403,52000,403
2014/01/20,404,405,403,405,41000,405
2014/01/21,405,408,405,406,66000,406
2014/01/22,406,409,405,406,55000,406
2014/01/23,407,409,407,407,40000,407
2014/01/24,407,407,403,403,70000,403
2014/01/27,400,401,396,396,106000,396
2014/01/28,399,400,395,395,80000,395
2014/01/29,401,402,397,402,23000,402
2014/01/30,399,399,396,398,58000,398
2014/01/31,401,401,395,398,56000,398
2014/02/03,398,403,396,402,99000,402
2014/02/04,396,397,392,392,96000,392
2014/02/05,392,403,392,394,71000,394
2014/02/06,401,401,395,396,45000,396
2014/02/07,397,399,396,399,28000,399
2014/02/10,401,402,398,402,41000,402
2014/02/12,402,403,400,403,59000,403
2014/02/13,402,402,399,400,16000,400
2014/02/14,400,402,398,400,42000,400
2014/02/17,402,403,398,403,24000,403
2014/02/18,403,403,401,402,40000,402
2014/02/19,402,403,400,401,21000,401
2014/02/20,401,402,399,399,24000,399
2014/02/21,403,404,402,403,35000,403
2014/02/24,404,405,401,404,39000,404
2014/02/25,404,406,404,406,29000,406
2014/02/26,406,408,405,407,28000,407
2014/02/27,407,407,406,406,10000,406
2014/02/28,408,409,406,407,57000,407
2014/03/03,407,408,403,407,33000,407
2014/03/04,404,408,404,408,30000,408
2014/03/05,410,410,408,408,26000,408
2014/03/06,408,410,408,410,24000,410
2014/03/07,410,412,410,411,45000,411
2014/03/10,411,412,396,405,105000,405
2014/03/11,408,410,407,410,34000,410
2014/03/12,410,412,408,410,56000,410
2014/03/13,410,412,409,409,31000,409
2014/03/14,409,411,405,405,138000,405
2014/03/17,405,407,402,402,45000,402
2014/03/18,409,409,405,407,23000,407
2014/03/19,410,410,408,408,24000,408
2014/03/20,408,410,407,407,40000,407
2014/03/24,411,415,410,413,73000,413
2014/03/25,418,420,416,418,103000,418
2014/03/26,419,420,415,420,170000,420
2014/03/27,405,407,401,405,98000,405
2014/03/28,405,407,403,406,61000,406
2014/03/31,407,408,405,406,37000,406
2014/04/01,407,407,403,406,33000,406
2014/04/02,407,407,402,402,73000,402
2014/04/03,401,406,401,403,50000,403
2014/04/04,401,404,401,404,17000,404
2014/04/07,407,407,403,405,37000,405
2014/04/08,407,407,401,401,38000,401
2014/04/09,400,401,397,398,45000,398
2014/04/10,400,402,398,400,41000,400
2014/04/11,396,400,396,397,39000,397
2014/04/14,397,402,397,401,41000,401
2014/04/15,399,401,398,398,18000,398
2014/04/16,401,402,399,402,14000,402
2014/04/17,402,402,400,400,14000,400
2014/04/18,404,404,399,401,16000,401
2014/04/21,403,403,400,403,11000,403
2014/04/22,403,405,401,401,33000,401
2014/04/23,403,403,399,403,18000,403
2014/04/24,403,403,400,401,19000,401
2014/04/25,400,401,400,401,18000,401
2014/04/28,401,402,397,398,27000,398
2014/04/30,400,400,397,397,12000,397
2014/05/01,399,401,399,401,22000,401
2014/05/02,400,402,398,402,26000,402
2014/05/07,400,402,396,397,43000,397
2014/05/08,397,399,397,397,17000,397
2014/05/09,397,401,397,400,18000,400
2014/05/12,400,402,399,399,33000,399
2014/05/13,402,402,399,400,12000,400
2014/05/14,401,404,400,404,23000,404
2014/05/15,400,400,395,395,49000,395
2014/05/16,397,397,389,390,99000,390
2014/05/19,390,391,389,389,49000,389
2014/05/20,389,392,389,390,34000,390
2014/05/21,390,393,390,390,13000,390
2014/05/22,393,393,391,393,17000,393
2014/05/23,394,395,393,393,44000,393
2014/05/26,393,398,393,398,43000,398
2014/05/27,400,402,395,395,42000,395
2014/05/28,397,401,396,399,16000,399
2014/05/29,400,401,396,398,14000,398
2014/05/30,399,400,396,397,37000,397
2014/06/02,398,400,398,398,25000,398
2014/06/03,398,400,396,399,34000,399
2014/06/04,399,400,398,399,14000,399
2014/06/05,399,400,398,398,22000,398
2014/06/06,400,403,398,403,41000,403
2014/06/09,403,403,401,402,8000,402
2014/06/10,402,402,401,402,14000,402
2014/06/11,403,404,401,404,28000,404
2014/06/12,404,405,402,403,45000,403
2014/06/13,403,405,403,405,73000,405
2014/06/16,404,404,402,402,25000,402
2014/06/17,405,405,403,403,19000,403
2014/06/18,404,405,403,404,16000,404
2014/06/19,403,405,403,405,28000,405
2014/06/20,405,406,404,406,46000,406
2014/06/23,404,406,404,405,20000,405
2014/06/24,406,409,406,409,68000,409
2014/06/25,410,410,408,408,49000,408
2014/06/26,410,410,405,407,23000,407
2014/06/27,407,409,406,406,39000,406
2014/06/30,408,412,407,411,85000,411
2014/07/01,410,415,409,413,65000,413
2014/07/02,413,415,411,412,45000,412
2014/07/03,415,420,413,413,79000,413
2014/07/04,417,425,416,423,65000,423
2014/07/07,424,426,422,422,32000,422
2014/07/08,426,426,422,424,26000,424
2014/07/09,423,424,420,422,41000,422
2014/07/10,422,427,420,426,70000,426
2014/07/11,425,427,423,427,64000,427
2014/07/14,427,432,427,429,164000,429
2014/07/15,432,435,430,434,64000,434
2014/07/16,435,435,418,428,97000,428
2014/07/17,429,429,427,428,14000,428
2014/07/18,429,432,425,430,41000,430
2014/07/22,434,435,433,434,20000,434
2014/07/23,435,436,431,431,41000,431
2014/07/24,436,436,430,432,27000,432
2014/07/25,427,430,427,428,33000,428
2014/07/28,430,430,426,430,13000,430
2014/07/29,430,430,426,430,9000,430
2014/07/30,424,427,423,425,26000,425
2014/07/31,427,430,422,428,20000,428
2014/08/01,422,423,420,421,21000,421
2014/08/04,425,428,421,424,19000,424
2014/08/05,422,424,419,419,27000,419
2014/08/06,419,419,411,411,27000,411
2014/08/07,415,415,410,414,29000,414
2014/08/08,410,418,410,413,28000,413
2014/08/11,419,420,414,417,18000,417
2014/08/12,417,424,417,424,37000,424
2014/08/13,424,426,418,424,46000,424
2014/08/14,421,426,421,426,15000,426
2014/08/15,427,430,427,429,14000,429
2014/08/18,429,429,426,429,7000,429
2014/08/19,429,430,429,430,10000,430
2014/08/20,427,430,427,429,14000,429
2014/08/21,426,432,426,429,43000,429
2014/08/22,429,429,427,428,18000,428
2014/08/25,428,430,426,428,14000,428
2014/08/26,428,429,427,427,11000,427
2014/08/27,430,430,426,428,10000,428
2014/08/28,426,429,424,429,23000,429
2014/08/29,429,429,428,428,11000,428
2014/09/01,426,426,424,424,14000,424
2014/09/02,428,429,426,429,16000,429
2014/09/03,430,432,426,429,32000,429
2014/09/04,425,428,425,428,11000,428
2014/09/05,428,429,428,428,11000,428
2014/09/08,429,430,426,428,25000,428
2014/09/09,428,428,427,427,5000,427
2014/09/10,427,429,426,429,15000,429
2014/09/11,430,430,427,430,15000,430
2014/09/12,430,430,427,429,99000,429
2014/09/16,429,429,426,428,6000,428
2014/09/17,428,429,427,427,14000,427
2014/09/18,426,430,426,430,27000,430
2014/09/19,427,429,424,428,91000,428
2014/09/22,428,428,424,427,19000,427
2014/09/24,425,426,423,424,23000,424
2014/09/25,422,432,420,432,56000,432
2014/09/26,431,434,429,429,25000,429
2014/09/29,429,432,428,431,12000,431
2014/09/30,427,434,427,431,21000,431
2014/10/01,435,435,427,432,26000,432
2014/10/02,432,433,426,426,40000,426
2014/10/03,424,424,422,424,22000,424
2014/10/06,424,430,424,428,25000,428
2014/10/07,430,432,426,426,43000,426
2014/10/08,423,428,423,426,21000,426
2014/10/09,424,428,423,423,23000,423
2014/10/10,419,425,415,416,40000,416
2014/10/14,416,424,416,416,50000,416
2014/10/15,417,421,415,416,19000,416
2014/10/16,412,412,409,409,31000,409
2014/10/17,407,408,401,401,40000,401
2014/10/20,405,409,402,407,35000,407
2014/10/21,411,411,406,406,38000,406
2014/10/22,411,411,410,411,19000,411
2014/10/23,407,410,407,410,15000,410
2014/10/24,410,410,407,408,18000,408
2014/10/27,408,410,408,410,12000,410
2014/10/28,409,420,408,417,21000,417
2014/10/29,424,424,416,422,31000,422
2014/10/30,422,425,419,419,42000,419
2014/10/31,425,435,415,435,77000,435
2014/11/04,435,435,424,426,65000,426
2014/11/05,426,433,426,429,58000,429
2014/11/06,432,432,428,429,41000,429
2014/11/07,428,430,426,427,38000,427
2014/11/10,427,429,426,427,17000,427
2014/11/11,427,430,425,428,28000,428
2014/11/12,428,431,423,426,81000,426
2014/11/13,425,430,425,430,22000,430
2014/11/14,431,431,428,428,41000,428
2014/11/17,430,430,426,427,14000,427
2014/11/18,427,431,427,431,20000,431
2014/11/19,429,431,427,427,22000,427
2014/11/20,427,434,427,433,48000,433
2014/11/21,433,443,431,441,93000,441
2014/11/25,443,445,442,443,77000,443
2014/11/26,437,442,437,437,25000,437
2014/11/27,437,442,437,440,23000,440
2014/11/28,436,444,436,444,36000,444
2014/12/01,444,447,442,445,59000,445
2014/12/02,445,448,444,446,41000,446
2014/12/03,449,449,447,448,33000,448
2014/12/04,449,450,447,449,50000,449
2014/12/05,446,453,446,451,84000,451
2014/12/08,456,456,448,452,62000,452
2014/12/09,453,458,450,454,67000,454
2014/12/10,450,454,444,444,82000,444
2014/12/11,445,452,442,452,53000,452
2014/12/12,452,456,452,452,109000,452
2014/12/15,454,455,452,452,28000,452
2014/12/16,450,452,446,447,37000,447
2014/12/17,447,451,446,447,28000,447
2014/12/18,450,454,450,452,28000,452
2014/12/19,457,458,455,457,41000,457
2014/12/22,457,460,457,459,46000,459
2014/12/24,460,463,460,462,64000,462
2014/12/25,464,465,462,464,37000,464
2014/12/26,463,465,461,464,32000,464
2014/12/29,465,465,464,465,19000,465
2014/12/30,467,468,466,468,26000,468
2015/01/05,468,470,468,469,24000,469
2015/01/06,468,470,459,460,59000,460
2015/01/07,455,457,450,456,46000,456
2015/01/08,456,462,456,462,32000,462
2015/01/09,462,463,460,460,32000,460
2015/01/13,460,463,460,463,43000,463
2015/01/14,460,471,460,468,46000,468
2015/01/15,468,468,466,467,11000,467
2015/01/16,467,467,455,459,47000,459
2015/01/19,460,468,460,465,14000,465
2015/01/20,462,465,460,465,51000,465
2015/01/21,465,466,460,463,41000,463
2015/01/22,463,464,460,463,55000,463
2015/01/23,463,463,459,460,44000,460
2015/01/26,461,462,459,462,29000,462
2015/01/27,462,464,461,462,32000,462
2015/01/28,463,475,463,475,63000,475
2015/01/29,474,475,468,468,30000,468
2015/01/30,475,477,474,477,44000,477
2015/02/02,476,479,475,477,39000,477
2015/02/03,478,478,465,465,64000,465
2015/02/04,466,473,466,472,61000,472
2015/02/05,476,479,475,476,36000,476
2015/02/06,475,479,475,477,28000,477
2015/02/09,478,485,478,484,44000,484
2015/02/10,485,491,485,487,62000,487
2015/02/12,489,498,489,493,80000,493
2015/02/13,501,514,493,504,137000,504
2015/02/16,500,506,500,501,64000,501
2015/02/17,501,505,499,500,51000,500
2015/02/18,498,506,498,505,48000,505
2015/02/19,507,512,506,512,46000,512
2015/02/20,511,516,509,514,48000,514
2015/02/23,511,516,510,511,53000,511
2015/02/24,510,514,510,513,43000,513
2015/02/25,513,514,512,513,31000,513
2015/02/26,510,513,509,513,56000,513
2015/02/27,512,514,510,512,37000,512
2015/03/02,511,511,508,508,40000,508
2015/03/03,510,510,508,508,16000,508
2015/03/04,507,510,507,509,34000,509
2015/03/05,510,513,510,511,28000,511
2015/03/06,510,514,510,511,52000,511
2015/03/09,511,517,511,516,50000,516
2015/03/10,518,521,518,518,48000,518
2015/03/11,521,523,519,521,57000,521
2015/03/12,523,532,523,532,93000,532
2015/03/13,526,535,525,528,133000,528
2015/03/16,533,544,531,542,66000,542
2015/03/17,545,550,542,546,80000,546
2015/03/18,547,550,546,547,39000,547
2015/03/19,546,550,544,545,50000,545
2015/03/20,542,542,539,542,48000,542
2015/03/23,542,550,542,548,72000,548
2015/03/24,544,549,544,548,39000,548
2015/03/25,547,552,547,549,94000,549
2015/03/26,549,549,540,542,199000,542
2015/03/27,528,528,513,517,167000,517
2015/03/30,511,515,502,505,63000,505
2015/03/31,505,511,501,502,52000,502
2015/04/01,505,505,493,493,65000,493
2015/04/02,493,509,493,502,69000,502
2015/04/03,500,507,499,503,56000,503
2015/04/06,504,506,496,496,67000,496
2015/04/07,497,500,496,500,31000,500
2015/04/08,501,506,500,505,53000,505
2015/04/09,504,506,503,506,22000,506
2015/04/10,510,510,503,505,50000,505
2015/04/13,507,508,496,499,56000,499
2015/04/14,499,500,496,498,27000,498
2015/04/15,498,499,496,498,33000,498
2015/04/16,498,498,495,497,43000,497
2015/04/17,495,501,495,498,44000,498
2015/04/20,498,498,494,495,45000,495
2015/04/21,495,498,493,498,23000,498
2015/04/22,498,498,491,492,48000,492
2015/04/23,492,498,488,489,50000,489
2015/04/24,489,489,483,486,55000,486
2015/04/27,486,497,486,490,32000,490
2015/04/28,494,497,491,493,35000,493
2015/04/30,492,492,486,489,49000,489
2015/05/01,488,489,485,486,28000,486
2015/05/07,487,492,486,487,42000,487
2015/05/08,487,491,487,489,25000,489
2015/05/11,491,493,486,490,46000,490
2015/05/12,490,490,487,488,35000,488
2015/05/13,489,491,488,490,15000,490
2015/05/14,488,490,485,485,62000,485
2015/05/15,485,485,470,470,73000,470
2015/05/18,473,477,462,465,88000,465
2015/05/19,470,474,468,472,47000,472
2015/05/20,475,476,472,472,32000,472
2015/05/21,471,478,470,473,56000,473
2015/05/22,473,475,473,474,41000,474
2015/05/25,479,480,476,477,50000,477
2015/05/26,478,479,475,475,49000,475
2015/05/27,474,478,472,473,49000,473
2015/05/28,473,474,469,471,42000,471
2015/05/29,474,475,471,473,37000,473
2015/06/01,476,485,475,479,93000,479
2015/06/02,479,480,473,473,46000,473
2015/06/03,471,473,470,470,41000,470
2015/06/04,470,470,468,470,44000,470
2015/06/05,468,471,468,468,41000,468
2015/06/08,470,470,468,468,33000,468
2015/06/09,467,468,464,464,55000,464
2015/06/10,464,465,463,463,37000,463
2015/06/11,463,469,463,468,46000,468
2015/06/12,468,474,466,471,114000,471
2015/06/15,469,474,467,471,21000,471
2015/06/16,476,476,470,471,19000,471
2015/06/17,469,472,464,464,58000,464
2015/06/18,464,466,461,461,40000,461
2015/06/19,461,464,455,455,96000,455
2015/06/22,462,464,451,454,69000,454
2015/06/23,454,463,454,460,56000,460
2015/06/24,458,466,457,461,78000,461
2015/06/25,459,462,453,453,69000,453
2015/06/26,453,457,453,453,30000,453
2015/06/29,453,455,450,450,76000,450
2015/06/30,455,457,451,452,43000,452
2015/07/01,451,458,451,452,37000,452
