2011/01/04,958,961,956,956,84000,1912
2011/01/05,957,959,953,956,116000,1912
2011/01/06,954,956,952,952,91000,1904
2011/01/07,953,957,953,953,59000,1906
2011/01/11,956,956,951,953,64000,1906
2011/01/12,956,956,952,953,75000,1906
2011/01/13,954,957,953,955,74000,1910
2011/01/14,954,956,952,953,83000,1906
2011/01/17,955,956,952,952,60000,1904
2011/01/18,953,956,951,951,74000,1902
2011/01/19,953,956,951,952,78000,1904
2011/01/20,954,959,950,952,158000,1904
2011/01/21,956,958,951,951,134000,1902
2011/01/24,952,956,949,956,81000,1912
2011/01/25,956,961,953,958,84000,1916
2011/01/26,959,959,953,956,62000,1912
2011/01/27,956,957,954,956,46000,1912
2011/01/28,955,957,949,950,98000,1900
2011/01/31,948,950,925,930,190000,1860
2011/02/01,931,935,921,927,115000,1854
2011/02/02,928,956,928,944,206000,1888
2011/02/03,945,951,936,946,112000,1892
2011/02/04,941,951,941,950,67000,1900
2011/02/07,951,952,948,949,35000,1898
2011/02/08,953,953,945,945,72000,1890
2011/02/09,945,951,944,946,61000,1892
2011/02/10,945,952,945,948,42000,1896
2011/02/14,949,952,949,951,27000,1902
2011/02/15,952,953,948,949,57000,1898
2011/02/16,948,950,943,943,72000,1886
2011/02/17,943,950,943,949,78000,1898
2011/02/18,949,955,948,955,61000,1910
2011/02/21,949,952,945,951,103000,1902
2011/02/22,950,953,948,949,77000,1898
2011/02/23,949,956,945,945,118000,1890
2011/02/24,946,948,945,946,123000,1892
2011/02/25,945,952,944,951,75000,1902
2011/02/28,957,957,947,953,137000,1906
2011/03/01,955,956,952,953,80000,1906
2011/03/02,950,950,941,941,117000,1882
2011/03/03,942,945,939,945,68000,1890
2011/03/04,951,955,946,947,98000,1894
2011/03/07,950,950,941,941,85000,1882
2011/03/08,942,948,942,942,46000,1884
2011/03/09,950,954,948,950,113000,1900
2011/03/10,946,948,943,945,83000,1890
2011/03/11,940,946,936,936,242000,1872
2011/03/14,900,926,869,897,149000,1794
2011/03/15,870,870,780,803,294000,1606
2011/03/16,800,844,792,844,332000,1688
2011/03/17,814,860,812,855,222000,1710
2011/03/18,870,898,870,894,202000,1788
2011/03/22,939,939,915,926,223000,1852
2011/03/23,924,924,908,917,164000,1834
2011/03/24,914,924,908,908,155000,1816
2011/03/25,923,927,916,925,151000,1850
2011/03/28,935,938,922,938,157000,1876
2011/03/29,929,941,914,940,148000,1880
2011/03/30,940,953,934,952,148000,1904
2011/03/31,952,966,941,966,147000,1932
2011/04/01,963,963,941,941,113000,1882
2011/04/04,938,940,928,939,106000,1878
2011/04/05,930,930,920,924,107000,1848
2011/04/06,925,927,915,924,125000,1848
2011/04/07,928,933,919,928,84000,1856
2011/04/08,920,948,918,942,99000,1884
2011/04/11,935,943,930,940,80000,1880
2011/04/12,932,933,914,924,125000,1848
2011/04/13,925,934,918,930,95000,1860
2011/04/14,919,926,911,924,83000,1848
2011/04/15,931,931,917,925,84000,1850
2011/04/18,925,935,924,934,57000,1868
2011/04/19,931,935,922,934,92000,1868
2011/04/20,940,945,937,941,87000,1882
2011/04/21,941,944,934,940,65000,1880
2011/04/22,934,942,931,940,59000,1880
2011/04/25,938,947,931,932,47000,1864
2011/04/26,942,944,932,935,117000,1870
2011/04/27,940,956,940,947,124000,1894
2011/04/28,948,965,946,965,137000,1930
2011/05/02,965,968,957,966,96000,1932
2011/05/06,966,974,959,973,100000,1946
2011/05/09,973,973,968,969,82000,1938
2011/05/10,970,990,970,984,157000,1968
2011/05/11,985,988,979,980,59000,1960
2011/05/12,979,983,968,969,77000,1938
2011/05/13,967,967,905,924,287000,1848
2011/05/16,925,925,888,895,199000,1790
2011/05/17,895,897,882,886,204000,1772
2011/05/18,889,904,889,904,115000,1808
2011/05/19,910,910,896,899,109000,1798
2011/05/20,901,908,897,897,89000,1794
2011/05/23,897,899,884,894,88000,1788
2011/05/24,891,896,886,888,80000,1776
2011/05/25,888,893,883,893,101000,1786
2011/05/26,893,894,885,888,100000,1776
2011/05/27,888,906,887,897,126000,1794
2011/05/30,896,897,887,890,79000,1780
2011/05/31,895,914,893,906,124000,1812
2011/06/01,906,906,887,897,102000,1794
2011/06/02,885,894,885,892,71000,1784
2011/06/03,888,894,882,883,95000,1766
2011/06/06,883,883,857,861,243000,1722
2011/06/07,852,854,847,851,243000,1702
2011/06/08,851,855,850,852,83000,1704
2011/06/09,854,861,853,857,83000,1714
2011/06/10,857,871,857,863,200000,1726
2011/06/13,863,865,857,865,58000,1730
2011/06/14,861,867,857,865,148000,1730
2011/06/15,866,866,859,864,79000,1728
2011/06/16,869,869,852,853,177000,1706
2011/06/17,858,858,823,824,254000,1648
2011/06/20,827,844,827,836,130000,1672
2011/06/21,838,848,838,848,68000,1696
2011/06/22,848,864,848,864,99000,1728
2011/06/23,865,868,862,864,78000,1728
2011/06/24,853,868,853,865,65000,1730
2011/06/27,871,871,857,859,124000,1718
2011/06/28,866,875,865,866,89000,1732
2011/06/29,867,875,866,870,98000,1740
2011/06/30,870,884,870,882,114000,1764
2011/07/01,890,893,878,882,140000,1764
2011/07/04,892,892,883,885,65000,1770
2011/07/05,884,888,882,883,57000,1766
2011/07/06,882,884,877,884,86000,1768
2011/07/07,880,889,880,889,64000,1778
2011/07/08,890,890,887,887,63000,1774
2011/07/11,886,892,886,892,130000,1784
2011/07/12,888,923,888,920,245000,1840
2011/07/13,911,916,909,914,145000,1828
2011/07/14,907,915,905,913,103000,1826
2011/07/15,911,911,906,909,49000,1818
2011/07/19,910,910,900,903,96000,1806
2011/07/20,915,917,906,907,102000,1814
2011/07/21,904,908,902,905,29000,1810
2011/07/22,906,912,906,912,31000,1824
2011/07/25,911,911,902,906,56000,1812
2011/07/26,900,909,897,901,90000,1802
2011/07/27,904,904,887,895,73000,1790
2011/07/28,893,893,882,886,63000,1772
2011/07/29,886,892,884,886,65000,1772
2011/08/01,889,889,884,884,135000,1768
2011/08/02,884,885,881,882,100000,1764
2011/08/03,868,868,852,852,112000,1704
2011/08/04,852,855,850,851,110000,1702
2011/08/05,840,840,830,837,125000,1674
2011/08/08,830,841,830,830,74000,1660
2011/08/09,819,825,811,825,159000,1650
2011/08/10,833,844,831,843,96000,1686
2011/08/11,830,852,830,852,91000,1704
2011/08/12,863,863,834,847,139000,1694
2011/08/15,853,857,840,853,92000,1706
2011/08/16,860,862,850,855,77000,1710
2011/08/17,854,856,845,851,69000,1702
2011/08/18,852,854,843,854,63000,1708
2011/08/19,841,861,841,856,122000,1712
2011/08/22,860,873,860,863,119000,1726
2011/08/23,869,883,869,882,75000,1764
2011/08/24,882,882,871,878,71000,1756
2011/08/25,877,882,867,868,67000,1736
2011/08/26,865,870,848,850,158000,1700
2011/08/29,855,855,842,854,70000,1708
2011/08/30,860,865,860,863,40000,1726
2011/08/31,868,880,866,876,80000,1752
2011/09/01,885,890,879,887,107000,1774
2011/09/02,887,891,876,890,95000,1780
2011/09/05,884,892,879,892,51000,1784
2011/09/06,891,902,884,896,94000,1792
2011/09/07,900,902,893,895,64000,1790
2011/09/08,890,912,887,909,114000,1818
2011/09/09,913,919,912,918,143000,1836
2011/09/12,901,908,898,908,64000,1816
2011/09/13,909,928,907,923,101000,1846
2011/09/14,923,925,915,920,64000,1840
2011/09/15,921,931,912,927,79000,1854
2011/09/16,931,936,930,935,110000,1870
2011/09/20,936,936,931,932,78000,1864
2011/09/21,932,936,923,923,37000,1846
2011/09/22,918,930,916,928,95000,1856
2011/09/26,928,952,920,947,120000,1894
2011/09/27,952,965,926,965,131000,1930
2011/09/28,955,982,955,971,134000,1942
2011/09/29,971,989,970,989,113000,1978
2011/09/30,992,996,980,996,115000,1992
2011/10/03,981,996,972,993,115000,1986
2011/10/04,986,991,986,987,69000,1974
2011/10/05,984,1004,976,995,170000,1990
2011/10/06,998,1005,994,998,76000,1996
2011/10/07,1002,1002,984,985,85000,1970
2011/10/11,986,990,970,973,132000,1946
2011/10/12,967,982,965,973,113000,1946
2011/10/13,972,972,959,962,64000,1924
2011/10/14,951,954,944,944,84000,1888
2011/10/17,953,971,950,963,88000,1926
2011/10/18,950,958,945,945,59000,1890
2011/10/19,951,972,950,968,104000,1936
2011/10/20,962,972,959,970,90000,1940
2011/10/21,970,978,958,958,96000,1916
2011/10/24,966,987,954,954,112000,1908
2011/10/25,954,956,941,944,83000,1888
2011/10/26,931,936,919,934,100000,1868
2011/10/27,945,945,929,936,90000,1872
2011/10/28,944,955,927,954,114000,1908
2011/10/31,953,962,934,935,109000,1870
2011/11/01,930,936,924,926,115000,1852
2011/11/02,912,916,904,912,88000,1824
2011/11/04,913,917,901,917,58000,1834
2011/11/07,919,919,904,912,44000,1824
2011/11/08,910,947,910,934,104000,1868
2011/11/09,936,963,935,954,128000,1908
2011/11/10,952,952,929,929,80000,1858
2011/11/11,930,941,918,919,86000,1838
2011/11/14,921,928,919,926,40000,1852
2011/11/15,919,933,918,924,41000,1848
2011/11/16,926,929,918,924,38000,1848
2011/11/17,925,944,921,935,59000,1870
2011/11/18,930,941,928,941,81000,1882
2011/11/21,945,963,945,958,77000,1916
2011/11/22,954,962,923,955,79000,1910
2011/11/24,940,940,932,933,55000,1866
2011/11/25,932,936,924,924,66000,1848
2011/11/28,919,920,908,910,53000,1820
2011/11/29,910,917,902,907,81000,1814
2011/11/30,893,908,890,907,66000,1814
2011/12/01,909,909,895,905,77000,1810
2011/12/02,912,921,903,921,65000,1842
2011/12/05,922,924,918,922,29000,1844
2011/12/06,921,921,902,904,53000,1808
2011/12/07,909,918,905,916,51000,1832
2011/12/08,914,914,898,899,63000,1798
2011/12/09,887,887,884,886,161000,1772
2011/12/12,886,886,875,875,99000,1750
2011/12/13,867,867,856,856,108000,1712
2011/12/14,855,855,850,851,70000,1702
2011/12/15,851,854,836,837,148000,1674
2011/12/16,843,854,839,840,98000,1680
2011/12/19,840,847,835,847,102000,1694
2011/12/20,851,858,848,849,117000,1698
2011/12/21,858,858,852,853,25000,1706
2011/12/22,857,864,853,864,35000,1728
2011/12/26,865,866,863,866,31000,1732
2011/12/27,862,862,857,859,27000,1718
2011/12/28,862,862,855,857,21000,1714
2011/12/29,857,863,855,863,25000,1726
2011/12/30,865,867,862,867,31000,1734
2012/01/04,880,882,862,863,86000,1726
2012/01/05,863,867,863,866,33000,1732
2012/01/06,857,859,848,848,69000,1696
2012/01/10,848,857,848,852,47000,1704
2012/01/11,853,863,852,863,40000,1726
2012/01/12,863,863,839,841,88000,1682
2012/01/13,841,844,834,835,88000,1670
2012/01/16,831,836,831,835,38000,1670
2012/01/17,835,837,835,837,20000,1674
2012/01/18,839,847,839,844,68000,1688
2012/01/19,850,855,848,855,73000,1710
2012/01/20,863,866,860,865,75000,1730
2012/01/23,870,870,863,863,44000,1726
2012/01/24,860,863,857,857,39000,1714
2012/01/25,863,879,863,879,72000,1758
2012/01/26,879,883,874,881,50000,1762
2012/01/27,885,894,885,892,56000,1784
2012/01/30,893,901,893,897,63000,1794
2012/01/31,889,889,859,860,130000,1720
2012/02/01,869,883,868,881,104000,1762
2012/02/02,891,891,885,886,42000,1772
2012/02/03,885,891,881,881,52000,1762
2012/02/06,881,884,868,869,61000,1738
2012/02/07,872,883,866,874,106000,1748
2012/02/08,879,884,878,884,56000,1768
2012/02/09,885,885,877,879,64000,1758
2012/02/10,883,883,873,881,32000,1762
2012/02/13,881,884,878,883,21000,1766
2012/02/14,883,890,879,890,37000,1780
2012/02/15,889,895,884,895,73000,1790
2012/02/16,894,894,888,890,33000,1780
2012/02/17,899,900,891,900,85000,1800
2012/02/20,901,902,895,896,72000,1792
2012/02/21,893,897,885,885,70000,1770
2012/02/22,885,900,885,900,80000,1800
2012/02/23,894,896,891,894,77000,1788
2012/02/24,894,899,893,897,66000,1794
2012/02/27,897,898,894,898,49000,1796
2012/02/28,898,918,897,916,142000,1832
2012/02/29,917,928,901,902,171000,1804
2012/03/01,902,922,902,910,90000,1820
2012/03/02,918,943,918,941,132000,1882
2012/03/05,941,943,936,936,68000,1872
2012/03/06,935,935,920,927,72000,1854
2012/03/07,921,929,921,923,45000,1846
2012/03/08,927,937,927,936,53000,1872
2012/03/09,944,946,938,942,172000,1884
2012/03/12,942,946,936,936,40000,1872
2012/03/13,938,940,932,932,51000,1864
2012/03/14,946,953,946,949,79000,1898
2012/03/15,949,958,949,955,42000,1910
2012/03/16,957,961,954,957,101000,1914
2012/03/19,961,969,961,969,60000,1938
2012/03/21,972,979,972,978,94000,1956
2012/03/22,979,998,975,996,176000,1992
2012/03/23,981,993,979,982,91000,1964
2012/03/26,982,990,973,984,70000,1968
2012/03/27,990,1007,990,1007,171000,2014
2012/03/28,997,1000,970,990,135000,1980
2012/03/29,995,1000,993,999,76000,1998
2012/03/30,1002,1002,992,993,103000,1986
2012/04/02,993,993,975,976,74000,1952
2012/04/03,976,976,961,969,94000,1938
2012/04/04,969,969,956,958,90000,1916
2012/04/05,951,957,950,953,57000,1906
2012/04/06,953,953,933,951,100000,1902
2012/04/09,940,957,936,952,81000,1904
2012/04/10,952,968,946,964,89000,1928
2012/04/11,951,964,945,959,80000,1918
2012/04/12,960,960,948,950,70000,1900
2012/04/13,945,957,945,956,67000,1912
2012/04/16,961,973,957,966,80000,1932
2012/04/17,967,970,960,963,63000,1926
2012/04/18,968,974,960,968,87000,1936
2012/04/19,972,972,958,965,91000,1930
2012/04/20,961,964,960,963,61000,1926
2012/04/23,956,968,954,961,40000,1922
2012/04/24,958,960,947,958,44000,1916
2012/04/25,961,964,954,964,42000,1928
2012/04/26,963,972,958,970,39000,1940
2012/04/27,970,970,956,957,56000,1914
2012/05/01,957,957,941,947,90000,1894
2012/05/02,943,967,943,966,76000,1932
2012/05/07,951,964,951,962,63000,1924
2012/05/08,952,952,944,946,42000,1892
2012/05/09,940,942,934,935,54000,1870
2012/05/10,930,930,914,925,61000,1850
2012/05/11,922,928,906,906,85000,1812
2012/05/14,900,900,880,881,94000,1762
2012/05/15,880,910,880,905,74000,1810
2012/05/16,903,904,890,893,85000,1786
2012/05/17,879,886,871,881,104000,1762
2012/05/18,873,876,871,876,93000,1752
2012/05/21,884,891,881,888,89000,1776
2012/05/22,890,899,887,895,110000,1790
2012/05/23,895,895,867,868,113000,1736
2012/05/24,865,874,862,864,82000,1728
2012/05/25,868,876,862,867,111000,1734
2012/05/28,867,872,862,863,59000,1726
2012/05/29,863,882,861,880,95000,1760
2012/05/30,880,885,865,866,83000,1732
2012/05/31,864,867,861,863,103000,1726
2012/06/01,860,872,855,869,89000,1738
2012/06/04,858,890,858,884,133000,1768
2012/06/05,885,905,875,896,170000,1792
2012/06/06,896,896,881,888,95000,1776
2012/06/07,888,900,881,900,69000,1800
2012/06/08,901,902,882,894,146000,1788
2012/06/11,895,902,892,893,57000,1786
2012/06/12,882,885,870,879,97000,1758
2012/06/13,870,871,865,870,84000,1740
2012/06/14,857,867,856,858,107000,1716
2012/06/15,855,864,852,852,107000,1704
2012/06/18,856,860,852,859,68000,1718
2012/06/19,864,871,858,860,131000,1720
2012/06/20,865,872,860,864,97000,1728
2012/06/21,864,868,863,867,40000,1734
2012/06/22,860,873,858,868,61000,1736
2012/06/25,875,877,864,864,51000,1728
2012/06/26,863,873,858,860,100000,1720
2012/06/27,860,870,858,870,89000,1740
2012/06/28,872,883,872,881,77000,1762
2012/06/29,881,905,879,902,139000,1804
2012/07/02,909,918,896,896,87000,1792
2012/07/03,892,908,892,903,90000,1806
2012/07/04,903,913,902,908,87000,1816
2012/07/05,908,913,899,902,51000,1804
2012/07/06,903,910,898,899,68000,1798
2012/07/09,896,905,895,898,46000,1796
2012/07/10,899,918,899,911,68000,1822
2012/07/11,905,908,903,906,57000,1812
2012/07/12,910,919,905,910,63000,1820
2012/07/13,906,918,905,905,72000,1810
2012/07/17,899,918,899,901,67000,1802
2012/07/18,905,909,901,902,39000,1804
2012/07/19,910,914,905,909,97000,1818
2012/07/20,913,913,894,894,119000,1788
2012/07/23,892,894,881,881,66000,1762
2012/07/24,883,891,875,875,71000,1750
2012/07/25,870,882,870,871,85000,1742
2012/07/26,876,883,868,882,62000,1764
2012/07/27,894,897,886,895,75000,1790
2012/07/30,900,904,897,901,68000,1802
2012/07/31,890,908,890,905,93000,1810
2012/08/01,904,908,898,907,45000,1814
2012/08/02,911,913,902,907,53000,1814
2012/08/03,903,904,891,891,25000,1782
2012/08/06,896,903,894,903,38000,1806
2012/08/07,903,908,903,904,32000,1808
2012/08/08,908,917,908,910,91000,1820
2012/08/09,910,913,901,910,57000,1820
2012/08/10,910,910,907,908,44000,1816
2012/08/13,909,912,905,906,41000,1812
2012/08/14,912,929,909,926,109000,1852
2012/08/15,926,928,924,927,37000,1854
2012/08/16,928,944,928,936,82000,1872
2012/08/17,942,946,939,946,61000,1892
2012/08/20,943,945,940,940,68000,1880
2012/08/21,940,947,939,945,43000,1890
2012/08/22,946,946,937,943,38000,1886
2012/08/23,942,946,938,944,37000,1888
2012/08/24,938,944,937,942,28000,1884
2012/08/27,948,948,938,938,39000,1876
2012/08/28,941,945,928,945,106000,1890
2012/08/29,949,949,927,937,91000,1874
2012/08/30,928,934,924,931,69000,1862
2012/08/31,931,935,925,925,43000,1850
2012/09/03,922,926,911,912,62000,1824
2012/09/04,910,910,896,897,76000,1794
2012/09/05,897,903,893,894,56000,1788
2012/09/06,893,893,880,885,72000,1770
2012/09/07,886,897,883,896,80000,1792
2012/09/10,897,903,896,899,41000,1798
2012/09/11,900,905,899,901,54000,1802
2012/09/12,901,932,901,926,91000,1852
2012/09/13,926,926,918,919,37000,1838
2012/09/14,926,928,916,927,103000,1854
2012/09/18,929,938,927,937,49000,1874
2012/09/19,940,948,938,948,97000,1896
2012/09/20,947,950,938,940,103000,1880
2012/09/21,935,949,935,946,85000,1892
2012/09/24,945,951,945,950,54000,1900
2012/09/25,951,968,949,968,156000,1936
2012/09/26,936,956,936,955,107000,1910
2012/09/27,954,970,954,968,67000,1936
2012/09/28,968,970,958,966,99000,1932
2012/10/01,965,965,953,955,77000,1910
2012/10/02,961,962,948,951,75000,1902
2012/10/03,947,952,943,945,65000,1890
2012/10/04,941,953,941,944,45000,1888
2012/10/05,943,953,943,950,69000,1900
2012/10/09,941,946,912,912,124000,1824
2012/10/10,897,908,897,897,72000,1794
2012/10/11,892,896,879,879,109000,1758
2012/10/12,883,894,879,887,87000,1774
2012/10/15,889,906,889,895,81000,1790
2012/10/16,898,904,894,902,57000,1804
2012/10/17,910,912,892,892,139000,1784
2012/10/18,901,914,899,914,67000,1828
2012/10/19,915,917,907,916,97000,1832
2012/10/22,909,917,904,906,79000,1812
2012/10/23,906,906,893,895,91000,1790
2012/10/24,895,902,893,895,87000,1790
2012/10/25,898,907,898,907,39000,1814
2012/10/26,905,916,905,906,64000,1812
2012/10/29,910,918,908,910,108000,1820
2012/10/30,897,910,891,891,98000,1782
2012/10/31,890,903,886,900,93000,1800
2012/11/01,900,911,897,898,69000,1796
2012/11/02,907,907,896,900,86000,1800
2012/11/05,892,898,892,894,32000,1788
2012/11/06,891,895,891,893,46000,1786
2012/11/07,894,894,882,882,65000,1764
2012/11/08,883,884,876,877,95000,1754
2012/11/09,871,877,865,870,84000,1740
2012/11/12,868,870,862,862,64000,1724
2012/11/13,862,875,861,863,79000,1726
2012/11/14,863,870,862,868,56000,1736
2012/11/15,868,876,868,874,95000,1748
2012/11/16,883,883,868,877,102000,1754
2012/11/19,888,902,888,902,124000,1804
2012/11/20,910,913,901,904,114000,1808
2012/11/21,906,906,894,904,71000,1808
2012/11/22,912,912,899,902,67000,1804
2012/11/26,912,917,908,909,84000,1818
2012/11/27,909,916,909,913,90000,1826
2012/11/28,901,912,901,906,90000,1812
2012/11/29,897,907,896,904,69000,1808
2012/11/30,905,905,895,895,82000,1790
2012/12/03,905,905,886,889,83000,1778
2012/12/04,885,894,885,888,66000,1776
2012/12/05,888,895,885,894,77000,1788
2012/12/06,899,900,890,892,104000,1784
2012/12/07,893,898,890,890,97000,1780
2012/12/10,891,896,888,891,58000,1782
2012/12/11,887,890,885,886,53000,1772
2012/12/12,886,891,886,887,59000,1774
2012/12/13,891,892,882,882,78000,1764
2012/12/14,880,892,880,880,203000,1760
2012/12/17,895,895,885,890,96000,1780
2012/12/18,893,897,886,888,143000,1776
2012/12/19,897,909,893,909,204000,1818
2012/12/20,919,920,912,917,236000,1834
2012/12/21,917,918,904,905,141000,1810
2012/12/25,907,911,899,899,97000,1798
2012/12/26,900,904,892,903,57000,1806
2012/12/27,903,907,897,897,78000,1794
2012/12/28,895,899,887,889,134000,1778
2013/01/04,903,903,890,891,100000,1782
2013/01/07,898,898,890,892,116000,1784
2013/01/08,891,907,891,893,176000,1786
2013/01/09,894,898,891,893,111000,1786
2013/01/10,894,899,890,898,130000,1796
2013/01/11,900,903,898,899,94000,1798
2013/01/15,905,906,899,899,136000,1798
2013/01/16,902,904,897,897,98000,1794
2013/01/17,900,901,894,896,107000,1792
2013/01/18,905,905,900,904,100000,1808
2013/01/21,904,908,901,901,100000,1802
2013/01/22,901,904,892,896,151000,1792
2013/01/23,893,896,891,895,119000,1790
2013/01/24,893,899,891,897,139000,1794
2013/01/25,899,905,895,904,151000,1808
2013/01/28,909,910,901,901,116000,1802
2013/01/29,901,909,901,905,87000,1810
2013/01/30,911,915,908,913,104000,1826
2013/01/31,908,908,895,900,240000,1800
2013/02/01,904,906,901,901,96000,1802
2013/02/04,900,901,896,896,125000,1792
2013/02/05,896,902,895,895,133000,1790
2013/02/06,897,904,895,897,132000,1794
2013/02/07,897,899,895,896,160000,1792
2013/02/08,897,898,892,894,142000,1788
2013/02/12,896,900,893,893,169000,1786
2013/02/13,892,893,890,891,155000,1782
2013/02/14,890,893,883,883,187000,1766
2013/02/15,883,884,874,877,194000,1754
2013/02/18,883,894,880,892,183000,1784
2013/02/19,893,895,887,890,213000,1780
2013/02/20,887,896,886,894,236000,1788
2013/02/21,893,899,886,886,159000,1772
2013/02/22,890,899,890,898,229000,1796
2013/02/25,904,907,899,903,250000,1806
2013/02/26,897,905,896,901,126000,1802
2013/02/27,901,909,901,904,134000,1808
2013/02/28,908,908,902,908,144000,1816
2013/03/01,908,913,903,910,145000,1820
2013/03/04,918,919,912,914,178000,1828
2013/03/05,914,919,908,909,144000,1818
2013/03/06,909,915,909,915,99000,1830
2013/03/07,918,931,918,928,213000,1856
2013/03/08,938,955,936,951,438000,1902
2013/03/11,951,951,942,949,198000,1898
2013/03/12,941,942,935,935,160000,1870
2013/03/13,935,947,935,942,196000,1884
2013/03/14,943,945,938,942,114000,1884
2013/03/15,947,967,946,967,237000,1934
2013/03/18,960,982,960,977,315000,1954
2013/03/19,978,990,978,989,167000,1978
2013/03/21,991,998,988,990,270000,1980
2013/03/22,977,985,975,975,219000,1950
2013/03/25,977,986,976,979,116000,1958
2013/03/26,980,987,979,986,217000,1972
2013/03/27,966,971,951,968,121000,1936
2013/03/28,975,976,971,974,150000,1948
2013/03/29,974,978,972,974,142000,1948
2013/04/01,972,972,950,950,178000,1900
2013/04/02,949,949,903,904,261000,1808
2013/04/03,914,919,908,918,188000,1836
2013/04/04,918,957,909,957,306000,1914
2013/04/05,980,1000,978,988,411000,1976
2013/04/08,990,1014,990,1013,380000,2026
2013/04/09,1033,1089,1030,1087,633000,2174
2013/04/10,1119,1180,1115,1175,1067000,2350
2013/04/11,1182,1215,1181,1204,1023000,2408
2013/04/12,1190,1197,1129,1189,1032000,2378
2013/04/15,1170,1195,1158,1158,281000,2316
2013/04/16,1132,1142,1116,1133,404000,2266
2013/04/17,1120,1130,1120,1125,159000,2250
2013/04/18,1113,1121,1102,1113,185000,2226
2013/04/19,1107,1119,1099,1106,169000,2212
2013/04/22,1115,1135,1115,1117,170000,2234
2013/04/23,1115,1120,1083,1105,180000,2210
2013/04/24,1100,1114,1098,1112,176000,2224
2013/04/25,1113,1129,1105,1122,135000,2244
2013/04/26,1108,1117,1096,1096,145000,2192
2013/04/30,1096,1107,1094,1094,103000,2188
2013/05/01,1094,1103,1074,1094,140000,2188
2013/05/02,1094,1096,1079,1082,74000,2164
2013/05/07,1112,1130,1110,1126,141000,2252
2013/05/08,1123,1123,1107,1113,165000,2226
2013/05/09,1112,1118,1100,1100,88000,2200
2013/05/10,1119,1125,1108,1121,179000,2242
2013/05/13,1130,1130,1105,1119,92000,2238
2013/05/14,1116,1127,1112,1114,92000,2228
2013/05/15,1125,1140,1117,1132,136000,2264
2013/05/16,1132,1150,1124,1143,184000,2286
2013/05/17,1144,1160,1137,1154,138000,2308
2013/05/20,1156,1165,1146,1147,166000,2294
2013/05/21,1147,1153,1125,1126,138000,2252
2013/05/22,1126,1139,1120,1120,199000,2240
2013/05/23,1121,1127,1056,1056,165000,2112
2013/05/24,1026,1060,992,1032,358000,2064
2013/05/27,1032,1033,1005,1010,175000,2020
2013/05/28,1000,1030,980,983,283000,1966
2013/05/29,995,1019,995,1004,136000,2008
2013/05/30,998,1005,952,954,254000,1908
2013/05/31,969,978,952,954,158000,1908
2013/06/03,954,956,927,931,183000,1862
2013/06/04,921,968,916,962,177000,1924
2013/06/05,962,985,947,948,153000,1896
2013/06/06,940,952,916,917,152000,1834
2013/06/07,917,922,900,910,274000,1820
2013/06/10,912,923,899,904,309000,1808
2013/06/11,913,914,900,900,374000,1800
2013/06/12,900,900,888,893,381000,1786
2013/06/13,890,891,868,869,464000,1738
2013/06/14,878,893,875,878,367000,1756
2013/06/17,882,905,880,900,208000,1800
2013/06/18,909,909,887,891,162000,1782
2013/06/19,899,910,899,908,212000,1816
2013/06/20,913,913,897,898,186000,1796
2013/06/21,890,900,886,898,253000,1796
2013/06/24,906,912,894,899,121000,1798
2013/06/25,899,905,891,898,142000,1796
2013/06/26,902,906,890,893,116000,1786
2013/06/27,897,904,891,904,84000,1808
2013/06/28,908,946,908,945,247000,1890
2013/07/01,948,954,934,946,161000,1892
2013/07/02,946,960,945,955,94000,1910
2013/07/03,955,984,952,972,189000,1944
2013/07/04,973,986,973,980,114000,1960
2013/07/05,984,985,976,980,79000,1960
2013/07/08,987,989,976,976,107000,1952
2013/07/09,979,982,978,980,42000,1960
2013/07/10,981,983,974,975,109000,1950
2013/07/11,979,982,976,981,97000,1962
2013/07/12,976,989,976,987,111000,1974
2013/07/16,989,994,978,981,137000,1962
2013/07/17,977,994,975,992,102000,1984
2013/07/18,993,1015,993,1012,185000,2024
2013/07/19,1019,1033,1014,1020,214000,2040
2013/07/22,1034,1035,1018,1035,152000,2070
2013/07/23,1033,1035,1022,1034,101000,2068
2013/07/24,1023,1032,1017,1021,61000,2042
2013/07/25,1021,1021,1002,1005,71000,2010
2013/07/26,989,998,986,987,97000,1974
2013/07/29,987,990,957,982,135000,1964
2013/07/30,987,1015,971,1009,117000,2018
2013/07/31,1040,1055,1011,1013,285000,2026
2013/08/01,1013,1036,1010,1027,154000,2054
2013/08/02,1040,1082,1038,1082,223000,2164
2013/08/05,1070,1073,1051,1066,80000,2132
2013/08/06,1066,1090,1063,1090,113000,2180
2013/08/07,1070,1077,1058,1058,89000,2116
2013/08/08,1050,1077,1050,1052,89000,2104
2013/08/09,1059,1059,1044,1053,91000,2106
2013/08/12,1065,1071,1061,1065,68000,2130
2013/08/13,1066,1090,1066,1090,104000,2180
2013/08/14,1090,1098,1076,1098,80000,2196
2013/08/15,1092,1092,1082,1088,71000,2176
2013/08/16,1089,1100,1083,1097,126000,2194
2013/08/19,1100,1116,1097,1116,205000,2232
2013/08/20,1056,1071,1030,1030,752000,2060
2013/08/21,1028,1029,990,1012,478000,2024
2013/08/22,996,997,984,989,289000,1978
2013/08/23,989,998,983,995,455000,1990
2013/08/26,987,987,965,965,435000,1930
2013/08/27,952,958,940,940,774000,1880
2013/08/28,910,921,889,889,3051000,1778
2013/08/29,882,885,872,872,2573000,1744
2013/08/30,875,881,872,873,985000,1746
2013/09/02,877,884,876,879,655000,1758
2013/09/03,882,896,882,892,877000,1784
2013/09/04,892,893,884,885,821000,1770
2013/09/05,881,885,870,876,4210000,1752
2013/09/06,878,878,871,876,1075000,1752
2013/09/09,879,882,874,878,1501000,1756
2013/09/10,880,889,878,886,1314000,1772
2013/09/11,891,895,885,886,806000,1772
2013/09/12,891,905,887,902,1322000,1804
2013/09/13,903,907,895,901,1246000,1802
2013/09/17,901,920,901,908,990000,1816
2013/09/18,911,915,906,907,683000,1814
2013/09/19,911,917,908,917,840000,1834
2013/09/20,920,924,913,922,1000000,1844
2013/09/24,921,922,915,921,599000,1842
2013/09/25,922,924,910,911,962000,1822
2013/09/26,904,910,887,910,663000,1820
2013/09/27,915,926,910,924,1088000,1848
2013/09/30,922,945,916,930,1578000,1860
2013/10/01,928,944,926,938,850000,1876
2013/10/02,942,944,928,935,757000,1870
2013/10/03,934,939,928,933,582000,1866
2013/10/04,929,957,926,952,1430000,1904
2013/10/07,946,950,939,948,789000,1896
2013/10/08,933,935,908,930,1358000,1860
2013/10/09,924,938,915,938,491000,1876
2013/10/10,934,955,934,952,691000,1904
2013/10/11,955,960,949,954,600000,1908
2013/10/15,957,958,946,948,453000,1896
2013/10/16,953,954,947,954,352000,1908
2013/10/17,957,980,957,978,1076000,1956
2013/10/18,983,1027,983,1021,2053000,2042
2013/10/21,1028,1034,1001,1008,952000,2016
2013/10/22,1012,1034,1009,1032,943000,2064
2013/10/23,1057,1067,1029,1039,2354000,2078
2013/10/24,1040,1041,1027,1039,602000,2078
2013/10/25,1045,1049,1029,1033,801000,2066
2013/10/28,1041,1061,1035,1059,946000,2118
2013/10/29,1049,1068,1043,1067,866000,2134
2013/10/30,1069,1081,1063,1071,964000,2142
2013/10/31,1072,1096,1044,1090,1601000,2180
2013/11/01,1088,1088,1062,1069,573000,2138
2013/11/05,1073,1073,1045,1050,661000,2100
2013/11/06,1038,1061,1035,1048,512000,2096
2013/11/07,1050,1053,1039,1041,343000,2082
2013/11/08,1036,1038,1026,1032,279000,2064
2013/11/11,1040,1059,1035,1051,511000,2102
2013/11/12,1051,1059,1046,1057,481000,2114
2013/11/13,1055,1055,1041,1055,368000,2110
2013/11/14,1056,1058,1046,1049,406000,2098
2013/11/15,1050,1058,1049,1054,500000,2108
2013/11/18,1055,1069,1053,1061,485000,2122
2013/11/19,1057,1063,1054,1061,286000,2122
2013/11/20,1065,1079,1060,1079,550000,2158
2013/11/21,1078,1088,1075,1087,393000,2174
2013/11/22,1088,1090,1081,1086,408000,2172
2013/11/25,1087,1092,1082,1092,425000,2184
2013/11/26,1092,1095,1087,1092,374000,2184
2013/11/27,1092,1106,1090,1103,747000,2206
2013/11/28,1116,1171,1115,1167,1488000,2334
2013/11/29,1165,1174,1157,1170,588000,2340
2013/12/02,1179,1200,1177,1196,1343000,2392
2013/12/03,1200,1206,1179,1194,949000,2388
2013/12/04,1180,1202,1179,1192,823000,2384
2013/12/05,1188,1194,1181,1184,718000,2368
2013/12/06,1176,1177,1159,1175,480000,2350
2013/12/09,1186,1201,1186,1193,420000,2386
2013/12/10,1185,1192,1181,1183,340000,2366
2013/12/11,1186,1187,1171,1173,236000,2346
2013/12/12,1172,1175,1151,1162,395000,2324
2013/12/13,1155,1171,1151,1166,480000,2332
2013/12/16,1159,1165,1148,1149,290000,2298
2013/12/17,1151,1186,1151,1185,634000,2370
2013/12/18,1181,1196,1180,1195,508000,2390
2013/12/19,1192,1196,1167,1171,435000,2342
2013/12/20,1175,1185,1165,1179,735000,2358
2013/12/24,1171,1179,1160,1164,472000,2328
2013/12/25,1164,1166,1147,1153,514000,2306
2013/12/26,1150,1188,1148,1182,509000,2364
2013/12/27,1176,1188,1163,1187,399000,2374
2013/12/30,1193,1194,1184,1190,228000,2380
2014/01/06,1195,1198,1175,1181,319000,2362
2014/01/07,1191,1193,1173,1176,371000,2352
2014/01/08,1192,1228,1190,1227,595000,2454
2014/01/09,1230,1246,1229,1245,691000,2490
2014/01/10,1250,1296,1223,1294,964000,2588
2014/01/14,1283,1283,1254,1255,507000,2510
2014/01/15,1271,1314,1266,1313,503000,2626
2014/01/16,1305,1306,1259,1263,712000,2526
2014/01/17,1265,1297,1265,1287,318000,2574
2014/01/20,1287,1303,1270,1300,340000,2600
2014/01/21,1303,1336,1303,1331,448000,2662
2014/01/22,1326,1333,1300,1327,427000,2654
2014/01/23,1328,1333,1316,1327,380000,2654
2014/01/24,1307,1325,1295,1323,497000,2646
2014/01/27,1275,1316,1270,1301,558000,2602
2014/01/28,1305,1359,1305,1333,884000,2666
2014/01/29,1354,1426,1354,1415,1084000,2830
2014/01/30,1380,1389,1345,1361,957000,2722
2014/01/31,1391,1435,1365,1375,1404000,2750
2014/02/03,1325,1370,1325,1358,752000,2716
2014/02/04,1301,1337,1295,1309,753000,2618
2014/02/05,1310,1330,1274,1328,695000,2656
2014/02/06,1341,1381,1330,1360,855000,2720
2014/02/07,1391,1426,1383,1410,800000,2820
2014/02/10,1440,1465,1437,1459,825000,2918
2014/02/12,1455,1491,1445,1487,548000,2974
2014/02/13,1480,1482,1423,1426,1003000,2852
2014/02/14,1426,1446,1401,1408,726000,2816
2014/02/17,1428,1454,1404,1433,771000,2866
2014/02/18,1444,1473,1439,1465,602000,2930
2014/02/19,1470,1475,1454,1462,388000,2924
2014/02/20,1448,1448,1402,1408,689000,2816
2014/02/21,1405,1438,1392,1425,1140000,2850
2014/02/24,1425,1438,1392,1421,564000,2842
2014/02/25,1438,1444,1407,1412,576000,2824
2014/02/26,1408,1411,1393,1397,454000,2794
2014/02/27,1381,1383,1337,1340,1440000,2680
2014/02/28,1337,1362,1325,1342,844000,2684
2014/03/03,1320,1328,1295,1325,495000,2650
2014/03/04,1320,1356,1315,1351,558000,2702
2014/03/05,1368,1375,1355,1360,790000,2720
2014/03/06,1361,1374,1348,1369,420000,2738
2014/03/07,1365,1372,1340,1358,425000,2716
2014/03/10,1358,1385,1353,1377,752000,2754
2014/03/11,1373,1403,1373,1396,1015000,2792
2014/03/12,1379,1384,1358,1358,672000,2716
2014/03/13,1346,1355,1329,1339,382000,2678
2014/03/14,1317,1334,1308,1322,573000,2644
2014/03/17,1315,1342,1308,1326,515000,2652
2014/03/18,1356,1365,1346,1348,425000,2696
2014/03/19,1342,1371,1341,1344,643000,2688
2014/03/20,1336,1336,1283,1285,719000,2570
2014/03/24,1301,1325,1298,1302,667000,2604
2014/03/25,1284,1296,1252,1290,1138000,2580
2014/03/26,1305,1341,1305,1333,1021000,2666
2014/03/27,1293,1325,1251,1311,842000,2622
2014/03/28,1322,1365,1317,1359,664000,2718
2014/03/31,1363,1373,1359,1367,404000,2734
2014/04/01,1350,1358,1324,1335,704000,2670
2014/04/02,1339,1352,1305,1307,619000,2614
2014/04/03,1322,1356,1321,1353,723000,2706
2014/04/04,1353,1373,1347,1366,441000,2732
2014/04/07,1347,1365,1340,1358,339000,2716
2014/04/08,1340,1363,1335,1346,408000,2692
2014/04/09,1322,1348,1320,1339,668000,2678
2014/04/10,1341,1348,1308,1312,407000,2624
2014/04/11,1297,1327,1286,1319,555000,2638
2014/04/14,1307,1327,1295,1297,306000,2594
2014/04/15,1301,1325,1291,1323,646000,2646
2014/04/16,1323,1358,1323,1353,612000,2706
2014/04/17,1342,1355,1328,1333,440000,2666
2014/04/18,1339,1340,1329,1339,360000,2678
2014/04/21,1346,1350,1312,1321,611000,2642
2014/04/22,1328,1329,1295,1295,606000,2590
2014/04/23,1316,1326,1313,1320,346000,2640
2014/04/24,1331,1336,1317,1329,356000,2658
2014/04/25,1338,1366,1338,1359,460000,2718
2014/04/28,1331,1348,1331,1348,202000,2696
2014/04/30,1336,1352,1336,1344,181000,2688
2014/05/01,1359,1411,1356,1404,946000,2808
2014/05/02,1402,1407,1389,1395,581000,2790
2014/05/07,1376,1394,1361,1361,426000,2722
2014/05/08,1357,1373,1346,1359,370000,2718
2014/05/09,1341,1360,1324,1329,416000,2658
2014/05/12,1320,1344,1320,1331,330000,2662
2014/05/13,1348,1368,1341,1359,438000,2718
2014/05/14,1340,1358,1339,1344,287000,2688
2014/05/15,1327,1327,1293,1304,734000,2608
2014/05/16,1280,1307,1260,1294,1159000,2588
2014/05/19,1298,1304,1257,1257,645000,2514
2014/05/20,1265,1267,1252,1261,510000,2522
2014/05/21,1252,1265,1252,1260,280000,2520
2014/05/22,1274,1282,1257,1270,397000,2540
2014/05/23,1267,1276,1259,1263,341000,2526
2014/05/26,1271,1290,1263,1289,426000,2578
2014/05/27,1289,1291,1273,1273,434000,2546
2014/05/28,1274,1312,1272,1307,554000,2614
2014/05/29,1307,1311,1270,1298,547000,2596
2014/05/30,1304,1310,1293,1305,552000,2610
2014/06/02,1318,1370,1318,1342,1592000,2684
2014/06/03,1389,1416,1374,1401,1276000,2802
2014/06/04,1408,1433,1396,1404,1018000,2808
2014/06/05,1419,1451,1407,1449,948000,2898
2014/06/06,1479,1528,1474,1518,1773000,3036
2014/06/09,1500,1500,1455,1479,865000,2958
2014/06/10,1492,1526,1486,1489,1059000,2978
2014/06/11,1494,1524,1487,1519,908000,3038
2014/06/12,1487,1529,1487,1522,773000,3044
2014/06/13,1522,1547,1511,1543,931000,3086
2014/06/16,1543,1589,1538,1562,1042000,3124
2014/06/17,1561,1580,1550,1580,881000,3160
2014/06/18,1600,1659,1600,1633,1326000,3266
2014/06/19,1633,1639,1611,1633,766000,3266
2014/06/20,1633,1633,1571,1591,815000,3182
2014/06/23,1603,1612,1594,1607,609000,3214
2014/06/24,1607,1627,1603,1622,307000,3244
2014/06/25,1609,1629,1605,1610,426000,3220
2014/06/26,1622,1626,1585,1595,344000,3190
2014/06/27,1586,1586,1553,1575,710000,3150
2014/06/30,1590,1622,1590,1611,642000,3222
2014/07/01,1590,1613,1590,1603,503000,3206
2014/07/02,1615,1651,1608,1636,616000,3272
2014/07/03,1621,1648,1621,1640,427000,3280
2014/07/04,1640,1651,1631,1636,324000,3272
2014/07/07,1625,1647,1621,1626,427000,3252
2014/07/08,1605,1639,1603,1622,360000,3244
2014/07/09,1602,1621,1602,1614,257000,3228
2014/07/10,1614,1619,1593,1593,281000,3186
2014/07/11,1586,1591,1570,1581,321000,3162
2014/07/14,1580,1587,1561,1578,331000,3156
2014/07/15,1585,1597,1571,1586,379000,3172
2014/07/16,1585,1590,1573,1581,240000,3162
2014/07/17,1580,1596,1574,1582,305000,3164
2014/07/18,1581,1581,1557,1573,314000,3146
2014/07/22,1603,1625,1591,1618,487000,3236
2014/07/23,1621,1696,1618,1678,830000,3356
2014/07/24,1645,1694,1645,1690,455000,3380
2014/07/25,1700,1757,1700,1752,575000,3504
2014/07/28,1770,1799,1730,1746,678000,3492
2014/07/29,1774,1776,1745,1752,429000,3504
2014/07/30,1767,1769,1740,1765,459000,3530
2014/07/31,1800,1953,1800,1929,2000000,3858
2014/08/01,1900,1976,1898,1965,1065000,3930
2014/08/04,1965,2134,1965,2087,2021000,4174
2014/08/05,2050,2106,2012,2014,1260000,4028
2014/08/06,2001,2050,1973,1991,1234000,3982
2014/08/07,1982,2033,1956,1979,1155000,3958
2014/08/08,1942,1953,1864,1911,1577000,3822
2014/08/11,1950,1986,1938,1981,701000,3962
2014/08/12,2003,2033,1973,1989,689000,3978
2014/08/13,2000,2020,1979,2006,606000,4012
2014/08/14,2014,2030,1999,2003,419000,4006
2014/08/15,2010,2010,1969,1969,502000,3938
2014/08/18,2009,2015,1969,2009,728000,4018
2014/08/19,2040,2043,1992,2023,579000,4046
2014/08/20,2027,2035,2010,2029,314000,4058
2014/08/21,2040,2050,2015,2050,576000,4100
2014/08/22,2041,2056,2029,2045,473000,4090
2014/08/25,2037,2056,2032,2048,553000,4096
2014/08/26,2050,2060,2036,2040,356000,4080
2014/08/27,2045,2069,2033,2055,687000,4110
2014/08/28,2065,2066,1995,2021,674000,4042
2014/08/29,2020,2048,2002,2032,417000,4064
2014/09/01,2048,2048,2002,2012,305000,4024
2014/09/02,2001,2007,1991,1999,378000,3998
2014/09/03,2000,2004,1950,1963,600000,3926
2014/09/04,1950,1950,1846,1853,1788000,3706
2014/09/05,1886,1908,1865,1871,822000,3742
2014/09/08,1879,1881,1849,1855,390000,3710
2014/09/09,1862,1862,1824,1827,453000,3654
2014/09/10,1811,1868,1804,1861,599000,3722
2014/09/11,1861,1869,1821,1861,624000,3722
2014/09/12,1872,1890,1866,1886,603000,3772
2014/09/16,1875,1883,1831,1834,624000,3668
2014/09/17,1831,1844,1783,1806,900000,3612
2014/09/18,1780,1800,1727,1755,1962000,3510
2014/09/19,1740,1750,1681,1687,1660000,3374
2014/09/22,1688,1737,1688,1730,862000,3460
2014/09/24,1770,1799,1753,1775,1153000,3550
2014/09/25,1776,1836,1776,1835,899000,3670
2014/09/26,3600,3720,3580,3670,361400,3670
2014/09/29,3660,3695,3630,3680,320100,3680
2014/09/30,3700,3795,3695,3790,444500,3790
2014/10/01,3840,3940,3825,3875,596800,3875
2014/10/02,3875,3925,3810,3820,456900,3820
2014/10/03,3820,3850,3765,3840,297500,3840
2014/10/06,3910,3925,3840,3855,196200,3855
2014/10/07,3905,3905,3805,3835,327300,3835
2014/10/08,3810,3975,3795,3905,594700,3905
2014/10/09,3885,3975,3830,3890,450200,3890
2014/10/10,3725,3775,3685,3735,650100,3735
2014/10/14,3665,3725,3635,3675,360300,3675
2014/10/15,3675,3725,3635,3655,511900,3655
2014/10/16,3665,3755,3640,3665,518700,3665
2014/10/17,3685,3720,3620,3645,673300,3645
2014/10/20,3715,3735,3680,3695,350300,3695
2014/10/21,3710,3785,3675,3685,267200,3685
2014/10/22,3735,3830,3710,3820,291600,3820
2014/10/23,3815,3840,3780,3800,271000,3800
2014/10/24,3820,3825,3695,3710,288900,3710
2014/10/27,3715,3720,3650,3665,242300,3665
2014/10/28,3605,3625,3565,3600,390600,3600
2014/10/29,3620,3635,3440,3455,638500,3455
2014/10/30,3485,3495,3390,3425,996600,3425
2014/10/31,3695,3750,3470,3570,1155100,3570
2014/11/04,3640,3640,3550,3570,413200,3570
2014/11/05,3580,3620,3570,3615,339100,3615
2014/11/06,3620,3740,3615,3645,378300,3645
2014/11/07,3690,3705,3655,3680,221500,3680
2014/11/10,3710,3725,3670,3695,213000,3695
2014/11/11,3765,3960,3750,3955,710000,3955
2014/11/12,4000,4110,3975,4100,792700,4100
2014/11/13,4160,4350,4155,4340,827800,4340
2014/11/14,4345,4365,4210,4265,500400,4265
2014/11/17,4195,4195,4075,4115,393700,4115
2014/11/18,4170,4290,4155,4285,292800,4285
2014/11/19,4285,4285,4230,4240,232000,4240
2014/11/20,4330,4540,4315,4425,572000,4425
2014/11/21,4480,4490,4350,4415,265900,4415
2014/11/25,4450,4450,4350,4385,253000,4385
2014/11/26,4375,4445,4325,4330,284000,4330
2014/11/27,4380,4380,4265,4310,212800,4310
2014/11/28,4350,4350,4285,4320,308900,4320
2014/12/01,4305,4415,4305,4400,160600,4400
2014/12/02,4420,4445,4400,4410,184200,4410
2014/12/03,4400,4450,4355,4450,318700,4450
2014/12/04,4450,4465,4360,4390,259800,4390
2014/12/05,4390,4465,4345,4460,227900,4460
2014/12/08,4460,4480,4385,4440,752300,4440
2014/12/09,4370,4405,4290,4310,801400,4310
2014/12/10,4285,4300,4215,4240,358800,4240
2014/12/11,4180,4245,4160,4205,556700,4205
2014/12/12,4180,4255,4155,4185,241600,4185
2014/12/15,4085,4120,4055,4110,258500,4110
2014/12/16,4050,4095,4030,4030,199400,4030
2014/12/17,4000,4075,3975,4045,224300,4045
2014/12/18,4115,4200,4115,4175,184800,4175
2014/12/19,4280,4280,4135,4145,256400,4145
2014/12/22,4175,4175,4080,4100,150300,4100
2014/12/24,4170,4270,4145,4265,173800,4265
2014/12/25,4260,4300,4230,4300,110900,4300
2014/12/26,4250,4265,4220,4245,116000,4245
2014/12/29,4250,4290,4215,4275,83800,4275
2014/12/30,4295,4295,4245,4250,85300,4250
2015/01/05,4210,4240,4175,4215,111600,4215
2015/01/06,4150,4190,4080,4085,165600,4085
2015/01/07,4065,4230,4065,4230,168000,4230
2015/01/08,4270,4515,4270,4405,541300,4405
2015/01/09,4405,4480,4335,4475,302600,4475
2015/01/13,4435,4490,4385,4480,213200,4480
2015/01/14,4445,4530,4445,4495,241600,4495
2015/01/15,4490,4605,4490,4595,237000,4595
2015/01/16,4490,4590,4440,4565,219400,4565
2015/01/19,4585,4635,4540,4615,164200,4615
2015/01/20,4630,4680,4620,4680,169100,4680
2015/01/21,4690,4705,4640,4680,152000,4680
2015/01/22,4700,4890,4660,4840,323400,4840
2015/01/23,4810,4855,4600,4635,351300,4635
2015/01/26,4600,4730,4570,4730,193700,4730
2015/01/27,4780,4840,4765,4815,138200,4815
2015/01/28,4785,4840,4740,4805,183000,4805
2015/01/29,4795,4940,4795,4905,192700,4905
2015/01/30,4925,4970,4850,4860,198500,4860
2015/02/02,5000,5360,4970,5190,633300,5190
2015/02/03,5190,5210,4850,4885,441900,4885
2015/02/04,4885,4935,4680,4700,481900,4700
2015/02/05,4770,4840,4495,4505,554500,4505
2015/02/06,4520,4525,4290,4320,689300,4320
2015/02/09,4390,4430,4315,4345,590900,4345
2015/02/10,4360,4430,4310,4375,490900,4375
2015/02/12,4415,4525,4320,4495,569100,4495
2015/02/13,4495,4675,4485,4645,607600,4645
2015/02/16,4715,4745,4565,4580,325700,4580
2015/02/17,4695,4845,4515,4820,607400,4820
2015/02/18,4880,5020,4855,4995,532800,4995
2015/02/19,4970,5100,4940,5070,360500,5070
2015/02/20,5100,5100,4925,5090,317500,5090
2015/02/23,5100,5150,5030,5080,205500,5080
2015/02/24,5110,5270,5090,5210,414600,5210
2015/02/25,5210,5250,5130,5140,172400,5140
2015/02/26,5060,5180,5040,5160,291100,5160
2015/02/27,5180,5340,5170,5220,280600,5220
2015/03/02,5190,5230,5130,5160,193900,5160
2015/03/03,5100,5160,5050,5120,263000,5120
2015/03/04,5090,5100,4910,5010,343900,5010
2015/03/05,4995,5040,4930,5020,260500,5020
2015/03/06,4995,5120,4975,5110,246500,5110
2015/03/09,5070,5180,5010,5090,209200,5090
2015/03/10,5140,5180,5040,5090,214700,5090
2015/03/11,5020,5120,5000,5090,122300,5090
2015/03/12,5080,5300,5070,5290,461100,5290
2015/03/13,5250,5280,5180,5190,301100,5190
2015/03/16,5200,5300,5190,5240,245000,5240
2015/03/17,5240,5260,5180,5200,195900,5200
2015/03/18,5190,5250,5140,5170,259600,5170
2015/03/19,5140,5160,4990,5020,369400,5020
2015/03/20,5060,5090,4995,5060,285400,5060
2015/03/23,5090,5090,4995,5020,288100,5020
2015/03/24,5030,5050,4925,4930,269600,4930
2015/03/25,4930,4950,4835,4875,245900,4875
2015/03/26,4895,4895,4755,4815,289000,4815
2015/03/27,4840,4985,4820,4885,329600,4885
2015/03/30,4920,5040,4920,4960,283300,4960
2015/03/31,5010,5010,4850,4860,304900,4860
2015/04/01,4820,4845,4700,4745,475500,4745
2015/04/02,4730,5090,4720,5030,741200,5030
2015/04/03,5220,5490,5130,5470,1329500,5470
2015/04/06,5460,5750,5450,5650,753200,5650
2015/04/07,5670,5770,5540,5750,539600,5750
2015/04/08,5840,6100,5840,6080,1093700,6080
2015/04/09,6060,6120,5990,6100,497800,6100
2015/04/10,6140,6340,6140,6180,488300,6180
2015/04/13,6090,6090,5730,5760,707500,5760
2015/04/14,5800,5960,5780,5810,485500,5810
2015/04/15,5700,5760,5480,5510,596800,5510
2015/04/16,5540,5600,5280,5400,757200,5400
2015/04/17,5290,5290,5050,5120,1085200,5120
2015/04/20,5130,5340,5060,5160,664100,5160
2015/04/21,5270,5410,5190,5390,574500,5390
2015/04/22,5400,5410,5200,5290,620800,5290
2015/04/23,5300,5330,5090,5140,736600,5140
2015/04/24,5120,5180,5080,5160,317100,5160
2015/04/27,5170,5190,5060,5110,268200,5110
2015/04/28,5150,5150,5050,5080,338400,5080
2015/04/30,5050,5050,4940,4980,312300,4980
2015/05/01,4980,4985,4810,4830,606200,4830
2015/05/07,4900,4950,4860,4890,368600,4890
2015/05/08,4890,5070,4845,5040,419300,5040
2015/05/11,5200,5230,5040,5140,474300,5140
2015/05/12,5110,5180,5050,5080,323400,5080
2015/05/13,5070,5100,4960,5020,248200,5020
2015/05/14,4985,4995,4860,4870,341800,4870
2015/05/15,4955,5020,4905,4975,304200,4975
2015/05/18,5030,5290,5030,5280,721000,5280
2015/05/19,5320,5490,5320,5450,717900,5450
2015/05/20,5490,5570,5330,5490,627700,5490
2015/05/21,5550,5550,5370,5410,419200,5410
2015/05/22,5340,5350,5100,5200,721200,5200
2015/05/25,5210,5230,5080,5170,513800,5170
2015/05/26,5170,5170,5050,5090,447700,5090
2015/05/27,5160,5270,5140,5260,440100,5260
2015/05/28,5270,5450,5240,5440,517900,5440
2015/05/29,5440,5520,5340,5440,401400,5440
2015/06/01,5400,5570,5380,5570,444300,5570
2015/06/02,5570,5590,5460,5540,231600,5540
2015/06/03,5510,5510,5380,5400,245800,5400
2015/06/04,5410,5410,5350,5380,178300,5380
2015/06/05,5350,5500,5340,5470,276900,5470
2015/06/08,5440,5440,5350,5390,157300,5390
2015/06/09,5360,5560,5360,5480,607100,5480
2015/06/10,5460,5620,5400,5600,626300,5600
2015/06/11,5630,5960,5630,5920,1045100,5920
2015/06/12,5990,6080,5900,6070,1174600,6070
2015/06/15,6000,6140,5980,6090,769300,6090
2015/06/16,6080,6080,5960,6010,416200,6010
2015/06/17,6010,6120,5930,6030,475300,6030
2015/06/18,5980,6010,5910,5960,402100,5960
2015/06/19,6090,6140,5930,5960,769500,5960
2015/06/22,5970,5970,5740,5830,793000,5830
2015/06/23,5930,6040,5880,6000,776100,6000
2015/06/24,6000,6070,5980,6050,325800,6050
2015/06/25,6060,6060,5970,5970,139400,5970
2015/06/26,5960,5990,5900,5990,238700,5990
2015/06/29,5800,6000,5790,5920,270500,5920
2015/06/30,5920,6130,5920,6080,500900,6080
2015/07/01,6090,6110,5980,6090,213600,6090
