2011/01/04,984,987,981,982,275000,982
2011/01/05,985,985,978,980,180000,980
2011/01/06,981,982,973,974,534000,974
2011/01/07,974,975,970,972,545000,972
2011/01/11,973,980,972,980,306000,980
2011/01/12,977,979,974,978,459000,978
2011/01/13,975,983,974,982,377000,982
2011/01/14,977,978,973,975,532000,975
2011/01/17,975,975,965,966,510000,966
2011/01/18,966,975,965,969,413000,969
2011/01/19,969,979,967,979,450000,979
2011/01/20,974,978,970,976,227000,976
2011/01/21,976,976,962,965,538000,965
2011/01/24,966,972,961,971,367000,971
2011/01/25,975,975,968,972,344000,972
2011/01/26,972,975,970,972,297000,972
2011/01/27,971,977,969,970,343000,970
2011/01/28,970,985,968,983,758000,983
2011/01/31,978,979,963,978,519000,978
2011/02/01,978,978,965,966,494000,966
2011/02/02,972,974,964,965,418000,965
2011/02/03,965,970,960,970,503000,970
2011/02/04,969,975,967,971,416000,971
2011/02/07,971,974,966,970,228000,970
2011/02/08,971,971,965,967,214000,967
2011/02/09,970,972,966,968,213000,968
2011/02/10,968,969,962,964,530000,964
2011/02/14,966,973,964,970,332000,970
2011/02/15,959,960,942,944,1453000,944
2011/02/16,942,942,930,932,1225000,932
2011/02/17,945,949,936,947,883000,947
2011/02/18,954,958,949,955,520000,955
2011/02/21,956,965,956,963,501000,963
2011/02/22,964,967,959,966,765000,966
2011/02/23,966,966,951,952,942000,952
2011/02/24,949,955,945,949,627000,949
2011/02/25,970,1012,965,1004,3013000,1004
2011/02/28,999,1002,986,994,1309000,994
2011/03/01,997,1008,997,1006,736000,1006
2011/03/02,998,1002,993,995,646000,995
2011/03/03,993,1000,993,998,271000,998
2011/03/04,998,1000,991,997,444000,997
2011/03/07,995,995,982,987,283000,987
2011/03/08,987,992,982,982,357000,982
2011/03/09,983,993,982,989,396000,989
2011/03/10,983,997,983,994,528000,994
2011/03/11,996,1004,991,999,1049000,999
2011/03/14,980,1008,966,981,1369000,981
2011/03/15,936,936,831,838,1219000,838
2011/03/16,865,902,860,902,970000,902
2011/03/17,868,898,863,891,576000,891
2011/03/18,900,929,900,924,756000,924
2011/03/22,939,943,924,933,630000,933
2011/03/23,933,934,914,920,554000,920
2011/03/24,921,930,918,922,550000,922
2011/03/25,933,941,926,939,422000,939
2011/03/28,933,943,927,943,525000,943
2011/03/29,949,966,949,959,732000,959
2011/03/30,950,960,936,960,580000,960
2011/03/31,967,970,956,969,410000,969
2011/04/01,970,978,959,959,702000,959
2011/04/04,961,964,952,956,308000,956
2011/04/05,958,959,941,946,468000,946
2011/04/06,950,974,948,973,831000,973
2011/04/07,977,989,974,987,752000,987
2011/04/08,992,1019,991,1011,1118000,1011
2011/04/11,1011,1011,1004,1006,313000,1006
2011/04/12,997,1005,987,989,425000,989
2011/04/13,987,1013,982,1010,637000,1010
2011/04/14,1008,1008,988,996,583000,996
2011/04/15,997,997,986,986,409000,986
2011/04/18,994,1016,992,1010,838000,1010
2011/04/19,997,1008,987,999,600000,999
2011/04/20,1017,1053,1007,1019,2330000,1019
2011/04/21,1020,1031,1020,1026,782000,1026
2011/04/22,1014,1023,1000,1015,744000,1015
2011/04/25,1038,1051,1013,1015,992000,1015
2011/04/26,1015,1033,1011,1024,911000,1024
2011/04/27,1032,1038,1023,1027,614000,1027
2011/04/28,1029,1040,1022,1040,599000,1040
2011/05/02,1036,1036,1015,1017,1486000,1017
2011/05/06,1018,1050,1018,1048,1373000,1048
2011/05/09,1044,1046,1028,1033,712000,1033
2011/05/10,1035,1044,1028,1038,856000,1038
2011/05/11,1037,1037,1019,1025,782000,1025
2011/05/12,1022,1024,1007,1010,843000,1010
2011/05/13,1010,1013,992,1003,729000,1003
2011/05/16,1008,1008,996,999,506000,999
2011/05/17,1024,1031,1008,1018,950000,1018
2011/05/18,1026,1052,1025,1043,1458000,1043
2011/05/19,1043,1044,1028,1034,571000,1034
2011/05/20,1040,1050,1033,1035,516000,1035
2011/05/23,1025,1035,1019,1032,338000,1032
2011/05/24,1027,1038,1027,1037,336000,1037
2011/05/25,1038,1045,1034,1037,483000,1037
2011/05/26,1042,1047,1033,1035,580000,1035
2011/05/27,1035,1039,1023,1033,289000,1033
2011/05/30,1021,1022,998,1010,1118000,1010
2011/05/31,1016,1037,1016,1037,799000,1037
2011/06/01,1038,1038,1013,1021,711000,1021
2011/06/02,1022,1023,1013,1020,280000,1020
2011/06/03,1020,1020,1003,1006,536000,1006
2011/06/06,1008,1024,1006,1014,602000,1014
2011/06/07,1019,1028,1017,1020,843000,1020
2011/06/08,1019,1020,1005,1008,450000,1008
2011/06/09,1014,1020,1011,1018,797000,1018
2011/06/10,1027,1034,1019,1026,899000,1026
2011/06/13,1024,1026,1018,1024,229000,1024
2011/06/14,1020,1044,1020,1042,556000,1042
2011/06/15,1047,1052,1039,1052,649000,1052
2011/06/16,1045,1052,1037,1037,359000,1037
2011/06/17,1045,1047,1025,1030,330000,1030
2011/06/20,1030,1043,1030,1040,348000,1040
2011/06/21,1045,1060,1045,1058,623000,1058
2011/06/22,1059,1067,1046,1060,629000,1060
2011/06/23,1061,1073,1058,1059,485000,1059
2011/06/24,1060,1072,1060,1068,501000,1068
2011/06/27,1068,1070,1057,1058,333000,1058
2011/06/28,1070,1077,1060,1072,517000,1072
2011/06/29,1072,1074,1046,1074,1012000,1074
2011/06/30,1076,1076,1065,1076,573000,1076
2011/07/01,1076,1077,1062,1065,631000,1065
2011/07/04,1074,1074,1061,1066,318000,1066
2011/07/05,1066,1069,1057,1061,571000,1061
2011/07/06,1067,1072,1059,1067,531000,1067
2011/07/07,1067,1082,1060,1077,553000,1077
2011/07/08,1079,1085,1076,1076,296000,1076
2011/07/11,1074,1077,1070,1075,232000,1075
2011/07/12,1069,1085,1065,1085,680000,1085
2011/07/13,1083,1095,1082,1089,604000,1089
2011/07/14,1089,1093,1082,1083,447000,1083
2011/07/15,1086,1088,1078,1083,377000,1083
2011/07/19,1082,1083,1060,1061,520000,1061
2011/07/20,1065,1065,1055,1058,414000,1058
2011/07/21,1051,1051,1033,1039,899000,1039
2011/07/22,1052,1056,1051,1054,554000,1054
2011/07/25,1060,1064,1056,1062,433000,1062
2011/07/26,1065,1075,1056,1071,494000,1071
2011/07/27,1066,1070,1057,1070,408000,1070
2011/07/28,1071,1071,1057,1060,501000,1060
2011/07/29,1061,1070,1061,1066,354000,1066
2011/08/01,1065,1079,1062,1073,508000,1073
2011/08/02,1063,1077,1062,1074,410000,1074
2011/08/03,1074,1122,1072,1116,1905000,1116
2011/08/04,1110,1125,1106,1113,846000,1113
2011/08/05,1092,1112,1092,1098,790000,1098
2011/08/08,1088,1096,1084,1084,434000,1084
2011/08/09,1067,1084,1062,1080,941000,1080
2011/08/10,1090,1094,1073,1092,774000,1092
2011/08/11,1070,1113,1070,1112,879000,1112
2011/08/12,1114,1114,1085,1099,637000,1099
2011/08/15,1114,1114,1087,1096,508000,1096
2011/08/16,1100,1101,1088,1101,287000,1101
2011/08/17,1095,1104,1094,1099,460000,1099
2011/08/18,1105,1108,1100,1103,289000,1103
2011/08/19,1091,1120,1090,1119,893000,1119
2011/08/22,1119,1123,1104,1118,596000,1118
2011/08/23,1120,1146,1119,1142,609000,1142
2011/08/24,1143,1155,1137,1150,572000,1150
2011/08/25,1153,1158,1112,1118,874000,1118
2011/08/26,1115,1126,1110,1115,716000,1115
2011/08/29,1129,1136,1115,1117,725000,1117
2011/08/30,1117,1122,1105,1110,760000,1110
2011/08/31,1117,1120,1107,1120,695000,1120
2011/09/01,1126,1127,1115,1119,689000,1119
2011/09/02,1118,1121,1110,1117,289000,1117
2011/09/05,1117,1119,1097,1101,872000,1101
2011/09/06,1102,1110,1086,1087,1087000,1087
2011/09/07,1105,1109,1079,1082,1033000,1082
2011/09/08,1091,1097,1082,1091,833000,1091
2011/09/09,1081,1097,1081,1090,773000,1090
2011/09/12,1082,1086,1065,1067,720000,1067
2011/09/13,1073,1078,1065,1078,369000,1078
2011/09/14,1079,1087,1074,1077,816000,1077
2011/09/15,1088,1093,1072,1078,752000,1078
2011/09/16,1078,1078,1054,1055,889000,1055
2011/09/20,1061,1104,1057,1096,1418000,1096
2011/09/21,1096,1112,1090,1106,648000,1106
2011/09/22,1092,1106,1090,1101,713000,1101
2011/09/26,1102,1125,1100,1116,715000,1116
2011/09/27,1116,1118,1105,1118,501000,1118
2011/09/28,1119,1152,1116,1140,740000,1140
2011/09/29,1143,1153,1129,1139,591000,1139
2011/09/30,1142,1181,1136,1178,1180000,1178
2011/10/03,1167,1170,1150,1164,921000,1164
2011/10/04,1163,1179,1161,1172,609000,1172
2011/10/05,1165,1172,1153,1170,425000,1170
2011/10/06,1175,1178,1135,1139,637000,1139
2011/10/07,1139,1139,1115,1115,636000,1115
2011/10/11,1145,1146,1119,1124,586000,1124
2011/10/12,1107,1108,1097,1107,490000,1107
2011/10/13,1116,1117,1095,1114,534000,1114
2011/10/14,1090,1100,1080,1082,637000,1082
2011/10/17,1094,1099,1086,1095,626000,1095
2011/10/18,1096,1097,1076,1081,507000,1081
2011/10/19,1086,1096,1082,1096,318000,1096
2011/10/20,1096,1096,1076,1085,386000,1085
2011/10/21,1086,1086,1064,1066,419000,1066
2011/10/24,1074,1087,1073,1079,380000,1079
2011/10/25,1076,1076,1050,1052,684000,1052
2011/10/26,1047,1049,1035,1045,418000,1045
2011/10/27,1037,1045,1029,1039,533000,1039
2011/10/28,1044,1047,1008,1022,1213000,1022
2011/10/31,1035,1062,1033,1042,1020000,1042
2011/11/01,1037,1059,1033,1048,632000,1048
2011/11/02,1035,1052,1028,1036,805000,1036
2011/11/04,1047,1049,1032,1036,369000,1036
2011/11/07,1031,1032,1022,1028,278000,1028
2011/11/08,1034,1048,1032,1039,379000,1039
2011/11/09,1048,1065,1043,1064,407000,1064
2011/11/10,1053,1060,1040,1045,553000,1045
2011/11/11,1046,1061,1030,1034,362000,1034
2011/11/14,1036,1036,1023,1029,343000,1029
2011/11/15,1029,1038,1018,1038,529000,1038
2011/11/16,1010,1037,1008,1030,802000,1030
2011/11/17,1031,1036,1020,1033,415000,1033
2011/11/18,1030,1035,1017,1018,465000,1018
2011/11/21,1019,1038,1019,1031,284000,1031
2011/11/22,1031,1036,1018,1023,536000,1023
2011/11/24,1014,1029,1011,1016,295000,1016
2011/11/25,1011,1015,1006,1006,229000,1006
2011/11/28,1009,1012,996,997,414000,997
2011/11/29,1003,1006,994,997,340000,997
2011/11/30,1003,1023,1002,1019,560000,1019
2011/12/01,1027,1027,1001,1004,356000,1004
2011/12/02,1013,1013,1002,1013,310000,1013
2011/12/05,1005,1021,1002,1018,541000,1018
2011/12/06,1008,1021,999,1006,784000,1006
2011/12/07,1005,1015,1005,1013,350000,1013
2011/12/08,1008,1014,1005,1008,617000,1008
2011/12/09,1012,1018,1007,1009,774000,1009
2011/12/12,1024,1040,1021,1032,764000,1032
2011/12/13,1020,1031,1020,1026,497000,1026
2011/12/14,1021,1024,1014,1016,355000,1016
2011/12/15,1013,1018,1005,1009,296000,1009
2011/12/16,1013,1018,1011,1015,439000,1015
2011/12/19,1012,1016,1009,1014,328000,1014
2011/12/20,1010,1020,1008,1020,495000,1020
2011/12/21,1025,1033,1022,1027,346000,1027
2011/12/22,1031,1043,1030,1033,352000,1033
2011/12/26,1042,1043,1037,1039,271000,1039
2011/12/27,1036,1037,1030,1035,582000,1035
2011/12/28,1014,1018,1008,1009,291000,1009
2011/12/29,1014,1014,1004,1007,216000,1007
2011/12/30,1007,1011,1007,1011,121000,1011
2012/01/04,1020,1029,1012,1015,496000,1015
2012/01/05,1018,1018,1009,1009,174000,1009
2012/01/06,1006,1007,999,1006,230000,1006
2012/01/10,1007,1017,1006,1011,342000,1011
2012/01/11,1006,1018,1006,1018,279000,1018
2012/01/12,1014,1014,1000,1002,295000,1002
2012/01/13,1008,1008,1001,1007,196000,1007
2012/01/16,1007,1007,996,1007,127000,1007
2012/01/17,1007,1008,998,1005,228000,1005
2012/01/18,1008,1008,998,998,202000,998
2012/01/19,1001,1001,992,993,297000,993
2012/01/20,993,994,981,986,354000,986
2012/01/23,986,993,979,987,431000,987
2012/01/24,991,991,978,985,363000,985
2012/01/25,989,996,986,996,416000,996
2012/01/26,997,1005,989,1004,450000,1004
2012/01/27,1005,1013,1002,1010,434000,1010
2012/01/30,1010,1017,1001,1003,552000,1003
2012/01/31,1001,1012,1001,1009,475000,1009
2012/02/01,1013,1019,1011,1017,357000,1017
2012/02/02,1016,1027,1010,1021,519000,1021
2012/02/03,1021,1025,1018,1019,221000,1019
2012/02/06,1020,1023,1013,1013,275000,1013
2012/02/07,1010,1017,1006,1016,190000,1016
2012/02/08,1016,1021,1013,1015,279000,1015
2012/02/09,1011,1017,1011,1015,196000,1015
2012/02/10,1015,1022,1008,1022,317000,1022
2012/02/13,1021,1030,1021,1029,292000,1029
2012/02/14,1027,1041,1022,1033,466000,1033
2012/02/15,1023,1063,1023,1058,1055000,1058
2012/02/16,1058,1081,1054,1057,788000,1057
2012/02/17,1064,1069,1055,1065,486000,1065
2012/02/20,1088,1088,1071,1075,475000,1075
2012/02/21,1067,1080,1062,1077,429000,1077
2012/02/22,1077,1102,1077,1090,818000,1090
2012/02/23,1091,1098,1087,1091,537000,1091
2012/02/24,1087,1094,1079,1082,422000,1082
2012/02/27,1081,1092,1076,1090,360000,1090
2012/02/28,1078,1097,1078,1097,529000,1097
2012/02/29,1099,1114,1094,1094,725000,1094
2012/03/01,1104,1111,1095,1109,516000,1109
2012/03/02,1116,1122,1112,1118,361000,1118
2012/03/05,1117,1119,1106,1113,389000,1113
2012/03/06,1110,1128,1107,1127,525000,1127
2012/03/07,1121,1136,1118,1131,616000,1131
2012/03/08,1136,1147,1133,1145,462000,1145
2012/03/09,1160,1160,1152,1156,650000,1156
2012/03/12,1155,1158,1149,1153,490000,1153
2012/03/13,1153,1155,1147,1147,356000,1147
2012/03/14,1159,1171,1156,1157,806000,1157
2012/03/15,1159,1164,1156,1157,311000,1157
2012/03/16,1155,1159,1152,1154,204000,1154
2012/03/19,1145,1156,1145,1152,216000,1152
2012/03/21,1146,1148,1131,1136,820000,1136
2012/03/22,1134,1141,1131,1134,795000,1134
2012/03/23,1134,1148,1129,1140,425000,1140
2012/03/26,1140,1148,1134,1134,448000,1134
2012/03/27,1145,1162,1143,1155,710000,1155
2012/03/28,1156,1156,1133,1144,586000,1144
2012/03/29,1145,1171,1144,1169,552000,1169
2012/03/30,1176,1189,1169,1186,541000,1186
2012/04/02,1184,1184,1158,1163,426000,1163
2012/04/03,1174,1175,1165,1167,295000,1167
2012/04/04,1167,1171,1153,1155,300000,1155
2012/04/05,1146,1147,1131,1138,427000,1138
2012/04/06,1138,1152,1138,1147,294000,1147
2012/04/09,1152,1175,1151,1160,591000,1160
2012/04/10,1172,1178,1158,1174,453000,1174
2012/04/11,1165,1181,1165,1175,513000,1175
2012/04/12,1182,1192,1170,1171,415000,1171
2012/04/13,1172,1188,1171,1186,420000,1186
2012/04/16,1176,1190,1176,1186,255000,1186
2012/04/17,1190,1203,1184,1201,388000,1201
2012/04/18,1202,1209,1200,1209,413000,1209
2012/04/19,1201,1201,1182,1186,317000,1186
2012/04/20,1187,1191,1185,1190,187000,1190
2012/04/23,1193,1204,1191,1193,269000,1193
2012/04/24,1180,1189,1179,1189,227000,1189
2012/04/25,1194,1194,1181,1191,553000,1191
2012/04/26,1187,1196,1181,1186,488000,1186
2012/04/27,1192,1195,1178,1183,547000,1183
2012/05/01,1175,1180,1160,1167,526000,1167
2012/05/02,1184,1192,1181,1187,550000,1187
2012/05/07,1166,1185,1166,1185,253000,1185
2012/05/08,1179,1182,1167,1177,710000,1177
2012/05/09,1169,1174,1153,1169,493000,1169
2012/05/10,1159,1163,1143,1155,468000,1155
2012/05/11,1153,1153,1111,1134,510000,1134
2012/05/14,1134,1138,1108,1110,500000,1110
2012/05/15,1123,1130,1113,1117,664000,1117
2012/05/16,1112,1112,1071,1083,1111000,1083
2012/05/17,1091,1093,1070,1076,477000,1076
2012/05/18,1070,1080,1060,1067,663000,1067
2012/05/21,1061,1076,1061,1070,319000,1070
2012/05/22,1085,1085,1063,1067,386000,1067
2012/05/23,1073,1074,1049,1049,456000,1049
2012/05/24,1059,1067,1047,1052,499000,1052
2012/05/25,1070,1077,1058,1072,554000,1072
2012/05/28,1067,1071,1044,1045,395000,1045
2012/05/29,1044,1053,1034,1040,409000,1040
2012/05/30,1025,1049,1025,1045,675000,1045
2012/05/31,1043,1087,1043,1087,1846000,1087
2012/06/01,1068,1079,1066,1074,516000,1074
2012/06/04,1065,1090,1063,1087,412000,1087
2012/06/05,1066,1099,1066,1086,568000,1086
2012/06/06,1087,1096,1067,1080,657000,1080
2012/06/07,1078,1106,1066,1105,574000,1105
2012/06/08,1109,1116,1098,1111,688000,1111
2012/06/11,1117,1121,1102,1106,305000,1106
2012/06/12,1094,1094,1039,1049,2033000,1049
2012/06/13,1050,1057,1034,1041,1523000,1041
2012/06/14,1042,1044,1036,1042,779000,1042
2012/06/15,1043,1047,1039,1040,522000,1040
2012/06/18,1045,1052,1042,1044,296000,1044
2012/06/19,1048,1052,1043,1045,372000,1045
2012/06/20,1052,1063,1050,1062,390000,1062
2012/06/21,1062,1065,1053,1064,487000,1064
2012/06/22,1042,1043,1018,1026,1959000,1026
2012/06/25,1029,1029,1008,1012,835000,1012
2012/06/26,1030,1033,1001,1002,1020000,1002
2012/06/27,1004,1014,1002,1012,549000,1012
2012/06/28,1013,1030,1012,1029,644000,1029
2012/06/29,1030,1046,1025,1043,866000,1043
2012/07/02,1044,1046,1031,1033,328000,1033
2012/07/03,1033,1044,1032,1044,358000,1044
2012/07/04,1048,1049,1041,1043,339000,1043
2012/07/05,1029,1045,1029,1038,722000,1038
2012/07/06,1039,1045,1017,1019,554000,1019
2012/07/09,1017,1028,1014,1017,622000,1017
2012/07/10,1022,1032,1020,1021,405000,1021
2012/07/11,1021,1029,1016,1018,314000,1018
2012/07/12,1021,1027,1012,1015,306000,1015
2012/07/13,1019,1041,1019,1033,773000,1033
2012/07/17,1038,1038,1025,1028,323000,1028
2012/07/18,1050,1065,1048,1059,940000,1059
2012/07/19,1060,1075,1058,1068,742000,1068
2012/07/20,1068,1072,1048,1051,876000,1051
2012/07/23,1051,1075,1049,1071,866000,1071
2012/07/24,1072,1076,1059,1069,609000,1069
2012/07/25,1069,1083,1065,1075,529000,1075
2012/07/26,1087,1093,1074,1093,635000,1093
2012/07/27,1093,1096,1074,1077,491000,1077
2012/07/30,1074,1090,1070,1090,313000,1090
2012/07/31,1093,1096,1082,1093,420000,1093
2012/08/01,1085,1093,1082,1083,413000,1083
2012/08/02,1071,1089,1066,1070,370000,1070
2012/08/03,1070,1085,1052,1067,756000,1067
2012/08/06,1078,1083,1067,1082,358000,1082
2012/08/07,1071,1072,1037,1046,1002000,1046
2012/08/08,1039,1042,1023,1029,1163000,1029
2012/08/09,1026,1035,1022,1035,582000,1035
2012/08/10,1031,1035,1023,1026,525000,1026
2012/08/13,1026,1035,1024,1035,536000,1035
2012/08/14,1035,1064,1035,1063,789000,1063
2012/08/15,1051,1051,1042,1043,353000,1043
2012/08/16,1044,1047,1030,1041,634000,1041
2012/08/17,1040,1041,1033,1035,454000,1035
2012/08/20,1035,1036,1029,1031,387000,1031
2012/08/21,1032,1037,1027,1028,360000,1028
2012/08/22,1029,1032,1024,1031,374000,1031
2012/08/23,1035,1047,1028,1046,724000,1046
2012/08/24,1036,1047,1035,1046,362000,1046
2012/08/27,1048,1051,1035,1035,252000,1035
2012/08/28,1043,1047,1035,1037,361000,1037
2012/08/29,1038,1040,1033,1037,197000,1037
2012/08/30,1040,1045,1034,1042,263000,1042
2012/08/31,1039,1049,1028,1029,451000,1029
2012/09/03,1036,1037,1019,1021,350000,1021
2012/09/04,1025,1025,1015,1019,251000,1019
2012/09/05,1012,1014,996,997,497000,997
2012/09/06,997,1018,997,1015,573000,1015
2012/09/07,1022,1022,1008,1013,336000,1013
2012/09/10,1007,1010,996,998,316000,998
2012/09/11,999,1005,996,1002,294000,1002
2012/09/12,1000,1012,1000,1012,299000,1012
2012/09/13,1012,1013,1003,1005,211000,1005
2012/09/14,1009,1009,999,1000,416000,1000
2012/09/18,1006,1007,1001,1004,328000,1004
2012/09/19,1005,1005,999,999,368000,999
2012/09/20,1004,1011,1001,1005,376000,1005
2012/09/21,1011,1025,1008,1023,553000,1023
2012/09/24,1027,1039,1027,1037,380000,1037
2012/09/25,1027,1035,1023,1035,405000,1035
2012/09/26,1027,1042,1027,1037,274000,1037
2012/09/27,1038,1045,1033,1041,222000,1041
2012/09/28,1041,1047,1034,1045,398000,1045
2012/10/01,1036,1036,1024,1030,258000,1030
2012/10/02,1029,1032,1019,1019,221000,1019
2012/10/03,1030,1032,1017,1019,507000,1019
2012/10/04,1027,1032,1017,1021,357000,1021
2012/10/05,1027,1030,1019,1024,319000,1024
2012/10/09,1024,1033,1019,1019,351000,1019
2012/10/10,1018,1018,1001,1003,507000,1003
2012/10/11,1001,1003,975,992,1281000,992
2012/10/12,987,1001,987,1001,469000,1001
2012/10/15,1002,1003,983,993,762000,993
2012/10/16,1002,1002,987,990,550000,990
2012/10/17,991,1005,990,993,727000,993
2012/10/18,1002,1008,999,1004,370000,1004
2012/10/19,1000,1004,995,1001,390000,1001
2012/10/22,996,1006,993,1002,581000,1002
2012/10/23,1003,1006,1001,1004,250000,1004
2012/10/24,1000,1000,987,990,663000,990
2012/10/25,993,998,989,998,367000,998
2012/10/26,995,1000,991,991,395000,991
2012/10/29,986,988,974,981,848000,981
2012/10/30,982,989,974,975,568000,975
2012/10/31,979,979,954,960,1436000,960
2012/11/01,957,957,940,944,997000,944
2012/11/02,950,950,939,940,1079000,940
2012/11/05,942,947,940,942,547000,942
2012/11/06,945,946,940,944,606000,944
2012/11/07,945,946,940,942,670000,942
2012/11/08,941,942,933,939,749000,939
2012/11/09,935,945,935,942,734000,942
2012/11/12,940,942,937,939,468000,939
2012/11/13,939,939,933,938,386000,938
2012/11/14,936,941,932,938,437000,938
2012/11/15,937,942,935,937,686000,937
2012/11/16,938,939,928,935,1072000,935
2012/11/19,938,953,938,953,610000,953
2012/11/20,956,962,953,956,634000,956
2012/11/21,961,961,945,952,670000,952
2012/11/22,952,955,949,950,431000,950
2012/11/26,955,965,951,954,838000,954
2012/11/27,958,961,952,955,728000,955
2012/11/28,956,961,949,949,617000,949
2012/11/29,953,963,952,962,457000,962
2012/11/30,964,967,961,965,603000,965
2012/12/03,969,969,962,964,433000,964
2012/12/04,966,968,963,967,320000,967
2012/12/05,965,968,963,967,506000,967
2012/12/06,969,972,965,969,629000,969
2012/12/07,967,970,962,965,741000,965
2012/12/10,969,970,965,969,453000,969
2012/12/11,969,971,964,965,650000,965
2012/12/12,965,967,963,963,423000,963
2012/12/13,966,966,958,962,581000,962
2012/12/14,964,967,960,965,692000,965
2012/12/17,966,966,956,962,988000,962
2012/12/18,962,971,960,971,855000,971
2012/12/19,972,974,965,970,745000,970
2012/12/20,970,977,969,974,669000,974
2012/12/21,979,980,973,978,728000,978
2012/12/25,979,982,975,980,1162000,980
2012/12/26,964,965,953,962,645000,962
2012/12/27,962,968,962,963,642000,963
2012/12/28,962,964,958,962,472000,962
2013/01/04,968,968,955,959,759000,959
2013/01/07,961,965,960,963,709000,963
2013/01/08,971,990,971,980,1901000,980
2013/01/09,982,986,976,980,912000,980
2013/01/10,978,989,975,989,776000,989
2013/01/11,992,995,986,993,798000,993
2013/01/15,998,999,993,998,671000,998
2013/01/16,995,1002,994,1000,706000,1000
2013/01/17,994,996,983,993,1131000,993
2013/01/18,996,996,989,995,571000,995
2013/01/21,994,998,991,997,468000,997
2013/01/22,999,1007,991,998,835000,998
2013/01/23,993,1005,990,1005,911000,1005
2013/01/24,995,1000,992,997,791000,997
2013/01/25,1003,1010,1002,1006,782000,1006
2013/01/28,1010,1012,1000,1004,417000,1004
2013/01/29,1002,1018,1000,1017,601000,1017
2013/01/30,1015,1021,1014,1018,491000,1018
2013/01/31,1017,1024,1008,1024,846000,1024
2013/02/01,1025,1054,1025,1050,920000,1050
2013/02/04,1059,1061,1041,1046,539000,1046
2013/02/05,1046,1057,1040,1047,773000,1047
2013/02/06,1060,1086,1057,1082,1016000,1082
2013/02/07,1078,1083,1071,1079,437000,1079
2013/02/08,1072,1082,1065,1077,666000,1077
2013/02/12,1081,1089,1072,1074,719000,1074
2013/02/13,1075,1085,1072,1080,519000,1080
2013/02/14,1081,1093,1075,1084,603000,1084
2013/02/15,1082,1082,1025,1043,1164000,1043
2013/02/18,1049,1085,1048,1080,668000,1080
2013/02/19,1070,1092,1070,1090,428000,1090
2013/02/20,1084,1099,1082,1087,610000,1087
2013/02/21,1087,1097,1079,1082,568000,1082
2013/02/22,1082,1095,1081,1090,754000,1090
2013/02/25,1098,1105,1092,1097,514000,1097
2013/02/26,1097,1140,1097,1137,1171000,1137
2013/02/27,1151,1192,1151,1181,1644000,1181
2013/02/28,1172,1174,1141,1171,1383000,1171
2013/03/01,1172,1210,1165,1210,1707000,1210
2013/03/04,1202,1219,1202,1206,662000,1206
2013/03/05,1207,1209,1177,1187,897000,1187
2013/03/06,1172,1172,1144,1150,1590000,1150
2013/03/07,1150,1150,1117,1146,1655000,1146
2013/03/08,1139,1139,1121,1132,1746000,1132
2013/03/11,1133,1140,1127,1138,955000,1138
2013/03/12,1135,1150,1134,1145,949000,1145
2013/03/13,1145,1156,1142,1149,900000,1149
2013/03/14,1147,1150,1128,1139,705000,1139
2013/03/15,1146,1168,1146,1167,1301000,1167
2013/03/18,1160,1165,1153,1155,655000,1155
2013/03/19,1170,1194,1170,1186,704000,1186
2013/03/21,1192,1195,1173,1182,579000,1182
2013/03/22,1189,1190,1162,1165,613000,1165
2013/03/25,1177,1185,1173,1174,479000,1174
2013/03/26,1174,1205,1174,1204,669000,1204
2013/03/27,1204,1217,1192,1217,610000,1217
2013/03/28,1225,1247,1219,1240,1053000,1240
2013/03/29,1250,1280,1241,1280,1144000,1280
2013/04/01,1269,1270,1201,1202,638000,1202
2013/04/02,1203,1203,1169,1171,965000,1171
2013/04/03,1171,1196,1171,1192,541000,1192
2013/04/04,1193,1217,1175,1217,536000,1217
2013/04/05,1243,1249,1216,1234,872000,1234
2013/04/08,1249,1267,1228,1254,551000,1254
2013/04/09,1255,1255,1225,1232,1154000,1232
2013/04/10,1234,1242,1218,1224,1098000,1224
2013/04/11,1223,1232,1216,1225,1018000,1225
2013/04/12,1225,1232,1209,1212,710000,1212
2013/04/15,1223,1230,1213,1226,497000,1226
2013/04/16,1215,1231,1215,1231,557000,1231
2013/04/17,1235,1250,1234,1250,423000,1250
2013/04/18,1250,1250,1233,1240,634000,1240
2013/04/19,1242,1242,1204,1212,813000,1212
2013/04/22,1217,1227,1214,1221,444000,1221
2013/04/23,1221,1251,1221,1244,538000,1244
2013/04/24,1253,1274,1249,1274,481000,1274
2013/04/25,1284,1285,1252,1260,775000,1260
2013/04/26,1269,1273,1240,1242,637000,1242
2013/04/30,1271,1274,1252,1274,1062000,1274
2013/05/01,1230,1246,1190,1227,2041000,1227
2013/05/02,1236,1238,1215,1226,723000,1226
2013/05/07,1245,1255,1231,1239,794000,1239
2013/05/08,1235,1249,1234,1238,651000,1238
2013/05/09,1239,1247,1222,1222,417000,1222
2013/05/10,1234,1243,1225,1225,406000,1225
2013/05/13,1226,1235,1210,1211,644000,1211
2013/05/14,1211,1233,1211,1225,441000,1225
2013/05/15,1234,1238,1223,1231,516000,1231
2013/05/16,1234,1249,1197,1202,669000,1202
2013/05/17,1204,1209,1194,1196,565000,1196
2013/05/20,1204,1207,1187,1187,648000,1187
2013/05/21,1188,1188,1155,1169,872000,1169
2013/05/22,1169,1177,1161,1175,1001000,1175
2013/05/23,1179,1187,1147,1150,994000,1150
2013/05/24,1180,1237,1176,1230,2342000,1230
2013/05/27,1243,1256,1215,1229,1412000,1229
2013/05/28,1222,1222,1193,1200,691000,1200
2013/05/29,1214,1265,1207,1245,1235000,1245
2013/05/30,1238,1238,1198,1200,830000,1200
2013/05/31,1201,1217,1148,1170,1154000,1170
2013/06/03,1159,1192,1158,1180,788000,1180
2013/06/04,1167,1196,1167,1191,1000000,1191
2013/06/05,1172,1180,1131,1131,1040000,1131
2013/06/06,1114,1127,1101,1115,593000,1115
2013/06/07,1106,1123,1082,1098,583000,1098
2013/06/10,1099,1121,1081,1106,1130000,1106
2013/06/11,1103,1109,1077,1083,821000,1083
2013/06/12,1080,1096,1054,1093,603000,1093
2013/06/13,1079,1079,1028,1028,639000,1028
2013/06/14,1045,1065,1045,1045,604000,1045
2013/06/17,1045,1093,1045,1091,464000,1091
2013/06/18,1093,1093,1070,1074,416000,1074
2013/06/19,1090,1120,1090,1104,541000,1104
2013/06/20,1104,1104,1070,1083,487000,1083
2013/06/21,1071,1120,1063,1117,703000,1117
2013/06/24,1128,1131,1099,1105,524000,1105
2013/06/25,1113,1131,1088,1107,885000,1107
2013/06/26,1117,1135,1103,1111,570000,1111
2013/06/27,1113,1128,1094,1117,489000,1117
2013/06/28,1144,1169,1139,1165,715000,1165
2013/07/01,1166,1167,1137,1146,556000,1146
2013/07/02,1153,1153,1123,1134,694000,1134
2013/07/03,1136,1136,1123,1128,404000,1128
2013/07/04,1126,1138,1121,1127,303000,1127
2013/07/05,1128,1134,1124,1134,257000,1134
2013/07/08,1137,1137,1118,1123,518000,1123
2013/07/09,1124,1135,1116,1120,549000,1120
2013/07/10,1127,1127,1074,1106,1596000,1106
2013/07/11,1106,1106,1082,1089,1105000,1089
2013/07/12,1119,1144,1103,1125,1370000,1125
2013/07/16,1137,1160,1135,1139,801000,1139
2013/07/17,1160,1165,1131,1161,546000,1161
2013/07/18,1164,1184,1158,1184,488000,1184
2013/07/19,1196,1199,1180,1185,637000,1185
2013/07/22,1197,1198,1184,1198,475000,1198
2013/07/23,1188,1206,1187,1204,485000,1204
2013/07/24,1205,1207,1193,1205,279000,1205
2013/07/25,1210,1210,1188,1193,366000,1193
2013/07/26,1193,1194,1173,1180,412000,1180
2013/07/29,1174,1174,1158,1158,336000,1158
2013/07/30,1159,1178,1144,1174,424000,1174
2013/07/31,1174,1174,1142,1156,551000,1156
2013/08/01,1157,1170,1138,1158,627000,1158
2013/08/02,1141,1230,1140,1216,1827000,1216
2013/08/05,1210,1210,1186,1194,670000,1194
2013/08/06,1198,1221,1194,1221,472000,1221
2013/08/07,1207,1227,1201,1202,686000,1202
2013/08/08,1195,1218,1186,1186,506000,1186
2013/08/09,1186,1189,1172,1186,437000,1186
2013/08/12,1178,1184,1176,1183,203000,1183
2013/08/13,1195,1208,1188,1208,358000,1208
2013/08/14,1208,1208,1195,1197,501000,1197
2013/08/15,1177,1186,1158,1164,641000,1164
2013/08/16,1155,1164,1146,1151,395000,1151
2013/08/19,1145,1152,1142,1152,221000,1152
2013/08/20,1141,1148,1120,1121,480000,1121
2013/08/21,1119,1121,1100,1112,565000,1112
2013/08/22,1082,1113,1066,1088,1346000,1088
2013/08/23,1100,1103,1070,1071,1048000,1071
2013/08/26,1088,1099,1077,1080,1141000,1080
2013/08/27,1081,1089,1078,1079,645000,1079
2013/08/28,1071,1072,1048,1063,986000,1063
2013/08/29,1070,1080,1061,1074,1103000,1074
2013/08/30,1073,1073,1051,1054,1051000,1054
2013/09/02,1054,1061,1050,1053,625000,1053
2013/09/03,1063,1078,1057,1078,369000,1078
2013/09/04,1075,1079,1066,1078,448000,1078
2013/09/05,1074,1080,1066,1068,310000,1068
2013/09/06,1077,1078,1061,1062,218000,1062
2013/09/09,1082,1091,1069,1075,300000,1075
2013/09/10,1076,1078,1068,1076,355000,1076
2013/09/11,1077,1090,1071,1074,329000,1074
2013/09/12,1065,1074,1056,1070,441000,1070
2013/09/13,1065,1076,1061,1066,465000,1066
2013/09/17,1067,1072,1053,1053,357000,1053
2013/09/18,1063,1063,1047,1050,474000,1050
2013/09/19,1058,1071,1056,1071,462000,1071
2013/09/20,1075,1077,1055,1060,687000,1060
2013/09/24,1059,1068,1056,1057,510000,1057
2013/09/25,1060,1063,1042,1047,864000,1047
2013/09/26,1049,1068,1042,1068,588000,1068
2013/09/27,1055,1069,1055,1064,491000,1064
2013/09/30,1063,1065,1054,1060,448000,1060
2013/10/01,1056,1066,1055,1059,446000,1059
2013/10/02,1060,1064,1043,1049,964000,1049
2013/10/03,1050,1054,1017,1019,1385000,1019
2013/10/04,1020,1023,1011,1012,685000,1012
2013/10/07,1012,1018,1003,1003,492000,1003
2013/10/08,1003,1007,993,993,786000,993
2013/10/09,983,989,974,987,1023000,987
2013/10/10,997,1019,995,1018,579000,1018
2013/10/11,1028,1028,1013,1019,626000,1019
2013/10/15,1027,1033,1015,1022,521000,1022
2013/10/16,1022,1033,1017,1031,486000,1031
2013/10/17,1034,1042,1030,1036,595000,1036
2013/10/18,1037,1045,1035,1042,449000,1042
2013/10/21,1043,1051,1040,1051,395000,1051
2013/10/22,1057,1065,1053,1058,528000,1058
2013/10/23,1060,1069,1057,1058,589000,1058
2013/10/24,1056,1056,1038,1046,557000,1046
2013/10/25,1051,1052,1040,1047,457000,1047
2013/10/28,1048,1052,1041,1048,350000,1048
2013/10/29,1018,1022,1009,1021,1014000,1021
2013/10/30,999,1006,991,993,1967000,993
2013/10/31,994,1003,993,998,1158000,998
2013/11/01,1004,1004,992,995,727000,995
2013/11/05,1002,1007,992,998,759000,998
2013/11/06,998,1016,998,1005,735000,1005
2013/11/07,1015,1015,1001,1003,529000,1003
2013/11/08,1000,1005,997,1001,407000,1001
2013/11/11,1004,1011,1004,1010,429000,1010
2013/11/12,1012,1018,1003,1018,643000,1018
2013/11/13,1020,1028,1016,1022,409000,1022
2013/11/14,1026,1029,1021,1025,367000,1025
2013/11/15,1030,1046,1030,1039,624000,1039
2013/11/18,1041,1043,1034,1038,377000,1038
2013/11/19,1038,1041,1035,1038,334000,1038
2013/11/20,1038,1045,1038,1044,287000,1044
2013/11/21,1050,1056,1048,1056,378000,1056
2013/11/22,1058,1061,1053,1060,535000,1060
2013/11/25,1062,1065,1060,1065,336000,1065
2013/11/26,1063,1063,1047,1055,545000,1055
2013/11/27,1049,1052,1045,1049,292000,1049
2013/11/28,1049,1058,1048,1052,502000,1052
2013/11/29,1051,1057,1050,1055,400000,1055
2013/12/02,1059,1061,1055,1055,405000,1055
2013/12/03,1057,1064,1057,1059,503000,1059
2013/12/04,1057,1062,1050,1058,661000,1058
2013/12/05,1058,1059,1050,1052,598000,1052
2013/12/06,1052,1060,1050,1058,758000,1058
2013/12/09,1070,1075,1065,1075,661000,1075
2013/12/10,1075,1087,1071,1086,595000,1086
2013/12/11,1084,1089,1078,1078,426000,1078
2013/12/12,1079,1086,1070,1073,643000,1073
2013/12/13,1070,1084,1068,1074,962000,1074
2013/12/16,1073,1076,1066,1068,394000,1068
2013/12/17,1068,1073,1062,1069,471000,1069
2013/12/18,1073,1080,1071,1075,541000,1075
2013/12/19,1080,1080,1072,1077,448000,1077
2013/12/20,1076,1080,1073,1080,445000,1080
2013/12/24,1080,1081,1074,1078,643000,1078
2013/12/25,1076,1085,1075,1085,1120000,1085
2013/12/26,1061,1076,1060,1073,706000,1073
2013/12/27,1071,1079,1065,1078,440000,1078
2013/12/30,1080,1080,1072,1079,383000,1079
2014/01/06,1080,1080,1070,1075,485000,1075
2014/01/07,1067,1071,1055,1056,425000,1056
2014/01/08,1054,1062,1047,1062,449000,1062
2014/01/09,1067,1070,1057,1070,608000,1070
2014/01/10,1071,1080,1061,1079,898000,1079
2014/01/14,1070,1087,1067,1086,958000,1086
2014/01/15,1094,1119,1090,1119,1123000,1119
2014/01/16,1122,1122,1112,1117,624000,1117
2014/01/17,1112,1112,1097,1099,703000,1099
2014/01/20,1105,1105,1091,1096,475000,1096
2014/01/21,1096,1107,1093,1103,436000,1103
2014/01/22,1091,1106,1089,1101,882000,1101
2014/01/23,1107,1115,1101,1101,502000,1101
2014/01/24,1097,1111,1088,1104,741000,1104
2014/01/27,1080,1080,1057,1066,730000,1066
2014/01/28,1063,1097,1063,1095,819000,1095
2014/01/29,1097,1120,1097,1120,742000,1120
2014/01/30,1104,1119,1096,1117,759000,1117
2014/01/31,1121,1135,1090,1109,807000,1109
2014/02/03,1108,1117,1080,1110,641000,1110
2014/02/04,1093,1097,1070,1070,736000,1070
2014/02/05,1075,1080,1061,1078,545000,1078
2014/02/06,1081,1104,1081,1093,478000,1093
2014/02/07,1101,1114,1092,1110,481000,1110
2014/02/10,1118,1120,1110,1118,366000,1118
2014/02/12,1119,1135,1116,1133,363000,1133
2014/02/13,1133,1140,1117,1117,402000,1117
2014/02/14,1119,1134,1088,1108,476000,1108
2014/02/17,1135,1182,1127,1163,1710000,1163
2014/02/18,1162,1178,1157,1175,1376000,1175
2014/02/19,1175,1178,1160,1165,926000,1165
2014/02/20,1135,1141,1096,1113,1796000,1113
2014/02/21,1134,1160,1134,1153,924000,1153
2014/02/24,1160,1175,1153,1171,726000,1171
2014/02/25,1176,1183,1168,1178,771000,1178
2014/02/26,1173,1179,1160,1174,424000,1174
2014/02/27,1167,1187,1165,1175,495000,1175
2014/02/28,1177,1181,1165,1179,465000,1179
2014/03/03,1166,1168,1151,1164,525000,1164
2014/03/04,1143,1160,1143,1151,555000,1151
2014/03/05,1170,1181,1137,1140,1105000,1140
2014/03/06,1148,1150,1135,1149,611000,1149
2014/03/07,1157,1161,1148,1154,459000,1154
2014/03/10,1150,1150,1133,1147,551000,1147
2014/03/11,1150,1160,1139,1155,376000,1155
2014/03/12,1140,1150,1139,1147,436000,1147
2014/03/13,1140,1147,1139,1141,367000,1141
2014/03/14,1126,1135,1117,1117,762000,1117
2014/03/17,1110,1122,1102,1114,446000,1114
2014/03/18,1131,1139,1122,1123,492000,1123
2014/03/19,1133,1135,1118,1123,478000,1123
2014/03/20,1127,1135,1111,1111,529000,1111
2014/03/24,1090,1121,1090,1109,793000,1109
2014/03/25,1109,1125,1094,1122,545000,1122
2014/03/26,1117,1138,1117,1136,457000,1136
2014/03/27,1138,1149,1121,1149,761000,1149
2014/03/28,1177,1200,1162,1200,1053000,1200
2014/03/31,1201,1224,1199,1222,971000,1222
2014/04/01,1220,1220,1204,1213,506000,1213
2014/04/02,1220,1222,1199,1200,633000,1200
2014/04/03,1200,1217,1194,1216,631000,1216
2014/04/04,1216,1218,1211,1218,358000,1218
2014/04/07,1218,1237,1215,1228,767000,1228
2014/04/08,1227,1246,1212,1235,1068000,1235
2014/04/09,1232,1236,1220,1229,890000,1229
2014/04/10,1243,1244,1215,1221,739000,1221
2014/04/11,1197,1235,1194,1225,832000,1225
2014/04/14,1220,1239,1218,1226,610000,1226
2014/04/15,1231,1238,1220,1237,628000,1237
2014/04/16,1243,1246,1210,1221,1393000,1221
2014/04/17,1221,1242,1217,1225,966000,1225
2014/04/18,1222,1226,1208,1212,811000,1212
2014/04/21,1208,1216,1200,1201,571000,1201
2014/04/22,1208,1225,1206,1207,738000,1207
2014/04/23,1217,1225,1214,1223,533000,1223
2014/04/24,1229,1246,1229,1238,678000,1238
2014/04/25,1245,1261,1244,1247,1027000,1247
2014/04/28,1234,1245,1231,1243,490000,1243
2014/04/30,1241,1256,1236,1248,811000,1248
2014/05/01,1229,1237,1166,1180,3045000,1180
2014/05/02,1200,1200,1167,1176,1410000,1176
2014/05/07,1188,1194,1162,1170,1603000,1170
2014/05/08,1175,1192,1167,1172,992000,1172
2014/05/09,1172,1187,1167,1180,692000,1180
2014/05/12,1182,1188,1174,1177,488000,1177
2014/05/13,1188,1196,1164,1166,688000,1166
2014/05/14,1180,1191,1172,1183,421000,1183
2014/05/15,1173,1194,1162,1192,617000,1192
2014/05/16,1193,1194,1173,1183,521000,1183
2014/05/19,1180,1198,1176,1179,777000,1179
2014/05/20,1182,1198,1182,1191,416000,1191
2014/05/21,1185,1192,1183,1188,346000,1188
2014/05/22,1193,1205,1185,1200,635000,1200
2014/05/23,1209,1209,1192,1194,752000,1194
2014/05/26,1196,1203,1192,1202,396000,1202
2014/05/27,1196,1204,1183,1185,609000,1185
2014/05/28,1186,1200,1185,1199,409000,1199
2014/05/29,1195,1198,1187,1196,355000,1196
2014/05/30,1191,1206,1190,1201,766000,1201
2014/06/02,1210,1217,1203,1209,460000,1209
2014/06/03,1210,1224,1197,1212,760000,1212
2014/06/04,1219,1219,1194,1213,747000,1213
2014/06/05,1212,1212,1199,1205,657000,1205
2014/06/06,1205,1213,1199,1201,601000,1201
2014/06/09,1195,1205,1194,1203,310000,1203
2014/06/10,1207,1213,1200,1203,285000,1203
2014/06/11,1210,1214,1205,1209,332000,1209
2014/06/12,1206,1219,1203,1217,287000,1217
2014/06/13,1220,1247,1217,1244,985000,1244
2014/06/16,1236,1252,1230,1249,737000,1249
2014/06/17,1247,1263,1247,1261,671000,1261
2014/06/18,1256,1261,1237,1243,466000,1243
2014/06/19,1262,1310,1261,1303,1478000,1303
2014/06/20,1295,1301,1283,1285,703000,1285
2014/06/23,1285,1297,1277,1297,415000,1297
2014/06/24,1287,1299,1269,1271,990000,1271
2014/06/25,1264,1283,1262,1270,458000,1270
2014/06/26,1279,1280,1251,1253,479000,1253
2014/06/27,1257,1261,1246,1253,572000,1253
2014/06/30,1253,1265,1242,1265,653000,1265
2014/07/01,1277,1290,1274,1286,469000,1286
2014/07/02,1286,1288,1277,1278,324000,1278
2014/07/03,1283,1292,1281,1286,305000,1286
2014/07/04,1293,1293,1277,1281,219000,1281
2014/07/07,1281,1285,1277,1281,116000,1281
2014/07/08,1284,1288,1270,1277,400000,1277
2014/07/09,1274,1288,1272,1284,299000,1284
2014/07/10,1287,1291,1283,1285,314000,1285
2014/07/11,1270,1282,1268,1279,214000,1279
2014/07/14,1284,1301,1282,1300,459000,1300
2014/07/15,1300,1323,1300,1319,574000,1319
2014/07/16,1326,1358,1326,1340,1162000,1340
2014/07/17,1342,1355,1329,1338,563000,1338
2014/07/18,1323,1326,1312,1323,331000,1323
2014/07/22,1338,1359,1325,1326,404000,1326
2014/07/23,1318,1337,1317,1336,404000,1336
2014/07/24,1336,1344,1333,1336,271000,1336
2014/07/25,1350,1350,1335,1339,260000,1339
2014/07/28,1348,1366,1342,1363,321000,1363
2014/07/29,1351,1375,1351,1372,348000,1372
2014/07/30,1365,1377,1360,1361,307000,1361
2014/07/31,1353,1355,1306,1311,823000,1311
2014/08/01,1308,1327,1307,1324,538000,1324
2014/08/04,1276,1290,1240,1260,1707000,1260
2014/08/05,1255,1265,1247,1254,916000,1254
2014/08/06,1245,1249,1232,1237,663000,1237
2014/08/07,1246,1275,1243,1275,732000,1275
2014/08/08,1275,1294,1267,1270,913000,1270
2014/08/11,1290,1294,1276,1292,526000,1292
2014/08/12,1300,1303,1286,1297,547000,1297
2014/08/13,1292,1310,1289,1303,623000,1303
2014/08/14,1315,1337,1311,1335,688000,1335
2014/08/15,1336,1357,1329,1355,717000,1355
2014/08/18,1358,1367,1355,1356,444000,1356
2014/08/19,1368,1390,1365,1388,977000,1388
2014/08/20,1392,1404,1392,1397,609000,1397
2014/08/21,1394,1397,1382,1394,547000,1394
2014/08/22,1400,1400,1389,1394,272000,1394
2014/08/25,1398,1405,1369,1374,554000,1374
2014/08/26,1377,1380,1368,1373,299000,1373
2014/08/27,1369,1383,1349,1359,829000,1359
2014/08/28,1355,1366,1347,1356,883000,1356
2014/08/29,1350,1373,1348,1369,628000,1369
2014/09/01,1359,1375,1359,1363,455000,1363
2014/09/02,1374,1374,1347,1351,704000,1351
2014/09/03,1365,1365,1346,1354,539000,1354
2014/09/04,1358,1359,1346,1352,589000,1352
2014/09/05,1360,1365,1355,1360,405000,1360
2014/09/08,1371,1373,1351,1357,241000,1357
2014/09/09,1357,1357,1340,1348,360000,1348
2014/09/10,1338,1354,1335,1352,684000,1352
2014/09/11,1360,1362,1339,1353,404000,1353
2014/09/12,1355,1375,1351,1370,683000,1370
2014/09/16,1370,1390,1370,1386,511000,1386
2014/09/17,1387,1399,1383,1393,387000,1393
2014/09/18,1400,1408,1388,1388,524000,1388
2014/09/19,1390,1410,1380,1410,732000,1410
2014/09/22,1408,1409,1389,1391,464000,1391
2014/09/24,1380,1411,1380,1407,542000,1407
2014/09/25,1413,1418,1407,1412,742000,1412
2014/09/26,1408,1414,1401,1408,460000,1408
2014/09/29,1414,1421,1405,1410,813000,1410
2014/09/30,1413,1421,1400,1414,472000,1414
2014/10/01,1414,1447,1414,1440,682000,1440
2014/10/02,1443,1443,1405,1405,521000,1405
2014/10/03,1402,1428,1402,1420,436000,1420
2014/10/06,1434,1434,1421,1426,355000,1426
2014/10/07,1435,1450,1430,1442,549000,1442
2014/10/08,1423,1453,1423,1445,635000,1445
2014/10/09,1445,1446,1428,1434,303000,1434
2014/10/10,1410,1434,1410,1420,472000,1420
2014/10/14,1393,1419,1391,1411,642000,1411
2014/10/15,1411,1439,1410,1436,458000,1436
2014/10/16,1416,1437,1411,1414,440000,1414
2014/10/17,1408,1413,1360,1361,590000,1361
2014/10/20,1400,1401,1385,1393,632000,1393
2014/10/21,1386,1401,1373,1373,516000,1373
2014/10/22,1392,1417,1387,1417,576000,1417
2014/10/23,1412,1431,1401,1410,576000,1410
2014/10/24,1427,1434,1410,1419,534000,1419
2014/10/27,1419,1437,1419,1429,309000,1429
2014/10/28,1419,1445,1419,1438,301000,1438
2014/10/29,1449,1469,1443,1461,341000,1461
2014/10/30,1398,1409,1345,1366,2534000,1366
2014/10/31,1345,1380,1342,1372,1990000,1372
2014/11/04,1420,1424,1350,1354,1640000,1354
2014/11/05,1340,1377,1340,1371,1363000,1371
2014/11/06,1366,1400,1366,1386,1074000,1386
2014/11/07,1400,1406,1390,1395,822000,1395
2014/11/10,1397,1403,1375,1378,689000,1378
2014/11/11,1393,1408,1383,1403,538000,1403
2014/11/12,1410,1423,1408,1409,418000,1409
2014/11/13,1417,1468,1417,1467,1013000,1467
2014/11/14,1486,1495,1460,1491,761000,1491
2014/11/17,1481,1485,1448,1456,555000,1456
2014/11/18,1459,1508,1459,1502,941000,1502
2014/11/19,1497,1513,1478,1491,403000,1491
2014/11/20,1500,1507,1488,1488,372000,1488
2014/11/21,1501,1537,1488,1533,1049000,1533
2014/11/25,1541,1548,1495,1504,1057000,1504
2014/11/26,1504,1513,1497,1501,410000,1501
2014/11/27,1515,1518,1492,1494,317000,1494
2014/11/28,1490,1504,1490,1498,384000,1498
2014/12/01,1498,1536,1498,1536,441000,1536
2014/12/02,1548,1558,1525,1528,521000,1528
2014/12/03,1541,1550,1531,1537,529000,1537
2014/12/04,1550,1550,1527,1535,403000,1535
2014/12/05,1540,1540,1530,1538,250000,1538
2014/12/08,1541,1544,1526,1532,343000,1532
2014/12/09,1525,1543,1521,1537,316000,1537
2014/12/10,1522,1543,1511,1518,505000,1518
2014/12/11,1504,1515,1498,1513,415000,1513
2014/12/12,1500,1510,1495,1498,591000,1498
2014/12/15,1487,1516,1486,1508,413000,1508
2014/12/16,1490,1500,1482,1490,556000,1490
2014/12/17,1474,1484,1455,1455,737000,1455
2014/12/18,1484,1491,1474,1491,906000,1491
2014/12/19,1512,1514,1485,1498,796000,1498
2014/12/22,1500,1507,1486,1492,437000,1492
2014/12/24,1514,1531,1510,1531,584000,1531
2014/12/25,1523,1534,1516,1532,714000,1532
2014/12/26,1514,1514,1485,1490,590000,1490
2014/12/29,1490,1499,1479,1492,417000,1492
2014/12/30,1497,1498,1483,1488,450000,1488
2015/01/05,1479,1483,1455,1476,387000,1476
2015/01/06,1461,1471,1451,1462,773000,1462
2015/01/07,1446,1481,1446,1466,874000,1466
2015/01/08,1478,1487,1460,1481,1357000,1481
2015/01/09,1481,1504,1476,1497,836000,1497
2015/01/13,1480,1506,1474,1506,1173000,1506
2015/01/14,1514,1565,1506,1546,1755000,1546
2015/01/15,1556,1591,1551,1579,1765000,1579
2015/01/16,1550,1568,1523,1536,1195000,1536
2015/01/19,1540,1565,1533,1559,482000,1559
2015/01/20,1558,1583,1554,1582,402000,1582
2015/01/21,1584,1621,1584,1619,773000,1619
2015/01/22,1625,1631,1605,1631,706000,1631
2015/01/23,1640,1640,1592,1600,557000,1600
2015/01/26,1576,1621,1576,1621,495000,1621
2015/01/27,1626,1657,1622,1655,458000,1655
2015/01/28,1640,1718,1639,1715,730000,1715
2015/01/29,1695,1740,1684,1714,699000,1714
2015/01/30,1720,1761,1720,1741,1002000,1741
2015/02/02,1722,1732,1695,1710,1053000,1710
2015/02/03,1711,1712,1656,1664,867000,1664
2015/02/04,1691,1705,1663,1688,760000,1688
2015/02/05,1688,1699,1673,1682,630000,1682
2015/02/06,1730,1730,1662,1668,771000,1668
2015/02/09,1668,1678,1640,1661,1092000,1661
2015/02/10,1679,1702,1631,1666,1289000,1666
2015/02/12,1759,1841,1747,1756,4155000,1756
2015/02/13,1751,1779,1729,1738,1068000,1738
2015/02/16,1731,1746,1702,1711,790000,1711
2015/02/17,1711,1818,1697,1804,1353000,1804
2015/02/18,1826,1899,1807,1888,1962000,1888
2015/02/19,1899,2005,1889,1994,2078000,1994
2015/02/20,1997,2004,1953,1966,1236000,1966
2015/02/23,1978,1999,1972,1990,788000,1990
2015/02/24,1982,1982,1944,1944,1155000,1944
2015/02/25,1938,1962,1931,1947,617000,1947
2015/02/26,1946,1970,1933,1966,1051000,1966
2015/02/27,1952,2021,1944,1990,1314000,1990
2015/03/02,1970,1998,1930,1936,873000,1936
2015/03/03,1936,1971,1933,1968,715000,1968
2015/03/04,1989,1996,1916,1926,1003000,1926
2015/03/05,1912,1949,1908,1944,839000,1944
2015/03/06,1931,1944,1892,1939,1663000,1939
2015/03/09,1943,1970,1916,1955,891000,1955
2015/03/10,1983,2006,1955,1978,899000,1978
2015/03/11,1951,1998,1951,1983,791000,1983
2015/03/12,1998,2099,1981,2091,1765000,2091
2015/03/13,2106,2127,2074,2098,979000,2098
2015/03/16,2091,2116,2073,2082,658000,2082
2015/03/17,2098,2129,2096,2117,808000,2117
2015/03/18,2144,2155,2108,2149,840000,2149
2015/03/19,2161,2178,2114,2121,680000,2121
2015/03/20,2147,2160,2111,2131,535000,2131
2015/03/23,2132,2158,2128,2158,407000,2158
2015/03/24,2165,2165,2119,2150,453000,2150
2015/03/25,2150,2164,2129,2145,475000,2145
2015/03/26,2144,2144,2071,2080,960000,2080
2015/03/27,2088,2115,2064,2093,435000,2093
2015/03/30,2104,2197,2100,2188,1152000,2188
2015/03/31,2209,2229,2167,2167,717000,2167
2015/04/01,2150,2156,2093,2109,918000,2109
2015/04/02,2120,2160,2114,2123,739000,2123
2015/04/03,2134,2216,2119,2212,598000,2212
2015/04/06,2200,2278,2198,2271,529000,2271
2015/04/07,2300,2320,2246,2287,777000,2287
2015/04/08,2295,2307,2257,2273,701000,2273
2015/04/09,2297,2345,2288,2312,743000,2312
2015/04/10,2328,2328,2265,2272,661000,2272
2015/04/13,2300,2300,2211,2218,903000,2218
2015/04/14,2218,2243,2200,2223,901000,2223
2015/04/15,2207,2230,2180,2186,480000,2186
2015/04/16,2279,2313,2182,2210,2291000,2210
2015/04/17,2228,2253,2120,2128,1574000,2128
2015/04/20,2097,2203,2089,2189,1041000,2189
2015/04/21,2204,2267,2198,2260,891000,2260
2015/04/22,2283,2298,2207,2256,919000,2256
2015/04/23,2237,2251,2193,2219,721000,2219
2015/04/24,2185,2227,2175,2210,523000,2210
2015/04/27,2190,2265,2190,2252,712000,2252
2015/04/28,2297,2392,2275,2366,1441000,2366
2015/04/30,2192,2203,2116,2137,2935000,2137
2015/05/01,2137,2153,2085,2153,1574000,2153
2015/05/07,2128,2147,2055,2077,1550000,2077
2015/05/08,2060,2094,2033,2048,1556000,2048
2015/05/11,2078,2090,2029,2034,1487000,2034
2015/05/12,2068,2087,2043,2065,1161000,2065
2015/05/13,2015,2034,1984,2022,1343000,2022
2015/05/14,2004,2010,1945,1949,1405000,1949
2015/05/15,1932,1984,1920,1970,1409000,1970
2015/05/18,1979,2015,1973,2012,917000,2012
2015/05/19,2015,2054,2001,2038,1015000,2038
2015/05/20,2053,2075,2026,2062,1246000,2062
2015/05/21,2072,2078,2053,2059,490000,2059
2015/05/22,2066,2084,2054,2076,848000,2076
2015/05/25,2076,2077,2031,2046,687000,2046
2015/05/26,2020,2165,2015,2153,1734000,2153
2015/05/27,2140,2149,2089,2101,1704000,2101
2015/05/28,2117,2117,2063,2100,985000,2100
2015/05/29,2085,2128,2066,2070,1635000,2070
2015/06/01,2007,2075,2003,2059,1013000,2059
2015/06/02,2061,2085,2054,2076,539000,2076
2015/06/03,2075,2076,2045,2048,475000,2048
2015/06/04,2059,2062,2017,2022,629000,2022
2015/06/05,2010,2056,2007,2053,863000,2053
2015/06/08,2054,2054,1994,1998,988000,1998
2015/06/09,1982,1988,1956,1956,930000,1956
2015/06/10,1956,1974,1942,1967,851000,1967
2015/06/11,1987,2022,1978,2022,623000,2022
2015/06/12,2042,2044,1981,1997,1079000,1997
2015/06/15,1976,1987,1965,1982,362000,1982
2015/06/16,1972,1994,1972,1973,337000,1973
2015/06/17,1984,1999,1982,1995,529000,1995
2015/06/18,1995,2021,1981,1982,737000,1982
2015/06/19,1988,2022,1985,1999,729000,1999
2015/06/22,1995,2023,1989,1998,585000,1998
2015/06/23,2020,2022,2002,2018,717000,2018
2015/06/24,2033,2035,2012,2026,539000,2026
2015/06/25,2029,2080,2018,2035,816000,2035
2015/06/26,2029,2043,2011,2035,602000,2035
2015/06/29,1996,2058,1990,2041,1050000,2041
2015/06/30,2056,2085,2032,2039,669000,2039
2015/07/01,2050,2053,2020,2048,784000,2048
