2011/01/04,18000,18000,18000,18000,4,180
2011/01/05,18000,18000,18000,18000,2,180
2011/01/06,18390,18390,18000,18000,4,180
2011/01/07,18000,18000,17500,17700,9,177
2011/01/11,18700,18700,18700,18700,11,187
2011/01/13,18500,18700,18500,18700,9,187
2011/01/14,22700,22700,20700,22700,265,227
2011/01/17,23200,23200,21000,21200,141,212
2011/01/18,21450,21450,20900,21000,21,210
2011/01/19,20600,20600,20000,20000,48,200
2011/01/20,20000,20000,19200,19200,24,192
2011/01/28,20010,20100,20000,20000,17,200
2011/01/31,20380,20470,20380,20400,3,204
2011/02/01,20400,20480,20400,20400,4,204
2011/02/02,20400,20400,20010,20200,11,202
2011/02/03,20200,20200,20000,20000,7,200
2011/02/09,19940,20200,19940,20200,11,202
2011/02/10,20200,20200,20200,20200,1,202
2011/02/17,21800,21800,21600,21700,5,217
2011/02/22,21500,22000,21500,21500,11,215
2011/02/24,22680,22680,21300,21300,3,213
2011/02/28,21610,21800,20800,21800,8,218
2011/03/01,21890,21900,21890,21900,4,219
2011/03/02,21900,21900,21900,21900,1,219
2011/03/03,21900,21900,21900,21900,1,219
2011/03/04,20900,21750,20900,21300,16,213
2011/03/07,21300,21300,20800,20800,4,208
2011/03/09,19910,19910,19900,19900,2,199
2011/03/15,16010,16010,14000,14000,25,140
2011/03/16,13100,13100,13000,13000,44,130
2011/03/17,13210,15000,13200,15000,14,150
2011/03/22,16890,16900,15700,16900,17,169
2011/03/23,16100,16100,16100,16100,22,161
2011/03/24,16100,16400,16100,16100,8,161
2011/03/25,16100,17600,16100,17600,14,176
2011/03/30,16070,16100,16070,16100,6,161
2011/04/05,16100,16100,16100,16100,4,161
2011/04/06,16100,16100,16100,16100,2,161
2011/04/07,16020,16020,15500,15500,11,155
2011/04/08,16400,16670,16400,16400,12,164
2011/04/12,15400,15400,15300,15300,4,153
2011/04/15,15930,16000,15930,16000,5,160
2011/04/18,16800,16800,16800,16800,12,168
2011/04/19,16800,16800,16800,16800,4,168
2011/04/21,16200,16200,16200,16200,2,162
2011/04/22,17000,17000,17000,17000,4,170
2011/04/25,17000,17000,17000,17000,10,170
2011/04/26,17000,17000,17000,17000,1,170
2011/05/02,15430,16500,15430,16500,4,165
2011/05/06,16500,16500,16500,16500,1,165
2011/05/09,16500,16500,16000,16500,5,165
2011/05/10,20500,20500,19100,20500,399,205
2011/05/13,17980,18010,17400,17800,27,178
2011/05/18,17000,17000,16900,16900,14,169
2011/05/23,17000,17000,16400,16400,12,164
2011/05/24,17200,17600,17200,17600,2,176
2011/05/25,17600,17800,15620,16000,23,160
2011/05/26,17000,17170,17000,17000,21,170
2011/05/27,17000,17000,17000,17000,1,170
2011/05/30,16200,17000,16200,17000,3,170
2011/06/01,17500,17500,17500,17500,5,175
2011/06/03,16620,16620,16200,16500,8,165
2011/06/06,16300,16300,16300,16300,5,163
2011/06/07,16200,16200,16200,16200,1,162
2011/06/10,16200,16300,16200,16300,7,163
2011/06/13,16500,16500,16390,16400,8,164
2011/06/15,16680,17000,16520,17000,5,170
2011/06/16,17000,17000,16300,16300,33,163
2011/06/17,16330,16600,16300,16300,5,163
2011/06/21,16400,16400,16400,16400,1,164
2011/06/22,16400,16400,16300,16300,79,163
2011/06/27,16030,16870,16030,16500,6,165
2011/06/30,16100,16100,16100,16100,1,161
2011/07/05,17540,17940,16600,16600,30,166
2011/07/15,16960,16960,16900,16900,4,169
2011/07/19,17400,17400,16600,16900,13,169
2011/07/20,17000,17000,17000,17000,7,170
2011/07/25,16500,16500,16500,16500,30,165
2011/07/26,17150,17150,16700,16700,7,167
2011/07/27,17100,17100,16320,16700,12,167
2011/07/28,17100,17100,17100,17100,1,171
2011/07/29,16700,16700,16700,16700,6,167
2011/08/04,16520,16520,16500,16500,6,165
2011/08/09,16000,16000,15500,15500,13,155
2011/08/15,17300,17300,17290,17300,6,173
2011/08/19,16800,16800,16800,16800,1,168
2011/08/23,16100,16100,16100,16100,1,161
2011/08/25,17100,17100,17100,17100,1,171
2011/08/26,16200,16200,16200,16200,1,162
2011/08/29,16400,16400,16000,16000,10,160
2011/09/05,17000,17000,16500,16500,6,165
2011/09/06,16200,16200,16200,16200,6,162
2011/09/15,16550,16600,16550,16600,2,166
2011/09/16,17300,17300,16000,16500,21,165
2011/09/21,16400,16500,16400,16400,12,164
2011/09/22,16400,16400,16400,16400,8,164
2011/09/27,15690,16300,15690,16300,21,163
2011/10/07,13300,13500,13200,13200,3,132
2011/10/12,13110,13110,13000,13000,8,130
2011/10/13,12700,12700,12500,12500,32,125
2011/10/14,12500,12630,12500,12600,14,126
2011/10/17,12900,12900,12600,12600,25,126
2011/10/20,12500,12500,12500,12500,13,125
2011/10/21,12200,12750,12200,12400,33,124
2011/10/24,12210,12410,12210,12400,12,124
2011/10/25,12400,12500,12400,12400,6,124
2011/10/27,12600,12700,12160,12500,66,125
2011/11/07,12220,12220,12100,12100,8,121
2011/11/08,12100,12100,11900,11900,12,119
2011/11/15,12290,12300,12010,12300,20,123
2011/11/16,12490,13000,12400,13000,42,130
2011/11/18,14370,14370,13100,13100,81,131
2011/11/21,13000,13000,12800,12900,37,129
2011/11/22,12810,12810,12500,12500,16,125
2011/11/25,12310,14300,12310,14300,75,143
2011/12/02,14490,14900,14300,14900,30,149
2011/12/05,14310,14890,14100,14100,42,141
2011/12/06,15200,15200,14200,14200,49,142
2011/12/13,14210,14210,14000,14100,27,141
2011/12/15,14600,14900,14000,14800,70,148
2011/12/16,15000,15000,14260,14900,38,149
2011/12/19,15000,15400,14320,15000,45,150
2011/12/21,14400,14760,14400,14400,27,144
2011/12/27,14260,14900,14260,14900,16,149
2011/12/29,14010,14010,13800,13800,24,138
2011/12/30,14000,15000,14000,14500,24,145
2012/01/04,14500,14800,14500,14500,8,145
2012/01/10,14310,15000,14310,15000,14,150
2012/01/13,14410,14800,14330,14800,8,148
2012/01/16,14800,14800,14500,14500,24,145
2012/01/18,15180,15180,14310,14400,20,144
2012/01/25,14080,14500,14080,14300,16,143
2012/01/26,14080,14500,14000,14100,18,141
2012/01/27,14100,14400,14100,14100,11,141
2012/01/31,14110,14110,14100,14100,6,141
2012/02/01,14100,14200,14100,14200,4,142
2012/02/02,14390,14400,14300,14400,8,144
2012/02/07,14300,14310,14300,14300,6,143
2012/02/08,14300,14310,14300,14300,5,143
2012/02/09,14300,14700,14200,14700,16,147
2012/02/10,14270,14500,14270,14300,5,143
2012/02/16,14520,14520,14500,14500,19,145
2012/02/20,14590,14990,14590,14800,31,148
2012/02/22,15550,17500,15540,16500,23,165
2012/02/28,16020,16020,15580,15600,8,156
2012/03/05,15900,15900,15900,15900,2,159
2012/03/07,15800,16000,15800,16000,6,160
2012/03/09,16000,17500,15900,17500,31,175
2012/03/19,16500,16510,16500,16500,4,165
2012/03/23,16510,16510,16500,16500,6,165
2012/03/27,16490,16750,16320,16400,14,164
2012/03/30,16900,16900,16800,16800,2,168
2012/04/02,16900,17120,16800,16800,9,168
2012/04/03,16800,16800,16800,16800,5,168
2012/04/10,18310,18310,16850,17000,128,170
2012/04/11,17000,17000,16500,16500,26,165
2012/04/12,16600,16700,16540,16600,9,166
2012/04/19,16500,16500,16500,16500,18,165
2012/04/23,16900,16900,16100,16100,49,161
2012/05/01,16140,16500,16010,16500,17,165
2012/05/02,16500,16600,16500,16500,11,165
2012/05/07,16500,16500,16500,16500,4,165
2012/05/08,16500,16500,16000,16000,19,160
2012/05/10,17500,18040,16200,16200,86,162
2012/05/14,15550,15550,15400,15400,28,154
2012/05/15,15300,15300,14600,14700,45,147
2012/05/21,16990,21990,16190,21100,3927,211
2012/05/22,23600,26100,22400,26100,4106,261
2012/05/23,29600,31100,27550,31100,11546,311
2012/05/25,28980,31500,26110,26500,3179,265
2012/05/31,24280,30300,24190,29500,3071,295
2012/06/01,31400,34500,30000,34500,3599,345
2012/06/04,36100,41500,35200,41500,3163,415
2012/06/05,46400,48500,34500,35000,11071,350
2012/06/06,36400,38250,32000,32900,3773,329
2012/06/07,34300,39900,32200,39900,4846,399
2012/06/14,34800,34900,31500,31500,589,315
2012/06/15,32000,32350,28000,28100,822,281
2012/06/20,27110,29000,27110,27200,263,272
2012/06/21,27310,28400,27070,27800,284,278
2012/07/02,26680,27800,26500,27700,574,277
2012/07/03,26200,26700,26000,26400,323,264
2012/07/12,25800,26000,24200,26000,541,260
2012/07/13,25980,26000,25200,25500,50,255
2012/07/17,25110,25600,24800,25400,59,254
2012/07/19,25000,26200,25000,26000,73,260
2012/07/20,25150,27450,25150,26800,494,268
2012/07/23,27300,30350,25730,25800,1599,258
2012/07/24,25110,26000,24500,25300,322,253
2012/07/25,24510,25000,23700,25000,185,250
2012/07/30,24410,24990,24410,24600,42,246
2012/08/02,24390,24910,24100,24300,123,243
2012/08/03,24290,24600,23200,24000,292,240
2012/08/06,24300,25000,24000,24300,122,243
2012/08/08,24500,25980,24070,25700,373,257
2012/08/09,24200,24750,23800,24400,595,244
2012/08/10,23500,24350,23000,23300,245,233
2012/08/13,22800,23870,22500,23700,104,237
2012/08/14,23700,23990,23060,23300,77,233
2012/08/15,23750,23750,23000,23000,42,230
2012/08/16,23900,23900,22800,23400,200,234
2012/08/21,23000,23000,22500,22500,116,225
2012/08/24,23500,23600,23050,23200,58,232
2012/08/27,23600,23600,22550,23500,34,235
2012/08/29,22670,23000,22600,22800,51,228
2012/09/06,25610,25610,24960,25500,135,255
2012/09/11,24930,25000,24550,25000,38,250
2012/09/14,24130,25000,24130,25000,42,250
2012/09/18,25000,25600,25000,25600,54,256
2012/09/26,23010,24000,23010,24000,110,240
2012/09/27,24000,24000,23010,23900,43,239
2012/09/28,23110,23750,22600,23000,32,230
2012/10/03,22500,23000,22500,23000,60,230
2012/10/04,23000,23330,22880,23000,18,230
2012/10/05,22940,23500,22600,23500,43,235
2012/10/10,22600,23330,22000,22900,60,229
2012/10/11,22030,23400,22000,23400,47,234
2012/10/15,22550,23330,22550,23000,28,230
2012/10/16,23000,23000,22230,22700,21,227
2012/10/17,22600,23000,22000,22500,30,225
2012/10/19,22910,22910,22100,22500,33,225
2012/10/22,22200,22500,22000,22500,76,225
2012/10/23,22800,22800,22500,22800,13,228
2012/10/24,22300,24000,22210,23200,109,232
2012/10/29,22600,22610,22600,22600,12,226
2012/10/31,22230,22500,22200,22200,23,222
2012/11/01,22260,22400,22250,22400,10,224
2012/11/05,23050,23050,22750,23000,26,230
2012/11/06,22600,23000,22400,23000,77,230
2012/11/09,23300,23300,23000,23000,11,230
2012/11/12,23000,23000,22500,23000,33,230
2012/11/13,22720,23200,22510,23200,60,232
2012/11/14,22720,23500,22720,23500,265,235
2012/11/15,23610,26890,23610,24600,340,246
2012/11/16,25490,25850,24500,25000,88,250
2012/11/19,25500,26750,24300,26000,128,260
2012/11/20,25500,26000,24500,24900,439,249
2012/11/21,25400,25400,24270,24500,53,245
2012/11/22,25500,25500,23800,24700,63,247
2012/11/27,25200,25200,24250,24400,22,244
2012/11/29,24100,24100,24100,24100,2,241
2012/11/30,24380,24380,23850,24000,59,240
2012/12/03,23700,23970,23100,23500,22,235
2012/12/04,24100,24100,23000,23800,49,238
2012/12/05,23400,23400,23200,23300,36,233
2012/12/06,23100,23200,23100,23200,6,232
2012/12/07,22770,23000,22750,23000,39,230
2012/12/10,22960,23300,22960,23300,17,233
2012/12/17,23570,24000,23260,23700,56,237
2012/12/18,23800,23800,22900,23000,73,230
2012/12/19,23010,23010,22000,23000,210,230
2012/12/20,23000,23400,22650,23200,99,232
2012/12/21,23200,23200,22600,22600,29,226
2012/12/26,23000,23200,22410,23200,29,232
2013/01/07,23070,23710,23070,23700,62,237
2013/01/10,24000,24300,24000,24300,38,243
2013/01/11,24200,24950,23900,24000,118,240
2013/01/15,24500,24500,23810,24100,35,241
2013/01/18,24380,24380,23100,23700,44,237
2013/01/28,23010,23300,22960,23100,128,231
2013/01/29,23300,23500,23200,23200,45,232
2013/01/31,24880,25000,23600,23600,135,236
2013/02/04,24600,24600,24110,24200,41,242
2013/02/06,24220,25600,24000,25600,153,256
2013/02/08,25400,25400,24400,24400,151,244
2013/02/14,24100,24100,22210,23200,188,232
2013/02/15,22810,23000,21900,23000,149,230
2013/02/18,23000,23290,22990,23000,77,230
2013/02/19,23500,23700,23000,23000,18,230
2013/02/20,23200,23700,23200,23200,61,232
2013/02/21,23200,23900,23000,23800,72,238
2013/02/22,24300,25000,24000,25000,137,250
2013/02/26,23850,25000,23800,24300,94,243
2013/02/27,24400,24500,24000,24500,80,245
2013/03/05,24910,25050,24300,25000,50,250
2013/03/07,25500,25500,25000,25000,61,250
2013/03/08,26000,26000,24800,25000,73,250
2013/03/11,25050,25060,24750,24900,70,249
2013/03/14,25300,25300,25200,25200,11,252
2013/03/21,24300,24900,24300,24500,47,245
2013/03/22,24650,26900,24600,26500,279,265
2013/03/25,27100,27600,25100,25300,461,253
2013/03/26,25300,25500,25300,25300,19,253
2013/03/29,25000,25800,24510,25800,42,258
2013/04/03,24110,24700,24050,24300,82,243
2013/04/04,24500,24690,24500,24500,78,245
2013/04/05,24900,24900,24220,24500,72,245
2013/04/08,24800,26000,24800,26000,88,260
2013/04/09,25980,25980,25100,25100,83,251
2013/04/11,25000,25790,24500,25000,54,250
2013/04/15,24990,26000,24990,25000,69,250
2013/04/16,24500,25000,24500,25000,26,250
2013/04/19,25500,25700,25000,25000,115,250
2013/04/22,25700,25790,25300,25300,48,253
2013/04/24,25310,25440,25210,25300,69,253
2013/04/26,25850,26400,25510,26000,183,260
2013/05/01,27560,27560,26560,27000,59,270
2013/05/02,26100,26100,26000,26000,54,260
2013/05/08,27300,32200,27000,32200,863,322
2013/05/09,39200,39200,39200,39200,228,392
2013/05/10,38700,38700,32200,32900,1215,329
2013/05/16,26700,29500,26700,29400,518,294
2013/05/17,28110,30800,27600,30800,79,308
2013/05/20,31100,31150,30050,30300,107,303
2013/05/21,30300,32450,30050,30700,279,307
2013/05/22,30300,33300,30300,33300,199,333
2013/05/24,31950,31950,29100,29100,70,291
2013/05/27,27500,28500,27300,27500,82,275
2013/05/28,27000,29500,27000,29000,70,290
2013/05/29,28000,28300,27670,28300,33,283
2013/05/31,27650,28500,27520,28500,27,285
2013/06/04,27200,27300,26500,27000,69,270
2013/06/07,24000,24000,23100,23100,119,231
2013/06/10,23010,25100,23010,25000,27,250
2013/06/11,25500,25700,25300,25300,44,253
2013/06/12,25290,25400,25000,25400,34,254
2013/06/13,25000,25000,25000,25000,3,250
2013/06/14,25100,25400,25100,25400,17,254
2013/06/18,25990,25990,25900,25900,6,259
2013/06/19,25900,25900,24360,25200,29,252
2013/06/20,25200,25200,25200,25200,1,252
2013/06/21,24700,25370,24100,24100,32,241
2013/06/28,24290,25600,24150,25600,19,256
2013/07/01,25700,26000,25600,26000,20,260
2013/07/02,27500,27500,27000,27100,22,271
2013/07/03,26600,27100,26500,26500,25,265
2013/07/04,26060,26200,26060,26200,10,262
2013/07/08,27300,28980,27300,27300,28,273
2013/07/09,27300,27300,26900,27000,17,270
2013/07/11,26890,27400,26890,27400,12,274
2013/07/16,27270,27420,27000,27000,10,270
2013/07/17,26760,27000,26760,26800,9,268
2013/07/18,26500,27000,26500,27000,20,270
2013/07/26,27020,27110,27020,27100,11,271
2013/07/29,27050,27060,27000,27000,20,270
2013/08/01,27500,29000,27010,28900,94,289
2013/08/05,28500,30200,28500,29500,34,295
2013/08/07,29650,30800,29650,30800,32,308
2013/08/09,31050,31050,28220,29000,39,290
2013/08/13,31600,31600,27000,29800,188,298
2013/08/15,27250,28230,27160,28000,48,280
2013/08/19,27720,27740,27240,27300,17,273
2013/08/21,27010,27060,27000,27000,22,270
2013/08/23,27000,27000,27000,27000,10,270
2013/08/26,27000,27200,27000,27200,11,272
2013/08/28,27100,27100,27000,27100,9,271
2013/08/29,27200,27200,27000,27000,32,270
2013/08/30,27200,27200,24800,24900,161,249
2013/09/09,27100,29000,27100,29000,99,290
2013/09/10,29500,29500,27500,28000,124,280
2013/09/11,27710,30500,27710,30500,91,305
2013/09/13,33700,34500,31500,34000,279,340
2013/09/17,34500,36000,31100,35000,373,350
2013/09/19,33950,33950,29300,33100,199,331
2013/09/20,31700,33000,31000,31500,121,315
2013/09/24,32400,33700,32100,33300,152,333
2013/09/25,33400,33700,32000,33700,57,337
2013/09/26,316,334,315,334,3100,334
2013/09/27,339,339,312,322,3900,322
2013/09/30,314,315,296,306,12200,306
2013/10/01,302,309,300,305,4100,305
2013/10/02,298,309,292,303,6800,303
2013/10/03,301,309,300,307,4700,307
2013/10/04,295,302,289,302,5900,302
2013/10/07,294,311,294,311,1900,311
2013/10/08,300,308,291,298,3500,298
2013/10/09,297,300,294,300,3200,300
2013/10/10,300,300,291,291,1500,291
2013/10/11,299,299,292,292,1700,292
2013/10/15,299,303,295,300,3000,300
2013/10/16,300,300,293,295,4200,295
2013/10/17,295,299,293,299,2200,299
2013/10/18,295,300,295,295,4000,295
2013/10/21,300,305,295,301,3000,301
2013/10/22,302,305,298,300,1000,300
2013/10/23,300,300,297,300,500,300
2013/10/24,305,305,300,300,1300,300
2013/10/25,298,300,295,297,1200,297
2013/10/28,292,295,292,294,2300,294
2013/10/29,292,293,291,292,3200,292
2013/10/30,294,294,291,294,2300,294
2013/10/31,286,289,285,286,3600,286
2013/11/01,287,288,276,279,5200,279
2013/11/05,279,282,277,282,1400,282
2013/11/06,280,280,277,279,1800,279
2013/11/07,279,279,279,279,500,279
2013/11/08,283,283,279,279,500,279
2013/11/11,279,290,279,290,2200,290
2013/11/12,288,288,287,288,2400,288
2013/11/13,289,299,288,295,5400,295
2013/11/14,299,310,298,300,8000,300
2013/11/15,315,348,304,334,50500,334
2013/11/18,341,414,340,364,698100,364
2013/11/19,444,444,441,444,193700,444
2013/11/20,450,459,401,411,544200,411
2013/11/21,419,419,393,402,164400,402
2013/11/22,409,409,383,390,93000,390
2013/11/25,398,400,379,380,53300,380
2013/11/26,388,388,372,383,15900,383
2013/11/27,371,385,371,382,22000,382
2013/11/28,382,382,366,367,20900,367
2013/11/29,364,369,359,364,14300,364
2013/12/02,358,364,358,362,15900,362
2013/12/03,364,424,361,391,126400,391
2013/12/04,406,416,398,406,135500,406
2013/12/05,406,407,374,380,51700,380
2013/12/06,382,383,366,375,15500,375
2013/12/09,375,399,374,399,9200,399
2013/12/10,393,393,374,391,10400,391
2013/12/11,390,390,381,381,2800,381
2013/12/12,375,385,372,377,3400,377
2013/12/13,380,406,374,406,70500,406
2013/12/16,390,399,379,379,19100,379
2013/12/17,371,375,367,367,4700,367
2013/12/18,362,368,359,359,20800,359
2013/12/19,367,376,360,363,4200,363
2013/12/20,364,365,352,352,13400,352
2013/12/24,350,350,330,331,35100,331
2013/12/25,332,350,332,347,22100,347
2013/12/26,363,363,355,360,3600,360
2013/12/27,362,362,350,358,9800,358
2013/12/30,370,370,360,366,4300,366
2014/01/06,365,376,363,375,5400,375
2014/01/07,372,372,344,354,4100,354
2014/01/08,362,363,354,357,2300,357
2014/01/09,358,371,358,370,3900,370
2014/01/10,362,385,362,385,11900,385
2014/01/14,376,383,371,375,7600,375
2014/01/15,379,387,379,386,6100,386
2014/01/16,392,392,379,380,7400,380
2014/01/17,394,394,381,391,19300,391
2014/01/20,391,392,382,382,6000,382
2014/01/21,382,382,381,381,4200,381
2014/01/22,382,382,374,376,6200,376
2014/01/23,374,375,374,374,1900,374
2014/01/24,374,374,372,372,4100,372
2014/01/27,369,369,367,367,10500,367
2014/01/28,367,372,364,365,7800,365
2014/01/29,365,375,363,363,2600,363
2014/01/30,362,362,334,340,11900,340
2014/01/31,346,350,340,340,7900,340
2014/02/03,338,339,332,332,4600,332
2014/02/04,302,310,300,302,23900,302
2014/02/05,326,326,308,308,4100,308
2014/02/06,315,315,308,308,900,308
2014/02/07,312,313,306,306,3700,306
2014/02/10,317,317,311,312,1900,312
2014/02/12,320,331,320,331,1900,331
2014/02/13,340,340,334,335,1700,335
2014/02/14,332,333,321,322,3800,322
2014/02/17,314,315,311,313,3200,313
2014/02/18,321,321,317,317,700,317
2014/02/19,311,314,310,312,3400,312
2014/02/20,312,312,311,311,500,311
2014/02/21,311,312,302,312,3300,312
2014/02/24,312,314,310,310,900,310
2014/02/25,313,315,313,314,900,314
2014/02/26,314,315,313,314,600,314
2014/02/27,310,317,304,314,2300,314
2014/02/28,320,320,314,314,4100,314
2014/03/03,310,310,307,307,1300,307
2014/03/04,307,308,307,307,300,307
2014/03/05,309,315,309,315,1400,315
2014/03/06,315,317,315,315,1000,315
2014/03/07,311,350,311,322,8000,322
2014/03/10,325,325,322,322,700,322
2014/03/11,320,320,316,316,300,316
2014/03/12,319,327,319,319,500,319
2014/03/13,317,317,316,316,600,316
2014/03/14,312,315,306,306,2000,306
2014/03/17,305,305,301,301,2200,301
2014/03/18,309,309,304,304,700,304
2014/03/19,302,303,300,300,1500,300
2014/03/20,302,310,297,297,6400,297
2014/03/24,299,310,299,305,2500,305
2014/03/25,305,305,305,305,100,305
2014/03/26,303,303,301,302,1800,302
2014/03/27,299,300,299,300,1500,300
2014/03/28,293,298,293,298,4200,298
2014/03/31,298,301,298,301,2400,301
2014/04/01,299,300,298,299,1900,299
2014/04/02,302,303,302,303,600,303
2014/04/03,302,302,302,302,500,302
2014/04/04,302,304,300,304,1200,304
2014/04/07,299,302,299,301,1200,301
2014/04/08,301,304,300,303,2000,303
2014/04/09,302,304,302,302,1600,302
2014/04/10,303,303,301,301,1600,301
2014/04/11,305,305,301,301,2400,301
2014/04/14,301,301,299,299,900,299
2014/04/15,301,302,301,301,400,301
2014/04/16,303,304,301,304,2200,304
2014/04/17,306,307,305,306,500,306
2014/04/18,308,322,308,315,1900,315
2014/04/21,317,320,310,310,2500,310
2014/04/22,309,309,307,307,1300,307
2014/04/23,306,306,305,305,1100,305
2014/04/24,306,306,305,305,600,305
2014/04/25,299,305,299,305,3000,305
2014/04/28,302,303,302,302,500,302
2014/04/30,303,303,295,298,5000,298
2014/05/01,293,298,293,298,3200,298
2014/05/02,297,299,297,298,1500,298
2014/05/07,298,298,295,295,800,295
2014/05/08,298,300,298,298,1500,298
2014/05/09,293,295,293,294,5300,294
2014/05/12,302,303,296,300,5600,300
2014/05/13,298,306,298,300,4500,300
2014/05/14,301,304,300,301,2400,301
2014/05/15,301,305,298,302,6700,302
2014/05/16,302,305,302,305,1900,305
2014/05/19,310,310,297,297,2800,297
2014/05/20,305,305,296,296,1500,296
2014/05/21,296,296,296,296,300,296
2014/05/22,298,299,298,298,2300,298
2014/05/23,297,300,297,300,1100,300
2014/05/26,306,306,306,306,600,306
2014/05/27,305,309,305,306,1400,306
2014/05/28,306,308,304,304,1100,304
2014/05/29,308,309,306,309,2400,309
2014/05/30,310,320,310,313,5300,313
2014/06/02,313,322,313,317,1800,317
2014/06/03,323,325,313,317,5400,317
2014/06/04,317,318,314,318,700,318
2014/06/05,313,320,313,317,3600,317
2014/06/06,319,325,319,324,1300,324
2014/06/09,321,330,321,328,8200,328
2014/06/10,336,336,326,326,2900,326
2014/06/11,325,331,319,323,21800,323
2014/06/12,325,327,324,327,800,327
2014/06/13,322,333,322,332,5100,332
2014/06/16,336,336,330,333,900,333
2014/06/17,330,330,322,322,4000,322
2014/06/18,326,327,320,325,12100,325
2014/06/19,321,330,321,323,2400,323
2014/06/20,323,323,319,319,4600,319
2014/06/23,321,322,319,320,3400,320
2014/06/24,324,325,320,320,4700,320
2014/06/25,324,326,315,320,17200,320
2014/06/26,323,323,318,322,1500,322
2014/06/27,322,323,319,322,1700,322
2014/06/30,320,321,310,317,15700,317
2014/07/01,319,320,316,316,5800,316
2014/07/02,316,318,314,318,3400,318
2014/07/03,326,360,322,355,129900,355
2014/07/04,357,368,347,363,50500,363
2014/07/07,363,363,343,358,7800,358
2014/07/08,354,362,354,361,4500,361
2014/07/09,351,360,350,357,2200,357
2014/07/10,359,359,344,344,4600,344
2014/07/11,344,378,342,364,67500,364
2014/07/14,356,363,353,355,10900,355
2014/07/15,362,363,355,356,4400,356
2014/07/16,352,354,351,352,5000,352
2014/07/17,352,360,351,359,5300,359
2014/07/18,354,358,351,351,1800,351
2014/07/22,351,360,351,360,1000,360
2014/07/23,360,360,354,355,3600,355
2014/07/24,359,359,350,356,2900,356
2014/07/25,358,362,350,360,12400,360
2014/07/28,364,375,364,374,10300,374
2014/07/29,374,374,360,372,8100,372
2014/07/30,372,372,367,372,2900,372
2014/07/31,378,378,365,365,2800,365
2014/08/01,352,371,352,366,5700,366
2014/08/04,378,393,373,388,33700,388
2014/08/05,398,403,392,392,25200,392
2014/08/06,390,400,383,393,27500,393
2014/08/07,390,394,377,387,11500,387
2014/08/08,387,399,365,390,40700,390
2014/08/11,395,400,382,400,20100,400
2014/08/12,413,413,403,406,33600,406
2014/08/13,350,350,326,331,129200,331
2014/08/14,331,341,330,333,50000,333
2014/08/15,337,356,337,340,37800,340
2014/08/18,336,339,335,336,19200,336
2014/08/19,340,349,336,341,5200,341
2014/08/20,341,345,337,338,10300,338
2014/08/21,337,337,324,328,37700,328
2014/08/22,330,330,321,324,21300,324
2014/08/25,326,326,323,323,4600,323
2014/08/26,326,328,325,327,10400,327
2014/08/27,330,334,327,331,8800,331
2014/08/28,331,333,330,331,4300,331
2014/08/29,334,335,330,331,5500,331
2014/09/01,331,337,331,336,3300,336
2014/09/02,335,335,332,335,5600,335
2014/09/03,335,338,334,338,3800,338
2014/09/04,338,338,331,338,5600,338
2014/09/05,335,340,333,333,6200,333
2014/09/08,338,340,333,334,6600,334
2014/09/09,339,360,336,358,22000,358
2014/09/10,342,353,334,344,38700,344
2014/09/11,341,360,341,359,16500,359
2014/09/12,351,356,348,348,11200,348
2014/09/16,344,347,338,340,10100,340
2014/09/17,340,341,335,335,8200,335
2014/09/18,336,338,334,334,12800,334
2014/09/19,336,336,335,336,2600,336
2014/09/22,336,338,336,337,2300,337
2014/09/24,337,340,336,336,4900,336
2014/09/25,338,344,338,344,5000,344
2014/09/26,334,341,334,337,6000,337
2014/09/29,340,340,338,340,13200,340
2014/09/30,340,340,336,336,2900,336
2014/10/01,336,336,332,333,7200,333
2014/10/02,329,329,325,325,6400,325
2014/10/03,325,325,325,325,200,325
2014/10/06,325,335,325,334,1300,334
2014/10/07,333,338,330,338,2600,338
2014/10/08,329,338,327,330,1200,330
2014/10/09,328,330,326,327,2500,327
2014/10/10,328,328,322,322,4200,322
2014/10/14,321,321,305,307,5900,307
2014/10/15,310,311,308,310,1800,310
2014/10/16,309,309,303,303,1900,303
2014/10/17,304,308,302,308,7700,308
2014/10/20,311,312,308,309,1500,309
2014/10/21,305,307,302,302,7900,302
2014/10/22,302,310,302,310,1500,310
2014/10/23,311,313,311,311,600,311
2014/10/24,314,314,309,309,1900,309
2014/10/27,310,310,310,310,100,310
2014/10/28,313,314,313,313,700,313
2014/10/29,306,308,306,308,2200,308
2014/10/30,308,308,308,308,400,308
2014/10/31,304,309,304,304,7700,304
2014/11/04,306,313,304,311,3000,311
2014/11/05,311,315,306,315,3600,315
2014/11/06,323,326,318,318,5700,318
2014/11/07,324,333,323,331,7300,331
2014/11/10,333,333,325,330,9300,330
2014/11/11,332,332,318,327,5800,327
2014/11/12,329,329,320,326,4600,326
2014/11/13,326,330,322,330,4600,330
2014/11/14,330,330,327,329,1500,329
2014/11/17,331,348,331,347,15000,347
2014/11/18,345,347,322,347,11600,347
2014/11/19,361,427,361,427,780900,427
2014/11/20,400,410,385,402,382300,402
2014/11/21,394,406,368,376,123700,376
2014/11/25,390,390,360,364,36900,364
2014/11/26,366,372,363,371,15400,371
2014/11/27,363,365,352,357,31100,357
2014/11/28,354,359,352,354,9800,354
2014/12/01,361,369,353,354,8900,354
2014/12/02,362,362,350,357,9700,357
2014/12/03,358,359,351,354,8800,354
2014/12/04,350,350,343,344,10700,344
2014/12/05,343,353,343,353,7200,353
2014/12/08,359,359,347,352,4800,352
2014/12/09,355,355,347,347,4900,347
2014/12/10,345,347,343,343,2600,343
2014/12/11,339,339,330,338,11000,338
2014/12/12,338,343,338,340,3900,340
2014/12/15,342,345,340,343,7200,343
2014/12/16,343,349,339,349,6600,349
2014/12/17,341,353,339,351,12800,351
2014/12/18,344,348,343,345,13600,345
2014/12/19,347,350,343,345,13800,345
2014/12/22,346,359,345,358,11600,358
2014/12/24,360,360,352,353,4500,353
2014/12/25,353,353,345,350,13600,350
2014/12/26,350,354,350,354,14500,354
2014/12/29,354,362,350,362,10800,362
2014/12/30,358,359,356,359,3900,359
2015/01/05,360,365,353,360,4500,360
2015/01/06,358,360,354,355,3200,355
2015/01/07,354,358,349,355,4000,355
2015/01/08,358,358,353,356,6500,356
2015/01/09,357,358,344,351,10300,351
2015/01/13,346,353,346,351,3900,351
2015/01/14,344,350,344,349,5700,349
2015/01/15,350,351,349,350,3300,350
2015/01/16,354,354,348,352,7000,352
2015/01/19,360,360,351,351,5100,351
2015/01/20,358,362,353,362,8200,362
2015/01/21,367,388,367,388,25800,388
2015/01/22,381,381,369,372,10900,372
2015/01/23,375,378,372,375,5200,375
2015/01/26,370,370,360,363,9400,363
2015/01/27,363,363,359,363,2400,363
2015/01/28,370,418,370,409,124400,409
2015/01/29,400,405,383,405,45700,405
2015/01/30,405,406,380,390,12200,390
2015/02/02,376,384,375,375,18700,375
2015/02/03,375,381,371,374,4900,374
2015/02/04,382,382,379,379,1500,379
2015/02/05,378,382,377,377,2800,377
2015/02/06,382,384,380,383,900,383
2015/02/09,390,395,384,384,3300,384
2015/02/10,384,392,381,382,8400,382
2015/02/12,396,398,387,396,10300,396
2015/02/13,392,394,386,389,7900,389
2015/02/16,389,390,380,383,12500,383
2015/02/17,376,383,376,380,5600,380
2015/02/18,384,384,379,382,4100,382
2015/02/19,384,406,384,399,18900,399
2015/02/20,400,401,390,390,13500,390
2015/02/23,396,398,391,393,5300,393
2015/02/24,392,408,392,394,20300,394
2015/02/25,397,400,393,400,6000,400
2015/02/26,401,470,401,440,330600,440
2015/02/27,448,520,448,510,864700,510
2015/03/02,482,489,451,456,263400,456
2015/03/03,470,536,464,526,1375400,526
2015/03/04,510,624,501,554,3928100,554
2015/03/05,545,592,521,540,798900,540
2015/03/06,530,531,458,460,437900,460
2015/03/09,475,519,452,470,394600,470
2015/03/10,476,495,470,495,118400,495
2015/03/11,479,486,463,483,72100,483
2015/03/12,485,505,481,490,69500,490
2015/03/13,483,495,466,472,45400,472
2015/03/16,472,490,463,486,58400,486
2015/03/17,491,493,476,481,23300,481
2015/03/18,481,485,473,475,26400,475
2015/03/19,475,484,460,471,54500,471
2015/03/20,473,473,453,458,31500,458
2015/03/23,460,517,460,490,122300,490
2015/03/24,491,500,471,480,67200,480
2015/03/25,478,496,468,496,42200,496
2015/03/26,485,505,475,500,34700,500
2015/03/27,501,540,501,519,230300,519
2015/03/30,527,533,505,510,71700,510
2015/03/31,510,528,510,523,40600,523
2015/04/01,524,524,506,521,32200,521
2015/04/02,529,529,496,508,44700,508
2015/04/03,509,515,478,480,50400,480
2015/04/06,475,491,474,490,14400,490
2015/04/07,487,490,479,481,8800,481
2015/04/08,482,495,482,483,18000,483
2015/04/09,483,496,482,484,13300,484
2015/04/10,491,527,491,520,107100,520
2015/04/13,534,534,500,507,108100,507
2015/04/14,501,506,485,489,52100,489
2015/04/15,497,505,481,485,41800,485
2015/04/16,489,490,473,481,28600,481
2015/04/17,476,522,466,522,173000,522
2015/04/20,509,514,490,501,59100,501
2015/04/21,500,510,484,498,36300,498
2015/04/22,498,505,491,505,14800,505
2015/04/23,505,505,498,498,8300,498
2015/04/24,493,497,489,491,14700,491
2015/04/27,485,500,485,494,13200,494
2015/04/28,494,515,491,509,66200,509
2015/04/30,497,507,481,488,50500,488
2015/05/01,482,486,481,482,10100,482
2015/05/07,482,483,475,483,5800,483
2015/05/08,483,488,480,485,8800,485
2015/05/11,490,500,481,496,13700,496
2015/05/12,509,556,505,530,203900,530
2015/05/13,520,525,506,511,55300,511
2015/05/14,504,519,504,510,15600,510
2015/05/15,507,517,507,510,22100,510
2015/05/18,517,529,513,527,28800,527
2015/05/19,532,536,522,535,24400,535
2015/05/20,537,544,529,536,39500,536
2015/05/21,537,542,516,516,41400,516
2015/05/22,515,530,515,528,28900,528
2015/05/25,530,538,526,535,11500,535
2015/05/26,531,531,521,527,15100,527
2015/05/27,521,535,510,535,22200,535
2015/05/28,538,567,528,566,52700,566
2015/05/29,576,616,570,609,157200,609
2015/06/01,611,615,588,590,58500,590
2015/06/02,592,593,550,559,81900,559
2015/06/03,565,585,560,582,47100,582
2015/06/04,591,622,578,595,86400,595
2015/06/05,595,691,592,638,374300,638
2015/06/08,661,664,615,640,171500,640
2015/06/09,626,663,625,649,90100,649
2015/06/10,640,709,636,673,213600,673
2015/06/11,683,734,666,716,174100,716
2015/06/12,711,722,686,701,79100,701
2015/06/15,689,715,676,676,78400,676
2015/06/16,663,669,612,645,146500,645
2015/06/17,635,660,623,633,46100,633
2015/06/18,633,633,609,609,36700,609
2015/06/19,608,650,608,645,64700,645
2015/06/22,650,650,633,638,20400,638
2015/06/23,644,661,640,652,46800,652
2015/06/24,652,663,626,645,43000,645
2015/06/25,634,660,633,660,29000,660
2015/06/26,650,655,632,637,32000,637
2015/06/29,617,620,580,603,37600,603
2015/06/30,593,601,570,584,49900,584
2015/07/01,580,628,576,620,38100,620
