2011/01/04,173,173,173,173,8000,173
2011/01/06,170,170,170,170,1000,170
2011/01/07,170,170,170,170,3000,170
2011/01/18,171,171,171,171,1000,171
2011/01/19,171,171,171,171,1000,171
2011/01/20,172,172,172,172,1000,172
2011/01/21,172,172,172,172,2000,172
2011/01/24,173,173,173,173,2000,173
2011/01/25,171,171,171,171,16000,171
2011/01/26,175,175,175,175,1000,175
2011/01/28,173,173,173,173,1000,173
2011/01/31,174,177,174,175,6000,175
2011/02/01,175,175,172,172,20000,172
2011/02/04,172,172,172,172,7000,172
2011/02/07,173,176,173,176,7000,176
2011/02/08,176,176,176,176,1000,176
2011/02/09,176,176,176,176,3000,176
2011/02/10,186,186,178,178,11000,178
2011/02/14,186,186,181,181,3000,181
2011/02/15,182,188,182,188,8000,188
2011/02/16,192,195,186,186,26000,186
2011/02/17,186,188,186,186,5000,186
2011/02/21,186,186,185,185,3000,185
2011/02/22,186,187,186,187,2000,187
2011/02/23,188,192,188,189,7000,189
2011/02/24,189,189,188,188,10000,188
2011/02/25,189,189,189,189,8000,189
2011/02/28,189,197,189,195,6000,195
2011/03/01,197,197,191,192,8000,192
2011/03/03,192,192,192,192,1000,192
2011/03/09,191,191,188,188,6000,188
2011/03/14,148,148,148,148,8000,148
2011/03/15,158,158,140,140,19000,140
2011/03/16,140,156,140,156,3000,156
2011/03/17,148,148,148,148,2000,148
2011/03/18,158,159,158,159,3000,159
2011/03/22,160,172,160,172,6000,172
2011/03/23,167,167,167,167,2000,167
2011/03/24,163,164,163,164,3000,164
2011/03/25,166,166,166,166,10000,166
2011/03/28,163,169,159,169,4000,169
2011/03/29,159,159,159,159,2000,159
2011/03/30,159,159,159,159,1000,159
2011/03/31,162,163,162,163,2000,163
2011/04/01,158,158,153,156,7000,156
2011/04/04,151,155,151,155,4000,155
2011/04/12,151,151,151,151,6000,151
2011/04/18,154,154,154,154,2000,154
2011/04/20,158,159,158,159,6000,159
2011/04/25,156,156,156,156,10000,156
2011/04/26,160,160,160,160,1000,160
2011/04/27,160,160,160,160,1000,160
2011/04/28,162,162,162,162,1000,162
2011/05/02,164,164,164,164,4000,164
2011/05/10,162,162,162,162,1000,162
2011/05/12,154,157,154,157,10000,157
2011/05/20,160,160,160,160,1000,160
2011/05/24,161,161,161,161,7000,161
2011/05/25,164,164,164,164,9000,164
2011/05/27,157,157,156,156,7000,156
2011/05/31,162,162,162,162,1000,162
2011/06/01,162,162,160,160,5000,160
2011/06/02,158,158,158,158,1000,158
2011/06/22,164,165,164,164,11000,164
2011/06/23,167,170,167,167,15000,167
2011/06/24,166,175,166,175,12000,175
2011/06/27,172,172,170,172,14000,172
2011/06/29,180,182,180,182,51000,182
2011/06/30,182,182,182,182,2000,182
2011/07/01,177,177,177,177,4000,177
2011/07/04,173,173,172,172,2000,172
2011/07/07,170,170,170,170,6000,170
2011/07/08,170,170,170,170,1000,170
2011/07/13,170,170,170,170,1000,170
2011/07/19,172,172,172,172,2000,172
2011/07/20,175,175,175,175,1000,175
2011/07/21,170,170,169,169,6000,169
2011/07/25,169,169,169,169,8000,169
2011/07/27,179,179,179,179,1000,179
2011/07/29,174,175,170,175,4000,175
2011/08/01,169,169,168,168,7000,168
2011/08/02,165,170,165,170,4000,170
2011/08/03,165,165,165,165,2000,165
2011/08/04,163,163,163,163,3000,163
2011/08/05,162,162,162,162,1000,162
2011/08/08,162,162,162,162,3000,162
2011/08/15,162,171,162,171,7000,171
2011/08/16,175,175,173,173,2000,173
2011/08/17,173,173,166,169,7000,169
2011/08/19,164,169,164,164,5000,164
2011/08/22,164,164,164,164,1000,164
2011/08/23,164,164,164,164,3000,164
2011/08/25,168,168,167,167,11000,167
2011/08/26,172,172,172,172,1000,172
2011/08/29,170,171,168,168,13000,168
2011/08/31,170,170,169,169,2000,169
2011/09/01,169,169,169,169,6000,169
2011/09/05,170,170,169,169,3000,169
2011/09/08,174,174,174,174,1000,174
2011/09/09,172,172,171,171,2000,171
2011/09/12,169,169,167,167,5000,167
2011/09/14,171,171,171,171,2000,171
2011/09/15,171,171,171,171,2000,171
2011/09/16,172,172,171,171,7000,171
2011/09/20,179,199,169,176,23000,176
2011/09/21,176,185,176,185,3000,185
2011/09/22,185,185,181,182,3000,182
2011/09/26,182,182,182,182,8000,182
2011/09/28,178,178,178,178,2000,178
2011/09/29,175,175,175,175,2000,175
2011/09/30,175,181,172,180,5000,180
2011/10/03,171,171,171,171,8000,171
2011/10/04,171,176,171,176,2000,176
2011/10/05,172,177,172,177,3000,177
2011/10/06,177,177,177,177,1000,177
2011/10/12,173,173,173,173,1000,173
2011/10/17,170,170,170,170,2000,170
2011/10/18,175,175,175,175,2000,175
2011/10/19,175,175,175,175,1000,175
2011/10/20,171,171,171,171,2000,171
2011/10/24,176,176,176,176,2000,176
2011/10/25,174,174,169,169,9000,169
2011/10/26,170,170,170,170,1000,170
2011/10/27,170,170,170,170,2000,170
2011/10/31,177,177,177,177,1000,177
2011/11/01,176,176,176,176,4000,176
2011/11/02,169,169,169,169,3000,169
2011/11/04,166,166,165,165,6000,165
2011/11/07,165,165,165,165,2000,165
2011/11/08,165,165,165,165,2000,165
2011/11/09,166,166,166,166,1000,166
2011/11/10,165,165,165,165,1000,165
2011/11/11,165,165,165,165,3000,165
2011/11/14,164,164,159,159,18000,159
2011/11/15,160,160,160,160,1000,160
2011/11/18,157,157,155,155,7000,155
2011/11/21,155,155,153,153,7000,153
2011/11/25,160,160,160,160,11000,160
2011/11/28,158,160,152,152,25000,152
2011/11/29,152,152,152,152,12000,152
2011/11/30,152,152,152,152,2000,152
2011/12/01,153,153,150,152,22000,152
2011/12/05,152,152,150,150,5000,150
2011/12/06,151,151,151,151,1000,151
2011/12/07,146,149,145,146,25000,146
2011/12/08,147,149,147,148,5000,148
2011/12/09,148,148,147,147,2000,147
2011/12/12,151,153,150,150,48000,150
2011/12/13,154,154,154,154,1000,154
2011/12/15,151,151,150,150,8000,150
2011/12/16,150,150,150,150,5000,150
2011/12/19,150,150,147,147,18000,147
2011/12/20,149,149,149,149,1000,149
2011/12/22,151,151,148,148,21000,148
2011/12/26,150,151,149,149,30000,149
2011/12/27,149,152,149,150,5000,150
2011/12/28,152,152,152,152,3000,152
2011/12/29,152,153,152,153,3000,153
2011/12/30,153,156,153,156,7000,156
2012/01/04,156,156,155,156,9000,156
2012/01/05,156,156,156,156,2000,156
2012/01/06,158,158,158,158,1000,158
2012/01/10,158,158,158,158,3000,158
2012/01/11,158,159,158,159,2000,159
2012/01/12,159,159,159,159,1000,159
2012/01/13,160,160,158,158,3000,158
2012/01/16,158,158,158,158,1000,158
2012/01/17,160,160,160,160,1000,160
2012/01/18,160,162,160,162,3000,162
2012/01/19,162,162,161,161,5000,161
2012/01/20,162,167,162,167,3000,167
2012/01/23,165,172,165,165,8000,165
2012/01/24,170,171,170,171,2000,171
2012/01/25,172,172,172,172,7000,172
2012/01/26,171,172,167,172,3000,172
2012/01/27,172,172,172,172,1000,172
2012/01/30,173,173,173,173,2000,173
2012/01/31,173,173,173,173,1000,173
2012/02/01,173,173,173,173,3000,173
2012/02/02,175,180,175,180,5000,180
2012/02/03,180,180,176,176,5000,176
2012/02/07,177,178,177,178,2000,178
2012/02/09,175,175,175,175,1000,175
2012/02/10,177,177,177,177,1000,177
2012/02/13,181,181,180,180,2000,180
2012/02/14,180,180,180,180,2000,180
2012/02/16,178,178,178,178,2000,178
2012/02/20,180,180,180,180,3000,180
2012/02/22,180,180,180,180,10000,180
2012/02/23,180,181,180,180,5000,180
2012/02/24,180,181,180,181,8000,181
2012/02/27,183,183,180,182,20000,182
2012/02/28,181,181,181,181,1000,181
2012/02/29,184,184,180,180,4000,180
2012/03/01,184,184,184,184,4000,184
2012/03/05,184,184,184,184,1000,184
2012/03/07,182,182,182,182,1000,182
2012/03/09,184,184,184,184,3000,184
2012/03/13,184,184,184,184,6000,184
2012/03/14,185,185,185,185,1000,185
2012/03/15,184,184,182,182,2000,182
2012/03/16,184,185,184,185,2000,185
2012/03/19,185,185,183,184,9000,184
2012/03/21,182,185,182,182,10000,182
2012/03/22,183,183,182,183,6000,183
2012/03/23,184,184,184,184,2000,184
2012/03/26,185,185,184,185,13000,185
2012/03/27,185,185,185,185,5000,185
2012/03/28,168,176,168,176,4000,176
2012/03/29,176,178,176,178,4000,178
2012/03/30,176,176,176,176,2000,176
2012/04/02,177,178,176,178,15000,178
2012/04/03,175,175,175,175,1000,175
2012/04/04,175,175,175,175,1000,175
2012/04/05,175,175,175,175,2000,175
2012/04/11,175,175,175,175,1000,175
2012/04/13,177,177,176,176,2000,176
2012/04/16,176,176,175,175,2000,175
2012/04/17,175,175,175,175,1000,175
2012/04/23,177,178,177,178,4000,178
2012/04/24,178,178,177,177,2000,177
2012/04/25,178,178,177,177,9000,177
2012/04/26,177,177,176,177,4000,177
2012/04/27,178,179,177,179,7000,179
2012/05/01,178,178,177,177,7000,177
2012/05/02,179,180,179,180,6000,180
2012/05/07,175,175,175,175,6000,175
2012/05/09,175,175,175,175,2000,175
2012/05/10,175,175,175,175,1000,175
2012/05/14,175,175,175,175,2000,175
2012/05/15,174,174,170,170,3000,170
2012/05/17,170,170,170,170,1000,170
2012/05/22,169,169,169,169,5000,169
2012/05/23,168,168,168,168,2000,168
2012/05/25,172,172,172,172,7000,172
2012/05/29,170,170,170,170,1000,170
2012/05/30,172,172,172,172,1000,172
2012/05/31,175,175,175,175,1000,175
2012/06/01,175,175,169,169,8000,169
2012/06/05,169,169,169,169,1000,169
2012/06/08,169,169,169,169,1000,169
2012/06/13,170,173,170,173,3000,173
2012/06/20,178,179,178,178,8000,178
2012/06/21,179,179,179,179,1000,179
2012/06/22,178,180,178,180,15000,180
2012/06/25,181,181,181,181,9000,181
2012/06/26,180,181,180,181,7000,181
2012/06/27,182,186,182,186,8000,186
2012/06/28,179,179,178,178,48000,178
2012/06/29,181,182,181,182,4000,182
2012/07/02,185,185,185,185,7000,185
2012/07/03,181,183,181,183,4000,183
2012/07/04,182,182,182,182,2000,182
2012/07/05,183,183,177,177,6000,177
2012/07/06,185,185,185,185,1000,185
2012/07/09,185,185,185,185,1000,185
2012/07/11,183,183,180,180,4000,180
2012/07/13,180,180,180,180,1000,180
2012/07/19,185,185,185,185,2000,185
2012/07/23,182,182,180,180,6000,180
2012/07/24,180,180,180,180,2000,180
2012/07/25,184,184,184,184,10000,184
2012/07/26,184,184,180,180,2000,180
2012/07/30,184,184,184,184,1000,184
2012/07/31,184,184,184,184,1000,184
2012/08/01,180,180,180,180,4000,180
2012/08/06,184,184,184,184,3000,184
2012/08/09,185,185,185,185,1000,185
2012/08/10,183,183,183,183,1000,183
2012/08/15,183,183,183,183,1000,183
2012/08/16,182,182,182,182,1000,182
2012/08/21,180,180,180,180,4000,180
2012/08/22,181,181,181,181,1000,181
2012/08/24,182,183,182,183,2000,183
2012/08/27,185,185,184,184,10000,184
2012/08/29,184,184,184,184,1000,184
2012/08/31,183,183,182,182,4000,182
2012/09/03,183,183,183,183,4000,183
2012/09/04,183,183,183,183,1000,183
2012/09/05,181,181,181,181,4000,181
2012/09/06,181,181,181,181,1000,181
2012/09/07,180,180,178,178,3000,178
2012/09/10,180,180,180,180,1000,180
2012/09/11,180,181,180,181,2000,181
2012/09/12,181,181,181,181,1000,181
2012/09/18,182,182,182,182,1000,182
2012/09/19,183,183,183,183,3000,183
2012/09/20,184,184,184,184,1000,184
2012/09/21,185,185,184,184,3000,184
2012/09/24,186,190,186,187,7000,187
2012/09/25,193,193,189,189,10000,189
2012/09/26,180,180,180,180,3000,180
2012/09/27,182,183,182,183,2000,183
2012/10/01,183,183,183,183,5000,183
2012/10/02,184,184,184,184,1000,184
2012/10/09,183,184,183,184,2000,184
2012/10/10,183,183,183,183,2000,183
2012/10/12,183,183,182,182,2000,182
2012/10/19,182,182,182,182,2000,182
2012/10/22,185,187,185,187,3000,187
2012/10/23,186,186,186,186,1000,186
2012/10/25,187,187,182,182,8000,182
2012/10/29,183,183,183,183,1000,183
2012/11/01,187,187,187,187,4000,187
2012/11/02,199,199,199,199,3000,199
2012/11/05,195,195,190,190,4000,190
2012/11/06,189,189,189,189,1000,189
2012/11/07,188,188,185,185,3000,185
2012/11/09,190,190,190,190,1000,190
2012/11/12,190,190,190,190,1000,190
2012/11/14,185,185,185,185,1000,185
2012/11/16,195,200,191,191,29000,191
2012/11/20,191,193,190,192,4000,192
2012/11/21,191,191,191,191,1000,191
2012/11/22,192,193,192,193,6000,193
2012/11/26,197,197,197,197,9000,197
2012/11/27,197,199,197,199,2000,199
2012/11/28,200,200,200,200,1000,200
2012/11/29,204,206,204,206,2000,206
2012/11/30,206,209,203,209,4000,209
2012/12/03,210,210,209,209,7000,209
2012/12/06,201,201,201,201,1000,201
2012/12/11,209,209,209,209,1000,209
2012/12/12,204,204,204,204,2000,204
2012/12/13,209,209,203,203,5000,203
2012/12/14,204,204,204,204,1000,204
2012/12/17,209,209,209,209,1000,209
2012/12/18,207,208,207,208,4000,208
2012/12/19,208,208,208,208,1000,208
2012/12/20,208,210,208,210,2000,210
2012/12/21,212,214,212,214,3000,214
2012/12/25,212,215,212,212,10000,212
2012/12/27,214,216,214,216,2000,216
2012/12/28,218,224,218,224,6000,224
2013/01/04,225,234,225,234,5000,234
2013/01/08,226,226,221,221,7000,221
2013/01/09,220,232,220,232,2000,232
2013/01/11,232,232,231,231,2000,231
2013/01/15,236,236,236,236,5000,236
2013/01/16,237,237,233,233,7000,233
2013/01/17,231,231,231,231,4000,231
2013/01/18,233,233,233,233,1000,233
2013/01/21,233,233,233,233,1000,233
2013/01/22,229,232,229,232,4000,232
2013/01/23,230,230,230,230,2000,230
2013/01/24,230,234,230,234,3000,234
2013/01/25,234,234,234,234,7000,234
2013/01/28,234,235,234,235,5000,235
2013/01/29,240,240,240,240,5000,240
2013/01/30,235,236,235,236,3000,236
2013/01/31,237,241,236,241,7000,241
2013/02/01,248,249,248,249,7000,249
2013/02/04,250,250,250,250,1000,250
2013/02/05,259,259,258,258,4000,258
2013/02/06,257,258,257,257,6000,257
2013/02/12,260,260,260,260,1000,260
2013/02/13,250,250,238,238,3000,238
2013/02/14,235,235,228,228,3000,228
2013/02/15,225,225,225,225,1000,225
2013/02/18,230,238,230,238,2000,238
2013/02/19,230,239,230,239,2000,239
2013/02/20,235,235,234,234,2000,234
2013/02/22,241,241,240,240,3000,240
2013/02/25,243,243,239,239,8000,239
2013/02/26,245,249,245,247,3000,247
2013/02/27,260,260,260,260,1000,260
2013/02/28,252,252,252,252,3000,252
2013/03/01,252,252,250,250,4000,250
2013/03/04,250,250,250,250,1000,250
2013/03/05,250,250,250,250,5000,250
2013/03/06,250,254,250,254,3000,254
2013/03/07,250,250,250,250,3000,250
2013/03/08,252,280,252,280,36000,280
2013/03/11,280,282,278,282,13000,282
2013/03/12,282,290,282,283,13000,283
2013/03/13,280,280,270,272,8000,272
2013/03/14,280,280,280,280,2000,280
2013/03/15,272,272,272,272,2000,272
2013/03/18,270,270,268,268,4000,268
2013/03/19,267,275,267,267,11000,267
2013/03/21,265,270,265,270,4000,270
2013/03/22,273,274,273,274,5000,274
2013/03/25,283,284,268,268,15000,268
2013/03/26,266,266,266,266,1000,266
2013/03/27,256,256,241,255,5000,255
2013/03/28,255,255,250,250,5000,250
2013/03/29,253,253,251,251,4000,251
2013/04/01,253,253,251,251,6000,251
2013/04/02,250,250,246,246,8000,246
2013/04/05,250,251,250,251,2000,251
2013/04/08,248,248,248,248,1000,248
2013/04/09,249,250,249,250,4000,250
2013/04/10,253,253,253,253,2000,253
2013/04/11,252,256,252,256,3000,256
2013/04/12,253,253,253,253,1000,253
2013/04/15,251,251,251,251,1000,251
2013/04/16,251,251,250,250,3000,250
2013/04/17,255,255,255,255,1000,255
2013/04/19,252,257,252,257,3000,257
2013/04/22,258,260,258,259,7000,259
2013/04/23,265,265,264,265,6000,265
2013/04/24,260,261,257,257,7000,257
2013/04/25,263,263,263,263,6000,263
2013/04/26,264,265,262,262,8000,262
2013/04/30,263,263,262,262,2000,262
2013/05/01,270,270,262,262,5000,262
2013/05/07,268,271,265,271,5000,271
2013/05/08,270,274,270,274,2000,274
2013/05/09,279,279,279,279,10000,279
2013/05/10,279,283,279,282,9000,282
2013/05/13,282,282,279,279,6000,279
2013/05/14,275,275,275,275,1000,275
2013/05/15,280,310,280,310,50000,310
2013/05/16,315,318,260,284,53000,284
2013/05/17,268,278,268,278,3000,278
2013/05/20,281,288,281,283,4000,283
2013/05/21,283,283,283,283,2000,283
2013/05/22,288,288,275,280,6000,280
2013/05/23,277,277,270,270,6000,270
2013/05/24,270,275,263,263,15000,263
2013/05/27,263,263,254,254,8000,254
2013/05/28,257,262,249,251,13000,251
2013/05/29,253,254,249,250,9000,250
2013/05/30,250,252,250,252,4000,252
2013/05/31,252,252,247,247,17000,247
2013/06/03,252,252,245,245,9000,245
2013/06/04,247,262,247,262,9000,262
2013/06/06,261,261,246,246,8000,246
2013/06/07,246,246,221,227,9000,227
2013/06/10,243,243,243,243,2000,243
2013/06/12,236,236,236,236,1000,236
2013/06/13,235,235,235,235,1000,235
2013/06/19,249,249,249,249,1000,249
2013/06/21,241,249,241,249,5000,249
2013/06/24,248,248,248,248,2000,248
2013/06/25,250,250,250,250,6000,250
2013/06/26,249,249,248,248,2000,248
2013/06/27,253,255,248,255,5000,255
2013/06/28,267,275,251,255,33000,255
2013/07/01,250,250,247,250,12300,250
2013/07/02,251,263,250,250,5700,250
2013/07/03,269,270,269,270,3100,270
2013/07/05,270,270,251,254,3900,254
2013/07/08,259,260,256,256,3200,256
2013/07/09,258,260,256,260,2800,260
2013/07/10,261,262,261,262,2000,262
2013/07/11,261,261,260,260,200,260
2013/07/12,259,259,259,259,100,259
2013/07/16,251,262,251,262,3800,262
2013/07/17,254,268,253,258,9300,258
2013/07/18,250,256,250,256,3200,256
2013/07/19,263,263,263,263,1700,263
2013/07/22,268,268,268,268,200,268
2013/07/23,268,268,265,266,1100,266
2013/07/24,266,269,266,267,1800,267
2013/07/25,275,275,266,266,6000,266
2013/07/26,265,266,258,258,2000,258
2013/07/29,274,274,266,266,1300,266
2013/07/30,266,266,264,266,2800,266
2013/08/01,275,275,274,274,2700,274
2013/08/02,258,270,258,259,2600,259
2013/08/05,259,262,243,259,18800,259
2013/08/06,260,260,250,250,3000,250
2013/08/07,251,251,247,247,6700,247
2013/08/08,245,245,245,245,2000,245
2013/08/09,245,245,244,244,2700,244
2013/08/12,243,243,240,240,4900,240
2013/08/13,236,240,236,239,2300,239
2013/08/14,238,238,230,237,6300,237
2013/08/15,242,242,240,240,2100,240
2013/08/16,236,248,236,244,2600,244
2013/08/19,244,244,238,238,1100,238
2013/08/21,244,244,235,235,3200,235
2013/08/22,237,242,237,242,400,242
2013/08/23,245,257,245,257,3700,257
2013/08/26,267,268,266,267,8400,267
2013/08/27,259,260,259,260,200,260
2013/08/28,256,263,256,262,800,262
2013/08/30,263,265,262,264,3400,264
2013/09/02,267,267,261,261,3100,261
2013/09/03,253,275,252,275,6800,275
2013/09/04,268,269,268,269,2100,269
2013/09/05,265,267,260,267,1600,267
2013/09/06,280,347,280,285,532200,285
2013/09/09,309,314,285,293,74400,293
2013/09/10,300,300,287,291,32600,291
2013/09/11,290,294,287,288,16700,288
2013/09/12,291,293,288,290,11900,290
2013/09/13,292,293,288,291,8700,291
2013/09/17,296,296,292,294,9600,294
2013/09/18,294,296,292,292,7100,292
2013/09/19,295,296,292,295,4200,295
2013/09/20,289,293,286,293,16100,293
2013/09/24,294,295,292,295,19700,295
2013/09/25,296,299,294,299,33200,299
2013/09/26,275,284,272,282,22400,282
2013/09/27,282,284,280,281,5800,281
2013/09/30,283,284,280,283,1500,283
2013/10/01,285,285,281,283,7300,283
2013/10/02,282,282,280,281,4400,281
2013/10/03,283,283,275,277,6400,277
2013/10/04,275,275,267,273,6500,273
2013/10/07,273,273,268,269,2400,269
2013/10/08,270,273,267,273,3300,273
2013/10/09,271,271,269,270,2000,270
2013/10/10,271,271,269,270,2700,270
2013/10/11,271,273,271,273,4800,273
2013/10/15,275,275,270,274,3900,274
2013/10/16,270,275,270,273,3400,273
2013/10/17,274,277,274,276,1800,276
2013/10/18,277,277,275,277,1300,277
2013/10/21,280,281,278,280,7500,280
2013/10/22,286,286,281,283,7200,283
2013/10/23,286,290,281,290,5600,290
2013/10/24,290,292,286,292,5900,292
2013/10/25,293,293,290,291,7700,291
2013/10/28,291,292,288,291,5000,291
2013/10/29,290,291,289,290,1700,290
2013/10/30,290,290,282,282,4300,282
2013/10/31,283,283,274,281,8100,281
2013/11/01,282,286,279,279,3100,279
2013/11/05,281,286,281,285,1700,285
2013/11/06,285,285,282,283,1700,283
2013/11/07,282,285,281,282,1600,282
2013/11/08,282,282,279,280,1800,280
2013/11/11,283,283,276,281,3300,281
2013/11/12,275,276,267,275,8000,275
2013/11/13,275,280,275,278,1800,278
2013/11/14,278,281,278,281,6400,281
2013/11/15,279,282,279,282,3600,282
2013/11/18,282,282,281,282,1500,282
2013/11/19,282,283,281,283,1800,283
2013/11/20,283,283,277,280,4400,280
2013/11/21,280,282,280,282,1700,282
2013/11/22,282,285,281,285,4800,285
2013/11/25,291,299,275,282,28800,282
2013/11/26,286,286,282,284,4700,284
2013/11/27,283,285,282,284,2100,284
2013/11/28,287,287,277,280,6500,280
2013/11/29,283,286,283,286,1500,286
2013/12/02,290,297,281,292,22200,292
2013/12/03,295,296,290,290,10500,290
2013/12/04,293,295,286,290,10200,290
2013/12/05,288,290,288,290,2900,290
2013/12/06,289,290,287,289,7400,289
2013/12/09,289,369,289,369,328900,369
2013/12/10,385,387,307,326,348300,326
2013/12/11,323,324,308,311,80600,311
2013/12/12,304,314,297,310,55800,310
2013/12/13,309,309,290,295,50100,295
2013/12/16,295,297,290,295,34400,295
2013/12/17,295,308,291,294,24800,294
2013/12/18,295,297,289,290,23000,290
2013/12/19,290,293,287,288,22700,288
2013/12/20,286,286,280,286,24600,286
2013/12/24,288,294,288,294,20900,294
2013/12/25,300,359,297,298,179300,298
2013/12/26,300,309,297,299,32500,299
2013/12/27,305,305,300,303,12300,303
2013/12/30,304,306,298,303,21500,303
2014/01/06,309,312,305,305,11700,305
2014/01/07,310,311,305,310,7700,310
2014/01/08,342,342,324,329,61900,329
2014/01/09,329,330,325,328,12800,328
2014/01/10,328,342,319,342,28400,342
2014/01/14,342,422,342,422,184300,422
2014/01/15,502,502,502,502,40500,502
2014/01/16,602,602,602,602,250900,602
2014/01/17,592,650,550,600,567300,600
2014/01/20,615,620,587,605,171600,605
2014/01/21,705,705,653,653,772000,653
2014/01/22,593,630,565,570,536000,570
2014/01/23,567,588,544,544,159700,544
2014/01/24,518,550,511,550,152700,550
2014/01/27,500,528,492,497,95000,497
2014/01/28,497,500,455,455,106600,455
2014/01/29,485,510,457,476,187300,476
2014/01/30,447,447,430,439,80600,439
2014/01/31,450,467,421,448,70500,448
2014/02/03,432,435,390,400,84600,400
2014/02/04,328,366,321,357,142900,357
2014/02/05,379,380,345,365,62500,365
2014/02/06,357,418,357,393,81000,393
2014/02/07,393,414,380,399,57900,399
2014/02/10,400,438,400,414,64100,414
2014/02/12,425,479,418,448,125500,448
2014/02/13,433,447,418,447,53000,447
2014/02/14,444,449,424,442,36100,442
2014/02/17,442,444,410,417,35900,417
2014/02/18,410,419,408,419,25200,419
2014/02/19,410,418,400,409,36300,409
2014/02/20,414,414,384,384,37000,384
2014/02/21,387,390,374,386,20300,386
2014/02/24,397,397,384,390,22200,390
2014/02/25,398,398,387,392,28100,392
2014/02/26,387,395,385,388,18100,388
2014/02/27,386,390,375,375,18100,375
2014/02/28,376,387,365,369,21800,369
2014/03/03,353,355,341,345,43000,345
2014/03/04,350,367,341,350,25300,350
2014/03/05,361,364,349,354,10900,354
2014/03/06,355,362,352,355,11800,355
2014/03/07,361,367,356,367,26000,367
2014/03/10,378,418,378,402,128800,402
2014/03/11,408,420,395,412,65700,412
2014/03/12,402,405,398,401,18300,401
2014/03/13,402,410,386,403,30900,403
2014/03/14,387,397,386,397,24400,397
2014/03/17,393,393,369,373,16100,373
2014/03/18,379,382,368,377,17900,377
2014/03/19,377,377,363,368,10200,368
2014/03/20,362,365,329,350,50700,350
2014/03/24,337,350,336,347,30200,347
2014/03/25,355,355,341,343,12600,343
2014/03/26,343,344,322,322,24200,322
2014/03/27,314,323,305,321,12600,321
2014/03/28,324,335,324,334,6800,334
2014/03/31,337,345,317,342,15200,342
2014/04/01,348,348,323,330,29700,330
2014/04/02,334,334,322,333,10400,333
2014/04/03,334,353,334,344,27000,344
2014/04/04,349,354,346,351,17600,351
2014/04/07,349,391,349,357,116700,357
2014/04/08,365,365,341,348,29600,348
2014/04/09,343,343,328,332,11400,332
2014/04/10,334,338,330,330,16800,330
2014/04/11,318,332,318,331,12500,331
2014/04/14,323,331,320,322,16400,322
2014/04/15,327,327,320,323,11400,323
2014/04/16,324,328,320,327,8600,327
2014/04/17,380,407,379,407,363300,407
2014/04/18,383,391,365,366,263100,366
2014/04/21,370,375,361,363,57100,363
2014/04/22,365,365,349,350,41300,350
2014/04/23,350,351,347,350,25700,350
2014/04/24,352,355,347,352,20100,352
2014/04/25,355,355,344,345,19700,345
2014/04/28,347,347,334,335,20800,335
2014/04/30,333,335,328,332,33100,332
2014/05/01,335,338,332,338,9500,338
2014/05/02,340,344,338,344,12800,344
2014/05/07,344,345,341,342,19200,342
2014/05/08,344,345,340,342,6200,342
2014/05/09,340,343,333,343,10300,343
2014/05/12,339,343,336,340,11200,340
2014/05/13,340,340,333,340,5600,340
2014/05/14,338,343,338,339,6000,339
2014/05/15,339,344,337,343,8500,343
2014/05/16,336,338,330,332,24700,332
2014/05/19,333,335,324,326,10400,326
2014/05/20,326,331,321,324,12100,324
2014/05/21,320,326,320,326,8400,326
2014/05/22,328,332,328,331,3300,331
2014/05/23,332,337,330,337,15800,337
2014/05/26,341,341,336,339,11300,339
2014/05/27,339,354,339,353,53600,353
2014/05/28,350,351,344,348,23100,348
2014/05/29,349,349,345,345,8400,345
2014/05/30,349,350,347,349,18300,349
2014/06/02,350,375,347,374,53400,374
2014/06/03,376,383,368,377,49000,377
2014/06/04,380,382,371,378,18700,378
2014/06/05,378,378,370,373,10300,373
2014/06/06,378,379,369,377,13000,377
2014/06/09,378,450,378,425,187500,425
2014/06/10,418,423,393,406,83200,406
2014/06/11,395,441,391,436,121100,436
2014/06/12,425,437,414,426,40100,426
2014/06/13,425,436,411,436,40400,436
2014/06/16,436,436,415,422,41200,422
2014/06/17,422,429,415,417,11100,417
2014/06/18,417,424,410,423,18500,423
2014/06/19,421,443,420,431,52500,431
2014/06/20,435,437,420,427,39600,427
2014/06/23,433,469,426,460,148000,460
2014/06/24,460,468,442,464,47400,464
2014/06/25,470,539,464,496,284800,496
2014/06/26,488,508,467,479,94500,479
2014/06/27,476,476,445,459,71200,459
2014/06/30,449,457,442,452,33600,452
2014/07/01,474,478,452,460,47000,460
2014/07/02,461,467,456,459,23400,459
2014/07/03,458,460,450,450,15700,450
2014/07/04,450,459,446,452,18500,452
2014/07/07,447,447,436,437,30800,437
2014/07/08,432,442,428,442,20600,442
2014/07/09,437,442,430,433,13300,433
2014/07/10,440,440,419,425,24800,425
2014/07/11,415,421,415,415,22800,415
2014/07/14,415,415,411,415,11300,415
2014/07/15,412,421,412,419,12000,419
2014/07/16,418,421,416,419,11000,419
2014/07/17,417,423,416,418,9000,418
2014/07/18,411,413,408,409,16300,409
2014/07/22,407,416,407,412,19700,412
2014/07/23,415,423,415,416,10100,416
2014/07/24,419,424,417,418,12800,418
2014/07/25,420,427,420,424,18400,424
2014/07/28,424,427,421,424,6800,424
2014/07/29,428,430,425,427,9400,427
2014/07/30,426,459,426,436,29700,436
2014/07/31,444,444,429,429,12900,429
2014/08/01,426,426,420,421,14200,421
2014/08/04,427,427,420,420,9000,420
2014/08/05,418,419,410,411,13500,411
2014/08/06,407,413,404,407,11500,407
2014/08/07,408,411,404,407,7600,407
2014/08/08,406,406,370,390,29400,390
2014/08/11,398,404,393,399,8700,399
2014/08/12,406,406,400,401,5100,401
2014/08/13,405,405,401,401,3900,401
2014/08/14,405,405,391,402,13300,402
2014/08/15,402,405,398,400,7400,400
2014/08/18,406,406,400,402,12000,402
2014/08/19,404,405,401,403,13200,403
2014/08/20,402,404,402,403,6500,403
2014/08/21,403,424,402,417,23900,417
2014/08/22,416,417,408,415,32600,415
2014/08/25,421,437,415,426,58300,426
2014/08/26,429,436,417,423,26500,423
2014/08/27,432,433,425,432,14200,432
2014/08/28,436,440,426,438,21900,438
2014/08/29,438,438,427,435,20700,435
2014/09/01,439,440,435,439,12900,439
2014/09/02,442,449,440,443,26500,443
2014/09/03,446,488,446,455,150400,455
2014/09/04,454,454,438,439,31900,439
2014/09/05,440,446,433,441,29600,441
2014/09/08,444,448,436,447,10800,447
2014/09/09,450,460,450,458,16100,458
2014/09/10,460,460,432,444,28400,444
2014/09/11,449,449,439,446,10300,446
2014/09/12,446,447,445,445,4600,445
2014/09/16,448,461,445,449,25700,449
2014/09/17,455,458,446,448,19200,448
2014/09/18,455,456,441,448,17600,448
2014/09/19,453,463,446,453,34000,453
2014/09/22,460,460,449,459,28900,459
2014/09/24,459,460,450,460,30600,460
2014/09/25,465,474,461,474,45800,474
2014/09/26,445,458,445,453,37200,453
2014/09/29,450,452,442,445,25500,445
2014/09/30,447,447,437,438,9800,438
2014/10/01,442,443,435,443,12800,443
2014/10/02,427,427,405,409,30500,409
2014/10/03,409,425,407,408,14500,408
2014/10/06,414,421,413,415,4500,415
2014/10/07,420,420,415,415,2200,415
2014/10/08,410,418,409,417,8400,417
2014/10/09,417,420,414,420,8600,420
2014/10/10,408,419,406,407,7400,407
2014/10/14,391,400,390,398,15900,398
2014/10/15,398,406,398,405,4300,405
2014/10/16,394,404,390,392,4300,392
2014/10/17,391,394,390,390,3600,390
2014/10/20,393,401,392,399,3900,399
2014/10/21,406,406,399,399,1500,399
2014/10/22,404,404,403,404,2500,404
2014/10/23,404,407,404,407,3200,407
2014/10/24,411,447,403,435,46100,435
2014/10/27,441,445,420,425,37600,425
2014/10/28,425,425,408,412,6000,412
2014/10/29,413,419,413,419,2900,419
2014/10/30,420,423,416,419,3900,419
2014/10/31,418,422,402,419,7700,419
2014/11/04,437,437,415,415,18700,415
2014/11/05,415,420,413,419,4900,419
2014/11/06,421,421,413,419,12100,419
2014/11/07,424,424,417,424,6200,424
2014/11/10,435,444,427,435,31800,435
2014/11/11,439,445,437,440,27700,440
2014/11/12,437,442,435,441,8200,441
2014/11/13,442,447,437,447,17400,447
2014/11/14,447,448,430,448,11500,448
2014/11/17,447,447,431,431,11100,431
2014/11/18,434,440,431,440,4500,440
2014/11/19,441,443,434,443,9000,443
2014/11/20,439,448,437,445,11400,445
2014/11/21,449,518,444,463,218900,463
2014/11/25,479,479,444,452,83600,452
2014/11/26,460,465,449,455,33300,455
2014/11/27,454,454,441,447,23600,447
2014/11/28,444,455,443,447,14700,447
2014/12/01,448,457,448,454,11500,454
2014/12/02,449,460,445,453,8000,453
2014/12/03,453,462,451,460,11700,460
2014/12/04,460,464,456,459,12300,459
2014/12/05,462,480,462,478,33800,478
2014/12/08,480,480,457,465,26700,465
2014/12/09,470,470,430,440,22300,440
2014/12/10,441,454,441,454,12400,454
2014/12/11,450,465,446,465,11400,465
2014/12/12,466,466,454,466,13000,466
2014/12/15,463,466,448,448,8000,448
2014/12/16,448,458,430,438,18500,438
2014/12/17,435,453,430,445,8000,445
2014/12/18,445,451,441,441,3800,441
2014/12/19,441,448,438,442,6000,442
2014/12/22,438,439,431,434,19200,434
2014/12/24,440,442,431,441,12700,441
2014/12/25,436,439,430,434,16000,434
2014/12/26,435,443,435,443,5600,443
2014/12/29,450,450,441,447,7800,447
2014/12/30,449,449,443,444,6100,444
2015/01/05,455,455,444,449,14300,449
2015/01/06,441,447,441,447,3100,447
2015/01/07,443,448,443,445,2100,445
2015/01/08,446,451,446,450,7800,450
2015/01/09,452,452,440,448,5700,448
2015/01/13,449,454,447,454,9200,454
2015/01/14,450,454,446,454,8900,454
2015/01/15,451,452,447,451,2600,451
2015/01/16,450,450,442,448,4200,448
2015/01/19,455,455,450,450,3800,450
2015/01/20,450,452,447,452,7300,452
2015/01/21,452,455,451,453,5000,453
2015/01/22,452,454,452,453,1600,453
2015/01/23,455,455,450,455,13300,455
2015/01/26,456,461,454,460,10200,460
2015/01/27,465,467,458,465,8800,465
2015/01/28,468,479,465,475,14700,475
2015/01/29,478,499,473,474,31900,474
2015/01/30,471,499,471,494,25900,494
2015/02/02,486,491,479,490,12500,490
2015/02/03,494,494,456,478,27600,478
2015/02/04,470,475,457,460,16300,460
2015/02/05,473,473,448,458,20900,458
2015/02/06,459,465,445,450,26600,450
2015/02/09,447,450,444,446,10700,446
2015/02/10,446,450,445,449,2600,449
2015/02/12,449,457,449,450,7600,450
2015/02/13,457,457,451,455,6600,455
2015/02/16,455,460,455,458,2000,458
2015/02/17,456,459,452,458,2700,458
2015/02/18,458,458,453,457,4800,457
2015/02/19,457,458,453,455,8300,455
2015/02/20,456,457,450,456,9000,456
2015/02/23,453,457,452,457,7800,457
2015/02/24,457,465,455,465,7600,465
2015/02/25,467,468,461,462,6100,462
2015/02/26,462,466,461,464,3100,464
2015/02/27,467,473,463,470,8900,470
2015/03/02,474,474,468,468,7800,468
2015/03/03,473,473,464,464,4100,464
2015/03/04,465,465,455,463,6500,463
2015/03/05,460,463,460,460,1700,460
2015/03/06,464,467,460,463,3000,463
2015/03/09,470,480,467,474,10400,474
2015/03/10,476,482,476,482,7200,482
2015/03/11,482,505,482,503,41800,503
2015/03/12,503,508,474,492,52500,492
2015/03/13,494,504,481,485,16400,485
2015/03/16,496,573,496,573,404100,573
2015/03/17,592,670,521,549,459700,549
2015/03/18,559,571,530,531,66500,531
2015/03/19,533,535,509,527,38300,527
2015/03/20,543,545,528,533,26600,533
2015/03/23,534,536,516,534,12500,534
2015/03/24,533,537,522,533,13200,533
2015/03/25,529,529,516,522,12700,522
2015/03/26,522,526,503,504,21900,504
2015/03/27,500,520,492,494,16800,494
2015/03/30,562,574,552,574,60800,574
2015/03/31,524,548,518,527,189200,527
2015/04/01,528,529,506,510,29500,510
2015/04/02,509,517,501,504,22100,504
2015/04/03,506,509,503,507,9000,507
2015/04/06,507,525,507,512,12100,512
2015/04/07,508,520,508,517,7900,517
2015/04/08,523,528,515,521,11700,521
2015/04/09,524,524,515,516,9200,516
2015/04/10,516,518,512,514,5800,514
2015/04/13,521,609,513,519,219800,519
2015/04/14,526,539,520,531,21200,531
2015/04/15,531,554,523,527,42100,527
2015/04/16,535,570,535,560,82500,560
2015/04/17,563,565,542,562,17900,562
2015/04/20,560,565,540,540,13300,540
2015/04/21,545,562,540,542,20300,542
2015/04/22,541,545,537,545,12400,545
2015/04/23,539,545,536,544,10100,544
2015/04/24,545,557,545,555,21200,555
2015/04/27,559,566,556,566,18600,566
2015/04/28,566,609,566,594,138900,594
2015/04/30,616,620,580,591,65800,591
2015/05/01,590,590,555,580,31800,580
2015/05/07,573,578,555,556,15200,556
2015/05/08,560,574,558,566,15200,566
2015/05/11,560,567,541,549,23800,549
2015/05/12,550,551,546,550,7000,550
2015/05/13,550,550,546,546,7300,546
2015/05/14,545,545,540,540,8800,540
2015/05/15,535,537,521,522,15500,522
2015/05/18,523,533,520,525,8200,525
2015/05/19,531,532,522,530,4000,530
2015/05/20,530,541,530,538,4500,538
2015/05/21,534,538,534,534,6800,534
2015/05/22,532,541,531,538,6600,538
2015/05/25,538,548,536,543,13700,543
2015/05/26,546,550,535,538,11900,538
2015/05/27,533,533,523,525,13800,525
2015/05/28,528,530,527,529,4300,529
2015/05/29,529,534,522,532,10900,532
2015/06/01,525,526,518,523,15000,523
2015/06/02,520,531,520,531,10800,531
2015/06/03,532,554,528,541,14700,541
2015/06/04,557,557,542,543,13900,543
2015/06/05,553,553,543,543,10900,543
2015/06/08,543,547,530,544,12700,544
2015/06/09,550,550,537,537,8700,537
2015/06/10,533,533,529,529,7600,529
2015/06/11,529,539,525,533,11500,533
2015/06/12,530,530,519,519,24100,519
2015/06/15,519,520,513,515,14900,515
2015/06/16,519,532,513,513,29900,513
2015/06/17,510,511,503,505,35100,505
2015/06/18,501,501,490,490,34100,490
2015/06/19,488,488,476,478,42200,478
2015/06/22,487,493,480,483,20200,483
2015/06/23,491,494,488,488,9200,488
2015/06/24,494,497,490,494,9100,494
2015/06/25,497,502,493,500,13100,500
2015/06/26,500,502,495,499,12400,499
2015/06/29,467,490,467,481,29800,481
2015/06/30,490,499,484,499,26800,499
2015/07/01,500,503,494,499,11700,499
