2011/01/04,275,286,275,284,9600,284
2011/01/05,286,287,278,287,12600,287
2011/01/06,284,287,281,285,13900,285
2011/01/07,281,303,281,303,52200,303
2011/01/11,303,310,290,297,61000,297
2011/01/12,299,303,293,295,20400,295
2011/01/13,297,298,293,298,8300,298
2011/01/14,300,305,298,302,22600,302
2011/01/17,298,301,291,295,10500,295
2011/01/18,291,291,281,282,32900,282
2011/01/19,288,288,280,280,11000,280
2011/01/20,280,280,275,277,9000,277
2011/01/21,272,277,255,258,32600,258
2011/01/24,250,256,248,253,15600,253
2011/01/25,254,266,254,264,12400,264
2011/01/26,260,261,250,261,12600,261
2011/01/27,265,265,260,261,2700,261
2011/01/28,259,260,235,248,15400,248
2011/01/31,232,238,228,234,37600,234
2011/02/01,229,234,222,230,27100,230
2011/02/02,237,310,237,310,357200,310
2011/02/03,321,389,301,303,748200,303
2011/02/04,310,314,279,287,128100,287
2011/02/07,288,304,278,294,89200,294
2011/02/08,306,374,301,369,1094400,369
2011/02/09,400,411,352,360,663800,360
2011/02/10,350,350,324,331,160600,331
2011/02/14,331,331,317,320,77600,320
2011/02/15,240,240,240,240,34100,240
2011/02/16,251,260,226,254,369800,254
2011/02/17,246,250,243,246,99900,246
2011/02/18,253,254,241,246,68200,246
2011/02/21,246,248,241,248,30100,248
2011/02/22,248,248,236,240,51700,240
2011/02/23,232,241,232,237,21300,237
2011/02/24,234,238,228,228,44500,228
2011/02/25,229,248,227,240,30600,240
2011/02/28,248,300,245,275,303900,275
2011/03/01,259,264,250,257,107900,257
2011/03/02,234,240,233,239,161100,239
2011/03/03,225,233,224,227,141200,227
2011/03/04,231,231,220,222,105400,222
2011/03/07,217,217,201,203,126500,203
2011/03/08,209,255,209,217,238000,217
2011/03/09,213,214,207,209,61000,209
2011/03/10,211,230,209,222,120800,222
2011/03/11,209,219,206,215,51800,215
2011/03/14,143,159,137,150,144900,150
2011/03/15,120,125,100,110,184800,110
2011/03/16,120,129,108,121,79100,121
2011/03/17,103,123,103,119,43300,119
2011/03/18,128,145,125,142,70900,142
2011/03/22,151,165,145,160,84500,160
2011/03/23,160,161,151,161,40900,161
2011/03/24,151,156,151,151,19100,151
2011/03/25,158,158,137,137,35000,137
2011/03/28,137,145,136,137,18000,137
2011/03/29,136,143,135,139,9900,139
2011/03/30,139,146,139,144,11700,144
2011/03/31,147,147,140,144,11300,144
2011/04/01,135,141,134,139,30600,139
2011/04/04,143,143,137,140,5100,140
2011/04/05,141,141,132,132,16100,132
2011/04/06,133,133,126,126,16000,126
2011/04/07,125,125,118,124,20500,124
2011/04/08,120,125,120,125,10300,125
2011/04/11,126,126,121,122,3700,122
2011/04/12,125,172,125,164,445700,164
2011/04/13,179,200,169,169,742800,169
2011/04/14,164,164,151,160,92300,160
2011/04/15,160,160,151,159,45900,159
2011/04/18,153,157,152,155,30800,155
2011/04/19,152,155,150,153,20100,153
2011/04/20,150,163,148,152,37100,152
2011/04/21,153,155,151,153,17800,153
2011/04/22,156,191,153,162,558100,162
2011/04/25,165,167,154,159,49800,159
2011/04/26,159,163,153,156,31100,156
2011/04/27,156,157,154,155,21100,155
2011/04/28,153,162,150,151,48800,151
2011/05/02,156,156,152,155,10800,155
2011/05/06,152,155,149,152,16200,152
2011/05/09,155,157,151,153,10600,153
2011/05/10,152,154,151,154,16700,154
2011/05/11,154,155,151,153,23500,153
2011/05/12,153,184,152,152,359700,152
2011/05/13,153,153,150,151,46200,151
2011/05/16,149,150,142,150,35700,150
2011/05/17,142,146,142,143,15300,143
2011/05/18,142,147,141,145,14700,145
2011/05/19,145,146,144,144,6700,144
2011/05/20,149,167,143,150,217900,150
2011/05/23,148,153,145,148,33100,148
2011/05/24,149,152,148,150,8900,150
2011/05/25,152,153,150,150,15500,150
2011/05/26,150,151,148,150,9200,150
2011/05/27,150,155,149,149,8700,149
2011/05/30,150,151,147,150,12200,150
2011/05/31,148,159,148,152,32100,152
2011/06/01,152,154,149,152,11300,152
2011/06/02,151,151,148,151,8500,151
2011/06/03,149,156,148,152,16700,152
2011/06/06,152,161,150,152,69900,152
2011/06/07,153,155,153,153,7400,153
2011/06/08,154,158,150,152,29100,152
2011/06/09,151,160,149,152,98300,152
2011/06/10,153,154,150,151,11400,151
2011/06/13,149,150,148,149,11100,149
2011/06/14,149,151,149,150,2400,150
2011/06/15,151,155,148,152,19400,152
2011/06/16,152,153,152,153,14700,153
2011/06/17,152,152,150,150,5900,150
2011/06/20,151,151,150,151,7300,151
2011/06/21,150,154,150,151,6700,151
2011/06/22,149,151,143,151,10500,151
2011/06/23,151,153,150,153,4400,153
2011/06/24,153,153,150,150,3400,150
2011/06/27,150,150,146,148,5500,148
2011/06/28,147,150,147,150,1900,150
2011/06/29,149,151,149,151,300,151
2011/06/30,149,152,149,152,10100,152
2011/07/01,150,150,144,148,20000,148
2011/07/04,148,150,147,148,4000,148
2011/07/05,149,149,147,147,7300,147
2011/07/06,148,151,147,148,5800,148
2011/07/07,147,151,147,148,8900,148
2011/07/08,148,149,148,148,2400,148
2011/07/11,150,151,148,151,4100,151
2011/07/12,150,150,148,148,3800,148
2011/07/13,145,165,145,150,118000,150
2011/07/14,151,152,147,150,16400,150
2011/07/15,148,148,146,147,11700,147
2011/07/19,149,149,146,146,8800,146
2011/07/20,145,147,145,147,7400,147
2011/07/21,147,148,146,146,5600,146
2011/07/22,146,147,145,145,10400,145
2011/07/25,145,146,145,145,3500,145
2011/07/26,145,145,143,145,11700,145
2011/07/27,146,146,145,146,4500,146
2011/07/28,144,144,142,144,5800,144
2011/07/29,144,144,141,143,700,143
2011/08/01,144,144,141,141,3800,141
2011/08/02,141,142,140,140,2800,140
2011/08/03,138,139,135,137,5400,137
2011/08/04,135,135,135,135,1400,135
2011/08/05,130,131,120,131,18900,131
2011/08/08,128,130,128,128,4600,128
2011/08/09,111,123,111,121,8800,121
2011/08/10,125,132,125,131,4100,131
2011/08/11,165,181,161,181,733800,181
2011/08/12,211,231,174,175,1270200,175
2011/08/15,175,225,162,225,1058400,225
2011/08/16,231,298,231,271,2832500,271
2011/08/17,295,320,275,289,1220600,289
2011/08/18,289,290,252,255,368600,255
2011/08/19,252,263,231,240,327900,240
2011/08/22,236,312,231,271,1507100,271
2011/08/23,266,304,240,252,938600,252
2011/08/24,268,284,241,252,456800,252
2011/08/25,250,257,234,243,155500,243
2011/08/26,237,238,219,231,164300,231
2011/08/29,244,245,225,227,141700,227
2011/08/30,231,231,215,220,119400,220
2011/08/31,225,225,210,216,101400,216
2011/09/01,230,260,228,242,766300,242
2011/09/02,234,244,226,226,163100,226
2011/09/05,221,230,216,223,70300,223
2011/09/06,219,229,210,210,82800,210
2011/09/07,217,217,200,209,54700,209
2011/09/08,205,223,201,208,65100,208
2011/09/09,210,210,199,201,49300,201
2011/09/12,208,209,194,196,18900,196
2011/09/13,190,197,183,194,53000,194
2011/09/14,193,193,184,186,15200,186
2011/09/15,183,194,177,186,51700,186
2011/09/16,183,187,175,181,25200,181
2011/09/20,186,210,181,196,162600,196
2011/09/21,189,191,182,183,42300,183
2011/09/22,178,179,167,167,24700,167
2011/09/26,156,159,145,150,35000,150
2011/09/27,174,174,147,148,39400,148
2011/09/28,156,156,150,155,14100,155
2011/09/29,148,158,148,153,10100,153
2011/09/30,157,158,151,158,15400,158
2011/10/03,154,154,145,147,19200,147
2011/10/04,143,148,139,139,15800,139
2011/10/05,139,181,138,156,417300,156
2011/10/06,147,156,144,149,81300,149
2011/10/07,147,156,145,149,34300,149
2011/10/11,154,181,154,158,261100,158
2011/10/12,163,165,154,159,31000,159
2011/10/13,161,169,157,157,24600,157
2011/10/14,157,157,151,152,31600,152
2011/10/17,152,154,149,150,20400,150
2011/10/18,150,174,150,159,292500,159
2011/10/19,209,209,201,209,300500,209
2011/10/20,219,256,205,216,1120100,216
2011/10/21,200,213,183,188,197400,188
2011/10/24,197,226,194,207,599100,207
2011/10/25,200,202,194,196,117200,196
2011/10/26,195,195,187,194,55800,194
2011/10/27,190,191,184,186,34400,186
2011/10/28,187,190,183,183,40200,183
2011/10/31,180,199,176,194,100400,194
2011/11/01,190,193,186,188,62800,188
2011/11/02,188,188,183,183,20200,183
2011/11/04,183,191,182,183,43000,183
2011/11/07,189,189,183,183,24400,183
2011/11/08,184,201,182,187,190200,187
2011/11/09,186,188,181,183,36300,183
2011/11/10,176,188,173,177,54100,177
2011/11/11,180,181,172,175,26400,175
2011/11/14,160,177,160,177,57200,177
2011/11/15,172,177,169,171,28700,171
2011/11/16,169,175,164,166,17500,166
2011/11/17,165,170,160,164,16400,164
2011/11/18,161,163,160,163,11800,163
2011/11/21,163,163,153,154,25200,154
2011/11/22,151,162,145,152,21100,152
2011/11/24,148,190,146,178,400700,178
2011/11/25,173,185,162,168,101900,168
2011/11/28,164,168,163,168,14300,168
2011/11/29,166,171,162,167,23600,167
2011/11/30,167,167,162,164,15300,164
2011/12/01,165,174,162,165,74800,165
2011/12/02,164,167,160,163,26700,163
2011/12/05,163,167,162,167,11200,167
2011/12/06,169,169,164,165,15500,165
2011/12/07,164,169,164,167,24100,167
2011/12/08,168,183,166,168,73000,168
2011/12/09,167,171,166,166,25400,166
2011/12/12,170,173,169,170,16100,170
2011/12/13,170,171,168,170,12200,170
2011/12/14,175,201,170,170,459600,170
2011/12/15,175,176,166,168,59500,168
2011/12/16,169,169,166,167,21600,167
2011/12/19,168,169,163,165,15400,165
2011/12/20,166,168,163,167,10700,167
2011/12/21,169,172,167,167,9100,167
2011/12/22,166,168,166,168,8000,168
2011/12/26,165,169,165,167,9500,167
2011/12/27,167,169,166,168,10700,168
2011/12/28,169,171,166,167,5800,167
2011/12/29,168,181,167,172,80200,172
2011/12/30,169,170,167,168,19400,168
2012/01/04,169,172,169,170,10400,170
2012/01/05,171,176,169,170,13800,170
2012/01/06,170,174,170,173,21500,173
2012/01/10,173,178,168,168,35700,168
2012/01/11,167,167,162,162,33800,162
2012/01/12,163,173,163,164,44000,164
2012/01/13,163,167,163,165,9400,165
2012/01/16,168,169,165,166,16900,166
2012/01/17,167,167,163,163,38700,163
2012/01/18,163,164,163,163,10200,163
2012/01/19,165,168,163,164,7300,164
2012/01/20,164,164,162,163,10200,163
2012/01/23,164,169,164,165,14100,165
2012/01/24,167,169,166,166,6000,166
2012/01/25,168,168,167,167,6800,167
2012/01/26,168,169,165,167,16300,167
2012/01/27,167,167,164,167,5100,167
2012/01/30,168,168,166,167,5400,167
2012/01/31,167,168,166,168,5500,168
2012/02/01,168,173,166,167,40600,167
2012/02/02,168,170,165,165,22300,165
2012/02/03,168,215,168,181,1530800,181
2012/02/06,174,180,170,176,153300,176
2012/02/07,175,176,165,171,142300,171
2012/02/08,171,183,170,174,96600,174
2012/02/09,179,181,174,177,44800,177
2012/02/10,181,185,178,184,45800,184
2012/02/13,189,220,180,180,586200,180
2012/02/14,189,214,188,195,389700,195
2012/02/15,199,205,193,195,107500,195
2012/02/16,197,198,185,191,62800,191
2012/02/17,209,223,192,203,427800,203
2012/02/20,197,207,195,200,83200,200
2012/02/21,199,200,193,194,46000,194
2012/02/22,194,195,187,191,65000,191
2012/02/23,191,192,188,192,18700,192
2012/02/24,195,199,188,192,36200,192
2012/02/27,190,196,190,193,19700,193
2012/02/28,189,193,188,193,18400,193
2012/02/29,189,193,189,192,12300,192
2012/03/01,189,189,184,187,50100,187
2012/03/02,184,186,182,183,23400,183
2012/03/05,184,188,184,184,11200,184
2012/03/06,189,189,184,186,16800,186
2012/03/07,184,188,183,186,4800,186
2012/03/08,184,186,183,186,3500,186
2012/03/09,186,221,184,188,525100,188
2012/03/12,193,202,189,193,76300,193
2012/03/13,194,194,192,193,14700,193
2012/03/14,194,195,190,194,45900,194
2012/03/15,193,193,190,190,13400,190
2012/03/16,192,193,188,190,16100,190
2012/03/19,189,190,185,187,33000,187
2012/03/21,184,193,183,189,35300,189
2012/03/22,190,190,183,186,24500,186
2012/03/23,185,192,185,188,13800,188
2012/03/26,188,193,188,189,8700,189
2012/03/27,187,192,187,189,19100,189
2012/03/28,184,192,184,189,13100,189
2012/03/29,189,189,187,188,4900,188
2012/03/30,187,191,187,189,12400,189
2012/04/02,190,201,189,191,72100,191
2012/04/03,192,193,188,190,18200,190
2012/04/04,189,190,187,188,9400,188
2012/04/05,186,188,185,188,5000,188
2012/04/06,186,188,184,187,5800,187
2012/04/09,187,187,181,184,22700,184
2012/04/10,184,184,183,184,5000,184
2012/04/11,181,184,181,184,5200,184
2012/04/12,184,184,181,183,9600,183
2012/04/13,185,188,185,187,11700,187
2012/04/16,185,185,182,183,15800,183
2012/04/17,186,186,184,184,2800,184
2012/04/18,186,186,185,185,2800,185
2012/04/19,185,186,177,185,25000,185
2012/04/20,182,184,181,183,5200,183
2012/04/23,185,185,175,180,37400,180
2012/04/24,179,179,174,175,20500,175
2012/04/25,177,177,173,174,18100,174
2012/04/26,174,177,174,177,6900,177
2012/04/27,176,180,174,176,12500,176
2012/05/01,175,186,175,180,56800,180
2012/05/02,179,179,177,179,6300,179
2012/05/07,173,176,166,171,24700,171
2012/05/08,170,185,168,181,27500,181
2012/05/09,181,181,172,178,14000,178
2012/05/10,173,179,173,175,7300,175
2012/05/11,190,192,158,160,227400,160
2012/05/14,164,168,156,158,22200,158
2012/05/15,143,148,135,147,27600,147
2012/05/16,143,149,141,143,20700,143
2012/05/17,147,147,143,146,5100,146
2012/05/18,146,146,138,141,15700,141
2012/05/21,142,143,139,139,4400,139
2012/05/22,141,145,141,142,19100,142
2012/05/23,141,141,139,139,17600,139
2012/05/24,140,143,140,141,20500,141
2012/05/25,143,153,143,144,47800,144
2012/05/28,146,146,142,143,4400,143
2012/05/29,146,146,143,143,1700,143
2012/05/30,143,147,143,146,4800,146
2012/05/31,143,145,143,144,1100,144
2012/06/01,143,144,141,142,4100,142
2012/06/04,140,140,135,137,11200,137
2012/06/05,136,141,136,141,2400,141
2012/06/06,139,145,139,142,3700,142
2012/06/07,137,143,137,143,17600,143
2012/06/08,142,142,140,141,2800,141
2012/06/11,141,148,141,144,24800,144
2012/06/12,144,145,143,144,5200,144
2012/06/13,145,166,145,150,68300,150
2012/06/14,151,151,147,147,5700,147
2012/06/15,148,151,144,144,7200,144
2012/06/18,144,149,144,149,1900,149
2012/06/19,149,150,145,147,7100,147
2012/06/20,148,151,145,149,5700,149
2012/06/21,151,154,149,153,11000,153
2012/06/22,149,152,148,152,9400,152
2012/06/25,153,154,150,150,14400,150
2012/06/26,150,150,146,148,7400,148
2012/06/27,149,150,149,149,2200,149
2012/06/28,151,156,148,155,16200,155
2012/06/29,153,154,152,152,8000,152
2012/07/02,152,154,150,154,8900,154
2012/07/03,154,154,150,153,1700,153
2012/07/04,154,157,152,154,8900,154
2012/07/05,153,158,153,157,12000,157
2012/07/06,156,156,154,154,4200,154
2012/07/09,154,154,153,153,3500,153
2012/07/10,153,153,152,152,5000,152
2012/07/11,151,152,150,151,6500,151
2012/07/12,150,150,144,144,6500,144
2012/07/13,148,148,146,146,1600,146
2012/07/17,146,146,145,145,1100,145
2012/07/18,146,146,141,142,4700,142
2012/07/19,142,143,141,142,4900,142
2012/07/20,142,142,142,142,1200,142
2012/07/23,140,140,135,136,8400,136
2012/07/24,130,133,130,130,10500,130
2012/07/25,130,131,130,130,3000,130
2012/07/26,132,134,131,133,1300,133
2012/07/27,134,134,134,134,600,134
2012/07/30,135,136,135,136,2200,136
2012/07/31,135,135,135,135,1100,135
2012/08/01,134,134,134,134,500,134
2012/08/02,133,134,129,134,3900,134
2012/08/03,131,133,130,133,1700,133
2012/08/06,133,133,129,132,5700,132
2012/08/07,130,134,130,134,3200,134
2012/08/08,131,134,131,133,2100,133
2012/08/09,133,135,130,134,5000,134
2012/08/10,133,134,130,134,9300,134
2012/08/13,133,147,133,141,25100,141
2012/08/14,133,133,126,133,37700,133
2012/08/15,128,129,125,128,11800,128
2012/08/16,128,128,122,127,7000,127
2012/08/17,127,129,126,129,4300,129
2012/08/20,130,135,128,130,9900,130
2012/08/21,130,130,129,129,5200,129
2012/08/22,129,175,129,146,502500,146
2012/08/23,144,144,135,136,82300,136
2012/08/24,143,186,143,166,1394300,166
2012/08/27,158,216,154,216,2429600,216
2012/08/28,216,248,191,191,1694700,191
2012/08/29,200,241,187,241,1844000,241
2012/08/30,272,321,248,272,3823100,272
2012/08/31,268,319,213,228,1844200,228
2012/09/03,227,263,226,233,795700,233
2012/09/04,227,238,205,206,722100,206
2012/09/05,220,229,205,205,331700,205
2012/09/06,215,215,199,199,152800,199
2012/09/07,208,246,205,226,2323800,226
2012/09/10,236,298,236,290,2745500,290
2012/09/11,280,345,276,310,2666200,310
2012/09/12,342,354,316,325,1683100,325
2012/09/13,325,330,294,305,551300,305
2012/09/14,320,321,291,296,414500,296
2012/09/18,303,320,287,310,604300,310
2012/09/19,305,309,293,298,155300,298
2012/09/20,294,295,272,275,202600,275
2012/09/21,282,282,263,268,148200,268
2012/09/24,276,335,276,329,1836500,329
2012/09/25,323,370,304,314,2083600,314
2012/09/26,324,340,306,308,723300,308
2012/09/27,304,320,286,296,353600,296
2012/09/28,304,304,287,289,162400,289
2012/10/01,290,316,279,300,274700,300
2012/10/02,298,312,290,295,151600,295
2012/10/03,299,299,281,286,75300,286
2012/10/04,284,290,267,275,102400,275
2012/10/05,279,279,264,273,113000,273
2012/10/09,272,272,255,260,87600,260
2012/10/10,252,253,240,241,77900,241
2012/10/11,264,278,238,241,288200,241
2012/10/12,235,235,220,230,129900,230
2012/10/15,231,231,222,224,46000,224
2012/10/16,224,232,214,222,114100,222
2012/10/17,224,260,222,242,572400,242
2012/10/18,234,239,231,232,126200,232
2012/10/19,229,232,225,228,68600,228
2012/10/22,219,228,218,226,40900,226
2012/10/23,226,263,222,238,654500,238
2012/10/24,250,254,239,243,153000,243
2012/10/25,244,250,233,241,108500,241
2012/10/26,239,247,232,239,74900,239
2012/10/29,238,240,233,233,27600,233
2012/10/30,233,240,230,236,22900,236
2012/10/31,230,235,225,230,25600,230
2012/11/01,229,231,224,225,33300,225
2012/11/02,225,231,224,227,20400,227
2012/11/05,224,224,219,222,19200,222
2012/11/06,215,218,209,211,70000,211
2012/11/07,211,211,200,207,46200,207
2012/11/08,204,204,201,201,28000,201
2012/11/09,205,238,205,219,292000,219
2012/11/12,219,220,206,207,46800,207
2012/11/13,229,229,203,208,94400,208
2012/11/14,206,206,195,200,47000,200
2012/11/15,195,203,190,200,38400,200
2012/11/16,196,209,196,202,34800,202
2012/11/19,200,206,199,202,16600,202
2012/11/20,206,222,206,211,149600,211
2012/11/21,210,210,205,207,28800,207
2012/11/22,205,205,201,204,20000,204
2012/11/26,202,207,202,206,21600,206
2012/11/27,206,209,201,206,30700,206
2012/11/28,205,207,203,207,17600,207
2012/11/29,208,247,208,233,851900,233
2012/11/30,225,242,216,223,149400,223
2012/12/03,221,222,210,214,52400,214
2012/12/04,215,221,212,216,30600,216
2012/12/05,217,219,213,216,20700,216
2012/12/06,215,228,215,222,63900,222
2012/12/07,221,221,215,217,30500,217
2012/12/10,217,218,213,216,16700,216
2012/12/11,216,216,212,212,19300,212
2012/12/12,214,232,214,223,189900,223
2012/12/13,222,228,220,222,39300,222
2012/12/14,222,227,222,227,44300,227
2012/12/17,227,252,224,234,527500,234
2012/12/18,232,239,217,226,116500,226
2012/12/19,228,231,224,225,42600,225
2012/12/20,228,228,222,225,20100,225
2012/12/21,228,232,226,228,54500,228
2012/12/25,228,250,228,244,218900,244
2012/12/26,248,248,238,244,53500,244
2012/12/27,248,268,245,261,205100,261
2012/12/28,261,294,255,278,580400,278
2013/01/04,291,296,272,278,180200,278
2013/01/07,270,275,252,262,176300,262
2013/01/08,267,269,257,263,71900,263
2013/01/09,266,266,257,259,44500,259
2013/01/10,257,260,257,258,21800,258
2013/01/11,245,254,243,247,81400,247
2013/01/15,245,251,240,251,50800,251
2013/01/16,253,253,240,244,68300,244
2013/01/17,243,243,229,230,79100,230
2013/01/18,220,224,218,224,132400,224
2013/01/21,225,240,224,231,42800,231
2013/01/22,226,229,221,221,50300,221
2013/01/23,221,222,217,217,25200,217
2013/01/24,216,220,213,219,35000,219
2013/01/25,220,225,220,221,48000,221
2013/01/28,224,225,221,221,34500,221
2013/01/29,220,238,218,238,164400,238
2013/01/30,236,259,235,242,278800,242
2013/01/31,280,289,255,260,794400,260
2013/02/01,254,257,246,256,90500,256
2013/02/04,240,250,232,239,76200,239
2013/02/05,239,245,230,238,44200,238
2013/02/06,235,237,229,236,40500,236
2013/02/07,236,236,230,231,23400,231
2013/02/08,232,233,224,224,41400,224
2013/02/12,225,232,223,223,26500,223
2013/02/13,222,225,215,217,44500,217
2013/02/14,215,224,210,224,31400,224
2013/02/15,216,220,210,218,20300,218
2013/02/18,215,223,210,223,15100,223
2013/02/19,227,227,223,227,15000,227
2013/02/20,226,238,217,237,62900,237
2013/02/21,245,264,239,243,368900,243
2013/02/22,238,246,225,234,55200,234
2013/02/25,232,235,227,230,30700,230
2013/02/26,226,230,222,226,23200,226
2013/02/27,225,231,225,227,19900,227
2013/02/28,230,230,222,229,24700,229
2013/03/01,225,229,222,229,51800,229
2013/03/04,231,235,228,235,58000,235
2013/03/05,235,244,234,244,81600,244
2013/03/06,239,244,238,239,26800,239
2013/03/07,242,246,233,246,46200,246
2013/03/08,240,243,237,239,20000,239
2013/03/11,242,244,235,242,28700,242
2013/03/12,236,245,230,245,36800,245
2013/03/13,237,244,237,242,11900,242
2013/03/14,242,243,233,242,21400,242
2013/03/15,242,242,232,240,16400,240
2013/03/18,235,243,230,240,45100,240
2013/03/19,236,240,230,239,36900,239
2013/03/21,239,240,229,240,38100,240
2013/03/22,235,241,230,240,31900,240
2013/03/25,224,235,224,232,55900,232
2013/03/26,229,236,227,234,42100,234
2013/03/27,232,244,232,237,30600,237
2013/03/28,242,277,237,256,489400,256
2013/03/29,264,266,243,256,103400,256
2013/04/01,251,258,243,256,54300,256
2013/04/02,247,247,223,238,226800,238
2013/04/03,237,238,229,238,89300,238
2013/04/04,232,239,226,226,51000,226
2013/04/05,230,240,228,239,57100,239
2013/04/08,236,238,230,238,46800,238
2013/04/09,237,271,237,271,186900,271
2013/04/10,264,265,249,264,178200,264
2013/04/11,262,265,256,265,44400,265
2013/04/12,260,265,250,263,35900,263
2013/04/15,262,275,261,274,72400,274
2013/04/16,261,278,260,277,78700,277
2013/04/17,276,281,270,280,63000,280
2013/04/18,280,288,276,286,82000,286
2013/04/19,287,297,287,297,153900,297
2013/04/22,298,306,297,306,106100,306
2013/04/23,308,310,302,306,93600,306
2013/04/24,298,309,285,299,78500,299
2013/04/25,300,307,287,300,54800,300
2013/04/26,292,298,275,275,36200,275
2013/04/30,272,296,266,295,30000,295
2013/05/01,285,296,277,296,47200,296
2013/05/02,285,299,265,291,60200,291
2013/05/07,299,313,295,313,51300,313
2013/05/08,315,315,302,315,32900,315
2013/05/09,315,321,310,321,45600,321
2013/05/10,321,327,313,327,35200,327
2013/05/13,282,328,282,322,96500,322
2013/05/14,322,326,274,300,158400,300
2013/05/15,288,295,264,288,74100,288
2013/05/16,280,285,252,275,54300,275
2013/05/17,275,283,272,275,10400,275
2013/05/20,284,288,279,286,13900,286
2013/05/21,287,292,283,292,14200,292
2013/05/22,291,292,277,292,12600,292
2013/05/23,291,295,273,290,37000,290
2013/05/24,280,290,260,290,65100,290
2013/05/27,280,291,267,288,29100,288
2013/05/28,285,287,261,264,147200,264
2013/05/29,267,268,244,252,255500,252
2013/05/30,252,254,240,251,59200,251
2013/05/31,249,275,246,275,217100,275
2013/06/03,255,260,251,260,77900,260
2013/06/04,260,267,245,261,88200,261
2013/06/05,261,261,239,250,245400,250
2013/06/06,243,244,230,238,42700,238
2013/06/07,225,238,182,223,210200,223
2013/06/10,218,218,193,210,700100,210
2013/06/11,218,241,208,218,660900,218
2013/06/12,207,215,201,208,88900,208
2013/06/13,206,212,196,197,88100,197
2013/06/14,207,207,195,196,73700,196
2013/06/17,196,202,191,196,37200,196
2013/06/18,200,203,197,199,20700,199
2013/06/19,199,202,195,197,22700,197
2013/06/20,192,200,192,198,27100,198
2013/06/21,195,199,190,198,49100,198
2013/06/24,196,197,191,192,37600,192
2013/06/25,189,189,182,185,33700,185
2013/06/26,183,186,163,165,50400,165
2013/06/27,175,175,158,172,28800,172
2013/06/28,174,176,168,174,7500,174
2013/07/01,174,183,174,182,11100,182
2013/07/02,182,193,180,192,23200,192
2013/07/03,189,197,189,192,37000,192
2013/07/04,193,199,192,199,28800,199
2013/07/05,198,199,194,199,12900,199
2013/07/08,198,204,198,198,23800,198
2013/07/09,203,203,196,198,23900,198
2013/07/10,198,201,193,197,18100,197
2013/07/11,194,195,190,195,13000,195
2013/07/12,198,198,189,197,12800,197
2013/07/16,197,197,191,194,10800,194
2013/07/17,191,191,186,190,7900,190
2013/07/18,187,190,187,188,5900,188
2013/07/19,193,193,182,188,11300,188
2013/07/22,192,192,181,184,23000,184
2013/07/23,181,184,181,182,11200,182
2013/07/24,183,185,181,184,14300,184
2013/07/25,185,188,181,182,9800,182
2013/07/26,184,184,182,182,6000,182
2013/07/29,180,181,171,171,12400,171
2013/07/30,171,176,171,173,3600,173
2013/07/31,179,179,174,174,5000,174
2013/08/01,173,173,168,170,9300,170
2013/08/02,167,172,167,171,8800,171
2013/08/05,171,178,170,174,9900,174
2013/08/06,174,179,172,179,12700,179
2013/08/07,178,178,176,176,6500,176
2013/08/08,175,178,175,176,9600,176
2013/08/09,176,176,174,175,15200,175
2013/08/12,179,179,163,171,30900,171
2013/08/13,166,168,163,168,9100,168
2013/08/14,173,206,170,179,348000,179
2013/08/15,176,178,168,171,48800,171
2013/08/16,170,173,168,171,21200,171
2013/08/19,173,174,170,171,9200,171
2013/08/20,172,174,170,171,22000,171
2013/08/21,171,172,168,169,11800,169
2013/08/22,168,169,167,168,5700,168
2013/08/23,168,172,166,166,17100,166
2013/08/26,168,170,168,170,10000,170
2013/08/27,171,171,169,170,5000,170
2013/08/28,169,170,166,167,16000,167
2013/08/29,168,169,165,168,4600,168
2013/08/30,167,169,162,162,10100,162
2013/09/02,163,165,163,165,3100,165
2013/09/03,165,168,165,168,5700,168
2013/09/04,166,171,166,170,3500,170
2013/09/05,170,171,168,170,2500,170
2013/09/06,168,169,167,168,7700,168
2013/09/09,170,175,167,167,19000,167
2013/09/10,171,171,167,171,9300,171
2013/09/11,172,176,172,172,13300,172
2013/09/12,172,176,169,173,23200,173
2013/09/13,173,189,171,183,92800,183
2013/09/17,186,197,186,195,129600,195
2013/09/18,199,203,186,186,87100,186
2013/09/19,191,193,187,190,9800,190
2013/09/20,191,191,185,187,17600,187
2013/09/24,189,190,185,187,15200,187
2013/09/25,187,188,183,183,18200,183
2013/09/26,180,185,180,185,5800,185
2013/09/27,184,188,184,185,13800,185
2013/09/30,185,190,183,185,15600,185
2013/10/01,188,189,186,186,4200,186
2013/10/02,186,187,180,187,12400,187
2013/10/03,186,217,184,198,274900,198
2013/10/04,195,207,189,193,99600,193
2013/10/07,196,202,180,180,42000,180
2013/10/08,175,199,175,195,42200,195
2013/10/09,185,191,182,188,11900,188
2013/10/10,190,190,185,186,10000,186
2013/10/11,190,194,188,190,6800,190
2013/10/15,188,191,187,189,7600,189
2013/10/16,189,189,183,187,16500,187
2013/10/17,188,188,185,185,16800,185
2013/10/18,192,192,186,186,5800,186
2013/10/21,187,192,187,191,25600,191
2013/10/22,194,208,190,205,43700,205
2013/10/23,206,220,195,217,236500,217
2013/10/24,211,227,200,217,146200,217
2013/10/25,221,221,207,213,31300,213
2013/10/28,215,219,210,217,35800,217
2013/10/29,219,233,216,221,134800,221
2013/10/30,229,229,210,212,120900,212
2013/10/31,212,215,203,210,22200,210
2013/11/01,204,210,186,194,48000,194
2013/11/05,193,215,193,214,47100,214
2013/11/06,215,222,210,222,76700,222
2013/11/07,223,227,207,208,100500,208
2013/11/08,215,235,212,227,240100,227
2013/11/11,222,226,205,208,104200,208
2013/11/12,203,218,200,213,56200,213
2013/11/13,205,208,202,205,50500,205
2013/11/14,201,201,194,197,87200,197
2013/11/15,193,197,192,196,9600,196
2013/11/18,194,202,194,202,14200,202
2013/11/19,201,201,197,198,12300,198
2013/11/20,197,207,197,203,11700,203
2013/11/21,207,283,207,250,1681400,250
2013/11/22,226,239,218,218,691100,218
2013/11/25,214,217,208,213,168400,213
2013/11/26,212,220,209,216,98700,216
2013/11/27,213,216,210,211,44700,211
2013/11/28,212,214,209,209,29200,209
2013/11/29,210,213,207,210,45700,210
2013/12/02,210,213,210,212,19700,212
2013/12/03,214,237,212,222,241100,222
2013/12/04,220,220,214,217,76600,217
2013/12/05,218,256,215,223,480900,223
2013/12/06,222,227,220,227,74500,227
2013/12/09,230,269,226,250,402900,250
2013/12/10,248,255,231,235,101300,235
2013/12/11,236,239,219,225,123500,225
2013/12/12,223,231,222,228,44900,228
2013/12/13,225,234,224,228,30800,228
2013/12/16,232,233,216,216,71100,216
2013/12/17,218,226,217,221,48700,221
2013/12/18,221,224,220,224,8300,224
2013/12/19,225,226,214,217,49100,217
2013/12/20,217,218,214,215,16200,215
2013/12/24,213,213,201,205,49800,205
2013/12/25,202,209,202,205,32200,205
2013/12/26,211,216,210,213,23600,213
2013/12/27,218,219,212,213,21400,213
2013/12/30,215,219,214,218,19000,218
2014/01/06,215,217,215,215,7800,215
2014/01/07,217,222,210,212,30900,212
2014/01/08,213,230,211,228,121600,228
2014/01/09,228,228,222,224,19700,224
2014/01/10,221,226,220,224,17600,224
2014/01/14,221,223,217,218,18200,218
2014/01/15,221,223,220,222,7100,222
2014/01/16,223,232,223,226,93800,226
2014/01/17,226,226,220,223,44100,223
2014/01/20,221,224,220,224,28600,224
2014/01/21,225,237,224,228,66500,228
2014/01/22,228,228,223,223,18800,223
2014/01/23,224,227,220,220,33500,220
2014/01/24,220,221,215,216,23200,216
2014/01/27,209,215,208,210,16500,210
2014/01/28,211,211,201,207,20900,207
2014/01/29,209,217,209,216,26900,216
2014/01/30,208,211,208,209,6000,209
2014/01/31,211,214,202,207,22200,207
2014/02/03,205,205,192,192,42000,192
2014/02/04,182,183,164,173,44800,173
2014/02/05,177,179,172,178,13800,178
2014/02/06,180,183,178,178,5700,178
2014/02/07,183,189,179,181,21300,181
2014/02/10,186,187,185,185,7200,185
2014/02/12,186,193,186,189,8200,189
2014/02/13,189,198,189,189,12300,189
2014/02/14,188,188,177,177,14600,177
2014/02/17,179,182,176,181,5200,181
2014/02/18,183,223,183,189,296900,189
2014/02/19,186,203,186,191,55200,191
2014/02/20,190,192,187,187,20000,187
2014/02/21,186,189,178,187,26400,187
2014/02/24,186,192,184,186,20000,186
2014/02/25,189,192,188,191,5700,191
2014/02/26,189,192,188,190,3600,190
2014/02/27,188,190,186,187,6300,187
2014/02/28,185,186,184,184,3900,184
2014/03/03,181,182,180,181,7600,181
2014/03/04,179,185,179,182,7500,182
2014/03/05,181,186,181,182,6200,182
2014/03/06,184,187,182,185,9400,185
2014/03/07,185,188,185,186,8600,186
2014/03/10,191,191,184,187,7400,187
2014/03/11,186,193,186,190,7400,190
2014/03/12,187,191,186,187,13500,187
2014/03/13,187,229,185,185,250500,185
2014/03/14,186,218,186,195,208600,195
2014/03/17,191,211,191,201,88300,201
2014/03/18,208,208,196,197,23100,197
2014/03/19,196,199,186,191,47900,191
2014/03/20,189,194,187,188,10300,188
2014/03/24,192,192,187,187,2800,187
2014/03/25,187,189,186,187,3300,187
2014/03/26,189,195,189,193,13300,193
2014/03/27,194,213,191,196,63400,196
2014/03/28,192,202,192,200,7700,200
2014/03/31,202,203,197,200,10300,200
2014/04/01,204,204,198,198,5900,198
2014/04/02,198,207,198,203,11200,203
2014/04/03,204,219,201,214,148100,214
2014/04/04,211,213,209,212,24400,212
2014/04/07,211,211,200,200,11700,200
2014/04/08,199,200,194,197,9800,197
2014/04/09,192,197,192,193,12300,193
2014/04/10,197,200,194,200,8900,200
2014/04/11,194,197,194,195,3400,195
2014/04/14,193,193,190,193,8400,193
2014/04/15,198,202,192,193,10400,193
2014/04/16,195,199,194,198,3200,198
2014/04/17,200,200,196,196,7100,196
2014/04/18,198,198,197,198,1300,198
2014/04/21,200,201,199,200,8800,200
2014/04/22,202,206,197,198,11500,198
2014/04/23,198,200,197,200,1600,200
2014/04/24,201,218,201,206,131700,206
2014/04/25,203,213,196,198,45700,198
2014/04/28,197,201,192,197,8500,197
2014/04/30,198,199,197,197,10600,197
2014/05/01,197,207,197,201,13400,201
2014/05/02,203,238,202,204,448800,204
2014/05/07,203,211,196,201,69000,201
2014/05/08,201,201,197,198,17700,198
2014/05/09,198,206,197,202,17900,202
2014/05/12,205,205,199,201,24400,201
2014/05/13,204,204,198,202,15000,202
2014/05/14,201,201,198,199,5100,199
2014/05/15,199,200,195,196,14000,196
2014/05/16,196,198,189,189,14000,189
2014/05/19,189,194,175,180,43900,180
2014/05/20,178,182,176,177,10200,177
2014/05/21,175,194,174,181,19000,181
2014/05/22,180,184,180,181,1800,181
2014/05/23,185,189,185,186,4800,186
2014/05/26,187,195,185,195,13400,195
2014/05/27,195,195,188,189,2900,189
2014/05/28,193,193,188,192,1500,192
2014/05/29,189,192,189,191,1000,191
2014/05/30,192,195,188,189,9300,189
2014/06/02,192,196,191,193,9700,193
2014/06/03,196,196,194,194,6400,194
2014/06/04,193,194,193,194,3400,194
2014/06/05,194,194,193,193,2800,193
2014/06/06,190,195,186,195,7800,195
2014/06/09,194,198,193,198,2500,198
2014/06/10,198,198,191,195,9400,195
2014/06/11,194,196,194,196,2000,196
2014/06/12,194,195,193,193,3300,193
2014/06/13,192,194,192,194,600,194
2014/06/16,194,196,194,194,900,194
2014/06/17,196,199,196,197,8900,197
2014/06/18,195,213,195,202,128900,202
2014/06/19,210,211,204,205,115500,205
2014/06/20,206,210,197,198,32200,198
2014/06/23,203,203,198,199,5200,199
2014/06/24,200,200,196,196,13000,196
2014/06/25,196,202,193,195,20300,195
2014/06/26,197,207,195,200,24800,200
2014/06/27,206,206,195,197,19500,197
2014/06/30,197,199,197,197,1800,197
2014/07/01,200,203,194,198,35700,198
2014/07/02,201,203,197,199,16600,199
2014/07/03,200,200,195,198,15700,198
2014/07/04,198,203,198,198,22500,198
2014/07/07,200,207,200,203,23300,203
2014/07/08,204,204,199,199,12900,199
2014/07/09,199,200,196,197,16800,197
2014/07/10,197,199,196,196,7700,196
2014/07/11,195,200,195,200,10700,200
2014/07/14,198,200,197,200,8500,200
2014/07/15,199,203,199,200,10900,200
2014/07/16,201,203,200,203,12100,203
2014/07/17,203,210,200,201,41600,201
2014/07/18,200,200,195,197,20400,197
2014/07/22,198,198,196,197,6500,197
2014/07/23,198,201,197,197,9200,197
2014/07/24,197,198,195,198,9600,198
2014/07/25,200,200,199,200,5100,200
2014/07/28,199,200,198,200,6700,200
2014/07/29,200,206,200,205,15400,205
2014/07/30,202,205,201,203,9700,203
2014/07/31,202,202,199,199,7400,199
2014/08/01,198,199,195,197,11600,197
2014/08/04,197,199,196,196,3400,196
2014/08/05,197,198,196,196,6100,196
2014/08/06,196,197,194,196,3700,196
2014/08/07,194,198,194,198,6300,198
2014/08/08,194,195,190,194,13300,194
2014/08/11,198,198,189,192,12000,192
2014/08/12,192,194,190,194,6900,194
2014/08/13,190,193,186,192,15000,192
2014/08/14,192,198,189,198,9000,198
2014/08/15,193,196,190,194,8000,194
2014/08/18,193,195,191,191,12000,191
2014/08/19,193,196,193,194,600,194
2014/08/20,194,194,192,193,1500,193
2014/08/21,200,200,193,199,21500,199
2014/08/22,199,199,194,194,3600,194
2014/08/25,190,197,190,195,13200,195
2014/08/26,195,198,195,195,6100,195
2014/08/27,198,210,191,200,76300,200
2014/08/28,209,234,205,205,352700,205
2014/08/29,210,217,201,204,42800,204
2014/09/01,202,207,198,201,28900,201
2014/09/02,202,205,200,204,9000,204
2014/09/03,202,207,202,203,18500,203
2014/09/04,206,210,202,209,13200,209
2014/09/05,211,218,206,208,47000,208
2014/09/08,211,217,208,208,33400,208
2014/09/09,214,269,214,237,711500,237
2014/09/10,229,259,223,229,219100,229
2014/09/11,241,249,230,232,76900,232
2014/09/12,232,235,215,221,60100,221
2014/09/16,221,221,212,217,21000,217
2014/09/17,217,217,210,211,32600,211
2014/09/18,211,213,208,208,22500,208
2014/09/19,210,220,206,210,54000,210
2014/09/22,216,255,216,218,732500,218
2014/09/24,218,235,214,217,115400,217
2014/09/25,216,218,212,213,29100,213
2014/09/26,215,226,213,219,32500,219
2014/09/29,220,220,215,216,15900,216
2014/09/30,217,219,212,213,23200,213
2014/10/01,214,215,210,210,20200,210
2014/10/02,205,209,203,206,26400,206
2014/10/03,206,209,204,207,6300,207
2014/10/06,210,217,210,215,22700,215
2014/10/07,215,215,210,210,10300,210
2014/10/08,205,212,205,207,15800,207
2014/10/09,210,236,206,222,202500,222
2014/10/10,229,265,212,227,676300,227
2014/10/14,214,219,210,210,81800,210
2014/10/15,215,217,208,208,38300,208
2014/10/16,207,207,202,202,53800,202
2014/10/17,203,204,193,196,31900,196
2014/10/20,200,206,199,205,19300,205
2014/10/21,207,207,200,200,10200,200
2014/10/22,205,206,200,203,18000,203
2014/10/23,202,204,200,203,11800,203
2014/10/24,206,206,200,202,21600,202
2014/10/27,203,218,200,217,77500,217
2014/10/28,212,216,207,207,32800,207
2014/10/29,212,216,210,214,36000,214
2014/10/30,218,218,207,207,21700,207
2014/10/31,208,209,204,206,12900,206
2014/11/04,208,208,201,203,49100,203
2014/11/05,203,206,200,206,33800,206
2014/11/06,206,207,204,205,20000,205
2014/11/07,205,207,203,204,10100,204
2014/11/10,212,247,209,214,538400,214
2014/11/11,220,222,211,213,77100,213
2014/11/12,215,219,212,215,48300,215
2014/11/13,212,214,207,209,49300,209
2014/11/14,208,211,206,206,26300,206
2014/11/17,208,210,206,208,16900,208
2014/11/18,207,224,206,213,82500,213
2014/11/19,213,219,212,213,28300,213
2014/11/20,214,220,211,218,39400,218
2014/11/21,215,226,214,221,24100,221
2014/11/25,224,230,216,216,27100,216
2014/11/26,218,220,214,216,21000,216
2014/11/27,217,219,215,216,7800,216
2014/11/28,222,222,218,219,16000,219
2014/12/01,224,224,219,222,9300,222
2014/12/02,221,226,217,220,23200,220
2014/12/03,222,230,218,223,28600,223
2014/12/04,221,226,219,220,18600,220
2014/12/05,223,223,215,218,27900,218
2014/12/08,219,222,216,216,16800,216
2014/12/09,219,220,214,216,14800,216
2014/12/10,214,214,211,213,25400,213
2014/12/11,210,212,209,211,4600,211
2014/12/12,213,215,211,213,8300,213
2014/12/15,210,211,208,210,12100,210
2014/12/16,209,210,206,206,10200,206
2014/12/17,209,209,205,208,5000,208
2014/12/18,208,211,208,210,10000,210
2014/12/19,211,212,208,210,8000,210
2014/12/22,212,213,209,211,6800,211
2014/12/24,208,209,205,205,14100,205
2014/12/25,205,206,198,201,69900,201
2014/12/26,201,206,201,206,8600,206
2014/12/29,210,210,203,205,11500,205
2014/12/30,206,209,205,205,8800,205
2015/01/05,202,211,202,208,24800,208
2015/01/06,206,208,205,207,5400,207
2015/01/07,206,215,205,210,18700,210
2015/01/08,210,213,208,208,7300,208
2015/01/09,209,214,201,201,20900,201
2015/01/13,202,217,201,206,70100,206
2015/01/14,208,209,205,206,6500,206
2015/01/15,204,206,203,204,18000,204
2015/01/16,204,204,200,202,22500,202
2015/01/19,204,207,203,204,12800,204
2015/01/20,207,208,204,207,12500,207
2015/01/21,205,207,204,205,6300,205
2015/01/22,207,211,205,209,23800,209
2015/01/23,212,219,207,207,33200,207
2015/01/26,210,212,206,207,10800,207
2015/01/27,213,216,209,210,20000,210
2015/01/28,209,211,208,209,9700,209
2015/01/29,209,211,208,208,10100,208
2015/01/30,207,209,206,207,13000,207
2015/02/02,209,211,205,208,10600,208
2015/02/03,208,211,204,205,10700,205
2015/02/04,209,210,206,207,5600,207
2015/02/05,208,212,208,211,11600,211
2015/02/06,211,212,207,207,5700,207
2015/02/09,208,210,207,207,1500,207
2015/02/10,207,210,207,209,2900,209
2015/02/12,211,215,209,210,13500,210
2015/02/13,210,211,205,211,18600,211
2015/02/16,212,236,209,236,139800,236
2015/02/17,230,230,214,216,115600,216
2015/02/18,224,296,224,296,2726900,296
2015/02/19,334,376,326,376,915000,376
2015/02/20,432,456,420,456,555500,456
2015/02/23,536,536,506,536,383100,536
2015/02/24,636,636,636,636,27400,636
2015/02/25,736,736,736,736,24900,736
2015/02/26,856,875,645,666,5111000,666
2015/02/27,766,766,766,766,65200,766
2015/03/02,835,844,669,680,1880900,680
2015/03/03,643,646,580,580,606700,580
2015/03/04,562,577,508,526,799200,526
2015/03/05,516,538,487,498,552900,498
2015/03/06,502,515,474,487,338400,487
2015/03/09,475,561,470,481,1420600,481
2015/03/10,466,500,450,474,307100,474
2015/03/11,450,495,449,455,209300,455
2015/03/12,463,486,442,442,217100,442
2015/03/13,450,450,415,421,156400,421
2015/03/16,427,438,417,423,124000,423
2015/03/17,415,416,392,400,133600,400
2015/03/18,404,456,391,413,548800,413
2015/03/19,398,398,385,390,103300,390
2015/03/20,414,427,392,397,163600,397
2015/03/23,413,425,401,401,65200,401
2015/03/24,394,414,391,409,101800,409
2015/03/25,404,410,393,395,61400,395
2015/03/26,403,475,403,475,930200,475
2015/03/27,512,540,445,465,2016500,465
2015/03/30,441,496,412,424,676500,424
2015/03/31,430,440,416,416,158900,416
2015/04/01,412,412,389,389,176800,389
2015/04/02,397,443,392,395,364500,395
2015/04/03,400,435,387,388,338700,388
2015/04/06,396,398,380,385,68800,385
2015/04/07,412,415,390,393,136200,393
2015/04/08,385,395,385,395,67800,395
2015/04/09,400,402,390,390,47000,390
2015/04/10,396,396,387,389,25400,389
2015/04/13,389,398,386,391,43900,391
2015/04/14,394,414,389,401,103400,401
2015/04/15,396,406,395,402,38500,402
2015/04/16,401,405,391,394,48000,394
2015/04/17,395,395,388,388,37600,388
2015/04/20,380,380,360,367,50800,367
2015/04/21,365,368,360,361,36100,361
2015/04/22,367,372,363,368,20600,368
2015/04/23,369,427,368,397,511200,397
2015/04/24,405,407,388,397,89800,397
2015/04/27,402,404,395,402,60700,402
2015/04/28,394,404,390,390,43300,390
2015/04/30,385,447,382,414,543900,414
2015/05/01,421,494,418,494,1676100,494
2015/05/07,532,574,494,574,2099800,574
2015/05/08,544,550,479,479,1512800,479
2015/05/11,465,509,453,468,465000,468
2015/05/12,459,477,443,447,180100,447
2015/05/13,443,449,427,436,110900,436
2015/05/14,436,436,421,430,51600,430
2015/05/15,414,420,403,405,67000,405
2015/05/18,397,431,397,406,89100,406
2015/05/19,399,413,398,412,42200,412
2015/05/20,420,420,409,410,27300,410
2015/05/21,414,417,404,404,24300,404
2015/05/22,402,403,396,396,35800,396
2015/05/25,400,405,391,397,31300,397
2015/05/26,396,405,395,405,22500,405
2015/05/27,400,405,399,405,15300,405
2015/05/28,407,429,400,402,97100,402
2015/05/29,398,408,398,400,20800,400
2015/06/01,399,407,397,407,28500,407
2015/06/02,403,407,400,403,17700,403
2015/06/03,401,413,400,406,32700,406
2015/06/04,411,486,407,486,555900,486
2015/06/05,522,557,450,450,1735800,450
2015/06/08,442,446,423,423,157600,423
2015/06/09,418,418,406,408,74000,408
2015/06/10,408,488,408,488,1200000,488
2015/06/11,496,496,437,443,575500,443
2015/06/12,440,516,430,444,448900,444
2015/06/15,430,500,430,458,314300,458
2015/06/16,459,498,451,469,142300,469
2015/06/17,461,477,456,456,55900,456
2015/06/18,462,462,445,445,37200,445
2015/06/19,445,447,437,438,28000,438
2015/06/22,443,447,438,441,17000,441
2015/06/23,449,458,442,449,31300,449
2015/06/24,456,456,443,448,20100,448
2015/06/25,445,480,445,453,48300,453
2015/06/26,460,461,442,446,26400,446
2015/06/29,425,432,412,421,42500,421
2015/06/30,415,418,410,415,31700,415
2015/07/01,415,476,412,430,166000,430
