2012/02/28,44200,44900,44000,44000,21,440
2012/02/29,42750,42800,42700,42700,3,427
2012/03/01,44000,44000,43000,43000,44,430
2012/03/05,42300,42600,41950,42000,23,420
2012/03/06,42350,42500,41800,41800,33,418
2012/03/07,41950,42500,41500,41500,30,415
2012/03/09,42250,42500,41950,42500,30,425
2012/03/12,42000,42500,42000,42500,3,425
2012/03/13,42500,42500,42100,42100,9,421
2012/03/14,42100,42350,41850,42000,26,420
2012/03/15,42000,42150,41800,41900,63,419
2012/03/19,42050,42500,42000,42500,41,425
2012/03/21,42700,42700,42100,42200,45,422
2012/03/23,42350,42750,41800,42000,33,420
2012/03/26,42200,42500,41700,42100,38,421
2012/03/27,42100,42100,41900,42100,22,421
2012/03/29,41600,42200,41400,41400,20,414
2012/03/30,41250,41600,41000,41100,31,411
2012/04/02,41800,41800,41800,41800,1,418
2012/04/03,42500,42800,42500,42800,4,428
2012/04/16,40400,40400,40400,40400,2,404
2012/04/20,40000,40000,40000,40000,2,400
2012/04/23,40000,40400,39900,39900,82,399
2012/04/24,39300,39300,39300,39300,1,393
2012/04/26,38600,38600,38600,38600,3,386
2012/04/27,39200,39400,38650,39100,36,391
2012/05/01,38800,39450,37000,37000,52,370
2012/05/02,37750,38500,37100,37800,82,378
2012/05/07,36800,37800,36000,36200,99,362
2012/05/08,36500,37500,36500,37500,86,375
2012/05/09,36900,37000,36500,36900,98,369
2012/05/10,37000,39950,37000,38500,306,385
2012/05/11,38650,38650,37300,38500,207,385
2012/05/14,37100,38300,37100,37100,208,371
2012/05/15,34100,35300,33300,35300,432,353
2012/05/16,35000,36500,34850,35400,104,354
2012/05/17,35000,37200,34500,37000,159,370
2012/05/18,35000,37000,35000,35500,149,355
2012/05/21,35500,36000,34550,36000,153,360
2012/05/22,35300,36000,35250,35500,80,355
2012/05/23,35500,35500,33900,34000,193,340
2012/05/24,34100,35700,32900,35700,229,357
2012/05/28,35600,35800,34000,34800,186,348
2012/05/29,34750,36700,34500,36700,388,367
2012/05/31,37200,37200,36150,36600,108,366
2012/06/01,37300,37300,36000,36500,110,365
2012/06/04,34500,35700,34000,34000,274,340
2012/06/06,34100,35000,34100,35000,88,350
2012/06/08,36200,36200,35000,35600,89,356
2012/06/11,36000,36150,35150,35500,63,355
2012/06/12,35500,36000,35100,36000,49,360
2012/06/14,36100,39800,36000,39100,445,391
2012/06/15,39000,40750,38700,39300,566,393
2012/06/18,40300,41400,40050,41400,277,414
2012/06/19,41600,41850,40900,41700,281,417
2012/06/20,41700,41750,40050,40800,166,408
2012/06/25,41700,41700,40900,41500,96,415
2012/06/28,40300,41000,40150,40300,116,403
2012/07/02,41000,41000,40000,40400,160,404
2012/07/03,40500,40900,40350,40500,80,405
2012/07/04,40600,40900,40150,40500,88,405
2012/07/05,40500,40700,40150,40400,147,404
2012/07/09,42000,44000,40200,43000,984,430
2012/07/10,42900,42900,41900,42600,179,426
2012/07/12,42700,42700,40550,41600,81,416
2012/07/13,41800,41800,40650,41800,105,418
2012/07/17,40750,41700,40700,41100,87,411
2012/07/18,40850,41600,39500,39500,140,395
2012/07/19,39150,39450,38000,39100,212,391
2012/07/20,39100,39200,37500,38000,74,380
2012/07/24,35750,36600,35500,35500,165,355
2012/07/25,36200,36450,35600,35800,182,358
2012/07/27,36800,39000,36550,38000,215,380
2012/08/01,35250,35300,34800,35200,78,352
2012/08/02,35300,35900,35100,35900,104,359
2012/08/03,35500,36150,34800,35700,94,357
2012/08/06,35100,35700,35000,35700,48,357
2012/08/07,35500,35500,35000,35300,92,353
2012/08/09,34550,35100,34550,35000,53,350
2012/08/13,34500,35000,34000,34200,167,342
2012/08/15,34100,34550,34050,34500,48,345
2012/08/16,34600,35800,34500,35500,76,355
2012/08/20,35800,36500,35800,36500,118,365
2012/08/21,36800,36900,36000,36100,80,361
2012/08/23,36000,36000,35400,36000,111,360
2012/08/24,36450,36450,35600,36000,55,360
2012/08/28,35600,35600,35000,35100,48,351
2012/08/29,35100,35600,35000,35500,102,355
2012/08/30,35300,35550,35200,35400,66,354
2012/09/03,35300,35300,34800,35000,17,350
2012/09/05,34950,35450,34800,35000,86,350
2012/09/06,34300,34900,34200,34900,70,349
2012/09/07,34500,34950,34500,34700,16,347
2012/09/10,35000,35000,34600,34600,19,346
2012/09/12,34750,35100,34150,34300,70,343
2012/09/13,34350,35500,34350,35500,91,355
2012/09/18,35150,35300,34500,35000,156,350
2012/09/25,35000,35400,34500,35300,251,353
2012/09/26,35000,35300,35000,35100,67,351
2012/09/28,35500,35500,35000,35000,67,350
2012/10/01,35000,35200,34650,35000,256,350
2012/10/02,34700,34800,34600,34600,73,346
2012/10/03,34600,34650,34500,34600,100,346
2012/10/04,34550,35100,34300,35000,81,350
2012/10/05,34800,35600,34750,35600,105,356
2012/10/09,37350,38500,36100,36100,367,361
2012/10/10,36100,36850,36100,36800,295,368
2012/10/11,36100,36800,36100,36200,195,362
2012/10/12,36900,36900,35600,36000,144,360
2012/10/15,36700,37400,36000,37100,163,371
2012/10/16,37400,37400,36300,37300,149,373
2012/10/17,37400,37800,37350,37700,100,377
2012/10/18,37850,38400,37650,38300,184,383
2012/10/19,38500,39500,38350,38800,257,388
2012/10/22,38500,38550,38000,38000,67,380
2012/10/23,38000,38400,37850,38000,167,380
2012/10/24,37850,38300,37500,38200,144,382
2012/10/25,38000,38350,37500,38200,248,382
2012/10/26,38200,38200,38000,38000,68,380
2012/10/29,38500,38500,37750,38200,58,382
2012/10/30,37500,38000,37200,37200,102,372
2012/10/31,39300,42000,39100,40900,1152,409
2012/11/02,39550,40700,39550,40600,419,406
2012/11/06,41550,43000,41050,42000,681,420
2012/11/07,42400,43300,41050,42500,456,425
2012/11/09,42500,42900,41600,42900,242,429
2012/11/12,42600,42600,41400,42100,135,421
2012/11/15,40000,40800,38500,40200,251,402
2012/11/16,39800,40450,39800,40400,357,404
2012/11/19,40800,41300,39900,41300,298,413
2012/11/20,41850,41850,40750,40800,63,408
2012/11/21,41350,41700,40300,41600,68,416
2012/11/27,42000,43200,42000,42900,222,429
2012/11/28,42600,43400,42600,43300,345,433
2012/11/29,43500,44600,43000,43700,534,437
2012/11/30,44350,47850,43850,45000,1643,450
2012/12/04,47750,48450,47050,48100,500,481
2012/12/05,48650,52000,48600,51000,1646,510
2012/12/06,51200,51200,48200,51200,859,512
2012/12/07,51000,51100,49350,50300,447,503
2012/12/10,50000,50500,48550,50500,312,505
2012/12/11,50700,50700,49800,50300,309,503
2012/12/14,47750,48300,47750,48000,269,480
2012/12/18,48500,50500,48400,50400,468,504
2012/12/19,50300,50300,48850,49200,591,492
2012/12/20,49000,49600,47850,48500,250,485
2012/12/25,47150,47800,46700,46700,199,467
2012/12/28,48000,49000,46900,47600,259,476
2013/01/04,47900,48100,47050,47600,178,476
2013/01/07,47100,47550,47000,47500,336,475
2013/01/08,47550,49500,47550,48800,418,488
2013/01/09,49500,51200,49150,51200,626,512
2013/01/10,52000,52500,50300,50800,712,508
2013/01/11,50000,50700,49000,50600,292,506
2013/01/15,50700,51800,50300,51200,440,512
2013/01/16,50900,51500,49000,49000,489,490
2013/01/17,48750,49700,47550,47700,264,477
2013/01/18,48000,48850,47200,47600,517,476
2013/01/21,47600,48350,47200,47200,473,472
2013/01/22,47200,47750,46850,47000,198,470
2013/01/23,47000,48300,46850,47700,322,477
2013/01/25,48400,49950,48200,48200,724,482
2013/01/28,49600,51200,49000,51200,768,512
2013/01/29,50500,51200,49800,50400,415,504
2013/01/30,50300,51000,49750,51000,344,510
2013/01/31,50100,57400,50100,54300,2494,543
2013/02/01,53300,54900,53200,53500,341,535
2013/02/04,54300,54500,51400,53000,644,530
2013/02/05,53700,53700,52000,53000,454,530
2013/02/06,53500,54200,52000,52000,1028,520
2013/02/07,51900,52200,50900,51700,393,517
2013/02/08,52100,52300,51300,51300,201,513
2013/02/12,51200,51800,50700,51200,187,512
2013/02/14,49000,51000,49000,51000,343,510
2013/02/15,52100,53400,51200,53000,1005,530
2013/02/18,53000,54800,52500,53800,842,538
2013/02/19,53600,55700,53400,55700,615,557
2013/02/20,56500,58500,56300,58500,1808,585
2013/02/21,58700,62600,58200,62400,2655,624
2013/02/22,62000,66000,59000,66000,2214,660
2013/02/25,65300,66200,64000,66200,1698,662
2013/02/26,66300,70300,65100,69200,3589,692
2013/02/27,68700,68800,65800,66600,1866,666
2013/02/28,66000,68300,62200,64600,1584,646
2013/03/01,64500,71700,64300,71100,2523,711
2013/03/04,74100,75400,71100,75000,3884,750
2013/03/05,73500,74900,71700,72000,1612,720
2013/03/06,72200,77400,71000,74000,2956,740
2013/03/07,74800,76000,72300,72700,1555,727
2013/03/08,72100,74000,69500,71400,1254,714
2013/03/11,78900,78900,73000,77000,3540,770
2013/03/12,76500,78500,73500,76500,1788,765
2013/03/13,77400,77800,75300,76400,1373,764
2013/03/14,75500,76900,74300,74600,1204,746
2013/03/15,71600,73500,71600,72700,1790,727
2013/03/18,72200,74800,72200,73100,896,731
2013/03/19,73900,74800,73100,73600,839,736
2013/03/21,75000,76800,74100,75800,1632,758
2013/03/22,75800,80900,75600,80700,2570,807
2013/03/25,82200,82200,78500,79900,1641,799
2013/03/26,78700,78800,76800,78100,1131,781
2013/03/27,793,796,769,780,68400,780
2013/03/28,789,800,785,798,70000,798
2013/03/29,805,810,793,810,77100,810
2013/04/01,812,828,750,750,170500,750
2013/04/02,701,768,673,743,125400,743
2013/04/03,760,785,759,778,93000,778
2013/04/04,771,778,751,775,49100,775
2013/04/05,778,785,760,768,99300,768
2013/04/08,755,803,755,791,151900,791
2013/04/09,789,807,783,788,142600,788
2013/04/10,801,845,793,845,275200,845
2013/04/11,860,860,828,849,228900,849
2013/04/12,851,942,847,923,519500,923
2013/04/15,1045,1073,1010,1073,655600,1073
2013/04/16,1122,1270,1040,1176,1218500,1176
2013/04/17,1227,1475,1216,1469,1565700,1469
2013/04/18,1499,1750,1300,1370,1955300,1370
2013/04/19,1350,1370,1270,1281,784900,1281
2013/04/22,1340,1398,1275,1342,943600,1342
2013/04/23,1325,1371,1280,1322,408400,1322
2013/04/24,1317,1359,1297,1324,472000,1324
2013/04/25,1327,1355,1281,1311,493200,1311
2013/04/26,1295,1315,1246,1310,805200,1310
2013/04/30,1310,1345,1302,1318,291400,1318
2013/05/01,1325,1398,1322,1340,508400,1340
2013/05/02,1321,1329,1303,1314,225800,1314
2013/05/07,1350,1614,1350,1568,1593300,1568
2013/05/08,1768,1795,1508,1645,1415600,1645
2013/05/09,1726,1750,1610,1639,530000,1639
2013/05/10,1599,1678,1515,1525,574300,1525
2013/05/13,1530,1559,1417,1421,586400,1421
2013/05/14,1405,1464,1381,1425,418600,1425
2013/05/15,1455,1475,1250,1320,568900,1320
2013/05/16,1325,1420,1210,1369,485500,1369
2013/05/17,1339,1407,1305,1396,212100,1396
2013/05/20,1415,1419,1370,1387,250600,1387
2013/05/21,1370,1380,1299,1302,270000,1302
2013/05/22,1303,1330,1220,1250,305300,1250
2013/05/23,1249,1289,1090,1092,399400,1092
2013/05/24,1102,1161,1050,1120,374400,1120
2013/05/27,1116,1116,1050,1069,157100,1069
2013/05/28,1067,1295,1050,1255,546500,1255
2013/05/29,1250,1295,1220,1255,322300,1255
2013/05/30,1202,1254,1176,1211,183800,1211
2013/05/31,1220,1258,1127,1154,198600,1154
2013/06/03,1110,1193,1100,1108,211900,1108
2013/06/04,1071,1169,1035,1085,166900,1085
2013/06/05,1155,1275,1124,1134,580900,1134
2013/06/06,1089,1106,925,958,565500,958
2013/06/07,898,950,871,918,332500,918
2013/06/10,1010,1063,995,1050,242700,1050
2013/06/11,1040,1079,1015,1029,167000,1029
2013/06/12,981,1065,976,1048,101600,1048
2013/06/13,1018,1040,981,984,128300,984
2013/06/14,1035,1040,971,979,154600,979
2013/06/17,960,1023,960,1014,92500,1014
2013/06/18,1015,1069,1015,1037,99300,1037
2013/06/19,1060,1070,1010,1024,96200,1024
2013/06/20,1005,1047,1003,1021,58500,1021
2013/06/21,961,998,948,987,148300,987
2013/06/24,1002,1071,1002,1043,184400,1043
2013/06/25,1050,1070,976,994,158300,994
2013/06/26,1009,1020,935,950,144000,950
2013/06/27,960,975,882,964,149200,964
2013/06/28,957,1000,957,997,130300,997
2013/07/01,1012,1029,984,1024,111100,1024
2013/07/02,1045,1045,1010,1034,97200,1034
2013/07/03,1045,1045,1019,1042,68000,1042
2013/07/04,1047,1225,1042,1190,629700,1190
2013/07/05,1160,1205,1150,1162,312700,1162
2013/07/08,1220,1220,1134,1139,170000,1139
2013/07/09,1155,1184,1108,1136,109400,1136
2013/07/10,1136,1150,1076,1084,101200,1084
2013/07/11,1050,1150,1050,1124,144700,1124
2013/07/12,1180,1180,1110,1115,106000,1115
2013/07/16,1115,1165,1115,1151,93500,1151
2013/07/17,1151,1165,1111,1115,77400,1115
2013/07/18,1115,1130,1103,1112,61600,1112
2013/07/19,1105,1127,1055,1062,159500,1062
2013/07/22,1055,1078,1044,1060,89200,1060
2013/07/23,1051,1083,1040,1078,72000,1078
2013/07/24,1097,1149,1081,1128,215800,1128
2013/07/25,1159,1185,1137,1151,209800,1151
2013/07/26,1131,1155,1112,1123,83700,1123
2013/07/29,1080,1098,1040,1046,117900,1046
2013/07/30,1040,1164,1033,1138,189700,1138
2013/07/31,1159,1159,1045,1066,150400,1066
2013/08/01,1090,1090,1031,1065,96800,1065
2013/08/02,1080,1098,1061,1094,67200,1094
2013/08/05,1085,1138,1081,1088,109300,1088
2013/08/06,1088,1098,1063,1078,41400,1078
2013/08/07,1056,1100,1042,1071,73300,1071
2013/08/08,1050,1097,1022,1024,104400,1024
2013/08/09,1054,1068,1026,1046,79000,1046
2013/08/12,1040,1040,970,974,90500,974
2013/08/13,980,1005,980,993,48400,993
2013/08/14,1008,1033,992,1014,45100,1014
2013/08/15,1020,1020,998,1003,23800,1003
2013/08/16,1003,1025,994,1014,35900,1014
2013/08/19,1001,1023,1001,1015,17900,1015
2013/08/20,1016,1045,996,996,57400,996
2013/08/21,1019,1019,971,987,60900,987
2013/08/22,998,998,960,963,50000,963
2013/08/23,972,984,955,962,34600,962
2013/08/26,963,1025,962,1010,60400,1010
2013/08/27,1026,1032,992,998,65900,998
2013/08/28,990,990,955,959,41900,959
2013/08/29,973,1023,959,1018,57500,1018
2013/08/30,1018,1018,968,970,68400,970
2013/09/02,970,985,961,980,27000,980
2013/09/03,987,1024,987,1010,71600,1010
2013/09/04,1011,1011,985,1002,40800,1002
2013/09/05,1010,1029,994,997,66700,997
2013/09/06,993,1000,967,979,48900,979
2013/09/09,985,1008,985,1007,35000,1007
2013/09/10,1019,1038,1010,1019,79400,1019
2013/09/11,1004,1018,998,1000,45400,1000
2013/09/12,1011,1011,997,1001,26600,1001
2013/09/13,1012,1012,990,1006,49400,1006
2013/09/17,1012,1033,1011,1021,45200,1021
2013/09/18,1023,1039,1021,1030,56200,1030
2013/09/19,1031,1060,1031,1059,79100,1059
2013/09/20,1060,1063,1021,1032,67300,1032
2013/09/24,1029,1029,1010,1022,36800,1022
2013/09/25,1033,1033,1000,1004,64000,1004
2013/09/26,1000,1012,990,1008,30400,1008
2013/09/27,995,1016,995,1006,33800,1006
2013/09/30,995,1006,990,996,66900,996
2013/10/01,999,1016,980,988,81100,988
2013/10/02,1000,1017,982,986,61100,986
2013/10/03,980,998,980,993,25200,993
2013/10/04,980,990,970,973,47500,973
2013/10/07,961,967,935,935,62900,935
2013/10/08,900,946,899,926,86000,926
2013/10/09,910,941,910,934,70100,934
2013/10/10,935,950,930,934,56100,934
2013/10/11,952,962,940,950,61000,950
2013/10/15,950,955,932,941,63200,941
2013/10/16,930,948,930,942,57400,942
2013/10/17,949,990,949,956,102200,956
2013/10/18,953,989,950,982,93200,982
2013/10/21,1005,1006,995,1002,65400,1002
2013/10/22,1005,1007,999,1001,43300,1001
2013/10/23,1010,1023,989,990,108600,990
2013/10/24,986,1013,980,1010,71800,1010
2013/10/25,1019,1019,988,993,76200,993
2013/10/28,995,1001,982,993,83200,993
2013/10/29,998,998,978,979,64100,979
2013/10/30,992,996,946,951,146100,951
2013/10/31,924,940,898,898,182000,898
2013/11/01,896,911,871,875,102300,875
2013/11/05,880,885,866,870,70000,870
2013/11/06,865,894,865,881,46000,881
2013/11/07,882,891,871,876,45000,876
2013/11/08,876,1010,876,958,494700,958
2013/11/11,988,1006,949,977,250300,977
2013/11/12,977,1002,966,995,102600,995
2013/11/13,990,1011,985,1004,129700,1004
2013/11/14,1003,1075,996,1028,274100,1028
2013/11/15,1010,1078,1008,1067,164000,1067
2013/11/18,1060,1100,1053,1061,113200,1061
2013/11/19,1057,1086,1050,1068,70800,1068
2013/11/20,1062,1070,1035,1046,59600,1046
2013/11/21,1053,1067,1048,1060,58000,1060
2013/11/22,1053,1058,1011,1024,70000,1024
2013/11/25,1020,1033,1005,1012,42600,1012
2013/11/26,1000,1030,1000,1025,49000,1025
2013/11/27,1001,1022,1001,1014,43700,1014
2013/11/28,1011,1039,1008,1036,59400,1036
2013/11/29,1037,1040,1001,1011,53500,1011
2013/12/02,1012,1025,1011,1019,49800,1019
2013/12/03,1025,1027,1002,1007,87600,1007
2013/12/04,1010,1011,991,1002,104800,1002
2013/12/05,978,1006,977,984,94000,984
2013/12/06,977,990,975,979,73100,979
2013/12/09,985,1000,985,996,42700,996
2013/12/10,994,995,985,988,73300,988
2013/12/11,983,990,969,976,49800,976
2013/12/12,968,981,960,972,33900,972
2013/12/13,968,978,962,963,48900,963
2013/12/16,984,985,945,945,70600,945
2013/12/17,960,960,933,943,60600,943
2013/12/18,935,940,929,932,44400,932
2013/12/19,930,990,930,946,315500,946
2013/12/20,950,955,930,931,94100,931
2013/12/24,922,940,915,917,102900,917
2013/12/25,916,935,914,921,102200,921
2013/12/26,921,955,920,950,63300,950
2013/12/27,961,991,942,974,134900,974
2013/12/30,976,996,976,989,66100,989
2014/01/06,990,999,977,986,61800,986
2014/01/07,976,978,961,968,60000,968
2014/01/08,981,990,972,979,46000,979
2014/01/09,977,979,964,974,45600,974
2014/01/10,976,983,962,964,74100,964
2014/01/14,951,951,936,941,73200,941
2014/01/15,950,954,940,941,41300,941
2014/01/16,949,955,941,941,41600,941
2014/01/17,940,946,937,943,41800,943
2014/01/20,944,954,942,947,26100,947
2014/01/21,950,955,949,949,30700,949
2014/01/22,955,979,953,978,75300,978
2014/01/23,990,994,976,985,83500,985
2014/01/24,980,982,963,967,56100,967
2014/01/27,935,944,930,930,59100,930
2014/01/28,927,968,927,932,62100,932
2014/01/29,940,965,940,955,42500,955
2014/01/30,950,950,928,938,59700,938
2014/01/31,900,913,825,858,375200,858
2014/02/03,831,842,801,803,106100,803
2014/02/04,698,754,681,754,274500,754
2014/02/05,771,784,730,735,90600,735
2014/02/06,749,788,740,775,81600,775
2014/02/07,796,820,757,765,92700,765
2014/02/10,768,795,767,791,45600,791
2014/02/12,792,798,780,783,38200,783
2014/02/13,783,785,750,753,61400,753
2014/02/14,763,768,719,726,78500,726
2014/02/17,736,747,734,737,36700,737
2014/02/18,740,750,737,748,28200,748
2014/02/19,755,761,747,757,22300,757
2014/02/20,761,761,732,735,39400,735
2014/02/21,745,759,745,756,25400,756
2014/02/24,758,777,756,775,44000,775
2014/02/25,780,786,756,768,50900,768
2014/02/26,770,772,761,761,24800,761
2014/02/27,759,764,756,761,12900,761
2014/02/28,755,761,741,748,37500,748
2014/03/03,748,755,727,731,36500,731
2014/03/04,725,743,725,740,21000,740
2014/03/05,745,755,741,748,20700,748
2014/03/06,750,757,745,755,27800,755
2014/03/07,757,766,757,765,27500,765
2014/03/10,770,772,765,765,34600,765
2014/03/11,766,773,760,767,25600,767
2014/03/12,774,778,765,778,52500,778
2014/03/13,778,789,778,789,39900,789
2014/03/14,767,801,767,801,136700,801
2014/03/17,801,830,794,830,148600,830
2014/03/18,850,969,837,914,584200,914
2014/03/19,890,892,842,855,197600,855
2014/03/20,860,860,801,806,113600,806
2014/03/24,809,867,806,825,124100,825
2014/03/25,838,888,838,852,138100,852
2014/03/26,888,888,849,855,65700,855
2014/03/27,840,862,830,860,61100,860
2014/03/28,872,900,859,900,92600,900
2014/03/31,925,946,918,946,145100,946
2014/04/01,949,954,928,949,113600,949
2014/04/02,950,953,930,930,57600,930
2014/04/03,928,944,916,936,46900,936
2014/04/04,926,943,926,938,39500,938
2014/04/07,923,923,889,892,69300,892
2014/04/08,890,892,876,882,37400,882
2014/04/09,880,883,872,875,31000,875
2014/04/10,890,896,860,862,51100,862
2014/04/11,851,851,835,841,32600,841
2014/04/14,826,853,826,828,29300,828
2014/04/15,829,878,829,841,37400,841
2014/04/16,850,868,843,868,12900,868
2014/04/17,856,879,850,873,27700,873
2014/04/18,888,890,876,888,19800,888
2014/04/21,891,896,884,892,15600,892
2014/04/22,887,909,884,889,37200,889
2014/04/23,887,904,883,887,17700,887
2014/04/24,881,890,862,864,21000,864
2014/04/25,873,882,853,867,29900,867
2014/04/28,867,868,852,859,39200,859
2014/04/30,854,876,854,859,32000,859
2014/05/01,889,903,882,900,49500,900
2014/05/02,900,915,898,912,32100,912
2014/05/07,912,914,870,878,42800,878
2014/05/08,880,899,870,897,16100,897
2014/05/09,887,925,887,909,52600,909
2014/05/12,804,819,759,759,208300,759
2014/05/13,744,776,734,773,124600,773
2014/05/14,763,804,763,796,66400,796
2014/05/15,779,804,771,802,37900,802
2014/05/16,800,813,792,803,43600,803
2014/05/19,805,805,751,753,44400,753
2014/05/20,755,767,753,761,19100,761
2014/05/21,799,799,766,777,36200,777
2014/05/22,777,798,775,794,24800,794
2014/05/23,800,816,796,811,35400,811
2014/05/26,816,835,808,834,28900,834
2014/05/27,835,856,835,853,28700,853
2014/05/28,845,862,841,856,25600,856
2014/05/29,847,864,846,857,17500,857
2014/05/30,853,861,836,842,15300,842
2014/06/02,837,846,837,839,31600,839
2014/06/03,841,852,839,844,44200,844
2014/06/04,834,848,833,847,19600,847
2014/06/05,850,866,850,864,30900,864
2014/06/06,865,865,856,865,15100,865
2014/06/09,1015,1015,1015,1015,181500,1015
2014/06/10,1122,1190,1068,1150,2613000,1150
2014/06/11,1125,1161,1093,1131,881500,1131
2014/06/12,1120,1175,1111,1140,604500,1140
2014/06/13,1145,1153,1121,1131,337200,1131
2014/06/16,1116,1121,1058,1066,292900,1066
2014/06/17,1066,1066,1005,1024,287000,1024
2014/06/18,1025,1047,1025,1030,119600,1030
2014/06/19,1032,1044,1016,1023,103100,1023
2014/06/20,1015,1019,977,987,133300,987
2014/06/23,971,1006,962,995,107400,995
2014/06/24,967,997,967,978,80200,978
2014/06/25,962,994,961,968,83200,968
2014/06/26,970,980,958,968,65400,968
2014/06/27,957,985,937,941,91200,941
2014/06/30,932,978,932,976,66100,976
2014/07/01,971,988,967,978,46300,978
2014/07/02,978,992,976,985,45700,985
2014/07/03,990,992,976,980,47200,980
2014/07/04,992,1000,971,976,65200,976
2014/07/07,1006,1017,978,998,120200,998
2014/07/08,1013,1013,985,990,77000,990
2014/07/09,988,988,951,957,77500,957
2014/07/10,962,999,938,940,74200,940
2014/07/11,939,942,928,931,40500,931
2014/07/14,945,960,941,960,59000,960
2014/07/15,970,979,960,973,44200,973
2014/07/16,961,975,950,964,63100,964
2014/07/17,970,970,950,958,54800,958
2014/07/18,950,952,938,949,36900,949
2014/07/22,935,1048,935,1001,250300,1001
2014/07/23,1015,1024,998,1005,105200,1005
2014/07/24,1005,1015,989,1013,75300,1013
2014/07/25,1019,1019,988,1003,64800,1003
2014/07/28,1000,1009,992,1000,28000,1000
2014/07/29,994,1010,994,1004,33100,1004
2014/07/30,1015,1070,1005,1024,154600,1024
2014/07/31,1010,1012,970,982,90900,982
2014/08/01,961,976,961,970,37600,970
2014/08/04,967,992,961,970,22000,970
2014/08/05,971,983,955,956,30800,956
2014/08/06,950,952,938,938,37900,938
2014/08/07,937,940,913,929,53400,929
2014/08/08,916,922,892,900,55800,900
2014/08/11,930,938,924,934,37800,934
2014/08/12,943,957,930,935,26000,935
2014/08/13,941,944,930,935,28700,935
2014/08/14,935,962,932,940,26800,940
2014/08/15,940,950,940,942,14900,942
2014/08/18,950,968,946,953,24400,953
2014/08/19,957,963,955,958,8400,958
2014/08/20,957,962,935,949,19100,949
2014/08/21,941,958,941,948,14800,948
2014/08/22,950,950,932,940,23600,940
2014/08/25,943,948,929,947,21100,947
2014/08/26,950,975,948,966,54000,966
2014/08/27,967,981,967,978,35800,978
2014/08/28,983,1014,982,1002,100100,1002
2014/08/29,1005,1009,991,999,31600,999
2014/09/01,999,1007,996,1000,26100,1000
2014/09/02,1003,1008,997,1001,44700,1001
2014/09/03,992,1010,990,1002,39900,1002
2014/09/04,1010,1035,1010,1019,108100,1019
2014/09/05,1014,1019,1000,1007,47500,1007
2014/09/08,1010,1010,1001,1003,11800,1003
2014/09/09,1005,1009,998,1000,19400,1000
2014/09/10,986,999,980,987,48600,987
2014/09/11,985,1016,985,1002,51900,1002
2014/09/12,1080,1080,1008,1043,181900,1043
2014/09/16,1050,1067,1046,1051,51500,1051
2014/09/17,1050,1058,1030,1042,28200,1042
2014/09/18,1031,1054,1031,1042,30000,1042
2014/09/19,1050,1076,1034,1073,96900,1073
2014/09/22,1084,1095,1062,1094,74300,1094
2014/09/24,1099,1120,1070,1083,105300,1083
2014/09/25,1100,1123,1097,1117,98300,1117
2014/09/26,1100,1169,1081,1167,136300,1167
2014/09/29,1170,1190,1120,1139,170600,1139
2014/09/30,1124,1127,1080,1105,56900,1105
2014/10/01,1100,1111,1070,1071,76500,1071
2014/10/02,1050,1057,1035,1041,59700,1041
2014/10/03,1041,1069,1041,1068,42700,1068
2014/10/06,1068,1091,1063,1081,33400,1081
2014/10/07,1066,1080,1054,1058,30300,1058
2014/10/08,1047,1150,1033,1106,203800,1106
2014/10/09,1111,1126,1058,1069,68700,1069
2014/10/10,1032,1063,1020,1031,66000,1031
2014/10/14,998,1025,986,1001,46300,1001
2014/10/15,1010,1019,996,1004,29300,1004
2014/10/16,988,988,952,967,49700,967
2014/10/17,1012,1018,963,965,63200,965
2014/10/20,1000,1006,974,1005,39300,1005
2014/10/21,1006,1015,1002,1011,51400,1011
2014/10/22,1016,1045,1016,1035,39400,1035
2014/10/23,1053,1096,1042,1075,78500,1075
2014/10/24,1086,1086,1042,1047,35700,1047
2014/10/27,1041,1060,1041,1058,16000,1058
2014/10/28,1059,1078,1051,1077,36000,1077
2014/10/29,1091,1091,1071,1084,41200,1084
2014/10/30,1075,1103,1062,1082,172100,1082
2014/10/31,1052,1145,1052,1140,152200,1140
2014/11/04,1150,1160,1125,1130,70500,1130
2014/11/05,1132,1139,1118,1135,34800,1135
2014/11/06,1128,1177,1116,1145,87000,1145
2014/11/07,1133,1169,1133,1151,43400,1151
2014/11/10,1130,1148,1118,1132,33700,1132
2014/11/11,1128,1151,1128,1147,29700,1147
2014/11/12,1147,1159,1139,1153,43500,1153
2014/11/13,1152,1174,1140,1174,52600,1174
2014/11/14,1175,1176,1160,1170,37900,1170
2014/11/17,1156,1158,1111,1113,33000,1113
2014/11/18,1144,1150,1126,1145,29300,1145
2014/11/19,1160,1160,1138,1141,25700,1141
2014/11/20,1150,1150,1131,1131,19900,1131
2014/11/21,1130,1134,1116,1131,16500,1131
2014/11/25,1127,1131,1122,1122,19400,1122
2014/11/26,1122,1128,1107,1115,44500,1115
2014/11/27,1124,1124,1091,1091,18900,1091
2014/11/28,1100,1100,1036,1079,33100,1079
2014/12/01,1079,1099,1067,1093,27500,1093
2014/12/02,1081,1107,1081,1105,24000,1105
2014/12/03,1090,1102,1080,1090,30500,1090
2014/12/04,1093,1094,1079,1080,16800,1080
2014/12/05,1080,1084,1069,1079,9600,1079
2014/12/08,1086,1092,1069,1072,25000,1072
2014/12/09,1069,1076,1053,1053,20300,1053
2014/12/10,1031,1056,1031,1034,19900,1034
2014/12/11,1034,1044,1025,1035,16500,1035
2014/12/12,1040,1055,1035,1036,31600,1036
2014/12/15,1032,1077,1032,1038,24000,1038
2014/12/16,1036,1044,1032,1035,24900,1035
2014/12/17,1026,1030,1013,1014,40600,1014
2014/12/18,1030,1041,1020,1039,25500,1039
2014/12/19,1050,1060,1029,1041,19900,1041
2014/12/22,1034,1050,1021,1050,30400,1050
2014/12/24,1051,1055,1038,1045,30200,1045
2014/12/25,1047,1047,1015,1029,30800,1029
2014/12/26,1041,1049,1034,1047,13700,1047
2014/12/29,1070,1075,1037,1047,30300,1047
2014/12/30,1057,1065,1046,1060,11600,1060
2015/01/05,1062,1078,1054,1061,15200,1061
2015/01/06,1046,1048,1036,1036,28000,1036
2015/01/07,1020,1045,1018,1024,22600,1024
2015/01/08,1031,1070,1031,1066,33400,1066
2015/01/09,1070,1070,1042,1046,21100,1046
2015/01/13,1027,1080,1027,1076,30200,1076
2015/01/14,1084,1084,1067,1068,19100,1068
2015/01/15,1068,1122,1061,1110,50300,1110
2015/01/16,1085,1109,1075,1098,38000,1098
2015/01/19,1117,1128,1110,1126,21800,1126
2015/01/20,1137,1150,1094,1140,33500,1140
2015/01/21,1149,1149,1115,1121,16600,1121
2015/01/22,1130,1142,1111,1131,14500,1131
2015/01/23,1131,1139,1106,1134,21500,1134
2015/01/26,1114,1141,1114,1138,17800,1138
2015/01/27,1123,1137,1112,1133,27100,1133
2015/01/28,1117,1139,1117,1132,22200,1132
2015/01/29,1119,1133,1114,1131,13500,1131
2015/01/30,1135,1135,1103,1128,29200,1128
2015/02/02,1117,1129,1108,1110,18100,1110
2015/02/03,1101,1101,1076,1081,20300,1081
2015/02/04,1085,1120,1085,1100,27800,1100
2015/02/05,1107,1107,1071,1085,15400,1085
2015/02/06,1096,1101,1058,1063,47200,1063
2015/02/09,1070,1083,1060,1063,15500,1063
2015/02/10,1056,1080,1003,1040,20600,1040
2015/02/12,1031,1072,1031,1050,27800,1050
2015/02/13,1070,1076,1038,1072,32600,1072
2015/02/16,1172,1200,1111,1152,223800,1152
2015/02/17,1130,1138,1107,1115,70000,1115
2015/02/18,1115,1130,1115,1125,41600,1125
2015/02/19,1129,1156,1115,1156,51900,1156
2015/02/20,1156,1156,1121,1137,28500,1137
2015/02/23,1144,1144,1129,1133,32000,1133
2015/02/24,1131,1138,1131,1132,20300,1132
2015/02/25,1139,1140,1130,1131,19700,1131
2015/02/26,1138,1140,1128,1134,34000,1134
2015/02/27,1145,1145,1124,1124,16600,1124
2015/03/02,1143,1143,1126,1132,23100,1132
2015/03/03,1124,1130,1108,1110,20600,1110
2015/03/04,1103,1110,1092,1107,28000,1107
2015/03/05,1102,1112,1100,1103,13100,1103
2015/03/06,1098,1112,1096,1107,21200,1107
2015/03/09,1107,1109,1090,1099,17800,1099
2015/03/10,1117,1142,1113,1136,53500,1136
2015/03/11,1136,1145,1122,1140,33600,1140
2015/03/12,1134,1156,1134,1149,37400,1149
2015/03/13,1157,1157,1131,1139,27600,1139
2015/03/16,1127,1133,1120,1129,24000,1129
2015/03/17,1300,1342,1233,1284,1096500,1284
2015/03/18,1274,1314,1263,1306,404200,1306
2015/03/19,1280,1306,1276,1294,147800,1294
2015/03/20,1290,1305,1285,1286,85500,1286
2015/03/23,1280,1295,1265,1275,69500,1275
2015/03/24,1266,1275,1227,1229,111200,1229
2015/03/25,1230,1248,1225,1242,53800,1242
2015/03/26,1220,1225,1203,1210,57600,1210
2015/03/27,1185,1219,1185,1214,67900,1214
2015/03/30,1214,1229,1208,1224,39400,1224
2015/03/31,1241,1241,1183,1188,61400,1188
2015/04/01,1218,1218,1177,1191,52000,1191
2015/04/02,1199,1208,1178,1193,49300,1193
2015/04/03,1186,1194,1182,1194,25500,1194
2015/04/06,1187,1197,1182,1189,39500,1189
2015/04/07,1191,1220,1183,1202,40700,1202
2015/04/08,1211,1245,1211,1230,61200,1230
2015/04/09,1232,1235,1211,1222,39700,1222
2015/04/10,1230,1230,1211,1216,26200,1216
2015/04/13,1230,1251,1213,1247,82800,1247
2015/04/14,1277,1278,1245,1270,92400,1270
2015/04/15,1270,1277,1256,1261,50600,1261
2015/04/16,1270,1274,1235,1245,63700,1245
2015/04/17,1240,1240,1190,1198,94100,1198
2015/04/20,1186,1190,1168,1170,59800,1170
2015/04/21,1171,1185,1171,1178,31400,1178
2015/04/22,1170,1187,1168,1181,39600,1181
2015/04/23,1188,1190,1180,1182,40200,1182
2015/04/24,1181,1187,1175,1182,21300,1182
2015/04/27,1180,1227,1180,1226,67200,1226
2015/04/28,1230,1231,1210,1217,58900,1217
2015/04/30,1202,1220,1183,1205,49400,1205
2015/05/01,1199,1210,1174,1181,37500,1181
2015/05/07,1205,1209,1187,1195,28900,1195
2015/05/08,1195,1240,1195,1238,56300,1238
2015/05/11,1254,1264,1226,1246,107600,1246
2015/05/12,1246,1266,1213,1260,110500,1260
2015/05/13,1265,1265,1245,1260,54800,1260
2015/05/14,1257,1265,1254,1262,42800,1262
2015/05/15,1262,1299,1261,1290,89100,1290
2015/05/18,1295,1298,1288,1292,35200,1292
2015/05/19,1288,1298,1272,1296,42600,1296
2015/05/20,1297,1300,1283,1295,51700,1295
2015/05/21,1298,1315,1290,1314,73600,1314
2015/05/22,1316,1318,1300,1318,55000,1318
2015/05/25,1329,1329,1309,1313,31400,1313
2015/05/26,1308,1311,1295,1302,37100,1302
2015/05/27,1287,1297,1278,1293,50000,1293
2015/05/28,1293,1298,1286,1293,22000,1293
2015/05/29,1275,1307,1275,1305,45200,1305
2015/06/01,1308,1317,1280,1304,31000,1304
2015/06/02,1350,1443,1350,1414,396000,1414
2015/06/03,1430,1430,1387,1415,152200,1415
2015/06/04,1410,1414,1379,1381,80500,1381
2015/06/05,1396,1401,1365,1366,82700,1366
2015/06/08,1389,1410,1385,1397,99000,1397
2015/06/09,1390,1406,1371,1391,129200,1391
2015/06/10,1413,1427,1394,1396,99900,1396
2015/06/11,1420,1458,1415,1444,206000,1444
2015/06/12,1459,1540,1452,1540,372900,1540
2015/06/15,1580,1738,1562,1675,1101300,1675
2015/06/16,1640,1665,1551,1552,574100,1552
2015/06/17,1570,1615,1539,1598,388700,1598
2015/06/18,1598,1621,1551,1557,177700,1557
2015/06/19,1597,1610,1570,1590,191900,1590
2015/06/22,1570,1588,1542,1555,216500,1555
2015/06/23,1590,1591,1546,1565,131200,1565
2015/06/24,1565,1565,1522,1534,133200,1534
2015/06/25,1526,1557,1512,1512,95800,1512
2015/06/26,1513,1550,1500,1526,78100,1526
2015/06/29,1468,1496,1452,1454,103800,1454
2015/06/30,1463,1519,1463,1508,161500,1508
2015/07/01,1515,1543,1490,1541,87800,1541
