2011/01/04,126700,127800,124100,125200,328,626
2011/01/05,125600,125600,123200,125400,273,627
2011/01/06,125100,125400,122500,124000,416,620
2011/01/07,124000,124700,122800,124400,803,622
2011/01/11,123200,124200,123000,123800,176,619
2011/01/12,123600,123600,121000,122000,352,610
2011/01/13,120500,122300,120400,121800,357,609
2011/01/17,121000,121800,121000,121600,273,608
2011/01/18,122000,122400,119000,120200,230,601
2011/01/19,120000,122600,119500,122600,253,613
2011/01/20,122000,123100,120800,120800,204,604
2011/01/21,121000,121100,116500,119400,507,597
2011/01/25,120100,121200,117500,121200,126,606
2011/01/26,120900,121000,117800,117800,83,589
2011/01/27,118000,118600,115300,115600,166,578
2011/01/28,114600,116000,112200,114000,237,570
2011/02/08,123500,124100,120000,123200,103,616
2011/02/15,125700,131900,121900,130200,688,651
2011/02/16,131600,138100,131600,132800,532,664
2011/02/17,135500,137500,129300,131000,202,655
2011/02/18,130000,131100,128000,131000,159,655
2011/02/21,132900,132900,130400,131400,148,657
2011/02/22,131800,131800,125500,127400,202,637
2011/02/23,125000,126500,122700,123800,192,619
2011/02/24,123100,123100,118800,118800,312,594
2011/02/25,120000,120900,118100,119600,221,598
2011/03/01,147900,150900,136300,137400,6045,687
2011/03/07,151000,168800,150200,165000,7547,825
2011/03/09,162000,162000,148600,150000,1772,750
2011/03/10,149000,151000,140000,143200,1981,716
2011/03/14,115000,117000,111500,113000,3471,565
2011/03/15,100000,101100,83000,96000,2417,480
2011/03/17,100000,121500,100000,121200,1335,606
2011/03/22,129000,129600,122700,124800,878,624
2011/03/24,122100,125100,112900,113000,1037,565
2011/03/25,115200,120800,113600,114600,699,573
2011/03/28,114000,119900,112500,117800,321,589
2011/03/29,115000,119800,114000,115000,366,575
2011/03/30,116600,119600,116600,119600,283,598
2011/04/01,119000,120800,118600,120000,275,600
2011/04/04,120000,120000,118800,119000,119,595
2011/04/05,118900,118900,113000,114200,349,571
2011/04/06,113000,113000,109000,112000,384,560
2011/04/12,114800,114800,107100,109800,301,549
2011/04/15,110000,110000,106500,107600,301,538
2011/04/18,109000,109100,107100,108000,126,540
2011/04/19,107100,109000,104600,109000,200,545
2011/04/21,114100,119200,113400,116800,342,584
2011/04/22,116800,119700,115800,119000,179,595
2011/04/27,124500,124700,120200,120200,338,601
2011/04/28,122200,126600,120800,124400,521,622
2011/05/02,127000,127000,121600,122000,343,610
2011/05/09,116300,120000,115200,120000,258,600
2011/05/12,121000,123000,120000,120000,242,600
2011/05/13,119000,119100,115000,115600,219,578
2011/05/17,110000,112000,108500,112000,257,560
2011/05/23,112600,112700,111000,111600,210,558
2011/05/27,104900,107500,104400,105200,159,526
2011/05/30,110000,112800,107800,108600,179,543
2011/05/31,110000,112000,109100,112000,82,560
2011/06/01,112500,113000,109400,111800,96,559
2011/06/02,108000,109000,107000,108000,116,540
2011/06/03,108000,109000,107600,107600,79,538
2011/06/06,107600,109600,107600,108000,31,540
2011/06/07,108100,108500,105800,107000,61,535
2011/06/09,103800,105000,103000,103000,137,515
2011/06/13,102500,104000,101800,104000,57,520
2011/06/14,102800,107000,102800,105800,229,529
2011/06/15,106500,106800,104100,105800,104,529
2011/06/16,105600,105600,102800,104000,89,520
2011/06/17,104000,104800,102000,104000,79,520
2011/06/21,103600,104400,102200,104400,55,522
2011/06/22,104500,104800,104000,104800,51,524
2011/06/23,106500,107800,104000,105000,455,525
2011/06/28,103700,104400,103500,103600,64,518
2011/06/29,104500,104900,103500,104200,182,521
2011/06/30,105000,105000,103500,104000,303,520
2011/07/01,104100,104800,104000,104200,109,521
2011/07/04,106500,109700,106000,109000,252,545
2011/07/07,115000,116000,113000,115000,171,575
2011/07/13,109100,110200,108300,110000,108,550
2011/07/15,109000,111500,108700,111200,89,556
2011/07/20,113700,113700,111100,112000,71,560
2011/07/25,112900,113600,112500,113600,85,568
2011/07/27,112800,113500,112300,113200,90,566
2011/07/28,111000,112000,109800,109800,100,549
2011/08/02,110900,110900,107600,107800,163,539
2011/08/03,105500,106400,104500,105000,172,525
2011/08/10,99100,99400,97500,98000,211,490
2011/08/15,99000,103000,99000,103000,28,515
2011/08/16,103000,103600,99100,99600,109,498
2011/08/18,99000,100900,98800,100400,155,502
2011/08/19,98200,98300,96800,96800,257,484
2011/08/23,95500,98000,95500,97000,99,485
2011/08/29,99100,99800,99100,99800,35,499
2011/08/30,99600,99700,97000,97000,61,485
2011/09/09,92000,93000,89100,90000,256,450
2011/09/13,87600,89900,87600,89200,46,446
2011/09/14,89500,90200,88000,88000,73,440
2011/09/16,89100,91400,88700,91400,65,457
2011/09/20,90100,90400,89000,89000,61,445
2011/09/21,88500,90400,88500,89000,39,445
2011/09/27,81000,84700,77100,83400,273,417
2011/09/29,81500,84000,81500,83000,82,415
2011/09/30,84500,85000,83000,84800,112,424
2011/10/04,75000,75900,73900,75000,357,375
2011/10/07,75400,75900,74600,75800,123,379
2011/10/11,76100,80000,76100,80000,171,400
2011/10/12,80000,80800,80000,80000,50,400
2011/10/14,82800,84700,81600,84400,37,422
2011/10/17,99400,99400,92700,94200,734,471
2011/10/18,92400,92800,90500,91000,106,455
2011/10/19,92200,95000,92100,95000,142,475
2011/10/20,92100,96800,92100,94000,206,470
2011/10/21,94200,95100,90400,90400,135,452
2011/10/24,90900,92100,90600,92000,24,460
2011/10/25,94000,94000,92000,93000,26,465
2011/10/26,90200,93000,90200,91800,48,459
2011/10/28,93700,97900,93500,97400,159,487
2011/11/01,99500,99500,97600,99000,201,495
2011/11/02,97900,100000,97700,98800,189,494
2011/11/04,98500,101900,98500,101800,224,509
2011/11/10,93800,97700,93700,96200,172,481
2011/11/11,96200,98000,95100,96200,195,481
2011/11/15,100000,100800,99500,100600,79,503
2011/11/16,100600,101400,100600,101000,91,505
2011/11/21,100100,100900,99300,100000,138,500
2011/11/28,95800,98400,95800,98000,207,490
2011/11/29,98000,98800,96900,98000,199,490
2011/12/02,101400,101400,96700,98000,271,490
2011/12/05,97300,97300,95800,96200,122,481
2011/12/06,96200,96300,93100,95000,120,475
2011/12/07,94200,94200,93700,94000,56,470
2011/12/08,94000,94100,93200,94000,44,470
2011/12/13,92800,94000,92800,93800,19,469
2011/12/15,90000,90500,88800,90000,256,450
2011/12/16,89000,90000,87200,90000,48,450
2011/12/20,88400,88400,85200,87400,128,437
2011/12/21,87100,90100,87100,90000,80,450
2011/12/27,88200,88200,87000,87000,91,435
2011/12/28,86700,86700,85800,85800,43,429
2011/12/29,85800,86800,84800,86800,38,434
2011/12/30,84800,87400,84800,87400,190,437
2012/01/04,87400,87400,84700,84800,79,424
2012/01/05,85500,86000,82900,83600,142,418
2012/01/11,81000,81300,80600,81000,147,405
2012/01/12,81000,82100,80200,80200,617,401
2012/01/13,80100,80100,78500,79400,1051,397
2012/01/16,80000,80600,79500,80400,170,402
2012/01/18,82000,83500,81800,83200,167,416
2012/01/24,81300,81400,80700,81000,59,405
2012/01/26,80400,80500,79500,80000,273,400
2012/02/02,80600,81200,80600,80800,224,404
2012/02/03,80500,82200,80500,80800,295,404
2012/02/07,82500,84500,81900,83400,460,417
2012/02/08,83800,84900,83100,84000,368,420
2012/02/10,84800,84800,82600,82600,225,413
2012/02/13,81000,81700,79000,80000,436,400
2012/02/14,80300,81000,80000,81000,94,405
2012/02/15,81400,82700,80600,82600,157,413
2012/02/17,82600,83200,82100,83200,129,416
2012/02/22,82800,84200,82600,83800,213,419
2012/02/23,84500,86800,83500,86800,315,434
2012/02/27,88700,89200,87500,89000,108,445
2012/03/01,86000,86200,84300,84400,114,422
2012/03/05,86500,87000,86000,87000,43,435
2012/03/08,85700,87400,85700,87400,63,437
2012/03/19,91000,93400,90800,92000,165,460
2012/03/22,95500,98700,95500,97800,160,489
2012/03/26,99600,99600,97500,97800,99,489
2012/03/27,97800,97800,97000,97600,40,488
2012/03/28,97700,97700,97000,97000,16,485
2012/04/03,99000,99000,98100,98600,53,493
2012/04/04,99300,99300,97000,97200,78,486
2012/04/05,96100,97400,96100,97400,72,487
2012/04/06,96700,96700,92500,95000,45,475
2012/04/10,92100,94200,92000,94200,19,471
2012/04/12,93200,93200,92800,93200,17,466
2012/04/16,92500,93000,92300,93000,11,465
2012/04/17,94400,94400,93300,93600,8,468
2012/04/18,94000,94600,94000,94600,9,473
2012/04/19,94000,94900,93800,94800,36,474
2012/04/20,94800,95300,94500,94800,19,474
2012/04/23,93200,94000,92000,92000,42,460
2012/04/24,90000,94000,90000,94000,40,470
2012/04/27,97500,97700,92500,97600,65,488
2012/05/02,94900,95200,93700,95200,26,476
2012/05/11,90500,91000,89700,90000,123,450
2012/05/14,87000,88100,87000,88000,58,440
2012/05/15,86900,90000,86000,88000,119,440
2012/05/16,88000,88000,86200,87000,31,435
2012/05/17,85500,87100,84300,87000,48,435
2012/05/18,84200,85500,83800,85000,65,425
2012/05/21,84500,85800,84500,85800,18,429
2012/05/22,85100,85100,85000,85000,8,425
2012/05/23,84500,85000,83100,83200,34,416
2012/05/29,85200,85200,85000,85000,11,425
2012/05/30,85000,86800,85000,86800,11,434
2012/06/01,89300,90300,86100,87600,59,438
2012/06/05,83100,86600,83100,86600,5,433
2012/06/06,86800,86800,84600,85400,21,427
2012/06/12,86400,89900,85400,89600,13,448
2012/06/14,86000,87200,86000,87200,47,436
2012/06/18,87500,88700,86200,87200,41,436
2012/06/20,87000,87500,86200,86800,47,434
2012/06/21,87000,88200,86800,88200,26,441
2012/06/27,85000,85000,83500,84000,43,420
2012/06/28,83400,85700,83400,85200,79,426
2012/06/29,84200,86000,84000,85200,76,426
2012/07/02,86600,87000,85500,86000,49,430
2012/07/05,85000,85200,85000,85000,24,425
2012/07/09,85000,85000,85000,85000,17,425
2012/07/10,84200,85000,84200,85000,12,425
2012/07/11,82000,85000,82000,85000,56,425
2012/07/17,81500,83500,81500,83000,27,415
2012/07/18,83000,83400,83000,83000,18,415
2012/07/25,83000,83000,83000,83000,32,415
2012/07/27,83000,84900,83000,83400,29,417
2012/07/30,84300,84300,84000,84000,34,420
2012/07/31,84000,87000,84000,87000,18,435
2012/08/01,84300,84800,84000,84800,11,424
2012/08/03,84400,85300,84200,84400,62,422
2012/08/06,84400,84600,84400,84400,29,422
2012/08/07,85900,89000,85900,88000,102,440
2012/08/09,91600,92000,90800,90800,15,454
2012/08/13,90700,91800,90100,91800,36,459
2012/08/14,91800,92500,90000,90000,296,450
2012/08/15,88100,88200,82700,83200,741,416
2012/08/16,82700,83000,80400,82000,687,410
2012/08/20,82700,82700,81700,81800,266,409
2012/08/22,82500,83000,81700,81800,227,409
2012/08/24,82100,82200,81900,82000,72,410
2012/08/27,82000,82000,81100,81600,63,408
2012/08/28,81600,81600,81000,81000,73,405
2012/08/29,81500,82200,81100,82000,54,410
2012/08/30,82200,83300,82000,82000,66,410
2012/08/31,81600,83300,81000,82200,132,411
2012/09/03,82200,82200,82000,82000,5,410
2012/09/04,82000,82000,82000,82000,2,410
2012/09/05,82200,82200,82000,82000,20,410
2012/09/06,81400,82500,81400,82000,125,410
2012/09/07,83000,83500,82000,83000,159,415
2012/09/12,85000,86900,84800,86800,265,434
2012/09/18,85100,85100,84800,85000,165,425
2012/09/19,85500,86200,84500,86200,407,431
2012/09/20,86000,86000,84800,84800,32,424
2012/09/21,84000,85300,84000,84400,41,422
2012/09/24,85500,88800,85500,88400,149,442
2012/09/25,86600,88000,86400,88000,29,440
2012/09/26,86200,86400,86200,86200,15,431
2012/09/27,87700,87700,84200,86000,55,430
2012/10/03,88900,89200,88700,89200,41,446
2012/10/10,88000,88100,87200,88000,69,440
2012/10/11,86900,88000,86900,87600,230,438
2012/10/16,88500,89000,88000,89000,58,445
2012/10/17,88600,89600,88300,89000,170,445
2012/10/23,89000,91200,88900,91000,595,455
2012/10/24,90100,90800,89700,90800,325,454
2012/10/26,91000,91200,90700,90800,178,454
2012/10/29,91000,91300,90900,91200,180,456
2012/10/30,91200,91500,90400,90400,56,452
2012/11/02,101000,107900,100300,107000,1205,535
2012/11/06,103500,104200,101000,103200,195,516
2012/11/07,104000,104000,100500,101200,195,506
2012/11/09,96900,98400,96600,98400,265,492
2012/11/12,97600,99400,97600,99400,132,497
2012/11/13,99900,101500,99900,101000,64,505
2012/11/15,98500,99900,98100,99600,151,498
2012/11/16,100200,102000,100200,102000,197,510
2012/11/20,105900,107000,105200,105200,415,526
2012/11/21,106700,112100,106400,111000,410,555
2012/11/26,112900,117300,112800,114000,398,570
2012/12/03,122000,122900,120600,122800,210,614
2012/12/06,123500,124000,122400,124000,194,620
2012/12/10,131000,131000,127000,129400,356,647
2012/12/11,130000,130000,127500,128400,201,642
2012/12/12,129300,131000,128200,128200,270,641
2012/12/13,129200,129200,126400,127000,163,635
2012/12/14,128800,129500,127300,128000,177,640
2012/12/19,129800,129800,127500,129000,201,645
2012/12/20,130000,131300,129100,130000,608,650
2012/12/21,130000,131600,125200,130000,602,650
2012/12/25,132200,149500,132200,144000,1265,720
2012/12/26,700,701,670,690,97000,690
2012/12/27,700,704,666,678,95600,678
2012/12/28,678,678,658,677,77100,677
2013/01/04,685,688,654,674,80400,674
2013/01/07,680,680,664,666,121000,666
2013/01/08,671,677,664,669,126000,669
2013/01/09,670,678,666,676,92800,676
2013/01/10,680,745,677,690,187700,690
2013/01/11,690,694,675,690,82500,690
2013/01/15,708,717,690,690,107500,690
2013/01/16,695,696,669,674,123200,674
2013/01/17,671,673,653,663,118000,663
2013/01/18,663,670,653,657,123200,657
2013/01/21,656,680,653,680,90300,680
2013/01/22,682,683,663,669,27800,669
2013/01/23,669,673,645,652,56400,652
2013/01/24,647,652,640,650,93000,650
2013/01/25,652,672,650,665,123000,665
2013/01/28,670,714,670,704,242100,704
2013/01/29,701,708,671,671,136500,671
2013/01/30,669,701,666,690,185000,690
2013/01/31,712,790,711,779,696200,779
2013/02/01,755,786,727,751,344300,751
2013/02/04,755,756,683,690,391200,690
2013/02/05,705,743,695,703,223300,703
2013/02/06,744,755,725,740,211300,740
2013/02/07,744,747,717,735,108300,735
2013/02/08,735,754,726,740,142000,740
2013/02/12,738,748,715,723,127300,723
2013/02/13,743,743,726,728,148700,728
2013/02/14,740,753,731,737,146000,737
2013/02/15,745,745,703,715,152900,715
2013/02/18,726,740,715,726,120300,726
2013/02/19,753,820,735,797,658900,797
2013/02/20,821,846,789,838,437000,838
2013/02/21,850,986,846,929,718200,929
2013/02/22,900,945,862,910,340800,910
2013/02/25,946,979,936,965,292100,965
2013/02/26,936,960,922,944,258100,944
2013/02/27,953,956,931,944,139400,944
2013/02/28,960,977,945,953,161100,953
2013/03/01,959,962,936,956,105300,956
2013/03/04,960,962,941,944,87900,944
2013/03/05,948,988,946,977,272300,977
2013/03/06,974,974,947,950,143900,950
2013/03/07,945,955,895,907,231600,907
2013/03/08,920,932,902,932,135700,932
2013/03/11,929,930,896,919,100400,919
2013/03/12,901,909,890,891,69600,891
2013/03/13,881,904,881,897,56000,897
2013/03/14,897,926,896,923,107600,923
2013/03/15,940,946,920,920,80700,920
2013/03/18,920,935,916,927,58400,927
2013/03/19,925,940,916,930,70600,930
2013/03/21,933,970,916,966,118700,966
2013/03/22,969,976,926,932,116700,932
2013/03/25,920,927,901,908,99100,908
2013/03/26,910,920,880,916,146900,916
2013/03/27,910,924,907,920,74300,920
2013/03/28,918,918,898,906,127700,906
2013/03/29,915,915,895,899,116500,899
2013/04/01,898,904,854,872,103100,872
2013/04/02,782,888,782,870,126300,870
2013/04/03,880,930,880,921,163300,921
2013/04/04,903,928,890,910,90800,910
2013/04/05,940,946,920,940,189000,940
2013/04/08,941,949,925,938,80100,938
2013/04/09,936,938,901,918,69500,918
2013/04/10,911,934,908,928,72900,928
2013/04/11,945,945,917,932,78800,932
2013/04/12,930,935,910,930,55800,930
2013/04/15,930,936,918,931,70000,931
2013/04/16,912,937,912,931,66800,931
2013/04/17,940,998,932,996,324100,996
2013/04/18,1070,1086,1014,1018,426200,1018
2013/04/19,1040,1067,1002,1051,198600,1051
2013/04/22,1065,1118,1037,1105,292800,1105
2013/04/23,1135,1143,1095,1134,190700,1134
2013/04/24,1143,1150,1125,1150,213800,1150
2013/04/25,1120,1148,1090,1132,217900,1132
2013/04/26,1102,1108,1030,1052,203300,1052
2013/04/30,1080,1119,1053,1119,270100,1119
2013/05/01,1149,1176,1119,1121,297900,1121
2013/05/02,1100,1172,1088,1166,164100,1166
2013/05/07,1130,1160,1105,1150,294200,1150
2013/05/08,1140,1141,1039,1085,386100,1085
2013/05/09,1071,1074,1006,1006,379900,1006
2013/05/10,1010,1050,1001,1021,175000,1021
2013/05/13,1032,1065,1010,1042,151600,1042
2013/05/14,1040,1064,1034,1062,104500,1062
2013/05/15,1062,1066,977,984,161000,984
2013/05/16,954,970,880,918,371400,918
2013/05/17,930,970,901,954,220200,954
2013/05/20,980,1015,969,999,145700,999
2013/05/21,1036,1038,960,980,151900,980
2013/05/22,980,994,960,965,138500,965
2013/05/23,970,976,890,900,231300,900
2013/05/24,900,942,895,929,150200,929
2013/05/27,900,907,854,878,95100,878
2013/05/28,870,901,867,897,94400,897
2013/05/29,912,948,909,938,97600,938
2013/05/30,927,949,904,926,115100,926
2013/05/31,936,942,930,935,40600,935
2013/06/03,920,932,888,905,69200,905
2013/06/04,905,920,895,910,131000,910
2013/06/05,895,937,895,910,80700,910
2013/06/06,890,890,820,824,107100,824
2013/06/07,771,838,770,835,240700,835
2013/06/10,850,865,828,852,67000,852
2013/06/11,895,920,840,856,125900,856
2013/06/12,840,881,822,872,96800,872
2013/06/13,846,855,820,820,52300,820
2013/06/14,835,841,806,820,44700,820
2013/06/17,800,828,800,817,41300,817
2013/06/18,828,828,817,823,32100,823
2013/06/19,834,845,831,840,100900,840
2013/06/20,840,844,830,842,90000,842
2013/06/21,812,829,790,815,79700,815
2013/06/24,821,840,821,838,60100,838
2013/06/25,815,837,814,835,46800,835
2013/06/26,825,836,774,782,95600,782
2013/06/27,766,797,733,780,103700,780
2013/06/28,795,830,784,825,98900,825
2013/07/01,843,858,841,858,164400,858
2013/07/02,875,885,861,874,92900,874
2013/07/03,880,890,870,883,60300,883
2013/07/04,877,895,863,879,65300,879
2013/07/05,890,901,876,889,72500,889
2013/07/08,904,912,886,890,103900,890
2013/07/09,895,903,883,889,22500,889
2013/07/10,888,891,870,880,38800,880
2013/07/11,870,884,848,880,22600,880
2013/07/12,888,890,876,890,36300,890
2013/07/16,904,929,895,928,63800,928
2013/07/17,929,953,920,924,74600,924
2013/07/18,925,949,925,942,43400,942
2013/07/19,948,959,912,934,103700,934
2013/07/22,936,945,929,936,71700,936
2013/07/23,937,948,936,945,76700,945
2013/07/24,953,1023,951,997,223400,997
2013/07/25,1024,1044,976,1041,190100,1041
2013/07/26,1029,1030,983,984,86900,984
2013/07/29,1001,1020,923,950,252700,950
2013/07/30,950,1008,944,990,141100,990
2013/07/31,999,999,932,970,107300,970
2013/08/01,947,963,914,944,76400,944
2013/08/02,947,963,935,951,46200,951
2013/08/05,941,950,923,939,43300,939
2013/08/06,940,940,925,930,28100,930
2013/08/07,929,1030,919,930,241900,930
2013/08/08,924,994,918,972,221600,972
2013/08/09,992,1005,923,967,181400,967
2013/08/12,955,991,903,913,101900,913
2013/08/13,914,945,896,901,96700,901
2013/08/14,901,909,872,891,78600,891
2013/08/15,899,915,891,902,17800,902
2013/08/16,891,907,886,886,35900,886
2013/08/19,880,934,880,930,49100,930
2013/08/20,915,920,897,910,50800,910
2013/08/21,895,909,873,890,79900,890
2013/08/22,873,900,862,891,72100,891
2013/08/23,890,905,868,894,49700,894
2013/08/26,905,905,886,891,28100,891
2013/08/27,886,910,879,909,55800,909
2013/08/28,900,908,891,900,65000,900
2013/08/29,891,909,891,909,30400,909
2013/08/30,927,1059,926,1059,1284200,1059
2013/09/02,1179,1299,933,943,2411100,943
2013/09/03,963,1024,928,959,533900,959
2013/09/04,950,990,940,968,208900,968
2013/09/05,1039,1058,970,1003,1351400,1003
2013/09/06,983,989,935,939,442700,939
2013/09/09,950,961,902,933,428500,933
2013/09/10,920,922,895,900,316300,900
2013/09/11,900,930,900,918,270300,918
2013/09/12,910,925,908,910,185700,910
2013/09/13,913,919,896,896,316100,896
2013/09/17,898,954,897,921,431400,921
2013/09/18,951,975,920,922,614200,922
2013/09/19,925,929,909,910,431300,910
2013/09/20,924,952,921,933,380700,933
2013/09/24,930,946,927,943,192900,943
2013/09/25,944,964,930,931,227500,931
2013/09/26,928,945,927,935,120700,935
2013/09/27,945,962,937,947,293600,947
2013/09/30,944,948,930,933,292300,933
2013/10/01,925,933,915,920,726000,920
2013/10/02,922,928,906,910,353300,910
2013/10/03,905,908,876,887,334300,887
2013/10/04,880,890,839,880,530200,880
2013/10/07,875,885,866,869,151600,869
2013/10/08,861,874,852,870,200900,870
2013/10/09,861,890,858,890,145600,890
2013/10/10,903,925,900,910,325300,910
2013/10/11,915,946,911,944,408100,944
2013/10/15,972,972,944,954,308900,954
2013/10/16,965,1005,958,973,1017900,973
2013/10/17,988,988,960,971,370700,971
2013/10/18,976,986,971,981,293900,981
2013/10/21,998,1010,987,995,266500,995
2013/10/22,993,995,965,978,220600,978
2013/10/23,980,987,960,969,236000,969
2013/10/24,968,990,967,989,215700,989
2013/10/25,993,995,979,995,229000,995
2013/10/28,920,935,894,915,843400,915
2013/10/29,899,905,853,878,826200,878
2013/10/30,871,882,842,842,486200,842
2013/10/31,853,868,847,852,243000,852
2013/11/01,853,854,812,838,427600,838
2013/11/05,940,952,896,921,1736400,921
2013/11/06,910,946,908,922,542500,922
2013/11/07,908,928,902,915,362600,915
2013/11/08,910,910,871,897,482500,897
2013/11/11,899,899,852,852,365900,852
2013/11/12,854,865,843,853,353000,853
2013/11/13,853,856,826,841,338200,841
2013/11/14,841,862,831,838,455800,838
2013/11/15,843,855,835,852,422900,852
2013/11/18,867,887,857,865,435300,865
2013/11/19,880,884,860,881,325000,881
2013/11/20,893,953,891,936,1070300,936
2013/11/21,945,982,932,952,1000400,952
2013/11/22,960,968,930,948,569500,948
2013/11/25,950,952,933,935,516400,935
2013/11/26,935,979,934,969,665400,969
2013/11/27,991,1015,974,987,1339800,987
2013/11/28,999,1094,990,1078,2031300,1078
2013/11/29,1084,1090,1033,1090,1188400,1090
2013/12/02,1110,1229,1110,1224,2394000,1224
2013/12/03,1230,1255,1120,1189,1662300,1189
2013/12/04,1170,1210,1130,1182,1124400,1182
2013/12/05,1190,1230,1167,1189,905800,1189
2013/12/06,1160,1188,1089,1183,1094600,1183
2013/12/09,1191,1215,1110,1158,1515100,1158
2013/12/10,1128,1135,1043,1065,1455400,1065
2013/12/11,1073,1097,1027,1061,1097500,1061
2013/12/12,1040,1057,1030,1053,391500,1053
2013/12/13,1050,1067,1032,1037,378400,1037
2013/12/16,1050,1050,990,996,667800,996
2013/12/17,996,1014,988,1000,333300,1000
2013/12/18,993,1005,984,1001,225700,1001
2013/12/19,1025,1030,971,988,374200,988
2013/12/20,973,983,953,960,482100,960
2013/12/24,960,982,933,945,733500,945
2013/12/25,950,967,946,962,571500,962
2013/12/26,955,961,940,960,401100,960
2013/12/27,960,972,945,963,363600,963
2013/12/30,968,1026,967,999,703300,999
2014/01/06,1015,1023,982,993,595200,993
2014/01/07,987,991,959,965,430300,965
2014/01/08,974,978,962,974,245400,974
2014/01/09,977,977,952,957,546700,957
2014/01/10,972,984,954,965,571500,965
2014/01/14,950,958,931,943,313700,943
2014/01/15,958,959,940,947,226800,947
2014/01/16,957,962,947,955,248200,955
2014/01/17,955,967,948,963,246800,963
2014/01/20,966,971,956,964,248900,964
2014/01/21,960,1019,958,1006,757900,1006
2014/01/22,1030,1098,1007,1027,1001600,1027
2014/01/23,1038,1042,994,1003,423400,1003
2014/01/24,982,998,975,983,267700,983
2014/01/27,948,960,922,924,387100,924
2014/01/28,933,959,926,934,295400,934
2014/01/29,904,949,892,941,735200,941
2014/01/30,935,946,917,941,469700,941
2014/01/31,949,986,917,939,511000,939
2014/02/03,864,938,789,802,1510000,802
2014/02/04,701,749,687,701,1196600,701
2014/02/05,761,767,705,751,810200,751
2014/02/06,751,794,748,785,435100,785
2014/02/07,785,809,772,783,431400,783
2014/02/10,813,842,805,828,478300,828
2014/02/12,837,845,809,815,336700,815
2014/02/13,818,818,784,795,277500,795
2014/02/14,809,812,777,786,294700,786
2014/02/17,778,798,750,782,164900,782
2014/02/18,780,797,762,785,168000,785
2014/02/19,804,875,803,833,1119900,833
2014/02/20,834,880,831,846,695900,846
2014/02/21,858,867,832,856,453600,856
2014/02/24,844,867,840,857,220500,857
2014/02/25,874,884,852,859,282600,859
2014/02/26,844,851,822,825,248200,825
2014/02/27,830,864,828,833,349600,833
2014/02/28,818,826,803,816,167100,816
2014/03/03,795,799,781,797,155300,797
2014/03/04,790,813,785,807,213300,807
2014/03/05,808,820,806,816,141900,816
2014/03/06,814,836,814,832,152500,832
2014/03/07,832,836,823,831,109600,831
2014/03/10,823,832,815,827,102600,827
2014/03/11,826,826,814,825,103200,825
2014/03/12,819,820,807,808,78100,808
2014/03/13,808,810,800,800,67100,800
2014/03/14,793,794,774,775,188900,775
2014/03/17,765,785,755,761,127800,761
2014/03/18,766,784,764,775,131800,775
2014/03/19,775,786,762,769,93200,769
2014/03/20,757,764,720,738,142500,738
2014/03/24,750,797,750,794,234800,794
2014/03/25,790,797,764,768,83000,768
2014/03/26,760,776,760,768,75100,768
2014/03/27,776,776,745,766,143300,766
2014/03/28,770,804,769,797,153700,797
2014/03/31,809,809,778,787,178500,787
2014/04/01,795,797,777,790,86200,790
2014/04/02,793,822,784,808,199300,808
2014/04/03,820,830,804,809,138600,809
2014/04/04,816,829,815,829,104400,829
2014/04/07,820,820,803,809,94700,809
2014/04/08,805,805,783,787,86700,787
2014/04/09,785,791,771,773,113700,773
2014/04/10,792,796,768,775,87900,775
2014/04/11,750,786,750,775,161600,775
2014/04/14,767,806,765,803,136400,803
2014/04/15,804,819,765,773,178600,773
2014/04/16,778,798,778,792,142700,792
2014/04/17,790,797,770,779,131300,779
2014/04/18,785,792,769,778,104400,778
2014/04/21,784,790,777,781,63100,781
2014/04/22,791,791,777,783,95500,783
2014/04/23,788,827,760,815,299700,815
2014/04/24,807,813,800,802,105300,802
2014/04/25,817,824,808,812,136800,812
2014/04/28,797,799,756,770,403800,770
2014/04/30,791,791,769,779,187400,779
2014/05/01,784,817,782,816,214800,816
2014/05/02,815,830,807,822,125200,822
2014/05/07,792,797,767,768,271100,768
2014/05/08,770,774,748,750,193800,750
2014/05/09,745,759,736,744,130600,744
2014/05/12,744,759,724,725,135400,725
2014/05/13,733,752,729,731,137100,731
2014/05/14,731,748,731,738,73000,738
2014/05/15,740,748,731,743,52000,743
2014/05/16,741,743,724,734,83500,734
2014/05/19,739,741,708,709,87800,709
2014/05/20,723,727,715,717,75800,717
2014/05/21,709,731,709,716,87200,716
2014/05/22,721,728,716,720,88100,720
2014/05/23,721,734,721,723,85700,723
2014/05/26,729,758,729,755,103400,755
2014/05/27,766,768,757,760,108300,760
2014/05/28,765,765,753,758,77000,758
2014/05/29,753,760,750,753,105000,753
2014/05/30,755,772,746,752,155800,752
2014/06/02,754,774,754,766,175600,766
2014/06/03,771,788,766,786,302100,786
2014/06/04,790,798,777,782,155300,782
2014/06/05,795,797,770,780,145500,780
2014/06/06,779,782,765,775,159600,775
2014/06/09,775,794,772,790,134400,790
2014/06/10,792,797,777,780,116300,780
2014/06/11,782,828,782,813,384200,813
2014/06/12,801,814,800,805,179000,805
2014/06/13,806,823,803,819,159800,819
2014/06/16,817,831,810,824,199900,824
2014/06/17,820,824,801,812,171700,812
2014/06/18,814,816,804,806,118100,806
2014/06/19,804,810,802,806,147900,806
2014/06/20,803,807,785,793,287800,793
2014/06/23,786,795,785,792,162600,792
2014/06/24,790,793,780,786,170800,786
2014/06/25,781,797,781,788,225300,788
2014/06/26,789,802,780,790,151500,790
2014/06/27,795,795,769,782,141300,782
2014/06/30,781,798,779,797,130700,797
2014/07/01,801,802,794,799,102200,799
2014/07/02,803,808,797,800,136800,800
2014/07/03,803,804,789,793,118200,793
2014/07/04,799,800,792,797,84400,797
2014/07/07,800,801,783,785,157600,785
2014/07/08,780,780,762,779,221800,779
2014/07/09,770,776,761,767,119700,767
2014/07/10,767,777,755,757,120700,757
2014/07/11,772,830,752,809,1089000,809
2014/07/14,809,810,775,800,291200,800
2014/07/15,800,808,781,806,193700,806
2014/07/16,807,807,788,789,214300,789
2014/07/17,789,792,762,767,265000,767
2014/07/18,760,767,757,764,82200,764
2014/07/22,765,770,760,765,111000,765
2014/07/23,773,791,769,785,184700,785
2014/07/24,789,790,772,785,199200,785
2014/07/25,785,794,781,790,332100,790
2014/07/28,760,779,753,769,490300,769
2014/07/29,761,770,759,764,181300,764
2014/07/30,763,766,751,754,351700,754
2014/07/31,757,760,750,750,266800,750
2014/08/01,741,758,737,747,173700,747
2014/08/04,760,770,755,764,279200,764
2014/08/05,761,761,737,737,234300,737
2014/08/06,735,745,730,730,135000,730
2014/08/07,730,742,725,729,100700,729
2014/08/08,723,734,704,705,280200,705
2014/08/11,732,737,712,720,175700,720
2014/08/12,719,730,707,715,173000,715
2014/08/13,717,722,711,721,68800,721
2014/08/14,730,740,723,735,110500,735
2014/08/15,736,741,727,739,79600,739
2014/08/18,743,744,739,740,65200,740
2014/08/19,745,745,731,738,114100,738
2014/08/20,739,742,734,737,69200,737
2014/08/21,765,775,741,744,439200,744
2014/08/22,753,753,741,743,107600,743
2014/08/25,748,748,737,744,92400,744
2014/08/26,742,742,732,734,118800,734
2014/08/27,734,738,732,734,67300,734
2014/08/28,736,740,732,736,90600,736
2014/08/29,731,739,731,735,92600,735
2014/09/01,736,755,736,754,117500,754
2014/09/02,757,758,750,753,82500,753
2014/09/03,755,764,742,748,171200,748
2014/09/04,749,750,737,740,85700,740
2014/09/05,743,745,736,738,67300,738
2014/09/08,741,741,736,737,61800,737
2014/09/09,742,753,742,747,131400,747
2014/09/10,747,750,741,744,68800,744
2014/09/11,743,747,742,744,81200,744
2014/09/12,746,751,744,747,69300,747
2014/09/16,754,755,748,751,70000,751
2014/09/17,754,777,748,775,193900,775
2014/09/18,762,767,757,763,155600,763
2014/09/19,763,766,753,758,130000,758
2014/09/22,763,765,759,764,85800,764
2014/09/24,763,763,757,761,66800,761
2014/09/25,764,769,762,768,129300,768
2014/09/26,759,775,759,770,169600,770
2014/09/29,776,791,775,781,181000,781
2014/09/30,781,784,762,767,122600,767
2014/10/01,762,764,751,754,121400,754
2014/10/02,741,741,731,733,162500,733
2014/10/03,735,756,733,753,112900,753
2014/10/06,766,766,756,759,76400,759
2014/10/07,760,760,744,745,80600,745
2014/10/08,735,742,732,734,76400,734
2014/10/09,745,745,721,723,129100,723
2014/10/10,723,763,715,721,282200,721
2014/10/14,711,716,705,706,129400,706
2014/10/15,711,718,705,716,67200,716
2014/10/16,700,710,695,699,123800,699
2014/10/17,701,715,677,682,151600,682
2014/10/20,700,729,700,729,114400,729
2014/10/21,733,735,717,719,98800,719
2014/10/22,731,734,723,730,75900,730
2014/10/23,730,735,726,731,93000,731
2014/10/24,734,736,721,722,57200,722
2014/10/27,728,733,726,731,98000,731
2014/10/28,736,754,732,737,236200,737
2014/10/29,738,743,731,736,104800,736
2014/10/30,733,748,730,735,96400,735
2014/10/31,741,750,740,745,163800,745
2014/11/04,770,777,758,766,235900,766
2014/11/05,766,774,754,771,196600,771
2014/11/06,771,782,760,765,161800,765
2014/11/07,765,788,765,777,245300,777
2014/11/10,782,789,772,789,176300,789
2014/11/11,797,797,788,793,97300,793
2014/11/12,793,806,792,798,244300,798
2014/11/13,795,799,787,793,111800,793
2014/11/14,789,798,784,785,113100,785
2014/11/17,787,797,772,776,179400,776
2014/11/18,776,794,776,789,119800,789
2014/11/19,795,802,786,795,183900,795
2014/11/20,795,797,786,788,75800,788
2014/11/21,787,794,777,790,61500,790
2014/11/25,792,797,784,787,107400,787
2014/11/26,788,792,783,791,102200,791
2014/11/27,788,791,778,784,113000,784
2014/11/28,781,791,779,789,101200,789
2014/12/01,789,808,789,804,224000,804
2014/12/02,810,827,805,819,302200,819
2014/12/03,812,817,797,808,230900,808
2014/12/04,807,815,799,806,112800,806
2014/12/05,805,808,794,806,114400,806
2014/12/08,806,807,797,800,98100,800
2014/12/09,794,800,790,791,103800,791
2014/12/10,783,789,775,780,131500,780
2014/12/11,765,790,764,785,163500,785
2014/12/12,779,790,759,761,355300,761
2014/12/15,758,767,752,753,115800,753
2014/12/16,750,752,735,739,199500,739
2014/12/17,731,742,730,737,102000,737
2014/12/18,749,754,742,749,124500,749
2014/12/19,769,769,758,761,99100,761
2014/12/22,766,768,760,765,100900,765
2014/12/24,765,772,765,767,216400,767
2014/12/25,768,771,759,763,204600,763
2014/12/26,725,753,722,745,262800,745
2014/12/29,748,748,729,740,189000,740
2014/12/30,738,741,731,735,85500,735
2015/01/05,735,739,732,734,88600,734
2015/01/06,728,730,720,721,131300,721
2015/01/07,721,729,711,716,160500,716
2015/01/08,719,720,712,715,90400,715
2015/01/09,717,720,711,713,78800,713
2015/01/13,711,716,708,713,81800,713
2015/01/14,711,714,703,705,113000,705
2015/01/15,703,713,703,707,73600,707
2015/01/16,706,707,689,697,131400,697
2015/01/19,701,704,692,694,59100,694
2015/01/20,698,700,694,700,50300,700
2015/01/21,701,701,696,698,57700,698
2015/01/22,697,697,689,691,72700,691
2015/01/23,692,697,691,695,63900,695
2015/01/26,695,701,692,696,64300,696
2015/01/27,698,714,698,712,113200,712
2015/01/28,710,717,708,716,67700,716
2015/01/29,718,718,704,705,112600,705
2015/01/30,650,659,626,643,792200,643
2015/02/02,637,648,631,647,221600,647
2015/02/03,647,651,642,650,126900,650
2015/02/04,645,653,645,647,103400,647
2015/02/05,646,652,642,651,187300,651
2015/02/06,651,651,643,644,95000,644
2015/02/09,649,649,644,649,44400,649
2015/02/10,645,666,645,657,134200,657
2015/02/12,661,661,646,646,72600,646
2015/02/13,651,651,625,627,211000,627
2015/02/16,627,631,610,614,183000,614
2015/02/17,607,617,604,613,126500,613
2015/02/18,617,636,616,632,179900,632
2015/02/19,632,645,630,643,152400,643
2015/02/20,646,658,643,655,142200,655
2015/02/23,682,682,653,664,185100,664
2015/02/24,667,675,658,674,152300,674
2015/02/25,670,672,662,663,159300,663
2015/02/26,659,669,659,667,80100,667
2015/02/27,669,700,669,684,220000,684
2015/03/02,683,699,681,694,112400,694
2015/03/03,694,694,673,678,71400,678
2015/03/04,670,682,662,680,120500,680
2015/03/05,671,690,671,681,103000,681
2015/03/06,685,693,674,678,132400,678
2015/03/09,681,710,681,699,250000,699
2015/03/10,705,715,701,705,134600,705
2015/03/11,702,710,695,702,85000,702
2015/03/12,708,710,688,693,111900,693
2015/03/13,689,699,688,691,103500,691
2015/03/16,690,697,685,687,67500,687
2015/03/17,693,693,681,681,63300,681
2015/03/18,676,683,672,681,63300,681
2015/03/19,674,680,666,669,73200,669
2015/03/20,665,679,665,679,61100,679
2015/03/23,675,693,675,681,59500,681
2015/03/24,679,690,679,684,43300,684
2015/03/25,700,708,696,707,206800,707
2015/03/26,706,715,696,698,257000,698
2015/03/27,688,708,688,691,67000,691
2015/03/30,691,699,689,699,52300,699
2015/03/31,700,703,696,696,58000,696
2015/04/01,696,702,692,701,59400,701
2015/04/02,696,710,696,703,105400,703
2015/04/03,707,714,703,711,84100,711
2015/04/06,710,713,702,707,42600,707
2015/04/07,707,709,700,707,81700,707
2015/04/08,704,715,704,715,84400,715
2015/04/09,710,718,705,709,91500,709
2015/04/10,708,710,704,709,38600,709
2015/04/13,703,705,689,696,102000,696
2015/04/14,696,705,693,705,79600,705
2015/04/15,706,708,696,700,76600,700
2015/04/16,704,704,691,699,34400,699
2015/04/17,698,698,685,687,54200,687
2015/04/20,685,685,676,676,42600,676
2015/04/21,682,687,676,684,40900,684
2015/04/22,684,691,683,686,23100,686
2015/04/23,687,698,682,688,63100,688
2015/04/24,685,690,682,685,29900,685
2015/04/27,689,689,678,681,41800,681
2015/04/28,684,685,674,675,31200,675
2015/04/30,671,696,671,690,163700,690
2015/05/01,682,690,674,679,87400,679
2015/05/07,689,715,686,710,232400,710
2015/05/08,710,731,710,724,187300,724
2015/05/11,730,732,715,721,79800,721
2015/05/12,718,732,716,730,85700,730
2015/05/13,720,734,720,730,88200,730
2015/05/14,723,732,711,714,67100,714
2015/05/15,714,722,711,721,57000,721
2015/05/18,714,720,707,711,35400,711
2015/05/19,715,723,714,722,43300,722
2015/05/20,722,722,714,719,44200,719
2015/05/21,728,728,712,715,43400,715
2015/05/22,710,717,707,710,44100,710
2015/05/25,708,720,708,712,53900,712
2015/05/26,715,717,708,713,42200,713
2015/05/27,709,719,706,714,39200,714
2015/05/28,713,713,702,703,47000,703
2015/05/29,701,705,698,705,26900,705
2015/06/01,702,707,700,704,22000,704
2015/06/02,704,716,703,713,45800,713
2015/06/03,713,720,710,720,67400,720
2015/06/04,725,728,722,723,46800,723
2015/06/05,725,728,713,725,72600,725
2015/06/08,723,730,722,723,35900,723
2015/06/09,717,723,712,716,49200,716
2015/06/10,713,719,708,708,32300,708
2015/06/11,704,716,704,711,35400,711
2015/06/12,716,721,713,717,68700,717
2015/06/15,711,719,711,714,29000,714
2015/06/16,711,717,708,711,44900,711
2015/06/17,718,722,714,721,50000,721
2015/06/18,715,720,709,713,32300,713
2015/06/19,709,713,693,693,95300,693
2015/06/22,696,704,695,703,25700,703
2015/06/23,700,706,699,704,25300,704
2015/06/24,699,709,699,703,52100,703
2015/06/25,698,708,698,702,16900,702
2015/06/26,700,704,693,698,37900,698
2015/06/29,680,693,663,668,115800,668
2015/06/30,670,674,660,673,61700,673
2015/07/01,672,684,669,681,62900,681
