2011/01/04,606,614,606,614,700,614
2011/01/05,615,617,615,617,300,617
2011/01/06,617,617,617,617,100,617
2011/01/07,616,616,600,600,3500,600
2011/01/11,612,612,602,602,900,602
2011/01/12,604,604,602,602,800,602
2011/01/13,603,612,600,612,5700,612
2011/01/14,606,606,598,598,3400,598
2011/01/17,614,614,612,612,300,612
2011/01/18,609,613,609,613,700,613
2011/01/19,613,614,600,614,1600,614
2011/01/20,614,614,606,606,200,606
2011/01/21,614,616,610,612,1000,612
2011/01/24,613,615,600,610,1500,610
2011/01/25,605,613,600,610,2000,610
2011/01/26,618,618,615,618,1200,618
2011/01/27,600,600,570,600,4000,600
2011/01/28,588,600,588,600,500,600
2011/01/31,590,600,590,600,300,600
2011/02/01,610,610,596,600,1300,600
2011/02/02,605,605,596,600,500,600
2011/02/03,600,600,600,600,300,600
2011/02/04,601,601,601,601,200,601
2011/02/07,602,608,602,608,400,608
2011/02/08,609,615,608,608,2800,608
2011/02/09,610,620,595,609,2000,609
2011/02/10,619,619,602,602,600,602
2011/02/14,602,612,602,608,1400,608
2011/02/15,615,615,615,615,1700,615
2011/02/16,615,615,615,615,1200,615
2011/02/17,624,624,624,624,100,624
2011/02/18,620,620,620,620,200,620
2011/02/21,620,645,620,644,2900,644
2011/02/22,643,669,626,654,8200,654
2011/02/23,655,680,649,649,7200,649
2011/02/24,656,680,656,666,7100,666
2011/02/25,643,645,625,625,5900,625
2011/02/28,626,627,623,624,2300,624
2011/03/01,638,638,638,638,100,638
2011/03/02,630,630,626,626,1100,626
2011/03/03,628,628,628,628,100,628
2011/03/04,638,645,638,638,400,638
2011/03/07,638,638,628,628,1500,628
2011/03/08,627,627,624,624,600,624
2011/03/09,640,640,624,631,1000,631
2011/03/10,623,628,623,628,1100,628
2011/03/11,628,630,623,623,600,623
2011/03/14,599,599,550,563,4700,563
2011/03/15,553,565,508,510,9900,510
2011/03/16,500,559,500,520,7900,520
2011/03/17,549,549,520,530,2100,530
2011/03/18,531,590,531,590,900,590
2011/03/22,610,620,580,580,4000,580
2011/03/23,600,600,599,599,400,599
2011/03/24,600,600,595,595,500,595
2011/03/25,590,608,590,608,1400,608
2011/03/28,619,635,595,595,1400,595
2011/03/29,585,585,585,585,1000,585
2011/03/30,589,589,589,589,100,589
2011/03/31,590,610,587,587,500,587
2011/04/01,590,590,590,590,100,590
2011/04/04,586,600,586,600,1100,600
2011/04/05,617,617,617,617,100,617
2011/04/06,599,599,599,599,100,599
2011/04/07,600,610,600,610,200,610
2011/04/08,590,590,586,590,1600,590
2011/04/11,587,595,587,595,1100,595
2011/04/12,600,600,596,596,300,596
2011/04/15,602,602,602,602,100,602
2011/04/18,603,603,603,603,200,603
2011/04/19,603,603,598,601,1300,601
2011/04/20,603,603,603,603,300,603
2011/04/21,600,601,595,595,2600,595
2011/04/22,606,606,606,606,100,606
2011/04/25,604,604,604,604,400,604
2011/04/26,635,635,635,635,2000,635
2011/04/27,631,631,629,629,200,629
2011/04/28,609,619,609,610,2200,610
2011/05/02,620,621,620,620,1200,620
2011/05/06,620,630,606,630,1200,630
2011/05/09,630,645,630,641,2100,641
2011/05/10,640,640,625,640,900,640
2011/05/11,640,640,640,640,700,640
2011/05/12,642,642,640,640,900,640
2011/05/13,650,655,650,650,1000,650
2011/05/16,648,648,626,626,600,626
2011/05/17,621,622,620,621,3200,621
2011/05/18,635,640,635,640,1000,640
2011/05/19,645,645,640,645,700,645
2011/05/20,635,635,635,635,600,635
2011/05/23,626,645,625,625,500,625
2011/05/25,675,675,675,675,2100,675
2011/05/26,680,680,670,670,1400,670
2011/05/27,650,650,643,643,1500,643
2011/05/30,629,645,629,629,2600,629
2011/05/31,648,649,648,649,700,649
2011/06/01,629,640,627,631,2300,631
2011/06/02,620,627,620,627,1200,627
2011/06/03,640,640,629,634,600,634
2011/06/06,632,639,632,634,700,634
2011/06/07,633,633,633,633,600,633
2011/06/08,630,635,627,627,1800,627
2011/06/09,620,623,620,623,800,623
2011/06/10,630,630,629,629,300,629
2011/06/13,624,624,624,624,100,624
2011/06/14,634,634,620,620,5000,620
2011/06/15,623,623,623,623,100,623
2011/06/17,623,623,623,623,400,623
2011/06/20,631,631,631,631,200,631
2011/06/21,644,644,641,641,900,641
2011/06/22,641,641,641,641,100,641
2011/06/23,641,641,641,641,100,641
2011/06/24,640,640,636,636,900,636
2011/06/27,648,648,643,643,500,643
2011/06/29,640,642,640,642,300,642
2011/06/30,636,641,636,638,600,638
2011/07/01,644,645,640,645,800,645
2011/07/04,645,649,645,647,2000,647
2011/07/05,646,647,645,647,900,647
2011/07/06,647,653,647,650,1400,650
2011/07/07,650,654,650,653,300,653
2011/07/08,660,661,650,650,4100,650
2011/07/11,660,660,658,658,200,658
2011/07/12,660,660,658,658,600,658
2011/07/13,661,665,660,664,3000,664
2011/07/14,664,668,664,665,900,665
2011/07/15,668,668,668,668,200,668
2011/07/19,660,672,660,672,3400,672
2011/07/20,674,675,672,675,1500,675
2011/07/21,672,677,672,677,1100,677
2011/07/22,677,679,676,679,1400,679
2011/07/25,678,678,675,678,3700,678
2011/07/26,678,679,678,678,1100,678
2011/07/27,636,651,635,651,1400,651
2011/07/28,670,670,645,650,5600,650
2011/07/29,652,655,650,652,1400,652
2011/08/01,670,670,670,670,100,670
2011/08/02,655,660,650,660,1800,660
2011/08/03,645,645,640,641,900,641
2011/08/04,643,671,643,671,800,671
2011/08/08,640,642,639,642,2400,642
2011/08/09,638,638,630,635,5400,635
2011/08/10,670,670,670,670,100,670
2011/08/15,652,652,650,650,800,650
2011/08/16,651,651,630,640,1000,640
2011/08/17,650,650,650,650,100,650
2011/08/18,643,644,643,644,200,644
2011/08/19,635,635,626,626,1800,626
2011/08/22,627,651,627,627,1700,627
2011/08/23,627,627,627,627,100,627
2011/08/24,628,628,628,628,300,628
2011/08/25,635,635,635,635,200,635
2011/08/26,654,654,625,625,700,625
2011/08/29,626,626,626,626,100,626
2011/08/30,635,635,635,635,100,635
2011/09/01,635,635,635,635,600,635
2011/09/02,630,634,630,634,400,634
2011/09/05,629,635,629,635,300,635
2011/09/06,655,655,655,655,100,655
2011/09/07,635,640,635,640,300,640
2011/09/09,649,649,649,649,200,649
2011/09/12,627,628,627,628,1100,628
2011/09/13,635,640,635,640,300,640
2011/09/14,640,640,630,630,800,630
2011/09/15,640,648,639,640,1200,640
2011/09/16,641,650,640,648,1700,648
2011/09/20,648,648,645,645,300,645
2011/09/21,648,655,648,655,1200,655
2011/09/22,652,652,650,650,300,650
2011/09/26,659,659,658,658,400,658
2011/09/27,658,658,628,628,700,628
2011/09/28,658,658,658,658,100,658
2011/09/29,645,645,644,644,300,644
2011/10/03,645,645,645,645,100,645
2011/10/05,637,637,637,637,200,637
2011/10/06,645,645,645,645,100,645
2011/10/07,648,648,648,648,100,648
2011/10/11,641,641,641,641,100,641
2011/10/12,648,648,648,648,1200,648
2011/10/13,648,648,648,648,200,648
2011/10/17,650,651,648,648,800,648
2011/10/18,640,640,640,640,100,640
2011/10/20,640,640,636,636,500,636
2011/10/21,640,640,640,640,100,640
2011/10/24,645,645,645,645,100,645
2011/10/25,650,659,650,659,400,659
2011/10/26,659,659,650,655,700,655
2011/10/28,647,655,641,655,1200,655
2011/10/31,660,670,650,650,3000,650
2011/11/04,648,665,646,660,2000,660
2011/11/07,660,660,650,650,1300,650
2011/11/08,650,650,650,650,400,650
2011/11/09,659,659,659,659,300,659
2011/11/10,651,651,649,649,900,649
2011/11/11,648,659,648,659,600,659
2011/11/14,650,659,649,659,600,659
2011/11/15,652,661,651,653,700,653
2011/11/16,655,655,655,655,200,655
2011/11/17,655,655,652,652,1500,652
2011/11/18,655,655,655,655,1000,655
2011/11/21,660,660,660,660,100,660
2011/11/22,656,656,656,656,100,656
2011/11/24,656,660,656,656,1300,656
2011/11/25,656,659,656,659,700,659
2011/11/28,662,662,659,661,2900,661
2011/11/29,665,665,659,659,600,659
2011/11/30,665,665,664,664,300,664
2011/12/01,663,663,663,663,500,663
2011/12/02,665,665,665,665,400,665
2011/12/05,665,673,660,660,2100,660
2011/12/07,660,660,660,660,200,660
2011/12/08,664,664,664,664,300,664
2011/12/09,656,656,656,656,400,656
2011/12/12,665,670,656,656,800,656
2011/12/13,671,673,665,673,3600,673
2011/12/14,673,673,673,673,300,673
2011/12/15,673,673,673,673,300,673
2011/12/16,680,680,680,680,700,680
2011/12/19,690,690,677,680,400,680
2011/12/20,680,680,680,680,300,680
2011/12/21,695,695,695,695,200,695
2011/12/22,695,697,695,697,1200,697
2011/12/26,697,697,680,681,3100,681
2011/12/27,679,696,679,690,1000,690
2011/12/28,685,690,681,690,500,690
2011/12/29,681,681,681,681,100,681
2012/01/04,685,690,685,690,500,690
2012/01/06,700,700,690,690,800,690
2012/01/10,698,704,695,695,700,695
2012/01/11,695,705,695,705,500,705
2012/01/12,696,696,688,688,1000,688
2012/01/13,682,682,682,682,1000,682
2012/01/16,700,700,700,700,400,700
2012/01/17,685,685,685,685,1000,685
2012/01/18,683,690,683,690,400,690
2012/01/19,683,690,683,690,600,690
2012/01/20,690,690,683,690,1000,690
2012/01/23,690,697,690,697,800,697
2012/01/24,697,697,680,680,2100,680
2012/01/25,688,695,688,693,1300,693
2012/01/26,693,695,685,689,1100,689
2012/01/27,681,682,681,682,1100,682
2012/01/30,687,687,681,681,600,681
2012/01/31,690,690,690,690,300,690
2012/02/02,683,683,683,683,100,683
2012/02/03,683,690,683,688,700,688
2012/02/06,690,690,684,684,700,684
2012/02/07,684,684,684,684,400,684
2012/02/08,684,695,682,695,1200,695
2012/02/09,700,700,700,700,100,700
2012/02/10,696,697,696,697,400,697
2012/02/13,698,707,682,707,4500,707
2012/02/14,700,700,699,699,1400,699
2012/02/15,700,701,695,701,2900,701
2012/02/16,705,705,701,701,400,701
2012/02/17,703,704,700,700,1600,700
2012/02/20,707,707,701,701,600,701
2012/02/21,700,707,697,707,800,707
2012/02/22,709,710,704,704,2200,704
2012/02/23,704,704,700,700,800,700
2012/02/24,700,713,700,713,1800,713
2012/02/27,714,724,713,724,2300,724
2012/02/28,715,720,708,708,3900,708
2012/02/29,708,718,708,718,1400,718
2012/03/01,718,718,704,704,2800,704
2012/03/02,717,717,710,710,300,710
2012/03/05,712,712,712,712,500,712
2012/03/06,706,707,706,707,500,707
2012/03/07,709,709,706,707,1200,707
2012/03/08,707,718,707,718,1000,718
2012/03/09,718,718,708,715,4300,715
2012/03/12,715,730,715,722,3800,722
2012/03/13,723,728,722,728,1400,728
2012/03/14,743,800,743,799,23800,799
2012/03/15,810,815,791,794,14200,794
2012/03/16,794,794,765,787,3200,787
2012/03/19,809,809,792,792,2900,792
2012/03/21,792,792,778,778,1800,778
2012/03/22,799,800,775,789,1400,789
2012/03/23,789,789,778,779,1200,779
2012/03/26,790,790,775,775,800,775
2012/03/27,775,785,775,785,2200,785
2012/03/28,785,790,785,785,1300,785
2012/03/29,777,784,770,784,1200,784
2012/03/30,799,799,770,770,3000,770
2012/04/02,798,800,798,800,400,800
2012/04/03,800,813,800,813,1000,813
2012/04/04,815,815,795,795,4000,795
2012/04/05,786,801,786,795,1900,795
2012/04/06,790,800,790,791,1500,791
2012/04/09,800,808,800,801,600,801
2012/04/10,802,824,802,824,2400,824
2012/04/11,817,820,817,818,1600,818
2012/04/12,818,818,818,818,1100,818
2012/04/13,818,824,818,824,2100,824
2012/04/16,830,847,830,847,3800,847
2012/04/17,840,850,833,834,5300,834
2012/04/18,827,844,823,823,1800,823
2012/04/19,823,830,813,813,2500,813
2012/04/20,818,830,818,830,1400,830
2012/04/23,836,836,820,820,1200,820
2012/04/24,820,832,820,832,200,832
2012/04/25,834,840,832,840,800,840
2012/04/26,847,848,841,848,3000,848
2012/04/27,850,850,835,840,4100,840
2012/05/01,854,854,839,840,2300,840
2012/05/02,849,849,839,840,1200,840
2012/05/07,845,850,820,845,2300,845
2012/05/08,845,845,845,845,500,845
2012/05/09,832,840,824,840,1400,840
2012/05/10,840,840,840,840,400,840
2012/05/11,845,845,824,839,1200,839
2012/05/14,840,840,824,825,1300,825
2012/05/15,824,824,810,810,2500,810
2012/05/16,814,820,814,820,600,820
2012/05/17,819,819,819,819,1400,819
2012/05/18,818,820,812,820,700,820
2012/05/21,820,820,820,820,1000,820
2012/05/22,830,830,830,830,600,830
2012/05/23,839,850,839,850,3600,850
2012/05/24,850,869,823,865,4900,865
2012/05/25,870,870,865,869,1400,869
2012/05/28,870,874,870,872,1500,872
2012/05/29,875,884,875,880,7500,880
2012/05/30,910,915,880,900,2600,900
2012/05/31,880,900,880,882,700,882
2012/06/01,898,900,875,875,1000,875
2012/06/04,876,905,876,880,2600,880
2012/06/05,880,880,880,880,100,880
2012/06/06,878,885,878,885,500,885
2012/06/07,880,880,880,880,500,880
2012/06/08,880,880,860,868,1700,868
2012/06/11,880,884,866,870,500,870
2012/06/12,897,897,870,870,900,870
2012/06/13,893,893,893,893,2400,893
2012/06/14,895,895,895,895,800,895
2012/06/15,895,895,895,895,100,895
2012/06/18,895,910,875,875,3700,875
2012/06/19,875,875,851,851,3400,851
2012/06/20,850,865,840,849,2800,849
2012/06/21,854,855,854,855,400,855
2012/06/22,855,880,855,862,1000,862
2012/06/25,895,895,880,882,1200,882
2012/06/26,882,888,853,853,2200,853
2012/06/27,862,889,862,880,800,880
2012/06/28,880,887,880,887,300,887
2012/06/29,887,889,880,880,1100,880
2012/07/02,887,909,887,906,1300,906
2012/07/03,909,934,909,931,6300,931
2012/07/04,922,932,912,919,4200,919
2012/07/05,914,914,904,904,1200,904
2012/07/06,903,903,900,900,800,900
2012/07/09,915,915,901,914,900,914
2012/07/10,912,925,912,925,2100,925
2012/07/11,920,920,913,913,1000,913
2012/07/12,913,919,885,909,2200,909
2012/07/13,909,914,909,910,300,910
2012/07/17,895,895,895,895,500,895
2012/07/18,891,900,889,900,1900,900
2012/07/19,900,900,890,900,1200,900
2012/07/20,900,900,897,900,1500,900
2012/07/23,900,907,897,907,1000,907
2012/07/24,900,900,893,893,700,893
2012/07/25,880,904,865,904,2700,904
2012/07/26,904,910,904,910,1800,910
2012/07/27,875,890,865,890,2300,890
2012/07/30,883,883,882,882,200,882
2012/07/31,880,882,868,868,800,868
2012/08/01,861,866,861,866,700,866
2012/08/02,866,866,866,866,100,866
2012/08/03,866,866,860,860,600,860
2012/08/06,845,856,845,845,1600,845
2012/08/07,838,838,830,831,1600,831
2012/08/08,831,850,831,850,500,850
2012/08/09,850,850,850,850,400,850
2012/08/10,840,859,840,840,600,840
2012/08/13,829,835,829,835,300,835
2012/08/14,840,840,840,840,300,840
2012/08/15,840,842,840,840,500,840
2012/08/16,840,840,840,840,300,840
2012/08/17,845,845,845,845,100,845
2012/08/20,850,850,840,840,400,840
2012/08/21,840,840,834,838,500,838
2012/08/22,838,838,838,838,200,838
2012/08/24,840,840,834,834,600,834
2012/08/27,841,845,841,845,300,845
2012/08/28,845,850,840,850,600,850
2012/08/29,854,854,854,854,100,854
2012/08/30,854,854,839,839,300,839
2012/08/31,855,855,854,854,600,854
2012/09/03,854,854,854,854,200,854
2012/09/04,850,850,850,850,400,850
2012/09/06,834,834,834,834,200,834
2012/09/07,837,837,828,830,1800,830
2012/09/10,829,843,815,843,2400,843
2012/09/11,832,832,832,832,100,832
2012/09/12,825,825,825,825,100,825
2012/09/13,828,828,828,828,300,828
2012/09/14,842,843,820,820,700,820
2012/09/18,820,820,816,816,1200,816
2012/09/19,830,830,816,816,800,816
2012/09/21,822,822,822,822,100,822
2012/09/24,837,837,818,820,1800,820
2012/09/25,825,834,818,818,1600,818
2012/09/26,821,830,821,830,400,830
2012/09/27,824,824,824,824,300,824
2012/10/01,831,831,831,831,500,831
2012/10/02,831,837,831,837,800,837
2012/10/03,825,825,821,821,400,821
2012/10/04,821,821,820,820,600,820
2012/10/05,930,950,900,923,17000,923
2012/10/09,920,920,864,906,3700,906
2012/10/10,870,885,865,870,900,870
2012/10/11,871,871,871,871,100,871
2012/10/12,870,870,851,852,600,852
2012/10/15,842,846,840,846,800,846
2012/10/16,850,851,850,850,1900,850
2012/10/17,860,860,836,840,2200,840
2012/10/18,840,840,836,836,800,836
2012/10/19,840,840,837,837,900,837
2012/10/22,840,840,830,832,4200,832
2012/10/23,833,840,833,833,1700,833
2012/10/24,831,831,829,829,900,829
2012/10/25,854,855,850,850,600,850
2012/10/26,869,869,840,840,1500,840
2012/10/29,835,836,827,827,1400,827
2012/10/30,831,831,829,829,300,829
2012/10/31,826,826,826,826,800,826
2012/11/01,827,827,826,826,300,826
2012/11/02,841,841,841,841,100,841
2012/11/05,841,845,841,845,200,845
2012/11/06,848,848,830,830,600,830
2012/11/07,848,849,848,849,4100,849
2012/11/09,848,848,848,848,200,848
2012/11/12,832,832,831,831,1800,831
2012/11/14,831,831,831,831,900,831
2012/11/15,831,831,830,831,1100,831
2012/11/16,831,831,831,831,800,831
2012/11/19,840,840,840,840,200,840
2012/11/20,842,850,833,849,1300,849
2012/11/21,849,849,830,840,2300,840
2012/11/22,840,845,830,845,900,845
2012/11/26,884,886,854,854,1900,854
2012/11/27,868,868,855,855,200,855
2012/11/28,870,884,870,884,500,884
2012/11/29,859,860,846,846,600,846
2012/11/30,850,861,850,859,1200,859
2012/12/03,854,869,854,867,400,867
2012/12/05,860,868,854,854,500,854
2012/12/06,854,855,854,855,1000,855
2012/12/07,855,855,855,855,1500,855
2012/12/10,863,864,863,864,700,864
2012/12/11,864,870,864,864,1200,864
2012/12/12,879,879,861,865,800,865
2012/12/13,870,882,870,882,600,882
2012/12/14,875,875,870,870,200,870
2012/12/17,860,860,860,860,300,860
2012/12/18,869,869,860,860,700,860
2012/12/19,860,874,831,849,4400,849
2012/12/20,836,840,826,836,4300,836
2012/12/21,837,845,837,845,600,845
2012/12/25,838,848,838,841,1400,841
2012/12/26,847,851,842,851,600,851
2012/12/27,835,844,835,840,2800,840
2012/12/28,850,852,842,842,2000,842
2013/01/04,847,850,847,850,800,850
2013/01/07,858,859,856,859,900,859
2013/01/08,864,864,855,855,1000,855
2013/01/09,855,855,855,855,600,855
2013/01/10,869,869,863,868,700,868
2013/01/11,869,888,868,888,1800,888
2013/01/15,889,889,878,888,1600,888
2013/01/17,874,875,851,851,1800,851
2013/01/18,860,869,860,869,400,869
2013/01/21,879,880,863,863,700,863
2013/01/22,865,867,865,867,300,867
2013/01/23,866,870,860,870,800,870
2013/01/24,862,875,862,862,2100,862
2013/01/25,863,864,863,864,600,864
2013/01/28,880,880,870,870,800,870
2013/01/29,867,870,860,870,1200,870
2013/01/30,865,870,859,870,1800,870
2013/01/31,869,883,862,870,2200,870
2013/02/01,870,885,866,885,600,885
2013/02/04,886,886,885,885,200,885
2013/02/05,886,886,865,886,1400,886
2013/02/06,872,888,872,888,1300,888
2013/02/07,880,880,880,880,500,880
2013/02/08,868,880,868,880,1800,880
2013/02/12,888,888,888,888,100,888
2013/02/13,872,872,872,872,200,872
2013/02/14,870,870,870,870,200,870
2013/02/15,870,870,860,861,1700,861
2013/02/19,863,875,863,870,1200,870
2013/02/20,879,879,869,870,3300,870
2013/02/21,876,876,870,870,2300,870
2013/02/22,871,871,855,870,2400,870
2013/02/25,870,881,864,881,2900,881
2013/02/26,890,908,883,883,5700,883
2013/02/27,910,911,900,905,6300,905
2013/02/28,914,914,900,900,2700,900
2013/03/01,890,893,890,890,700,890
2013/03/04,900,910,890,902,2000,902
2013/03/05,909,910,895,895,1100,895
2013/03/06,900,900,895,900,400,900
2013/03/07,900,901,900,900,700,900
2013/03/08,890,890,888,890,700,890
2013/03/11,902,902,895,895,300,895
2013/03/12,900,900,895,895,300,895
2013/03/13,899,899,891,891,500,891
2013/03/14,904,904,899,899,600,899
2013/03/15,899,899,894,894,3400,894
2013/03/18,894,905,894,905,4900,905
2013/03/19,905,905,897,897,2700,897
2013/03/21,908,908,895,907,900,907
2013/03/22,907,907,900,900,300,900
2013/03/25,901,906,900,906,3100,906
2013/03/26,904,909,896,900,2200,900
2013/03/28,910,911,897,902,3400,902
2013/03/29,900,909,900,909,400,909
2013/04/01,905,909,899,899,3700,899
2013/04/02,902,902,890,890,2200,890
2013/04/03,890,904,890,890,1000,890
2013/04/04,890,895,890,895,200,895
2013/04/05,885,905,885,888,6100,888
2013/04/08,895,909,890,890,3800,890
2013/04/09,905,905,902,902,1500,902
2013/04/10,903,905,898,898,1100,898
2013/04/11,903,906,903,906,1200,906
2013/04/12,900,906,900,906,700,906
2013/04/15,906,906,902,902,2100,902
2013/04/16,908,909,905,908,4100,908
2013/04/17,908,909,905,907,5300,907
2013/04/18,910,910,905,905,4900,905
2013/04/19,900,909,900,905,3500,905
2013/04/22,905,910,903,903,5300,903
2013/04/23,905,909,902,905,2000,905
2013/04/24,908,915,900,900,6900,900
2013/04/25,906,939,905,939,5300,939
2013/04/26,949,949,922,922,4700,922
2013/04/30,917,934,913,931,2200,931
2013/05/01,947,948,930,933,2100,933
2013/05/02,935,950,922,926,4700,926
2013/05/07,933,950,930,950,5200,950
2013/05/08,951,964,950,952,4300,952
2013/05/09,952,955,939,951,2700,951
2013/05/10,951,958,951,958,2400,958
2013/05/13,962,980,962,979,4300,979
2013/05/14,960,990,960,990,4800,990
2013/05/15,990,990,951,955,6800,955
2013/05/16,950,965,936,965,7400,965
2013/05/17,964,974,943,974,2500,974
2013/05/20,974,979,974,974,1700,974
2013/05/21,978,980,970,970,3200,970
2013/05/22,968,972,960,972,2700,972
2013/05/23,969,973,910,925,19300,925
2013/05/24,933,945,921,922,4900,922
2013/05/27,922,958,915,945,2400,945
2013/05/28,941,944,941,943,1500,943
2013/05/29,942,944,922,943,1700,943
2013/05/30,1043,1043,975,1026,38500,1026
2013/05/31,1100,1100,1022,1025,21000,1025
2013/06/03,965,996,961,962,7700,962
2013/06/04,962,990,962,977,2100,977
2013/06/05,977,979,967,979,2000,979
2013/06/06,970,970,930,931,5900,931
2013/06/07,931,931,890,908,7500,908
2013/06/10,921,939,921,939,1800,939
2013/06/11,939,950,891,903,14100,903
2013/06/12,933,936,929,929,1500,929
2013/06/13,929,934,912,931,1500,931
2013/06/14,929,932,929,932,500,932
2013/06/17,935,955,935,955,1000,955
2013/06/18,962,977,962,975,800,975
2013/06/19,973,973,935,937,3300,937
2013/06/20,945,945,929,940,5700,940
2013/06/21,936,936,936,936,400,936
2013/06/24,936,936,926,926,2200,926
2013/06/25,935,935,930,933,800,933
2013/06/26,925,937,915,917,1500,917
2013/06/27,929,933,909,933,7300,933
2013/06/28,918,933,917,932,7700,932
2013/07/01,933,946,933,946,4900,946
2013/07/02,946,954,939,954,4600,954
2013/07/03,964,964,954,955,1100,955
2013/07/04,963,963,963,963,300,963
2013/07/05,960,969,958,958,1600,958
2013/07/08,958,970,958,966,2800,966
2013/07/09,979,991,965,965,4300,965
2013/07/10,985,985,965,965,700,965
2013/07/11,980,984,965,967,3800,967
2013/07/12,982,982,975,980,1400,980
2013/07/16,981,985,981,985,1100,985
2013/07/17,988,996,988,996,4600,996
2013/07/18,1002,1007,990,992,2600,992
2013/07/19,995,1010,995,995,2700,995
2013/07/22,1002,1007,975,989,6400,989
2013/07/23,989,994,982,994,1800,994
2013/07/24,994,994,990,994,2200,994
2013/07/25,996,1000,993,1000,3300,1000
2013/07/26,1002,1002,992,1002,4400,1002
2013/07/29,937,980,922,951,4600,951
2013/07/30,951,951,949,949,1400,949
2013/07/31,944,962,944,951,1600,951
2013/08/01,951,962,950,950,1100,950
2013/08/02,950,959,950,951,300,951
2013/08/05,948,950,945,950,900,950
2013/08/06,959,959,920,935,3000,935
2013/08/07,950,958,935,957,1600,957
2013/08/09,940,940,935,935,900,935
2013/08/12,934,945,934,945,900,945
2013/08/13,940,940,932,932,3200,932
2013/08/14,930,939,930,939,2000,939
2013/08/15,940,945,940,940,1000,940
2013/08/16,935,940,935,940,700,940
2013/08/19,953,953,953,953,500,953
2013/08/20,948,948,940,940,300,940
2013/08/21,940,940,936,936,200,936
2013/08/22,933,933,924,924,1000,924
2013/08/23,931,931,931,931,300,931
2013/08/26,941,941,931,931,1200,931
2013/08/27,931,940,931,940,500,940
2013/08/28,930,930,930,930,300,930
2013/08/29,923,924,923,924,600,924
2013/08/30,925,935,925,935,300,935
2013/09/02,923,924,923,924,400,924
2013/09/03,924,924,923,924,1700,924
2013/09/04,935,939,924,939,1500,939
2013/09/05,940,940,929,929,600,929
2013/09/06,939,939,930,930,200,930
2013/09/09,940,941,920,935,3500,935
2013/09/10,934,940,926,926,900,926
2013/09/11,928,928,928,928,2000,928
2013/09/12,945,945,929,929,800,929
2013/09/13,938,944,929,929,3800,929
2013/09/17,940,955,925,955,9700,955
2013/09/18,927,940,927,934,4500,934
2013/09/19,934,934,929,934,2500,934
2013/09/20,934,950,934,948,4700,948
2013/09/24,948,952,948,952,1500,952
2013/09/25,954,959,951,951,2700,951
2013/09/26,956,956,936,956,3800,956
2013/09/27,958,975,958,975,1000,975
2013/09/30,974,974,943,948,3200,948
2013/10/01,963,963,960,963,1300,963
2013/10/02,970,970,960,960,2300,960
2013/10/03,975,975,955,973,2300,973
2013/10/04,979,979,970,970,2200,970
2013/10/07,960,968,946,968,1800,968
2013/10/08,970,970,965,970,1900,970
2013/10/09,970,970,969,970,3500,970
2013/10/10,977,984,975,984,1400,984
2013/10/11,988,990,970,973,1700,973
2013/10/15,972,1008,972,980,8400,980
2013/10/16,1000,1003,988,988,3700,988
2013/10/17,999,1000,999,999,700,999
2013/10/18,998,998,990,990,400,990
2013/10/21,990,1009,990,1000,4100,1000
2013/10/22,1000,1000,1000,1000,3100,1000
2013/10/23,1000,1000,985,985,1000,985
2013/10/24,990,990,958,980,3900,980
2013/10/25,981,990,981,990,500,990
2013/10/28,999,1000,990,995,2700,995
2013/10/29,994,998,994,995,1000,995
2013/10/30,993,997,993,996,500,996
2013/10/31,1000,1002,996,1002,1100,1002
2013/11/01,1001,1002,985,1000,1700,1000
2013/11/05,1000,1000,970,997,1100,997
2013/11/06,999,999,981,983,300,983
2013/11/07,998,998,997,997,300,997
2013/11/08,998,998,990,990,600,990
2013/11/11,995,995,990,995,900,995
2013/11/12,995,995,983,985,800,985
2013/11/13,992,992,992,992,100,992
2013/11/14,1000,1000,999,999,2200,999
2013/11/15,999,1002,990,1002,5000,1002
2013/11/18,1002,1012,998,998,3500,998
2013/11/19,1010,1013,1006,1007,6200,1007
2013/11/20,995,1020,995,1020,2100,1020
2013/11/21,1028,1320,1028,1230,96000,1230
2013/11/22,1250,1290,1100,1219,45800,1219
2013/11/25,1190,1217,1152,1155,9200,1155
2013/11/26,1130,1167,1110,1149,8100,1149
2013/11/27,1160,1165,1148,1155,5700,1155
2013/11/28,1164,1190,1155,1170,5600,1170
2013/11/29,1170,1230,1160,1220,8100,1220
2013/12/02,1220,1278,1190,1230,6500,1230
2013/12/03,1175,1230,1159,1160,4800,1160
2013/12/04,1138,1190,1135,1143,6400,1143
2013/12/05,1145,1161,1130,1132,6500,1132
2013/12/06,1141,1141,1105,1111,11200,1111
2013/12/09,1115,1115,1112,1115,3600,1115
2013/12/10,1121,1140,1121,1140,3500,1140
2013/12/11,1160,1180,1150,1177,10200,1177
2013/12/12,1176,1183,1175,1180,1900,1180
2013/12/13,1182,1182,1145,1145,200,1145
2013/12/16,1120,1128,1115,1116,5600,1116
2013/12/17,1096,1119,1095,1103,1900,1103
2013/12/18,1110,1111,1110,1110,900,1110
2013/12/19,1110,1120,1105,1105,5500,1105
2013/12/20,1120,1150,1115,1150,5900,1150
2013/12/24,1150,1150,1129,1129,2000,1129
2013/12/25,1129,1129,1110,1111,3700,1111
2013/12/26,1116,1140,1116,1137,700,1137
2013/12/27,1130,1140,1130,1140,1300,1140
2013/12/30,1170,1170,1131,1148,3800,1148
2014/01/06,1175,1220,1150,1150,1900,1150
2014/01/07,1150,1151,1141,1148,500,1148
2014/01/08,1178,1200,1149,1200,1700,1200
2014/01/10,1190,1190,1189,1190,500,1190
2014/01/14,1190,1200,1156,1156,5800,1156
2014/01/15,1186,1186,1186,1186,100,1186
2014/01/16,1186,1187,1156,1156,1400,1156
2014/01/17,1157,1180,1157,1175,600,1175
2014/01/20,1175,1220,1171,1199,1500,1199
2014/01/21,1203,1219,1181,1219,2300,1219
2014/01/22,1189,1191,1189,1190,700,1190
2014/01/23,1218,1218,1207,1208,600,1208
2014/01/24,1207,1207,1181,1196,2000,1196
2014/01/27,1196,1196,1175,1189,1700,1189
2014/01/28,1219,1228,1176,1224,6100,1224
2014/01/29,1187,1222,1187,1209,1300,1209
2014/01/30,1170,1179,1150,1166,2600,1166
2014/01/31,1168,1168,1168,1168,200,1168
2014/02/03,1169,1170,1155,1170,13500,1170
2014/02/04,1142,1153,1122,1152,4100,1152
2014/02/05,1129,1150,1129,1150,1000,1150
2014/02/06,1121,1128,1121,1128,700,1128
2014/02/07,1130,1160,1130,1130,500,1130
2014/02/10,1131,1170,1131,1170,1600,1170
2014/02/12,1141,1160,1141,1160,900,1160
2014/02/13,1160,1160,1160,1160,100,1160
2014/02/14,1141,1156,1141,1141,900,1141
2014/02/17,1142,1165,1142,1165,800,1165
2014/02/18,1155,1155,1155,1155,200,1155
2014/02/19,1165,1165,1154,1160,600,1160
2014/02/20,1158,1158,1145,1150,500,1150
2014/02/21,1151,1164,1151,1164,1300,1164
2014/02/24,1165,1166,1165,1166,1100,1166
2014/02/25,1170,1200,1170,1200,3400,1200
2014/02/26,1295,1330,1189,1201,19400,1201
2014/02/27,1218,1218,1192,1214,1100,1214
2014/02/28,1184,1205,1184,1186,600,1186
2014/03/03,1180,1197,1151,1197,900,1197
2014/03/04,1161,1190,1161,1162,2000,1162
2014/03/05,1185,1189,1166,1166,700,1166
2014/03/06,1164,1164,1164,1164,600,1164
2014/03/07,1166,1185,1164,1164,700,1164
2014/03/10,1162,1162,1162,1162,100,1162
2014/03/11,1155,1160,1152,1160,2300,1160
2014/03/12,1159,1187,1159,1187,800,1187
2014/03/13,1185,1187,1185,1187,400,1187
2014/03/14,1187,1187,1150,1150,1600,1150
2014/03/17,1177,1177,1151,1165,500,1165
2014/03/18,1165,1165,1152,1152,1000,1152
2014/03/19,1155,1164,1153,1164,2100,1164
2014/03/20,1151,1163,1151,1151,2300,1151
2014/03/24,1151,1162,1150,1162,1700,1162
2014/03/25,1162,1162,1162,1162,100,1162
2014/03/26,1162,1162,1155,1155,400,1155
2014/03/28,1156,1156,1156,1156,100,1156
2014/04/02,1151,1190,1150,1190,400,1190
2014/04/03,1190,1190,1189,1190,900,1190
2014/04/04,1189,1189,1189,1189,300,1189
2014/04/07,1189,1189,1184,1184,1200,1184
2014/04/08,1187,1187,1187,1187,500,1187
2014/04/09,1187,1187,1136,1140,1700,1140
2014/04/10,1150,1150,1150,1150,600,1150
2014/04/15,1150,1150,1141,1141,400,1141
2014/04/16,1170,1170,1170,1170,100,1170
2014/04/18,1200,1235,1152,1189,5800,1189
2014/04/21,1189,1189,1189,1189,100,1189
2014/04/22,1180,1180,1180,1180,100,1180
2014/04/23,1180,1180,1180,1180,500,1180
2014/04/24,1158,1163,1158,1163,400,1163
2014/04/25,1179,1179,1153,1167,800,1167
2014/04/28,1226,1226,1163,1163,1500,1163
2014/04/30,1149,1153,1148,1148,1700,1148
2014/05/01,1149,1164,1149,1164,200,1164
2014/05/02,1160,1160,1160,1160,100,1160
2014/05/07,1160,1160,1160,1160,100,1160
2014/05/08,1190,1190,1148,1148,900,1148
2014/05/09,1160,1163,1160,1163,200,1163
2014/05/13,1150,1150,1135,1135,1200,1135
2014/05/14,1145,1146,1145,1145,900,1145
2014/05/15,1158,1158,1158,1158,100,1158
2014/05/16,1158,1158,1158,1158,200,1158
2014/05/19,1167,1168,1150,1150,300,1150
2014/05/20,1150,1159,1150,1151,500,1151
2014/05/21,1150,1165,1150,1150,700,1150
2014/05/22,1155,1155,1155,1155,300,1155
2014/05/23,1155,1155,1155,1155,100,1155
2014/05/26,1163,1184,1163,1183,1200,1183
2014/05/27,1183,1183,1150,1158,1800,1158
2014/05/28,1151,1153,1150,1152,1300,1152
2014/05/29,1178,1178,1158,1158,1200,1158
2014/06/02,1162,1162,1141,1160,3600,1160
2014/06/03,1164,1164,1155,1155,400,1155
2014/06/04,1155,1155,1152,1152,800,1152
2014/06/05,1155,1163,1155,1155,600,1155
2014/06/06,1155,1156,1153,1155,1400,1155
2014/06/09,1155,1155,1151,1151,900,1151
2014/06/10,1152,1152,1150,1150,2800,1150
2014/06/11,1155,1166,1155,1160,2500,1160
2014/06/12,1168,1170,1168,1170,1400,1170
2014/06/13,1180,1180,1179,1180,1600,1180
2014/06/16,1180,1200,1145,1189,10900,1189
2014/06/17,1189,1210,1146,1208,28500,1208
2014/06/18,1200,1205,1179,1180,3300,1180
2014/06/19,1181,1182,1158,1158,4700,1158
2014/06/20,1180,1204,1160,1186,6400,1186
2014/06/23,1192,1200,1186,1200,1700,1200
2014/06/24,1203,1205,1172,1205,5300,1205
2014/06/25,1205,1250,1190,1242,5500,1242
2014/06/26,1182,1239,1182,1188,17800,1188
2014/06/27,1190,1215,1173,1173,11200,1173
2014/06/30,1203,1210,1184,1200,3800,1200
2014/07/01,1200,1205,1189,1200,3200,1200
2014/07/02,1220,1220,1201,1210,2800,1210
2014/07/03,1210,1248,1210,1212,5700,1212
2014/07/04,1212,1212,1199,1200,5000,1200
2014/07/07,1224,1230,1198,1220,6200,1220
2014/07/08,1202,1210,1202,1203,2200,1203
2014/07/09,1215,1220,1199,1201,2400,1201
2014/07/10,1193,1232,1193,1199,5000,1199
2014/07/11,1194,1225,1194,1202,2000,1202
2014/07/14,1199,1216,1196,1196,1900,1196
2014/07/15,1214,1214,1190,1190,2700,1190
2014/07/16,1214,1214,1206,1206,600,1206
2014/07/17,1210,1215,1193,1212,2700,1212
2014/07/18,1208,1214,1199,1199,900,1199
2014/07/22,1200,1217,1200,1200,1200,1200
2014/07/23,1210,1210,1202,1203,1100,1203
2014/07/24,1210,1210,1201,1202,2300,1202
2014/07/25,1210,1210,1207,1208,1000,1208
2014/07/28,1218,1218,1201,1218,4300,1218
2014/07/29,1189,1192,1175,1190,2600,1190
2014/07/30,1190,1190,1179,1180,500,1180
2014/07/31,1180,1190,1175,1176,2900,1176
2014/08/01,1173,1176,1171,1171,2100,1171
2014/08/04,1160,1178,1160,1162,2200,1162
2014/08/05,1150,1151,1150,1150,3400,1150
2014/08/06,1149,1169,1148,1148,2700,1148
2014/08/07,1174,1174,1174,1174,100,1174
2014/08/08,1148,1166,1128,1133,25300,1133
2014/08/11,1170,1170,1170,1170,300,1170
2014/08/12,1170,1170,1170,1170,100,1170
2014/08/13,1140,1150,1137,1141,4500,1141
2014/08/14,1160,1160,1143,1144,2000,1144
2014/08/15,1145,1150,1139,1140,3600,1140
2014/08/18,1195,1195,1189,1189,1500,1189
2014/08/19,1189,1189,1189,1189,200,1189
2014/08/20,1159,1159,1159,1159,1300,1159
2014/08/21,1175,1175,1151,1151,500,1151
2014/08/22,1152,1170,1152,1170,500,1170
2014/08/25,1170,1170,1150,1153,1000,1153
2014/08/26,1169,1169,1152,1152,900,1152
2014/08/27,1152,1153,1150,1150,1000,1150
2014/08/28,1151,1159,1149,1149,800,1149
2014/08/29,1150,1168,1150,1168,500,1168
2014/09/01,1150,1168,1150,1151,700,1151
2014/09/02,1151,1167,1148,1148,3100,1148
2014/09/03,1168,1168,1164,1164,200,1164
2014/09/04,1151,1167,1151,1167,300,1167
2014/09/05,1157,1157,1157,1157,300,1157
2014/09/08,1167,1167,1167,1167,100,1167
2014/09/09,1158,1160,1157,1157,500,1157
2014/09/10,1154,1157,1147,1147,5800,1147
2014/09/11,1147,1148,1140,1140,1000,1140
2014/09/12,1138,1169,1138,1169,1100,1169
2014/09/16,1169,1184,1126,1126,6400,1126
2014/09/17,1136,1157,1136,1143,600,1143
2014/09/18,1165,1165,1140,1140,600,1140
2014/09/19,1180,1180,1152,1152,1300,1152
2014/09/22,1160,1160,1160,1160,300,1160
2014/09/24,1142,1142,1141,1141,600,1141
2014/09/25,1141,1141,1140,1140,1800,1140
2014/09/26,1141,1153,1140,1140,1600,1140
2014/09/29,1141,1158,1140,1158,1400,1158
2014/09/30,1160,1163,1144,1159,1500,1159
2014/10/01,1160,1160,1144,1145,2400,1145
2014/10/03,1143,1145,1143,1143,600,1143
2014/10/06,1143,1143,1143,1143,300,1143
2014/10/07,1155,1160,1155,1160,300,1160
2014/10/08,1143,1143,1143,1143,100,1143
2014/10/09,1142,1143,1142,1143,300,1143
2014/10/10,1165,1165,1143,1143,1700,1143
2014/10/14,1145,1155,1145,1150,900,1150
2014/10/15,1145,1145,1100,1105,4100,1105
2014/10/16,1111,1112,1060,1060,9800,1060
2014/10/17,1120,1143,1087,1093,6800,1093
2014/10/20,1135,1135,1105,1105,200,1105
2014/10/21,1106,1139,1106,1139,700,1139
2014/10/22,1149,1153,1148,1153,1100,1153
2014/10/23,1153,1153,1150,1150,300,1150
2014/10/24,1150,1150,1149,1150,500,1150
2014/10/27,1150,1150,1145,1145,400,1145
2014/10/28,1123,1152,1123,1152,1400,1152
2014/10/29,1130,1134,1108,1134,2400,1134
2014/10/30,1132,1140,1118,1140,600,1140
2014/10/31,1140,1142,1140,1142,500,1142
2014/11/04,1144,1154,1142,1145,2400,1145
2014/11/05,1145,1149,1131,1132,2500,1132
2014/11/06,1132,1140,1131,1138,7000,1138
2014/11/07,1157,1157,1155,1156,1000,1156
2014/11/10,1156,1159,1125,1150,2700,1150
2014/11/11,1150,1150,1134,1134,1600,1134
2014/11/12,1152,1161,1141,1141,3200,1141
2014/11/13,1152,1152,1141,1147,1400,1147
2014/11/14,1147,1156,1143,1155,1300,1155
2014/11/17,1143,1151,1143,1151,600,1151
2014/11/18,1160,1160,1147,1147,700,1147
2014/11/19,1165,1165,1145,1154,1100,1154
2014/11/20,1155,1160,1155,1159,1500,1159
2014/11/21,1173,1173,1159,1159,1600,1159
2014/11/25,1169,1171,1164,1171,1900,1171
2014/11/26,1178,1178,1150,1155,4400,1155
2014/11/27,1174,1177,1154,1177,2400,1177
2014/11/28,1160,1173,1160,1173,400,1173
2014/12/01,1173,1179,1156,1179,1700,1179
2014/12/02,1166,1180,1166,1180,1500,1180
2014/12/03,1172,1180,1172,1180,1300,1180
2014/12/04,1180,1180,1167,1180,4100,1180
2014/12/05,1179,1180,1179,1180,400,1180
2014/12/08,1166,1175,1166,1175,1000,1175
2014/12/09,1179,1180,1168,1168,7400,1168
2014/12/10,1173,1177,1173,1176,1300,1176
2014/12/11,1174,1179,1171,1179,500,1179
2014/12/12,1179,1179,1172,1179,1300,1179
2014/12/15,1178,1178,1175,1175,300,1175
2014/12/16,1172,1172,1165,1165,200,1165
2014/12/17,1166,1178,1166,1178,300,1178
2014/12/18,1176,1176,1172,1172,500,1172
2014/12/19,1172,1180,1157,1179,1900,1179
2014/12/22,1153,1180,1153,1180,2300,1180
2014/12/24,1179,1179,1158,1170,1700,1170
2014/12/25,1170,1179,1170,1179,2000,1179
2014/12/26,1178,1180,1150,1174,8100,1174
2014/12/29,1174,1180,1174,1180,2200,1180
2014/12/30,1179,1180,1179,1180,6100,1180
2015/01/05,1180,1180,1178,1180,2400,1180
2015/01/06,1170,1180,1160,1180,2700,1180
2015/01/07,1180,1180,1179,1180,1200,1180
2015/01/08,1174,1180,1170,1170,4800,1170
2015/01/09,1180,1185,1178,1185,5500,1185
2015/01/13,1180,1180,1173,1175,6700,1175
2015/01/14,1175,1190,1175,1190,1200,1190
2015/01/15,1192,1194,1192,1192,300,1192
2015/01/16,1198,1200,1198,1200,300,1200
2015/01/19,1205,1205,1199,1200,400,1200
2015/01/20,1190,1209,1190,1200,1700,1200
2015/01/21,1200,1200,1199,1200,1000,1200
2015/01/22,1212,1212,1212,1212,700,1212
2015/01/23,1212,1219,1201,1207,1200,1207
2015/01/26,1218,1218,1215,1216,300,1216
2015/01/27,1206,1218,1206,1218,1900,1218
2015/01/28,1189,1206,1183,1189,2300,1189
2015/01/29,1191,1196,1191,1195,4800,1195
2015/01/30,1205,1205,1205,1205,500,1205
2015/02/02,1190,1192,1190,1192,1000,1192
2015/02/03,1193,1194,1192,1192,1000,1192
2015/02/04,1204,1210,1203,1210,1700,1210
2015/02/05,1193,1197,1193,1197,400,1197
2015/02/06,1205,1205,1196,1200,400,1200
2015/02/09,1199,1199,1199,1199,300,1199
2015/02/10,1220,1220,1197,1197,5000,1197
2015/02/12,1203,1203,1197,1197,200,1197
2015/02/13,1198,1198,1193,1194,2000,1194
2015/02/16,1197,1205,1197,1200,400,1200
2015/02/17,1202,1205,1200,1200,1600,1200
2015/02/18,1215,1215,1214,1215,1200,1215
2015/02/19,1213,1220,1213,1220,1200,1220
2015/02/20,1220,1226,1220,1220,2700,1220
2015/02/23,1220,1230,1206,1206,1900,1206
2015/02/24,1230,1230,1230,1230,1000,1230
2015/02/25,1230,1232,1218,1218,1500,1218
2015/02/26,1248,1249,1193,1209,7400,1209
2015/02/27,1193,1214,1193,1209,7200,1209
2015/03/02,1233,1233,1204,1218,1400,1218
2015/03/03,1230,1230,1200,1221,2800,1221
2015/03/04,1220,1221,1220,1221,1900,1221
2015/03/05,1228,1228,1228,1228,500,1228
2015/03/06,1225,1240,1225,1240,2600,1240
2015/03/09,1242,1242,1235,1235,1500,1235
2015/03/10,1237,1238,1235,1235,1600,1235
2015/03/11,1234,1235,1234,1235,500,1235
2015/03/12,1249,1249,1248,1248,200,1248
2015/03/13,1249,1249,1233,1233,1200,1233
2015/03/16,1234,1255,1234,1243,4100,1243
2015/03/17,1265,1268,1264,1268,1600,1268
2015/03/18,1268,1279,1244,1279,1600,1279
2015/03/19,1249,1280,1249,1269,1300,1269
2015/03/20,1280,1280,1256,1256,900,1256
2015/03/23,1260,1283,1260,1283,600,1283
2015/03/24,1265,1283,1265,1280,800,1280
2015/03/25,1288,1292,1288,1292,1000,1292
2015/03/26,1295,1298,1290,1298,1500,1298
2015/03/27,1297,1300,1261,1261,2200,1261
2015/03/30,1261,1278,1261,1277,900,1277
2015/03/31,1263,1280,1263,1280,1200,1280
2015/04/01,1290,1300,1273,1273,1800,1273
2015/04/02,1280,1280,1274,1274,1100,1274
2015/04/03,1296,1296,1277,1285,800,1285
2015/04/06,1290,1291,1285,1291,800,1291
2015/04/07,1290,1292,1290,1290,500,1290
2015/04/08,1293,1293,1290,1290,700,1290
2015/04/09,1290,1295,1287,1295,1200,1295
2015/04/10,1295,1300,1292,1292,1200,1292
2015/04/13,1300,1310,1300,1310,2000,1310
2015/04/14,1310,1311,1295,1298,9200,1298
2015/04/15,1300,1307,1290,1307,2700,1307
2015/04/16,1307,1319,1307,1319,1200,1319
2015/04/17,1307,1314,1307,1313,700,1313
2015/04/20,1317,1318,1310,1318,1100,1318
2015/04/21,1325,1345,1325,1345,1300,1345
2015/04/22,1345,1345,1336,1340,1100,1340
2015/04/23,1340,1340,1340,1340,100,1340
2015/04/24,1340,1340,1312,1312,2200,1312
2015/04/27,1358,1358,1323,1323,1400,1323
2015/04/28,1324,1348,1324,1331,1000,1331
2015/04/30,1328,1328,1318,1318,1100,1318
2015/05/01,1320,1320,1320,1320,100,1320
2015/05/07,1348,1355,1347,1355,2500,1355
2015/05/08,1354,1355,1354,1355,600,1355
2015/05/11,1355,1363,1353,1362,1000,1362
2015/05/12,1362,1362,1351,1351,900,1351
2015/05/13,1361,1363,1359,1363,1200,1363
2015/05/14,1363,1373,1363,1373,1200,1373
2015/05/15,1373,1373,1370,1373,800,1373
2015/05/18,1375,1376,1373,1374,1500,1374
2015/05/19,1382,1389,1382,1383,1900,1383
2015/05/20,1390,1391,1380,1380,1400,1380
2015/05/21,1392,1394,1392,1394,500,1394
2015/05/22,1400,1400,1385,1399,2000,1399
2015/05/25,1420,1450,1410,1429,3000,1429
2015/05/26,1430,1440,1390,1434,3100,1434
2015/05/27,1400,1421,1400,1402,2400,1402
2015/05/28,1405,1425,1400,1400,2000,1400
2015/05/29,1428,1428,1410,1419,900,1419
2015/06/01,1421,1429,1415,1418,2900,1418
2015/06/02,1420,1420,1415,1415,1300,1415
2015/06/03,1415,1415,1405,1406,700,1406
2015/06/04,1410,1410,1410,1410,500,1410
2015/06/05,1405,1405,1405,1405,400,1405
2015/06/08,1404,1410,1404,1410,1000,1410
2015/06/09,1410,1410,1402,1402,1300,1402
2015/06/10,1400,1400,1395,1400,1000,1400
2015/06/11,1400,1413,1399,1413,500,1413
2015/06/12,1414,1430,1414,1430,900,1430
2015/06/15,1430,1445,1430,1445,1000,1445
2015/06/16,1431,1499,1431,1460,3900,1460
2015/06/17,1456,1456,1450,1450,400,1450
2015/06/18,1450,1450,1450,1450,400,1450
2015/06/19,1431,1461,1431,1450,600,1450
2015/06/22,1450,1455,1449,1450,700,1450
2015/06/23,1450,1453,1435,1435,1300,1435
2015/06/24,1452,1452,1452,1452,100,1452
2015/06/26,1472,1473,1448,1451,3400,1451
2015/06/29,1445,1450,1436,1450,3300,1450
2015/06/30,1451,1465,1440,1450,700,1450
2015/07/01,1450,1460,1449,1460,2100,1460
