2011/01/04,116400,116600,114300,115200,1034,576
2011/01/07,120800,122800,120000,121800,1005,609
2011/01/14,118500,118500,117500,117600,594,588
2011/01/17,118500,118500,116800,117400,596,587
2011/01/18,117300,117900,115700,116200,644,581
2011/01/20,115400,117900,115400,117400,631,587
2011/01/21,117700,117900,114000,114400,986,572
2011/01/26,115900,116700,114700,116400,358,582
2011/01/31,114000,114000,112100,113000,448,565
2011/02/03,115300,119900,115300,116400,907,582
2011/02/04,116800,118400,116700,117200,632,586
2011/02/10,120700,120700,118500,118800,489,594
2011/02/14,119100,119600,117500,118000,718,590
2011/02/15,118800,119500,117700,118600,325,593
2011/02/16,118100,119100,117700,118400,413,592
2011/02/17,118400,119200,117900,118600,456,593
2011/02/21,118600,118700,117500,118400,828,592
2011/02/23,115000,117000,115000,115000,625,575
2011/03/07,120700,122000,119100,120800,769,604
2011/03/09,121900,123400,121600,122000,1089,610
2011/03/14,104100,113000,100600,107000,1921,535
2011/03/15,101700,104300,84000,93400,2617,467
2011/03/24,106100,106900,104000,104400,402,522
2011/03/25,106900,106900,103200,103200,454,516
2011/03/31,1112,1115,1062,1074,100500,537
2011/04/05,984,984,932,936,161900,468
2011/04/07,903,934,903,904,160100,452
2011/04/08,916,946,912,946,167100,473
2011/04/11,956,985,956,984,121800,492
2011/04/15,941,948,930,948,84300,474
2011/04/19,935,940,918,922,64100,461
2011/04/20,921,933,919,922,59600,461
2011/04/22,910,915,904,910,47900,455
2011/05/10,937,960,930,956,187900,478
2011/05/11,954,956,906,906,175100,453
2011/05/18,890,895,880,892,30600,446
2011/05/24,875,882,860,870,26800,435
2011/05/25,855,890,855,870,36900,435
2011/05/27,851,852,842,842,51600,421
2011/06/02,838,842,830,832,63700,416
2011/06/06,821,823,808,812,66400,406
2011/06/08,810,816,805,808,33700,404
2011/06/13,767,788,766,778,56300,389
2011/06/15,800,816,792,812,60000,406
2011/06/16,809,826,805,814,44000,407
2011/06/17,815,818,790,814,58000,407
2011/06/21,815,824,812,820,19400,410
2011/06/22,826,826,804,810,42200,405
2011/06/24,799,804,794,804,14900,402
2011/06/27,800,802,786,786,38800,393
2011/06/28,786,793,775,780,45600,390
2011/07/01,795,807,795,800,41700,400
2011/07/06,817,818,805,810,48000,405
2011/07/07,807,828,807,826,49400,413
2011/07/08,838,840,828,840,57500,420
2011/07/12,828,830,811,816,39900,408
2011/07/13,816,832,816,830,25700,415
2011/07/14,827,832,826,828,19000,414
2011/07/15,825,826,820,820,27100,410
2011/07/19,811,827,811,826,25800,413
2011/07/20,828,830,820,822,29900,411
2011/07/25,839,844,829,844,48700,422
2011/07/27,827,833,817,824,27000,412
2011/08/03,880,927,872,922,363400,461
2011/08/04,910,922,868,868,259700,434
2011/08/08,857,882,834,842,76700,421
2011/08/10,848,859,845,852,53700,426
2011/08/12,880,881,845,850,69200,425
2011/08/15,856,863,835,848,43000,424
2011/08/16,852,852,825,830,47500,415
2011/08/19,870,875,857,860,67300,430
2011/08/22,838,857,838,852,66900,426
2011/08/24,843,851,820,830,51500,415
2011/09/06,850,850,833,834,26500,417
2011/09/07,834,853,832,850,33500,425
2011/09/12,872,872,831,850,73100,425
2011/09/13,865,890,864,886,64200,443
2011/09/14,893,895,872,890,81800,445
2011/09/15,892,896,877,884,43700,442
2011/09/20,918,938,915,934,90600,467
2011/09/22,897,913,849,906,127800,453
2011/09/26,919,929,902,910,103200,455
2011/09/28,940,953,936,950,84200,475
2011/09/29,951,960,947,960,59700,480
2011/10/04,970,990,952,970,87800,485
2011/10/05,983,1010,970,988,100700,494
2011/10/12,980,980,953,956,59100,478
2011/10/14,952,978,950,974,29300,487
2011/10/18,970,986,959,980,32300,490
2011/10/20,1001,1004,977,994,42700,497
2011/10/21,999,999,975,988,20800,494
2011/10/24,989,995,919,962,88100,481
2011/10/27,977,977,938,944,56400,472
2011/10/28,942,948,938,948,51600,474
2011/11/02,951,968,934,956,36700,478
2011/11/04,949,960,941,954,32200,477
2011/11/09,885,936,882,926,37100,463
2011/11/10,911,915,900,914,22000,457
2011/11/11,904,921,904,918,16900,459
2011/11/14,925,935,925,934,13100,467
2011/11/17,907,921,878,900,31600,450
2011/11/18,881,888,870,874,23200,437
2011/11/24,870,871,833,836,39600,418
2011/11/25,840,844,829,830,25900,415
2011/11/28,835,851,835,844,12900,422
2011/11/30,860,867,850,862,16700,431
2011/12/06,874,875,837,840,33500,420
2011/12/07,870,880,860,876,23000,438
2011/12/09,881,881,862,876,35700,438
2011/12/12,887,888,865,886,17600,443
2011/12/20,830,834,827,828,9000,414
2011/12/21,828,835,827,834,15400,417
2011/12/22,842,844,835,840,8600,420
2011/12/26,840,840,835,838,28800,419
2011/12/28,830,834,830,830,3600,415
2011/12/29,834,834,820,824,7500,412
2012/01/04,825,840,825,838,15000,419
2012/01/06,821,824,820,822,9000,411
2012/01/16,835,842,826,828,42000,414
2012/01/18,830,835,825,832,21100,416
2012/01/23,829,830,824,828,11500,414
2012/01/27,853,857,850,854,11800,427
2012/01/31,876,880,873,880,28800,440
2012/02/03,891,891,852,860,33800,430
2012/02/09,977,1019,976,1000,117900,500
2012/02/10,980,996,970,984,54500,492
2012/02/15,1027,1029,1013,1022,40300,511
2012/02/17,988,1004,988,1002,46700,501
2012/02/24,969,969,950,952,66500,476
2012/02/27,942,947,938,938,46500,469
2012/03/02,942,952,940,940,33600,470
2012/03/06,928,938,924,930,36600,465
2012/03/12,943,950,940,940,23900,470
2012/03/13,948,950,930,930,30500,465
2012/03/14,934,945,930,930,44900,465
2012/03/15,940,940,915,916,49300,458
2012/03/19,921,921,900,900,56000,450
2012/03/22,904,915,903,904,38100,452
2012/03/23,912,917,904,908,41400,454
2012/03/26,908,912,896,896,32200,448
2012/03/29,906,909,892,898,51200,449
2012/04/02,900,900,871,876,37800,438
2012/04/04,883,895,874,886,61500,443
2012/04/06,875,887,873,886,25100,443
2012/04/09,884,884,870,870,18900,435
2012/04/12,888,900,886,896,26000,448
2012/04/16,907,915,900,904,38400,452
2012/04/18,884,908,880,908,33100,454
2012/04/23,913,917,906,906,22800,453
2012/04/24,909,915,907,910,28000,455
2012/04/27,916,916,890,894,24900,447
2012/05/01,895,900,880,880,9800,440
2012/05/02,886,894,879,890,12000,445
2012/05/14,863,863,809,818,30300,409
2012/05/15,819,838,813,818,36400,409
2012/05/18,812,812,785,796,28400,398
2012/05/22,805,813,773,778,40200,389
2012/05/23,774,800,770,786,59300,393
2012/05/24,780,781,765,770,37600,385
2012/05/28,794,810,790,790,34100,395
2012/05/31,795,810,795,810,32900,405
2012/06/01,813,815,803,808,31800,404
2012/06/05,795,812,795,812,23400,406
2012/06/08,845,845,812,824,38900,412
2012/06/11,829,841,820,820,18500,410
2012/06/12,812,822,810,822,20300,411
2012/06/13,823,830,806,810,21600,405
2012/06/15,838,841,819,834,39800,417
2012/06/18,846,869,846,862,30100,431
2012/06/21,899,903,895,902,24100,451
2012/06/22,890,913,890,900,16300,450
2012/06/25,919,937,901,934,47900,467
2012/06/26,926,938,917,938,36600,469
2012/06/28,928,928,901,914,13400,457
2012/06/29,901,925,901,904,20400,452
2012/07/05,910,925,908,912,12500,456
2012/07/06,912,919,907,910,13700,455
2012/07/09,909,910,900,906,18900,453
2012/07/23,867,901,862,874,32800,437
2012/07/24,870,885,862,862,15200,431
2012/07/25,877,877,852,864,18200,432
2012/07/26,877,910,877,910,27800,455
2012/07/30,902,920,890,920,17800,460
2012/07/31,930,935,906,906,37800,453
2012/08/01,904,905,872,880,20800,440
2012/08/03,880,885,874,874,14100,437
2012/08/07,888,916,886,910,20300,455
2012/08/13,910,922,890,916,18500,458
2012/08/14,917,930,906,930,20500,465
2012/08/17,924,931,922,930,22100,465
2012/08/21,940,949,926,928,78100,464
2012/08/22,920,920,905,910,21700,455
2012/08/27,900,900,880,880,31000,440
2012/08/31,871,877,864,864,16200,432
2012/09/03,861,892,861,868,18300,434
2012/09/05,858,868,852,868,14300,434
2012/09/07,868,868,861,868,19400,434
2012/09/10,868,868,863,868,16600,434
2012/09/12,862,868,862,866,15400,433
2012/09/13,868,869,865,868,27700,434
2012/09/14,868,868,864,868,35100,434
2012/09/19,868,869,865,868,39300,434
2012/09/20,868,868,864,868,40400,434
2012/09/21,868,895,866,888,35300,444
2012/09/25,887,888,869,888,31900,444
2012/09/26,881,882,865,878,16100,439
2012/10/01,870,881,869,880,16300,440
2012/10/02,881,900,880,900,26400,450
2012/10/04,883,889,881,884,15900,442
2012/10/05,880,896,876,896,19900,448
2012/10/09,897,908,887,888,40100,444
2012/10/12,899,904,890,892,19500,446
2012/10/15,897,900,881,892,22900,446
2012/10/16,883,898,883,898,16400,449
2012/10/19,899,899,891,892,29100,446
2012/10/22,887,899,883,896,15200,448
2012/10/25,891,898,890,898,17900,449
2012/11/05,885,900,885,896,9300,448
2012/11/06,899,899,885,888,7800,444
2012/11/13,874,874,862,870,16900,435
2012/11/14,861,880,861,872,13800,436
2012/11/15,885,899,879,894,27800,447
2012/11/16,897,908,893,908,21800,454
2012/11/20,909,909,886,896,21900,448
2012/11/28,891,900,891,898,22800,449
2012/12/04,900,905,900,904,28500,452
2012/12/06,912,920,904,920,28700,460
2012/12/07,912,925,907,918,34900,459
2012/12/10,927,927,914,922,22100,461
2012/12/12,924,927,904,904,21700,452
2012/12/14,916,924,903,916,48600,458
2012/12/20,906,913,896,898,32600,449
2012/12/21,896,905,892,892,30300,446
2012/12/28,890,892,885,886,26900,443
2013/01/04,890,903,883,900,50100,450
2013/01/09,917,929,912,924,33500,462
2013/01/10,922,950,922,944,50800,472
2013/01/16,963,971,956,968,36600,484
2013/01/17,968,972,950,972,32200,486
2013/01/21,1029,1035,1019,1024,46300,512
2013/01/22,1028,1032,1000,1032,42900,516
2013/01/23,1020,1020,986,988,55700,494
2013/01/25,1028,1028,989,1002,57000,501
2013/01/28,1008,1014,994,994,21800,497
2013/01/30,998,998,990,994,36500,497
2013/01/31,995,1019,989,1016,68300,508
2013/02/01,1024,1096,1020,1080,198400,540
2013/02/04,980,1012,980,1004,205500,502
2013/02/05,1005,1078,1005,1052,171100,526
2013/02/07,1016,1025,990,1024,116200,512
2013/02/08,1024,1024,991,992,84800,496
2013/02/12,1020,1020,993,994,36100,497
2013/02/13,993,994,982,986,59700,493
2013/02/20,963,969,955,962,42000,481
2013/02/21,960,974,951,952,51300,476
2013/02/22,952,956,932,936,85800,468
2013/02/25,951,955,939,940,44900,470
2013/03/01,992,1012,985,1004,69200,502
2013/03/04,1011,1017,1007,1016,62900,508
2013/03/07,1029,1030,1015,1016,49000,508
2013/03/13,1030,1050,1030,1050,110100,525
2013/03/18,1050,1054,1020,1024,95300,512
2013/03/21,1069,1103,1069,1102,128500,551
2013/03/26,1165,1181,1150,1178,134700,589
2013/03/27,1178,1192,1164,1188,115700,594
2013/03/28,1191,1198,1166,1196,114500,598
2013/04/03,1150,1219,1130,1216,78800,608
2013/04/05,1300,1308,1234,1256,168900,628
2013/04/08,1284,1304,1241,1252,101900,626
2013/04/10,1217,1224,1191,1200,96500,600
2013/04/11,1220,1229,1201,1214,48700,607
2013/04/12,1212,1280,1211,1268,124200,634
2013/04/17,1250,1254,1218,1220,84600,610
2013/04/18,1220,1312,1212,1278,171800,639
2013/04/22,1335,1340,1305,1322,103300,661
2013/04/24,1370,1480,1351,1476,269100,738
2013/04/25,1480,1497,1435,1490,176900,745
2013/05/01,1460,1479,1406,1412,119700,706
2013/05/02,1420,1466,1415,1460,85200,730
2013/05/09,1540,1540,1451,1452,96400,726
2013/05/13,1449,1449,1325,1328,519700,664
2013/05/20,1256,1288,1250,1256,131600,628
2013/05/21,1260,1260,1209,1216,199600,608
2013/05/24,1140,1184,1115,1162,252300,581
2013/05/27,1132,1179,1100,1146,97300,573
2013/05/28,1140,1164,1130,1152,59400,576
2013/05/29,1155,1197,1140,1162,94300,581
2013/05/31,1114,1131,1091,1110,78100,555
2013/06/03,1101,1131,1073,1076,107000,538
2013/06/04,1070,1100,1041,1082,96600,541
2013/06/05,1082,1105,1044,1044,91600,522
2013/06/07,981,1001,960,976,165500,488
2013/06/11,1034,1041,1005,1006,113900,503
2013/06/14,971,998,962,962,143600,481
2013/06/19,1014,1026,997,1006,39200,503
2013/06/21,970,994,962,994,46000,497
2013/06/24,996,1006,984,990,43200,495
2013/06/25,998,998,965,992,70600,496
2013/06/26,983,1000,960,966,62200,483
2013/07/01,1008,1021,998,1018,46000,509
2013/07/02,1048,1075,1028,1074,109100,537
2013/07/03,1065,1076,1057,1066,80000,533
2013/07/04,1075,1075,1051,1056,27800,528
2013/07/08,1073,1078,1052,1052,52500,526
2013/07/17,1185,1185,1134,1138,126700,569
2013/07/19,1160,1160,1102,1116,67400,558
2013/07/23,1169,1170,1144,1150,65800,575
2013/07/24,1141,1146,1125,1134,47000,567
2013/07/26,1101,1106,1080,1092,28400,546
2013/07/29,1083,1083,1038,1040,50100,520
2013/07/31,1085,1085,1053,1056,29300,528
2013/08/01,1075,1168,1075,1168,185200,584
2013/08/02,1168,1185,1121,1180,108600,590
2013/08/06,1245,1299,1224,1280,243800,640
2013/08/08,1200,1250,1200,1220,80600,610
2013/08/12,1204,1210,1188,1188,37200,594
2013/08/13,1192,1238,1177,1236,46500,618
2013/08/16,1249,1249,1212,1218,21400,609
2013/08/19,1218,1224,1203,1218,15600,609
2013/08/20,1226,1260,1209,1216,78500,608
2013/08/21,1203,1227,1200,1200,35000,600
2013/08/22,1224,1279,1202,1218,112100,609
2013/08/23,1255,1255,1200,1224,53400,612
2013/08/27,1300,1306,1265,1272,121600,636
2013/08/29,1298,1298,1270,1284,46300,642
2013/09/04,1429,1499,1422,1498,363300,749
2013/09/06,1480,1494,1470,1482,141600,741
2013/09/09,1483,1510,1464,1488,107900,744
2013/09/12,1576,1593,1557,1564,107700,782
2013/09/13,1588,1610,1564,1608,161900,804
2013/09/18,1687,1732,1669,1710,208400,855
2013/09/20,1719,1722,1685,1702,78800,851
2013/09/24,1680,1705,1655,1694,101800,847
2013/09/26,1625,1705,1580,1698,126300,849
2013/10/01,1802,1920,1802,1874,488000,937
2013/10/03,1862,1930,1825,1898,293100,949
2013/10/08,1957,2090,1940,2066,539800,1033
2013/10/09,2078,2213,2034,2210,533600,1105
2013/10/10,2200,2206,2001,2116,595400,1058
2013/10/16,2132,2245,2132,2214,400200,1107
2013/10/17,2228,2330,2220,2320,429900,1160
2013/10/23,2315,2366,2302,2316,264200,1158
2013/10/25,2227,2227,2115,2124,339500,1062
2013/10/28,2149,2207,2130,2176,207200,1088
2013/11/01,2085,2100,2000,2070,277800,1035
2013/11/05,2065,2185,2045,2166,214100,1083
2013/11/06,2200,2244,2178,2234,207800,1117
2013/11/13,2200,2200,2125,2148,78000,1074
2013/11/14,2120,2208,2120,2180,125700,1090
2013/11/18,2229,2240,2201,2230,68000,1115
2013/11/19,2211,2375,2211,2362,398500,1181
2013/11/20,2389,2488,2358,2480,528200,1240
2013/11/25,2485,2510,2445,2472,123200,1236
2013/11/26,2460,2500,2451,2498,93200,1249
2013/11/27,2490,2580,2482,2530,204500,1265
2013/11/29,2565,2574,2451,2522,183100,1261
2013/12/02,2772,3015,2730,2970,1563800,1485
2013/12/04,2814,2954,2813,2928,365600,1464
2013/12/05,2950,2965,2860,2872,265100,1436
2013/12/06,2960,3075,2940,3050,860400,1525
2013/12/10,3200,3215,3070,3180,466700,1590
2013/12/12,3090,3180,3075,3140,269200,1570
2013/12/13,3110,3230,3105,3200,284600,1600
2013/12/16,3265,3320,3230,3250,455200,1625
2013/12/24,2946,2989,2930,2948,296000,1474
2013/12/25,2966,3155,2956,3150,417100,1575
2013/12/26,3245,3295,3160,3180,283600,1590
2013/12/27,3160,3195,3125,3190,117300,1595
2014/01/14,3105,3155,3040,3110,167300,1555
2014/01/15,3150,3160,3095,3130,96400,1565
2014/01/16,3150,3185,3085,3100,83500,1550
2014/01/27,2930,2943,2859,2870,137700,1435
2014/01/28,2860,2999,2860,2870,138100,1435
2014/01/30,2902,2969,2887,2922,127600,1461
2014/01/31,2916,2990,2871,2904,78700,1452
2014/02/03,2862,2893,2770,2838,129800,1419
2014/02/10,3175,3180,3095,3160,164000,1580
2014/02/12,3190,3400,3180,3340,330800,1670
2014/02/17,3585,3750,3570,3690,587500,1845
2014/02/19,3605,3610,3430,3470,370500,1735
2014/02/27,3800,3885,3775,3820,204900,1910
2014/02/28,3845,3975,3840,3920,319800,1960
2014/03/06,3565,3670,3540,3640,170900,1820
2014/03/11,3440,3545,3395,3430,271800,1715
2014/03/14,3420,3485,3255,3270,289100,1635
2014/03/18,3345,3360,3285,3320,136300,1660
2014/03/20,3100,3160,2929,2938,412600,1469
2014/03/25,3060,3115,2935,2960,233900,1480
2014/03/26,3000,3095,2986,3060,220700,1530
2014/03/27,1510,1541,1482,1537,220700,1537
2014/03/28,1536,1550,1486,1508,362500,1508
2014/03/31,1515,1521,1428,1450,477100,1450
2014/04/01,1456,1500,1441,1484,419500,1484
2014/04/02,1511,1539,1493,1510,356500,1510
2014/04/03,1502,1520,1465,1471,377700,1471
2014/04/04,1475,1481,1442,1458,362200,1458
2014/04/07,1428,1507,1401,1475,770600,1475
2014/04/08,1493,1498,1386,1420,916200,1420
2014/04/09,1410,1442,1392,1395,401900,1395
2014/04/10,1435,1456,1415,1427,381700,1427
2014/04/11,1410,1418,1380,1405,528800,1405
2014/04/14,1409,1415,1329,1333,507000,1333
2014/04/15,1367,1415,1334,1341,447700,1341
2014/04/16,1336,1394,1324,1392,252700,1392
2014/04/17,1394,1417,1381,1390,157800,1390
2014/04/18,1390,1443,1344,1433,517900,1433
2014/04/21,1428,1463,1425,1444,235000,1444
2014/04/22,1442,1474,1350,1395,237100,1395
2014/04/23,1400,1461,1390,1451,179200,1451
2014/04/24,1474,1498,1440,1454,243100,1454
2014/04/25,1454,1459,1403,1423,217000,1423
2014/04/28,1404,1404,1334,1353,417600,1353
2014/04/30,1354,1370,1315,1327,341100,1327
2014/05/01,1333,1349,1305,1343,259900,1343
2014/05/02,1348,1376,1341,1364,179500,1364
2014/05/07,1329,1329,1269,1295,534200,1295
2014/05/08,1297,1320,1290,1316,278000,1316
2014/05/09,1303,1315,1278,1290,279100,1290
2014/05/12,1290,1316,1277,1311,420400,1311
2014/05/13,1281,1309,1187,1299,1182500,1299
2014/05/14,1314,1429,1311,1428,1082900,1428
2014/05/15,1398,1414,1350,1397,537900,1397
2014/05/16,1367,1422,1363,1419,413300,1419
2014/05/19,1418,1439,1343,1348,284600,1348
2014/05/20,1348,1387,1343,1373,281300,1373
2014/05/21,1345,1416,1345,1411,254200,1411
2014/05/22,1420,1425,1383,1389,317500,1389
2014/05/23,1381,1410,1376,1391,284200,1391
2014/05/26,1384,1482,1384,1475,417400,1475
2014/05/27,1465,1554,1465,1481,401700,1481
2014/05/28,1470,1499,1450,1490,226300,1490
2014/05/29,1487,1500,1465,1488,223600,1488
2014/05/30,1483,1489,1447,1465,490000,1465
2014/06/02,1485,1548,1470,1537,396200,1537
2014/06/03,1580,1590,1542,1585,446000,1585
2014/06/04,1598,1623,1561,1606,350100,1606
2014/06/05,1626,1685,1625,1658,536000,1658
2014/06/06,1660,1691,1633,1649,426700,1649
2014/06/09,1639,1672,1591,1654,472800,1654
2014/06/10,1667,1674,1622,1632,290700,1632
2014/06/11,1620,1660,1610,1649,147400,1649
2014/06/12,1620,1660,1613,1657,144200,1657
2014/06/13,1669,1706,1660,1704,352800,1704
2014/06/16,1744,1778,1711,1724,399500,1724
2014/06/17,1710,1710,1635,1649,474800,1649
2014/06/18,1655,1678,1624,1674,361600,1674
2014/06/19,1691,1699,1665,1695,373700,1695
2014/06/20,1700,1738,1695,1715,310300,1715
2014/06/23,1715,1739,1688,1731,213900,1731
2014/06/24,1733,1739,1694,1724,195200,1724
2014/06/25,1729,1739,1668,1678,231200,1678
2014/06/26,1700,1712,1682,1696,163400,1696
2014/06/27,1683,1687,1631,1652,179800,1652
2014/06/30,1654,1724,1649,1718,226500,1718
2014/07/01,1724,1755,1713,1744,265200,1744
2014/07/02,1780,1794,1742,1751,231300,1751
2014/07/03,1760,1779,1740,1746,92900,1746
2014/07/04,1760,1765,1728,1735,87100,1735
2014/07/07,1757,1757,1718,1725,152700,1725
2014/07/08,1718,1790,1715,1785,281400,1785
2014/07/09,1752,1775,1735,1753,146600,1753
2014/07/10,1751,1754,1704,1708,130000,1708
2014/07/11,1663,1710,1660,1694,122600,1694
2014/07/14,1699,1771,1692,1767,134300,1767
2014/07/15,1763,1770,1735,1761,129700,1761
2014/07/16,1762,1812,1760,1803,212800,1803
2014/07/17,1800,1800,1721,1777,254000,1777
2014/07/18,1760,1818,1739,1816,205200,1816
2014/07/22,1820,1890,1820,1883,217600,1883
2014/07/23,1883,1885,1813,1816,208700,1816
2014/07/24,1835,1858,1807,1856,159300,1856
2014/07/25,1862,1885,1849,1885,145200,1885
2014/07/28,1887,1895,1851,1856,127700,1856
2014/07/29,1864,1884,1846,1871,96700,1871
2014/07/30,1873,1878,1837,1844,145000,1844
2014/07/31,1870,1950,1844,1947,419300,1947
2014/08/01,1900,1901,1831,1880,314300,1880
2014/08/04,1858,1858,1800,1801,362500,1801
2014/08/05,1802,1834,1775,1778,218600,1778
2014/08/06,1757,1779,1722,1727,235300,1727
2014/08/07,1705,1734,1690,1724,268600,1724
2014/08/08,1699,1726,1649,1669,262500,1669
2014/08/11,1709,1741,1691,1730,184900,1730
2014/08/12,1717,1778,1711,1752,181100,1752
2014/08/13,1748,1784,1705,1715,264700,1715
2014/08/14,1700,1705,1603,1606,683800,1606
2014/08/15,1603,1621,1566,1619,405800,1619
2014/08/18,1625,1643,1601,1614,284600,1614
2014/08/19,1629,1639,1610,1635,233900,1635
2014/08/20,1632,1666,1632,1654,235100,1654
2014/08/21,1635,1711,1634,1704,388600,1704
2014/08/22,1700,1708,1650,1656,281400,1656
2014/08/25,1650,1668,1635,1644,160100,1644
2014/08/26,1643,1740,1615,1665,714500,1665
2014/08/27,1640,1662,1618,1652,290000,1652
2014/08/28,1692,1768,1621,1632,791400,1632
2014/08/29,1616,1657,1612,1646,167400,1646
2014/09/01,1641,1646,1611,1636,238800,1636
2014/09/02,1626,1634,1591,1599,304000,1599
2014/09/03,1605,1618,1559,1565,393000,1565
2014/09/04,1566,1582,1541,1544,208200,1544
2014/09/05,1573,1574,1530,1544,197300,1544
2014/09/08,1540,1540,1509,1525,179000,1525
2014/09/09,1534,1563,1510,1540,205100,1540
2014/09/10,1532,1546,1503,1533,237000,1533
2014/09/11,1540,1569,1533,1556,280600,1556
2014/09/12,1561,1574,1543,1570,312700,1570
2014/09/16,1560,1566,1509,1514,422700,1514
2014/09/17,1507,1535,1497,1508,213800,1508
2014/09/18,1508,1517,1491,1511,163000,1511
2014/09/19,1519,1519,1499,1512,160800,1512
2014/09/22,1519,1535,1505,1534,151300,1534
2014/09/24,1530,1530,1495,1500,120500,1500
2014/09/25,1500,1550,1497,1549,170900,1549
2014/09/26,1530,1572,1521,1545,205300,1545
2014/09/29,1545,1558,1532,1537,101800,1537
2014/09/30,1528,1551,1502,1514,178200,1514
2014/10/01,1535,1535,1493,1496,127300,1496
2014/10/02,1485,1489,1405,1415,414800,1415
2014/10/03,1413,1443,1403,1430,169500,1430
2014/10/06,1451,1451,1431,1431,138900,1431
2014/10/07,1438,1445,1408,1409,198400,1409
2014/10/08,1379,1449,1377,1431,262400,1431
2014/10/09,1431,1444,1371,1373,138200,1373
2014/10/10,1350,1364,1316,1344,167100,1344
2014/10/14,1287,1311,1270,1279,236200,1279
2014/10/15,1328,1330,1282,1311,657000,1311
2014/10/16,1270,1334,1263,1302,474600,1302
2014/10/17,1303,1339,1303,1324,375500,1324
2014/10/20,1384,1391,1353,1388,466400,1388
2014/10/21,1388,1397,1342,1351,202000,1351
2014/10/22,1378,1389,1347,1382,205000,1382
2014/10/23,1358,1367,1331,1345,230800,1345
2014/10/24,1383,1388,1349,1380,235900,1380
2014/10/27,1393,1394,1365,1374,168500,1374
2014/10/28,1385,1400,1372,1392,126400,1392
2014/10/29,1382,1404,1379,1385,171100,1385
2014/10/30,1372,1397,1370,1383,305200,1383
2014/10/31,1493,1524,1468,1496,1009900,1496
2014/11/04,1586,1586,1511,1514,444900,1514
2014/11/05,1500,1513,1455,1484,333800,1484
2014/11/06,1490,1494,1461,1474,322000,1474
2014/11/07,1475,1538,1475,1529,290400,1529
2014/11/10,1562,1620,1555,1617,668600,1617
2014/11/11,1610,1618,1592,1604,470900,1604
2014/11/12,1605,1610,1594,1598,269000,1598
2014/11/13,1598,1669,1595,1646,469400,1646
2014/11/14,1670,1696,1623,1689,505200,1689
2014/11/17,1693,1698,1623,1633,295400,1633
2014/11/18,1621,1642,1570,1586,456300,1586
2014/11/19,1581,1581,1509,1516,593800,1516
2014/11/20,1700,1775,1619,1666,1690000,1666
2014/11/21,1700,1835,1675,1829,1504600,1829
2014/11/25,1836,1854,1802,1838,637500,1838
2014/11/26,1801,1859,1790,1812,401900,1812
2014/11/27,1790,1812,1773,1777,240700,1777
2014/11/28,1790,1810,1777,1780,226900,1780
2014/12/01,1767,1828,1741,1822,298500,1822
2014/12/02,1814,1828,1793,1820,162000,1820
2014/12/03,1803,1815,1771,1779,212200,1779
2014/12/04,1773,1778,1702,1741,249900,1741
2014/12/05,1740,1768,1715,1750,211000,1750
2014/12/08,1750,1760,1715,1732,132500,1732
2014/12/09,1715,1723,1681,1685,191800,1685
2014/12/10,1658,1720,1658,1702,144600,1702
2014/12/11,1649,1673,1632,1659,161200,1659
2014/12/12,1648,1673,1645,1651,155200,1651
2014/12/15,1651,1673,1625,1627,109000,1627
2014/12/16,1587,1640,1587,1604,129000,1604
2014/12/17,1600,1602,1550,1562,183600,1562
2014/12/18,1599,1630,1580,1604,391900,1604
2014/12/19,1666,1701,1647,1685,317400,1685
2014/12/22,1701,1702,1654,1664,137100,1664
2014/12/24,1680,1740,1679,1696,254700,1696
2014/12/25,1696,1700,1650,1664,198100,1664
2014/12/26,1677,1714,1667,1700,131300,1700
2014/12/29,1715,1729,1641,1680,243700,1680
2014/12/30,1669,1717,1662,1675,116000,1675
2015/01/05,1690,1755,1675,1737,252900,1737
2015/01/06,1710,1789,1701,1747,335800,1747
2015/01/07,1747,1799,1722,1732,314200,1732
2015/01/08,1760,1820,1736,1808,366600,1808
2015/01/09,1830,1907,1830,1885,625500,1885
2015/01/13,1873,1920,1837,1916,437600,1916
2015/01/14,1920,1963,1880,1923,610100,1923
2015/01/15,1900,1967,1876,1954,396300,1954
2015/01/16,1933,1975,1873,1898,385300,1898
2015/01/19,1910,1958,1891,1951,264100,1951
2015/01/20,1925,1958,1912,1937,361300,1937
2015/01/21,1918,1931,1866,1890,290200,1890
2015/01/22,1872,1898,1821,1835,293500,1835
2015/01/23,1835,1858,1806,1816,275500,1816
2015/01/26,1816,1879,1809,1871,232400,1871
2015/01/27,1881,1893,1850,1887,138900,1887
2015/01/28,1876,1897,1862,1896,107600,1896
2015/01/29,1894,1894,1865,1875,99100,1875
2015/01/30,1880,1897,1855,1893,144000,1893
2015/02/02,1861,1923,1848,1901,117100,1901
2015/02/03,1909,1935,1803,1817,257200,1817
2015/02/04,1818,1860,1779,1823,263100,1823
2015/02/05,1830,1895,1801,1853,344100,1853
2015/02/06,1871,1898,1787,1805,285800,1805
2015/02/09,1829,1829,1780,1791,212400,1791
2015/02/10,1808,1820,1744,1768,199800,1768
2015/02/12,1803,1808,1764,1789,192700,1789
2015/02/13,1812,1826,1752,1771,238900,1771
2015/02/16,1798,1798,1765,1781,125200,1781
2015/02/17,1780,1796,1758,1776,138200,1776
2015/02/18,1794,1847,1782,1844,269500,1844
2015/02/19,1850,1918,1819,1900,405500,1900
2015/02/20,1909,1910,1852,1871,218000,1871
2015/02/23,1891,1891,1825,1841,186300,1841
2015/02/24,1846,1893,1846,1873,219600,1873
2015/02/25,1888,1899,1854,1860,198800,1860
2015/02/26,1843,1860,1808,1859,230000,1859
2015/02/27,1839,1879,1817,1852,184000,1852
2015/03/02,1860,1867,1817,1836,264700,1836
2015/03/03,1823,1878,1820,1858,337100,1858
2015/03/04,1841,1856,1806,1826,248400,1826
2015/03/05,1843,1854,1820,1834,319800,1834
2015/03/06,1821,1894,1812,1879,481900,1879
2015/03/09,1877,1938,1864,1896,490300,1896
2015/03/10,1900,1921,1883,1910,375600,1910
2015/03/11,1910,1926,1873,1880,194800,1880
2015/03/12,1910,1945,1884,1901,433800,1901
2015/03/13,1947,1991,1905,1990,874900,1990
2015/03/16,2003,2255,2003,2164,1383200,2164
2015/03/17,2148,2205,2130,2185,625800,2185
2015/03/18,2199,2430,2171,2418,1078000,2418
2015/03/19,2399,2624,2390,2620,1638700,2620
2015/03/20,2600,2659,2435,2460,1464700,2460
2015/03/23,2475,2547,2411,2427,945600,2427
2015/03/24,2449,2480,2281,2300,972300,2300
2015/03/25,2324,2335,2276,2292,352300,2292
2015/03/26,2289,2325,2271,2273,354400,2273
2015/03/27,2268,2345,2208,2227,567900,2227
2015/03/30,2231,2325,2231,2277,452400,2277
2015/03/31,2302,2390,2281,2346,697400,2346
2015/04/01,2364,2405,2322,2368,622900,2368
2015/04/02,2412,2450,2370,2390,677700,2390
2015/04/03,2409,2445,2327,2366,389600,2366
2015/04/06,2321,2395,2311,2389,250500,2389
2015/04/07,2402,2444,2395,2425,403300,2425
2015/04/08,2440,2463,2365,2384,509900,2384
2015/04/09,2401,2408,2366,2396,274600,2396
2015/04/10,2375,2412,2352,2403,197900,2403
2015/04/13,2436,2564,2430,2540,625700,2540
2015/04/14,2550,2599,2484,2548,618500,2548
2015/04/15,2530,2531,2444,2488,415700,2488
2015/04/16,2500,2507,2353,2377,567000,2377
2015/04/17,2427,2463,2303,2326,755400,2326
2015/04/20,2252,2350,2252,2290,320800,2290
2015/04/21,2300,2346,2267,2341,185000,2341
2015/04/22,2360,2394,2315,2330,279200,2330
2015/04/23,2326,2370,2310,2325,237300,2325
2015/04/24,2328,2335,2280,2295,208900,2295
2015/04/27,2283,2315,2283,2301,162700,2301
2015/04/28,2287,2321,2282,2307,183700,2307
2015/04/30,2300,2300,2225,2240,260700,2240
2015/05/01,2225,2249,2209,2226,140100,2226
2015/05/07,2246,2248,2145,2170,254900,2170
2015/05/08,2160,2240,2153,2215,200100,2215
2015/05/11,2217,2230,2153,2183,569500,2183
2015/05/12,2183,2198,2051,2085,1213300,2085
2015/05/13,2099,2177,2090,2152,590600,2152
2015/05/14,2177,2229,2150,2184,570500,2184
2015/05/15,2206,2229,2172,2187,319700,2187
2015/05/18,2190,2196,2136,2177,199600,2177
2015/05/19,2185,2199,2128,2171,334900,2171
2015/05/20,2181,2275,2180,2267,449900,2267
2015/05/21,2281,2318,2264,2288,356200,2288
2015/05/22,2295,2296,2210,2265,564000,2265
2015/05/25,2250,2255,2200,2220,505200,2220
2015/05/26,2210,2229,2175,2210,245500,2210
2015/05/27,2183,2190,2132,2167,360100,2167
2015/05/28,2156,2170,2100,2100,749200,2100
2015/05/29,2071,2104,2032,2076,728200,2076
2015/06/01,2050,2125,2033,2096,458400,2096
2015/06/02,2100,2132,2066,2077,420900,2077
2015/06/03,2077,2084,2030,2038,337900,2038
2015/06/04,2041,2074,2037,2049,249600,2049
2015/06/05,2045,2059,2026,2032,221300,2032
2015/06/08,2049,2052,2018,2029,382800,2029
2015/06/09,2029,2047,1986,1986,455000,1986
2015/06/10,1986,1998,1963,1972,223300,1972
2015/06/11,1981,1981,1914,1927,742500,1927
2015/06/12,1942,1944,1908,1925,614400,1925
2015/06/15,1926,1960,1920,1937,641700,1937
2015/06/16,1928,1956,1911,1911,526100,1911
2015/06/17,1910,1938,1888,1933,552200,1933
2015/06/18,1918,1933,1900,1904,524000,1904
2015/06/19,1941,2095,1940,2077,1903300,2077
2015/06/22,2089,2109,2016,2052,734600,2052
2015/06/23,2037,2040,1981,1996,844700,1996
2015/06/24,2014,2055,2004,2041,513500,2041
2015/06/25,2027,2083,2016,2073,371000,2073
2015/06/26,2070,2083,2025,2029,274200,2029
2015/06/29,1958,2000,1950,1968,293500,1968
2015/06/30,1960,2020,1960,2016,277300,2016
2015/07/01,1983,2015,1972,1994,411200,1994
