2011/01/14,1700,1710,1700,1710,200,570
2011/01/17,1728,1728,1728,1728,800,576
2011/01/18,1728,1728,1728,1728,100,576
2011/01/21,1689,1689,1689,1689,100,563
2011/02/15,1680,1680,1680,1680,800,560
2011/02/23,1677,1677,1677,1677,100,559
2011/02/25,1720,1720,1670,1710,800,570
2011/02/28,1710,1710,1710,1710,100,570
2011/03/02,1710,1710,1710,1710,100,570
2011/03/10,1715,1716,1715,1716,200,572
2011/03/11,1716,1716,1716,1716,100,572
2011/03/14,1650,1650,1626,1626,400,542
2011/03/15,1720,1720,1626,1650,1700,550
2011/03/24,1710,1710,1701,1701,300,567
2011/03/25,1740,1740,1740,1740,600,580
2011/03/28,1690,1690,1680,1680,200,560
2011/04/04,1680,1680,1680,1680,500,560
2011/04/05,1680,1680,1680,1680,800,560
2011/04/11,1710,1710,1710,1710,100,570
2011/04/14,1695,1695,1680,1680,700,560
2011/04/20,1650,1650,1650,1650,600,550
2011/04/22,1650,1650,1645,1650,1100,550
2011/05/13,1600,1606,1600,1605,1800,535
2011/06/01,1750,1750,1602,1602,1500,534
2011/06/03,1749,1749,1650,1650,900,550
2011/06/13,1632,1632,1632,1632,100,544
2011/06/14,1650,1650,1650,1650,200,550
2011/06/16,1725,1725,1725,1725,100,575
2011/06/17,1653,1653,1653,1653,100,551
2011/06/21,1670,1670,1613,1614,1000,538
2011/06/28,1650,1650,1650,1650,200,550
2011/06/29,1650,1650,1650,1650,300,550
2011/07/07,1663,1699,1663,1680,300,560
2011/07/15,1659,1659,1659,1659,2000,553
2011/07/19,1660,1665,1650,1650,1400,550
2011/07/20,1650,1650,1650,1650,400,550
2011/07/22,1685,1685,1680,1680,1200,560
2011/07/25,1669,1675,1660,1674,6200,558
2011/08/02,1636,1636,1635,1635,200,545
2011/08/04,1650,1650,1650,1650,100,550
2011/08/05,1613,1613,1602,1602,800,534
2011/08/08,1650,1650,1650,1650,300,550
2011/08/11,1675,1675,1650,1650,800,550
2011/08/12,1650,1650,1650,1650,1000,550
2011/08/31,1690,1695,1690,1695,400,565
2011/09/02,1671,1671,1671,1671,200,557
2011/09/09,1680,1680,1680,1680,300,560
2011/09/14,1750,1755,1750,1755,900,585
2011/10/05,1670,1670,1620,1620,900,540
2011/10/07,1641,1641,1641,1641,100,547
2011/10/11,1680,1680,1680,1680,100,560
2011/10/17,1740,1740,1700,1740,1400,580
2011/10/19,1740,1740,1740,1740,500,580
2011/10/24,1800,1800,1800,1800,200,600
2011/10/25,1850,1850,1770,1770,800,590
2011/10/27,1800,1800,1800,1800,100,600
2011/11/07,1900,1900,1851,1851,700,617
2011/11/08,1851,1851,1851,1851,300,617
2011/11/18,1929,1929,1929,1929,400,643
2011/11/21,1919,1929,1919,1929,2100,643
2011/11/24,1926,1926,1905,1905,300,635
2011/11/30,2050,2055,2001,2055,500,685
2011/12/01,2099,2099,2055,2055,1800,685
2011/12/20,2047,2047,2025,2025,200,675
2011/12/22,2049,2049,2049,2049,500,683
2011/12/26,2001,2001,1971,1971,300,657
2011/12/27,1971,1971,1968,1968,500,656
2012/01/04,2050,2050,2040,2040,200,680
2012/01/05,2040,2040,1950,1950,400,650
2012/01/06,1965,1965,1965,1965,100,655
2012/01/18,1933,1933,1932,1932,600,644
2012/01/19,1915,1915,1821,1875,1700,625
2012/01/25,1827,1878,1827,1878,800,626
2012/01/27,1869,1875,1869,1875,700,625
2012/01/31,1875,1875,1875,1875,100,625
2012/02/01,1945,1945,1890,1890,200,630
2012/02/02,1910,1910,1902,1902,200,634
2012/02/03,1942,1950,1890,1890,1800,630
2012/02/08,1920,1950,1920,1950,400,650
2012/02/13,1945,1951,1940,1950,2700,650
2012/02/14,1995,2110,1995,2100,1100,700
2012/02/20,2100,2100,2010,2055,1200,685
2012/02/22,2250,2260,2180,2235,1800,745
2012/02/23,2235,2250,2161,2175,2500,725
2012/03/02,2490,2490,2370,2400,600,800
2012/03/09,2360,2400,2360,2400,1100,800
2012/03/12,2450,2590,2430,2430,2800,810
2012/03/14,2500,2510,2479,2490,1700,830
2012/03/26,2630,2750,2590,2700,3300,900
2012/03/27,2615,2700,2615,2700,1000,900
2012/03/28,870,870,828,849,3800,849
2012/03/29,850,850,823,848,4800,848
2012/03/30,849,850,830,849,2600,849
2012/04/02,853,900,853,894,2900,894
2012/04/03,890,890,872,888,1200,888
2012/04/04,887,887,870,875,4400,875
2012/04/05,870,870,865,865,3700,865
2012/04/06,866,867,860,867,900,867
2012/04/09,862,862,858,860,1500,860
2012/04/10,850,850,836,836,1300,836
2012/04/11,826,855,821,855,1400,855
2012/04/12,850,855,850,850,800,850
2012/04/13,849,849,830,840,1800,840
2012/04/16,850,850,825,827,4200,827
2012/04/17,835,838,835,838,400,838
2012/04/18,840,849,840,845,800,845
2012/04/19,849,849,842,849,800,849
2012/04/20,850,850,840,848,5900,848
2012/04/23,845,845,820,830,4400,830
2012/04/24,811,813,810,812,1900,812
2012/04/25,827,844,818,844,4600,844
2012/04/26,829,830,820,821,1700,821
2012/04/27,830,839,830,835,1400,835
2012/05/01,830,830,825,825,1200,825
2012/05/02,812,829,802,805,2300,805
2012/05/07,820,820,801,810,400,810
2012/05/08,815,819,815,819,300,819
2012/05/09,811,811,800,800,1500,800
2012/05/10,815,820,815,820,500,820
2012/05/11,830,830,825,830,3700,830
2012/05/14,825,825,733,795,4900,795
2012/05/15,780,795,750,759,3700,759
2012/05/16,760,763,760,761,1100,761
2012/05/17,766,776,766,776,1200,776
2012/05/18,770,770,760,770,1200,770
2012/05/21,750,750,750,750,1300,750
2012/05/22,770,778,770,778,200,778
2012/05/23,780,780,761,770,2200,770
2012/05/24,769,770,769,770,400,770
2012/05/25,770,770,761,770,4300,770
2012/05/28,770,770,741,741,1400,741
2012/05/29,770,770,769,769,500,769
2012/05/30,770,770,769,769,3800,769
2012/05/31,768,769,768,769,300,769
2012/06/01,775,775,755,770,4000,770
2012/06/04,773,773,773,773,300,773
2012/06/05,799,799,776,776,900,776
2012/06/06,795,795,780,780,600,780
2012/06/07,785,785,785,785,200,785
2012/06/08,785,785,775,785,700,785
2012/06/11,761,776,761,776,600,776
2012/06/12,770,771,770,770,400,770
2012/06/13,770,770,770,770,300,770
2012/06/14,770,776,764,776,1500,776
2012/06/15,776,780,770,770,2500,770
2012/06/18,770,770,764,764,800,764
2012/06/19,766,770,766,770,400,770
2012/06/20,770,770,770,770,900,770
2012/06/21,766,770,766,770,800,770
2012/06/22,767,770,767,770,400,770
2012/06/25,770,770,765,765,3900,765
2012/06/26,769,770,765,765,1700,765
2012/06/27,769,770,761,769,1800,769
2012/06/28,770,770,756,769,2100,769
2012/06/29,769,770,757,757,4200,757
2012/07/02,757,758,750,758,6500,758
2012/07/03,758,758,757,758,2800,758
2012/07/04,758,759,757,759,4600,759
2012/07/05,759,759,758,759,2100,759
2012/07/06,759,759,759,759,1400,759
2012/07/09,759,759,757,757,3300,757
2012/07/10,759,759,758,758,800,758
2012/07/11,759,759,758,759,500,759
2012/07/12,753,760,753,758,4500,758
2012/07/13,759,760,759,760,1000,760
2012/07/17,758,760,758,760,11400,760
2012/07/18,760,760,759,760,1500,760
2012/07/19,760,760,759,759,2000,759
2012/07/20,760,760,758,758,3100,758
2012/07/23,758,760,753,755,2000,755
2012/07/24,758,758,756,758,500,758
2012/07/25,788,788,778,779,9800,779
2012/07/26,780,780,756,756,1000,756
2012/07/30,756,756,755,756,2000,756
2012/07/31,756,756,756,756,1500,756
2012/08/01,760,760,756,760,1000,760
2012/08/02,759,760,759,760,1200,760
2012/08/03,760,760,758,758,1700,758
2012/08/06,760,760,759,759,700,759
2012/08/07,760,760,759,760,1300,760
2012/08/08,760,760,755,760,2200,760
2012/08/09,760,760,760,760,1700,760
2012/08/10,760,763,756,763,1700,763
2012/08/13,759,760,759,760,2200,760
2012/08/14,760,760,758,759,1500,759
2012/08/15,760,762,759,762,3900,762
2012/08/16,762,762,746,755,5900,755
2012/08/17,743,755,743,755,1900,755
2012/08/20,755,755,750,750,2800,750
2012/08/21,750,755,746,755,2000,755
2012/08/22,753,755,753,755,900,755
2012/08/23,755,755,754,755,500,755
2012/08/24,755,755,754,755,2500,755
2012/08/27,755,755,754,755,2000,755
2012/08/28,755,755,753,753,1000,753
2012/08/29,750,754,750,754,2500,754
2012/08/30,754,754,750,750,2900,750
2012/08/31,750,750,745,747,2000,747
2012/09/03,750,750,749,750,3900,750
2012/09/04,750,750,749,750,1800,750
2012/09/05,750,750,749,750,2200,750
2012/09/06,749,749,748,748,2000,748
2012/09/07,748,748,746,748,2600,748
2012/09/10,750,750,748,748,3000,748
2012/09/11,748,748,745,745,3500,745
2012/09/12,745,745,744,744,3900,744
2012/09/13,745,745,745,745,2500,745
2012/09/14,745,745,739,743,9000,743
2012/09/18,741,745,739,740,9400,740
2012/09/19,740,740,732,733,8700,733
2012/09/20,733,733,732,733,4000,733
2012/09/21,732,732,730,730,5200,730
2012/09/24,740,740,734,738,4500,738
2012/09/25,738,740,734,740,11900,740
2012/09/26,685,707,685,693,10500,693
2012/09/27,693,713,686,710,2700,710
2012/09/28,710,710,700,709,1700,709
2012/10/01,698,699,686,696,1900,696
2012/10/02,695,700,695,700,1100,700
2012/10/03,690,695,690,695,800,695
2012/10/04,694,700,694,698,1000,698
2012/10/05,700,700,692,692,1700,692
2012/10/09,690,692,690,690,700,690
2012/10/10,690,690,682,690,700,690
2012/10/11,695,695,686,686,500,686
2012/10/12,689,689,688,688,200,688
2012/10/15,724,724,682,682,3000,682
2012/10/16,681,682,681,681,500,681
2012/10/17,682,700,682,700,1100,700
2012/10/18,700,700,695,700,1000,700
2012/10/19,687,697,685,697,900,697
2012/10/22,691,692,689,689,900,689
2012/10/23,690,697,690,694,400,694
2012/10/24,699,700,697,700,700,700
2012/10/25,700,700,699,700,1900,700
2012/10/26,700,700,697,700,1300,700
2012/10/29,733,733,712,727,4900,727
2012/10/30,727,729,727,729,1900,729
2012/10/31,730,730,708,726,2300,726
2012/11/01,726,727,725,727,1200,727
2012/11/02,729,729,720,727,1700,727
2012/11/05,730,730,727,727,1900,727
2012/11/06,730,730,720,720,400,720
2012/11/07,716,727,715,727,500,727
2012/11/08,727,727,715,715,500,715
2012/11/09,717,717,701,704,1700,704
2012/11/12,704,716,704,716,1700,716
2012/11/13,716,720,716,720,1800,720
2012/11/14,720,720,720,720,1500,720
2012/11/15,720,720,709,709,3700,709
2012/11/16,714,730,714,729,4500,729
2012/11/19,729,730,720,720,2400,720
2012/11/20,726,735,726,735,3800,735
2012/11/21,730,730,727,730,2100,730
2012/11/22,730,730,711,728,4500,728
2012/11/26,729,735,720,730,6000,730
2012/11/27,730,730,730,730,2400,730
2012/11/28,730,730,729,729,2400,729
2012/11/29,729,740,714,740,11300,740
2012/11/30,759,759,747,749,6200,749
2012/12/03,750,758,735,741,7400,741
2012/12/04,742,759,742,756,5100,756
2012/12/05,748,763,748,763,7000,763
2012/12/06,763,770,752,752,4800,752
2012/12/07,753,769,753,756,4800,756
2012/12/10,756,764,756,758,1500,758
2012/12/11,759,764,759,761,1700,761
2012/12/12,765,768,765,767,1800,767
2012/12/13,767,767,758,763,3400,763
2012/12/14,763,766,758,766,2800,766
2012/12/17,769,769,760,763,2300,763
2012/12/18,762,768,751,755,1800,755
2012/12/19,755,756,751,753,1800,753
2012/12/20,759,759,751,751,1100,751
2012/12/21,750,750,745,747,1500,747
2012/12/25,762,762,750,751,2000,751
2012/12/26,751,753,751,753,300,753
2012/12/27,752,758,745,745,1500,745
2012/12/28,749,759,748,759,800,759
2013/01/04,779,779,754,760,2300,760
2013/01/07,769,780,760,760,2900,760
2013/01/08,760,760,755,757,2500,757
2013/01/09,760,761,750,755,3100,755
2013/01/10,756,757,752,752,2100,752
2013/01/11,754,765,754,759,2000,759
2013/01/15,769,769,765,765,3400,765
2013/01/16,767,770,755,755,2500,755
2013/01/17,756,774,756,770,1500,770
2013/01/18,775,776,761,776,1300,776
2013/01/21,776,799,776,790,1900,790
2013/01/22,791,800,790,800,1600,800
2013/01/23,800,830,800,800,1500,800
2013/01/24,801,809,800,809,600,809
2013/01/25,819,819,800,801,2400,801
2013/01/28,808,818,806,806,2200,806
2013/01/29,809,818,809,818,1800,818
2013/01/30,818,818,812,812,1400,812
2013/01/31,812,816,812,816,700,816
2013/02/01,816,816,810,815,1200,815
2013/02/04,809,815,809,815,1300,815
2013/02/05,820,820,813,813,2400,813
2013/02/06,813,819,813,814,900,814
2013/02/07,814,815,809,809,1900,809
2013/02/08,814,814,801,809,1500,809
2013/02/12,809,820,800,802,5600,802
2013/02/13,802,809,802,805,2700,805
2013/02/14,805,805,799,799,3100,799
2013/02/15,800,800,797,797,5000,797
2013/02/18,800,800,791,799,3200,799
2013/02/19,799,799,792,799,2300,799
2013/02/20,798,799,773,799,10300,799
2013/02/21,798,800,778,795,4800,795
2013/02/22,795,800,795,800,1900,800
2013/02/25,800,800,797,800,4300,800
2013/02/26,805,805,800,800,600,800
2013/02/27,800,805,800,805,2900,805
2013/02/28,808,808,808,808,1000,808
2013/03/01,808,809,806,809,1600,809
2013/03/04,820,826,820,826,4600,826
2013/03/05,811,826,811,826,4000,826
2013/03/06,830,835,820,826,2100,826
2013/03/07,820,828,820,825,2500,825
2013/03/08,826,840,826,839,1600,839
2013/03/11,840,843,840,840,1400,840
2013/03/12,848,848,810,836,3800,836
2013/03/13,836,838,836,838,800,838
2013/03/14,840,849,840,849,900,849
2013/03/15,859,859,842,843,2600,843
2013/03/18,850,852,850,852,700,852
2013/03/19,852,870,852,870,700,870
2013/03/21,862,873,862,873,1000,873
2013/03/22,875,880,874,875,2600,875
2013/03/25,881,890,875,887,2900,887
2013/03/26,880,882,870,870,2800,870
2013/03/27,865,866,846,856,1400,856
2013/03/28,847,855,845,855,900,855
2013/03/29,855,868,848,848,1000,848
2013/04/01,848,848,836,840,2100,840
2013/04/02,842,856,842,846,1800,846
2013/04/03,858,860,850,850,500,850
2013/04/04,904,904,862,870,4700,870
2013/04/05,878,879,860,860,2300,860
2013/04/08,865,884,861,866,1800,866
2013/04/09,896,896,869,869,1100,869
2013/04/10,897,897,874,874,900,874
2013/04/11,896,896,881,881,1000,881
2013/04/12,892,892,880,880,1300,880
2013/04/15,880,881,872,876,5800,876
2013/04/16,876,880,870,871,3300,871
2013/04/17,878,880,873,877,5000,877
2013/04/18,879,880,875,875,2800,875
2013/04/19,880,880,878,880,3900,880
2013/04/22,894,896,875,880,5800,880
2013/04/23,880,880,875,880,3100,880
2013/04/24,880,880,878,880,4900,880
2013/04/25,880,880,877,880,6800,880
2013/04/26,880,880,879,880,4900,880
2013/04/30,880,880,877,880,1500,880
2013/05/01,880,880,870,876,2600,876
2013/05/02,880,880,868,878,3500,878
2013/05/07,880,880,878,879,3100,879
2013/05/08,884,885,875,875,3100,875
2013/05/09,880,885,876,885,2400,885
2013/05/10,881,885,880,884,4500,884
2013/05/13,959,959,868,880,15900,880
2013/05/14,880,880,879,880,4000,880
2013/05/15,880,880,878,880,7100,880
2013/05/16,880,898,880,893,5200,893
2013/05/17,890,900,890,899,8300,899
2013/05/20,900,930,900,924,3300,924
2013/05/21,924,924,911,924,1000,924
2013/05/22,939,944,929,943,1800,943
2013/05/23,943,943,920,935,1800,935
2013/05/24,937,937,914,928,2900,928
2013/05/27,920,920,902,915,1700,915
2013/05/28,915,919,889,915,3600,915
2013/05/29,915,915,908,908,2100,908
2013/05/30,907,929,907,908,500,908
2013/05/31,936,936,916,916,3000,916
2013/06/03,930,930,916,916,900,916
2013/06/04,920,920,900,900,1200,900
2013/06/05,910,923,910,915,1200,915
2013/06/06,905,928,903,917,1600,917
2013/06/07,906,906,869,869,2400,869
2013/06/10,879,915,879,908,1100,908
2013/06/11,889,924,889,924,1600,924
2013/06/12,925,925,915,915,600,915
2013/06/13,900,900,888,888,900,888
2013/06/14,914,920,910,917,600,917
2013/06/17,932,932,899,910,4000,910
2013/06/18,900,917,898,917,900,917
2013/06/19,900,915,900,904,1100,904
2013/06/20,910,910,901,910,1100,910
2013/06/21,910,910,900,910,1200,910
2013/06/24,910,920,910,915,2100,915
2013/06/25,915,915,910,910,2000,910
2013/06/26,905,910,900,910,2300,910
2013/06/27,910,910,878,895,3600,895
2013/06/28,900,903,881,888,2100,888
2013/07/01,900,900,896,899,1500,899
2013/07/02,899,900,899,899,2000,899
2013/07/03,900,907,899,907,1500,907
2013/07/04,910,910,906,910,2100,910
2013/07/05,910,910,899,900,4400,900
2013/07/08,900,900,899,900,2000,900
2013/07/09,910,927,910,927,21000,927
2013/07/10,927,950,926,939,4000,939
2013/07/11,938,940,918,935,5700,935
2013/07/12,935,950,930,942,5000,942
2013/07/16,1029,1029,990,1002,8800,1002
2013/07/17,1001,1001,961,992,2800,992
2013/07/18,1000,1005,962,999,3900,999
2013/07/19,999,1000,987,1000,1200,1000
2013/07/22,1020,1020,1001,1010,2600,1010
2013/07/23,1019,1025,1010,1025,2600,1025
2013/07/24,1027,1038,1020,1020,3200,1020
2013/07/25,1071,1090,1044,1050,7600,1050
2013/07/26,1098,1099,1053,1070,5900,1070
2013/07/29,1070,1100,1070,1095,3200,1095
2013/07/30,1100,1100,1077,1100,1800,1100
2013/07/31,1100,1100,1082,1091,3100,1091
2013/08/01,1120,1120,1088,1088,1200,1088
2013/08/02,1110,1120,1100,1120,1500,1120
2013/08/05,1120,1124,1120,1120,1400,1120
2013/08/06,1180,1180,1124,1170,1600,1170
2013/08/07,1175,1250,1175,1180,3400,1180
2013/08/08,1211,1211,1180,1200,2300,1200
2013/08/09,1200,1200,1190,1200,2000,1200
2013/08/12,1155,1155,1150,1150,1400,1150
2013/08/13,1140,1140,1120,1120,2000,1120
2013/08/14,1120,1130,1110,1130,3300,1130
2013/08/15,1130,1130,1125,1127,2300,1127
2013/08/16,1130,1130,1127,1128,1500,1128
2013/08/19,1130,1150,1128,1129,3000,1129
2013/08/20,1128,1130,1128,1128,1100,1128
2013/08/21,1127,1127,1120,1120,1800,1120
2013/08/22,1119,1119,1100,1100,2600,1100
2013/08/23,1100,1100,1080,1087,2900,1087
2013/08/26,1100,1100,1080,1090,2000,1090
2013/08/27,1090,1090,1085,1090,1200,1090
2013/08/28,1090,1090,1080,1080,2400,1080
2013/08/29,1080,1080,1077,1079,2300,1079
2013/08/30,1079,1079,1075,1077,1400,1077
2013/09/02,1080,1080,1075,1076,1800,1076
2013/09/03,1079,1080,1077,1077,1600,1077
2013/09/04,1076,1077,1076,1077,1300,1077
2013/09/05,1077,1082,1075,1080,5700,1080
2013/09/06,1080,1089,1080,1088,1300,1088
2013/09/09,1099,1099,1091,1098,3900,1098
2013/09/10,1100,1100,1098,1099,2800,1099
2013/09/11,1100,1180,1100,1120,6800,1120
2013/09/12,1149,1149,1138,1140,3400,1140
2013/09/13,1170,1175,1146,1175,4700,1175
2013/09/17,1199,1220,1188,1192,5800,1192
2013/09/18,1221,1221,1192,1199,3300,1199
2013/09/19,1200,1200,1194,1194,3600,1194
2013/09/20,1198,1198,1192,1195,3200,1195
2013/09/24,1199,1199,1193,1198,7600,1198
2013/09/25,1199,1200,1193,1200,9100,1200
2013/09/26,1050,1084,1030,1081,12900,1081
2013/09/27,1083,1083,1050,1065,5300,1065
2013/09/30,1065,1065,1048,1053,2700,1053
2013/10/01,1053,1108,1046,1050,11100,1050
2013/10/02,1051,1107,1041,1050,11500,1050
2013/10/03,1050,1080,1050,1054,1700,1054
2013/10/04,1057,1057,1042,1042,2400,1042
2013/10/07,1042,1042,1030,1030,4800,1030
2013/10/08,1030,1030,1022,1022,2100,1022
2013/10/09,1022,1050,1021,1049,3600,1049
2013/10/10,1049,1061,1049,1061,2500,1061
2013/10/11,1069,1085,1061,1085,4100,1085
2013/10/15,1055,1055,1046,1049,2900,1049
2013/10/16,1049,1049,1020,1030,3100,1030
2013/10/17,1030,1030,1026,1027,700,1027
2013/10/18,1039,1039,1037,1039,500,1039
2013/10/21,1039,1048,1029,1029,1300,1029
2013/10/22,1030,1045,1030,1045,400,1045
2013/10/23,1035,1035,1035,1035,400,1035
2013/10/24,1035,1035,1032,1032,800,1032
2013/10/25,1048,1048,1040,1040,1000,1040
2013/10/28,1040,1040,1035,1035,500,1035
2013/10/29,1048,1048,1048,1048,100,1048
2013/10/30,1045,1045,1042,1045,400,1045
2013/10/31,1041,1045,1038,1038,1600,1038
2013/11/01,1037,1047,1037,1040,300,1040
2013/11/05,1046,1046,1035,1045,1300,1045
2013/11/06,1050,1050,1035,1036,500,1036
2013/11/07,1040,1040,1035,1035,700,1035
2013/11/08,1034,1034,1030,1030,800,1030
2013/11/11,1034,1039,1030,1030,800,1030
2013/11/12,1029,1029,1026,1026,1400,1026
2013/11/13,1050,1050,1025,1026,2400,1026
2013/11/14,1042,1050,1026,1034,3500,1034
2013/11/15,1033,1033,984,1011,5900,1011
2013/11/18,1002,1004,1001,1001,3200,1001
2013/11/19,1000,1001,999,1001,600,1001
2013/11/20,1019,1019,1003,1005,900,1005
2013/11/21,1005,1005,1003,1005,1200,1005
2013/11/22,1005,1007,1004,1005,1300,1005
2013/11/25,1023,1023,1003,1005,2300,1005
2013/11/26,1006,1006,1005,1005,800,1005
2013/11/27,1006,1006,1001,1001,1700,1001
2013/11/28,1019,1019,1000,1004,4100,1004
2013/11/29,1009,1009,1000,1002,2500,1002
2013/12/02,1001,1005,999,1003,3500,1003
2013/12/03,1007,1007,999,1003,2800,1003
2013/12/04,1003,1003,999,1000,2400,1000
2013/12/05,1025,1027,1002,1010,8000,1010
2013/12/06,1040,1040,1002,1009,11500,1009
2013/12/09,1010,1018,1009,1013,3300,1013
2013/12/10,1010,1021,1009,1010,5200,1010
2013/12/11,1018,1020,1008,1012,4600,1012
2013/12/12,1020,1025,1006,1007,3700,1007
2013/12/13,1006,1009,1006,1008,3100,1008
2013/12/16,1005,1010,1005,1007,2700,1007
2013/12/17,1008,1008,1003,1003,1300,1003
2013/12/18,1003,1003,1000,1000,2200,1000
2013/12/19,1005,1008,1005,1008,700,1008
2013/12/20,1010,1010,1001,1001,1500,1001
2013/12/24,999,1009,997,1003,7000,1003
2013/12/25,1009,1009,996,997,4100,997
2013/12/26,1002,1002,997,1000,3500,1000
2013/12/27,1000,1000,998,999,1200,999
2013/12/30,1000,1000,999,1000,9000,1000
2014/01/06,1027,1027,1003,1005,2800,1005
2014/01/07,1005,1005,1000,1003,1700,1003
2014/01/08,1005,1052,1004,1052,15900,1052
2014/01/09,1055,1064,1020,1038,16600,1038
2014/01/10,1046,1046,1022,1025,6100,1025
2014/01/14,1031,1035,1025,1033,1400,1033
2014/01/15,1059,1059,1035,1041,1900,1041
2014/01/16,1041,1041,1029,1034,4100,1034
2014/01/17,1030,1040,1028,1032,2000,1032
2014/01/20,1038,1038,1035,1038,1000,1038
2014/01/21,1038,1091,1038,1066,20100,1066
2014/01/22,1074,1074,1059,1070,3500,1070
2014/01/23,1066,1082,1060,1082,2900,1082
2014/01/24,1080,1080,1060,1060,2100,1060
2014/01/27,1050,1050,1022,1024,6700,1024
2014/01/28,1023,1060,1023,1045,2400,1045
2014/01/29,1067,1067,1050,1060,2600,1060
2014/01/30,1059,1059,1040,1042,1100,1042
2014/01/31,1068,1068,1050,1054,400,1054
2014/02/03,1051,1062,1026,1028,1400,1028
2014/02/04,1025,1032,1000,1032,5000,1032
2014/02/05,1033,1038,1012,1012,1600,1012
2014/02/06,1030,1030,1030,1030,200,1030
2014/02/07,1031,1040,1031,1031,800,1031
2014/02/10,1045,1050,1038,1049,600,1049
2014/02/12,1050,1050,1037,1048,1900,1048
2014/02/13,1045,1045,1035,1035,1100,1035
2014/02/14,1037,1037,1028,1028,1900,1028
2014/02/17,1058,1058,1020,1020,2800,1020
2014/02/18,1017,1057,1017,1057,800,1057
2014/02/19,1045,1045,1020,1020,600,1020
2014/02/20,1026,1026,1026,1026,100,1026
2014/02/21,1035,1052,1035,1050,400,1050
2014/02/24,1050,1055,1050,1055,600,1055
2014/02/25,1060,1060,1048,1050,2100,1050
2014/02/26,1050,1060,1050,1060,200,1060
2014/02/27,1064,1067,1051,1051,1100,1051
2014/02/28,1051,1051,1050,1050,600,1050
2014/03/03,1050,1062,1045,1057,1700,1057
2014/03/04,1057,1065,1057,1064,700,1064
2014/03/05,1080,1085,1056,1070,3700,1070
2014/03/06,1084,1084,1082,1084,400,1084
2014/03/07,1085,1085,1061,1077,1300,1077
2014/03/10,1080,1080,1071,1080,700,1080
2014/03/11,1071,1080,1071,1072,1300,1072
2014/03/12,1077,1080,1076,1079,2100,1079
2014/03/13,1079,1080,1076,1080,1400,1080
2014/03/14,1073,1083,1073,1080,2300,1080
2014/03/17,1088,1088,1072,1079,2300,1079
2014/03/18,1088,1088,1087,1088,600,1088
2014/03/19,1085,1085,1079,1079,2800,1079
2014/03/20,1079,1080,1079,1080,400,1080
2014/03/24,1079,1080,1050,1063,1900,1063
2014/03/25,1075,1077,1047,1047,1000,1047
2014/03/26,1048,1053,1048,1053,900,1053
2014/03/27,1028,1060,1027,1060,700,1060
2014/03/28,1069,1100,1069,1081,1800,1081
2014/03/31,1080,1080,1069,1069,1500,1069
2014/04/01,1070,1080,1065,1065,5700,1065
2014/04/02,1080,1080,1070,1070,800,1070
2014/04/03,1070,1079,1070,1079,900,1079
2014/04/04,1080,1080,1070,1075,1400,1075
2014/04/07,1080,1080,1075,1075,1000,1075
2014/04/08,1075,1075,1070,1070,500,1070
2014/04/09,1080,1080,1060,1060,1000,1060
2014/04/10,1060,1079,1060,1061,600,1061
2014/04/11,1060,1060,1050,1060,800,1060
2014/04/14,1050,1066,1050,1066,1000,1066
2014/04/15,1096,1096,1066,1085,1500,1085
2014/04/16,1063,1070,1063,1070,300,1070
2014/04/18,1070,1070,1068,1069,500,1069
2014/04/21,1075,1080,1075,1080,400,1080
2014/04/22,1069,1073,1065,1065,700,1065
2014/04/23,1066,1066,1066,1066,100,1066
2014/04/24,1079,1085,1079,1085,700,1085
2014/04/25,1088,1088,1080,1088,1000,1088
2014/04/28,1081,1085,1072,1080,1100,1080
2014/04/30,1071,1080,1071,1080,1600,1080
2014/05/01,1080,1080,1080,1080,400,1080
2014/05/02,1071,1080,1070,1080,2100,1080
2014/05/07,1085,1087,1071,1087,500,1087
2014/05/08,1075,1083,1070,1083,2400,1083
2014/05/09,1070,1084,1070,1084,200,1084
2014/05/12,1084,1087,1065,1079,2400,1079
2014/05/13,1080,1080,1066,1067,3000,1067
2014/05/14,1067,1069,1064,1064,2400,1064
2014/05/15,1068,1069,1063,1069,2300,1069
2014/05/16,1069,1069,1065,1069,600,1069
2014/05/19,1069,1071,1069,1071,600,1071
2014/05/20,1071,1077,1071,1071,2300,1071
2014/05/21,1068,1068,1067,1067,400,1067
2014/05/22,1067,1067,1065,1067,1000,1067
2014/05/23,1067,1067,1065,1067,2100,1067
2014/05/26,1065,1069,1065,1069,1700,1069
2014/05/27,1069,1073,1068,1072,1900,1072
2014/05/28,1072,1076,1072,1076,1900,1076
2014/05/29,1065,1069,1065,1069,1600,1069
2014/05/30,1084,1084,1068,1072,1800,1072
2014/06/02,1072,1078,1072,1074,2400,1074
2014/06/03,1073,1074,1072,1074,1600,1074
2014/06/04,1074,1076,1073,1073,2600,1073
2014/06/05,1076,1076,1073,1073,1000,1073
2014/06/06,1073,1076,1073,1076,900,1076
2014/06/09,1085,1087,1077,1087,500,1087
2014/06/10,1087,1090,1085,1090,1400,1090
2014/06/11,1099,1112,1096,1112,2500,1112
2014/06/12,1096,1108,1096,1105,1600,1105
2014/06/13,1108,1111,1105,1110,800,1110
2014/06/16,1139,1139,1113,1114,2000,1114
2014/06/17,1132,1133,1120,1133,1800,1133
2014/06/18,1140,1145,1130,1145,1500,1145
2014/06/19,1142,1155,1142,1154,2100,1154
2014/06/20,1154,1178,1150,1150,1200,1150
2014/06/23,1170,1190,1160,1190,1500,1190
2014/06/24,1173,1188,1172,1188,1600,1188
2014/06/25,1191,1192,1186,1186,1700,1186
2014/06/26,1186,1205,1185,1205,1800,1205
2014/06/27,1205,1210,1198,1209,2100,1209
2014/06/30,1210,1249,1200,1249,4800,1249
2014/07/01,1249,1249,1220,1248,3100,1248
2014/07/02,1248,1248,1240,1240,1500,1240
2014/07/03,1236,1250,1230,1230,3300,1230
2014/07/04,1248,1248,1238,1241,1600,1241
2014/07/07,1245,1262,1241,1255,2600,1255
2014/07/08,1269,1297,1262,1283,2300,1283
2014/07/09,1313,1327,1287,1300,5500,1300
2014/07/10,1300,1307,1290,1300,5200,1300
2014/07/11,1286,1318,1282,1310,3000,1310
2014/07/14,1318,1375,1318,1375,4800,1375
2014/07/15,1395,1395,1362,1365,7500,1365
2014/07/16,1365,1365,1345,1362,2300,1362
2014/07/17,1365,1367,1363,1367,1500,1367
2014/07/18,1363,1363,1331,1350,19400,1350
2014/07/22,1350,1377,1350,1374,2400,1374
2014/07/23,1398,1398,1375,1383,2400,1383
2014/07/24,1403,1480,1400,1470,5900,1470
2014/07/25,1500,1510,1455,1510,8100,1510
2014/07/28,1549,1549,1508,1528,3200,1528
2014/07/29,1544,1544,1540,1540,2300,1540
2014/07/30,1540,1540,1514,1517,2200,1517
2014/07/31,1511,1514,1502,1502,3000,1502
2014/08/01,1500,1517,1500,1504,2900,1504
2014/08/04,1504,1530,1504,1530,1200,1530
2014/08/05,1531,1531,1515,1515,2400,1515
2014/08/06,1506,1509,1450,1475,5700,1475
2014/08/07,1475,1475,1453,1453,1100,1453
2014/08/08,1450,1451,1444,1445,1900,1445
2014/08/11,1446,1446,1444,1444,1600,1444
2014/08/12,1445,1455,1445,1450,1200,1450
2014/08/13,1447,1450,1445,1450,2300,1450
2014/08/14,1460,1465,1451,1456,1800,1456
2014/08/15,1426,1435,1387,1393,13400,1393
2014/08/18,1394,1401,1392,1392,4800,1392
2014/08/19,1392,1399,1388,1388,3200,1388
2014/08/20,1391,1399,1391,1397,900,1397
2014/08/21,1397,1400,1388,1389,3600,1389
2014/08/22,1390,1400,1390,1399,1600,1399
2014/08/25,1400,1420,1395,1395,11000,1395
2014/08/26,1395,1415,1389,1401,3200,1401
2014/08/27,1431,1449,1410,1449,3000,1449
2014/08/28,1449,1496,1449,1493,3500,1493
2014/08/29,1495,1504,1471,1504,2500,1504
2014/09/01,1510,1520,1504,1508,2000,1508
2014/09/02,1508,1520,1480,1480,2900,1480
2014/09/03,1498,1509,1480,1503,2300,1503
2014/09/04,1504,1504,1467,1479,3600,1479
2014/09/05,1480,1492,1480,1480,3100,1480
2014/09/08,1480,1485,1477,1477,1200,1477
2014/09/09,1475,1480,1475,1478,700,1478
2014/09/10,1480,1481,1478,1480,2100,1480
2014/09/11,1480,1483,1478,1478,1400,1478
2014/09/12,1480,1480,1479,1480,2900,1480
2014/09/16,1480,1486,1479,1480,3800,1480
2014/09/17,1480,1490,1480,1490,1300,1490
2014/09/18,1490,1494,1481,1484,2600,1484
2014/09/19,1484,1486,1481,1485,2500,1485
2014/09/22,1486,1493,1485,1493,6600,1493
2014/09/24,1490,1493,1489,1491,9400,1491
2014/09/25,1479,1479,1450,1450,72400,1450
2014/09/26,1397,1409,1382,1382,22700,1382
2014/09/29,1384,1387,1358,1358,7300,1358
2014/09/30,1354,1354,1311,1315,3600,1315
2014/10/01,1300,1310,1250,1250,6600,1250
2014/10/02,1203,1250,1203,1250,2400,1250
2014/10/03,1257,1320,1257,1306,4400,1306
2014/10/06,1325,1325,1279,1310,1400,1310
2014/10/07,1323,1325,1296,1296,2500,1296
2014/10/08,1290,1291,1265,1265,1700,1265
2014/10/09,1271,1294,1271,1275,900,1275
2014/10/10,1266,1271,1266,1271,500,1271
2014/10/14,1260,1275,1258,1275,1900,1275
2014/10/15,1299,1299,1298,1298,1500,1298
2014/10/16,1262,1268,1255,1265,2400,1265
2014/10/17,1266,1273,1246,1251,2100,1251
2014/10/20,1256,1289,1256,1285,1100,1285
2014/10/21,1263,1269,1256,1256,1300,1256
2014/10/22,1284,1284,1255,1255,300,1255
2014/10/23,1282,1285,1253,1270,700,1270
2014/10/24,1295,1295,1280,1280,900,1280
2014/10/27,1280,1280,1270,1270,600,1270
2014/10/28,1270,1274,1257,1257,500,1257
2014/10/29,1257,1257,1257,1257,400,1257
2014/10/31,1260,1269,1259,1269,500,1269
2014/11/04,1250,1260,1250,1250,3500,1250
2014/11/05,1269,1269,1250,1265,1400,1265
2014/11/06,1249,1255,1249,1255,1400,1255
2014/11/07,1255,1256,1246,1256,1500,1256
2014/11/10,1256,1256,1245,1245,1100,1245
2014/11/11,1245,1245,1236,1236,1500,1236
2014/11/12,1254,1255,1246,1250,2700,1250
2014/11/13,1252,1260,1250,1250,1400,1250
2014/11/14,1251,1251,1218,1220,8600,1220
2014/11/17,1230,1265,1230,1265,5000,1265
2014/11/18,1250,1335,1250,1280,4000,1280
2014/11/19,1340,1340,1280,1303,2500,1303
2014/11/20,1289,1289,1258,1258,900,1258
2014/11/21,1258,1315,1258,1265,500,1265
2014/11/25,1265,1296,1261,1293,2400,1293
2014/11/26,1300,1300,1281,1291,3000,1291
2014/11/27,1296,1300,1296,1298,1800,1298
2014/11/28,1339,1339,1281,1305,6400,1305
2014/12/01,1314,1338,1314,1335,2300,1335
2014/12/02,1315,1332,1300,1332,4600,1332
2014/12/03,1328,1332,1300,1332,2600,1332
2014/12/04,1302,1309,1302,1302,1600,1302
2014/12/05,1312,1320,1306,1306,600,1306
2014/12/08,1303,1303,1302,1302,400,1302
2014/12/09,1324,1324,1299,1300,1900,1300
2014/12/10,1250,1300,1250,1280,2900,1280
2014/12/11,1290,1300,1272,1300,700,1300
2014/12/12,1314,1318,1311,1317,800,1317
2014/12/15,1318,1319,1318,1319,1500,1319
2014/12/16,1300,1320,1300,1300,1500,1300
2014/12/17,1300,1306,1292,1306,1100,1306
2014/12/18,1320,1326,1300,1300,3600,1300
2014/12/19,1310,1330,1310,1330,1600,1330
2014/12/22,1335,1335,1333,1335,1300,1335
2014/12/24,1351,1359,1349,1349,2500,1349
2014/12/25,1349,1349,1300,1322,7700,1322
2014/12/26,1335,1336,1330,1330,500,1330
2014/12/29,1350,1360,1340,1340,2200,1340
2014/12/30,1340,1369,1340,1367,600,1367
2015/01/05,1369,1370,1365,1365,1400,1365
2015/01/06,1361,1367,1350,1350,1400,1350
2015/01/07,1342,1365,1342,1365,600,1365
2015/01/08,1370,1390,1360,1390,1900,1390
2015/01/09,1390,1399,1377,1377,700,1377
2015/01/13,1395,1395,1377,1391,1200,1391
2015/01/14,1391,1420,1391,1420,2600,1420
2015/01/15,1423,1442,1423,1423,3100,1423
2015/01/16,1400,1430,1390,1422,3400,1422
2015/01/19,1422,1439,1422,1439,1300,1439
2015/01/20,1438,1475,1438,1457,3000,1457
2015/01/21,1470,1470,1428,1430,2600,1430
2015/01/22,1460,1463,1423,1460,4000,1460
2015/01/23,1477,1477,1437,1470,1500,1470
2015/01/26,1456,1456,1451,1455,300,1455
2015/01/27,1450,1450,1435,1436,1100,1436
2015/01/28,1435,1445,1420,1425,1200,1425
2015/01/29,1405,1420,1405,1420,600,1420
2015/01/30,1429,1430,1410,1410,800,1410
2015/02/02,1414,1420,1405,1405,800,1405
2015/02/03,1448,1448,1418,1418,1200,1418
2015/02/04,1418,1418,1396,1399,1800,1399
2015/02/05,1386,1400,1386,1400,700,1400
2015/02/06,1387,1400,1387,1400,700,1400
2015/02/09,1400,1400,1390,1399,1100,1399
2015/02/10,1399,1400,1398,1400,800,1400
2015/02/12,1389,1420,1389,1398,3300,1398
2015/02/13,1411,1411,1407,1411,1400,1411
2015/02/16,1441,1441,1440,1440,1100,1440
2015/02/17,1440,1440,1440,1440,800,1440
2015/02/18,1440,1442,1440,1442,600,1442
2015/02/19,1443,1450,1440,1450,1700,1450
2015/02/20,1453,1457,1453,1457,1200,1457
2015/02/23,1457,1464,1450,1457,700,1457
2015/02/24,1460,1468,1440,1468,1100,1468
2015/02/25,1465,1465,1461,1461,900,1461
2015/02/26,1441,1459,1441,1459,500,1459
2015/02/27,1460,1460,1442,1442,300,1442
2015/03/02,1445,1446,1445,1446,600,1446
2015/03/03,1448,1449,1445,1449,800,1449
2015/03/04,1413,1444,1413,1444,4500,1444
2015/03/05,1440,1441,1440,1441,500,1441
2015/03/06,1458,1458,1457,1458,800,1458
2015/03/09,1461,1466,1458,1459,800,1459
2015/03/10,1461,1474,1459,1459,700,1459
2015/03/11,1465,1469,1465,1469,300,1469
2015/03/12,1460,1475,1455,1459,1700,1459
2015/03/13,1459,1459,1450,1458,1200,1458
2015/03/16,1458,1458,1451,1452,2300,1452
2015/03/17,1455,1455,1445,1445,1100,1445
2015/03/18,1445,1445,1440,1440,800,1440
2015/03/19,1441,1441,1387,1400,7100,1400
2015/03/20,1400,1400,1395,1400,1000,1400
2015/03/23,1400,1404,1397,1404,4100,1404
2015/03/24,1408,1427,1408,1420,700,1420
2015/03/25,1444,1444,1420,1438,1300,1438
2015/03/26,1445,1450,1440,1450,1900,1450
2015/03/27,1454,1459,1405,1418,1700,1418
2015/03/30,1418,1418,1407,1415,1000,1415
2015/03/31,1417,1424,1417,1424,300,1424
2015/04/01,1452,1452,1427,1450,1700,1450
2015/04/02,1440,1442,1440,1442,500,1442
2015/04/03,1442,1456,1442,1445,1200,1445
2015/04/06,1451,1459,1450,1455,1200,1455
2015/04/07,1460,1460,1460,1460,200,1460
2015/04/08,1465,1500,1465,1495,3100,1495
2015/04/09,1484,1495,1484,1484,1200,1484
2015/04/10,1490,1508,1490,1493,2600,1493
2015/04/13,1496,1500,1490,1490,2200,1490
2015/04/14,1499,1499,1462,1493,2200,1493
2015/04/15,1490,1500,1490,1490,2200,1490
2015/04/16,1490,1505,1490,1503,600,1503
2015/04/17,1496,1496,1480,1480,800,1480
2015/04/20,1476,1477,1476,1476,700,1476
2015/04/21,1479,1481,1479,1481,300,1481
2015/04/22,1481,1483,1481,1483,300,1483
2015/04/23,1483,1483,1480,1480,800,1480
2015/04/24,1483,1483,1480,1480,800,1480
2015/04/27,1495,1500,1495,1499,400,1499
2015/04/28,1480,1480,1469,1469,5000,1469
2015/04/30,1470,1470,1465,1465,2900,1465
2015/05/01,1488,1488,1468,1468,1100,1468
2015/05/07,1483,1534,1467,1497,2700,1497
2015/05/08,1500,1500,1487,1500,500,1500
2015/05/11,1500,1500,1489,1498,1200,1498
2015/05/12,1498,1500,1497,1497,1300,1497
2015/05/13,1500,1503,1492,1492,2800,1492
2015/05/14,1493,1503,1493,1499,2200,1499
2015/05/15,1504,1504,1500,1500,2300,1500
2015/05/18,1500,1505,1499,1504,1400,1504
2015/05/19,1504,1522,1504,1520,1900,1520
2015/05/20,1523,1546,1523,1541,3300,1541
2015/05/21,1543,1566,1543,1566,1800,1566
2015/05/22,1566,1600,1555,1600,4400,1600
2015/05/25,1640,1674,1624,1639,4700,1639
2015/05/26,1674,1674,1640,1655,1900,1655
2015/05/27,1645,1660,1645,1646,1100,1646
2015/05/28,1646,1646,1622,1622,700,1622
2015/05/29,1655,1655,1622,1644,3200,1644
2015/06/01,1648,1675,1645,1665,2800,1665
2015/06/02,1685,1710,1685,1692,3800,1692
2015/06/03,1692,1720,1692,1720,3200,1720
2015/06/04,1706,1719,1706,1719,2200,1719
2015/06/05,1717,1719,1710,1711,1000,1711
2015/06/08,1711,1740,1711,1720,4900,1720
2015/06/09,1730,1742,1720,1742,1400,1742
2015/06/10,1742,1800,1742,1780,1700,1780
2015/06/11,1810,1879,1810,1840,4400,1840
2015/06/12,1850,1900,1832,1893,5100,1893
2015/06/15,1892,1892,1825,1884,6600,1884
2015/06/16,1884,1885,1847,1876,3500,1876
2015/06/17,1871,1885,1871,1884,1700,1884
2015/06/18,1884,1884,1882,1882,1000,1882
2015/06/19,1882,1882,1853,1878,1300,1878
2015/06/22,1874,1874,1801,1864,5000,1864
2015/06/23,1846,1846,1807,1826,3900,1826
2015/06/24,1818,1829,1817,1819,2500,1819
2015/06/25,1831,1831,1820,1821,1300,1821
2015/06/26,1821,1846,1820,1846,2300,1846
2015/06/29,1826,1831,1760,1823,5100,1823
2015/06/30,1805,1831,1800,1825,2700,1825
2015/07/01,1825,1832,1815,1832,2000,1832
