2011/01/04,48,48,47,48,54000,48
2011/01/05,48,48,48,48,14000,48
2011/01/06,48,48,47,48,51000,48
2011/01/07,48,50,48,49,45000,49
2011/01/11,48,50,48,50,34000,50
2011/01/12,49,50,49,50,53000,50
2011/01/13,51,53,50,53,170000,53
2011/01/14,51,52,50,50,164000,50
2011/01/17,52,52,50,52,49000,52
2011/01/18,51,52,50,50,35000,50
2011/01/19,52,52,50,52,39000,52
2011/01/20,50,51,49,49,204000,49
2011/01/21,50,50,49,49,115000,49
2011/01/24,50,50,47,48,97000,48
2011/01/25,49,49,48,49,21000,49
2011/01/26,49,49,48,48,15000,48
2011/01/27,48,49,48,48,22000,48
2011/01/28,48,48,47,47,36000,47
2011/01/31,47,48,47,47,48000,47
2011/02/01,47,51,47,50,151000,50
2011/02/02,49,53,49,52,133000,52
2011/02/03,51,51,50,50,36000,50
2011/02/04,50,53,50,51,141000,51
2011/02/07,51,54,51,52,99000,52
2011/02/08,52,52,51,51,30000,51
2011/02/09,51,51,50,50,40000,50
2011/02/10,50,52,50,52,37000,52
2011/02/14,53,55,52,55,237000,55
2011/02/15,55,55,53,54,144000,54
2011/02/16,53,54,52,53,69000,53
2011/02/17,53,54,52,54,23000,54
2011/02/18,53,54,53,54,20000,54
2011/02/21,49,53,49,53,571000,53
2011/02/22,52,52,51,51,31000,51
2011/02/23,50,51,50,51,43000,51
2011/02/24,51,53,50,51,107000,51
2011/02/25,52,52,50,51,48000,51
2011/02/28,51,52,51,52,56000,52
2011/03/01,52,54,52,53,34000,53
2011/03/02,52,52,52,52,45000,52
2011/03/03,52,53,51,52,53000,52
2011/03/04,52,52,51,51,85000,51
2011/03/07,51,52,51,51,67000,51
2011/03/08,51,52,51,52,54000,52
2011/03/09,52,53,51,52,34000,52
2011/03/10,52,53,51,52,19000,52
2011/03/11,51,51,46,46,1026000,46
2011/03/14,40,44,39,40,375000,40
2011/03/15,39,39,30,34,349000,34
2011/03/16,33,41,31,38,262000,38
2011/03/17,35,40,34,38,136000,38
2011/03/18,39,42,38,38,263000,38
2011/03/22,41,43,40,41,323000,41
2011/03/23,41,41,37,37,1798000,37
2011/03/24,40,48,39,45,5785000,45
2011/03/25,48,48,42,42,1522000,42
2011/03/28,43,44,42,43,445000,43
2011/03/29,42,43,40,42,333000,42
2011/03/30,42,43,41,42,131000,42
2011/03/31,42,43,41,42,191000,42
2011/04/01,41,41,40,41,560000,41
2011/04/04,41,42,40,41,104000,41
2011/04/05,41,41,40,40,222000,40
2011/04/06,40,40,39,40,170000,40
2011/04/07,39,41,39,40,154000,40
2011/04/08,39,41,39,40,144000,40
2011/04/11,39,41,39,40,105000,40
2011/04/12,40,40,39,40,55000,40
2011/04/13,40,40,39,40,92000,40
2011/04/14,39,41,39,40,62000,40
2011/04/15,40,42,40,40,86000,40
2011/04/18,41,42,40,41,93000,41
2011/04/19,41,44,41,44,331000,44
2011/04/20,44,45,41,42,438000,42
2011/04/21,42,42,41,41,119000,41
2011/04/22,42,42,41,41,190000,41
2011/04/25,42,42,41,42,113000,42
2011/04/26,41,42,40,40,83000,40
2011/04/27,41,41,40,41,32000,41
2011/04/28,41,41,40,41,37000,41
2011/05/02,41,42,41,42,116000,42
2011/05/06,41,41,41,41,137000,41
2011/05/09,41,44,41,43,159000,43
2011/05/10,42,42,41,42,71000,42
2011/05/11,42,44,42,43,143000,43
2011/05/12,43,44,43,44,345000,44
2011/05/13,45,45,42,43,630000,43
2011/05/16,43,45,43,43,181000,43
2011/05/17,43,44,42,42,107000,42
2011/05/18,43,43,41,42,168000,42
2011/05/19,42,44,42,43,162000,43
2011/05/20,43,43,42,43,29000,43
2011/05/23,43,43,42,42,38000,42
2011/05/24,42,42,41,42,67000,42
2011/05/25,43,43,42,43,57000,43
2011/05/26,42,42,40,41,230000,41
2011/05/27,41,41,41,41,56000,41
2011/05/30,41,41,40,41,29000,41
2011/05/31,41,41,41,41,72000,41
2011/06/01,41,41,41,41,18000,41
2011/06/02,41,42,41,41,53000,41
2011/06/03,41,42,41,42,8000,42
2011/06/06,41,41,40,41,42000,41
2011/06/07,40,41,40,40,44000,40
2011/06/08,40,40,40,40,37000,40
2011/06/09,40,41,40,40,36000,40
2011/06/10,40,41,40,40,73000,40
2011/06/13,40,41,40,41,114000,41
2011/06/14,40,41,40,41,32000,41
2011/06/15,41,41,40,41,44000,41
2011/06/16,41,42,41,42,42000,42
2011/06/17,42,42,41,42,39000,42
2011/06/20,42,42,41,42,32000,42
2011/06/21,42,42,41,42,23000,42
2011/06/22,42,42,41,41,166000,41
2011/06/23,41,42,41,42,114000,42
2011/06/24,42,42,41,41,75000,41
2011/06/27,41,42,41,42,15000,42
2011/06/28,42,43,42,42,139000,42
2011/06/29,42,42,42,42,16000,42
2011/06/30,42,42,41,41,14000,41
2011/07/01,41,42,41,42,12000,42
2011/07/04,41,43,41,43,50000,43
2011/07/05,42,43,42,42,40000,42
2011/07/06,42,42,41,41,158000,41
2011/07/07,41,42,41,42,22000,42
2011/07/08,41,42,41,41,32000,41
2011/07/11,42,42,41,42,58000,42
2011/07/12,41,42,41,41,10000,41
2011/07/13,41,41,41,41,10000,41
2011/07/14,41,42,41,41,32000,41
2011/07/15,41,41,41,41,21000,41
2011/07/19,41,41,41,41,87000,41
2011/07/20,42,43,41,41,135000,41
2011/07/21,42,42,42,42,37000,42
2011/07/22,42,42,42,42,19000,42
2011/07/25,42,44,42,43,145000,43
2011/07/26,43,43,42,42,10000,42
2011/07/27,43,43,40,41,473000,41
2011/07/28,41,41,40,41,80000,41
2011/07/29,41,42,41,41,34000,41
2011/08/01,41,41,40,41,30000,41
2011/08/02,40,41,40,41,191000,41
2011/08/03,40,41,40,41,41000,41
2011/08/04,41,41,40,41,59000,41
2011/08/05,40,40,38,39,381000,39
2011/08/08,39,40,38,39,77000,39
2011/08/09,37,38,36,38,397000,38
2011/08/10,39,39,38,38,73000,38
2011/08/11,38,40,38,40,99000,40
2011/08/12,40,41,39,41,109000,41
2011/08/15,41,41,39,40,167000,40
2011/08/16,40,40,39,40,33000,40
2011/08/17,39,40,39,40,57000,40
2011/08/18,39,40,39,39,85000,39
2011/08/19,38,39,38,38,27000,38
2011/08/22,38,39,38,38,68000,38
2011/08/23,38,39,38,39,27000,39
2011/08/24,38,39,38,38,34000,38
2011/08/25,40,40,39,39,30000,39
2011/08/26,38,39,38,39,10000,39
2011/08/29,39,39,38,39,26000,39
2011/08/30,39,40,39,40,5000,40
2011/08/31,40,40,39,40,28000,40
2011/09/01,39,40,39,40,63000,40
2011/09/02,39,40,39,40,15000,40
2011/09/05,39,39,39,39,13000,39
2011/09/06,39,39,39,39,37000,39
2011/09/07,40,40,38,39,33000,39
2011/09/08,39,39,38,39,78000,39
2011/09/09,39,40,39,39,50000,39
2011/09/12,39,39,38,39,21000,39
2011/09/13,39,40,38,40,36000,40
2011/09/14,39,39,38,39,15000,39
2011/09/15,39,40,38,39,58000,39
2011/09/16,39,39,39,39,18000,39
2011/09/20,39,39,38,38,28000,38
2011/09/21,38,39,38,39,66000,39
2011/09/22,38,39,38,38,56000,38
2011/09/26,37,38,35,37,200000,37
2011/09/27,38,38,37,38,71000,38
2011/09/28,37,38,37,37,103000,37
2011/09/29,36,39,36,39,73000,39
2011/09/30,38,38,37,38,30000,38
2011/10/03,38,38,37,37,13000,37
2011/10/04,37,37,36,36,161000,36
2011/10/05,37,37,35,35,80000,35
2011/10/06,36,36,35,35,34000,35
2011/10/07,36,37,35,37,42000,37
2011/10/11,36,37,36,36,32000,36
2011/10/12,36,37,36,36,22000,36
2011/10/13,36,36,36,36,15000,36
2011/10/14,36,37,35,36,147000,36
2011/10/17,37,37,35,35,67000,35
2011/10/18,36,36,32,34,684000,34
2011/10/19,34,34,33,33,42000,33
2011/10/20,33,34,33,33,39000,33
2011/10/21,33,33,33,33,17000,33
2011/10/24,34,34,33,33,33000,33
2011/10/25,34,34,33,33,53000,33
2011/10/26,33,34,33,34,18000,34
2011/10/27,34,34,33,34,21000,34
2011/10/28,33,35,33,34,94000,34
2011/10/31,34,35,33,34,166000,34
2011/11/01,34,34,33,33,71000,33
2011/11/02,33,34,33,34,26000,34
2011/11/04,34,34,33,34,19000,34
2011/11/07,34,35,33,34,358000,34
2011/11/08,34,34,33,33,110000,33
2011/11/09,33,34,32,34,280000,34
2011/11/10,33,33,32,33,45000,33
2011/11/11,33,34,32,34,99000,34
2011/11/14,33,33,32,33,140000,33
2011/11/15,33,33,32,32,36000,32
2011/11/16,32,33,32,33,36000,33
2011/11/17,31,33,31,33,20000,33
2011/11/18,32,33,32,32,9000,32
2011/11/21,33,33,32,32,25000,32
2011/11/22,32,33,32,33,15000,33
2011/11/24,32,32,31,31,160000,31
2011/11/25,32,32,31,31,64000,31
2011/11/28,30,30,27,28,950000,28
2011/11/29,28,31,28,31,1508000,31
2011/11/30,31,33,30,32,716000,32
2011/12/01,32,32,30,30,856000,30
2011/12/02,31,41,30,36,4138000,36
2011/12/05,38,39,35,38,1417000,38
2011/12/06,37,37,34,35,749000,35
2011/12/07,35,37,34,36,332000,36
2011/12/08,36,41,35,38,1947000,38
2011/12/09,37,40,36,39,566000,39
2011/12/12,40,41,38,38,508000,38
2011/12/13,38,38,36,38,353000,38
2011/12/14,37,37,36,36,320000,36
2011/12/15,36,37,35,35,218000,35
2011/12/16,35,36,33,36,511000,36
2011/12/19,35,35,34,35,112000,35
2011/12/20,35,35,34,34,173000,34
2011/12/21,35,35,34,34,164000,34
2011/12/22,34,34,33,33,195000,33
2011/12/26,33,37,33,35,768000,35
2011/12/27,35,35,33,35,595000,35
2011/12/28,34,34,33,34,79000,34
2011/12/29,35,35,33,34,183000,34
2011/12/30,34,35,33,33,308000,33
2012/01/04,34,37,34,34,798000,34
2012/01/05,36,38,35,38,1172000,38
2012/01/06,37,38,35,36,431000,36
2012/01/10,36,36,35,35,173000,35
2012/01/11,35,37,35,36,324000,36
2012/01/12,36,37,35,36,354000,36
2012/01/13,35,36,35,36,152000,36
2012/01/16,36,36,34,35,326000,35
2012/01/17,35,35,33,35,735000,35
2012/01/18,34,37,34,36,674000,36
2012/01/19,36,37,35,36,247000,36
2012/01/20,36,36,34,35,576000,35
2012/01/23,35,35,34,35,369000,35
2012/01/24,36,36,35,36,174000,36
2012/01/25,36,36,35,36,181000,36
2012/01/26,36,37,35,36,237000,36
2012/01/27,36,37,35,35,171000,35
2012/01/30,35,36,35,36,512000,36
2012/01/31,36,37,36,36,495000,36
2012/02/01,36,37,35,36,306000,36
2012/02/02,37,41,37,39,1397000,39
2012/02/03,40,40,37,37,811000,37
2012/02/06,38,39,37,38,264000,38
2012/02/07,38,40,38,39,333000,39
2012/02/08,40,47,39,46,4852000,46
2012/02/09,46,46,43,44,1361000,44
2012/02/10,43,50,43,49,1737000,49
2012/02/13,46,46,41,43,2119000,43
2012/02/14,43,46,43,46,795000,46
2012/02/15,46,47,44,45,624000,45
2012/02/16,45,47,44,45,948000,45
2012/02/17,44,44,43,44,727000,44
2012/02/20,43,44,41,43,1128000,43
2012/02/21,44,44,42,43,416000,43
2012/02/22,43,43,41,43,718000,43
2012/02/23,44,47,43,46,1473000,46
2012/02/24,46,46,44,45,656000,45
2012/02/27,45,45,43,43,432000,43
2012/02/28,43,45,42,44,1225000,44
2012/02/29,44,45,43,44,893000,44
2012/03/01,44,44,42,43,658000,43
2012/03/02,43,44,42,43,225000,43
2012/03/05,44,44,42,43,286000,43
2012/03/06,43,43,42,43,174000,43
2012/03/07,42,43,41,42,628000,42
2012/03/08,42,43,41,43,292000,43
2012/03/09,43,43,41,42,298000,42
2012/03/12,42,43,42,42,382000,42
2012/03/13,42,42,41,41,465000,41
2012/03/14,42,42,41,42,259000,42
2012/03/15,42,42,41,42,140000,42
2012/03/16,41,42,41,41,254000,41
2012/03/19,41,41,41,41,309000,41
2012/03/21,41,41,40,40,317000,40
2012/03/22,40,40,40,40,235000,40
2012/03/23,40,40,39,39,250000,39
2012/03/26,39,40,39,40,696000,40
2012/03/27,40,42,40,41,444000,41
2012/03/28,41,41,40,40,95000,40
2012/03/29,41,41,39,39,457000,39
2012/03/30,40,40,39,39,170000,39
2012/04/02,39,40,39,40,165000,40
2012/04/03,39,41,39,39,494000,39
2012/04/04,38,39,38,38,534000,38
2012/04/05,39,40,39,39,280000,39
2012/04/06,39,39,39,39,228000,39
2012/04/09,39,39,39,39,238000,39
2012/04/10,39,39,38,39,283000,39
2012/04/11,39,39,36,38,489000,38
2012/04/12,38,40,38,39,435000,39
2012/04/13,39,39,38,39,243000,39
2012/04/16,39,39,38,39,155000,39
2012/04/17,38,39,38,39,376000,39
2012/04/18,39,40,38,39,136000,39
2012/04/19,39,44,38,43,1052000,43
2012/04/20,42,42,40,41,522000,41
2012/04/23,41,41,40,41,242000,41
2012/04/24,40,41,39,40,465000,40
2012/04/25,40,41,39,40,253000,40
2012/04/26,40,40,39,40,174000,40
2012/04/27,40,41,40,41,35000,41
2012/05/01,40,40,39,40,106000,40
2012/05/02,39,41,39,41,122000,41
2012/05/07,40,40,38,39,349000,39
2012/05/08,39,40,38,39,99000,39
2012/05/09,39,39,38,38,191000,38
2012/05/10,37,38,37,38,317000,38
2012/05/11,38,39,37,38,330000,38
2012/05/14,36,36,32,34,1032000,34
2012/05/15,33,33,30,32,728000,32
2012/05/16,32,34,32,32,252000,32
2012/05/17,33,33,33,33,221000,33
2012/05/18,33,33,32,32,47000,32
2012/05/21,32,33,32,32,20000,32
2012/05/22,33,34,32,34,91000,34
2012/05/23,33,34,32,33,59000,33
2012/05/24,33,33,32,32,162000,32
2012/05/25,31,32,31,32,136000,32
2012/05/28,31,31,30,30,185000,30
2012/05/29,30,32,30,32,102000,32
2012/05/30,31,32,31,31,40000,31
2012/05/31,31,32,30,32,111000,32
2012/06/01,32,32,31,32,292000,32
2012/06/04,31,31,30,31,193000,31
2012/06/05,31,32,31,31,146000,31
2012/06/06,31,32,31,31,138000,31
2012/06/07,32,33,32,32,140000,32
2012/06/08,32,32,32,32,163000,32
2012/06/11,33,33,32,33,250000,33
2012/06/12,33,33,32,33,80000,33
2012/06/13,33,33,32,32,230000,32
2012/06/14,33,33,33,33,411000,33
2012/06/15,34,34,32,33,336000,33
2012/06/18,33,34,33,34,197000,34
2012/06/19,33,34,33,33,209000,33
2012/06/20,33,35,33,34,98000,34
2012/06/21,34,35,33,35,95000,35
2012/06/22,34,35,33,35,178000,35
2012/06/25,35,35,34,35,182000,35
2012/06/26,35,35,33,34,118000,34
2012/06/27,34,34,33,34,27000,34
2012/06/28,34,35,34,35,39000,35
2012/06/29,34,35,34,35,97000,35
2012/07/02,36,37,35,37,529000,37
2012/07/03,37,38,36,37,237000,37
2012/07/04,37,37,36,37,332000,37
2012/07/05,36,37,36,37,104000,37
2012/07/06,37,40,36,39,430000,39
2012/07/09,38,39,38,38,242000,38
2012/07/10,38,39,37,38,106000,38
2012/07/11,38,38,36,38,585000,38
2012/07/12,37,38,37,38,65000,38
2012/07/13,37,38,37,38,76000,38
2012/07/17,37,38,37,37,62000,37
2012/07/18,37,38,37,37,64000,37
2012/07/19,37,38,36,38,300000,38
2012/07/20,38,38,37,38,112000,38
2012/07/23,36,37,36,36,182000,36
2012/07/24,35,35,34,35,125000,35
2012/07/25,35,35,33,33,241000,33
2012/07/26,34,35,34,35,55000,35
2012/07/27,35,36,35,36,75000,36
2012/07/30,36,36,35,36,107000,36
2012/07/31,35,36,35,36,88000,36
2012/08/01,35,36,35,36,60000,36
2012/08/02,36,36,35,36,61000,36
2012/08/03,35,36,35,36,177000,36
2012/08/06,36,36,35,35,208000,35
2012/08/07,35,36,34,35,115000,35
2012/08/08,34,35,34,35,165000,35
2012/08/09,34,36,34,36,156000,36
2012/08/10,36,36,34,34,333000,34
2012/08/13,35,35,33,34,363000,34
2012/08/14,33,34,33,33,245000,33
2012/08/15,33,34,32,34,131000,34
2012/08/16,32,34,32,34,196000,34
2012/08/17,33,34,33,33,145000,33
2012/08/20,33,33,33,33,99000,33
2012/08/21,33,34,32,34,81000,34
2012/08/22,33,34,33,33,117000,33
2012/08/23,33,34,33,33,107000,33
2012/08/24,34,34,33,34,125000,34
2012/08/27,34,34,33,33,116000,33
2012/08/28,33,33,32,33,183000,33
2012/08/29,33,33,31,32,218000,32
2012/08/30,32,32,32,32,31000,32
2012/08/31,32,32,30,32,605000,32
2012/09/03,31,32,31,31,71000,31
2012/09/04,31,32,31,32,204000,32
2012/09/05,31,32,30,31,219000,31
2012/09/06,31,31,30,31,194000,31
2012/09/07,31,32,30,31,240000,31
2012/09/10,31,31,30,31,64000,31
2012/09/11,31,31,31,31,108000,31
2012/09/12,31,33,31,32,357000,32
2012/09/13,32,33,31,33,373000,33
2012/09/14,32,32,32,32,194000,32
2012/09/18,32,33,32,33,188000,33
2012/09/19,33,33,32,33,265000,33
2012/09/20,34,34,32,32,240000,32
2012/09/21,32,33,32,32,108000,32
2012/09/24,31,32,31,31,56000,31
2012/09/25,31,32,31,31,47000,31
2012/09/26,31,31,30,30,148000,30
2012/09/27,31,32,30,31,498000,31
2012/09/28,32,32,31,31,262000,31
2012/10/01,31,31,30,31,136000,31
2012/10/02,31,31,30,31,130000,31
2012/10/03,31,31,30,30,179000,30
2012/10/04,31,31,30,31,280000,31
2012/10/05,31,31,30,31,359000,31
2012/10/09,31,31,30,31,101000,31
2012/10/10,31,31,30,30,147000,30
2012/10/11,30,30,30,30,380000,30
2012/10/12,30,31,30,31,257000,31
2012/10/15,31,31,30,30,242000,30
2012/10/16,31,31,29,30,489000,30
2012/10/17,30,30,30,30,55000,30
2012/10/18,30,31,30,30,110000,30
2012/10/19,30,30,30,30,97000,30
2012/10/22,30,31,30,30,76000,30
2012/10/23,30,31,30,30,53000,30
2012/10/24,30,30,30,30,37000,30
2012/10/25,31,31,30,30,54000,30
2012/10/26,31,31,30,30,20000,30
2012/10/29,30,31,30,30,100000,30
2012/10/30,30,31,30,30,72000,30
2012/10/31,30,31,30,30,41000,30
2012/11/01,30,30,30,30,12000,30
2012/11/02,30,31,30,31,40000,31
2012/11/05,30,31,30,31,44000,31
2012/11/06,30,30,30,30,49000,30
2012/11/07,30,30,30,30,5000,30
2012/11/08,29,31,29,30,421000,30
2012/11/09,31,31,30,30,164000,30
2012/11/12,30,31,30,30,112000,30
2012/11/13,30,31,29,31,79000,31
2012/11/14,30,31,29,31,58000,31
2012/11/15,30,30,30,30,15000,30
2012/11/16,30,31,30,30,279000,30
2012/11/19,30,31,30,30,302000,30
2012/11/20,30,30,30,30,341000,30
2012/11/21,30,31,30,30,162000,30
2012/11/22,30,31,30,30,464000,30
2012/11/26,30,31,30,30,280000,30
2012/11/27,30,31,30,30,489000,30
2012/11/28,30,30,28,29,935000,29
2012/11/29,29,30,29,29,519000,29
2012/11/30,29,30,29,29,797000,29
2012/12/03,29,30,29,29,581000,29
2012/12/04,29,30,29,29,933000,29
2012/12/05,29,30,29,29,804000,29
2012/12/06,29,29,29,29,837000,29
2012/12/07,29,29,29,29,661000,29
2012/12/10,29,30,29,29,736000,29
2012/12/11,29,30,29,29,930000,29
2012/12/12,29,30,29,30,920000,30
2012/12/13,30,35,30,33,1980000,33
2012/12/14,33,33,31,31,1180000,31
2012/12/17,32,32,30,31,853000,31
2012/12/18,31,32,31,31,737000,31
2012/12/19,32,33,31,32,1375000,32
2012/12/20,32,32,31,31,830000,31
2012/12/21,31,33,31,32,1291000,32
2012/12/25,33,33,31,33,2155000,33
2012/12/26,32,33,32,32,526000,32
2012/12/27,32,33,31,32,584000,32
2012/12/28,33,35,32,35,1218000,35
2013/01/04,36,36,35,36,696000,36
2013/01/07,36,37,35,35,735000,35
2013/01/08,35,36,34,36,423000,36
2013/01/09,35,36,35,36,278000,36
2013/01/10,36,37,35,36,357000,36
2013/01/11,37,37,36,36,468000,36
2013/01/15,36,38,36,38,398000,38
2013/01/16,38,38,36,38,966000,38
2013/01/17,38,38,35,36,709000,36
2013/01/18,37,37,36,36,522000,36
2013/01/21,36,36,35,36,476000,36
2013/01/22,37,37,36,36,315000,36
2013/01/23,37,37,35,35,794000,35
2013/01/24,35,36,34,34,992000,34
2013/01/25,35,36,35,36,1150000,36
2013/01/28,36,39,36,37,996000,37
2013/01/29,38,40,38,38,1104000,38
2013/01/30,39,39,37,37,1110000,37
2013/01/31,37,38,37,38,545000,38
2013/02/01,38,39,37,38,465000,38
2013/02/04,39,40,38,39,707000,39
2013/02/05,39,40,38,38,719000,38
2013/02/06,39,40,38,39,779000,39
2013/02/07,39,39,38,39,577000,39
2013/02/08,39,39,38,38,1185000,38
2013/02/12,43,45,39,40,3477000,40
2013/02/13,39,40,38,38,1747000,38
2013/02/14,38,39,36,37,1371000,37
2013/02/15,37,38,35,36,1228000,36
2013/02/18,36,36,35,35,1258000,35
2013/02/19,36,37,36,36,1500000,36
2013/02/20,37,38,36,37,1734000,37
2013/02/21,37,38,37,37,602000,37
2013/02/22,37,38,36,36,1261000,36
2013/02/25,37,38,37,37,727000,37
2013/02/26,37,38,37,38,484000,38
2013/02/27,38,39,38,38,803000,38
2013/02/28,38,39,38,38,616000,38
2013/03/01,38,40,38,39,931000,39
2013/03/04,40,41,40,40,1384000,40
2013/03/05,41,42,40,42,868000,42
2013/03/06,42,42,41,41,1210000,41
2013/03/07,42,42,40,41,1117000,41
2013/03/08,40,41,40,40,688000,40
2013/03/11,40,41,40,40,843000,40
2013/03/12,40,40,39,40,797000,40
2013/03/13,40,41,40,41,404000,41
2013/03/14,41,41,40,40,573000,40
2013/03/15,41,41,39,41,769000,41
2013/03/18,40,41,39,40,430000,40
2013/03/19,40,41,39,40,352000,40
2013/03/21,40,41,39,41,367000,41
2013/03/22,40,40,39,40,259000,40
2013/03/25,40,41,39,40,286000,40
2013/03/26,40,40,39,40,246000,40
2013/03/27,40,41,40,40,448000,40
2013/03/28,40,40,39,40,483000,40
2013/03/29,40,42,40,40,812000,40
2013/04/01,41,41,39,39,1198000,39
2013/04/02,39,39,38,39,1105000,39
2013/04/03,39,39,38,39,1378000,39
2013/04/04,38,38,37,38,1351000,38
2013/04/05,38,39,38,38,1174000,38
2013/04/08,40,40,39,39,1437000,39
2013/04/09,40,41,40,40,1203000,40
2013/04/10,41,42,40,41,860000,41
2013/04/11,43,45,41,45,2227000,45
2013/04/12,46,48,44,47,2809000,47
2013/04/15,48,49,46,46,1706000,46
2013/04/16,46,46,45,46,662000,46
2013/04/17,47,47,46,46,852000,46
2013/04/18,46,47,46,47,1003000,47
2013/04/19,47,56,47,51,4183000,51
2013/04/22,53,53,51,52,1502000,52
2013/04/23,52,55,52,54,1194000,54
2013/04/24,55,58,55,57,1375000,57
2013/04/25,59,59,57,58,1508000,58
2013/04/26,58,59,54,55,1390000,55
2013/04/30,54,54,51,53,997000,53
2013/05/01,52,56,52,54,1155000,54
2013/05/02,54,55,53,55,859000,55
2013/05/07,55,57,55,56,970000,56
2013/05/08,57,60,57,58,1316000,58
2013/05/09,59,59,56,58,1268000,58
2013/05/10,58,58,55,56,1016000,56
2013/05/13,51,52,50,50,2433000,50
2013/05/14,50,50,47,47,1858000,47
2013/05/15,47,49,46,46,1445000,46
2013/05/16,45,46,43,43,1259000,43
2013/05/17,43,50,43,50,1346000,50
2013/05/20,52,63,52,60,5586000,60
2013/05/21,60,60,56,58,2033000,58
2013/05/22,55,56,54,55,2120000,55
2013/05/23,53,54,51,51,1607000,51
2013/05/24,52,54,51,54,1109000,54
2013/05/27,53,53,51,52,490000,52
2013/05/28,52,53,51,51,579000,51
2013/05/29,52,53,52,53,450000,53
2013/05/30,53,53,51,52,512000,52
2013/05/31,52,52,51,51,458000,51
2013/06/03,51,51,48,48,957000,48
2013/06/04,48,49,48,49,906000,49
2013/06/05,50,50,48,48,818000,48
2013/06/06,47,48,43,44,1382000,44
2013/06/07,42,43,38,39,1679000,39
2013/06/10,40,42,40,41,2772000,41
2013/06/11,41,43,41,42,1726000,42
2013/06/12,41,42,41,42,1378000,42
2013/06/13,42,43,40,41,1264000,41
2013/06/14,42,43,41,42,1070000,42
2013/06/17,42,43,41,43,922000,43
2013/06/18,43,43,43,43,1207000,43
2013/06/19,44,44,43,43,900000,43
2013/06/20,43,43,42,42,854000,42
2013/06/21,41,43,41,42,1373000,42
2013/06/24,42,43,42,43,1138000,43
2013/06/25,42,42,40,40,1100000,40
2013/06/26,41,41,39,39,1363000,39
2013/06/27,39,39,37,38,1586000,38
2013/06/28,39,41,39,41,1152000,41
2013/07/01,41,42,40,42,1647000,42
2013/07/02,42,43,40,41,1782000,41
2013/07/03,42,43,41,42,1936000,42
2013/07/04,42,43,41,41,2293000,41
2013/07/05,42,43,41,43,1958000,43
2013/07/08,43,44,42,42,2398000,42
2013/07/09,43,43,42,42,1700000,42
2013/07/10,43,44,42,43,2030000,43
2013/07/11,43,43,42,43,1807000,43
2013/07/12,44,45,43,44,1979000,44
2013/07/16,45,46,44,46,1814000,46
2013/07/17,46,47,45,46,2199000,46
2013/07/18,46,48,46,48,3172000,48
2013/07/19,49,49,46,46,2627000,46
2013/07/22,47,47,45,45,2658000,45
2013/07/23,45,46,44,46,1510000,46
2013/07/24,45,45,44,45,1498000,45
2013/07/25,46,46,44,45,1884000,45
2013/07/26,44,45,43,44,1986000,44
2013/07/29,43,44,40,40,1926000,40
2013/07/30,41,43,41,43,2155000,43
2013/07/31,43,44,42,42,2006000,42
2013/08/01,42,42,41,42,2067000,42
2013/08/02,43,44,43,43,2090000,43
2013/08/05,42,43,42,43,2287000,43
2013/08/06,43,43,43,43,2140000,43
2013/08/07,43,44,42,44,2590000,44
2013/08/08,43,44,43,43,1891000,43
2013/08/09,43,44,42,42,1911000,42
2013/08/12,45,50,45,49,5347000,49
2013/08/13,48,50,47,48,2725000,48
2013/08/14,49,51,48,50,2599000,50
2013/08/15,50,51,49,51,2504000,51
2013/08/16,50,51,49,50,2218000,50
2013/08/19,51,56,50,54,4117000,54
2013/08/20,54,54,50,51,2315000,51
2013/08/21,51,53,51,52,2878000,52
2013/08/22,51,51,50,50,2587000,50
2013/08/23,51,51,50,50,2342000,50
2013/08/26,51,51,50,50,1760000,50
2013/08/27,50,52,50,52,1530000,52
2013/08/28,50,51,50,50,1899000,50
2013/08/29,50,51,49,50,2032000,50
2013/08/30,50,50,49,49,1894000,49
2013/09/02,50,50,49,50,2081000,50
2013/09/03,50,51,50,50,1985000,50
2013/09/04,51,52,50,52,2494000,52
2013/09/05,51,52,51,52,2036000,52
2013/09/06,52,53,51,51,2516000,51
2013/09/09,52,53,51,52,2044000,52
2013/09/10,52,53,52,53,2342000,53
2013/09/11,53,54,52,53,2002000,53
2013/09/12,53,54,52,53,2393000,53
2013/09/13,53,54,53,54,2376000,54
2013/09/17,55,55,53,53,2365000,53
2013/09/18,53,54,53,53,2714000,53
2013/09/19,53,54,52,53,2501000,53
2013/09/20,54,55,53,54,3426000,54
2013/09/24,55,56,54,56,3093000,56
2013/09/25,56,56,54,55,2148000,55
2013/09/26,53,54,52,54,716000,54
2013/09/27,54,55,53,53,250000,53
2013/09/30,53,53,52,53,197000,53
2013/10/01,52,53,51,51,406000,51
2013/10/02,52,52,49,49,631000,49
2013/10/03,49,49,47,47,670000,47
2013/10/04,48,48,47,48,244000,48
2013/10/07,48,50,47,47,301000,47
2013/10/08,46,47,46,46,370000,46
2013/10/09,47,47,46,46,162000,46
2013/10/10,47,48,46,47,410000,47
2013/10/11,48,48,47,48,217000,48
2013/10/15,52,52,49,49,671000,49
2013/10/16,50,51,48,48,432000,48
2013/10/17,50,51,48,48,278000,48
2013/10/18,49,53,49,53,1123000,53
2013/10/21,55,55,53,55,1322000,55
2013/10/22,55,55,53,53,501000,53
2013/10/23,54,55,53,55,918000,55
2013/10/24,54,56,53,56,822000,56
2013/10/25,56,56,54,54,878000,54
2013/10/28,54,55,53,53,317000,53
2013/10/29,53,54,52,52,353000,52
2013/10/30,53,55,52,53,1420000,53
2013/10/31,54,54,52,52,668000,52
2013/11/01,53,54,51,53,718000,53
2013/11/05,53,53,51,52,278000,52
2013/11/06,51,52,51,52,210000,52
2013/11/07,49,49,46,46,2503000,46
2013/11/08,46,48,46,48,949000,48
2013/11/11,48,49,47,47,326000,47
2013/11/12,48,48,47,47,89000,47
2013/11/13,48,48,47,48,270000,48
2013/11/14,48,49,48,48,263000,48
2013/11/15,49,49,48,48,513000,48
2013/11/18,48,49,47,48,434000,48
2013/11/19,48,49,47,48,423000,48
2013/11/20,49,49,48,48,246000,48
2013/11/21,48,49,48,48,284000,48
2013/11/22,48,49,48,48,259000,48
2013/11/25,49,49,48,48,355000,48
2013/11/26,49,49,48,48,99000,48
2013/11/27,48,49,48,48,316000,48
2013/11/28,48,49,48,48,324000,48
2013/11/29,48,49,48,48,166000,48
2013/12/02,48,49,48,48,395000,48
2013/12/03,48,49,48,49,885000,49
2013/12/04,49,49,48,49,1035000,49
2013/12/05,49,50,48,49,863000,49
2013/12/06,49,49,48,48,891000,48
2013/12/09,49,49,48,48,770000,48
2013/12/10,48,49,48,48,945000,48
2013/12/11,48,50,48,48,2786000,48
2013/12/12,48,48,47,48,1558000,48
2013/12/13,48,48,47,47,1878000,47
2013/12/16,48,48,47,47,3451000,47
2013/12/17,47,47,46,46,12710000,46
2013/12/18,46,56,46,50,27251000,50
2013/12/19,48,48,46,46,2122000,46
2013/12/20,46,47,45,45,766000,45
2013/12/24,45,46,43,43,1102000,43
2013/12/25,43,44,42,43,568000,43
2013/12/26,43,46,43,46,776000,46
2013/12/27,45,46,44,44,299000,44
2013/12/30,45,46,45,45,245000,45
2014/01/06,46,46,45,45,1063000,45
2014/01/07,45,46,44,44,1687000,44
2014/01/08,45,47,45,47,2594000,47
2014/01/09,46,47,46,46,2078000,46
2014/01/10,47,48,47,48,2380000,48
2014/01/14,47,48,46,47,2722000,47
2014/01/15,47,48,46,47,2318000,47
2014/01/16,48,50,48,49,3176000,49
2014/01/17,48,49,48,49,2344000,49
2014/01/20,49,52,49,52,4178000,52
2014/01/21,51,51,49,49,5200000,49
2014/01/22,49,50,49,49,6405000,49
2014/01/23,49,50,48,49,4693000,49
2014/01/24,48,49,48,48,5899000,48
2014/01/27,47,48,46,47,4833000,47
2014/01/28,47,50,47,50,4354000,50
2014/01/29,49,50,49,50,4593000,50
2014/01/30,49,49,48,49,5429000,49
2014/01/31,48,48,47,47,4464000,47
2014/02/03,46,47,45,45,5591000,45
2014/02/04,44,44,42,42,4806000,42
2014/02/05,44,45,43,45,4258000,45
2014/02/06,45,47,45,47,4509000,47
2014/02/07,47,47,46,46,5280000,46
2014/02/10,46,47,46,47,4808000,47
2014/02/12,47,48,47,48,5146000,48
2014/02/13,47,48,47,47,3161000,47
2014/02/14,46,47,46,46,2703000,46
2014/02/17,47,47,46,46,3322000,46
2014/02/18,46,47,45,47,2437000,47
2014/02/19,47,48,46,48,3077000,48
2014/02/20,48,48,47,48,2563000,48
2014/02/21,48,49,47,48,2969000,48
2014/02/24,48,48,46,47,3948000,47
2014/02/25,48,48,47,47,3337000,47
2014/02/26,47,47,47,47,2996000,47
2014/02/27,47,48,47,48,2854000,48
2014/02/28,47,48,47,48,3167000,48
2014/03/03,47,48,46,47,3432000,47
2014/03/04,47,47,46,47,2962000,47
2014/03/05,47,47,46,46,2781000,46
2014/03/06,47,47,46,47,3875000,47
2014/03/07,47,48,47,48,2984000,48
2014/03/10,48,48,47,48,3173000,48
2014/03/11,47,48,47,47,2881000,47
2014/03/12,48,48,47,48,2539000,48
2014/03/13,47,48,47,47,2127000,47
2014/03/14,47,47,46,46,1798000,46
2014/03/17,46,46,45,45,2447000,45
2014/03/18,45,47,45,47,2093000,47
2014/03/19,46,47,46,46,2186000,46
2014/03/20,46,46,45,45,1965000,45
2014/03/24,45,47,45,46,2045000,46
2014/03/25,46,46,45,46,1762000,46
2014/03/26,46,46,44,44,890000,44
2014/03/27,44,45,43,45,1506000,45
2014/03/28,44,45,44,44,1295000,44
2014/03/31,45,45,44,44,2214000,44
2014/04/01,44,45,44,45,2863000,45
2014/04/02,46,46,45,46,4125000,46
2014/04/03,46,46,45,45,5130000,45
2014/04/04,45,46,45,45,4598000,45
2014/04/07,45,46,45,46,2538000,46
2014/04/08,45,46,45,45,2691000,45
2014/04/09,45,46,45,45,3490000,45
2014/04/10,45,45,45,45,2222000,45
2014/04/11,44,45,44,44,2791000,44
2014/04/14,44,45,44,44,2280000,44
2014/04/15,44,45,44,45,2943000,45
2014/04/16,44,45,44,44,2643000,44
2014/04/17,45,50,44,49,4279000,49
2014/04/18,48,49,47,47,2685000,47
2014/04/21,47,48,47,47,2375000,47
2014/04/22,47,48,47,47,2750000,47
2014/04/23,47,48,47,48,3200000,48
2014/04/24,48,48,47,48,2245000,48
2014/04/25,48,49,47,48,2142000,48
2014/04/28,48,48,47,47,1616000,47
2014/04/30,48,49,48,49,1959000,49
2014/05/01,49,51,48,51,2873000,51
2014/05/02,51,51,47,48,3357000,48
2014/05/07,48,48,47,47,1707000,47
2014/05/08,48,48,47,47,2382000,47
2014/05/09,47,48,46,46,1675000,46
2014/05/12,47,47,45,45,1718000,45
2014/05/13,46,47,45,46,2040000,46
2014/05/14,46,46,45,46,1781000,46
2014/05/15,46,46,45,46,1996000,46
2014/05/16,46,46,44,45,1988000,45
2014/05/19,45,45,43,43,2274000,43
2014/05/20,43,43,42,43,1744000,43
2014/05/21,43,44,43,44,1800000,44
2014/05/22,43,45,43,45,1553000,45
2014/05/23,45,45,43,45,1577000,45
2014/05/26,45,45,44,45,1317000,45
2014/05/27,44,45,44,44,1170000,44
2014/05/28,45,45,44,44,1224000,44
2014/05/29,44,45,44,45,1300000,45
2014/05/30,44,45,44,44,1270000,44
2014/06/02,45,45,44,44,1929000,44
2014/06/03,45,45,44,45,1283000,45
2014/06/04,44,45,44,44,1666000,44
2014/06/05,45,46,45,46,1135000,46
2014/06/06,45,46,44,45,1377000,45
2014/06/09,45,46,45,45,1250000,45
2014/06/10,46,46,45,46,1221000,46
2014/06/11,45,46,45,46,1417000,46
2014/06/12,46,46,45,46,1652000,46
2014/06/13,45,46,45,46,1339000,46
2014/06/16,46,46,45,46,1248000,46
2014/06/17,46,47,46,47,1559000,47
2014/06/18,46,47,46,47,1237000,47
2014/06/19,46,47,46,46,1531000,46
2014/06/20,47,47,46,46,1212000,46
2014/06/23,46,47,46,46,1502000,46
2014/06/24,46,48,46,48,1732000,48
2014/06/25,47,48,46,46,1519000,46
2014/06/26,47,47,46,47,2053000,47
2014/06/27,47,48,47,47,1612000,47
2014/06/30,47,47,46,47,2052000,47
2014/07/01,47,48,47,48,2072000,48
2014/07/02,48,48,47,48,2584000,48
2014/07/03,49,49,48,48,1896000,48
2014/07/04,48,49,47,49,3848000,49
2014/07/07,49,49,48,49,1632000,49
2014/07/08,49,50,48,49,1597000,49
2014/07/09,50,50,48,49,1859000,49
2014/07/10,49,49,48,49,1187000,49
2014/07/11,49,49,48,48,1683000,48
2014/07/14,48,49,48,48,1535000,48
2014/07/15,48,49,48,49,1627000,49
2014/07/16,48,49,48,48,1414000,48
2014/07/17,49,49,48,48,1160000,48
2014/07/18,47,48,47,47,831000,47
2014/07/22,48,49,47,49,1668000,49
2014/07/23,49,49,48,49,1303000,49
2014/07/24,49,49,48,48,1442000,48
2014/07/25,49,49,48,48,1816000,48
2014/07/28,48,49,48,49,1896000,49
2014/07/29,49,49,48,49,1508000,49
2014/07/30,49,50,48,50,1745000,50
2014/07/31,50,50,48,48,2076000,48
2014/08/01,49,49,48,49,2180000,49
2014/08/04,48,48,47,47,2000000,47
2014/08/05,47,48,47,47,1572000,47
2014/08/06,47,48,47,47,1994000,47
2014/08/07,47,47,46,47,2015000,47
2014/08/08,47,47,46,46,2087000,46
2014/08/11,47,47,46,47,1503000,47
2014/08/12,47,47,45,45,2485000,45
2014/08/13,46,46,45,45,2089000,45
2014/08/14,46,46,45,46,2039000,46
2014/08/15,46,46,45,46,2157000,46
2014/08/18,46,47,46,47,1692000,47
2014/08/19,47,47,46,47,1606000,47
2014/08/20,47,47,46,47,1223000,47
2014/08/21,47,47,46,47,1567000,47
2014/08/22,47,47,46,46,2706000,46
2014/08/25,47,48,47,48,1817000,48
2014/08/26,48,48,47,48,1619000,48
2014/08/27,48,49,48,49,1922000,49
2014/08/28,48,49,48,49,2253000,49
2014/08/29,49,49,48,49,2919000,49
2014/09/01,49,50,48,50,2211000,50
2014/09/02,50,50,49,49,2426000,49
2014/09/03,50,50,49,49,2222000,49
2014/09/04,49,50,49,50,2545000,50
2014/09/05,50,51,50,50,3928000,50
2014/09/08,50,52,50,52,2942000,52
2014/09/09,52,52,50,52,3703000,52
2014/09/10,51,51,49,50,3104000,50
2014/09/11,50,50,48,48,3461000,48
2014/09/12,48,49,48,48,3195000,48
2014/09/16,48,49,48,48,2609000,48
2014/09/17,48,49,48,49,2271000,49
2014/09/18,48,49,48,48,2683000,48
2014/09/19,49,49,48,49,2277000,49
2014/09/22,49,49,48,49,2484000,49
2014/09/24,49,50,48,50,2953000,50
2014/09/25,49,49,48,48,2699000,48
2014/09/26,48,48,47,48,5178000,48
2014/09/29,48,49,48,48,6397000,48
2014/09/30,48,48,47,48,4130000,48
2014/10/01,48,48,47,48,5247000,48
2014/10/02,47,48,47,47,3596000,47
2014/10/03,47,48,47,48,4447000,48
2014/10/06,47,48,47,47,4374000,47
2014/10/07,48,48,46,47,5767000,47
2014/10/08,46,47,46,47,4485000,47
2014/10/09,47,47,46,46,3113000,46
2014/10/10,46,46,45,46,4244000,46
2014/10/14,45,45,44,44,4099000,44
2014/10/15,44,44,43,44,3722000,44
2014/10/16,43,44,43,43,4209000,43
2014/10/17,43,44,43,43,3040000,43
2014/10/20,44,44,43,44,3244000,44
2014/10/21,43,44,43,43,3674000,43
2014/10/22,44,44,43,43,4552000,43
2014/10/23,44,44,43,44,5390000,44
2014/10/24,45,45,43,43,4171000,43
2014/10/27,45,45,43,43,5275000,43
2014/10/28,43,45,43,45,5657000,45
2014/10/29,42,43,42,43,6260000,43
2014/10/30,42,43,41,42,7262000,42
2014/10/31,41,41,38,39,9900000,39
2014/11/04,40,41,38,39,6899000,39
2014/11/05,39,40,39,39,8453000,39
2014/11/06,40,42,40,40,11654000,40
2014/11/07,40,41,39,40,10468000,40
2014/11/10,42,49,41,43,33821000,43
2014/11/11,42,44,41,42,16560000,42
2014/11/12,42,43,41,41,10608000,41
2014/11/13,43,44,42,43,11845000,43
2014/11/14,43,45,41,42,15264000,42
2014/11/17,43,43,42,42,9370000,42
2014/11/18,43,43,42,43,6458000,43
2014/11/19,43,45,43,45,13095000,45
2014/11/20,45,46,43,44,12012000,44
2014/11/21,43,44,43,43,10800000,43
2014/11/25,43,44,43,43,8798000,43
2014/11/26,43,43,41,42,17898000,42
2014/11/27,43,43,42,42,13558000,42
2014/11/28,42,46,42,46,17208000,46
2014/12/01,46,46,45,45,14270000,45
2014/12/02,45,47,45,45,18161000,45
2014/12/03,46,47,45,45,15105000,45
2014/12/04,44,46,44,46,17431000,46
2014/12/05,45,47,45,46,14777000,46
2014/12/08,45,49,45,49,22190000,49
2014/12/09,48,51,47,48,23556000,48
2014/12/10,47,48,46,47,17788000,47
2014/12/11,47,48,46,47,17542000,47
2014/12/12,47,49,46,47,23857000,47
2014/12/15,48,48,47,47,25467000,47
2014/12/16,47,48,46,46,22577000,46
2014/12/17,46,47,45,45,20576000,45
2014/12/18,45,46,43,45,21778000,45
2014/12/19,45,46,44,46,20723000,46
2014/12/22,46,46,44,44,22604000,44
2014/12/24,44,45,44,44,25588000,44
2014/12/25,44,45,43,44,22408000,44
2014/12/26,44,46,43,45,7196000,45
2014/12/29,45,45,43,44,8896000,44
2014/12/30,43,44,43,43,9101000,43
2015/01/05,44,44,42,43,10176000,43
2015/01/06,42,42,41,42,13978000,42
2015/01/07,42,43,41,43,15033000,43
2015/01/08,43,44,42,43,15088000,43
2015/01/09,43,43,41,41,10800000,41
2015/01/13,41,42,41,41,8637000,41
2015/01/14,41,42,41,41,7746000,41
2015/01/15,41,43,41,43,7906000,43
2015/01/16,42,43,42,43,8614000,43
2015/01/19,43,43,42,43,5892000,43
2015/01/20,42,43,42,43,4817000,43
2015/01/21,43,43,41,42,6821000,42
2015/01/22,41,42,41,42,8347000,42
2015/01/23,42,43,41,43,8943000,43
2015/01/26,43,43,42,43,9714000,43
2015/01/27,42,43,41,42,7082000,42
2015/01/28,42,43,41,42,7292000,42
2015/01/29,42,43,42,43,6639000,43
2015/01/30,42,43,41,42,6793000,42
2015/02/02,41,42,41,41,7566000,41
2015/02/03,41,41,40,40,6506000,40
2015/02/04,40,41,40,40,5981000,40
2015/02/05,41,41,40,41,4574000,41
2015/02/06,41,41,40,40,5277000,40
2015/02/09,41,41,40,41,5929000,41
2015/02/10,41,42,40,41,7006000,41
2015/02/12,41,42,40,42,7878000,42
2015/02/13,42,42,41,41,7048000,41
2015/02/16,41,42,41,41,7312000,41
2015/02/17,41,41,40,41,7860000,41
2015/02/18,41,42,41,41,7136000,41
2015/02/19,41,42,41,41,6022000,41
2015/02/20,42,43,41,43,7254000,43
2015/02/23,43,43,42,43,9264000,43
2015/02/24,44,44,42,43,7113000,43
2015/02/25,41,42,40,41,10551000,41
2015/02/26,41,42,41,41,8048000,41
2015/02/27,41,42,41,41,7102000,41
2015/03/02,42,42,41,42,6880000,42
2015/03/03,41,42,41,41,6525000,41
2015/03/04,41,42,41,41,7505000,41
2015/03/05,42,44,41,44,10736000,44
2015/03/06,44,44,42,42,8518000,42
2015/03/09,43,43,42,43,5129000,43
2015/03/10,43,44,42,43,6565000,43
2015/03/11,43,44,42,43,5847000,43
2015/03/12,44,44,43,43,5777000,43
2015/03/13,44,44,43,44,4353000,44
2015/03/16,44,44,43,43,6002000,43
2015/03/17,44,44,43,43,4986000,43
2015/03/18,44,44,42,42,5692000,42
2015/03/19,42,43,42,42,6553000,42
2015/03/20,42,42,41,42,7018000,42
2015/03/23,41,42,41,42,8775000,42
2015/03/24,42,42,41,41,6925000,41
2015/03/25,42,42,41,42,7282000,42
2015/03/26,41,41,40,41,4030000,41
2015/03/27,41,42,40,41,5788000,41
2015/03/30,41,41,40,41,7606000,41
2015/03/31,41,41,40,41,10539000,41
2015/04/01,41,41,40,40,11318000,40
2015/04/02,41,43,40,42,13684000,42
2015/04/03,41,42,41,41,10637000,41
2015/04/06,41,42,41,41,10249000,41
2015/04/07,40,41,40,41,11015000,41
2015/04/08,40,41,40,40,13035000,40
2015/04/09,40,41,40,40,11777000,40
2015/04/10,40,41,39,40,11943000,40
2015/04/13,40,41,40,40,9494000,40
2015/04/14,40,41,40,41,8956000,41
2015/04/15,40,41,40,40,7488000,40
2015/04/16,40,41,40,40,6845000,40
2015/04/17,40,41,40,40,6360000,40
2015/04/20,40,41,40,40,6085000,40
2015/04/21,40,41,40,40,6208000,40
2015/04/22,40,41,40,40,5343000,40
2015/04/23,40,41,40,40,8373000,40
2015/04/24,40,41,40,40,6793000,40
2015/04/27,40,41,39,40,7113000,40
2015/04/28,40,41,40,40,7283000,40
2015/04/30,39,40,39,39,8962000,39
2015/05/01,39,40,39,39,9401000,39
2015/05/07,39,40,38,39,13361000,39
2015/05/08,39,40,38,39,10326000,39
2015/05/11,40,40,39,39,9184000,39
2015/05/12,39,40,38,39,11148000,39
2015/05/13,39,39,38,39,9666000,39
2015/05/14,38,39,38,38,10554000,38
2015/05/15,40,40,39,39,14474000,39
2015/05/18,38,39,38,38,13054000,38
2015/05/19,38,39,38,39,13098000,39
2015/05/20,39,39,38,39,9768000,39
2015/05/21,38,39,38,39,10061000,39
2015/05/22,38,39,38,38,13188000,38
2015/05/25,39,39,38,38,11817000,38
2015/05/26,38,39,38,38,13660000,38
2015/05/27,38,39,38,38,15529000,38
2015/05/28,38,39,37,38,14131000,38
2015/05/29,38,39,38,38,8615000,38
2015/06/01,37,38,37,38,9064000,38
2015/06/02,37,38,37,38,7481000,38
2015/06/03,38,38,37,38,10821000,38
2015/06/04,38,38,37,38,9070000,38
2015/06/05,38,38,37,38,8835000,38
2015/06/08,37,38,37,38,10978000,38
2015/06/09,37,38,37,38,9913000,38
2015/06/10,38,38,37,38,8940000,38
2015/06/11,37,38,37,37,8472000,37
2015/06/12,38,38,37,37,8627000,37
2015/06/15,40,44,37,37,51170000,37
2015/06/16,37,38,36,38,14593000,38
2015/06/17,38,38,37,38,11399000,38
2015/06/18,37,38,37,37,9801000,37
2015/06/19,37,37,36,37,9538000,37
2015/06/22,36,38,36,37,10374000,37
2015/06/23,37,38,37,38,8832000,38
2015/06/24,37,38,37,38,11062000,38
2015/06/25,38,39,37,38,12035000,38
2015/06/26,39,42,38,41,17533000,41
2015/06/29,40,42,39,41,16610000,41
2015/06/30,41,46,40,46,22430000,46
2015/07/01,46,46,42,45,17947000,45
