2012/03/29,2045,2045,2012,2045,400,2045
2012/03/30,2060,2080,2045,2045,600,2045
2012/04/02,2100,2100,2100,2100,100,2100
2012/04/03,2050,2050,2050,2050,200,2050
2012/04/04,2041,2041,2030,2030,400,2030
2012/04/05,2049,2049,1996,1996,600,1996
2012/04/06,1998,2000,1990,1990,600,1990
2012/04/09,1985,1985,1985,1985,100,1985
2012/04/10,1990,1990,1990,1990,200,1990
2012/04/11,1990,1990,1990,1990,100,1990
2012/04/12,2000,2000,2000,2000,400,2000
2012/04/16,2000,2000,1996,1996,700,1996
2012/04/17,1997,1997,1997,1997,100,1997
2012/04/18,1995,1998,1988,1990,1100,1990
2012/04/19,1996,1996,1996,1996,100,1996
2012/04/20,1990,1990,1982,1982,200,1982
2012/04/23,1987,2027,1987,2027,300,2027
2012/04/24,1988,1995,1988,1990,300,1990
2012/04/25,1998,1998,1998,1998,100,1998
2012/04/26,1990,1990,1989,1989,300,1989
2012/04/27,1990,1990,1990,1990,100,1990
2012/05/01,1996,2014,1993,1993,300,1993
2012/05/02,1995,1995,1995,1995,100,1995
2012/05/07,1990,1990,1982,1985,900,1985
2012/05/08,2010,2010,1996,1996,600,1996
2012/05/09,2018,2018,1981,1995,1000,1995
2012/05/10,1988,1988,1985,1985,400,1985
2012/05/11,1998,1998,1983,1983,900,1983
2012/05/14,1983,1983,1983,1983,200,1983
2012/05/15,1985,1985,1981,1981,800,1981
2012/05/16,1980,1982,1976,1976,1500,1976
2012/05/17,1977,1977,1975,1975,900,1975
2012/05/18,1975,1975,1961,1975,1400,1975
2012/05/21,1980,1980,1980,1980,500,1980
2012/05/22,1980,1980,1960,1970,1100,1970
2012/05/23,1975,1985,1975,1985,400,1985
2012/05/24,1986,1986,1986,1986,500,1986
2012/05/25,1965,1980,1952,1980,1600,1980
2012/05/28,1990,1990,1961,1970,700,1970
2012/05/29,1962,1964,1950,1964,1100,1964
2012/05/30,1980,1980,1970,1970,1100,1970
2012/05/31,1960,1975,1960,1975,900,1975
2012/06/01,1980,1980,1966,1966,300,1966
2012/06/04,1979,1979,1943,1943,2500,1943
2012/06/05,1943,1970,1943,1970,800,1970
2012/06/06,1980,1980,1980,1980,100,1980
2012/06/08,1985,1985,1970,1970,300,1970
2012/06/11,1970,1980,1970,1980,200,1980
2012/06/12,1980,1980,1974,1980,400,1980
2012/06/13,1991,1991,1991,1991,100,1991
2012/06/14,1991,1991,1991,1991,200,1991
2012/06/15,1971,1973,1970,1970,400,1970
2012/06/18,1986,1992,1985,1985,700,1985
2012/06/19,1995,1995,1995,1995,200,1995
2012/06/20,1972,1995,1972,1995,800,1995
2012/06/21,1974,1995,1974,1982,800,1982
2012/06/22,1995,1995,1985,1985,300,1985
2012/06/25,1995,1996,1985,1985,500,1985
2012/06/26,1990,1998,1985,1985,800,1985
2012/06/27,1984,1984,1984,1984,100,1984
2012/06/28,1990,1990,1990,1990,200,1990
2012/06/29,1990,2006,1990,2000,1800,2000
2012/07/02,2149,2149,2014,2030,2600,2030
2012/07/03,2080,2080,2050,2050,800,2050
2012/07/04,2040,2070,2030,2030,600,2030
2012/07/05,1995,2029,1990,2025,2000,2025
2012/07/06,2019,2025,2005,2025,700,2025
2012/07/09,2100,2100,2011,2022,2100,2022
2012/07/10,2022,2022,2022,2022,200,2022
2012/07/11,2000,2010,1998,2010,800,2010
2012/07/12,2010,2010,1999,1999,600,1999
2012/07/13,2000,2005,2000,2005,500,2005
2012/07/17,2010,2050,2010,2016,900,2016
2012/07/18,2020,2020,2020,2020,300,2020
2012/07/19,2029,2029,2015,2020,500,2020
2012/07/20,2020,2020,2018,2018,300,2018
2012/07/23,2068,2080,2031,2070,4000,2070
2012/07/24,2065,2080,2030,2080,2500,2080
2012/07/25,2080,2084,2060,2066,1300,2066
2012/07/26,2116,2116,2052,2106,3900,2106
2012/07/27,2110,2140,2090,2090,3000,2090
2012/07/30,2140,2140,2090,2140,2100,2140
2012/07/31,2090,2120,2090,2120,400,2120
2012/08/01,2129,2130,2110,2120,1300,2120
2012/08/02,2130,2130,2100,2125,500,2125
2012/08/03,2100,2111,2060,2111,800,2111
2012/08/06,2122,2129,2079,2129,1000,2129
2012/08/07,2125,2129,2125,2129,600,2129
2012/08/08,2061,2140,2061,2120,4500,2120
2012/08/09,2082,2130,2082,2090,800,2090
2012/08/10,2082,2100,2082,2085,600,2085
2012/08/13,2089,2099,2072,2078,900,2078
2012/08/14,2109,2109,2070,2080,2900,2080
2012/08/15,2085,2085,2085,2085,300,2085
2012/08/16,2085,2099,2085,2085,600,2085
2012/08/17,2090,2094,2080,2094,2000,2094
2012/08/20,2081,2082,2080,2082,1400,2082
2012/08/21,2070,2070,2055,2070,1600,2070
2012/08/22,2063,2092,2050,2050,2000,2050
2012/08/23,1991,1994,1988,1993,30600,1993
2012/08/24,1991,1996,1990,1995,8300,1995
2012/08/27,1995,1997,1991,1995,5900,1995
2012/08/28,1995,1996,1958,1962,16000,1962
2012/08/29,1969,1990,1969,1990,4100,1990
2012/08/30,1991,1993,1980,1980,3700,1980
2012/08/31,1989,1989,1976,1976,4100,1976
2012/09/03,1977,1978,1967,1970,4400,1970
2012/09/04,1969,1969,1958,1965,2900,1965
2012/09/05,1965,1965,1958,1963,1000,1963
2012/09/06,1959,1963,1958,1962,2100,1962
2012/09/07,1962,1963,1957,1960,3000,1960
2012/09/10,1960,1970,1960,1970,1200,1970
2012/09/11,1960,1960,1960,1960,1100,1960
2012/09/12,1960,1992,1960,1992,2600,1992
2012/09/13,1991,1991,1990,1990,1600,1990
2012/09/14,1990,1990,1971,1987,1500,1987
2012/09/18,1980,1984,1970,1984,2100,1984
2012/09/19,1973,1983,1973,1981,600,1981
2012/09/20,1973,1974,1970,1973,1100,1973
2012/09/21,1973,1979,1965,1965,3300,1965
2012/09/24,1967,1967,1963,1965,1400,1965
2012/09/25,1966,1970,1966,1970,1200,1970
2012/09/26,1970,1970,1967,1967,1600,1967
2012/09/27,1967,1974,1961,1965,4100,1965
2012/09/28,1964,1979,1964,1977,1600,1977
2012/10/01,1985,1985,1980,1984,1500,1984
2012/10/02,1986,1986,1965,1965,3100,1965
2012/10/03,1973,1976,1967,1967,800,1967
2012/10/04,1965,1975,1954,1954,7200,1954
2012/10/05,1970,1970,1960,1969,900,1969
2012/10/09,1968,1969,1967,1967,700,1967
2012/10/10,1962,1963,1961,1963,400,1963
2012/10/11,1963,1963,1959,1959,2100,1959
2012/10/12,1959,1960,1959,1959,1800,1959
2012/10/15,1961,1961,1960,1961,1500,1961
2012/10/16,1961,1965,1955,1965,2000,1965
2012/10/17,1965,1965,1954,1965,900,1965
2012/10/18,1965,1968,1960,1966,1700,1966
2012/10/19,1969,1970,1958,1965,1900,1965
2012/10/22,1965,1965,1965,1965,400,1965
2012/10/23,1965,1969,1962,1969,700,1969
2012/10/24,1970,1974,1970,1974,500,1974
2012/10/25,1979,1979,1960,1978,1700,1978
2012/10/26,1978,1988,1976,1980,1800,1980
2012/10/29,1980,1980,1974,1974,2000,1974
2012/10/30,1979,1979,1965,1965,2100,1965
2012/10/31,1968,1970,1965,1970,300,1970
2012/11/01,1975,1975,1970,1975,700,1975
2012/11/02,1978,1987,1978,1980,2500,1980
2012/11/05,1987,1987,1985,1987,400,1987
2012/11/06,1988,1988,1984,1984,1000,1984
2012/11/07,1986,1986,1978,1978,1600,1978
2012/11/08,1976,1986,1976,1977,700,1977
2012/11/09,1977,1985,1977,1980,1000,1980
2012/11/12,1980,1985,1976,1980,900,1980
2012/11/13,1976,1976,1969,1969,3500,1969
2012/11/14,1979,1979,1968,1969,800,1969
2012/11/15,1970,1978,1970,1978,600,1978
2012/11/16,1978,1978,1968,1978,1800,1978
2012/11/19,1978,1978,1972,1978,1900,1978
2012/11/20,1970,1978,1969,1978,2600,1978
2012/11/21,1975,1975,1972,1975,1000,1975
2012/11/22,1972,1978,1972,1978,1900,1978
2012/11/26,1980,1980,1969,1975,4500,1975
2012/11/27,1977,1977,1970,1975,1500,1975
2012/11/28,1975,1979,1972,1972,900,1972
2012/11/29,1979,1980,1975,1979,1500,1979
2012/11/30,1984,1989,1983,1988,3400,1988
2012/12/03,1989,1994,1988,1994,2400,1994
2012/12/04,1998,1998,1991,1991,2700,1991
2012/12/05,1989,1998,1986,1998,3000,1998
2012/12/06,1999,1999,1985,1999,3300,1999
2012/12/07,1999,2003,1998,1999,3000,1999
2012/12/10,2003,2005,2000,2005,1300,2005
2012/12/11,2005,2008,2002,2002,1300,2002
2012/12/12,2006,2007,2000,2001,2100,2001
2012/12/13,2000,2007,1999,2006,1200,2006
2012/12/14,2000,2006,1998,2004,3400,2004
2012/12/17,2000,2009,2000,2009,2100,2009
2012/12/18,2010,2011,2000,2007,2800,2007
2012/12/19,2007,2010,2003,2010,2300,2010
2012/12/20,2010,2012,2009,2010,1700,2010
2012/12/21,2010,2010,2008,2009,1000,2009
2012/12/25,2010,2020,2010,2015,3200,2015
2012/12/26,2016,2022,2016,2020,4900,2020
2012/12/27,2021,2030,2015,2024,2900,2024
2012/12/28,2026,2030,2024,2030,1600,2030
2013/01/04,2035,2041,2032,2039,3900,2039
2013/01/07,2041,2063,2040,2063,3400,2063
2013/01/08,2062,2070,2051,2069,3700,2069
2013/01/09,2070,2070,2052,2070,3900,2070
2013/01/10,2069,2070,2051,2065,3200,2065
2013/01/11,2063,2070,2060,2068,1200,2068
2013/01/15,2070,2098,2070,2091,3500,2091
2013/01/16,2092,2099,2086,2095,2600,2095
2013/01/17,2095,2100,2081,2100,4100,2100
2013/01/18,2091,2100,2091,2100,3100,2100
2013/01/21,2101,2105,2096,2105,3000,2105
2013/01/22,2105,2148,2105,2145,6200,2145
2013/01/23,2117,2295,2117,2170,10900,2170
2013/01/24,2171,2202,2145,2180,3100,2180
2013/01/25,2180,2180,2150,2169,2900,2169
2013/01/28,2170,2179,2170,2175,2300,2175
2013/01/29,2175,2179,2150,2176,1800,2176
2013/01/30,2187,2188,2176,2188,1800,2188
2013/01/31,2200,2211,2195,2211,2800,2211
2013/02/01,2215,2221,2210,2221,2700,2221
2013/02/04,2246,2250,2223,2250,3700,2250
2013/02/05,2314,2314,2200,2250,10200,2250
2013/02/06,2250,2274,2250,2274,2900,2274
2013/02/07,2255,2255,2215,2240,3600,2240
2013/02/08,2236,2240,2230,2230,1900,2230
2013/02/12,2230,2280,2227,2240,5400,2240
2013/02/13,2232,2235,2225,2231,3100,2231
2013/02/14,2231,2233,2220,2231,3900,2231
2013/02/15,2230,2231,2215,2222,2300,2222
2013/02/18,2220,2260,2201,2236,4300,2236
2013/02/19,2243,2243,2212,2216,2100,2216
2013/02/20,2217,2232,2217,2227,1900,2227
2013/02/21,2227,2231,2222,2231,1600,2231
2013/02/22,2231,2231,2222,2231,1100,2231
2013/02/25,2226,2235,2226,2235,2800,2235
2013/02/26,2235,2250,2234,2250,5900,2250
2013/02/27,2267,2276,2250,2276,4800,2276
2013/02/28,2287,2295,2275,2275,4400,2275
2013/03/01,2268,2296,2268,2270,1300,2270
2013/03/04,2297,2300,2285,2300,4300,2300
2013/03/05,2300,2319,2300,2319,4900,2319
2013/03/06,2350,2399,2333,2398,7900,2398
2013/03/07,2398,2405,2390,2399,7300,2399
2013/03/08,2401,2411,2401,2410,1800,2410
2013/03/11,2422,2515,2421,2514,10200,2514
2013/03/12,2515,2525,2455,2495,7000,2495
2013/03/13,2499,2499,2455,2497,9500,2497
2013/03/14,2499,2500,2451,2460,8400,2460
2013/03/15,2470,2479,2450,2470,4700,2470
2013/03/18,2498,2515,2475,2515,12500,2515
2013/03/19,2519,2540,2516,2540,8700,2540
2013/03/21,2543,2579,2542,2579,8100,2579
2013/03/22,2600,2621,2590,2610,24100,2610
2013/03/25,2550,2574,2525,2552,19500,2552
2013/03/26,2520,2520,2460,2471,31400,2471
2013/03/27,2606,2616,2546,2596,72400,2596
2013/03/28,2596,2609,2578,2609,15500,2609
2013/03/29,2609,2609,2573,2601,11400,2601
2013/04/01,2592,2592,2520,2520,11700,2520
2013/04/02,2530,2544,2471,2501,11800,2501
2013/04/03,2500,2519,2500,2510,5600,2510
2013/04/04,2510,2537,2510,2530,5400,2530
2013/04/05,2535,2557,2535,2557,10000,2557
2013/04/08,2545,2573,2545,2562,7700,2562
2013/04/09,2573,2573,2559,2573,5400,2573
2013/04/10,2560,2580,2559,2580,5200,2580
2013/04/11,2577,2577,2500,2544,9400,2544
2013/04/12,2554,2554,2508,2539,4900,2539
2013/04/15,2539,2552,2539,2551,9000,2551
2013/04/16,2535,2550,2535,2540,2000,2540
2013/04/17,2568,2598,2565,2579,14300,2579
2013/04/18,2600,2644,2599,2625,19900,2625
2013/04/19,2640,2650,2635,2648,7500,2648
2013/04/22,2664,2674,2631,2655,12800,2655
2013/04/23,2635,2664,2635,2642,4200,2642
2013/04/24,2659,2700,2649,2700,14900,2700
2013/04/25,2800,2850,2759,2850,19600,2850
2013/04/26,2849,2849,2775,2796,11300,2796
2013/04/30,2800,2930,2790,2930,12600,2930
2013/05/01,2929,3075,2899,3075,20400,3075
2013/05/02,3020,3075,2911,3000,15400,3000
2013/05/07,3060,3080,3005,3080,13300,3080
2013/05/08,3080,3090,3060,3090,5100,3090
2013/05/09,3100,3280,3100,3280,35300,3280
2013/05/10,3250,3255,3145,3190,15400,3190
2013/05/13,3210,3210,3110,3170,11300,3170
2013/05/14,3110,3170,2975,3110,21800,3110
2013/05/15,3020,3060,2990,3015,20700,3015
2013/05/16,2990,2999,2886,2895,16400,2895
2013/05/17,2930,3000,2922,3000,10600,3000
2013/05/20,3000,3035,3000,3030,8700,3030
2013/05/21,3000,3030,3000,3010,5600,3010
2013/05/22,3025,3040,3005,3030,7300,3030
2013/05/23,3015,3100,2990,2990,28600,2990
2013/05/24,2991,3025,2930,2990,16100,2990
2013/05/27,2986,3040,2952,3030,11500,3030
2013/05/28,3040,3140,3040,3125,29900,3125
2013/05/29,3130,3130,2980,2992,40700,2992
2013/05/30,2966,3325,2923,3160,153600,3160
2013/05/31,3055,3205,2997,3200,74600,3200
2013/06/03,3050,3100,3000,3075,13500,3075
2013/06/04,3005,3045,2860,2952,14800,2952
2013/06/05,2972,2974,2850,2862,13900,2862
2013/06/06,2762,2800,2649,2657,21700,2657
2013/06/07,2650,2650,2502,2577,15300,2577
2013/06/10,2625,2737,2625,2729,7500,2729
2013/06/11,2679,2769,2679,2730,3900,2730
2013/06/12,2655,2769,2655,2767,1900,2767
2013/06/13,2767,2767,2650,2650,4100,2650
2013/06/14,2800,2800,2637,2637,6400,2637
2013/06/17,2637,2687,2637,2687,2000,2687
2013/06/18,2737,2737,2712,2712,900,2712
2013/06/19,2773,2785,2713,2713,800,2713
2013/06/20,2763,2763,2715,2726,1400,2726
2013/06/21,2700,2721,2683,2716,2500,2716
2013/06/24,2729,2749,2726,2749,900,2749
2013/06/25,2750,2830,2723,2752,4800,2752
2013/06/26,2830,2830,2741,2741,1700,2741
2013/06/27,2741,2775,2730,2740,3900,2740
2013/06/28,2760,2765,2751,2756,4800,2756
2013/07/01,2770,2775,2749,2749,4100,2749
2013/07/02,2751,2764,2751,2752,1500,2752
2013/07/03,2800,2800,2769,2770,2500,2770
2013/07/04,2770,2790,2770,2771,2600,2771
2013/07/05,2800,2800,2740,2741,6400,2741
2013/07/08,2743,2770,2730,2736,3200,2736
2013/07/09,2736,2736,2680,2727,4700,2727
2013/07/10,2727,2727,2705,2720,2300,2720
2013/07/11,2720,2760,2700,2728,2700,2728
2013/07/12,2720,2728,2710,2710,6100,2710
2013/07/16,2711,2767,2711,2765,5300,2765
2013/07/17,2765,2765,2749,2752,1900,2752
2013/07/18,2780,2788,2750,2750,2700,2750
2013/07/19,2751,2770,2740,2755,4300,2755
2013/07/22,2755,2775,2755,2765,1300,2765
2013/07/23,2765,2770,2750,2759,2900,2759
2013/07/24,2759,2771,2757,2771,2100,2771
2013/07/25,2770,2790,2769,2778,2300,2778
2013/07/26,2797,2797,2753,2753,5700,2753
2013/07/29,2756,2756,2750,2750,2500,2750
2013/07/30,2795,2795,2701,2701,4400,2701
2013/07/31,2701,2710,2701,2702,2300,2702
2013/08/01,2702,2720,2700,2714,3100,2714
2013/08/02,2714,2750,2713,2721,4200,2721
2013/08/05,2715,2716,2704,2715,2500,2715
2013/08/06,2715,2715,2700,2710,4100,2710
2013/08/07,2700,2710,2700,2710,1200,2710
2013/08/08,2715,2715,2701,2713,4900,2713
2013/08/09,2715,2715,2702,2702,1700,2702
2013/08/12,2700,2701,2700,2701,1900,2701
2013/08/13,2700,2700,2662,2666,6800,2666
2013/08/14,2712,2712,2668,2676,2900,2676
2013/08/15,2696,2696,2670,2683,2100,2683
2013/08/16,2700,2700,2665,2699,3500,2699
2013/08/19,2698,2698,2661,2682,2500,2682
2013/08/20,2670,2695,2660,2678,1700,2678
2013/08/21,2700,2700,2670,2683,800,2683
2013/08/22,2680,2692,2680,2681,600,2681
2013/08/23,2690,2690,2671,2671,1700,2671
2013/08/26,2671,2698,2671,2698,600,2698
2013/08/27,2660,2707,2660,2699,3400,2699
2013/08/28,2695,2696,2693,2695,400,2695
2013/08/29,2660,2685,2660,2661,2200,2661
2013/08/30,2695,2696,2670,2681,3000,2681
2013/09/02,2681,2701,2681,2697,1000,2697
2013/09/03,2700,2700,2681,2700,1300,2700
2013/09/04,2700,2700,2680,2694,900,2694
2013/09/05,2694,2694,2694,2694,400,2694
2013/09/06,2688,2694,2688,2694,500,2694
2013/09/09,2680,2700,2676,2679,3800,2679
2013/09/10,2676,2697,2672,2697,3200,2697
2013/09/11,2675,2685,2671,2685,1700,2685
2013/09/12,2685,2689,2680,2689,400,2689
2013/09/13,2694,2694,2680,2685,3800,2685
2013/09/17,2695,2700,2685,2685,1900,2685
2013/09/18,2700,2700,2683,2690,1800,2690
2013/09/19,2690,2700,2681,2699,1700,2699
2013/09/20,2700,2700,2686,2695,3500,2695
2013/09/24,2700,2700,2691,2699,1600,2699
2013/09/25,2691,2700,2690,2698,3800,2698
2013/09/26,2681,2720,2680,2696,4700,2696
2013/09/27,2696,2716,2684,2699,2300,2699
2013/09/30,2720,2720,2692,2692,2100,2692
2013/10/01,2691,2719,2691,2703,2300,2703
2013/10/02,2725,2725,2700,2710,2300,2710
2013/10/03,2710,2735,2700,2728,5000,2728
2013/10/04,2735,2758,2700,2705,3600,2705
2013/10/07,2710,2735,2710,2729,5300,2729
2013/10/08,2729,2734,2697,2701,2300,2701
2013/10/09,2730,2730,2702,2724,2100,2724
2013/10/10,2723,2738,2706,2712,2800,2712
2013/10/11,2740,2746,2713,2724,1900,2724
2013/10/15,2710,2747,2709,2722,3800,2722
2013/10/16,2721,2749,2712,2721,1200,2721
2013/10/17,2737,2737,2720,2725,700,2725
2013/10/18,2735,2735,2717,2730,1200,2730
2013/10/21,2718,2744,2718,2744,2500,2744
2013/10/22,2730,2748,2718,2738,2200,2738
2013/10/23,2736,2740,2721,2729,1800,2729
2013/10/24,2725,2749,2619,2729,9600,2729
2013/10/25,2720,2750,2720,2738,3800,2738
2013/10/28,2725,2745,2715,2740,3400,2740
2013/10/29,2744,2749,2721,2742,1300,2742
2013/10/30,2750,2788,2678,2678,15900,2678
2013/10/31,2678,2710,2677,2677,10300,2677
2013/11/01,2678,2688,2670,2670,3800,2670
2013/11/05,2693,2693,2651,2684,2600,2684
2013/11/06,2671,2690,2671,2686,2500,2686
2013/11/07,2690,2690,2677,2677,1000,2677
2013/11/08,2677,2688,2650,2651,3800,2651
2013/11/11,2687,2687,2650,2665,2600,2665
2013/11/12,2681,2712,2681,2708,3600,2708
2013/11/13,2720,2720,2670,2689,1700,2689
2013/11/14,2699,2709,2699,2700,1400,2700
2013/11/15,2700,2720,2697,2720,2600,2720
2013/11/18,2720,2720,2710,2716,2000,2716
2013/11/19,2720,2730,2715,2728,3100,2728
2013/11/20,2715,2730,2713,2730,1600,2730
2013/11/21,2730,2730,2712,2730,3400,2730
2013/11/22,2737,2737,2710,2730,4300,2730
2013/11/25,2730,2739,2718,2739,3300,2739
2013/11/26,2740,2749,2725,2737,2900,2737
2013/11/27,2725,2725,2721,2724,1600,2724
2013/11/28,2724,2725,2700,2719,6400,2719
2013/11/29,2705,2719,2697,2700,3900,2700
2013/12/02,2708,2709,2650,2671,12200,2671
2013/12/03,2710,2710,2678,2685,2800,2685
2013/12/04,2680,2688,2678,2682,3600,2682
2013/12/05,2682,2692,2682,2686,1200,2686
2013/12/06,2690,2690,2680,2688,3600,2688
2013/12/09,2685,2699,2685,2687,1500,2687
2013/12/10,2687,2700,2687,2700,3000,2700
2013/12/11,2685,2700,2683,2694,1400,2694
2013/12/12,2695,2695,2687,2687,1400,2687
2013/12/13,2683,2684,2665,2674,10300,2674
2013/12/16,2666,2680,2665,2668,2500,2668
2013/12/17,2669,2680,2660,2671,3700,2671
2013/12/18,2679,2679,2651,2672,4500,2672
2013/12/19,2670,2675,2652,2662,7200,2662
2013/12/20,2662,2670,2646,2649,13800,2649
2013/12/24,2651,2651,2625,2625,9700,2625
2013/12/25,2575,2605,2575,2595,18000,2595
2013/12/26,2615,2655,2615,2655,3000,2655
2013/12/27,2655,2680,2630,2660,7300,2660
2013/12/30,2695,2699,2671,2691,4600,2691
2014/01/06,2690,2698,2680,2685,5900,2685
2014/01/07,2699,2703,2690,2695,1800,2695
2014/01/08,2688,2695,2688,2692,1600,2692
2014/01/09,2698,2698,2690,2692,1200,2692
2014/01/10,2699,2700,2690,2691,3200,2691
2014/01/14,2724,2724,2692,2692,2700,2692
2014/01/15,2700,2700,2691,2699,3300,2699
2014/01/16,2700,2720,2691,2695,6400,2695
2014/01/17,2700,2719,2696,2711,2700,2711
2014/01/20,2730,2730,2705,2714,4700,2714
2014/01/21,2714,2740,2705,2715,5300,2715
2014/01/22,2715,2715,2705,2708,4300,2708
2014/01/23,2715,2720,2705,2706,2900,2706
2014/01/24,2700,2710,2700,2705,3900,2705
2014/01/27,2714,2714,2700,2700,5500,2700
2014/01/28,2709,2724,2700,2700,4100,2700
2014/01/29,2705,2715,2700,2715,2100,2715
2014/01/30,2730,2730,2700,2700,3700,2700
2014/01/31,2710,2715,2700,2715,2500,2715
2014/02/03,2702,2705,2698,2698,3700,2698
2014/02/04,2697,2697,2628,2636,8900,2636
2014/02/05,2638,2680,2628,2655,4000,2655
2014/02/06,2673,2673,2650,2650,1100,2650
2014/02/07,2686,2690,2650,2650,1000,2650
2014/02/10,2665,2688,2665,2672,600,2672
2014/02/12,2691,2700,2660,2700,3500,2700
2014/02/13,2705,2705,2685,2693,1200,2693
2014/02/14,2702,2702,2687,2687,1500,2687
2014/02/17,2702,2710,2702,2706,4600,2706
2014/02/18,2719,2720,2687,2694,3200,2694
2014/02/19,2699,2699,2694,2694,600,2694
2014/02/20,2694,2700,2690,2691,700,2691
2014/02/21,2685,2694,2683,2683,2900,2683
2014/02/24,2699,2699,2670,2674,2900,2674
2014/02/25,2673,2698,2673,2688,2400,2688
2014/02/26,2688,2703,2688,2700,1600,2700
2014/02/27,2686,2700,2686,2697,1600,2697
2014/02/28,2710,2710,2686,2686,2300,2686
2014/03/03,2685,2691,2675,2685,4200,2685
2014/03/04,2685,2709,2685,2699,1600,2699
2014/03/05,2695,2700,2688,2695,1100,2695
2014/03/06,2695,2709,2692,2698,1600,2698
2014/03/07,2710,2710,2696,2708,1400,2708
2014/03/10,2709,2725,2708,2711,2200,2711
2014/03/11,2725,2727,2711,2727,1900,2727
2014/03/12,2716,2734,2716,2724,1100,2724
2014/03/13,2709,2720,2709,2719,1600,2719
2014/03/14,2709,2710,2700,2700,7100,2700
2014/03/17,2720,2720,2701,2720,600,2720
2014/03/18,2720,2720,2705,2715,2200,2715
2014/03/19,2715,2720,2710,2710,1400,2710
2014/03/20,2701,2719,2701,2701,2200,2701
2014/03/24,2705,2726,2705,2720,4700,2720
2014/03/25,2738,2738,2721,2721,8700,2721
2014/03/26,2725,2749,2721,2749,7900,2749
2014/03/27,2675,2697,2650,2660,5200,2660
2014/03/28,2696,2696,2660,2665,3600,2665
2014/03/31,2665,2680,2661,2680,2900,2680
2014/04/01,2708,2708,2679,2686,2700,2686
2014/04/02,2700,2700,2675,2687,4200,2687
2014/04/03,2687,2700,2675,2699,1800,2699
2014/04/04,2667,2700,2667,2700,1600,2700
2014/04/07,2698,2700,2672,2683,3100,2683
2014/04/08,2683,2683,2650,2650,2300,2650
2014/04/09,2669,2669,2645,2645,3600,2645
2014/04/10,2630,2661,2630,2650,2000,2650
2014/04/11,2650,2650,2630,2630,1400,2630
2014/04/14,2629,2630,2628,2628,1800,2628
2014/04/15,2628,2634,2628,2634,2400,2634
2014/04/16,2625,2639,2625,2636,500,2636
2014/04/17,2636,2637,2628,2630,1400,2630
2014/04/18,2640,2640,2630,2632,700,2632
2014/04/21,2632,2644,2601,2633,3700,2633
2014/04/22,2629,2639,2626,2626,600,2626
2014/04/23,2625,2628,2625,2628,1000,2628
2014/04/24,2640,2640,2617,2630,600,2630
2014/04/25,2617,2641,2617,2634,1300,2634
2014/04/28,2642,2642,2607,2622,2200,2622
2014/04/30,2643,2644,2610,2642,2100,2642
2014/05/01,2644,2644,2607,2630,1800,2630
2014/05/02,2615,2640,2615,2622,1100,2622
2014/05/07,2620,2630,2608,2610,1800,2610
2014/05/08,2610,2615,2610,2612,900,2612
2014/05/09,2605,2605,2603,2603,1700,2603
2014/05/12,2603,2607,2602,2602,1300,2602
2014/05/13,2622,2622,2619,2619,500,2619
2014/05/14,2620,2620,2613,2619,600,2619
2014/05/15,2621,2621,2610,2618,1800,2618
2014/05/16,2618,2618,2596,2596,4000,2596
2014/05/19,2596,2610,2596,2598,1000,2598
2014/05/20,2610,2610,2596,2601,700,2601
2014/05/21,2601,2601,2577,2577,3300,2577
2014/05/22,2600,2600,2584,2599,600,2599
2014/05/23,2614,2615,2585,2601,1400,2601
2014/05/26,2617,2618,2593,2618,2100,2618
2014/05/27,2620,2620,2612,2612,600,2612
2014/05/28,2625,2625,2615,2615,600,2615
2014/05/29,2620,2626,2617,2620,1300,2620
2014/05/30,2635,2644,2617,2620,2300,2620
2014/06/02,2639,2639,2620,2637,3200,2637
2014/06/03,2637,2640,2620,2629,2700,2629
2014/06/04,2618,2619,2585,2616,3400,2616
2014/06/05,2616,2620,2603,2620,700,2620
2014/06/06,2635,2644,2613,2635,1900,2635
2014/06/09,2635,2635,2616,2631,900,2631
2014/06/10,2635,2635,2616,2622,1300,2622
2014/06/11,2619,2620,2611,2616,2300,2616
2014/06/12,2622,2628,2609,2610,3200,2610
2014/06/13,2629,2629,2613,2613,3300,2613
2014/06/16,2625,2629,2613,2618,1600,2618
2014/06/17,2630,2630,2600,2626,3200,2626
2014/06/18,2629,2630,2615,2625,1500,2625
2014/06/19,2625,2630,2620,2626,1400,2626
2014/06/20,2620,2620,2612,2620,600,2620
2014/06/23,2620,2630,2620,2622,800,2622
2014/06/24,2610,2634,2610,2634,2300,2634
2014/06/25,2620,2638,2620,2630,1300,2630
2014/06/26,2630,2640,2613,2624,3300,2624
2014/06/27,2640,2640,2621,2633,1700,2633
2014/06/30,2633,2640,2630,2640,2800,2640
2014/07/01,2646,2650,2631,2636,2000,2636
2014/07/02,2647,2650,2630,2644,2300,2644
2014/07/03,2644,2645,2626,2635,1900,2635
2014/07/04,2630,2644,2622,2642,1900,2642
2014/07/07,2672,2672,2643,2643,1900,2643
2014/07/08,2663,2663,2637,2660,800,2660
2014/07/09,2640,2640,2640,2640,200,2640
2014/07/10,2640,2652,2628,2651,2200,2651
2014/07/11,2650,2650,2620,2623,2100,2623
2014/07/14,2623,2646,2617,2624,1300,2624
2014/07/15,2615,2623,2615,2621,700,2621
2014/07/16,2621,2621,2618,2618,500,2618
2014/07/17,2618,2633,2618,2629,400,2629
2014/07/18,2620,2621,2614,2618,1600,2618
2014/07/22,2618,2625,2618,2623,800,2623
2014/07/23,2628,2628,2618,2618,1000,2618
2014/07/24,2618,2623,2618,2619,1200,2619
2014/07/25,2619,2626,2615,2626,2800,2626
2014/07/28,2632,2632,2619,2625,1800,2625
2014/07/29,2625,2627,2625,2626,700,2626
2014/07/30,2626,2629,2620,2622,1800,2622
2014/07/31,2613,2620,2613,2613,2000,2613
2014/08/01,2600,2615,2598,2601,5100,2601
2014/08/04,2601,2604,2600,2602,1100,2602
2014/08/05,2601,2601,2598,2600,1900,2600
2014/08/06,2600,2601,2598,2598,2000,2598
2014/08/07,2600,2605,2597,2597,900,2597
2014/08/08,2597,2604,2595,2595,1700,2595
2014/08/11,2596,2605,2593,2605,1100,2605
2014/08/12,2609,2610,2601,2601,700,2601
2014/08/13,2601,2620,2600,2608,700,2608
2014/08/14,2605,2627,2603,2627,600,2627
2014/08/15,2601,2625,2601,2624,700,2624
2014/08/18,2625,2625,2602,2625,400,2625
2014/08/19,2625,2625,2610,2623,2600,2623
2014/08/20,2603,2606,2600,2605,4300,2605
2014/08/21,2605,2615,2600,2609,3100,2609
2014/08/22,2600,2612,2599,2604,2000,2604
2014/08/25,2601,2622,2598,2606,2700,2606
2014/08/26,2606,2606,2601,2601,1600,2601
2014/08/27,2600,2610,2600,2610,900,2610
2014/08/28,2619,2619,2605,2609,700,2609
2014/08/29,2601,2605,2601,2605,1000,2605
2014/09/01,2610,2610,2601,2602,1100,2602
2014/09/02,2613,2613,2603,2609,800,2609
2014/09/03,2602,2618,2602,2609,1200,2609
2014/09/04,2601,2609,2600,2601,2900,2601
2014/09/05,2600,2607,2600,2602,1500,2602
2014/09/08,2625,2625,2601,2604,1600,2604
2014/09/09,2604,2606,2602,2602,600,2602
2014/09/10,2610,2620,2602,2607,900,2607
2014/09/11,2620,2620,2608,2611,800,2611
2014/09/12,2607,2619,2607,2610,3500,2610
2014/09/16,2610,2618,2607,2618,1100,2618
2014/09/17,2608,2618,2608,2614,1000,2614
2014/09/18,2618,2619,2601,2612,2300,2612
2014/09/19,2620,2623,2617,2617,1600,2617
2014/09/22,2617,2617,2610,2617,1300,2617
2014/09/24,2617,2617,2609,2609,2300,2609
2014/09/25,2603,2617,2603,2617,2200,2617
2014/09/26,2602,2617,2601,2604,1400,2604
2014/09/29,2604,2615,2603,2615,1600,2615
2014/09/30,2628,2628,2600,2605,2000,2605
2014/10/01,2603,2623,2603,2606,900,2606
2014/10/02,2620,2620,2600,2600,2200,2600
2014/10/03,2600,2610,2598,2598,2200,2598
2014/10/06,2600,2618,2600,2603,900,2603
2014/10/07,2610,2617,2599,2600,1600,2600
2014/10/08,2598,2609,2598,2599,1300,2599
2014/10/09,2599,2600,2596,2596,1100,2596
2014/10/10,2595,2595,2586,2586,3600,2586
2014/10/14,2582,2598,2577,2577,2400,2577
2014/10/15,2598,2598,2575,2576,1200,2576
2014/10/16,2576,2580,2550,2550,2800,2550
2014/10/17,2550,2560,2526,2526,1700,2526
2014/10/20,2580,2580,2535,2542,3200,2542
2014/10/21,2540,2540,2530,2532,2000,2532
2014/10/22,2527,2545,2527,2540,1900,2540
2014/10/23,2540,2540,2530,2530,1200,2530
2014/10/24,2530,2541,2530,2538,500,2538
2014/10/27,2538,2546,2538,2546,900,2546
2014/10/28,2546,2546,2536,2539,1000,2539
2014/10/29,2531,2559,2531,2559,2800,2559
2014/10/30,2559,2598,2550,2598,3300,2598
2014/10/31,2597,2600,2573,2600,3100,2600
2014/11/04,2600,2610,2592,2608,3500,2608
2014/11/05,2609,2628,2596,2625,4600,2625
2014/11/06,2604,2625,2604,2617,1000,2617
2014/11/07,2610,2628,2610,2620,1400,2620
2014/11/10,2628,2629,2612,2627,1900,2627
2014/11/11,2630,2630,2617,2630,2600,2630
2014/11/12,2630,2635,2618,2622,2400,2622
2014/11/13,2622,2630,2620,2630,1100,2630
2014/11/14,2634,2635,2625,2630,2300,2630
2014/11/17,2630,2632,2616,2629,2300,2629
2014/11/18,2633,2635,2616,2628,1900,2628
2014/11/19,2626,2627,2607,2614,800,2614
2014/11/20,2608,2635,2608,2615,2300,2615
2014/11/21,2635,2635,2611,2611,1000,2611
2014/11/25,2610,2618,2607,2614,1000,2614
2014/11/26,2619,2619,2519,2600,8500,2600
2014/11/27,2605,2609,2596,2607,1200,2607
2014/11/28,2607,2609,2601,2609,2000,2609
2014/12/01,2610,2610,2600,2605,1700,2605
2014/12/02,2609,2614,2605,2609,1700,2609
2014/12/03,2605,2612,2601,2612,1300,2612
2014/12/04,2619,2630,2605,2630,2000,2630
2014/12/05,2630,2630,2568,2615,4700,2615
2014/12/08,2609,2610,2600,2602,2100,2602
2014/12/09,2610,2620,2610,2611,3400,2611
2014/12/10,2600,2630,2599,2599,2500,2599
2014/12/11,2599,2630,2598,2598,2100,2598
2014/12/12,2595,2625,2595,2600,3500,2600
2014/12/15,2610,2610,2600,2601,800,2601
2014/12/16,2600,2606,2595,2599,1600,2599
2014/12/17,2595,2597,2595,2595,1500,2595
2014/12/18,2615,2615,2585,2585,3300,2585
2014/12/19,2585,2608,2585,2600,1000,2600
2014/12/22,2600,2610,2600,2609,900,2609
2014/12/24,2605,2610,2605,2610,1200,2610
2014/12/25,2610,2610,2601,2604,1700,2604
2014/12/26,2612,2613,2612,2613,1100,2613
2014/12/29,2615,2624,2615,2622,1600,2622
2014/12/30,2615,2625,2605,2608,1200,2608
2015/01/05,2630,2635,2616,2625,1200,2625
2015/01/06,2610,2620,2610,2611,2400,2611
2015/01/07,2610,2611,2610,2611,1400,2611
2015/01/08,2610,2622,2610,2614,1600,2614
2015/01/09,2615,2622,2615,2618,2200,2618
2015/01/13,2618,2622,2618,2621,800,2621
2015/01/14,2625,2643,2621,2642,900,2642
2015/01/15,2645,2657,2617,2644,2500,2644
2015/01/16,2640,2640,2617,2620,900,2620
2015/01/19,2635,2635,2610,2617,2000,2617
2015/01/20,2639,2639,2616,2627,900,2627
2015/01/21,2617,2627,2617,2627,600,2627
2015/01/22,2630,2640,2620,2628,1300,2628
2015/01/23,2620,2638,2620,2622,1000,2622
2015/01/26,2635,2638,2635,2638,1100,2638
2015/01/27,2640,2645,2635,2637,1700,2637
2015/01/28,2637,2650,2635,2649,1400,2649
2015/01/29,2649,2660,2649,2660,1500,2660
2015/01/30,2672,2675,2660,2675,2000,2675
2015/02/02,2650,2690,2650,2670,1500,2670
2015/02/03,2670,2670,2646,2657,1500,2657
2015/02/04,2645,2672,2645,2670,1000,2670
2015/02/05,2672,2675,2645,2672,1900,2672
2015/02/06,2680,2690,2670,2674,800,2674
2015/02/09,2688,2690,2681,2683,1100,2683
2015/02/10,2688,2698,2670,2698,1900,2698
2015/02/12,2703,2720,2699,2699,2100,2699
2015/02/13,2720,2720,2700,2708,2300,2708
2015/02/16,2700,2717,2700,2709,1500,2709
2015/02/17,2690,2720,2690,2718,1600,2718
2015/02/18,2720,2740,2702,2702,3400,2702
2015/02/19,2702,2740,2702,2733,2200,2733
2015/02/20,2735,2750,2720,2727,3500,2727
2015/02/23,2730,2735,2725,2725,900,2725
2015/02/24,2726,2747,2726,2747,2600,2747
2015/02/25,2750,2760,2745,2755,3500,2755
2015/02/26,2768,2790,2768,2790,4100,2790
2015/02/27,2765,2784,2765,2779,4100,2779
2015/03/02,2799,2799,2779,2780,3000,2780
2015/03/03,2780,2790,2780,2790,1300,2790
2015/03/04,2798,2798,2785,2788,1700,2788
2015/03/05,2795,2795,2785,2795,1300,2795
2015/03/06,2786,2798,2782,2787,4600,2787
2015/03/09,2795,2795,2784,2790,3600,2790
2015/03/10,2796,2799,2786,2786,4100,2786
2015/03/11,2794,2794,2785,2789,2500,2789
2015/03/12,2797,2798,2786,2788,2500,2788
2015/03/13,2798,2798,2786,2789,5900,2789
2015/03/16,2790,2798,2790,2796,2100,2796
2015/03/17,2799,2799,2791,2797,2700,2797
2015/03/18,2800,2800,2791,2799,3200,2799
2015/03/19,2790,2800,2790,2794,4400,2794
2015/03/20,2803,2804,2795,2799,3700,2799
2015/03/23,2809,2810,2803,2810,2200,2810
2015/03/24,2811,2822,2808,2820,5900,2820
2015/03/25,2829,2880,2822,2872,7600,2872
2015/03/26,2880,2889,2857,2857,7300,2857
2015/03/27,2717,2798,2711,2730,10700,2730
2015/03/30,2728,2728,2700,2701,4500,2701
2015/03/31,2700,2719,2699,2703,3200,2703
2015/04/01,2700,2702,2661,2661,4100,2661
2015/04/02,2660,2678,2650,2678,6200,2678
2015/04/03,2678,2681,2675,2678,2400,2678
2015/04/06,2678,2678,2660,2678,1700,2678
2015/04/07,2670,2677,2651,2667,3000,2667
2015/04/08,2667,2700,2667,2694,4900,2694
2015/04/09,2700,2750,2700,2709,2400,2709
2015/04/10,2730,2745,2667,2720,5700,2720
2015/04/13,2703,2709,2692,2692,1800,2692
2015/04/14,2720,2724,2693,2711,1400,2711
2015/04/15,2697,2697,2686,2688,1100,2688
2015/04/16,2725,2725,2691,2695,1400,2695
2015/04/17,2725,2725,2684,2721,2500,2721
2015/04/20,2680,2720,2674,2680,2500,2680
2015/04/21,2670,2702,2665,2692,2600,2692
2015/04/22,2700,2701,2672,2672,700,2672
2015/04/23,2702,2702,2667,2676,2000,2676
2015/04/24,2676,2720,2676,2680,2000,2680
2015/04/27,2700,2700,2675,2684,1200,2684
2015/04/28,2684,2700,2684,2700,1900,2700
2015/04/30,2700,2700,2679,2681,2600,2681
2015/05/01,2684,2700,2665,2670,2300,2670
2015/05/07,2700,2700,2665,2665,1100,2665
2015/05/08,2652,2672,2652,2672,3200,2672
2015/05/11,2672,2673,2661,2665,900,2665
2015/05/12,2660,2670,2656,2662,600,2662
2015/05/13,2668,2668,2651,2651,1500,2651
2015/05/14,2668,2697,2652,2695,3100,2695
2015/05/15,2700,2700,2670,2680,1200,2680
2015/05/18,2671,2695,2651,2694,2200,2694
2015/05/19,2661,2695,2661,2683,3400,2683
2015/05/20,2695,2695,2694,2694,500,2694
2015/05/21,2695,2719,2688,2700,5500,2700
2015/05/22,2681,2703,2681,2700,2200,2700
2015/05/25,2710,2710,2702,2710,2600,2710
2015/05/26,2710,2714,2690,2700,4200,2700
2015/05/27,2701,2720,2701,2720,1900,2720
2015/05/28,2720,2720,2706,2715,1900,2715
2015/05/29,2720,2720,2708,2719,2100,2719
2015/06/01,2720,2730,2708,2721,3600,2721
2015/06/02,2721,2727,2703,2709,2600,2709
2015/06/03,2730,2730,2711,2716,3400,2716
2015/06/04,2715,2716,2704,2704,1400,2704
2015/06/05,2725,2725,2700,2710,1600,2710
2015/06/08,2710,2721,2710,2720,700,2720
2015/06/09,2725,2725,2706,2706,1600,2706
2015/06/10,2704,2705,2700,2700,1000,2700
2015/06/11,2705,2720,2704,2704,1500,2704
2015/06/12,2704,2718,2698,2710,5500,2710
2015/06/15,2705,2710,2700,2708,800,2708
2015/06/16,2703,2703,2700,2700,800,2700
2015/06/17,2700,2710,2700,2701,1000,2701
2015/06/18,2709,2709,2690,2690,1700,2690
2015/06/19,2690,2707,2690,2694,800,2694
2015/06/22,2694,2704,2690,2701,1400,2701
2015/06/23,2705,2717,2704,2717,1100,2717
2015/06/24,2694,2715,2694,2711,2800,2711
2015/06/25,2711,2715,2694,2710,2400,2710
2015/06/26,2710,2710,2700,2700,1800,2700
2015/06/29,2700,2720,2694,2705,3200,2705
2015/06/30,2704,2727,2701,2708,2400,2708
2015/07/01,2728,2729,2706,2718,2500,2718
