2011/01/04,1679,1728,1679,1702,24900,1702
2011/01/05,1717,1723,1705,1714,22800,1714
2011/01/06,1724,1747,1722,1732,28200,1732
2011/01/07,1732,1748,1728,1728,32800,1728
2011/01/11,1728,1734,1712,1725,65100,1725
2011/01/12,1736,1804,1728,1733,81400,1733
2011/01/13,1749,1755,1716,1717,32200,1717
2011/01/14,1718,1732,1718,1718,20400,1718
2011/01/17,1725,1735,1719,1731,29300,1731
2011/01/18,1731,1740,1727,1736,14100,1736
2011/01/19,1741,1757,1741,1746,23600,1746
2011/01/20,1745,1745,1728,1728,12200,1728
2011/01/21,1728,1735,1711,1712,36000,1712
2011/01/24,1719,1724,1710,1724,20400,1724
2011/01/25,1730,1754,1718,1741,32500,1741
2011/01/26,1749,1754,1725,1730,19300,1730
2011/01/27,1730,1748,1730,1739,15500,1739
2011/01/28,1734,1737,1705,1708,32800,1708
2011/01/31,1700,1700,1669,1675,37600,1675
2011/02/01,1678,1720,1675,1702,28100,1702
2011/02/02,1700,1740,1700,1733,41800,1733
2011/02/03,1733,1739,1726,1736,13200,1736
2011/02/04,1740,1768,1737,1762,29800,1762
2011/02/07,1762,1770,1761,1770,14900,1770
2011/02/08,1770,1770,1754,1755,19100,1755
2011/02/09,1755,1765,1744,1748,16500,1748
2011/02/10,1748,1762,1748,1755,21400,1755
2011/02/14,1764,1770,1760,1765,28400,1765
2011/02/15,1768,1788,1762,1779,42300,1779
2011/02/16,1779,1785,1770,1776,41100,1776
2011/02/17,1780,1785,1768,1780,39400,1780
2011/02/18,1780,1780,1767,1770,26700,1770
2011/02/21,1763,1777,1762,1775,19700,1775
2011/02/22,1776,1776,1763,1764,15600,1764
2011/02/23,1760,1760,1751,1751,23700,1751
2011/02/24,1751,1755,1712,1719,39600,1719
2011/02/25,1721,1731,1714,1723,25900,1723
2011/02/28,1735,1759,1730,1755,48800,1755
2011/03/01,1761,1794,1761,1784,45300,1784
2011/03/02,1779,1795,1771,1771,37800,1771
2011/03/03,1771,1785,1770,1775,28000,1775
2011/03/04,1784,1785,1775,1776,20100,1776
2011/03/07,1783,1783,1751,1755,48500,1755
2011/03/08,1766,1766,1753,1753,21800,1753
2011/03/09,1759,1764,1753,1753,21600,1753
2011/03/10,1753,1761,1732,1761,64100,1761
2011/03/11,1691,1710,1685,1688,97000,1688
2011/03/14,1398,1530,1388,1446,77800,1446
2011/03/15,1402,1404,1149,1241,89100,1241
2011/03/16,1240,1370,1210,1368,127900,1368
2011/03/17,1338,1338,1250,1301,114900,1301
2011/03/18,1361,1408,1361,1404,94300,1404
2011/03/22,1494,1540,1466,1509,68800,1509
2011/03/23,1540,1540,1452,1487,74700,1487
2011/03/24,1487,1501,1465,1465,59400,1465
2011/03/25,1495,1525,1480,1517,58600,1517
2011/03/28,1510,1535,1483,1501,47400,1501
2011/03/29,1500,1576,1499,1567,47000,1567
2011/03/30,1550,1553,1529,1546,46200,1546
2011/03/31,1550,1590,1535,1590,46000,1590
2011/04/01,1590,1620,1576,1577,41900,1577
2011/04/04,1551,1560,1500,1514,58100,1514
2011/04/05,1514,1518,1487,1499,22900,1499
2011/04/06,1520,1520,1473,1495,42600,1495
2011/04/07,1509,1515,1445,1452,78400,1452
2011/04/08,1443,1468,1420,1451,60000,1451
2011/04/11,1445,1518,1443,1515,59000,1515
2011/04/12,1490,1539,1490,1495,70400,1495
2011/04/13,1477,1510,1464,1475,80400,1475
2011/04/14,1476,1575,1476,1559,77500,1559
2011/04/15,1580,1580,1553,1553,29400,1553
2011/04/18,1553,1593,1553,1565,40500,1565
2011/04/19,1550,1580,1547,1552,32500,1552
2011/04/20,1550,1574,1516,1560,64800,1560
2011/04/21,1559,1560,1509,1526,36200,1526
2011/04/22,1525,1535,1511,1519,23900,1519
2011/04/25,1506,1523,1486,1512,51500,1512
2011/04/26,1525,1525,1502,1505,27300,1505
2011/04/27,1525,1525,1500,1506,33000,1506
2011/04/28,1514,1544,1501,1542,49500,1542
2011/05/02,1543,1599,1543,1574,37300,1574
2011/05/06,1555,1555,1523,1525,39300,1525
2011/05/09,1567,1673,1556,1634,127700,1634
2011/05/10,1630,1671,1625,1627,58400,1627
2011/05/11,1618,1662,1612,1662,45100,1662
2011/05/12,1650,1660,1622,1638,41100,1638
2011/05/13,1626,1634,1554,1568,90000,1568
2011/05/16,1569,1584,1540,1546,24400,1546
2011/05/17,1543,1562,1521,1544,44300,1544
2011/05/18,1533,1560,1533,1537,28700,1537
2011/05/19,1542,1556,1533,1534,26800,1534
2011/05/20,1540,1549,1526,1526,32600,1526
2011/05/23,1544,1544,1523,1529,17200,1529
2011/05/24,1522,1544,1522,1532,14900,1532
2011/05/25,1522,1528,1507,1510,22200,1510
2011/05/26,1503,1518,1502,1508,24300,1508
2011/05/27,1505,1510,1499,1499,21400,1499
2011/05/30,1499,1516,1490,1515,25200,1515
2011/05/31,1522,1554,1522,1542,25900,1542
2011/06/01,1544,1553,1522,1550,38700,1550
2011/06/02,1511,1548,1511,1527,39900,1527
2011/06/03,1525,1539,1510,1513,20400,1513
2011/06/06,1509,1548,1489,1548,44900,1548
2011/06/07,1534,1540,1502,1522,33100,1522
2011/06/08,1513,1520,1501,1516,17700,1516
2011/06/09,1503,1520,1490,1510,28500,1510
2011/06/10,1510,1519,1495,1504,34900,1504
2011/06/13,1504,1531,1504,1525,22400,1525
2011/06/14,1525,1531,1500,1509,23600,1509
2011/06/15,1506,1516,1506,1516,11700,1516
2011/06/16,1509,1510,1492,1492,25200,1492
2011/06/17,1494,1509,1482,1509,29600,1509
2011/06/20,1500,1507,1497,1500,14200,1500
2011/06/21,1503,1515,1499,1499,15100,1499
2011/06/22,1504,1543,1504,1528,30100,1528
2011/06/23,1507,1557,1506,1552,27300,1552
2011/06/24,1537,1552,1530,1552,14200,1552
2011/06/27,1552,1552,1520,1520,19500,1520
2011/06/28,1550,1550,1523,1537,18700,1537
2011/06/29,1533,1589,1533,1584,35000,1584
2011/06/30,1584,1584,1551,1584,30200,1584
2011/07/01,1587,1624,1587,1620,38600,1620
2011/07/04,1621,1635,1615,1631,22000,1631
2011/07/05,1630,1633,1609,1610,17300,1610
2011/07/06,1601,1630,1584,1630,22400,1630
2011/07/07,1630,1630,1598,1605,18600,1605
2011/07/08,1612,1627,1600,1616,51000,1616
2011/07/11,1603,1621,1603,1621,15100,1621
2011/07/12,1604,1611,1587,1604,23700,1604
2011/07/13,1604,1628,1604,1618,17700,1618
2011/07/14,1611,1628,1609,1622,12800,1622
2011/07/15,1622,1629,1601,1610,25300,1610
2011/07/19,1621,1630,1611,1630,19700,1630
2011/07/20,1635,1655,1634,1634,14300,1634
2011/07/21,1634,1646,1630,1631,6500,1631
2011/07/22,1626,1633,1609,1613,22900,1613
2011/07/25,1615,1640,1607,1636,19800,1636
2011/07/26,1645,1665,1640,1652,31800,1652
2011/07/27,1645,1655,1620,1651,31600,1651
2011/07/28,1630,1645,1614,1643,18600,1643
2011/07/29,1632,1633,1579,1579,27000,1579
2011/08/01,1581,1634,1581,1610,35700,1610
2011/08/02,1607,1629,1592,1599,23100,1599
2011/08/03,1585,1607,1572,1584,29500,1584
2011/08/04,1584,1594,1571,1577,10300,1577
2011/08/05,1537,1575,1530,1575,25400,1575
2011/08/08,1541,1560,1531,1536,25200,1536
2011/08/09,1502,1510,1484,1510,19200,1510
2011/08/10,1525,1542,1507,1522,23500,1522
2011/08/11,1516,1558,1511,1538,24000,1538
2011/08/12,1578,1581,1539,1575,27400,1575
2011/08/15,1576,1590,1561,1564,26500,1564
2011/08/16,1564,1600,1555,1600,26100,1600
2011/08/17,1600,1600,1565,1588,19700,1588
2011/08/18,1600,1600,1558,1574,21200,1574
2011/08/19,1534,1594,1533,1594,22800,1594
2011/08/22,1570,1586,1535,1535,17200,1535
2011/08/23,1555,1556,1535,1542,11100,1542
2011/08/24,1544,1585,1505,1582,58100,1582
2011/08/25,1582,1589,1537,1537,24100,1537
2011/08/26,1539,1549,1518,1532,23900,1532
2011/08/29,1523,1548,1516,1532,15200,1532
2011/08/30,1550,1550,1514,1529,21300,1529
2011/08/31,1545,1569,1515,1569,41500,1569
2011/09/01,1573,1592,1553,1562,31800,1562
2011/09/02,1562,1592,1539,1592,29600,1592
2011/09/05,1561,1574,1537,1544,14900,1544
2011/09/06,1553,1553,1518,1525,14300,1525
2011/09/07,1526,1545,1517,1519,17200,1519
2011/09/08,1535,1545,1525,1540,12800,1540
2011/09/09,1528,1562,1528,1540,28200,1540
2011/09/12,1539,1546,1526,1546,15200,1546
2011/09/13,1550,1598,1546,1590,21800,1590
2011/09/14,1589,1589,1519,1524,32800,1524
2011/09/15,1560,1560,1534,1542,12700,1542
2011/09/16,1535,1556,1523,1556,38000,1556
2011/09/20,1527,1542,1515,1516,26500,1516
2011/09/21,1520,1527,1501,1501,25400,1501
2011/09/22,1510,1511,1492,1511,30300,1511
2011/09/26,1491,1496,1433,1434,39100,1434
2011/09/27,1468,1474,1446,1474,26600,1474
2011/09/28,1476,1521,1476,1506,30700,1506
2011/09/29,1510,1520,1496,1520,24800,1520
2011/09/30,1503,1535,1480,1533,68200,1533
2011/10/03,1502,1550,1502,1543,43600,1543
2011/10/04,1544,1562,1506,1538,39100,1538
2011/10/05,1526,1528,1486,1486,20000,1486
2011/10/06,1512,1512,1472,1510,33000,1510
2011/10/07,1500,1528,1480,1480,27300,1480
2011/10/11,1500,1506,1483,1500,27200,1500
2011/10/12,1500,1500,1480,1483,20100,1483
2011/10/13,1504,1509,1480,1504,58200,1504
2011/10/14,1486,1490,1462,1468,39800,1468
2011/10/17,1480,1481,1469,1478,16500,1478
2011/10/18,1468,1474,1461,1461,16200,1461
2011/10/19,1462,1475,1460,1470,24200,1470
2011/10/20,1462,1462,1451,1458,24800,1458
2011/10/21,1454,1455,1448,1448,14900,1448
2011/10/24,1448,1457,1435,1436,26900,1436
2011/10/25,1437,1446,1416,1416,49600,1416
2011/10/26,1410,1432,1402,1425,39500,1425
2011/10/27,1450,1494,1450,1489,73500,1489
2011/10/28,1480,1495,1460,1480,57700,1480
2011/10/31,1485,1512,1479,1505,52500,1505
2011/11/01,1505,1549,1505,1531,50900,1531
2011/11/02,1527,1550,1507,1540,54900,1540
2011/11/04,1540,1566,1528,1559,31500,1559
2011/11/07,1559,1563,1553,1563,16200,1563
2011/11/08,1563,1563,1495,1507,28600,1507
2011/11/09,1530,1555,1517,1554,17100,1554
2011/11/10,1516,1526,1509,1523,13400,1523
2011/11/11,1510,1513,1493,1499,13500,1499
2011/11/14,1526,1530,1513,1527,11300,1527
2011/11/15,1520,1533,1509,1520,16500,1520
2011/11/16,1520,1526,1506,1508,10900,1508
2011/11/17,1496,1515,1484,1515,19900,1515
2011/11/18,1499,1509,1492,1495,12400,1495
2011/11/21,1495,1503,1489,1502,6300,1502
2011/11/22,1480,1507,1480,1507,13000,1507
2011/11/24,1495,1499,1482,1488,16800,1488
2011/11/25,1480,1487,1472,1472,11600,1472
2011/11/28,1471,1486,1451,1475,14900,1475
2011/11/29,1475,1504,1473,1504,15500,1504
2011/11/30,1489,1504,1489,1496,34900,1496
2011/12/01,1510,1512,1472,1490,54500,1490
2011/12/02,1490,1494,1480,1485,8400,1485
2011/12/05,1497,1525,1495,1525,34100,1525
2011/12/06,1515,1524,1492,1493,22300,1493
2011/12/07,1505,1528,1482,1519,55200,1519
2011/12/08,1514,1515,1499,1506,15800,1506
2011/12/09,1480,1500,1480,1493,38500,1493
2011/12/12,1513,1541,1507,1525,27300,1525
2011/12/13,1497,1553,1497,1532,39900,1532
2011/12/14,1530,1537,1521,1523,17800,1523
2011/12/15,1520,1524,1501,1508,20900,1508
2011/12/16,1508,1519,1506,1506,19500,1506
2011/12/19,1505,1547,1501,1518,24000,1518
2011/12/20,1544,1558,1508,1530,25300,1530
2011/12/21,1548,1548,1521,1546,8900,1546
2011/12/22,1546,1546,1516,1517,9900,1517
2011/12/26,1525,1529,1509,1514,14500,1514
2011/12/27,1510,1531,1510,1527,6800,1527
2011/12/28,1528,1542,1522,1541,13200,1541
2011/12/29,1540,1550,1534,1550,10900,1550
2011/12/30,1555,1559,1544,1556,12400,1556
2012/01/04,1580,1614,1562,1606,54800,1606
2012/01/05,1607,1624,1586,1599,35600,1599
2012/01/06,1606,1606,1558,1564,34000,1564
2012/01/10,1604,1613,1578,1588,39200,1588
2012/01/11,1601,1614,1591,1612,34400,1612
2012/01/12,1612,1616,1597,1605,29300,1605
2012/01/13,1615,1630,1609,1617,23800,1617
2012/01/16,1621,1630,1590,1602,25200,1602
2012/01/17,1619,1619,1590,1596,19400,1596
2012/01/18,1608,1608,1597,1604,26800,1604
2012/01/19,1611,1611,1594,1603,26700,1603
2012/01/20,1610,1613,1595,1600,31400,1600
2012/01/23,1601,1611,1601,1610,21000,1610
2012/01/24,1610,1618,1598,1617,25700,1617
2012/01/25,1617,1625,1604,1621,32400,1621
2012/01/26,1630,1630,1594,1595,38400,1595
2012/01/27,1597,1612,1597,1607,23800,1607
2012/01/30,1615,1619,1602,1603,19600,1603
2012/01/31,1602,1619,1600,1619,34500,1619
2012/02/01,1620,1633,1616,1630,51700,1630
2012/02/02,1640,1640,1624,1638,16700,1638
2012/02/03,1645,1649,1630,1638,36900,1638
2012/02/06,1645,1649,1642,1645,22900,1645
2012/02/07,1645,1648,1631,1640,27500,1640
2012/02/08,1640,1646,1635,1646,17500,1646
2012/02/09,1647,1647,1635,1640,20900,1640
2012/02/10,1646,1646,1634,1638,11900,1638
2012/02/13,1647,1649,1643,1647,10500,1647
2012/02/14,1648,1657,1644,1653,13600,1653
2012/02/15,1657,1659,1640,1643,40600,1643
2012/02/16,1640,1651,1616,1625,46200,1625
2012/02/17,1643,1651,1639,1639,26100,1639
2012/02/20,1648,1657,1645,1656,28000,1656
2012/02/21,1657,1675,1656,1672,17700,1672
2012/02/22,1678,1703,1675,1696,29600,1696
2012/02/23,1700,1705,1694,1701,22900,1701
2012/02/24,1708,1712,1686,1692,24200,1692
2012/02/27,1692,1720,1688,1720,123400,1720
2012/02/28,1720,1745,1717,1724,76400,1724
2012/02/29,1745,1745,1708,1710,74900,1710
2012/03/01,1724,1747,1715,1747,216500,1747
2012/03/02,1750,1758,1737,1754,96000,1754
2012/03/05,1763,1791,1763,1791,118700,1791
2012/03/06,1850,1884,1806,1834,190100,1834
2012/03/07,1807,1827,1802,1809,108100,1809
2012/03/08,1818,1846,1818,1833,86500,1833
2012/03/09,1848,1850,1824,1835,182700,1835
2012/03/12,1832,1854,1831,1837,432100,1837
2012/03/13,1777,1787,1771,1771,395200,1771
2012/03/14,1770,1815,1770,1805,128300,1805
2012/03/15,1805,1805,1785,1801,54100,1801
2012/03/16,1790,1807,1782,1792,46700,1792
2012/03/19,1800,1825,1795,1821,47800,1821
2012/03/21,1828,1833,1815,1826,54200,1826
2012/03/22,1835,1845,1828,1840,50000,1840
2012/03/23,1840,1848,1831,1843,39600,1843
2012/03/26,1843,1870,1842,1862,89700,1862
2012/03/27,1872,1896,1872,1895,76900,1895
2012/03/28,1901,1913,1888,1913,95300,1913
2012/03/29,1920,1930,1910,1927,59800,1927
2012/03/30,1933,1969,1931,1964,99800,1964
2012/04/02,1964,1964,1893,1904,64100,1904
2012/04/03,1910,1922,1895,1908,47800,1908
2012/04/04,1891,1891,1836,1848,61800,1848
2012/04/05,1811,1866,1794,1851,60500,1851
2012/04/06,1851,1877,1828,1871,42700,1871
2012/04/09,1848,1874,1835,1859,41300,1859
2012/04/10,1853,1888,1849,1873,52400,1873
2012/04/11,1866,1890,1856,1883,65000,1883
2012/04/12,1882,1923,1882,1900,112000,1900
2012/04/13,1940,2008,1925,1959,116000,1959
2012/04/16,1930,1956,1889,1916,49800,1916
2012/04/17,1915,1934,1896,1911,55500,1911
2012/04/18,1920,1926,1896,1918,50700,1918
2012/04/19,1905,1912,1851,1862,75800,1862
2012/04/20,1868,1914,1860,1906,41700,1906
2012/04/23,1920,1923,1887,1898,31800,1898
2012/04/24,1870,1873,1851,1859,47400,1859
2012/04/25,1881,1903,1876,1897,34800,1897
2012/04/26,1897,1903,1867,1868,34300,1868
2012/04/27,1860,1930,1830,1925,107000,1925
2012/05/01,1925,1959,1925,1949,73200,1949
2012/05/02,1929,1945,1928,1938,31200,1938
2012/05/07,1889,1897,1859,1866,41600,1866
2012/05/08,1880,1921,1880,1911,56800,1911
2012/05/09,1901,1907,1884,1891,49200,1891
2012/05/10,1864,1870,1826,1833,52800,1833
2012/05/11,1844,1862,1761,1783,79600,1783
2012/05/14,1782,1803,1730,1749,60700,1749
2012/05/15,1709,1762,1657,1738,51200,1738
2012/05/16,1730,1736,1700,1715,50200,1715
2012/05/17,1700,1810,1700,1728,45200,1728
2012/05/18,1701,1716,1675,1681,58500,1681
2012/05/21,1651,1697,1651,1680,57000,1680
2012/05/22,1695,1718,1693,1708,53600,1708
2012/05/23,1708,1712,1668,1676,38500,1676
2012/05/24,1660,1683,1641,1658,37400,1658
2012/05/25,1641,1681,1641,1665,37400,1665
2012/05/28,1666,1694,1643,1653,39600,1653
2012/05/29,1650,1654,1630,1643,45000,1643
2012/05/30,1643,1663,1625,1653,35800,1653
2012/05/31,1644,1668,1635,1666,51600,1666
2012/06/01,1667,1676,1657,1664,37600,1664
2012/06/04,1635,1641,1585,1605,36300,1605
2012/06/05,1605,1621,1591,1609,20200,1609
2012/06/06,1644,1644,1609,1638,38500,1638
2012/06/07,1660,1666,1633,1663,28700,1663
2012/06/08,1665,1666,1601,1624,64200,1624
2012/06/11,1630,1635,1605,1628,25900,1628
2012/06/12,1610,1611,1588,1598,36400,1598
2012/06/13,1600,1613,1589,1607,25100,1607
2012/06/14,1607,1622,1607,1621,28100,1621
2012/06/15,1619,1633,1601,1609,24900,1609
2012/06/18,1641,1652,1625,1630,38500,1630
2012/06/19,1628,1650,1624,1626,15400,1626
2012/06/20,1632,1696,1632,1681,28900,1681
2012/06/21,1687,1727,1687,1724,34000,1724
2012/06/22,1725,1725,1682,1697,30000,1697
2012/06/25,1710,1710,1688,1689,26400,1689
2012/06/26,1673,1699,1673,1688,26700,1688
2012/06/27,1689,1714,1684,1714,20800,1714
2012/06/28,1702,1725,1689,1695,57400,1695
2012/06/29,1718,1758,1700,1749,58100,1749
2012/07/02,1771,1815,1764,1800,64900,1800
2012/07/03,1810,1850,1801,1836,60300,1836
2012/07/04,1849,1849,1820,1821,35800,1821
2012/07/05,1815,1852,1815,1847,38700,1847
2012/07/06,1854,1870,1844,1851,50700,1851
2012/07/09,1847,1855,1833,1847,21100,1847
2012/07/10,1815,1842,1800,1801,32700,1801
2012/07/11,1790,1815,1788,1806,14400,1806
2012/07/12,1801,1811,1774,1782,23900,1782
2012/07/13,1780,1794,1761,1768,17300,1768
2012/07/17,1771,1797,1758,1781,21200,1781
2012/07/18,1791,1809,1774,1781,35800,1781
2012/07/19,1789,1800,1760,1779,26200,1779
2012/07/20,1763,1764,1727,1733,24800,1733
2012/07/23,1752,1752,1715,1723,35000,1723
2012/07/24,1723,1749,1714,1734,20700,1734
2012/07/25,1735,1785,1720,1754,73400,1754
2012/07/26,1674,1674,1575,1590,153700,1590
2012/07/27,1610,1618,1578,1593,102400,1593
2012/07/30,1629,1629,1590,1607,65900,1607
2012/07/31,1615,1615,1579,1586,79300,1586
2012/08/01,1587,1588,1539,1542,105200,1542
2012/08/02,1542,1573,1542,1561,81100,1561
2012/08/03,1561,1565,1540,1550,39500,1550
2012/08/06,1577,1577,1548,1559,21000,1559
2012/08/07,1554,1589,1552,1574,31900,1574
2012/08/08,1580,1592,1551,1558,47300,1558
2012/08/09,1552,1564,1549,1561,25800,1561
2012/08/10,1564,1587,1560,1575,47200,1575
2012/08/13,1575,1575,1562,1565,22400,1565
2012/08/14,1565,1584,1561,1577,46000,1577
2012/08/15,1589,1595,1567,1574,34900,1574
2012/08/16,1576,1589,1575,1585,12400,1585
2012/08/17,1579,1594,1575,1592,30800,1592
2012/08/20,1594,1594,1564,1568,30400,1568
2012/08/21,1590,1590,1573,1580,11100,1580
2012/08/22,1581,1581,1565,1571,20700,1571
2012/08/23,1574,1587,1566,1584,25000,1584
2012/08/24,1578,1578,1555,1556,28500,1556
2012/08/27,1571,1572,1550,1550,39700,1550
2012/08/28,1559,1559,1521,1524,36500,1524
2012/08/29,1547,1547,1526,1532,24300,1532
2012/08/30,1526,1531,1523,1523,26600,1523
2012/08/31,1523,1535,1500,1500,41500,1500
2012/09/03,1503,1553,1502,1516,35000,1516
2012/09/04,1516,1521,1492,1499,41400,1499
2012/09/05,1503,1503,1490,1491,23500,1491
2012/09/06,1491,1494,1472,1479,27500,1479
2012/09/07,1503,1503,1472,1497,36100,1497
2012/09/10,1498,1499,1490,1492,14200,1492
2012/09/11,1492,1494,1480,1488,24800,1488
2012/09/12,1488,1514,1488,1513,21500,1513
2012/09/13,1515,1523,1509,1523,16300,1523
2012/09/14,1547,1548,1521,1521,25600,1521
2012/09/18,1542,1549,1525,1547,32400,1547
2012/09/19,1559,1566,1531,1558,24900,1558
2012/09/20,1570,1570,1553,1565,48600,1565
2012/09/21,1564,1583,1559,1573,28900,1573
2012/09/24,1585,1597,1581,1594,28200,1594
2012/09/25,1570,1589,1559,1589,28000,1589
2012/09/26,1580,1595,1577,1591,16000,1591
2012/09/27,1594,1600,1582,1590,22200,1590
2012/09/28,1600,1630,1600,1626,40700,1626
2012/10/01,1626,1629,1570,1575,63700,1575
2012/10/02,1554,1600,1518,1524,49500,1524
2012/10/03,1525,1525,1481,1486,53100,1486
2012/10/04,1487,1498,1471,1479,71000,1479
2012/10/05,1497,1523,1492,1512,58600,1512
2012/10/09,1517,1563,1513,1525,67100,1525
2012/10/10,1511,1515,1490,1495,36300,1495
2012/10/11,1487,1497,1482,1485,20300,1485
2012/10/12,1491,1516,1491,1509,16200,1509
2012/10/15,1512,1514,1488,1495,19600,1495
2012/10/16,1500,1515,1500,1507,17500,1507
2012/10/17,1503,1529,1503,1510,51900,1510
2012/10/18,1525,1564,1517,1562,38100,1562
2012/10/19,1561,1584,1556,1578,33900,1578
2012/10/22,1578,1600,1578,1594,31400,1594
2012/10/23,1595,1600,1552,1562,29900,1562
2012/10/24,1637,1645,1623,1643,148300,1643
2012/10/25,1650,1668,1649,1659,58500,1659
2012/10/26,1660,1677,1614,1623,65200,1623
2012/10/29,1630,1733,1630,1726,165100,1726
2012/10/30,1702,1746,1702,1715,120300,1715
2012/10/31,1699,1726,1685,1702,107400,1702
2012/11/01,1702,1723,1686,1722,96500,1722
2012/11/02,1721,1786,1721,1782,125500,1782
2012/11/05,1799,1829,1781,1826,118100,1826
2012/11/06,1825,1825,1767,1774,129900,1774
2012/11/07,1775,1854,1775,1816,161000,1816
2012/11/08,1816,1841,1800,1836,109300,1836
2012/11/09,1835,1845,1804,1808,111800,1808
2012/11/12,1778,1784,1706,1713,68800,1713
2012/11/13,1633,1663,1577,1577,255400,1577
2012/11/14,1579,1611,1571,1578,134700,1578
2012/11/15,1589,1604,1576,1601,52400,1601
2012/11/16,1604,1614,1580,1597,51500,1597
2012/11/19,1609,1610,1587,1589,66200,1589
2012/11/20,1601,1618,1598,1610,36900,1610
2012/11/21,1620,1623,1592,1607,50300,1607
2012/11/22,1602,1610,1597,1601,43600,1601
2012/11/26,1616,1616,1590,1590,55100,1590
2012/11/27,1590,1610,1586,1601,64900,1601
2012/11/28,1603,1615,1595,1599,29300,1599
2012/11/29,1599,1616,1588,1606,50500,1606
2012/11/30,1615,1615,1597,1597,24900,1597
2012/12/03,1599,1615,1598,1601,32700,1601
2012/12/04,1608,1627,1602,1612,51900,1612
2012/12/05,1626,1683,1626,1657,78700,1657
2012/12/06,1670,1688,1664,1681,52300,1681
2012/12/07,1694,1694,1652,1671,31100,1671
2012/12/10,1702,1719,1688,1697,35500,1697
2012/12/11,1702,1714,1690,1694,32800,1694
2012/12/12,1694,1704,1669,1673,30800,1673
2012/12/13,1684,1687,1664,1668,30100,1668
2012/12/14,1668,1677,1650,1650,46100,1650
2012/12/17,1650,1663,1638,1648,43000,1648
2012/12/18,1648,1666,1647,1649,26400,1649
2012/12/19,1654,1675,1637,1665,61100,1665
2012/12/20,1649,1669,1645,1659,43500,1659
2012/12/21,1659,1701,1659,1665,45800,1665
2012/12/25,1670,1692,1670,1691,25100,1691
2012/12/26,1700,1710,1697,1702,26000,1702
2012/12/27,1705,1718,1690,1690,33100,1690
2012/12/28,1710,1716,1688,1709,31900,1709
2013/01/04,1734,1742,1716,1729,45000,1729
2013/01/07,1730,1771,1730,1747,35000,1747
2013/01/08,1757,1787,1752,1770,47200,1770
2013/01/09,1761,1784,1742,1776,30300,1776
2013/01/10,1779,1784,1763,1778,30800,1778
2013/01/11,1785,1805,1784,1801,34300,1801
2013/01/15,1824,1834,1820,1830,36900,1830
2013/01/16,1830,1846,1823,1827,62100,1827
2013/01/17,1820,1823,1785,1798,56900,1798
2013/01/18,1813,1822,1807,1819,31300,1819
2013/01/21,1807,1829,1807,1823,31400,1823
2013/01/22,1825,1836,1809,1817,37100,1817
2013/01/23,1819,1821,1811,1821,25200,1821
2013/01/24,1813,1817,1793,1814,36300,1814
2013/01/25,1820,1840,1815,1838,43500,1838
2013/01/28,1852,1867,1847,1860,57300,1860
2013/01/29,1868,1870,1853,1854,33500,1854
2013/01/30,1863,1880,1863,1874,27700,1874
2013/01/31,1880,1887,1861,1883,47200,1883
2013/02/01,1883,1913,1883,1894,47600,1894
2013/02/04,1907,1938,1907,1932,45400,1932
2013/02/05,1936,1950,1887,1889,74400,1889
2013/02/06,1902,1942,1902,1938,55300,1938
2013/02/07,1928,1933,1906,1914,37400,1914
2013/02/08,1905,1933,1888,1901,38200,1901
2013/02/12,1928,1944,1914,1914,31100,1914
2013/02/13,1910,1913,1887,1890,47900,1890
2013/02/14,1885,1885,1842,1842,75500,1842
2013/02/15,1838,1839,1800,1820,49600,1820
2013/02/18,1808,1879,1808,1878,49500,1878
2013/02/19,1854,1892,1850,1860,39200,1860
2013/02/20,1862,1890,1858,1887,44400,1887
2013/02/21,1890,1912,1872,1887,41600,1887
2013/02/22,1883,1897,1871,1878,40500,1878
2013/02/25,1900,1904,1872,1881,69000,1881
2013/02/26,1874,1901,1853,1884,107600,1884
2013/02/27,1875,1891,1850,1874,116900,1874
2013/02/28,1877,1907,1877,1902,113600,1902
2013/03/01,1902,1955,1902,1942,128400,1942
2013/03/04,1930,1979,1930,1962,154700,1962
2013/03/05,1975,1999,1965,1968,175400,1968
2013/03/06,1965,1996,1965,1992,116700,1992
2013/03/07,1992,2018,1989,1995,155700,1995
2013/03/08,1993,2003,1982,1988,120000,1988
2013/03/11,2003,2046,2002,2038,141600,2038
2013/03/12,2040,2078,2002,2002,208000,2002
2013/03/13,1950,1965,1927,1933,304300,1933
2013/03/14,1954,1962,1932,1946,76700,1946
2013/03/15,1956,1987,1956,1987,129800,1987
2013/03/18,1986,1986,1950,1951,60400,1951
2013/03/19,1950,1975,1950,1964,55300,1964
2013/03/21,1979,1985,1950,1984,74200,1984
2013/03/22,1980,1985,1943,1943,49700,1943
2013/03/25,1960,1966,1947,1948,46900,1948
2013/03/26,1963,1973,1949,1964,69700,1964
2013/03/27,1961,1978,1943,1974,64900,1974
2013/03/28,1975,2010,1970,2007,112000,2007
2013/03/29,2008,2057,1978,2051,155900,2051
2013/04/01,2051,2051,1935,1936,156000,1936
2013/04/02,1934,1978,1891,1960,95200,1960
2013/04/03,1960,2013,1960,1997,74400,1997
2013/04/04,1999,2042,1951,2042,82500,2042
2013/04/05,2070,2112,2056,2084,160700,2084
2013/04/08,2104,2169,2103,2167,140700,2167
2013/04/09,2179,2179,2121,2166,132500,2166
2013/04/10,2170,2190,2128,2137,121900,2137
2013/04/11,2175,2212,2173,2211,125300,2211
2013/04/12,2211,2211,2176,2188,64100,2188
2013/04/15,2188,2193,2131,2157,46100,2157
2013/04/16,2130,2200,2130,2183,81100,2183
2013/04/17,2184,2207,2179,2182,69500,2182
2013/04/18,2094,2170,2060,2062,193400,2062
2013/04/19,2060,2084,2040,2073,150200,2073
2013/04/22,2090,2110,2062,2076,140500,2076
2013/04/23,2085,2095,2034,2042,178300,2042
2013/04/24,2040,2067,2030,2060,141900,2060
2013/04/25,2126,2203,2112,2188,319700,2188
2013/04/26,2199,2234,2190,2196,167900,2196
2013/04/30,2196,2225,2181,2191,125600,2191
2013/05/01,2191,2205,2142,2188,76300,2188
2013/05/02,2151,2190,2131,2153,116700,2153
2013/05/07,2175,2229,2175,2193,181600,2193
2013/05/08,2200,2239,2178,2237,167200,2237
2013/05/09,2251,2307,2250,2290,136700,2290
2013/05/10,2326,2371,2326,2366,158800,2366
2013/05/13,2366,2394,2308,2372,183900,2372
2013/05/14,2400,2414,2323,2339,102600,2339
2013/05/15,2340,2358,2258,2270,168400,2270
2013/05/16,2262,2267,2175,2213,171200,2213
2013/05/17,2219,2285,2218,2279,102900,2279
2013/05/20,2323,2355,2305,2338,111300,2338
2013/05/21,2370,2370,2319,2367,86400,2367
2013/05/22,2385,2385,2325,2336,57900,2336
2013/05/23,2330,2330,2185,2185,151700,2185
2013/05/24,2180,2232,2100,2170,86500,2170
2013/05/27,2170,2171,2087,2122,81300,2122
2013/05/28,2091,2127,2091,2112,45800,2112
2013/05/29,2126,2199,2115,2155,77200,2155
2013/05/30,2130,2167,2087,2095,81600,2095
2013/05/31,2095,2150,2095,2111,75800,2111
2013/06/03,2111,2112,2018,2022,69700,2022
2013/06/04,1999,2062,1988,2043,122800,2043
2013/06/05,2025,2095,2004,2005,70500,2005
2013/06/06,1990,2000,1881,1891,114700,1891
2013/06/07,1900,1920,1813,1851,181600,1851
2013/06/10,1950,2034,1930,2004,108300,2004
2013/06/11,2000,2055,1969,1974,119900,1974
2013/06/12,1945,2009,1909,1977,79700,1977
2013/06/13,1977,1980,1910,1912,87600,1912
2013/06/14,1969,1997,1940,1961,102700,1961
2013/06/17,1950,2041,1932,2026,49900,2026
2013/06/18,2013,2013,1959,1972,116800,1972
2013/06/19,2001,2026,1988,2022,109800,2022
2013/06/20,1999,1999,1950,1973,115600,1973
2013/06/21,1939,2012,1925,2009,86600,2009
2013/06/24,2020,2020,1968,1975,54300,1975
2013/06/25,1978,2002,1966,1990,98700,1990
2013/06/26,2003,2020,1960,1988,96100,1988
2013/06/27,1987,2050,1975,2038,119500,2038
2013/06/28,2048,2078,2041,2061,68000,2061
2013/07/01,2064,2107,2046,2096,49700,2096
2013/07/02,2135,2135,2098,2129,54700,2129
2013/07/03,2130,2192,2104,2178,79400,2178
2013/07/04,2186,2190,2152,2181,52600,2181
2013/07/05,2181,2197,2171,2191,36600,2191
2013/07/08,2200,2207,2156,2161,40100,2161
2013/07/09,2164,2196,2138,2181,37400,2181
2013/07/10,2162,2190,2150,2163,42600,2163
2013/07/11,2126,2149,2112,2135,76800,2135
2013/07/12,2120,2175,2120,2142,63400,2142
2013/07/16,2132,2162,2130,2139,30700,2139
2013/07/17,2114,2141,2106,2123,37700,2123
2013/07/18,2126,2142,2115,2130,24300,2130
2013/07/19,2140,2150,2083,2088,92200,2088
2013/07/22,2102,2102,2045,2057,118800,2057
2013/07/23,2057,2128,2047,2122,87600,2122
2013/07/24,2047,2072,2042,2047,124400,2047
2013/07/25,2050,2062,2040,2042,60900,2042
2013/07/26,2040,2055,2028,2032,52700,2032
2013/07/29,2025,2025,1955,1958,57800,1958
2013/07/30,1958,2008,1958,2001,46300,2001
2013/07/31,2000,2000,1962,1964,54800,1964
2013/08/01,1964,2032,1964,2022,29600,2022
2013/08/02,2045,2069,2038,2067,43200,2067
2013/08/05,2035,2057,2035,2045,24300,2045
2013/08/06,2045,2061,2026,2050,32000,2050
2013/08/07,2026,2048,1990,1992,34500,1992
2013/08/08,2015,2040,2005,2015,34200,2015
2013/08/09,2034,2034,2005,2008,24200,2008
2013/08/12,1991,1999,1978,1980,16500,1980
2013/08/13,1983,1996,1978,1987,14700,1987
2013/08/14,1994,2008,1985,1997,13300,1997
2013/08/15,1988,2002,1978,1985,23300,1985
2013/08/16,1985,1985,1958,1958,33600,1958
2013/08/19,1971,1971,1949,1951,25400,1951
2013/08/20,1948,1948,1900,1903,55400,1903
2013/08/21,1904,1913,1875,1899,45700,1899
2013/08/22,1926,1926,1900,1906,12300,1906
2013/08/23,1909,1909,1877,1888,74000,1888
2013/08/26,1889,1895,1878,1889,33100,1889
2013/08/27,1890,1893,1873,1873,24100,1873
2013/08/28,1857,1866,1828,1851,39100,1851
2013/08/29,1833,1851,1810,1818,49800,1818
2013/08/30,1824,1825,1808,1817,35600,1817
2013/09/02,1818,1831,1817,1827,15100,1827
2013/09/03,1839,1850,1827,1849,16500,1849
2013/09/04,1840,1847,1818,1841,39900,1841
2013/09/05,1859,1891,1830,1886,74000,1886
2013/09/06,1883,1883,1830,1844,41800,1844
2013/09/09,1860,1889,1858,1880,35500,1880
2013/09/10,1912,1912,1890,1890,47200,1890
2013/09/11,1941,1949,1865,1872,54600,1872
2013/09/12,1872,1883,1856,1868,41100,1868
2013/09/13,1856,1892,1856,1890,48200,1890
2013/09/17,1890,1904,1864,1877,37300,1877
2013/09/18,1891,1902,1866,1875,29200,1875
2013/09/19,1900,1900,1875,1897,19300,1897
2013/09/20,1895,1932,1885,1930,47200,1930
2013/09/24,1929,1945,1918,1940,35800,1940
2013/09/25,1949,1960,1930,1959,42500,1959
2013/09/26,1963,1975,1936,1965,32700,1965
2013/09/27,1971,1975,1954,1961,34900,1961
2013/09/30,1934,1955,1932,1945,29400,1945
2013/10/01,1945,1945,1908,1908,41200,1908
2013/10/02,1924,1924,1890,1893,29400,1893
2013/10/03,1909,1918,1896,1902,35900,1902
2013/10/04,1894,1928,1890,1917,39300,1917
2013/10/07,1920,1923,1885,1886,29300,1886
2013/10/08,1886,1907,1885,1899,41300,1899
2013/10/09,1891,1942,1882,1931,51300,1931
2013/10/10,1932,1983,1932,1982,42800,1982
2013/10/11,2000,2048,1999,2038,75800,2038
2013/10/15,2043,2044,1990,2000,37900,2000
2013/10/16,1996,2008,1895,1971,53500,1971
2013/10/17,1995,2002,1951,1969,33000,1969
2013/10/18,1960,1965,1944,1950,21900,1950
2013/10/21,1965,1983,1965,1982,29000,1982
2013/10/22,1960,1976,1943,1944,73400,1944
2013/10/23,1945,1955,1923,1926,87600,1926
2013/10/24,1916,1940,1905,1916,109600,1916
2013/10/25,1945,1945,1904,1908,100900,1908
2013/10/28,1912,1940,1907,1913,73700,1913
2013/10/29,1910,1913,1860,1872,124700,1872
2013/10/30,1879,1903,1875,1891,76500,1891
2013/10/31,1879,1888,1840,1845,124300,1845
2013/11/01,1850,1854,1830,1835,64600,1835
2013/11/05,1851,1851,1823,1829,40900,1829
2013/11/06,1841,1866,1834,1861,39600,1861
2013/11/07,1840,1843,1821,1824,58000,1824
2013/11/08,1821,1828,1811,1817,51400,1817
2013/11/11,1827,1840,1813,1818,28600,1818
2013/11/12,1825,1847,1821,1847,34700,1847
2013/11/13,1858,1866,1848,1858,26900,1858
2013/11/14,1850,1865,1845,1859,56300,1859
2013/11/15,1868,1876,1864,1870,48500,1870
2013/11/18,1871,1874,1860,1866,49400,1866
2013/11/19,1860,1869,1847,1852,48200,1852
2013/11/20,1846,1854,1838,1841,73000,1841
2013/11/21,1837,1844,1828,1834,94200,1834
2013/11/22,1841,1843,1820,1828,85800,1828
2013/11/25,1832,1850,1832,1850,66900,1850
2013/11/26,1849,1849,1835,1843,56400,1843
2013/11/27,1845,1846,1833,1838,73400,1838
2013/11/28,1837,1844,1833,1843,62900,1843
2013/11/29,1845,1845,1836,1839,32600,1839
2013/12/02,1840,1845,1838,1842,49600,1842
2013/12/03,1845,1863,1839,1858,60300,1858
2013/12/04,1855,1855,1836,1841,38100,1841
2013/12/05,1848,1852,1836,1837,53400,1837
2013/12/06,1837,1849,1832,1848,39300,1848
2013/12/09,1850,1863,1849,1860,41200,1860
2013/12/10,1855,1869,1853,1862,42800,1862
2013/12/11,1862,1865,1852,1855,20300,1855
2013/12/12,1858,1858,1847,1854,27100,1854
2013/12/13,1851,1856,1837,1847,85500,1847
2013/12/16,1854,1859,1845,1851,32100,1851
2013/12/17,1846,1870,1846,1869,37600,1869
2013/12/18,1870,1885,1870,1884,75000,1884
2013/12/19,1900,1914,1881,1887,98900,1887
2013/12/20,1881,1881,1864,1873,47100,1873
2013/12/24,1873,1878,1849,1857,45100,1857
2013/12/25,1857,1858,1840,1852,39900,1852
2013/12/26,1859,1924,1855,1917,78400,1917
2013/12/27,1920,1958,1914,1958,65500,1958
2013/12/30,1970,1985,1956,1979,61100,1979
2014/01/06,1979,1993,1955,1961,97500,1961
2014/01/07,1968,1973,1951,1961,32400,1961
2014/01/08,1975,1987,1964,1987,54100,1987
2014/01/09,1987,1987,1971,1985,29100,1985
2014/01/10,1970,1984,1952,1984,57500,1984
2014/01/14,1974,1978,1954,1958,44100,1958
2014/01/15,1972,1987,1962,1985,53600,1985
2014/01/16,1985,2000,1981,1989,40400,1989
2014/01/17,1979,1998,1973,1994,41700,1994
2014/01/20,1999,1999,1989,1997,23300,1997
2014/01/21,1997,1999,1986,1996,32500,1996
2014/01/22,1998,1999,1977,1997,34000,1997
2014/01/23,2000,2005,1960,1960,67400,1960
2014/01/24,1953,1958,1937,1941,59900,1941
2014/01/27,1900,1925,1890,1910,59300,1910
2014/01/28,1920,1949,1918,1920,57200,1920
2014/01/29,1940,1968,1940,1963,30900,1963
2014/01/30,1904,1947,1904,1942,61300,1942
2014/01/31,1950,1979,1931,1952,59900,1952
2014/02/03,1952,1959,1919,1919,46700,1919
2014/02/04,1890,1895,1817,1821,117200,1821
2014/02/05,1855,1859,1822,1834,84300,1834
2014/02/06,1845,1858,1830,1843,44800,1843
2014/02/07,1848,1864,1844,1858,49100,1858
2014/02/10,1875,1875,1852,1862,41800,1862
2014/02/12,1862,1888,1858,1865,78700,1865
2014/02/13,1875,1887,1858,1861,41000,1861
2014/02/14,1861,1880,1839,1862,70600,1862
2014/02/17,1862,1870,1829,1859,51600,1859
2014/02/18,1854,1887,1845,1887,64500,1887
2014/02/19,1868,1890,1847,1885,58100,1885
2014/02/20,1880,1880,1850,1859,52200,1859
2014/02/21,1861,1895,1859,1892,53200,1892
2014/02/24,1892,1907,1875,1896,54800,1896
2014/02/25,1895,1904,1874,1884,110300,1884
2014/02/26,1884,1894,1862,1882,102000,1882
2014/02/27,1891,1891,1871,1875,80300,1875
2014/02/28,1878,1882,1861,1863,75300,1863
2014/03/03,1859,1874,1855,1870,91100,1870
2014/03/04,1861,1890,1853,1886,113000,1886
2014/03/05,1899,1926,1895,1905,82300,1905
2014/03/06,1902,1927,1902,1923,60400,1923
2014/03/07,1930,1943,1926,1942,76800,1942
2014/03/10,1945,1957,1941,1948,96800,1948
2014/03/11,1934,1952,1934,1946,127900,1946
2014/03/12,1861,1915,1854,1903,220300,1903
2014/03/13,1898,1930,1865,1905,111400,1905
2014/03/14,1920,1920,1880,1895,111600,1895
2014/03/17,1884,1884,1847,1851,70700,1851
2014/03/18,1854,1866,1851,1852,46200,1852
2014/03/19,1854,1867,1842,1853,87900,1853
2014/03/20,1865,1878,1836,1836,58900,1836
2014/03/24,1860,1890,1840,1862,85700,1862
2014/03/25,1846,1890,1840,1848,99000,1848
2014/03/26,1880,1880,1840,1852,91500,1852
2014/03/27,1869,1885,1840,1883,96700,1883
2014/03/28,1900,1950,1888,1950,128400,1950
2014/03/31,1952,1962,1930,1962,95100,1962
2014/04/01,1964,1977,1948,1967,63300,1967
2014/04/02,1964,1967,1939,1940,57600,1940
2014/04/03,1940,1968,1931,1962,54000,1962
2014/04/04,1959,1962,1949,1951,22600,1951
2014/04/07,1951,1964,1940,1947,38400,1947
2014/04/08,1925,1936,1897,1900,42100,1900
2014/04/09,1871,1910,1850,1857,54800,1857
2014/04/10,1876,1892,1846,1847,47300,1847
2014/04/11,1840,1850,1826,1837,35500,1837
2014/04/14,1863,1864,1839,1839,25900,1839
2014/04/15,1855,1857,1830,1830,33900,1830
2014/04/16,1843,1855,1835,1853,25600,1853
2014/04/17,1869,1869,1847,1847,26800,1847
2014/04/18,1865,1867,1847,1864,34700,1864
2014/04/21,1862,1866,1851,1851,18800,1851
2014/04/22,1857,1878,1841,1843,26400,1843
2014/04/23,1859,1864,1843,1861,18800,1861
2014/04/24,1867,1882,1857,1862,27200,1862
2014/04/25,1864,1874,1853,1866,17200,1866
2014/04/28,1866,1874,1852,1874,22500,1874
2014/04/30,1879,1879,1855,1863,31000,1863
2014/05/01,1882,1950,1865,1945,77200,1945
2014/05/02,1908,1943,1908,1939,27400,1939
2014/05/07,1908,1910,1870,1870,29500,1870
2014/05/08,1876,1914,1876,1905,18500,1905
2014/05/09,1882,1931,1882,1922,28100,1922
2014/05/12,1922,1927,1896,1897,15200,1897
2014/05/13,1925,1925,1891,1899,20000,1899
2014/05/14,1890,1917,1890,1913,13000,1913
2014/05/15,1891,1897,1877,1894,13300,1894
2014/05/16,1886,1886,1862,1863,18100,1863
2014/05/19,1890,1890,1865,1869,12000,1869
2014/05/20,1879,1879,1868,1868,7800,1868
2014/05/21,1862,1862,1843,1851,28600,1851
2014/05/22,1860,1862,1845,1859,26000,1859
2014/05/23,1859,1870,1849,1857,59100,1857
2014/05/26,1857,1860,1850,1860,24500,1860
2014/05/27,1857,1872,1854,1857,18700,1857
2014/05/28,1857,1877,1857,1870,43300,1870
2014/05/29,1875,1875,1856,1859,18600,1859
2014/05/30,1854,1876,1854,1873,43200,1873
2014/06/02,1882,1882,1860,1871,45900,1871
2014/06/03,1881,1895,1864,1867,66100,1867
2014/06/04,1867,1870,1860,1866,34800,1866
2014/06/05,1870,1885,1870,1884,23800,1884
2014/06/06,1890,1890,1875,1879,23300,1879
2014/06/09,1884,1887,1868,1874,36300,1874
2014/06/10,1877,1878,1861,1863,28300,1863
2014/06/11,1868,1882,1865,1878,44800,1878
2014/06/12,1878,1883,1871,1882,52300,1882
2014/06/13,1868,1883,1868,1870,59800,1870
2014/06/16,1876,1876,1858,1862,54100,1862
2014/06/17,1871,1878,1866,1869,42400,1869
2014/06/18,1878,1890,1871,1884,41500,1884
2014/06/19,1884,1931,1884,1928,82000,1928
2014/06/20,1911,1913,1889,1900,71100,1900
2014/06/23,1917,1924,1901,1923,43000,1923
2014/06/24,1920,1920,1904,1908,55600,1908
2014/06/25,1916,1920,1898,1915,66500,1915
2014/06/26,1918,1918,1897,1897,30100,1897
2014/06/27,1892,1900,1880,1895,40000,1895
2014/06/30,1903,1935,1890,1934,70900,1934
2014/07/01,1930,1937,1920,1932,80500,1932
2014/07/02,1931,1947,1927,1930,45600,1930
2014/07/03,1921,1927,1900,1904,39200,1904
2014/07/04,1904,1918,1901,1914,22200,1914
2014/07/07,1918,1919,1908,1917,16600,1917
2014/07/08,1917,1918,1901,1905,34400,1905
2014/07/09,1905,1905,1890,1891,20700,1891
2014/07/10,1906,1906,1878,1878,36800,1878
2014/07/11,1871,1895,1864,1890,40300,1890
2014/07/14,1890,1915,1889,1915,27500,1915
2014/07/15,1910,1927,1897,1909,41100,1909
2014/07/16,1900,1910,1890,1892,26800,1892
2014/07/17,1892,1904,1892,1895,10700,1895
2014/07/18,1894,1915,1881,1892,36200,1892
2014/07/22,1908,1908,1890,1896,18100,1896
2014/07/23,1900,1904,1895,1898,34500,1898
2014/07/24,1907,1908,1872,1891,46800,1891
2014/07/25,1903,1912,1896,1903,39700,1903
2014/07/28,1920,1942,1908,1924,89500,1924
2014/07/29,1922,1936,1922,1926,32200,1926
2014/07/30,1895,1895,1865,1872,137700,1872
2014/07/31,1870,1880,1864,1867,59000,1867
2014/08/01,1867,1868,1852,1864,55100,1864
2014/08/04,1876,1876,1862,1862,40200,1862
2014/08/05,1868,1868,1847,1848,68400,1848
2014/08/06,1850,1861,1838,1858,75700,1858
2014/08/07,1850,1854,1841,1849,46400,1849
2014/08/08,1850,1854,1828,1828,67100,1828
2014/08/11,1862,1875,1851,1875,42300,1875
2014/08/12,1875,1875,1857,1859,30000,1859
2014/08/13,1861,1870,1855,1865,30800,1865
2014/08/14,1874,1874,1842,1849,84000,1849
2014/08/15,1853,1863,1833,1845,92400,1845
2014/08/18,1850,1858,1843,1849,35900,1849
2014/08/19,1857,1857,1840,1853,47200,1853
2014/08/20,1854,1857,1837,1845,51700,1845
2014/08/21,1852,1852,1842,1852,53100,1852
2014/08/22,1847,1852,1835,1846,77600,1846
2014/08/25,1852,1855,1846,1849,30600,1849
2014/08/26,1853,1853,1838,1843,73200,1843
2014/08/27,1848,1851,1840,1845,57000,1845
2014/08/28,1840,1845,1830,1835,84100,1835
2014/08/29,1831,1833,1812,1813,105000,1813
2014/09/01,1816,1822,1813,1818,50200,1818
2014/09/02,1820,1827,1820,1824,47600,1824
2014/09/03,1827,1827,1810,1811,97200,1811
2014/09/04,1819,1820,1805,1809,84200,1809
2014/09/05,1811,1811,1803,1803,65500,1803
2014/09/08,1805,1819,1803,1819,50600,1819
2014/09/09,1827,1827,1814,1824,56500,1824
2014/09/10,1823,1828,1816,1827,127600,1827
2014/09/11,1834,1838,1827,1833,133900,1833
2014/09/12,1830,1851,1827,1849,101400,1849
2014/09/16,1851,1878,1851,1875,104600,1875
2014/09/17,1880,1880,1857,1858,46200,1858
2014/09/18,1860,1872,1857,1869,44700,1869
2014/09/19,1874,1884,1872,1880,86400,1880
2014/09/22,1875,1884,1874,1881,36000,1881
2014/09/24,1873,1883,1873,1877,34300,1877
2014/09/25,1882,1905,1880,1900,106700,1900
2014/09/26,1864,1895,1864,1878,52500,1878
2014/09/29,1890,1891,1872,1877,32100,1877
2014/09/30,1890,1890,1860,1878,61100,1878
2014/10/01,1878,1906,1878,1890,63700,1890
2014/10/02,1871,1876,1846,1848,56700,1848
2014/10/03,1848,1865,1848,1862,30000,1862
2014/10/06,1870,1883,1863,1872,30000,1872
2014/10/07,1880,1888,1873,1883,60300,1883
2014/10/08,1868,1878,1850,1866,61400,1866
2014/10/09,1881,1887,1867,1879,47000,1879
2014/10/10,1861,1870,1851,1859,49900,1859
2014/10/14,1844,1867,1840,1859,89000,1859
2014/10/15,1875,1904,1870,1896,98500,1896
2014/10/16,1863,1875,1829,1831,72900,1831
2014/10/17,1831,1849,1813,1817,72100,1817
2014/10/20,1840,1852,1837,1847,34800,1847
2014/10/21,1846,1846,1826,1829,49400,1829
2014/10/22,1840,1873,1840,1873,41000,1873
2014/10/23,1870,1893,1860,1886,65700,1886
2014/10/24,1887,1891,1869,1873,21100,1873
2014/10/27,1883,1883,1862,1876,22900,1876
2014/10/28,1879,1879,1843,1855,48400,1855
2014/10/29,1794,1794,1676,1712,355600,1712
2014/10/30,1718,1718,1680,1684,217100,1684
2014/10/31,1691,1730,1687,1724,176900,1724
2014/11/04,1732,1742,1705,1713,150300,1713
2014/11/05,1706,1742,1706,1730,140100,1730
2014/11/06,1731,1769,1725,1760,131300,1760
2014/11/07,1769,1777,1752,1764,62100,1764
2014/11/10,1765,1768,1746,1756,46800,1756
2014/11/11,1760,1774,1750,1763,51100,1763
2014/11/12,1768,1783,1755,1757,63800,1757
2014/11/13,1757,1796,1756,1793,71200,1793
2014/11/14,1800,1808,1759,1774,130200,1774
2014/11/17,1781,1781,1743,1747,68400,1747
2014/11/18,1748,1760,1725,1744,76200,1744
2014/11/19,1736,1751,1728,1733,84200,1733
2014/11/20,1735,1738,1720,1724,50400,1724
2014/11/21,1735,1739,1723,1730,66100,1730
2014/11/25,1742,1752,1734,1745,47300,1745
2014/11/26,1752,1771,1746,1749,63600,1749
2014/11/27,1764,1767,1748,1752,44100,1752
2014/11/28,1768,1779,1763,1764,48100,1764
2014/12/01,1765,1779,1753,1772,84700,1772
2014/12/02,1765,1770,1757,1761,60300,1761
2014/12/03,1761,1780,1758,1777,97200,1777
2014/12/04,1777,1816,1768,1803,117000,1803
2014/12/05,1793,1805,1766,1770,134400,1770
2014/12/08,1770,1787,1752,1774,121500,1774
2014/12/09,1760,1789,1753,1758,106400,1758
2014/12/10,1755,1797,1755,1764,83300,1764
2014/12/11,1756,1782,1751,1760,107000,1760
2014/12/12,1752,1783,1750,1750,109900,1750
2014/12/15,1750,1764,1736,1739,137200,1739
2014/12/16,1728,1747,1711,1712,115700,1712
2014/12/17,1715,1750,1702,1723,78800,1723
2014/12/18,1744,1756,1726,1730,83600,1730
2014/12/19,1746,1767,1742,1752,62200,1752
2014/12/22,1755,1769,1752,1765,38300,1765
2014/12/24,1770,1789,1761,1785,67500,1785
2014/12/25,1786,1791,1768,1780,55700,1780
2014/12/26,1783,1795,1783,1790,19500,1790
2014/12/29,1789,1795,1777,1789,48500,1789
2014/12/30,1798,1798,1784,1785,24900,1785
2015/01/05,1785,1795,1777,1777,38200,1777
2015/01/06,1775,1775,1750,1753,71000,1753
2015/01/07,1752,1765,1748,1756,51200,1756
2015/01/08,1756,1767,1752,1764,44200,1764
2015/01/09,1782,1784,1764,1768,65300,1768
2015/01/13,1767,1790,1756,1790,56500,1790
2015/01/14,1789,1793,1772,1778,45600,1778
2015/01/15,1778,1795,1769,1785,31100,1785
2015/01/16,1771,1778,1755,1766,50500,1766
2015/01/19,1768,1779,1750,1766,52000,1766
2015/01/20,1769,1783,1756,1778,61900,1778
2015/01/21,1777,1785,1771,1775,50700,1775
2015/01/22,1779,1779,1760,1771,33800,1771
2015/01/23,1781,1785,1766,1779,31800,1779
2015/01/26,1779,1801,1772,1787,45400,1787
2015/01/27,1798,1814,1788,1800,66200,1800
2015/01/28,1799,1864,1797,1853,101600,1853
2015/01/29,1853,1875,1840,1866,47100,1866
2015/01/30,1872,1886,1860,1879,69600,1879
2015/02/02,1879,1888,1857,1877,54800,1877
2015/02/03,1884,1890,1865,1877,48600,1877
2015/02/04,1880,1895,1872,1880,55000,1880
2015/02/05,1879,1918,1878,1894,77100,1894
2015/02/06,1917,1917,1884,1892,41900,1892
2015/02/09,1892,1901,1890,1893,29700,1893
2015/02/10,1906,1908,1885,1902,32200,1902
2015/02/12,1918,1926,1902,1918,60000,1918
2015/02/13,1930,1945,1916,1938,78900,1938
2015/02/16,1943,1969,1938,1947,74500,1947
2015/02/17,1960,1985,1950,1982,67300,1982
2015/02/18,1988,1994,1966,1969,60700,1969
2015/02/19,1975,1995,1971,1992,50600,1992
2015/02/20,1993,2000,1980,1999,71400,1999
2015/02/23,2000,2024,1997,2017,95100,2017
2015/02/24,2020,2024,2000,2014,89400,2014
2015/02/25,2017,2057,2016,2056,171100,2056
2015/02/26,2060,2071,2030,2041,85300,2041
2015/02/27,2046,2079,2026,2046,125000,2046
2015/03/02,2046,2077,2046,2070,116500,2070
2015/03/03,2078,2125,2078,2121,142600,2121
2015/03/04,2110,2139,2090,2106,183400,2106
2015/03/05,2109,2119,2068,2082,148700,2082
2015/03/06,2070,2124,2066,2124,142500,2124
2015/03/09,2145,2185,2136,2156,386200,2156
2015/03/10,2130,2140,2083,2094,323000,2094
2015/03/11,2040,2087,2037,2055,400600,2055
2015/03/12,2053,2077,2017,2057,190700,2057
2015/03/13,2076,2082,2059,2071,98600,2071
2015/03/16,2071,2071,2038,2065,98000,2065
2015/03/17,2060,2065,2032,2046,57300,2046
2015/03/18,2050,2099,2038,2098,125100,2098
2015/03/19,2094,2094,2060,2078,44900,2078
2015/03/20,2080,2123,2080,2123,91800,2123
2015/03/23,2126,2159,2125,2145,81200,2145
2015/03/24,2150,2170,2142,2166,72900,2166
2015/03/25,2170,2170,2139,2164,65600,2164
2015/03/26,2164,2164,2132,2144,45800,2144
2015/03/27,2130,2157,2090,2102,100100,2102
2015/03/30,2084,2109,2077,2102,42900,2102
2015/03/31,2122,2138,2069,2092,119800,2092
2015/04/01,2085,2095,2048,2081,94000,2081
2015/04/02,2099,2134,2099,2123,81300,2123
2015/04/03,2108,2134,2092,2119,65100,2119
2015/04/06,2112,2130,2108,2115,40000,2115
2015/04/07,2115,2121,2082,2092,54500,2092
2015/04/08,2101,2150,2099,2142,95800,2142
2015/04/09,2115,2160,2115,2154,80300,2154
2015/04/10,2157,2158,2128,2134,54200,2134
2015/04/13,2113,2137,2084,2119,51500,2119
2015/04/14,2139,2187,2139,2187,101600,2187
2015/04/15,2188,2197,2163,2168,57200,2168
2015/04/16,2168,2177,2124,2139,44200,2139
2015/04/17,2139,2157,2102,2140,57600,2140
2015/04/20,2132,2145,2113,2119,33000,2119
2015/04/21,2140,2140,2095,2133,52200,2133
2015/04/22,2133,2133,2105,2110,36300,2110
2015/04/23,2130,2130,2097,2114,31300,2114
2015/04/24,2117,2139,2105,2120,33600,2120
2015/04/27,2120,2169,2120,2168,56500,2168
2015/04/28,2000,2097,1955,1972,420900,1972
2015/04/30,1972,1985,1896,1920,237700,1920
2015/05/01,1920,1928,1874,1890,107900,1890
2015/05/07,1905,1907,1857,1882,97600,1882
2015/05/08,1890,1902,1860,1867,103400,1867
2015/05/11,1902,1930,1889,1912,111000,1912
2015/05/12,1893,1899,1870,1890,70200,1890
2015/05/13,1885,1888,1855,1865,82300,1865
2015/05/14,1861,1870,1842,1846,79800,1846
2015/05/15,1842,1858,1842,1858,43300,1858
2015/05/18,1860,1876,1851,1874,67400,1874
2015/05/19,1870,1875,1852,1856,107500,1856
2015/05/20,1864,1880,1846,1877,109100,1877
2015/05/21,1880,1880,1853,1866,77900,1866
2015/05/22,1874,1879,1856,1877,61300,1877
2015/05/25,1879,1899,1875,1895,44500,1895
2015/05/26,1895,1928,1895,1919,81300,1919
2015/05/27,1914,1915,1871,1880,122500,1880
2015/05/28,1890,1898,1868,1870,73000,1870
2015/05/29,1883,1886,1866,1873,68400,1873
2015/06/01,1885,1919,1885,1896,72500,1896
2015/06/02,1900,1903,1875,1891,50600,1891
2015/06/03,1871,1889,1867,1882,81700,1882
2015/06/04,1882,1898,1880,1893,37500,1893
2015/06/05,1889,1902,1871,1878,117500,1878
2015/06/08,1881,1905,1874,1899,62400,1899
2015/06/09,1915,1915,1875,1875,87200,1875
2015/06/10,1875,1884,1858,1859,69500,1859
2015/06/11,1870,1877,1865,1876,40500,1876
2015/06/12,1890,1898,1877,1886,112100,1886
2015/06/15,1876,1883,1865,1869,51000,1869
2015/06/16,1871,1889,1871,1871,77700,1871
2015/06/17,1872,1875,1862,1865,64000,1865
2015/06/18,1865,1869,1851,1855,64500,1855
2015/06/19,1865,1868,1832,1832,136800,1832
2015/06/22,1851,1859,1842,1852,69300,1852
2015/06/23,1868,1868,1852,1867,63800,1867
2015/06/24,1898,1900,1881,1885,76800,1885
2015/06/25,1883,1890,1875,1879,33000,1879
2015/06/26,1878,1897,1876,1891,52500,1891
2015/06/29,1810,1874,1810,1844,89900,1844
2015/06/30,1864,1865,1837,1841,61600,1841
2015/07/01,1861,1874,1846,1855,68400,1855
