2011/01/04,700,705,698,705,2400,705
2011/01/05,708,708,705,707,1400,707
2011/01/06,707,709,707,709,4100,709
2011/01/07,713,713,709,711,2900,711
2011/01/11,712,720,711,720,4500,720
2011/01/12,718,720,706,706,7400,706
2011/01/13,714,718,714,715,1500,715
2011/01/14,718,718,715,717,2100,717
2011/01/17,719,720,717,720,3500,720
2011/01/18,720,725,720,725,9800,725
2011/01/19,726,731,725,731,4300,731
2011/01/20,740,740,720,726,22100,726
2011/01/21,728,728,722,722,2000,722
2011/01/24,736,736,722,726,1200,726
2011/01/25,726,730,724,727,3700,727
2011/01/26,723,736,720,725,8100,725
2011/01/27,727,735,727,733,6300,733
2011/01/28,730,734,730,731,3000,731
2011/01/31,731,733,730,731,4000,731
2011/02/01,731,734,706,710,13300,710
2011/02/02,711,713,688,688,18700,688
2011/02/03,700,710,700,702,6900,702
2011/02/04,700,705,699,705,6200,705
2011/02/07,711,715,708,715,4800,715
2011/02/08,715,720,711,719,9200,719
2011/02/09,720,724,720,722,5800,722
2011/02/10,722,725,720,723,9200,723
2011/02/14,720,723,720,723,6200,723
2011/02/15,723,725,722,722,9100,722
2011/02/16,721,724,719,720,13700,720
2011/02/17,720,725,720,720,10300,720
2011/02/18,720,723,720,722,14100,722
2011/02/21,720,722,720,721,21000,721
2011/02/22,720,721,682,700,37400,700
2011/02/23,700,716,700,716,19200,716
2011/02/24,650,655,640,645,41800,645
2011/02/25,646,654,640,654,13500,654
2011/02/28,658,664,650,655,4100,655
2011/03/01,657,657,646,647,7500,647
2011/03/02,648,648,645,646,4200,646
2011/03/03,646,646,636,637,7300,637
2011/03/04,640,640,633,633,6700,633
2011/03/07,633,640,633,633,6200,633
2011/03/08,631,640,620,640,6100,640
2011/03/09,640,644,639,639,1500,639
2011/03/10,639,639,624,636,5600,636
2011/03/11,630,630,623,623,3400,623
2011/03/14,523,585,523,551,12100,551
2011/03/15,551,555,451,463,19000,463
2011/03/16,451,520,451,509,13300,509
2011/03/17,529,530,495,530,7700,530
2011/03/18,540,585,540,580,8700,580
2011/03/22,589,605,580,590,5600,590
2011/03/23,590,614,579,600,9500,600
2011/03/24,601,623,601,605,9000,605
2011/03/25,638,645,630,645,12100,645
2011/03/28,690,700,672,675,30500,675
2011/03/29,675,703,662,702,20100,702
2011/03/30,702,714,695,700,13500,700
2011/03/31,700,710,690,705,20900,705
2011/04/01,711,714,704,714,14700,714
2011/04/04,715,720,714,715,18400,715
2011/04/05,709,709,685,700,17400,700
2011/04/06,690,691,675,689,11800,689
2011/04/07,689,698,689,696,10400,696
2011/04/08,682,682,661,661,19000,661
2011/04/11,660,660,625,640,14200,640
2011/04/12,610,620,601,607,10200,607
2011/04/13,594,624,594,624,6500,624
2011/04/14,615,625,594,600,10000,600
2011/04/15,610,620,605,620,2800,620
2011/04/18,625,638,625,637,2500,637
2011/04/19,637,639,633,639,7300,639
2011/04/20,636,664,636,649,2900,649
2011/04/21,660,664,650,650,3300,650
2011/04/22,660,663,656,656,2600,656
2011/04/25,669,670,660,660,4100,660
2011/04/26,660,670,660,660,2800,660
2011/04/27,664,670,664,670,1200,670
2011/04/28,652,669,652,669,800,669
2011/05/02,660,668,660,667,1300,667
2011/05/06,654,657,653,657,4000,657
2011/05/09,663,664,660,663,800,663
2011/05/10,663,663,660,660,900,660
2011/05/11,665,670,662,668,3500,668
2011/05/12,669,669,661,667,1200,667
2011/05/13,666,668,661,664,1200,664
2011/05/16,664,665,664,665,5300,665
2011/05/17,666,666,645,649,7200,649
2011/05/18,652,652,651,651,1200,651
2011/05/19,659,659,652,658,500,658
2011/05/20,659,659,659,659,100,659
2011/05/23,650,653,640,640,2100,640
2011/05/24,640,640,630,630,2700,630
2011/05/25,631,631,631,631,200,631
2011/05/26,635,635,630,630,1400,630
2011/05/27,630,643,630,630,1100,630
2011/05/30,630,654,630,632,1900,632
2011/05/31,644,644,634,640,300,640
2011/06/01,659,659,631,631,3600,631
2011/06/02,631,635,630,630,1400,630
2011/06/03,640,640,640,640,400,640
2011/06/06,632,640,632,632,500,632
2011/06/07,629,630,629,630,1000,630
2011/06/08,631,637,630,635,1600,635
2011/06/09,637,637,626,626,1200,626
2011/06/10,630,636,630,635,300,635
2011/06/13,640,640,630,630,1600,630
2011/06/14,631,638,631,631,800,631
2011/06/15,640,657,640,657,5400,657
2011/06/16,657,660,657,660,12100,660
2011/06/17,661,666,646,657,8000,657
2011/06/20,663,665,662,665,2100,665
2011/06/21,665,666,665,666,2700,666
2011/06/22,666,666,655,655,600,655
2011/06/23,660,660,655,660,600,660
2011/06/24,664,664,664,664,400,664
2011/06/27,664,665,660,664,4700,664
2011/06/28,660,660,640,640,5200,640
2011/06/29,642,650,642,650,800,650
2011/06/30,650,657,647,657,300,657
2011/07/01,657,659,650,655,2000,655
2011/07/04,655,658,653,657,1000,657
2011/07/05,659,667,658,667,7500,667
2011/07/06,667,668,654,654,800,654
2011/07/07,655,675,655,675,14100,675
2011/07/08,678,695,678,695,12400,695
2011/07/11,695,710,678,710,16800,710
2011/07/12,690,727,679,720,51600,720
2011/07/13,710,729,707,729,20200,729
2011/07/14,730,738,711,738,15000,738
2011/07/15,738,742,722,734,10900,734
2011/07/19,735,735,677,700,18800,700
2011/07/20,708,722,700,721,5300,721
2011/07/21,715,728,710,724,4400,724
2011/07/22,723,723,707,707,1800,707
2011/07/25,707,708,707,707,1900,707
2011/07/26,706,716,705,714,3700,714
2011/07/27,700,719,700,719,3200,719
2011/07/28,700,709,700,708,1900,708
2011/07/29,695,708,692,705,5100,705
2011/08/01,691,713,691,713,3600,713
2011/08/02,715,718,713,717,1000,717
2011/08/03,705,713,700,701,1400,701
2011/08/04,715,715,695,700,3200,700
2011/08/05,688,706,680,695,4000,695
2011/08/08,695,696,670,680,3100,680
2011/08/09,664,670,649,670,5600,670
2011/08/10,690,700,680,681,6000,681
2011/08/11,680,680,672,672,1800,672
2011/08/12,673,680,673,677,500,677
2011/08/15,681,695,681,695,1900,695
2011/08/16,695,698,680,690,4800,690
2011/08/17,697,698,686,697,700,697
2011/08/18,698,698,680,680,2900,680
2011/08/19,680,690,680,682,600,682
2011/08/22,680,680,680,680,200,680
2011/08/23,680,692,680,681,500,681
2011/08/24,683,691,673,678,8900,678
2011/08/25,678,684,675,684,1500,684
2011/08/26,688,688,681,681,400,681
2011/08/29,687,691,680,680,3400,680
2011/08/30,690,691,690,690,1800,690
2011/08/31,690,695,690,695,7000,695
2011/09/01,686,686,682,682,200,682
2011/09/02,680,685,680,685,800,685
2011/09/05,685,688,682,687,1100,687
2011/09/06,685,685,680,684,2700,684
2011/09/07,687,689,680,689,1600,689
2011/09/08,695,695,683,691,2200,691
2011/09/09,688,688,675,686,2700,686
2011/09/12,689,689,670,680,2500,680
2011/09/13,678,678,675,675,400,675
2011/09/14,677,679,675,675,300,675
2011/09/15,675,684,675,684,2800,684
2011/09/16,684,684,660,671,6100,671
2011/09/20,683,683,665,674,400,674
2011/09/21,673,678,668,670,700,670
2011/09/22,679,685,679,679,2400,679
2011/09/26,685,685,672,672,3400,672
2011/09/27,670,675,661,669,3200,669
2011/09/28,679,679,670,670,2000,670
2011/09/29,670,685,670,683,3200,683
2011/09/30,678,700,678,700,6400,700
2011/10/03,691,706,686,696,1700,696
2011/10/04,690,691,686,688,3100,688
2011/10/05,691,700,691,695,3400,695
2011/10/06,698,707,698,707,4700,707
2011/10/07,725,733,710,730,16700,730
2011/10/11,735,735,720,720,4700,720
2011/10/12,699,708,695,705,2700,705
2011/10/13,692,701,691,699,5300,699
2011/10/14,695,695,690,690,6600,690
2011/10/17,690,693,690,690,3100,690
2011/10/18,690,693,690,690,1200,690
2011/10/19,685,689,679,682,3700,682
2011/10/20,668,680,668,677,3000,677
2011/10/21,669,680,668,680,1600,680
2011/10/24,675,675,675,675,100,675
2011/10/25,675,678,675,678,1000,678
2011/10/26,678,681,678,680,400,680
2011/10/27,690,710,680,708,4000,708
2011/10/28,691,708,689,708,5100,708
2011/10/31,696,709,696,709,4000,709
2011/11/01,709,709,707,707,200,707
2011/11/02,692,698,690,698,1900,698
2011/11/04,698,699,698,698,400,698
2011/11/07,696,696,686,690,1100,690
2011/11/08,683,686,680,680,2800,680
2011/11/09,680,690,678,680,2900,680
2011/11/10,678,691,672,674,2100,674
2011/11/11,673,677,673,677,300,677
2011/11/14,687,691,678,678,2300,678
2011/11/15,678,679,678,679,2300,679
2011/11/16,683,683,679,679,400,679
2011/11/17,685,686,681,681,500,681
2011/11/18,704,704,683,683,1900,683
2011/11/21,683,683,683,683,400,683
2011/11/22,690,690,680,680,900,680
2011/11/24,678,678,678,678,800,678
2011/11/25,686,699,656,696,4300,696
2011/11/28,696,696,686,686,400,686
2011/11/29,686,703,686,702,2400,702
2011/11/30,680,705,672,705,5300,705
2011/12/01,703,703,696,696,400,696
2011/12/02,692,694,691,691,500,691
2011/12/05,694,694,681,691,1600,691
2011/12/06,692,692,689,690,1200,690
2011/12/07,690,693,690,693,3100,693
2011/12/08,693,693,677,677,6800,677
2011/12/09,689,689,677,682,5000,682
2011/12/12,682,684,681,681,5700,681
2011/12/13,685,685,683,683,800,683
2011/12/14,689,690,688,690,2200,690
2011/12/15,690,694,690,694,5100,694
2011/12/16,696,696,685,685,1500,685
2011/12/19,692,693,682,682,1700,682
2011/12/20,685,685,680,680,2300,680
2011/12/21,683,683,682,682,1000,682
2011/12/22,682,695,680,695,3300,695
2011/12/26,695,700,685,700,4200,700
2011/12/27,700,710,700,710,4000,710
2011/12/28,700,712,698,701,3300,701
2011/12/29,706,708,698,698,400,698
2011/12/30,705,708,699,707,1700,707
2012/01/04,707,711,705,708,2600,708
2012/01/05,713,713,705,705,1700,705
2012/01/06,706,713,703,703,2500,703
2012/01/10,704,704,700,700,3300,700
2012/01/11,700,700,697,697,1800,697
2012/01/12,711,713,709,713,3400,713
2012/01/13,712,712,702,706,3100,706
2012/01/16,706,713,706,712,1700,712
2012/01/17,712,719,712,719,2500,719
2012/01/18,720,722,719,722,1500,722
2012/01/19,724,725,720,720,1600,720
2012/01/20,722,723,710,710,2400,710
2012/01/23,715,715,708,710,700,710
2012/01/24,714,722,709,722,2400,722
2012/01/25,722,726,711,711,3300,711
2012/01/26,720,725,720,725,2000,725
2012/01/27,725,726,723,725,3200,725
2012/01/30,734,735,732,735,3900,735
2012/01/31,738,742,735,742,6700,742
2012/02/01,742,742,738,738,1300,738
2012/02/02,738,740,725,726,3400,726
2012/02/03,726,737,726,735,700,735
2012/02/06,737,740,735,740,4500,740
2012/02/07,738,740,736,738,3100,738
2012/02/08,738,738,730,736,2500,736
2012/02/09,736,737,733,735,1200,735
2012/02/10,730,742,730,740,2100,740
2012/02/13,739,739,733,734,1500,734
2012/02/14,736,742,730,738,3900,738
2012/02/15,738,739,734,739,4800,739
2012/02/16,739,739,733,733,2900,733
2012/02/17,733,735,732,735,1600,735
2012/02/20,739,740,735,740,37100,740
2012/02/21,740,740,737,739,4000,739
2012/02/22,739,742,738,742,4600,742
2012/02/23,745,749,740,745,5700,745
2012/02/24,745,748,731,746,13300,746
2012/02/27,680,712,680,699,22600,699
2012/02/28,702,704,700,704,2400,704
2012/02/29,703,711,700,710,7600,710
2012/03/01,710,710,700,700,2600,700
2012/03/02,700,700,699,700,1000,700
2012/03/05,701,701,700,700,900,700
2012/03/06,700,708,698,698,1100,698
2012/03/07,698,699,692,692,2800,692
2012/03/08,692,696,688,696,10200,696
2012/03/09,700,700,694,695,1800,695
2012/03/12,701,701,690,690,5900,690
2012/03/13,691,692,690,690,1600,690
2012/03/14,691,691,687,690,2800,690
2012/03/15,691,691,690,690,4000,690
2012/03/16,690,691,690,690,2100,690
2012/03/19,690,697,690,690,1500,690
2012/03/21,690,696,690,691,2600,691
2012/03/22,691,692,690,690,3400,690
2012/03/23,690,693,690,690,1400,690
2012/03/26,690,694,690,690,1800,690
2012/03/27,690,692,689,690,1100,690
2012/03/28,694,697,693,694,5500,694
2012/03/29,696,697,690,690,7300,690
2012/03/30,692,697,692,695,1700,695
2012/04/02,696,697,691,691,4100,691
2012/04/03,695,697,695,697,1000,697
2012/04/04,693,697,693,696,400,696
2012/04/05,695,695,691,693,2100,693
2012/04/06,693,696,690,696,2600,696
2012/04/09,694,698,694,697,1900,697
2012/04/10,696,751,692,739,39400,739
2012/04/11,734,735,726,731,9800,731
2012/04/12,731,731,727,729,6200,729
2012/04/13,729,730,722,724,7300,724
2012/04/16,727,734,726,734,4500,734
2012/04/17,735,740,734,734,10400,734
2012/04/18,734,739,734,734,3000,734
2012/04/19,733,737,733,736,900,736
2012/04/20,736,742,731,739,4400,739
2012/04/23,742,742,736,737,3800,737
2012/04/24,737,737,722,737,4100,737
2012/04/25,737,740,716,719,7200,719
2012/04/26,724,735,724,733,3000,733
2012/04/27,735,735,734,735,2700,735
2012/05/01,738,744,736,736,8200,736
2012/05/02,743,747,742,745,6200,745
2012/05/07,747,750,740,750,6500,750
2012/05/08,750,750,745,749,4300,749
2012/05/09,749,749,731,744,1400,744
2012/05/10,730,739,728,734,5400,734
2012/05/11,736,736,728,729,700,729
2012/05/14,735,735,724,731,2800,731
2012/05/15,731,731,719,726,4500,726
2012/05/16,720,724,717,720,1100,720
2012/05/17,735,735,724,725,1300,725
2012/05/18,725,725,720,725,1700,725
2012/05/21,720,725,712,724,1700,724
2012/05/22,720,727,712,713,3800,713
2012/05/23,711,723,711,723,800,723
2012/05/24,711,723,711,723,900,723
2012/05/25,723,723,723,723,700,723
2012/05/28,733,733,722,722,1000,722
2012/05/29,722,731,713,730,1200,730
2012/05/30,730,731,720,720,1700,720
2012/05/31,730,730,720,720,200,720
2012/06/01,711,715,711,711,2000,711
2012/06/04,710,718,706,710,1800,710
2012/06/05,706,713,706,709,1400,709
2012/06/06,710,720,710,720,300,720
2012/06/07,718,728,715,719,2300,719
2012/06/08,720,720,714,714,700,714
2012/06/11,716,720,713,715,2700,715
2012/06/12,717,718,716,716,2100,716
2012/06/13,718,719,716,716,2000,716
2012/06/14,716,718,708,718,3600,718
2012/06/15,719,725,718,718,19600,718
2012/06/18,724,728,724,727,1700,727
2012/06/19,727,727,727,727,800,727
2012/06/20,727,728,726,726,500,726
2012/06/21,729,729,726,726,2300,726
2012/06/22,727,728,727,728,300,728
2012/06/25,728,729,720,728,2300,728
2012/06/26,729,729,729,729,100,729
2012/06/27,728,730,720,720,2700,720
2012/06/28,726,727,726,727,1100,727
2012/06/29,727,730,724,730,600,730
2012/07/02,731,731,720,730,3900,730
2012/07/03,730,747,730,747,1800,747
2012/07/04,733,746,730,731,2500,731
2012/07/05,731,744,731,743,1600,743
2012/07/06,743,743,738,740,1800,740
2012/07/09,740,744,734,735,1200,735
2012/07/10,735,743,730,743,1800,743
2012/07/11,745,745,740,744,2100,744
2012/07/12,738,739,725,735,2100,735
2012/07/13,737,743,735,741,2400,741
2012/07/17,741,741,730,730,5300,730
2012/07/18,730,736,730,734,400,734
2012/07/19,733,733,720,725,6200,725
2012/07/20,723,725,718,725,2200,725
2012/07/23,729,729,727,727,500,727
2012/07/24,725,730,705,720,5900,720
2012/07/25,733,733,708,724,3300,724
2012/07/26,716,723,712,723,1500,723
2012/07/27,728,729,728,729,200,729
2012/07/30,726,730,713,720,1400,720
2012/07/31,715,720,715,720,1000,720
2012/08/01,716,725,711,725,3300,725
2012/08/02,728,728,710,720,4600,720
2012/08/03,713,719,713,719,700,719
2012/08/06,722,727,711,727,2800,727
2012/08/07,721,721,721,721,100,721
2012/08/08,721,727,720,727,1100,727
2012/08/09,728,728,721,728,400,728
2012/08/10,728,730,720,730,2200,730
2012/08/13,730,733,729,729,800,729
2012/08/14,729,732,729,732,1800,732
2012/08/15,732,732,732,732,3400,732
2012/08/16,733,733,730,732,800,732
2012/08/17,733,733,730,730,600,730
2012/08/20,732,735,732,735,1400,735
2012/08/21,735,739,725,738,8500,738
2012/08/22,738,738,735,736,700,736
2012/08/23,737,737,733,737,300,737
2012/08/24,738,738,738,738,100,738
2012/08/27,738,739,730,739,4800,739
2012/08/28,738,738,737,738,1000,738
2012/08/29,737,737,725,736,9800,736
2012/08/30,725,736,725,736,600,736
2012/08/31,737,737,731,736,400,736
2012/09/03,736,736,731,734,1400,734
2012/09/04,737,738,726,737,3400,737
2012/09/05,728,738,728,738,400,738
2012/09/06,735,735,720,729,16200,729
2012/09/07,725,731,725,731,400,731
2012/09/10,724,730,720,728,2800,728
2012/09/11,728,733,724,726,2100,726
2012/09/12,723,727,720,726,4400,726
2012/09/13,726,732,726,731,4800,731
2012/09/14,731,732,730,730,700,730
2012/09/18,730,732,730,732,3600,732
2012/09/19,732,733,728,733,1300,733
2012/09/20,733,734,730,734,900,734
2012/09/21,733,736,733,736,1000,736
2012/09/24,737,738,726,735,4200,735
2012/09/25,735,735,725,732,3000,732
2012/09/26,733,733,723,732,4400,732
2012/09/27,730,734,730,734,800,734
2012/09/28,728,733,728,733,400,733
2012/10/01,735,735,725,726,4100,726
2012/10/02,733,734,730,730,1100,730
2012/10/03,730,733,730,731,600,731
2012/10/04,731,734,731,734,1600,734
2012/10/05,734,739,732,739,3100,739
2012/10/09,730,730,720,730,5200,730
2012/10/10,729,730,729,730,700,730
2012/10/11,730,731,727,730,2500,730
2012/10/12,726,731,725,731,900,731
2012/10/15,731,735,731,735,3400,735
2012/10/16,729,733,725,733,2300,733
2012/10/17,734,734,731,733,300,733
2012/10/18,729,733,729,732,1100,732
2012/10/19,732,733,729,732,2600,732
2012/10/22,732,734,732,733,400,733
2012/10/23,733,733,726,731,1400,731
2012/10/24,730,730,730,730,300,730
2012/10/25,730,732,730,731,400,731
2012/10/26,731,732,726,731,2800,731
2012/10/29,728,733,728,728,2700,728
2012/10/30,728,729,728,729,400,729
2012/10/31,737,737,730,731,2500,731
2012/11/01,733,733,725,733,4400,733
2012/11/02,733,735,733,734,2100,734
2012/11/05,735,736,735,736,1600,736
2012/11/06,736,736,732,736,1200,736
2012/11/07,736,736,734,736,1000,736
2012/11/08,736,736,733,734,1700,734
2012/11/09,731,735,731,735,500,735
2012/11/12,734,736,733,736,1200,736
2012/11/13,736,736,730,735,1600,735
2012/11/14,735,735,732,732,1300,732
2012/11/15,733,735,733,735,300,735
2012/11/16,735,737,735,737,3400,737
2012/11/19,738,738,737,737,1000,737
2012/11/20,738,738,736,736,1500,736
2012/11/21,737,738,737,738,1800,738
2012/11/22,736,739,736,738,900,738
2012/11/26,739,740,738,738,3200,738
2012/11/27,740,740,739,739,900,739
2012/11/28,740,741,740,741,1100,741
2012/11/29,741,741,738,741,3000,741
2012/11/30,742,742,740,741,2100,741
2012/12/03,743,745,742,745,3600,745
2012/12/04,746,747,745,746,3200,746
2012/12/05,747,747,746,747,1800,747
2012/12/06,747,749,746,749,4000,749
2012/12/07,750,750,748,748,2100,748
2012/12/10,750,750,749,750,2300,750
2012/12/11,750,751,748,751,7900,751
2012/12/12,748,750,739,743,9300,743
2012/12/13,745,748,742,748,2700,748
2012/12/14,744,747,741,746,3700,746
2012/12/17,751,752,749,750,6000,750
2012/12/18,750,751,750,751,1200,751
2012/12/19,751,752,748,750,6000,750
2012/12/20,751,751,751,751,1000,751
2012/12/21,751,758,750,757,5800,757
2012/12/25,757,759,757,757,4000,757
2012/12/26,760,766,759,766,4700,766
2012/12/27,770,777,768,776,9800,776
2012/12/28,780,780,778,778,6000,778
2013/01/04,785,793,781,792,9200,792
2013/01/07,793,799,792,799,16300,799
2013/01/08,797,810,797,810,11000,810
2013/01/09,825,830,812,825,7200,825
2013/01/10,830,874,823,840,29200,840
2013/01/11,840,843,812,819,38300,819
2013/01/15,819,828,819,824,8200,824
2013/01/16,837,837,824,827,4900,827
2013/01/17,824,830,824,825,7200,825
2013/01/18,828,832,825,826,6600,826
2013/01/21,831,835,827,835,9600,835
2013/01/22,837,843,837,839,6300,839
2013/01/23,850,850,830,841,13300,841
2013/01/24,840,843,835,841,4900,841
2013/01/25,842,845,840,840,6800,840
2013/01/28,846,857,841,851,8500,851
2013/01/29,855,866,853,866,6500,866
2013/01/30,870,870,865,866,8000,866
2013/01/31,870,879,870,875,5000,875
2013/02/01,886,894,878,892,8000,892
2013/02/04,893,894,888,892,8200,892
2013/02/05,893,893,881,887,7000,887
2013/02/06,885,887,882,882,7500,882
2013/02/07,883,885,876,878,11600,878
2013/02/08,877,877,868,871,9100,871
2013/02/12,868,871,861,863,15500,863
2013/02/13,860,868,860,861,10800,861
2013/02/14,859,859,840,845,14400,845
2013/02/15,845,846,835,837,7600,837
2013/02/18,836,843,830,830,15400,830
2013/02/19,830,844,830,833,10200,833
2013/02/20,840,865,840,856,18600,856
2013/02/21,859,867,859,862,10800,862
2013/02/22,865,870,863,868,11500,868
2013/02/25,873,884,871,878,30900,878
2013/02/26,798,823,781,815,37100,815
2013/02/27,818,818,811,813,8700,813
2013/02/28,813,817,808,809,4300,809
2013/03/01,811,813,807,809,6500,809
2013/03/04,807,807,800,802,9600,802
2013/03/05,800,800,797,798,7700,798
2013/03/06,797,798,779,788,21100,788
2013/03/07,780,783,777,780,13200,780
2013/03/08,780,785,778,783,7500,783
2013/03/11,796,796,782,788,6700,788
2013/03/12,789,792,789,791,6200,791
2013/03/13,791,792,790,791,3900,791
2013/03/14,798,800,792,794,6500,794
2013/03/15,800,805,796,801,6700,801
2013/03/18,802,803,801,803,4500,803
2013/03/19,805,805,800,801,8100,801
2013/03/21,812,820,803,806,5700,806
2013/03/22,814,814,804,806,4500,806
2013/03/25,807,810,804,809,6800,809
2013/03/26,815,817,806,806,1400,806
2013/03/27,806,809,804,804,3800,804
2013/03/28,810,811,807,807,2500,807
2013/03/29,810,810,804,810,4300,810
2013/04/01,806,806,796,796,6500,796
2013/04/02,781,795,778,795,8200,795
2013/04/03,794,795,778,794,3500,794
2013/04/04,793,793,785,785,2700,785
2013/04/05,785,798,785,788,3600,788
2013/04/08,796,801,788,796,5800,796
2013/04/09,798,811,798,811,6400,811
2013/04/10,811,812,808,809,7200,809
2013/04/11,810,813,801,813,5000,813
2013/04/12,816,820,809,820,4500,820
2013/04/15,820,823,820,821,2600,821
2013/04/16,818,818,812,815,1200,815
2013/04/17,818,818,814,815,600,815
2013/04/18,815,816,813,813,1500,813
2013/04/19,816,818,813,818,2000,818
2013/04/22,820,820,816,816,1700,816
2013/04/23,819,821,816,816,2800,816
2013/04/24,820,830,820,821,3500,821
2013/04/25,830,830,823,825,1500,825
2013/04/26,826,828,825,828,3200,828
2013/04/30,825,828,820,828,6200,828
2013/05/01,831,831,827,828,2500,828
2013/05/02,835,835,829,834,2400,834
2013/05/07,848,860,836,852,12900,852
2013/05/08,852,855,850,850,5400,850
2013/05/09,851,855,850,851,2800,851
2013/05/10,855,855,850,851,2800,851
2013/05/13,852,856,848,848,13600,848
2013/05/14,848,851,840,842,4600,842
2013/05/15,846,846,838,838,6900,838
2013/05/16,840,847,831,835,6100,835
2013/05/17,835,856,835,850,3500,850
2013/05/20,870,919,870,893,37500,893
2013/05/21,878,896,878,882,10500,882
2013/05/22,894,896,874,876,4300,876
2013/05/23,876,885,860,870,6400,870
2013/05/24,855,882,855,856,5700,856
2013/05/27,856,860,844,844,8300,844
2013/05/28,846,850,843,843,3400,843
2013/05/29,850,858,847,858,1400,858
2013/05/30,855,855,847,847,2200,847
2013/05/31,847,847,840,847,4400,847
2013/06/03,847,847,835,838,1500,838
2013/06/04,839,839,825,828,5300,828
2013/06/05,838,838,825,825,3500,825
2013/06/06,823,825,812,812,3300,812
2013/06/07,800,805,790,801,7700,801
2013/06/10,801,819,801,819,3200,819
2013/06/11,828,828,822,822,1600,822
2013/06/12,825,825,823,825,1200,825
2013/06/13,825,827,822,827,1300,827
2013/06/14,828,834,825,834,1000,834
2013/06/17,834,848,834,848,6100,848
2013/06/18,848,860,848,860,4700,860
2013/06/19,860,860,860,860,4500,860
2013/06/20,880,880,860,860,4400,860
2013/06/21,860,865,840,844,2600,844
2013/06/24,845,865,843,843,700,843
2013/06/25,844,847,839,839,1700,839
2013/06/26,835,835,831,831,1900,831
2013/06/27,831,831,825,826,2400,826
2013/06/28,834,839,833,835,2700,835
2013/07/01,860,860,840,850,1600,850
2013/07/02,855,860,854,855,2100,855
2013/07/03,866,867,851,860,1700,860
2013/07/04,855,860,850,859,2500,859
2013/07/05,856,860,850,856,2000,856
2013/07/08,862,862,855,859,4300,859
2013/07/09,860,862,852,860,3500,860
2013/07/10,863,863,856,861,2500,861
2013/07/11,864,866,861,861,4300,861
2013/07/12,861,866,861,863,2300,863
2013/07/16,865,868,865,867,1500,867
2013/07/17,874,874,870,871,3000,871
2013/07/18,871,872,870,870,3400,870
2013/07/19,865,868,865,866,1900,866
2013/07/22,865,870,865,870,1600,870
2013/07/23,870,870,865,865,1200,865
2013/07/24,871,871,865,865,600,865
2013/07/25,865,880,865,880,7100,880
2013/07/26,880,880,861,878,2500,878
2013/07/29,874,874,861,874,1900,874
2013/07/30,875,877,861,861,1800,861
2013/07/31,878,878,861,861,900,861
2013/08/01,861,863,856,856,2100,856
2013/08/02,861,861,856,860,800,860
2013/08/05,860,864,856,857,1800,857
2013/08/06,866,866,860,860,1400,860
2013/08/07,860,865,855,855,1300,855
2013/08/08,865,865,853,853,1200,853
2013/08/09,851,851,850,850,3100,850
2013/08/12,850,851,850,851,400,851
2013/08/13,850,856,850,856,1000,856
2013/08/14,856,860,850,855,1100,855
2013/08/15,855,856,855,855,1200,855
2013/08/16,855,855,850,850,1900,850
2013/08/19,850,855,850,854,1100,854
2013/08/20,859,859,850,858,800,858
2013/08/21,858,859,855,859,1300,859
2013/08/22,859,859,856,856,1000,856
2013/08/23,855,855,850,850,1200,850
2013/08/26,850,852,850,851,1000,851
2013/08/27,855,859,852,859,400,859
2013/08/28,859,859,850,850,1400,850
2013/08/29,850,858,845,858,2700,858
2013/08/30,850,852,845,845,900,845
2013/09/02,857,857,850,850,300,850
2013/09/03,858,858,850,850,2400,850
2013/09/04,850,850,849,850,400,850
2013/09/05,849,857,849,857,1000,857
2013/09/06,851,851,850,850,1200,850
2013/09/09,850,851,848,849,3900,849
2013/09/10,856,856,846,846,3300,846
2013/09/11,851,859,850,850,1000,850
2013/09/12,852,857,850,850,2100,850
2013/09/13,857,857,857,857,400,857
2013/09/17,857,859,857,857,4900,857
2013/09/18,859,859,857,858,1500,858
2013/09/19,858,859,855,859,1800,859
2013/09/20,859,859,858,858,1300,858
2013/09/24,858,860,855,858,4300,858
2013/09/25,858,861,858,859,1800,859
2013/09/26,859,861,859,860,3000,860
2013/09/27,862,878,861,874,5200,874
2013/09/30,875,875,870,872,2400,872
2013/10/01,875,875,871,871,1700,871
2013/10/02,875,875,868,868,4300,868
2013/10/03,876,876,870,873,2100,873
2013/10/04,876,876,866,876,3000,876
2013/10/07,876,878,860,877,3300,877
2013/10/08,873,874,870,874,1700,874
2013/10/09,870,876,867,876,2900,876
2013/10/10,876,908,870,870,15300,870
2013/10/11,870,875,870,875,3000,875
2013/10/15,875,875,871,872,3600,872
2013/10/16,872,872,868,870,3700,870
2013/10/17,870,872,868,872,5700,872
2013/10/18,871,874,871,874,1800,874
2013/10/21,875,878,874,878,5100,878
2013/10/22,878,878,877,878,2000,878
2013/10/23,878,880,877,877,1800,877
2013/10/24,878,880,876,879,1600,879
2013/10/25,879,883,878,880,4100,880
2013/10/28,895,895,887,887,2400,887
2013/10/29,890,897,888,896,2800,896
2013/10/30,896,904,888,904,5000,904
2013/10/31,903,910,903,907,3400,907
2013/11/01,907,907,888,903,2100,903
2013/11/05,900,901,895,901,1700,901
2013/11/06,900,900,896,896,2800,896
2013/11/07,902,906,900,901,3100,901
2013/11/08,900,900,891,892,2000,892
2013/11/11,893,896,893,893,1500,893
2013/11/12,901,901,893,893,1600,893
2013/11/13,895,910,895,904,6300,904
2013/11/14,908,908,898,900,2700,900
2013/11/15,902,905,901,901,2700,901
2013/11/18,905,909,903,906,2100,906
2013/11/19,907,908,906,906,3300,906
2013/11/20,909,909,905,907,2700,907
2013/11/21,909,910,907,908,2500,908
2013/11/22,909,912,909,911,6700,911
2013/11/25,915,915,912,914,5100,914
2013/11/26,915,918,914,918,3500,918
2013/11/27,919,930,916,924,5900,924
2013/11/28,934,949,934,942,7300,942
2013/11/29,942,970,941,961,17200,961
2013/12/02,970,998,968,997,10800,997
2013/12/03,1000,1019,999,1001,15000,1001
2013/12/04,1000,1000,973,990,8800,990
2013/12/05,985,997,980,983,7200,983
2013/12/06,973,978,958,960,9800,960
2013/12/09,982,982,950,951,12800,951
2013/12/10,951,973,950,965,5900,965
2013/12/11,978,980,965,979,4400,979
2013/12/12,977,985,976,982,4100,982
2013/12/13,983,985,980,981,2900,981
2013/12/16,981,985,970,970,6900,970
2013/12/17,975,980,973,973,6600,973
2013/12/18,980,980,950,966,5200,966
2013/12/19,958,976,958,960,3300,960
2013/12/20,961,969,960,969,7600,969
2013/12/24,969,969,955,955,10500,955
2013/12/25,955,957,950,956,5600,956
2013/12/26,969,1020,969,1020,15700,1020
2013/12/27,1014,1015,980,1000,12800,1000
2013/12/30,1000,1015,1000,1011,5000,1011
2014/01/06,1029,1029,1011,1012,7000,1012
2014/01/07,1015,1028,1015,1021,4900,1021
2014/01/08,1030,1033,1021,1025,5100,1025
2014/01/09,1025,1037,1025,1034,3900,1034
2014/01/10,1036,1057,1035,1055,8400,1055
2014/01/14,1070,1070,1040,1060,14000,1060
2014/01/15,1060,1065,1033,1044,10300,1044
2014/01/16,1044,1065,1044,1064,8500,1064
2014/01/17,1065,1066,1055,1066,2900,1066
2014/01/20,1066,1067,1059,1059,4100,1059
2014/01/21,1061,1068,1060,1068,4200,1068
2014/01/22,1072,1078,1068,1075,6000,1075
2014/01/23,1080,1084,1080,1084,4900,1084
2014/01/24,1070,1075,1062,1075,6100,1075
2014/01/27,1050,1093,1030,1046,11000,1046
2014/01/28,1045,1080,1045,1065,3800,1065
2014/01/29,1080,1085,1066,1085,7100,1085
2014/01/30,1080,1080,1060,1071,3300,1071
2014/01/31,1079,1079,1065,1066,6000,1066
2014/02/03,1061,1075,1056,1060,5200,1060
2014/02/04,1043,1045,1016,1021,14300,1021
2014/02/05,1026,1030,1026,1028,4400,1028
2014/02/06,1030,1040,1030,1038,2600,1038
2014/02/07,1048,1058,1048,1057,1800,1057
2014/02/10,1066,1077,1065,1077,4900,1077
2014/02/12,1079,1079,1070,1078,6400,1078
2014/02/13,1081,1081,1055,1057,6700,1057
2014/02/14,1068,1068,1044,1052,5000,1052
2014/02/17,1060,1080,1060,1079,6200,1079
2014/02/18,1083,1083,1072,1081,5700,1081
2014/02/19,1082,1083,1070,1082,3100,1082
2014/02/20,1082,1084,1071,1080,4600,1080
2014/02/21,1070,1082,1067,1075,5000,1075
2014/02/24,1083,1084,1078,1082,8800,1082
2014/02/25,1082,1090,1080,1090,14100,1090
2014/02/26,999,1021,995,995,29600,995
2014/02/27,995,1004,985,985,9700,985
2014/02/28,985,999,984,984,8400,984
2014/03/03,979,979,966,975,5500,975
2014/03/04,960,980,960,980,5600,980
2014/03/05,980,980,965,972,2300,972
2014/03/06,960,975,960,962,4300,962
2014/03/07,960,968,960,962,3100,962
2014/03/10,962,971,962,970,2700,970
2014/03/11,970,971,951,954,3400,954
2014/03/12,954,959,951,952,4700,952
2014/03/13,952,953,952,953,500,953
2014/03/14,950,951,912,922,10700,922
2014/03/17,923,930,920,920,5100,920
2014/03/18,921,926,915,919,2600,919
2014/03/19,915,916,912,913,2100,913
2014/03/20,913,913,887,898,7500,898
2014/03/24,883,885,875,878,5600,878
2014/03/25,884,890,870,877,5400,877
2014/03/26,872,895,870,872,2300,872
2014/03/27,890,895,873,885,1500,885
2014/03/28,896,913,896,912,2100,912
2014/03/31,905,909,900,904,3600,904
2014/04/01,911,914,904,914,4100,914
2014/04/02,914,918,910,910,2700,910
2014/04/03,910,916,910,910,3200,910
2014/04/04,921,921,912,912,800,912
2014/04/07,910,910,909,909,2500,909
2014/04/08,925,929,925,929,1100,929
2014/04/09,927,927,910,912,2900,912
2014/04/10,927,927,905,906,1600,906
2014/04/11,916,916,903,915,1600,915
2014/04/14,905,926,900,926,1200,926
2014/04/15,926,929,926,926,2300,926
2014/04/16,925,925,903,923,700,923
2014/04/17,909,942,908,942,3200,942
2014/04/18,929,940,926,926,1000,926
2014/04/21,927,927,910,911,2000,911
2014/04/22,915,915,905,905,2100,905
2014/04/23,905,908,905,908,1700,908
2014/04/24,908,908,908,908,500,908
2014/04/25,909,963,909,950,9200,950
2014/04/28,951,951,936,937,1300,937
2014/04/30,931,931,925,925,2800,925
2014/05/01,938,938,923,935,1100,935
2014/05/02,932,938,930,937,1100,937
2014/05/07,937,952,935,938,3200,938
2014/05/08,950,950,930,944,2400,944
2014/05/09,944,944,931,942,500,942
2014/05/12,940,940,936,940,1300,940
2014/05/13,937,937,914,914,2200,914
2014/05/14,914,929,914,919,400,919
2014/05/15,919,920,919,920,1400,920
2014/05/16,920,925,920,922,1700,922
2014/05/19,926,927,922,923,2300,923
2014/05/20,927,927,922,922,2100,922
2014/05/21,922,922,918,920,1300,920
2014/05/26,920,922,920,921,800,921
2014/05/27,923,923,921,922,2000,922
2014/05/28,929,929,920,920,1200,920
2014/05/29,920,929,920,927,500,927
2014/05/30,930,939,927,939,900,939
2014/06/02,948,948,938,940,2300,940
2014/06/03,940,949,937,945,900,945
2014/06/04,950,951,949,949,1000,949
2014/06/05,952,952,952,952,300,952
2014/06/06,945,952,945,952,1800,952
2014/06/09,960,963,955,956,2200,956
2014/06/10,956,970,956,970,2500,970
2014/06/11,968,969,964,969,2300,969
2014/06/12,968,970,966,969,1300,969
2014/06/13,970,978,959,978,3000,978
2014/06/16,978,982,978,982,4500,982
2014/06/17,982,991,982,991,4700,991
2014/06/18,991,999,991,999,2600,999
2014/06/19,992,999,981,996,9000,996
2014/06/20,994,994,990,990,500,990
2014/06/23,990,996,990,996,1000,996
2014/06/24,996,998,996,997,1300,997
2014/06/25,997,998,995,998,1300,998
2014/06/26,999,999,995,996,1600,996
2014/06/27,998,998,995,995,800,995
2014/06/30,1000,1006,993,1006,6000,1006
2014/07/01,1000,1001,997,1001,2900,1001
2014/07/02,1001,1005,998,1002,1600,1002
2014/07/03,1001,1001,997,1000,1500,1000
2014/07/04,999,1008,995,1008,4900,1008
2014/07/07,1000,1000,998,999,1500,999
2014/07/08,1000,1003,997,997,3300,997
2014/07/09,997,997,990,996,1700,996
2014/07/10,1090,1090,1002,1008,19300,1008
2014/07/11,996,1008,996,1007,4000,1007
2014/07/14,1010,1016,1000,1002,5800,1002
2014/07/15,1003,1007,1002,1005,1000,1005
2014/07/16,1010,1010,1005,1009,3400,1009
2014/07/17,1009,1023,1009,1012,2400,1012
2014/07/18,1027,1027,1013,1014,1700,1014
2014/07/22,1016,1016,1015,1015,1600,1015
2014/07/23,1015,1017,1014,1014,1900,1014
2014/07/24,1012,1014,1010,1014,1800,1014
2014/07/25,1014,1015,1014,1015,300,1015
2014/07/28,1017,1018,1015,1018,800,1018
2014/07/29,1019,1019,1010,1010,1600,1010
2014/07/30,1023,1023,1011,1020,2100,1020
2014/07/31,1027,1028,1020,1022,1900,1022
2014/08/01,1022,1023,1011,1023,5100,1023
2014/08/04,1022,1022,1012,1012,1300,1012
2014/08/05,1012,1028,1007,1007,3000,1007
2014/08/06,1007,1007,1002,1005,1000,1005
2014/08/07,1001,1009,1001,1002,1400,1002
2014/08/08,1000,1000,991,996,7800,996
2014/08/11,1000,1007,1000,1007,1600,1007
2014/08/12,1002,1020,1000,1020,2900,1020
2014/08/13,1020,1020,1013,1013,200,1013
2014/08/14,1017,1017,1010,1010,800,1010
2014/08/15,1011,1012,1010,1010,1800,1010
2014/08/18,1017,1017,1010,1010,1400,1010
2014/08/19,1010,1016,1010,1011,600,1011
2014/08/20,1010,1011,1009,1009,800,1009
2014/08/21,1012,1013,1010,1010,900,1010
2014/08/22,1010,1012,1010,1012,600,1012
2014/08/25,1012,1012,1006,1006,1300,1006
2014/08/26,1007,1008,1006,1006,800,1006
2014/08/27,1007,1010,1007,1008,600,1008
2014/08/28,1010,1011,1008,1008,1300,1008
2014/08/29,1008,1008,1002,1008,2000,1008
2014/09/01,1010,1010,1008,1008,3500,1008
2014/09/02,1010,1013,1008,1010,4000,1010
2014/09/03,1021,1021,1017,1018,1000,1018
2014/09/04,1012,1015,1012,1015,700,1015
2014/09/05,1014,1019,1014,1018,1400,1018
2014/09/08,1019,1020,1018,1018,3000,1018
2014/09/09,1018,1036,1011,1036,9500,1036
2014/09/10,1045,1050,1038,1040,4500,1040
2014/09/11,1037,1040,1037,1037,1200,1037
2014/09/12,1037,1040,1036,1040,2500,1040
2014/09/16,1020,1038,1020,1026,7500,1026
2014/09/17,1026,1035,1026,1026,800,1026
2014/09/18,1038,1040,1027,1035,2000,1035
2014/09/19,1039,1040,1036,1040,2200,1040
2014/09/22,1041,1050,1040,1050,3400,1050
2014/09/24,1350,1350,1121,1123,131800,1123
2014/09/25,1124,1125,1088,1096,41400,1096
2014/09/26,1080,1119,1080,1090,7600,1090
2014/09/29,1099,1126,1099,1124,11700,1124
2014/09/30,1117,1123,1105,1123,4900,1123
2014/10/01,1125,1160,1120,1124,8000,1124
2014/10/02,1121,1124,1110,1120,8600,1120
2014/10/03,1124,1170,1120,1168,7900,1168
2014/10/06,1198,1254,1165,1228,33600,1228
2014/10/07,1240,1240,1201,1212,8000,1212
2014/10/08,1190,1200,1184,1190,5600,1190
2014/10/09,1239,1239,1190,1190,5700,1190
2014/10/10,1218,1218,1150,1174,7700,1174
2014/10/14,1151,1151,1108,1137,10000,1137
2014/10/15,1137,1152,1102,1128,24800,1128
2014/10/16,1127,1173,1100,1150,22800,1150
2014/10/17,1150,1156,1148,1150,10300,1150
2014/10/20,1158,1158,1150,1151,4800,1151
2014/10/21,1150,1150,1141,1150,6100,1150
2014/10/22,1150,1155,1150,1152,4600,1152
2014/10/23,1158,1185,1158,1185,5600,1185
2014/10/24,1188,1198,1188,1196,2900,1196
2014/10/27,1200,1260,1200,1247,9300,1247
2014/10/28,1277,1278,1250,1271,6000,1271
2014/10/29,1278,1279,1250,1250,5500,1250
2014/10/30,1249,1270,1208,1265,7100,1265
2014/10/31,1232,1265,1232,1245,4900,1245
2014/11/04,1246,1270,1246,1258,7000,1258
2014/11/05,1258,1258,1250,1251,4700,1251
2014/11/06,1258,1265,1251,1261,3300,1261
2014/11/07,1261,1261,1259,1259,1200,1259
2014/11/10,1265,1265,1249,1253,6100,1253
2014/11/11,1261,1264,1259,1264,5200,1264
2014/11/12,1264,1268,1263,1266,6900,1266
2014/11/13,1266,1270,1266,1270,2600,1270
2014/11/14,1270,1285,1260,1284,7300,1284
2014/11/17,1291,1291,1270,1270,5500,1270
2014/11/18,1270,1273,1268,1273,3600,1273
2014/11/19,1275,1276,1271,1271,1600,1271
2014/11/20,1271,1278,1271,1278,1500,1278
2014/11/21,1279,1299,1279,1299,4800,1299
2014/11/25,1299,1309,1296,1309,4900,1309
2014/11/26,1300,1320,1299,1320,5400,1320
2014/11/27,1320,1320,1310,1314,4100,1314
2014/11/28,1320,1320,1313,1315,1900,1315
2014/12/01,1315,1320,1310,1312,3600,1312
2014/12/02,1310,1310,1306,1306,2400,1306
2014/12/03,1310,1310,1304,1308,2800,1308
2014/12/04,1301,1310,1301,1301,6100,1301
2014/12/05,1301,1302,1297,1300,3600,1300
2014/12/08,1292,1298,1288,1288,3000,1288
2014/12/09,1287,1287,1261,1269,5300,1269
2014/12/10,1270,1283,1270,1270,8200,1270
2014/12/11,1270,1288,1270,1288,5800,1288
2014/12/12,1288,1288,1270,1275,2700,1275
2014/12/15,1284,1284,1275,1275,2000,1275
2014/12/16,1275,1275,1260,1262,6500,1262
2014/12/17,1260,1264,1250,1262,3200,1262
2014/12/18,1260,1274,1260,1263,3400,1263
2014/12/19,1275,1275,1250,1260,5600,1260
2014/12/22,1261,1287,1261,1267,3300,1267
2014/12/24,1280,1297,1275,1297,6400,1297
2014/12/25,1300,1315,1299,1306,9500,1306
2014/12/26,1313,1316,1306,1306,4000,1306
2014/12/29,1316,1323,1316,1323,4900,1323
2014/12/30,1323,1355,1323,1355,6600,1355
2015/01/05,1353,1359,1340,1359,7400,1359
2015/01/06,1357,1360,1339,1360,4700,1360
2015/01/07,1360,1366,1349,1349,4400,1349
2015/01/08,1359,1376,1353,1376,6500,1376
2015/01/09,1358,1380,1358,1378,7400,1378
2015/01/13,1388,1400,1381,1398,13000,1398
2015/01/14,1416,1421,1401,1420,6000,1420
2015/01/15,1420,1420,1400,1405,7400,1405
2015/01/16,1400,1400,1330,1400,7200,1400
2015/01/19,1460,1460,1420,1433,10700,1433
2015/01/20,1459,1461,1434,1460,8400,1460
2015/01/21,1498,1500,1453,1494,12200,1494
2015/01/22,1500,1521,1468,1489,12500,1489
2015/01/23,1481,1481,1445,1450,8300,1450
2015/01/26,1445,1450,1398,1428,8500,1428
2015/01/27,1428,1438,1380,1401,12000,1401
2015/01/28,1380,1420,1380,1420,8800,1420
2015/01/29,1429,1429,1390,1402,4600,1402
2015/01/30,1399,1406,1391,1391,6400,1391
2015/02/02,1393,1394,1381,1389,5600,1389
2015/02/03,1383,1393,1330,1330,15200,1330
2015/02/04,1330,1355,1330,1354,6700,1354
2015/02/05,1370,1375,1367,1367,3700,1367
2015/02/06,1367,1385,1367,1385,6300,1385
2015/02/09,1399,1399,1375,1375,9600,1375
2015/02/10,1375,1379,1366,1374,6600,1374
2015/02/12,1372,1375,1358,1363,10200,1363
2015/02/13,1365,1370,1363,1363,3800,1363
2015/02/16,1363,1370,1360,1363,7800,1363
2015/02/17,1362,1369,1362,1369,4300,1369
2015/02/18,1372,1379,1370,1379,5700,1379
2015/02/19,1378,1379,1372,1376,5000,1376
2015/02/20,1375,1381,1375,1380,6900,1380
2015/02/23,1383,1389,1382,1383,10600,1383
2015/02/24,1389,1420,1380,1398,18800,1398
2015/02/25,1300,1338,1299,1338,25900,1338
2015/02/26,1330,1337,1329,1330,6900,1330
2015/02/27,1330,1330,1322,1325,10000,1325
2015/03/02,1324,1330,1303,1330,9500,1330
2015/03/03,1330,1330,1308,1317,5000,1317
2015/03/04,1317,1317,1315,1315,3200,1315
2015/03/05,1315,1315,1307,1307,4300,1307
2015/03/06,1307,1310,1304,1310,2700,1310
2015/03/09,1310,1310,1301,1301,2500,1301
2015/03/10,1301,1301,1299,1301,5600,1301
2015/03/11,1300,1301,1299,1300,4100,1300
2015/03/12,1300,1300,1290,1290,4100,1290
2015/03/13,1290,1290,1279,1279,5900,1279
2015/03/16,1280,1300,1279,1288,4000,1288
2015/03/17,1289,1289,1280,1285,6400,1285
2015/03/18,1287,1289,1280,1288,3200,1288
2015/03/19,1289,1289,1280,1280,1500,1280
2015/03/20,1280,1285,1276,1276,3900,1276
2015/03/23,1280,1280,1273,1273,2100,1273
2015/03/24,1272,1276,1263,1275,3500,1275
2015/03/25,1275,1275,1261,1261,1900,1261
2015/03/26,1262,1263,1256,1256,6000,1256
2015/03/27,1256,1280,1256,1276,800,1276
2015/03/30,1264,1265,1255,1255,2300,1255
2015/03/31,1255,1261,1251,1252,1500,1252
2015/04/01,1250,1255,1250,1254,2300,1254
2015/04/02,1252,1269,1252,1265,2000,1265
2015/04/03,1270,1316,1270,1307,4600,1307
2015/04/06,1350,1350,1320,1323,8200,1323
2015/04/07,1330,1330,1327,1327,1400,1327
2015/04/08,1326,1329,1316,1329,5400,1329
2015/04/09,1328,1328,1302,1328,2600,1328
2015/04/10,1331,1380,1306,1355,14800,1355
2015/04/13,1320,1345,1317,1332,5500,1332
2015/04/14,1346,1355,1325,1331,5000,1331
2015/04/15,1331,1359,1331,1332,6200,1332
2015/04/16,1332,1334,1330,1330,2900,1330
2015/04/17,1330,1334,1322,1334,2500,1334
2015/04/20,1315,1320,1300,1301,11400,1301
2015/04/21,1309,1314,1290,1295,4500,1295
2015/04/22,1319,1320,1275,1278,12500,1278
2015/04/23,1308,1308,1274,1275,9800,1275
2015/04/24,1276,1291,1265,1266,9000,1266
2015/04/27,1270,1270,1255,1255,16300,1255
2015/04/28,1260,1260,1258,1259,1300,1259
2015/04/30,1259,1259,1249,1250,7900,1250
2015/05/01,1250,1251,1248,1248,6000,1248
2015/05/07,1250,1289,1241,1275,8500,1275
2015/05/08,1253,1270,1253,1270,3200,1270
2015/05/11,1279,1279,1270,1275,1000,1275
2015/05/12,1270,1279,1270,1279,1400,1279
2015/05/13,1279,1279,1272,1272,1200,1272
2015/05/14,1271,1273,1265,1266,2100,1266
2015/05/15,1266,1275,1266,1270,2800,1270
2015/05/18,1270,1272,1266,1269,3100,1269
2015/05/19,1270,1280,1266,1267,4300,1267
2015/05/20,1283,1283,1268,1282,3000,1282
2015/05/21,1282,1282,1272,1276,4000,1276
2015/05/22,1276,1283,1276,1282,2600,1282
2015/05/25,1293,1294,1283,1292,5300,1292
2015/05/26,1293,1300,1291,1297,6100,1297
2015/05/27,1299,1319,1297,1312,8200,1312
2015/05/28,1318,1319,1301,1302,7800,1302
2015/05/29,1302,1310,1300,1300,5400,1300
2015/06/01,1300,1312,1300,1308,2100,1308
2015/06/02,1308,1315,1300,1300,4900,1300
2015/06/03,1305,1312,1300,1305,1500,1305
2015/06/04,1301,1310,1301,1305,1800,1305
2015/06/05,1310,1310,1300,1301,2200,1301
2015/06/08,1313,1330,1305,1319,5300,1319
2015/06/09,1328,1328,1319,1319,2700,1319
2015/06/10,1319,1323,1317,1323,1900,1323
2015/06/11,1326,1329,1319,1329,3300,1329
2015/06/12,1325,1332,1324,1328,2200,1328
2015/06/15,1330,1336,1329,1336,6000,1336
2015/06/16,1340,1345,1338,1345,4900,1345
2015/06/17,1345,1350,1345,1350,9000,1350
2015/06/18,1355,1356,1348,1356,4300,1356
2015/06/19,1357,1358,1356,1358,4100,1358
2015/06/22,1360,1368,1360,1367,4100,1367
2015/06/23,1369,1371,1367,1370,7200,1370
2015/06/24,1375,1375,1365,1367,4600,1367
2015/06/25,1367,1367,1350,1355,5500,1355
2015/06/26,1347,1347,1325,1342,4500,1342
2015/06/29,1332,1332,1310,1310,6100,1310
2015/06/30,1301,1309,1301,1307,2800,1307
2015/07/01,1315,1350,1315,1341,3700,1341
