2011/01/04,355,360,355,360,3300,360
2011/01/06,360,370,355,355,4200,355
2011/01/11,355,355,355,355,2000,355
2011/01/12,356,356,356,356,6000,356
2011/01/13,359,359,359,359,100,359
2011/01/14,355,363,355,360,2500,360
2011/01/17,360,365,360,365,1300,365
2011/01/18,371,372,371,372,300,372
2011/01/19,372,372,372,372,400,372
2011/01/20,372,372,372,372,300,372
2011/01/21,371,371,360,360,1400,360
2011/01/24,360,360,359,359,900,359
2011/01/26,367,379,367,379,1700,379
2011/01/27,379,379,372,373,9000,373
2011/01/28,374,374,365,365,3000,365
2011/01/31,357,357,355,355,2000,355
2011/02/01,363,364,363,364,200,364
2011/02/02,373,373,373,373,800,373
2011/02/03,370,370,370,370,100,370
2011/02/04,360,370,360,365,3400,365
2011/02/07,365,365,365,365,800,365
2011/02/08,369,370,366,366,1700,366
2011/02/09,367,369,367,369,300,369
2011/02/10,369,370,369,370,600,370
2011/02/14,372,372,372,372,500,372
2011/02/15,370,374,370,370,2500,370
2011/02/16,374,374,374,374,500,374
2011/02/17,376,378,376,378,400,378
2011/02/18,384,390,374,386,21200,386
2011/02/21,387,387,380,387,6400,387
2011/02/22,387,387,380,380,1000,380
2011/02/24,375,375,355,369,2800,369
2011/02/25,368,369,367,369,400,369
2011/02/28,373,373,373,373,100,373
2011/03/01,373,373,373,373,700,373
2011/03/02,373,373,370,370,500,370
2011/03/03,355,370,355,370,1700,370
2011/03/04,370,370,366,366,900,366
2011/03/07,360,369,360,369,1300,369
2011/03/08,365,369,365,369,700,369
2011/03/09,373,373,373,373,200,373
2011/03/11,368,368,368,368,200,368
2011/03/14,325,343,310,330,5700,330
2011/03/15,330,330,260,300,12200,300
2011/03/16,274,317,274,311,6000,311
2011/03/17,301,315,301,315,6000,315
2011/03/18,320,336,320,336,600,336
2011/03/22,349,349,349,349,900,349
2011/03/23,343,343,330,331,1900,331
2011/03/25,335,335,335,335,4900,335
2011/03/29,335,335,335,335,2400,335
2011/04/01,335,343,335,343,1800,343
2011/04/08,325,326,316,318,3200,318
2011/04/11,319,325,319,325,800,325
2011/04/12,317,321,316,321,600,321
2011/04/13,320,324,320,320,1000,320
2011/04/14,319,319,319,319,100,319
2011/04/15,324,324,324,324,100,324
2011/04/18,320,332,320,320,1300,320
2011/04/19,319,322,319,322,300,322
2011/04/20,328,331,328,331,200,331
2011/04/21,331,331,331,331,1400,331
2011/04/22,331,331,320,321,2000,321
2011/04/25,326,334,317,327,4000,327
2011/04/26,324,339,324,339,5500,339
2011/04/27,325,332,315,323,7600,323
2011/04/28,325,327,325,327,400,327
2011/05/02,327,329,320,329,5300,329
2011/05/06,315,323,315,323,3300,323
2011/05/09,327,333,327,333,1600,333
2011/05/12,320,320,320,320,100,320
2011/05/13,317,320,313,320,800,320
2011/05/16,317,317,317,317,300,317
2011/05/18,323,323,323,323,100,323
2011/05/19,315,316,315,315,3000,315
2011/05/23,322,322,321,321,1600,321
2011/05/24,321,321,313,313,1100,313
2011/05/25,316,316,315,315,700,315
2011/05/26,316,316,316,316,200,316
2011/05/27,319,319,315,315,2000,315
2011/05/30,301,309,300,305,8700,305
2011/05/31,310,313,310,313,700,313
2011/06/02,310,310,306,306,1300,306
2011/06/03,308,308,308,308,100,308
2011/06/06,308,308,308,308,100,308
2011/06/08,308,308,308,308,100,308
2011/06/09,308,308,308,308,500,308
2011/06/14,303,303,303,303,200,303
2011/06/15,308,308,308,308,900,308
2011/06/16,305,307,300,307,2700,307
2011/06/20,309,309,306,306,1600,306
2011/06/21,307,315,307,307,700,307
2011/06/22,315,318,315,315,1000,315
2011/06/23,315,319,315,319,200,319
2011/06/24,315,319,315,319,800,319
2011/07/01,319,322,318,322,3200,322
2011/07/04,323,326,323,326,2700,326
2011/07/05,334,336,330,336,3600,336
2011/07/06,338,338,321,337,2900,337
2011/07/07,321,328,321,328,1400,328
2011/07/11,328,328,326,326,700,326
2011/07/12,329,329,329,329,200,329
2011/07/13,329,329,329,329,200,329
2011/07/14,325,329,325,329,500,329
2011/07/20,329,329,329,329,400,329
2011/07/21,329,329,329,329,500,329
2011/07/22,332,332,332,332,200,332
2011/07/25,330,330,330,330,400,330
2011/07/26,332,332,332,332,200,332
2011/07/28,330,340,325,340,5500,340
2011/07/29,338,338,338,338,100,338
2011/08/01,339,339,339,339,700,339
2011/08/03,330,330,330,330,1000,330
2011/08/04,325,325,325,325,1000,325
2011/08/05,310,310,310,310,100,310
2011/08/11,310,310,310,310,1000,310
2011/08/12,319,319,319,319,100,319
2011/08/17,320,320,320,320,800,320
2011/08/18,312,312,312,312,100,312
2011/08/19,312,315,312,315,900,315
2011/08/22,323,323,323,323,900,323
2011/08/23,323,323,323,323,600,323
2011/08/26,328,328,328,328,200,328
2011/09/01,327,327,327,327,300,327
2011/09/02,311,320,311,320,6800,320
2011/09/05,315,315,315,315,200,315
2011/09/07,317,317,317,317,1000,317
2011/09/09,315,315,315,315,100,315
2011/09/12,315,315,315,315,100,315
2011/09/13,330,338,310,314,3600,314
2011/09/15,310,310,310,310,100,310
2011/09/20,310,310,310,310,400,310
2011/09/21,310,310,310,310,5000,310
2011/09/22,325,325,325,325,900,325
2011/09/26,325,325,302,309,1400,309
2011/09/27,316,316,316,316,1000,316
2011/10/06,301,306,301,303,8500,303
2011/10/07,303,303,303,303,900,303
2011/10/11,304,314,304,314,2100,314
2011/10/17,309,309,309,309,1500,309
2011/10/20,309,309,309,309,200,309
2011/10/21,314,314,314,314,700,314
2011/10/24,314,314,314,314,1400,314
2011/10/26,314,314,314,314,200,314
2011/10/27,314,315,310,310,1500,310
2011/10/28,315,315,315,315,700,315
2011/10/31,315,315,315,315,1000,315
2011/11/01,315,315,315,315,100,315
2011/11/07,316,316,316,316,1000,316
2011/11/08,311,311,310,310,1000,310
2011/11/10,302,302,301,302,3200,302
2011/11/11,308,308,308,308,100,308
2011/11/16,302,302,302,302,100,302
2011/11/21,309,309,309,309,800,309
2011/11/22,308,308,302,302,900,302
2011/11/24,302,302,301,301,1200,301
2011/11/25,307,307,307,307,200,307
2011/11/30,306,306,306,306,2000,306
2011/12/01,306,306,306,306,100,306
2011/12/09,308,308,308,308,100,308
2011/12/12,324,324,324,324,1600,324
2011/12/13,335,335,335,335,1200,335
2011/12/15,333,333,333,333,4200,333
2011/12/16,319,319,315,315,2000,315
2011/12/21,331,331,331,331,2200,331
2011/12/22,331,331,326,326,1200,326
2011/12/26,333,333,330,330,800,330
2011/12/27,322,322,320,320,200,320
2011/12/30,304,310,304,310,7500,310
2012/01/04,318,318,318,318,100,318
2012/01/06,326,326,326,326,500,326
2012/01/10,310,316,310,316,1500,316
2012/01/11,315,316,315,316,300,316
2012/01/12,317,317,317,317,200,317
2012/01/13,324,324,320,320,2100,320
2012/01/16,318,318,318,318,100,318
2012/01/20,322,322,322,322,100,322
2012/01/23,330,330,330,330,800,330
2012/01/24,330,330,329,329,500,329
2012/01/26,330,330,330,330,200,330
2012/01/30,323,323,323,323,1000,323
2012/01/31,324,324,315,315,1100,315
2012/02/01,314,314,312,312,2100,312
2012/02/03,314,318,311,315,1400,315
2012/02/06,321,321,310,313,2500,313
2012/02/07,315,315,315,315,100,315
2012/02/08,318,319,318,319,500,319
2012/02/09,320,320,319,319,200,319
2012/02/10,316,317,316,317,2100,317
2012/02/13,320,320,315,315,3800,315
2012/02/14,322,325,322,325,1200,325
2012/02/15,325,325,325,325,300,325
2012/02/17,325,328,325,328,1400,328
2012/02/20,328,330,321,321,7500,321
2012/02/21,326,328,326,328,800,328
2012/02/22,333,338,330,338,3500,338
2012/02/23,336,336,335,335,1100,335
2012/02/24,338,340,338,340,14700,340
2012/02/27,346,348,346,348,1400,348
2012/02/29,348,349,342,343,4800,343
2012/03/01,343,343,340,340,2400,340
2012/03/05,338,341,338,340,1100,340
2012/03/06,338,338,338,338,800,338
2012/03/07,336,336,336,336,600,336
2012/03/08,340,340,331,331,900,331
2012/03/09,345,345,345,345,300,345
2012/03/12,345,345,340,343,600,343
2012/03/13,348,348,348,348,100,348
2012/03/14,343,343,343,343,1000,343
2012/03/15,350,350,350,350,1500,350
2012/03/16,350,358,350,358,1100,358
2012/03/19,357,358,357,358,800,358
2012/03/21,358,358,353,354,900,354
2012/03/22,352,357,352,354,4300,354
2012/03/23,357,358,353,358,5300,358
2012/03/26,358,358,353,353,800,353
2012/03/27,355,360,355,360,2900,360
2012/03/28,353,353,353,353,700,353
2012/03/29,349,349,345,345,500,345
2012/03/30,352,352,346,346,500,346
2012/04/04,349,349,349,349,200,349
2012/04/05,349,349,349,349,200,349
2012/04/06,349,354,349,349,300,349
2012/04/09,349,349,349,349,1900,349
2012/04/10,349,349,349,349,100,349
2012/04/11,333,340,333,340,2300,340
2012/04/12,336,336,333,334,400,334
2012/04/13,335,335,333,333,1300,333
2012/04/16,333,333,333,333,200,333
2012/04/17,338,338,338,338,100,338
2012/04/19,339,339,339,339,100,339
2012/04/20,339,347,339,347,300,347
2012/04/23,350,350,334,337,1700,337
2012/04/24,338,338,338,338,200,338
2012/04/25,345,350,345,350,200,350
2012/04/26,349,349,349,349,700,349
2012/04/27,354,354,347,352,800,352
2012/05/01,345,345,342,343,1200,343
2012/05/02,342,350,342,350,400,350
2012/05/07,348,348,348,348,100,348
2012/05/14,345,345,345,345,7600,345
2012/05/15,336,336,330,330,1100,330
2012/05/16,330,330,330,330,100,330
2012/05/17,323,323,323,323,100,323
2012/05/18,323,323,322,322,1700,322
2012/05/21,322,322,321,321,2000,321
2012/05/22,321,321,316,316,1400,316
2012/05/24,321,321,321,321,100,321
2012/05/25,336,336,336,336,100,336
2012/06/04,316,316,316,316,100,316
2012/06/07,318,334,318,328,1200,328
2012/06/11,336,336,336,336,300,336
2012/06/13,328,328,328,328,100,328
2012/06/15,326,326,326,326,100,326
2012/06/18,326,326,326,326,800,326
2012/06/20,330,330,326,329,500,329
2012/06/21,330,330,330,330,800,330
2012/06/22,330,349,330,331,1600,331
2012/06/25,322,325,322,322,2000,322
2012/06/26,339,339,339,339,200,339
2012/06/28,339,339,339,339,100,339
2012/07/02,340,340,340,340,100,340
2012/07/04,337,337,337,337,100,337
2012/07/05,338,340,338,340,800,340
2012/07/06,340,340,340,340,1200,340
2012/07/09,339,339,338,338,1300,338
2012/07/10,337,337,330,330,2200,330
2012/07/11,331,331,331,331,100,331
2012/07/12,330,330,330,330,200,330
2012/07/13,337,337,337,337,100,337
2012/07/17,337,337,337,337,200,337
2012/07/18,337,337,337,337,300,337
2012/07/19,337,337,337,337,100,337
2012/07/20,337,339,337,339,600,339
2012/07/23,339,339,339,339,400,339
2012/07/24,338,338,338,338,400,338
2012/07/25,338,338,334,334,300,334
2012/07/26,335,336,330,336,1500,336
2012/08/06,335,335,335,335,100,335
2012/08/10,320,330,320,330,1100,330
2012/08/17,330,330,330,330,300,330
2012/08/20,330,340,330,340,700,340
2012/08/21,339,339,339,339,600,339
2012/08/22,339,339,339,339,400,339
2012/08/24,337,337,337,337,100,337
2012/08/27,337,337,337,337,100,337
2012/09/03,321,321,321,321,200,321
2012/09/11,330,330,316,316,1900,316
2012/09/18,319,319,319,319,100,319
2012/09/20,317,321,317,321,1100,321
2012/09/21,322,322,322,322,200,322
2012/09/24,339,339,339,339,900,339
2012/09/25,335,335,335,335,100,335
2012/09/26,342,342,342,342,100,342
2012/10/03,318,324,318,320,1900,320
2012/10/04,320,320,320,320,100,320
2012/10/15,327,327,327,327,6000,327
2012/10/17,326,326,326,326,1100,326
2012/10/19,330,330,330,330,1000,330
2012/10/22,340,340,340,340,1800,340
2012/10/23,340,340,340,340,400,340
2012/10/24,327,330,327,328,1700,328
2012/10/25,332,333,332,333,300,333
2012/10/26,333,339,333,339,300,339
2012/10/29,340,340,340,340,200,340
2012/10/30,330,333,330,330,3500,330
2012/10/31,340,340,331,331,1800,331
2012/11/01,330,330,330,330,1000,330
2012/11/02,322,322,322,322,900,322
2012/11/07,325,325,325,325,100,325
2012/11/08,329,329,329,329,100,329
2012/11/09,329,330,320,320,3100,320
2012/11/12,323,323,323,323,100,323
2012/11/14,324,330,316,316,12600,316
2012/11/15,329,329,329,329,100,329
2012/11/16,321,321,321,321,100,321
2012/11/19,322,322,322,322,100,322
2012/11/20,330,330,325,326,1700,326
2012/11/21,330,330,330,330,800,330
2012/11/22,330,330,330,330,2400,330
2012/11/26,333,333,330,330,500,330
2012/11/28,330,330,322,325,14000,325
2012/11/29,323,325,318,325,3500,325
2012/11/30,325,328,325,325,2100,325
2012/12/03,330,330,324,324,2600,324
2012/12/04,324,325,320,325,1500,325
2012/12/06,325,330,325,330,1600,330
2012/12/07,330,330,326,326,3200,326
2012/12/10,331,359,331,335,5600,335
2012/12/11,350,350,340,340,1800,340
2012/12/12,345,345,333,333,1100,333
2012/12/13,335,335,335,335,5000,335
2012/12/14,335,335,335,335,100,335
2012/12/17,335,336,333,335,900,335
2012/12/18,333,340,333,340,3600,340
2012/12/19,338,340,338,340,1100,340
2012/12/20,340,345,340,345,2900,345
2012/12/21,343,349,343,349,5900,349
2012/12/25,354,354,349,351,9300,351
2012/12/26,352,352,351,351,2100,351
2012/12/27,351,352,351,352,900,352
2012/12/28,351,351,332,346,3000,346
2013/01/04,349,354,346,354,4300,354
2013/01/07,354,358,354,358,900,358
2013/01/08,351,353,351,352,1200,352
2013/01/09,357,362,354,354,1400,354
2013/01/10,355,355,355,355,200,355
2013/01/11,361,366,360,366,1500,366
2013/01/15,369,369,365,365,2600,365
2013/01/16,368,368,360,368,6300,368
2013/01/17,364,367,364,367,300,367
2013/01/18,368,375,368,374,2500,374
2013/01/21,374,374,372,372,2400,372
2013/01/22,372,375,362,362,1900,362
2013/01/23,361,365,361,365,600,365
2013/01/24,370,370,363,370,2400,370
2013/01/25,370,370,364,364,4100,364
2013/01/28,369,369,368,368,1500,368
2013/01/29,371,375,371,375,2200,375
2013/01/30,375,380,372,380,2900,380
2013/02/01,379,379,378,378,1400,378
2013/02/04,376,386,376,386,8200,386
2013/02/05,385,385,379,380,1500,380
2013/02/06,386,386,386,386,2000,386
2013/02/08,378,378,377,377,3400,377
2013/02/12,384,385,384,385,600,385
2013/02/13,382,382,378,378,2700,378
2013/02/14,377,377,374,374,1500,374
2013/02/15,380,382,374,375,2000,375
2013/02/18,380,380,372,379,1700,379
2013/02/19,379,381,375,379,4000,379
2013/02/20,381,381,381,381,100,381
2013/02/21,382,382,376,381,1500,381
2013/02/22,381,382,381,381,1900,381
2013/02/25,382,382,381,382,3000,382
2013/02/26,380,380,376,376,900,376
2013/02/27,384,384,380,380,200,380
2013/02/28,381,385,380,380,2900,380
2013/03/01,379,382,379,382,4400,382
2013/03/04,385,386,385,386,5200,386
2013/03/05,387,396,387,396,5600,396
2013/03/06,398,398,386,393,4900,393
2013/03/07,387,395,387,392,1400,392
2013/03/08,392,392,389,389,2300,389
2013/03/11,390,393,388,389,10300,389
2013/03/12,394,400,389,391,4900,391
2013/03/13,390,390,386,387,3000,387
2013/03/14,388,406,388,406,2300,406
2013/03/15,407,407,395,399,2700,399
2013/03/18,395,403,395,400,3200,400
2013/03/19,404,420,404,420,7700,420
2013/03/21,426,426,416,417,3700,417
2013/03/22,417,429,417,426,2500,426
2013/03/25,429,437,429,435,7800,435
2013/03/26,440,440,432,432,2700,432
2013/03/27,435,435,420,428,2800,428
2013/03/28,421,423,404,423,3700,423
2013/03/29,407,407,392,399,7700,399
2013/04/01,398,402,390,390,1800,390
2013/04/02,388,388,376,388,1700,388
2013/04/03,388,388,388,388,500,388
2013/04/04,392,392,392,392,1000,392
2013/04/05,393,400,389,400,5300,400
2013/04/08,400,400,392,398,3700,398
2013/04/09,400,408,396,408,2400,408
2013/04/10,405,408,403,408,1700,408
2013/04/11,408,408,391,399,2500,399
2013/04/12,404,407,395,402,2600,402
2013/04/15,398,404,397,402,2900,402
2013/04/16,395,399,391,399,2100,399
2013/04/17,402,402,402,402,100,402
2013/04/18,401,401,399,399,300,399
2013/04/19,399,399,391,392,2800,392
2013/04/22,399,441,399,418,14900,418
2013/04/23,426,426,410,412,4200,412
2013/04/24,428,428,412,415,13000,415
2013/04/25,421,424,421,424,3900,424
2013/04/26,430,430,422,422,6000,422
2013/04/30,419,423,401,423,6500,423
2013/05/01,418,418,414,415,1400,415
2013/05/02,413,413,410,410,1700,410
2013/05/07,416,421,416,420,3600,420
2013/05/08,420,421,417,420,7200,420
2013/05/09,420,423,419,421,2200,421
2013/05/10,415,437,415,425,18700,425
2013/05/13,428,435,424,434,5700,434
2013/05/14,434,435,427,435,15200,435
2013/05/15,435,435,425,425,3200,425
2013/05/16,421,425,410,418,8200,418
2013/05/17,412,429,412,427,5100,427
2013/05/20,428,428,421,426,3400,426
2013/05/21,428,428,426,426,1000,426
2013/05/22,426,428,424,428,3100,428
2013/05/23,428,428,405,405,5500,405
2013/05/24,409,420,400,402,12400,402
2013/05/27,400,403,400,403,1800,403
2013/05/28,400,406,400,406,1800,406
2013/05/29,406,407,400,407,3300,407
2013/05/30,405,406,397,397,2600,397
2013/05/31,404,425,404,425,3900,425
2013/06/03,406,406,402,402,3100,402
2013/06/04,402,405,401,405,1000,405
2013/06/05,401,405,401,402,700,402
2013/06/06,399,399,390,390,1300,390
2013/06/07,381,381,366,369,3200,369
2013/06/10,374,391,374,391,1100,391
2013/06/11,385,385,385,385,100,385
2013/06/12,377,382,377,382,800,382
2013/06/13,382,382,379,379,400,379
2013/06/14,373,386,373,386,1100,386
2013/06/17,382,398,382,398,900,398
2013/06/18,398,399,398,399,10600,399
2013/06/19,399,399,398,398,200,398
2013/06/20,399,399,398,399,500,399
2013/06/21,400,400,391,399,1400,399
2013/06/24,400,404,396,404,1400,404
2013/06/25,397,401,393,393,2000,393
2013/06/26,394,394,393,393,400,393
2013/06/27,393,393,392,392,200,392
2013/06/28,390,390,390,390,800,390
2013/07/01,390,390,388,390,700,390
2013/07/02,391,395,391,395,1500,395
2013/07/03,394,400,394,400,4100,400
2013/07/05,401,401,396,400,1900,400
2013/07/08,402,410,401,408,2000,408
2013/07/09,413,413,405,412,2200,412
2013/07/10,407,407,406,406,400,406
2013/07/11,404,405,404,405,700,405
2013/07/12,405,410,405,405,500,405
2013/07/16,402,409,400,400,4000,400
2013/07/17,401,401,399,401,1400,401
2013/07/18,405,405,405,405,100,405
2013/07/19,406,406,400,400,900,400
2013/07/22,405,408,401,408,900,408
2013/07/23,408,408,406,406,1400,406
2013/07/24,405,411,405,411,1200,411
2013/07/25,412,412,412,412,500,412
2013/07/26,406,409,406,409,500,409
2013/07/29,387,395,380,390,8900,390
2013/07/30,391,401,391,401,1200,401
2013/07/31,386,401,386,400,1900,400
2013/08/01,401,401,401,401,1000,401
2013/08/02,401,401,401,401,200,401
2013/08/05,401,401,401,401,900,401
2013/08/07,401,401,401,401,100,401
2013/08/08,400,400,400,400,100,400
2013/08/09,400,403,394,403,1700,403
2013/08/12,400,403,400,400,1800,400
2013/08/13,400,400,400,400,1000,400
2013/08/14,402,402,400,400,200,400
2013/08/15,403,405,403,405,500,405
2013/08/16,407,407,404,405,7700,405
2013/08/19,404,404,404,404,16300,404
2013/08/20,402,402,391,391,3900,391
2013/08/21,402,402,391,391,700,391
2013/08/22,399,399,399,399,600,399
2013/08/23,399,399,399,399,200,399
2013/08/26,403,403,403,403,100,403
2013/08/29,400,402,400,402,200,402
2013/08/30,401,401,401,401,100,401
2013/09/04,400,400,400,400,200,400
2013/09/05,400,401,398,398,800,398
2013/09/06,400,400,400,400,100,400
2013/09/09,401,403,401,402,1100,402
2013/09/10,405,412,405,412,6200,412
2013/09/11,413,413,401,404,2300,404
2013/09/12,403,404,403,404,1000,404
2013/09/13,404,406,404,406,5600,406
2013/09/17,405,410,405,410,1200,410
2013/09/18,412,412,406,406,1200,406
2013/09/19,408,409,407,409,500,409
2013/09/20,410,410,405,405,4400,405
2013/09/24,410,410,405,407,2000,407
2013/09/25,408,409,408,408,2500,408
2013/09/26,404,405,395,405,4900,405
2013/09/27,405,414,404,410,6800,410
2013/09/30,404,404,402,402,5900,402
2013/10/01,402,406,402,404,4600,404
2013/10/02,407,409,403,403,2400,403
2013/10/03,402,403,402,402,12700,402
2013/10/04,407,407,402,402,11300,402
2013/10/07,398,398,398,398,1100,398
2013/10/08,399,399,398,398,1100,398
2013/10/09,395,395,395,395,1900,395
2013/10/10,396,396,395,395,2000,395
2013/10/11,397,400,397,400,7100,400
2013/10/15,400,406,400,406,300,406
2013/10/16,405,405,401,403,2700,403
2013/10/17,405,405,405,405,100,405
2013/10/18,405,405,405,405,900,405
2013/10/21,408,408,405,405,1000,405
2013/10/22,405,405,398,405,2700,405
2013/10/23,404,404,401,402,1300,402
2013/10/24,402,403,398,399,4100,399
2013/10/25,402,403,400,400,600,400
2013/10/28,402,402,391,391,4300,391
2013/10/29,395,403,395,403,400,403
2013/10/30,399,400,399,400,200,400
2013/10/31,400,400,395,399,1900,399
2013/11/01,397,397,397,397,1100,397
2013/11/05,401,401,397,398,1400,398
2013/11/06,400,400,392,400,38100,400
2013/11/07,401,401,392,392,1300,392
2013/11/08,392,392,392,392,300,392
2013/11/11,395,395,395,395,300,395
2013/11/12,396,398,396,398,5400,398
2013/11/13,400,400,396,396,900,396
2013/11/14,397,400,397,399,12600,399
2013/11/15,400,400,397,399,2300,399
2013/11/18,401,401,397,397,600,397
2013/11/19,401,401,400,401,400,401
2013/11/20,401,401,400,401,900,401
2013/11/21,401,401,398,400,1500,400
2013/11/22,400,401,393,401,6000,401
2013/11/25,401,402,401,402,2500,402
2013/11/26,402,402,398,401,1900,401
2013/11/27,398,398,398,398,4000,398
2013/11/28,400,401,400,401,1400,401
2013/11/29,399,399,398,399,1900,399
2013/12/02,399,403,399,403,1300,403
2013/12/03,401,402,400,402,1200,402
2013/12/04,403,410,403,406,8200,406
2013/12/05,410,410,410,410,300,410
2013/12/06,410,410,408,409,2700,409
2013/12/09,408,408,404,404,10400,404
2013/12/10,404,404,404,404,100,404
2013/12/11,406,408,391,408,4000,408
2013/12/12,406,407,406,407,1200,407
2013/12/16,405,405,403,403,1400,403
2013/12/17,398,403,398,403,7200,403
2013/12/18,400,402,397,402,1600,402
2013/12/19,402,402,390,400,8700,400
2013/12/20,400,400,392,399,5100,399
2013/12/24,399,400,396,399,3200,399
2013/12/25,399,399,392,399,6300,399
2013/12/26,400,406,400,406,1800,406
2013/12/27,405,408,403,408,2600,408
2013/12/30,400,408,400,408,15900,408
2014/01/06,408,409,408,409,1300,409
2014/01/07,410,411,409,411,1700,411
2014/01/08,412,415,412,413,3100,413
2014/01/09,418,424,418,419,3000,419
2014/01/10,418,429,418,429,2700,429
2014/01/14,426,428,421,421,3900,421
2014/01/15,423,431,423,424,6500,424
2014/01/16,429,429,425,429,3800,429
2014/01/17,429,437,429,437,5000,437
2014/01/20,440,447,436,437,12300,437
2014/01/21,437,440,436,438,4600,438
2014/01/22,438,441,438,440,1200,440
2014/01/23,440,441,432,441,3200,441
2014/01/24,437,438,430,434,4100,434
2014/01/27,421,425,417,418,2700,418
2014/01/28,418,433,418,432,3300,432
2014/01/29,432,434,432,434,1600,434
2014/01/30,423,426,420,420,800,420
2014/01/31,417,417,405,409,8800,409
2014/02/03,407,411,398,398,8900,398
2014/02/04,395,395,385,393,25400,393
2014/02/05,394,395,393,395,2200,395
2014/02/06,397,397,395,395,500,395
2014/02/07,397,405,397,405,3500,405
2014/02/10,402,405,402,405,6100,405
2014/02/12,405,405,405,405,1100,405
2014/02/13,402,406,402,406,400,406
2014/02/14,404,404,400,401,1400,401
2014/02/17,402,402,400,401,1600,401
2014/02/18,406,408,399,406,4100,406
2014/02/19,407,407,407,407,300,407
2014/02/20,407,407,404,404,1200,404
2014/02/21,408,408,407,407,700,407
2014/02/24,413,415,412,412,1700,412
2014/02/25,412,413,412,413,500,413
2014/02/26,415,415,410,415,700,415
2014/02/27,416,418,416,418,1100,418
2014/02/28,418,418,415,415,1000,415
2014/03/03,415,418,411,418,800,418
2014/03/05,414,418,414,418,500,418
2014/03/06,418,418,418,418,200,418
2014/03/07,415,415,413,413,1200,413
2014/03/10,413,420,413,420,500,420
2014/03/11,420,425,420,425,400,425
2014/03/12,423,428,414,426,5900,426
2014/03/13,418,418,418,418,300,418
2014/03/14,413,416,410,410,1700,410
2014/03/17,410,410,405,405,2300,405
2014/03/18,410,419,405,413,8000,413
2014/03/19,415,415,413,413,2100,413
2014/03/20,413,413,405,406,6000,406
2014/03/24,405,406,405,405,1600,405
2014/03/25,405,409,405,407,1500,407
2014/03/26,408,408,406,406,1200,406
2014/03/27,406,406,406,406,400,406
2014/03/28,406,408,406,408,500,408
2014/03/31,416,416,415,415,200,415
2014/04/02,406,406,406,406,400,406
2014/04/03,411,411,402,402,1200,402
2014/04/04,403,407,400,407,2500,407
2014/04/07,407,407,407,407,200,407
2014/04/08,404,415,404,412,1300,412
2014/04/09,412,412,402,402,1200,402
2014/04/10,398,405,398,400,800,400
2014/04/11,399,399,397,399,2400,399
2014/04/15,404,404,404,404,200,404
2014/04/16,399,400,399,400,200,400
2014/04/18,404,404,400,400,3400,400
2014/04/21,400,400,400,400,1300,400
2014/04/22,400,400,400,400,800,400
2014/04/23,401,401,399,400,5700,400
2014/04/24,409,409,409,409,1800,409
2014/04/25,410,411,399,410,2700,410
2014/04/28,411,411,400,405,2600,405
2014/04/30,407,413,407,413,600,413
2014/05/01,411,411,403,411,2300,411
2014/05/02,411,411,411,411,100,411
2014/05/07,406,411,406,411,700,411
2014/05/08,410,410,402,402,1200,402
2014/05/13,407,407,400,400,2000,400
2014/05/14,401,402,401,401,13100,401
2014/05/15,402,404,402,402,700,402
2014/05/16,401,401,401,401,200,401
2014/05/19,403,403,401,402,1700,402
2014/05/20,402,402,401,401,600,401
2014/05/21,402,404,402,404,200,404
2014/05/22,409,409,404,406,1400,406
2014/05/23,401,403,401,403,1900,403
2014/05/26,404,406,404,406,500,406
2014/05/27,406,406,406,406,200,406
2014/05/28,406,406,402,402,200,402
2014/05/29,403,404,403,404,500,404
2014/05/30,403,404,403,403,2100,403
2014/06/02,404,404,403,403,900,403
2014/06/03,406,407,402,402,2100,402
2014/06/04,403,406,402,406,4600,406
2014/06/05,406,410,406,408,1900,408
2014/06/06,408,410,408,410,2700,410
2014/06/09,410,410,407,408,1800,408
2014/06/10,409,415,409,410,1300,410
2014/06/11,410,410,410,410,500,410
2014/06/12,409,415,409,412,600,412
2014/06/13,412,415,412,415,800,415
2014/06/16,418,419,416,419,2200,419
2014/06/17,420,420,416,416,200,416
2014/06/18,415,420,414,420,1300,420
2014/06/19,420,420,419,419,3400,419
2014/06/20,420,440,420,420,5600,420
2014/06/23,430,430,423,430,2100,430
2014/06/24,428,430,427,428,3100,428
2014/06/25,430,430,420,430,2200,430
2014/06/26,430,438,430,430,6500,430
2014/06/27,426,430,425,430,3800,430
2014/07/01,430,430,427,430,500,430
2014/07/02,425,430,425,430,2500,430
2014/07/03,428,428,426,426,600,426
2014/07/04,426,426,425,426,3400,426
2014/07/07,428,434,428,434,4000,434
2014/07/08,435,447,432,446,11400,446
2014/07/09,445,445,435,440,1800,440
2014/07/10,434,434,434,434,2000,434
2014/07/11,434,436,427,431,1800,431
2014/07/14,437,437,426,434,1200,434
2014/07/15,428,437,428,437,2900,437
2014/07/16,437,437,437,437,200,437
2014/07/17,437,437,429,434,4200,434
2014/07/18,434,434,430,430,1800,430
2014/07/22,434,434,434,434,100,434
2014/07/23,434,434,426,434,3100,434
2014/07/24,427,434,427,434,300,434
2014/07/25,428,433,427,427,3400,427
2014/07/28,431,432,428,430,1100,430
2014/07/29,429,429,427,427,1500,427
2014/07/30,429,434,429,434,2600,434
2014/07/31,433,433,428,431,3600,431
2014/08/01,430,430,430,430,500,430
2014/08/04,425,425,424,424,1700,424
2014/08/05,425,425,425,425,1100,425
2014/08/06,423,423,422,422,800,422
2014/08/07,415,419,415,419,2200,419
2014/08/08,418,426,418,419,3100,419
2014/08/11,419,426,419,426,900,426
2014/08/12,423,424,423,424,300,424
2014/08/13,422,422,422,422,100,422
2014/08/14,423,425,423,424,1200,424
2014/08/15,426,426,416,422,2700,422
2014/08/18,421,423,420,423,1400,423
2014/08/19,423,423,423,423,200,423
2014/08/20,423,429,423,428,1600,428
2014/08/21,436,436,436,436,900,436
2014/08/22,435,438,435,438,900,438
2014/08/25,438,439,435,437,1700,437
2014/08/26,439,449,437,448,6600,448
2014/08/27,449,452,449,450,4000,450
2014/08/28,449,449,445,449,1300,449
2014/08/29,445,449,442,449,1800,449
2014/09/01,445,446,443,446,800,446
2014/09/02,445,448,443,448,15600,448
2014/09/03,449,458,448,457,11200,457
2014/09/04,457,457,454,455,3300,455
2014/09/05,455,455,452,452,2000,452
2014/09/08,456,456,455,455,700,455
2014/09/09,455,455,449,453,1100,453
2014/09/10,453,453,443,444,13500,444
2014/09/11,446,450,446,447,2000,447
2014/09/12,446,448,446,448,600,448
2014/09/16,446,451,443,445,3200,445
2014/09/17,450,452,450,452,2500,452
2014/09/18,451,454,451,453,1100,453
2014/09/19,453,453,452,453,1400,453
2014/09/22,453,455,451,455,1400,455
2014/09/24,463,464,456,456,7700,456
2014/09/25,465,465,432,451,20200,451
2014/09/26,445,447,441,447,2800,447
2014/09/29,448,450,448,450,3200,450
2014/09/30,449,449,441,447,5000,447
2014/10/01,442,445,441,442,3400,442
2014/10/02,439,439,432,432,2100,432
2014/10/03,434,438,434,438,600,438
2014/10/06,442,442,441,441,300,441
2014/10/07,438,441,430,437,2800,437
2014/10/08,436,438,429,438,1000,438
2014/10/09,438,438,436,436,500,436
2014/10/10,434,435,430,434,2900,434
2014/10/14,428,428,416,420,2800,420
2014/10/15,420,424,420,424,500,424
2014/10/16,422,422,410,415,7000,415
2014/10/17,415,420,411,411,3100,411
2014/10/20,417,420,415,415,4400,415
2014/10/21,425,425,414,414,2200,414
2014/10/22,415,420,415,416,1000,416
2014/10/23,408,414,408,414,3100,414
2014/10/24,420,420,420,420,200,420
2014/10/27,419,422,418,418,800,418
2014/10/28,419,427,419,427,300,427
2014/10/29,428,430,428,430,1300,430
2014/10/30,429,440,429,440,3800,440
2014/10/31,439,439,423,437,8300,437
2014/11/04,440,440,436,439,4800,439
2014/11/05,438,438,438,438,100,438
2014/11/06,432,439,432,433,600,433
2014/11/07,433,433,430,430,1300,430
2014/11/10,430,434,425,434,14800,434
2014/11/12,432,440,432,438,1000,438
2014/11/13,437,437,432,435,1800,435
2014/11/14,434,445,434,445,4900,445
2014/11/17,443,443,442,443,800,443
2014/11/18,436,440,435,440,2400,440
2014/11/19,449,449,437,442,3500,442
2014/11/20,442,442,438,438,1100,438
2014/11/21,438,438,438,438,500,438
2014/11/25,439,440,437,438,12800,438
2014/11/26,438,439,435,439,4700,439
2014/11/27,440,440,437,437,1500,437
2014/11/28,434,444,434,444,2600,444
2014/12/01,448,448,444,444,3300,444
2014/12/02,444,446,444,446,3100,446
2014/12/03,442,448,442,446,1500,446
2014/12/04,446,451,446,451,2800,451
2014/12/05,451,453,450,453,7400,453
2014/12/08,455,460,455,458,6600,458
2014/12/09,459,460,442,458,13700,458
2014/12/10,454,457,450,455,16000,455
2014/12/11,449,450,440,450,7000,450
2014/12/12,446,449,446,446,1100,446
2014/12/15,446,448,446,448,1200,448
2014/12/16,446,446,434,434,3600,434
2014/12/17,432,440,432,440,600,440
2014/12/18,441,443,437,437,4400,437
2014/12/19,438,442,430,441,7200,441
2014/12/22,438,445,435,445,8700,445
2014/12/24,445,447,442,447,13400,447
2014/12/25,446,453,443,449,9000,449
2014/12/26,452,452,449,449,700,449
2014/12/29,450,450,443,447,2700,447
2014/12/30,447,447,442,446,6400,446
2015/01/05,447,447,446,446,6600,446
2015/01/06,445,445,434,439,15500,439
2015/01/07,439,448,439,448,8700,448
2015/01/08,451,470,448,470,6500,470
2015/01/09,470,476,457,465,4400,465
2015/01/13,465,465,450,459,2800,459
2015/01/14,459,459,450,450,1500,450
2015/01/15,442,450,442,449,3000,449
2015/01/16,442,451,442,449,1900,449
2015/01/19,452,457,450,453,1900,453
2015/01/20,460,460,457,457,1100,457
2015/01/21,465,465,454,454,1000,454
2015/01/22,456,456,455,455,600,455
2015/01/23,453,453,452,452,900,452
2015/01/26,455,455,452,452,2300,452
2015/01/27,454,461,454,457,1300,457
2015/01/28,460,463,460,463,900,463
2015/01/29,460,472,460,469,6100,469
2015/01/30,461,461,450,452,10200,452
2015/02/02,459,459,451,456,1600,456
2015/02/03,456,457,449,449,2300,449
2015/02/04,452,452,448,449,1000,449
2015/02/05,450,451,447,451,500,451
2015/02/06,443,448,443,448,7700,448
2015/02/09,448,454,448,451,2600,451
2015/02/10,459,459,454,454,200,454
2015/02/12,454,456,454,456,400,456
2015/02/13,456,458,453,458,1000,458
2015/02/16,462,462,458,462,3700,462
2015/02/17,463,464,463,463,5700,463
2015/02/18,455,460,455,458,3400,458
2015/02/19,460,468,460,462,1200,462
2015/02/20,465,467,459,466,5500,466
2015/02/23,468,468,462,464,1800,464
2015/02/24,464,465,461,465,2700,465
2015/02/25,465,468,447,468,8900,468
2015/02/26,456,467,456,466,5100,466
2015/02/27,459,470,459,469,6600,469
2015/03/02,470,470,460,462,6600,462
2015/03/03,462,467,462,466,3600,466
2015/03/04,466,466,455,462,13000,462
2015/03/05,465,466,460,460,2600,460
2015/03/06,458,463,456,463,4800,463
2015/03/09,457,458,456,456,4900,456
2015/03/10,456,460,450,450,12700,450
2015/03/11,450,450,448,450,6900,450
2015/03/12,453,455,451,454,4000,454
2015/03/13,455,459,454,458,2800,458
2015/03/16,458,461,455,460,13500,460
2015/03/17,463,464,462,464,5800,464
2015/03/18,458,464,458,460,5800,460
2015/03/19,460,460,455,460,3400,460
2015/03/20,460,462,456,462,2600,462
2015/03/23,464,472,463,468,10700,468
2015/03/24,468,470,466,470,2800,470
2015/03/25,469,469,461,462,2800,462
2015/03/26,462,462,460,460,3000,460
2015/03/27,455,455,454,454,1500,454
2015/03/30,454,454,453,453,1000,453
2015/03/31,455,455,451,451,2400,451
2015/04/01,453,453,450,451,400,451
2015/04/02,453,460,452,455,1800,455
2015/04/03,459,462,459,462,4100,462
2015/04/06,464,464,462,464,1700,464
2015/04/07,465,465,459,461,2800,461
2015/04/08,461,464,461,464,900,464
2015/04/09,463,463,455,461,1800,461
2015/04/10,462,465,459,464,3200,464
2015/04/13,464,465,463,465,1400,465
2015/04/14,465,465,461,465,2300,465
2015/04/15,466,466,463,465,3100,465
2015/04/16,466,468,466,466,3400,466
2015/04/17,466,466,460,466,1500,466
2015/04/20,466,466,461,464,2400,464
2015/04/21,464,464,462,464,1000,464
2015/04/22,464,464,456,463,4800,463
2015/04/23,463,463,460,463,500,463
2015/04/24,463,466,463,466,600,466
2015/04/27,466,467,465,465,1000,465
2015/04/28,464,467,461,467,6000,467
2015/04/30,460,465,460,464,3600,464
2015/05/01,462,463,453,453,4200,453
2015/05/07,456,460,453,460,3600,460
2015/05/08,460,462,460,462,700,462
2015/05/11,464,464,452,458,6600,458
2015/05/12,457,463,455,463,7200,463
2015/05/13,463,463,462,463,600,463
2015/05/14,462,464,462,463,2300,463
2015/05/15,463,470,463,468,7900,468
2015/05/18,469,469,468,469,1900,469
2015/05/19,469,469,461,469,3900,469
2015/05/20,469,479,463,475,13300,475
2015/05/21,479,479,470,476,3300,476
2015/05/22,476,482,470,474,6600,474
2015/05/25,488,495,479,495,8100,495
2015/05/26,493,495,488,495,3700,495
2015/05/27,494,500,493,500,9800,500
2015/05/28,518,527,503,521,13100,521
2015/05/29,508,513,502,513,1900,513
2015/06/01,519,519,503,507,2200,507
2015/06/02,504,504,478,488,8000,488
2015/06/03,496,502,485,497,7600,497
2015/06/04,499,500,499,499,8200,499
2015/06/05,492,504,492,504,1400,504
2015/06/08,504,504,480,489,5700,489
2015/06/09,495,495,495,495,600,495
2015/06/10,490,499,485,499,1700,499
2015/06/11,492,499,492,495,900,495
2015/06/12,498,498,497,498,300,498
2015/06/15,497,503,497,503,1500,503
2015/06/16,503,503,501,502,2100,502
2015/06/17,500,500,497,497,900,497
2015/06/18,497,498,493,495,4000,495
2015/06/19,494,496,493,496,2700,496
2015/06/22,496,503,493,493,4900,493
2015/06/23,493,498,493,498,2000,498
2015/06/24,498,500,497,500,2800,500
2015/06/25,500,503,500,503,2000,503
2015/06/26,502,507,498,500,12500,500
2015/06/29,500,500,489,499,2900,499
2015/06/30,498,498,496,498,600,498
2015/07/01,498,506,498,506,2100,506
