2011/01/04,682,686,680,684,3500,684
2011/01/05,684,689,684,689,3700,689
2011/01/06,689,695,687,695,5300,695
2011/01/07,696,696,688,690,6400,690
2011/01/11,692,697,687,697,4600,697
2011/01/12,698,699,696,696,4600,696
2011/01/13,700,702,695,700,6700,700
2011/01/14,703,724,701,723,8100,723
2011/01/17,725,733,724,733,8400,733
2011/01/18,735,755,735,755,9800,755
2011/01/19,759,776,752,776,19000,776
2011/01/20,785,815,781,805,27100,805
2011/01/21,813,813,752,762,20200,762
2011/01/24,763,775,760,765,6700,765
2011/01/25,761,766,754,756,8200,756
2011/01/26,756,761,756,760,3700,760
2011/01/27,756,764,754,760,4500,760
2011/01/28,750,755,740,746,8300,746
2011/01/31,740,770,730,767,15200,767
2011/02/01,782,785,767,779,13300,779
2011/02/02,785,785,761,764,6700,764
2011/02/03,779,784,767,777,8100,777
2011/02/04,770,783,770,778,5000,778
2011/02/07,785,786,777,783,5400,783
2011/02/08,783,786,781,781,2400,781
2011/02/09,777,777,770,775,4400,775
2011/02/10,763,778,763,774,2900,774
2011/02/14,787,798,778,796,12100,796
2011/02/15,800,807,800,805,5500,805
2011/02/16,805,810,803,806,10000,806
2011/02/17,810,819,803,819,14000,819
2011/02/18,819,829,819,829,9000,829
2011/02/21,835,845,833,844,11100,844
2011/02/22,840,844,836,837,6700,837
2011/02/23,830,844,830,836,7800,836
2011/02/24,838,843,825,839,11300,839
2011/02/25,831,840,830,840,8600,840
2011/02/28,839,848,800,848,14200,848
2011/03/01,850,853,842,851,6400,851
2011/03/02,850,850,841,846,3400,846
2011/03/03,849,859,844,859,6700,859
2011/03/04,870,870,858,861,4600,861
2011/03/07,875,882,864,866,6800,866
2011/03/08,873,888,873,888,9900,888
2011/03/09,894,903,889,899,11700,899
2011/03/10,900,900,872,889,10400,889
2011/03/11,874,900,870,884,20200,884
2011/03/14,734,775,734,735,35800,735
2011/03/15,707,720,585,610,28100,610
2011/03/16,610,685,610,685,15500,685
2011/03/17,681,730,675,716,12500,716
2011/03/18,740,799,736,799,12500,799
2011/03/22,821,831,810,825,4900,825
2011/03/23,812,827,811,817,10000,817
2011/03/24,807,827,805,822,5600,822
2011/03/25,832,832,811,825,8100,825
2011/03/28,824,824,812,815,23200,815
2011/03/29,814,815,773,808,15900,808
2011/03/30,808,824,794,824,6500,824
2011/03/31,829,837,815,815,9900,815
2011/04/01,820,824,805,805,5600,805
2011/04/04,800,805,794,801,3200,801
2011/04/05,805,805,769,772,2700,772
2011/04/06,762,762,739,739,7200,739
2011/04/07,734,734,725,730,2900,730
2011/04/08,725,745,721,734,2300,734
2011/04/11,720,750,720,749,4700,749
2011/04/12,742,749,725,727,6700,727
2011/04/13,727,735,720,727,2200,727
2011/04/14,727,740,727,727,3400,727
2011/04/15,727,728,720,724,5900,724
2011/04/18,720,720,708,708,6500,708
2011/04/19,708,711,687,688,10800,688
2011/04/20,700,700,691,697,8000,697
2011/04/21,698,704,697,699,6300,699
2011/04/22,709,710,700,710,3200,710
2011/04/25,687,718,687,695,16800,695
2011/04/26,690,700,690,691,3200,691
2011/04/27,691,691,679,679,3300,679
2011/04/28,687,710,679,683,8900,683
2011/05/02,683,699,683,695,9100,695
2011/05/06,700,700,692,694,4900,694
2011/05/09,694,694,689,690,3000,690
2011/05/10,698,706,690,692,8900,692
2011/05/11,695,695,688,692,10000,692
2011/05/12,691,692,688,689,4200,689
2011/05/13,688,690,683,686,4600,686
2011/05/16,685,700,670,671,5700,671
2011/05/17,672,680,672,672,2200,672
2011/05/18,674,680,673,679,2700,679
2011/05/19,679,681,672,676,3900,676
2011/05/20,671,679,671,676,1900,676
2011/05/23,680,686,680,686,2800,686
2011/05/24,683,689,683,687,2700,687
2011/05/25,682,683,671,677,5800,677
2011/05/26,687,689,683,685,2300,685
2011/05/27,682,693,682,692,2400,692
2011/05/30,697,700,685,692,4300,692
2011/05/31,696,701,696,700,2300,700
2011/06/01,700,704,700,704,1200,704
2011/06/02,703,704,698,702,5200,702
2011/06/03,710,710,695,696,3500,696
2011/06/06,702,705,697,699,2600,699
2011/06/07,694,704,694,701,1400,701
2011/06/08,696,703,695,696,2700,696
2011/06/09,694,694,690,692,1800,692
2011/06/10,698,702,698,701,6900,701
2011/06/13,700,702,700,701,1700,701
2011/06/14,696,704,696,698,6100,698
2011/06/15,700,705,690,693,4100,693
2011/06/16,697,698,695,696,2100,696
2011/06/17,702,702,695,695,2100,695
2011/06/20,702,702,698,699,1800,699
2011/06/21,700,700,698,700,1900,700
2011/06/22,700,705,700,703,5400,703
2011/06/23,700,705,700,705,7400,705
2011/06/24,735,735,716,720,14700,720
2011/06/27,715,717,712,712,3400,712
2011/06/28,712,714,710,713,2000,713
2011/06/29,714,722,713,719,2400,719
2011/06/30,721,730,721,730,5500,730
2011/07/01,735,760,720,760,6900,760
2011/07/04,775,780,740,769,7700,769
2011/07/05,775,775,763,763,3000,763
2011/07/06,764,765,759,765,3200,765
2011/07/07,770,770,752,762,3800,762
2011/07/08,772,773,762,769,1400,769
2011/07/11,760,762,750,762,5100,762
2011/07/12,752,764,752,762,1900,762
2011/07/13,762,772,756,771,6800,771
2011/07/14,775,775,767,773,5300,773
2011/07/15,765,769,760,769,4100,769
2011/07/19,769,774,769,770,3000,770
2011/07/20,766,770,760,765,3700,765
2011/07/21,770,770,762,763,1600,763
2011/07/22,763,775,761,772,4400,772
2011/07/25,774,774,725,754,8600,754
2011/07/26,754,760,754,755,1300,755
2011/07/27,752,760,750,756,3800,756
2011/07/28,745,755,745,750,3100,750
2011/07/29,750,753,745,745,3300,745
2011/08/01,723,745,723,735,4300,735
2011/08/02,750,752,741,744,2000,744
2011/08/03,744,744,725,729,4300,729
2011/08/04,737,752,737,742,3700,742
2011/08/05,721,728,718,727,5700,727
2011/08/08,727,730,711,711,5700,711
2011/08/09,696,699,681,685,11600,685
2011/08/10,709,737,703,706,3800,706
2011/08/11,700,700,685,699,2700,699
2011/08/12,704,705,695,695,4100,695
2011/08/15,700,705,696,701,2500,701
2011/08/16,704,721,704,721,2500,721
2011/08/17,733,733,730,731,2300,731
2011/08/18,737,737,728,730,1300,730
2011/08/19,728,728,712,721,2800,721
2011/08/22,711,726,711,725,3400,725
2011/08/23,730,730,716,730,2700,730
2011/08/24,735,739,728,734,5300,734
2011/08/25,735,735,729,729,4500,729
2011/08/26,735,735,730,735,1600,735
2011/08/29,744,750,740,750,5100,750
2011/08/30,757,763,753,760,4200,760
2011/08/31,762,762,752,758,3100,758
2011/09/01,760,770,760,765,4800,765
2011/09/02,765,775,761,775,3300,775
2011/09/05,769,775,769,774,7100,774
2011/09/06,774,787,774,787,5100,787
2011/09/07,787,789,776,785,7900,785
2011/09/08,775,790,774,782,4200,782
2011/09/09,780,789,780,783,8000,783
2011/09/12,779,783,779,782,2700,782
2011/09/13,780,790,773,790,2800,790
2011/09/14,775,790,767,768,7100,768
2011/09/15,773,782,773,782,2800,782
2011/09/16,787,795,785,795,5400,795
2011/09/20,783,789,783,788,2700,788
2011/09/21,783,786,780,783,3800,783
2011/09/22,782,786,780,786,4600,786
2011/09/26,780,780,765,766,9000,766
2011/09/27,779,779,766,768,26500,768
2011/09/28,755,778,755,773,14600,773
2011/09/29,758,778,757,778,4000,778
2011/09/30,770,777,760,764,5700,764
2011/10/03,751,752,748,752,6000,752
2011/10/04,741,750,740,748,5000,748
2011/10/05,758,758,707,719,6900,719
2011/10/06,730,733,721,721,1400,721
2011/10/07,736,743,721,743,2200,743
2011/10/11,745,750,715,750,3500,750
2011/10/12,735,765,735,759,2900,759
2011/10/13,758,761,755,760,800,760
2011/10/14,759,759,748,748,1100,748
2011/10/17,750,751,744,751,1000,751
2011/10/18,751,751,743,743,1300,743
2011/10/19,748,748,731,734,1300,734
2011/10/20,736,742,734,734,500,734
2011/10/21,739,739,732,735,1500,735
2011/10/24,736,736,711,726,4300,726
2011/10/25,726,727,721,721,3400,721
2011/10/26,722,736,722,734,1100,734
2011/10/27,734,740,726,740,1500,740
2011/10/28,741,746,732,732,3400,732
2011/10/31,740,744,721,721,3500,721
2011/11/01,733,733,711,724,5400,724
2011/11/02,709,713,709,712,3600,712
2011/11/04,712,719,711,711,1600,711
2011/11/07,720,721,717,720,2800,720
2011/11/08,710,717,710,710,2900,710
2011/11/09,719,721,700,703,9000,703
2011/11/10,703,703,699,700,1700,700
2011/11/11,700,707,697,702,2400,702
2011/11/14,712,722,703,722,2900,722
2011/11/15,720,720,720,720,300,720
2011/11/16,720,720,703,710,1000,710
2011/11/17,705,718,703,718,900,718
2011/11/18,718,718,701,704,1500,704
2011/11/21,702,711,701,711,600,711
2011/11/22,705,717,705,717,3600,717
2011/11/24,705,725,705,707,6600,707
2011/11/25,706,718,706,712,2900,712
2011/11/28,712,718,710,710,1900,710
2011/11/29,710,725,710,725,2200,725
2011/11/30,715,725,707,719,2300,719
2011/12/01,711,729,711,729,4300,729
2011/12/02,727,727,712,717,5300,717
2011/12/05,722,722,716,716,2000,716
2011/12/06,720,720,707,707,4000,707
2011/12/07,709,718,708,718,3100,718
2011/12/08,718,719,716,716,4700,716
2011/12/09,706,713,706,711,6600,711
2011/12/12,718,723,706,715,4000,715
2011/12/13,711,716,710,710,2300,710
2011/12/14,716,716,709,711,2100,711
2011/12/15,712,736,703,710,9500,710
2011/12/16,719,719,711,715,5800,715
2011/12/19,719,719,716,717,3300,717
2011/12/20,717,719,715,719,3700,719
2011/12/21,719,723,716,719,2000,719
2011/12/22,718,734,718,734,6400,734
2011/12/26,722,730,719,724,9500,724
2011/12/27,721,721,720,720,1200,720
2011/12/28,719,722,719,720,800,720
2011/12/29,725,725,717,719,1900,719
2011/12/30,720,728,719,723,1800,723
2012/01/04,725,736,725,736,3500,736
2012/01/05,736,737,733,733,1300,733
2012/01/06,731,733,728,730,1300,730
2012/01/10,729,732,729,729,3000,729
2012/01/11,732,736,732,736,700,736
2012/01/12,736,736,731,731,2800,731
2012/01/13,731,733,728,732,2600,732
2012/01/16,730,743,728,741,5900,741
2012/01/17,740,741,733,739,4400,739
2012/01/18,743,753,740,753,3800,753
2012/01/19,758,763,757,757,2100,757
2012/01/20,754,775,754,772,4800,772
2012/01/23,772,772,763,770,3800,770
2012/01/24,770,775,770,775,3400,775
2012/01/25,770,777,770,777,6700,777
2012/01/26,777,777,767,767,2800,767
2012/01/27,771,780,753,778,2200,778
2012/01/30,769,787,769,784,3300,784
2012/01/31,784,784,774,775,2800,775
2012/02/01,775,777,770,771,2600,771
2012/02/02,779,783,771,783,2600,783
2012/02/03,778,781,770,774,2200,774
2012/02/06,770,776,766,776,9100,776
2012/02/07,775,778,775,776,1200,776
2012/02/08,776,779,776,777,4700,777
2012/02/09,780,780,776,780,2700,780
2012/02/10,780,780,772,772,1600,772
2012/02/13,774,780,773,778,1400,778
2012/02/14,777,780,773,780,2900,780
2012/02/15,781,782,778,782,2100,782
2012/02/16,792,792,783,783,8300,783
2012/02/17,787,794,781,785,3400,785
2012/02/20,790,794,783,792,4900,792
2012/02/21,794,794,793,793,1900,793
2012/02/22,799,810,793,810,5400,810
2012/02/23,810,820,806,807,5200,807
2012/02/24,803,814,803,814,5300,814
2012/02/27,820,825,811,821,4900,821
2012/02/28,831,838,825,838,3300,838
2012/02/29,829,837,829,829,6600,829
2012/03/01,833,834,815,817,8400,817
2012/03/02,820,828,811,824,4300,824
2012/03/05,822,834,820,823,9900,823
2012/03/06,823,833,822,828,2900,828
2012/03/07,820,836,820,826,12400,826
2012/03/08,823,835,822,830,11200,830
2012/03/09,840,840,830,832,9400,832
2012/03/12,835,844,835,844,5600,844
2012/03/13,844,857,844,846,12600,846
2012/03/14,848,855,845,845,6900,845
2012/03/15,920,937,905,915,62800,915
2012/03/16,906,910,902,906,18800,906
2012/03/19,915,915,906,909,9800,909
2012/03/21,910,920,910,910,13000,910
2012/03/22,911,914,910,913,7200,913
2012/03/23,912,916,912,916,11700,916
2012/03/26,910,915,903,904,16900,904
2012/03/27,905,910,904,910,37800,910
2012/03/28,895,895,869,870,41000,870
2012/03/29,872,878,868,877,8900,877
2012/03/30,865,882,862,870,13500,870
2012/04/02,867,868,859,859,9700,859
2012/04/03,859,859,847,848,7700,848
2012/04/04,845,845,837,841,9300,841
2012/04/05,825,826,818,823,5900,823
2012/04/06,822,822,816,822,2800,822
2012/04/09,803,815,803,815,3900,815
2012/04/10,815,835,812,831,2600,831
2012/04/11,829,829,820,824,2500,824
2012/04/12,822,830,822,825,2500,825
2012/04/13,825,840,825,837,2900,837
2012/04/16,830,845,830,839,4200,839
2012/04/17,845,869,845,869,6400,869
2012/04/18,875,887,874,887,5500,887
2012/04/19,879,885,865,865,5500,865
2012/04/20,865,875,865,875,2700,875
2012/04/23,889,889,880,888,6600,888
2012/04/24,885,900,865,876,8000,876
2012/04/25,880,885,878,885,2700,885
2012/04/26,885,887,877,882,2100,882
2012/04/27,879,888,878,886,4700,886
2012/05/01,888,888,881,882,3100,882
2012/05/02,871,878,855,878,5500,878
2012/05/07,875,875,862,873,2500,873
2012/05/08,870,870,855,866,2300,866
2012/05/09,852,861,851,853,1900,853
2012/05/10,849,849,828,837,5400,837
2012/05/11,831,832,816,816,2900,816
2012/05/14,820,820,808,810,2000,810
2012/05/15,805,805,791,803,3100,803
2012/05/16,804,818,801,805,3100,805
2012/05/17,807,809,779,799,4900,799
2012/05/18,792,792,780,786,7100,786
2012/05/21,771,785,770,785,3500,785
2012/05/22,785,795,785,785,1700,785
2012/05/23,785,786,778,779,3200,779
2012/05/24,790,790,781,784,2200,784
2012/05/25,799,799,791,799,2500,799
2012/05/28,790,794,778,785,4900,785
2012/05/29,803,803,789,800,800,800
2012/05/30,790,791,784,791,2100,791
2012/05/31,795,802,777,801,2700,801
2012/06/01,800,800,781,795,2000,795
2012/06/04,790,790,779,786,3100,786
2012/06/05,791,795,790,794,2200,794
2012/06/06,798,800,794,800,2400,800
2012/06/07,804,835,804,830,6700,830
2012/06/08,835,835,812,822,6800,822
2012/06/11,828,829,810,810,2000,810
2012/06/12,810,811,800,810,1800,810
2012/06/13,815,815,810,811,800,811
2012/06/14,816,816,802,810,1400,810
2012/06/15,803,804,802,802,1400,802
2012/06/18,812,812,811,811,1400,811
2012/06/19,812,826,805,826,2100,826
2012/06/20,829,830,827,830,2800,830
2012/06/21,830,839,829,830,10300,830
2012/06/22,836,850,835,847,5400,847
2012/06/25,875,875,853,859,11500,859
2012/06/26,874,883,841,881,10800,881
2012/06/27,881,881,870,871,6000,871
2012/06/28,856,880,856,880,6900,880
2012/06/29,880,880,860,869,4200,869
2012/07/02,874,880,872,872,3300,872
2012/07/03,878,879,871,875,3900,875
2012/07/04,883,886,874,885,4000,885
2012/07/05,885,887,875,876,5700,876
2012/07/06,861,872,860,865,6700,865
2012/07/09,855,860,855,859,2900,859
2012/07/10,856,860,854,854,2300,854
2012/07/11,855,857,852,852,2300,852
2012/07/12,858,858,852,854,2600,854
2012/07/13,845,853,844,848,3000,848
2012/07/17,858,858,851,851,2200,851
2012/07/18,855,858,851,851,1300,851
2012/07/19,859,859,850,855,2100,855
2012/07/20,856,856,844,844,2200,844
2012/07/23,835,839,815,815,5400,815
2012/07/24,815,831,815,819,4000,819
2012/07/25,819,827,815,820,5600,820
2012/07/26,825,830,816,830,2100,830
2012/07/27,830,839,824,827,2200,827
2012/07/30,839,839,838,839,2300,839
2012/07/31,830,866,830,866,4900,866
2012/08/01,851,865,841,865,1900,865
2012/08/02,866,869,841,843,2100,843
2012/08/03,843,870,841,842,8500,842
2012/08/06,857,857,845,852,5100,852
2012/08/07,851,854,846,846,3800,846
2012/08/08,861,863,851,857,1600,857
2012/08/09,858,868,849,868,5100,868
2012/08/10,869,869,863,868,2300,868
2012/08/13,866,874,866,867,2200,867
2012/08/14,873,885,871,885,3900,885
2012/08/15,885,898,875,883,5800,883
2012/08/16,899,900,884,900,9400,900
2012/08/17,895,902,894,902,5900,902
2012/08/20,900,901,897,899,7500,899
2012/08/21,894,894,890,890,4100,890
2012/08/22,890,894,887,894,2900,894
2012/08/23,899,900,887,898,8000,898
2012/08/24,900,900,895,896,2400,896
2012/08/27,894,900,894,897,3100,897
2012/08/28,899,899,893,895,11900,895
2012/08/29,898,903,895,903,15600,903
2012/08/30,900,901,895,895,5300,895
2012/08/31,895,900,888,888,5100,888
2012/09/03,896,896,881,881,6100,881
2012/09/04,882,883,875,876,7200,876
2012/09/05,875,875,858,859,7700,859
2012/09/06,862,862,844,854,7800,854
2012/09/07,867,867,850,851,4600,851
2012/09/10,858,858,845,850,7900,850
2012/09/11,850,860,850,860,3400,860
2012/09/12,860,868,859,868,5800,868
2012/09/13,875,887,875,885,5400,885
2012/09/14,886,898,884,897,11800,897
2012/09/18,890,893,880,885,13200,885
2012/09/19,898,898,870,876,14700,876
2012/09/20,872,875,869,874,5700,874
2012/09/21,871,873,869,870,7700,870
2012/09/24,870,875,868,869,15700,869
2012/09/25,868,870,860,870,90900,870
2012/09/26,858,868,854,867,44700,867
2012/09/27,863,868,863,863,10600,863
2012/09/28,863,869,849,866,10000,866
2012/10/01,860,860,844,849,5100,849
2012/10/02,834,840,832,832,7000,832
2012/10/03,831,831,820,822,3600,822
2012/10/04,816,828,805,818,4500,818
2012/10/05,832,832,828,831,3500,831
2012/10/09,831,836,830,830,2600,830
2012/10/10,825,825,815,815,2200,815
2012/10/11,810,815,810,812,1900,812
2012/10/12,809,813,800,800,5300,800
2012/10/15,800,806,790,799,3000,799
2012/10/16,795,805,795,796,2300,796
2012/10/17,810,812,794,794,3900,794
2012/10/18,808,810,804,804,1900,804
2012/10/19,804,810,801,809,5300,809
2012/10/22,804,820,804,820,4300,820
2012/10/23,817,828,815,817,3300,817
2012/10/24,815,826,813,826,2900,826
2012/10/25,826,826,811,826,2800,826
2012/10/26,826,837,821,837,5000,837
2012/10/29,840,840,826,837,2100,837
2012/10/30,836,839,796,797,15700,797
2012/10/31,827,839,813,833,7900,833
2012/11/01,839,839,828,836,2600,836
2012/11/02,830,838,830,838,3000,838
2012/11/05,840,840,832,837,2700,837
2012/11/06,837,837,834,834,1200,834
2012/11/07,839,839,833,836,2100,836
2012/11/08,837,837,832,834,1200,834
2012/11/09,832,832,828,829,2300,829
2012/11/12,827,832,821,821,1800,821
2012/11/13,820,820,810,810,4100,810
2012/11/14,815,815,808,811,1500,811
2012/11/15,810,829,808,829,1300,829
2012/11/16,829,836,829,830,1100,830
2012/11/19,815,824,813,819,15600,819
2012/11/20,815,826,815,826,2900,826
2012/11/21,823,829,819,828,2200,828
2012/11/22,830,832,828,830,5000,830
2012/11/26,830,834,830,830,7000,830
2012/11/27,830,833,829,832,4000,832
2012/11/28,832,832,831,832,1500,832
2012/11/29,835,835,827,827,5200,827
2012/11/30,827,830,827,829,2400,829
2012/12/03,816,824,816,822,5000,822
2012/12/04,824,828,822,828,1900,828
2012/12/05,830,830,828,830,3200,830
2012/12/06,830,831,826,829,4600,829
2012/12/07,830,831,827,827,3000,827
2012/12/10,830,830,826,827,2400,827
2012/12/11,829,830,826,826,2100,826
2012/12/12,827,828,825,825,4000,825
2012/12/13,825,826,820,825,6700,825
2012/12/14,821,826,821,822,9600,822
2012/12/17,829,833,826,830,3900,830
2012/12/18,834,839,834,835,6100,835
2012/12/19,835,839,834,839,8000,839
2012/12/20,839,848,836,841,6900,841
2012/12/21,842,849,842,848,5300,848
2012/12/25,857,857,850,854,9600,854
2012/12/26,848,853,848,850,4700,850
2012/12/27,849,854,849,851,6300,851
2012/12/28,854,861,850,850,7300,850
2013/01/04,857,869,857,862,9100,862
2013/01/07,871,871,864,864,7700,864
2013/01/08,866,869,864,866,5000,866
2013/01/09,870,870,863,866,7000,866
2013/01/10,870,870,866,870,4200,870
2013/01/11,870,872,864,869,7900,869
2013/01/15,876,876,872,876,4900,876
2013/01/16,876,881,872,877,7800,877
2013/01/17,873,875,865,872,6700,872
2013/01/18,873,880,872,879,4700,879
2013/01/21,880,885,878,882,3900,882
2013/01/22,889,889,883,883,6300,883
2013/01/23,888,888,883,883,4000,883
2013/01/24,883,889,883,885,5000,885
2013/01/25,889,895,889,895,5700,895
2013/01/28,900,901,896,897,7600,897
2013/01/29,900,908,900,905,3100,905
2013/01/30,905,914,905,911,7200,911
2013/01/31,914,916,908,912,7200,912
2013/02/01,912,917,912,912,4500,912
2013/02/04,918,929,916,920,4600,920
2013/02/05,920,923,918,918,7000,918
2013/02/06,922,925,921,922,5200,922
2013/02/07,923,923,916,916,5500,916
2013/02/08,915,915,911,912,6000,912
2013/02/12,915,916,906,906,7800,906
2013/02/13,906,909,900,900,7700,900
2013/02/14,908,908,895,895,7000,895
2013/02/15,894,895,868,875,7700,875
2013/02/18,887,900,880,899,6100,899
2013/02/19,900,900,898,898,2700,898
2013/02/20,898,901,898,901,3700,901
2013/02/21,901,903,899,899,4000,899
2013/02/22,899,900,895,895,5500,895
2013/02/25,902,908,899,899,7000,899
2013/02/26,899,909,899,900,5700,900
2013/02/27,910,911,902,905,4200,905
2013/02/28,901,906,893,893,18700,893
2013/03/01,895,895,890,895,9000,895
2013/03/04,904,907,900,905,8000,905
2013/03/05,909,915,906,915,6300,915
2013/03/06,921,932,921,924,10400,924
2013/03/07,925,930,925,928,5600,928
2013/03/08,932,935,919,931,23800,931
2013/03/11,935,939,935,937,10000,937
2013/03/12,944,947,943,944,9700,944
2013/03/13,948,956,937,937,16600,937
2013/03/14,941,948,935,940,6900,940
2013/03/15,944,950,944,948,8300,948
2013/03/18,945,954,941,951,13900,951
2013/03/19,954,955,952,952,8700,952
2013/03/21,955,960,955,958,12200,958
2013/03/22,960,963,958,958,11400,958
2013/03/25,959,963,956,956,28500,956
2013/03/26,949,953,940,949,117800,949
2013/03/27,918,929,918,923,35900,923
2013/03/28,920,926,918,923,9100,923
2013/03/29,943,949,918,918,14100,918
2013/04/01,917,918,889,889,12400,889
2013/04/02,874,885,874,874,13200,874
2013/04/03,876,891,876,890,7200,890
2013/04/04,880,920,880,919,10600,919
2013/04/05,923,929,918,928,14500,928
2013/04/08,933,939,926,935,13200,935
2013/04/09,934,939,932,932,6600,932
2013/04/10,932,932,927,927,5400,927
2013/04/11,930,935,927,934,6200,934
2013/04/12,935,937,930,932,5200,932
2013/04/15,931,931,926,929,7100,929
2013/04/16,920,932,920,921,5900,921
2013/04/17,922,935,922,930,6000,930
2013/04/18,932,938,930,935,5900,935
2013/04/19,935,940,931,931,6000,931
2013/04/22,936,943,936,940,8400,940
2013/04/23,943,943,940,940,5200,940
2013/04/24,943,944,940,942,4800,942
2013/04/25,945,949,944,949,8600,949
2013/04/26,950,955,936,948,19000,948
2013/04/30,959,976,955,969,21300,969
2013/05/01,968,969,958,964,10300,964
2013/05/02,963,964,962,962,4500,962
2013/05/07,970,974,964,973,10700,973
2013/05/08,976,990,973,988,13400,988
2013/05/09,1035,1040,1020,1035,26400,1035
2013/05/10,1066,1066,1025,1048,16100,1048
2013/05/13,1070,1075,1045,1045,17500,1045
2013/05/14,1052,1070,1041,1053,11500,1053
2013/05/15,1050,1054,1037,1041,8300,1041
2013/05/16,1037,1047,1000,1013,16000,1013
2013/05/17,1009,1039,1007,1031,7700,1031
2013/05/20,1047,1049,1023,1032,8900,1032
2013/05/21,1049,1049,1034,1039,5700,1039
2013/05/22,1049,1050,1034,1037,10000,1037
2013/05/23,1037,1039,1000,1000,11100,1000
2013/05/24,1000,1012,999,1001,9800,1001
2013/05/27,995,1000,970,976,11500,976
2013/05/28,970,1000,970,983,8900,983
2013/05/29,998,1001,985,994,12000,994
2013/05/30,989,991,977,978,8000,978
2013/05/31,985,993,985,989,2400,989
2013/06/03,998,998,972,972,8400,972
2013/06/04,975,986,956,986,9700,986
2013/06/05,986,998,975,975,6800,975
2013/06/06,961,973,950,950,11900,950
2013/06/07,948,949,902,908,14400,908
2013/06/10,950,959,942,950,7000,950
2013/06/11,950,969,947,954,4100,954
2013/06/12,949,949,938,943,5100,943
2013/06/13,932,943,908,912,9600,912
2013/06/14,913,938,908,909,19100,909
2013/06/17,915,933,913,922,4500,922
2013/06/18,932,938,929,930,2600,930
2013/06/19,933,944,933,942,2300,942
2013/06/20,941,960,939,956,5100,956
2013/06/21,948,956,934,951,6400,951
2013/06/24,948,959,948,958,5900,958
2013/06/25,965,965,943,956,10400,956
2013/06/26,955,960,951,951,5300,951
2013/06/27,951,953,945,949,4500,949
2013/06/28,947,980,947,966,6400,966
2013/07/01,972,975,968,968,8500,968
2013/07/02,972,977,969,977,6600,977
2013/07/03,981,987,978,985,6200,985
2013/07/04,991,1000,991,996,4500,996
2013/07/05,999,1001,999,1000,6400,1000
2013/07/08,1005,1010,1000,1000,7200,1000
2013/07/09,1018,1019,1004,1013,4800,1013
2013/07/10,1004,1015,1004,1011,5400,1011
2013/07/11,1007,1013,1000,1000,4400,1000
2013/07/12,1009,1010,1003,1004,4000,1004
2013/07/16,1007,1012,1001,1005,7200,1005
2013/07/17,1005,1007,1000,1005,5200,1005
2013/07/18,1005,1009,1005,1006,2700,1006
2013/07/19,1006,1010,1000,1005,7500,1005
2013/07/22,1005,1009,1000,1007,3700,1007
2013/07/23,1010,1011,1005,1005,4600,1005
2013/07/24,1010,1018,1005,1018,3500,1018
2013/07/25,1026,1030,1020,1024,6500,1024
2013/07/26,1024,1024,1007,1007,3500,1007
2013/07/29,1003,1004,999,999,7700,999
2013/07/30,996,1003,993,1002,7300,1002
2013/07/31,1001,1005,995,995,5900,995
2013/08/01,1005,1018,998,1018,6300,1018
2013/08/02,1023,1026,1003,1026,7700,1026
2013/08/05,1027,1027,1010,1023,3700,1023
2013/08/06,1014,1040,1014,1039,6300,1039
2013/08/07,1039,1039,1018,1018,4900,1018
2013/08/08,1020,1038,1020,1020,3300,1020
2013/08/09,1015,1030,1011,1022,5300,1022
2013/08/12,1022,1023,1014,1015,3300,1015
2013/08/13,1028,1028,1018,1024,2700,1024
2013/08/14,1029,1034,1025,1031,4000,1031
2013/08/15,1031,1031,1023,1028,3200,1028
2013/08/16,1025,1030,1021,1021,3300,1021
2013/08/19,1035,1140,1008,1016,50900,1016
2013/08/20,1015,1036,1006,1030,12300,1030
2013/08/21,1029,1039,1023,1033,9100,1033
2013/08/22,1038,1049,1030,1046,7500,1046
2013/08/23,1055,1087,1046,1085,18800,1085
2013/08/26,1087,1135,1087,1123,22700,1123
2013/08/27,1136,1150,1136,1150,23400,1150
2013/08/28,1130,1130,1101,1114,13600,1114
2013/08/29,1099,1105,1054,1086,15700,1086
2013/08/30,1076,1087,1055,1055,15100,1055
2013/09/02,1074,1074,1060,1065,8600,1065
2013/09/03,1079,1087,1071,1077,9700,1077
2013/09/04,1087,1087,1075,1087,5300,1087
2013/09/05,1086,1105,1081,1095,9400,1095
2013/09/06,1105,1105,1090,1097,5500,1097
2013/09/09,1205,1205,1160,1166,27500,1166
2013/09/10,1170,1210,1170,1199,34000,1199
2013/09/11,1200,1215,1175,1193,19400,1193
2013/09/12,1177,1199,1172,1196,8900,1196
2013/09/13,1186,1199,1185,1188,15600,1188
2013/09/17,1192,1199,1190,1194,12200,1194
2013/09/18,1199,1200,1194,1195,8100,1195
2013/09/19,1195,1198,1192,1196,8200,1196
2013/09/20,1196,1198,1194,1195,14400,1195
2013/09/24,1189,1189,1175,1185,31600,1185
2013/09/25,1195,1195,1162,1162,128100,1162
2013/09/26,1165,1189,1165,1186,43600,1186
2013/09/27,1200,1200,1175,1191,25300,1191
2013/09/30,1171,1179,1162,1167,16400,1167
2013/10/01,1161,1163,1134,1135,17800,1135
2013/10/02,1132,1139,1113,1131,10400,1131
2013/10/03,1115,1138,1115,1125,6600,1125
2013/10/04,1125,1125,1106,1110,8300,1110
2013/10/07,1112,1117,1103,1107,7700,1107
2013/10/08,1103,1109,1100,1102,5700,1102
2013/10/09,1100,1114,1090,1114,9300,1114
2013/10/10,1125,1145,1124,1134,8200,1134
2013/10/11,1152,1155,1126,1150,8600,1150
2013/10/15,1150,1150,1141,1147,5500,1147
2013/10/16,1117,1155,1117,1132,7500,1132
2013/10/17,1134,1146,1125,1140,6100,1140
2013/10/18,1150,1154,1142,1152,6600,1152
2013/10/21,1152,1153,1142,1153,3400,1153
2013/10/22,1143,1152,1143,1150,4400,1150
2013/10/23,1147,1154,1144,1147,5000,1147
2013/10/24,1146,1153,1145,1152,2700,1152
2013/10/25,1150,1153,1140,1143,5400,1143
2013/10/28,1143,1152,1139,1145,8900,1145
2013/10/29,1152,1152,1131,1144,5100,1144
2013/10/30,1154,1170,1150,1158,16400,1158
2013/10/31,1149,1158,1138,1152,16800,1152
2013/11/01,1145,1145,1127,1142,4300,1142
2013/11/05,1145,1145,1138,1138,5800,1138
2013/11/06,1138,1146,1134,1146,4000,1146
2013/11/07,1149,1149,1135,1135,4100,1135
2013/11/08,1131,1132,1117,1117,8500,1117
2013/11/11,1120,1128,1120,1127,3700,1127
2013/11/12,1122,1140,1122,1140,5200,1140
2013/11/13,1144,1144,1130,1136,2700,1136
2013/11/14,1133,1142,1130,1142,5800,1142
2013/11/15,1134,1148,1134,1145,8800,1145
2013/11/18,1142,1145,1140,1143,5900,1143
2013/11/19,1135,1137,1133,1134,5600,1134
2013/11/20,1132,1137,1131,1134,6900,1134
2013/11/21,1130,1137,1130,1133,8600,1133
2013/11/22,1140,1150,1136,1148,9400,1148
2013/11/25,1152,1160,1150,1155,11000,1155
2013/11/26,1152,1162,1150,1151,4900,1151
2013/11/27,1156,1160,1150,1152,2600,1152
2013/11/28,1150,1158,1150,1154,2300,1154
2013/11/29,1158,1158,1153,1153,3400,1153
2013/12/02,1155,1158,1150,1150,5600,1150
2013/12/03,1158,1158,1151,1151,4100,1151
2013/12/04,1157,1157,1151,1151,6300,1151
2013/12/05,1152,1158,1152,1152,8900,1152
2013/12/06,1151,1155,1150,1151,5600,1151
2013/12/09,1152,1153,1145,1150,9600,1150
2013/12/10,1150,1155,1143,1145,8100,1145
2013/12/11,1149,1149,1139,1140,5100,1140
2013/12/12,1142,1143,1138,1139,3500,1139
2013/12/13,1123,1131,1120,1130,20100,1130
2013/12/16,1130,1130,1121,1122,6100,1122
2013/12/17,1125,1126,1122,1125,3800,1125
2013/12/18,1121,1126,1120,1124,7700,1124
2013/12/19,1125,1130,1120,1124,16200,1124
2013/12/20,1120,1130,1120,1125,10100,1125
2013/12/24,1125,1129,1105,1111,26600,1111
2013/12/25,1112,1115,1109,1113,18400,1113
2013/12/26,1100,1130,1100,1125,15600,1125
2013/12/27,1130,1147,1130,1147,12100,1147
2013/12/30,1155,1169,1149,1164,14800,1164
2014/01/06,1178,1188,1170,1179,12400,1179
2014/01/07,1190,1191,1180,1183,6100,1183
2014/01/08,1187,1195,1182,1194,7100,1194
2014/01/09,1194,1200,1191,1200,9800,1200
2014/01/10,1208,1209,1190,1194,8200,1194
2014/01/14,1192,1193,1181,1187,10900,1187
2014/01/15,1187,1200,1187,1198,4300,1198
2014/01/16,1200,1200,1193,1197,4700,1197
2014/01/17,1208,1208,1190,1204,4400,1204
2014/01/20,1210,1210,1199,1202,9200,1202
2014/01/21,1202,1211,1200,1203,7400,1203
2014/01/22,1202,1247,1202,1222,11700,1222
2014/01/23,1226,1226,1209,1211,8800,1211
2014/01/24,1204,1214,1199,1200,12300,1200
2014/01/27,1187,1198,1171,1183,14300,1183
2014/01/28,1200,1200,1180,1180,8800,1180
2014/01/29,1197,1230,1197,1198,7700,1198
2014/01/30,1177,1193,1177,1188,8600,1188
2014/01/31,1195,1198,1172,1183,9400,1183
2014/02/03,1172,1189,1163,1165,12200,1165
2014/02/04,1156,1156,1115,1115,19700,1115
2014/02/05,1130,1145,1109,1119,15200,1119
2014/02/06,1120,1140,1120,1128,6100,1128
2014/02/07,1139,1149,1135,1149,5300,1149
2014/02/10,1185,1185,1157,1167,6200,1167
2014/02/12,1182,1188,1177,1184,4700,1184
2014/02/13,1184,1189,1155,1155,9700,1155
2014/02/14,1167,1178,1151,1151,5200,1151
2014/02/17,1186,1186,1171,1178,7500,1178
2014/02/18,1184,1186,1170,1182,10500,1182
2014/02/19,1180,1184,1171,1181,2600,1181
2014/02/20,1182,1184,1170,1181,2900,1181
2014/02/21,1179,1189,1179,1185,7400,1185
2014/02/24,1187,1187,1180,1184,6700,1184
2014/02/25,1186,1186,1184,1186,6400,1186
2014/02/26,1186,1186,1181,1185,5200,1185
2014/02/27,1186,1194,1180,1183,11200,1183
2014/02/28,1185,1186,1181,1184,6400,1184
2014/03/03,1188,1192,1171,1180,9100,1180
2014/03/04,1173,1180,1171,1180,9300,1180
2014/03/05,1185,1186,1180,1180,8900,1180
2014/03/06,1186,1186,1181,1185,6100,1185
2014/03/07,1185,1190,1177,1182,13800,1182
2014/03/10,1190,1190,1182,1183,8200,1183
2014/03/11,1187,1187,1180,1183,7800,1183
2014/03/12,1182,1185,1177,1178,10000,1178
2014/03/13,1175,1182,1174,1179,9500,1179
2014/03/14,1171,1174,1164,1164,22300,1164
2014/03/17,1161,1165,1155,1156,7400,1156
2014/03/18,1162,1172,1158,1164,6100,1164
2014/03/19,1162,1174,1162,1165,11600,1165
2014/03/20,1166,1170,1157,1157,8000,1157
2014/03/24,1155,1160,1152,1153,22800,1153
2014/03/25,1164,1164,1143,1144,28400,1144
2014/03/26,1164,1164,1132,1139,72300,1139
2014/03/27,1132,1140,1092,1092,43000,1092
2014/03/28,1119,1135,1090,1092,89400,1092
2014/03/31,1099,1109,1044,1048,157200,1048
2014/04/01,1060,1075,1035,1075,68000,1075
2014/04/02,1090,1090,1071,1076,19000,1076
2014/04/03,1081,1084,1077,1079,16400,1079
2014/04/04,1084,1093,1084,1092,20300,1092
2014/04/07,1092,1100,1084,1087,19500,1087
2014/04/08,1080,1096,1073,1073,11900,1073
2014/04/09,1072,1078,1053,1055,13400,1055
2014/04/10,1061,1068,1053,1054,10300,1054
2014/04/11,1052,1060,1042,1054,13200,1054
2014/04/14,1052,1062,1051,1054,6800,1054
2014/04/15,1063,1063,1056,1058,4800,1058
2014/04/16,1060,1068,1058,1068,5200,1068
2014/04/17,1075,1077,1070,1071,5300,1071
2014/04/18,1075,1075,1068,1072,4300,1072
2014/04/21,1077,1079,1070,1074,5900,1074
2014/04/22,1071,1077,1060,1067,9300,1067
2014/04/23,1070,1071,1063,1070,4100,1070
2014/04/24,1061,1072,1051,1063,10500,1063
2014/04/25,1070,1071,1063,1066,4700,1066
2014/04/28,1055,1071,1055,1071,8100,1071
2014/04/30,1072,1086,1062,1072,21600,1072
2014/05/01,1090,1092,1072,1085,16500,1085
2014/05/02,1085,1092,1081,1082,12600,1082
2014/05/07,1080,1080,1065,1066,11100,1066
2014/05/08,1066,1070,1062,1063,7300,1063
2014/05/09,1064,1079,1062,1062,5400,1062
2014/05/12,1063,1069,1061,1061,6000,1061
2014/05/13,1080,1082,1061,1070,5900,1070
2014/05/14,1070,1078,1067,1070,4100,1070
2014/05/15,1071,1080,1071,1079,7000,1079
2014/05/16,1079,1079,1062,1065,7800,1065
2014/05/19,1074,1074,1062,1069,3300,1069
2014/05/20,1080,1082,1075,1076,7500,1076
2014/05/21,1076,1081,1074,1079,4600,1079
2014/05/22,1087,1090,1083,1084,8200,1084
2014/05/23,1090,1091,1080,1090,6300,1090
2014/05/26,1100,1100,1087,1091,11600,1091
2014/05/27,1096,1109,1092,1104,13100,1104
2014/05/28,1104,1109,1102,1108,7000,1108
2014/05/29,1110,1110,1102,1105,4800,1105
2014/05/30,1102,1104,1093,1101,7600,1101
2014/06/02,1106,1106,1098,1105,8800,1105
2014/06/03,1113,1113,1101,1107,7900,1107
2014/06/04,1111,1111,1103,1106,7500,1106
2014/06/05,1106,1108,1104,1108,6100,1108
2014/06/06,1111,1135,1109,1132,17300,1132
2014/06/09,1132,1132,1121,1130,6600,1130
2014/06/10,1132,1134,1124,1131,5600,1131
2014/06/11,1135,1138,1130,1135,5800,1135
2014/06/12,1134,1138,1132,1137,2100,1137
2014/06/13,1150,1150,1140,1150,15900,1150
2014/06/16,1160,1160,1150,1153,5800,1153
2014/06/17,1150,1161,1150,1156,6500,1156
2014/06/18,1153,1163,1153,1161,5200,1161
2014/06/19,1165,1167,1157,1167,8600,1167
2014/06/20,1167,1172,1160,1169,13000,1169
2014/06/23,1172,1176,1167,1174,13900,1174
2014/06/24,1174,1175,1168,1175,8500,1175
2014/06/25,1175,1176,1171,1171,12100,1171
2014/06/26,1172,1172,1165,1165,5500,1165
2014/06/27,1164,1165,1150,1163,7300,1163
2014/06/30,1160,1187,1158,1183,9400,1183
2014/07/01,1183,1193,1180,1188,14500,1188
2014/07/02,1195,1198,1188,1195,8800,1195
2014/07/03,1199,1199,1191,1196,5900,1196
2014/07/04,1200,1217,1197,1214,13600,1214
2014/07/07,1248,1290,1238,1250,35100,1250
2014/07/08,1251,1275,1244,1262,14300,1262
2014/07/09,1258,1258,1244,1250,7400,1250
2014/07/10,1250,1250,1239,1241,5900,1241
2014/07/11,1225,1230,1210,1216,11000,1216
2014/07/14,1212,1222,1212,1221,7900,1221
2014/07/15,1221,1228,1217,1225,6400,1225
2014/07/16,1234,1249,1217,1233,18700,1233
2014/07/17,1247,1247,1230,1241,9800,1241
2014/07/18,1230,1241,1230,1235,4100,1235
2014/07/22,1247,1249,1238,1245,9000,1245
2014/07/23,1249,1249,1241,1241,3700,1241
2014/07/24,1246,1248,1245,1248,6300,1248
2014/07/25,1252,1257,1252,1257,8600,1257
2014/07/28,1268,1293,1268,1288,14400,1288
2014/07/29,1300,1300,1292,1299,10300,1299
2014/07/30,1295,1319,1251,1292,25100,1292
2014/07/31,1295,1295,1278,1279,8100,1279
2014/08/01,1276,1279,1254,1270,6500,1270
2014/08/04,1270,1272,1267,1270,6300,1270
2014/08/05,1270,1270,1261,1261,7000,1261
2014/08/06,1252,1265,1252,1257,8400,1257
2014/08/07,1250,1266,1229,1262,13100,1262
2014/08/08,1262,1269,1251,1251,8500,1251
2014/08/11,1259,1285,1259,1276,5800,1276
2014/08/12,1287,1287,1276,1283,5300,1283
2014/08/13,1283,1284,1280,1281,3100,1281
2014/08/14,1283,1293,1283,1293,3000,1293
2014/08/15,1295,1299,1284,1289,3400,1289
2014/08/18,1277,1288,1270,1270,13000,1270
2014/08/19,1270,1287,1270,1287,3300,1287
2014/08/20,1286,1289,1263,1268,13800,1268
2014/08/21,1276,1276,1263,1269,7900,1269
2014/08/22,1265,1268,1257,1263,8500,1263
2014/08/25,1266,1278,1253,1270,6300,1270
2014/08/26,1280,1282,1275,1280,3600,1280
2014/08/27,1288,1288,1274,1279,5300,1279
2014/08/28,1279,1285,1275,1283,4800,1283
2014/08/29,1277,1284,1277,1283,3600,1283
2014/09/01,1283,1287,1281,1285,4100,1285
2014/09/02,1288,1308,1285,1304,18800,1304
2014/09/03,1308,1308,1300,1305,4100,1305
2014/09/04,1302,1307,1302,1304,3800,1304
2014/09/05,1308,1312,1305,1310,7200,1310
2014/09/08,1314,1319,1309,1314,7700,1314
2014/09/09,1313,1319,1313,1318,7800,1318
2014/09/10,1314,1316,1310,1315,7300,1315
2014/09/11,1314,1314,1307,1307,5400,1307
2014/09/12,1300,1306,1297,1299,21100,1299
2014/09/16,1299,1300,1295,1300,5300,1300
2014/09/17,1300,1304,1299,1303,3900,1303
2014/09/18,1303,1307,1300,1305,5600,1305
2014/09/19,1306,1306,1292,1302,11800,1302
2014/09/22,1302,1304,1298,1300,12200,1300
2014/09/24,1297,1300,1296,1300,18400,1300
2014/09/25,1275,1291,1275,1286,91200,1286
2014/09/26,1253,1286,1252,1267,35900,1267
2014/09/29,1269,1285,1269,1277,9300,1277
2014/09/30,1273,1273,1265,1268,7200,1268
2014/10/01,1269,1283,1269,1276,6400,1276
2014/10/02,1277,1277,1260,1266,19400,1266
2014/10/03,1273,1273,1261,1269,6500,1269
2014/10/06,1288,1288,1275,1286,12200,1286
2014/10/07,1294,1307,1293,1295,16100,1295
2014/10/08,1286,1287,1276,1283,7600,1283
2014/10/09,1283,1289,1277,1277,7600,1277
2014/10/10,1270,1271,1263,1270,14700,1270
2014/10/14,1250,1256,1247,1253,15900,1253
2014/10/15,1258,1261,1245,1261,10800,1261
2014/10/16,1243,1250,1243,1243,12100,1243
2014/10/17,1241,1250,1220,1220,17200,1220
2014/10/20,1231,1270,1231,1270,6600,1270
2014/10/21,1264,1267,1253,1256,6900,1256
2014/10/22,1264,1278,1257,1278,7400,1278
2014/10/23,1266,1280,1266,1275,4900,1275
2014/10/24,1280,1280,1268,1275,3700,1275
2014/10/27,1291,1291,1276,1283,5700,1283
2014/10/28,1263,1283,1263,1279,2100,1279
2014/10/29,1280,1290,1279,1290,7900,1290
2014/10/30,1295,1298,1277,1278,10100,1278
2014/10/31,1289,1298,1282,1296,10000,1296
2014/11/04,1307,1326,1302,1320,37900,1320
2014/11/05,1319,1322,1312,1316,17000,1316
2014/11/06,1316,1321,1306,1309,8900,1309
2014/11/07,1310,1319,1310,1317,8600,1317
2014/11/10,1315,1337,1312,1337,12600,1337
2014/11/11,1340,1350,1320,1332,9100,1332
2014/11/12,1342,1342,1311,1318,12600,1318
2014/11/13,1318,1323,1313,1321,5000,1321
2014/11/14,1325,1330,1319,1329,8500,1329
2014/11/17,1330,1334,1322,1329,11300,1329
2014/11/18,1327,1341,1327,1337,9000,1337
2014/11/19,1342,1342,1327,1333,7500,1333
2014/11/20,1345,1346,1335,1336,7000,1336
2014/11/21,1336,1337,1328,1333,6100,1333
2014/11/25,1330,1338,1318,1338,8800,1338
2014/11/26,1339,1355,1339,1353,12100,1353
2014/11/27,1340,1353,1340,1349,10400,1349
2014/11/28,1350,1408,1350,1401,24400,1401
2014/12/01,1426,1484,1426,1478,31800,1478
2014/12/02,1468,1573,1460,1522,42500,1522
2014/12/03,1527,1597,1523,1591,48000,1591
2014/12/04,1640,1650,1580,1629,56400,1629
2014/12/05,1626,1632,1600,1621,25700,1621
2014/12/08,1612,1612,1527,1572,36200,1572
2014/12/09,1540,1589,1539,1563,23400,1563
2014/12/10,1563,1596,1530,1540,21600,1540
2014/12/11,1529,1560,1526,1545,14000,1545
2014/12/12,1541,1590,1541,1582,18500,1582
2014/12/15,1580,1582,1571,1572,12500,1572
2014/12/16,1569,1569,1522,1523,16200,1523
2014/12/17,1509,1525,1472,1478,22000,1478
2014/12/18,1516,1540,1501,1537,19300,1537
2014/12/19,1550,1574,1550,1570,22300,1570
2014/12/22,1575,1626,1573,1626,34700,1626
2014/12/24,1640,1650,1612,1623,25600,1623
2014/12/25,1625,1648,1583,1583,30600,1583
2014/12/26,1597,1688,1597,1668,28400,1668
2014/12/29,1690,1742,1690,1714,29400,1714
2014/12/30,1713,1715,1680,1683,13600,1683
2015/01/05,1723,1859,1720,1856,66700,1856
2015/01/06,1798,1838,1784,1821,51100,1821
2015/01/07,1822,1949,1813,1922,67800,1922
2015/01/08,1949,2010,1940,2008,88300,2008
2015/01/09,2010,2030,1873,1953,99400,1953
2015/01/13,1945,1952,1892,1940,33800,1940
2015/01/14,1940,1940,1897,1900,32300,1900
2015/01/15,1888,2065,1888,2045,94800,2045
2015/01/16,2029,2145,2007,2122,99800,2122
2015/01/19,2188,2230,2126,2186,92200,2186
2015/01/20,2215,2404,2211,2396,207700,2396
2015/01/21,2406,2420,2340,2396,146800,2396
2015/01/22,2379,2455,2340,2430,131000,2430
2015/01/23,2430,2438,2358,2369,90700,2369
2015/01/26,2300,2300,2200,2237,136500,2237
2015/01/27,2236,2237,2146,2176,124900,2176
2015/01/28,2150,2231,2125,2213,107400,2213
2015/01/29,2163,2249,2155,2186,74000,2186
2015/01/30,2186,2210,2146,2178,47800,2178
2015/02/02,2124,2125,2058,2089,73400,2089
2015/02/03,2061,2118,1984,1987,88700,1987
2015/02/04,1991,2042,1938,1953,87900,1953
2015/02/05,1957,1985,1939,1965,33200,1965
2015/02/06,1966,1998,1960,1963,35600,1963
2015/02/09,1963,1972,1905,1930,55800,1930
2015/02/10,1906,1923,1863,1881,71800,1881
2015/02/12,1881,1920,1881,1909,59800,1909
2015/02/13,1920,1980,1910,1959,84000,1959
2015/02/16,1979,2022,1960,1968,77800,1968
2015/02/17,1968,1968,1904,1941,53800,1941
2015/02/18,1944,1969,1911,1930,48200,1930
2015/02/19,1932,2017,1932,2002,111100,2002
2015/02/20,2040,2075,2010,2031,60700,2031
2015/02/23,2083,2085,2050,2073,48900,2073
2015/02/24,2081,2085,2056,2068,55100,2068
2015/02/25,2056,2056,2016,2020,40200,2020
2015/02/26,2020,2027,2002,2013,22100,2013
2015/02/27,2001,2028,2000,2004,31900,2004
2015/03/02,2015,2040,2015,2030,24700,2030
2015/03/03,2032,2040,2015,2027,18900,2027
2015/03/04,2010,2014,1996,2000,32200,2000
2015/03/05,1995,2037,1995,2027,16600,2027
2015/03/06,2039,2043,2002,2014,25600,2014
2015/03/09,2005,2015,1998,2003,14900,2003
2015/03/10,2001,2010,1980,1983,31000,1983
2015/03/11,1980,2012,1970,1992,19900,1992
2015/03/12,2005,2010,1985,1994,19000,1994
2015/03/13,2010,2010,1991,1994,24200,1994
2015/03/16,1991,1994,1976,1980,30500,1980
2015/03/17,1998,1998,1977,1977,24700,1977
2015/03/18,1977,2000,1975,1982,37500,1982
2015/03/19,2000,2000,1982,1990,26300,1990
2015/03/20,2000,2000,1985,2000,37000,2000
2015/03/23,2009,2040,2008,2033,62900,2033
2015/03/24,2043,2121,2043,2121,88400,2121
2015/03/25,2127,2140,2080,2101,68000,2101
2015/03/26,2090,2090,2021,2044,126000,2044
2015/03/27,2060,2096,2039,2058,85100,2058
2015/03/30,2056,2081,2051,2063,26800,2063
2015/03/31,2081,2158,2071,2148,85400,2148
2015/04/01,2149,2298,2148,2268,174600,2268
2015/04/02,2270,2380,2255,2331,138700,2331
2015/04/03,2331,2395,2329,2373,68800,2373
2015/04/06,2373,2438,2373,2413,110900,2413
2015/04/07,2423,2436,2360,2410,96800,2410
2015/04/08,2410,2420,2374,2398,51900,2398
2015/04/09,2390,2404,2347,2368,52200,2368
2015/04/10,2368,2368,2305,2325,45600,2325
2015/04/13,2325,2325,2283,2300,42000,2300
2015/04/14,2274,2314,2250,2300,35500,2300
2015/04/15,2270,2330,2270,2321,20400,2321
2015/04/16,2298,2302,2255,2279,31900,2279
2015/04/17,2279,2284,2253,2261,29000,2261
2015/04/20,2212,2254,2210,2239,17300,2239
2015/04/21,2236,2293,2231,2286,15500,2286
2015/04/22,2299,2345,2290,2341,41900,2341
2015/04/23,2379,2385,2301,2340,38400,2340
2015/04/24,2332,2339,2305,2333,21200,2333
2015/04/27,2333,2396,2333,2384,29200,2384
2015/04/28,2381,2400,2367,2391,24200,2391
2015/04/30,2400,2490,2396,2455,150300,2455
2015/05/01,2432,2470,2410,2455,85500,2455
2015/05/07,2450,2455,2300,2320,66900,2320
2015/05/08,2325,2363,2325,2340,20300,2340
2015/05/11,2366,2391,2341,2363,29900,2363
2015/05/12,2370,2379,2304,2361,29300,2361
2015/05/13,2347,2410,2347,2395,34400,2395
2015/05/14,2410,2474,2410,2439,58100,2439
2015/05/15,2430,2457,2389,2442,26800,2442
2015/05/18,2445,2454,2431,2454,19900,2454
2015/05/19,2458,2470,2428,2430,28400,2430
2015/05/20,2431,2464,2422,2444,40400,2444
2015/05/21,2490,2598,2464,2480,157700,2480
2015/05/22,2493,2497,2450,2486,43500,2486
2015/05/25,2500,2532,2495,2503,29200,2503
2015/05/26,2500,2530,2483,2486,26900,2486
2015/05/27,2483,2484,2429,2440,47800,2440
2015/05/28,2440,2464,2405,2418,31800,2418
2015/05/29,2409,2433,2375,2402,32000,2402
2015/06/01,2412,2451,2410,2448,23900,2448
2015/06/02,2448,2455,2411,2433,25400,2433
2015/06/03,2420,2433,2410,2424,15300,2424
2015/06/04,2415,2416,2364,2388,56700,2388
2015/06/05,2351,2418,2351,2410,33300,2410
2015/06/08,2430,2478,2424,2460,33900,2460
2015/06/09,2455,2455,2417,2420,28000,2420
2015/06/10,2420,2441,2401,2406,17500,2406
2015/06/11,2404,2465,2404,2465,22000,2465
2015/06/12,2465,2480,2444,2458,34100,2458
2015/06/15,2445,2492,2435,2492,18800,2492
2015/06/16,2481,2500,2452,2452,16500,2452
2015/06/17,2480,2482,2408,2435,17900,2435
2015/06/18,2435,2437,2368,2392,30400,2392
2015/06/19,2385,2414,2385,2391,10300,2391
2015/06/22,2381,2399,2362,2395,21100,2395
2015/06/23,2400,2411,2380,2406,17900,2406
2015/06/24,2433,2433,2393,2429,19400,2429
2015/06/25,2422,2444,2411,2420,20000,2420
2015/06/26,2391,2412,2383,2383,14700,2383
2015/06/29,2303,2351,2303,2316,27900,2316
2015/06/30,2300,2309,2292,2300,19600,2300
2015/07/01,2301,2352,2295,2331,25000,2331
