2011/01/04,765,766,762,766,1200,766
2011/01/05,770,770,741,770,4900,770
2011/01/06,751,764,751,764,3800,764
2011/01/07,764,766,758,766,800,766
2011/01/11,770,775,767,775,7200,775
2011/01/12,787,789,785,788,11600,788
2011/01/13,766,790,766,780,7400,780
2011/01/14,780,784,775,780,3900,780
2011/01/17,780,781,780,781,1500,781
2011/01/18,782,789,782,782,3200,782
2011/01/19,782,782,781,781,700,781
2011/01/20,790,790,780,780,1300,780
2011/01/21,781,797,780,780,2900,780
2011/01/24,781,781,780,780,500,780
2011/01/25,781,783,781,782,1100,782
2011/01/26,783,783,783,783,1100,783
2011/01/27,790,794,790,794,1200,794
2011/01/28,790,790,787,790,1100,790
2011/01/31,793,793,790,790,1900,790
2011/02/01,778,794,778,794,4900,794
2011/02/02,794,795,793,795,2100,795
2011/02/03,795,795,790,795,1300,795
2011/02/04,781,792,778,792,2200,792
2011/02/07,792,793,790,791,1700,791
2011/02/08,795,795,790,790,900,790
2011/02/09,792,795,791,795,2100,795
2011/02/10,795,796,795,796,5800,796
2011/02/14,794,795,794,795,1400,795
2011/02/15,798,798,793,793,2100,793
2011/02/16,796,798,792,792,2500,792
2011/02/17,794,794,790,790,600,790
2011/02/18,790,790,785,785,1600,785
2011/02/21,785,788,785,788,1900,788
2011/02/22,789,790,788,790,1000,790
2011/02/23,790,791,788,789,3100,789
2011/02/24,738,738,710,710,6500,710
2011/02/25,685,700,685,700,2000,700
2011/02/28,709,710,705,710,800,710
2011/03/01,716,720,711,711,1800,711
2011/03/02,727,727,711,711,2600,711
2011/03/03,711,711,705,705,1500,705
2011/03/04,710,710,699,710,2700,710
2011/03/07,707,707,703,703,900,703
2011/03/08,704,714,704,714,200,714
2011/03/09,704,708,704,708,1700,708
2011/03/10,710,713,710,713,1400,713
2011/03/11,713,713,713,713,4400,713
2011/03/14,630,720,629,658,6000,658
2011/03/15,657,657,605,620,5100,620
2011/03/16,631,631,621,621,2600,621
2011/03/17,664,664,640,660,1200,660
2011/03/18,656,697,656,671,2500,671
2011/03/22,721,721,720,720,1300,720
2011/03/23,720,720,710,710,400,710
2011/03/24,701,701,701,701,300,701
2011/03/25,702,702,702,702,400,702
2011/03/28,701,710,701,702,600,702
2011/03/29,702,702,700,700,600,700
2011/03/30,701,701,692,692,600,692
2011/03/31,692,694,692,694,500,694
2011/04/01,701,719,701,719,800,719
2011/04/04,720,720,710,715,3500,715
2011/04/05,701,701,700,700,900,700
2011/04/06,686,700,686,700,1100,700
2011/04/07,706,710,706,710,500,710
2011/04/08,710,715,710,715,500,715
2011/04/11,716,723,716,723,4700,723
2011/04/12,736,740,725,730,9300,730
2011/04/13,730,730,723,730,1300,730
2011/04/14,730,780,716,720,6300,720
2011/04/19,747,747,747,747,800,747
2011/04/20,736,736,711,711,1800,711
2011/04/21,740,740,735,735,2800,735
2011/04/22,735,735,726,735,1600,735
2011/04/25,735,735,721,721,1300,721
2011/04/26,722,739,722,735,500,735
2011/04/27,736,744,736,743,1000,743
2011/04/28,741,742,735,735,700,735
2011/05/02,691,718,691,718,1400,718
2011/05/06,740,740,739,740,1800,740
2011/05/09,740,741,740,740,1800,740
2011/05/10,740,742,740,742,600,742
2011/05/11,743,760,743,760,4300,760
2011/05/12,782,782,735,735,6400,735
2011/05/13,760,760,739,739,300,739
2011/05/17,745,745,745,745,100,745
2011/05/18,760,760,750,760,2400,760
2011/05/19,765,769,765,769,1200,769
2011/05/20,762,762,762,762,1000,762
2011/05/23,763,763,762,762,500,762
2011/05/24,751,751,739,739,700,739
2011/05/25,745,745,745,745,100,745
2011/05/26,751,751,750,750,200,750
2011/05/27,751,757,751,757,500,757
2011/05/30,754,770,754,770,500,770
2011/05/31,767,789,767,789,2700,789
2011/06/01,789,798,781,791,3700,791
2011/06/02,790,795,777,777,3700,777
2011/06/03,786,786,770,772,1500,772
2011/06/06,776,776,774,774,1400,774
2011/06/07,774,775,774,775,400,775
2011/06/08,777,777,774,774,1900,774
2011/06/09,775,779,775,779,800,779
2011/06/10,778,779,774,774,15900,774
2011/06/13,735,745,735,737,1400,737
2011/06/14,749,749,745,745,200,745
2011/06/15,750,750,700,745,3700,745
2011/06/16,715,715,715,715,300,715
2011/06/17,722,722,722,722,100,722
2011/06/20,742,743,742,743,700,743
2011/06/21,722,722,721,721,500,721
2011/06/22,721,721,713,713,1100,713
2011/06/23,717,718,716,716,1900,716
2011/06/24,716,717,715,715,1200,715
2011/06/27,712,712,656,700,9700,700
2011/06/28,706,706,700,700,500,700
2011/06/29,700,704,700,703,900,703
2011/06/30,703,705,703,705,1000,705
2011/07/01,706,706,706,706,500,706
2011/07/04,711,713,705,707,3600,707
2011/07/05,713,714,713,714,2100,714
2011/07/06,715,729,710,712,1900,712
2011/07/07,712,725,711,715,2200,715
2011/07/08,718,730,718,730,700,730
2011/07/11,730,748,730,748,3600,748
2011/07/12,749,750,720,720,6300,720
2011/07/13,726,735,726,735,400,735
2011/07/15,729,740,720,720,900,720
2011/07/19,735,743,728,739,800,739
2011/07/20,740,740,739,740,1100,740
2011/07/21,730,730,724,724,1700,724
2011/07/22,739,739,731,731,900,731
2011/07/25,727,734,727,734,600,734
2011/07/27,727,727,727,727,100,727
2011/07/28,734,735,734,735,700,735
2011/07/29,740,745,739,745,1000,745
2011/08/01,743,747,743,747,300,747
2011/08/02,747,747,730,730,12700,730
2011/08/03,729,729,729,729,500,729
2011/08/05,721,721,720,720,300,720
2011/08/08,721,721,721,721,600,721
2011/08/09,719,719,712,712,1900,712
2011/08/10,742,745,715,745,700,745
2011/08/11,745,745,742,742,5400,742
2011/08/12,733,739,728,728,1100,728
2011/08/16,720,720,720,720,200,720
2011/08/17,725,725,725,725,100,725
2011/08/18,730,730,730,730,500,730
2011/08/19,700,700,700,700,2600,700
2011/08/22,701,701,701,701,400,701
2011/08/23,691,691,691,691,400,691
2011/08/26,707,707,707,707,200,707
2011/08/29,713,713,713,713,300,713
2011/08/30,710,710,710,710,100,710
2011/08/31,710,710,702,710,1300,710
2011/09/01,708,715,708,715,400,715
2011/09/02,719,719,719,719,900,719
2011/09/05,710,710,710,710,700,710
2011/09/06,710,713,710,713,500,713
2011/09/07,713,715,711,711,500,711
2011/09/08,725,725,715,715,300,715
2011/09/09,724,728,724,728,400,728
2011/09/12,750,750,749,749,4900,749
2011/09/15,748,750,748,750,9000,750
2011/09/16,715,726,701,726,500,726
2011/09/20,709,741,709,741,300,741
2011/09/21,745,745,710,710,1600,710
2011/09/22,725,755,720,748,1600,748
2011/09/26,748,748,720,720,700,720
2011/09/27,749,750,721,748,1700,748
2011/09/28,719,726,719,724,2400,724
2011/09/29,737,737,737,737,200,737
2011/09/30,733,737,733,737,200,737
2011/10/03,730,745,730,745,200,745
2011/10/04,746,746,731,731,1300,731
2011/10/06,730,730,730,730,600,730
2011/10/07,730,730,729,729,1500,729
2011/10/11,729,729,729,729,4400,729
2011/10/12,744,744,744,744,700,744
2011/10/17,724,724,717,717,1900,717
2011/10/18,731,731,700,705,5100,705
2011/10/19,702,707,702,707,900,707
2011/10/20,700,705,700,700,2500,700
2011/10/24,700,707,700,701,1300,701
2011/10/25,708,708,705,705,1100,705
2011/10/26,703,703,700,700,1800,700
2011/10/27,701,701,699,699,1200,699
2011/10/31,701,702,701,702,700,702
2011/11/02,714,714,698,698,3700,698
2011/11/04,700,701,700,700,1000,700
2011/11/07,700,701,700,701,300,701
2011/11/08,700,700,693,693,1900,693
2011/11/09,700,700,700,700,1200,700
2011/11/10,697,704,697,704,500,704
2011/11/11,704,705,700,700,5800,700
2011/11/14,700,700,695,695,500,695
2011/11/15,701,703,700,700,1000,700
2011/11/16,700,704,692,692,2000,692
2011/11/17,693,705,693,705,1100,705
2011/11/18,710,710,695,695,700,695
2011/11/21,690,690,690,690,1000,690
2011/11/22,695,710,695,710,600,710
2011/11/24,691,710,691,692,1500,692
2011/11/29,692,693,692,693,400,693
2011/11/30,673,688,673,685,5800,685
2011/12/01,702,702,670,680,6500,680
2011/12/02,682,693,682,693,1100,693
2011/12/05,694,702,694,702,400,702
2011/12/06,705,705,694,694,1100,694
2011/12/07,710,710,710,710,1000,710
2011/12/08,703,703,703,703,200,703
2011/12/09,703,708,703,708,1700,708
2011/12/12,710,710,708,708,4400,708
2011/12/13,708,708,708,708,100,708
2011/12/14,708,708,706,708,1600,708
2011/12/15,707,707,706,706,600,706
2011/12/16,704,704,697,700,2900,700
2011/12/19,700,704,697,704,2000,704
2011/12/20,706,706,706,706,1100,706
2011/12/21,703,709,703,709,1700,709
2011/12/22,709,710,709,710,8200,710
2011/12/26,740,740,713,713,5900,713
2011/12/27,716,716,716,716,100,716
2011/12/28,715,715,715,715,100,715
2011/12/29,715,715,710,710,700,710
2011/12/30,700,704,700,704,1900,704
2012/01/04,711,714,711,714,500,714
2012/01/05,718,722,718,722,1700,722
2012/01/06,725,732,725,730,600,730
2012/01/10,732,740,731,733,1600,733
2012/01/11,734,741,734,741,900,741
2012/01/12,748,748,736,736,5900,736
2012/01/13,736,736,736,736,200,736
2012/01/16,737,740,737,740,900,740
2012/01/17,738,738,737,737,600,737
2012/01/18,745,746,733,745,800,745
2012/01/19,745,745,742,742,300,742
2012/01/20,734,745,734,745,300,745
2012/01/23,735,736,735,736,800,736
2012/01/24,736,736,730,730,1400,730
2012/01/25,730,730,730,730,600,730
2012/01/26,729,729,715,716,1200,716
2012/01/27,721,721,721,721,100,721
2012/01/30,715,735,715,735,1300,735
2012/01/31,735,735,735,735,100,735
2012/02/01,735,735,733,735,600,735
2012/02/02,734,735,734,735,2000,735
2012/02/03,730,734,730,734,600,734
2012/02/06,734,735,734,735,1700,735
2012/02/07,735,735,730,735,1300,735
2012/02/08,735,735,734,735,1700,735
2012/02/09,731,735,731,735,800,735
2012/02/10,735,740,735,740,5500,740
2012/02/13,745,745,740,740,1500,740
2012/02/14,740,740,740,740,1200,740
2012/02/15,742,744,742,744,1200,744
2012/02/16,735,745,735,745,3700,745
2012/02/17,735,745,735,744,3100,744
2012/02/20,745,749,745,749,2900,749
2012/02/21,747,751,746,751,3000,751
2012/02/22,758,758,721,739,7500,739
2012/02/23,740,754,739,754,3200,754
2012/02/24,754,754,740,747,5600,747
2012/02/27,696,725,696,714,6200,714
2012/02/28,710,723,706,706,4300,706
2012/02/29,710,712,710,712,600,712
2012/03/01,713,715,713,713,2000,713
2012/03/02,718,718,718,718,1400,718
2012/03/05,718,718,714,714,800,714
2012/03/06,712,712,712,712,100,712
2012/03/07,702,709,702,709,1900,709
2012/03/08,709,715,706,706,5200,706
2012/03/09,719,719,712,715,1900,715
2012/03/12,710,717,703,706,7200,706
2012/03/14,707,707,706,707,700,707
2012/03/15,710,710,710,710,500,710
2012/03/16,710,714,710,714,1000,714
2012/03/19,714,714,714,714,100,714
2012/03/21,710,715,702,715,3100,715
2012/03/22,708,708,708,708,100,708
2012/03/23,702,702,702,702,1000,702
2012/03/26,714,714,710,710,800,710
2012/03/27,707,707,706,706,900,706
2012/03/28,706,706,706,706,200,706
2012/03/30,709,714,708,714,1500,714
2012/04/02,716,716,715,715,300,715
2012/04/03,728,728,710,715,2400,715
2012/04/04,709,715,706,715,1400,715
2012/04/05,710,710,707,707,200,707
2012/04/06,712,712,711,712,700,712
2012/04/09,710,717,710,717,1300,717
2012/04/10,716,725,710,725,1200,725
2012/04/11,725,727,712,727,5700,727
2012/04/12,710,730,710,715,3000,715
2012/04/13,720,720,711,711,500,711
2012/04/17,712,712,712,712,200,712
2012/04/18,715,715,712,712,600,712
2012/04/23,720,728,720,726,400,726
2012/04/24,712,720,712,720,400,720
2012/04/27,720,720,718,720,800,720
2012/05/01,715,715,713,715,1100,715
2012/05/02,729,729,729,729,1000,729
2012/05/07,718,736,718,730,1700,730
2012/05/08,732,735,732,732,1100,732
2012/05/09,730,730,680,702,7300,702
2012/05/10,715,715,705,715,1100,715
2012/05/11,715,716,715,715,6200,715
2012/05/14,706,720,706,720,600,720
2012/05/15,700,700,700,700,1000,700
2012/05/16,700,703,700,703,300,703
2012/05/17,712,713,700,713,600,713
2012/05/18,695,696,695,695,2600,695
2012/05/21,695,695,695,695,100,695
2012/05/22,697,698,696,698,800,698
2012/05/24,701,701,701,701,1100,701
2012/05/25,701,705,701,705,300,705
2012/05/28,705,707,702,707,1400,707
2012/05/29,707,707,703,703,500,703
2012/05/30,705,710,705,710,2700,710
2012/05/31,710,724,710,724,1600,724
2012/06/01,725,725,722,724,1100,724
2012/06/04,720,730,720,720,6300,720
2012/06/05,740,740,740,740,200,740
2012/06/06,710,719,710,716,3400,716
2012/06/07,724,730,719,719,2300,719
2012/06/08,721,729,721,729,1500,729
2012/06/11,729,737,729,737,10200,737
2012/06/12,739,739,739,739,9300,739
2012/06/13,739,739,739,739,200,739
2012/06/14,739,739,716,716,300,716
2012/06/15,739,739,720,720,600,720
2012/06/18,720,720,720,720,100,720
2012/06/19,735,735,735,735,1700,735
2012/06/20,729,729,728,728,500,728
2012/06/21,720,729,713,728,2300,728
2012/06/22,728,728,728,728,100,728
2012/06/25,713,713,713,713,1000,713
2012/06/26,713,713,713,713,100,713
2012/06/28,726,726,712,712,700,712
2012/06/29,716,716,714,714,300,714
2012/07/02,715,717,715,717,600,717
2012/07/03,715,715,715,715,1900,715
2012/07/04,721,721,717,717,600,717
2012/07/05,720,723,718,723,400,723
2012/07/06,725,725,725,725,1200,725
2012/07/09,725,725,718,718,800,718
2012/07/10,717,740,717,740,800,740
2012/07/11,740,740,726,726,5500,726
2012/07/12,713,744,713,744,1300,744
2012/07/13,732,732,718,718,1700,718
2012/07/17,713,713,710,712,1300,712
2012/07/18,727,727,727,727,600,727
2012/07/19,727,727,727,727,200,727
2012/07/20,726,735,726,735,600,735
2012/07/23,720,720,716,716,700,716
2012/07/25,718,718,717,717,400,717
2012/07/26,717,730,717,730,2700,730
2012/07/27,728,740,728,740,2400,740
2012/07/30,745,747,742,742,800,742
2012/07/31,742,746,737,746,2000,746
2012/08/01,732,739,732,739,3300,739
2012/08/02,745,748,745,745,5100,745
2012/08/03,747,749,747,749,12300,749
2012/08/06,731,731,731,731,200,731
2012/08/07,730,730,725,725,1900,725
2012/08/08,730,730,730,730,1200,730
2012/08/09,730,730,730,730,500,730
2012/08/10,733,733,733,733,500,733
2012/08/13,750,750,750,750,5300,750
2012/08/16,740,744,740,744,200,744
2012/08/17,745,745,745,745,100,745
2012/08/20,745,745,745,745,500,745
2012/08/21,745,745,726,726,800,726
2012/08/24,730,730,730,730,200,730
2012/08/27,730,730,710,710,1300,710
2012/08/28,718,718,718,718,100,718
2012/08/29,713,730,713,730,500,730
2012/08/30,740,740,740,740,200,740
2012/08/31,730,731,730,731,400,731
2012/09/04,745,745,745,745,1000,745
2012/09/05,743,743,740,740,700,740
2012/09/06,742,742,740,740,200,740
2012/09/07,740,741,739,741,400,741
2012/09/10,737,737,737,737,100,737
2012/09/11,739,740,739,740,1600,740
2012/09/12,745,750,745,750,6300,750
2012/09/14,742,742,725,742,600,742
2012/09/18,722,725,722,725,700,725
2012/09/19,748,748,729,730,900,730
2012/09/20,721,721,720,720,1700,720
2012/09/21,720,724,716,724,1000,724
2012/09/24,715,728,715,720,1100,720
2012/09/25,716,716,716,716,300,716
2012/09/26,718,720,718,720,700,720
2012/09/27,716,716,716,716,500,716
2012/09/28,716,720,716,720,500,720
2012/10/01,705,720,705,720,1700,720
2012/10/02,720,720,718,720,1700,720
2012/10/03,724,724,711,711,1300,711
2012/10/04,724,724,724,724,100,724
2012/10/05,724,724,724,724,200,724
2012/10/09,716,720,716,720,500,720
2012/10/11,720,725,720,725,4800,725
2012/10/12,725,725,715,715,2000,715
2012/10/15,725,725,716,716,300,716
2012/10/16,716,716,711,711,300,711
2012/10/17,720,720,720,720,200,720
2012/10/18,725,725,714,714,1100,714
2012/10/19,714,714,714,714,800,714
2012/10/22,711,711,711,711,300,711
2012/10/23,722,722,714,714,200,714
2012/10/24,714,714,714,714,200,714
2012/10/25,714,714,713,713,700,713
2012/10/26,713,713,713,713,200,713
2012/10/30,717,717,710,710,2500,710
2012/10/31,712,718,712,718,600,718
2012/11/01,718,720,718,720,800,720
2012/11/02,720,720,720,720,1500,720
2012/11/05,723,723,720,720,400,720
2012/11/06,718,720,718,720,500,720
2012/11/07,725,726,724,726,2000,726
2012/11/08,726,726,726,726,300,726
2012/11/09,726,728,726,726,4700,726
2012/11/12,729,729,729,729,1400,729
2012/11/13,721,721,721,721,100,721
2012/11/15,714,714,700,710,5500,710
2012/11/16,710,710,695,705,4700,705
2012/11/19,710,710,710,710,1900,710
2012/11/20,710,710,709,710,1200,710
2012/11/21,710,710,710,710,300,710
2012/11/22,710,710,705,705,800,705
2012/11/26,709,710,707,709,500,709
2012/11/27,715,715,715,715,100,715
2012/11/28,715,715,710,710,1800,710
2012/11/29,713,715,713,715,700,715
2012/11/30,713,719,713,719,1400,719
2012/12/03,716,716,716,716,600,716
2012/12/04,720,720,717,717,1000,717
2012/12/05,720,720,720,720,100,720
2012/12/06,720,724,720,724,600,724
2012/12/07,725,725,714,714,1400,714
2012/12/10,724,740,724,732,800,732
2012/12/11,732,734,732,734,3900,734
2012/12/12,740,740,740,740,5000,740
2012/12/13,730,730,730,730,100,730
2012/12/14,730,730,730,730,200,730
2012/12/17,730,730,730,730,300,730
2012/12/18,741,742,725,725,2900,725
2012/12/19,730,739,730,738,2300,738
2012/12/20,739,740,735,740,1600,740
2012/12/21,740,742,740,740,13600,740
2012/12/25,739,739,738,739,1300,739
2012/12/26,740,742,735,735,1300,735
2012/12/27,733,735,724,735,3000,735
2012/12/28,727,738,727,738,2600,738
2013/01/04,740,749,740,747,2000,747
2013/01/07,745,753,738,752,5900,752
2013/01/08,744,753,744,753,2300,753
2013/01/09,750,750,745,750,700,750
2013/01/10,750,750,749,749,300,749
2013/01/11,749,750,747,749,7600,749
2013/01/15,748,750,742,742,4200,742
2013/01/16,743,745,743,744,1600,744
2013/01/17,745,749,742,742,1500,742
2013/01/18,740,748,737,748,5200,748
2013/01/21,740,744,740,740,3200,740
2013/01/22,740,740,738,739,900,739
2013/01/23,736,737,730,730,6700,730
2013/01/24,740,740,740,740,200,740
2013/01/25,742,742,738,740,600,740
2013/01/28,742,745,730,730,2700,730
2013/01/29,749,749,735,743,3400,743
2013/01/30,748,748,748,748,1400,748
2013/01/31,748,749,747,747,2100,747
2013/02/01,748,749,736,740,4900,740
2013/02/04,749,749,739,749,6800,749
2013/02/05,750,750,737,743,6300,743
2013/02/06,749,749,745,745,3100,745
2013/02/07,746,749,746,748,400,748
2013/02/08,748,749,748,748,7800,748
2013/02/12,748,752,747,751,2600,751
2013/02/13,751,752,748,749,2000,749
2013/02/14,749,751,748,750,4300,750
2013/02/15,748,751,746,747,1000,747
2013/02/18,748,760,748,755,3500,755
2013/02/19,760,760,755,760,3300,760
2013/02/20,760,760,750,759,3600,759
2013/02/21,759,760,756,760,2400,760
2013/02/22,760,761,752,752,4200,752
2013/02/25,761,761,755,760,6800,760
2013/02/26,726,732,715,721,8400,721
2013/02/27,720,729,715,720,3500,720
2013/02/28,724,725,718,725,1900,725
2013/03/01,719,720,719,719,1500,719
2013/03/04,725,725,719,724,2300,724
2013/03/05,719,723,719,723,2600,723
2013/03/06,720,726,720,726,3100,726
2013/03/07,726,730,722,724,3700,724
2013/03/08,729,729,722,725,3700,725
2013/03/11,726,730,725,729,4800,729
2013/03/12,735,738,731,735,11300,735
2013/03/13,735,735,732,735,2800,735
2013/03/14,733,733,733,733,500,733
2013/03/15,736,736,726,730,2600,730
2013/03/18,730,730,730,730,700,730
2013/03/19,735,735,730,731,1900,731
2013/03/21,731,735,731,731,2400,731
2013/03/22,731,731,731,731,1200,731
2013/03/25,732,732,730,731,1100,731
2013/03/26,730,732,730,730,1800,730
2013/03/27,730,731,729,729,1800,729
2013/03/28,731,732,729,732,4700,732
2013/03/29,730,730,730,730,200,730
2013/04/01,728,731,728,731,1400,731
2013/04/02,732,732,727,732,2100,732
2013/04/03,729,730,729,730,500,730
2013/04/04,730,733,730,733,1700,733
2013/04/05,734,735,731,735,4300,735
2013/04/08,735,737,733,735,5100,735
2013/04/09,735,740,735,739,4100,739
2013/04/10,740,745,740,745,1500,745
2013/04/11,745,750,745,750,5800,750
2013/04/12,760,765,748,750,10300,750
2013/04/15,760,760,745,745,2700,745
2013/04/16,749,750,745,750,2200,750
2013/04/17,750,750,749,749,1300,749
2013/04/18,763,763,759,760,2200,760
2013/04/19,756,763,740,749,8800,749
2013/04/22,764,764,749,749,1600,749
2013/04/23,761,761,749,749,1500,749
2013/04/24,749,762,748,762,8000,762
2013/04/25,760,760,758,758,500,758
2013/04/26,756,760,756,760,4500,760
2013/04/30,763,765,763,765,8200,765
2013/05/01,765,770,760,770,2500,770
2013/05/02,772,772,765,770,6600,770
2013/05/07,773,775,768,768,4700,768
2013/05/08,771,780,770,777,8100,777
2013/05/09,775,783,775,783,4400,783
2013/05/10,791,800,788,799,10200,799
2013/05/13,800,820,790,800,8600,800
2013/05/14,800,800,792,792,5100,792
2013/05/15,800,800,792,795,2000,795
2013/05/16,792,802,792,792,3000,792
2013/05/17,800,800,792,800,1800,800
2013/05/20,800,800,795,800,4500,800
2013/05/21,800,801,795,800,3200,800
2013/05/22,798,800,792,800,3800,800
2013/05/23,793,800,793,800,3400,800
2013/05/24,820,820,799,799,5700,799
2013/05/27,799,800,785,800,2400,800
2013/05/28,800,805,799,799,3200,799
2013/05/29,799,815,795,815,9500,815
2013/05/30,815,815,805,815,1000,815
2013/05/31,815,820,795,820,21200,820
2013/06/03,790,819,790,816,2900,816
2013/06/04,820,820,780,792,3800,792
2013/06/05,792,811,792,811,1100,811
2013/06/06,802,808,802,803,3000,803
2013/06/07,800,807,790,790,3100,790
2013/06/10,798,805,794,801,13500,801
2013/06/11,812,833,807,833,9700,833
2013/06/12,863,866,822,822,18600,822
2013/06/13,822,831,800,831,2000,831
2013/06/14,832,832,820,832,1100,832
2013/06/17,833,833,833,833,400,833
2013/06/18,846,850,835,850,5000,850
2013/06/19,850,850,835,846,1000,846
2013/06/20,846,846,830,846,1300,846
2013/06/21,803,820,803,820,1100,820
2013/06/24,825,825,825,825,1000,825
2013/06/25,825,825,800,823,2500,823
2013/06/26,825,825,800,823,2400,823
2013/06/28,823,828,820,820,800,820
2013/07/01,824,826,820,826,2900,826
2013/07/02,831,831,801,827,4500,827
2013/07/03,802,824,802,824,2200,824
2013/07/04,824,828,824,828,400,828
2013/07/05,830,831,821,828,900,828
2013/07/08,832,832,829,829,3600,829
2013/07/09,832,835,830,830,1000,830
2013/07/10,833,839,830,830,900,830
2013/07/11,837,838,833,838,2000,838
2013/07/12,840,840,831,832,7200,832
2013/07/16,832,832,832,832,700,832
2013/07/17,830,832,830,832,400,832
2013/07/18,838,840,838,840,1700,840
2013/07/19,832,840,828,828,1700,828
2013/07/22,834,840,834,840,2100,840
2013/07/23,825,840,825,840,1600,840
2013/07/24,838,843,838,843,600,843
2013/07/25,843,848,830,832,4000,832
2013/07/26,832,838,832,838,300,838
2013/07/29,845,848,832,832,3000,832
2013/07/30,849,849,840,840,500,840
2013/07/31,836,840,831,840,4800,840
2013/08/01,831,845,831,845,1300,845
2013/08/02,845,849,845,849,6200,849
2013/08/05,850,850,849,849,11100,849
2013/08/06,855,860,855,860,1600,860
2013/08/07,876,876,856,858,3100,858
2013/08/08,858,876,858,876,800,876
2013/08/09,876,879,867,879,6700,879
2013/08/12,900,900,889,889,2000,889
2013/08/13,888,900,888,900,1800,900
2013/08/14,895,902,885,900,1100,900
2013/08/15,900,900,861,861,4300,861
2013/08/16,861,902,860,901,2900,901
2013/08/19,873,900,873,890,1900,890
2013/08/20,900,900,870,900,1400,900
2013/08/21,900,900,899,899,1100,899
2013/08/22,884,900,884,900,1900,900
2013/08/23,900,900,895,900,5000,900
2013/08/26,902,902,897,899,1000,899
2013/08/27,903,904,897,898,2300,898
2013/08/28,905,905,899,902,800,902
2013/08/29,902,902,885,900,1700,900
2013/08/30,890,899,890,899,300,899
2013/09/02,900,900,875,878,2000,878
2013/09/03,895,902,880,890,10400,890
2013/09/04,895,907,895,900,7700,900
2013/09/05,910,910,907,910,1800,910
2013/09/06,903,905,892,892,2600,892
2013/09/09,906,906,898,898,1200,898
2013/09/10,901,906,901,906,1100,906
2013/09/11,906,910,906,906,7700,906
2013/09/12,891,895,880,894,1800,894
2013/09/13,894,898,893,898,2700,898
2013/09/17,900,905,890,905,2500,905
2013/09/18,905,912,900,902,5500,902
2013/09/19,900,910,878,900,7600,900
2013/09/20,907,907,900,900,2400,900
2013/09/24,900,900,900,900,1300,900
2013/09/25,900,900,899,900,1500,900
2013/09/26,900,900,894,900,900,900
2013/09/27,900,900,900,900,400,900
2013/09/30,900,900,893,900,2400,900
2013/10/01,909,910,909,910,4000,910
2013/10/02,903,910,900,910,4200,910
2013/10/03,910,910,908,909,3500,909
2013/10/04,909,912,903,912,3800,912
2013/10/07,907,907,900,902,1400,902
2013/10/08,902,907,902,907,900,907
2013/10/09,908,912,908,912,1400,912
2013/10/10,915,919,915,916,2100,916
2013/10/11,917,928,917,928,4100,928
2013/10/15,929,929,920,920,8500,920
2013/10/16,920,929,920,926,1400,926
2013/10/17,927,975,927,945,11200,945
2013/10/18,975,975,955,970,6900,970
2013/10/21,990,1000,964,979,6300,979
2013/10/22,979,980,929,975,6300,975
2013/10/23,975,975,975,975,200,975
2013/10/24,975,977,970,970,1100,970
2013/10/25,970,975,958,975,2200,975
2013/10/28,970,999,959,990,8500,990
2013/10/29,999,999,990,990,3000,990
2013/10/30,981,1008,981,990,8100,990
2013/10/31,990,995,981,995,2400,995
2013/11/01,1000,1004,981,1000,4900,1000
2013/11/05,1009,1025,993,1000,25100,1000
2013/11/06,1012,1020,1008,1008,2200,1008
2013/11/07,1020,1020,1007,1011,5400,1011
2013/11/08,1020,1020,1014,1020,2900,1020
2013/11/11,1020,1028,1020,1027,4100,1027
2013/11/12,1049,1049,1020,1034,6300,1034
2013/11/13,1049,1050,1029,1050,5000,1050
2013/11/14,1050,1050,1015,1050,3400,1050
2013/11/15,1049,1049,1020,1038,1100,1038
2013/11/18,1045,1045,1025,1045,1600,1045
2013/11/19,1048,1050,1040,1050,4200,1050
2013/11/20,1050,1051,1048,1050,5800,1050
2013/11/21,1055,1060,1050,1056,8300,1056
2013/11/22,1050,1070,1050,1070,4500,1070
2013/11/25,1090,1120,1090,1120,7100,1120
2013/11/26,1120,1124,1110,1110,5300,1110
2013/11/27,1110,1119,1110,1115,1700,1115
2013/11/28,1120,1125,1101,1121,4400,1121
2013/11/29,1121,1133,1110,1130,4400,1130
2013/12/02,1130,1150,1130,1150,9200,1150
2013/12/03,1156,1250,1156,1180,10400,1180
2013/12/04,1250,1250,1190,1202,8700,1202
2013/12/05,1219,1225,1208,1225,4900,1225
2013/12/06,1225,1239,1225,1238,9000,1238
2013/12/09,1250,1260,1198,1225,29300,1225
2013/12/10,1227,1260,1217,1236,6800,1236
2013/12/11,1236,1250,1236,1247,6500,1247
2013/12/12,1250,1250,1239,1250,9100,1250
2013/12/13,1250,1265,1240,1265,12300,1265
2013/12/16,1265,1265,1230,1245,4500,1245
2013/12/17,1245,1250,1240,1249,2800,1249
2013/12/18,1235,1240,1143,1191,18900,1191
2013/12/19,1179,1196,1176,1196,16500,1196
2013/12/20,1196,1197,1196,1196,8400,1196
2013/12/24,1226,1226,1186,1200,17300,1200
2013/12/25,1180,1200,1180,1190,11900,1190
2013/12/26,1194,1200,1190,1191,2600,1191
2013/12/27,1200,1220,1193,1198,7400,1198
2013/12/30,1200,1230,1200,1217,3100,1217
2014/01/06,1230,1235,1215,1222,5000,1222
2014/01/07,1228,1240,1228,1240,2900,1240
2014/01/08,1245,1250,1245,1250,2500,1250
2014/01/09,1260,1299,1260,1299,5300,1299
2014/01/10,1286,1297,1286,1288,4700,1288
2014/01/14,1261,1287,1260,1287,3700,1287
2014/01/15,1167,1227,1160,1199,52600,1199
2014/01/16,1225,1228,1225,1225,4100,1225
2014/01/17,1228,1228,1225,1228,2400,1228
2014/01/20,1258,1258,1231,1244,4000,1244
2014/01/21,1250,1260,1250,1260,1200,1260
2014/01/22,1267,1267,1262,1266,2300,1266
2014/01/23,1277,1277,1267,1274,3200,1274
2014/01/24,1274,1274,1270,1270,3100,1270
2014/01/27,1261,1261,1163,1183,9400,1183
2014/01/28,1210,1247,1210,1247,2200,1247
2014/01/29,1250,1277,1250,1263,8100,1263
2014/01/30,1257,1257,1229,1236,2000,1236
2014/01/31,1242,1250,1227,1227,2600,1227
2014/02/03,1227,1235,1217,1233,1200,1233
2014/02/04,1231,1250,1202,1250,9700,1250
2014/02/05,1250,1250,1210,1214,3000,1214
2014/02/06,1245,1245,1228,1240,2100,1240
2014/02/07,1245,1250,1245,1250,1000,1250
2014/02/10,1250,1255,1250,1253,2800,1253
2014/02/12,1280,1280,1240,1240,4900,1240
2014/02/13,1255,1264,1250,1250,1700,1250
2014/02/14,1233,1248,1233,1248,900,1248
2014/02/17,1248,1248,1233,1243,700,1243
2014/02/18,1254,1254,1250,1253,600,1253
2014/02/19,1244,1245,1240,1245,1500,1245
2014/02/20,1251,1251,1240,1240,1100,1240
2014/02/21,1250,1252,1225,1235,7700,1235
2014/02/24,1230,1245,1213,1230,8900,1230
2014/02/25,1250,1250,1224,1249,9400,1249
2014/02/26,1201,1216,1200,1203,6900,1203
2014/02/27,1210,1211,1192,1192,3900,1192
2014/02/28,1177,1180,1124,1124,4600,1124
2014/03/03,1124,1134,1105,1134,4500,1134
2014/03/04,1160,1160,1132,1132,3000,1132
2014/03/05,1132,1147,1125,1144,3500,1144
2014/03/06,1144,1153,1144,1147,1900,1147
2014/03/07,1130,1135,1130,1135,1500,1135
2014/03/10,1135,1136,1135,1135,400,1135
2014/03/11,1138,1147,1138,1147,2100,1147
2014/03/12,1145,1200,1113,1116,12100,1116
2014/03/13,1121,1121,1117,1117,400,1117
2014/03/14,1119,1119,1070,1070,2200,1070
2014/03/17,1057,1090,1057,1070,1900,1070
2014/03/18,1052,1055,1035,1040,3800,1040
2014/03/19,1037,1037,1001,1011,7100,1011
2014/03/20,1011,1011,1001,1009,1300,1009
2014/03/24,1000,1005,1000,1005,2200,1005
2014/03/25,1001,1001,999,999,1200,999
2014/03/26,1000,1010,999,999,2300,999
2014/03/28,1000,1000,1000,1000,100,1000
2014/03/31,1001,1002,1001,1002,400,1002
2014/04/01,1003,1020,1003,1020,3000,1020
2014/04/02,1030,1040,1030,1040,2300,1040
2014/04/03,1040,1040,1040,1040,1100,1040
2014/04/04,1041,1061,1039,1061,1400,1061
2014/04/07,1055,1055,1041,1047,1500,1047
2014/04/08,1050,1052,1050,1052,200,1052
2014/04/09,1053,1060,1025,1025,3100,1025
2014/04/10,1031,1056,1031,1051,900,1051
2014/04/11,1021,1037,979,1037,5700,1037
2014/04/14,1037,1100,1016,1016,5200,1016
2014/04/15,1001,1076,1001,1045,4300,1045
2014/04/16,1045,1080,1045,1079,1600,1079
2014/04/17,1080,1090,1080,1090,300,1090
2014/04/18,1120,1147,1105,1147,2400,1147
2014/04/21,1117,1130,1117,1125,800,1125
2014/04/22,1130,1130,1083,1083,1600,1083
2014/04/23,1080,1111,1051,1071,1900,1071
2014/04/24,1095,1095,1075,1075,800,1075
2014/04/25,1075,1100,1075,1100,2100,1100
2014/04/28,1046,1070,1046,1068,3600,1068
2014/04/30,1064,1065,1056,1056,1400,1056
2014/05/01,1057,1090,1057,1070,1200,1070
2014/05/02,1092,1092,1070,1080,2000,1080
2014/05/07,1073,1076,1070,1070,1300,1070
2014/05/08,1067,1073,1063,1063,2900,1063
2014/05/09,1070,1085,1070,1076,1600,1076
2014/05/12,1100,1100,1097,1100,4600,1100
2014/05/13,1100,1113,1071,1092,6200,1092
2014/05/14,1092,1095,1092,1095,1400,1095
2014/05/15,1095,1099,1070,1099,500,1099
2014/05/16,1098,1098,1077,1098,400,1098
2014/05/19,1098,1098,1075,1075,1300,1075
2014/05/20,1095,1095,1095,1095,800,1095
2014/05/21,1070,1090,1070,1090,1600,1090
2014/05/22,1090,1090,1075,1075,500,1075
2014/05/23,1077,1085,1077,1085,900,1085
2014/05/26,1090,1090,1083,1083,1500,1083
2014/05/27,1083,1083,1077,1077,1900,1077
2014/05/28,1080,1089,1077,1077,1100,1077
2014/05/29,1077,1080,1077,1079,1700,1079
2014/05/30,1080,1100,1080,1098,4400,1098
2014/06/02,1095,1108,1094,1108,700,1108
2014/06/03,1129,1129,1115,1115,2300,1115
2014/06/04,1124,1127,1119,1119,4100,1119
2014/06/05,1139,1139,1125,1125,1400,1125
2014/06/06,1140,1150,1138,1141,2700,1141
2014/06/09,1145,1149,1140,1148,2500,1148
2014/06/10,1155,1157,1153,1153,1800,1153
2014/06/11,1160,1172,1138,1138,24000,1138
2014/06/12,1111,1124,1111,1122,3200,1122
2014/06/13,1122,1127,1122,1127,800,1127
2014/06/16,1125,1126,1111,1111,2300,1111
2014/06/17,1112,1112,1112,1112,100,1112
2014/06/18,1172,1172,1124,1137,1200,1137
2014/06/19,1137,1137,1123,1124,600,1124
2014/06/20,1130,1138,1130,1138,800,1138
2014/06/23,1140,1163,1135,1135,1500,1135
2014/06/24,1135,1145,1135,1143,2300,1143
2014/06/25,1143,1143,1143,1143,400,1143
2014/06/26,1136,1138,1133,1138,1400,1138
2014/06/27,1150,1150,1120,1122,2600,1122
2014/06/30,1122,1145,1122,1145,600,1145
2014/07/01,1148,1150,1140,1140,800,1140
2014/07/02,1151,1151,1133,1136,2300,1136
2014/07/03,1135,1135,1135,1135,900,1135
2014/07/04,1133,1138,1101,1138,7300,1138
2014/07/07,1130,1150,1130,1142,2800,1142
2014/07/08,1146,1148,1142,1148,700,1148
2014/07/09,1141,1141,1122,1122,1200,1122
2014/07/10,1122,1150,1122,1140,3100,1140
2014/07/11,1140,1140,1140,1140,4700,1140
2014/07/14,1122,1134,1122,1133,1100,1133
2014/07/16,1133,1133,1130,1130,300,1130
2014/07/17,1130,1135,1125,1125,1000,1125
2014/07/18,1135,1135,1135,1135,1400,1135
2014/07/22,1135,1135,1125,1125,700,1125
2014/07/23,1125,1130,1120,1130,1700,1130
2014/07/24,1130,1130,1130,1130,2200,1130
2014/07/25,1130,1130,1121,1121,2000,1121
2014/07/28,1125,1130,1125,1130,1500,1130
2014/07/29,1135,1135,1135,1135,2700,1135
2014/07/30,1133,1140,1133,1140,1200,1140
2014/07/31,1140,1146,1140,1146,1200,1146
2014/08/01,1146,1157,1146,1157,4500,1157
2014/08/04,1187,1188,1159,1160,8300,1160
2014/08/05,1163,1165,1163,1165,2600,1165
2014/08/06,1163,1168,1163,1165,600,1165
2014/08/07,1165,1168,1160,1160,1300,1160
2014/08/08,1158,1158,1150,1150,1600,1150
2014/08/11,1151,1154,1151,1154,900,1154
2014/08/12,1160,1160,1141,1159,5300,1159
2014/08/13,1165,1165,1130,1163,2000,1163
2014/08/14,1160,1160,1160,1160,300,1160
2014/08/18,1131,1148,1131,1147,1600,1147
2014/08/19,1160,1161,1110,1146,5100,1146
2014/08/20,1146,1151,1125,1151,3300,1151
2014/08/21,1137,1165,1137,1165,1500,1165
2014/08/22,1147,1165,1147,1149,700,1149
2014/08/25,1152,1182,1152,1182,500,1182
2014/08/26,1161,1176,1156,1176,1500,1176
2014/08/27,1176,1176,1160,1163,1900,1163
2014/08/28,1160,1160,1160,1160,1000,1160
2014/08/29,1160,1170,1135,1150,7600,1150
2014/09/01,1150,1150,1150,1150,200,1150
2014/09/02,1176,1177,1161,1161,1400,1161
2014/09/03,1157,1160,1157,1158,900,1158
2014/09/04,1160,1175,1160,1175,400,1175
2014/09/05,1161,1168,1160,1168,400,1168
2014/09/08,1159,1163,1159,1161,1300,1161
2014/09/09,1169,1169,1169,1169,300,1169
2014/09/10,1173,1174,1171,1171,2400,1171
2014/09/11,1172,1173,1163,1163,7100,1163
2014/09/12,1155,1179,1155,1179,2100,1179
2014/09/16,1155,1160,1150,1153,1300,1153
2014/09/17,1170,1170,1170,1170,100,1170
2014/09/18,1175,1175,1170,1170,600,1170
2014/09/19,1160,1160,1160,1160,200,1160
2014/09/22,1170,1170,1150,1150,1500,1150
2014/09/24,1175,1175,1174,1175,800,1175
2014/09/25,1170,1170,1170,1170,200,1170
2014/09/26,1160,1160,1160,1160,100,1160
2014/09/29,1170,1170,1170,1170,1100,1170
2014/09/30,1170,1177,1165,1165,2300,1165
2014/10/01,1174,1180,1166,1180,2200,1180
2014/10/02,1186,1186,1170,1170,1800,1170
2014/10/03,1164,1180,1164,1179,800,1179
2014/10/06,1185,1185,1184,1184,700,1184
2014/10/07,1185,1185,1185,1185,400,1185
2014/10/08,1182,1182,1182,1182,300,1182
2014/10/09,1180,1180,1168,1172,2500,1172
2014/10/10,1172,1172,1170,1172,4800,1172
2014/10/14,1160,1182,1159,1182,1800,1182
2014/10/15,1182,1182,1180,1180,500,1180
2014/10/16,1161,1181,1158,1160,2500,1160
2014/10/17,1160,1160,1160,1160,500,1160
2014/10/20,1177,1180,1177,1180,1300,1180
2014/10/21,1161,1179,1160,1160,1300,1160
2014/10/22,1162,1168,1162,1168,500,1168
2014/10/23,1168,1168,1168,1168,100,1168
2014/10/24,1180,1180,1152,1154,2000,1154
2014/10/27,1182,1182,1161,1163,1800,1163
2014/10/28,1163,1163,1163,1163,200,1163
2014/10/29,1165,1165,1165,1165,800,1165
2014/10/30,1167,1167,1166,1166,200,1166
2014/10/31,1179,1179,1179,1179,100,1179
2014/11/04,1180,1180,1175,1175,1500,1175
2014/11/05,1180,1180,1171,1176,1500,1176
2014/11/06,1179,1183,1170,1170,4200,1170
2014/11/07,1185,1185,1171,1171,2600,1171
2014/11/10,1177,1185,1177,1185,1100,1185
2014/11/11,1185,1190,1185,1190,3900,1190
2014/11/12,1190,1191,1180,1181,4700,1181
2014/11/13,1192,1200,1180,1180,5000,1180
2014/11/14,1185,1190,1185,1187,1600,1187
2014/11/17,1200,1200,1180,1180,2600,1180
2014/11/18,1181,1182,1180,1182,5400,1182
2014/11/19,1181,1194,1181,1183,1300,1183
2014/11/20,1180,1183,1177,1179,2300,1179
2014/11/21,1179,1189,1179,1187,1700,1187
2014/11/25,1190,1198,1190,1198,800,1198
2014/11/26,1199,1199,1191,1191,1300,1191
2014/11/27,1191,1199,1187,1199,1500,1199
2014/11/28,1200,1200,1193,1193,2400,1193
2014/12/01,1191,1199,1190,1199,3100,1199
2014/12/02,1198,1200,1198,1200,2600,1200
2014/12/03,1200,1210,1200,1202,1600,1202
2014/12/04,1210,1210,1205,1209,1900,1209
2014/12/05,1209,1210,1202,1210,2300,1210
2014/12/08,1210,1220,1210,1215,2200,1215
2014/12/09,1215,1220,1215,1220,1000,1220
2014/12/10,1220,1230,1220,1230,1200,1230
2014/12/11,1230,1239,1230,1239,4200,1239
2014/12/12,1249,1252,1249,1252,2000,1252
2014/12/15,1252,1265,1252,1260,700,1260
2014/12/16,1255,1255,1250,1250,1700,1250
2014/12/17,1250,1260,1250,1251,1300,1251
2014/12/18,1266,1279,1262,1279,1700,1279
2014/12/19,1285,1298,1276,1292,3600,1292
2014/12/22,1292,1320,1292,1320,6800,1320
2014/12/24,1350,1389,1350,1389,8100,1389
2014/12/25,1419,1441,1390,1441,6900,1441
2014/12/26,1437,1437,1400,1410,4900,1410
2014/12/29,1411,1430,1388,1429,3000,1429
2014/12/30,1429,1486,1428,1486,2700,1486
2015/01/05,1490,1600,1490,1560,8500,1560
2015/01/06,1598,1700,1598,1649,8900,1649
2015/01/07,1699,1699,1600,1604,11000,1604
2015/01/08,1590,1590,1560,1574,6200,1574
2015/01/09,1574,1580,1574,1580,5000,1580
2015/01/13,1598,1600,1572,1572,2100,1572
2015/01/14,1572,1572,1552,1554,1900,1554
2015/01/15,1550,1554,1540,1545,1800,1545
2015/01/16,1531,1531,1505,1530,2900,1530
2015/01/19,1530,1530,1506,1521,1700,1521
2015/01/20,1520,1520,1500,1520,1800,1520
2015/01/21,1518,1518,1500,1500,2500,1500
2015/01/22,1480,1492,1404,1415,8200,1415
2015/01/23,1419,1490,1419,1440,2700,1440
2015/01/26,1460,1569,1432,1460,3900,1460
2015/01/27,1450,1498,1450,1498,1700,1498
2015/01/28,1499,1528,1499,1515,3900,1515
2015/01/29,1515,1516,1482,1510,3600,1510
2015/01/30,1522,1525,1510,1510,800,1510
2015/02/02,1520,1525,1512,1513,2000,1513
2015/02/03,1529,1529,1517,1519,2400,1519
2015/02/04,1516,1524,1515,1517,3100,1517
2015/02/05,1520,1520,1516,1520,1600,1520
2015/02/06,1528,1528,1520,1522,1800,1522
2015/02/09,1522,1522,1520,1520,2100,1520
2015/02/10,1524,1529,1522,1528,3000,1528
2015/02/12,1558,1558,1535,1535,4300,1535
2015/02/13,1535,1558,1531,1555,1700,1555
2015/02/16,1555,1555,1530,1550,2600,1550
2015/02/17,1550,1550,1542,1550,400,1550
2015/02/18,1567,1567,1557,1564,1700,1564
2015/02/19,1560,1564,1556,1560,1600,1560
2015/02/20,1565,1580,1564,1575,5100,1575
2015/02/23,1576,1600,1573,1586,6700,1586
2015/02/24,1583,1585,1571,1584,6600,1584
2015/02/25,1488,1524,1488,1508,9200,1508
2015/02/26,1503,1510,1498,1500,4400,1500
2015/02/27,1466,1487,1378,1478,4100,1478
2015/03/02,1470,1470,1455,1456,4600,1456
2015/03/03,1448,1448,1390,1390,8700,1390
2015/03/04,1390,1408,1390,1400,4000,1400
2015/03/05,1400,1411,1389,1389,6000,1389
2015/03/06,1384,1401,1384,1393,3400,1393
2015/03/09,1400,1410,1400,1406,2100,1406
2015/03/10,1400,1400,1397,1397,2500,1397
2015/03/11,1397,1400,1395,1400,7000,1400
2015/03/12,1390,1404,1390,1400,2400,1400
2015/03/13,1405,1413,1400,1413,3900,1413
2015/03/16,1433,1457,1421,1429,3400,1429
2015/03/17,1433,1479,1432,1460,3600,1460
2015/03/18,1470,1471,1463,1471,2200,1471
2015/03/19,1475,1490,1475,1485,3800,1485
2015/03/20,1499,1500,1490,1490,1600,1490
2015/03/23,1500,1500,1490,1490,2200,1490
2015/03/24,1463,1487,1461,1481,2900,1481
2015/03/25,1470,1488,1425,1488,3200,1488
2015/03/26,1431,1451,1431,1450,2700,1450
2015/03/27,1460,1460,1450,1458,600,1458
2015/03/30,1469,1472,1469,1472,700,1472
2015/03/31,1478,1488,1450,1453,1900,1453
2015/04/01,1468,1470,1468,1470,1700,1470
2015/04/02,1500,1503,1497,1503,3800,1503
2015/04/03,1490,1508,1490,1508,1700,1508
2015/04/06,1511,1511,1500,1500,800,1500
2015/04/07,1500,1500,1494,1500,2500,1500
2015/04/08,1500,1508,1500,1504,2400,1504
2015/04/09,1505,1505,1490,1500,3000,1500
2015/04/10,1500,1510,1500,1510,5300,1510
2015/04/13,1508,1510,1502,1510,3500,1510
2015/04/14,1515,1538,1515,1532,8400,1532
2015/04/15,1538,1573,1538,1573,3900,1573
2015/04/16,1575,1588,1573,1574,10500,1574
2015/04/17,1574,1585,1555,1585,2200,1585
2015/04/20,1585,1590,1578,1578,2700,1578
2015/04/21,1578,1828,1575,1717,22200,1717
2015/04/22,1718,1720,1672,1680,7000,1680
2015/04/23,1680,1699,1650,1692,6000,1692
2015/04/24,1678,1717,1670,1700,8200,1700
2015/04/27,1717,1729,1710,1724,4800,1724
2015/04/28,1747,1747,1711,1722,1400,1722
2015/04/30,1722,1740,1719,1740,2800,1740
2015/05/01,1735,1797,1735,1781,9600,1781
2015/05/07,1780,1850,1742,1742,14100,1742
2015/05/08,1744,1810,1744,1789,4100,1789
2015/05/11,1801,1837,1801,1833,8000,1833
2015/05/12,1863,1887,1800,1862,11200,1862
2015/05/13,1842,1859,1842,1855,2700,1855
2015/05/14,1844,1844,1820,1825,1500,1825
2015/05/15,1782,1788,1727,1773,6600,1773
2015/05/18,1733,1733,1700,1722,5200,1722
2015/05/19,1715,1716,1636,1663,9900,1663
2015/05/20,1665,1665,1663,1664,9200,1664
2015/05/21,1665,1685,1664,1664,6100,1664
2015/05/22,1668,1718,1668,1718,1800,1718
2015/05/25,1718,1738,1692,1700,8200,1700
2015/05/26,1700,1733,1690,1701,7700,1701
2015/05/27,1697,1700,1692,1700,10000,1700
2015/05/28,1710,1712,1699,1699,5000,1699
2015/05/29,1699,1702,1690,1693,4500,1693
2015/06/01,1700,1700,1683,1688,3600,1688
2015/06/02,1675,1675,1631,1631,15900,1631
2015/06/03,1615,1649,1602,1630,3700,1630
2015/06/04,1639,1644,1621,1640,5300,1640
2015/06/05,1631,1638,1628,1632,1200,1632
2015/06/08,1647,1655,1645,1655,800,1655
2015/06/09,1655,1664,1651,1652,2200,1652
2015/06/10,1663,1680,1656,1675,1600,1675
2015/06/11,1667,1681,1651,1651,12300,1651
2015/06/12,1651,1665,1651,1660,1400,1660
2015/06/15,1660,1679,1653,1679,2700,1679
2015/06/16,1680,1680,1653,1653,1200,1653
2015/06/17,1678,1678,1651,1657,1300,1657
2015/06/18,1673,1673,1624,1624,3100,1624
2015/06/19,1630,1677,1630,1677,600,1677
2015/06/22,1676,1676,1654,1663,1000,1663
2015/06/24,1676,1735,1666,1666,1800,1666
2015/06/25,1662,1706,1662,1705,800,1705
2015/06/26,1699,1699,1662,1666,2400,1666
2015/06/29,1659,1659,1637,1643,2100,1643
2015/06/30,1640,1705,1640,1704,3000,1704
2015/07/01,1728,1765,1642,1765,10300,1765
