2011/01/04,399,399,399,399,1000,399
2011/01/05,400,400,400,400,1000,400
2011/01/11,392,392,392,392,1000,392
2011/01/12,400,414,400,414,2000,414
2011/01/13,401,401,401,401,1000,401
2011/01/14,402,409,402,409,3000,409
2011/01/17,410,410,410,410,2000,410
2011/01/18,409,410,409,410,2000,410
2011/01/19,410,410,410,410,1000,410
2011/01/21,409,409,409,409,2000,409
2011/01/25,410,410,410,410,2000,410
2011/01/26,410,410,408,408,2000,408
2011/02/01,405,405,405,405,1000,405
2011/02/02,406,410,406,410,4000,410
2011/02/03,418,418,418,418,1000,418
2011/02/04,413,418,412,418,3000,418
2011/02/07,418,418,418,418,1000,418
2011/02/08,410,410,410,410,1000,410
2011/02/10,417,417,415,415,2000,415
2011/02/14,415,416,415,416,2000,416
2011/02/15,415,415,415,415,1000,415
2011/02/16,415,415,415,415,1000,415
2011/02/17,415,415,413,413,2000,413
2011/02/18,414,416,414,416,2000,416
2011/02/21,416,425,416,425,6000,425
2011/02/22,420,420,420,420,2000,420
2011/02/23,425,425,417,417,9000,417
2011/02/24,377,382,377,382,9000,382
2011/02/25,389,389,389,389,2000,389
2011/02/28,376,376,375,375,2000,375
2011/03/01,371,371,370,370,2000,370
2011/03/02,370,370,370,370,2000,370
2011/03/07,378,378,378,378,1000,378
2011/03/08,378,378,378,378,1000,378
2011/03/10,377,377,372,372,2000,372
2011/03/11,367,367,367,367,1000,367
2011/03/14,361,361,361,361,3000,361
2011/03/15,357,357,350,350,4000,350
2011/03/16,347,347,347,347,1000,347
2011/03/17,339,339,339,339,1000,339
2011/03/22,346,370,346,355,6000,355
2011/03/24,363,371,363,371,2000,371
2011/03/25,374,374,358,358,4000,358
2011/03/29,360,360,360,360,1000,360
2011/03/31,359,359,359,359,1000,359
2011/04/04,360,368,360,368,3000,368
2011/04/06,356,356,356,356,1000,356
2011/04/11,352,352,352,352,1000,352
2011/04/13,344,344,344,344,7000,344
2011/04/14,350,350,350,350,3000,350
2011/04/15,350,350,350,350,1000,350
2011/04/18,346,346,346,346,1000,346
2011/04/19,359,359,359,359,1000,359
2011/04/22,355,355,355,355,1000,355
2011/04/25,357,357,357,357,2000,357
2011/04/27,352,352,352,352,1000,352
2011/04/28,352,352,352,352,1000,352
2011/05/06,353,354,353,354,2000,354
2011/05/10,354,354,354,354,1000,354
2011/05/20,369,369,369,369,1000,369
2011/05/25,369,369,369,369,6000,369
2011/06/06,377,377,377,377,1000,377
2011/06/10,362,362,362,362,1000,362
2011/06/21,367,367,367,367,1000,367
2011/06/22,370,370,370,370,1000,370
2011/06/23,378,378,378,378,2000,378
2011/06/24,370,370,367,367,2000,367
2011/06/27,369,369,369,369,2000,369
2011/07/04,365,365,365,365,1000,365
2011/07/06,379,379,379,379,1000,379
2011/07/07,383,383,383,383,1000,383
2011/07/11,385,385,385,385,6000,385
2011/07/12,385,385,380,380,2000,380
2011/07/13,364,364,364,364,1000,364
2011/07/14,365,365,365,365,1000,365
2011/07/25,365,365,365,365,1000,365
2011/07/28,364,365,364,365,2000,365
2011/08/05,355,355,351,351,4000,351
2011/08/09,355,355,355,355,1000,355
2011/08/11,355,355,355,355,1000,355
2011/08/12,360,360,360,360,1000,360
2011/08/23,360,360,360,360,1000,360
2011/08/25,365,365,365,365,3000,365
2011/08/26,360,360,360,360,2000,360
2011/09/02,360,360,360,360,2000,360
2011/09/06,370,370,370,370,1000,370
2011/09/14,370,370,370,370,1000,370
2011/09/26,370,370,370,370,1000,370
2011/09/29,400,400,400,400,2000,400
2011/09/30,399,399,399,399,1000,399
2011/10/05,395,395,395,395,1000,395
2011/10/25,399,399,399,399,2000,399
2011/10/31,380,380,380,380,1000,380
2011/11/04,378,378,377,377,3000,377
2011/11/11,375,375,375,375,1000,375
2011/11/14,372,372,372,372,1000,372
2011/11/21,396,396,396,396,1000,396
2011/11/24,373,373,373,373,1000,373
2011/11/25,381,381,381,381,1000,381
2011/11/30,381,381,381,381,1000,381
2011/12/05,394,394,394,394,1000,394
2011/12/07,394,394,394,394,1000,394
2011/12/09,400,400,400,400,5000,400
2011/12/12,384,392,384,392,2000,392
2011/12/13,392,400,392,400,2000,400
2011/12/14,400,400,400,400,1000,400
2011/12/15,399,399,399,399,1000,399
2011/12/22,403,403,403,403,1000,403
2011/12/29,395,395,395,395,1000,395
2012/01/04,399,400,399,400,2000,400
2012/01/10,405,405,405,405,1000,405
2012/01/11,406,406,406,406,1000,406
2012/01/12,410,410,410,410,1000,410
2012/01/13,410,410,410,410,1000,410
2012/01/16,410,410,410,410,1000,410
2012/01/19,410,410,410,410,2000,410
2012/01/24,410,410,410,410,2000,410
2012/01/25,420,420,420,420,1000,420
2012/01/27,420,420,420,420,1000,420
2012/01/31,420,420,420,420,1000,420
2012/02/01,420,420,420,420,1000,420
2012/02/02,420,420,420,420,1000,420
2012/02/03,420,420,420,420,1000,420
2012/02/06,418,418,418,418,1000,418
2012/02/07,420,420,420,420,2000,420
2012/02/08,422,424,422,424,3000,424
2012/02/09,420,420,420,420,1000,420
2012/02/14,425,425,425,425,2000,425
2012/02/15,415,425,415,425,3000,425
2012/02/16,420,420,420,420,1000,420
2012/02/17,421,421,421,421,2000,421
2012/02/20,425,430,425,430,6000,430
2012/02/21,440,440,422,440,5000,440
2012/02/22,440,440,440,440,1000,440
2012/02/23,450,450,450,450,2000,450
2012/02/24,450,460,450,460,3000,460
2012/02/27,410,410,397,408,13000,408
2012/02/28,414,414,401,401,2000,401
2012/02/29,400,407,400,407,3000,407
2012/03/01,406,406,406,406,1000,406
2012/03/05,404,404,404,404,1000,404
2012/03/08,390,390,385,385,3000,385
2012/03/09,392,392,392,392,1000,392
2012/03/19,393,394,393,394,2000,394
2012/03/23,402,402,394,394,3000,394
2012/03/26,394,394,394,394,1000,394
2012/03/28,402,402,402,402,1000,402
2012/03/29,399,399,399,399,1000,399
2012/03/30,390,398,390,398,2000,398
2012/04/04,406,406,406,406,1000,406
2012/04/05,406,406,395,395,2000,395
2012/04/16,400,400,400,400,1000,400
2012/04/17,400,400,400,400,1000,400
2012/04/18,398,398,398,398,1000,398
2012/04/20,406,406,406,406,1000,406
2012/04/23,406,406,398,398,2000,398
2012/04/24,406,406,406,406,1000,406
2012/04/25,406,406,401,401,4000,401
2012/05/01,400,400,400,400,1000,400
2012/05/07,408,410,408,410,2000,410
2012/05/22,402,402,402,402,1000,402
2012/05/25,414,414,414,414,4000,414
2012/05/28,400,400,400,400,3000,400
2012/06/04,390,390,390,390,1000,390
2012/06/05,398,398,398,398,1000,398
2012/06/08,390,390,390,390,1000,390
2012/06/11,391,391,391,391,1000,391
2012/06/12,405,405,405,405,1000,405
2012/06/25,405,405,405,405,2000,405
2012/06/29,400,400,400,400,1000,400
2012/07/10,412,412,412,412,3000,412
2012/07/11,424,424,424,424,1000,424
2012/07/12,428,428,397,397,2000,397
2012/07/20,400,400,400,400,1000,400
2012/07/23,410,410,410,410,1000,410
2012/07/25,395,395,395,395,2000,395
2012/08/07,418,418,418,418,1000,418
2012/08/16,420,420,420,420,1000,420
2012/08/27,420,420,420,420,1000,420
2012/09/03,400,400,400,400,1000,400
2012/09/11,402,402,402,402,1000,402
2012/09/14,418,418,418,418,1000,418
2012/09/24,409,409,409,409,1000,409
2012/09/25,421,421,421,421,2000,421
2012/09/28,406,406,406,406,1000,406
2012/10/02,414,414,414,414,1000,414
2012/10/04,401,401,401,401,1000,401
2012/10/05,408,410,408,410,2000,410
2012/10/15,410,410,410,410,1000,410
2012/10/23,411,418,411,418,2000,418
2012/10/25,418,418,418,418,1000,418
2012/10/29,418,418,418,418,1000,418
2012/10/31,416,416,416,416,1000,416
2012/11/05,400,400,400,400,4000,400
2012/11/06,408,408,408,408,1000,408
2012/11/12,402,402,402,402,1000,402
2012/11/14,405,405,405,405,1000,405
2012/11/19,405,405,405,405,1000,405
2012/11/21,405,405,405,405,1000,405
2012/11/22,410,410,410,410,2000,410
2012/11/28,410,410,410,410,2000,410
2012/11/30,410,418,410,418,4000,418
2012/12/03,418,426,418,426,3000,426
2012/12/05,434,434,434,434,1000,434
2012/12/06,420,428,420,428,2000,428
2012/12/07,428,436,428,436,3000,436
2012/12/10,444,444,444,444,4000,444
2012/12/12,430,430,430,430,1000,430
2012/12/13,440,440,440,440,1000,440
2012/12/17,439,439,439,439,1000,439
2012/12/19,439,439,439,439,2000,439
2012/12/21,439,439,439,439,1000,439
2012/12/25,447,447,447,447,2000,447
2012/12/27,454,454,454,454,1000,454
2013/01/07,459,460,459,460,2000,460
2013/01/08,469,470,469,470,2000,470
2013/01/10,470,470,470,470,1000,470
2013/01/11,470,471,470,471,2000,471
2013/01/15,471,471,471,471,1000,471
2013/01/16,472,472,472,472,1000,472
2013/01/17,475,475,475,475,2000,475
2013/01/18,478,478,478,478,1000,478
2013/01/21,478,478,478,478,4000,478
2013/01/24,478,478,478,478,1000,478
2013/01/25,480,480,480,480,4000,480
2013/01/28,480,480,480,480,1000,480
2013/01/29,480,480,480,480,2000,480
2013/01/30,480,485,480,485,4000,485
2013/01/31,507,507,507,507,2000,507
2013/02/01,483,510,483,510,5000,510
2013/02/04,510,510,510,510,2000,510
2013/02/05,525,525,510,510,6000,510
2013/02/06,510,510,510,510,3000,510
2013/02/07,510,525,510,520,7000,520
2013/02/08,500,500,500,500,1000,500
2013/02/12,503,503,500,500,2000,500
2013/02/13,497,497,493,493,5000,493
2013/02/14,490,490,485,485,5000,485
2013/02/15,493,495,490,495,3000,495
2013/02/18,489,496,489,496,2000,496
2013/02/19,490,490,490,490,2000,490
2013/02/20,480,487,480,480,7000,480
2013/02/21,487,497,487,497,4000,497
2013/02/22,497,510,497,503,8000,503
2013/02/25,510,515,496,514,14000,514
2013/02/26,449,455,444,449,17000,449
2013/02/27,455,455,449,454,5000,454
2013/02/28,454,454,444,444,8000,444
2013/03/01,441,441,426,426,4000,426
2013/03/04,426,430,426,430,2000,430
2013/03/05,426,428,426,428,3000,428
2013/03/06,430,430,429,430,5000,430
2013/03/08,429,429,429,429,1000,429
2013/03/11,443,443,435,435,5000,435
2013/03/12,442,442,432,432,2000,432
2013/03/14,430,430,430,430,1000,430
2013/03/15,429,429,429,429,1000,429
2013/03/18,430,430,428,428,3000,428
2013/03/19,430,430,430,430,1000,430
2013/03/21,430,434,430,431,5000,431
2013/03/22,431,431,431,431,1000,431
2013/03/25,438,438,433,433,3000,433
2013/03/27,435,435,435,435,1000,435
2013/03/28,435,435,435,435,1000,435
2013/03/29,443,445,443,445,2000,445
2013/04/03,453,453,453,453,1000,453
2013/04/04,438,438,438,438,1000,438
2013/04/05,443,447,442,447,4000,447
2013/04/08,447,447,447,447,1000,447
2013/04/09,441,441,441,441,1000,441
2013/04/10,442,442,442,442,1000,442
2013/04/11,449,450,442,450,3000,450
2013/04/12,458,458,458,458,1000,458
2013/04/15,468,472,468,472,2000,472
2013/04/16,470,470,446,454,6000,454
2013/04/17,462,462,462,462,1000,462
2013/04/18,470,470,470,470,1000,470
2013/04/22,476,476,476,476,1000,476
2013/04/23,476,476,462,465,7000,465
2013/04/24,473,473,468,468,4000,468
2013/04/25,474,474,474,474,1000,474
2013/04/30,475,475,475,475,1000,475
2013/05/01,470,470,470,470,1000,470
2013/05/02,473,473,470,470,3000,470
2013/05/07,470,470,470,470,1000,470
2013/05/08,475,483,475,483,2000,483
2013/05/09,484,484,474,474,2000,474
2013/05/10,466,466,466,466,1000,466
2013/05/13,479,479,479,479,1000,479
2013/05/16,476,476,476,476,1000,476
2013/05/20,475,475,475,475,1000,475
2013/05/21,475,475,475,475,2000,475
2013/05/22,474,474,470,470,2000,470
2013/05/23,465,465,465,465,1000,465
2013/05/24,475,475,475,475,2000,475
2013/05/27,470,470,470,470,1000,470
2013/05/28,465,473,465,473,2000,473
2013/05/29,474,474,474,474,1000,474
2013/05/31,479,479,479,479,1000,479
2013/06/03,465,465,449,450,3000,450
2013/06/04,443,443,443,443,1000,443
2013/06/05,454,454,445,445,3000,445
2013/06/07,440,440,440,440,1000,440
2013/06/10,445,450,442,442,3000,442
2013/06/11,443,443,443,443,1000,443
2013/06/12,450,450,450,450,1000,450
2013/06/25,450,450,450,450,1000,450
2013/06/27,445,445,440,440,2000,440
2013/06/28,445,445,445,445,1000,445
2013/07/05,450,456,450,456,2000,456
2013/07/08,456,456,456,456,1000,456
2013/07/09,470,470,470,470,1000,470
2013/07/10,476,476,476,476,5000,476
2013/07/12,476,476,460,460,2000,460
2013/07/16,468,468,468,468,1000,468
2013/07/23,468,468,468,468,1000,468
2013/07/24,468,468,468,468,1000,468
2013/07/25,474,475,468,472,4000,472
2013/07/29,476,477,466,477,5000,477
2013/08/07,472,472,472,472,1000,472
2013/08/12,479,479,479,479,1000,479
2013/08/19,473,473,472,472,2000,472
2013/08/22,474,474,474,474,1000,474
2013/08/23,475,475,475,475,2000,475
2013/08/28,487,487,487,487,2000,487
2013/09/03,485,486,485,485,3000,485
2013/09/04,470,470,469,469,2000,469
2013/09/05,478,478,478,478,1000,478
2013/09/11,466,470,466,470,5000,470
2013/09/12,470,470,470,470,1000,470
2013/09/18,485,485,485,485,1000,485
2013/09/19,490,490,490,490,1000,490
2013/09/20,475,479,474,474,3000,474
2013/09/24,479,480,479,480,2000,480
2013/09/25,494,494,494,494,1000,494
2013/09/27,478,485,478,485,2000,485
2013/09/30,480,480,480,480,2000,480
2013/10/02,492,494,492,494,3000,494
2013/10/07,477,477,477,477,4000,477
2013/10/08,477,477,477,477,1000,477
2013/10/15,485,485,485,485,1000,485
2013/10/16,483,483,483,483,1000,483
2013/10/17,499,500,490,490,5000,490
2013/10/22,491,491,491,491,1000,491
2013/10/25,499,499,488,488,6000,488
2013/10/28,500,500,500,500,1000,500
2013/11/01,485,485,485,485,3000,485
2013/11/05,490,490,485,490,5000,490
2013/11/08,485,485,485,485,1000,485
2013/11/11,485,485,485,485,2000,485
2013/11/12,480,480,480,480,6000,480
2013/11/13,480,480,480,480,1000,480
2013/11/15,485,485,481,481,2000,481
2013/11/18,482,485,482,485,2000,485
2013/11/19,488,488,488,488,1000,488
2013/11/21,490,505,490,505,3000,505
2013/11/22,490,490,481,481,13000,481
2013/11/25,488,488,488,488,3000,488
2013/11/26,488,488,488,488,1000,488
2013/11/28,495,495,495,495,1000,495
2013/11/29,497,530,497,530,9000,530
2013/12/02,550,555,530,530,21000,530
2013/12/03,530,530,520,520,9000,520
2013/12/04,530,530,530,530,2000,530
2013/12/05,525,525,525,525,1000,525
2013/12/06,523,523,521,521,3000,521
2013/12/09,524,529,524,529,2000,529
2013/12/10,530,530,525,526,8000,526
2013/12/11,520,520,520,520,1000,520
2013/12/13,520,525,515,516,4000,516
2013/12/18,528,528,515,515,2000,515
2013/12/20,515,515,515,515,3000,515
2013/12/24,520,520,517,519,3000,519
2013/12/25,519,519,510,510,5000,510
2013/12/27,520,530,520,530,7000,530
2013/12/30,530,530,526,526,2000,526
2014/01/06,540,555,539,555,7000,555
2014/01/07,560,560,540,555,7000,555
2014/01/08,559,559,559,559,1000,559
2014/01/09,559,559,541,559,5000,559
2014/01/10,546,557,544,544,13000,544
2014/01/14,550,550,542,549,3000,549
2014/01/15,549,549,549,549,1000,549
2014/01/16,550,550,544,549,5000,549
2014/01/20,546,549,546,549,2000,549
2014/01/21,549,550,549,550,2000,550
2014/01/22,550,550,549,549,3000,549
2014/01/23,550,550,549,549,5000,549
2014/01/24,550,555,550,550,6000,550
2014/01/27,555,555,555,555,1000,555
2014/01/29,550,550,539,550,7000,550
2014/01/30,560,560,547,547,3000,547
2014/01/31,548,548,548,548,2000,548
2014/02/03,549,550,549,550,5000,550
2014/02/04,550,550,541,541,7000,541
2014/02/05,548,548,548,548,1000,548
2014/02/06,550,550,532,532,8000,532
2014/02/07,533,533,533,533,3000,533
2014/02/10,549,549,537,537,6000,537
2014/02/12,546,549,546,549,5000,549
2014/02/13,550,550,550,550,2000,550
2014/02/14,541,541,540,540,5000,540
2014/02/17,545,549,545,549,4000,549
2014/02/18,550,550,545,545,5000,545
2014/02/19,545,549,544,544,4000,544
2014/02/20,550,550,550,550,1000,550
2014/02/24,548,550,544,550,9000,550
2014/02/25,555,560,555,559,13000,559
2014/02/26,502,519,493,502,39000,502
2014/02/27,505,514,500,500,6000,500
2014/02/28,507,507,500,500,3000,500
2014/03/03,501,507,477,507,12000,507
2014/03/04,491,491,491,491,1000,491
2014/03/05,498,498,498,498,1000,498
2014/03/06,491,491,487,487,2000,487
2014/03/07,487,487,484,487,4000,487
2014/03/12,495,495,495,495,1000,495
2014/03/13,495,495,487,487,4000,487
2014/03/14,487,487,487,487,1000,487
2014/03/17,487,487,486,486,4000,486
2014/03/18,485,486,485,486,2000,486
2014/03/19,486,486,486,486,1000,486
2014/03/20,485,485,485,485,2000,485
2014/03/24,486,486,486,486,2000,486
2014/03/25,486,486,482,482,3000,482
2014/03/27,489,489,489,489,1000,489
2014/04/01,489,489,489,489,1000,489
2014/04/02,497,497,497,497,1000,497
2014/04/07,503,503,500,500,2000,500
2014/04/09,490,490,490,490,1000,490
2014/04/11,485,485,485,485,1000,485
2014/04/14,486,486,486,486,1000,486
2014/04/21,492,492,490,490,2000,490
2014/04/25,490,490,488,488,3000,488
2014/05/02,486,488,485,485,4000,485
2014/05/07,485,486,485,486,2000,486
2014/05/08,487,487,485,485,2000,485
2014/05/13,484,485,484,485,2000,485
2014/05/15,486,486,486,486,1000,486
2014/05/19,481,481,480,481,3000,481
2014/05/21,482,482,482,482,1000,482
2014/05/23,482,482,482,482,1000,482
2014/05/26,482,483,482,483,2000,483
2014/05/27,486,486,484,484,2000,484
2014/05/28,483,483,483,483,1000,483
2014/05/29,483,483,483,483,1000,483
2014/05/30,484,484,483,483,2000,483
2014/06/03,483,483,483,483,1000,483
2014/06/04,483,483,483,483,1000,483
2014/06/05,488,488,488,488,1000,488
2014/06/10,495,495,492,492,2000,492
2014/06/16,492,492,490,490,2000,490
2014/06/19,498,498,498,498,1000,498
2014/06/20,492,499,492,499,2000,499
2014/06/25,499,499,493,493,5000,493
2014/07/01,498,498,498,498,5000,498
2014/07/04,499,499,499,499,1000,499
2014/07/07,499,499,498,499,3000,499
2014/07/08,499,499,496,499,4000,499
2014/07/09,499,503,499,503,4000,503
2014/07/10,493,500,492,492,8000,492
2014/07/14,493,493,493,493,1000,493
2014/07/17,493,493,493,493,1000,493
2014/07/24,494,503,494,503,5000,503
2014/07/25,498,498,498,498,3000,498
2014/07/28,497,498,497,498,2000,498
2014/07/29,497,497,497,497,1000,497
2014/07/31,497,497,497,497,1000,497
2014/08/04,494,494,494,494,1000,494
2014/08/05,494,494,494,494,1000,494
2014/08/06,494,494,494,494,1000,494
2014/08/07,492,494,490,494,4000,494
2014/08/08,490,494,490,494,2000,494
2014/08/11,486,486,486,486,2000,486
2014/08/13,486,486,486,486,2000,486
2014/08/14,487,489,487,489,3000,489
2014/08/15,485,492,485,492,3000,492
2014/08/19,489,498,489,498,2000,498
2014/08/21,490,490,490,490,1000,490
2014/08/22,498,498,498,498,1000,498
2014/08/26,498,498,489,490,5000,490
2014/08/28,494,494,494,494,1000,494
2014/08/29,495,495,495,495,2000,495
2014/09/01,498,498,498,498,1000,498
2014/09/02,491,491,491,491,1000,491
2014/09/05,499,499,499,499,2000,499
2014/09/09,495,495,495,495,1000,495
2014/09/18,498,500,498,500,2000,500
2014/09/22,500,500,500,500,3000,500
2014/09/24,500,500,500,500,5000,500
2014/09/25,505,505,505,505,5000,505
2014/09/26,504,505,504,505,4000,505
2014/10/02,535,535,535,535,1000,535
2014/10/08,511,511,511,511,3000,511
2014/10/09,521,521,521,521,1000,521
2014/10/10,515,515,511,511,3000,511
2014/10/14,510,519,510,519,3000,519
2014/10/20,517,517,517,517,1000,517
2014/10/21,517,517,517,517,1000,517
2014/10/23,511,511,511,511,1000,511
2014/10/24,517,518,517,518,3000,518
2014/10/30,515,517,515,517,2000,517
2014/11/04,520,520,520,520,2000,520
2014/11/05,527,527,527,527,1000,527
2014/11/06,533,534,522,522,3000,522
2014/11/10,535,535,535,535,1000,535
2014/11/13,535,544,535,544,3000,544
2014/11/14,545,545,545,545,1000,545
2014/11/18,537,537,537,537,2000,537
2014/11/20,538,538,538,538,2000,538
2014/11/21,538,538,538,538,1000,538
2014/11/25,544,545,544,545,6000,545
2014/11/26,548,550,548,550,2000,550
2014/11/27,550,550,550,550,2000,550
2014/11/28,550,555,549,555,3000,555
2014/12/01,559,565,555,555,5000,555
2014/12/03,557,565,557,565,6000,565
2014/12/04,557,557,557,557,1000,557
2014/12/09,557,557,557,557,1000,557
2014/12/10,570,570,551,551,8000,551
2014/12/11,551,552,551,551,3000,551
2014/12/15,553,553,553,553,1000,553
2014/12/16,553,553,553,553,1000,553
2014/12/17,553,555,553,555,2000,555
2014/12/18,555,555,555,555,3000,555
2014/12/19,552,558,552,558,2000,558
2014/12/24,550,551,550,551,3000,551
2014/12/25,551,551,551,551,1000,551
2014/12/26,558,565,558,565,6000,565
2014/12/29,562,563,562,563,5000,563
2014/12/30,561,561,561,561,2000,561
2015/01/05,565,580,565,580,7000,580
2015/01/06,579,579,568,568,2000,568
2015/01/07,571,571,571,571,1000,571
2015/01/08,575,575,574,574,3000,574
2015/01/14,567,567,567,567,2000,567
2015/01/15,567,570,567,570,2000,570
2015/01/16,570,570,569,570,4000,570
2015/01/19,570,570,568,568,5000,568
2015/01/20,566,569,566,569,3000,569
2015/01/21,570,570,570,570,1000,570
2015/01/22,569,569,566,566,2000,566
2015/01/23,569,569,569,569,4000,569
2015/01/26,570,570,569,569,6000,569
2015/01/27,569,569,567,567,4000,567
2015/01/28,566,575,566,575,6000,575
2015/01/29,575,575,575,575,2000,575
2015/01/30,576,576,576,576,1000,576
2015/02/02,575,577,575,577,11000,577
2015/02/03,575,580,574,580,7000,580
2015/02/04,580,589,578,588,7000,588
2015/02/05,588,588,578,587,4000,587
2015/02/06,587,587,587,587,1000,587
2015/02/09,580,589,580,589,4000,589
2015/02/10,589,591,589,591,6000,591
2015/02/12,604,604,594,596,7000,596
2015/02/13,600,604,596,604,8000,604
2015/02/16,604,604,601,601,4000,601
2015/02/17,602,606,602,603,9000,603
2015/02/18,604,606,602,606,5000,606
2015/02/19,605,606,605,605,5000,605
2015/02/20,604,607,604,607,7000,607
2015/02/23,600,607,600,607,15000,607
2015/02/24,607,630,607,630,24000,630
2015/02/25,544,569,544,562,56000,562
2015/02/26,556,556,551,551,9000,551
2015/02/27,553,553,551,553,6000,553
2015/03/02,550,550,532,532,8000,532
2015/03/03,532,554,532,554,10000,554
2015/03/04,539,539,538,538,2000,538
2015/03/05,538,543,536,543,5000,543
2015/03/06,545,545,533,533,3000,533
2015/03/09,540,543,540,543,2000,543
2015/03/10,541,550,541,550,6000,550
2015/03/11,550,550,543,543,4000,543
2015/03/12,543,543,543,543,3000,543
2015/03/13,541,541,540,540,4000,540
2015/03/17,539,539,539,539,1000,539
2015/03/18,538,538,538,538,3000,538
2015/03/20,537,537,537,537,2000,537
2015/03/24,537,537,537,537,4000,537
2015/03/25,537,537,535,535,6000,535
2015/03/26,534,534,533,533,4000,533
2015/03/27,539,540,538,540,3000,540
2015/03/31,534,534,532,532,4000,532
2015/04/01,530,530,530,530,2000,530
2015/04/02,527,532,527,532,2000,532
2015/04/03,535,535,534,534,2000,534
2015/04/06,542,542,535,541,5000,541
2015/04/07,545,545,532,532,4000,532
2015/04/08,544,544,534,543,3000,543
2015/04/09,535,535,532,532,5000,532
2015/04/10,529,529,529,529,1000,529
2015/04/13,529,529,529,529,1000,529
2015/04/14,523,528,523,528,2000,528
2015/04/15,527,527,527,527,1000,527
2015/04/16,528,528,528,528,1000,528
2015/04/21,530,530,529,529,3000,529
2015/04/22,530,530,530,530,1000,530
2015/04/24,538,538,538,538,1000,538
2015/04/27,535,535,535,535,1000,535
2015/04/28,535,535,535,535,1000,535
2015/04/30,535,535,535,535,2000,535
2015/05/01,535,535,534,534,4000,534
2015/05/07,530,530,530,530,1000,530
2015/05/08,526,529,526,529,3000,529
2015/05/11,528,528,528,528,1000,528
2015/05/12,530,530,527,527,2000,527
2015/05/13,536,536,536,536,1000,536
2015/05/14,535,535,535,535,1000,535
2015/05/18,531,531,531,531,2000,531
2015/05/19,531,531,531,531,2000,531
2015/05/21,535,539,535,539,2000,539
2015/05/25,546,546,531,531,5000,531
2015/05/26,539,539,539,539,1000,539
2015/06/02,535,535,533,533,2000,533
2015/06/04,532,539,532,539,2000,539
2015/06/05,539,539,539,539,2000,539
2015/06/08,535,535,535,535,1000,535
2015/06/12,534,534,534,534,1000,534
2015/06/15,539,539,538,538,3000,538
2015/06/16,535,535,535,535,2000,535
2015/06/18,538,538,538,538,1000,538
2015/06/22,533,533,533,533,1000,533
2015/06/24,538,538,538,538,1000,538
2015/06/25,539,539,539,539,2000,539
2015/06/26,539,539,539,539,2000,539
2015/06/29,545,545,545,545,2000,545
