2013/10/29,923,950,913,920,25400,920
2013/10/30,1070,1070,1070,1070,25300,1070
2013/10/31,1147,1160,1003,1007,311000,1007
2013/11/01,1037,1102,1020,1072,102700,1072
2013/11/05,1149,1149,1081,1100,80000,1100
2013/11/06,1106,1106,1075,1080,47900,1080
2013/11/07,1093,1095,1044,1048,27500,1048
2013/11/08,1038,1040,1015,1029,41500,1029
2013/11/11,1021,1025,976,984,77400,984
2013/11/12,980,1018,980,1010,34200,1010
2013/11/13,1004,1010,991,1002,13400,1002
2013/11/14,1002,1012,994,999,19800,999
2013/11/15,995,999,979,979,49300,979
2013/11/18,991,1011,982,1000,32300,1000
2013/11/19,995,1010,991,992,17300,992
2013/11/20,1000,1015,990,992,50400,992
2013/11/21,994,1006,994,1002,34900,1002
2013/11/22,1006,1009,986,995,29200,995
2013/11/25,1000,1000,976,978,79500,978
2013/11/26,977,990,968,985,28400,985
2013/11/27,985,999,968,976,23900,976
2013/11/28,985,986,961,970,45800,970
2013/11/29,978,978,958,970,34900,970
2013/12/02,970,990,955,989,26700,989
2013/12/03,993,993,980,993,25000,993
2013/12/04,985,1006,985,1000,33000,1000
2013/12/05,991,1008,983,987,29100,987
2013/12/06,985,994,981,994,6300,994
2013/12/09,1007,1034,1000,1030,32800,1030
2013/12/10,1050,1068,1019,1023,33800,1023
2013/12/11,1030,1054,1028,1034,47900,1034
2013/12/12,1020,1020,925,930,194000,930
2013/12/13,938,940,895,902,76800,902
2013/12/16,905,915,887,898,54800,898
2013/12/17,883,886,880,880,37300,880
2013/12/18,881,885,876,877,30000,877
2013/12/19,880,880,851,853,47000,853
2013/12/20,850,884,819,880,64400,880
2013/12/24,920,930,901,910,83700,910
2013/12/25,901,913,891,910,114900,910
2013/12/26,940,941,931,939,34800,939
2013/12/27,940,940,910,918,47000,918
2013/12/30,944,960,938,960,34900,960
2014/01/06,961,966,950,956,32400,956
2014/01/07,956,956,933,941,33000,941
2014/01/08,950,953,935,938,25100,938
2014/01/09,953,959,938,947,29200,947
2014/01/10,951,953,938,946,13300,946
2014/01/14,940,953,935,936,37900,936
2014/01/15,938,954,935,954,15800,954
2014/01/16,954,956,940,940,15600,940
2014/01/17,941,945,937,941,14900,941
2014/01/20,945,974,945,967,41000,967
2014/01/21,993,994,970,970,22500,970
2014/01/22,974,984,965,970,25800,970
2014/01/23,975,981,948,950,30300,950
2014/01/24,922,937,920,934,34300,934
2014/01/27,908,912,900,903,38300,903
2014/01/28,905,914,901,905,15000,905
2014/01/29,905,918,905,909,41200,909
2014/01/30,893,899,890,891,45100,891
2014/01/31,898,899,853,868,48400,868
2014/02/03,860,880,850,851,30800,851
2014/02/04,829,829,800,817,52700,817
2014/02/05,849,849,807,817,21500,817
2014/02/06,822,845,822,834,16200,834
2014/02/07,839,856,823,823,41400,823
2014/02/10,838,852,836,851,20400,851
2014/02/12,866,880,861,880,20500,880
2014/02/13,880,883,850,855,26200,855
2014/02/14,841,855,811,818,48700,818
2014/02/17,821,828,807,811,40600,811
2014/02/18,812,819,803,815,27700,815
2014/02/19,813,818,806,811,12900,811
2014/02/20,813,814,805,807,9200,807
2014/02/21,807,827,807,827,15700,827
2014/02/24,840,855,838,841,14800,841
2014/02/25,852,853,831,843,17400,843
2014/02/26,843,843,833,841,8300,841
2014/02/27,848,848,835,838,10700,838
2014/02/28,838,848,833,833,8100,833
2014/03/03,842,869,834,859,35900,859
2014/03/04,859,874,847,873,19400,873
2014/03/05,887,887,880,882,22000,882
2014/03/06,885,885,854,872,19400,872
2014/03/07,884,884,858,862,17200,862
2014/03/10,874,877,868,872,10900,872
2014/03/11,871,881,867,879,21400,879
2014/03/12,879,898,879,890,28100,890
2014/03/13,889,896,885,888,23200,888
2014/03/14,851,856,815,827,102700,827
2014/03/17,820,823,800,803,44300,803
2014/03/18,816,826,812,819,18000,819
2014/03/19,826,827,807,824,32100,824
2014/03/20,826,827,808,809,27800,809
2014/03/24,822,832,820,830,15300,830
2014/03/25,835,846,835,839,24300,839
2014/03/26,850,851,845,850,18700,850
2014/03/27,850,869,850,869,32900,869
2014/03/28,880,920,880,920,65800,920
2014/03/31,943,944,920,932,50500,932
2014/04/01,940,950,935,948,44600,948
2014/04/02,951,965,950,954,35200,954
2014/04/03,960,980,959,980,41000,980
2014/04/04,983,983,964,973,42100,973
2014/04/07,980,980,965,973,48900,973
2014/04/08,972,972,945,956,54100,956
2014/04/09,955,955,890,912,108800,912
2014/04/10,939,947,915,917,49100,917
2014/04/11,910,934,901,926,40300,926
2014/04/14,934,942,926,941,29300,941
2014/04/15,949,950,937,945,29200,945
2014/04/16,948,948,910,929,90000,929
2014/04/17,934,934,918,922,45600,922
2014/04/18,922,925,909,913,71300,913
2014/04/21,913,915,892,895,104600,895
2014/04/22,895,905,894,895,63400,895
2014/04/23,895,898,881,890,78800,890
2014/04/24,873,878,854,860,365600,860
2014/04/25,854,869,841,859,199800,859
2014/04/28,859,883,859,883,57300,883
2014/04/30,883,887,861,874,40500,874
2014/05/01,861,870,860,864,23600,864
2014/05/02,864,864,853,855,22000,855
2014/05/07,853,873,845,857,45300,857
2014/05/08,861,875,857,869,33400,869
2014/05/09,871,871,861,862,17300,862
2014/05/12,864,874,852,855,41500,855
2014/05/13,856,870,855,858,18800,858
2014/05/14,870,870,856,859,30000,859
2014/05/15,851,855,845,847,22200,847
2014/05/16,845,852,840,841,17100,841
2014/05/19,843,850,830,830,10500,830
2014/05/20,830,832,820,820,29700,820
2014/05/21,810,816,802,808,31100,808
2014/05/22,810,827,810,825,25600,825
2014/05/23,833,833,822,829,14200,829
2014/05/26,830,835,829,835,16200,835
2014/05/27,835,840,831,831,11900,831
2014/05/28,835,847,832,837,23700,837
2014/05/29,842,851,838,845,12800,845
2014/05/30,853,854,841,842,14500,842
2014/06/02,848,859,845,854,19500,854
2014/06/03,865,865,854,858,11600,858
2014/06/04,858,858,848,852,23000,852
2014/06/05,855,864,849,851,17800,851
2014/06/06,845,860,841,848,41000,848
2014/06/09,878,878,860,866,41300,866
2014/06/10,875,886,871,875,56600,875
2014/06/11,877,888,868,871,44600,871
2014/06/12,875,892,873,890,49900,890
2014/06/13,865,870,853,854,113200,854
2014/06/16,864,864,842,856,42600,856
2014/06/17,858,858,845,848,27100,848
2014/06/18,848,850,843,844,19700,844
2014/06/19,845,849,837,840,40200,840
2014/06/20,843,852,839,840,27600,840
2014/06/23,841,854,841,853,31000,853
2014/06/24,845,855,845,848,18800,848
2014/06/25,849,852,846,849,16900,849
2014/06/26,850,858,850,856,49000,856
2014/06/27,854,858,845,858,37200,858
2014/06/30,860,874,857,873,36400,873
2014/07/01,880,887,875,885,44800,885
2014/07/02,888,904,888,898,59300,898
2014/07/03,899,922,899,920,60500,920
2014/07/04,920,933,905,917,53600,917
2014/07/07,911,931,911,930,43500,930
2014/07/08,927,934,911,930,25700,930
2014/07/09,990,1017,951,960,246400,960
2014/07/10,958,960,922,929,46500,929
2014/07/11,913,964,912,961,63300,961
2014/07/14,960,960,940,945,20500,945
2014/07/15,949,949,925,932,17300,932
2014/07/16,945,958,932,948,24700,948
2014/07/17,950,951,940,941,7300,941
2014/07/18,931,950,923,939,16700,939
2014/07/22,948,961,947,960,24900,960
2014/07/23,948,956,944,946,14100,946
2014/07/24,946,956,926,950,19800,950
2014/07/25,956,960,948,960,14500,960
2014/07/28,965,971,962,962,18600,962
2014/07/29,962,966,952,959,12300,959
2014/07/30,959,961,955,955,5500,955
2014/07/31,960,960,937,937,14800,937
2014/08/01,933,948,930,943,14800,943
2014/08/04,943,966,932,966,10900,966
2014/08/05,965,965,940,942,11500,942
2014/08/06,941,942,930,932,18200,932
2014/08/07,931,948,931,940,25200,940
2014/08/08,941,952,932,944,16400,944
2014/08/11,942,953,942,952,8600,952
2014/08/12,955,955,945,949,6500,949
2014/08/13,945,952,945,948,4700,948
2014/08/14,949,951,940,942,11200,942
2014/08/15,945,947,943,944,1900,944
2014/08/18,944,945,941,942,4700,942
2014/08/19,941,947,938,938,11400,938
2014/08/20,939,942,938,938,7700,938
2014/08/21,937,940,936,936,5800,936
2014/08/22,940,951,938,949,15700,949
2014/08/25,949,956,946,949,14300,949
2014/08/26,952,954,948,951,14700,951
2014/08/27,942,952,942,951,16900,951
2014/08/28,955,976,953,973,36500,973
2014/08/29,979,1017,979,1010,69100,1010
2014/09/01,1029,1047,1010,1021,52900,1021
2014/09/02,1020,1020,992,999,28600,999
2014/09/03,997,1006,996,1002,12100,1002
2014/09/04,1009,1010,1004,1006,9800,1006
2014/09/05,1006,1008,998,1001,13700,1001
2014/09/08,1003,1018,1003,1018,13300,1018
2014/09/09,1025,1033,1021,1033,11300,1033
2014/09/10,1033,1033,1020,1024,9700,1024
2014/09/11,1018,1023,1005,1005,17300,1005
2014/09/12,1025,1070,1025,1044,62600,1044
2014/09/16,1049,1064,1044,1045,24500,1045
2014/09/17,1046,1058,1040,1041,20100,1041
2014/09/18,1041,1055,1024,1027,16300,1027
2014/09/19,1030,1050,1028,1037,18800,1037
2014/09/22,1043,1098,1040,1070,57600,1070
2014/09/24,1074,1100,1070,1089,20000,1089
2014/09/25,1088,1090,1070,1071,17700,1071
2014/09/26,1052,1085,1040,1079,19700,1079
2014/09/29,1080,1090,1068,1088,14000,1088
2014/09/30,1070,1072,1056,1057,17200,1057
2014/10/01,1053,1077,1040,1050,23300,1050
2014/10/02,1020,1052,1008,1028,28800,1028
2014/10/03,1028,1057,1025,1057,19000,1057
2014/10/06,1068,1083,1064,1083,19100,1083
2014/10/07,1072,1089,1068,1069,13100,1069
2014/10/08,1050,1056,1041,1050,14700,1050
2014/10/09,1061,1061,1036,1040,9400,1040
2014/10/10,1025,1040,1014,1014,25700,1014
2014/10/14,1000,1009,992,1001,32600,1001
2014/10/15,1002,1030,1002,1029,21100,1029
2014/10/16,1000,1015,999,1002,27600,1002
2014/10/17,1000,1008,980,982,27000,982
2014/10/20,1006,1028,1005,1028,17300,1028
2014/10/21,1031,1031,1000,1010,12100,1010
2014/10/22,1020,1020,1010,1020,9700,1020
2014/10/23,1018,1026,1003,1021,19700,1021
2014/10/24,1028,1028,1015,1019,7100,1019
2014/10/27,1022,1023,1014,1015,7500,1015
2014/10/28,1012,1025,1010,1020,5200,1020
2014/10/29,1015,1022,1006,1021,8200,1021
2014/10/30,1029,1035,1021,1032,11200,1032
2014/10/31,1038,1038,1028,1031,12300,1031
2014/11/04,1050,1050,1024,1027,15000,1027
2014/11/05,1030,1035,1030,1032,8600,1032
2014/11/06,1040,1040,1023,1023,9200,1023
2014/11/07,1023,1035,1015,1035,10300,1035
2014/11/10,1035,1036,1027,1028,6400,1028
2014/11/11,1030,1038,1030,1030,5200,1030
2014/11/12,1031,1032,1025,1031,15200,1031
2014/11/13,1031,1036,1025,1036,6600,1036
2014/11/14,1030,1033,1018,1024,16200,1024
2014/11/17,1030,1030,1022,1022,13900,1022
2014/11/18,1023,1032,1023,1027,5200,1027
2014/11/19,1025,1033,1025,1031,8600,1031
2014/11/20,1025,1033,1025,1027,10800,1027
2014/11/21,1033,1033,1026,1027,5100,1027
2014/11/25,1035,1060,1030,1053,26800,1053
2014/11/26,1065,1090,1062,1090,21300,1090
2014/11/27,1091,1145,1091,1135,38000,1135
2014/11/28,1160,1207,1139,1161,51200,1161
2014/12/01,1182,1208,1172,1207,35600,1207
2014/12/02,1220,1230,1170,1174,60100,1174
2014/12/03,1174,1199,1148,1148,24400,1148
2014/12/04,1150,1167,1113,1137,32000,1137
2014/12/05,1149,1168,1137,1157,15200,1157
2014/12/08,1171,1198,1155,1156,15100,1156
2014/12/09,1156,1177,1150,1175,24500,1175
2014/12/10,1170,1192,1159,1168,25100,1168
2014/12/11,1139,1149,1109,1148,31200,1148
2014/12/12,1150,1160,1130,1138,17300,1138
2014/12/15,1144,1179,1138,1159,18400,1159
2014/12/16,1144,1154,1133,1143,14800,1143
2014/12/17,1126,1152,1126,1145,11300,1145
2014/12/18,1155,1160,1145,1155,10900,1155
2014/12/19,1176,1176,1155,1169,13100,1169
2014/12/22,1170,1171,1160,1170,15900,1170
2014/12/24,1187,1195,1167,1183,43100,1183
2014/12/25,1180,1180,1168,1169,22900,1169
2014/12/26,1188,1192,1175,1192,26300,1192
2014/12/29,1202,1209,1179,1192,37500,1192
2014/12/30,1194,1199,1179,1190,25700,1190
2015/01/05,1202,1320,1197,1297,73100,1297
2015/01/06,1280,1291,1253,1275,28900,1275
2015/01/07,1262,1275,1255,1255,24200,1255
2015/01/08,1265,1288,1254,1271,26700,1271
2015/01/09,1275,1280,1215,1232,37400,1232
2015/01/13,1205,1236,1205,1236,23000,1236
2015/01/14,1250,1255,1238,1252,12900,1252
2015/01/15,1246,1259,1239,1242,20300,1242
2015/01/16,1241,1246,1228,1240,13600,1240
2015/01/19,1266,1319,1252,1318,35700,1318
2015/01/20,1335,1394,1331,1394,61800,1394
2015/01/21,1373,1389,1360,1382,23400,1382
2015/01/22,1370,1375,1329,1351,21100,1351
2015/01/23,1340,1352,1330,1350,20300,1350
2015/01/26,1353,1385,1350,1385,18400,1385
2015/01/27,1385,1394,1371,1381,22600,1381
2015/01/28,1370,1379,1349,1365,24400,1365
2015/01/29,1361,1375,1351,1356,17000,1356
2015/01/30,1357,1369,1350,1367,12700,1367
2015/02/02,1399,1425,1388,1418,43100,1418
2015/02/03,1450,1469,1350,1365,73100,1365
2015/02/04,1381,1412,1380,1405,31300,1405
2015/02/05,1420,1449,1420,1436,26200,1436
2015/02/06,1431,1436,1408,1429,20800,1429
2015/02/09,1430,1470,1429,1455,28400,1455
2015/02/10,1473,1480,1455,1460,28000,1460
2015/02/12,1478,1488,1425,1441,36100,1441
2015/02/13,1455,1455,1428,1436,14300,1436
2015/02/16,1438,1455,1438,1452,13200,1452
2015/02/17,1454,1458,1446,1452,10500,1452
2015/02/18,1456,1468,1448,1457,15000,1457
2015/02/19,1460,1465,1448,1454,14700,1454
2015/02/20,1460,1462,1451,1451,11400,1451
2015/02/23,1464,1467,1456,1465,18800,1465
2015/02/24,1483,1484,1465,1482,20800,1482
2015/02/25,1494,1519,1492,1518,30300,1518
2015/02/26,1521,1564,1518,1558,38800,1558
2015/02/27,1578,1588,1546,1566,38700,1566
2015/03/02,1565,1569,1545,1569,24800,1569
2015/03/03,1569,1569,1491,1527,44800,1527
2015/03/04,1502,1518,1481,1511,27000,1511
2015/03/05,1500,1504,1485,1503,14900,1503
2015/03/06,1515,1530,1512,1530,13600,1530
2015/03/09,1530,1572,1530,1565,25900,1565
2015/03/10,1615,1649,1569,1583,109700,1583
2015/03/11,1581,1665,1581,1665,67000,1665
2015/03/12,1616,1649,1600,1635,67200,1635
2015/03/13,1666,1670,1645,1650,35200,1650
2015/03/16,1690,1712,1670,1702,50200,1702
2015/03/17,1750,1760,1717,1727,53400,1727
2015/03/18,1730,1738,1686,1717,63800,1717
2015/03/19,1730,1758,1706,1723,37700,1723
2015/03/20,1725,1742,1720,1729,15500,1729
2015/03/23,1749,1799,1748,1799,70800,1799
2015/03/24,1800,1800,1782,1782,38300,1782
2015/03/25,1796,1797,1762,1768,34800,1768
2015/03/26,1751,1751,1711,1737,44800,1737
2015/03/27,1719,1780,1712,1774,52600,1774
2015/03/30,1790,1840,1786,1817,65600,1817
2015/03/31,1842,1894,1836,1894,85800,1894
2015/04/01,1925,1960,1910,1930,99400,1930
2015/04/02,1944,1944,1903,1915,77600,1915
2015/04/03,1909,1931,1855,1876,109000,1876
2015/04/06,1874,1884,1861,1883,74100,1883
2015/04/07,1897,1939,1897,1935,81000,1935
2015/04/08,1946,1964,1939,1943,74800,1943
2015/04/09,1943,1956,1885,1919,108900,1919
2015/04/10,1919,1929,1905,1911,38400,1911
2015/04/13,1916,1921,1858,1865,100100,1865
2015/04/14,1857,1863,1810,1845,95300,1845
2015/04/15,1849,1857,1813,1820,71200,1820
2015/04/16,1809,1809,1722,1750,138800,1750
2015/04/17,1733,1745,1707,1716,71800,1716
2015/04/20,1700,1740,1691,1724,81800,1724
2015/04/21,1730,1736,1708,1712,78300,1712
2015/04/22,1718,1722,1712,1713,66500,1713
2015/04/23,1713,1716,1692,1697,125100,1697
2015/04/24,1681,1694,1681,1686,415900,1686
2015/04/27,1675,1736,1651,1735,263500,1735
2015/04/28,1731,1731,1658,1665,90100,1665
2015/04/30,1655,1659,1601,1603,72900,1603
2015/05/01,1570,1580,1540,1580,79700,1580
2015/05/07,1555,1595,1551,1576,28000,1576
2015/05/08,1575,1669,1575,1632,41700,1632
2015/05/11,1669,1669,1634,1642,35300,1642
2015/05/12,1642,1650,1625,1631,20900,1631
2015/05/13,1637,1668,1630,1664,29200,1664
2015/05/14,1658,1659,1636,1636,19700,1636
2015/05/15,1637,1657,1637,1652,18400,1652
2015/05/18,1643,1677,1637,1668,23400,1668
2015/05/19,1665,1684,1660,1669,21300,1669
2015/05/20,1682,1688,1674,1683,20000,1683
2015/05/21,1685,1705,1677,1677,37900,1677
2015/05/22,1678,1710,1678,1710,31800,1710
2015/05/25,1715,1730,1712,1728,26600,1728
2015/05/26,1730,1730,1701,1706,21200,1706
2015/05/27,1700,1706,1674,1682,24600,1682
2015/05/28,1680,1684,1621,1627,47400,1627
2015/05/29,1627,1649,1625,1635,22400,1635
2015/06/01,1644,1644,1626,1638,11900,1638
2015/06/02,1638,1645,1630,1636,8300,1636
2015/06/03,1640,1640,1630,1632,9200,1632
2015/06/04,1633,1640,1631,1640,8500,1640
2015/06/05,1645,1660,1637,1655,11600,1655
2015/06/08,1660,1694,1660,1694,21100,1694
2015/06/09,1692,1707,1681,1689,26400,1689
2015/06/10,1705,1709,1691,1709,36700,1709
2015/06/11,1714,1750,1714,1742,77200,1742
2015/06/12,1709,1738,1640,1710,118300,1710
2015/06/15,1700,1705,1686,1690,28500,1690
2015/06/16,1691,1699,1690,1695,14800,1695
2015/06/17,1696,1699,1690,1695,13000,1695
2015/06/18,1691,1692,1670,1677,22000,1677
2015/06/19,1673,1737,1673,1730,30000,1730
2015/06/22,1730,1732,1680,1711,21000,1711
2015/06/23,1721,1736,1718,1728,20100,1728
2015/06/24,1734,1786,1730,1786,68500,1786
2015/06/25,1786,1838,1760,1833,74700,1833
2015/06/26,1810,1835,1780,1803,33600,1803
2015/06/29,1748,1788,1710,1760,45900,1760
2015/06/30,1728,1776,1726,1770,27400,1770
2015/07/01,1760,1818,1760,1818,28500,1818
