2011/01/06,175000,177900,168000,168000,277,336
2011/01/07,169600,169600,163000,166500,90,333
2011/01/13,167000,168900,165100,167000,22,334
2011/01/14,166900,167000,166000,167000,39,334
2011/01/21,169400,169700,163000,165000,136,330
2011/01/24,165000,167000,165000,167000,43,334
2011/01/25,169900,170000,168600,170000,37,340
2011/01/26,170000,170000,168300,170000,121,340
2011/01/28,169900,169900,165200,167000,83,334
2011/01/31,165000,167000,165000,166500,57,333
2011/02/01,169800,175000,169500,175000,60,350
2011/02/03,176000,178000,174100,178000,55,356
2011/02/04,178000,179500,177000,178000,80,356
2011/02/09,197200,206000,194300,202000,104,404
2011/02/14,201900,201900,197000,199000,41,398
2011/02/16,198000,198000,197300,198000,95,396
2011/02/18,199700,208000,199000,200000,153,400
2011/02/21,201000,202000,199200,200000,159,400
2011/02/28,196700,205000,195400,205000,50,410
2011/03/01,205000,210000,203000,210000,96,420
2011/03/02,211000,220000,206500,215000,158,430
2011/03/03,215000,222000,213100,219000,148,438
2011/03/04,220000,223500,219000,220000,101,440
2011/03/09,220300,231000,220000,230000,93,460
2011/03/11,224300,231900,220000,220000,179,440
2011/03/15,180000,184000,140000,151000,421,302
2011/03/22,188400,204900,188000,204500,259,409
2011/03/24,213000,224900,212000,224000,152,448
2011/03/28,215100,215500,189600,194000,300,388
2011/03/29,183500,195000,182000,188500,168,377
2011/03/30,190000,206000,190000,206000,112,412
2011/04/01,213600,213600,198500,198500,134,397
2011/04/05,196500,199300,195000,195000,56,390
2011/04/11,198700,205000,197000,205000,122,410
2011/04/12,200000,200300,196500,196500,65,393
2011/04/13,196000,198500,195000,198500,84,397
2011/04/18,208000,208400,206000,207000,30,414
2011/04/19,205900,205900,202100,203500,54,407
2011/04/22,200800,201000,199500,200000,41,400
2011/04/27,197400,198000,196100,197500,60,395
2011/05/02,199200,201000,199200,200500,15,401
2011/05/06,200100,200100,198000,199000,42,398
2011/05/12,217800,222800,217000,219000,60,438
2011/05/13,220000,223000,217000,218000,144,436
2011/05/18,208000,213700,207300,210000,120,420
2011/05/25,217700,225000,215500,223000,75,446
2011/05/27,223900,235000,223000,231000,150,462
2011/05/30,236000,239000,230100,233000,74,466
2011/05/31,233500,233500,228200,232000,32,464
2011/06/06,232000,233000,227100,227500,55,455
2011/06/07,229100,236000,226600,236000,59,472
2011/06/09,270000,270000,256800,266000,382,532
2011/06/10,266000,266000,255000,256000,94,512
2011/06/13,261000,262000,257500,260000,45,520
2011/06/14,261100,261100,258000,258000,110,516
2011/06/15,257500,258000,255000,258000,25,516
2011/06/16,256000,260500,255000,260000,146,520
2011/06/17,261000,278500,261000,277000,300,554
2011/06/20,280000,282000,270000,276500,176,553
2011/06/27,286900,288000,284500,287000,122,574
2011/06/28,285000,299500,285000,299500,197,599
2011/06/30,296100,299100,296100,299000,106,598
2011/07/04,296600,297900,292000,297000,153,594
2011/07/07,299900,308000,299500,303500,183,607
2011/07/08,309000,323500,307500,322500,360,645
2011/07/11,316000,322000,316000,320000,132,640
2011/07/12,322000,329500,317500,329500,132,659
2011/07/13,329000,346500,328000,344000,332,688
2011/07/14,346000,364500,337000,339000,396,678
2011/07/15,332000,335000,311000,327000,325,654
2011/07/19,328000,345500,328000,345000,149,690
2011/07/20,344500,354500,335500,351000,180,702
2011/07/21,344000,359500,344000,357000,213,714
2011/07/22,360000,360000,349000,356500,101,713
2011/07/25,355500,359000,334000,359000,171,718
2011/07/26,356500,357000,348000,356000,154,712
2011/07/27,351000,354000,343000,345000,195,690
2011/07/28,337000,351500,337000,351500,161,703
2011/07/29,345000,352500,338000,352500,142,705
2011/08/01,351500,352500,340000,352500,222,705
2011/08/02,345500,349500,340000,341500,194,683
2011/08/03,338000,341000,328500,335000,168,670
2011/08/04,363000,403000,358000,397500,1508,795
2011/08/05,370000,423000,360000,412000,1212,824
2011/08/08,410000,445000,404000,416500,1255,833
2011/08/09,403000,412000,380500,403500,755,807
2011/08/10,419500,425000,400000,401000,234,802
2011/08/11,390000,405000,389000,395000,234,790
2011/08/12,401500,403500,384500,393500,205,787
2011/08/15,391000,420000,386500,415000,494,830
2011/08/16,427000,478500,414000,472000,1132,944
2011/08/17,465000,480000,455000,455000,731,910
2011/08/18,469000,492000,465000,486500,1020,973
2011/08/19,478500,485000,460500,468500,520,937
2011/08/22,463000,480500,440000,440000,370,880
2011/08/23,444000,445000,422000,440000,350,880
2011/08/24,449000,450000,425000,427000,264,854
2011/08/25,427000,439000,411000,425000,385,850
2011/08/26,418000,451000,415500,451000,320,902
2011/08/29,455000,488500,454500,484500,727,969
2011/08/30,484500,488000,463000,484000,593,968
2011/08/31,483500,483500,469000,480500,311,961
2011/09/01,477000,480000,463000,464000,225,928
2011/09/02,460500,468500,455000,456500,177,913
2011/09/05,450000,465000,445000,460000,186,920
2011/09/06,457500,457500,448500,451500,127,903
2011/09/07,451500,466000,446000,463500,191,927
2011/09/08,464500,476500,464000,469000,245,938
2011/09/09,469000,469000,463000,466000,106,932
2011/09/12,461000,469000,456000,466500,107,933
2011/09/13,466500,470000,445500,446000,415,892
2011/09/14,450000,455500,403000,414500,604,829
2011/09/15,415500,425000,400500,402000,265,804
2011/09/16,407500,436500,403000,433000,256,866
2011/09/20,430000,449000,428000,444500,183,889
2011/09/21,439500,440000,424000,425000,128,850
2011/09/22,423000,432000,411000,416000,235,832
2011/09/26,395500,399500,377000,381000,281,762
2011/09/27,390000,391000,380000,380000,199,760
2011/09/28,387000,407000,386000,401000,341,802
2011/09/29,400000,440000,391500,431500,601,863
2011/09/30,430000,431000,421500,431000,225,862
2011/10/03,431000,444000,410000,431000,433,862
2011/10/04,417000,420000,412000,420000,226,840
2011/10/05,420000,425000,405500,407000,183,814
2011/10/06,421000,434000,421000,427000,256,854
2011/10/07,434000,456000,434000,454000,482,908
2011/10/11,463500,466000,454000,464000,201,928
2011/10/12,462000,464500,457500,459000,98,918
2011/10/13,465000,469500,460000,460000,167,920
2011/10/14,460000,463500,441000,442500,227,885
2011/10/17,445000,462500,443500,462500,201,925
2011/10/18,457000,465000,455500,464500,146,929
2011/10/19,461500,466000,459000,462000,114,924
2011/10/20,455000,463000,455000,460500,113,921
2011/10/21,460500,460500,437000,444500,203,889
2011/10/24,440000,447500,434000,436000,256,872
2011/10/25,436000,436000,426500,430000,212,860
2011/10/26,420500,426000,408000,413000,384,826
2011/10/27,439000,442000,430000,437000,389,874
2011/10/28,435000,438000,430000,430000,176,860
2011/10/31,430000,437000,421500,428000,87,856
2011/11/01,428000,434000,421000,427000,118,854
2011/11/02,420000,426000,412500,426000,120,852
2011/11/04,416000,434500,416000,434500,171,869
2011/11/07,434500,436500,427000,430500,118,861
2011/11/08,435000,435000,424000,424000,144,848
2011/11/09,424000,424000,417500,423500,115,847
2011/11/10,416000,416000,407000,408500,204,817
2011/11/11,408500,414000,395000,409000,282,818
2011/11/14,410500,413000,405000,408000,70,816
2011/11/15,408000,408000,401000,403000,112,806
2011/11/16,393000,399000,387000,390500,254,781
2011/11/17,390000,390500,370000,370500,444,741
2011/11/18,365000,402000,363000,397000,518,794
2011/11/21,400000,426000,400000,421000,498,842
2011/11/22,410000,429500,406500,429500,187,859
2011/11/24,425000,431500,412000,430500,189,861
2011/11/25,422000,427000,417500,417500,86,835
2011/11/28,430000,450000,420000,428000,474,856
2011/11/29,439500,442000,432500,439000,201,878
2011/11/30,444000,449500,438000,443000,117,886
2011/12/01,443000,445000,434000,444500,97,889
2011/12/02,440000,444000,439000,440000,36,880
2011/12/05,441500,443000,437500,440000,111,880
2011/12/06,441500,444000,437000,440500,102,881
2011/12/07,435500,440000,435500,436500,142,873
2011/12/08,435000,440000,431500,439500,144,879
2011/12/09,437500,438000,430500,434500,150,869
2011/12/12,435000,454500,435000,443500,205,887
2011/12/13,437000,442500,433000,441000,25,882
2011/12/14,441000,441000,433500,437000,97,874
2011/12/15,440000,443500,438000,442500,113,885
2011/12/16,447500,447500,438500,439000,83,878
2011/12/19,440000,443000,439500,443000,76,886
2011/12/20,440000,442000,434500,434500,103,869
2011/12/21,434500,434500,411000,412500,201,825
2011/12/22,412000,422000,412000,419000,77,838
2011/12/26,440000,442000,432500,432500,151,865
2011/12/27,433500,433500,422500,422500,87,845
2011/12/28,423500,432000,422500,426000,133,852
2011/12/29,422500,428000,422500,423500,40,847
2011/12/30,423500,430000,417000,427000,87,854
2012/01/04,427000,435500,425500,426000,66,852
2012/01/05,426000,426000,415500,415500,95,831
2012/01/06,415000,417500,413000,413000,47,826
2012/01/10,395000,409000,384500,399000,255,798
2012/01/11,400500,408500,400500,405000,196,810
2012/01/12,404500,405000,396000,399000,111,798
2012/01/13,394000,396000,377000,383500,512,767
2012/01/16,380500,385500,377500,383000,131,766
2012/01/17,384000,392000,380500,389000,94,778
2012/01/18,388500,398000,386000,391500,135,783
2012/01/19,392000,393000,381500,388000,160,776
2012/01/20,387500,387500,376500,377000,211,754
2012/01/23,376500,388500,376500,388500,140,777
2012/01/24,391000,399000,389000,394000,109,788
2012/01/25,395500,395500,385000,385000,126,770
2012/01/26,389500,389500,381000,389000,77,778
2012/01/27,389000,399000,383500,394500,112,789
2012/01/30,394500,406000,392500,405000,258,810
2012/01/31,403000,407000,400000,405000,204,810
2012/02/01,405000,406500,400000,402000,129,804
2012/02/02,405000,426000,404000,422000,314,844
2012/02/03,422000,422000,414000,419000,183,838
2012/02/06,439500,439500,416500,420000,447,840
2012/02/07,417500,417500,405000,405000,154,810
2012/02/08,402000,406500,398500,403000,148,806
2012/02/09,397000,401500,395000,399000,87,798
2012/02/10,399000,399000,395500,398500,169,797
2012/02/13,396000,401000,395000,397500,146,795
2012/02/14,397500,401000,394000,397500,116,795
2012/02/15,397000,399500,395500,395500,121,791
2012/02/16,395000,396000,391000,396000,112,792
2012/02/17,393500,398000,387500,391000,206,782
2012/02/20,403500,420500,401000,408000,536,816
2012/02/21,408000,418000,404500,408000,413,816
2012/02/22,407500,410000,405000,407000,94,814
2012/02/23,408000,408000,403000,403500,80,807
2012/02/24,404500,410000,404000,410000,167,820
2012/02/27,410500,410500,406000,406000,201,812
2012/02/28,405000,405000,398000,401500,234,803
2012/02/29,403500,404000,402000,402500,127,805
2012/03/01,402500,403500,399500,402500,134,805
2012/03/02,399000,400000,395000,397000,212,794
2012/03/05,401000,413500,401000,409500,341,819
2012/03/06,410000,416000,402000,403000,173,806
2012/03/07,401500,405000,399000,403500,130,807
2012/03/08,404000,413000,404000,411500,223,823
2012/03/09,410000,419000,410000,415000,199,830
2012/03/12,421000,430000,421000,425500,188,851
2012/03/13,426000,436000,426000,433000,232,866
2012/03/14,440000,451000,437500,451000,360,902
2012/03/15,445000,447500,431000,445000,273,890
2012/03/16,449500,449500,443500,449000,188,898
2012/03/19,450000,453500,446500,449500,313,899
2012/03/21,451500,454000,449000,452000,191,904
2012/03/22,453500,458000,453000,456000,173,912
2012/03/23,456500,457500,454000,454500,145,909
2012/03/26,456000,457000,447500,449000,170,898
2012/03/27,447000,455000,447000,450500,97,901
2012/03/28,900,1041,891,956,82200,956
2012/03/29,1000,1008,956,962,95200,962
2012/03/30,962,1085,962,1085,307700,1085
2012/04/02,1070,1070,1030,1064,146500,1064
2012/04/03,1058,1062,1033,1043,70300,1043
2012/04/04,1034,1052,1027,1034,102200,1034
2012/04/05,1013,1148,1003,1122,198200,1122
2012/04/06,1125,1160,1088,1098,144300,1098
2012/04/09,1073,1138,1072,1100,54900,1100
2012/04/10,1110,1148,1100,1103,117800,1103
2012/04/11,1098,1140,1089,1135,89500,1135
2012/04/12,1135,1145,1125,1141,103100,1141
2012/04/13,1150,1229,1149,1207,203800,1207
2012/04/16,1214,1315,1214,1275,173200,1275
2012/04/17,1315,1384,1205,1221,311200,1221
2012/04/18,1235,1292,1235,1255,165000,1255
2012/04/19,1274,1313,1225,1225,164300,1225
2012/04/20,1213,1220,1138,1170,332500,1170
2012/04/23,1200,1200,1153,1164,128600,1164
2012/04/24,1142,1193,1141,1161,109200,1161
2012/04/25,1200,1259,1191,1254,275200,1254
2012/04/26,1250,1253,1179,1210,131300,1210
2012/04/27,1210,1211,1190,1205,130700,1205
2012/05/01,1185,1203,1170,1183,49400,1183
2012/05/02,1180,1187,1171,1175,27400,1175
2012/05/07,1160,1213,1150,1165,53000,1165
2012/05/08,1240,1240,1190,1220,141500,1220
2012/05/09,1224,1224,1150,1165,77000,1165
2012/05/10,1136,1179,1131,1145,91800,1145
2012/05/11,1141,1170,1118,1119,102700,1119
2012/05/14,1090,1129,1084,1086,102600,1086
2012/05/15,1050,1126,984,1086,191400,1086
2012/05/16,1100,1151,1087,1091,223000,1091
2012/05/17,1100,1196,1091,1192,188600,1192
2012/05/18,1150,1216,1140,1190,132600,1190
2012/05/21,1160,1208,1160,1208,76000,1208
2012/05/22,1232,1274,1228,1260,124200,1260
2012/05/23,1298,1328,1209,1221,251600,1221
2012/05/24,1224,1244,1162,1202,134700,1202
2012/05/25,1221,1231,1195,1224,40100,1224
2012/05/28,1250,1296,1249,1296,118100,1296
2012/05/29,1309,1309,1275,1309,129600,1309
2012/05/30,1330,1330,1300,1322,104400,1322
2012/05/31,1300,1377,1281,1359,223500,1359
2012/06/01,1345,1360,1250,1281,237000,1281
2012/06/04,1235,1246,1183,1190,116100,1190
2012/06/05,1185,1220,1185,1210,80200,1210
2012/06/06,1230,1230,1200,1223,78300,1223
2012/06/07,1253,1265,1242,1256,35300,1256
2012/06/08,1250,1292,1238,1243,53400,1243
2012/06/11,1250,1250,1230,1230,42600,1230
2012/06/12,1230,1235,1209,1212,45800,1212
2012/06/13,1216,1223,1155,1161,105600,1161
2012/06/14,1150,1220,1150,1220,74000,1220
2012/06/15,1240,1263,1226,1250,76200,1250
2012/06/18,1270,1270,1201,1215,73300,1215
2012/06/19,1214,1217,1195,1201,52200,1201
2012/06/20,1216,1233,1188,1228,69300,1228
2012/06/21,1229,1244,1221,1240,35600,1240
2012/06/22,1233,1245,1210,1235,49900,1235
2012/06/25,1240,1270,1240,1251,48700,1251
2012/06/26,1240,1247,1223,1223,41600,1223
2012/06/27,1225,1246,1210,1240,24400,1240
2012/06/28,1240,1255,1240,1240,39800,1240
2012/06/29,1240,1280,1240,1270,54000,1270
2012/07/02,1270,1270,1232,1259,55900,1259
2012/07/03,1248,1258,1240,1243,20900,1243
2012/07/04,1239,1243,1232,1238,16500,1238
2012/07/05,1231,1232,1221,1222,20400,1222
2012/07/06,1223,1225,1210,1218,36300,1218
2012/07/09,1225,1231,1198,1219,55400,1219
2012/07/10,1247,1247,1180,1198,47000,1198
2012/07/11,1198,1203,1159,1195,32200,1195
2012/07/12,1186,1200,1179,1200,18900,1200
2012/07/13,1191,1205,1185,1202,26400,1202
2012/07/17,1222,1229,1205,1229,35200,1229
2012/07/18,1234,1238,1208,1219,27500,1219
2012/07/19,1215,1220,1197,1214,64900,1214
2012/07/20,1226,1226,1201,1205,24200,1205
2012/07/23,1206,1256,1201,1240,88200,1240
2012/07/24,1215,1240,1215,1234,20900,1234
2012/07/25,1234,1240,1220,1234,32800,1234
2012/07/26,1238,1239,1225,1229,34300,1229
2012/07/27,1229,1229,1219,1222,11600,1222
2012/07/30,1219,1221,1190,1197,42400,1197
2012/07/31,1214,1218,1210,1211,13000,1211
2012/08/01,1215,1227,1201,1215,22900,1215
2012/08/02,1224,1226,1207,1225,6800,1225
2012/08/03,1230,1234,1225,1230,26400,1230
2012/08/06,1228,1228,1195,1204,43100,1204
2012/08/07,1198,1214,1190,1200,39600,1200
2012/08/08,1191,1207,1191,1206,18900,1206
2012/08/09,1200,1216,1192,1192,43300,1192
2012/08/10,1192,1200,1185,1188,21900,1188
2012/08/13,1170,1185,1165,1182,29700,1182
2012/08/14,1176,1216,1150,1180,109600,1180
2012/08/15,1181,1198,1174,1183,45100,1183
2012/08/16,1190,1198,1149,1169,106500,1169
2012/08/17,1187,1190,1169,1180,28600,1180
2012/08/20,1189,1189,1177,1181,20600,1181
2012/08/21,1184,1184,1172,1173,6600,1173
2012/08/22,1156,1173,1156,1169,18300,1169
2012/08/23,1169,1170,1152,1155,13100,1155
2012/08/24,1150,1155,1142,1142,28700,1142
2012/08/27,1144,1190,1144,1185,59700,1185
2012/08/28,1186,1210,1182,1207,41200,1207
2012/08/29,1207,1214,1191,1205,22800,1205
2012/08/30,1209,1209,1195,1198,10500,1198
2012/08/31,1220,1223,1205,1222,39900,1222
2012/09/03,1220,1295,1210,1268,105500,1268
2012/09/04,1288,1296,1235,1292,92400,1292
2012/09/05,1295,1295,1251,1285,53900,1285
2012/09/06,1280,1292,1265,1273,24100,1273
2012/09/07,1273,1274,1255,1265,23000,1265
2012/09/10,1277,1277,1245,1270,14000,1270
2012/09/11,1259,1259,1225,1229,26400,1229
2012/09/12,1209,1243,1205,1238,39400,1238
2012/09/13,1254,1254,1217,1228,17800,1228
2012/09/14,1205,1220,1205,1220,51000,1220
2012/09/18,1205,1206,1193,1193,30200,1193
2012/09/19,1187,1199,1180,1182,25100,1182
2012/09/20,1184,1193,1169,1169,35000,1169
2012/09/21,1169,1219,1162,1218,34400,1218
2012/09/24,1220,1239,1205,1239,32800,1239
2012/09/25,1232,1255,1232,1240,38500,1240
2012/09/26,1241,1285,1226,1274,76000,1274
2012/09/27,1260,1299,1260,1286,52300,1286
2012/09/28,1297,1300,1290,1300,39900,1300
2012/10/01,1302,1318,1272,1272,55000,1272
2012/10/02,1279,1303,1277,1286,11900,1286
2012/10/03,1289,1312,1280,1293,46600,1293
2012/10/04,1278,1333,1277,1328,60500,1328
2012/10/05,1350,1409,1350,1385,120900,1385
2012/10/09,1370,1450,1367,1449,110700,1449
2012/10/10,1450,1491,1415,1483,89600,1483
2012/10/11,1459,1469,1420,1433,77100,1433
2012/10/12,1437,1450,1430,1430,43600,1430
2012/10/15,1427,1428,1380,1395,58000,1395
2012/10/16,1420,1446,1406,1435,34700,1435
2012/10/17,1435,1435,1410,1411,45600,1411
2012/10/18,1409,1409,1386,1408,23100,1408
2012/10/19,1381,1434,1370,1428,62600,1428
2012/10/22,1424,1478,1418,1478,47100,1478
2012/10/23,1490,1585,1480,1580,186300,1580
2012/10/24,1540,1575,1539,1550,95500,1550
2012/10/25,1535,1595,1535,1595,81900,1595
2012/10/26,1601,1628,1576,1607,63500,1607
2012/10/29,1615,1630,1612,1628,21800,1628
2012/10/30,1615,1623,1596,1610,16900,1610
2012/10/31,1610,1627,1610,1613,31900,1613
2012/11/01,1614,1614,1579,1589,41300,1589
2012/11/02,1580,1600,1531,1552,80000,1552
2012/11/05,1352,1496,1350,1460,386700,1460
2012/11/06,1460,1483,1457,1478,68300,1478
2012/11/07,1478,1491,1471,1487,44700,1487
2012/11/08,1490,1539,1460,1499,72500,1499
2012/11/09,1500,1575,1490,1544,84000,1544
2012/11/12,1550,1555,1535,1550,81600,1550
2012/11/13,1550,1562,1491,1524,47100,1524
2012/11/14,1524,1524,1425,1474,53300,1474
2012/11/15,1490,1500,1357,1409,226400,1409
2012/11/16,1422,1444,1377,1414,97100,1414
2012/11/19,1414,1415,1384,1390,52400,1390
2012/11/20,1370,1393,1352,1375,93900,1375
2012/11/21,1356,1360,1337,1346,74500,1346
2012/11/22,1355,1355,1305,1318,92000,1318
2012/11/26,1315,1331,1303,1318,103000,1318
2012/11/27,1330,1370,1326,1349,94700,1349
2012/11/28,1356,1425,1356,1372,137400,1372
2012/11/29,1395,1450,1395,1450,192300,1450
2012/11/30,1453,1469,1402,1425,198700,1425
2012/12/03,1367,1395,1331,1349,214100,1349
2012/12/04,1349,1360,1312,1337,153600,1337
2012/12/05,1319,1328,1310,1311,125000,1311
2012/12/06,1300,1308,1217,1228,326600,1228
2012/12/07,1255,1293,1244,1286,175200,1286
2012/12/10,1276,1298,1262,1271,103300,1271
2012/12/11,1271,1275,1234,1237,72000,1237
2012/12/12,1245,1265,1240,1251,98100,1251
2012/12/13,1258,1281,1252,1279,151300,1279
2012/12/14,1282,1282,1241,1266,147900,1266
2012/12/17,1255,1282,1228,1255,188500,1255
2012/12/18,1237,1258,1232,1237,111300,1237
2012/12/19,1235,1267,1231,1253,120200,1253
2012/12/20,1267,1268,1237,1268,155000,1268
2012/12/21,1280,1329,1261,1322,261800,1322
2012/12/25,1322,1335,1300,1305,90000,1305
2012/12/26,1303,1316,1290,1313,70100,1313
2012/12/27,1331,1367,1315,1367,153400,1367
2012/12/28,1370,1383,1355,1373,75600,1373
2013/01/04,1386,1399,1376,1380,123700,1380
2013/01/07,1385,1408,1362,1408,130200,1408
2013/01/08,1398,1408,1380,1386,96600,1386
2013/01/09,1386,1407,1385,1404,95900,1404
2013/01/10,1408,1408,1395,1402,37900,1402
2013/01/11,1400,1403,1388,1400,38300,1400
2013/01/15,1395,1402,1386,1390,94400,1390
2013/01/16,1375,1375,1338,1353,74300,1353
2013/01/17,1339,1364,1332,1345,77500,1345
2013/01/18,1338,1370,1333,1355,210200,1355
2013/01/21,1335,1348,1329,1331,102000,1331
2013/01/22,1338,1369,1337,1362,88000,1362
2013/01/23,1358,1379,1358,1369,88100,1369
2013/01/24,1380,1397,1372,1394,71100,1394
2013/01/25,1397,1430,1397,1420,165100,1420
2013/01/28,1450,1477,1428,1455,169000,1455
2013/01/29,1445,1456,1440,1452,135700,1452
2013/01/30,1450,1462,1439,1450,107600,1450
2013/01/31,1452,1457,1446,1457,80500,1457
2013/02/01,1470,1497,1454,1465,81500,1465
2013/02/04,1505,1595,1500,1565,199100,1565
2013/02/05,1580,1612,1560,1599,147500,1599
2013/02/06,1600,1686,1599,1670,155700,1670
2013/02/07,1670,1698,1640,1686,89400,1686
2013/02/08,1670,1720,1667,1680,64100,1680
2013/02/12,1670,1680,1610,1648,81200,1648
2013/02/13,1680,1819,1676,1791,224400,1791
2013/02/14,1751,1779,1715,1752,112900,1752
2013/02/15,1712,1750,1676,1724,61200,1724
2013/02/18,1719,1723,1662,1722,32200,1722
2013/02/19,1711,1764,1691,1722,40400,1722
2013/02/20,1730,1770,1724,1752,38100,1752
2013/02/21,1770,1922,1758,1900,120300,1900
2013/02/22,1871,2050,1871,1957,183100,1957
2013/02/25,1900,1957,1880,1928,96200,1928
2013/02/26,1910,1941,1892,1892,78900,1892
2013/02/27,1880,1945,1836,1836,83500,1836
2013/02/28,1810,1879,1803,1832,128000,1832
2013/03/01,1820,1884,1820,1860,75900,1860
2013/03/04,1900,2070,1872,2068,126400,2068
2013/03/05,2151,2200,2081,2172,167300,2172
2013/03/06,2127,2170,2100,2127,63600,2127
2013/03/07,2127,2150,2091,2130,57000,2130
2013/03/08,2146,2146,2098,2103,39900,2103
2013/03/11,2103,2138,2102,2135,37500,2135
2013/03/12,2100,2126,2095,2109,106800,2109
2013/03/13,2117,2126,2106,2118,67900,2118
2013/03/14,2110,2120,2090,2120,90400,2120
2013/03/15,2120,2124,2075,2100,104500,2100
2013/03/18,2061,2103,2054,2103,32600,2103
2013/03/19,2117,2117,2076,2102,15300,2102
2013/03/21,2099,2175,2075,2170,75500,2170
2013/03/22,2257,2300,2211,2265,89300,2265
2013/03/25,2295,2488,2295,2440,85500,2440
2013/03/26,2360,2401,2334,2365,61500,2365
2013/03/27,2360,2365,2213,2250,176500,2250
2013/03/28,2256,2350,2256,2346,42100,2346
2013/03/29,2340,2377,2261,2342,65600,2342
2013/04/01,2291,2291,2200,2209,51700,2209
2013/04/02,2202,2380,2200,2372,64000,2372
2013/04/03,2340,2510,2336,2391,76800,2391
2013/04/04,2350,2485,2350,2431,23800,2431
2013/04/05,2480,2600,2303,2363,167900,2363
2013/04/08,2430,2475,2422,2460,35100,2460
2013/04/09,2490,2499,2450,2480,35300,2480
2013/04/10,2471,2472,2319,2382,124400,2382
2013/04/11,2421,2440,2304,2320,67600,2320
2013/04/12,2323,2342,2300,2322,48800,2322
2013/04/15,2336,2339,2295,2301,43700,2301
2013/04/16,2290,2338,2287,2309,30700,2309
2013/04/17,2339,2400,2336,2400,55100,2400
2013/04/18,2400,2446,2380,2423,39500,2423
2013/04/19,2423,2423,2363,2371,55600,2371
2013/04/22,2385,2385,2268,2316,99900,2316
2013/04/23,2326,2355,2324,2338,40700,2338
2013/04/24,2359,2368,2345,2365,50600,2365
2013/04/25,2366,2385,2355,2368,91800,2368
2013/04/26,2370,2381,2342,2345,32300,2345
2013/04/30,2315,2400,2315,2380,71700,2380
2013/05/01,2380,2450,2380,2440,89500,2440
2013/05/02,2441,2550,2440,2550,227300,2550
2013/05/07,2650,2767,2620,2748,143000,2748
2013/05/08,2778,2778,2650,2680,65500,2680
2013/05/09,2680,2700,2600,2601,29900,2601
2013/05/10,2561,2617,2555,2617,28300,2617
2013/05/13,2630,2637,2480,2550,74800,2550
2013/05/14,2545,2595,2532,2595,64300,2595
2013/05/15,2600,2942,2546,2877,237400,2877
2013/05/16,2777,2860,2651,2728,202700,2728
2013/05/17,2748,3045,2748,2965,184300,2965
2013/05/20,2865,2995,2836,2888,112300,2888
2013/05/21,2750,2750,2614,2620,165000,2620
2013/05/22,2621,2649,2530,2578,126100,2578
2013/05/23,2520,2527,2399,2399,154100,2399
2013/05/24,2390,2500,2302,2489,130000,2489
2013/05/27,2410,2478,2387,2456,29100,2456
2013/05/28,2500,2529,2486,2518,51500,2518
2013/05/29,2500,2690,2461,2690,151700,2690
2013/05/30,2595,2650,2500,2550,56800,2550
2013/05/31,2540,2610,2505,2562,60400,2562
2013/06/03,2563,2649,2489,2584,105800,2584
2013/06/04,2597,2610,2479,2609,53300,2609
2013/06/05,2690,2770,2620,2660,74400,2660
2013/06/06,2605,2637,2440,2531,56500,2531
2013/06/07,2423,2549,2400,2495,71500,2495
2013/06/10,2500,2555,2500,2531,16400,2531
2013/06/11,2565,2584,2531,2555,51800,2555
2013/06/12,2555,2555,2490,2545,30900,2545
2013/06/13,2546,2546,2500,2520,43900,2520
2013/06/14,2501,2550,2498,2520,60200,2520
2013/06/17,2546,2660,2515,2658,76600,2658
2013/06/18,2656,2747,2611,2689,104300,2689
2013/06/19,2691,2695,2671,2688,50400,2688
2013/06/20,2714,2780,2693,2768,155000,2768
2013/06/21,2754,2947,2716,2900,186700,2900
2013/06/24,2926,2940,2876,2914,66400,2914
2013/06/25,2900,2900,2830,2836,120000,2836
2013/06/26,2836,2888,2766,2808,97400,2808
2013/06/27,2809,2862,2720,2860,74500,2860
2013/06/28,2900,3015,2899,2989,144200,2989
2013/07/01,2999,3140,2991,3090,117200,3090
2013/07/02,3145,3270,3135,3245,68900,3245
2013/07/03,3180,3200,3100,3155,68800,3155
2013/07/04,3225,3310,3085,3210,63300,3210
2013/07/05,3145,3195,3080,3195,46900,3195
2013/07/08,3235,3295,3195,3195,29900,3195
2013/07/09,3215,3390,3215,3350,40600,3350
2013/07/10,3410,3490,3315,3315,135400,3315
2013/07/11,3285,3570,3280,3525,104500,3525
2013/07/12,3580,3725,3525,3640,75200,3640
2013/07/16,3760,3855,3725,3765,84800,3765
2013/07/17,3770,3800,3565,3800,104700,3800
2013/07/18,3785,3785,3450,3510,127700,3510
2013/07/19,3470,3470,3120,3190,166800,3190
2013/07/22,3220,3420,3190,3390,118600,3390
2013/07/23,3305,3350,3255,3300,35100,3300
2013/07/24,3305,3335,3215,3270,42600,3270
2013/07/25,3300,3330,3230,3270,45700,3270
2013/07/26,3235,3250,3020,3080,78400,3080
2013/07/29,3100,3130,3000,3055,113500,3055
2013/07/30,3035,3055,2950,3030,62200,3030
2013/07/31,3065,3220,3045,3130,65100,3130
2013/08/01,3020,3205,2986,3090,38700,3090
2013/08/02,3100,3175,3060,3175,28200,3175
2013/08/05,3200,3480,3200,3450,116300,3450
2013/08/06,3400,3445,3340,3415,98700,3415
2013/08/07,3345,3365,3160,3300,162600,3300
2013/08/08,3230,3295,3170,3180,26200,3180
2013/08/09,3150,3240,3080,3080,27300,3080
2013/08/12,3015,3025,2911,2946,57900,2946
2013/08/13,2932,3015,2849,2966,128700,2966
2013/08/14,3020,3225,3010,3220,101900,3220
2013/08/15,3125,3170,3075,3110,28600,3110
2013/08/16,3080,3080,2902,2964,70000,2964
2013/08/19,2954,2990,2930,2959,24600,2959
2013/08/20,2945,2998,2900,2977,85200,2977
2013/08/21,2927,2976,2918,2950,20500,2950
2013/08/22,2997,3060,2955,3010,24100,3010
2013/08/23,3015,3060,2990,3015,95600,3015
2013/08/26,3010,3055,3000,3055,29000,3055
2013/08/27,3055,3120,3045,3120,26600,3120
2013/08/28,3080,3090,3015,3085,23500,3085
2013/08/29,3040,3090,3035,3090,102900,3090
2013/08/30,3085,3090,3005,3040,61000,3040
2013/09/02,2970,2974,2933,2945,27500,2945
2013/09/03,2973,3055,2973,3030,24000,3030
2013/09/04,3055,3200,3055,3180,45700,3180
2013/09/05,3210,3280,3190,3205,56200,3205
2013/09/06,3235,3235,3100,3100,27000,3100
2013/09/09,3195,3195,3120,3145,12600,3145
2013/09/10,3170,3170,3060,3110,18400,3110
2013/09/11,3180,3180,3085,3085,13000,3085
2013/09/12,3085,3110,3070,3080,16200,3080
2013/09/13,3060,3135,3055,3105,103600,3105
2013/09/17,3110,3125,2986,3020,59700,3020
2013/09/18,3020,3080,3020,3060,13400,3060
2013/09/19,3125,3150,3045,3055,49700,3055
2013/09/20,3055,3100,3055,3070,22500,3070
2013/09/24,3080,3090,3050,3060,29000,3060
2013/09/25,3080,3090,3060,3060,19700,3060
2013/09/26,3075,3080,3055,3065,7800,3065
2013/09/27,3065,3100,3065,3080,17800,3080
2013/09/30,3085,3100,3025,3045,16600,3045
2013/10/01,3020,3045,2974,2977,34800,2977
2013/10/02,3000,3020,2991,3020,24900,3020
2013/10/03,3000,3040,2998,3035,20000,3035
2013/10/04,3020,3070,3000,3015,29900,3015
2013/10/07,3010,3070,3010,3065,39900,3065
2013/10/08,3070,3235,3020,3200,105800,3200
2013/10/09,3235,3300,3220,3270,48300,3270
2013/10/10,3220,3270,3200,3260,35700,3260
2013/10/11,3270,3495,3265,3460,95200,3460
2013/10/15,3500,3550,3490,3515,61300,3515
2013/10/16,3475,3490,3455,3460,26900,3460
2013/10/17,3460,3475,3400,3450,21800,3450
2013/10/18,3480,3590,3475,3590,57100,3590
2013/10/21,3560,3675,3540,3630,65700,3630
2013/10/22,3590,3680,3530,3680,41300,3680
2013/10/23,3610,3640,3375,3380,70900,3380
2013/10/24,3360,3420,3315,3360,27800,3360
2013/10/25,3390,3445,3385,3395,16600,3395
2013/10/28,3400,3450,3340,3340,16000,3340
2013/10/29,3300,3360,3275,3300,15400,3300
2013/10/30,3300,3345,3245,3250,12000,3250
2013/10/31,3260,3350,3260,3280,20600,3280
2013/11/01,3255,3260,3215,3215,22100,3215
2013/11/05,3495,3560,3425,3545,101100,3545
2013/11/06,3475,3540,3475,3515,18700,3515
2013/11/07,3545,3725,3540,3665,152800,3665
2013/11/08,3640,3685,3555,3665,41200,3665
2013/11/11,3590,3660,3325,3490,73500,3490
2013/11/12,3465,3570,3350,3460,30100,3460
2013/11/13,3460,3460,3370,3370,26300,3370
2013/11/14,3365,3420,3330,3345,28300,3345
2013/11/15,3340,3520,3340,3485,62600,3485
2013/11/18,3515,3730,3515,3730,134700,3730
2013/11/19,3800,3825,3655,3810,119600,3810
2013/11/20,3825,3870,3760,3870,115300,3870
2013/11/21,3870,4130,3860,4130,173300,4130
2013/11/22,4075,4120,3935,3965,127600,3965
2013/11/25,4000,4000,3845,3850,91000,3850
2013/11/26,3775,3935,3775,3820,62100,3820
2013/11/27,3875,4045,3870,3970,70300,3970
2013/11/28,3995,3995,3940,3940,39700,3940
2013/11/29,3960,3960,3890,3955,39400,3955
2013/12/02,3955,3955,3845,3900,34000,3900
2013/12/03,3905,3910,3800,3890,33500,3890
2013/12/04,3840,3865,3835,3855,23100,3855
2013/12/05,3805,3845,3780,3785,20500,3785
2013/12/06,3750,3845,3750,3830,18000,3830
2013/12/09,3845,3850,3815,3850,27700,3850
2013/12/10,3825,3860,3820,3855,28500,3855
2013/12/11,3810,3855,3810,3845,10900,3845
2013/12/12,3850,4000,3850,3935,80600,3935
2013/12/13,3935,3945,3875,3900,47800,3900
2013/12/16,3905,3905,3850,3850,34000,3850
2013/12/17,3850,3945,3850,3945,57000,3945
2013/12/18,3945,4000,3940,4000,66200,4000
2013/12/19,4000,4000,3980,3985,46500,3985
2013/12/20,3965,3995,3930,3990,30400,3990
2013/12/24,4010,4060,3915,3935,59900,3935
2013/12/25,3900,3960,3895,3895,48600,3895
2013/12/26,3905,4075,3905,4050,40900,4050
2013/12/27,4105,4370,4050,4275,107300,4275
2013/12/30,4275,4275,4210,4230,47300,4230
2014/01/06,4250,4355,4230,4260,64800,4260
2014/01/07,4200,4210,4150,4155,21500,4155
2014/01/08,4150,4175,4040,4145,41500,4145
2014/01/09,4190,4270,4150,4230,23800,4230
2014/01/10,4265,4300,4250,4280,40500,4280
2014/01/14,4300,4565,4270,4525,102100,4525
2014/01/15,4420,4500,4305,4480,71000,4480
2014/01/16,4500,4525,4390,4390,35200,4390
2014/01/17,4435,4500,4390,4490,35100,4490
2014/01/20,4520,4530,4400,4440,38900,4440
2014/01/21,4445,4445,4410,4410,19400,4410
2014/01/22,4435,4440,4350,4430,36800,4430
2014/01/23,4450,4485,4405,4415,37000,4415
2014/01/24,4360,4380,4280,4295,42900,4295
2014/01/27,4280,4290,4190,4225,43500,4225
2014/01/28,4260,4275,4200,4225,46200,4225
2014/01/29,4235,4385,4235,4325,56500,4325
2014/01/30,4280,4295,4130,4225,38400,4225
2014/01/31,4270,4345,4170,4240,61900,4240
2014/02/03,4185,4200,4000,4030,60800,4030
2014/02/04,3895,3990,3730,3975,92500,3975
2014/02/05,4115,4130,3780,3885,99900,3885
2014/02/06,3815,3970,3800,3855,77200,3855
2014/02/07,3870,3900,3780,3860,55100,3860
2014/02/10,3870,3960,3870,3900,70900,3900
2014/02/12,3995,4100,3970,4095,68500,4095
2014/02/13,4090,4090,3980,3985,23100,3985
2014/02/14,3995,4010,3865,3900,22500,3900
2014/02/17,3905,3910,3765,3865,48800,3865
2014/02/18,3805,3865,3795,3830,45300,3830
2014/02/19,3855,3895,3850,3875,21100,3875
2014/02/20,3885,4015,3885,3985,73200,3985
2014/02/21,4070,4475,4055,4475,164000,4475
2014/02/24,4230,4390,4230,4335,84500,4335
2014/02/25,4325,4380,4290,4380,29400,4380
2014/02/26,4410,4440,4330,4355,35400,4355
2014/02/27,4320,4340,4280,4325,29900,4325
2014/02/28,4255,4315,4190,4220,39600,4220
2014/03/03,4155,4190,4130,4150,20300,4150
2014/03/04,4115,4275,4115,4275,22600,4275
2014/03/05,4295,4300,4245,4275,11400,4275
2014/03/06,4290,4345,4255,4300,22500,4300
2014/03/07,4325,4360,4270,4350,27500,4350
2014/03/10,4350,4370,4310,4365,27100,4365
2014/03/11,4395,4450,4390,4430,35700,4430
2014/03/12,4290,4375,4245,4375,91100,4375
2014/03/13,4330,4360,4265,4315,24300,4315
2014/03/14,4230,4270,4145,4200,63800,4200
2014/03/17,4240,4260,4175,4205,18300,4205
2014/03/18,4155,4160,4115,4135,35500,4135
2014/03/19,4135,4190,4040,4060,22200,4060
2014/03/20,4105,4160,4075,4110,25500,4110
2014/03/24,4180,4225,4125,4165,43100,4165
2014/03/25,4095,4175,4055,4110,58800,4110
2014/03/26,4035,4060,3850,3900,78500,3900
2014/03/27,3805,3905,3710,3900,74500,3900
2014/03/28,3935,3950,3860,3935,38300,3935
2014/03/31,3930,3930,3810,3825,51400,3825
2014/04/01,3805,3905,3800,3895,29900,3895
2014/04/02,3985,4030,3950,3985,56100,3985
2014/04/03,4000,4015,3885,3885,46500,3885
2014/04/04,3845,3970,3815,3830,45600,3830
2014/04/07,3870,3985,3815,3820,74900,3820
2014/04/08,3835,3875,3810,3815,51100,3815
2014/04/09,3805,3825,3740,3800,43800,3800
2014/04/10,3815,3840,3765,3790,19300,3790
2014/04/11,3700,3795,3685,3785,26000,3785
2014/04/14,3780,3860,3745,3820,27400,3820
2014/04/15,3835,3850,3705,3745,48900,3745
2014/04/16,3775,3830,3775,3815,72100,3815
2014/04/17,3845,3860,3820,3840,37800,3840
2014/04/18,3890,3900,3815,3845,18500,3845
2014/04/21,3815,3880,3815,3830,21700,3830
2014/04/22,3850,3860,3795,3795,18400,3795
2014/04/23,3800,3920,3780,3920,23000,3920
2014/04/24,3910,3940,3875,3940,25400,3940
2014/04/25,3940,3985,3905,3955,15000,3955
2014/04/28,3965,3985,3910,3985,17200,3985
2014/04/30,3995,4015,3930,4000,42300,4000
2014/05/01,4040,4060,4015,4020,18700,4020
2014/05/02,4030,4125,4020,4125,27400,4125
2014/05/07,4080,4105,4010,4090,27500,4090
2014/05/08,4065,4200,4060,4165,28300,4165
2014/05/09,4170,4230,4160,4200,30700,4200
2014/05/12,4200,4290,4120,4195,47700,4195
2014/05/13,4155,4185,4010,4065,43400,4065
2014/05/14,4025,4085,4025,4065,18400,4065
2014/05/15,4070,4100,4015,4075,26100,4075
2014/05/16,3955,3990,3870,3970,82200,3970
2014/05/19,3995,4000,3910,3945,44400,3945
2014/05/20,3990,4125,3990,4070,43800,4070
2014/05/21,4010,4070,3970,4050,16300,4050
2014/05/22,4055,4140,4055,4090,19900,4090
2014/05/23,4075,4095,4045,4090,38900,4090
2014/05/26,4090,4155,4080,4155,11000,4155
2014/05/27,4105,4175,4105,4165,26600,4165
2014/05/28,4165,4250,4165,4215,45900,4215
2014/05/29,4200,4260,4200,4260,37000,4260
2014/05/30,4210,4220,4140,4160,101000,4160
2014/06/02,4195,4270,4195,4260,47600,4260
2014/06/03,4250,4310,4245,4295,48800,4295
2014/06/04,4300,4300,4195,4240,49900,4240
2014/06/05,4235,4260,4235,4255,16900,4255
2014/06/06,4265,4270,4195,4255,32000,4255
2014/06/09,4250,4265,4220,4245,32700,4245
2014/06/10,4295,4300,4210,4230,24200,4230
2014/06/11,4210,4210,4155,4190,25600,4190
2014/06/12,4190,4280,4185,4260,25200,4260
2014/06/13,4260,4415,4260,4410,53400,4410
2014/06/16,4410,4470,4400,4450,49000,4450
2014/06/17,4500,4500,4480,4500,39100,4500
2014/06/18,4540,4675,4540,4655,63300,4655
2014/06/19,4695,4830,4665,4715,79000,4715
2014/06/20,4770,4815,4615,4615,87400,4615
2014/06/23,4605,4730,4520,4600,37800,4600
2014/06/24,4560,4660,4560,4630,16100,4630
2014/06/25,4635,4640,4575,4595,13800,4595
2014/06/26,4560,4585,4535,4550,12600,4550
2014/06/27,4540,4570,4470,4540,36000,4540
2014/06/30,4595,4660,4545,4655,48300,4655
2014/07/01,4655,4805,4655,4805,44600,4805
2014/07/02,4840,4860,4820,4825,36600,4825
2014/07/03,4850,4850,4615,4725,55700,4725
2014/07/04,4725,4735,4620,4685,28200,4685
2014/07/07,4685,4710,4625,4700,28400,4700
2014/07/08,4700,4700,4635,4685,22500,4685
2014/07/09,4680,4760,4655,4735,47400,4735
2014/07/10,4790,4790,4700,4730,32900,4730
2014/07/11,4720,4725,4680,4725,39900,4725
2014/07/14,4655,4785,4655,4705,40200,4705
2014/07/15,4700,4700,4625,4660,34500,4660
2014/07/16,4630,4640,4565,4605,54300,4605
2014/07/17,4605,4605,4515,4575,43500,4575
2014/07/18,4570,4575,4505,4525,51700,4525
2014/07/22,4500,4500,4400,4490,70800,4490
2014/07/23,4495,4495,4460,4470,29500,4470
2014/07/24,4455,4570,4385,4550,53600,4550
2014/07/25,4490,4545,4440,4520,50600,4520
2014/07/28,4520,4580,4470,4535,27700,4535
2014/07/29,4545,4570,4510,4560,20300,4560
2014/07/30,4560,4600,4550,4560,29100,4560
2014/07/31,4600,4600,4495,4495,22100,4495
2014/08/01,4490,4610,4475,4575,32700,4575
2014/08/04,4540,4550,4405,4470,62100,4470
2014/08/05,4475,4485,4335,4335,45400,4335
2014/08/06,4405,4495,4355,4460,34200,4460
2014/08/07,4445,4460,4350,4395,32700,4395
2014/08/08,4370,4395,4195,4315,54500,4315
2014/08/11,4385,4385,4265,4375,23300,4375
2014/08/12,4305,4350,4220,4350,43600,4350
2014/08/13,4310,4320,4250,4260,23300,4260
2014/08/14,4230,4255,4160,4200,35000,4200
2014/08/15,4185,4210,4050,4090,93500,4090
2014/08/18,4015,4195,4015,4180,63200,4180
2014/08/19,4270,4275,4165,4240,49200,4240
2014/08/20,4285,4330,4245,4300,55500,4300
2014/08/21,4375,4485,4365,4470,49000,4470
2014/08/22,4500,4500,4380,4380,31300,4380
2014/08/25,4375,4400,4280,4295,32900,4295
2014/08/26,4350,4350,4295,4295,22000,4295
2014/08/27,4350,4350,4270,4300,17100,4300
2014/08/28,4265,4305,4265,4270,16400,4270
2014/08/29,4300,4300,4270,4275,12200,4275
2014/09/01,4320,4320,4265,4300,11600,4300
2014/09/02,4305,4315,4300,4305,8400,4305
2014/09/03,4315,4360,4305,4340,28800,4340
2014/09/04,4325,4345,4305,4315,11700,4315
2014/09/05,4300,4310,4200,4205,25700,4205
2014/09/08,4240,4240,4150,4160,30900,4160
2014/09/09,4155,4250,4155,4240,14700,4240
2014/09/10,4205,4215,4160,4180,12600,4180
2014/09/11,4180,4190,4150,4175,26700,4175
2014/09/12,4185,4280,4185,4280,25800,4280
2014/09/16,4295,4295,4190,4195,23400,4195
2014/09/17,4250,4250,4180,4180,8700,4180
2014/09/18,4175,4205,4170,4180,26200,4180
2014/09/19,4220,4255,4155,4165,21100,4165
2014/09/22,4185,4190,4150,4175,21200,4175
2014/09/24,4180,4185,4150,4155,26500,4155
2014/09/25,4155,4165,4070,4105,56600,4105
2014/09/26,4100,4110,4075,4105,40000,4105
2014/09/29,4090,4120,4090,4115,34000,4115
2014/09/30,4135,4225,4130,4180,37800,4180
2014/10/01,4140,4235,4105,4130,45500,4130
2014/10/02,4070,4080,4020,4020,31100,4020
2014/10/03,4030,4045,4010,4025,25900,4025
2014/10/06,4050,4080,4010,4010,34300,4010
2014/10/07,4040,4060,4015,4040,65500,4040
2014/10/08,4015,4035,3960,3970,38300,3970
2014/10/09,3970,4000,3925,3975,26600,3975
2014/10/10,3950,3960,3840,3910,57100,3910
2014/10/14,3850,3980,3840,3965,79900,3965
2014/10/15,3980,4000,3890,3960,37100,3960
2014/10/16,3940,3955,3825,3860,50000,3860
2014/10/17,3860,3915,3830,3880,47700,3880
2014/10/20,4000,4070,3990,4055,54800,4055
2014/10/21,4105,4265,4095,4235,63000,4235
2014/10/22,4295,4335,4230,4300,46500,4300
2014/10/23,4230,4350,4230,4335,21700,4335
2014/10/24,4360,4465,4350,4450,42500,4450
2014/10/27,4480,4480,4400,4425,21800,4425
2014/10/28,4425,4560,4425,4485,34000,4485
2014/10/29,4540,4540,4440,4470,20900,4470
2014/10/30,4425,4550,4415,4530,27300,4530
2014/10/31,4585,4650,4510,4650,51600,4650
2014/11/04,4710,4750,4460,4640,117400,4640
2014/11/05,4550,4640,4455,4530,79600,4530
2014/11/06,4530,4585,4460,4570,39400,4570
2014/11/07,4520,4545,4360,4410,71300,4410
2014/11/10,4415,4500,4370,4500,34600,4500
2014/11/11,4450,4475,4365,4430,59700,4430
2014/11/12,4400,4425,4365,4425,48600,4425
2014/11/13,4435,4465,4400,4440,18900,4440
2014/11/14,4500,4505,4440,4480,35900,4480
2014/11/17,4495,4580,4480,4520,65100,4520
2014/11/18,4565,4610,4520,4610,40300,4610
2014/11/19,4630,4715,4630,4665,44900,4665
2014/11/20,4630,4640,4545,4545,41700,4545
2014/11/21,4545,4640,4530,4580,33100,4580
2014/11/25,4645,4645,4525,4565,36600,4565
2014/11/26,4600,4600,4415,4425,38000,4425
2014/11/27,4460,4470,4380,4415,23100,4415
2014/11/28,4460,4460,4390,4430,23000,4430
2014/12/01,4450,4460,4430,4445,15100,4445
2014/12/02,4440,4465,4420,4450,21200,4450
2014/12/03,4450,4450,4400,4400,23700,4400
2014/12/04,4380,4400,4255,4275,57400,4275
2014/12/05,4180,4210,4110,4160,78700,4160
2014/12/08,4160,4160,4025,4045,63500,4045
2014/12/09,3980,4000,3900,3920,72800,3920
2014/12/10,3950,4025,3930,3965,36700,3965
2014/12/11,3980,4010,3920,3995,51600,3995
2014/12/12,4020,4030,3995,4000,54300,4000
2014/12/15,4070,4070,4010,4045,55700,4045
2014/12/16,4045,4050,3970,3975,32100,3975
2014/12/17,4000,4015,3965,3990,58000,3990
2014/12/18,3935,3995,3935,3980,51200,3980
2014/12/19,4000,4030,3975,4000,66400,4000
2014/12/22,4035,4035,3980,4000,33200,4000
2014/12/24,3970,4045,3970,4025,20300,4025
2014/12/25,4000,4010,3950,3965,22100,3965
2014/12/26,3965,4010,3950,3995,32200,3995
2014/12/29,4000,4010,3990,4000,36300,4000
2014/12/30,3995,4005,3960,4000,20800,4000
2015/01/05,4000,4010,3970,3995,36900,3995
2015/01/06,3995,4015,3985,4010,49500,4010
2015/01/07,4010,4010,3920,3930,51900,3930
2015/01/08,3940,3940,3700,3745,127000,3745
2015/01/09,3680,3695,3395,3480,159100,3480
2015/01/13,3480,3515,3450,3490,110900,3490
2015/01/14,3465,3520,3465,3510,88800,3510
2015/01/15,3500,3620,3500,3615,86500,3615
2015/01/16,3605,3605,3485,3490,133900,3490
2015/01/19,3490,3575,3460,3490,145100,3490
2015/01/20,3470,3490,3460,3460,37300,3460
2015/01/21,3450,3450,3300,3400,88900,3400
2015/01/22,3360,3415,3310,3390,50100,3390
2015/01/23,3450,3510,3390,3475,105700,3475
2015/01/26,3545,3650,3485,3500,173500,3500
2015/01/27,3450,3450,3335,3380,89600,3380
2015/01/28,3380,3380,3335,3365,42600,3365
2015/01/29,3370,3400,3335,3360,52800,3360
2015/01/30,3375,3410,3375,3405,32000,3405
2015/02/02,3415,3415,3325,3360,74000,3360
2015/02/03,3525,3555,3400,3500,130900,3500
2015/02/04,3505,3520,3350,3350,103200,3350
2015/02/05,3330,3495,3310,3450,75000,3450
2015/02/06,3500,3650,3460,3635,112000,3635
2015/02/09,3710,3785,3660,3765,106100,3765
2015/02/10,3780,3860,3770,3830,97800,3830
2015/02/12,3865,3885,3805,3805,78000,3805
2015/02/13,3800,3800,3600,3635,97800,3635
2015/02/16,3675,3735,3660,3725,57000,3725
2015/02/17,3735,3770,3700,3760,31500,3760
2015/02/18,3800,3820,3775,3790,56700,3790
2015/02/19,3795,3850,3775,3805,80100,3805
2015/02/20,3830,3830,3780,3795,47300,3795
2015/02/23,3850,3855,3790,3800,40000,3800
2015/02/24,3810,3850,3770,3795,42400,3795
2015/02/25,3825,3830,3805,3830,54600,3830
2015/02/26,3825,3830,3805,3825,37300,3825
2015/02/27,3825,3865,3825,3840,42900,3840
2015/03/02,3835,3955,3835,3940,70300,3940
2015/03/03,3950,3950,3840,3885,35100,3885
2015/03/04,3900,3905,3800,3890,50100,3890
2015/03/05,3830,3895,3760,3770,40200,3770
2015/03/06,3850,3955,3840,3930,112100,3930
2015/03/09,3960,4195,3950,4180,193500,4180
2015/03/10,4170,4290,4115,4270,100900,4270
2015/03/11,4300,4305,4130,4220,64800,4220
2015/03/12,4270,4360,4195,4210,117500,4210
2015/03/13,4190,4315,4180,4315,59800,4315
2015/03/16,4335,4335,4185,4195,36400,4195
2015/03/17,4265,4265,4165,4185,30300,4185
2015/03/18,4115,4180,4080,4125,42500,4125
2015/03/19,4070,4145,4070,4120,34500,4120
2015/03/20,4140,4265,4100,4220,51900,4220
2015/03/23,4265,4265,4100,4100,48100,4100
2015/03/24,4105,4150,4060,4125,57400,4125
2015/03/25,4180,4185,4110,4160,38400,4160
2015/03/26,4170,4220,4140,4220,35200,4220
2015/03/27,4195,4250,4175,4200,23700,4200
2015/03/30,4200,4220,4125,4200,26800,4200
2015/03/31,4200,4340,4195,4340,76900,4340
2015/04/01,4340,4455,4230,4380,97200,4380
2015/04/02,4395,4395,4215,4250,52200,4250
2015/04/03,4235,4295,4205,4225,35900,4225
2015/04/06,4240,4340,4240,4335,15800,4335
2015/04/07,4265,4340,4230,4335,48700,4335
2015/04/08,4340,4360,4300,4360,44700,4360
2015/04/09,4395,4400,4260,4275,31100,4275
2015/04/10,4300,4305,4055,4205,51000,4205
2015/04/13,4205,4215,4130,4155,31300,4155
2015/04/14,4155,4300,4135,4285,29700,4285
2015/04/15,4230,4250,4140,4140,36900,4140
2015/04/16,4140,4140,4005,4050,62500,4050
2015/04/17,4075,4090,3940,3940,40400,3940
2015/04/20,3870,3945,3820,3840,75400,3840
2015/04/21,3890,3915,3865,3895,73000,3895
2015/04/22,3935,3990,3900,3940,42100,3940
2015/04/23,3925,3985,3790,3830,54800,3830
2015/04/24,3855,3970,3855,3910,38200,3910
2015/04/27,3885,3910,3830,3855,32000,3855
2015/04/28,3875,3910,3820,3835,46700,3835
2015/04/30,3865,3890,3830,3830,49500,3830
2015/05/01,3810,3830,3785,3785,22000,3785
2015/05/07,3750,3760,3655,3655,70000,3655
2015/05/08,3655,3845,3655,3805,55200,3805
2015/05/11,3875,3880,3810,3815,30900,3815
2015/05/12,3820,3975,3820,3895,31600,3895
2015/05/13,3905,3975,3875,3965,35000,3965
2015/05/14,3965,3965,3850,3850,23000,3850
2015/05/15,3860,3875,3840,3870,10600,3870
2015/05/18,3895,3940,3815,3880,36200,3880
2015/05/19,3925,4040,3885,4015,71800,4015
2015/05/20,4050,4135,4025,4115,42800,4115
2015/05/21,4125,4150,4000,4025,56500,4025
2015/05/22,4065,4170,4065,4155,32500,4155
2015/05/25,4140,4190,4130,4190,28100,4190
2015/05/26,4190,4200,4145,4185,37600,4185
2015/05/27,4145,4175,4080,4135,34400,4135
2015/05/28,4155,4160,3985,4010,74600,4010
2015/05/29,3990,4085,3905,4040,68300,4040
2015/06/01,4005,4165,4005,4165,49600,4165
2015/06/02,4155,4165,4070,4145,38800,4145
2015/06/03,4135,4135,4055,4085,17700,4085
2015/06/04,4085,4120,4025,4120,24500,4120
2015/06/05,4105,4150,4075,4115,21600,4115
2015/06/08,4135,4205,4105,4110,33600,4110
2015/06/09,4110,4140,4100,4115,26200,4115
2015/06/10,4155,4300,4115,4295,87900,4295
2015/06/11,4260,4380,4180,4300,59600,4300
2015/06/12,4315,4315,4205,4285,43300,4285
2015/06/15,4285,4320,4255,4315,22700,4315
2015/06/16,4305,4345,4295,4300,28700,4300
2015/06/17,4290,4350,4210,4320,32000,4320
2015/06/18,4345,4445,4345,4420,60600,4420
2015/06/19,4450,4500,4390,4500,59300,4500
2015/06/22,4475,4600,4475,4600,63200,4600
2015/06/23,4600,4600,4530,4600,55300,4600
2015/06/24,4595,4595,4495,4535,19600,4535
2015/06/25,4580,4600,4530,4580,18200,4580
2015/06/26,4580,4600,4560,4595,23900,4595
2015/06/29,4540,4600,4440,4600,28100,4600
2015/06/30,4555,4700,4540,4610,69200,4610
2015/07/01,4585,4710,4585,4645,61600,4645
