2011/01/06,3680,3690,3645,3680,131500,920
2011/01/13,3565,3580,3500,3540,186000,885
2011/01/17,3535,3535,3500,3500,79200,875
2011/01/18,3525,3535,3500,3500,94200,875
2011/01/20,3465,3470,3390,3420,283300,855
2011/01/21,3450,3455,3370,3380,227000,845
2011/01/24,3415,3430,3400,3420,119100,855
2011/01/28,3385,3390,3360,3360,134500,840
2011/02/01,3370,3370,3200,3200,460000,800
2011/02/03,3195,3200,3135,3180,185000,795
2011/02/16,3305,3315,3275,3300,159100,825
2011/02/21,3290,3300,3275,3280,110300,820
2011/03/09,3225,3275,3225,3240,126000,810
2011/03/11,3200,3220,3150,3180,293300,795
2011/03/23,3085,3125,3005,3060,133200,765
2011/04/01,3265,3265,3155,3160,137900,790
2011/04/08,3020,3060,2991,3040,144800,760
2011/04/11,2970,3010,2961,3000,184700,750
2011/04/13,2966,2986,2914,2972,176300,743
2011/04/15,2994,2994,2950,2968,61000,742
2011/04/25,2914,2937,2891,2900,100800,725
2011/04/27,2892,2908,2855,2860,156100,715
2011/05/02,2850,2925,2850,2896,227700,724
2011/05/10,2892,2902,2808,2816,289900,704
2011/05/16,2855,2883,2819,2860,199800,715
2011/05/17,2880,2893,2848,2860,158400,715
2011/05/19,2899,2921,2885,2912,119500,728
2011/05/23,2867,2887,2842,2872,139100,718
2011/05/24,2872,2909,2861,2908,164200,727
2011/05/26,2908,2940,2903,2928,101000,732
2011/05/30,2871,2910,2851,2892,103500,723
2011/06/03,2899,2919,2856,2868,114800,717
2011/06/30,3095,3125,3060,3120,139000,780
2011/07/06,3135,3180,3115,3180,112200,795
2011/07/11,3200,3260,3200,3240,185900,810
2011/07/15,3255,3290,3235,3240,103600,810
2011/07/21,3245,3245,3195,3200,88200,800
2011/07/28,3175,3220,3155,3180,111000,795
2011/08/05,3085,3120,3070,3080,129900,770
2011/08/30,2977,2978,2956,2964,146100,741
2011/09/06,3055,3075,3030,3040,106200,760
2011/09/12,3070,3085,3050,3080,65500,770
2011/09/16,3150,3160,3120,3160,79200,790
2011/09/21,3130,3165,3095,3100,114700,775
2011/10/04,3180,3180,3130,3160,151900,790
2011/10/18,3030,3040,2993,3000,78200,750
2011/10/27,2914,2947,2891,2928,99400,732
2011/11/07,2994,2994,2930,2960,127800,740
2011/11/10,2928,2965,2903,2920,130900,730
2011/11/21,2867,2895,2838,2872,56600,718
2011/11/24,2740,2829,2740,2804,148600,701
2011/11/28,2818,2846,2804,2808,71600,702
2011/11/29,2758,2788,2628,2768,183300,692
2011/11/30,2768,2861,2756,2820,176300,705
2011/12/02,2880,2913,2855,2892,131600,723
2011/12/07,2952,3010,2940,3000,151400,750
2011/12/27,3130,3160,3115,3140,70500,785
2012/01/06,3165,3180,3120,3160,153200,790
2012/01/11,3220,3240,3200,3240,101000,810
2012/01/16,3255,3255,3210,3240,120100,810
2012/01/20,3280,3300,3270,3280,93700,820
2012/01/24,3165,3225,3140,3200,227900,800
2012/01/31,3325,3345,3300,3340,165700,835
2012/02/01,3345,3400,3310,3320,184100,830
2012/02/09,3400,3450,3395,3440,60700,860
2012/02/15,3445,3460,3390,3460,123300,865
2012/02/17,3530,3580,3510,3540,95800,885
2012/02/20,3550,3555,3455,3460,97300,865
2012/03/13,3745,3795,3735,3760,150300,940
2012/03/19,3760,3790,3755,3780,39700,945
2012/03/23,3800,3835,3790,3820,105900,955
2012/03/28,3800,3800,3735,3780,95100,945
2012/04/05,3775,3805,3705,3740,213700,935
2012/04/12,3765,3785,3725,3740,101600,935
2012/04/19,3760,3765,3715,3720,92400,930
2012/04/26,3825,3860,3755,3780,94900,945
2012/05/08,3670,3720,3630,3660,78300,915
2012/05/09,3640,3680,3605,3640,130500,910
2012/05/22,3645,3690,3635,3680,109600,920
2012/05/30,3705,3770,3690,3760,171000,940
2012/05/31,3740,3825,3720,3800,383300,950
2012/06/01,3800,3860,3770,3820,212100,955
2012/06/20,3870,3970,3870,3960,141400,990
2012/06/28,4130,4190,4095,4140,149300,1035
2012/06/29,4140,4260,4110,4220,242300,1055
2012/07/13,4280,4355,4270,4300,94200,1075
2012/07/26,4170,4185,4105,4160,154800,1040
2012/08/09,3835,3880,3820,3880,186700,970
2012/08/10,3910,3955,3870,3880,161400,970
2012/08/13,3865,3915,3865,3900,91400,975
2012/08/15,3985,4020,3965,4020,144400,1005
2012/08/17,3945,3960,3910,3940,80700,985
2012/09/03,3860,3895,3815,3820,155600,955
2012/09/06,3820,3825,3740,3760,91700,940
2012/09/07,3820,3835,3760,3780,124400,945
2012/09/10,3785,3810,3755,3800,101400,950
2012/09/11,3775,3810,3745,3800,112500,950
2012/09/20,3710,3775,3695,3720,238200,930
2012/10/01,3815,3825,3720,3780,254400,945
2012/10/12,3605,3615,3575,3600,202700,900
2012/10/15,3565,3605,3545,3600,199700,900
2012/10/26,3600,3650,3590,3600,116800,900
2012/10/29,3580,3625,3580,3600,119400,900
2012/11/02,3600,3650,3590,3600,113600,900
2012/11/09,3440,3480,3425,3440,111800,860
2012/11/15,3550,3560,3480,3540,124100,885
2012/11/19,3525,3550,3515,3540,85700,885
2012/11/30,3515,3535,3455,3460,347600,865
2012/12/03,3450,3500,3430,3460,165200,865
2012/12/05,3505,3560,3470,3500,117800,875
2012/12/06,3510,3540,3500,3520,100200,880
2012/12/13,3470,3475,3420,3420,130800,855
2012/12/20,3430,3470,3425,3440,161300,860
2012/12/26,3395,3415,3385,3400,65600,850
2013/01/07,3520,3530,3470,3480,90100,870
2013/01/08,3485,3545,3480,3520,187300,880
2013/01/11,3550,3595,3545,3560,120800,890
2013/01/17,3675,3760,3655,3760,271100,940
2013/01/18,3760,3770,3715,3760,187600,940
2013/01/21,3775,3810,3745,3780,101700,945
2013/01/23,3765,3950,3760,3940,405000,985
2013/01/24,3870,3895,3800,3860,252200,965
2013/01/29,3920,3990,3905,3980,136700,995
2013/03/04,4640,4695,4565,4620,216800,1155
2013/03/06,4655,4700,4600,4700,107300,1175
2013/03/11,4650,4775,4645,4760,120400,1190
2013/03/12,4700,4740,4635,4640,159800,1160
2013/03/13,4570,4615,4540,4540,242000,1135
2013/03/15,4640,4750,4640,4700,303700,1175
2013/04/04,5180,5300,5060,5300,220900,1325
2013/04/08,5410,5620,5350,5440,233300,1360
2013/04/10,5370,5560,5360,5560,278400,1390
2013/04/12,5450,5510,5350,5480,184100,1370
2013/04/16,5440,5570,5350,5520,261800,1380
2013/04/19,5450,5480,5330,5380,185700,1345
2013/04/23,5550,5550,5450,5520,137400,1380
2013/04/24,5570,5640,5550,5600,166600,1400
2013/04/25,5600,5730,5600,5680,190400,1420
2013/04/26,5660,5700,5510,5520,167200,1380
2013/05/01,5720,5720,5540,5600,202200,1400
2013/05/08,5800,5870,5700,5760,156500,1440
2013/05/10,5660,5720,5600,5620,109700,1405
2013/05/13,5650,5740,5600,5720,219400,1430
2013/05/17,5810,5830,5730,5740,104900,1435
2013/05/20,5800,5830,5690,5700,167300,1425
2013/05/21,5680,5690,5550,5640,164700,1410
2013/05/24,5270,5390,5090,5260,268400,1315
2013/05/29,5290,5410,5240,5320,223300,1330
2013/05/30,5220,5270,5060,5100,181800,1275
2013/06/03,5200,5260,5080,5100,204200,1275
2013/06/04,5070,5140,4960,5040,224600,1260
2013/06/05,4970,5030,4820,4820,279500,1205
2013/06/12,4780,4885,4710,4840,185800,1210
2013/06/14,4785,4830,4705,4740,253600,1185
2013/06/17,4735,4940,4730,4920,139300,1230
2013/06/19,5020,5100,4945,5060,127000,1265
2013/07/01,5310,5310,5060,5200,262800,1300
2013/07/02,5280,5280,5140,5220,120500,1305
2013/07/03,5220,5260,5130,5260,126700,1315
2013/07/12,5220,5300,5190,5280,157800,1320
2013/07/16,5280,5320,5270,5320,136400,1330
2013/07/19,5590,5590,5370,5380,163700,1345
2013/07/22,5410,5420,5310,5400,118600,1350
2013/07/23,5370,5490,5340,5480,79900,1370
2013/07/24,5500,5530,5420,5480,127100,1370
2013/07/30,5000,5090,4945,5000,83800,1250
2013/08/02,4950,5200,4950,5180,117700,1295
2013/08/06,5030,5160,4980,5120,129300,1280
2013/08/09,4750,4825,4705,4800,224100,1200
2013/08/15,4835,4945,4815,4840,111400,1210
2013/08/22,4795,4915,4765,4880,99600,1220
2013/08/29,4795,4835,4710,4760,117300,1190
2013/08/30,4775,4790,4610,4660,199700,1165
2013/09/05,4830,4880,4710,4760,98200,1190
2013/09/06,4780,4790,4675,4700,127900,1175
2013/09/17,4995,5040,4955,4980,120800,1245
2013/09/18,4980,5020,4900,4960,147300,1240
2013/09/19,5000,5050,4925,5000,122500,1250
2013/09/20,5010,5090,5010,5040,129700,1260
2013/09/25,5070,5100,5040,5080,84600,1270
2013/09/26,4995,5120,4945,5120,95100,1280
2013/09/27,5100,5120,5040,5080,82100,1270
2013/09/30,5050,5100,4990,5060,101900,1265
2013/10/02,4965,4980,4860,4900,149600,1225
2013/10/08,4890,4975,4885,4920,235000,1230
2013/10/10,4935,5090,4935,5040,250600,1260
2013/10/11,5130,5210,5100,5120,196000,1280
2013/10/15,5120,5170,5100,5140,138000,1285
2013/10/16,5150,5220,5140,5160,83000,1290
2013/10/18,5250,5290,5230,5280,105300,1320
2013/10/22,5350,5390,5290,5360,97300,1340
2013/10/24,5290,5380,5270,5380,75300,1345
2013/10/31,5370,5420,5330,5360,263900,1340
2013/11/01,5370,5410,5290,5320,123400,1330
2013/11/06,5170,5410,5170,5400,164900,1350
2013/11/11,5280,5300,5170,5200,131700,1300
2013/11/12,5230,5300,5200,5300,145200,1325
2013/11/14,5190,5210,5120,5140,274000,1285
2013/11/15,5150,5250,5150,5220,157200,1305
2013/11/18,5250,5270,5180,5200,141700,1300
2013/11/19,5210,5300,5210,5260,156900,1315
2013/11/20,5300,5380,5250,5280,147200,1320
2013/11/21,5310,5360,5280,5360,130400,1340
2013/11/22,5370,5380,5240,5300,153200,1325
2013/11/25,5320,5400,5320,5400,157000,1350
2013/11/26,5360,5440,5350,5360,301400,1340
2013/11/28,5390,5400,5320,5400,57100,1350
2013/12/02,5340,5370,5260,5300,115100,1325
2013/12/03,5290,5320,5240,5300,138500,1325
2013/12/05,5120,5280,5120,5200,181600,1300
2013/12/10,5180,5240,5160,5220,138700,1305
2013/12/12,5160,5190,5120,5160,97600,1290
2013/12/13,5220,5230,5120,5160,336100,1290
2013/12/16,5170,5170,5040,5080,98900,1270
2013/12/17,5080,5130,5060,5100,115200,1275
2013/12/19,5110,5120,5050,5080,139100,1270
2013/12/30,5170,5240,5130,5220,133500,1305
2014/01/06,5220,5310,5140,5300,244500,1325
2014/01/09,5350,5380,5290,5380,137800,1345
2014/01/20,5820,5840,5750,5820,95000,1455
2014/01/21,5830,5900,5830,5860,81900,1465
2014/01/24,5850,5930,5810,5840,198200,1460
2014/01/27,5680,5760,5670,5680,179800,1420
2014/01/28,5520,5750,5520,5660,246800,1415
2014/01/29,5760,6000,5740,6000,222000,1500
2014/01/30,5900,5980,5810,5880,218000,1470
2014/01/31,5780,5900,5760,5860,189200,1465
2014/02/06,5350,5550,5310,5440,306300,1360
2014/02/17,5740,5780,5620,5740,68300,1435
2014/02/18,5730,5870,5640,5860,117100,1465
2014/02/24,6000,6090,5920,6020,142100,1505
2014/02/26,6010,6130,6010,6080,129600,1520
2014/02/27,5980,6050,5930,5960,148000,1490
2014/03/04,5890,6110,5880,6040,234600,1510
2014/03/07,6200,6240,6130,6200,112100,1550
2014/03/10,6170,6200,6120,6180,183600,1545
2014/03/14,6190,6190,6040,6040,285700,1510
2014/03/17,6010,6040,5900,5920,92100,1480
2014/03/20,6010,6070,5910,5920,140400,1480
2014/03/25,6220,6570,6220,6440,331900,1610
2014/03/26,6400,6490,6270,6440,317100,1610
2014/03/28,6560,6670,6440,6540,214300,1635
2014/04/02,6620,6670,6560,6560,192800,1640
2014/04/03,6570,6590,6510,6540,180500,1635
2014/04/04,6490,6580,6450,6480,138000,1620
2014/04/07,6430,6450,6270,6280,183800,1570
2014/04/10,6130,6260,6090,6160,381800,1540
2014/04/11,6100,6240,6040,6140,304600,1535
2014/04/15,6080,6130,6030,6080,160900,1520
2014/04/17,6180,6310,6160,6300,159400,1575
2014/04/21,6310,6330,6240,6260,74100,1565
2014/04/22,6300,6300,6240,6240,77200,1560
2014/04/24,6340,6370,6220,6260,113600,1565
2014/04/30,6100,6430,6090,6360,331800,1590
2014/05/01,6400,6690,6400,6580,265600,1645
2014/05/02,6480,6510,6260,6300,259200,1575
2014/05/07,6480,6490,6310,6340,330700,1585
2014/05/08,6410,6480,6330,6400,164300,1600
2014/05/09,6340,6470,6250,6280,120200,1570
2014/05/13,6230,6280,6150,6180,137200,1545
2014/05/14,6160,6250,6080,6140,207800,1535
2014/05/15,6100,6100,5810,5860,393400,1465
2014/05/19,5820,5880,5770,5840,129300,1460
2014/05/20,5890,5890,5760,5760,141300,1440
2014/05/22,5850,5890,5790,5880,172300,1470
2014/05/26,6000,6050,5970,6000,109900,1500
2014/05/27,6030,6150,6030,6040,119300,1510
2014/05/28,6140,6230,6120,6200,206400,1550
2014/05/29,6140,6160,6030,6140,194000,1535
2014/06/03,6300,6370,6250,6340,126200,1585
2014/06/05,6270,6350,6260,6340,167600,1585
2014/06/06,6320,6320,6180,6200,213400,1550
2014/06/12,6210,6210,6120,6180,132400,1545
2014/06/13,6150,6260,6140,6240,172900,1560
2014/06/23,6330,6370,6300,6360,63700,1590
2014/06/27,6360,6390,6270,6340,135000,1585
2014/07/07,6530,6580,6510,6560,60700,1640
2014/07/09,6490,6530,6450,6520,126800,1630
2014/07/11,6310,6400,6260,6400,133500,1600
2014/07/15,6410,6470,6390,6440,69500,1610
2014/07/17,6380,6400,6340,6380,107800,1595
2014/07/18,6270,6280,6200,6240,133400,1560
2014/07/23,6200,6240,6180,6240,124500,1560
2014/07/24,6250,6270,6210,6240,77200,1560
2014/07/25,6250,6300,6190,6300,62900,1575
2014/07/28,6300,6350,6280,6340,74200,1585
2014/07/29,6330,6380,6320,6360,114400,1590
2014/08/01,6110,6140,6020,6040,209500,1510
2014/08/04,6000,6250,5980,6180,186700,1545
2014/08/07,5980,5980,5600,5960,465200,1490
2014/08/08,5890,5900,5730,5800,335300,1450
2014/08/11,5900,5940,5800,5920,117400,1480
2014/08/12,5920,5980,5900,5920,89600,1480
2014/08/14,5930,6000,5890,5940,155300,1485
2014/08/15,5980,6080,5970,6080,80400,1520
2014/08/19,6080,6090,6010,6080,114000,1520
2014/08/21,6090,6160,6050,6140,166300,1535
2014/08/27,6100,6200,6100,6180,121300,1545
2014/08/28,6190,6200,6130,6180,208100,1545
2014/08/29,6130,6210,6130,6180,137100,1545
2014/09/01,6180,6230,6180,6200,59600,1550
2014/09/02,6230,6280,6200,6220,79500,1555
2014/09/03,6250,6300,6210,6260,146000,1565
2014/09/08,6220,6280,6190,6220,96100,1555
2014/09/09,6250,6270,6190,6220,97000,1555
2014/09/16,6290,6290,6200,6260,129400,1565
2014/09/18,6470,6580,6400,6420,206000,1605
2014/09/19,6440,6550,6410,6500,176200,1625
2014/09/22,6550,6700,6520,6560,159900,1640
2014/09/25,6380,6400,6290,6380,237200,1595
2014/09/26,1575,1593,1560,1567,346800,1567
2014/09/29,1594,1603,1550,1602,744600,1602
2014/09/30,1597,1598,1566,1581,379700,1581
2014/10/01,1590,1590,1560,1562,652500,1562
2014/10/02,1561,1575,1521,1521,663900,1521
2014/10/03,1507,1536,1507,1535,423100,1535
2014/10/06,1563,1563,1525,1525,423800,1525
2014/10/07,1550,1555,1532,1534,514300,1534
2014/10/08,1500,1513,1490,1496,547000,1496
2014/10/09,1493,1497,1459,1463,746200,1463
2014/10/10,1403,1434,1403,1409,940500,1409
2014/10/14,1391,1396,1359,1362,1109600,1362
2014/10/15,1374,1384,1365,1378,730200,1378
2014/10/16,1353,1361,1335,1338,767200,1338
2014/10/17,1340,1341,1315,1319,954600,1319
2014/10/20,1349,1364,1340,1355,833900,1355
2014/10/21,1353,1353,1319,1326,676300,1326
2014/10/22,1345,1370,1334,1364,862900,1364
2014/10/23,1347,1354,1326,1339,563100,1339
2014/10/24,1358,1368,1352,1365,413500,1365
2014/10/27,1350,1354,1307,1338,928000,1338
2014/10/28,1336,1358,1333,1334,472500,1334
2014/10/29,1335,1350,1327,1348,367700,1348
2014/10/30,1318,1343,1281,1333,1190700,1333
2014/10/31,1348,1406,1338,1404,1015700,1404
2014/11/04,1458,1458,1358,1371,1245100,1371
2014/11/05,1378,1410,1361,1410,946800,1410
2014/11/06,1400,1403,1354,1368,955300,1368
2014/11/07,1379,1399,1364,1397,791900,1397
2014/11/10,1397,1410,1370,1406,877200,1406
2014/11/11,1410,1439,1407,1430,946500,1430
2014/11/12,1407,1434,1391,1393,948400,1393
2014/11/13,1384,1403,1373,1397,609900,1397
2014/11/14,1421,1424,1387,1401,581100,1401
2014/11/17,1383,1390,1359,1366,682800,1366
2014/11/18,1367,1383,1352,1381,810700,1381
2014/11/19,1385,1394,1353,1366,935400,1366
2014/11/20,1384,1389,1361,1366,379500,1366
2014/11/21,1360,1369,1345,1368,464400,1368
2014/11/25,1375,1376,1343,1356,965200,1356
2014/11/26,1344,1373,1344,1364,442900,1364
2014/11/27,1364,1383,1351,1353,316200,1353
2014/11/28,1360,1374,1355,1370,401700,1370
2014/12/01,1392,1398,1365,1373,349200,1373
2014/12/02,1356,1368,1343,1365,449700,1365
2014/12/03,1361,1383,1354,1366,517800,1366
2014/12/04,1385,1401,1380,1384,375000,1384
2014/12/05,1367,1385,1351,1384,503000,1384
2014/12/08,1401,1407,1384,1388,344200,1388
2014/12/09,1368,1392,1364,1387,373200,1387
2014/12/10,1382,1400,1345,1361,856200,1361
2014/12/11,1357,1369,1329,1361,564400,1361
2014/12/12,1357,1361,1337,1344,851600,1344
2014/12/15,1318,1354,1316,1345,453000,1345
2014/12/16,1317,1339,1316,1328,533100,1328
2014/12/17,1319,1361,1317,1348,640000,1348
2014/12/18,1384,1402,1377,1394,645100,1394
2014/12/19,1420,1433,1406,1412,608700,1412
2014/12/22,1426,1448,1426,1443,388300,1443
2014/12/24,1458,1476,1457,1469,508100,1469
2014/12/25,1469,1479,1455,1459,237900,1459
2014/12/26,1457,1485,1457,1472,296200,1472
2014/12/29,1481,1485,1453,1471,299200,1471
2014/12/30,1482,1482,1459,1460,307000,1460
2015/01/05,1446,1450,1411,1442,642300,1442
2015/01/06,1418,1437,1397,1397,806600,1397
2015/01/07,1371,1404,1367,1396,492200,1396
2015/01/08,1397,1403,1362,1377,935600,1377
2015/01/09,1379,1383,1340,1344,1064400,1344
2015/01/13,1337,1376,1331,1375,865600,1375
2015/01/14,1365,1382,1359,1378,560800,1378
2015/01/15,1392,1428,1392,1423,746300,1423
2015/01/16,1393,1404,1367,1396,448600,1396
2015/01/19,1403,1407,1391,1397,253700,1397
2015/01/20,1404,1436,1399,1436,401400,1436
2015/01/21,1436,1436,1405,1434,517500,1434
2015/01/22,1423,1427,1390,1423,514100,1423
2015/01/23,1432,1434,1391,1404,507500,1404
2015/01/26,1375,1393,1364,1393,340800,1393
2015/01/27,1415,1437,1414,1436,481700,1436
2015/01/28,1417,1451,1410,1450,341900,1450
2015/01/29,1420,1430,1403,1407,508500,1407
2015/01/30,1416,1426,1399,1405,626000,1405
2015/02/02,1393,1445,1390,1440,459200,1440
2015/02/03,1444,1458,1419,1432,597600,1432
2015/02/04,1451,1485,1447,1458,658700,1458
2015/02/05,1500,1514,1477,1489,742200,1489
2015/02/06,1506,1536,1496,1530,706100,1530
2015/02/09,1562,1575,1530,1541,435500,1541
2015/02/10,1548,1570,1538,1552,472000,1552
2015/02/12,1575,1604,1557,1579,809800,1579
2015/02/13,1580,1589,1559,1566,568000,1566
2015/02/16,1560,1611,1560,1607,508200,1607
2015/02/17,1607,1610,1581,1585,339100,1585
2015/02/18,1608,1630,1594,1606,696200,1606
2015/02/19,1610,1641,1608,1627,598800,1627
2015/02/20,1640,1645,1622,1644,604000,1644
2015/02/23,1650,1665,1637,1648,337200,1648
2015/02/24,1656,1664,1631,1656,390700,1656
2015/02/25,1656,1703,1638,1692,675500,1692
2015/02/26,1684,1703,1665,1681,602200,1681
2015/02/27,1683,1695,1651,1666,973700,1666
2015/03/02,1667,1699,1666,1687,411600,1687
2015/03/03,1696,1705,1681,1691,307600,1691
2015/03/04,1695,1699,1676,1694,465600,1694
2015/03/05,1700,1742,1698,1730,592800,1730
2015/03/06,1726,1730,1706,1727,745500,1727
2015/03/09,1705,1728,1697,1699,861900,1699
2015/03/10,1709,1726,1688,1697,876000,1697
2015/03/11,1697,1713,1687,1704,534200,1704
2015/03/12,1714,1739,1710,1724,526600,1724
2015/03/13,1745,1760,1729,1747,986700,1747
2015/03/16,1753,1753,1720,1728,499100,1728
2015/03/17,1733,1764,1725,1759,477500,1759
2015/03/18,1759,1773,1740,1750,559600,1750
2015/03/19,1741,1754,1717,1728,418000,1728
2015/03/20,1744,1755,1716,1733,519600,1733
2015/03/23,1735,1741,1728,1737,342500,1737
2015/03/24,1732,1777,1728,1759,647100,1759
2015/03/25,1759,1775,1728,1739,428100,1739
2015/03/26,1724,1756,1709,1715,520500,1715
2015/03/27,1699,1723,1674,1687,451000,1687
2015/03/30,1697,1716,1683,1709,355500,1709
2015/03/31,1745,1764,1695,1695,717500,1695
2015/04/01,1680,1695,1636,1651,931500,1651
2015/04/02,1660,1717,1658,1705,499900,1705
2015/04/03,1717,1734,1697,1731,411800,1731
2015/04/06,1724,1737,1707,1731,334500,1731
2015/04/07,1735,1753,1714,1741,430000,1741
2015/04/08,1753,1768,1736,1754,490400,1754
2015/04/09,1763,1770,1753,1769,245000,1769
2015/04/10,1770,1780,1732,1740,518700,1740
2015/04/13,1755,1793,1747,1772,488600,1772
2015/04/14,1770,1793,1768,1788,402500,1788
2015/04/15,1769,1798,1759,1765,448200,1765
2015/04/16,1762,1768,1741,1759,508100,1759
2015/04/17,1754,1785,1754,1766,365000,1766
2015/04/20,1739,1767,1727,1751,376400,1751
2015/04/21,1753,1793,1753,1790,454100,1790
2015/04/22,1799,1799,1766,1785,510600,1785
2015/04/23,1790,1793,1754,1770,310600,1770
2015/04/24,1772,1785,1761,1772,492800,1772
2015/04/27,1784,1789,1757,1778,285700,1778
2015/04/28,1780,1785,1765,1774,615300,1774
2015/04/30,1800,1899,1794,1797,1771100,1797
2015/05/01,1774,1785,1718,1749,661800,1749
2015/05/07,1758,1811,1749,1771,814600,1771
2015/05/08,1781,1802,1769,1785,778200,1785
2015/05/11,1823,1847,1800,1815,1221300,1815
2015/05/12,1815,1836,1756,1770,1339700,1770
2015/05/13,1776,1834,1775,1831,956700,1831
2015/05/14,1817,1830,1805,1811,496100,1811
2015/05/15,1836,1857,1824,1844,541700,1844
2015/05/18,1850,1889,1850,1883,579600,1883
2015/05/19,1885,1920,1885,1902,551600,1902
2015/05/20,1926,1947,1886,1892,932000,1892
2015/05/21,1911,1926,1901,1915,747600,1915
2015/05/22,1921,1929,1893,1905,577500,1905
2015/05/25,1905,1933,1904,1916,574500,1916
2015/05/26,1905,1915,1890,1890,498400,1890
2015/05/27,1888,1890,1857,1875,743600,1875
2015/05/28,1875,1895,1875,1880,518500,1880
2015/05/29,1880,1930,1880,1905,1379000,1905
2015/06/01,1865,1928,1865,1923,708800,1923
2015/06/02,1963,1987,1948,1955,916700,1955
2015/06/03,1947,1963,1929,1935,486500,1935
2015/06/04,1940,1949,1917,1943,619700,1943
2015/06/05,1916,1937,1886,1919,459400,1919
2015/06/08,1921,1941,1908,1925,889600,1925
2015/06/09,1898,1934,1896,1914,1012900,1914
2015/06/10,1910,1921,1868,1881,941600,1881
2015/06/11,1895,1924,1895,1908,504200,1908
2015/06/12,1920,1930,1897,1917,807400,1917
2015/06/15,1916,1947,1912,1941,468000,1941
2015/06/16,1948,1976,1940,1948,549800,1948
2015/06/17,1952,1962,1930,1934,327800,1934
2015/06/18,1935,1945,1920,1937,410100,1937
2015/06/19,1960,1984,1950,1956,578200,1956
2015/06/22,1950,1987,1948,1981,510700,1981
2015/06/23,1989,1994,1964,1989,536100,1989
2015/06/24,1990,1990,1941,1977,808100,1977
2015/06/25,1977,1982,1960,1970,330500,1970
2015/06/26,1955,1976,1937,1967,444500,1967
2015/06/29,1920,1932,1893,1906,522600,1906
2015/06/30,1915,1931,1899,1906,630100,1906
2015/07/01,1906,1921,1876,1908,306000,1908
