2011/01/04,1420,1420,1395,1406,5400,1406
2011/01/05,1406,1423,1400,1417,13300,1417
2011/01/06,1422,1422,1395,1410,3200,1410
2011/01/07,1420,1423,1416,1416,17100,1416
2011/01/11,1415,1420,1410,1410,8800,1410
2011/01/12,1411,1425,1411,1416,7500,1416
2011/01/13,1420,1465,1418,1450,23100,1450
2011/01/14,1500,1500,1408,1455,29600,1455
2011/01/17,1455,1477,1447,1460,10000,1460
2011/01/18,1469,1500,1469,1500,5800,1500
2011/01/19,1499,1499,1476,1480,8700,1480
2011/01/20,1480,1480,1440,1440,9000,1440
2011/01/21,1432,1435,1403,1403,4100,1403
2011/01/24,1401,1403,1399,1403,2800,1403
2011/01/25,1427,1427,1414,1420,3000,1420
2011/01/26,1420,1421,1405,1405,12200,1405
2011/01/27,1408,1415,1405,1410,2900,1410
2011/01/28,1410,1430,1410,1426,10700,1426
2011/01/31,1426,1426,1416,1419,4000,1419
2011/02/01,1419,1435,1419,1430,28600,1430
2011/02/02,1440,1445,1430,1433,12000,1433
2011/02/03,1430,1431,1420,1428,3200,1428
2011/02/04,1428,1435,1420,1420,8800,1420
2011/02/07,1420,1425,1415,1415,7900,1415
2011/02/08,1416,1422,1411,1416,5300,1416
2011/02/09,1414,1416,1405,1407,12900,1407
2011/02/10,1410,1415,1408,1409,9900,1409
2011/02/14,1423,1450,1423,1450,10900,1450
2011/02/15,1451,1475,1406,1452,41300,1452
2011/02/16,1441,1451,1432,1440,9900,1440
2011/02/17,1446,1453,1440,1453,22200,1453
2011/02/18,1468,1475,1453,1470,7200,1470
2011/02/21,1471,1486,1471,1477,7600,1477
2011/02/22,1480,1480,1469,1469,8400,1469
2011/02/23,1450,1465,1437,1453,9600,1453
2011/02/24,1452,1452,1423,1431,13200,1431
2011/02/25,1416,1448,1416,1445,8800,1445
2011/02/28,1465,1465,1447,1456,6500,1456
2011/03/01,1460,1470,1450,1469,4600,1469
2011/03/02,1460,1462,1443,1452,8200,1452
2011/03/03,1469,1469,1448,1450,2600,1450
2011/03/04,1454,1455,1445,1453,6800,1453
2011/03/07,1450,1478,1450,1450,5500,1450
2011/03/08,1455,1464,1452,1464,3400,1464
2011/03/09,1464,1464,1454,1460,7600,1460
2011/03/10,1450,1457,1449,1452,8400,1452
2011/03/11,1446,1446,1441,1441,3900,1441
2011/03/14,1351,1381,1280,1378,21600,1378
2011/03/15,1380,1380,1078,1280,77400,1280
2011/03/16,1250,1345,1239,1300,20100,1300
2011/03/17,1250,1300,1211,1286,15000,1286
2011/03/18,1284,1334,1283,1288,36700,1288
2011/03/22,1306,1338,1306,1315,18600,1315
2011/03/23,1321,1340,1321,1340,11400,1340
2011/03/24,1340,1345,1325,1345,14400,1345
2011/03/25,1347,1350,1340,1350,8500,1350
2011/03/28,1377,1377,1336,1341,6800,1341
2011/03/29,1305,1340,1305,1340,3800,1340
2011/03/30,1346,1347,1330,1343,7100,1343
2011/03/31,1331,1368,1330,1368,8500,1368
2011/04/01,1375,1431,1375,1428,11600,1428
2011/04/04,1460,1486,1450,1455,19700,1455
2011/04/05,1478,1479,1420,1464,9400,1464
2011/04/06,1441,1441,1430,1435,5100,1435
2011/04/07,1434,1450,1411,1450,6700,1450
2011/04/08,1410,1419,1382,1395,15600,1395
2011/04/11,1404,1404,1390,1395,3900,1395
2011/04/12,1400,1400,1370,1381,6500,1381
2011/04/13,1365,1380,1350,1379,24200,1379
2011/04/14,1376,1379,1361,1372,12400,1372
2011/04/15,1402,1414,1355,1414,19500,1414
2011/04/18,1413,1437,1405,1437,7600,1437
2011/04/19,1440,1440,1391,1397,5800,1397
2011/04/20,1397,1434,1397,1434,5500,1434
2011/04/21,1432,1432,1400,1405,6500,1405
2011/04/22,1405,1405,1382,1385,6200,1385
2011/04/25,1375,1380,1366,1370,4300,1370
2011/04/26,1372,1395,1372,1390,5300,1390
2011/04/27,1400,1415,1371,1415,11400,1415
2011/04/28,1388,1425,1388,1400,8800,1400
2011/05/02,1401,1401,1390,1400,5400,1400
2011/05/06,1402,1429,1402,1420,4500,1420
2011/05/09,1440,1440,1421,1432,5000,1432
2011/05/10,1438,1439,1420,1438,7000,1438
2011/05/11,1438,1447,1432,1440,6800,1440
2011/05/12,1441,1469,1440,1469,9000,1469
2011/05/13,1475,1479,1465,1479,18200,1479
2011/05/16,1470,1470,1450,1459,11100,1459
2011/05/17,1441,1441,1420,1423,13700,1423
2011/05/18,1439,1444,1435,1439,7400,1439
2011/05/19,1439,1442,1433,1434,7600,1434
2011/05/20,1440,1445,1425,1440,7400,1440
2011/05/23,1440,1440,1430,1435,7200,1435
2011/05/24,1435,1435,1419,1423,5500,1423
2011/05/25,1427,1430,1422,1426,3000,1426
2011/05/26,1426,1433,1415,1415,5100,1415
2011/05/27,1405,1406,1392,1393,5500,1393
2011/05/30,1393,1399,1393,1393,3400,1393
2011/05/31,1395,1399,1390,1392,4800,1392
2011/06/01,1392,1399,1380,1384,6700,1384
2011/06/02,1382,1382,1375,1380,4400,1380
2011/06/03,1370,1371,1361,1361,4800,1361
2011/06/06,1355,1376,1353,1372,5200,1372
2011/06/07,1360,1365,1345,1351,4700,1351
2011/06/08,1350,1363,1345,1345,4000,1345
2011/06/09,1351,1351,1323,1324,3300,1324
2011/06/10,1352,1352,1337,1339,2800,1339
2011/06/13,1340,1345,1332,1343,6800,1343
2011/06/14,1343,1343,1332,1340,12200,1340
2011/06/15,1318,1324,1289,1299,28900,1299
2011/06/16,1289,1315,1289,1301,6600,1301
2011/06/17,1292,1314,1292,1307,6600,1307
2011/06/20,1302,1302,1295,1300,15000,1300
2011/06/21,1294,1299,1286,1291,5300,1291
2011/06/22,1292,1337,1291,1332,11000,1332
2011/06/23,1323,1323,1310,1313,4300,1313
2011/06/24,1319,1328,1314,1323,7200,1323
2011/06/27,1339,1345,1325,1345,8000,1345
2011/06/28,1356,1373,1352,1366,6400,1366
2011/06/29,1379,1383,1370,1376,8800,1376
2011/06/30,1378,1398,1378,1398,16600,1398
2011/07/01,1411,1438,1411,1436,20300,1436
2011/07/04,1449,1456,1433,1455,22000,1455
2011/07/05,1485,1505,1450,1452,30500,1452
2011/07/06,1463,1463,1405,1450,12800,1450
2011/07/07,1415,1425,1400,1414,13600,1414
2011/07/08,1414,1425,1402,1403,18800,1403
2011/07/11,1401,1439,1400,1414,11800,1414
2011/07/12,1404,1435,1402,1435,20200,1435
2011/07/13,1427,1460,1427,1460,8200,1460
2011/07/14,1510,1515,1471,1515,25400,1515
2011/07/15,1524,1531,1490,1525,53200,1525
2011/07/19,1605,1640,1595,1603,34000,1603
2011/07/20,1601,1601,1590,1592,19600,1592
2011/07/21,1592,1630,1584,1600,16100,1600
2011/07/22,1618,1618,1560,1600,11800,1600
2011/07/25,1590,1590,1570,1587,4200,1587
2011/07/26,1575,1575,1531,1534,20500,1534
2011/07/27,1534,1549,1515,1515,9500,1515
2011/07/28,1495,1500,1453,1470,16600,1470
2011/07/29,1470,1473,1448,1454,10000,1454
2011/08/01,1454,1485,1444,1470,10900,1470
2011/08/02,1464,1489,1459,1480,7900,1480
2011/08/03,1450,1450,1427,1427,11700,1427
2011/08/04,1438,1445,1417,1440,4300,1440
2011/08/05,1397,1418,1393,1414,4400,1414
2011/08/08,1413,1414,1366,1366,4100,1366
2011/08/09,1320,1380,1303,1354,6400,1354
2011/08/10,1385,1399,1379,1381,3600,1381
2011/08/11,1381,1475,1381,1460,6400,1460
2011/08/12,1470,1538,1447,1525,17000,1525
2011/08/15,1515,1515,1414,1503,12800,1503
2011/08/16,1472,1478,1462,1466,8700,1466
2011/08/17,1460,1460,1445,1450,3400,1450
2011/08/18,1455,1455,1426,1438,2400,1438
2011/08/19,1429,1445,1422,1439,6100,1439
2011/08/22,1409,1458,1409,1457,9500,1457
2011/08/23,1433,1460,1427,1427,7900,1427
2011/08/24,1427,1450,1427,1440,6100,1440
2011/08/25,1441,1448,1431,1440,10700,1440
2011/08/26,1428,1442,1420,1435,3000,1435
2011/08/29,1424,1440,1423,1424,2400,1424
2011/08/30,1427,1440,1427,1432,400,1432
2011/08/31,1440,1459,1440,1455,4700,1455
2011/09/01,1463,1464,1450,1461,1400,1461
2011/09/02,1469,1485,1446,1453,4500,1453
2011/09/05,1453,1487,1453,1470,3200,1470
2011/09/06,1469,1469,1441,1456,1900,1456
2011/09/07,1443,1500,1443,1483,12700,1483
2011/09/08,1505,1528,1501,1520,15300,1520
2011/09/09,1519,1535,1510,1532,35100,1532
2011/09/12,1476,1502,1468,1468,8000,1468
2011/09/13,1469,1481,1469,1476,2100,1476
2011/09/14,1476,1490,1438,1438,8000,1438
2011/09/15,1426,1450,1393,1395,17600,1395
2011/09/16,1419,1490,1401,1418,6100,1418
2011/09/20,1418,1449,1418,1428,1700,1428
2011/09/21,1442,1442,1441,1442,500,1442
2011/09/22,1440,1476,1440,1476,2500,1476
2011/09/26,1473,1484,1450,1450,6700,1450
2011/09/27,1470,1479,1450,1473,3500,1473
2011/09/28,1440,1510,1440,1480,8500,1480
2011/09/29,1480,1494,1477,1481,2300,1481
2011/09/30,1470,1491,1455,1473,24900,1473
2011/10/03,1474,1474,1441,1459,4100,1459
2011/10/04,1429,1429,1419,1419,3800,1419
2011/10/05,1419,1419,1417,1418,2300,1418
2011/10/06,1420,1450,1420,1449,2200,1449
2011/10/07,1449,1476,1428,1430,6600,1430
2011/10/11,1430,1439,1399,1420,8900,1420
2011/10/12,1425,1439,1415,1428,4400,1428
2011/10/13,1430,1432,1350,1405,16800,1405
2011/10/14,1375,1384,1368,1373,16400,1373
2011/10/17,1384,1384,1360,1378,3000,1378
2011/10/18,1362,1365,1359,1359,3100,1359
2011/10/19,1360,1362,1332,1346,13800,1346
2011/10/20,1366,1366,1342,1342,6500,1342
2011/10/21,1342,1360,1338,1338,4800,1338
2011/10/24,1349,1353,1340,1350,4100,1350
2011/10/25,1346,1349,1340,1347,4200,1347
2011/10/26,1340,1340,1335,1335,1700,1335
2011/10/27,1335,1337,1335,1337,1600,1337
2011/10/28,1350,1355,1350,1350,1700,1350
2011/10/31,1353,1370,1343,1343,8100,1343
2011/11/01,1341,1345,1340,1340,800,1340
2011/11/02,1330,1330,1290,1315,9700,1315
2011/11/04,1328,1357,1328,1340,7400,1340
2011/11/07,1340,1350,1333,1350,1400,1350
2011/11/08,1334,1349,1330,1330,4000,1330
2011/11/09,1321,1330,1321,1325,600,1325
2011/11/10,1312,1312,1306,1306,4000,1306
2011/11/11,1307,1318,1305,1308,4200,1308
2011/11/14,1306,1318,1305,1318,4700,1318
2011/11/15,1336,1336,1305,1306,8600,1306
2011/11/16,1300,1300,1280,1280,10600,1280
2011/11/17,1276,1289,1273,1278,11100,1278
2011/11/18,1278,1278,1265,1265,4800,1265
2011/11/21,1255,1313,1253,1274,10200,1274
2011/11/22,1257,1294,1256,1294,5200,1294
2011/11/24,1294,1294,1261,1271,3000,1271
2011/11/25,1271,1278,1261,1263,1400,1263
2011/11/28,1265,1287,1265,1273,2500,1273
2011/11/29,1287,1298,1284,1298,6000,1298
2011/11/30,1305,1346,1297,1303,8000,1303
2011/12/01,1304,1347,1304,1347,8400,1347
2011/12/02,1327,1330,1313,1320,6700,1320
2011/12/05,1320,1327,1306,1327,26800,1327
2011/12/06,1325,1325,1310,1315,15500,1315
2011/12/07,1322,1330,1313,1326,4600,1326
2011/12/08,1312,1317,1295,1298,10600,1298
2011/12/09,1294,1302,1291,1291,11900,1291
2011/12/12,1291,1332,1291,1324,6500,1324
2011/12/13,1323,1343,1321,1333,3800,1333
2011/12/14,1340,1340,1328,1337,2100,1337
2011/12/15,1311,1315,1301,1302,13300,1302
2011/12/16,1290,1315,1288,1314,10700,1314
2011/12/19,1314,1330,1303,1330,6200,1330
2011/12/20,1329,1332,1307,1307,3800,1307
2011/12/21,1319,1319,1312,1317,2100,1317
2011/12/22,1315,1315,1295,1300,10000,1300
2011/12/26,1317,1317,1301,1301,800,1301
2011/12/27,1291,1298,1286,1286,6400,1286
2011/12/28,1286,1305,1286,1290,7400,1290
2011/12/29,1286,1299,1286,1299,3300,1299
2011/12/30,1299,1321,1299,1319,6100,1319
2012/01/04,1300,1347,1300,1305,10800,1305
2012/01/05,1315,1320,1308,1312,8100,1312
2012/01/06,1309,1309,1293,1302,13100,1302
2012/01/10,1297,1316,1293,1298,4800,1298
2012/01/11,1307,1324,1300,1324,7300,1324
2012/01/12,1324,1340,1307,1339,7300,1339
2012/01/13,1369,1369,1328,1344,16700,1344
2012/01/16,1345,1345,1327,1340,1900,1340
2012/01/17,1340,1344,1320,1320,2100,1320
2012/01/18,1313,1318,1305,1308,4400,1308
2012/01/19,1318,1327,1300,1304,4700,1304
2012/01/20,1306,1318,1301,1313,4700,1313
2012/01/23,1304,1313,1304,1307,1900,1307
2012/01/24,1317,1317,1308,1309,3300,1309
2012/01/25,1308,1316,1308,1310,4400,1310
2012/01/26,1312,1323,1312,1323,6000,1323
2012/01/27,1316,1325,1313,1325,4500,1325
2012/01/30,1321,1321,1306,1316,5500,1316
2012/01/31,1327,1339,1315,1339,3400,1339
2012/02/01,1339,1346,1321,1333,1400,1333
2012/02/02,1333,1341,1330,1341,1200,1341
2012/02/03,1341,1344,1341,1341,1900,1341
2012/02/06,1336,1352,1333,1352,2900,1352
2012/02/07,1332,1348,1330,1348,1100,1348
2012/02/08,1342,1355,1341,1351,3400,1351
2012/02/09,1343,1354,1339,1343,3700,1343
2012/02/10,1341,1354,1341,1354,6400,1354
2012/02/13,1343,1349,1325,1349,9900,1349
2012/02/14,1352,1352,1336,1338,6900,1338
2012/02/15,1335,1341,1326,1328,18300,1328
2012/02/16,1331,1337,1330,1330,5900,1330
2012/02/17,1331,1349,1331,1342,6300,1342
2012/02/20,1352,1359,1350,1355,9000,1355
2012/02/21,1355,1355,1335,1344,12800,1344
2012/02/22,1360,1364,1343,1364,28600,1364
2012/02/23,1353,1370,1351,1353,14000,1353
2012/02/24,1355,1392,1355,1392,13100,1392
2012/02/27,1403,1434,1400,1432,14500,1432
2012/02/28,1405,1417,1400,1408,10100,1408
2012/02/29,1405,1490,1405,1473,33500,1473
2012/03/01,1475,1475,1434,1443,12600,1443
2012/03/02,1443,1457,1436,1456,3500,1456
2012/03/05,1466,1466,1440,1446,5100,1446
2012/03/06,1446,1448,1433,1434,2900,1434
2012/03/07,1417,1424,1407,1424,5800,1424
2012/03/08,1430,1430,1422,1422,1900,1422
2012/03/09,1422,1444,1422,1430,5000,1430
2012/03/12,1446,1458,1432,1441,12500,1441
2012/03/13,1442,1463,1434,1434,12900,1434
2012/03/14,1440,1450,1420,1422,12600,1422
2012/03/15,1435,1464,1435,1445,24200,1445
2012/03/16,1450,1469,1448,1456,16800,1456
2012/03/19,1455,1460,1436,1438,13200,1438
2012/03/21,1449,1460,1443,1447,4800,1447
2012/03/22,1450,1456,1420,1420,9600,1420
2012/03/23,1428,1436,1416,1435,8400,1435
2012/03/26,1449,1449,1432,1441,4400,1441
2012/03/27,1441,1444,1425,1438,5700,1438
2012/03/28,1420,1434,1418,1430,3300,1430
2012/03/29,1430,1442,1400,1442,45200,1442
2012/03/30,1440,1448,1430,1446,11500,1446
2012/04/02,1457,1457,1437,1446,13800,1446
2012/04/03,1448,1464,1440,1464,13300,1464
2012/04/04,1474,1479,1440,1462,20300,1462
2012/04/05,1437,1460,1433,1450,10900,1450
2012/04/06,1431,1434,1428,1429,5700,1429
2012/04/09,1420,1435,1416,1434,9400,1434
2012/04/10,1424,1436,1424,1428,13100,1428
2012/04/11,1424,1435,1424,1435,12100,1435
2012/04/12,1438,1441,1426,1439,12200,1439
2012/04/13,1442,1445,1427,1445,18900,1445
2012/04/16,1420,1450,1420,1450,16200,1450
2012/04/17,1448,1450,1428,1440,15700,1440
2012/04/18,1445,1460,1427,1460,10200,1460
2012/04/19,1453,1456,1432,1450,8800,1450
2012/04/20,1440,1456,1440,1456,16400,1456
2012/04/23,1450,1453,1440,1447,6400,1447
2012/04/24,1438,1447,1434,1447,9200,1447
2012/04/25,1436,1436,1425,1425,11700,1425
2012/04/26,1437,1437,1424,1431,4300,1431
2012/04/27,1444,1455,1437,1445,12900,1445
2012/05/01,1425,1435,1400,1400,7500,1400
2012/05/02,1401,1417,1400,1417,9100,1417
2012/05/07,1400,1408,1382,1402,9800,1402
2012/05/08,1410,1410,1364,1364,5800,1364
2012/05/09,1360,1410,1360,1401,5500,1401
2012/05/10,1400,1405,1385,1405,4400,1405
2012/05/11,1401,1420,1401,1406,7500,1406
2012/05/14,1395,1409,1391,1404,10300,1404
2012/05/15,1448,1448,1390,1401,19100,1401
2012/05/16,1392,1393,1370,1387,8600,1387
2012/05/17,1360,1395,1359,1386,2700,1386
2012/05/18,1399,1420,1385,1395,7700,1395
2012/05/21,1395,1415,1389,1397,18200,1397
2012/05/22,1397,1397,1392,1392,3200,1392
2012/05/23,1392,1392,1371,1371,4600,1371
2012/05/24,1372,1372,1360,1363,5900,1363
2012/05/25,1374,1374,1356,1357,2100,1357
2012/05/28,1378,1378,1340,1346,4700,1346
2012/05/29,1340,1350,1339,1349,5500,1349
2012/05/30,1364,1364,1360,1361,1900,1361
2012/05/31,1378,1378,1351,1360,12600,1360
2012/06/01,1352,1362,1352,1355,1300,1355
2012/06/04,1351,1359,1306,1309,6400,1309
2012/06/05,1309,1309,1292,1295,4300,1295
2012/06/06,1292,1294,1285,1285,13400,1285
2012/06/07,1291,1306,1291,1298,5000,1298
2012/06/08,1310,1310,1295,1302,4500,1302
2012/06/11,1319,1330,1309,1320,2000,1320
2012/06/12,1315,1315,1306,1307,22300,1307
2012/06/13,1309,1325,1309,1317,3300,1317
2012/06/14,1318,1318,1305,1305,10600,1305
2012/06/15,1296,1305,1290,1295,18800,1295
2012/06/18,1300,1312,1287,1297,8000,1297
2012/06/19,1296,1304,1283,1298,14600,1298
2012/06/20,1297,1322,1297,1320,11800,1320
2012/06/21,1348,1348,1329,1348,5100,1348
2012/06/22,1340,1387,1321,1387,3900,1387
2012/06/25,1386,1386,1375,1377,5300,1377
2012/06/26,1363,1363,1357,1357,1300,1357
2012/06/27,1360,1407,1356,1407,2500,1407
2012/06/28,1406,1406,1384,1384,1500,1384
2012/06/29,1390,1396,1380,1390,2700,1390
2012/07/02,1392,1430,1391,1422,8400,1422
2012/07/03,1422,1450,1422,1439,8800,1439
2012/07/04,1442,1443,1434,1442,22300,1442
2012/07/05,1460,1460,1405,1426,20300,1426
2012/07/06,1426,1445,1420,1435,3000,1435
2012/07/09,1417,1425,1412,1412,5500,1412
2012/07/10,1423,1427,1419,1426,3300,1426
2012/07/11,1428,1438,1426,1438,8700,1438
2012/07/12,1438,1438,1428,1438,8400,1438
2012/07/13,1468,1468,1422,1423,28300,1423
2012/07/17,1423,1423,1420,1420,2000,1420
2012/07/18,1410,1411,1365,1390,7600,1390
2012/07/19,1398,1400,1398,1400,200,1400
2012/07/20,1385,1400,1381,1400,3500,1400
2012/07/23,1400,1400,1370,1376,7800,1376
2012/07/24,1363,1370,1359,1362,4200,1362
2012/07/25,1359,1376,1350,1354,3200,1354
2012/07/26,1359,1360,1359,1360,800,1360
2012/07/27,1380,1405,1380,1390,1800,1390
2012/07/30,1390,1390,1390,1390,300,1390
2012/07/31,1390,1390,1390,1390,400,1390
2012/08/01,1390,1390,1385,1385,2100,1385
2012/08/02,1382,1405,1382,1405,700,1405
2012/08/03,1381,1381,1362,1364,4000,1364
2012/08/06,1379,1395,1379,1395,600,1395
2012/08/07,1378,1384,1369,1384,3000,1384
2012/08/08,1384,1400,1384,1400,800,1400
2012/08/09,1400,1400,1386,1391,5300,1391
2012/08/10,1392,1409,1392,1400,5200,1400
2012/08/13,1400,1402,1393,1394,4900,1394
2012/08/14,1404,1405,1398,1405,2100,1405
2012/08/15,1409,1409,1380,1381,10200,1381
2012/08/16,1379,1379,1379,1379,100,1379
2012/08/17,1385,1386,1382,1382,500,1382
2012/08/20,1383,1390,1383,1384,900,1384
2012/08/21,1384,1390,1384,1385,700,1385
2012/08/22,1385,1393,1380,1393,900,1393
2012/08/23,1381,1390,1373,1374,2300,1374
2012/08/24,1374,1390,1374,1390,1600,1390
2012/08/27,1390,1392,1362,1383,2200,1383
2012/08/28,1362,1389,1362,1366,3600,1366
2012/08/29,1365,1386,1365,1370,700,1370
2012/08/30,1370,1386,1370,1386,300,1386
2012/08/31,1386,1400,1363,1371,38100,1371
2012/09/03,1363,1380,1362,1369,3500,1369
2012/09/04,1379,1379,1364,1365,1800,1365
2012/09/05,1361,1365,1358,1365,700,1365
2012/09/06,1377,1395,1377,1395,4400,1395
2012/09/07,1385,1385,1370,1374,1100,1374
2012/09/10,1375,1390,1372,1376,2300,1376
2012/09/11,1389,1390,1361,1389,2800,1389
2012/09/12,1374,1374,1363,1363,6600,1363
2012/09/13,1360,1367,1358,1367,3100,1367
2012/09/14,1380,1380,1375,1375,5900,1375
2012/09/18,1369,1380,1367,1372,5000,1372
2012/09/19,1390,1390,1370,1379,1200,1379
2012/09/20,1379,1432,1370,1373,4600,1373
2012/09/21,1370,1372,1357,1357,8100,1357
2012/09/24,1357,1357,1340,1340,2500,1340
2012/09/25,1354,1357,1340,1341,3600,1341
2012/09/26,1341,1341,1328,1328,1100,1328
2012/09/27,1352,1352,1327,1327,3900,1327
2012/09/28,1342,1400,1342,1400,7000,1400
2012/10/01,1395,1440,1371,1440,3200,1440
2012/10/02,1436,1436,1390,1390,3000,1390
2012/10/03,1390,1390,1342,1342,3300,1342
2012/10/04,1355,1394,1343,1394,2600,1394
2012/10/05,1390,1390,1358,1364,3500,1364
2012/10/09,1347,1373,1347,1361,3400,1361
2012/10/10,1377,1377,1357,1361,6400,1361
2012/10/11,1361,1372,1342,1342,9900,1342
2012/10/12,1345,1375,1345,1372,3600,1372
2012/10/15,1369,1369,1352,1354,8500,1354
2012/10/16,1355,1355,1350,1352,400,1352
2012/10/17,1353,1366,1352,1366,2300,1366
2012/10/18,1367,1380,1365,1379,2800,1379
2012/10/19,1363,1381,1361,1364,4200,1364
2012/10/22,1355,1358,1350,1351,2200,1351
2012/10/23,1352,1355,1345,1355,3000,1355
2012/10/24,1345,1364,1345,1363,3200,1363
2012/10/25,1362,1362,1352,1361,4600,1361
2012/10/26,1356,1357,1350,1351,4600,1351
2012/10/29,1359,1365,1359,1362,8700,1362
2012/10/30,1353,1354,1352,1353,2700,1353
2012/10/31,1346,1353,1346,1349,3000,1349
2012/11/01,1342,1349,1340,1341,2100,1341
2012/11/02,1341,1342,1329,1329,4700,1329
2012/11/05,1329,1330,1314,1320,5100,1320
2012/11/06,1317,1317,1295,1308,11100,1308
2012/11/07,1308,1308,1285,1285,12300,1285
2012/11/08,1284,1284,1273,1273,15100,1273
2012/11/09,1275,1299,1274,1281,5800,1281
2012/11/12,1276,1276,1235,1235,19700,1235
2012/11/13,1234,1234,1223,1223,20100,1223
2012/11/14,1220,1225,1218,1219,13300,1219
2012/11/15,1214,1214,1140,1161,83100,1161
2012/11/16,1184,1187,1166,1167,50400,1167
2012/11/19,1175,1180,1171,1176,24400,1176
2012/11/20,1176,1177,1162,1162,34900,1162
2012/11/21,1165,1179,1165,1174,14300,1174
2012/11/22,1173,1178,1163,1164,28500,1164
2012/11/26,1164,1173,1164,1166,23300,1166
2012/11/27,1170,1172,1167,1169,14300,1169
2012/11/28,1170,1176,1165,1169,72100,1169
2012/11/29,1170,1173,1145,1173,42000,1173
2012/11/30,1161,1198,1153,1169,110800,1169
2012/12/03,1187,1219,1180,1206,49300,1206
2012/12/04,1206,1218,1200,1217,28400,1217
2012/12/05,1254,1254,1205,1220,39100,1220
2012/12/06,1238,1244,1210,1221,15400,1221
2012/12/07,1226,1233,1221,1223,8800,1223
2012/12/10,1230,1255,1230,1243,18200,1243
2012/12/11,1241,1252,1241,1247,5700,1247
2012/12/12,1248,1250,1245,1249,6300,1249
2012/12/13,1255,1266,1252,1266,8600,1266
2012/12/14,1263,1264,1247,1264,15000,1264
2012/12/17,1265,1298,1265,1288,27600,1288
2012/12/18,1288,1293,1275,1281,15800,1281
2012/12/19,1281,1290,1272,1279,14400,1279
2012/12/20,1272,1282,1256,1269,15800,1269
2012/12/21,1265,1270,1261,1266,5700,1266
2012/12/25,1267,1273,1264,1273,4500,1273
2012/12/26,1273,1273,1262,1270,14600,1270
2012/12/27,1270,1275,1268,1275,11800,1275
2012/12/28,1279,1293,1279,1289,3300,1289
2013/01/04,1292,1325,1292,1316,18600,1316
2013/01/07,1323,1335,1320,1328,13400,1328
2013/01/08,1329,1330,1319,1330,12500,1330
2013/01/09,1333,1335,1327,1331,10400,1331
2013/01/10,1345,1345,1325,1332,21700,1332
2013/01/11,1302,1329,1302,1324,39100,1324
2013/01/15,1325,1330,1314,1329,59300,1329
2013/01/16,1316,1323,1308,1312,15800,1312
2013/01/17,1306,1312,1285,1301,36700,1301
2013/01/18,1293,1299,1267,1293,43400,1293
2013/01/21,1294,1297,1286,1290,26400,1290
2013/01/22,1301,1322,1301,1320,21900,1320
2013/01/23,1320,1334,1319,1330,20900,1330
2013/01/24,1331,1340,1320,1336,21800,1336
2013/01/25,1340,1372,1340,1372,19800,1372
2013/01/28,1377,1394,1372,1375,13900,1375
2013/01/29,1382,1383,1351,1357,27500,1357
2013/01/30,1379,1385,1366,1370,17400,1370
2013/01/31,1395,1395,1372,1395,26200,1395
2013/02/01,1400,1405,1390,1392,21600,1392
2013/02/04,1394,1410,1394,1398,36600,1398
2013/02/05,1398,1400,1376,1384,20300,1384
2013/02/06,1390,1400,1387,1397,16300,1397
2013/02/07,1397,1401,1388,1393,5700,1393
2013/02/08,1399,1400,1388,1399,15800,1399
2013/02/12,1400,1459,1400,1459,27000,1459
2013/02/13,1460,1493,1460,1485,69100,1485
2013/02/14,1488,1520,1488,1505,33200,1505
2013/02/15,1520,1520,1496,1500,46000,1500
2013/02/18,1499,1500,1480,1490,23700,1490
2013/02/19,1482,1500,1480,1485,13100,1485
2013/02/20,1494,1525,1493,1522,18200,1522
2013/02/21,1524,1524,1506,1511,7600,1511
2013/02/22,1511,1512,1500,1506,7200,1506
2013/02/25,1507,1523,1495,1518,10000,1518
2013/02/26,1522,1580,1518,1558,30800,1558
2013/02/27,1575,1660,1575,1655,42200,1655
2013/02/28,1700,1740,1690,1710,65300,1710
2013/03/01,1710,1715,1690,1699,32900,1699
2013/03/04,1720,1770,1720,1727,45100,1727
2013/03/05,1727,1769,1715,1720,20100,1720
2013/03/06,1718,1718,1696,1700,17500,1700
2013/03/07,1700,1710,1677,1692,22400,1692
2013/03/08,1692,1694,1673,1691,20100,1691
2013/03/11,1691,1692,1683,1686,15500,1686
2013/03/12,1687,1687,1663,1680,21700,1680
2013/03/13,1666,1666,1632,1646,17800,1646
2013/03/14,1633,1679,1630,1679,24200,1679
2013/03/15,1739,1740,1717,1729,26000,1729
2013/03/18,1742,1744,1719,1722,11100,1722
2013/03/19,1725,1729,1712,1729,21700,1729
2013/03/21,1729,1735,1712,1730,24000,1730
2013/03/22,1730,1731,1696,1698,11800,1698
2013/03/25,1735,1735,1714,1733,14400,1733
2013/03/26,1728,1729,1715,1727,10400,1727
2013/03/27,1715,1715,1705,1706,1900,1706
2013/03/28,1706,1712,1700,1704,5800,1704
2013/03/29,1705,1712,1690,1693,21900,1693
2013/04/01,1705,1705,1642,1676,21400,1676
2013/04/02,1596,1670,1596,1657,26200,1657
2013/04/03,1670,1674,1630,1669,10100,1669
2013/04/04,1660,1660,1627,1655,11600,1655
2013/04/05,1687,1712,1663,1675,19500,1675
2013/04/08,1700,1703,1692,1700,16700,1700
2013/04/09,1705,1768,1700,1768,12600,1768
2013/04/10,1772,1880,1771,1810,26100,1810
2013/04/11,1868,1905,1852,1869,20300,1869
2013/04/12,2000,2000,1951,1990,23700,1990
2013/04/15,2010,2010,1940,1941,13800,1941
2013/04/16,1822,1965,1820,1906,18500,1906
2013/04/17,1903,1941,1903,1940,4300,1940
2013/04/18,1940,1940,1911,1915,7300,1915
2013/04/19,1952,1959,1939,1959,18700,1959
2013/04/22,1960,1980,1941,1966,16800,1966
2013/04/23,1950,1950,1923,1930,12100,1930
2013/04/24,1930,1972,1930,1960,11900,1960
2013/04/25,1980,2100,1980,2090,38400,2090
2013/04/26,2100,2100,2041,2041,30500,2041
2013/04/30,2070,2073,2063,2069,8700,2069
2013/05/01,2069,2074,2051,2068,7200,2068
2013/05/02,2068,2105,2061,2100,17400,2100
2013/05/07,2120,2220,2101,2187,21200,2187
2013/05/08,2205,2220,2190,2199,14300,2199
2013/05/09,2196,2218,2191,2210,17900,2210
2013/05/10,2203,2222,2155,2171,25600,2171
2013/05/13,2260,2294,2210,2294,31500,2294
2013/05/14,2300,2300,2251,2300,18200,2300
2013/05/15,2320,2350,2288,2299,22400,2299
2013/05/16,2290,2290,2092,2140,28300,2140
2013/05/17,2100,2200,2100,2181,11500,2181
2013/05/20,2170,2200,2121,2125,19900,2125
2013/05/21,2156,2156,2112,2123,8700,2123
2013/05/22,2113,2115,2092,2115,18500,2115
2013/05/23,2086,2114,2065,2100,20400,2100
2013/05/24,2011,2100,2010,2048,28800,2048
2013/05/27,2048,2048,1953,1975,12700,1975
2013/05/28,1960,1960,1880,1880,18400,1880
2013/05/29,1925,1927,1900,1901,57600,1901
2013/05/30,1895,1899,1870,1880,3900,1880
2013/05/31,1880,1904,1864,1904,48000,1904
2013/06/03,1865,1880,1855,1879,3800,1879
2013/06/04,1855,1875,1801,1875,13300,1875
2013/06/05,1875,1900,1860,1880,4600,1880
2013/06/06,1822,1905,1820,1874,14100,1874
2013/06/07,1845,1871,1780,1780,31600,1780
2013/06/10,1820,1835,1800,1821,10500,1821
2013/06/11,1826,1895,1826,1867,11300,1867
2013/06/12,1837,1863,1829,1834,14300,1834
2013/06/13,1834,1834,1796,1800,12900,1800
2013/06/14,1845,1986,1794,1855,28800,1855
2013/06/17,1855,1855,1821,1855,9600,1855
2013/06/18,1888,1897,1826,1890,11300,1890
2013/06/19,1900,1979,1900,1979,20500,1979
2013/06/20,1950,1950,1857,1872,35000,1872
2013/06/21,1816,1816,1780,1804,23100,1804
2013/06/24,1804,1810,1748,1752,30500,1752
2013/06/25,1708,1715,1694,1696,23700,1696
2013/06/26,1692,1704,1610,1629,30500,1629
2013/06/27,1661,1686,1635,1658,26100,1658
2013/06/28,1658,1698,1656,1686,28400,1686
2013/07/01,1690,1736,1686,1736,11000,1736
2013/07/02,1741,1800,1741,1800,10300,1800
2013/07/03,1827,1827,1795,1813,15100,1813
2013/07/04,1816,1839,1811,1837,10200,1837
2013/07/05,1850,1890,1848,1884,22800,1884
2013/07/08,1910,1913,1884,1899,7400,1899
2013/07/09,1899,1928,1899,1909,8400,1909
2013/07/10,1909,1913,1852,1852,6800,1852
2013/07/11,1854,1870,1853,1870,7700,1870
2013/07/12,1849,1854,1811,1818,17700,1818
2013/07/16,1818,1835,1818,1828,7900,1828
2013/07/17,1857,1857,1835,1840,1800,1840
2013/07/18,1860,1860,1831,1839,6000,1839
2013/07/19,1860,1871,1830,1837,4700,1837
2013/07/22,1856,1870,1841,1864,5000,1864
2013/07/23,1845,1850,1845,1850,1200,1850
2013/07/24,1875,1899,1856,1897,3800,1897
2013/07/25,1890,1890,1870,1890,2700,1890
2013/07/26,1890,1890,1862,1882,1900,1882
2013/07/29,1882,1904,1865,1881,18200,1881
2013/07/30,1858,1919,1858,1914,4400,1914
2013/07/31,1888,1920,1850,1858,3200,1858
2013/08/01,1872,1875,1850,1861,6600,1861
2013/08/02,1881,1889,1865,1876,1200,1876
2013/08/05,1886,1886,1829,1845,12000,1845
2013/08/06,1849,1849,1830,1848,3200,1848
2013/08/07,1818,1898,1811,1811,12700,1811
2013/08/08,1821,1821,1805,1805,600,1805
2013/08/09,1806,1807,1777,1777,9700,1777
2013/08/12,1697,1717,1654,1684,17100,1684
2013/08/13,1684,1715,1680,1702,3500,1702
2013/08/14,1713,1840,1706,1742,13100,1742
2013/08/15,1724,1749,1665,1672,16100,1672
2013/08/16,1671,1677,1664,1665,3700,1665
2013/08/19,1657,1658,1600,1626,14800,1626
2013/08/20,1618,1643,1618,1618,4800,1618
2013/08/21,1626,1626,1611,1614,3800,1614
2013/08/22,1614,1616,1580,1586,8400,1586
2013/08/23,1625,1640,1603,1609,7000,1609
2013/08/26,1638,1638,1610,1614,2700,1614
2013/08/27,1614,1619,1609,1614,1500,1614
2013/08/28,1614,1614,1581,1585,4000,1585
2013/08/29,1600,1608,1501,1536,10900,1536
2013/08/30,1536,1541,1521,1531,2700,1531
2013/09/02,1531,1547,1531,1547,500,1547
2013/09/03,1557,1557,1509,1510,26100,1510
2013/09/04,1525,1525,1506,1510,23200,1510
2013/09/05,1518,1520,1507,1509,8000,1509
2013/09/06,1509,1517,1485,1487,13600,1487
2013/09/09,1500,1509,1492,1499,10700,1499
2013/09/10,1524,1524,1501,1509,9500,1509
2013/09/11,1515,1526,1510,1511,32000,1511
2013/09/12,1520,1524,1515,1524,3900,1524
2013/09/13,1524,1530,1513,1518,17500,1518
2013/09/17,1519,1532,1516,1520,14200,1520
2013/09/18,1520,1521,1514,1516,10500,1516
2013/09/19,1518,1521,1510,1514,27800,1514
2013/09/20,1516,1531,1516,1520,14400,1520
2013/09/24,1534,1536,1528,1530,6200,1530
2013/09/25,1531,1534,1510,1517,18900,1517
2013/09/26,1514,1514,1496,1498,7800,1498
2013/09/27,1528,1528,1511,1518,5500,1518
2013/09/30,1511,1519,1507,1508,7300,1508
2013/10/01,1510,1518,1504,1507,7800,1507
2013/10/02,1507,1520,1505,1505,6400,1505
2013/10/03,1504,1515,1472,1472,33900,1472
2013/10/04,1462,1472,1457,1468,3100,1468
2013/10/07,1468,1471,1461,1465,2200,1465
2013/10/08,1460,1460,1395,1395,90800,1395
2013/10/09,1397,1397,1384,1391,38800,1391
2013/10/10,1405,1449,1404,1447,16600,1447
2013/10/11,1455,1492,1455,1492,17400,1492
2013/10/15,1499,1499,1467,1470,22000,1470
2013/10/16,1460,1474,1439,1474,9400,1474
2013/10/17,1486,1488,1470,1477,15400,1477
2013/10/18,1477,1485,1460,1460,6300,1460
2013/10/21,1460,1473,1460,1472,8300,1472
2013/10/22,1472,1478,1445,1460,24600,1460
2013/10/23,1460,1465,1460,1460,8100,1460
2013/10/24,1483,1483,1450,1452,7900,1452
2013/10/25,1460,1460,1427,1430,19800,1430
2013/10/28,1459,1459,1431,1442,3900,1442
2013/10/29,1442,1442,1404,1429,14400,1429
2013/10/30,1429,1431,1393,1394,49000,1394
2013/10/31,1400,1412,1395,1403,15500,1403
2013/11/01,1410,1417,1406,1407,6100,1407
2013/11/05,1412,1437,1412,1435,6900,1435
2013/11/06,1435,1437,1435,1436,7600,1436
2013/11/07,1435,1438,1435,1435,11000,1435
2013/11/08,1435,1437,1435,1436,12900,1436
2013/11/11,1436,1448,1427,1428,25700,1428
2013/11/12,1441,1456,1439,1450,13000,1450
2013/11/13,1442,1461,1442,1451,10700,1451
2013/11/14,1455,1464,1455,1456,19500,1456
2013/11/15,1455,1461,1455,1456,32300,1456
2013/11/18,1457,1459,1455,1455,13700,1455
2013/11/19,1455,1455,1437,1438,6600,1438
2013/11/20,1437,1440,1436,1440,4600,1440
2013/11/21,1441,1459,1441,1449,11700,1449
2013/11/22,1459,1459,1445,1445,5700,1445
2013/11/25,1450,1458,1450,1454,4200,1454
2013/11/26,1456,1465,1456,1462,14700,1462
2013/11/27,1458,1460,1455,1455,22500,1455
2013/11/28,1455,1458,1455,1455,19900,1455
2013/11/29,1459,1459,1455,1455,13000,1455
2013/12/02,1455,1459,1455,1456,16700,1456
2013/12/03,1457,1469,1457,1469,12700,1469
2013/12/04,1468,1480,1466,1480,11900,1480
2013/12/05,1500,1500,1480,1480,40400,1480
2013/12/06,1470,1472,1457,1460,16500,1460
2013/12/09,1475,1479,1472,1474,8000,1474
2013/12/10,1478,1490,1477,1488,12400,1488
2013/12/11,1495,1499,1492,1492,9400,1492
2013/12/12,1500,1504,1493,1500,16200,1500
2013/12/13,1515,1515,1495,1496,16300,1496
2013/12/16,1500,1503,1474,1474,9800,1474
2013/12/17,1475,1499,1475,1492,4400,1492
2013/12/18,1493,1505,1492,1497,9900,1497
2013/12/19,1500,1501,1497,1498,9800,1498
2013/12/20,1505,1507,1504,1505,15600,1505
2013/12/24,1510,1518,1497,1516,56600,1516
2013/12/25,1516,1526,1515,1522,8200,1522
2013/12/26,1523,1538,1523,1533,7400,1533
2013/12/27,1535,1558,1535,1558,16800,1558
2013/12/30,1565,1598,1558,1590,17800,1590
2014/01/06,1588,1590,1566,1575,12700,1575
2014/01/07,1586,1596,1571,1578,19700,1578
2014/01/08,1590,1596,1580,1590,52500,1590
2014/01/09,1596,1638,1596,1637,33500,1637
2014/01/10,1637,1685,1637,1682,26500,1682
2014/01/14,1682,1690,1663,1677,31700,1677
2014/01/15,1700,1700,1661,1700,22800,1700
2014/01/16,1699,1699,1660,1674,5500,1674
2014/01/17,1683,1683,1663,1663,1700,1663
2014/01/20,1665,1675,1663,1670,4200,1670
2014/01/21,1669,1672,1664,1666,9600,1666
2014/01/22,1667,1683,1661,1683,9000,1683
2014/01/23,1683,1699,1677,1677,10100,1677
2014/01/24,1660,1660,1624,1634,11000,1634
2014/01/27,1554,1599,1554,1570,10400,1570
2014/01/28,1570,1598,1570,1598,5200,1598
2014/01/29,1606,1642,1606,1639,9200,1639
2014/01/30,1628,1628,1597,1601,5100,1601
2014/01/31,1601,1601,1574,1575,5700,1575
2014/02/03,1556,1572,1505,1525,5900,1525
2014/02/04,1500,1511,1476,1510,22900,1510
2014/02/05,1514,1519,1502,1510,5500,1510
2014/02/06,1500,1530,1487,1490,11900,1490
2014/02/07,1505,1510,1489,1505,9500,1505
2014/02/10,1511,1534,1511,1521,5500,1521
2014/02/12,1525,1537,1521,1537,10000,1537
2014/02/13,1537,1540,1530,1540,6500,1540
2014/02/14,1536,1547,1501,1523,19800,1523
2014/02/17,1508,1519,1500,1506,10300,1506
2014/02/18,1503,1520,1500,1520,6200,1520
2014/02/19,1503,1540,1503,1517,6200,1517
2014/02/20,1510,1525,1510,1516,5500,1516
2014/02/21,1511,1522,1510,1515,9900,1515
2014/02/24,1510,1520,1509,1512,7000,1512
2014/02/25,1511,1516,1502,1504,19200,1504
2014/02/26,1500,1500,1486,1491,7700,1491
2014/02/27,1490,1495,1469,1483,8700,1483
2014/02/28,1481,1485,1470,1470,8700,1470
2014/03/03,1467,1474,1466,1466,4500,1466
2014/03/04,1465,1471,1456,1458,5900,1458
2014/03/05,1464,1470,1461,1469,4700,1469
2014/03/06,1460,1475,1455,1474,3200,1474
2014/03/07,1470,1477,1467,1470,3200,1470
2014/03/10,1473,1480,1472,1475,2600,1475
2014/03/11,1476,1499,1466,1495,4700,1495
2014/03/12,1492,1492,1488,1488,1600,1488
2014/03/13,1500,1517,1494,1517,10900,1517
2014/03/14,1526,1533,1495,1506,10600,1506
2014/03/17,1495,1517,1490,1503,4500,1503
2014/03/18,1510,1515,1510,1514,5300,1514
2014/03/19,1500,1524,1498,1514,7200,1514
2014/03/20,1501,1520,1498,1511,5100,1511
2014/03/24,1505,1517,1480,1517,9500,1517
2014/03/25,1500,1509,1482,1507,4700,1507
2014/03/26,1491,1513,1491,1510,11200,1510
2014/03/27,1475,1517,1475,1517,3600,1517
2014/03/28,1477,1496,1466,1486,8800,1486
2014/03/31,1516,1520,1503,1520,3500,1520
2014/04/01,1510,1530,1510,1526,2600,1526
2014/04/02,1530,1550,1530,1549,5000,1549
2014/04/03,1555,1556,1534,1556,8100,1556
2014/04/04,1555,1559,1544,1551,9000,1551
2014/04/07,1521,1540,1520,1531,4100,1531
2014/04/08,1515,1530,1513,1525,4900,1525
2014/04/09,1515,1530,1507,1514,10500,1514
2014/04/10,1515,1529,1507,1519,4400,1519
2014/04/11,1492,1514,1477,1514,7100,1514
2014/04/14,1516,1528,1496,1527,7400,1527
2014/04/15,1567,1567,1497,1508,9600,1508
2014/04/16,1493,1513,1490,1497,7900,1497
2014/04/17,1497,1551,1493,1548,7200,1548
2014/04/18,1521,1547,1518,1530,2800,1530
2014/04/21,1514,1555,1512,1554,5900,1554
2014/04/22,1522,1529,1520,1520,5200,1520
2014/04/23,1535,1550,1535,1535,7200,1535
2014/04/24,1548,1548,1533,1539,1400,1539
2014/04/25,1524,1533,1509,1522,4400,1522
2014/04/28,1505,1515,1500,1505,4300,1505
2014/04/30,1510,1517,1505,1517,3400,1517
2014/05/01,1507,1525,1505,1520,4800,1520
2014/05/02,1519,1523,1506,1510,3200,1510
2014/05/07,1500,1519,1498,1510,3600,1510
2014/05/08,1516,1520,1501,1520,8100,1520
2014/05/09,1505,1516,1497,1510,6800,1510
2014/05/12,1515,1620,1515,1597,24400,1597
2014/05/13,1596,1635,1562,1622,19500,1622
2014/05/14,1610,1646,1580,1634,9900,1634
2014/05/15,1634,1634,1574,1599,7100,1599
2014/05/16,1575,1595,1573,1594,2700,1594
2014/05/19,1561,1598,1552,1595,7600,1595
2014/05/20,1594,1595,1525,1580,4300,1580
2014/05/21,1560,1600,1555,1600,5600,1600
2014/05/22,1581,1597,1565,1583,3800,1583
2014/05/23,1571,1600,1566,1593,4000,1593
2014/05/26,1600,1603,1590,1593,1000,1593
2014/05/27,1595,1604,1587,1595,2500,1595
2014/05/28,1585,1604,1580,1600,3900,1600
2014/05/29,1599,1604,1582,1603,2300,1603
2014/05/30,1603,1609,1585,1608,5000,1608
2014/06/02,1608,1624,1608,1620,5900,1620
2014/06/03,1613,1653,1596,1653,16900,1653
2014/06/04,1653,1653,1624,1635,12300,1635
2014/06/05,1635,1635,1618,1633,6400,1633
2014/06/06,1619,1634,1616,1619,7100,1619
2014/06/09,1617,1630,1613,1622,4800,1622
2014/06/10,1617,1628,1616,1626,6200,1626
2014/06/11,1622,1643,1622,1643,9000,1643
2014/06/12,1633,1641,1633,1641,6600,1641
2014/06/13,1631,1639,1625,1635,9000,1635
2014/06/16,1650,1665,1631,1658,7800,1658
2014/06/17,1658,1658,1650,1652,2100,1652
2014/06/18,1653,1712,1650,1712,20400,1712
2014/06/19,1712,1718,1700,1715,8500,1715
2014/06/20,1715,1729,1688,1725,9500,1725
2014/06/23,1720,1725,1681,1681,6300,1681
2014/06/24,1667,1670,1649,1665,5400,1665
2014/06/25,1660,1677,1659,1667,6500,1667
2014/06/26,1662,1682,1662,1678,5300,1678
2014/06/27,1672,1697,1672,1679,4100,1679
2014/06/30,1679,1690,1679,1680,2800,1680
2014/07/01,1679,1729,1679,1729,9400,1729
2014/07/02,1744,1757,1730,1755,9600,1755
2014/07/03,1760,1761,1732,1755,18600,1755
2014/07/04,1795,1795,1780,1781,24000,1781
2014/07/07,1790,1797,1789,1793,4400,1793
2014/07/08,1785,1792,1770,1791,4900,1791
2014/07/09,1765,1773,1748,1760,11700,1760
2014/07/10,1746,1746,1735,1735,3800,1735
2014/07/11,1718,1739,1706,1739,7000,1739
2014/07/14,1749,1773,1740,1773,6400,1773
2014/07/15,1785,1785,1765,1775,13500,1775
2014/07/16,1775,1777,1761,1777,4500,1777
2014/07/17,1777,1777,1765,1775,3200,1775
2014/07/18,1770,1770,1751,1762,2100,1762
2014/07/22,1733,1759,1731,1746,4100,1746
2014/07/23,1747,1759,1747,1750,3300,1750
2014/07/24,1752,1785,1747,1785,8400,1785
2014/07/25,1785,1810,1780,1806,10100,1806
2014/07/28,1801,1810,1721,1787,30800,1787
2014/07/29,1777,1796,1726,1789,12900,1789
2014/07/30,1775,1796,1766,1772,3300,1772
2014/07/31,1768,1783,1757,1779,4600,1779
2014/08/01,1756,1770,1756,1759,3500,1759
2014/08/04,1750,1773,1711,1773,6200,1773
2014/08/05,1759,1759,1740,1759,8800,1759
2014/08/06,1741,1741,1713,1725,8900,1725
2014/08/07,1713,1721,1713,1720,3900,1720
2014/08/08,1710,1710,1677,1700,5900,1700
2014/08/11,1680,1700,1633,1663,14900,1663
2014/08/12,1657,1669,1657,1659,4200,1659
2014/08/13,1653,1682,1647,1678,6400,1678
2014/08/14,1680,1690,1671,1673,6700,1673
2014/08/15,1680,1681,1670,1681,8000,1681
2014/08/18,1680,1700,1673,1690,4300,1690
2014/08/19,1686,1712,1686,1711,3000,1711
2014/08/20,1708,1713,1700,1702,5200,1702
2014/08/21,1689,1702,1689,1697,5200,1697
2014/08/22,1695,1713,1695,1710,4700,1710
2014/08/25,1713,1746,1713,1746,5400,1746
2014/08/26,1747,1765,1688,1723,5500,1723
2014/08/27,1715,1715,1688,1705,3400,1705
2014/08/28,1695,1705,1690,1705,2000,1705
2014/08/29,1700,1700,1689,1691,2500,1691
2014/09/01,1698,1708,1693,1696,3700,1696
2014/09/02,1697,1703,1695,1703,3600,1703
2014/09/03,1700,1705,1699,1705,7800,1705
2014/09/04,1700,1701,1700,1701,5600,1701
2014/09/05,1699,1700,1690,1697,3900,1697
2014/09/08,1693,1700,1690,1693,2900,1693
2014/09/09,1700,1700,1692,1692,1200,1692
2014/09/10,1685,1692,1684,1690,6600,1690
2014/09/11,1700,1717,1692,1717,6400,1717
2014/09/12,1702,1713,1695,1709,11600,1709
2014/09/16,1691,1706,1690,1700,4300,1700
2014/09/17,1700,1704,1695,1700,6100,1700
2014/09/18,1700,1703,1700,1700,3900,1700
2014/09/19,1710,1714,1705,1711,15300,1711
2014/09/22,1716,1724,1712,1724,6600,1724
2014/09/24,1730,1774,1730,1774,6800,1774
2014/09/25,1766,1766,1740,1744,4900,1744
2014/09/26,1730,1735,1721,1735,18200,1735
2014/09/29,1735,1741,1721,1729,10900,1729
2014/09/30,1741,1750,1727,1742,5300,1742
2014/10/01,1744,1744,1726,1732,3800,1732
2014/10/02,1727,1727,1715,1715,1800,1715
2014/10/03,1710,1716,1694,1716,4100,1716
2014/10/06,1715,1730,1715,1730,3800,1730
2014/10/07,1728,1750,1728,1742,9100,1742
2014/10/08,1732,1736,1721,1735,2300,1735
2014/10/09,1745,1747,1725,1735,21100,1735
2014/10/10,1726,1739,1716,1736,6300,1736
2014/10/14,1720,1720,1690,1702,5500,1702
2014/10/15,1687,1695,1665,1695,11200,1695
2014/10/16,1655,1676,1601,1621,7000,1621
2014/10/17,1612,1621,1565,1570,13600,1570
2014/10/20,1556,1570,1470,1512,12100,1512
2014/10/21,1512,1544,1510,1514,12500,1514
2014/10/22,1517,1520,1504,1511,6800,1511
2014/10/23,1503,1514,1503,1508,15600,1508
2014/10/24,1509,1519,1505,1510,5700,1510
2014/10/27,1502,1510,1502,1506,7300,1506
2014/10/28,1502,1507,1497,1497,9500,1497
2014/10/29,1494,1510,1494,1510,8800,1510
2014/10/30,1503,1508,1495,1495,11300,1495
2014/10/31,1500,1513,1500,1506,5300,1506
2014/11/04,1527,1550,1520,1520,9000,1520
2014/11/05,1544,1544,1507,1510,9000,1510
2014/11/06,1528,1533,1515,1523,7300,1523
2014/11/07,1523,1568,1523,1560,6500,1560
2014/11/10,1559,1561,1546,1560,8600,1560
2014/11/11,1561,1570,1561,1565,3100,1565
2014/11/12,1577,1587,1567,1575,3800,1575
2014/11/13,1583,1583,1571,1574,2600,1574
2014/11/14,1575,1578,1562,1570,10500,1570
2014/11/17,1570,1571,1535,1536,9200,1536
2014/11/18,1537,1560,1537,1560,2900,1560
2014/11/19,1557,1557,1545,1545,2800,1545
2014/11/20,1545,1545,1520,1521,22200,1521
2014/11/21,1524,1532,1521,1529,3700,1529
2014/11/25,1525,1539,1525,1525,1100,1525
2014/11/26,1523,1528,1521,1521,3600,1521
2014/11/27,1520,1531,1520,1526,2500,1526
2014/11/28,1521,1537,1521,1537,3500,1537
2014/12/01,1536,1543,1535,1535,1300,1535
2014/12/02,1539,1550,1533,1550,4900,1550
2014/12/03,1555,1560,1550,1553,4500,1553
2014/12/04,1554,1583,1554,1583,10800,1583
2014/12/05,1585,1592,1583,1587,19500,1587
2014/12/08,1589,1595,1589,1590,4900,1590
2014/12/09,1551,1566,1551,1566,2900,1566
2014/12/10,1551,1566,1551,1556,2200,1556
2014/12/11,1550,1552,1537,1552,4700,1552
2014/12/12,1574,1574,1560,1569,3800,1569
2014/12/15,1569,1569,1555,1562,8800,1562
2014/12/16,1562,1563,1550,1550,8400,1550
2014/12/17,1550,1569,1540,1550,1900,1550
2014/12/18,1553,1570,1548,1550,2500,1550
2014/12/19,1561,1580,1550,1555,5100,1555
2014/12/22,1551,1563,1541,1560,10000,1560
2014/12/24,1554,1561,1554,1561,2600,1561
2014/12/25,1556,1568,1553,1568,3700,1568
2014/12/26,1558,1568,1558,1560,1100,1560
2014/12/29,1561,1583,1561,1583,4000,1583
2014/12/30,1580,1585,1580,1585,2900,1585
2015/01/05,1584,1584,1571,1584,2500,1584
2015/01/06,1571,1580,1571,1575,3000,1575
2015/01/07,1575,1609,1575,1609,5500,1609
2015/01/08,1607,1620,1600,1615,9900,1615
2015/01/09,1622,1623,1612,1617,5600,1617
2015/01/13,1616,1617,1610,1611,2300,1611
2015/01/14,1611,1626,1611,1626,5400,1626
2015/01/15,1655,1700,1650,1700,22900,1700
2015/01/16,1660,1674,1650,1655,3200,1655
2015/01/19,1660,1670,1660,1670,900,1670
2015/01/20,1660,1662,1659,1662,1300,1662
2015/01/21,1646,1656,1646,1650,1000,1650
2015/01/22,1632,1645,1632,1645,1000,1645
2015/01/23,1632,1647,1632,1635,1900,1635
2015/01/26,1635,1635,1621,1630,1700,1630
2015/01/27,1630,1649,1623,1635,1000,1635
2015/01/28,1620,1621,1607,1618,4600,1618
2015/01/29,1616,1637,1610,1610,3000,1610
2015/01/30,1610,1610,1605,1605,1400,1605
2015/02/02,1603,1609,1603,1609,500,1609
2015/02/03,1610,1618,1610,1611,1200,1611
2015/02/04,1612,1617,1612,1617,1100,1617
2015/02/05,1617,1624,1617,1618,1100,1618
2015/02/06,1628,1628,1618,1620,2400,1620
2015/02/09,1620,1622,1620,1620,3600,1620
2015/02/10,1617,1627,1613,1627,2400,1627
2015/02/12,1649,1649,1632,1646,4900,1646
2015/02/13,1640,1640,1629,1630,6100,1630
2015/02/16,1629,1635,1628,1633,4200,1633
2015/02/17,1633,1640,1631,1640,3200,1640
2015/02/18,1640,1686,1640,1650,16700,1650
2015/02/19,1666,1668,1657,1660,2800,1660
2015/02/20,1650,1656,1650,1656,2600,1656
2015/02/23,1665,1689,1657,1670,2200,1670
2015/02/24,1670,1680,1662,1670,1600,1670
2015/02/25,1690,1705,1677,1704,14300,1704
2015/02/26,1685,1708,1685,1700,1900,1700
2015/02/27,1700,1706,1699,1703,3800,1703
2015/03/02,1719,1724,1719,1722,3800,1722
2015/03/03,1722,1722,1705,1714,3000,1714
2015/03/04,1709,1712,1686,1709,4200,1709
2015/03/05,1709,1710,1708,1710,1600,1710
2015/03/06,1694,1709,1690,1690,4400,1690
2015/03/09,1690,1695,1687,1688,3500,1688
2015/03/10,1689,1695,1689,1690,1400,1690
2015/03/11,1681,1690,1675,1676,5100,1676
2015/03/12,1676,1690,1674,1679,6600,1679
2015/03/13,1663,1678,1661,1670,15000,1670
2015/03/16,1690,1690,1663,1685,8300,1685
2015/03/17,1683,1686,1675,1676,5100,1676
2015/03/18,1676,1679,1666,1674,4900,1674
2015/03/19,1675,1678,1670,1678,10000,1678
2015/03/20,1684,1684,1675,1675,4500,1675
2015/03/23,1688,1688,1668,1675,5300,1675
2015/03/24,1675,1675,1663,1663,10200,1663
2015/03/25,1668,1680,1667,1670,10300,1670
2015/03/26,1678,1678,1664,1664,4300,1664
2015/03/27,1627,1664,1627,1637,8500,1637
2015/03/30,1665,1665,1631,1635,7400,1635
2015/03/31,1635,1646,1635,1638,2700,1638
2015/04/01,1645,1645,1630,1631,11100,1631
2015/04/02,1632,1658,1632,1658,9800,1658
2015/04/03,1657,1664,1657,1660,4000,1660
2015/04/06,1662,1663,1655,1661,1000,1661
2015/04/07,1664,1677,1663,1677,1900,1677
2015/04/08,1680,1680,1664,1669,3000,1669
2015/04/09,1675,1675,1659,1659,9200,1659
2015/04/10,1672,1678,1657,1673,3700,1673
2015/04/13,1675,1683,1672,1675,3100,1675
2015/04/14,1685,1685,1671,1675,5100,1675
2015/04/15,1670,1675,1670,1673,6400,1673
2015/04/16,1673,1679,1673,1674,1000,1674
2015/04/17,1680,1684,1675,1675,3300,1675
2015/04/20,1681,1688,1677,1677,7400,1677
2015/04/21,1687,1703,1683,1703,6500,1703
2015/04/22,1699,1710,1699,1710,5700,1710
2015/04/23,1715,1733,1715,1730,7200,1730
2015/04/24,1730,1731,1701,1705,5100,1705
2015/04/27,1705,1731,1705,1717,5700,1717
2015/04/28,1717,1732,1717,1727,3000,1727
2015/04/30,1735,1735,1724,1727,5200,1727
2015/05/01,1716,1717,1707,1710,4000,1710
2015/05/07,1710,1727,1688,1704,5900,1704
2015/05/08,1719,1719,1701,1711,4000,1711
2015/05/11,1699,1708,1685,1708,42600,1708
2015/05/12,1700,1708,1700,1706,2100,1706
2015/05/13,1705,1710,1700,1700,6000,1700
2015/05/14,1694,1700,1694,1700,3100,1700
2015/05/15,1702,1704,1690,1700,7900,1700
2015/05/18,1704,1704,1700,1700,4700,1700
2015/05/19,1719,1719,1699,1703,6800,1703
2015/05/20,1700,1720,1700,1710,8100,1710
2015/05/21,1722,1722,1713,1718,3400,1718
2015/05/22,1718,1718,1700,1708,1900,1708
2015/05/25,1708,1728,1704,1728,1500,1728
2015/05/26,1727,1727,1718,1727,7400,1727
2015/05/27,1728,1730,1710,1730,3100,1730
2015/05/28,1729,1732,1713,1718,4600,1718
2015/05/29,1718,1722,1700,1722,1100,1722
2015/06/01,1711,1728,1711,1728,3600,1728
2015/06/02,1728,1728,1720,1727,4100,1727
2015/06/03,1728,1735,1727,1735,6700,1735
2015/06/04,1735,1759,1725,1758,6800,1758
2015/06/05,1760,1779,1755,1778,6800,1778
2015/06/08,1770,1785,1770,1778,5700,1778
2015/06/09,1778,1780,1764,1768,2500,1768
2015/06/10,1774,1775,1770,1774,800,1774
2015/06/11,1770,1777,1770,1771,1300,1771
2015/06/12,1777,1789,1774,1775,13500,1775
2015/06/15,1775,1780,1768,1771,8800,1771
2015/06/16,1771,1784,1750,1755,9800,1755
2015/06/17,1750,1752,1740,1752,2300,1752
2015/06/18,1750,1777,1748,1760,3200,1760
2015/06/19,1766,1770,1761,1766,2700,1766
2015/06/22,1766,1779,1742,1765,5800,1765
2015/06/23,1766,1788,1766,1788,6000,1788
2015/06/24,1791,1870,1791,1870,23500,1870
2015/06/25,1878,1920,1878,1916,35400,1916
2015/06/26,1916,1924,1878,1905,20100,1905
2015/06/29,1845,1868,1843,1856,7900,1856
2015/06/30,1856,1889,1856,1875,4000,1875
2015/07/01,1880,1885,1869,1875,11900,1875
