2011/01/04,73899,74001,71601,71700,10,239
2011/01/05,72000,72000,72000,72000,2,240
2011/01/13,84699,89400,83499,89400,94,298
2011/01/17,93000,94800,93000,94500,82,315
2011/01/31,111000,114999,102999,112500,72,375
2011/02/07,99999,101001,98100,100500,71,335
2011/02/09,114000,114900,103500,111000,82,370
2011/02/10,110100,110100,105501,108300,22,361
2011/02/16,105099,108099,104199,108000,35,360
2011/02/18,105501,105999,105000,105000,14,350
2011/02/21,104499,104499,101499,101700,27,339
2011/03/03,100800,100800,100800,100800,1,336
2011/03/04,100800,101499,100800,101400,17,338
2011/03/08,100200,102000,99999,100200,51,334
2011/03/09,97299,99000,97299,99000,13,330
2011/03/11,96999,96999,92499,93000,78,310
2011/03/14,78000,79101,78000,78000,156,260
2011/03/28,80001,82500,79200,82500,24,275
2011/03/29,80001,82200,80001,82200,5,274
2011/03/30,82200,82200,80001,81000,15,270
2011/03/31,81399,81399,80199,81000,7,270
2011/04/01,81000,81000,81000,81000,4,270
2011/04/05,82500,83499,81999,82500,20,275
2011/04/06,82599,82599,81999,82500,26,275
2011/04/08,82599,82599,80100,81000,21,270
2011/04/14,98001,98001,90501,93300,101,311
2011/04/26,91500,91500,91500,91500,4,305
2011/04/27,92499,92499,91500,91500,6,305
2011/05/02,91401,92499,90900,92400,36,308
2011/05/13,91701,91701,90300,91500,21,305
2011/05/19,91800,91800,91500,91800,13,306
2011/05/24,92001,92400,91800,92400,8,308
2011/05/26,91800,91800,91200,91200,12,304
2011/06/03,89601,92799,89601,90300,132,301
2011/06/09,89001,89001,87600,88200,19,294
2011/06/10,88701,88701,87999,88500,18,295
2011/06/13,88500,90000,88500,89100,28,297
2011/06/16,93801,95100,90999,93000,34,310
2011/06/17,92799,93000,91800,93000,25,310
2011/07/05,114999,117900,110100,114300,331,381
2011/07/08,119001,120999,117099,120000,154,400
2011/07/15,118701,120201,115500,120000,179,400
2011/07/19,125001,135000,124800,132000,882,440
2011/07/20,135000,135999,125001,126900,694,423
2011/07/22,120600,121500,118599,120000,118,400
2011/07/25,120000,120801,117300,118500,99,395
2011/07/26,117699,118101,115200,117300,209,391
2011/08/02,114999,116001,114000,114000,28,380
2011/08/03,112599,115701,112599,113700,34,379
2011/08/08,107799,108201,105000,105000,100,350
2011/08/11,104001,106800,104001,106800,26,356
2011/08/16,114000,114900,113499,114900,23,383
2011/08/19,113001,113001,109701,112800,13,376
2011/08/22,114000,114000,111099,111300,43,371
2011/08/26,111999,112800,111099,112800,5,376
2011/08/29,110001,110700,110001,110700,6,369
2011/09/01,113499,114000,111999,114000,46,380
2011/09/06,116499,117999,115200,115200,34,384
2011/09/08,113400,114801,113400,114300,15,381
2011/09/09,114600,118101,114300,116700,26,389
2011/09/16,114999,116001,114999,115800,22,386
2011/09/20,115599,115599,114000,114000,7,380
2011/09/27,109200,110001,108201,109800,9,366
2011/09/28,111801,112500,110199,112500,11,375
2011/09/30,113700,114000,113700,114000,4,380
2011/10/04,117999,117999,114000,114000,20,380
2011/10/05,117000,117000,114000,114000,18,380
2011/10/06,114000,115500,111999,115500,51,385
2011/10/07,115500,115500,114099,115500,25,385
2011/10/11,115500,117801,114999,117000,30,390
2011/10/13,117201,118500,117201,118500,24,395
2011/10/18,118500,118500,115701,117000,48,390
2011/10/21,123501,123999,121101,123000,33,410
2011/10/24,123201,126399,123201,124500,65,415
2011/10/31,132000,133299,130200,131700,74,439
2011/11/07,126000,126000,123999,126000,36,420
2011/11/08,124500,126000,124500,126000,7,420
2011/11/09,128901,128901,126000,126900,42,423
2011/11/15,123999,125001,121800,121800,23,406
2011/11/16,121800,123999,121800,121800,14,406
2011/11/22,118701,120000,117600,120000,38,400
2011/11/28,39650,39950,39350,39700,62,397
2011/11/29,40700,40800,40000,40700,58,407
2011/12/02,41800,42300,41450,42300,91,423
2011/12/05,42400,42750,42000,42400,91,424
2011/12/07,42200,42500,41550,42500,110,425
2011/12/09,42350,42500,41800,42500,92,425
2011/12/13,43400,44200,43300,44200,162,442
2011/12/14,44200,44250,43000,44100,284,441
2011/12/16,43800,43800,42350,42400,93,424
2011/12/19,42200,42350,41500,41500,101,415
2011/12/20,41300,42500,41300,42500,54,425
2011/12/21,43450,43500,41950,43000,108,430
2011/12/22,43400,43400,42300,42600,202,426
2011/12/27,42150,42700,42100,42100,59,421
2011/12/28,42750,42900,42400,42800,31,428
2011/12/29,42300,43150,42200,43100,110,431
2011/12/30,43000,44300,42400,43800,253,438
2012/01/04,44400,45000,43700,44800,86,448
2012/01/05,44800,45500,44200,45300,112,453
2012/01/06,46000,46400,44950,45000,152,450
2012/01/10,44000,45800,42750,43600,488,436
2012/01/11,42900,43500,42650,43200,167,432
2012/01/16,43100,43250,42700,43200,60,432
2012/01/18,42000,42500,41650,42000,162,420
2012/01/19,42150,42350,41750,42200,46,422
2012/01/20,41950,42000,40300,42000,218,420
2012/01/26,41950,42300,40800,41200,77,412
2012/01/27,41050,41800,41000,41100,126,411
2012/01/30,41000,41300,40900,41300,53,413
2012/01/31,41050,41300,40900,41100,52,411
2012/02/03,41550,41700,40950,41500,158,415
2012/02/07,41050,42500,40950,41900,198,419
2012/02/08,41800,42300,41800,41800,103,418
2012/02/13,40850,41350,40800,40800,112,408
2012/02/14,41000,41000,40500,40900,154,409
2012/02/15,40550,40900,40200,40900,102,409
2012/02/16,41050,41650,40850,41600,153,416
2012/02/17,41600,41900,41600,41900,92,419
2012/02/21,42200,42500,41800,42200,50,422
2012/02/23,42500,42650,42000,42600,75,426
2012/02/24,42550,42600,42050,42100,131,421
2012/02/27,42600,42600,42100,42500,76,425
2012/02/28,42450,42450,41300,42000,93,420
2012/03/01,42000,42300,41800,41800,49,418
2012/03/02,42100,42200,41700,42200,53,422
2012/03/05,42150,42850,42150,42500,83,425
2012/03/06,42900,43650,42850,43300,273,433
2012/03/08,43950,44600,43500,44600,144,446
2012/03/12,45000,48600,45000,47900,511,479
2012/03/13,47750,47950,47000,47800,306,478
2012/03/14,47800,47800,47000,47600,233,476
2012/03/16,46950,46950,45000,45000,604,450
2012/03/19,45500,46900,45500,46500,378,465
2012/03/21,47400,53500,47400,50700,1938,507
2012/03/22,51500,54500,51000,51900,691,519
2012/03/23,52900,53400,51500,51800,285,518
2012/03/26,54500,61800,54100,61100,3756,611
2012/03/27,60000,63500,55100,59500,2172,595
2012/03/28,61900,69500,60400,69100,2635,691
2012/03/29,67100,73900,65000,69100,2223,691
2012/03/30,72100,73400,68000,69400,1078,694
2012/04/02,71100,71500,64400,67600,1382,676
2012/04/03,68600,68600,65100,66600,454,666
2012/04/04,66500,66500,63100,64300,576,643
2012/04/05,62300,66400,62000,66100,436,661
2012/04/06,65100,68600,64500,68200,434,682
2012/04/09,67300,72000,66700,68500,1008,685
2012/04/10,69500,69800,66300,67900,353,679
2012/04/11,64900,67300,64900,67300,308,673
2012/04/12,67100,72500,67000,72000,655,720
2012/04/13,72900,73000,69900,70400,546,704
2012/04/16,69800,69900,66300,67100,351,671
2012/04/17,66000,67500,66000,66100,124,661
2012/04/18,66900,68500,66500,68000,169,680
2012/04/19,66700,67200,65200,66200,229,662
2012/04/20,66200,66500,64800,65400,167,654
2012/04/23,65000,65200,63600,64000,121,640
2012/04/24,64000,64400,61500,64000,157,640
2012/04/25,64700,64900,62700,62800,139,628
2012/04/26,63000,63000,61600,62000,133,620
2012/04/27,61900,64000,61900,62300,102,623
2012/05/01,62300,62400,61000,62400,233,624
2012/05/02,62400,66000,62400,65900,327,659
2012/05/07,65200,65200,63500,64600,113,646
2012/05/08,65700,65900,63100,64200,129,642
2012/05/09,63700,63700,62000,63000,129,630
2012/05/10,63000,63400,62000,62900,57,629
2012/05/11,62900,63400,62400,63000,53,630
2012/05/14,61900,61900,55300,57900,330,579
2012/05/15,53200,54800,50600,54700,741,547
2012/05/16,53800,54300,52000,53400,236,534
2012/05/17,53900,55400,52800,55400,122,554
2012/05/18,53900,55700,53500,55000,244,550
2012/05/21,54100,54800,53900,54200,93,542
2012/05/22,54700,56700,54700,56200,59,562
2012/05/23,56600,56600,54500,54600,135,546
2012/05/24,54700,56800,54400,56200,80,562
2012/05/25,57400,61200,57100,59800,192,598
2012/05/28,58800,60900,57500,60000,154,600
2012/05/29,62000,63000,60900,61800,215,618
2012/05/30,62000,62600,61600,62600,124,626
2012/05/31,61100,63300,61000,63300,87,633
2012/06/01,62900,63000,60900,60900,129,609
2012/06/04,58000,58000,55000,56500,157,565
2012/06/05,56500,58600,56500,58000,72,580
2012/06/06,58000,59000,57500,59000,66,590
2012/06/07,59000,59200,58200,59000,69,590
2012/06/08,59000,59000,57600,57600,86,576
2012/06/11,58100,60000,58100,59600,70,596
2012/06/12,59600,60500,59600,60500,89,605
2012/06/13,60500,60800,59000,59900,53,599
2012/06/14,59900,59900,58100,59100,22,591
2012/06/15,59800,60000,56700,58100,87,581
2012/06/18,60500,60800,59600,59900,104,599
2012/06/19,59900,59900,59000,59100,66,591
2012/06/20,59600,59600,58800,59400,49,594
2012/06/21,59500,60300,59200,60000,91,600
2012/06/22,59000,60200,59000,60000,61,600
2012/06/25,60200,60200,58800,59200,107,592
2012/06/26,59200,59200,58500,59100,49,591
2012/06/27,59100,59600,58700,59600,91,596
2012/06/28,59600,60300,59200,59700,65,597
2012/06/29,60000,61600,60000,61600,175,616
2012/07/02,62500,62700,61500,62100,155,621
2012/07/03,61900,61900,60900,61900,100,619
2012/07/04,61900,61900,60400,61100,296,611
2012/07/05,60700,61900,60700,61400,38,614
2012/07/06,60700,61900,60200,60800,88,608
2012/07/09,61000,61300,59500,59500,91,595
2012/07/10,60000,60300,59600,60100,40,601
2012/07/11,60000,60300,59900,60200,40,602
2012/07/12,60100,60800,60000,60800,66,608
2012/07/13,60100,63400,60100,62400,216,624
2012/07/17,58500,58500,54000,54700,745,547
2012/07/18,54200,55000,52500,53700,234,537
2012/07/19,54100,55500,53500,55000,119,550
2012/07/20,55800,55800,53500,55000,75,550
2012/07/23,53500,54000,52300,52300,154,523
2012/07/24,51400,52300,50000,52300,213,523
2012/07/25,52300,52300,50100,50100,138,501
2012/07/26,50100,51000,49600,50900,107,509
2012/07/27,51500,51700,50700,51500,27,515
2012/07/30,51500,51800,50100,50200,82,502
2012/07/31,50800,50800,49100,50000,133,500
2012/08/01,49700,49700,47500,48800,481,488
2012/08/03,47450,47450,46000,46300,203,463
2012/08/13,47000,47200,46100,46800,106,468
2012/08/14,47450,48300,46900,48300,118,483
2012/08/22,48700,48750,48300,48400,48,484
2012/08/24,48900,49400,48700,49400,87,494
2012/08/27,49700,49700,49200,49600,26,496
2012/08/28,49050,49400,48900,49000,44,490
2012/08/29,48900,49300,48750,49000,32,490
2012/08/30,49000,49100,48650,49100,38,491
2012/08/31,49000,49300,48600,48600,113,486
2012/09/03,48950,49000,48600,49000,32,490
2012/09/04,49000,49100,48800,49000,63,490
2012/09/06,48600,48600,48250,48300,37,483
2012/09/07,48350,48500,47850,47900,75,479
2012/09/10,48050,48050,47700,48000,20,480
2012/09/11,48100,48100,47800,48100,22,481
2012/09/12,48300,48300,47700,48300,11,483
2012/09/13,48100,48300,47800,48200,33,482
2012/09/14,48100,48900,48100,48900,61,489
2012/09/18,49350,52000,49000,50200,270,502
2012/09/19,51800,51800,50700,51500,105,515
2012/09/20,51500,51700,50500,51000,57,510
2012/09/21,51000,51300,50500,51300,43,513
2012/09/24,51400,51400,50600,50900,75,509
2012/09/25,51900,51900,49850,50000,150,500
2012/09/26,49800,50300,49400,50000,53,500
2012/09/27,50000,51000,49600,51000,75,510
2012/09/28,50800,50800,50200,50200,46,502
2012/10/01,50400,50400,49900,49900,73,499
2012/10/02,49900,50700,49050,49400,135,494
2012/10/03,49450,50100,49450,50100,21,501
2012/10/04,50500,51300,50100,50800,101,508
2012/10/05,50800,51300,50700,51300,56,513
2012/10/09,51500,51500,50500,50700,149,507
2012/10/10,50600,51000,50300,51000,161,510
2012/10/11,51200,51300,50900,51300,45,513
2012/10/12,51300,52800,51200,52800,139,528
2012/10/15,52800,53000,51800,52400,95,524
2012/10/16,47000,47400,46000,46600,739,466
2012/10/19,47400,47600,47300,47600,114,476
2012/10/22,54600,54600,54600,54600,477,546
2012/10/23,53600,54400,51700,53000,946,530
2012/10/24,52000,52700,50600,52700,203,527
2012/10/25,51800,52400,51100,51500,101,515
2012/10/26,51300,52000,51200,51700,54,517
2012/10/29,51900,52000,51200,51900,161,519
2012/10/30,51900,52000,51400,51700,106,517
2012/10/31,51500,51700,50600,51700,167,517
2012/11/01,51100,51700,50700,51500,88,515
2012/11/02,51800,51900,51100,51900,64,519
2012/11/05,51900,52300,51600,52200,60,522
2012/11/06,52700,52700,51700,52000,56,520
2012/11/07,52900,53100,52000,52700,142,527
2012/11/08,53200,54600,52500,54600,305,546
2012/11/09,53900,54200,53500,54200,57,542
2012/11/12,54000,54000,51100,53800,219,538
2012/11/13,53100,55300,53100,54300,111,543
2012/11/14,54600,54600,53000,54500,82,545
2012/11/15,54200,54200,53400,53900,44,539
2012/11/16,53600,53700,52600,52700,112,527
2012/11/19,53000,53700,52500,53700,222,537
2012/11/20,53400,53700,52800,53400,94,534
2012/11/21,53500,53800,53100,53700,69,537
2012/11/22,53700,53700,53100,53400,92,534
2012/11/26,53700,53800,52900,53000,167,530
2012/11/27,53000,53500,52600,53500,198,535
2012/11/28,51700,52700,51500,52000,312,520
2012/11/29,52100,52700,51900,52700,93,527
2012/11/30,52500,52500,51900,52300,107,523
2012/12/03,52300,52300,51600,52100,97,521
2012/12/04,52100,52400,51900,52400,79,524
2012/12/05,52400,52400,51500,52200,110,522
2012/12/06,52000,52200,51700,52000,76,520
2012/12/07,51800,52000,51400,52000,97,520
2012/12/10,52000,52200,51600,52200,69,522
2012/12/11,51800,52000,51600,52000,22,520
2012/12/12,52100,52200,51700,52000,52,520
2012/12/13,52000,52000,51700,51800,53,518
2012/12/14,51900,52400,51900,52400,72,524
2012/12/17,52500,53300,52200,53100,204,531
2012/12/18,54100,54100,53300,53900,147,539
2012/12/19,54100,54400,53000,53000,285,530
2012/12/20,53500,53500,52200,52800,135,528
2012/12/21,52400,53200,52400,52800,54,528
2012/12/25,52800,53300,52700,52900,150,529
2012/12/26,52900,53200,52700,52900,61,529
2012/12/27,53100,53200,52400,53000,216,530
2012/12/28,52600,52900,52600,52900,72,529
2013/01/04,53000,53500,52900,53300,222,533
2013/01/07,53500,54500,53300,54000,257,540
2013/01/08,58000,59400,55500,56900,1402,569
2013/01/09,56900,57000,55600,57000,372,570
2013/01/10,57100,58900,57000,58900,437,589
2013/01/11,58500,59000,58000,59000,336,590
2013/01/15,59900,60600,59000,60500,466,605
2013/01/16,59500,59900,57100,58000,456,580
2013/01/17,58000,58500,56100,56500,192,565
2013/01/18,57000,58000,56700,57500,148,575
2013/01/21,58500,60100,58200,59300,255,593
2013/01/22,59400,60000,58400,58400,124,584
2013/01/23,58400,59000,58200,58300,81,583
2013/01/24,58300,58300,57400,57800,118,578
2013/01/25,58000,58700,57600,58700,134,587
2013/01/28,58500,58700,57800,58300,169,583
2013/01/29,58100,58500,57000,57700,188,577
2013/01/30,57500,58000,57000,58000,96,580
2013/01/31,57400,57600,57100,57600,41,576
2013/02/01,57600,58300,57500,58000,122,580
2013/02/04,58100,60500,58100,60500,509,605
2013/02/05,61400,67900,61100,65900,960,659
2013/02/06,64500,68000,64100,66000,820,660
2013/02/07,64700,64800,62100,64800,298,648
2013/02/08,63800,64200,62500,62600,183,626
2013/02/12,63700,63700,62800,63000,156,630
2013/02/13,62500,62500,60300,61000,244,610
2013/02/14,60000,60100,58000,59000,514,590
2013/02/15,58500,58900,56000,57000,270,570
2013/02/18,58100,59700,58000,59700,153,597
2013/02/19,60100,61500,59600,61200,155,612
2013/02/20,61500,62300,61000,62300,98,623
2013/02/21,62000,62300,60400,61400,134,614
2013/02/22,61100,62300,60800,61500,78,615
2013/02/25,62300,63000,61500,63000,215,630
2013/02/26,62900,63800,62200,62200,177,622
2013/02/27,62900,63500,62000,62300,128,623
2013/02/28,62600,64600,62600,64600,173,646
2013/03/01,65000,69000,65000,67700,565,677
2013/03/04,71000,72400,69000,71900,823,719
2013/03/05,72500,72800,70200,71900,306,719
2013/03/06,70700,72100,69500,72000,224,720
2013/03/07,72000,80000,72000,74900,1421,749
2013/03/08,75700,78000,74100,77300,539,773
2013/03/11,80000,81000,77600,79500,444,795
2013/03/12,79300,79300,72000,77000,448,770
2013/03/13,75500,76700,73200,74700,320,747
2013/03/14,74900,77700,74500,76300,132,763
2013/03/15,76400,77600,75000,77400,145,774
2013/03/18,77400,77700,76000,76200,240,762
2013/03/19,76200,77500,75600,76000,161,760
2013/03/21,76500,77500,75400,76500,193,765
2013/03/22,76300,77500,75400,76200,171,762
2013/03/25,76600,76900,74800,74800,310,748
2013/03/26,75000,75500,74300,75300,126,753
2013/03/27,75600,76500,74500,75100,128,751
2013/03/28,76100,76100,74700,75000,110,750
2013/03/29,75200,76400,74900,76100,109,761
2013/04/01,76100,77000,74500,76100,328,761
2013/04/02,74000,74000,68000,73000,455,730
2013/04/03,73200,73500,71000,73500,221,735
2013/04/04,74000,74000,70100,71300,335,713
2013/04/05,73200,73800,72000,73400,219,734
2013/04/08,73300,76500,73300,75200,149,752
2013/04/09,76500,76500,74200,75000,157,750
2013/04/10,74400,76500,74100,76000,215,760
2013/04/11,75600,78800,75600,78800,307,788
2013/04/12,79500,82900,79000,82900,529,829
2013/04/15,72900,74400,70200,73300,1388,733
2013/04/16,71800,74000,71100,72300,270,723
2013/04/17,73800,73800,72900,73300,169,733
2013/04/18,73300,74000,72900,73200,150,732
2013/04/19,73100,73300,72000,72900,141,729
2013/04/22,73500,74300,73200,73400,127,734
2013/04/23,74300,74500,73600,74000,118,740
2013/04/24,75000,75300,73900,74700,153,747
2013/04/25,74700,76500,74200,75900,333,759
2013/04/26,76500,76600,74700,75100,172,751
2013/04/30,75000,75900,74700,75700,179,757
2013/05/01,76900,78500,75700,78500,553,785
2013/05/02,87500,93500,86500,93500,2084,935
2013/05/07,88700,91700,87100,90300,2422,903
2013/05/08,91200,91200,87200,88500,832,885
2013/05/09,87700,88400,84900,85000,559,850
2013/05/10,85000,85500,83100,84500,221,845
2013/05/13,85500,86500,85000,85100,300,851
2013/05/14,84900,85000,82000,82300,305,823
2013/05/15,82700,82900,77600,79600,687,796
2013/05/16,79900,81000,76000,77800,719,778
2013/05/17,77800,83200,77000,83100,255,831
2013/05/20,83800,84900,83300,83500,257,835
2013/05/21,83600,83600,80900,81500,252,815
2013/05/22,80500,81600,80500,80600,127,806
2013/05/23,80300,81400,75400,76600,257,766
2013/05/24,76600,79000,75400,77100,332,771
2013/05/27,76500,76500,73500,75200,145,752
2013/05/28,73700,75200,73000,75000,218,750
2013/05/29,75100,76100,74600,75800,103,758
2013/05/30,75100,75100,71300,72300,165,723
2013/05/31,73100,73500,72500,73400,48,734
2013/06/03,71200,72700,70200,71000,239,710
2013/06/04,70000,70900,66100,69200,225,692
2013/06/05,69200,71500,68000,70100,167,701
2013/06/06,68900,69200,65100,65300,465,653
2013/06/07,61500,63000,61100,62600,303,626
2013/06/10,65000,67200,65000,67100,202,671
2013/06/11,67900,68300,66100,68200,84,682
2013/06/12,66900,68000,65200,68000,79,680
2013/06/13,67700,67700,64700,65600,80,656
2013/06/14,66100,66900,65000,65100,53,651
2013/06/17,65000,68400,65000,67500,162,675
2013/06/18,68500,69000,68500,68600,58,686
2013/06/19,69100,70000,67500,68800,58,688
2013/06/20,69800,69800,68200,68700,37,687
2013/06/21,68500,70000,67100,68600,216,686
2013/06/24,69000,70300,68700,68700,85,687
2013/06/25,70000,70000,67100,67100,91,671
2013/06/26,68700,68700,65400,65400,86,654
2013/06/27,65600,66300,64200,66200,77,662
2013/06/28,66200,68300,66200,67600,38,676
2013/07/01,68800,70800,68600,70300,62,703
2013/07/02,71900,72500,71000,72500,105,725
2013/07/03,73000,73600,72600,73600,123,736
2013/07/04,74000,74500,72800,74500,154,745
2013/07/05,76900,78500,76100,78300,381,783
2013/07/08,79000,79000,77000,78100,215,781
2013/07/09,78100,78100,76100,77000,64,770
2013/07/10,77600,78000,76300,77500,96,775
2013/07/11,77100,77100,75000,76500,43,765
2013/07/12,76100,77000,76100,77000,100,770
2013/07/16,75000,75000,70900,72900,254,729
2013/07/17,71800,74700,71300,71300,111,713
2013/07/18,71500,72400,71300,72400,74,724
2013/07/19,72700,72700,70800,71000,80,710
2013/07/22,70800,71300,70000,70300,68,703
2013/07/23,70300,70600,69000,69100,97,691
2013/07/24,69200,70900,69200,70900,36,709
2013/07/25,70400,71100,69200,69700,84,697
2013/07/26,69600,69600,68000,68400,152,684
2013/07/29,68400,68700,66500,67100,87,671
2013/07/30,67000,70000,67000,69000,77,690
2013/07/31,69800,69800,69000,69100,26,691
2013/08/01,69100,69100,68100,68700,21,687
2013/08/02,69100,69100,68300,69000,35,690
2013/08/05,69000,71800,68500,71800,111,718
2013/08/06,71800,71800,71000,71100,41,711
2013/08/07,71100,71700,71000,71200,37,712
2013/08/08,71400,71500,70100,70100,40,701
2013/08/09,70100,70200,69500,69500,16,695
2013/08/12,69800,70000,69000,69300,95,693
2013/08/13,69500,69600,68900,69100,160,691
2013/08/14,70000,70000,68600,68700,86,687
2013/08/15,68500,69000,68500,68600,13,686
2013/08/16,68200,70300,68200,70300,84,703
2013/08/19,70500,70500,70200,70200,11,702
2013/08/20,70800,70800,67300,67500,44,675
2013/08/21,67800,69000,67300,67800,63,678
2013/08/22,67600,68000,67500,68000,25,680
2013/08/23,68600,68700,67800,68600,32,686
2013/08/26,68400,69200,68000,68000,107,680
2013/08/27,68000,69500,67800,68000,70,680
2013/08/28,67400,69500,67300,67900,41,679
2013/08/29,67200,67200,66900,67000,27,670
2013/08/30,67000,67000,66600,67000,46,670
2013/09/02,67000,67000,66500,66500,62,665
2013/09/03,66700,68400,66700,68400,18,684
2013/09/04,68100,68100,67000,67000,13,670
2013/09/05,67800,68000,66900,66900,32,669
2013/09/06,67200,67500,66700,66700,34,667
2013/09/09,68000,68000,66700,67900,44,679
2013/09/10,67900,67900,66700,67300,95,673
2013/09/11,67300,67300,66500,67000,76,670
2013/09/12,67000,67500,66600,66600,79,666
2013/09/13,67000,67000,66000,67000,142,670
2013/09/17,67600,68100,67000,68000,106,680
2013/09/18,68800,69900,68500,69400,58,694
2013/09/19,69900,70200,69400,70200,99,702
2013/09/20,70200,70200,69700,70000,72,700
2013/09/24,70000,70200,69600,70200,42,702
2013/09/25,72400,72400,69700,69900,108,699
2013/09/26,69700,70500,69700,70500,32,705
2013/09/27,70800,72900,70800,72600,58,726
2013/09/30,72900,72900,71300,72100,54,721
2013/10/01,71600,72300,71500,71500,49,715
2013/10/02,71700,72800,70800,70900,164,709
2013/10/03,71800,71900,71000,71400,23,714
2013/10/04,70900,71200,70400,70600,24,706
2013/10/07,70600,71000,68000,68000,209,680
2013/10/08,66600,68400,66500,67900,96,679
2013/10/09,67900,68700,67700,67800,22,678
2013/10/10,69600,69600,68300,68300,39,683
2013/10/11,69600,70900,68400,70900,70,709
2013/10/15,70900,71200,70600,70600,36,706
2013/10/16,71500,72100,70900,71800,121,718
2013/10/17,71900,72200,71800,72000,45,720
2013/10/18,71500,72200,71500,72100,27,721
2013/10/21,73300,73800,73000,73800,190,738
2013/10/22,73800,75500,73800,74700,222,747
2013/10/23,75300,75300,73100,74300,103,743
2013/10/24,73600,75000,73600,74900,41,749
2013/10/25,74800,75100,74200,74300,56,743
2013/10/28,75200,75300,74600,75000,67,750
2013/10/29,75100,76000,75000,75900,98,759
2013/10/30,74300,75400,73400,73400,279,734
2013/10/31,73200,74000,72200,72200,106,722
2013/11/01,72200,73300,71600,72000,68,720
2013/11/05,71900,72800,71900,72200,66,722
2013/11/06,72200,73500,72200,73000,89,730
2013/11/07,73000,73300,72200,73000,50,730
2013/11/08,73400,73400,72800,72800,34,728
2013/11/11,73600,75100,73000,73600,184,736
2013/11/12,73700,75000,73000,74800,93,748
2013/11/13,74800,75000,73800,74600,49,746
2013/11/14,74200,74400,73500,74400,97,744
2013/11/15,74000,74000,73500,73800,49,738
2013/11/18,74200,74500,73900,74400,23,744
2013/11/19,74500,75000,73900,75000,115,750
2013/11/20,75000,75500,74700,74700,114,747
2013/11/21,74600,75200,74600,75100,84,751
2013/11/22,75200,75400,74700,75000,100,750
2013/11/25,75300,75300,74800,75000,112,750
2013/11/26,75900,75900,73600,75000,303,750
2013/11/27,720,725,708,724,18300,724
2013/11/28,719,724,716,717,17900,717
2013/11/29,715,719,706,711,13100,711
2013/12/02,706,716,704,705,16900,705
2013/12/03,706,717,705,716,9200,716
2013/12/04,713,720,707,720,20000,720
2013/12/05,716,716,704,707,6200,707
2013/12/06,706,711,700,703,14000,703
2013/12/09,699,706,698,701,11800,701
2013/12/10,701,703,685,687,15700,687
2013/12/11,696,713,696,710,12400,710
2013/12/12,709,724,700,724,30100,724
2013/12/13,723,724,702,712,15600,712
2013/12/16,712,712,690,695,15500,695
2013/12/17,686,700,672,695,21600,695
2013/12/18,695,695,680,687,3100,687
2013/12/19,685,690,680,680,8500,680
2013/12/20,680,685,673,685,11600,685
2013/12/24,690,690,671,671,9400,671
2013/12/25,661,679,661,674,41600,674
2013/12/26,679,700,675,700,10100,700
2013/12/27,700,700,685,700,10100,700
2013/12/30,691,708,691,700,7500,700
2014/01/06,712,712,700,710,4900,710
2014/01/07,712,714,710,714,2000,714
2014/01/08,711,714,708,714,4100,714
2014/01/09,708,708,683,699,17000,699
2014/01/10,694,710,691,695,21100,695
2014/01/14,707,707,692,693,7600,693
2014/01/15,698,700,690,698,4900,698
2014/01/16,692,699,692,695,900,695
2014/01/17,695,699,694,694,2600,694
2014/01/20,691,701,691,699,7100,699
2014/01/21,692,702,689,693,8300,693
2014/01/22,693,699,688,698,5200,698
2014/01/23,703,706,698,704,11800,704
2014/01/24,702,702,690,693,4300,693
2014/01/27,693,693,682,685,10500,685
2014/01/28,681,690,675,683,6500,683
2014/01/29,689,690,679,681,5700,681
2014/01/30,680,685,677,677,3300,677
2014/01/31,686,686,665,665,5400,665
2014/02/03,665,666,656,657,3900,657
2014/02/04,638,640,637,637,89500,637
2014/02/05,638,638,637,637,64200,637
2014/02/06,637,650,637,650,6700,650
2014/02/07,650,655,645,648,4500,648
2014/02/10,648,652,648,652,5700,652
2014/02/12,644,657,642,642,16300,642
2014/02/13,645,648,640,640,8500,640
2014/02/14,640,645,636,637,9200,637
2014/02/17,620,643,603,610,74800,610
2014/02/18,612,619,606,607,23100,607
2014/02/19,610,620,606,612,30500,612
2014/02/20,611,621,606,619,14600,619
2014/02/21,614,615,606,615,35000,615
2014/02/24,614,628,612,628,20700,628
2014/02/25,638,642,633,639,51000,639
2014/02/26,638,639,615,630,36200,630
2014/02/27,630,635,625,625,10900,625
2014/02/28,623,624,613,618,10200,618
2014/03/03,619,627,613,623,9100,623
2014/03/04,623,624,617,620,8800,620
2014/03/05,630,630,620,622,6900,622
2014/03/06,621,624,616,617,13300,617
2014/03/07,618,630,615,617,20800,617
2014/03/10,618,622,617,620,3800,620
2014/03/11,627,627,618,624,1600,624
2014/03/12,621,623,617,617,2400,617
2014/03/13,620,622,614,621,9600,621
2014/03/14,615,616,610,610,14500,610
2014/03/17,610,621,601,604,10300,604
2014/03/18,608,611,600,601,11900,601
2014/03/19,596,605,591,605,15200,605
2014/03/20,605,605,590,590,7300,590
2014/03/24,590,598,585,590,12000,590
2014/03/25,594,594,590,591,5800,591
2014/03/26,624,638,592,601,79500,601
2014/03/27,602,604,591,599,15400,599
2014/03/28,600,614,592,602,10200,602
2014/03/31,612,617,601,605,10700,605
2014/04/01,605,610,604,610,6900,610
2014/04/02,614,624,612,624,12000,624
2014/04/03,628,631,614,618,12800,618
2014/04/04,612,618,609,610,18100,610
2014/04/07,610,618,608,618,7800,618
2014/04/08,609,615,606,607,10300,607
2014/04/09,607,608,592,595,19200,595
2014/04/10,597,603,597,599,5700,599
2014/04/11,592,600,588,588,17700,588
2014/04/14,589,604,589,604,4600,604
2014/04/15,565,580,560,560,46800,560
2014/04/16,557,566,544,550,32400,550
2014/04/17,549,558,548,553,10400,553
2014/04/18,553,554,550,554,13200,554
2014/04/21,554,554,549,550,8400,550
2014/04/22,550,554,545,545,12400,545
2014/04/23,547,555,545,555,8800,555
2014/04/24,555,555,547,547,6400,547
2014/04/25,555,555,551,551,5500,551
2014/04/28,549,554,548,549,5100,549
2014/04/30,553,559,550,550,5500,550
2014/05/01,549,554,547,551,3600,551
2014/05/02,555,558,551,551,4900,551
2014/05/07,551,552,548,551,10800,551
2014/05/08,551,555,550,551,9500,551
2014/05/09,552,562,551,554,2500,554
2014/05/12,554,557,553,555,1700,555
2014/05/13,556,558,552,552,5500,552
2014/05/14,556,559,550,550,17400,550
2014/05/15,552,557,551,557,6100,557
2014/05/16,555,558,554,556,3500,556
2014/05/19,551,551,530,539,25400,539
2014/05/20,540,544,539,539,6900,539
2014/05/21,539,544,533,538,8700,538
2014/05/22,536,544,534,540,6700,540
2014/05/23,544,544,536,539,6000,539
2014/05/26,543,550,540,545,18100,545
2014/05/27,546,550,541,550,14300,550
2014/05/28,540,540,530,535,10500,535
2014/05/29,531,535,530,535,8100,535
2014/05/30,535,536,523,533,13400,533
2014/06/02,528,534,520,530,19900,530
2014/06/03,535,538,533,537,12700,537
2014/06/04,538,544,538,540,8800,540
2014/06/05,541,541,534,538,7200,538
2014/06/06,536,538,533,535,8500,535
2014/06/09,535,535,530,531,11000,531
2014/06/10,533,535,531,531,2500,531
2014/06/11,531,532,530,532,7100,532
2014/06/12,532,533,531,533,3400,533
2014/06/13,535,535,531,534,6600,534
2014/06/16,532,535,532,533,9400,533
2014/06/17,534,537,532,535,6500,535
2014/06/18,540,545,536,543,8600,543
2014/06/19,545,550,543,543,7100,543
2014/06/20,544,547,539,540,7700,540
2014/06/23,548,549,544,548,5000,548
2014/06/24,548,548,536,541,9500,541
2014/06/25,547,548,541,543,6700,543
2014/06/26,547,548,540,543,6300,543
2014/06/27,543,546,535,546,5700,546
2014/06/30,538,546,538,546,6000,546
2014/07/01,549,551,545,546,8100,546
2014/07/02,546,549,544,546,8400,546
2014/07/03,550,552,546,549,3100,549
2014/07/04,555,555,550,555,6300,555
2014/07/07,555,555,547,548,10500,548
2014/07/08,553,553,545,546,6500,546
2014/07/09,544,548,542,544,5300,544
2014/07/10,544,545,533,535,22100,535
2014/07/11,532,534,530,534,11000,534
2014/07/14,535,539,534,539,2000,539
2014/07/15,538,541,535,536,9400,536
2014/07/16,527,535,526,533,29200,533
2014/07/17,527,527,521,524,11800,524
2014/07/18,510,521,510,518,18400,518
2014/07/22,518,520,513,519,5100,519
2014/07/23,520,520,519,519,4100,519
2014/07/24,519,519,512,516,8400,516
2014/07/25,519,519,512,514,9900,514
2014/07/28,514,515,511,512,11000,512
2014/07/29,513,518,513,517,5100,517
2014/07/30,512,515,511,511,6700,511
2014/07/31,512,512,501,501,19700,501
2014/08/01,500,501,498,499,22000,499
2014/08/04,499,501,498,499,4700,499
2014/08/05,500,500,498,498,3000,498
2014/08/06,498,498,496,497,14300,497
2014/08/07,496,497,490,490,13100,490
2014/08/08,488,489,480,481,17300,481
2014/08/11,484,487,482,483,5900,483
2014/08/12,499,499,489,493,5100,493
2014/08/13,498,498,493,498,4600,498
2014/08/14,498,498,493,495,5500,495
2014/08/15,495,500,495,500,2400,500
2014/08/18,508,508,499,500,11500,500
2014/08/19,500,500,497,498,3700,498
2014/08/20,497,500,497,500,4500,500
2014/08/21,500,506,499,499,22600,499
2014/08/22,500,500,499,500,7700,500
2014/08/25,501,504,501,504,8000,504
2014/08/26,505,507,505,506,3900,506
2014/08/27,504,508,503,507,9000,507
2014/08/28,508,508,503,508,10600,508
2014/08/29,507,508,503,507,8100,507
2014/09/01,507,510,507,510,13500,510
2014/09/02,511,516,511,515,6700,515
2014/09/03,515,516,511,515,7300,515
2014/09/04,515,518,512,515,8300,515
2014/09/05,517,525,516,516,20700,516
2014/09/08,523,527,517,522,7600,522
2014/09/09,524,533,524,528,9300,528
2014/09/10,528,531,526,531,8800,531
2014/09/11,533,538,532,537,8500,537
2014/09/12,540,541,538,540,9400,540
2014/09/16,543,545,540,540,14700,540
2014/09/17,545,545,538,543,10900,543
2014/09/18,545,545,538,542,12500,542
2014/09/19,538,542,537,542,7300,542
2014/09/22,543,543,533,540,18000,540
2014/09/24,529,529,524,526,20100,526
2014/09/25,539,539,535,539,21800,539
2014/09/26,542,543,535,543,8300,543
2014/09/29,544,550,543,550,24700,550
2014/09/30,541,548,531,531,29600,531
2014/10/01,531,538,530,533,8100,533
2014/10/02,532,532,528,528,6900,528
2014/10/03,530,535,530,534,4500,534
2014/10/06,542,542,535,540,3200,540
2014/10/07,544,544,536,543,4200,543
2014/10/08,540,540,532,535,8100,535
2014/10/09,539,540,528,531,9800,531
2014/10/10,520,528,510,528,18300,528
2014/10/14,529,529,515,516,8600,516
2014/10/15,511,518,510,516,6300,516
2014/10/16,503,522,503,514,22100,514
2014/10/17,514,514,504,506,13300,506
2014/10/20,519,522,515,515,3300,515
2014/10/21,526,532,519,519,10000,519
2014/10/22,530,531,520,531,6800,531
2014/10/23,531,542,528,542,10300,542
2014/10/24,545,578,541,578,29400,578
2014/10/27,560,560,544,558,23600,558
2014/10/28,550,559,550,558,7400,558
2014/10/29,558,559,553,553,9800,553
2014/10/30,553,555,547,554,11200,554
2014/10/31,550,556,545,551,14300,551
2014/11/04,555,557,549,549,15900,549
2014/11/05,549,554,547,554,11600,554
2014/11/06,554,556,550,556,9700,556
2014/11/07,556,560,555,559,12100,559
2014/11/10,559,559,550,554,15600,554
2014/11/11,554,555,549,552,13700,552
2014/11/12,553,554,550,552,10400,552
2014/11/13,551,553,548,550,9000,550
2014/11/14,553,553,548,552,12700,552
2014/11/17,553,554,532,550,17700,550
2014/11/18,550,554,546,554,8300,554
2014/11/19,553,553,546,550,28000,550
2014/11/20,552,552,546,550,12600,550
2014/11/21,550,552,550,552,10500,552
2014/11/25,552,560,550,552,101700,552
2014/11/26,552,553,544,547,63500,547
2014/11/27,545,546,534,539,22000,539
2014/11/28,538,541,530,537,18000,537
2014/12/01,535,535,514,515,52400,515
2014/12/02,519,519,498,506,59300,506
2014/12/03,503,507,501,504,39700,504
2014/12/04,507,512,505,509,33100,509
2014/12/05,510,511,506,509,15400,509
2014/12/08,511,512,510,510,18900,510
2014/12/09,510,511,503,506,44800,506
2014/12/10,502,506,502,503,10600,503
2014/12/11,502,506,502,506,9800,506
2014/12/12,506,506,503,505,6600,505
2014/12/15,504,504,500,502,20500,502
2014/12/16,502,502,494,495,17800,495
2014/12/17,495,502,495,497,12700,497
2014/12/18,498,500,498,500,46700,500
2014/12/19,500,500,498,500,14000,500
2014/12/22,500,508,499,505,13300,505
2014/12/24,500,507,498,507,35600,507
2014/12/25,505,510,499,499,29300,499
2014/12/26,500,504,499,503,19900,503
2014/12/29,508,508,502,504,9900,504
2014/12/30,504,508,502,505,14400,505
2015/01/05,507,508,504,508,8200,508
2015/01/06,507,509,504,504,5500,504
2015/01/07,505,508,505,508,2300,508
2015/01/08,509,509,499,508,12100,508
2015/01/09,538,546,531,538,61700,538
2015/01/13,536,553,533,548,24900,548
2015/01/14,550,555,535,545,25300,545
2015/01/15,633,633,571,594,549600,594
2015/01/16,590,593,580,590,77000,590
2015/01/19,590,600,585,600,77700,600
2015/01/20,600,619,597,612,116000,612
2015/01/21,602,610,584,602,96400,602
2015/01/22,595,600,588,596,41800,596
2015/01/23,595,605,592,600,38300,600
2015/01/26,610,610,600,608,32000,608
2015/01/27,615,615,603,608,32600,608
2015/01/28,612,613,602,613,36700,613
2015/01/29,614,614,605,609,36000,609
2015/01/30,614,620,610,617,81800,617
2015/02/02,627,628,615,619,64300,619
2015/02/03,624,624,603,620,39900,620
2015/02/04,624,624,604,619,29900,619
2015/02/05,613,619,610,618,28500,618
2015/02/06,616,618,609,618,24500,618
2015/02/09,617,624,614,622,40300,622
2015/02/10,621,638,619,638,58200,638
2015/02/12,638,644,620,638,52700,638
2015/02/13,637,644,631,640,36100,640
2015/02/16,645,659,627,645,62700,645
2015/02/17,645,645,635,645,38900,645
2015/02/18,635,643,635,640,26900,640
2015/02/19,635,642,619,642,55400,642
2015/02/20,632,640,628,637,27500,637
2015/02/23,627,645,620,645,90600,645
2015/02/24,640,640,625,640,33700,640
2015/02/25,627,636,621,625,47800,625
2015/02/26,619,637,593,593,275200,593
2015/02/27,598,609,580,596,151100,596
2015/03/02,576,588,566,577,130400,577
2015/03/03,577,594,577,586,38700,586
2015/03/04,594,597,587,589,22800,589
2015/03/05,581,590,578,578,16900,578
2015/03/06,577,597,577,596,8400,596
2015/03/09,591,593,582,585,10700,585
2015/03/10,590,592,573,592,24800,592
2015/03/11,588,588,571,571,20100,571
2015/03/12,578,583,573,579,16500,579
2015/03/13,589,589,575,578,13500,578
2015/03/16,583,583,575,578,19700,578
2015/03/17,578,580,573,576,8600,576
2015/03/18,580,580,567,569,19500,569
2015/03/19,568,578,563,576,30500,576
2015/03/20,573,577,572,575,10000,575
2015/03/23,575,578,573,575,5500,575
2015/03/24,575,576,571,576,9500,576
2015/03/25,578,584,574,584,16700,584
2015/03/26,584,584,574,575,10300,575
2015/03/27,574,580,571,575,13700,575
2015/03/30,579,585,575,583,22900,583
2015/03/31,589,592,578,584,15100,584
2015/04/01,578,592,578,588,16100,588
2015/04/02,618,618,590,602,50300,602
2015/04/03,607,608,599,602,12300,602
2015/04/06,602,605,598,600,15300,600
2015/04/07,600,602,595,597,15200,597
2015/04/08,597,609,597,607,21300,607
2015/04/09,609,614,604,614,20900,614
2015/04/10,615,615,611,614,12900,614
2015/04/13,620,620,612,613,24900,613
2015/04/14,613,617,600,617,21300,617
2015/04/15,615,615,605,608,20100,608
2015/04/16,606,608,598,605,21900,605
2015/04/17,605,607,600,603,10300,603
2015/04/20,593,611,593,602,13200,602
2015/04/21,605,611,600,602,8600,602
2015/04/22,603,613,599,605,14400,605
2015/04/23,613,613,597,600,14800,600
2015/04/24,610,610,600,604,10500,604
2015/04/27,605,610,595,609,11700,609
2015/04/28,607,615,604,606,30600,606
2015/04/30,614,615,607,610,34400,610
2015/05/01,605,610,601,606,29600,606
2015/05/07,602,620,602,612,30000,612
2015/05/08,608,618,608,616,8900,616
2015/05/11,608,612,600,605,51000,605
2015/05/12,605,608,601,603,23500,603
2015/05/13,603,610,602,606,26700,606
2015/05/14,603,605,602,602,8600,602
2015/05/15,602,607,602,603,16800,603
2015/05/18,605,607,603,606,9700,606
2015/05/19,606,607,604,607,10800,607
2015/05/20,610,611,605,609,18700,609
2015/05/21,607,612,605,609,35800,609
2015/05/22,606,612,606,610,12000,610
2015/05/25,640,657,630,634,166400,634
2015/05/26,635,635,630,630,142700,630
2015/05/27,623,623,608,616,96100,616
2015/05/28,612,613,604,606,25200,606
2015/05/29,605,610,599,599,19900,599
2015/06/01,593,599,593,598,17200,598
2015/06/02,594,597,594,596,6600,596
2015/06/03,597,597,592,593,13900,593
2015/06/04,595,608,593,597,21200,597
2015/06/05,597,604,588,596,26700,596
2015/06/08,600,606,597,597,15600,597
2015/06/09,597,599,592,594,7600,594
2015/06/10,594,597,593,595,7000,595
2015/06/11,598,600,596,599,9400,599
2015/06/12,600,600,590,595,14500,595
2015/06/15,600,600,591,591,7900,591
2015/06/16,598,598,587,587,10300,587
2015/06/17,587,590,586,588,4900,588
2015/06/18,588,588,585,585,6600,585
2015/06/19,588,590,580,584,8100,584
2015/06/22,580,587,563,575,34900,575
2015/06/23,575,579,574,577,8700,577
2015/06/24,578,590,570,582,29500,582
2015/06/25,584,588,577,580,14600,580
2015/06/26,580,585,575,582,3700,582
2015/06/29,570,577,565,572,8300,572
2015/06/30,582,582,569,576,9500,576
2015/07/01,574,580,570,580,9400,580
