2011/01/04,1307,1316,1302,1310,188500,1310
2011/01/05,1315,1315,1302,1303,125600,1303
2011/01/06,1307,1312,1301,1301,132200,1301
2011/01/07,1306,1312,1301,1306,200400,1306
2011/01/11,1313,1327,1307,1326,262100,1326
2011/01/12,1327,1334,1321,1333,301400,1333
2011/01/13,1340,1373,1340,1364,587800,1364
2011/01/14,1361,1375,1357,1361,406400,1361
2011/01/17,1361,1367,1329,1337,314100,1337
2011/01/18,1340,1344,1330,1332,129800,1332
2011/01/19,1333,1335,1327,1330,74400,1330
2011/01/20,1325,1333,1320,1327,101100,1327
2011/01/21,1328,1333,1312,1313,132600,1313
2011/01/24,1314,1327,1313,1326,97200,1326
2011/01/25,1337,1352,1330,1343,230200,1343
2011/01/26,1343,1343,1325,1331,139700,1331
2011/01/27,1329,1345,1329,1337,85000,1337
2011/01/28,1344,1344,1326,1330,224600,1330
2011/01/31,1330,1369,1322,1357,352500,1357
2011/02/01,1357,1357,1344,1352,158800,1352
2011/02/02,1359,1364,1350,1352,124000,1352
2011/02/03,1352,1352,1341,1346,64300,1346
2011/02/04,1342,1353,1341,1350,142100,1350
2011/02/07,1348,1362,1347,1353,138500,1353
2011/02/08,1360,1365,1354,1354,169500,1354
2011/02/09,1356,1367,1354,1365,120100,1365
2011/02/10,1366,1375,1362,1370,133100,1370
2011/02/14,1370,1373,1362,1369,102200,1369
2011/02/15,1370,1370,1365,1367,67300,1367
2011/02/16,1369,1371,1363,1366,115900,1366
2011/02/17,1372,1387,1369,1385,212900,1385
2011/02/18,1385,1387,1375,1377,87900,1377
2011/02/21,1379,1383,1370,1381,84500,1381
2011/02/22,1375,1382,1374,1375,75100,1375
2011/02/23,1375,1385,1372,1373,114400,1373
2011/02/24,1370,1374,1352,1357,206400,1357
2011/02/25,1357,1383,1353,1382,143800,1382
2011/02/28,1383,1385,1367,1378,121800,1378
2011/03/01,1382,1387,1376,1383,168800,1383
2011/03/02,1373,1382,1365,1366,119800,1366
2011/03/03,1365,1380,1362,1376,82100,1376
2011/03/04,1379,1384,1375,1377,95000,1377
2011/03/07,1381,1381,1361,1366,104500,1366
2011/03/08,1367,1378,1367,1368,86100,1368
2011/03/09,1378,1384,1374,1380,128200,1380
2011/03/10,1384,1385,1371,1374,97400,1374
2011/03/11,1374,1377,1365,1365,242500,1365
2011/03/14,1290,1356,1281,1313,200000,1313
2011/03/15,1310,1317,1174,1219,374400,1219
2011/03/16,1215,1260,1202,1230,507400,1230
2011/03/17,1220,1250,1201,1235,300400,1235
2011/03/18,1247,1265,1237,1251,219600,1251
2011/03/22,1295,1298,1278,1295,154200,1295
2011/03/23,1304,1320,1286,1315,199200,1315
2011/03/24,1352,1362,1312,1313,284400,1313
2011/03/25,1339,1339,1319,1333,146100,1333
2011/03/28,1350,1350,1333,1340,245500,1340
2011/03/29,1324,1356,1320,1355,370000,1355
2011/03/30,1350,1357,1330,1356,214000,1356
2011/03/31,1357,1361,1346,1360,252600,1360
2011/04/01,1352,1352,1311,1312,302400,1312
2011/04/04,1319,1320,1298,1313,176500,1313
2011/04/05,1312,1312,1292,1302,141500,1302
2011/04/06,1310,1310,1286,1289,232600,1289
2011/04/07,1296,1303,1285,1296,166800,1296
2011/04/08,1296,1313,1286,1305,189700,1305
2011/04/11,1309,1315,1302,1310,154300,1310
2011/04/12,1301,1318,1294,1297,164300,1297
2011/04/13,1292,1315,1292,1310,100900,1310
2011/04/14,1302,1313,1298,1308,123000,1308
2011/04/15,1308,1312,1301,1303,63300,1303
2011/04/18,1295,1313,1295,1307,72700,1307
2011/04/19,1295,1307,1294,1305,102000,1305
2011/04/20,1306,1315,1298,1302,178200,1302
2011/04/21,1302,1303,1290,1296,142700,1296
2011/04/22,1304,1305,1291,1297,114600,1297
2011/04/25,1305,1309,1294,1298,106200,1298
2011/04/26,1304,1314,1300,1309,175500,1309
2011/04/27,1310,1322,1298,1302,160700,1302
2011/04/28,1313,1324,1312,1324,199600,1324
2011/05/02,1325,1345,1322,1341,127100,1341
2011/05/06,1338,1348,1321,1347,162400,1347
2011/05/09,1336,1355,1326,1344,211600,1344
2011/05/10,1350,1358,1336,1351,203700,1351
2011/05/11,1358,1382,1333,1356,533100,1356
2011/05/12,1347,1359,1340,1341,214300,1341
2011/05/13,1339,1343,1324,1342,229300,1342
2011/05/16,1328,1333,1320,1322,184100,1322
2011/05/17,1318,1331,1306,1314,182000,1314
2011/05/18,1315,1327,1312,1321,232500,1321
2011/05/19,1329,1350,1327,1335,279900,1335
2011/05/20,1336,1346,1321,1321,140500,1321
2011/05/23,1314,1329,1311,1325,169900,1325
2011/05/24,1323,1329,1316,1323,206400,1323
2011/05/25,1327,1328,1313,1327,158100,1327
2011/05/26,1321,1338,1320,1327,201900,1327
2011/05/27,1320,1334,1312,1322,138700,1322
2011/05/30,1322,1326,1308,1317,121200,1317
2011/05/31,1318,1344,1316,1332,211100,1332
2011/06/01,1334,1337,1321,1336,108100,1336
2011/06/02,1319,1325,1312,1320,125700,1320
2011/06/03,1317,1329,1311,1314,194600,1314
2011/06/06,1314,1331,1310,1323,249000,1323
2011/06/07,1323,1323,1307,1313,159900,1313
2011/06/08,1307,1321,1302,1314,177300,1314
2011/06/09,1315,1328,1315,1328,281400,1328
2011/06/10,1336,1365,1336,1344,347700,1344
2011/06/13,1345,1347,1328,1340,227900,1340
2011/06/14,1340,1351,1332,1344,124600,1344
2011/06/15,1344,1347,1328,1340,249700,1340
2011/06/16,1330,1349,1324,1325,214100,1325
2011/06/17,1329,1329,1301,1308,170900,1308
2011/06/20,1308,1331,1308,1314,246800,1314
2011/06/21,1314,1314,1301,1308,252000,1308
2011/06/22,1310,1332,1309,1328,165300,1328
2011/06/23,1315,1331,1315,1321,196900,1321
2011/06/24,1322,1331,1318,1323,151900,1323
2011/06/27,1323,1323,1309,1309,119500,1309
2011/06/28,1322,1326,1311,1318,86500,1318
2011/06/29,1345,1355,1340,1354,292200,1354
2011/06/30,1350,1362,1340,1358,267200,1358
2011/07/01,1360,1379,1356,1365,212800,1365
2011/07/04,1373,1373,1359,1363,141800,1363
2011/07/05,1375,1375,1361,1361,98600,1361
2011/07/06,1361,1366,1350,1366,104900,1366
2011/07/07,1365,1379,1361,1378,149700,1378
2011/07/08,1379,1382,1372,1378,172400,1378
2011/07/11,1377,1384,1375,1384,121000,1384
2011/07/12,1372,1383,1362,1381,117600,1381
2011/07/13,1379,1394,1369,1387,145200,1387
2011/07/14,1379,1384,1371,1381,78000,1381
2011/07/15,1374,1384,1370,1381,77100,1381
2011/07/19,1381,1385,1369,1372,79700,1372
2011/07/20,1379,1379,1361,1363,98800,1363
2011/07/21,1372,1375,1361,1367,68700,1367
2011/07/22,1368,1373,1359,1365,100400,1365
2011/07/25,1369,1372,1363,1371,83600,1371
2011/07/26,1371,1372,1357,1368,196200,1368
2011/07/27,1361,1374,1351,1369,112600,1369
2011/07/28,1354,1360,1342,1353,103300,1353
2011/07/29,1360,1389,1355,1387,303000,1387
2011/08/01,1387,1389,1376,1381,148400,1381
2011/08/02,1371,1388,1362,1384,133700,1384
2011/08/03,1358,1369,1356,1363,200400,1363
2011/08/04,1369,1378,1357,1371,198800,1371
2011/08/05,1331,1345,1329,1342,181000,1342
2011/08/08,1325,1328,1308,1310,254800,1310
2011/08/09,1286,1298,1272,1298,269900,1298
2011/08/10,1323,1325,1300,1309,280900,1309
2011/08/11,1290,1324,1290,1324,174600,1324
2011/08/12,1332,1334,1311,1330,212100,1330
2011/08/15,1339,1339,1314,1330,115500,1330
2011/08/16,1329,1333,1320,1330,97200,1330
2011/08/17,1318,1332,1310,1330,92000,1330
2011/08/18,1329,1329,1313,1324,95100,1324
2011/08/19,1301,1331,1301,1327,125200,1327
2011/08/22,1327,1335,1317,1329,131700,1329
2011/08/23,1333,1350,1329,1346,154700,1346
2011/08/24,1346,1351,1334,1338,189700,1338
2011/08/25,1359,1359,1332,1334,139100,1334
2011/08/26,1357,1362,1352,1357,252600,1357
2011/08/29,1369,1369,1342,1359,154100,1359
2011/08/30,1368,1369,1349,1361,269100,1361
2011/08/31,1362,1378,1362,1378,143400,1378
2011/09/01,1383,1395,1380,1388,147600,1388
2011/09/02,1375,1385,1361,1378,153500,1378
2011/09/05,1371,1383,1365,1379,97100,1379
2011/09/06,1365,1388,1365,1377,151600,1377
2011/09/07,1387,1388,1370,1377,143300,1377
2011/09/08,1377,1390,1366,1389,120500,1389
2011/09/09,1379,1408,1378,1406,288800,1406
2011/09/12,1387,1395,1377,1392,112500,1392
2011/09/13,1386,1402,1377,1397,147300,1397
2011/09/14,1398,1405,1385,1394,129100,1394
2011/09/15,1399,1407,1385,1394,131000,1394
2011/09/16,1394,1398,1382,1384,174000,1384
2011/09/20,1377,1404,1372,1403,130000,1403
2011/09/21,1407,1417,1403,1408,133700,1408
2011/09/22,1402,1415,1389,1412,159700,1412
2011/09/26,1414,1442,1410,1435,312200,1435
2011/09/27,1439,1442,1424,1434,278900,1434
2011/09/28,1434,1461,1431,1460,280300,1460
2011/09/29,1452,1470,1444,1466,278600,1466
2011/09/30,1470,1494,1465,1494,287200,1494
2011/10/03,1490,1540,1482,1536,356600,1536
2011/10/04,1534,1534,1501,1506,205000,1506
2011/10/05,1532,1537,1510,1516,402600,1516
2011/10/06,1515,1529,1500,1511,140900,1511
2011/10/07,1510,1510,1471,1475,235200,1475
2011/10/11,1475,1490,1459,1476,157300,1476
2011/10/12,1462,1478,1453,1455,136100,1455
2011/10/13,1460,1460,1421,1430,268600,1430
2011/10/14,1420,1435,1416,1426,226800,1426
2011/10/17,1444,1450,1436,1442,142400,1442
2011/10/18,1460,1471,1437,1441,225000,1441
2011/10/19,1460,1488,1454,1480,345900,1480
2011/10/20,1475,1477,1451,1470,279100,1470
2011/10/21,1479,1480,1462,1462,130700,1462
2011/10/24,1468,1483,1454,1456,117600,1456
2011/10/25,1456,1471,1451,1460,211900,1460
2011/10/26,1461,1461,1428,1434,176800,1434
2011/10/27,1431,1436,1408,1420,148800,1420
2011/10/28,1434,1441,1414,1435,203400,1435
2011/10/31,1427,1455,1417,1429,193200,1429
2011/11/01,1421,1437,1409,1421,169200,1421
2011/11/02,1403,1416,1391,1405,121900,1405
2011/11/04,1403,1419,1397,1412,113500,1412
2011/11/07,1411,1411,1397,1403,104200,1403
2011/11/08,1398,1427,1398,1419,113600,1419
2011/11/09,1429,1446,1420,1445,126100,1445
2011/11/10,1419,1424,1400,1407,248800,1407
2011/11/11,1402,1413,1388,1395,293500,1395
2011/11/14,1392,1404,1385,1395,203800,1395
2011/11/15,1385,1406,1384,1398,131500,1398
2011/11/16,1403,1408,1392,1401,150800,1401
2011/11/17,1401,1404,1381,1402,138800,1402
2011/11/18,1388,1417,1388,1405,158200,1405
2011/11/21,1395,1425,1395,1418,112000,1418
2011/11/22,1415,1432,1415,1425,167800,1425
2011/11/24,1421,1425,1400,1406,204400,1406
2011/11/25,1394,1422,1394,1398,259400,1398
2011/11/28,1407,1407,1381,1381,156900,1381
2011/11/29,1385,1391,1342,1359,352000,1359
2011/11/30,1361,1398,1361,1398,279000,1398
2011/12/01,1401,1409,1388,1392,186900,1392
2011/12/02,1403,1411,1395,1407,130300,1407
2011/12/05,1418,1432,1413,1428,186100,1428
2011/12/06,1419,1444,1409,1411,151900,1411
2011/12/07,1417,1427,1404,1422,253600,1422
2011/12/08,1421,1439,1421,1438,172100,1438
2011/12/09,1424,1445,1422,1441,306200,1441
2011/12/12,1483,1489,1460,1462,330900,1462
2011/12/13,1458,1462,1444,1452,216400,1452
2011/12/14,1447,1452,1437,1438,98700,1438
2011/12/15,1439,1455,1439,1446,174800,1446
2011/12/16,1447,1456,1440,1443,244100,1443
2011/12/19,1435,1454,1430,1451,168100,1451
2011/12/20,1450,1460,1445,1450,178100,1450
2011/12/21,1457,1457,1447,1452,142500,1452
2011/12/22,1450,1460,1446,1458,212100,1458
2011/12/26,1478,1478,1454,1457,124400,1457
2011/12/27,1449,1460,1447,1455,70200,1455
2011/12/28,1450,1455,1440,1452,72100,1452
2011/12/29,1445,1450,1433,1449,102900,1449
2011/12/30,1450,1454,1444,1448,94000,1448
2012/01/04,1456,1475,1455,1466,195900,1466
2012/01/05,1464,1467,1454,1456,83100,1456
2012/01/06,1461,1464,1443,1452,115300,1452
2012/01/10,1458,1474,1453,1454,141900,1454
2012/01/11,1458,1468,1458,1467,92900,1467
2012/01/12,1460,1462,1448,1455,151100,1455
2012/01/13,1465,1470,1457,1464,134900,1464
2012/01/16,1462,1465,1447,1459,90200,1459
2012/01/17,1450,1464,1450,1453,116700,1453
2012/01/18,1455,1467,1447,1450,127200,1450
2012/01/19,1451,1452,1415,1420,253400,1420
2012/01/20,1435,1443,1428,1433,165800,1433
2012/01/23,1438,1439,1429,1437,145000,1437
2012/01/24,1440,1442,1425,1429,151600,1429
2012/01/25,1433,1443,1425,1441,153700,1441
2012/01/26,1442,1442,1429,1436,108900,1436
2012/01/27,1436,1444,1430,1440,123900,1440
2012/01/30,1433,1437,1411,1417,294700,1417
2012/01/31,1425,1433,1415,1420,193300,1420
2012/02/01,1425,1433,1419,1427,104500,1427
2012/02/02,1437,1438,1428,1428,118700,1428
2012/02/03,1422,1424,1410,1411,184700,1411
2012/02/06,1416,1420,1403,1406,274000,1406
2012/02/07,1408,1414,1400,1403,179900,1403
2012/02/08,1404,1415,1403,1406,172300,1406
2012/02/09,1404,1405,1398,1402,277800,1402
2012/02/10,1406,1410,1398,1407,147000,1407
2012/02/13,1402,1418,1402,1413,101800,1413
2012/02/14,1415,1431,1412,1427,166900,1427
2012/02/15,1424,1424,1397,1405,413700,1405
2012/02/16,1405,1407,1394,1395,247100,1395
2012/02/17,1402,1406,1397,1401,121300,1401
2012/02/20,1408,1409,1400,1401,140800,1401
2012/02/21,1401,1417,1401,1412,206800,1412
2012/02/22,1416,1432,1412,1425,227000,1425
2012/02/23,1430,1430,1414,1422,132700,1422
2012/02/24,1429,1430,1414,1418,120100,1418
2012/02/27,1427,1427,1408,1412,245300,1412
2012/02/28,1415,1424,1409,1421,228000,1421
2012/02/29,1426,1432,1413,1413,316600,1413
2012/03/01,1418,1419,1405,1417,271200,1417
2012/03/02,1418,1425,1413,1420,251500,1420
2012/03/05,1421,1428,1407,1413,357000,1413
2012/03/06,1413,1422,1398,1407,403300,1407
2012/03/07,1402,1416,1402,1416,263900,1416
2012/03/08,1420,1429,1417,1426,190300,1426
2012/03/09,1427,1442,1422,1435,368800,1435
2012/03/12,1441,1442,1431,1431,259400,1431
2012/03/13,1432,1433,1418,1418,209200,1418
2012/03/14,1424,1427,1416,1418,202900,1418
2012/03/15,1420,1430,1418,1422,213500,1422
2012/03/16,1422,1427,1418,1418,156400,1418
2012/03/19,1419,1422,1408,1408,262800,1408
2012/03/21,1414,1422,1409,1417,282700,1417
2012/03/22,1420,1428,1417,1419,304700,1419
2012/03/23,1418,1427,1416,1418,231700,1418
2012/03/26,1427,1427,1417,1418,199900,1418
2012/03/27,1421,1429,1419,1429,313900,1429
2012/03/28,1415,1420,1405,1417,227900,1417
2012/03/29,1417,1420,1412,1418,219700,1418
2012/03/30,1420,1422,1411,1415,243000,1415
2012/04/02,1420,1422,1411,1414,321800,1414
2012/04/03,1410,1412,1398,1400,186200,1400
2012/04/04,1400,1400,1374,1383,376600,1383
2012/04/05,1383,1388,1372,1376,178100,1376
2012/04/06,1372,1382,1363,1379,202400,1379
2012/04/09,1375,1380,1367,1372,153700,1372
2012/04/10,1378,1378,1361,1373,158500,1373
2012/04/11,1365,1374,1363,1366,162500,1366
2012/04/12,1364,1383,1360,1361,177000,1361
2012/04/13,1361,1371,1359,1367,136900,1367
2012/04/16,1366,1375,1358,1368,123700,1368
2012/04/17,1370,1381,1365,1379,107300,1379
2012/04/18,1380,1384,1369,1379,230900,1379
2012/04/19,1379,1379,1361,1364,149000,1364
2012/04/20,1364,1368,1358,1358,124200,1358
2012/04/23,1356,1368,1355,1357,131200,1357
2012/04/24,1354,1356,1345,1350,180300,1350
2012/04/25,1355,1357,1340,1349,265900,1349
2012/04/26,1353,1366,1350,1366,166800,1366
2012/04/27,1367,1367,1348,1348,224700,1348
2012/05/01,1348,1357,1343,1348,108100,1348
2012/05/02,1349,1357,1344,1355,105100,1355
2012/05/07,1343,1353,1342,1347,175900,1347
2012/05/08,1349,1350,1335,1340,213400,1340
2012/05/09,1335,1349,1331,1336,206400,1336
2012/05/10,1336,1352,1326,1349,247200,1349
2012/05/11,1349,1353,1323,1323,143900,1323
2012/05/14,1321,1324,1306,1307,159300,1307
2012/05/15,1308,1326,1305,1313,156800,1313
2012/05/16,1318,1318,1299,1304,174000,1304
2012/05/17,1307,1313,1290,1298,138600,1298
2012/05/18,1294,1296,1272,1280,160700,1280
2012/05/21,1281,1288,1272,1280,111600,1280
2012/05/22,1280,1287,1269,1273,147600,1273
2012/05/23,1270,1272,1250,1253,207500,1253
2012/05/24,1252,1263,1243,1249,182500,1249
2012/05/25,1251,1275,1245,1259,274300,1259
2012/05/28,1271,1280,1244,1244,134900,1244
2012/05/29,1245,1257,1238,1242,124700,1242
2012/05/30,1240,1242,1221,1223,183200,1223
2012/05/31,1224,1246,1219,1244,167000,1244
2012/06/01,1235,1246,1230,1243,131600,1243
2012/06/04,1228,1243,1220,1240,155300,1240
2012/06/05,1240,1255,1227,1255,228500,1255
2012/06/06,1258,1258,1235,1242,148600,1242
2012/06/07,1243,1250,1235,1250,199700,1250
2012/06/08,1251,1254,1241,1248,279200,1248
2012/06/11,1274,1275,1254,1256,209600,1256
2012/06/12,1250,1257,1241,1252,146500,1252
2012/06/13,1251,1280,1251,1275,188700,1275
2012/06/14,1275,1280,1269,1274,151500,1274
2012/06/15,1275,1284,1269,1269,158800,1269
2012/06/18,1282,1289,1272,1279,87500,1279
2012/06/19,1278,1278,1253,1255,200900,1255
2012/06/20,1258,1281,1258,1280,199100,1280
2012/06/21,1280,1295,1278,1295,121800,1295
2012/06/22,1295,1302,1282,1295,164600,1295
2012/06/25,1309,1310,1301,1309,227800,1309
2012/06/26,1318,1319,1299,1302,191200,1302
2012/06/27,1300,1319,1298,1319,91300,1319
2012/06/28,1336,1343,1328,1343,176100,1343
2012/06/29,1341,1357,1334,1353,179300,1353
2012/07/02,1356,1358,1340,1345,96900,1345
2012/07/03,1349,1359,1347,1351,135100,1351
2012/07/04,1359,1359,1351,1354,100300,1354
2012/07/05,1351,1358,1342,1347,65000,1347
2012/07/06,1354,1357,1333,1336,107800,1336
2012/07/09,1330,1345,1326,1345,65100,1345
2012/07/10,1351,1356,1345,1350,88700,1350
2012/07/11,1343,1348,1335,1345,62600,1345
2012/07/12,1345,1352,1337,1344,94000,1344
2012/07/13,1345,1358,1344,1353,136200,1353
2012/07/17,1353,1362,1347,1351,99700,1351
2012/07/18,1355,1364,1342,1346,127000,1346
2012/07/19,1357,1364,1348,1349,125100,1349
2012/07/20,1350,1353,1336,1337,93200,1337
2012/07/23,1333,1345,1320,1320,186700,1320
2012/07/24,1315,1318,1294,1296,265900,1296
2012/07/25,1301,1318,1299,1307,237500,1307
2012/07/26,1320,1324,1289,1300,434100,1300
2012/07/27,1307,1318,1295,1296,167600,1296
2012/07/30,1301,1310,1292,1306,157500,1306
2012/07/31,1305,1314,1303,1307,125000,1307
2012/08/01,1303,1317,1299,1313,135600,1313
2012/08/02,1313,1320,1304,1306,132100,1306
2012/08/03,1300,1300,1283,1288,188000,1288
2012/08/06,1295,1306,1287,1304,144500,1304
2012/08/07,1304,1314,1298,1312,142700,1312
2012/08/08,1318,1327,1305,1311,187700,1311
2012/08/09,1311,1316,1298,1309,211200,1309
2012/08/10,1308,1311,1300,1304,148800,1304
2012/08/13,1304,1313,1302,1311,73400,1311
2012/08/14,1313,1340,1312,1337,208500,1337
2012/08/15,1337,1337,1320,1323,149100,1323
2012/08/16,1324,1333,1316,1322,149400,1322
2012/08/17,1325,1327,1317,1320,148900,1320
2012/08/20,1321,1334,1317,1325,127700,1325
2012/08/21,1327,1329,1318,1322,112300,1322
2012/08/22,1326,1326,1316,1326,92100,1326
2012/08/23,1328,1335,1316,1334,151700,1334
2012/08/24,1320,1335,1320,1333,82900,1333
2012/08/27,1338,1338,1324,1324,120600,1324
2012/08/28,1335,1338,1323,1324,195300,1324
2012/08/29,1329,1339,1328,1339,122200,1339
2012/08/30,1340,1343,1331,1339,83100,1339
2012/08/31,1331,1339,1326,1326,89500,1326
2012/09/03,1316,1330,1313,1318,180200,1318
2012/09/04,1318,1321,1308,1315,152500,1315
2012/09/05,1311,1320,1307,1310,151100,1310
2012/09/06,1310,1314,1300,1305,198900,1305
2012/09/07,1315,1320,1293,1296,242100,1296
2012/09/10,1302,1306,1281,1285,261600,1285
2012/09/11,1283,1287,1280,1285,193100,1285
2012/09/12,1285,1299,1285,1297,238000,1297
2012/09/13,1293,1294,1281,1284,227700,1284
2012/09/14,1288,1295,1280,1282,303000,1282
2012/09/18,1285,1293,1283,1286,191100,1286
2012/09/19,1296,1303,1292,1298,191400,1298
2012/09/20,1299,1302,1291,1293,142700,1293
2012/09/21,1293,1308,1291,1302,192800,1302
2012/09/24,1307,1319,1307,1318,154300,1318
2012/09/25,1337,1337,1311,1327,248100,1327
2012/09/26,1296,1314,1289,1312,130600,1312
2012/09/27,1310,1319,1301,1315,109400,1315
2012/09/28,1322,1324,1304,1321,186600,1321
2012/10/01,1305,1306,1293,1304,154100,1304
2012/10/02,1302,1303,1279,1281,198700,1281
2012/10/03,1283,1293,1277,1280,166500,1280
2012/10/04,1281,1282,1266,1278,204100,1278
2012/10/05,1282,1288,1279,1281,84700,1281
2012/10/09,1279,1289,1274,1277,191200,1277
2012/10/10,1275,1287,1268,1271,205600,1271
2012/10/11,1271,1277,1261,1261,97000,1261
2012/10/12,1272,1283,1268,1278,122100,1278
2012/10/15,1267,1289,1266,1289,190600,1289
2012/10/16,1287,1290,1276,1281,101700,1281
2012/10/17,1289,1294,1281,1290,147100,1290
2012/10/18,1291,1300,1286,1300,97300,1300
2012/10/19,1295,1303,1289,1299,138600,1299
2012/10/22,1290,1303,1285,1293,146100,1293
2012/10/23,1293,1299,1289,1292,112000,1292
2012/10/24,1293,1296,1285,1289,106000,1289
2012/10/25,1293,1319,1291,1319,219200,1319
2012/10/26,1319,1319,1304,1306,107700,1306
2012/10/29,1312,1314,1302,1310,76800,1310
2012/10/30,1314,1316,1297,1297,81700,1297
2012/10/31,1298,1306,1286,1289,116000,1289
2012/11/01,1290,1291,1273,1285,143900,1285
2012/11/02,1296,1297,1288,1292,132200,1292
2012/11/05,1292,1299,1287,1289,84900,1289
2012/11/06,1287,1298,1280,1298,96100,1298
2012/11/07,1298,1298,1282,1283,82700,1283
2012/11/08,1284,1304,1277,1300,189100,1300
2012/11/09,1288,1288,1275,1275,104600,1275
2012/11/12,1275,1281,1268,1268,92500,1268
2012/11/13,1269,1271,1255,1261,145700,1261
2012/11/14,1261,1270,1259,1265,72400,1265
2012/11/15,1273,1275,1257,1262,112200,1262
2012/11/16,1260,1262,1246,1259,220900,1259
2012/11/19,1268,1284,1268,1281,134200,1281
2012/11/20,1284,1284,1263,1263,244000,1263
2012/11/21,1268,1276,1260,1274,172400,1274
2012/11/22,1282,1283,1266,1274,166600,1274
2012/11/26,1284,1297,1278,1291,194500,1291
2012/11/27,1291,1297,1283,1285,195400,1285
2012/11/28,1285,1292,1272,1281,229500,1281
2012/11/29,1274,1290,1274,1287,111500,1287
2012/11/30,1292,1294,1281,1287,186300,1287
2012/12/03,1288,1290,1281,1283,119300,1283
2012/12/04,1284,1291,1278,1283,116900,1283
2012/12/05,1278,1284,1276,1280,247500,1280
2012/12/06,1291,1293,1284,1290,129400,1290
2012/12/07,1289,1294,1289,1291,108200,1291
2012/12/10,1291,1295,1288,1292,135900,1292
2012/12/11,1301,1301,1288,1293,191800,1293
2012/12/12,1300,1300,1280,1284,122200,1284
2012/12/13,1296,1296,1277,1277,170800,1277
2012/12/14,1277,1288,1276,1280,232700,1280
2012/12/17,1291,1291,1283,1285,129600,1285
2012/12/18,1286,1294,1278,1280,177200,1280
2012/12/19,1289,1296,1280,1296,204400,1296
2012/12/20,1300,1316,1298,1308,267300,1308
2012/12/21,1308,1314,1299,1299,170400,1299
2012/12/25,1315,1315,1300,1302,92700,1302
2012/12/26,1302,1306,1291,1303,137100,1303
2012/12/27,1305,1313,1304,1305,98700,1305
2012/12/28,1312,1313,1299,1301,130800,1301
2013/01/04,1321,1333,1315,1330,207300,1330
2013/01/07,1334,1337,1325,1335,185900,1335
2013/01/08,1339,1348,1336,1339,150100,1339
2013/01/09,1342,1348,1336,1341,120700,1341
2013/01/10,1341,1350,1330,1348,146900,1348
2013/01/11,1350,1352,1342,1345,171500,1345
2013/01/15,1354,1355,1346,1351,133300,1351
2013/01/16,1351,1357,1345,1346,186600,1346
2013/01/17,1347,1352,1339,1346,169700,1346
2013/01/18,1355,1358,1347,1352,161500,1352
2013/01/21,1354,1361,1352,1358,120500,1358
2013/01/22,1358,1363,1339,1350,209000,1350
2013/01/23,1341,1354,1339,1350,145200,1350
2013/01/24,1350,1356,1341,1355,154300,1355
2013/01/25,1360,1367,1352,1366,217400,1366
2013/01/28,1378,1378,1360,1361,132800,1361
2013/01/29,1360,1364,1351,1351,196600,1351
2013/01/30,1358,1376,1354,1373,200000,1373
2013/01/31,1375,1384,1367,1381,249500,1381
2013/02/01,1380,1390,1379,1384,276700,1384
2013/02/04,1386,1389,1375,1376,167000,1376
2013/02/05,1377,1399,1373,1391,283600,1391
2013/02/06,1391,1397,1384,1395,288300,1395
2013/02/07,1395,1412,1395,1408,204000,1408
2013/02/08,1408,1419,1399,1415,261500,1415
2013/02/12,1420,1428,1411,1416,371100,1416
2013/02/13,1415,1415,1401,1406,257600,1406
2013/02/14,1406,1423,1406,1415,355500,1415
2013/02/15,1415,1416,1401,1405,276200,1405
2013/02/18,1402,1426,1402,1423,270100,1423
2013/02/19,1418,1439,1416,1435,222000,1435
2013/02/20,1434,1468,1434,1466,268000,1466
2013/02/21,1464,1464,1452,1455,159800,1455
2013/02/22,1445,1469,1445,1467,247300,1467
2013/02/25,1470,1490,1468,1482,255300,1482
2013/02/26,1477,1494,1468,1490,235700,1490
2013/02/27,1480,1482,1470,1473,211300,1473
2013/02/28,1473,1495,1473,1488,243700,1488
2013/03/01,1489,1507,1482,1499,194300,1499
2013/03/04,1502,1527,1502,1522,232800,1522
2013/03/05,1530,1536,1517,1519,270700,1519
2013/03/06,1525,1560,1525,1557,277200,1557
2013/03/07,1569,1587,1566,1575,253100,1575
2013/03/08,1576,1588,1575,1587,406000,1587
2013/03/11,1594,1613,1587,1612,293800,1612
2013/03/12,1612,1612,1591,1592,233800,1592
2013/03/13,1590,1597,1568,1574,258300,1574
2013/03/14,1583,1593,1576,1577,265000,1577
2013/03/15,1583,1603,1580,1600,376700,1600
2013/03/18,1601,1603,1581,1582,209600,1582
2013/03/19,1591,1605,1586,1588,247300,1588
2013/03/21,1594,1605,1594,1603,318600,1603
2013/03/22,1603,1627,1588,1588,405400,1588
2013/03/25,1608,1615,1594,1611,263200,1611
2013/03/26,1614,1650,1613,1648,501100,1648
2013/03/27,1620,1648,1616,1648,279400,1648
2013/03/28,1643,1647,1630,1634,197100,1634
2013/03/29,1634,1642,1620,1638,233000,1638
2013/04/01,1625,1627,1553,1553,211000,1553
2013/04/02,1518,1541,1475,1531,308700,1531
2013/04/03,1521,1556,1516,1553,174800,1553
2013/04/04,1545,1598,1521,1598,261700,1598
2013/04/05,1621,1650,1608,1634,406900,1634
2013/04/08,1646,1680,1625,1661,338800,1661
2013/04/09,1657,1665,1623,1635,354900,1635
2013/04/10,1635,1653,1630,1651,218800,1651
2013/04/11,1653,1669,1626,1643,339800,1643
2013/04/12,1645,1678,1645,1672,320600,1672
2013/04/15,1679,1710,1674,1702,366700,1702
2013/04/16,1662,1698,1643,1668,325400,1668
2013/04/17,1679,1698,1674,1697,191800,1697
2013/04/18,1694,1702,1671,1683,164900,1683
2013/04/19,1673,1689,1653,1678,210600,1678
2013/04/22,1679,1699,1679,1692,181500,1692
2013/04/23,1691,1714,1680,1697,344900,1697
2013/04/24,1702,1734,1700,1732,295300,1732
2013/04/25,1729,1740,1724,1730,246400,1730
2013/04/26,1731,1731,1692,1696,203100,1696
2013/04/30,1697,1726,1697,1698,164900,1698
2013/05/01,1683,1723,1672,1714,201800,1714
2013/05/02,1712,1713,1691,1701,109900,1701
2013/05/07,1722,1753,1718,1749,284700,1749
2013/05/08,1749,1776,1748,1760,199700,1760
2013/05/09,1773,1794,1754,1755,201500,1755
2013/05/10,1785,1800,1763,1793,246700,1793
2013/05/13,1793,1794,1755,1763,220300,1763
2013/05/14,1765,1790,1765,1779,119400,1779
2013/05/15,1778,1784,1767,1782,159500,1782
2013/05/16,1783,1792,1744,1766,246600,1766
2013/05/17,1775,1775,1751,1755,160800,1755
2013/05/20,1773,1773,1747,1748,146100,1748
2013/05/21,1747,1755,1724,1738,182700,1738
2013/05/22,1738,1748,1730,1742,147800,1742
2013/05/23,1735,1740,1652,1653,328200,1653
2013/05/24,1655,1720,1640,1691,379400,1691
2013/05/27,1692,1692,1623,1644,211300,1644
2013/05/28,1620,1639,1602,1627,166300,1627
2013/05/29,1644,1666,1629,1650,168700,1650
2013/05/30,1629,1638,1568,1577,204100,1577
2013/05/31,1606,1619,1562,1570,227200,1570
2013/06/03,1552,1569,1532,1540,232000,1540
2013/06/04,1530,1535,1498,1524,302700,1524
2013/06/05,1530,1554,1496,1496,252100,1496
2013/06/06,1491,1509,1457,1457,438700,1457
2013/06/07,1450,1473,1430,1456,358700,1456
2013/06/10,1478,1520,1478,1515,434500,1515
2013/06/11,1516,1523,1475,1477,766100,1477
2013/06/12,1470,1473,1438,1457,554500,1457
2013/06/13,1458,1468,1430,1431,520100,1431
2013/06/14,1465,1471,1431,1431,438700,1431
2013/06/17,1440,1503,1440,1500,235900,1500
2013/06/18,1515,1523,1490,1494,295400,1494
2013/06/19,1523,1534,1502,1523,210800,1523
2013/06/20,1524,1529,1506,1514,175800,1514
2013/06/21,1500,1536,1484,1527,276900,1527
2013/06/24,1547,1553,1535,1541,172600,1541
2013/06/25,1547,1559,1521,1540,348800,1540
2013/06/26,1562,1562,1526,1532,141800,1532
2013/06/27,1555,1573,1534,1573,219900,1573
2013/06/28,1590,1621,1577,1620,284800,1620
2013/07/01,1635,1640,1612,1639,151200,1639
2013/07/02,1640,1643,1625,1640,175000,1640
2013/07/03,1641,1648,1630,1642,162000,1642
2013/07/04,1629,1636,1611,1629,281300,1629
2013/07/05,1635,1640,1616,1635,176300,1635
2013/07/08,1649,1655,1629,1629,185700,1629
2013/07/09,1630,1657,1625,1654,198400,1654
2013/07/10,1660,1685,1660,1675,266200,1675
2013/07/11,1665,1665,1644,1657,239300,1657
2013/07/12,1657,1685,1657,1682,143400,1682
2013/07/16,1682,1693,1674,1681,136900,1681
2013/07/17,1680,1700,1674,1697,149300,1697
2013/07/18,1697,1709,1695,1704,270300,1704
2013/07/19,1710,1715,1683,1687,177200,1687
2013/07/22,1703,1722,1696,1719,165900,1719
2013/07/23,1717,1720,1706,1714,137000,1714
2013/07/24,1709,1712,1688,1689,212900,1689
2013/07/25,1690,1699,1678,1682,169800,1682
2013/07/26,1678,1684,1646,1661,211800,1661
2013/07/29,1640,1640,1585,1589,317700,1589
2013/07/30,1585,1617,1583,1613,247000,1613
2013/07/31,1590,1596,1575,1575,220300,1575
2013/08/01,1575,1581,1562,1580,304900,1580
2013/08/02,1599,1622,1591,1622,216200,1622
2013/08/05,1619,1619,1600,1608,133100,1608
2013/08/06,1610,1642,1592,1641,176200,1641
2013/08/07,1615,1621,1592,1592,117700,1592
2013/08/08,1590,1619,1568,1574,238900,1574
2013/08/09,1578,1589,1565,1584,137600,1584
2013/08/12,1585,1598,1572,1583,120300,1583
2013/08/13,1590,1626,1590,1621,112900,1621
2013/08/14,1630,1639,1616,1636,117200,1636
2013/08/15,1628,1628,1611,1617,111100,1617
2013/08/16,1613,1624,1596,1608,150800,1608
2013/08/19,1603,1610,1596,1606,83300,1606
2013/08/20,1605,1615,1595,1595,136400,1595
2013/08/21,1595,1600,1576,1591,139800,1591
2013/08/22,1578,1578,1558,1560,224700,1560
2013/08/23,1570,1577,1561,1565,185900,1565
2013/08/26,1572,1584,1566,1570,118700,1570
2013/08/27,1570,1578,1562,1565,127500,1565
2013/08/28,1560,1560,1536,1548,182500,1548
2013/08/29,1542,1551,1537,1549,114000,1549
2013/08/30,1560,1560,1520,1530,270500,1530
2013/09/02,1537,1541,1526,1538,132900,1538
2013/09/03,1548,1564,1541,1564,230400,1564
2013/09/04,1548,1556,1535,1551,215300,1551
2013/09/05,1560,1562,1544,1547,126700,1547
2013/09/06,1550,1558,1526,1531,174300,1531
2013/09/09,1562,1570,1551,1560,171600,1560
2013/09/10,1562,1569,1545,1550,338400,1550
2013/09/11,1557,1565,1545,1548,200000,1548
2013/09/12,1550,1555,1531,1536,277100,1536
2013/09/13,1530,1541,1516,1532,382800,1532
2013/09/17,1536,1540,1525,1525,257000,1525
2013/09/18,1534,1534,1520,1523,219300,1523
2013/09/19,1532,1539,1523,1539,253000,1539
2013/09/20,1540,1545,1534,1539,273100,1539
2013/09/24,1540,1550,1537,1544,296600,1544
2013/09/25,1542,1548,1537,1543,415000,1543
2013/09/26,1533,1537,1516,1536,380400,1536
2013/09/27,1538,1539,1530,1533,158300,1533
2013/09/30,1532,1537,1523,1525,249700,1525
2013/10/01,1526,1530,1515,1520,225300,1520
2013/10/02,1517,1521,1500,1505,244700,1505
2013/10/03,1511,1530,1501,1501,314100,1501
2013/10/04,1500,1504,1485,1493,309100,1493
2013/10/07,1494,1502,1487,1490,211500,1490
2013/10/08,1488,1489,1472,1476,300700,1476
2013/10/09,1477,1496,1466,1496,169000,1496
2013/10/10,1498,1515,1495,1515,202900,1515
2013/10/11,1529,1534,1516,1522,236300,1522
2013/10/15,1525,1532,1514,1519,220600,1519
2013/10/16,1521,1529,1481,1516,336000,1516
2013/10/17,1524,1537,1524,1533,184200,1533
2013/10/18,1530,1550,1523,1548,253500,1548
2013/10/21,1550,1552,1544,1552,143300,1552
2013/10/22,1554,1560,1553,1553,99100,1553
2013/10/23,1554,1560,1545,1548,186700,1548
2013/10/24,1547,1560,1542,1557,142200,1557
2013/10/25,1558,1558,1526,1532,215800,1532
2013/10/28,1541,1545,1531,1545,169800,1545
2013/10/29,1542,1551,1530,1548,169200,1548
2013/10/30,1551,1558,1539,1557,275800,1557
2013/10/31,1550,1558,1543,1554,210900,1554
2013/11/01,1551,1554,1536,1538,236900,1538
2013/11/05,1554,1555,1533,1541,234000,1541
2013/11/06,1538,1554,1533,1540,200800,1540
2013/11/07,1542,1554,1540,1549,264800,1549
2013/11/08,1550,1553,1538,1548,234100,1548
2013/11/11,1555,1556,1536,1556,187400,1556
2013/11/12,1540,1558,1537,1558,222000,1558
2013/11/13,1557,1558,1544,1558,136900,1558
2013/11/14,1559,1574,1551,1568,220700,1568
2013/11/15,1575,1580,1567,1577,230500,1577
2013/11/18,1580,1594,1578,1585,242900,1585
2013/11/19,1585,1594,1581,1591,188100,1591
2013/11/20,1591,1593,1575,1584,129200,1584
2013/11/21,1592,1595,1582,1591,132800,1591
2013/11/22,1592,1592,1580,1588,172400,1588
2013/11/25,1591,1600,1586,1600,148900,1600
2013/11/26,1598,1599,1572,1578,195300,1578
2013/11/27,1583,1584,1565,1571,152800,1571
2013/11/28,1571,1572,1551,1554,189000,1554
2013/11/29,1557,1576,1557,1563,246100,1563
2013/12/02,1569,1575,1557,1560,162800,1560
2013/12/03,1565,1569,1541,1548,279200,1548
2013/12/04,1550,1557,1537,1547,327300,1547
2013/12/05,1551,1555,1536,1538,175700,1538
2013/12/06,1544,1549,1537,1540,203800,1540
2013/12/09,1548,1560,1548,1556,185900,1556
2013/12/10,1560,1569,1550,1566,215600,1566
2013/12/11,1571,1574,1560,1565,210500,1565
2013/12/12,1564,1564,1554,1555,115700,1555
2013/12/13,1551,1566,1550,1555,368300,1555
2013/12/16,1555,1559,1548,1548,137400,1548
2013/12/17,1552,1557,1546,1557,171500,1557
2013/12/18,1558,1565,1550,1564,209900,1564
2013/12/19,1565,1570,1562,1563,177500,1563
2013/12/20,1560,1563,1548,1559,205000,1559
2013/12/24,1556,1562,1549,1553,191100,1553
2013/12/25,1550,1556,1542,1551,160600,1551
2013/12/26,1557,1570,1548,1565,217700,1565
2013/12/27,1565,1582,1562,1580,151700,1580
2013/12/30,1592,1593,1583,1589,126400,1589
2014/01/06,1595,1599,1580,1583,200700,1583
2014/01/07,1586,1586,1555,1557,211500,1557
2014/01/08,1570,1586,1564,1586,182400,1586
2014/01/09,1581,1581,1565,1572,189200,1572
2014/01/10,1566,1569,1552,1566,285100,1566
2014/01/14,1567,1567,1547,1550,316300,1550
2014/01/15,1556,1576,1549,1576,224100,1576
2014/01/16,1576,1583,1563,1574,358000,1574
2014/01/17,1571,1585,1565,1582,207900,1582
2014/01/20,1589,1595,1584,1588,107600,1588
2014/01/21,1590,1594,1580,1584,168800,1584
2014/01/22,1585,1586,1569,1580,179400,1580
2014/01/23,1580,1580,1556,1556,212100,1556
2014/01/24,1551,1555,1540,1553,333200,1553
2014/01/27,1545,1547,1530,1538,285900,1538
2014/01/28,1549,1549,1528,1528,222700,1528
2014/01/29,1549,1572,1548,1571,190100,1571
2014/01/30,1531,1554,1523,1546,283900,1546
2014/01/31,1558,1565,1526,1540,269800,1540
2014/02/03,1540,1553,1530,1531,228500,1531
2014/02/04,1520,1524,1485,1486,389000,1486
2014/02/05,1488,1516,1485,1513,308100,1513
2014/02/06,1514,1517,1499,1499,232200,1499
2014/02/07,1501,1527,1501,1523,201800,1523
2014/02/10,1541,1543,1523,1537,165900,1537
2014/02/12,1548,1569,1547,1567,168300,1567
2014/02/13,1560,1575,1555,1561,210500,1561
2014/02/14,1570,1580,1548,1563,273300,1563
2014/02/17,1560,1574,1539,1571,145200,1571
2014/02/18,1570,1585,1563,1582,182500,1582
2014/02/19,1580,1598,1561,1588,264000,1588
2014/02/20,1590,1590,1575,1583,202100,1583
2014/02/21,1595,1615,1585,1612,289600,1612
2014/02/24,1617,1639,1601,1620,280700,1620
2014/02/25,1625,1640,1623,1640,223900,1640
2014/02/26,1634,1642,1627,1636,140600,1636
2014/02/27,1631,1642,1617,1631,118100,1631
2014/02/28,1625,1638,1615,1635,150200,1635
2014/03/03,1629,1633,1611,1627,188900,1627
2014/03/04,1624,1641,1612,1639,158200,1639
2014/03/05,1645,1655,1638,1641,185900,1641
2014/03/06,1646,1647,1625,1645,191100,1645
2014/03/07,1649,1664,1641,1663,207000,1663
2014/03/10,1664,1672,1650,1659,215900,1659
2014/03/11,1668,1675,1664,1673,105600,1673
2014/03/12,1665,1670,1643,1646,160700,1646
2014/03/13,1640,1644,1628,1640,162300,1640
2014/03/14,1616,1641,1588,1601,392100,1601
2014/03/17,1602,1610,1577,1586,235100,1586
2014/03/18,1607,1612,1588,1597,186300,1597
2014/03/19,1611,1616,1598,1603,121500,1603
2014/03/20,1616,1629,1596,1597,291200,1597
2014/03/24,1619,1675,1617,1658,437700,1658
2014/03/25,1648,1693,1645,1663,505400,1663
2014/03/26,1690,1711,1672,1679,523500,1679
2014/03/27,1646,1684,1639,1673,383100,1673
2014/03/28,1663,1693,1651,1693,365100,1693
2014/03/31,1699,1719,1690,1714,297900,1714
2014/04/01,1717,1718,1691,1702,195300,1702
2014/04/02,1706,1709,1684,1684,202600,1684
2014/04/03,1682,1699,1674,1695,252000,1695
2014/04/04,1694,1696,1683,1692,132300,1692
2014/04/07,1677,1694,1670,1677,125100,1677
2014/04/08,1668,1673,1653,1662,137700,1662
2014/04/09,1653,1656,1634,1642,270000,1642
2014/04/10,1658,1668,1642,1647,182600,1647
2014/04/11,1629,1644,1623,1632,144400,1632
2014/04/14,1629,1644,1625,1633,133300,1633
2014/04/15,1636,1659,1631,1657,183700,1657
2014/04/16,1665,1672,1655,1667,186000,1667
2014/04/17,1674,1677,1666,1673,148000,1673
2014/04/18,1673,1679,1662,1679,64200,1679
2014/04/21,1679,1692,1652,1677,105700,1677
2014/04/22,1685,1685,1665,1666,107800,1666
2014/04/23,1666,1679,1658,1673,143800,1673
2014/04/24,1675,1681,1658,1674,177200,1674
2014/04/25,1679,1700,1665,1694,232700,1694
2014/04/28,1693,1694,1677,1691,164800,1691
2014/04/30,1692,1704,1686,1700,223000,1700
2014/05/01,1700,1708,1682,1705,225600,1705
2014/05/02,1705,1707,1693,1697,195300,1697
2014/05/07,1691,1691,1662,1664,307500,1664
2014/05/08,1663,1693,1663,1675,210500,1675
2014/05/09,1758,1845,1755,1797,1255600,1797
2014/05/12,1757,1785,1741,1746,702100,1746
2014/05/13,1750,1773,1746,1754,586400,1754
2014/05/14,1753,1771,1746,1753,496800,1753
2014/05/15,1755,1764,1737,1762,313700,1762
2014/05/16,1762,1763,1742,1757,387000,1757
2014/05/19,1761,1795,1760,1769,420200,1769
2014/05/20,1775,1796,1771,1791,288200,1791
2014/05/21,1791,1804,1784,1799,323500,1799
2014/05/22,1800,1829,1791,1827,335700,1827
2014/05/23,1830,1833,1816,1833,316200,1833
2014/05/26,1839,1863,1826,1862,436800,1862
2014/05/27,1862,1865,1838,1842,372400,1842
2014/05/28,1855,1868,1843,1853,398600,1853
2014/05/29,1853,1853,1836,1851,279000,1851
2014/05/30,1851,1865,1846,1848,292900,1848
2014/06/02,1850,1893,1848,1888,375400,1888
2014/06/03,1893,1910,1882,1889,572800,1889
2014/06/04,1887,1887,1842,1873,467600,1873
2014/06/05,1873,1887,1868,1884,292500,1884
2014/06/06,1885,1895,1871,1887,291000,1887
2014/06/09,1887,1888,1861,1865,345700,1865
2014/06/10,1866,1888,1854,1860,390000,1860
2014/06/11,1859,1862,1837,1853,485200,1853
2014/06/12,1839,1860,1835,1848,462100,1848
2014/06/13,1808,1843,1801,1839,657000,1839
2014/06/16,1839,1851,1819,1825,285200,1825
2014/06/17,1825,1837,1809,1831,323300,1831
2014/06/18,1829,1834,1819,1828,244500,1828
2014/06/19,1833,1873,1833,1866,418100,1866
2014/06/20,1869,1872,1848,1848,437000,1848
2014/06/23,1860,1865,1845,1859,353100,1859
2014/06/24,1860,1880,1856,1873,342600,1873
2014/06/25,1879,1890,1872,1880,305200,1880
2014/06/26,1892,1893,1868,1872,213600,1872
2014/06/27,1887,1887,1849,1864,232400,1864
2014/06/30,1870,1900,1859,1899,321000,1899
2014/07/01,1900,1918,1891,1910,295300,1910
2014/07/02,1910,1935,1908,1922,237500,1922
2014/07/03,1926,1928,1912,1919,129600,1919
2014/07/04,1925,1932,1921,1931,106700,1931
2014/07/07,1930,1935,1922,1928,135700,1928
2014/07/08,1937,1947,1927,1934,267200,1934
2014/07/09,1926,1977,1913,1935,913700,1935
2014/07/10,1950,1970,1930,1930,271200,1930
2014/07/11,1911,1931,1896,1929,180800,1929
2014/07/14,1929,1941,1920,1936,231200,1936
2014/07/15,1936,1965,1933,1963,281400,1963
2014/07/16,1949,1963,1938,1953,191900,1953
2014/07/17,1959,1970,1956,1968,165800,1968
2014/07/18,1955,1960,1934,1956,153400,1956
2014/07/22,1964,1983,1961,1978,180900,1978
2014/07/23,1980,2010,1971,1998,533500,1998
2014/07/24,1999,1999,1977,1980,193400,1980
2014/07/25,1982,1990,1972,1990,176700,1990
2014/07/28,1992,1996,1985,1994,160200,1994
2014/07/29,1991,1999,1988,1998,148000,1998
2014/07/30,1999,2000,1977,2000,283400,2000
2014/07/31,1900,1921,1857,1869,1140700,1869
2014/08/01,1860,1863,1810,1843,776500,1843
2014/08/04,1850,1858,1836,1848,268800,1848
2014/08/05,1849,1852,1828,1831,330200,1831
2014/08/06,1825,1847,1819,1833,325600,1833
2014/08/07,1835,1868,1835,1865,305900,1865
2014/08/08,1854,1874,1847,1853,430900,1853
2014/08/11,1886,1886,1859,1879,229400,1879
2014/08/12,1884,1890,1872,1888,256400,1888
2014/08/13,1880,1880,1857,1876,349600,1876
2014/08/14,1876,1913,1875,1908,308800,1908
2014/08/15,1907,1929,1899,1903,242300,1903
2014/08/18,1900,1903,1887,1897,193100,1897
2014/08/19,1901,1913,1899,1910,180200,1910
2014/08/20,1909,1913,1898,1906,207300,1906
2014/08/21,1910,1912,1895,1907,190700,1907
2014/08/22,1910,1915,1905,1908,143200,1908
2014/08/25,1926,1938,1909,1914,240000,1914
2014/08/26,1914,1917,1896,1900,203100,1900
2014/08/27,1912,1917,1893,1901,176100,1901
2014/08/28,1901,1901,1851,1861,494200,1861
2014/08/29,1856,1872,1852,1866,296000,1866
2014/09/01,1866,1868,1855,1856,198100,1856
2014/09/02,1867,1873,1852,1857,251100,1857
2014/09/03,1858,1864,1820,1829,574700,1829
2014/09/04,1830,1830,1817,1824,282700,1824
2014/09/05,1830,1831,1818,1821,309700,1821
2014/09/08,1832,1833,1803,1807,364500,1807
2014/09/09,1819,1819,1795,1799,362300,1799
2014/09/10,1799,1820,1797,1818,247700,1818
2014/09/11,1828,1830,1809,1819,234200,1819
2014/09/12,1828,1836,1816,1835,337000,1835
2014/09/16,1840,1843,1826,1842,289700,1842
2014/09/17,1842,1863,1834,1856,430700,1856
2014/09/18,1863,1874,1861,1870,352800,1870
2014/09/19,1874,1887,1869,1883,280000,1883
2014/09/22,1892,1916,1884,1916,486000,1916
2014/09/24,1914,1920,1907,1915,343400,1915
2014/09/25,1922,1940,1920,1940,326500,1940
2014/09/26,1897,1917,1890,1912,354300,1912
2014/09/29,1920,1922,1907,1918,165200,1918
2014/09/30,1918,1921,1881,1904,335800,1904
2014/10/01,1900,1924,1883,1915,265700,1915
2014/10/02,1899,1916,1870,1872,235500,1872
2014/10/03,1865,1890,1865,1885,190700,1885
2014/10/06,1899,1900,1874,1876,207300,1876
2014/10/07,1876,1894,1874,1874,206600,1874
2014/10/08,1865,1897,1864,1889,314200,1889
2014/10/09,1893,1899,1857,1859,177800,1859
2014/10/10,1832,1859,1831,1838,213700,1838
2014/10/14,1806,1838,1801,1820,297800,1820
2014/10/15,1819,1834,1817,1829,305200,1829
2014/10/16,1801,1828,1786,1792,248200,1792
2014/10/17,1800,1807,1758,1759,247700,1759
2014/10/20,1802,1816,1800,1812,237300,1812
2014/10/21,1814,1819,1785,1791,150300,1791
2014/10/22,1812,1832,1803,1827,169300,1827
2014/10/23,1815,1838,1812,1823,153600,1823
2014/10/24,1842,1844,1818,1841,161000,1841
2014/10/27,1858,1884,1856,1874,266800,1874
2014/10/28,1875,1883,1868,1878,118100,1878
2014/10/29,1890,1908,1880,1903,257400,1903
2014/10/30,1903,1903,1865,1874,550400,1874
2014/10/31,1800,1916,1781,1912,1090200,1912
2014/11/04,1940,1950,1871,1874,609900,1874
2014/11/05,1873,1900,1862,1899,423300,1899
2014/11/06,1913,1929,1877,1888,395200,1888
2014/11/07,1907,1948,1896,1939,442300,1939
2014/11/10,1920,1933,1903,1907,262800,1907
2014/11/11,1909,1937,1909,1926,232100,1926
2014/11/12,1940,1959,1935,1936,380500,1936
2014/11/13,1935,1994,1935,1993,407000,1993
2014/11/14,2000,2039,1999,2036,650900,2036
2014/11/17,2025,2033,1985,1996,405900,1996
2014/11/18,2018,2057,2014,2054,474600,2054
2014/11/19,2060,2078,2041,2053,276000,2053
2014/11/20,2048,2056,2031,2048,262200,2048
2014/11/21,2045,2059,2031,2052,151900,2052
2014/11/25,2056,2056,2017,2027,237100,2027
2014/11/26,2028,2032,1992,1996,293300,1996
2014/11/27,1992,2007,1978,1988,192300,1988
2014/11/28,1981,1997,1981,1993,141900,1993
2014/12/01,2010,2114,2010,2102,929100,2102
2014/12/02,2080,2125,2076,2094,549300,2094
2014/12/03,2080,2106,2073,2088,513700,2088
2014/12/04,2089,2105,2036,2061,623900,2061
2014/12/05,2060,2077,2039,2073,259700,2073
2014/12/08,2073,2084,2035,2063,339300,2063
2014/12/09,2050,2084,2048,2077,277200,2077
2014/12/10,2077,2107,2068,2083,495000,2083
2014/12/11,2082,2096,2038,2057,480900,2057
2014/12/12,2037,2056,2030,2037,495200,2037
2014/12/15,2020,2063,2017,2051,220900,2051
2014/12/16,2020,2041,2002,2003,435000,2003
2014/12/17,1999,2011,1976,1989,390900,1989
2014/12/18,2024,2050,2014,2037,214500,2037
2014/12/19,2073,2083,2042,2074,244000,2074
2014/12/22,2069,2072,2046,2059,224200,2059
2014/12/24,2086,2108,2074,2108,229300,2108
2014/12/25,2100,2119,2093,2111,170900,2111
2014/12/26,2117,2119,2093,2107,386400,2107
2014/12/29,2115,2125,2092,2106,258400,2106
2014/12/30,2114,2114,2082,2084,94000,2084
2015/01/05,2069,2086,2056,2080,197400,2080
2015/01/06,2056,2083,2045,2047,241400,2047
2015/01/07,2030,2077,2030,2058,195000,2058
2015/01/08,2085,2112,2079,2095,166600,2095
2015/01/09,2095,2100,2053,2064,213500,2064
2015/01/13,2049,2093,2048,2091,175800,2091
2015/01/14,2066,2105,2066,2087,173700,2087
2015/01/15,2101,2143,2101,2139,173500,2139
2015/01/16,2102,2118,2062,2107,244500,2107
2015/01/19,2130,2136,2103,2133,124700,2133
2015/01/20,2135,2158,2130,2152,145100,2152
2015/01/21,2148,2166,2135,2150,295300,2150
2015/01/22,2158,2191,2132,2187,320500,2187
2015/01/23,2200,2210,2150,2178,403500,2178
2015/01/26,2170,2205,2168,2190,333700,2190
2015/01/27,2181,2204,2161,2203,453200,2203
2015/01/28,2187,2330,2186,2311,817200,2311
2015/01/29,2298,2353,2269,2299,594300,2299
2015/01/30,2336,2400,2336,2366,602600,2366
2015/02/02,2341,2398,2341,2362,425200,2362
2015/02/03,2379,2401,2337,2348,404000,2348
2015/02/04,2353,2353,2291,2305,519800,2305
2015/02/05,2306,2329,2271,2282,328300,2282
2015/02/06,2300,2300,2261,2269,263900,2269
2015/02/09,2280,2317,2272,2315,324500,2315
2015/02/10,2324,2335,2248,2281,369000,2281
2015/02/12,2330,2433,2315,2413,784400,2413
2015/02/13,2413,2413,2377,2381,282300,2381
2015/02/16,2385,2395,2338,2346,248800,2346
2015/02/17,2356,2443,2335,2440,442400,2440
2015/02/18,2450,2474,2428,2464,386300,2464
2015/02/19,2461,2494,2458,2486,292000,2486
2015/02/20,2476,2490,2461,2482,326400,2482
2015/02/23,2480,2485,2456,2470,231300,2470
2015/02/24,2470,2470,2433,2443,303700,2443
2015/02/25,2443,2453,2421,2451,303100,2451
2015/02/26,2434,2492,2434,2491,255500,2491
2015/02/27,2496,2530,2492,2500,319700,2500
2015/03/02,2500,2550,2500,2511,265000,2511
2015/03/03,2518,2549,2510,2541,185200,2541
2015/03/04,2540,2542,2501,2528,252300,2528
2015/03/05,2515,2548,2515,2540,227800,2540
2015/03/06,2526,2593,2521,2593,289500,2593
2015/03/09,2576,2610,2554,2587,291300,2587
2015/03/10,2600,2613,2571,2578,262900,2578
2015/03/11,2572,2604,2570,2586,227300,2586
2015/03/12,2587,2619,2573,2615,215900,2615
2015/03/13,2613,2639,2587,2588,550800,2588
2015/03/16,2581,2597,2567,2578,327400,2578
2015/03/17,2591,2594,2556,2579,365200,2579
2015/03/18,2562,2605,2559,2603,385900,2603
2015/03/19,2600,2601,2553,2570,319700,2570
2015/03/20,2579,2593,2561,2583,256600,2583
2015/03/23,2595,2618,2587,2615,216600,2615
2015/03/24,2615,2628,2601,2623,241000,2623
2015/03/25,2619,2634,2591,2613,230800,2613
2015/03/26,2599,2600,2565,2579,300100,2579
2015/03/27,2550,2572,2505,2524,302100,2524
2015/03/30,2523,2593,2523,2565,269300,2565
2015/03/31,2593,2598,2520,2520,288200,2520
2015/04/01,2500,2510,2466,2491,276200,2491
2015/04/02,2500,2541,2500,2520,261000,2520
2015/04/03,2520,2579,2510,2578,200500,2578
2015/04/06,2567,2617,2567,2601,188600,2601
2015/04/07,2601,2625,2596,2615,252200,2615
2015/04/08,2621,2662,2618,2656,285200,2656
2015/04/09,2662,2700,2660,2676,260900,2676
2015/04/10,2692,2697,2667,2680,247000,2680
2015/04/13,2679,2679,2617,2632,219400,2632
2015/04/14,2617,2630,2601,2625,171900,2625
2015/04/15,2606,2621,2570,2574,252100,2574
2015/04/16,2550,2570,2513,2538,298900,2538
2015/04/17,2520,2556,2506,2508,317100,2508
2015/04/20,2500,2532,2471,2520,232000,2520
2015/04/21,2521,2555,2504,2554,217000,2554
2015/04/22,2570,2584,2524,2541,290200,2541
2015/04/23,2524,2535,2502,2509,361400,2509
2015/04/24,2510,2543,2510,2520,213500,2520
2015/04/27,2522,2526,2500,2504,171700,2504
2015/04/28,2505,2518,2499,2500,197500,2500
2015/04/30,2497,2497,2430,2442,292000,2442
2015/05/01,2441,2446,2413,2421,294500,2421
2015/05/07,2403,2455,2399,2400,204700,2400
2015/05/08,2396,2434,2396,2421,178600,2421
2015/05/11,2444,2454,2421,2422,187900,2422
2015/05/12,2418,2442,2403,2437,183000,2437
2015/05/13,2410,2413,2347,2359,569500,2359
2015/05/14,2347,2374,2326,2330,295600,2330
2015/05/15,2300,2324,2265,2302,612300,2302
2015/05/18,2300,2329,2293,2318,498600,2318
2015/05/19,2330,2349,2303,2342,349800,2342
2015/05/20,2345,2357,2326,2345,283100,2345
2015/05/21,2365,2379,2345,2346,249000,2346
2015/05/22,2354,2356,2317,2338,245000,2338
2015/05/25,2338,2346,2323,2335,166000,2335
2015/05/26,2340,2356,2335,2346,199200,2346
2015/05/27,2350,2366,2333,2353,268800,2353
2015/05/28,2359,2367,2343,2360,275100,2360
2015/05/29,2350,2405,2350,2361,445000,2361
2015/06/01,2360,2379,2336,2362,240300,2362
2015/06/02,2358,2362,2327,2343,334400,2343
2015/06/03,2338,2354,2332,2345,194200,2345
2015/06/04,2333,2338,2311,2329,198700,2329
2015/06/05,2312,2361,2312,2351,175400,2351
2015/06/08,2351,2352,2312,2320,206900,2320
2015/06/09,2314,2322,2300,2302,190100,2302
2015/06/10,2303,2308,2282,2289,225600,2289
2015/06/11,2291,2324,2289,2320,188300,2320
2015/06/12,2321,2338,2299,2305,353300,2305
2015/06/15,2298,2324,2298,2312,260800,2312
2015/06/16,2286,2291,2219,2234,1177800,2234
2015/06/17,2239,2272,2238,2243,583200,2243
2015/06/18,2241,2259,2241,2250,376600,2250
2015/06/19,2259,2296,2253,2280,649700,2280
2015/06/22,2305,2367,2305,2346,521700,2346
2015/06/23,2364,2382,2329,2378,498800,2378
2015/06/24,2375,2394,2359,2386,564100,2386
2015/06/25,2379,2391,2357,2379,293700,2379
2015/06/26,2386,2396,2364,2382,296900,2382
2015/06/29,2320,2364,2300,2327,264900,2327
2015/06/30,2319,2346,2314,2328,241500,2328
2015/07/01,2320,2336,2301,2335,205600,2335
