2011/01/07,530,530,526,526,3000,526
2011/01/11,515,515,515,515,2000,515
2011/01/13,515,515,515,515,2000,515
2011/01/18,515,515,515,515,2000,515
2011/01/19,487,500,487,500,2000,500
2011/01/24,481,489,481,489,3000,489
2011/01/26,513,513,513,513,1000,513
2011/01/27,528,528,528,528,1000,528
2011/02/04,498,498,498,498,2000,498
2011/02/09,510,510,508,509,5000,509
2011/02/10,509,509,509,509,3000,509
2011/02/18,510,511,510,511,2000,511
2011/02/21,511,511,511,511,1000,511
2011/02/23,524,542,522,522,6000,522
2011/02/24,495,495,495,495,2000,495
2011/02/28,530,530,530,530,1000,530
2011/03/01,550,550,510,520,3000,520
2011/03/02,504,504,504,504,1000,504
2011/03/09,517,517,517,517,1000,517
2011/03/10,505,505,505,505,2000,505
2011/03/11,504,504,504,504,1000,504
2011/03/28,529,529,529,529,2000,529
2011/03/29,520,520,520,520,1000,520
2011/04/08,510,510,510,510,1000,510
2011/04/11,527,527,527,527,2000,527
2011/04/13,497,497,497,497,1000,497
2011/04/18,489,489,489,489,1000,489
2011/04/21,497,497,497,497,1000,497
2011/04/26,504,504,504,504,1000,504
2011/04/28,512,512,486,486,2000,486
2011/05/09,505,505,505,505,1000,505
2011/05/10,528,528,528,528,2000,528
2011/05/18,525,525,525,525,1000,525
2011/05/20,495,495,495,495,2000,495
2011/05/24,500,500,500,500,1000,500
2011/05/25,505,505,500,500,4000,500
2011/05/26,507,507,507,507,1000,507
2011/06/09,517,520,517,520,4000,520
2011/06/10,530,530,530,530,6000,530
2011/06/14,502,502,502,502,1000,502
2011/06/27,527,527,527,527,4000,527
2011/07/05,511,511,511,511,2000,511
2011/07/08,520,520,510,510,3000,510
2011/07/11,530,530,510,510,9000,510
2011/07/20,502,502,502,502,2000,502
2011/07/26,508,508,508,508,1000,508
2011/07/27,498,498,498,498,1000,498
2011/07/28,498,498,498,498,1000,498
2011/08/10,510,518,510,518,2000,518
2011/08/26,509,509,509,509,1000,509
2011/08/29,517,517,517,517,1000,517
2011/08/30,497,505,497,505,2000,505
2011/09/07,500,500,500,500,2000,500
2011/09/12,510,510,510,510,1000,510
2011/09/20,490,490,490,490,2000,490
2011/09/21,498,498,498,498,1000,498
2011/09/26,498,498,498,498,1000,498
2011/10/06,495,495,463,471,3000,471
2011/10/07,485,485,485,485,1000,485
2011/10/11,492,492,492,492,2000,492
2011/10/14,495,495,495,495,2000,495
2011/10/17,495,495,495,495,3000,495
2011/10/18,490,490,480,480,4000,480
2011/10/19,480,480,480,480,1000,480
2011/10/21,485,490,485,490,3000,490
2011/10/24,490,490,490,490,3000,490
2011/10/26,490,490,490,490,3000,490
2011/10/27,490,490,490,490,4000,490
2011/10/28,495,495,490,490,4000,490
2011/10/31,490,490,490,490,3000,490
2011/11/02,493,493,493,493,6000,493
2011/11/04,490,493,490,493,3000,493
2011/11/07,493,494,493,494,2000,494
2011/11/08,494,494,494,494,2000,494
2011/11/09,502,502,502,502,1000,502
2011/11/10,494,494,494,494,3000,494
2011/11/29,543,543,543,543,2000,543
2011/12/02,513,513,505,505,2000,505
2011/12/12,540,540,540,540,4000,540
2011/12/16,511,511,511,511,1000,511
2011/12/26,531,531,531,531,1000,531
2011/12/28,531,531,531,531,1000,531
2012/01/06,530,530,530,530,1000,530
2012/01/10,535,535,535,535,2000,535
2012/01/11,530,530,530,530,2000,530
2012/01/25,530,530,530,530,1000,530
2012/01/26,549,549,549,549,1000,549
2012/01/27,534,543,534,543,2000,543
2012/01/30,543,543,543,543,1000,543
2012/01/31,533,533,531,531,2000,531
2012/02/01,540,540,540,540,1000,540
2012/02/02,540,540,540,540,1000,540
2012/02/09,550,560,550,560,2000,560
2012/02/10,567,567,567,567,1000,567
2012/02/16,550,560,550,560,2000,560
2012/02/17,560,560,560,560,1000,560
2012/02/21,550,560,550,560,2000,560
2012/02/22,560,560,560,560,1000,560
2012/02/24,569,569,569,569,1000,569
2012/02/27,551,551,550,550,2000,550
2012/02/28,570,570,570,570,2000,570
2012/03/02,550,550,550,550,1000,550
2012/03/06,551,560,551,560,2000,560
2012/03/07,560,560,560,560,1000,560
2012/03/09,560,570,560,570,3000,570
2012/03/12,570,570,570,570,3000,570
2012/03/14,570,579,570,579,11000,579
2012/03/15,579,579,579,579,1000,579
2012/03/16,589,589,589,589,1000,589
2012/03/21,589,590,589,590,2000,590
2012/03/26,601,601,581,581,2000,581
2012/04/09,582,582,582,582,1000,582
2012/04/10,582,582,582,582,1000,582
2012/04/12,590,590,590,590,1000,590
2012/04/13,577,577,577,577,1000,577
2012/04/16,575,580,570,580,3000,580
2012/04/17,590,590,590,590,1000,590
2012/04/26,590,590,590,590,1000,590
2012/05/09,590,590,590,590,2000,590
2012/05/10,590,590,590,590,2000,590
2012/05/11,660,660,660,660,1000,660
2012/05/15,630,666,630,666,2000,666
2012/05/25,630,630,630,630,1000,630
2012/05/28,650,650,650,650,2000,650
2012/06/06,630,630,630,630,1000,630
2012/06/11,630,630,630,630,4000,630
2012/06/12,620,620,620,620,1000,620
2012/06/18,601,601,600,600,3000,600
2012/06/26,620,620,620,620,3000,620
2012/07/09,600,600,600,600,1000,600
2012/07/10,600,600,600,600,1000,600
2012/07/11,600,600,600,600,1000,600
2012/07/26,594,594,594,594,1000,594
2012/07/30,594,594,594,594,1000,594
2012/08/07,584,584,584,584,1000,584
2012/08/08,556,556,556,556,1000,556
2012/08/10,576,576,576,576,2000,576
2012/08/13,556,556,551,551,2000,551
2012/08/14,550,560,550,560,5000,560
2012/08/15,550,550,550,550,2000,550
2012/08/16,560,560,560,560,1000,560
2012/08/22,560,568,560,568,2000,568
2012/08/23,560,560,560,560,2000,560
2012/08/27,560,569,555,569,11000,569
2012/08/28,560,560,560,560,1000,560
2012/08/29,570,580,570,580,7000,580
2012/08/30,580,600,580,600,7000,600
2012/09/06,590,590,590,590,1000,590
2012/09/10,600,600,600,600,1000,600
2012/09/11,580,580,580,580,1000,580
2012/09/19,575,575,575,575,1000,575
2012/09/26,588,588,588,588,1000,588
2012/10/04,580,580,580,580,1000,580
2012/10/05,580,580,580,580,1000,580
2012/10/10,580,580,580,580,2000,580
2012/10/12,580,580,580,580,1000,580
2012/10/15,562,572,562,572,3000,572
2012/10/16,578,578,578,578,1000,578
2012/10/22,570,570,570,570,1000,570
2012/10/25,570,570,560,570,6000,570
2012/10/26,573,573,570,570,2000,570
2012/10/29,578,578,578,578,1000,578
2012/11/05,571,571,570,570,2000,570
2012/11/06,570,576,570,576,2000,576
2012/11/07,571,571,570,570,4000,570
2012/11/08,567,577,567,577,2000,577
2012/11/09,577,577,577,577,1000,577
2012/11/12,577,577,571,571,4000,571
2012/11/13,571,571,571,571,1000,571
2012/11/16,560,560,560,560,2000,560
2012/11/19,570,570,570,570,1000,570
2012/11/26,579,579,579,579,1000,579
2012/12/04,570,570,570,570,2000,570
2012/12/07,570,570,570,570,1000,570
2012/12/10,577,577,577,577,1000,577
2012/12/11,579,579,579,579,2000,579
2012/12/12,579,579,579,579,1000,579
2012/12/17,569,578,569,578,3000,578
2012/12/19,569,569,569,569,1000,569
2012/12/20,563,571,561,571,6000,571
2012/12/21,561,570,560,570,5000,570
2012/12/25,565,570,552,570,7000,570
2012/12/26,575,575,575,575,2000,575
2012/12/28,575,575,575,575,1000,575
2013/01/08,575,575,575,575,1000,575
2013/01/09,575,575,575,575,2000,575
2013/01/10,574,574,574,574,2000,574
2013/01/15,575,585,575,585,4000,585
2013/01/22,575,575,575,575,1000,575
2013/01/24,570,570,570,570,1000,570
2013/01/25,574,575,574,575,3000,575
2013/01/28,580,580,580,580,11000,580
2013/01/29,580,580,580,580,2000,580
2013/01/30,589,589,589,589,1000,589
2013/01/31,590,590,590,590,1000,590
2013/02/04,581,589,581,589,2000,589
2013/02/05,589,590,589,590,3000,590
2013/02/12,589,590,589,590,2000,590
2013/02/13,590,590,590,590,1000,590
2013/02/15,600,600,600,600,3000,600
2013/02/18,575,575,575,575,1000,575
2013/02/25,581,588,581,588,6000,588
2013/02/26,560,590,560,590,3000,590
2013/02/27,570,575,565,575,3000,575
2013/02/28,565,569,561,569,4000,569
2013/03/04,565,574,565,574,2000,574
2013/03/05,567,583,566,583,8000,583
2013/03/11,586,586,586,586,2000,586
2013/03/12,578,578,578,578,1000,578
2013/03/18,574,574,574,574,2000,574
2013/03/26,580,580,580,580,2000,580
2013/03/28,580,580,580,580,1000,580
2013/03/29,580,580,580,580,1000,580
2013/04/03,566,566,566,566,1000,566
2013/04/05,570,579,570,579,4000,579
2013/04/08,579,580,579,580,3000,580
2013/04/10,580,580,580,580,3000,580
2013/04/11,580,580,570,570,4000,570
2013/04/15,580,580,580,580,1000,580
2013/04/17,566,566,566,566,3000,566
2013/04/18,570,570,570,570,1000,570
2013/04/19,565,565,565,565,2000,565
2013/04/23,565,565,565,565,1000,565
2013/04/25,570,570,570,570,1000,570
2013/05/07,570,570,570,570,3000,570
2013/05/08,569,570,569,569,6000,569
2013/05/09,570,570,570,570,3000,570
2013/05/10,570,570,569,569,7000,569
2013/05/13,570,570,570,570,4000,570
2013/05/14,568,568,568,568,1000,568
2013/05/20,570,570,570,570,4000,570
2013/05/23,570,570,570,570,2000,570
2013/05/24,570,579,570,579,4000,579
2013/05/27,579,579,570,570,2000,570
2013/05/28,570,570,565,565,3000,565
2013/06/04,562,562,562,562,1000,562
2013/06/06,560,560,560,560,1000,560
2013/06/10,588,588,588,588,5000,588
2013/06/17,550,550,550,550,8000,550
2013/06/19,550,550,540,550,6000,550
2013/06/20,540,560,540,560,3000,560
2013/06/21,545,545,545,545,1000,545
2013/06/24,559,559,559,559,1000,559
2013/06/25,559,560,550,550,4000,550
2013/06/26,560,560,521,540,13000,540
2013/06/27,545,545,545,545,1000,545
2013/07/02,554,554,554,554,1000,554
2013/07/03,555,555,526,543,13000,543
2013/07/04,540,540,540,540,1000,540
2013/07/05,550,560,550,560,2000,560
2013/07/09,550,560,550,550,12000,550
2013/07/10,560,560,560,560,2000,560
2013/07/11,568,568,568,568,1000,568
2013/07/16,559,560,559,560,2000,560
2013/07/19,550,550,540,540,3000,540
2013/07/24,558,560,550,560,11000,560
2013/07/26,560,560,550,550,4000,550
2013/07/29,560,560,560,560,1000,560
2013/07/31,552,552,552,552,1000,552
2013/08/02,558,558,558,558,1000,558
2013/08/05,558,558,558,558,1000,558
2013/08/06,559,560,559,560,3000,560
2013/08/08,560,568,558,558,5000,558
2013/08/12,560,560,560,560,1000,560
2013/08/14,555,555,554,554,3000,554
2013/08/15,553,553,553,553,2000,553
2013/08/20,553,553,553,553,1000,553
2013/08/22,545,545,545,545,7000,545
2013/08/26,554,554,554,554,2000,554
2013/08/28,536,536,536,536,9000,536
2013/08/29,539,539,539,539,1000,539
2013/09/03,544,544,544,544,1000,544
2013/09/04,544,545,544,545,2000,545
2013/09/09,549,549,546,546,2000,546
2013/09/10,554,554,554,554,2000,554
2013/09/11,553,553,550,550,8000,550
2013/09/12,550,550,550,550,2000,550
2013/09/13,550,550,550,550,1000,550
2013/09/17,545,556,545,556,3000,556
2013/09/19,559,559,559,559,1000,559
2013/09/20,549,554,549,554,6000,554
2013/09/25,550,553,550,553,2000,553
2013/09/30,550,550,545,545,3000,545
2013/10/01,541,549,541,549,3000,549
2013/10/07,541,547,541,547,3000,547
2013/10/10,547,549,547,549,2000,549
2013/10/15,548,549,548,549,3000,549
2013/10/23,545,548,545,548,2000,548
2013/10/24,548,548,548,548,1000,548
2013/10/25,528,550,528,548,24000,548
2013/10/28,550,550,540,549,7000,549
2013/10/29,539,544,539,544,7000,544
2013/11/07,541,548,541,548,4000,548
2013/11/08,547,547,547,547,2000,547
2013/11/11,545,545,545,545,2000,545
2013/11/12,541,547,541,547,2000,547
2013/11/13,537,546,537,546,5000,546
2013/11/14,541,546,541,546,3000,546
2013/11/19,545,545,545,545,1000,545
2013/11/20,549,549,549,549,1000,549
2013/11/21,542,548,540,540,3000,540
2013/11/22,544,544,544,544,1000,544
2013/11/26,547,548,547,548,2000,548
2013/11/27,548,550,548,550,22000,550
2013/11/29,551,551,551,551,3000,551
2013/12/03,554,554,554,554,1000,554
2013/12/05,560,560,560,560,1000,560
2013/12/06,559,559,559,559,1000,559
2013/12/09,559,559,559,559,1000,559
2013/12/10,569,578,560,560,12000,560
2013/12/11,568,588,565,570,18000,570
2013/12/12,562,567,562,567,2000,567
2013/12/13,560,560,560,560,1000,560
2013/12/16,560,560,557,557,5000,557
2013/12/17,553,559,553,559,2000,559
2013/12/20,554,554,552,552,3000,552
2013/12/24,555,555,552,555,5000,555
2013/12/25,550,559,550,555,4000,555
2013/12/26,555,555,555,555,1000,555
2013/12/27,555,555,555,555,1000,555
2013/12/30,558,558,558,558,1000,558
2014/01/06,561,561,561,561,2000,561
2014/01/08,568,568,568,568,2000,568
2014/01/10,568,568,568,568,1000,568
2014/01/16,568,578,568,578,3000,578
2014/01/20,578,578,578,578,3000,578
2014/01/27,578,578,578,578,1000,578
2014/01/28,578,586,578,586,4000,586
2014/01/29,586,586,586,586,12000,586
2014/01/30,580,580,578,578,2000,578
2014/01/31,578,578,578,578,1000,578
2014/02/07,580,580,580,580,6000,580
2014/02/10,590,590,590,590,2000,590
2014/02/12,590,600,590,600,12000,600
2014/02/13,600,600,600,600,4000,600
2014/02/17,589,589,589,589,1000,589
2014/02/18,585,585,585,585,1000,585
2014/02/19,588,597,588,597,2000,597
2014/02/24,597,597,597,597,1000,597
2014/02/25,598,610,598,610,8000,610
2014/02/26,610,610,600,600,2000,600
2014/03/03,600,600,600,600,1000,600
2014/03/04,594,594,594,594,1000,594
2014/03/05,600,600,600,600,1000,600
2014/03/06,600,600,600,600,2000,600
2014/03/10,630,630,630,630,2000,630
2014/03/11,603,613,603,613,2000,613
2014/03/12,613,613,613,613,1000,613
2014/03/13,603,603,603,603,1000,603
2014/03/18,603,605,600,605,3000,605
2014/03/25,600,600,600,600,2000,600
2014/03/26,614,614,614,614,3000,614
2014/03/27,600,655,600,655,10000,655
2014/03/28,630,630,630,630,1000,630
2014/04/08,600,600,600,600,1000,600
2014/04/09,600,649,590,649,4000,649
2014/04/10,650,650,650,650,1000,650
2014/04/15,600,600,600,600,2000,600
2014/04/16,590,590,590,590,1000,590
2014/04/23,590,600,590,600,2000,600
2014/04/28,620,620,620,620,1000,620
2014/05/09,605,605,605,605,2000,605
2014/05/12,605,605,605,605,2000,605
2014/05/13,585,585,580,580,2000,580
2014/05/15,590,600,590,600,2000,600
2014/05/23,600,600,600,600,2000,600
2014/05/26,630,630,630,630,1000,630
2014/05/28,630,630,630,630,1000,630
2014/05/30,628,635,628,635,6000,635
2014/06/02,615,615,615,615,2000,615
2014/06/03,610,610,610,610,1000,610
2014/06/09,620,620,620,620,1000,620
2014/06/10,610,610,610,610,1000,610
2014/06/18,603,603,603,603,1000,603
2014/06/23,610,610,610,610,1000,610
2014/06/25,605,605,605,605,3000,605
2014/06/27,606,606,606,606,1000,606
2014/06/30,609,609,609,609,1000,609
2014/07/04,609,609,609,609,2000,609
2014/07/07,605,605,605,605,1000,605
2014/07/09,601,603,601,603,4000,603
2014/07/10,605,605,605,605,4000,605
2014/07/11,605,605,602,602,6000,602
2014/07/18,606,616,606,616,2000,616
2014/07/22,606,606,606,606,1000,606
2014/07/24,616,616,616,616,1000,616
2014/07/25,616,616,616,616,3000,616
2014/07/28,626,626,626,626,1000,626
2014/08/05,610,610,610,610,2000,610
2014/08/08,610,610,610,610,1000,610
2014/08/11,610,610,600,600,10000,600
2014/08/13,600,600,600,600,1000,600
2014/08/22,607,607,601,601,2000,601
2014/08/26,608,608,608,608,1000,608
2014/08/27,600,603,600,603,4000,603
2014/08/28,606,606,606,606,1000,606
2014/09/01,600,600,600,600,4000,600
2014/09/03,600,600,600,600,1000,600
2014/09/10,606,606,600,600,2000,600
2014/09/16,600,600,600,600,5000,600
2014/09/26,608,608,600,600,3000,600
2014/09/29,600,600,600,600,1000,600
2014/10/07,600,600,600,600,1000,600
2014/10/09,601,601,601,601,1000,601
2014/10/10,601,601,601,601,1000,601
2014/10/22,601,601,601,601,5000,601
2014/10/27,607,607,605,605,3000,605
2014/10/28,605,605,605,605,2000,605
2014/10/30,596,606,596,606,3000,606
2014/10/31,609,609,609,609,1000,609
2014/11/05,599,599,599,599,1000,599
2014/11/07,598,598,597,598,3000,598
2014/11/10,605,605,605,605,4000,605
2014/11/11,595,604,595,604,3000,604
2014/11/12,600,600,592,599,4000,599
2014/11/17,599,599,599,599,1000,599
2014/11/18,583,588,583,588,7000,588
2014/11/19,580,594,580,594,13000,594
2014/11/20,584,588,584,588,6000,588
2014/11/21,580,586,580,586,6000,586
2014/11/26,582,593,582,593,7000,593
2014/11/28,594,594,593,593,2000,593
2014/12/01,593,593,577,587,13000,587
2014/12/02,585,585,585,585,1000,585
2014/12/05,581,581,581,581,3000,581
2014/12/08,580,580,577,577,3000,577
2014/12/09,583,583,583,583,1000,583
2014/12/10,583,583,583,583,1000,583
2014/12/11,580,580,580,580,2000,580
2014/12/16,584,584,584,584,1000,584
2014/12/18,579,579,579,579,1000,579
2014/12/19,587,587,587,587,1000,587
2014/12/25,595,595,595,595,1000,595
2014/12/26,591,591,591,591,1000,591
2014/12/29,599,599,599,599,1000,599
2015/01/05,599,599,599,599,7000,599
2015/01/09,589,591,589,591,8000,591
2015/01/13,598,599,598,599,2000,599
2015/01/20,599,599,599,599,1000,599
2015/01/21,599,599,599,599,1000,599
2015/01/23,599,599,599,599,2000,599
2015/01/26,599,599,599,599,1000,599
2015/01/27,598,598,598,598,1000,598
2015/01/28,598,598,598,598,1000,598
2015/01/30,600,600,600,600,1000,600
2015/02/06,586,586,586,586,7000,586
2015/02/09,593,593,593,593,1000,593
2015/02/10,593,593,593,593,1000,593
2015/02/12,593,593,591,591,3000,591
2015/02/16,590,590,590,590,1000,590
2015/02/17,587,587,587,587,1000,587
2015/02/23,596,596,596,596,1000,596
2015/02/24,597,597,597,597,1000,597
2015/02/26,596,596,590,591,3000,591
2015/02/27,590,590,590,590,1000,590
2015/03/02,600,600,599,600,4000,600
2015/03/03,600,600,600,600,1000,600
2015/03/06,600,600,600,600,1000,600
2015/03/10,600,600,600,600,1000,600
2015/03/12,595,595,595,595,1000,595
2015/03/16,597,597,597,597,1000,597
2015/03/17,599,599,599,599,1000,599
2015/03/20,600,600,600,600,1000,600
2015/03/23,595,595,595,595,2000,595
2015/03/26,600,600,590,590,2000,590
2015/03/27,588,588,588,588,2000,588
2015/03/30,586,586,586,586,1000,586
2015/04/01,586,586,586,586,2000,586
2015/04/03,586,590,586,590,4000,590
2015/04/07,590,590,587,587,2000,587
2015/04/09,596,596,596,596,2000,596
2015/04/10,594,594,594,594,1000,594
2015/04/13,591,599,591,599,3000,599
2015/04/16,591,591,591,591,1000,591
2015/04/27,594,594,588,590,6000,590
2015/04/28,593,593,593,593,1000,593
2015/05/07,595,595,595,595,1000,595
2015/05/08,585,585,585,585,1000,585
2015/05/11,594,594,594,594,2000,594
2015/05/15,585,585,585,585,1000,585
2015/05/26,593,593,593,593,1000,593
2015/06/01,593,593,593,593,1000,593
2015/06/02,593,593,590,590,4000,590
2015/06/04,590,590,586,586,3000,586
2015/06/10,592,592,591,591,2000,591
2015/06/11,592,592,592,592,1000,592
2015/06/12,593,593,590,590,3000,590
2015/06/22,592,592,592,592,1000,592
2015/06/26,595,595,595,595,3000,595
2015/06/29,600,600,600,600,1000,600
2015/07/01,600,600,600,600,1000,600
