2011/01/06,1329,1329,1329,1329,1000,1329
2011/01/11,1305,1305,1305,1305,1000,1305
2011/01/12,1310,1310,1310,1310,4000,1310
2011/01/17,1309,1309,1309,1309,1000,1309
2011/01/18,1302,1302,1302,1302,1000,1302
2011/01/20,1301,1301,1300,1300,5000,1300
2011/01/24,1300,1309,1300,1309,2000,1309
2011/01/25,1310,1320,1310,1320,2000,1320
2011/01/26,1320,1320,1320,1320,4000,1320
2011/01/31,1379,1379,1379,1379,1000,1379
2011/02/01,1350,1350,1350,1350,2000,1350
2011/02/03,1350,1350,1350,1350,1000,1350
2011/02/08,1322,1322,1322,1322,2000,1322
2011/02/14,1340,1340,1340,1340,2000,1340
2011/02/16,1330,1330,1330,1330,1000,1330
2011/02/17,1349,1349,1340,1340,2000,1340
2011/02/18,1340,1340,1340,1340,2000,1340
2011/02/21,1370,1370,1341,1341,2000,1341
2011/02/22,1340,1340,1340,1340,1000,1340
2011/02/23,1341,1341,1331,1331,2000,1331
2011/02/24,1330,1335,1330,1335,2000,1335
2011/02/25,1361,1361,1350,1350,4000,1350
2011/02/28,1380,1380,1375,1375,5000,1375
2011/03/02,1385,1385,1385,1385,1000,1385
2011/03/03,1384,1384,1384,1384,1000,1384
2011/03/08,1384,1385,1384,1385,3000,1385
2011/03/09,1385,1385,1385,1385,1000,1385
2011/03/10,1365,1365,1360,1360,4000,1360
2011/03/11,1389,1389,1380,1380,2000,1380
2011/03/14,1330,1345,1306,1306,3000,1306
2011/03/15,1306,1330,1300,1330,4000,1330
2011/03/16,1306,1306,1261,1261,4000,1261
2011/03/18,1345,1345,1345,1345,1000,1345
2011/03/22,1340,1340,1340,1340,1000,1340
2011/03/23,1350,1350,1350,1350,1000,1350
2011/03/25,1335,1360,1335,1360,4000,1360
2011/03/28,1331,1374,1330,1330,6000,1330
2011/03/29,1250,1254,1250,1254,3000,1254
2011/03/30,1267,1267,1266,1266,2000,1266
2011/04/04,1256,1256,1256,1256,1000,1256
2011/04/05,1256,1286,1256,1286,2000,1286
2011/04/06,1290,1290,1260,1260,2000,1260
2011/04/12,1249,1249,1249,1249,1000,1249
2011/04/14,1270,1270,1270,1270,2000,1270
2011/04/19,1268,1268,1268,1268,1000,1268
2011/04/20,1267,1267,1267,1267,1000,1267
2011/04/21,1267,1267,1267,1267,2000,1267
2011/04/25,1290,1295,1290,1295,2000,1295
2011/04/26,1290,1290,1290,1290,3000,1290
2011/04/27,1282,1282,1275,1275,2000,1275
2011/04/28,1275,1275,1247,1247,2000,1247
2011/05/06,1330,1330,1330,1330,1000,1330
2011/05/11,1320,1320,1320,1320,1000,1320
2011/05/12,1320,1320,1320,1320,1000,1320
2011/05/24,1320,1320,1320,1320,1000,1320
2011/05/26,1350,1350,1350,1350,3000,1350
2011/05/27,1340,1340,1340,1340,1000,1340
2011/06/02,1310,1334,1310,1320,5000,1320
2011/06/03,1320,1340,1320,1320,8000,1320
2011/06/07,1330,1330,1330,1330,1000,1330
2011/06/08,1330,1330,1329,1329,2000,1329
2011/06/10,1348,1348,1330,1330,2000,1330
2011/06/13,1349,1349,1349,1349,2000,1349
2011/06/14,1349,1358,1349,1358,3000,1358
2011/06/15,1398,1398,1398,1398,14000,1398
2011/06/16,1398,1398,1398,1398,1000,1398
2011/06/17,1368,1368,1351,1351,2000,1351
2011/06/21,1350,1350,1340,1340,2000,1340
2011/06/22,1340,1340,1340,1340,3000,1340
2011/06/24,1343,1343,1343,1343,1000,1343
2011/06/27,1350,1350,1350,1350,2000,1350
2011/06/29,1380,1380,1380,1380,1000,1380
2011/06/30,1380,1380,1380,1380,1000,1380
2011/07/01,1389,1389,1389,1389,1000,1389
2011/07/05,1380,1380,1380,1380,1000,1380
2011/07/06,1356,1356,1356,1356,1000,1356
2011/07/07,1345,1356,1345,1350,3000,1350
2011/07/08,1379,1379,1379,1379,1000,1379
2011/07/11,1397,1398,1397,1398,8000,1398
2011/07/13,1390,1390,1390,1390,1000,1390
2011/07/19,1360,1360,1360,1360,1000,1360
2011/07/20,1359,1359,1341,1341,2000,1341
2011/07/21,1341,1352,1340,1340,5000,1340
2011/07/22,1350,1350,1350,1350,1000,1350
2011/07/25,1355,1355,1355,1355,1000,1355
2011/07/26,1350,1350,1350,1350,5000,1350
2011/07/28,1340,1340,1340,1340,1000,1340
2011/08/02,1340,1340,1340,1340,1000,1340
2011/08/03,1340,1340,1338,1338,4000,1338
2011/08/04,1338,1338,1338,1338,1000,1338
2011/08/05,1349,1349,1349,1349,1000,1349
2011/08/08,1340,1340,1340,1340,1000,1340
2011/08/09,1340,1340,1340,1340,1000,1340
2011/08/10,1331,1340,1330,1330,3000,1330
2011/08/11,1330,1330,1330,1330,1000,1330
2011/08/12,1340,1398,1340,1398,2000,1398
2011/08/15,1380,1380,1380,1380,1000,1380
2011/08/16,1370,1370,1350,1350,2000,1350
2011/08/17,1350,1370,1350,1370,2000,1370
2011/08/19,1390,1390,1362,1390,8000,1390
2011/08/22,1390,1390,1390,1390,2000,1390
2011/08/23,1390,1390,1390,1390,1000,1390
2011/08/24,1390,1390,1366,1390,3000,1390
2011/08/25,1380,1380,1380,1380,1000,1380
2011/08/26,1390,1390,1390,1390,4000,1390
2011/08/29,1360,1370,1360,1370,2000,1370
2011/09/01,1390,1390,1390,1390,1000,1390
2011/09/08,1395,1395,1395,1395,1000,1395
2011/09/13,1395,1395,1395,1395,1000,1395
2011/09/15,1390,1390,1390,1390,1000,1390
2011/09/20,1390,1390,1390,1390,2000,1390
2011/09/22,1381,1381,1381,1381,1000,1381
2011/09/26,1400,1510,1390,1510,5000,1510
2011/09/27,1381,1390,1381,1390,2000,1390
2011/09/28,1380,1380,1380,1380,1000,1380
2011/09/29,1380,1380,1380,1380,1000,1380
2011/10/03,1351,1351,1351,1351,1000,1351
2011/10/04,1351,1351,1351,1351,1000,1351
2011/10/05,1352,1352,1352,1352,1000,1352
2011/10/06,1353,1353,1353,1353,1000,1353
2011/10/14,1365,1365,1365,1365,1000,1365
2011/10/24,1365,1365,1365,1365,1000,1365
2011/10/25,1365,1410,1365,1410,6000,1410
2011/10/26,1452,1452,1400,1400,7000,1400
2011/10/27,1390,1400,1390,1395,4000,1395
2011/10/28,1395,1460,1395,1460,4000,1460
2011/11/01,1430,1459,1401,1459,12000,1459
2011/11/02,1455,1455,1455,1455,1000,1455
2011/11/04,1425,1450,1425,1450,2000,1450
2011/11/07,1420,1450,1400,1450,8000,1450
2011/11/08,1435,1450,1435,1450,5000,1450
2011/11/09,1420,1420,1400,1400,2000,1400
2011/11/10,1400,1400,1400,1400,1000,1400
2011/11/11,1430,1430,1430,1430,1000,1430
2011/11/14,1420,1420,1400,1400,3000,1400
2011/11/15,1420,1430,1420,1430,4000,1430
2011/11/16,1420,1420,1420,1420,2000,1420
2011/11/17,1420,1430,1420,1430,2000,1430
2011/11/18,1400,1400,1400,1400,2000,1400
2011/11/21,1430,1430,1430,1430,1000,1430
2011/11/22,1430,1450,1430,1450,4000,1450
2011/11/24,1430,1450,1430,1450,6000,1450
2011/11/25,1450,1455,1450,1453,4000,1453
2011/11/28,1430,1430,1430,1430,4000,1430
2011/12/01,1455,1480,1455,1480,2000,1480
2011/12/09,1450,1470,1450,1460,3000,1460
2011/12/12,1490,1500,1468,1480,9000,1480
2011/12/14,1470,1480,1470,1480,5000,1480
2011/12/16,1475,1475,1475,1475,1000,1475
2011/12/20,1485,1485,1484,1484,2000,1484
2011/12/21,1500,1500,1500,1500,1000,1500
2011/12/22,1500,1502,1500,1500,4000,1500
2011/12/26,1501,1501,1490,1490,5000,1490
2011/12/27,1480,1489,1459,1465,4000,1465
2011/12/28,1465,1465,1450,1450,2000,1450
2011/12/29,1500,1500,1500,1500,1000,1500
2012/01/06,1490,1500,1485,1500,6000,1500
2012/01/10,1500,1500,1483,1483,3000,1483
2012/01/11,1484,1484,1484,1484,1000,1484
2012/01/12,1479,1498,1479,1480,5000,1480
2012/01/13,1480,1480,1480,1480,3000,1480
2012/01/16,1485,1485,1485,1485,1000,1485
2012/01/19,1499,1500,1499,1500,3000,1500
2012/01/20,1500,1500,1500,1500,1000,1500
2012/01/23,1500,1500,1500,1500,1000,1500
2012/01/24,1500,1500,1500,1500,1000,1500
2012/01/25,1514,1514,1510,1510,2000,1510
2012/01/26,1514,1514,1501,1501,6000,1501
2012/01/30,1501,1501,1500,1500,3000,1500
2012/02/02,1500,1500,1500,1500,5000,1500
2012/02/03,1500,1500,1484,1484,7000,1484
2012/02/06,1500,1500,1488,1488,2000,1488
2012/02/07,1488,1488,1488,1488,1000,1488
2012/02/09,1485,1510,1485,1510,6000,1510
2012/02/15,1486,1500,1486,1500,2000,1500
2012/02/16,1500,1500,1500,1500,1000,1500
2012/02/20,1501,1501,1501,1501,1000,1501
2012/02/22,1501,1501,1501,1501,1000,1501
2012/02/24,1500,1500,1500,1500,2000,1500
2012/02/27,1510,1510,1510,1510,5000,1510
2012/02/28,1510,1520,1510,1520,2000,1520
2012/02/29,1525,1525,1525,1525,1000,1525
2012/03/01,1506,1506,1505,1505,2000,1505
2012/03/02,1505,1510,1505,1510,2000,1510
2012/03/06,1517,1518,1517,1518,2000,1518
2012/03/07,1513,1513,1513,1513,1000,1513
2012/03/12,1520,1520,1520,1520,1000,1520
2012/03/13,1520,1535,1520,1535,2000,1535
2012/03/16,1520,1520,1520,1520,3000,1520
2012/03/21,1520,1520,1511,1511,2000,1511
2012/03/22,1511,1511,1511,1511,2000,1511
2012/03/23,1516,1516,1516,1516,1000,1516
2012/03/26,1535,1535,1535,1535,3000,1535
2012/03/27,1535,1535,1535,1535,1000,1535
2012/03/28,1500,1500,1500,1500,3000,1500
2012/03/30,1500,1500,1500,1500,1000,1500
2012/04/02,1500,1500,1500,1500,1000,1500
2012/04/03,1500,1500,1500,1500,1000,1500
2012/04/04,1500,1500,1485,1485,2000,1485
2012/04/05,1485,1485,1465,1465,2000,1465
2012/04/09,1450,1450,1450,1450,1000,1450
2012/04/10,1450,1450,1447,1450,4000,1450
2012/04/24,1448,1448,1448,1448,1000,1448
2012/04/25,1448,1470,1448,1460,3000,1460
2012/04/26,1445,1450,1445,1448,6000,1448
2012/04/27,1450,1450,1450,1450,1000,1450
2012/05/08,1441,1441,1441,1441,1000,1441
2012/05/15,1480,1500,1480,1500,6000,1500
2012/05/16,1500,1500,1500,1500,6000,1500
2012/05/17,1500,1515,1500,1515,4000,1515
2012/05/22,1475,1475,1475,1475,1000,1475
2012/05/23,1458,1458,1458,1458,1000,1458
2012/05/24,1458,1458,1458,1458,1000,1458
2012/05/29,1484,1484,1484,1484,2000,1484
2012/05/30,1484,1484,1484,1484,1000,1484
2012/05/31,1456,1486,1456,1486,3000,1486
2012/06/01,1486,1486,1485,1485,2000,1485
2012/06/05,1485,1485,1485,1485,1000,1485
2012/06/06,1485,1485,1455,1455,5000,1455
2012/06/07,1480,1485,1480,1480,5000,1480
2012/06/13,1480,1495,1480,1495,8000,1495
2012/06/14,1495,1495,1495,1495,14000,1495
2012/06/18,1495,1495,1495,1495,1000,1495
2012/06/20,1465,1465,1465,1465,1000,1465
2012/06/25,1465,1465,1465,1465,1000,1465
2012/06/26,1465,1465,1465,1465,2000,1465
2012/07/03,1435,1435,1435,1435,1000,1435
2012/07/04,1445,1445,1445,1445,1000,1445
2012/07/05,1450,1450,1450,1450,1000,1450
2012/07/09,1462,1462,1462,1462,1000,1462
2012/07/17,1462,1462,1462,1462,1000,1462
2012/07/24,1462,1462,1462,1462,1000,1462
2012/07/25,1462,1462,1462,1462,2000,1462
2012/07/26,1462,1462,1462,1462,7000,1462
2012/08/02,1402,1402,1402,1402,7000,1402
2012/08/03,1402,1405,1402,1405,3000,1405
2012/08/06,1415,1415,1402,1402,2000,1402
2012/08/09,1410,1410,1410,1410,1000,1410
2012/08/14,1410,1410,1390,1390,3000,1390
2012/08/16,1415,1415,1415,1415,1000,1415
2012/08/17,1410,1410,1380,1380,3000,1380
2012/08/20,1400,1400,1400,1400,1000,1400
2012/08/27,1405,1405,1405,1405,3000,1405
2012/08/29,1410,1410,1410,1410,1000,1410
2012/09/05,1377,1377,1377,1377,1000,1377
2012/09/07,1385,1385,1385,1385,1000,1385
2012/09/10,1379,1379,1379,1379,1000,1379
2012/09/12,1376,1376,1376,1376,1000,1376
2012/09/24,1380,1380,1380,1380,2000,1380
2012/09/26,1438,1438,1438,1438,2000,1438
2012/09/27,1438,1438,1400,1400,4000,1400
2012/10/05,1430,1430,1430,1430,1000,1430
2012/10/09,1445,1445,1445,1445,1000,1445
2012/10/12,1400,1400,1400,1400,1000,1400
2012/10/16,1384,1384,1384,1384,1000,1384
2012/10/22,1448,1448,1448,1448,1000,1448
2012/10/24,1393,1393,1393,1393,2000,1393
2012/10/25,1423,1423,1393,1410,3000,1410
2012/10/26,1410,1410,1410,1410,4000,1410
2012/11/02,1390,1410,1390,1410,2000,1410
2012/11/13,1470,1470,1470,1470,4000,1470
2012/11/14,1450,1450,1450,1450,1000,1450
2012/11/21,1433,1433,1433,1433,1000,1433
2012/11/26,1480,1480,1480,1480,2000,1480
2012/11/27,1480,1480,1480,1480,1000,1480
2012/11/30,1439,1439,1439,1439,1000,1439
2012/12/04,1445,1445,1445,1445,1000,1445
2012/12/07,1462,1462,1462,1462,1000,1462
2012/12/10,1460,1460,1460,1460,1000,1460
2012/12/11,1457,1457,1457,1457,1000,1457
2012/12/13,1456,1456,1450,1450,3000,1450
2012/12/14,1450,1450,1450,1450,1000,1450
2012/12/18,1460,1460,1460,1460,1000,1460
2012/12/21,1468,1468,1451,1451,3000,1451
2012/12/25,1451,1451,1451,1451,1000,1451
2012/12/26,1453,1460,1453,1460,3000,1460
2013/01/08,1470,1470,1451,1451,6000,1451
2013/01/11,1468,1468,1468,1468,1000,1468
2013/01/15,1465,1471,1465,1465,3000,1465
2013/01/17,1475,1475,1468,1468,2000,1468
2013/01/18,1480,1480,1480,1480,1000,1480
2013/01/21,1485,1485,1485,1485,1000,1485
2013/01/23,1485,1485,1485,1485,3000,1485
2013/01/28,1498,1498,1498,1498,2000,1498
2013/01/29,1498,1500,1498,1498,7000,1498
2013/01/30,1500,1500,1500,1500,1000,1500
2013/01/31,1510,1510,1510,1510,2000,1510
2013/02/01,1502,1502,1498,1498,6000,1498
2013/02/05,1520,1520,1520,1520,2000,1520
2013/02/06,1503,1503,1503,1503,1000,1503
2013/02/08,1503,1503,1503,1503,1000,1503
2013/02/12,1500,1500,1500,1500,1000,1500
2013/02/13,1510,1510,1510,1510,1000,1510
2013/02/15,1512,1512,1512,1512,1000,1512
2013/02/18,1528,1528,1510,1510,2000,1510
2013/02/19,1500,1500,1500,1500,1000,1500
2013/02/21,1505,1510,1505,1510,2000,1510
2013/02/25,1520,1525,1520,1525,4000,1525
2013/02/26,1525,1530,1525,1530,2000,1530
2013/02/27,1540,1540,1540,1540,1000,1540
2013/02/28,1540,1550,1540,1550,2000,1550
2013/03/01,1520,1550,1515,1515,3000,1515
2013/03/04,1530,1530,1530,1530,1000,1530
2013/03/07,1546,1546,1546,1546,1000,1546
2013/03/08,1550,1560,1550,1560,7000,1560
2013/03/11,1560,1560,1556,1556,4000,1556
2013/03/13,1560,1560,1560,1560,1000,1560
2013/03/14,1560,1560,1555,1555,5000,1555
2013/03/15,1570,1570,1570,1570,1000,1570
2013/03/18,1560,1580,1560,1580,3000,1580
2013/03/19,1570,1570,1560,1560,2000,1560
2013/03/21,1580,1590,1561,1590,7000,1590
2013/03/22,1590,1590,1590,1590,1000,1590
2013/03/25,1580,1599,1580,1592,7000,1592
2013/03/26,1610,1619,1600,1600,7000,1600
2013/03/27,1565,1565,1560,1560,9000,1560
2013/03/28,1515,1515,1491,1491,7000,1491
2013/03/29,1498,1498,1498,1498,1000,1498
2013/04/01,1495,1495,1480,1480,4000,1480
2013/04/02,1465,1465,1435,1435,2000,1435
2013/04/03,1464,1464,1464,1464,1000,1464
2013/04/04,1463,1465,1463,1465,2000,1465
2013/04/05,1493,1493,1480,1480,2000,1480
2013/04/08,1483,1483,1480,1483,3000,1483
2013/04/09,1483,1483,1483,1483,1000,1483
2013/04/10,1483,1483,1483,1483,1000,1483
2013/04/11,1485,1510,1485,1510,4000,1510
2013/04/12,1500,1500,1490,1490,2000,1490
2013/04/15,1500,1510,1500,1510,4000,1510
2013/04/17,1510,1510,1510,1510,1000,1510
2013/04/18,1500,1500,1500,1500,3000,1500
2013/04/22,1500,1510,1500,1510,2000,1510
2013/04/23,1500,1500,1500,1500,2000,1500
2013/04/25,1498,1500,1498,1500,4000,1500
2013/04/26,1491,1491,1490,1490,5000,1490
2013/04/30,1491,1491,1491,1491,1000,1491
2013/05/01,1491,1491,1491,1491,1000,1491
2013/05/02,1500,1500,1500,1500,2000,1500
2013/05/08,1484,1490,1484,1490,3000,1490
2013/05/09,1485,1490,1485,1490,2000,1490
2013/05/13,1505,1505,1490,1490,4000,1490
2013/05/17,1489,1490,1489,1490,3000,1490
2013/05/20,1510,1510,1510,1510,1000,1510
2013/05/21,1510,1510,1490,1490,2000,1490
2013/05/22,1490,1490,1489,1489,2000,1489
2013/05/24,1489,1489,1485,1485,4000,1485
2013/05/27,1489,1489,1489,1489,2000,1489
2013/05/28,1489,1489,1489,1489,1000,1489
2013/05/29,1470,1470,1470,1470,1000,1470
2013/05/30,1470,1470,1460,1460,8000,1460
2013/05/31,1461,1461,1461,1461,1000,1461
2013/06/03,1489,1489,1489,1489,1000,1489
2013/06/05,1485,1485,1485,1485,1000,1485
2013/06/06,1486,1486,1486,1486,1000,1486
2013/06/07,1485,1485,1475,1475,2000,1475
2013/06/11,1480,1482,1480,1482,2000,1482
2013/06/12,1500,1510,1500,1510,6000,1510
2013/06/13,1508,1508,1508,1508,12000,1508
2013/06/18,1470,1470,1470,1470,1000,1470
2013/06/19,1470,1470,1470,1470,1000,1470
2013/06/25,1480,1500,1480,1500,2000,1500
2013/06/26,1500,1500,1500,1500,4000,1500
2013/06/27,1500,1500,1500,1500,1000,1500
2013/06/28,1471,1471,1471,1471,1000,1471
2013/07/01,1490,1490,1490,1490,1000,1490
2013/07/03,1480,1480,1480,1480,1000,1480
2013/07/04,1480,1480,1468,1468,2000,1468
2013/07/05,1452,1475,1452,1475,2000,1475
2013/07/09,1477,1477,1477,1477,1000,1477
2013/07/11,1477,1477,1468,1468,2000,1468
2013/07/16,1470,1480,1468,1468,9000,1468
2013/07/17,1470,1470,1468,1468,3000,1468
2013/07/18,1470,1470,1470,1470,7000,1470
2013/07/19,1483,1483,1483,1483,1000,1483
2013/07/25,1470,1470,1470,1470,1000,1470
2013/07/26,1489,1489,1471,1471,4000,1471
2013/07/30,1471,1471,1471,1471,2000,1471
2013/07/31,1471,1471,1471,1471,1000,1471
2013/08/01,1460,1460,1460,1460,1000,1460
2013/08/02,1460,1460,1460,1460,1000,1460
2013/08/06,1460,1460,1460,1460,2000,1460
2013/08/07,1460,1469,1460,1469,3000,1469
2013/08/09,1474,1474,1474,1474,1000,1474
2013/08/12,1480,1480,1480,1480,1000,1480
2013/08/19,1479,1479,1460,1460,2000,1460
2013/08/20,1461,1461,1461,1461,1000,1461
2013/08/21,1461,1461,1461,1461,1000,1461
2013/08/22,1461,1461,1461,1461,2000,1461
2013/08/23,1461,1461,1461,1461,1000,1461
2013/08/26,1468,1468,1461,1461,4000,1461
2013/08/27,1461,1461,1461,1461,1000,1461
2013/08/29,1461,1461,1461,1461,2000,1461
2013/09/02,1461,1461,1461,1461,1000,1461
2013/09/03,1461,1461,1461,1461,1000,1461
2013/09/04,1461,1461,1461,1461,1000,1461
2013/09/11,1494,1500,1494,1500,10000,1500
2013/09/13,1488,1488,1488,1488,1000,1488
2013/09/17,1484,1484,1484,1484,2000,1484
2013/09/18,1485,1490,1485,1490,2000,1490
2013/09/24,1499,1499,1499,1499,1000,1499
2013/09/25,1500,1500,1500,1500,3000,1500
2013/09/26,1500,1534,1500,1534,2000,1534
2013/09/27,1525,1525,1525,1525,1000,1525
2013/09/30,1506,1525,1506,1525,6000,1525
2013/10/01,1534,1535,1505,1530,7000,1530
2013/10/02,1535,1535,1530,1534,600,1534
2013/10/03,1530,1530,1520,1520,900,1520
2013/10/04,1506,1509,1500,1509,2100,1509
2013/10/07,1510,1530,1510,1530,2400,1530
2013/10/08,1530,1530,1506,1528,700,1528
2013/10/09,1512,1520,1512,1520,600,1520
2013/10/10,1514,1514,1502,1502,1800,1502
2013/10/11,1510,1533,1510,1533,5300,1533
2013/10/15,1530,1530,1500,1505,1500,1505
2013/10/16,1510,1510,1510,1510,1000,1510
2013/10/17,1511,1524,1511,1516,1100,1516
2013/10/18,1520,1524,1520,1524,600,1524
2013/10/21,1510,1527,1510,1526,3800,1526
2013/10/22,1510,1520,1510,1520,2800,1520
2013/10/23,1524,1524,1520,1521,1300,1521
2013/10/24,1529,1529,1515,1527,2900,1527
2013/10/25,1527,1527,1520,1524,700,1524
2013/10/28,1532,1535,1524,1535,5000,1535
2013/10/29,1535,1535,1512,1512,4000,1512
2013/10/30,1512,1519,1511,1519,1400,1519
2013/10/31,1520,1520,1520,1520,1000,1520
2013/11/01,1530,1530,1524,1525,900,1525
2013/11/05,1525,1525,1520,1520,200,1520
2013/11/06,1520,1525,1520,1520,2100,1520
2013/11/07,1520,1520,1518,1520,3000,1520
2013/11/08,1520,1520,1515,1520,4000,1520
2013/11/11,1515,1524,1510,1524,1800,1524
2013/11/12,1524,1525,1520,1520,2200,1520
2013/11/13,1521,1525,1521,1523,800,1523
2013/11/14,1523,1530,1521,1521,2700,1521
2013/11/15,1525,1525,1520,1520,2000,1520
2013/11/18,1521,1525,1521,1523,1700,1523
2013/11/19,1525,1525,1520,1520,2600,1520
2013/11/20,1525,1525,1521,1521,200,1521
2013/11/21,1521,1525,1521,1525,1700,1525
2013/11/22,1525,1530,1523,1524,5000,1524
2013/11/25,1521,1530,1520,1530,7600,1530
2013/11/26,1535,1536,1530,1536,6400,1536
2013/11/27,1535,1535,1522,1534,1900,1534
2013/11/28,1535,1574,1535,1574,17000,1574
2013/11/29,1575,1575,1549,1575,11300,1575
2013/12/02,1578,1600,1575,1598,3400,1598
2013/12/03,1597,1599,1597,1599,3000,1599
2013/12/04,1599,1599,1582,1594,4000,1594
2013/12/05,1595,1600,1575,1580,5500,1580
2013/12/06,1570,1573,1570,1570,2200,1570
2013/12/09,1565,1570,1563,1569,3900,1569
2013/12/10,1570,1570,1545,1565,12000,1565
2013/12/11,1575,1575,1562,1562,2900,1562
2013/12/12,1562,1562,1560,1562,4300,1562
2013/12/13,1560,1565,1552,1565,13000,1565
2013/12/16,1565,1565,1560,1562,5900,1562
2013/12/17,1565,1565,1564,1565,1900,1565
2013/12/18,1565,1565,1560,1560,5000,1560
2013/12/19,1560,1564,1560,1561,2300,1561
2013/12/20,1562,1562,1552,1552,3500,1552
2013/12/24,1550,1562,1550,1550,5600,1550
2013/12/25,1543,1555,1543,1553,7200,1553
2013/12/26,1555,1560,1555,1560,8600,1560
2013/12/27,1580,1580,1560,1560,1400,1560
2013/12/30,1565,1579,1565,1578,2800,1578
2014/01/06,1580,1610,1580,1609,4900,1609
2014/01/07,1609,1610,1600,1609,1500,1609
2014/01/08,1609,1610,1600,1610,2900,1610
2014/01/09,1610,1612,1605,1610,1300,1610
2014/01/10,1615,1615,1610,1615,1600,1615
2014/01/14,1615,1630,1614,1614,5500,1614
2014/01/15,1635,1640,1619,1640,3000,1640
2014/01/16,1645,1650,1631,1650,4200,1650
2014/01/17,1640,1660,1640,1660,2000,1660
2014/01/20,1660,1680,1660,1680,5200,1680
2014/01/21,1680,1682,1675,1682,4600,1682
2014/01/22,1681,1690,1681,1689,2900,1689
2014/01/23,1690,1700,1690,1690,6800,1690
2014/01/24,1690,1705,1685,1705,2800,1705
2014/01/27,1719,1730,1710,1712,8100,1712
2014/01/28,1725,1739,1720,1739,3200,1739
2014/01/29,1750,1785,1739,1740,14600,1740
2014/01/30,1740,1740,1706,1706,4400,1706
2014/01/31,1707,1748,1707,1732,3100,1732
2014/02/03,1732,1742,1705,1742,2300,1742
2014/02/04,1735,1767,1700,1767,6600,1767
2014/02/05,1778,1782,1767,1782,3700,1782
2014/02/06,1797,1798,1725,1755,2900,1755
2014/02/07,1777,1780,1741,1750,2700,1750
2014/02/10,1774,1774,1760,1770,600,1770
2014/02/12,1761,1761,1746,1746,1800,1746
2014/02/13,1748,1757,1748,1750,1900,1750
2014/02/14,1740,1753,1740,1750,3000,1750
2014/02/17,1769,1769,1750,1750,700,1750
2014/02/18,1740,1780,1740,1748,2300,1748
2014/02/19,1769,1769,1748,1768,500,1768
2014/02/20,1768,1768,1749,1760,4000,1760
2014/02/21,1760,1760,1748,1750,3000,1750
2014/02/24,1748,1759,1748,1750,3300,1750
2014/02/25,1740,1750,1720,1722,7900,1722
2014/02/26,1712,1730,1710,1720,34100,1720
2014/02/27,1730,1730,1723,1725,6400,1725
2014/02/28,1728,1730,1724,1730,2300,1730
2014/03/03,1730,1740,1725,1740,5900,1740
2014/03/04,1740,1744,1740,1744,1200,1744
2014/03/05,1748,1748,1734,1740,6000,1740
2014/03/06,1734,1743,1734,1743,300,1743
2014/03/07,1747,1747,1735,1745,3300,1745
2014/03/10,1749,1760,1740,1758,5300,1758
2014/03/11,1764,1764,1758,1760,2700,1760
2014/03/12,1760,1765,1754,1756,3000,1756
2014/03/13,1754,1760,1750,1760,3700,1760
2014/03/14,1755,1765,1750,1763,5600,1763
2014/03/17,1766,1766,1756,1761,2100,1761
2014/03/18,1763,1765,1740,1745,3000,1745
2014/03/19,1769,1770,1768,1770,3000,1770
2014/03/20,1771,1771,1720,1730,4700,1730
2014/03/24,1730,1760,1730,1754,3000,1754
2014/03/25,1765,1772,1757,1772,4300,1772
2014/03/26,1779,1785,1772,1784,8100,1784
2014/03/27,1652,1700,1651,1690,7700,1690
2014/03/28,1705,1705,1689,1691,6500,1691
2014/03/31,1705,1705,1669,1693,2200,1693
2014/04/01,1699,1699,1672,1677,4300,1677
2014/04/02,1677,1690,1671,1690,1700,1690
2014/04/03,1680,1690,1680,1680,1000,1680
2014/04/04,1677,1682,1676,1682,1000,1682
2014/04/07,1678,1681,1676,1681,1800,1681
2014/04/08,1678,1680,1670,1670,3000,1670
2014/04/09,1670,1670,1620,1638,2500,1638
2014/04/10,1631,1631,1631,1631,100,1631
2014/04/11,1600,1631,1600,1630,3300,1630
2014/04/14,1631,1631,1610,1613,1200,1613
2014/04/15,1605,1605,1600,1600,1700,1600
2014/04/16,1605,1612,1600,1612,1000,1612
2014/04/17,1617,1635,1612,1635,2800,1635
2014/04/18,1660,1666,1634,1663,3200,1663
2014/04/21,1664,1680,1664,1680,300,1680
2014/04/22,1680,1682,1650,1650,1600,1650
2014/04/23,1645,1645,1645,1645,100,1645
2014/04/24,1679,1679,1678,1678,200,1678
2014/04/25,1678,1678,1655,1661,1100,1661
2014/04/28,1680,1680,1663,1673,1900,1673
2014/04/30,1673,1680,1673,1675,300,1675
2014/05/01,1675,1680,1675,1680,2400,1680
2014/05/02,1665,1690,1665,1680,1600,1680
2014/05/07,1680,1680,1675,1679,500,1679
2014/05/08,1651,1652,1628,1628,1500,1628
2014/05/09,1630,1689,1630,1652,3200,1652
2014/05/12,1650,1680,1645,1645,1800,1645
2014/05/13,1680,1680,1600,1600,3700,1600
2014/05/14,1620,1660,1611,1611,500,1611
2014/05/15,1615,1616,1610,1610,1800,1610
2014/05/16,1620,1643,1620,1643,400,1643
2014/05/19,1641,1641,1620,1620,1000,1620
2014/05/20,1612,1612,1610,1610,600,1610
2014/05/21,1611,1611,1611,1611,200,1611
2014/05/22,1612,1613,1612,1613,700,1613
2014/05/23,1622,1624,1622,1624,300,1624
2014/05/26,1650,1658,1650,1652,5200,1652
2014/05/27,1652,1652,1640,1645,11500,1645
2014/05/28,1650,1689,1643,1669,1600,1669
2014/05/29,1660,1679,1660,1678,1200,1678
2014/05/30,1670,1679,1662,1662,800,1662
2014/06/02,1670,1670,1661,1669,400,1669
2014/06/03,1670,1678,1670,1678,1000,1678
2014/06/04,1678,1679,1670,1670,1800,1670
2014/06/05,1670,1675,1670,1675,800,1675
2014/06/06,1670,1673,1668,1673,900,1673
2014/06/09,1673,1685,1672,1680,2000,1680
2014/06/10,1690,1690,1688,1689,4300,1689
2014/06/11,1701,1716,1700,1715,7900,1715
2014/06/12,1715,1715,1710,1713,13000,1713
2014/06/13,1710,1738,1710,1738,1700,1738
2014/06/16,1749,1749,1698,1718,3400,1718
2014/06/17,1735,1735,1711,1730,1100,1730
2014/06/18,1730,1740,1730,1735,1900,1735
2014/06/19,1728,1735,1728,1735,300,1735
2014/06/20,1735,1737,1730,1737,700,1737
2014/06/23,1732,1739,1732,1737,1000,1737
2014/06/24,1737,1740,1731,1737,2600,1737
2014/06/25,1741,1743,1735,1742,3000,1742
2014/06/26,1755,1755,1742,1743,3700,1743
2014/06/27,1750,1753,1749,1753,2000,1753
2014/06/30,1756,1759,1753,1753,2400,1753
2014/07/01,1753,1756,1753,1753,1800,1753
2014/07/02,1757,1764,1757,1764,3400,1764
2014/07/03,1766,1770,1766,1770,700,1770
2014/07/04,1780,1780,1753,1778,2300,1778
2014/07/07,1778,1778,1766,1777,1400,1777
2014/07/08,1782,1789,1782,1785,2000,1785
2014/07/09,1795,1830,1770,1780,5600,1780
2014/07/10,1778,1810,1776,1793,800,1793
2014/07/11,1790,1790,1790,1790,300,1790
2014/07/14,1800,1830,1790,1795,10800,1795
2014/07/15,1799,1829,1785,1829,2000,1829
2014/07/16,1829,1829,1805,1805,10300,1805
2014/07/17,1829,1866,1829,1830,9700,1830
2014/07/18,1830,1843,1813,1834,3100,1834
2014/07/22,1825,1827,1810,1810,7900,1810
2014/07/23,1810,1838,1810,1838,33100,1838
2014/07/24,1830,1834,1830,1834,3200,1834
2014/07/25,1834,1841,1832,1841,5000,1841
2014/07/28,1856,1856,1842,1843,6100,1843
2014/07/29,1845,1850,1843,1845,3300,1845
2014/07/30,1850,1864,1850,1864,4900,1864
2014/07/31,1866,1875,1866,1870,3200,1870
2014/08/01,1878,1895,1870,1895,8300,1895
2014/08/04,1901,1975,1901,1950,14300,1950
2014/08/05,1950,1955,1949,1949,4000,1949
2014/08/06,1909,1920,1900,1914,8000,1914
2014/08/07,1895,1895,1832,1832,16200,1832
2014/08/08,1835,1859,1826,1842,5500,1842
2014/08/11,1857,1868,1822,1861,4300,1861
2014/08/12,1850,1865,1850,1850,2300,1850
2014/08/13,1855,1910,1855,1905,4200,1905
2014/08/14,1909,1914,1895,1895,3200,1895
2014/08/15,1855,1889,1855,1889,1100,1889
2014/08/18,1883,1883,1854,1860,1900,1860
2014/08/19,1860,1865,1860,1863,900,1863
2014/08/20,1870,1890,1860,1880,3600,1880
2014/08/21,1895,1895,1865,1890,1300,1890
2014/08/22,1890,1901,1879,1900,3100,1900
2014/08/25,1925,1925,1911,1925,1800,1925
2014/08/26,1931,1935,1925,1931,6100,1931
2014/08/27,1926,1926,1904,1920,900,1920
2014/08/28,1928,1928,1851,1886,7300,1886
2014/08/29,1875,1886,1871,1886,2600,1886
2014/09/01,1918,1920,1876,1898,11000,1898
2014/09/02,1901,1923,1901,1923,3800,1923
2014/09/03,1927,1935,1927,1934,3500,1934
2014/09/04,1938,1938,1905,1906,4600,1906
2014/09/05,1910,1944,1905,1916,3400,1916
2014/09/08,1928,1932,1924,1925,2200,1925
2014/09/09,1925,1935,1906,1934,1900,1934
2014/09/10,1917,1925,1917,1925,1000,1925
2014/09/11,1928,1930,1906,1930,2300,1930
2014/09/12,1925,1930,1923,1930,2800,1930
2014/09/16,1930,1934,1910,1915,3400,1915
2014/09/17,1920,1923,1915,1922,1900,1922
2014/09/18,1912,1930,1900,1903,6000,1903
2014/09/19,1906,1910,1900,1900,2300,1900
2014/09/22,1900,1900,1896,1896,700,1896
2014/09/24,1896,1910,1895,1910,2000,1910
2014/09/25,1900,1905,1886,1904,1800,1904
2014/09/26,1905,1945,1904,1945,6400,1945
2014/09/29,1943,1943,1910,1930,4400,1930
2014/09/30,1918,1933,1918,1920,1200,1920
2014/10/01,1923,1933,1915,1915,3600,1915
2014/10/02,1910,1917,1888,1888,4700,1888
2014/10/03,1900,1922,1900,1917,1800,1917
2014/10/06,1928,1928,1920,1928,1200,1928
2014/10/07,1906,1928,1906,1928,700,1928
2014/10/08,1929,1929,1903,1908,2100,1908
2014/10/09,1912,1912,1905,1911,3500,1911
2014/10/10,1900,1935,1880,1935,4200,1935
2014/10/14,1924,1925,1910,1920,2500,1920
2014/10/15,1923,1923,1910,1913,3700,1913
2014/10/16,1900,1914,1886,1888,5600,1888
2014/10/17,1890,1890,1882,1882,3200,1882
2014/10/20,1904,1904,1880,1902,1700,1902
2014/10/21,1910,1910,1905,1905,1900,1905
2014/10/22,1907,1910,1907,1910,600,1910
2014/10/23,1910,1912,1900,1900,5300,1900
2014/10/24,1902,1915,1902,1915,400,1915
2014/10/27,1915,1924,1915,1924,5400,1924
2014/10/28,1927,1928,1924,1928,1200,1928
2014/10/29,1928,1928,1920,1928,1100,1928
2014/10/30,1928,1935,1920,1935,3000,1935
2014/10/31,1924,1945,1920,1921,5200,1921
2014/11/04,1925,1940,1925,1926,6100,1926
2014/11/05,1923,1950,1923,1940,4800,1940
2014/11/06,1944,1948,1944,1946,1700,1946
2014/11/07,1948,1960,1946,1960,2500,1960
2014/11/10,1968,1996,1965,1994,4400,1994
2014/11/11,2020,2035,2014,2035,5200,2035
2014/11/12,2045,2055,1989,1990,5900,1990
2014/11/13,1990,2029,1990,2007,2000,2007
2014/11/14,2000,2007,1991,1995,1800,1995
2014/11/17,1996,2010,1996,2000,1400,2000
2014/11/18,2005,2015,2001,2015,2300,2015
2014/11/19,2006,2025,2006,2020,8600,2020
2014/11/20,2020,2050,2020,2050,4900,2050
2014/11/21,2050,2061,2040,2043,12500,2043
2014/11/25,2035,2060,2023,2060,11800,2060
2014/11/26,2140,2348,2140,2238,204500,2238
2014/11/27,2250,2350,2250,2310,73400,2310
2014/11/28,2295,2310,2250,2290,33200,2290
2014/12/01,2290,2290,2140,2207,33400,2207
2014/12/02,2171,2196,2151,2156,16300,2156
2014/12/03,2220,2220,2157,2160,10700,2160
2014/12/04,2158,2158,2127,2135,20000,2135
2014/12/05,2135,2180,2130,2150,7600,2150
2014/12/08,2187,2255,2185,2219,12900,2219
2014/12/09,2199,2200,2186,2193,6500,2193
2014/12/10,2207,2230,2196,2230,7800,2230
2014/12/11,2239,2240,2206,2206,10000,2206
2014/12/12,2206,2206,2132,2134,26400,2134
2014/12/15,2134,2135,2104,2107,20400,2107
2014/12/16,2115,2116,2103,2116,6400,2116
2014/12/17,2080,2095,2069,2085,54400,2085
2014/12/18,2094,2095,2043,2050,33400,2050
2014/12/19,2051,2080,2026,2058,52800,2058
2014/12/22,2060,2078,2060,2078,19000,2078
2014/12/24,2061,2090,2061,2088,19600,2088
2014/12/25,2065,2085,2061,2085,26100,2085
2014/12/26,2095,2130,2087,2127,48800,2127
2014/12/29,2179,2179,2119,2134,45900,2134
2014/12/30,2154,2154,2111,2130,23500,2130
2015/01/05,2130,2155,2103,2155,30900,2155
2015/01/06,2145,2149,2119,2138,31600,2138
2015/01/07,2125,2135,2109,2135,25000,2135
2015/01/08,2132,2139,2113,2139,18300,2139
2015/01/09,2149,2149,2116,2144,19100,2144
2015/01/13,2143,2143,2123,2138,61100,2138
2015/01/14,2136,2136,2107,2117,23500,2117
2015/01/15,2103,2138,2087,2128,35500,2128
2015/01/16,2105,2135,2101,2135,25600,2135
2015/01/19,2140,2140,2119,2131,23600,2131
2015/01/20,2137,2148,2120,2132,45400,2132
2015/01/21,2132,2132,2117,2124,23900,2124
2015/01/22,2124,2140,2110,2140,26500,2140
2015/01/23,2140,2180,2127,2176,47600,2176
2015/01/26,2176,2176,2140,2169,20600,2169
2015/01/27,2170,2170,2153,2153,31400,2153
2015/01/28,2153,2176,2121,2165,58600,2165
2015/01/29,2150,2199,2107,2107,235200,2107
2015/01/30,2170,2193,2108,2112,68100,2112
2015/02/02,2115,2185,2115,2166,37000,2166
2015/02/03,2166,2190,2162,2175,30200,2175
2015/02/04,2175,2180,2131,2141,20200,2141
2015/02/05,2169,2169,2137,2147,6900,2147
2015/02/06,2157,2157,2111,2126,13000,2126
2015/02/09,2121,2134,2121,2134,4500,2134
2015/02/10,2145,2148,2128,2147,8900,2147
2015/02/12,2154,2155,2138,2155,14900,2155
2015/02/13,2155,2155,2129,2150,19600,2150
2015/02/16,2154,2159,2140,2150,9300,2150
2015/02/17,2144,2144,2126,2133,12100,2133
2015/02/18,2149,2149,2133,2140,9800,2140
2015/02/19,2140,2141,2131,2136,16700,2136
2015/02/20,2137,2147,2130,2130,15300,2130
2015/02/23,2133,2140,2126,2128,13800,2128
2015/02/24,2128,2137,2116,2122,23200,2122
2015/02/25,2127,2129,2120,2121,8400,2121
2015/02/26,2123,2131,2120,2120,20500,2120
2015/02/27,2120,2140,2116,2117,27000,2117
2015/03/02,2135,2135,2121,2130,11100,2130
2015/03/03,2130,2140,2122,2125,21900,2125
2015/03/04,2125,2125,2120,2120,13400,2120
2015/03/05,2120,2134,2120,2126,13700,2126
2015/03/06,2136,2141,2126,2135,12400,2135
2015/03/09,2139,2140,2131,2135,13100,2135
2015/03/10,2140,2155,2138,2147,19000,2147
2015/03/11,2146,2150,2140,2144,17200,2144
2015/03/12,2146,2155,2145,2150,11900,2150
2015/03/13,2150,2152,2141,2146,19200,2146
2015/03/16,2150,2154,2143,2146,15900,2146
2015/03/17,2155,2160,2146,2157,21400,2157
2015/03/18,2151,2170,2151,2170,14400,2170
2015/03/19,2169,2173,2161,2164,12200,2164
2015/03/20,2175,2185,2161,2172,17000,2172
2015/03/23,2186,2186,2168,2177,22200,2177
2015/03/24,2177,2180,2140,2165,31200,2165
2015/03/25,2166,2174,2150,2169,14600,2169
2015/03/26,2170,2174,2165,2171,23800,2171
2015/03/27,2088,2120,2083,2093,32200,2093
2015/03/30,2115,2115,2060,2076,18100,2076
2015/03/31,2101,2108,2059,2067,11000,2067
2015/04/01,2067,2091,2060,2062,11800,2062
2015/04/02,2061,2080,2055,2079,14600,2079
2015/04/03,2078,2090,2065,2085,9700,2085
2015/04/06,2087,2098,2072,2097,13500,2097
2015/04/07,2097,2097,2073,2090,10500,2090
2015/04/08,2096,2109,2079,2084,13700,2084
2015/04/09,2083,2091,2073,2080,11200,2080
2015/04/10,2079,2080,2067,2075,10600,2075
2015/04/13,2099,2099,2076,2079,6700,2079
2015/04/14,2074,2082,2073,2079,6100,2079
2015/04/15,2079,2080,2067,2069,11700,2069
2015/04/16,2081,2081,2060,2069,10900,2069
2015/04/17,2070,2075,2060,2068,9600,2068
2015/04/20,2060,2072,2050,2066,10000,2066
2015/04/21,2066,2071,2060,2071,5800,2071
2015/04/22,2071,2080,2067,2071,9300,2071
2015/04/23,2071,2080,2060,2075,10500,2075
2015/04/24,2061,2075,2061,2067,7700,2067
2015/04/27,2084,2084,2061,2063,8700,2063
2015/04/28,2060,2067,2060,2060,6500,2060
2015/04/30,2060,2065,2057,2063,8500,2063
2015/05/01,2065,2065,2052,2055,11300,2055
2015/05/07,2050,2060,2050,2055,5400,2055
2015/05/08,2056,2074,2052,2065,8600,2065
2015/05/11,2060,2063,2050,2050,12100,2050
2015/05/12,2050,2054,2050,2052,3300,2052
2015/05/13,2052,2058,2050,2056,3400,2056
2015/05/14,2056,2060,2050,2053,7200,2053
2015/05/15,2051,2065,2051,2060,4800,2060
2015/05/18,2068,2068,2006,2029,24800,2029
2015/05/19,2016,2024,2005,2014,27400,2014
2015/05/20,2015,2025,2015,2019,15400,2019
2015/05/21,2024,2024,2015,2016,9600,2016
2015/05/22,2020,2020,2011,2017,10800,2017
2015/05/25,2018,2018,2009,2011,21100,2011
2015/05/26,2007,2011,2002,2003,21200,2003
2015/05/27,2002,2010,2001,2002,23000,2002
2015/05/28,2002,2010,2002,2006,13700,2006
2015/05/29,2005,2009,2001,2002,15800,2002
2015/06/01,2002,2006,2002,2004,8900,2004
2015/06/02,2002,2008,2002,2004,7700,2004
2015/06/03,2001,2005,2001,2003,14300,2003
2015/06/04,2003,2010,2002,2003,11900,2003
2015/06/05,2001,2014,2001,2011,17000,2011
2015/06/08,2014,2026,2013,2015,8600,2015
2015/06/09,2015,2040,2012,2016,7600,2016
2015/06/10,2025,2028,2016,2019,5800,2019
2015/06/11,2030,2045,2028,2041,14400,2041
2015/06/12,2041,2055,2041,2050,22700,2050
2015/06/15,2054,2060,2051,2057,7600,2057
2015/06/16,2059,2059,2028,2028,9500,2028
2015/06/17,2046,2046,2023,2030,4300,2030
2015/06/18,2030,2030,2023,2023,3700,2023
2015/06/19,2023,2037,2022,2028,3700,2028
2015/06/22,2025,2039,2020,2031,5200,2031
2015/06/23,2023,2036,2022,2032,6500,2032
2015/06/24,2021,2039,2021,2032,8300,2032
2015/06/25,2039,2040,2021,2031,7000,2031
2015/06/26,2040,2045,2031,2038,7800,2038
2015/06/29,2038,2045,2026,2026,10900,2026
2015/06/30,2033,2060,2026,2036,9200,2036
2015/07/01,2055,2055,2026,2033,4300,2033
