2011/01/04,422,422,422,422,1000,422
2011/01/05,421,421,420,420,2000,420
2011/01/06,420,420,413,418,7000,418
2011/01/07,419,419,418,418,2000,418
2011/01/11,420,425,420,420,11000,420
2011/01/12,424,424,416,416,3000,416
2011/01/13,417,418,417,418,3000,418
2011/01/14,420,420,419,419,6000,419
2011/01/17,420,425,419,425,18000,425
2011/01/18,425,425,421,421,3000,421
2011/01/19,423,423,420,421,5000,421
2011/01/20,422,425,420,425,10000,425
2011/01/21,425,425,420,424,6000,424
2011/01/24,424,424,420,420,3000,420
2011/01/25,428,428,421,421,5000,421
2011/01/26,428,428,421,421,3000,421
2011/01/27,427,427,421,427,10000,427
2011/01/28,429,430,425,430,11000,430
2011/01/31,435,438,430,435,4000,435
2011/02/01,439,439,431,431,3000,431
2011/02/02,438,449,438,448,17000,448
2011/02/03,449,449,445,445,2000,445
2011/02/04,445,460,440,458,18000,458
2011/02/07,477,477,477,477,1000,477
2011/02/08,473,473,455,460,9000,460
2011/02/09,468,468,447,450,11000,450
2011/02/10,458,458,450,450,2000,450
2011/02/14,454,454,454,454,2000,454
2011/02/15,466,466,466,466,1000,466
2011/02/16,465,465,460,460,2000,460
2011/02/17,466,466,458,460,6000,460
2011/02/18,460,460,460,460,3000,460
2011/02/23,458,458,458,458,1000,458
2011/02/24,450,450,450,450,1000,450
2011/02/25,436,436,427,427,5000,427
2011/02/28,430,430,429,430,3000,430
2011/03/01,438,470,438,440,6000,440
2011/03/02,448,448,448,448,3000,448
2011/03/03,458,458,458,458,1000,458
2011/03/04,458,458,444,444,7000,444
2011/03/07,451,451,440,440,4000,440
2011/03/08,448,464,448,459,3000,459
2011/03/09,459,460,459,460,3000,460
2011/03/10,458,458,458,458,2000,458
2011/03/11,458,458,458,458,2000,458
2011/03/14,410,446,406,420,16000,420
2011/03/15,420,427,417,424,35000,424
2011/03/16,420,425,417,420,7000,420
2011/03/17,444,444,430,430,4000,430
2011/03/18,430,430,430,430,1000,430
2011/03/22,446,446,432,432,7000,432
2011/03/23,430,432,430,430,22000,430
2011/03/24,440,440,424,430,7000,430
2011/03/25,430,430,430,430,2000,430
2011/03/28,430,430,430,430,2000,430
2011/03/31,430,430,430,430,1000,430
2011/04/06,430,430,410,410,7000,410
2011/04/08,406,412,406,410,3000,410
2011/04/11,414,414,414,414,1000,414
2011/04/19,400,400,400,400,4000,400
2011/04/20,400,400,399,399,2000,399
2011/04/21,404,405,404,405,2000,405
2011/04/25,405,405,405,405,2000,405
2011/04/27,415,415,415,415,2000,415
2011/04/28,423,423,392,397,18000,397
2011/05/02,395,395,395,395,2000,395
2011/05/06,395,395,395,395,1000,395
2011/05/09,395,395,392,392,7000,392
2011/05/10,399,399,390,390,3000,390
2011/05/11,390,390,390,390,9000,390
2011/05/13,390,390,390,390,2000,390
2011/05/16,390,390,390,390,1000,390
2011/05/17,390,390,389,389,6000,389
2011/05/18,390,390,390,390,1000,390
2011/05/19,390,390,390,390,6000,390
2011/05/20,390,397,390,397,3000,397
2011/05/23,395,395,395,395,1000,395
2011/05/24,394,394,394,394,1000,394
2011/05/25,391,391,390,390,2000,390
2011/05/26,390,390,390,390,1000,390
2011/05/27,394,394,390,390,3000,390
2011/05/30,393,393,393,393,1000,393
2011/05/31,390,390,390,390,1000,390
2011/06/01,391,391,390,390,6000,390
2011/06/06,390,390,390,390,1000,390
2011/06/07,384,384,384,384,3000,384
2011/06/08,390,390,387,390,16000,390
2011/06/14,398,398,398,398,3000,398
2011/06/15,391,391,391,391,1000,391
2011/06/17,386,386,386,386,2000,386
2011/06/22,382,382,382,382,4000,382
2011/06/23,394,394,394,394,1000,394
2011/06/24,395,395,386,386,3000,386
2011/06/27,400,400,400,400,2000,400
2011/06/28,397,397,395,395,4000,395
2011/06/29,398,398,396,398,14000,398
2011/06/30,399,399,399,399,2000,399
2011/07/01,405,405,405,405,1000,405
2011/07/04,405,405,397,397,4000,397
2011/07/05,397,397,397,397,1000,397
2011/07/06,413,413,410,410,3000,410
2011/07/07,417,417,402,410,5000,410
2011/07/08,410,410,402,402,3000,402
2011/07/11,410,411,410,411,4000,411
2011/07/12,412,412,412,412,1000,412
2011/07/13,412,412,412,412,1000,412
2011/07/14,411,412,404,404,4000,404
2011/07/15,404,404,397,397,6000,397
2011/07/19,405,405,405,405,1000,405
2011/07/20,405,405,397,397,2000,397
2011/07/21,397,397,389,389,3000,389
2011/07/22,391,391,387,387,3000,387
2011/07/25,403,405,390,392,7000,392
2011/07/26,393,404,393,404,6000,404
2011/07/27,404,408,404,408,2000,408
2011/07/28,415,419,415,419,8000,419
2011/07/29,419,419,417,417,2000,417
2011/08/01,417,417,417,417,1000,417
2011/08/03,394,400,393,400,3000,400
2011/08/04,396,413,396,400,4000,400
2011/08/08,384,388,383,388,3000,388
2011/08/09,381,388,380,388,4000,388
2011/08/10,388,404,388,400,3000,400
2011/08/12,400,408,388,408,7000,408
2011/08/15,408,408,408,408,1000,408
2011/08/16,392,407,392,407,3000,407
2011/08/17,394,394,394,394,1000,394
2011/08/18,402,402,402,402,1000,402
2011/08/22,386,386,386,386,1000,386
2011/08/23,378,381,378,381,2000,381
2011/08/24,376,380,376,380,3000,380
2011/08/25,383,383,383,383,1000,383
2011/08/29,391,391,391,391,1000,391
2011/08/31,399,399,399,399,1000,399
2011/09/01,399,399,399,399,1000,399
2011/09/02,399,399,399,399,1000,399
2011/09/06,383,383,383,383,1000,383
2011/09/07,398,398,398,398,1000,398
2011/09/09,398,398,390,390,3000,390
2011/09/12,386,386,386,386,1000,386
2011/09/14,379,379,379,379,1000,379
2011/09/15,378,381,378,381,4000,381
2011/09/16,397,397,397,397,1000,397
2011/09/21,389,389,389,389,1000,389
2011/09/22,389,389,389,389,1000,389
2011/09/26,389,389,389,389,1000,389
2011/09/27,419,419,394,394,3000,394
2011/09/28,402,402,385,385,5000,385
2011/09/29,408,408,408,408,1000,408
2011/09/30,405,405,405,405,1000,405
2011/10/03,381,389,381,389,3000,389
2011/10/05,391,391,380,380,4000,380
2011/10/07,388,388,388,388,1000,388
2011/10/11,382,382,382,382,1000,382
2011/10/13,384,384,372,372,5000,372
2011/10/17,368,376,368,376,4000,376
2011/10/18,368,371,368,371,3000,371
2011/10/19,375,375,375,375,1000,375
2011/10/20,378,378,378,378,1000,378
2011/10/21,370,374,370,374,4000,374
2011/10/24,374,375,374,375,2000,375
2011/10/25,373,373,373,373,3000,373
2011/10/26,374,374,374,374,1000,374
2011/10/27,376,376,376,376,3000,376
2011/10/28,373,373,373,373,1000,373
2011/10/31,381,381,381,381,1000,381
2011/11/01,373,373,365,370,3000,370
2011/11/02,366,366,365,365,3000,365
2011/11/04,369,369,369,369,1000,369
2011/11/07,363,363,362,362,2000,362
2011/11/08,362,362,360,360,5000,360
2011/11/09,360,360,360,360,2000,360
2011/11/10,360,360,360,360,1000,360
2011/11/11,358,358,357,357,3000,357
2011/11/14,354,354,349,349,5000,349
2011/11/15,345,345,343,343,4000,343
2011/11/16,340,340,334,334,8000,334
2011/11/17,328,334,326,334,5000,334
2011/11/18,334,334,334,334,1000,334
2011/11/21,326,326,320,320,3000,320
2011/11/22,312,320,312,320,2000,320
2011/11/24,320,320,312,320,4000,320
2011/11/25,325,325,308,308,9000,308
2011/11/28,329,329,312,312,5000,312
2011/11/30,313,320,313,320,3000,320
2011/12/01,316,317,315,317,6000,317
2011/12/02,320,323,317,317,4000,317
2011/12/05,313,320,313,320,3000,320
2011/12/06,327,333,325,330,7000,330
2011/12/07,338,340,338,340,5000,340
2011/12/08,338,338,338,338,2000,338
2011/12/13,345,345,345,345,3000,345
2011/12/14,340,340,332,332,2000,332
2011/12/15,340,340,340,340,1000,340
2011/12/19,330,330,330,330,1000,330
2011/12/20,319,320,319,320,2000,320
2011/12/21,320,320,320,320,1000,320
2011/12/22,317,322,317,322,8000,322
2011/12/26,320,328,320,328,4000,328
2011/12/27,328,328,320,328,4000,328
2011/12/28,328,328,328,328,1000,328
2011/12/29,320,320,318,318,10000,318
2011/12/30,326,326,326,326,1000,326
2012/01/04,326,326,326,326,1000,326
2012/01/05,320,320,320,320,1000,320
2012/01/06,320,320,320,320,1000,320
2012/01/11,320,320,317,317,3000,317
2012/01/13,317,318,317,318,3000,318
2012/01/16,321,321,321,321,1000,321
2012/01/17,317,320,316,316,5000,316
2012/01/18,316,316,316,316,20000,316
2012/01/19,318,318,318,318,2000,318
2012/01/20,317,320,317,320,6000,320
2012/01/23,322,322,322,322,1000,322
2012/01/25,322,325,322,324,3000,324
2012/01/26,323,323,323,323,1000,323
2012/01/27,321,321,321,321,2000,321
2012/01/30,325,325,325,325,1000,325
2012/02/01,320,323,320,323,3000,323
2012/02/02,323,323,323,323,1000,323
2012/02/06,330,333,330,333,7000,333
2012/02/07,333,338,333,338,4000,338
2012/02/09,340,340,339,339,8000,339
2012/02/15,323,323,323,323,3000,323
2012/02/16,324,324,324,324,1000,324
2012/02/17,330,337,330,337,2000,337
2012/02/20,337,337,335,335,4000,335
2012/02/21,341,345,341,345,5000,345
2012/02/24,353,353,353,353,1000,353
2012/02/27,360,360,359,359,3000,359
2012/02/29,343,344,343,344,6000,344
2012/03/02,352,352,352,352,1000,352
2012/03/05,351,351,351,351,1000,351
2012/03/07,343,349,343,349,2000,349
2012/03/09,357,357,357,357,1000,357
2012/03/12,357,357,357,357,3000,357
2012/03/13,350,350,341,346,6000,346
2012/03/15,345,345,345,345,2000,345
2012/03/16,342,345,342,345,3000,345
2012/03/19,349,349,349,349,1000,349
2012/03/21,350,350,350,350,2000,350
2012/03/22,349,349,349,349,1000,349
2012/03/23,344,344,343,343,3000,343
2012/03/26,343,346,343,346,2000,346
2012/03/27,346,346,346,346,1000,346
2012/03/28,349,350,349,350,4000,350
2012/03/29,350,350,350,350,2000,350
2012/03/30,345,345,345,345,1000,345
2012/04/03,346,346,343,343,6000,343
2012/04/04,343,343,343,343,5000,343
2012/04/05,343,343,343,343,1000,343
2012/04/09,340,345,337,339,10000,339
2012/04/10,343,348,340,348,4000,348
2012/04/11,343,343,343,343,3000,343
2012/04/12,343,343,343,343,2000,343
2012/04/16,343,343,343,343,2000,343
2012/04/17,343,343,343,343,1000,343
2012/04/19,343,345,343,345,3000,345
2012/04/24,347,347,347,347,1000,347
2012/04/25,347,347,347,347,4000,347
2012/04/26,348,348,348,348,1000,348
2012/04/27,350,377,350,377,19000,377
2012/05/01,393,393,368,368,6000,368
2012/05/02,368,368,368,368,1000,368
2012/05/07,352,352,351,351,4000,351
2012/05/09,350,350,336,336,5000,336
2012/05/14,335,335,330,330,3000,330
2012/05/15,333,333,333,333,1000,333
2012/05/16,333,333,333,333,2000,333
2012/05/18,334,334,333,333,2000,333
2012/05/21,341,341,341,341,1000,341
2012/05/22,349,349,349,349,1000,349
2012/05/23,351,351,351,351,1000,351
2012/05/25,350,355,350,355,3000,355
2012/05/28,371,371,371,371,1000,371
2012/05/29,370,370,370,370,2000,370
2012/05/30,370,370,370,370,1000,370
2012/05/31,370,370,370,370,1000,370
2012/06/06,346,360,344,350,5000,350
2012/06/07,342,342,342,342,1000,342
2012/06/12,358,364,358,364,3000,364
2012/06/13,365,365,365,365,1000,365
2012/06/18,368,368,368,368,1000,368
2012/06/19,368,368,368,368,1000,368
2012/06/21,360,360,360,360,1000,360
2012/06/22,360,360,360,360,1000,360
2012/06/25,367,367,367,367,2000,367
2012/06/26,367,367,367,367,1000,367
2012/06/27,367,367,367,367,1000,367
2012/06/28,370,370,370,370,11000,370
2012/06/29,362,362,362,362,1000,362
2012/07/03,362,362,362,362,1000,362
2012/07/04,351,353,351,352,3000,352
2012/07/05,349,349,349,349,2000,349
2012/07/06,349,349,343,343,4000,343
2012/07/09,336,336,336,336,2000,336
2012/07/10,348,348,348,348,1000,348
2012/07/11,355,355,342,342,3000,342
2012/07/12,347,347,347,347,1000,347
2012/07/17,341,351,337,351,8000,351
2012/07/18,351,351,351,351,1000,351
2012/07/20,350,350,350,350,1000,350
2012/07/23,349,349,341,341,2000,341
2012/07/24,341,341,341,341,5000,341
2012/07/25,341,341,341,341,2000,341
2012/07/26,338,340,338,340,2000,340
2012/07/27,339,339,339,339,1000,339
2012/07/30,339,340,339,340,2000,340
2012/07/31,340,340,340,340,1000,340
2012/08/01,340,340,340,340,1000,340
2012/08/02,340,340,340,340,1000,340
2012/08/03,340,340,340,340,1000,340
2012/08/06,338,338,338,338,1000,338
2012/08/08,340,340,340,340,1000,340
2012/08/10,336,339,335,339,3000,339
2012/08/17,331,331,331,331,1000,331
2012/08/20,333,339,333,339,2000,339
2012/08/22,335,335,333,333,2000,333
2012/08/27,349,349,349,349,2000,349
2012/08/28,341,341,333,333,3000,333
2012/08/29,332,332,323,323,3000,323
2012/08/30,330,330,330,330,1000,330
2012/09/03,327,327,323,323,2000,323
2012/09/05,315,323,315,323,2000,323
2012/09/12,315,322,315,322,2000,322
2012/09/14,314,315,314,315,6000,315
2012/09/18,315,315,315,315,1000,315
2012/09/19,315,315,315,315,1000,315
2012/09/20,315,315,315,315,1000,315
2012/09/24,313,313,313,313,2000,313
2012/09/25,316,316,316,316,1000,316
2012/09/26,315,315,309,309,3000,309
2012/09/28,315,315,309,309,4000,309
2012/10/01,312,312,311,311,6000,311
2012/10/02,307,312,307,312,10000,312
2012/10/03,312,312,312,312,1000,312
2012/10/04,314,314,314,314,1000,314
2012/10/05,314,314,314,314,1000,314
2012/10/10,314,314,314,314,1000,314
2012/10/11,312,312,312,312,1000,312
2012/10/15,312,340,312,337,9000,337
2012/10/16,330,330,330,330,1000,330
2012/10/17,329,329,325,325,3000,325
2012/10/23,320,320,320,320,1000,320
2012/10/24,320,320,320,320,1000,320
2012/10/25,320,320,320,320,2000,320
2012/10/29,324,324,324,324,1000,324
2012/10/30,324,324,324,324,1000,324
2012/10/31,329,329,329,329,1000,329
2012/11/02,321,321,318,318,3000,318
2012/11/06,320,320,319,319,2000,319
2012/11/07,319,319,319,319,2000,319
2012/11/08,318,319,316,316,9000,316
2012/11/09,316,319,315,319,3000,319
2012/11/14,315,315,314,314,3000,314
2012/11/15,314,314,314,314,3000,314
2012/11/16,314,314,314,314,1000,314
2012/11/19,314,318,314,318,2000,318
2012/11/20,314,314,314,314,1000,314
2012/11/22,318,318,318,318,1000,318
2012/11/26,318,318,318,318,1000,318
2012/11/27,318,318,318,318,1000,318
2012/11/28,323,323,319,323,6000,323
2012/11/29,319,319,318,318,4000,318
2012/12/03,314,314,314,314,1000,314
2012/12/04,314,326,314,326,12000,326
2012/12/07,323,323,323,323,1000,323
2012/12/11,319,327,319,327,2000,327
2012/12/12,327,327,321,321,6000,321
2012/12/13,322,322,322,322,3000,322
2012/12/14,320,320,320,320,7000,320
2012/12/17,325,325,319,320,9000,320
2012/12/18,318,318,317,318,5000,318
2012/12/19,318,318,316,317,7000,317
2012/12/20,320,320,317,320,3000,320
2012/12/21,324,324,317,317,5000,317
2012/12/25,317,317,317,317,12000,317
2012/12/26,320,320,320,320,1000,320
2012/12/27,319,319,319,319,9000,319
2012/12/28,319,321,319,321,5000,321
2013/01/04,324,325,322,324,15000,324
2013/01/07,329,330,329,329,8000,329
2013/01/08,335,339,331,331,9000,331
2013/01/10,331,331,331,331,2000,331
2013/01/11,331,331,330,330,4000,330
2013/01/15,330,333,329,333,17000,333
2013/01/16,336,340,336,340,7000,340
2013/01/17,336,336,334,334,2000,334
2013/01/18,340,340,340,340,6000,340
2013/01/21,342,348,342,348,12000,348
2013/01/22,355,355,350,355,5000,355
2013/01/24,355,355,355,355,3000,355
2013/01/25,354,354,354,354,1000,354
2013/01/28,354,354,353,353,2000,353
2013/01/30,348,353,348,351,3000,351
2013/01/31,350,361,350,353,9000,353
2013/02/01,364,375,364,374,27000,374
2013/02/04,374,380,374,380,8000,380
2013/02/06,377,378,372,378,8000,378
2013/02/07,378,378,365,371,6000,371
2013/02/08,375,378,375,378,6000,378
2013/02/12,380,385,380,385,11000,385
2013/02/13,385,385,380,380,2000,380
2013/02/14,380,384,377,384,12000,384
2013/02/15,376,376,355,363,10000,363
2013/02/18,363,365,363,363,4000,363
2013/02/19,368,368,368,368,3000,368
2013/02/20,368,373,363,373,7000,373
2013/02/21,370,375,365,375,10000,375
2013/02/22,370,375,370,375,5000,375
2013/02/25,372,380,372,376,5000,376
2013/02/26,378,382,378,380,8000,380
2013/02/27,385,387,381,387,6000,387
2013/02/28,388,389,388,388,5000,388
2013/03/01,388,388,385,385,2000,385
2013/03/04,385,387,385,387,2000,387
2013/03/05,389,397,389,397,7000,397
2013/03/06,391,394,389,390,8000,390
2013/03/07,394,400,390,400,9000,400
2013/03/08,400,400,400,400,2000,400
2013/03/11,398,398,393,393,7000,393
2013/03/12,399,400,399,400,3000,400
2013/03/13,399,399,398,399,3000,399
2013/03/14,392,395,387,395,4000,395
2013/03/15,401,401,391,391,7000,391
2013/03/18,384,385,377,377,9000,377
2013/03/19,377,379,374,379,5000,379
2013/03/21,375,388,375,388,6000,388
2013/03/22,396,400,395,395,5000,395
2013/03/25,391,391,386,390,4000,390
2013/03/26,388,395,388,395,2000,395
2013/03/27,375,388,375,384,9000,384
2013/03/28,385,385,380,380,5000,380
2013/03/29,375,383,375,383,4000,383
2013/04/01,375,379,375,379,2000,379
2013/04/02,370,374,358,373,7000,373
2013/04/03,367,367,359,364,9000,364
2013/04/04,359,359,353,359,4000,359
2013/04/05,359,371,359,371,10000,371
2013/04/08,371,376,371,376,2000,376
2013/04/09,375,375,369,375,24000,375
2013/04/10,369,369,366,366,6000,366
2013/04/11,367,367,366,366,4000,366
2013/04/12,365,369,364,364,4000,364
2013/04/15,371,371,366,366,4000,366
2013/04/17,364,364,353,353,5000,353
2013/04/18,353,361,353,360,5000,360
2013/04/19,358,358,358,358,3000,358
2013/04/22,359,359,359,359,3000,359
2013/04/23,359,363,359,359,11000,359
2013/04/24,359,369,359,365,10000,365
2013/04/25,365,369,364,369,9000,369
2013/04/26,371,382,371,382,35000,382
2013/04/30,390,395,389,390,21000,390
2013/05/01,392,395,380,380,18000,380
2013/05/02,396,396,383,391,5000,391
2013/05/07,389,389,389,389,3000,389
2013/05/08,388,388,381,381,8000,381
2013/05/09,379,383,375,383,9000,383
2013/05/10,388,388,373,376,20000,376
2013/05/13,376,377,373,377,4000,377
2013/05/14,377,386,377,378,7000,378
2013/05/15,385,385,377,379,4000,379
2013/05/16,377,379,371,379,22000,379
2013/05/17,382,382,378,378,4000,378
2013/05/20,381,381,377,379,11000,379
2013/05/21,379,383,377,383,9000,383
2013/05/22,385,387,382,384,15000,384
2013/05/23,387,387,370,370,19000,370
2013/05/24,378,383,365,377,14000,377
2013/05/27,377,377,368,375,5000,375
2013/05/28,370,373,369,373,7000,373
2013/05/29,370,376,370,376,5000,376
2013/05/30,370,370,368,368,4000,368
2013/06/03,363,363,363,363,1000,363
2013/06/04,357,367,357,367,6000,367
2013/06/05,364,364,364,364,1000,364
2013/06/06,362,362,361,361,2000,361
2013/06/07,360,366,353,353,9000,353
2013/06/10,357,360,357,360,2000,360
2013/06/12,362,362,355,357,4000,357
2013/06/13,355,359,352,359,4000,359
2013/06/17,358,369,358,369,4000,369
2013/06/18,370,370,370,370,3000,370
2013/06/19,365,373,365,373,2000,373
2013/06/20,370,370,365,365,3000,365
2013/06/21,364,364,363,363,3000,363
2013/06/25,363,363,363,363,3000,363
2013/06/26,365,365,360,360,18000,360
2013/06/27,361,361,360,360,8000,360
2013/06/28,360,361,360,361,3000,361
2013/07/02,368,369,364,366,7000,366
2013/07/03,365,366,365,365,5000,365
2013/07/04,369,369,367,367,4000,367
2013/07/05,368,369,368,369,3000,369
2013/07/08,368,368,364,364,5000,364
2013/07/09,363,371,360,371,8000,371
2013/07/10,367,370,367,370,4000,370
2013/07/11,371,371,369,369,3000,369
2013/07/12,371,375,368,368,7000,368
2013/07/16,376,376,376,376,1000,376
2013/07/17,372,372,372,372,2000,372
2013/07/18,372,372,372,372,2000,372
2013/07/19,376,378,376,378,2000,378
2013/07/25,378,378,378,378,2000,378
2013/07/26,370,370,370,370,3000,370
2013/07/29,377,377,370,370,5000,370
2013/07/31,370,370,370,370,1000,370
2013/08/01,386,392,386,392,5000,392
2013/08/02,392,392,375,376,14000,376
2013/08/05,376,390,376,390,7000,390
2013/08/06,389,389,389,389,3000,389
2013/08/07,389,389,385,385,5000,385
2013/08/09,385,385,380,380,4000,380
2013/08/12,385,385,380,384,3000,384
2013/08/13,389,389,389,389,3000,389
2013/08/14,385,385,385,385,1000,385
2013/08/16,387,387,387,387,1000,387
2013/08/23,381,381,381,381,1000,381
2013/08/26,388,388,388,388,1000,388
2013/08/27,389,389,389,389,3000,389
2013/08/30,381,381,376,376,4000,376
2013/09/02,378,378,378,378,1000,378
2013/09/03,377,377,377,377,1000,377
2013/09/04,380,380,377,379,3000,379
2013/09/05,380,382,379,381,6000,381
2013/09/06,380,380,380,380,1000,380
2013/09/09,380,380,376,376,7000,376
2013/09/10,383,383,376,378,11000,378
2013/09/11,387,387,380,380,17000,380
2013/09/12,380,382,379,380,11000,380
2013/09/13,381,381,376,378,16000,378
2013/09/17,379,382,378,382,12000,382
2013/09/18,383,384,383,384,6000,384
2013/09/19,385,385,379,379,10000,379
2013/09/20,381,381,380,381,10000,381
2013/09/24,382,384,381,381,11000,381
2013/09/26,380,380,380,380,2000,380
2013/09/27,380,384,380,384,5000,384
2013/09/30,385,385,385,385,1000,385
2013/10/01,385,385,385,385,1000,385
2013/10/02,382,382,380,380,2000,380
2013/10/03,381,381,380,380,2000,380
2013/10/04,379,379,379,379,2000,379
2013/10/08,379,379,379,379,1000,379
2013/10/09,380,380,377,377,2000,377
2013/10/10,375,376,373,373,11000,373
2013/10/11,375,375,375,375,4000,375
2013/10/15,375,375,375,375,5000,375
2013/10/16,372,372,363,371,25000,371
2013/10/17,372,372,372,372,4000,372
2013/10/18,373,373,366,368,7000,368
2013/10/21,370,373,369,369,17000,369
2013/10/22,371,373,371,371,5000,371
2013/10/23,375,375,370,371,21000,371
2013/10/24,371,371,370,370,8000,370
2013/10/25,378,380,374,379,17000,379
2013/10/28,380,380,372,372,14000,372
2013/10/29,375,375,375,375,1000,375
2013/10/30,375,375,375,375,1000,375
2013/10/31,378,385,375,375,30000,375
2013/11/01,374,374,367,370,27000,370
2013/11/05,360,362,358,360,18000,360
2013/11/06,360,363,357,363,23000,363
2013/11/07,363,363,359,359,10000,359
2013/11/08,358,360,357,357,11000,357
2013/11/11,360,361,356,358,9000,358
2013/11/12,357,360,357,360,7000,360
2013/11/13,360,361,360,361,4000,361
2013/11/14,364,364,361,362,4000,362
2013/11/15,364,368,364,368,9000,368
2013/11/18,372,375,367,367,14000,367
2013/11/19,369,369,368,369,8000,369
2013/11/20,372,372,372,372,2000,372
2013/11/21,372,374,371,371,8000,371
2013/11/22,371,380,371,375,25000,375
2013/11/25,379,379,372,373,6000,373
2013/11/26,377,377,374,374,2000,374
2013/11/27,375,375,375,375,1000,375
2013/11/28,372,373,371,373,10000,373
2013/12/02,373,373,370,373,11000,373
2013/12/03,375,375,371,372,8000,372
2013/12/04,370,370,369,369,2000,369
2013/12/05,369,370,368,370,4000,370
2013/12/06,370,370,368,368,3000,368
2013/12/09,368,368,368,368,5000,368
2013/12/10,367,367,365,367,8000,367
2013/12/11,364,367,361,367,15000,367
2013/12/12,367,369,365,369,7000,369
2013/12/13,364,369,364,369,3000,369
2013/12/16,365,367,363,363,5000,363
2013/12/17,363,364,360,360,15000,360
2013/12/18,361,361,354,354,41000,354
2013/12/19,354,358,353,353,27000,353
2013/12/20,356,356,351,351,20000,351
2013/12/24,351,352,350,350,19000,350
2013/12/25,349,349,336,340,56000,340
2013/12/26,340,358,340,358,23000,358
2013/12/27,358,358,355,355,8000,355
2013/12/30,357,358,355,358,14000,358
2014/01/06,356,358,356,358,7000,358
2014/01/07,360,360,357,358,5000,358
2014/01/08,358,359,358,359,4000,359
2014/01/09,358,370,355,359,68000,359
2014/01/10,367,367,359,359,21000,359
2014/01/14,365,367,365,367,2000,367
2014/01/15,369,369,364,364,5000,364
2014/01/16,367,374,367,369,15000,369
2014/01/20,370,375,367,369,13000,369
2014/01/21,369,369,369,369,1000,369
2014/01/22,372,374,367,367,14000,367
2014/01/23,370,370,370,370,1000,370
2014/01/24,370,371,370,371,2000,371
2014/01/27,371,373,365,365,31000,365
2014/01/28,366,370,366,370,8000,370
2014/01/29,371,374,367,371,12000,371
2014/01/30,365,370,363,366,10000,366
2014/01/31,367,368,363,363,11000,363
2014/02/03,361,361,361,361,1000,361
2014/02/04,356,361,351,361,12000,361
2014/02/10,358,364,358,364,4000,364
2014/02/12,365,365,360,360,5000,360
2014/02/14,364,364,364,364,1000,364
2014/02/18,360,360,360,360,1000,360
2014/02/19,358,358,358,358,2000,358
2014/02/20,358,358,358,358,2000,358
2014/02/21,356,356,356,356,4000,356
2014/02/24,354,356,354,356,6000,356
2014/02/25,358,358,358,358,1000,358
2014/02/26,358,358,357,357,2000,357
2014/02/28,355,355,355,355,1000,355
2014/03/03,356,357,353,353,3000,353
2014/03/05,355,355,355,355,1000,355
2014/03/06,353,353,353,353,8000,353
2014/03/07,353,353,350,352,18000,352
2014/03/10,352,354,352,352,5000,352
2014/03/11,352,352,350,351,25000,351
2014/03/12,352,354,351,354,5000,354
2014/03/14,354,354,350,350,5000,350
2014/03/17,352,352,348,348,10000,348
2014/03/18,348,348,347,347,9000,347
2014/03/19,354,354,347,347,5000,347
2014/03/20,349,349,345,345,16000,345
2014/03/24,347,350,346,348,7000,348
2014/03/25,346,347,345,346,14000,346
2014/03/26,348,348,345,347,13000,347
2014/03/27,345,345,345,345,1000,345
2014/03/28,347,348,347,348,2000,348
2014/04/01,345,345,345,345,7000,345
2014/04/02,344,348,344,348,5000,348
2014/04/03,350,350,350,350,3000,350
2014/04/04,353,353,353,353,1000,353
2014/04/07,352,352,346,346,3000,346
2014/04/08,346,346,345,345,5000,345
2014/04/09,345,345,345,345,3000,345
2014/04/10,345,345,345,345,3000,345
2014/04/11,344,344,342,344,3000,344
2014/04/14,345,345,342,342,2000,342
2014/04/15,343,343,343,343,3000,343
2014/04/16,343,343,343,343,1000,343
2014/04/17,345,345,345,345,4000,345
2014/04/21,350,350,350,350,1000,350
2014/04/22,343,344,343,344,3000,344
2014/04/24,343,343,343,343,3000,343
2014/04/25,346,346,346,346,2000,346
2014/04/30,344,344,342,343,9000,343
2014/05/01,341,342,341,342,5000,342
2014/05/02,342,343,342,342,4000,342
2014/05/07,342,342,341,341,4000,341
2014/05/08,341,341,341,341,4000,341
2014/05/12,341,341,341,341,2000,341
2014/05/13,340,340,335,335,10000,335
2014/05/14,337,337,337,337,1000,337
2014/05/15,335,335,331,331,8000,331
2014/05/19,333,334,333,334,2000,334
2014/05/21,331,331,331,331,1000,331
2014/05/22,330,330,330,330,2000,330
2014/05/23,330,330,330,330,2000,330
2014/05/26,330,332,330,332,2000,332
2014/05/27,331,331,331,331,1000,331
2014/05/28,331,331,331,331,1000,331
2014/05/29,332,332,332,332,2000,332
2014/05/30,331,333,331,333,4000,333
2014/06/02,332,339,331,339,6000,339
2014/06/03,331,333,331,333,3000,333
2014/06/04,333,336,333,336,2000,336
2014/06/05,336,336,336,336,1000,336
2014/06/06,336,344,336,344,3000,344
2014/06/09,344,344,341,341,5000,341
2014/06/10,341,341,341,341,2000,341
2014/06/11,341,341,341,341,4000,341
2014/06/12,341,344,340,340,10000,340
2014/06/13,339,340,339,340,3000,340
2014/06/16,340,340,339,339,3000,339
2014/06/18,339,339,339,339,8000,339
2014/06/19,340,343,340,343,3000,343
2014/06/20,344,344,343,343,7000,343
2014/06/23,343,343,342,342,10000,342
2014/06/24,341,344,341,344,15000,344
2014/06/25,344,344,344,344,1000,344
2014/06/30,344,347,344,347,4000,347
2014/07/01,344,344,344,344,3000,344
2014/07/02,345,348,345,348,10000,348
2014/07/03,349,349,349,349,2000,349
2014/07/04,345,345,344,344,3000,344
2014/07/07,345,345,345,345,4000,345
2014/07/09,346,346,345,345,6000,345
2014/07/10,348,348,348,348,3000,348
2014/07/11,345,345,344,344,9000,344
2014/07/17,343,343,343,343,1000,343
2014/07/18,342,343,342,343,3000,343
2014/07/22,345,347,345,347,2000,347
2014/07/23,347,348,347,348,5000,348
2014/07/24,348,348,348,348,1000,348
2014/07/25,349,349,349,349,4000,349
2014/07/28,350,353,350,353,8000,353
2014/07/29,353,353,351,351,5000,351
2014/07/30,350,350,350,350,7000,350
2014/07/31,350,353,346,347,11000,347
2014/08/01,350,350,350,350,1000,350
2014/08/04,350,350,350,350,1000,350
2014/08/05,350,350,350,350,15000,350
2014/08/06,350,350,350,350,4000,350
2014/08/07,347,347,347,347,1000,347
2014/08/08,346,346,346,346,2000,346
2014/08/11,344,344,344,344,2000,344
2014/08/13,344,344,344,344,2000,344
2014/08/15,343,343,343,343,3000,343
2014/08/18,344,345,344,344,3000,344
2014/08/19,346,348,346,348,2000,348
2014/08/20,350,350,350,350,4000,350
2014/08/21,350,350,350,350,7000,350
2014/08/22,351,353,346,346,10000,346
2014/08/25,347,347,347,347,7000,347
2014/08/26,347,347,347,347,5000,347
2014/08/27,350,354,350,354,15000,354
2014/08/28,354,354,347,347,5000,347
2014/08/29,348,355,348,352,26000,352
2014/09/01,354,354,352,354,8000,354
2014/09/02,354,355,351,354,42000,354
2014/09/03,354,354,353,354,49000,354
2014/09/04,356,356,353,354,21000,354
2014/09/05,354,363,354,363,67000,363
2014/09/08,363,363,362,362,2000,362
2014/09/10,360,360,354,355,14000,355
2014/09/11,360,362,359,362,16000,362
2014/09/12,362,363,358,362,30000,362
2014/09/16,357,363,357,363,17000,363
2014/09/17,360,365,357,359,11000,359
2014/09/18,356,362,356,358,5000,358
2014/09/19,355,358,355,358,5000,358
2014/09/25,358,358,358,358,13000,358
2014/09/26,366,366,366,366,2000,366
2014/09/29,367,367,359,359,6000,359
2014/09/30,360,360,357,357,4000,357
2014/10/02,358,363,358,361,12000,361
2014/10/03,361,361,361,361,7000,361
2014/10/06,364,364,364,364,4000,364
2014/10/07,364,364,364,364,17000,364
2014/10/08,364,367,364,367,3000,367
2014/10/09,369,369,364,364,4000,364
2014/10/10,364,364,364,364,5000,364
2014/10/14,363,365,363,365,15000,365
2014/10/15,370,370,370,370,9000,370
2014/10/16,370,370,370,370,6000,370
2014/10/17,364,364,364,364,1000,364
2014/10/20,364,365,364,364,12000,364
2014/10/21,364,364,364,364,2000,364
2014/10/22,368,368,364,364,7000,364
2014/10/23,365,365,365,365,1000,365
2014/10/24,364,364,364,364,3000,364
2014/10/27,366,367,366,367,31000,367
2014/10/28,368,368,366,366,3000,366
2014/10/29,367,369,367,369,3000,369
2014/10/30,365,372,365,372,10000,372
2014/10/31,372,372,372,372,4000,372
2014/11/04,372,373,372,373,14000,373
2014/11/05,372,372,372,372,9000,372
2014/11/06,372,376,372,372,16000,372
2014/11/07,373,373,372,372,5000,372
2014/11/10,372,372,372,372,1000,372
2014/11/11,372,372,372,372,1000,372
2014/11/12,372,372,372,372,6000,372
2014/11/13,372,372,372,372,4000,372
2014/11/14,372,372,372,372,7000,372
2014/11/17,371,372,371,372,3000,372
2014/11/18,372,372,372,372,8000,372
2014/11/19,372,372,372,372,2000,372
2014/11/20,372,372,372,372,14000,372
2014/11/25,372,372,372,372,4000,372
2014/11/26,372,372,364,371,16000,371
2014/11/27,372,372,372,372,2000,372
2014/11/28,372,372,372,372,7000,372
2014/12/01,372,372,372,372,5000,372
2014/12/02,372,372,372,372,1000,372
2014/12/04,372,372,372,372,4000,372
2014/12/05,374,389,373,374,14000,374
2014/12/08,379,381,374,374,6000,374
2014/12/09,374,374,372,374,5000,374
2014/12/11,373,373,365,372,17000,372
2014/12/12,377,377,370,372,9000,372
2014/12/15,367,372,367,372,10000,372
2014/12/17,372,372,372,372,7000,372
2014/12/18,373,373,371,371,4000,371
2014/12/19,372,378,371,378,14000,378
2014/12/22,372,372,372,372,15000,372
2014/12/24,372,376,372,372,10000,372
2014/12/25,372,372,372,372,1000,372
2014/12/26,372,372,372,372,2000,372
2014/12/29,375,375,375,375,1000,375
2014/12/30,375,378,375,378,2000,378
2015/01/06,372,372,372,372,2000,372
2015/01/08,375,379,372,379,5000,379
2015/01/09,379,395,379,395,4000,395
2015/01/14,395,395,374,374,12000,374
2015/01/15,373,375,373,375,6000,375
2015/01/16,390,390,376,377,4000,377
2015/01/20,369,369,369,369,7000,369
2015/01/21,374,379,374,379,2000,379
2015/01/22,373,373,372,372,15000,372
2015/01/23,373,373,373,373,1000,373
2015/01/26,374,374,374,374,1000,374
2015/01/27,373,376,373,376,4000,376
2015/01/28,369,376,369,376,4000,376
2015/01/30,376,376,376,376,5000,376
2015/02/02,372,372,372,372,2000,372
2015/02/03,372,372,372,372,2000,372
2015/02/04,372,372,372,372,2000,372
2015/02/05,372,372,372,372,2000,372
2015/02/06,364,370,364,370,5000,370
2015/02/09,371,371,371,371,4000,371
2015/02/12,375,375,375,375,1000,375
2015/02/13,373,375,373,375,2000,375
2015/02/17,372,372,372,372,1000,372
2015/02/18,372,372,372,372,3000,372
2015/02/20,372,372,371,372,24000,372
2015/02/23,372,372,372,372,5000,372
2015/02/24,372,372,372,372,2000,372
2015/02/25,380,380,372,379,5000,379
2015/02/27,372,372,372,372,8000,372
2015/03/02,376,376,375,375,4000,375
2015/03/03,375,380,373,380,7000,380
2015/03/04,380,380,374,380,5000,380
2015/03/05,374,374,374,374,2000,374
2015/03/06,373,373,373,373,3000,373
2015/03/09,373,373,373,373,1000,373
2015/03/10,373,373,373,373,1000,373
2015/03/11,372,373,372,373,4000,373
2015/03/12,374,374,374,374,1000,374
2015/03/13,372,374,372,374,6000,374
2015/03/16,376,376,376,376,4000,376
2015/03/17,377,378,376,376,3000,376
2015/03/18,374,378,374,378,3000,378
2015/03/19,378,378,378,378,1000,378
2015/03/20,379,383,379,383,2000,383
2015/03/23,378,383,378,383,5000,383
2015/03/24,380,380,380,380,1000,380
2015/03/25,387,387,382,382,2000,382
2015/03/26,379,379,379,379,1000,379
2015/03/30,373,373,373,373,1000,373
2015/03/31,372,372,372,372,3000,372
2015/04/01,373,373,373,373,1000,373
2015/04/02,373,373,373,373,4000,373
2015/04/03,374,380,374,380,4000,380
2015/04/06,380,380,375,375,6000,375
2015/04/07,374,380,374,380,4000,380
2015/04/08,381,381,381,381,2000,381
2015/04/09,372,376,372,376,31000,376
2015/04/10,377,377,374,374,3000,374
2015/04/13,377,377,375,375,4000,375
2015/04/14,374,382,374,382,15000,382
2015/04/15,378,384,378,384,5000,384
2015/04/16,380,380,380,380,2000,380
2015/04/17,430,430,399,399,111000,399
2015/04/20,392,394,388,394,15000,394
2015/04/21,395,395,392,392,6000,392
2015/04/22,394,395,384,385,28000,385
2015/04/23,391,391,385,385,2000,385
2015/04/24,390,390,390,390,2000,390
2015/04/27,383,389,383,389,7000,389
2015/04/28,389,389,384,386,6000,386
2015/04/30,382,382,381,381,6000,381
2015/05/01,380,380,376,376,9000,376
2015/05/07,375,375,372,372,5000,372
2015/05/08,379,380,379,380,5000,380
2015/05/11,377,377,373,373,10000,373
2015/05/12,373,373,373,373,4000,373
2015/05/13,375,375,375,375,3000,375
2015/05/14,375,375,375,375,1000,375
2015/05/15,375,375,374,375,4000,375
2015/05/18,374,374,370,372,27000,372
2015/05/19,372,372,372,372,1000,372
2015/05/20,373,373,373,373,2000,373
2015/05/21,375,375,375,375,4000,375
2015/05/22,377,377,372,372,11000,372
2015/05/25,376,378,373,378,8000,378
2015/05/26,378,378,374,374,4000,374
2015/05/27,379,379,379,379,1000,379
2015/05/28,378,379,376,376,8000,376
2015/05/29,379,380,379,380,4000,380
2015/06/01,388,388,382,382,5000,382
2015/06/02,385,387,385,387,5000,387
2015/06/03,386,386,380,381,9000,381
2015/06/04,381,381,381,381,3000,381
2015/06/05,381,381,381,381,2000,381
2015/06/08,381,383,381,383,2000,383
2015/06/09,380,380,380,380,1000,380
2015/06/10,375,375,375,375,2000,375
2015/06/11,379,379,379,379,2000,379
2015/06/12,379,382,379,382,5000,382
2015/06/15,381,381,381,381,2000,381
2015/06/16,377,377,377,377,1000,377
2015/06/17,377,377,377,377,3000,377
2015/06/18,379,379,375,375,3000,375
2015/06/19,374,374,374,374,5000,374
2015/06/22,379,379,379,379,1000,379
2015/06/23,379,379,379,379,1000,379
2015/06/24,379,379,376,376,6000,376
2015/06/25,378,380,378,380,4000,380
2015/06/26,376,376,376,376,1000,376
2015/06/29,375,375,372,372,12000,372
2015/06/30,374,374,374,374,1000,374
2015/07/01,375,376,369,376,4000,376
