2011/01/04,304500,306000,302000,304000,15454,1520
2011/01/11,309000,312000,307500,308000,12427,1540
2011/01/12,311500,316000,309500,314000,18250,1570
2011/01/13,320500,321000,316000,320000,20677,1600
2011/01/17,317000,321000,312000,313000,22561,1565
2011/01/18,313000,319500,312500,317000,13008,1585
2011/01/19,317500,318500,314500,316000,9793,1580
2011/01/20,316500,317000,312000,314000,16526,1570
2011/01/21,315500,317500,304500,305000,30713,1525
2011/01/24,306500,308000,302000,305000,20971,1525
2011/01/28,312000,318500,312000,314000,13485,1570
2011/01/31,311500,312500,306000,308000,20815,1540
2011/02/01,310500,316500,310000,316000,18195,1580
2011/02/03,325500,327500,323500,326000,20400,1630
2011/02/04,334500,340000,332500,340000,30519,1700
2011/02/07,335500,338000,331000,333000,28096,1665
2011/02/08,341000,341500,332500,333000,39487,1665
2011/02/09,337000,344000,336500,343000,36499,1715
2011/02/14,335000,336000,330000,335000,26176,1675
2011/02/15,335500,341000,335500,337000,21654,1685
2011/02/17,345000,352000,344000,352000,29954,1760
2011/02/18,351000,351500,344000,346000,20710,1730
2011/02/28,336000,340000,332000,337000,21348,1685
2011/03/01,343000,349000,341000,348000,29893,1740
2011/03/07,338500,339500,328500,331000,20855,1655
2011/03/10,334500,342000,334500,337000,18443,1685
2011/03/16,310000,332000,310000,329000,53099,1645
2011/03/18,322500,328000,310500,317000,27927,1585
2011/03/22,312500,316500,310500,315000,44623,1575
2011/03/25,308000,316500,304500,314000,35659,1570
2011/03/28,310000,313000,304000,312000,26864,1560
2011/03/29,302000,306000,300000,304000,29705,1520
2011/03/30,302500,310000,302500,309000,25142,1545
2011/04/06,306000,314500,305000,310000,53218,1550
2011/04/08,316000,316500,311500,315000,27952,1575
2011/04/11,315500,319000,313500,316000,15960,1580
2011/04/13,308000,313500,306500,312000,13907,1560
2011/04/15,309000,309500,305500,308000,12049,1540
2011/04/22,308500,312000,306000,308000,15626,1540
2011/04/25,307000,311500,306500,309000,9625,1545
2011/04/27,315000,316500,311000,312000,17226,1560
2011/04/28,312500,315000,310500,314000,21705,1570
2011/05/12,322500,323000,315000,316000,13798,1580
2011/05/20,317000,322500,317000,318000,11198,1590
2011/05/23,314500,314500,306000,309000,19220,1545
2011/05/24,310000,318000,308000,314000,22385,1570
2011/05/25,309500,315000,308500,314000,13711,1570
2011/05/26,314000,315000,312000,313000,14067,1565
2011/05/27,313000,318000,312500,315000,12027,1575
2011/05/30,314500,314500,310000,312000,12549,1560
2011/05/31,312500,316500,311000,314000,21282,1570
2011/06/01,317500,317500,311500,312000,18827,1560
2011/06/02,308000,314000,307000,313000,24868,1565
2011/06/06,309000,313500,308500,312000,15304,1560
2011/06/08,308000,311000,305500,310000,13225,1550
2011/06/09,310000,314000,309500,312000,20867,1560
2011/06/10,314500,321000,313000,314000,30073,1570
2011/06/13,307000,307500,300000,303000,35581,1515
2011/06/14,296000,299200,292800,296000,38183,1480
2011/06/15,299300,306500,299100,304000,32104,1520
2011/06/20,287000,288500,282600,285200,33719,1426
2011/06/21,286200,289900,285700,288800,20852,1444
2011/06/22,289300,296400,289100,295800,31984,1479
2011/06/23,293200,298300,293000,295000,14257,1475
2011/06/27,296100,300500,293600,297200,21103,1486
2011/06/29,305000,313500,303500,313000,41628,1565
2011/07/08,322000,329000,320000,324000,35761,1620
2011/07/11,324000,325000,319500,323000,22652,1615
2011/07/12,320000,322000,315500,320000,31749,1600
2011/07/13,318000,321500,314500,319000,16690,1595
2011/07/14,317500,318000,314500,316000,12031,1580
2011/07/19,318500,320000,312500,313000,19915,1565
2011/07/21,309500,310500,302000,305000,51546,1525
2011/07/22,308500,314500,307000,310000,36449,1550
2011/07/26,315000,323000,315000,318000,44408,1590
2011/07/27,324000,336000,323000,333000,67278,1665
2011/07/29,337000,356000,335500,350000,99406,1750
2011/08/01,348500,355500,347500,353000,48613,1765
2011/08/02,347500,348000,341000,345000,38700,1725
2011/08/04,327500,343000,326500,343000,50267,1715
2011/08/09,328000,332000,321500,330000,60148,1650
2011/08/10,339000,350000,329000,350000,67454,1750
2011/08/11,341000,344000,340500,343000,49662,1715
2011/08/22,335000,335000,330000,332000,18880,1660
2011/08/30,331500,334500,326500,327000,23174,1635
2011/09/02,342500,343500,338000,341000,18964,1705
2011/09/06,332500,339500,328000,329000,36612,1645
2011/09/09,347000,361500,345500,357000,54691,1785
2011/09/12,357500,366500,354500,356000,30224,1780
2011/09/13,355500,355500,349000,354000,21533,1770
2011/09/14,354500,355000,343000,348000,24370,1740
2011/09/15,345500,346500,341000,342000,26112,1710
2011/09/16,349000,352000,344000,349000,29117,1745
2011/09/20,355500,371500,351500,368000,48202,1840
2011/09/26,365500,367000,357000,364000,38152,1820
2011/09/27,367500,369000,362500,367000,26734,1835
2011/10/03,361000,367500,358000,367000,20624,1835
2011/10/04,365000,366000,359500,364000,26584,1820
2011/10/05,364500,366500,360000,363000,29549,1815
2011/10/06,365500,365500,360000,363000,23238,1815
2011/10/07,360500,364000,354500,358000,23729,1790
2011/10/12,365000,371000,361500,362000,24615,1810
2011/10/13,360000,361000,348500,358000,32038,1790
2011/10/14,359500,371500,358000,370000,36737,1850
2011/10/18,381500,386000,372000,375000,28415,1875
2011/10/27,379500,382000,373000,378000,14936,1890
2011/10/28,391000,398000,386000,398000,42631,1990
2011/11/01,397500,398500,390500,397000,18540,1985
2011/11/02,390000,390500,377500,381000,27308,1905
2011/11/04,382000,393500,379000,392000,28584,1960
2011/11/07,392000,397500,390000,393000,11582,1965
2011/11/09,394500,395500,383500,386000,19813,1930
2011/11/11,370500,379000,370500,373000,20260,1865
2011/11/14,376000,377500,366000,369000,18846,1845
2011/11/15,370000,376500,369000,375000,19784,1875
2011/11/16,379000,385500,376500,385000,22753,1925
2011/11/17,384500,385000,377000,381000,16299,1905
2011/11/18,367000,377500,366500,374000,21219,1870
2011/11/21,375000,381500,374500,376000,9310,1880
2011/12/06,368500,372000,366000,366000,30684,1830
2011/12/09,361500,366000,361000,365000,31399,1825
2011/12/13,364500,371500,362500,370000,18295,1850
2011/12/16,361000,366500,358000,366000,20913,1830
2011/12/19,363500,365000,359500,364000,15860,1820
2011/12/22,367000,367500,363000,363000,11353,1815
2011/12/29,362500,366000,361000,365000,5825,1825
2011/12/30,372000,372000,361500,362000,9876,1810
2012/01/04,373000,379000,371000,378000,19025,1890
2012/01/05,373000,375500,370000,370000,14296,1850
2012/01/06,373500,376000,372500,376000,12890,1880
2012/01/10,381000,388500,380000,387000,27303,1935
2012/01/12,398000,404000,397000,401000,41609,2005
2012/01/13,408000,409500,397500,399000,30829,1995
2012/01/18,405000,405500,396500,397000,15607,1985
2012/01/19,387500,395500,383500,384000,46916,1920
2012/01/20,393000,395500,384000,384000,37587,1920
2012/01/23,379500,382000,378500,380000,17420,1900
2012/01/25,385000,392500,384500,386000,16355,1930
2012/01/26,384000,388000,380500,384000,13702,1920
2012/01/27,385000,386500,383000,383000,17635,1915
2012/01/30,380000,387500,379500,383000,13435,1915
2012/01/31,381500,384500,373500,375000,22755,1875
2012/02/01,380000,381000,372000,373000,16711,1865
2012/02/02,382000,385500,380000,385000,18892,1925
2012/02/08,414500,428000,412000,414000,53653,2070
2012/02/14,409000,421000,408500,419000,18408,2095
2012/02/17,429000,433000,425000,429000,29021,2145
2012/02/20,436000,441500,432500,440000,27707,2200
2012/02/21,437000,444000,435500,439000,25793,2195
2012/02/22,434500,437500,430000,432000,24523,2160
2012/02/23,432000,434000,427000,428000,18315,2140
2012/02/24,429000,437500,428000,435000,15519,2175
2012/02/28,436500,437500,430000,433000,19386,2165
2012/02/29,431500,439000,431500,432000,20929,2160
2012/03/01,436500,440500,431500,439000,19679,2195
2012/03/02,437500,439000,431000,433000,18604,2165
2012/03/06,430500,431500,420500,421000,31156,2105
2012/03/12,455500,460000,452500,456000,12964,2280
2012/03/15,457000,461500,456000,460000,11875,2300
2012/03/16,455500,460000,454000,455000,12355,2275
2012/03/21,460500,462000,454500,459000,23883,2295
2012/03/22,454500,458000,453500,455000,17722,2275
2012/03/27,463000,474500,460500,474000,21752,2370
2012/03/28,468000,470500,463500,470000,13900,2350
2012/03/30,470500,472000,464500,466000,14992,2330
2012/04/05,477500,478500,473000,476000,20673,2380
2012/04/06,471500,471500,463000,464000,16058,2320
2012/04/09,461000,468000,457500,464000,15193,2320
2012/04/12,460000,465500,453000,453000,20097,2265
2012/04/13,458500,468500,458000,466000,24997,2330
2012/04/16,466000,471500,462000,465000,19628,2325
2012/04/19,475000,475000,456500,458000,20071,2290
2012/04/23,453500,461000,450000,451000,14231,2255
2012/04/24,451000,464000,450000,463000,20744,2315
2012/05/01,444000,444000,434000,436000,19376,2180
2012/05/07,449500,451000,443500,446000,20149,2230
2012/05/08,451500,451500,441500,444000,17609,2220
2012/05/09,444000,445000,436500,443000,18423,2215
2012/05/10,436500,437000,426500,434000,28928,2170
2012/05/14,435000,437500,426500,428000,16831,2140
2012/05/15,420000,421500,412500,415000,27469,2075
2012/05/21,410000,413500,406500,411000,19977,2055
2012/05/22,412500,414000,409000,413000,19665,2065
2012/05/23,427000,430000,419500,421000,38395,2105
2012/05/30,441000,442500,435500,437000,24069,2185
2012/05/31,435500,437000,429000,437000,22003,2185
2012/06/04,431500,431500,422500,427000,15615,2135
2012/06/07,422500,432000,421500,431000,14963,2155
2012/06/08,433000,433000,422500,426000,30953,2130
2012/06/11,430500,433500,427500,433000,15142,2165
2012/06/12,430000,442500,429500,442000,27991,2210
2012/06/13,439000,449000,438000,449000,14863,2245
2012/06/14,453500,454500,447500,450000,16482,2250
2012/06/18,451000,453500,447500,451000,14695,2255
2012/06/19,449500,451000,442500,445000,18132,2225
2012/06/20,449500,463000,446500,463000,32882,2315
2012/06/22,448500,452500,444000,445000,19310,2225
2012/06/27,2250,2311,2243,2305,3122500,2305
2012/06/28,2369,2399,2363,2393,4309600,2393
2012/06/29,2361,2386,2326,2361,4745200,2361
2012/07/02,2390,2390,2330,2357,2338500,2357
2012/07/03,2400,2444,2392,2437,4374400,2437
2012/07/04,2435,2435,2383,2384,3069000,2384
2012/07/05,2364,2387,2334,2349,2487300,2349
2012/07/06,2349,2405,2348,2353,2646800,2353
2012/07/09,2335,2343,2308,2322,2866900,2322
2012/07/10,2346,2347,2288,2297,2525400,2297
2012/07/11,2250,2339,2238,2336,2861300,2336
2012/07/12,2344,2347,2296,2318,2832400,2318
2012/07/13,2355,2379,2337,2365,3753600,2365
2012/07/17,2375,2419,2355,2418,3768100,2418
2012/07/18,2415,2430,2391,2411,3401100,2411
2012/07/19,2440,2479,2436,2468,4231000,2468
2012/07/20,2445,2451,2396,2411,3415800,2411
2012/07/23,2420,2447,2405,2405,1833000,2405
2012/07/24,2408,2423,2359,2392,2388800,2392
2012/07/25,2399,2434,2381,2415,3564000,2415
2012/07/26,2417,2427,2386,2421,3240100,2421
2012/07/27,2380,2413,2376,2413,3001800,2413
2012/07/30,2363,2462,2363,2445,4443600,2445
2012/07/31,2433,2495,2423,2464,2587800,2464
2012/08/01,2454,2486,2414,2477,2329600,2477
2012/08/02,2450,2454,2405,2433,2906400,2433
2012/08/03,2400,2413,2386,2407,2233300,2407
2012/08/06,2421,2458,2415,2454,1832500,2454
2012/08/07,2490,2494,2469,2476,2400800,2476
2012/08/08,2471,2495,2455,2477,2942100,2477
2012/08/09,2485,2531,2475,2528,3799000,2528
2012/08/10,2455,2504,2455,2479,2638500,2479
2012/08/13,2480,2507,2468,2491,2131700,2491
2012/08/14,2499,2572,2493,2563,3641900,2563
2012/08/15,2530,2545,2433,2439,4241700,2439
2012/08/16,2539,2578,2513,2574,4911800,2574
2012/08/17,2540,2554,2457,2480,5178600,2480
2012/08/20,2442,2487,2423,2456,4475400,2456
2012/08/21,2436,2485,2396,2415,5086400,2415
2012/08/22,2380,2451,2375,2404,5270800,2404
2012/08/23,2405,2405,2360,2379,3584600,2379
2012/08/24,2345,2357,2306,2312,5665200,2312
2012/08/27,2313,2372,2313,2328,2425600,2328
2012/08/28,2370,2391,2329,2335,3178900,2335
2012/08/29,2382,2387,2354,2372,2881600,2372
2012/08/30,2405,2417,2392,2415,3051200,2415
2012/08/31,2372,2404,2361,2361,3077500,2361
2012/09/03,2410,2414,2358,2366,2333300,2366
2012/09/04,2344,2355,2259,2271,5051000,2271
2012/09/05,2260,2284,2234,2245,5299600,2245
2012/09/06,2240,2313,2235,2306,4355000,2306
2012/09/07,2256,2295,2160,2206,10504300,2206
2012/09/10,2200,2200,2108,2112,8233400,2112
2012/09/11,2150,2168,2127,2154,5079400,2154
2012/09/12,2186,2199,2161,2178,4436300,2178
2012/09/13,2158,2170,2114,2125,4358000,2125
2012/09/14,2142,2196,2125,2185,6812900,2185
2012/09/18,2250,2257,2192,2228,5752600,2228
2012/09/19,2253,2300,2244,2260,5789400,2260
2012/09/20,2267,2308,2252,2271,3956700,2271
2012/09/21,2299,2364,2297,2336,4833400,2336
2012/09/24,2336,2364,2331,2348,2905500,2348
2012/09/25,2340,2350,2319,2340,2969100,2340
2012/09/26,2280,2310,2269,2288,2579000,2288
2012/09/27,2250,2312,2245,2304,2153500,2304
2012/09/28,2305,2342,2294,2342,4379100,2342
2012/10/01,2280,2295,2272,2288,4148600,2288
2012/10/02,2300,2300,2277,2285,1770400,2285
2012/10/03,2288,2301,2271,2284,1927700,2284
2012/10/04,2328,2334,2282,2282,1481600,2282
2012/10/05,2282,2325,2282,2299,2439500,2299
2012/10/09,2257,2261,2226,2238,5324100,2238
2012/10/10,2194,2198,2124,2154,5105800,2154
2012/10/11,2200,2240,2198,2231,4438800,2231
2012/10/12,2281,2322,2248,2318,5218700,2318
2012/10/15,2321,2342,2307,2335,2826900,2335
2012/10/16,2344,2344,2291,2335,2606800,2335
2012/10/17,2328,2358,2315,2333,4330400,2333
2012/10/18,2334,2355,2333,2353,2707400,2353
2012/10/19,2293,2333,2281,2315,3550000,2315
2012/10/22,2298,2304,2252,2291,3296700,2291
2012/10/23,2313,2332,2305,2309,2749800,2309
2012/10/24,2321,2329,2301,2318,1915500,2318
2012/10/25,2325,2331,2305,2314,1849700,2314
2012/10/26,2320,2343,2289,2299,3273100,2299
2012/10/29,2309,2319,2282,2294,2197500,2294
2012/10/30,2311,2320,2239,2239,2264800,2239
2012/10/31,2190,2270,2190,2206,4830800,2206
2012/11/01,2272,2279,2209,2217,2784200,2217
2012/11/02,2230,2264,2223,2235,2368400,2235
2012/11/05,2226,2262,2225,2241,2142700,2241
2012/11/06,2262,2296,2244,2282,2279300,2282
2012/11/07,2289,2298,2232,2250,2903700,2250
2012/11/08,2254,2263,2213,2238,2048900,2238
2012/11/09,2237,2260,2215,2247,2860300,2247
2012/11/12,2225,2227,2211,2214,1546600,2214
2012/11/13,2224,2224,2174,2185,1785500,2185
2012/11/14,2162,2203,2147,2196,2556000,2196
2012/11/15,2200,2210,2150,2153,3633800,2153
2012/11/16,2167,2263,2158,2263,4365300,2263
2012/11/19,2373,2447,2352,2411,7397700,2411
2012/11/20,2400,2403,2343,2345,5054700,2345
2012/11/21,2351,2386,2338,2386,3009600,2386
2012/11/22,2410,2430,2383,2401,3046400,2401
2012/11/26,2420,2445,2393,2417,3536200,2417
2012/11/27,2440,2494,2421,2423,4036100,2423
2012/11/28,2415,2438,2384,2384,3837900,2384
2012/11/29,2387,2444,2387,2431,2537600,2431
2012/11/30,2456,2479,2438,2470,3493100,2470
2012/12/03,2431,2436,2386,2386,3473100,2386
2012/12/04,2408,2427,2375,2395,3650900,2395
2012/12/05,2380,2417,2367,2404,3291500,2404
2012/12/06,2427,2434,2414,2426,2911700,2426
2012/12/07,2450,2463,2424,2428,2642600,2428
2012/12/10,2410,2417,2371,2376,3190000,2376
2012/12/11,2380,2400,2378,2382,2468600,2382
2012/12/12,2389,2404,2376,2385,2346500,2385
2012/12/13,2402,2427,2376,2393,2608800,2393
2012/12/14,2432,2434,2410,2421,6540700,2421
2012/12/17,2458,2458,2351,2352,4678800,2352
2012/12/18,2302,2353,2302,2343,5936000,2343
2012/12/19,2343,2403,2327,2393,5654700,2393
2012/12/20,2391,2442,2375,2426,4716800,2426
2012/12/21,2439,2445,2375,2377,3811500,2377
2012/12/25,2387,2419,2383,2392,1747200,2392
2012/12/26,2394,2418,2385,2415,2431800,2415
2012/12/27,2406,2446,2402,2416,3692000,2416
2012/12/28,2432,2450,2420,2440,2922500,2440
2013/01/04,2550,2550,2450,2521,4767900,2521
2013/01/07,2545,2623,2532,2593,5537100,2593
2013/01/08,2618,2648,2603,2608,4663700,2608
2013/01/09,2508,2592,2506,2571,3472800,2571
2013/01/10,2605,2631,2594,2626,3701500,2626
2013/01/11,2627,2661,2606,2649,3175800,2649
2013/01/15,2660,2698,2643,2665,3811900,2665
2013/01/16,2660,2679,2636,2656,3232400,2656
2013/01/17,2697,2730,2683,2726,5192800,2726
2013/01/18,2770,2789,2727,2735,3896900,2735
2013/01/21,2717,2735,2677,2677,2681600,2677
2013/01/22,2685,2722,2643,2666,3369800,2666
2013/01/23,2666,2694,2650,2668,2549400,2668
2013/01/24,2618,2669,2610,2659,2517100,2659
2013/01/25,2714,2792,2710,2790,4877400,2790
2013/01/28,2810,2812,2753,2757,3522100,2757
2013/01/29,2757,2827,2752,2820,3171200,2820
2013/01/30,2831,2903,2808,2890,3551700,2890
2013/01/31,2890,2899,2820,2847,5444100,2847
2013/02/01,2922,2993,2897,2961,6037400,2961
2013/02/04,2955,3020,2941,2975,4515900,2975
2013/02/05,3000,3010,2955,2970,5860600,2970
2013/02/06,3085,3110,3065,3090,4741700,3090
2013/02/07,3065,3070,2996,3000,5206500,3000
2013/02/08,2930,3005,2921,2940,4459300,2940
2013/02/12,2968,3005,2897,2898,5792700,2898
2013/02/13,2861,2957,2861,2941,3837800,2941
2013/02/14,2942,2945,2851,2924,3863400,2924
2013/02/15,2920,2928,2867,2900,2988300,2900
2013/02/18,2925,2974,2925,2952,2979700,2952
2013/02/19,2922,2947,2907,2925,2423300,2925
2013/02/20,2825,2900,2752,2895,10687700,2895
2013/02/21,2871,2911,2814,2840,4582500,2840
2013/02/22,2869,2879,2841,2860,3368400,2860
2013/02/25,2900,2914,2885,2901,3279800,2901
2013/02/26,2890,2897,2805,2880,5511700,2880
2013/02/27,2892,2925,2876,2902,4049500,2902
2013/02/28,2908,2939,2885,2925,3167900,2925
2013/03/01,2927,3070,2927,3050,4552400,3050
2013/03/04,3120,3160,3090,3115,4104800,3115
2013/03/05,3130,3140,3065,3075,2240500,3075
2013/03/06,3060,3105,3045,3095,3084500,3095
2013/03/07,3165,3240,3115,3130,4173000,3130
2013/03/08,3125,3155,3090,3125,8748500,3125
2013/03/11,3080,3090,3000,3010,8087500,3010
2013/03/12,2960,3010,2957,2990,25821900,2990
2013/03/13,3040,3205,3025,3205,36596200,3205
2013/03/14,3220,3225,3100,3130,26388500,3130
2013/03/15,3090,3110,3030,3075,34646800,3075
2013/03/18,3065,3070,2972,3000,8829200,3000
2013/03/19,3040,3055,3010,3045,8443700,3045
2013/03/21,3075,3095,3040,3060,7812700,3060
2013/03/22,3050,3050,2995,2995,5321900,2995
2013/03/25,3030,3030,2995,3010,4381900,3010
2013/03/26,3000,3040,3000,3025,5179600,3025
2013/03/27,3005,3015,2975,3015,6053000,3015
2013/03/28,3015,3015,2972,3005,5202400,3005
2013/03/29,3025,3030,2974,3000,6496300,3000
2013/04/01,2955,2987,2913,2921,5090600,2921
2013/04/02,2960,2960,2850,2932,5619100,2932
2013/04/03,2965,3015,2962,3015,7153100,3015
2013/04/04,3020,3095,3005,3095,11323100,3095
2013/04/05,3160,3215,3100,3110,14404300,3110
2013/04/08,3195,3200,3160,3195,9893400,3195
2013/04/09,3200,3200,3180,3195,7990600,3195
2013/04/10,3200,3335,3195,3290,15998000,3290
2013/04/11,3400,3470,3380,3470,16173500,3470
2013/04/12,3395,3445,3385,3440,9469300,3440
2013/04/15,3500,3515,3435,3470,8887300,3470
2013/04/16,3345,3495,3330,3480,7636400,3480
2013/04/17,3460,3475,3415,3440,4479400,3440
2013/04/18,3400,3400,3340,3355,6740900,3355
2013/04/19,3325,3395,3310,3370,6277600,3370
2013/04/22,3440,3460,3370,3395,3809100,3395
2013/04/23,3385,3430,3370,3410,3804300,3410
2013/04/24,3450,3480,3400,3465,5865300,3465
2013/04/25,3485,3515,3470,3500,6106000,3500
2013/04/26,3600,3690,3580,3595,13071500,3595
2013/04/30,3590,3745,3570,3685,10533000,3685
2013/05/01,3710,3735,3635,3685,6332100,3685
2013/05/02,3715,3760,3595,3605,4648700,3605
2013/05/07,3745,3750,3655,3665,5598800,3665
2013/05/08,3650,3660,3580,3600,7185800,3600
2013/05/09,3650,3655,3540,3555,4468300,3555
2013/05/10,3660,3705,3615,3675,8263600,3675
2013/05/13,3675,3685,3600,3625,4597500,3625
2013/05/14,3640,3655,3585,3595,4159300,3595
2013/05/15,3660,3820,3655,3805,8868800,3805
2013/05/16,3825,3835,3715,3735,5955700,3735
2013/05/17,3735,3765,3675,3695,5510700,3695
2013/05/20,3800,3815,3750,3790,4658700,3790
2013/05/21,3745,3750,3675,3685,4931300,3685
2013/05/22,3690,3715,3670,3690,5394800,3690
2013/05/23,3710,3795,3520,3540,9400700,3540
2013/05/24,3580,3660,3410,3550,7023200,3550
2013/05/27,3620,3620,3480,3505,5553400,3505
2013/05/28,3465,3610,3445,3565,5210300,3565
2013/05/29,3620,3675,3570,3615,5343900,3615
2013/05/30,3590,3590,3435,3460,5386700,3460
2013/05/31,3595,3600,3450,3460,6610100,3460
2013/06/03,3355,3420,3320,3340,5866000,3340
2013/06/04,3385,3480,3360,3455,7046400,3455
2013/06/05,3500,3545,3375,3380,5499200,3380
2013/06/06,3300,3445,3300,3345,4719200,3345
2013/06/07,3260,3375,3260,3305,7033000,3305
2013/06/10,3460,3500,3425,3480,3576600,3480
2013/06/11,3550,3600,3490,3495,5707300,3495
2013/06/12,3425,3460,3380,3450,3139100,3450
2013/06/13,3385,3415,3240,3245,5095300,3245
2013/06/14,3380,3420,3280,3290,8710400,3290
2013/06/17,3460,3475,3390,3455,4333700,3455
2013/06/18,3495,3495,3425,3485,3181800,3485
2013/06/19,3490,3520,3450,3485,2838200,3485
2013/06/20,3445,3490,3430,3440,2980300,3440
2013/06/21,3350,3435,3285,3425,5805300,3425
2013/06/24,3490,3555,3405,3420,3478300,3420
2013/06/25,3415,3455,3330,3375,4467000,3375
2013/06/26,3475,3495,3300,3315,3858800,3315
2013/06/27,3340,3430,3340,3430,3365100,3430
2013/06/28,3560,3585,3500,3505,5432100,3505
2013/07/01,3600,3640,3580,3630,3941100,3630
2013/07/02,3670,3695,3620,3695,3820900,3695
2013/07/03,3690,3690,3650,3665,2012700,3665
2013/07/04,3540,3700,3540,3665,2315200,3665
2013/07/05,3670,3700,3665,3700,2598800,3700
2013/07/08,3715,3750,3655,3665,2512000,3665
2013/07/09,3705,3730,3675,3725,3217300,3725
2013/07/10,3770,3800,3715,3735,4017400,3735
2013/07/11,3750,3750,3650,3675,3731800,3675
2013/07/12,3665,3705,3660,3685,3959900,3685
2013/07/16,3670,3680,3645,3675,4246800,3675
2013/07/17,3620,3635,3570,3605,4049300,3605
2013/07/18,3590,3630,3590,3630,3225500,3630
2013/07/19,3655,3660,3550,3620,5066600,3620
2013/07/22,3680,3700,3640,3670,3399200,3670
2013/07/23,3700,3705,3670,3695,3451500,3695
2013/07/24,3735,3760,3685,3695,3351600,3695
2013/07/25,3700,3705,3665,3680,2893500,3680
2013/07/26,3625,3660,3570,3580,2807700,3580
2013/07/29,3485,3505,3390,3405,4480800,3405
2013/07/30,3475,3480,3435,3455,4282600,3455
2013/07/31,3500,3515,3420,3425,6580200,3425
2013/08/01,3500,3505,3455,3490,4123200,3490
2013/08/02,3500,3595,3485,3590,4189000,3590
2013/08/05,3580,3585,3525,3540,1949800,3540
2013/08/06,3565,3595,3500,3595,2588100,3595
2013/08/07,3535,3560,3460,3465,2563600,3465
2013/08/08,3445,3495,3350,3365,3264200,3365
2013/08/09,3350,3410,3330,3365,3451400,3365
2013/08/12,3330,3335,3305,3315,3205800,3315
2013/08/13,3400,3440,3390,3400,4309700,3400
2013/08/14,3500,3525,3475,3525,4209500,3525
2013/08/15,3455,3495,3450,3465,2321500,3465
2013/08/16,3395,3435,3380,3425,2956400,3425
2013/08/19,3425,3475,3420,3455,2036600,3455
2013/08/20,3415,3450,3345,3355,3157300,3355
2013/08/21,3390,3430,3340,3365,2998400,3365
2013/08/22,3365,3385,3355,3365,2333100,3365
2013/08/23,3450,3465,3415,3435,2922600,3435
2013/08/26,3435,3450,3410,3440,1543400,3440
2013/08/27,3450,3450,3405,3410,1927100,3410
2013/08/28,3400,3420,3330,3370,2826800,3370
2013/08/29,3350,3380,3340,3370,1954200,3370
2013/08/30,3410,3415,3320,3335,4415500,3335
2013/09/02,3370,3415,3360,3390,2813000,3390
2013/09/03,3420,3485,3415,3480,3223600,3480
2013/09/04,3475,3475,3420,3460,3453800,3460
2013/09/05,3405,3430,3385,3425,3956200,3425
2013/09/06,3440,3480,3370,3385,3263700,3385
2013/09/09,3455,3475,3400,3420,3540000,3420
2013/09/10,3455,3510,3430,3500,5059200,3500
2013/09/11,3595,3600,3530,3535,3840800,3535
2013/09/12,3555,3555,3505,3515,2647400,3515
2013/09/13,3515,3535,3470,3530,5264300,3530
2013/09/17,3550,3560,3470,3475,2837600,3475
2013/09/18,3500,3525,3455,3515,3070700,3515
2013/09/19,3560,3580,3545,3580,3009900,3580
2013/09/20,3595,3620,3580,3605,3696700,3605
2013/09/24,3570,3600,3570,3590,2759900,3590
2013/09/25,3580,3620,3560,3600,2479500,3600
2013/09/26,3485,3600,3480,3600,4302500,3600
2013/09/27,3595,3595,3550,3565,2879300,3565
2013/09/30,3525,3590,3520,3530,4039600,3530
2013/10/01,3580,3580,3520,3545,4281600,3545
2013/10/02,3575,3575,3475,3490,5079100,3490
2013/10/03,3495,3505,3460,3480,2921100,3480
2013/10/04,3475,3490,3440,3465,3706900,3465
2013/10/07,3455,3470,3430,3450,4315200,3450
2013/10/08,3455,3455,3370,3400,3774500,3400
2013/10/09,3380,3420,3370,3420,3063800,3420
2013/10/10,3455,3485,3420,3475,3755200,3475
2013/10/11,3500,3535,3480,3500,4152300,3500
2013/10/15,3510,3535,3490,3520,2340200,3520
2013/10/16,3455,3460,3360,3450,9909700,3450
2013/10/17,3500,3520,3470,3485,4559500,3485
2013/10/18,3455,3485,3450,3455,2913800,3455
2013/10/21,3465,3495,3455,3480,2545900,3480
2013/10/22,3470,3485,3455,3455,2157300,3455
2013/10/23,3450,3475,3400,3400,3065600,3400
2013/10/24,3385,3410,3370,3400,2725600,3400
2013/10/25,3400,3420,3330,3330,4439700,3330
2013/10/28,3370,3410,3370,3395,3206600,3395
2013/10/29,3415,3445,3390,3425,3605800,3425
2013/10/30,3520,3575,3515,3550,9199600,3550
2013/10/31,3590,3595,3540,3550,4147300,3550
2013/11/01,3620,3630,3555,3575,7051200,3575
2013/11/05,3595,3620,3515,3530,6219000,3530
2013/11/06,3440,3560,3435,3505,3840000,3505
2013/11/07,3500,3515,3460,3480,2598100,3480
2013/11/08,3450,3470,3435,3460,2346800,3460
2013/11/11,3515,3520,3475,3510,3032700,3510
2013/11/12,3520,3545,3505,3540,3803100,3540
2013/11/13,3490,3505,3455,3480,4882300,3480
2013/11/14,3535,3590,3480,3560,5804100,3560
2013/11/15,3620,3685,3610,3675,6383400,3675
2013/11/18,3700,3735,3690,3705,5672800,3705
2013/11/19,3715,3720,3680,3700,4353800,3700
2013/11/20,3730,3740,3690,3705,3746500,3705
2013/11/21,3720,3730,3690,3720,4042900,3720
2013/11/22,3585,3670,3530,3625,12512700,3625
2013/11/25,3555,3590,3550,3565,7182200,3565
2013/11/26,3535,3555,3510,3520,6350200,3520
2013/11/27,3515,3535,3430,3470,8503700,3470
2013/11/28,3460,3480,3455,3480,3909300,3480
2013/11/29,3470,3475,3440,3460,6094000,3460
2013/12/02,3510,3520,3455,3460,4672700,3460
2013/12/03,3470,3480,3445,3465,3458400,3465
2013/12/04,3450,3480,3425,3430,3670700,3430
2013/12/05,3425,3455,3415,3440,3684500,3440
2013/12/06,3460,3460,3400,3415,4320800,3415
2013/12/09,3485,3510,3475,3500,6480700,3500
2013/12/10,3510,3525,3490,3525,4399500,3525
2013/12/11,3580,3580,3530,3530,4793400,3530
2013/12/12,3490,3520,3490,3515,4068200,3515
2013/12/13,3500,3535,3485,3525,9018000,3525
2013/12/16,3485,3505,3435,3435,3578200,3435
2013/12/17,3445,3450,3420,3440,2794700,3440
2013/12/18,3460,3495,3440,3490,3865700,3490
2013/12/19,3525,3525,3460,3475,4194700,3475
2013/12/20,3420,3430,3315,3365,12948900,3365
2013/12/24,3330,3335,3265,3290,14332000,3290
2013/12/25,3280,3335,3280,3335,5198100,3335
2013/12/26,3355,3405,3340,3405,6095400,3405
2013/12/27,3410,3460,3385,3435,5139600,3435
2013/12/30,3485,3485,3410,3420,4269200,3420
2014/01/06,3455,3460,3410,3425,5989800,3425
2014/01/07,3425,3440,3360,3375,4478900,3375
2014/01/08,3335,3350,3270,3290,11450700,3290
2014/01/09,3230,3290,3165,3180,15135100,3180
2014/01/10,3150,3245,3150,3195,13505400,3195
2014/01/14,3198,3214,3170,3172,8703800,3172
2014/01/15,3183,3223,3175,3221,4942100,3221
2014/01/16,3218,3248,3212,3220,5531100,3220
2014/01/17,3219,3229,3184,3186,4617600,3186
2014/01/20,3200,3214,3189,3200,3824900,3200
2014/01/21,3219,3249,3216,3231,3377100,3231
2014/01/22,3231,3251,3217,3235,4583800,3235
2014/01/23,3259,3259,3219,3227,4737300,3227
2014/01/24,3195,3200,3158,3173,6361100,3173
2014/01/27,3103,3142,3073,3128,7371500,3128
2014/01/28,3185,3195,3060,3068,6749900,3068
2014/01/29,3119,3149,3087,3129,7351600,3129
2014/01/30,3045,3049,2992,3026,8410100,3026
2014/01/31,3205,3228,3155,3197,15339600,3197
2014/02/03,3240,3240,3125,3135,8883500,3135
2014/02/04,3075,3123,3040,3070,9577100,3070
2014/02/05,3125,3153,3054,3138,8487800,3138
2014/02/06,3170,3196,3102,3107,6648400,3107
2014/02/07,3134,3190,3116,3186,4481600,3186
2014/02/10,3230,3305,3218,3285,8510200,3285
2014/02/12,3300,3355,3299,3347,7457100,3347
2014/02/13,3308,3343,3296,3319,5041200,3319
2014/02/14,3347,3349,3273,3280,6473300,3280
2014/02/17,3333,3333,3276,3291,3805200,3291
2014/02/18,3310,3362,3309,3357,4650800,3357
2014/02/19,3355,3368,3333,3344,3339700,3344
2014/02/20,3309,3310,3275,3286,4415400,3286
2014/02/21,3318,3365,3316,3356,3466900,3356
2014/02/24,3388,3410,3312,3373,4371000,3373
2014/02/25,3303,3368,3303,3360,3710700,3360
2014/02/26,3336,3363,3323,3342,2815800,3342
2014/02/27,3292,3319,3268,3282,5884800,3282
2014/02/28,3249,3254,3181,3232,7192600,3232
2014/03/03,3185,3195,3092,3170,7887700,3170
2014/03/04,3101,3170,3085,3129,6981100,3129
2014/03/05,3207,3241,3198,3222,5644800,3222
2014/03/06,3205,3253,3192,3229,3723000,3229
2014/03/07,3249,3252,3190,3222,3414600,3222
2014/03/10,3199,3208,3168,3191,4155200,3191
2014/03/11,3235,3240,3181,3201,2678500,3201
2014/03/12,3170,3179,3137,3146,4727600,3146
2014/03/13,3134,3165,3126,3131,3415200,3131
2014/03/14,3000,3064,3000,3016,9618300,3016
2014/03/17,3016,3045,2997,3018,4579800,3018
2014/03/18,3050,3071,3002,3003,4304900,3003
2014/03/19,3034,3060,3012,3018,4409100,3018
2014/03/20,3067,3094,3013,3030,8125300,3030
2014/03/24,3100,3120,3035,3096,7427300,3096
2014/03/25,3085,3143,3064,3115,6931400,3115
2014/03/26,3185,3226,3142,3170,6094100,3170
2014/03/27,3159,3166,3088,3140,4709300,3140
2014/03/28,3160,3189,3141,3188,3228200,3188
2014/03/31,3224,3249,3184,3240,3419500,3240
2014/04/01,3265,3275,3218,3242,3969200,3242
2014/04/02,3261,3287,3223,3232,4508900,3232
2014/04/03,3245,3308,3238,3290,4989000,3290
2014/04/04,3277,3300,3259,3296,3015900,3296
2014/04/07,3272,3311,3252,3274,3523300,3274
2014/04/08,3238,3261,3202,3219,3848400,3219
2014/04/09,3195,3229,3155,3191,5477800,3191
2014/04/10,3220,3262,3193,3193,4652700,3193
2014/04/11,3110,3172,3097,3152,6451100,3152
2014/04/14,3144,3208,3138,3157,4001200,3157
2014/04/15,3227,3229,3169,3215,5370200,3215
2014/04/16,3238,3276,3216,3251,4010300,3251
2014/04/17,3250,3251,3211,3230,4465800,3230
2014/04/18,3208,3235,3208,3229,1344200,3229
2014/04/21,3228,3259,3216,3220,1465500,3220
2014/04/22,3229,3304,3227,3297,4660800,3297
2014/04/23,3315,3372,3313,3352,6092100,3352
2014/04/24,3375,3404,3302,3327,4092100,3327
2014/04/25,3310,3392,3303,3366,6331800,3366
2014/04/28,3300,3339,3300,3330,3792900,3330
2014/04/30,3350,3384,3344,3356,4646300,3356
2014/05/01,3345,3351,3306,3318,4460700,3318
2014/05/02,3318,3355,3318,3340,2483300,3340
2014/05/07,3400,3408,3352,3371,8128400,3371
2014/05/08,3390,3396,3372,3386,5311800,3386
2014/05/09,3374,3398,3371,3391,3096300,3391
2014/05/12,3390,3418,3386,3400,4388900,3400
2014/05/13,3442,3455,3436,3452,4624200,3452
2014/05/14,3441,3454,3423,3442,3276300,3442
2014/05/15,3460,3460,3383,3396,4349900,3396
2014/05/16,3347,3349,3275,3299,5439500,3299
2014/05/19,3295,3298,3274,3279,3363400,3279
2014/05/20,3279,3279,3222,3238,4105900,3238
2014/05/21,3230,3256,3219,3232,2580100,3232
2014/05/22,3285,3334,3273,3319,5027000,3319
2014/05/23,3330,3359,3325,3342,4136100,3342
2014/05/26,3375,3375,3345,3372,2260800,3372
2014/05/27,3373,3409,3372,3387,2844800,3387
2014/05/28,3408,3428,3386,3409,3631000,3409
2014/05/29,3420,3447,3417,3441,3672800,3441
2014/05/30,3437,3456,3428,3444,4512000,3444
2014/06/02,3469,3512,3462,3505,3760000,3505
2014/06/03,3523,3526,3494,3500,3346000,3500
2014/06/04,3501,3507,3480,3501,2865500,3501
2014/06/05,3509,3512,3476,3490,3196800,3490
2014/06/06,3510,3511,3489,3500,3234200,3500
2014/06/09,3520,3522,3492,3495,2645600,3495
2014/06/10,3506,3532,3502,3520,3872100,3520
2014/06/11,3550,3609,3546,3594,7634800,3594
2014/06/12,3600,3675,3596,3672,7081200,3672
2014/06/13,3640,3681,3633,3670,8306400,3670
2014/06/16,3638,3640,3606,3616,3738200,3616
2014/06/17,3600,3620,3566,3599,3994100,3599
2014/06/18,3595,3605,3580,3595,3187300,3595
2014/06/19,3607,3674,3605,3671,3342800,3671
2014/06/20,3668,3676,3645,3660,3800600,3660
2014/06/23,3675,3693,3639,3660,2909300,3660
2014/06/24,3660,3723,3647,3707,3911300,3707
2014/06/25,3680,3713,3679,3697,3106900,3697
2014/06/26,3700,3720,3690,3715,3272600,3715
2014/06/27,3700,3700,3621,3667,5622800,3667
2014/06/30,3684,3694,3622,3693,3145700,3693
2014/07/01,3705,3720,3660,3703,3877900,3703
2014/07/02,3725,3725,3689,3694,2447500,3694
2014/07/03,3712,3719,3689,3705,2499100,3705
2014/07/04,3716,3719,3680,3685,1585500,3685
2014/07/07,3692,3698,3676,3679,1235100,3679
2014/07/08,3660,3679,3640,3676,2774700,3676
2014/07/09,3646,3713,3645,3713,2381400,3713
2014/07/10,3713,3724,3690,3700,2873800,3700
2014/07/11,3675,3725,3672,3719,3474600,3719
2014/07/14,3711,3749,3707,3740,3229500,3740
2014/07/15,3740,3804,3739,3792,3925900,3792
2014/07/16,3750,3767,3740,3752,4823200,3752
2014/07/17,3747,3774,3746,3760,2792900,3760
2014/07/18,3707,3712,3681,3703,3977600,3703
2014/07/22,3700,3750,3690,3741,2813900,3741
2014/07/23,3739,3740,3703,3711,3532400,3711
2014/08/06,3544,3550,3480,3485,4166400,3485
2014/08/25,3649,3653,3631,3636,1379100,3636
2014/08/27,3620,3637,3583,3609,2681500,3609
2014/08/29,3540,3571,3535,3564,2377500,3564
2014/09/11,3704,3704,3657,3667,2821800,3667
2014/10/21,3436,3444,3372,3391,3761500,3391
2014/10/31,3698,3810,3664,3766,8262800,3766
2014/11/04,4186,4193,3892,3930,11850500,3930
2014/11/18,3856,3878,3825,3845,4237400,3845
2014/12/02,3728,3730,3688,3694,7363300,3694
2014/12/11,3600,3615,3540,3550,7558300,3550
2014/12/12,3500,3541,3495,3516,10462000,3516
2014/12/18,3185,3286,3182,3275,17788100,3275
2014/12/26,3394,3400,3361,3373,3527700,3373
2015/01/14,3196,3208,3117,3120,6390400,3120
2015/01/15,3143,3178,3110,3120,6689100,3120
2015/02/25,3648,3732,3630,3724,6434100,3724
2015/03/05,3815,3842,3811,3826,5398400,3826
2015/03/10,3875,3888,3787,3811,5754000,3811
2015/03/17,3660,3704,3637,3674,5699200,3674
2015/03/26,3785,3785,3730,3775,5132900,3775
2015/03/30,3919,3956,3888,3895,8035500,3895
2015/04/13,4083,4126,4063,4089,4276800,4089
2015/04/23,4356,4505,4353,4489,7559700,4489
2015/04/24,4440,4453,4391,4442,4423200,4442
2015/05/08,4260,4291,4233,4240,4493300,4240
2015/06/22,4460,4484,4422,4480,2433200,4480
