2011/01/06,1631,1631,1621,1621,400,1621
2011/01/07,1581,1590,1581,1590,300,1590
2011/01/11,1580,1619,1580,1590,400,1590
2011/01/12,1593,1593,1592,1592,200,1592
2011/01/13,1598,1598,1580,1580,300,1580
2011/01/14,1560,1598,1560,1598,200,1598
2011/01/17,1598,1598,1598,1598,1700,1598
2011/01/18,1565,1565,1500,1500,500,1500
2011/01/19,1575,1575,1525,1525,200,1525
2011/01/20,1550,1586,1550,1586,200,1586
2011/01/24,1620,1620,1620,1620,100,1620
2011/01/25,1620,1620,1556,1590,900,1590
2011/01/26,1619,1619,1619,1619,100,1619
2011/01/27,1620,1620,1620,1620,200,1620
2011/01/28,1620,1620,1600,1600,500,1600
2011/01/31,1600,1600,1600,1600,200,1600
2011/02/02,1600,1600,1600,1600,100,1600
2011/02/04,1600,1600,1600,1600,1000,1600
2011/02/08,1590,1590,1590,1590,100,1590
2011/02/10,1590,1590,1510,1588,2800,1588
2011/02/15,1588,1588,1588,1588,1600,1588
2011/02/16,1588,1588,1588,1588,500,1588
2011/02/17,1550,1587,1550,1587,200,1587
2011/02/18,1587,1587,1587,1587,1000,1587
2011/02/21,1554,1615,1554,1600,600,1600
2011/02/22,1560,1599,1560,1599,200,1599
2011/02/23,1565,1565,1565,1565,300,1565
2011/02/24,1565,1565,1565,1565,100,1565
2011/02/25,1569,1575,1565,1575,800,1575
2011/02/28,1595,1595,1585,1585,400,1585
2011/03/02,1585,1600,1585,1600,200,1600
2011/03/07,1560,1590,1560,1590,200,1590
2011/03/14,1750,1770,1700,1700,5300,1700
2011/03/15,1700,2000,1700,1700,3100,1700
2011/03/16,1700,1700,1690,1690,600,1690
2011/03/17,1695,1695,1690,1695,300,1695
2011/03/18,1700,1700,1580,1580,700,1580
2011/03/22,1581,1699,1581,1699,1400,1699
2011/03/23,1650,1730,1650,1730,1400,1730
2011/03/24,1730,1730,1667,1667,800,1667
2011/03/25,1698,1800,1698,1730,4900,1730
2011/03/28,1730,1799,1700,1707,3600,1707
2011/03/29,1700,1740,1700,1740,300,1740
2011/03/31,1650,1650,1650,1650,1000,1650
2011/04/01,1640,1640,1640,1640,100,1640
2011/04/04,1640,1650,1640,1650,300,1650
2011/04/05,1650,1650,1623,1623,600,1623
2011/04/06,1606,1606,1605,1606,300,1606
2011/04/07,1677,1678,1677,1678,200,1678
2011/04/08,1620,1620,1620,1620,100,1620
2011/04/11,1620,1620,1620,1620,100,1620
2011/04/12,1658,1658,1658,1658,100,1658
2011/04/13,1640,1700,1640,1700,900,1700
2011/04/14,1690,1699,1680,1699,300,1699
2011/04/15,1699,1701,1699,1701,2100,1701
2011/04/18,1680,1680,1665,1665,200,1665
2011/04/19,1667,1740,1667,1740,200,1740
2011/04/20,1677,1680,1677,1680,200,1680
2011/04/21,1675,1740,1672,1740,300,1740
2011/04/22,1740,1740,1740,1740,100,1740
2011/04/25,1740,1749,1700,1749,900,1749
2011/04/26,1659,1659,1620,1620,200,1620
2011/05/02,1660,1660,1660,1660,100,1660
2011/05/06,1666,1666,1666,1666,100,1666
2011/05/09,1652,1692,1652,1692,1100,1692
2011/05/10,1676,1676,1668,1668,500,1668
2011/05/11,1699,1699,1699,1699,300,1699
2011/05/12,1690,1729,1690,1729,400,1729
2011/05/13,1715,1715,1715,1715,100,1715
2011/05/16,1715,1715,1715,1715,400,1715
2011/05/17,1725,1725,1725,1725,1000,1725
2011/05/18,1735,1735,1716,1716,400,1716
2011/05/19,1729,1729,1729,1729,900,1729
2011/05/20,1729,1730,1729,1730,300,1730
2011/05/23,1720,1748,1700,1700,400,1700
2011/05/24,1700,1700,1663,1680,900,1680
2011/05/26,1700,1700,1700,1700,100,1700
2011/05/27,1710,1747,1710,1747,800,1747
2011/05/30,1746,1746,1710,1710,300,1710
2011/05/31,1700,1710,1700,1710,200,1710
2011/06/01,1710,1710,1710,1710,100,1710
2011/06/08,1710,1710,1690,1710,600,1710
2011/06/09,1700,1700,1700,1700,100,1700
2011/06/13,1693,1740,1693,1740,700,1740
2011/06/15,1740,1740,1740,1740,1500,1740
2011/06/16,1710,1710,1710,1710,100,1710
2011/06/21,1710,1710,1710,1710,100,1710
2011/06/23,1740,1740,1740,1740,100,1740
2011/06/24,1740,1740,1740,1740,100,1740
2011/06/27,1740,1750,1740,1750,800,1750
2011/06/28,1750,1750,1710,1750,800,1750
2011/06/29,1750,1750,1750,1750,100,1750
2011/06/30,1740,1740,1715,1715,300,1715
2011/07/01,1749,1749,1749,1749,100,1749
2011/07/04,1750,1750,1750,1750,1000,1750
2011/07/05,1750,1750,1750,1750,100,1750
2011/07/11,1745,1745,1745,1745,100,1745
2011/07/13,1735,1735,1735,1735,100,1735
2011/07/14,1735,1735,1730,1730,500,1730
2011/07/15,1731,1741,1730,1741,400,1741
2011/07/19,1745,1755,1745,1755,1600,1755
2011/07/20,1755,1761,1755,1761,1600,1761
2011/07/21,1785,1785,1760,1760,500,1760
2011/07/22,1760,1800,1760,1760,600,1760
2011/07/25,1761,1770,1760,1770,800,1770
2011/07/26,1770,1780,1770,1780,400,1780
2011/07/27,1780,1780,1780,1780,100,1780
2011/07/28,1781,1800,1781,1800,500,1800
2011/07/29,1800,1800,1800,1800,1700,1800
2011/08/01,1790,1790,1752,1752,700,1752
2011/08/02,1760,1760,1745,1745,600,1745
2011/08/03,1690,1840,1690,1800,3800,1800
2011/08/04,1770,1770,1701,1710,700,1710
2011/08/08,1750,1750,1711,1711,1100,1711
2011/08/09,1711,1711,1652,1690,500,1690
2011/08/10,1650,1650,1600,1608,1700,1608
2011/08/11,1645,1645,1606,1631,600,1631
2011/08/12,1625,1635,1620,1620,900,1620
2011/08/15,1660,1660,1630,1630,1300,1630
2011/08/16,1640,1640,1640,1640,2700,1640
2011/08/19,1632,1632,1632,1632,100,1632
2011/08/23,1631,1631,1631,1631,200,1631
2011/08/24,1700,1700,1700,1700,1000,1700
2011/08/25,1700,1700,1700,1700,3400,1700
2011/08/29,1700,1720,1700,1720,500,1720
2011/09/01,1750,1780,1750,1780,400,1780
2011/09/06,1700,1700,1700,1700,200,1700
2011/09/07,1700,1700,1700,1700,300,1700
2011/09/08,1750,1750,1750,1750,200,1750
2011/09/09,1710,1710,1710,1710,600,1710
2011/09/12,1700,1700,1700,1700,500,1700
2011/09/13,1740,1740,1740,1740,100,1740
2011/09/15,1740,1740,1740,1740,1600,1740
2011/09/20,1721,1721,1721,1721,100,1721
2011/09/22,1721,1721,1721,1721,100,1721
2011/09/26,1721,1731,1721,1731,700,1731
2011/09/28,1771,1771,1771,1771,100,1771
2011/09/29,1800,1800,1771,1800,1000,1800
2011/09/30,1800,1850,1800,1850,1200,1850
2011/10/03,1870,2030,1800,1826,1900,1826
2011/10/04,1860,1860,1795,1800,1300,1800
2011/10/06,1800,1830,1800,1803,500,1803
2011/10/07,1810,1849,1809,1820,1500,1820
2011/10/11,1820,1820,1820,1820,100,1820
2011/10/12,1838,1842,1838,1842,300,1842
2011/10/13,2000,2000,1819,1832,4100,1832
2011/10/14,1830,1834,1822,1834,400,1834
2011/10/17,1834,1844,1834,1844,1000,1844
2011/10/18,1884,1924,1844,1859,600,1859
2011/10/19,1859,1860,1850,1860,1800,1860
2011/10/20,1900,1900,1870,1898,400,1898
2011/10/21,1895,1895,1890,1890,300,1890
2011/10/24,1900,1930,1890,1930,1800,1930
2011/10/25,1930,1930,1905,1930,1400,1930
2011/10/26,1930,1999,1927,1999,2600,1999
2011/10/27,1730,1840,1730,1781,2700,1781
2011/10/28,1820,1960,1820,1820,2700,1820
2011/10/31,1820,1820,1780,1819,400,1819
2011/11/01,1774,1775,1774,1774,500,1774
2011/11/02,1706,1706,1700,1700,600,1700
2011/11/04,1684,1684,1684,1684,100,1684
2011/11/07,1720,1721,1720,1721,200,1721
2011/11/09,1750,1750,1701,1701,400,1701
2011/11/10,1673,1673,1656,1656,300,1656
2011/11/11,1688,1688,1675,1675,300,1675
2011/11/14,1680,1690,1680,1690,600,1690
2011/11/15,1690,1710,1690,1710,1000,1710
2011/11/16,1710,1710,1710,1710,1000,1710
2011/11/17,1708,1708,1668,1668,200,1668
2011/11/18,1668,1668,1668,1668,100,1668
2011/11/22,1690,1690,1690,1690,200,1690
2011/11/25,1690,1700,1690,1700,800,1700
2011/11/28,1700,1700,1700,1700,200,1700
2011/11/29,1720,1720,1720,1720,100,1720
2011/12/01,1718,1718,1718,1718,100,1718
2011/12/06,1800,1800,1800,1800,600,1800
2011/12/07,1760,1760,1760,1760,200,1760
2011/12/09,1800,1800,1716,1716,1400,1716
2011/12/12,1739,1739,1739,1739,200,1739
2011/12/13,1720,1738,1720,1738,300,1738
2011/12/14,1738,1770,1738,1770,1400,1770
2011/12/15,1770,1770,1770,1770,1300,1770
2011/12/16,1770,1780,1770,1780,400,1780
2011/12/19,1780,1780,1740,1740,200,1740
2011/12/20,1736,1736,1736,1736,100,1736
2011/12/21,1696,1696,1696,1696,800,1696
2011/12/22,1682,1682,1682,1682,100,1682
2011/12/26,1692,1692,1692,1692,100,1692
2011/12/27,1700,1700,1700,1700,100,1700
2011/12/28,1700,1746,1700,1746,700,1746
2011/12/30,1766,1766,1766,1766,100,1766
2012/01/04,1806,1806,1806,1806,100,1806
2012/01/05,1806,1806,1806,1806,100,1806
2012/01/06,1806,1806,1800,1800,200,1800
2012/01/10,1790,1790,1790,1790,100,1790
2012/01/12,1775,1775,1773,1773,300,1773
2012/01/13,1773,1800,1773,1800,300,1800
2012/01/16,1800,1800,1780,1780,1600,1780
2012/01/24,1800,1800,1800,1800,400,1800
2012/01/25,1800,1800,1800,1800,1100,1800
2012/01/27,1780,1780,1780,1780,300,1780
2012/01/30,1780,1780,1780,1780,200,1780
2012/01/31,1800,1800,1800,1800,100,1800
2012/02/07,1765,1765,1666,1666,4400,1666
2012/02/08,1680,1680,1680,1680,200,1680
2012/02/10,1689,1690,1689,1690,400,1690
2012/02/13,1700,1715,1700,1715,200,1715
2012/02/14,1716,1716,1715,1715,300,1715
2012/02/15,1715,1715,1685,1710,1900,1710
2012/02/17,1681,1681,1641,1641,1100,1641
2012/02/20,1641,1680,1641,1680,400,1680
2012/02/21,1655,1655,1655,1655,100,1655
2012/02/23,1719,1777,1719,1777,600,1777
2012/02/24,1800,1800,1775,1775,300,1775
2012/02/27,1700,1700,1699,1700,2000,1700
2012/02/28,1700,1700,1700,1700,200,1700
2012/02/29,1714,1790,1714,1790,1100,1790
2012/03/01,1790,1790,1790,1790,300,1790
2012/03/05,1721,1721,1720,1720,300,1720
2012/03/06,1784,1787,1735,1735,700,1735
2012/03/07,1727,1727,1723,1723,300,1723
2012/03/08,1723,1723,1720,1720,200,1720
2012/03/12,1741,1760,1741,1760,400,1760
2012/03/13,1741,1760,1736,1736,500,1736
2012/03/14,1715,1744,1715,1744,400,1744
2012/03/15,1744,1744,1744,1744,1500,1744
2012/03/16,1720,1740,1720,1740,200,1740
2012/03/21,1750,1750,1750,1750,100,1750
2012/03/22,1730,1730,1730,1730,200,1730
2012/03/23,1680,1680,1604,1679,3600,1679
2012/03/26,1631,1666,1611,1625,3600,1625
2012/03/27,1660,1666,1660,1665,500,1665
2012/03/28,1665,1670,1639,1641,1600,1641
2012/03/29,1670,1670,1650,1650,200,1650
2012/03/30,1670,1675,1670,1675,300,1675
2012/04/03,1675,1675,1675,1675,300,1675
2012/04/04,1705,1705,1705,1705,100,1705
2012/04/05,1700,1700,1670,1700,400,1700
2012/04/06,1676,1676,1676,1676,100,1676
2012/04/09,1695,1695,1649,1650,1300,1650
2012/04/11,1650,1670,1650,1650,300,1650
2012/04/12,1690,1695,1690,1695,400,1695
2012/04/13,1705,1715,1695,1695,300,1695
2012/04/16,1695,1720,1670,1670,1700,1670
2012/04/18,1710,1710,1710,1710,100,1710
2012/04/20,1705,1705,1705,1705,100,1705
2012/04/23,1665,1665,1665,1665,100,1665
2012/04/24,1700,1710,1700,1710,400,1710
2012/04/25,1710,1710,1670,1670,800,1670
2012/05/07,1671,1680,1671,1680,400,1680
2012/05/09,1730,1730,1730,1730,200,1730
2012/05/11,1710,1710,1710,1710,100,1710
2012/05/14,1720,1730,1711,1730,600,1730
2012/05/15,1730,1740,1700,1700,1600,1700
2012/05/18,1700,1700,1700,1700,100,1700
2012/05/22,1705,1705,1705,1705,100,1705
2012/05/28,1700,1700,1700,1700,1000,1700
2012/05/29,1720,1720,1611,1611,600,1611
2012/05/30,1650,1650,1650,1650,100,1650
2012/06/01,1730,1730,1730,1730,600,1730
2012/06/04,1730,1730,1730,1730,100,1730
2012/06/05,1730,1730,1730,1730,1200,1730
2012/06/06,1730,1730,1730,1730,100,1730
2012/06/07,1730,1730,1730,1730,100,1730
2012/06/08,1740,1740,1740,1740,100,1740
2012/06/11,1731,1731,1731,1731,100,1731
2012/06/13,1741,1745,1737,1745,400,1745
2012/06/15,1745,1755,1745,1755,1000,1755
2012/06/18,1755,1799,1755,1799,500,1799
2012/06/19,1799,1799,1799,1799,500,1799
2012/06/21,1742,1742,1742,1742,200,1742
2012/06/25,1760,1760,1752,1752,1200,1752
2012/06/26,1680,1682,1670,1670,1700,1670
2012/06/27,1750,1750,1750,1750,100,1750
2012/06/28,1750,1750,1750,1750,300,1750
2012/06/29,1760,1760,1760,1760,200,1760
2012/07/09,1680,1680,1680,1680,100,1680
2012/07/12,1750,1760,1750,1760,200,1760
2012/07/13,1760,1770,1760,1770,800,1770
2012/07/17,1770,1790,1770,1780,1600,1780
2012/07/18,1780,1780,1780,1780,100,1780
2012/07/19,1790,1790,1790,1790,500,1790
2012/07/20,1780,1780,1780,1780,200,1780
2012/07/23,1799,1799,1780,1780,200,1780
2012/07/24,1781,1790,1781,1790,800,1790
2012/07/25,1800,1805,1800,1805,500,1805
2012/07/26,1805,1805,1791,1791,1700,1791
2012/07/30,1801,1801,1801,1801,200,1801
2012/07/31,1805,1805,1805,1805,200,1805
2012/08/01,1805,1805,1805,1805,300,1805
2012/08/06,1781,1781,1781,1781,100,1781
2012/08/14,1800,1800,1800,1800,100,1800
2012/08/15,1800,1830,1800,1830,300,1830
2012/08/16,1830,1880,1830,1840,3000,1840
2012/08/17,1870,1870,1870,1870,100,1870
2012/08/27,1870,1870,1870,1870,2600,1870
2012/08/28,1888,1888,1800,1800,500,1800
2012/08/29,1879,1886,1879,1886,200,1886
2012/08/30,1815,1815,1803,1803,1000,1803
2012/08/31,1801,1801,1793,1793,400,1793
2012/09/03,1833,1833,1833,1833,100,1833
2012/09/04,1801,1801,1801,1801,100,1801
2012/09/05,1806,1806,1770,1770,1100,1770
2012/09/06,1773,1773,1773,1773,100,1773
2012/09/18,1813,1813,1813,1813,100,1813
2012/09/19,1813,1823,1813,1823,600,1823
2012/09/21,1833,1843,1833,1843,1300,1843
2012/09/24,1843,1843,1843,1843,100,1843
2012/09/25,1899,1899,1899,1899,200,1899
2012/09/26,1836,1890,1836,1890,1900,1890
2012/09/27,1929,2000,1880,1930,1500,1930
2012/09/28,1930,1980,1930,1980,600,1980
2012/10/01,2380,2380,2030,2030,1500,2030
2012/10/02,2152,2152,2041,2139,800,2139
2012/10/03,2100,2100,2050,2099,300,2099
2012/10/04,2099,2100,2090,2099,500,2099
2012/10/05,2099,2100,2050,2100,1400,2100
2012/10/09,2150,2150,2000,2100,1600,2100
2012/10/10,2100,2100,2050,2050,1200,2050
2012/10/11,2050,2050,2050,2050,800,2050
2012/10/12,2050,2100,2050,2100,700,2100
2012/10/15,2100,2150,2100,2150,600,2150
2012/10/16,2150,2300,2150,2200,2700,2200
2012/10/17,2300,2300,2120,2170,1900,2170
2012/10/18,2164,2256,2114,2131,1100,2131
2012/10/19,2145,2145,2145,2145,400,2145
2012/10/22,2145,2188,2145,2151,800,2151
2012/10/23,2150,2160,2140,2160,1700,2160
2012/10/24,2159,2159,2050,2149,2200,2149
2012/10/25,2165,2165,2155,2165,1500,2165
2012/10/26,2197,2199,2166,2199,1700,2199
2012/10/29,2049,2078,1971,2010,2900,2010
2012/10/30,2049,2049,1970,1970,900,1970
2012/10/31,1960,1960,1910,1910,900,1910
2012/11/01,1845,1910,1810,1910,700,1910
2012/11/02,1838,1900,1838,1900,400,1900
2012/11/05,1910,1910,1910,1910,300,1910
2012/11/06,1900,1900,1900,1900,400,1900
2012/11/08,1900,1900,1900,1900,200,1900
2012/11/09,1920,1920,1861,1861,300,1861
2012/11/12,1910,1910,1910,1910,100,1910
2012/11/13,1861,1861,1850,1861,1000,1861
2012/11/14,1850,1850,1850,1850,100,1850
2012/11/15,1850,1860,1850,1860,400,1860
2012/11/16,1900,1900,1900,1900,100,1900
2012/11/19,1900,1900,1896,1896,1200,1896
2012/11/20,1910,1912,1870,1912,400,1912
2012/11/21,1912,1912,1887,1887,200,1887
2012/11/22,1886,1886,1846,1855,1600,1855
2012/11/26,1856,1865,1856,1865,1100,1865
2012/11/27,1865,1865,1840,1840,200,1840
2012/11/28,1820,1820,1819,1819,600,1819
2012/11/29,1777,1799,1777,1799,700,1799
2012/11/30,1790,1800,1790,1800,700,1800
2012/12/03,1800,1800,1786,1786,200,1786
2012/12/04,1778,1800,1751,1799,1400,1799
2012/12/05,1760,1799,1760,1799,200,1799
2012/12/07,1797,1798,1797,1797,400,1797
2012/12/10,1787,1787,1787,1787,100,1787
2012/12/11,1790,1800,1790,1800,900,1800
2012/12/12,1810,1810,1800,1800,500,1800
2012/12/17,1800,1848,1800,1848,1400,1848
2012/12/18,1848,1848,1840,1840,1900,1840
2012/12/19,1800,1800,1800,1800,500,1800
2012/12/20,1786,1800,1786,1800,200,1800
2012/12/21,1800,1800,1800,1800,100,1800
2012/12/25,1800,1806,1788,1806,1000,1806
2012/12/26,1800,1800,1800,1800,100,1800
2012/12/27,1800,1805,1800,1805,300,1805
2013/01/04,1815,1825,1800,1800,300,1800
2013/01/07,1800,1849,1800,1810,400,1810
2013/01/08,1840,1848,1797,1808,1000,1808
2013/01/09,1798,1800,1798,1800,300,1800
2013/01/10,1833,1833,1833,1833,100,1833
2013/01/11,1833,1845,1815,1845,300,1845
2013/01/15,1845,1846,1845,1845,1500,1845
2013/01/16,1808,1808,1808,1808,300,1808
2013/01/17,1808,1808,1808,1808,200,1808
2013/01/18,1808,1844,1808,1844,400,1844
2013/01/21,1846,1846,1846,1846,200,1846
2013/01/22,1846,1846,1846,1846,200,1846
2013/01/24,1845,1845,1828,1828,200,1828
2013/01/25,1838,1838,1838,1838,500,1838
2013/01/28,1838,1840,1838,1840,1100,1840
2013/01/29,1841,1841,1841,1841,100,1841
2013/01/30,1841,1844,1825,1844,500,1844
2013/01/31,1845,1845,1841,1841,300,1841
2013/02/01,1860,1860,1860,1860,100,1860
2013/02/04,1860,1865,1860,1865,300,1865
2013/02/05,1870,1880,1870,1880,700,1880
2013/02/06,1900,1939,1860,1910,1400,1910
2013/02/07,1910,1910,1900,1900,300,1900
2013/02/08,1875,1875,1875,1875,100,1875
2013/02/12,1879,1879,1879,1879,100,1879
2013/02/13,1875,1875,1875,1875,100,1875
2013/02/14,1890,1890,1851,1889,700,1889
2013/02/15,1889,1889,1889,1889,1400,1889
2013/02/18,1809,1889,1809,1889,300,1889
2013/02/20,1836,1836,1836,1836,100,1836
2013/02/22,1836,1836,1836,1836,100,1836
2013/02/25,1836,1836,1836,1836,1000,1836
2013/02/26,1836,1864,1836,1864,200,1864
2013/02/27,1824,1824,1818,1818,200,1818
2013/02/28,1818,1838,1818,1838,200,1838
2013/03/01,1864,1865,1864,1865,400,1865
2013/03/04,1865,1940,1865,1900,800,1900
2013/03/06,1900,1940,1900,1940,300,1940
2013/03/07,1950,1980,1900,1980,1000,1980
2013/03/08,1940,1940,1940,1940,100,1940
2013/03/11,1980,2000,1980,1999,800,1999
2013/03/12,2000,2000,1950,1955,1200,1955
2013/03/13,1964,1964,1955,1955,1000,1955
2013/03/14,1960,1960,1960,1960,100,1960
2013/03/15,1960,2005,1960,2005,900,2005
2013/03/18,2010,2060,2010,2015,900,2015
2013/03/19,2065,2070,2065,2070,300,2070
2013/03/21,2035,2070,2035,2065,1200,2065
2013/03/22,2065,2065,2065,2065,300,2065
2013/03/25,2070,2075,2070,2075,600,2075
2013/03/26,2120,2120,2090,2090,400,2090
2013/03/27,2090,2186,2090,2100,1000,2100
2013/03/28,2200,2200,2090,2100,1500,2100
2013/03/29,2100,2100,2050,2050,700,2050
2013/04/01,2149,2149,1901,1901,400,1901
2013/04/02,2149,2149,1959,2000,900,2000
2013/04/03,2100,2100,2100,2100,100,2100
2013/04/04,2022,2139,2022,2139,200,2139
2013/04/05,2014,2160,2014,2160,2300,2160
2013/04/08,2220,2220,2160,2220,600,2220
2013/04/09,2220,2220,2200,2220,1300,2220
2013/04/10,2300,2300,2220,2220,1700,2220
2013/04/11,2100,2145,2100,2145,4400,2145
2013/04/12,2122,2170,2022,2106,2100,2106
2013/04/15,2106,2109,2106,2109,1300,2109
2013/04/16,2109,2109,2109,2109,500,2109
2013/04/17,2146,2180,2129,2180,600,2180
2013/04/18,2180,2198,2180,2198,500,2198
2013/04/19,2190,2190,2190,2190,100,2190
2013/04/22,2170,2170,2170,2170,200,2170
2013/04/23,2180,2200,2150,2200,700,2200
2013/04/24,2180,2230,2180,2180,400,2180
2013/04/25,2180,2200,2130,2200,1000,2200
2013/04/26,2200,2200,2136,2139,700,2139
2013/04/30,2041,2080,2040,2080,2500,2080
2013/05/01,2130,2130,2040,2040,400,2040
2013/05/02,2079,2090,2079,2090,600,2090
2013/05/07,2057,2100,2057,2100,500,2100
2013/05/08,2100,2100,2095,2095,600,2095
2013/05/09,2100,2100,2080,2080,200,2080
2013/05/10,2080,2081,2070,2070,1100,2070
2013/05/13,2060,2089,2060,2089,500,2089
2013/05/14,2071,2071,2071,2071,100,2071
2013/05/15,2098,2098,2073,2081,1000,2081
2013/05/16,2081,2091,2070,2070,1300,2070
2013/05/17,2070,2095,2068,2095,300,2095
2013/05/20,2070,2095,2060,2080,600,2080
2013/05/21,2080,2080,2074,2074,300,2074
2013/05/22,2070,2070,2060,2070,500,2070
2013/05/23,2070,2070,2032,2053,1700,2053
2013/05/24,2020,2049,2012,2033,1100,2033
2013/05/27,2033,2033,2020,2020,800,2020
2013/05/28,2020,2020,2000,2000,500,2000
2013/05/29,2001,2002,1980,1980,800,1980
2013/05/31,1980,1980,1980,1980,100,1980
2013/06/03,1934,1934,1921,1921,300,1921
2013/06/05,1901,1901,1900,1900,200,1900
2013/06/06,1900,1968,1900,1949,300,1949
2013/06/07,1900,1901,1850,1850,800,1850
2013/06/10,1859,1900,1859,1895,500,1895
2013/06/11,1895,1895,1895,1895,100,1895
2013/06/12,1920,1920,1920,1920,500,1920
2013/06/13,1925,1925,1925,1925,700,1925
2013/06/14,1965,1965,1965,1965,500,1965
2013/06/17,1965,1975,1965,1975,1300,1975
2013/06/18,1975,1975,1975,1975,200,1975
2013/06/19,1950,1953,1950,1953,400,1953
2013/06/20,1953,1953,1953,1953,500,1953
2013/06/21,1953,1955,1950,1955,1600,1955
2013/06/25,1955,1955,1954,1955,1100,1955
2013/06/26,1955,1955,1955,1955,200,1955
2013/06/27,1985,1985,1985,1985,100,1985
2013/06/28,1985,1985,1985,1985,200,1985
2013/07/01,1965,2000,1965,2000,700,2000
2013/07/03,1965,2000,1960,1960,1000,1960
2013/07/04,1960,1960,1950,1950,300,1950
2013/07/05,1951,1951,1945,1950,1800,1950
2013/07/08,1951,1951,1940,1940,1100,1940
2013/07/09,1930,1980,1911,1916,2000,1916
2013/07/10,1956,1956,1956,1956,100,1956
2013/07/12,1960,1960,1960,1960,100,1960
2013/07/16,1962,1962,1962,1962,200,1962
2013/07/17,2000,2000,2000,2000,500,2000
2013/07/18,2000,2040,2000,2000,2200,2000
2013/07/19,2000,2000,2000,2000,100,2000
2013/07/22,2000,2000,2000,2000,100,2000
2013/07/23,2000,2000,2000,2000,200,2000
2013/07/24,2000,2000,1995,1995,1600,1995
2013/07/25,1995,1995,1995,1995,1000,1995
2013/07/26,1995,1995,1993,1993,400,1993
2013/07/29,1993,2000,1993,2000,200,2000
2013/07/30,2000,2006,2000,2006,1200,2006
2013/07/31,2085,2099,2000,2000,400,2000
2013/08/01,2050,2050,2050,2050,100,2050
2013/08/06,2013,2013,2010,2010,600,2010
2013/08/08,2040,2040,2040,2040,300,2040
2013/08/09,2040,2040,2040,2040,400,2040
2013/08/12,2021,2021,2010,2010,200,2010
2013/08/14,2040,2040,2040,2040,200,2040
2013/08/15,2040,2051,2040,2051,1300,2051
2013/08/16,2053,2100,2053,2100,600,2100
2013/08/19,2102,2149,2102,2149,700,2149
2013/08/20,2149,2200,2149,2159,2500,2159
2013/08/21,2154,2200,2154,2200,1500,2200
2013/08/22,2190,2190,2154,2190,400,2190
2013/08/23,2190,2200,2108,2108,700,2108
2013/08/26,2108,2108,2081,2081,3000,2081
2013/08/27,2071,2105,2071,2105,300,2105
2013/08/28,2195,2200,2120,2120,2000,2120
2013/08/29,2248,2250,2165,2165,2300,2165
2013/08/30,2180,2250,2180,2250,2100,2250
2013/09/02,2300,2400,2300,2345,6500,2345
2013/09/03,2365,2400,2301,2330,2500,2330
2013/09/04,2349,2400,2300,2300,4000,2300
2013/09/05,2400,2400,2300,2300,2200,2300
2013/09/06,2339,2339,2260,2300,1300,2300
2013/09/09,2330,2330,2290,2330,1800,2330
2013/09/10,2340,2350,2340,2340,500,2340
2013/09/11,2359,2365,2350,2350,1000,2350
2013/09/12,2351,2365,2330,2335,2000,2335
2013/09/13,2349,2349,2345,2345,300,2345
2013/09/17,2345,2360,2345,2360,2900,2360
2013/09/18,2348,2352,2348,2350,2100,2350
2013/09/19,2350,2360,2345,2345,900,2345
2013/09/20,2350,2380,2345,2380,1500,2380
2013/09/24,2400,2795,2400,2560,6400,2560
2013/09/25,2560,2720,2560,2600,5100,2600
2013/09/26,2700,2718,2630,2700,3800,2700
2013/09/27,2719,2850,2719,2790,5400,2790
2013/09/30,2900,2990,2897,2940,8200,2940
2013/10/01,2940,2990,2897,2903,3300,2903
2013/10/02,2905,2917,2850,2850,3600,2850
2013/10/03,2800,2813,2710,2730,5400,2730
2013/10/04,2725,2728,2700,2728,1800,2728
2013/10/07,2728,2750,2728,2749,700,2749
2013/10/08,2750,2800,2749,2800,1300,2800
2013/10/09,2800,2800,2780,2780,600,2780
2013/10/10,2753,2775,2751,2751,1600,2751
2013/10/11,2775,2775,2750,2752,1700,2752
2013/10/15,2752,2752,2740,2752,3600,2752
2013/10/16,2752,2774,2720,2772,1800,2772
2013/10/17,2770,2779,2768,2779,1200,2779
2013/10/18,2700,2779,2700,2769,5900,2769
2013/10/21,2780,2795,2770,2790,2500,2790
2013/10/22,2772,2790,2770,2787,1900,2787
2013/10/23,2793,2794,2780,2782,1700,2782
2013/10/24,2775,2805,2775,2805,2700,2805
2013/10/25,2805,2806,2800,2806,2400,2806
2013/10/28,2807,2887,2807,2843,4800,2843
2013/10/29,2543,2692,2540,2613,7900,2613
2013/10/30,2663,2663,2522,2600,2800,2600
2013/10/31,2524,2524,2505,2505,1700,2505
2013/11/01,2456,2500,2455,2455,2300,2455
2013/11/05,2455,2470,2405,2470,1100,2470
2013/11/06,2450,2450,2401,2402,1300,2402
2013/11/07,2302,2342,2302,2311,2800,2311
2013/11/08,2327,2327,2300,2323,700,2323
2013/11/11,2328,2330,2325,2325,600,2325
2013/11/12,2350,2375,2328,2330,1400,2330
2013/11/13,2330,2380,2330,2379,700,2379
2013/11/14,2336,2375,2290,2375,1400,2375
2013/11/15,2375,2375,2304,2360,1800,2360
2013/11/18,2375,2375,2374,2374,300,2374
2013/11/19,2370,2370,2360,2360,1200,2360
2013/11/20,2370,2370,2281,2369,3100,2369
2013/11/21,2370,2370,2370,2370,3400,2370
2013/11/22,2360,2370,2360,2370,500,2370
2013/11/25,2370,2370,2349,2350,700,2350
2013/11/27,2350,2350,2301,2301,600,2301
2013/11/28,2311,2311,2311,2311,200,2311
2013/11/29,2312,2341,2312,2337,400,2337
2013/12/02,2336,2344,2300,2317,1700,2317
2013/12/03,2328,2328,2326,2327,400,2327
2013/12/04,2312,2317,2302,2317,800,2317
2013/12/05,2300,2305,2280,2280,2700,2280
2013/12/06,2280,2280,2278,2278,300,2278
2013/12/09,2278,2285,2250,2250,600,2250
2013/12/10,2250,2360,2250,2360,1700,2360
2013/12/11,2281,2281,2224,2240,3000,2240
2013/12/12,2239,2279,2239,2260,700,2260
2013/12/13,2260,2260,2220,2226,2300,2226
2013/12/16,2226,2277,2226,2277,1700,2277
2013/12/17,2277,2287,2277,2287,900,2287
2013/12/18,2290,2290,2251,2251,1300,2251
2013/12/19,2255,2256,2255,2256,1100,2256
2013/12/20,2257,2257,2257,2257,300,2257
2013/12/24,2257,2292,2256,2258,1600,2258
2013/12/25,2260,2260,2215,2225,1900,2225
2013/12/26,2219,2219,2219,2219,100,2219
2013/12/27,2225,2243,2225,2243,700,2243
2013/12/30,2243,2250,2243,2247,500,2247
2014/01/06,2299,2299,2280,2280,500,2280
2014/01/07,2328,2328,2280,2283,600,2283
2014/01/08,2280,2280,2260,2260,300,2260
2014/01/09,2272,2287,2272,2287,600,2287
2014/01/10,2287,2291,2280,2290,600,2290
2014/01/14,2282,2282,2249,2250,1900,2250
2014/01/15,2400,2400,2304,2310,2700,2310
2014/01/16,2360,2396,2321,2350,2000,2350
2014/01/17,2350,2350,2350,2350,1300,2350
2014/01/20,2312,2313,2310,2310,1000,2310
2014/01/21,2312,2312,2312,2312,1200,2312
2014/01/22,2301,2301,2301,2301,100,2301
2014/01/23,2300,2348,2300,2345,1300,2345
2014/01/24,2296,2319,2280,2319,600,2319
2014/01/27,2319,2320,2300,2320,800,2320
2014/01/28,2320,2330,2282,2330,900,2330
2014/01/30,2348,2348,2348,2348,100,2348
2014/01/31,2348,2348,2348,2348,100,2348
2014/02/03,2347,2347,2275,2282,900,2282
2014/02/04,2332,2350,2285,2349,2700,2349
2014/02/05,2350,2351,2340,2340,700,2340
2014/02/06,2294,2294,2294,2294,100,2294
2014/02/07,2380,2380,2306,2380,2500,2380
2014/02/10,2381,2381,2340,2376,500,2376
2014/02/12,2376,2376,2358,2358,300,2358
2014/02/13,2358,2368,2358,2359,400,2359
2014/02/14,2396,2396,2336,2336,1300,2336
2014/02/17,2336,2346,2336,2346,600,2346
2014/02/19,2348,2348,2346,2346,800,2346
2014/02/20,2330,2330,2290,2290,600,2290
2014/02/24,2300,2324,2300,2300,500,2300
2014/02/25,2310,2311,2310,2311,200,2311
2014/02/26,2321,2321,2321,2321,200,2321
2014/02/27,2350,2379,2350,2379,200,2379
2014/02/28,2379,2379,2378,2378,400,2378
2014/03/03,2318,2378,2318,2378,200,2378
2014/03/04,2312,2312,2312,2312,100,2312
2014/03/06,2315,2315,2311,2315,600,2315
2014/03/07,2320,2320,2320,2320,100,2320
2014/03/10,2325,2325,2325,2325,100,2325
2014/03/11,2370,2383,2330,2330,700,2330
2014/03/12,2330,2330,2330,2330,100,2330
2014/03/13,2308,2329,2308,2329,200,2329
2014/03/14,2332,2332,2290,2290,400,2290
2014/03/17,2290,2290,2290,2290,100,2290
2014/03/19,2300,2310,2300,2310,200,2310
2014/03/20,2310,2337,2201,2251,2200,2251
2014/03/24,2300,2300,2251,2251,600,2251
2014/03/25,2251,2251,2251,2251,300,2251
2014/03/26,2255,2255,2255,2255,100,2255
2014/03/27,2254,2299,2254,2298,600,2298
2014/03/28,2298,2300,2298,2300,400,2300
2014/03/31,2358,2360,2357,2357,400,2357
2014/04/01,2310,2310,2300,2300,800,2300
2014/04/02,2400,2400,2400,2400,1100,2400
2014/04/03,2390,2390,2390,2390,100,2390
2014/04/04,2329,2339,2329,2339,200,2339
2014/04/07,2339,2340,2339,2339,500,2339
2014/04/08,2339,2339,2339,2339,200,2339
2014/04/09,2300,2300,2300,2300,1100,2300
2014/04/10,2300,2300,2300,2300,300,2300
2014/04/11,2297,2330,2280,2330,300,2330
2014/04/14,2359,2359,2359,2359,100,2359
2014/04/15,2359,2384,2357,2384,1600,2384
2014/04/18,2384,2384,2384,2384,200,2384
2014/04/23,2341,2470,2333,2470,1700,2470
2014/04/24,2470,2470,2420,2420,200,2420
2014/04/25,2420,2420,2355,2355,700,2355
2014/04/28,2470,2470,2365,2365,400,2365
2014/05/01,2321,2359,2321,2359,300,2359
2014/05/02,2317,2320,2317,2317,300,2317
2014/05/07,2317,2317,2317,2317,100,2317
2014/05/08,2315,2317,2280,2280,1000,2280
2014/05/12,2265,2265,2252,2252,300,2252
2014/05/13,2252,2299,2215,2215,2300,2215
2014/05/14,2215,2260,2215,2260,600,2260
2014/05/15,2260,2350,2260,2330,1600,2330
2014/05/16,2330,2330,2330,2330,500,2330
2014/05/20,2340,2351,2340,2351,200,2351
2014/05/21,2361,2361,2361,2361,100,2361
2014/05/23,2281,2282,2281,2282,200,2282
2014/05/26,2282,2332,2275,2275,900,2275
2014/05/27,2330,2330,2330,2330,300,2330
2014/05/28,2330,2330,2325,2325,200,2325
2014/05/30,2310,2310,2310,2310,600,2310
2014/06/02,2339,2339,2339,2339,100,2339
2014/06/03,2325,2340,2260,2260,2200,2260
2014/06/04,2270,2271,2270,2271,300,2271
2014/06/05,2321,2321,2321,2321,100,2321
2014/06/06,2321,2329,2276,2290,1400,2290
2014/06/09,2290,2290,2290,2290,400,2290
2014/06/10,2291,2339,2291,2298,400,2298
2014/06/11,2448,2650,2380,2414,7500,2414
2014/06/12,2385,2385,2358,2358,900,2358
2014/06/13,2360,2390,2360,2390,1000,2390
2014/06/16,2390,2410,2390,2410,1900,2410
2014/06/17,2410,2410,2410,2410,500,2410
2014/06/18,2420,2440,2420,2440,1000,2440
2014/06/19,2440,2440,2410,2439,700,2439
2014/06/20,2439,2440,2439,2440,400,2440
2014/06/23,2450,2450,2442,2450,700,2450
2014/06/24,2460,2470,2460,2470,300,2470
2014/06/25,2480,2485,2470,2480,1500,2480
2014/06/26,2480,2488,2476,2477,600,2477
2014/06/27,2490,2490,2487,2490,1200,2490
2014/06/30,2500,2500,2487,2490,3200,2490
2014/07/01,2510,2510,2490,2490,700,2490
2014/07/02,2500,2519,2500,2519,1400,2519
2014/07/03,2510,2545,2510,2545,1800,2545
2014/07/04,2560,2585,2560,2585,1000,2585
2014/07/07,2600,2600,2586,2598,1200,2598
2014/07/08,2600,2619,2599,2619,2000,2619
2014/07/09,2615,2630,2615,2620,800,2620
2014/07/10,2648,2670,2648,2650,1800,2650
2014/07/11,2645,2645,2599,2599,2600,2599
2014/07/14,2605,2605,2600,2600,2700,2600
2014/07/15,2600,2600,2500,2589,2000,2589
2014/07/16,2539,2586,2539,2586,400,2586
2014/07/17,2586,2610,2586,2610,600,2610
2014/07/18,2610,2620,2587,2620,700,2620
2014/07/22,2748,2748,2633,2682,1900,2682
2014/07/23,2671,2680,2670,2680,1000,2680
2014/07/24,2699,2747,2660,2679,1300,2679
2014/07/25,2644,2744,2644,2740,1500,2740
2014/07/28,2761,2790,2690,2786,1800,2786
2014/07/29,2788,2789,2758,2758,1700,2758
2014/07/30,2763,2763,2725,2746,1900,2746
2014/07/31,2700,2720,2689,2720,2900,2720
2014/08/01,2755,2755,2720,2753,1700,2753
2014/08/04,2760,2760,2751,2751,400,2751
2014/08/05,2750,2763,2731,2731,1700,2731
2014/08/06,2700,2700,2688,2688,1300,2688
2014/08/07,2675,2675,2668,2669,700,2669
2014/08/08,2669,2669,2600,2640,2000,2640
2014/08/11,2651,2652,2651,2651,500,2651
2014/08/12,2655,2687,2655,2687,200,2687
2014/08/13,2687,2688,2681,2688,1900,2688
2014/08/14,2700,2789,2700,2789,800,2789
2014/08/15,2789,2791,2789,2791,3100,2791
2014/08/18,2795,2795,2701,2779,2500,2779
2014/08/19,2794,2794,2780,2780,500,2780
2014/08/20,2780,2780,2755,2755,700,2755
2014/08/21,2776,2776,2755,2755,600,2755
2014/08/22,2774,2774,2756,2756,700,2756
2014/08/25,2774,2794,2768,2768,2500,2768
2014/08/26,2770,2794,2770,2794,2400,2794
2014/08/27,2795,2800,2794,2800,4100,2800
2014/08/28,2800,2800,2800,2800,1500,2800
2014/08/29,2842,2843,2815,2843,4400,2843
2014/09/01,2893,2935,2893,2905,1600,2905
2014/09/02,2948,2964,2939,2964,2200,2964
2014/09/03,2967,2967,2935,2949,1200,2949
2014/09/04,2950,2960,2949,2950,1600,2950
2014/09/05,2951,2963,2951,2963,800,2963
2014/09/08,2980,3045,2970,3015,2700,3015
2014/09/09,3040,3040,2914,2962,3400,2962
2014/09/10,2963,2963,2930,2930,1200,2930
2014/09/11,2911,2956,2852,2954,1400,2954
2014/09/12,2876,2900,2831,2900,5500,2900
2014/09/16,2937,2980,2900,2930,2800,2930
2014/09/17,2940,2999,2940,2999,1600,2999
2014/09/18,3030,3030,2999,3025,3000,3025
2014/09/19,3030,3030,3025,3025,1200,3025
2014/09/22,3030,3045,3030,3045,1800,3045
2014/09/24,3060,3090,3060,3070,2200,3070
2014/09/25,3090,3095,3075,3095,1800,3095
2014/09/26,3095,3165,3095,3135,3900,3135
2014/09/29,3135,3140,3100,3100,5400,3100
2014/09/30,3085,3190,3070,3080,4700,3080
2014/10/01,3050,3160,2990,3025,8300,3025
2014/10/02,3000,3000,2923,2950,3900,2950
2014/10/03,2950,2962,2948,2950,2500,2950
2014/10/06,2950,3000,2950,2975,3700,2975
2014/10/07,2975,2975,2953,2974,2300,2974
2014/10/08,2970,3090,2970,3075,4000,3075
2014/10/09,3075,3075,3000,3065,3100,3065
2014/10/10,3055,3055,3000,3050,1600,3050
2014/10/14,3005,3010,3000,3000,2500,3000
2014/10/15,3000,3010,2998,3010,1900,3010
2014/10/16,2996,3020,2996,3000,1000,3000
2014/10/17,2991,3010,2970,3010,2600,3010
2014/10/20,3010,3025,3000,3000,800,3000
2014/10/21,3000,3000,2995,2995,1200,2995
2014/10/22,2990,3000,2990,3000,1600,3000
2014/10/23,3000,3020,2991,3005,1400,3005
2014/10/24,2990,3005,2985,2990,2500,2990
2014/10/27,2990,3015,2988,2990,4300,2990
2014/10/28,3030,3030,2990,2990,8300,2990
2014/10/29,2740,2760,2715,2744,12000,2744
2014/10/30,2740,2740,2706,2707,3900,2707
2014/10/31,2707,2707,2685,2687,3200,2687
2014/11/04,2687,2687,2610,2615,3400,2615
2014/11/05,2600,2600,2538,2560,2800,2560
2014/11/06,2584,2584,2563,2568,1200,2568
2014/11/07,2570,2600,2570,2582,900,2582
2014/11/10,2625,2634,2603,2634,1000,2634
2014/11/11,2635,2635,2585,2600,1500,2600
2014/11/12,2606,2629,2600,2615,700,2615
2014/11/13,2615,2616,2615,2615,500,2615
2014/11/14,2640,2640,2625,2625,300,2625
2014/11/17,2674,2674,2626,2626,2400,2626
2014/11/18,2610,2630,2610,2628,2400,2628
2014/11/19,2612,2628,2611,2628,300,2628
2014/11/20,2627,2627,2627,2627,400,2627
2014/11/21,2618,2618,2601,2611,2900,2611
2014/11/25,2621,2621,2621,2621,200,2621
2014/11/26,2621,2628,2620,2628,600,2628
2014/11/27,2640,2640,2615,2615,300,2615
2014/11/28,2635,2635,2625,2633,400,2633
2014/12/01,2633,2633,2630,2630,400,2630
2014/12/02,2655,2655,2630,2640,700,2640
2014/12/03,2680,2680,2630,2630,600,2630
2014/12/04,2630,2670,2620,2625,700,2625
2014/12/05,2620,2664,2620,2630,500,2630
2014/12/08,2646,2646,2630,2645,700,2645
2014/12/09,2658,2659,2657,2659,400,2659
2014/12/10,2660,2670,2658,2664,1800,2664
2014/12/11,2660,2691,2657,2691,2100,2691
2014/12/12,2720,2735,2690,2720,1000,2720
2014/12/15,2720,2720,2700,2700,1400,2700
2014/12/16,2700,2700,2700,2700,700,2700
2014/12/17,2700,2720,2700,2720,200,2720
2014/12/18,2720,2720,2700,2719,600,2719
2014/12/19,2720,2755,2720,2754,1000,2754
2014/12/22,2754,2754,2721,2753,600,2753
2014/12/24,2774,2774,2732,2739,500,2739
2014/12/25,2739,2760,2732,2732,800,2732
2014/12/26,2800,2820,2800,2805,2700,2805
2014/12/29,2712,2720,2710,2715,1800,2715
2014/12/30,2717,2831,2715,2831,1600,2831
2015/01/05,2831,2880,2772,2800,1300,2800
2015/01/06,2750,2751,2750,2751,900,2751
2015/01/08,2751,2900,2751,2900,1700,2900
2015/01/09,2800,2800,2780,2781,300,2781
2015/01/13,2795,2848,2795,2828,1100,2828
2015/01/14,2802,2827,2802,2825,700,2825
2015/01/15,2825,2852,2825,2852,2100,2852
2015/01/16,2853,2885,2852,2882,800,2882
2015/01/19,2882,2882,2882,2882,100,2882
2015/01/20,2871,2871,2820,2830,500,2830
2015/01/21,2820,2820,2814,2814,500,2814
2015/01/22,2862,2890,2813,2890,2000,2890
2015/01/23,2840,2841,2837,2837,900,2837
2015/01/26,2837,2852,2837,2852,200,2852
2015/01/27,2853,2879,2853,2865,400,2865
2015/01/28,2865,2901,2865,2901,2700,2901
2015/01/29,2906,3000,2906,2930,3000,2930
2015/01/30,2999,3030,2950,3030,2600,3030
2015/02/02,2980,2990,2963,2990,600,2990
2015/02/03,3025,3025,2960,2960,400,2960
2015/02/04,2950,2980,2950,2980,1000,2980
2015/02/05,2930,2930,2911,2911,400,2911
2015/02/06,2906,2906,2880,2880,500,2880
2015/02/09,2840,2840,2826,2826,800,2826
2015/02/10,2826,2826,2826,2826,400,2826
2015/02/12,2859,2859,2845,2845,700,2845
2015/02/13,2845,2858,2845,2858,300,2858
2015/02/16,2864,2891,2864,2891,400,2891
2015/02/17,2893,2970,2893,2970,700,2970
2015/02/18,2971,3000,2971,2973,2800,2973
2015/02/19,2980,2980,2944,2944,1100,2944
2015/02/20,2980,2998,2945,2945,1800,2945
2015/02/23,2945,2945,2945,2945,400,2945
2015/02/24,2926,2926,2926,2926,100,2926
2015/02/25,2926,2926,2906,2926,2200,2926
2015/02/26,2920,2970,2920,2970,300,2970
2015/02/27,2969,2969,2920,2921,300,2921
2015/03/02,3000,3000,2999,2999,400,2999
2015/03/03,2999,2999,2931,2941,1200,2941
2015/03/04,2930,2941,2921,2921,700,2921
2015/03/05,2921,2921,2921,2921,200,2921
2015/03/06,2898,2902,2898,2899,2000,2899
2015/03/09,2885,2903,2853,2871,3000,2871
2015/03/10,2871,3055,2850,2850,8700,2850
2015/03/11,2900,2900,2660,2842,9000,2842
2015/03/12,2850,2850,2850,2850,200,2850
2015/03/13,2880,2880,2880,2880,100,2880
2015/03/16,2880,2952,2880,2950,3000,2950
2015/03/17,2950,2950,2949,2950,1300,2950
2015/03/18,2996,3020,2996,3020,700,3020
2015/03/19,3020,3020,2931,2931,2000,2931
2015/03/23,2900,2900,2900,2900,100,2900
2015/03/24,2902,2951,2902,2951,1800,2951
2015/03/25,2951,2951,2872,2872,2700,2872
2015/03/26,2898,2898,2894,2894,400,2894
2015/03/27,2899,2920,2885,2885,500,2885
2015/03/30,2915,2923,2914,2923,600,2923
2015/03/31,2971,2998,2950,2998,500,2998
2015/04/01,3000,3000,2998,3000,300,3000
2015/04/03,3020,3020,2927,2977,600,2977
2015/04/06,3000,3010,2900,2901,3400,2901
2015/04/07,2902,2923,2890,2890,1800,2890
2015/04/08,2930,2967,2930,2967,500,2967
2015/04/09,2967,2967,2967,2967,200,2967
2015/04/10,2970,2979,2968,2968,600,2968
2015/04/13,2968,2968,2919,2958,1000,2958
2015/04/14,3000,3000,2950,2950,1200,2950
2015/04/15,2951,2979,2951,2960,800,2960
2015/04/16,2970,2970,2970,2970,200,2970
2015/04/17,2970,2971,2933,2933,1600,2933
2015/04/20,2915,2964,2915,2960,300,2960
2015/04/21,2928,2957,2920,2920,1900,2920
2015/04/22,2948,2948,2948,2948,100,2948
2015/04/23,2938,2958,2938,2950,500,2950
2015/04/24,2930,2935,2920,2920,2200,2920
2015/04/27,2910,2920,2888,2888,1300,2888
2015/04/28,2870,2883,2825,2826,5500,2826
2015/04/30,2826,2869,2820,2869,1600,2869
2015/05/01,2870,2900,2870,2900,600,2900
2015/05/07,2871,2900,2850,2899,600,2899
2015/05/11,2920,2920,2863,2891,1100,2891
2015/05/12,2881,2900,2881,2900,300,2900
2015/05/13,2900,2900,2900,2900,100,2900
2015/05/14,2904,2932,2903,2930,900,2930
2015/05/15,2933,2950,2930,2946,2900,2946
2015/05/19,2998,2998,2996,2996,1500,2996
2015/05/20,2954,2995,2942,2950,4500,2950
2015/05/21,2950,2961,2950,2960,300,2960
2015/05/22,2960,2960,2960,2960,1000,2960
2015/05/25,3000,3015,2997,3015,800,3015
2015/05/26,3015,3015,2942,3005,2300,3005
2015/05/27,3005,3020,3005,3015,1000,3015
2015/05/28,3020,3020,3020,3020,200,3020
2015/05/29,3020,3020,3015,3020,1500,3020
2015/06/01,3040,3060,3000,3000,2000,3000
2015/06/03,3020,3050,2920,3040,1600,3040
2015/06/04,3045,3045,3045,3045,100,3045
2015/06/05,3050,3055,3050,3050,700,3050
2015/06/08,3070,3100,3060,3065,1600,3065
2015/06/09,3185,3185,3050,3110,3100,3110
2015/06/10,3240,3300,3160,3160,6600,3160
2015/06/11,3160,3230,3160,3190,700,3190
2015/06/12,3200,3230,3150,3220,1300,3220
2015/06/15,3220,3220,3185,3200,1500,3200
2015/06/16,3190,3195,3180,3195,1300,3195
2015/06/17,3190,3195,3190,3195,200,3195
2015/06/18,3250,3290,3220,3275,2600,3275
2015/06/19,3275,3275,3250,3260,900,3260
2015/06/22,3290,3310,3290,3310,900,3310
2015/06/23,3315,3325,3310,3310,1900,3310
2015/06/24,3350,3360,3310,3360,5400,3360
2015/06/25,3360,3365,3230,3300,5000,3300
2015/06/26,3225,3255,3225,3230,1400,3230
2015/06/29,3250,3280,3230,3230,1500,3230
2015/06/30,3205,3250,3200,3250,1900,3250
2015/07/01,3275,3275,3120,3165,5000,3165
