2011/01/04,343,348,341,345,2560000,345
2011/01/05,342,346,339,341,2088000,341
2011/01/06,345,354,344,349,4220000,349
2011/01/07,357,365,353,360,7221000,360
2011/01/11,360,369,355,365,4314000,365
2011/01/12,366,371,358,359,3957000,359
2011/01/13,363,367,360,362,1859000,362
2011/01/14,364,368,360,364,2819000,364
2011/01/17,365,366,356,358,2546000,358
2011/01/18,358,358,349,352,4048000,352
2011/01/19,355,360,352,358,2785000,358
2011/01/20,357,357,351,352,1708000,352
2011/01/21,359,360,351,352,4375000,352
2011/01/24,354,355,345,354,2083000,354
2011/01/25,359,361,356,358,2692000,358
2011/01/26,357,358,352,353,2031000,353
2011/01/27,355,356,352,353,1046000,353
2011/01/28,354,354,347,349,1265000,349
2011/01/31,342,345,340,343,1330000,343
2011/02/01,345,348,343,345,1021000,345
2011/02/02,346,351,343,346,2470000,346
2011/02/03,345,347,341,343,2596000,343
2011/02/04,347,386,346,369,10713000,369
2011/02/07,365,367,358,365,4600000,365
2011/02/08,364,366,363,364,2153000,364
2011/02/09,366,366,360,363,1836000,363
2011/02/10,360,363,360,361,1112000,361
2011/02/14,363,372,363,369,2666000,369
2011/02/15,369,373,366,367,2633000,367
2011/02/16,369,372,368,369,1851000,369
2011/02/17,371,371,365,366,2055000,366
2011/02/18,366,366,360,362,1729000,362
2011/02/21,362,363,358,360,1087000,360
2011/02/22,360,360,351,352,1407000,352
2011/02/23,347,354,347,349,1279000,349
2011/02/24,346,346,340,342,1225000,342
2011/02/25,339,343,337,341,1513000,341
2011/02/28,344,351,340,351,1361000,351
2011/03/01,354,359,352,356,1973000,356
2011/03/02,350,354,350,350,840000,350
2011/03/03,350,353,348,350,866000,350
2011/03/04,353,355,347,348,964000,348
2011/03/07,348,349,343,347,876000,347
2011/03/08,346,351,345,350,586000,350
2011/03/09,353,353,348,350,930000,350
2011/03/10,347,347,343,345,737000,345
2011/03/11,339,341,337,338,1098000,338
2011/03/14,282,306,281,296,2958000,296
2011/03/15,288,292,234,258,3237000,258
2011/03/16,260,282,260,282,2240000,282
2011/03/17,274,283,269,277,1367000,277
2011/03/18,279,292,279,287,1348000,287
2011/03/22,311,311,303,307,2019000,307
2011/03/23,308,308,301,303,1049000,303
2011/03/24,306,308,301,302,793000,302
2011/03/25,304,305,299,300,888000,300
2011/03/28,303,303,295,300,1062000,300
2011/03/29,293,297,287,293,883000,293
2011/03/30,294,300,292,300,884000,300
2011/03/31,303,305,297,302,994000,302
2011/04/01,299,300,291,294,832000,294
2011/04/04,295,297,290,291,684000,291
2011/04/05,290,291,287,288,724000,288
2011/04/06,285,285,275,279,1239000,279
2011/04/07,282,288,282,286,1145000,286
2011/04/08,285,293,284,292,760000,292
2011/04/11,289,293,288,290,448000,290
2011/04/12,288,290,284,284,487000,284
2011/04/13,283,289,282,285,609000,285
2011/04/14,284,290,283,288,595000,288
2011/04/15,285,290,285,287,426000,287
2011/04/18,286,288,285,286,371000,286
2011/04/19,285,286,283,285,353000,285
2011/04/20,290,292,285,290,794000,290
2011/04/21,291,291,287,288,433000,288
2011/04/22,288,291,286,289,568000,289
2011/04/25,290,291,288,289,233000,289
2011/04/26,287,288,285,286,410000,286
2011/04/27,286,290,286,288,453000,288
2011/04/28,290,293,287,292,529000,292
2011/05/02,293,298,293,297,502000,297
2011/05/06,295,299,294,297,542000,297
2011/05/09,300,302,297,298,716000,298
2011/05/10,300,300,295,299,421000,299
2011/05/11,300,301,295,295,472000,295
2011/05/12,296,298,293,293,459000,293
2011/05/13,293,295,286,288,847000,288
2011/05/16,285,285,275,277,853000,277
2011/05/17,278,279,275,276,414000,276
2011/05/18,277,280,275,278,565000,278
2011/05/19,279,280,276,277,268000,277
2011/05/20,279,279,275,276,368000,276
2011/05/23,275,276,271,271,405000,271
2011/05/24,272,275,271,272,402000,272
2011/05/25,273,273,269,269,521000,269
2011/05/26,270,276,270,274,834000,274
2011/05/27,275,275,271,274,446000,274
2011/05/30,273,274,271,273,341000,273
2011/05/31,274,280,274,277,940000,277
2011/06/01,277,277,272,275,745000,275
2011/06/02,272,273,271,271,452000,271
2011/06/03,271,272,269,269,572000,269
2011/06/06,270,271,255,263,1200000,263
2011/06/07,264,268,264,265,599000,265
2011/06/08,265,267,263,265,535000,265
2011/06/09,265,265,261,262,547000,262
2011/06/10,264,266,262,264,736000,264
2011/06/13,262,263,260,262,247000,262
2011/06/14,262,265,262,265,388000,265
2011/06/15,265,267,265,267,398000,267
2011/06/16,265,266,262,262,424000,262
2011/06/17,264,264,258,258,727000,258
2011/06/20,262,262,259,259,531000,259
2011/06/21,260,262,259,262,500000,262
2011/06/22,262,264,261,262,886000,262
2011/06/23,262,267,262,267,570000,267
2011/06/24,268,268,267,267,386000,267
2011/06/27,268,274,267,268,804000,268
2011/06/28,272,272,268,269,659000,269
2011/06/29,272,273,270,271,655000,271
2011/06/30,272,273,271,273,643000,273
2011/07/01,274,275,272,274,589000,274
2011/07/04,278,280,276,280,1062000,280
2011/07/05,281,283,278,281,700000,281
2011/07/06,284,285,281,285,879000,285
2011/07/07,286,288,285,287,640000,287
2011/07/08,290,290,286,286,1126000,286
2011/07/11,287,291,286,287,825000,287
2011/07/12,283,284,281,282,673000,282
2011/07/13,280,284,280,283,754000,283
2011/07/14,284,284,282,282,435000,282
2011/07/15,281,283,281,283,381000,283
2011/07/19,282,283,281,282,328000,282
2011/07/20,285,285,282,282,444000,282
2011/07/21,282,285,282,284,482000,284
2011/07/22,287,289,286,288,711000,288
2011/07/25,288,290,288,290,520000,290
2011/07/26,291,296,291,293,960000,293
2011/07/27,294,294,289,291,594000,291
2011/07/28,291,291,286,288,843000,288
2011/07/29,288,291,288,289,632000,289
2011/08/01,289,291,287,289,560000,289
2011/08/02,292,293,288,289,851000,289
2011/08/03,287,287,281,281,759000,281
2011/08/04,281,288,274,277,2282000,277
2011/08/05,261,269,261,266,1102000,266
2011/08/08,263,264,258,259,655000,259
2011/08/09,252,255,246,255,1090000,255
2011/08/10,260,263,257,259,755000,259
2011/08/11,252,262,252,261,619000,261
2011/08/12,263,265,259,260,691000,260
2011/08/15,261,264,258,262,618000,262
2011/08/16,262,262,259,260,490000,260
2011/08/17,258,261,257,261,420000,261
2011/08/18,259,260,254,255,556000,255
2011/08/19,251,254,249,250,549000,250
2011/08/22,251,252,247,247,398000,247
2011/08/23,249,250,248,249,625000,249
2011/08/24,252,255,249,251,984000,251
2011/08/25,250,254,250,250,1045000,250
2011/08/26,252,252,250,252,630000,252
2011/08/29,251,254,249,251,740000,251
2011/08/30,255,258,253,255,790000,255
2011/08/31,253,254,250,253,973000,253
2011/09/01,252,256,252,255,944000,255
2011/09/02,254,255,252,252,586000,252
2011/09/05,250,251,248,248,414000,248
2011/09/06,248,249,243,244,440000,244
2011/09/07,248,248,245,248,514000,248
2011/09/08,248,249,241,244,942000,244
2011/09/09,242,245,241,241,539000,241
2011/09/12,240,241,239,240,510000,240
2011/09/13,242,244,241,242,554000,242
2011/09/14,242,245,238,240,543000,240
2011/09/15,242,244,242,244,346000,244
2011/09/16,247,250,246,250,551000,250
2011/09/20,250,250,245,245,410000,245
2011/09/21,245,249,245,245,421000,245
2011/09/22,245,245,241,242,726000,242
2011/09/26,241,241,234,234,1224000,234
2011/09/27,241,246,241,246,1614000,246
2011/09/28,246,255,245,252,997000,252
2011/09/29,251,255,248,255,591000,255
2011/09/30,255,256,250,255,545000,255
2011/10/03,248,248,241,245,811000,245
2011/10/04,241,242,237,238,625000,238
2011/10/05,239,240,233,233,999000,233
2011/10/06,235,239,235,238,518000,238
2011/10/07,239,245,239,242,858000,242
2011/10/11,243,244,239,239,1496000,239
2011/10/12,240,244,238,244,803000,244
2011/10/13,245,246,243,244,651000,244
2011/10/14,245,245,240,240,475000,240
2011/10/17,245,246,244,246,553000,246
2011/10/18,245,249,245,246,530000,246
2011/10/19,247,248,245,246,528000,246
2011/10/20,246,246,242,242,360000,242
2011/10/21,242,244,241,241,238000,241
2011/10/24,244,245,242,244,290000,244
2011/10/25,243,243,240,240,415000,240
2011/10/26,239,240,237,238,614000,238
2011/10/27,237,243,237,243,569000,243
2011/10/28,245,245,238,241,1510000,241
2011/10/31,241,243,239,241,1078000,241
2011/11/01,242,243,238,241,1220000,241
2011/11/02,241,241,230,233,1316000,233
2011/11/04,235,237,234,236,432000,236
2011/11/07,235,236,233,234,365000,234
2011/11/08,232,233,224,224,1074000,224
2011/11/09,226,230,225,229,651000,229
2011/11/10,225,226,222,224,604000,224
2011/11/11,224,225,222,224,484000,224
2011/11/14,225,226,223,225,308000,225
2011/11/15,225,225,223,223,338000,223
2011/11/16,225,225,221,222,348000,222
2011/11/17,221,222,218,221,668000,221
2011/11/18,219,221,218,220,568000,220
2011/11/21,220,220,215,215,488000,215
2011/11/22,212,218,212,216,793000,216
2011/11/24,214,215,212,213,685000,213
2011/11/25,212,213,210,212,813000,212
2011/11/28,214,216,212,212,621000,212
2011/11/29,214,221,214,221,663000,221
2011/11/30,219,220,217,220,459000,220
2011/12/01,225,225,221,222,707000,222
2011/12/02,223,225,223,225,652000,225
2011/12/05,228,228,226,227,418000,227
2011/12/06,227,228,224,224,397000,224
2011/12/07,224,228,223,227,508000,227
2011/12/08,228,228,225,226,407000,226
2011/12/09,223,225,222,223,1009000,223
2011/12/12,228,228,224,226,858000,226
2011/12/13,225,227,224,225,481000,225
2011/12/14,225,227,225,226,333000,226
2011/12/15,224,225,221,223,592000,223
2011/12/16,224,224,220,220,479000,220
2011/12/19,220,221,217,219,497000,219
2011/12/20,220,222,219,220,470000,220
2011/12/21,221,222,220,222,326000,222
2011/12/22,220,221,219,220,256000,220
2011/12/26,221,222,219,219,430000,219
2011/12/27,219,226,219,224,728000,224
2011/12/28,225,225,222,224,456000,224
2011/12/29,224,225,222,223,387000,223
2011/12/30,224,226,223,225,308000,225
2012/01/04,227,230,227,230,459000,230
2012/01/05,230,231,227,227,439000,227
2012/01/06,225,225,222,222,667000,222
2012/01/10,225,225,219,219,1122000,219
2012/01/11,221,223,220,221,595000,221
2012/01/12,221,222,218,220,728000,220
2012/01/13,219,221,219,221,658000,221
2012/01/16,221,221,218,218,719000,218
2012/01/17,219,222,219,221,408000,221
2012/01/18,222,225,220,222,572000,222
2012/01/19,224,226,224,225,457000,225
2012/01/20,226,231,226,231,909000,231
2012/01/23,232,234,231,233,769000,233
2012/01/24,233,234,231,232,469000,232
2012/01/25,232,238,232,236,1314000,236
2012/01/26,236,238,234,236,848000,236
2012/01/27,233,235,232,234,698000,234
2012/01/30,235,236,232,232,549000,232
2012/01/31,233,235,233,234,420000,234
2012/02/01,238,239,236,236,715000,236
2012/02/02,237,240,235,235,955000,235
2012/02/03,235,240,233,238,1380000,238
2012/02/06,241,243,239,240,1153000,240
2012/02/07,238,239,236,238,1010000,238
2012/02/08,240,240,238,240,741000,240
2012/02/09,239,240,237,239,674000,239
2012/02/10,239,240,238,239,930000,239
2012/02/13,237,241,237,240,1098000,240
2012/02/14,240,241,237,239,992000,239
2012/02/15,244,245,241,243,1468000,243
2012/02/16,243,244,240,242,1115000,242
2012/02/17,243,244,242,242,826000,242
2012/02/20,245,246,243,243,782000,243
2012/02/21,245,246,243,245,573000,245
2012/02/22,245,248,244,247,796000,247
2012/02/23,247,250,246,250,1507000,250
2012/02/24,249,253,248,253,1683000,253
2012/02/27,255,257,253,255,1096000,255
2012/02/28,255,256,251,254,1050000,254
2012/02/29,255,256,252,252,1026000,252
2012/03/01,252,254,246,248,1199000,248
2012/03/02,247,250,247,250,806000,250
2012/03/05,251,252,248,249,755000,249
2012/03/06,249,250,246,247,849000,247
2012/03/07,245,247,245,247,517000,247
2012/03/08,249,249,247,249,491000,249
2012/03/09,249,251,248,251,1022000,251
2012/03/12,251,252,248,249,698000,249
2012/03/13,251,252,249,249,856000,249
2012/03/14,251,252,250,250,456000,250
2012/03/15,251,251,249,249,684000,249
2012/03/16,250,251,249,249,403000,249
2012/03/19,250,251,249,249,450000,249
2012/03/21,250,250,248,248,878000,248
2012/03/22,249,250,248,249,520000,249
2012/03/23,249,249,247,247,1017000,247
2012/03/26,249,251,249,250,977000,250
2012/03/27,253,256,251,256,1479000,256
2012/03/28,246,249,246,247,945000,247
2012/03/29,247,247,244,245,423000,245
2012/03/30,245,245,241,242,813000,242
2012/04/02,242,242,235,237,1050000,237
2012/04/03,237,238,233,236,653000,236
2012/04/04,235,235,228,229,865000,229
2012/04/05,227,231,227,230,595000,230
2012/04/06,229,230,227,227,533000,227
2012/04/09,226,228,225,225,620000,225
2012/04/10,226,227,223,223,560000,223
2012/04/11,222,222,220,221,672000,221
2012/04/12,222,224,220,222,753000,222
2012/04/13,223,224,221,222,801000,222
2012/04/16,222,223,220,221,535000,221
2012/04/17,221,222,220,221,525000,221
2012/04/18,222,223,221,222,617000,222
2012/04/19,222,227,222,224,1042000,224
2012/04/20,226,226,220,222,1367000,222
2012/04/23,223,224,221,221,1019000,221
2012/04/24,221,221,219,219,768000,219
2012/04/25,221,221,219,220,877000,220
2012/04/26,220,221,219,220,507000,220
2012/04/27,220,220,218,218,579000,218
2012/05/01,218,218,215,215,525000,215
2012/05/02,217,217,215,216,386000,216
2012/05/07,214,215,210,210,791000,210
2012/05/08,211,211,206,209,1019000,209
2012/05/09,208,209,205,205,670000,205
2012/05/10,204,207,203,206,284000,206
2012/05/11,206,207,202,202,409000,202
2012/05/14,202,210,201,202,1199000,202
2012/05/15,203,208,202,206,1152000,206
2012/05/16,205,205,200,201,777000,201
2012/05/17,201,205,200,205,681000,205
2012/05/18,201,202,199,199,691000,199
2012/05/21,201,202,195,198,860000,198
2012/05/22,200,202,199,200,321000,200
2012/05/23,201,201,197,197,552000,197
2012/05/24,198,199,196,198,558000,198
2012/05/25,198,198,195,195,648000,195
2012/05/28,198,198,196,198,474000,198
2012/05/29,198,201,197,201,484000,201
2012/05/30,199,200,197,199,323000,199
2012/05/31,197,202,196,202,598000,202
2012/06/01,201,201,197,198,533000,198
2012/06/04,196,197,193,194,756000,194
2012/06/05,194,197,194,196,209000,196
2012/06/06,198,203,197,203,354000,203
2012/06/07,205,207,202,206,573000,206
2012/06/08,204,204,198,200,492000,200
2012/06/11,204,205,203,204,319000,204
2012/06/12,202,203,200,203,425000,203
2012/06/13,205,210,204,209,802000,209
2012/06/14,207,207,206,206,324000,206
2012/06/15,207,208,205,205,386000,205
2012/06/18,210,211,208,211,207000,211
2012/06/19,210,212,209,209,262000,209
2012/06/20,214,214,209,213,503000,213
2012/06/21,213,216,212,216,367000,216
2012/06/22,213,217,212,215,226000,215
2012/06/25,215,216,213,214,269000,214
2012/06/26,211,212,207,208,367000,208
2012/06/27,210,210,206,209,543000,209
2012/06/28,212,216,211,216,469000,216
2012/06/29,215,219,214,218,349000,218
2012/07/02,219,219,218,218,215000,218
2012/07/03,219,220,217,218,285000,218
2012/07/04,217,218,215,216,246000,216
2012/07/05,216,217,214,214,249000,214
2012/07/06,216,219,215,215,471000,215
2012/07/09,214,215,211,211,245000,211
2012/07/10,212,214,211,211,193000,211
2012/07/11,211,211,206,207,278000,207
2012/07/12,208,208,203,203,389000,203
2012/07/13,207,207,203,203,310000,203
2012/07/17,204,205,201,201,234000,201
2012/07/18,202,203,200,200,325000,200
2012/07/19,203,203,200,202,273000,202
2012/07/20,203,203,198,198,436000,198
2012/07/23,197,198,196,197,382000,197
2012/07/24,197,198,196,197,437000,197
2012/07/25,196,198,196,196,492000,196
2012/07/26,198,199,196,198,297000,198
2012/07/27,203,203,199,200,347000,200
2012/07/30,201,204,201,204,240000,204
2012/07/31,205,207,203,207,228000,207
2012/08/01,203,205,203,205,228000,205
2012/08/02,204,207,204,205,282000,205
2012/08/03,204,207,201,205,715000,205
2012/08/06,205,207,202,204,310000,204
2012/08/07,202,205,201,204,295000,204
2012/08/08,204,207,204,205,350000,205
2012/08/09,205,207,204,207,228000,207
2012/08/10,205,209,203,207,284000,207
2012/08/13,207,208,205,206,138000,206
2012/08/14,207,210,205,209,450000,209
2012/08/15,209,210,207,208,165000,208
2012/08/16,208,211,208,211,137000,211
2012/08/17,211,212,210,212,329000,212
2012/08/20,212,214,211,212,409000,212
2012/08/21,212,213,210,211,349000,211
2012/08/22,210,211,208,209,214000,209
2012/08/23,208,209,207,208,222000,208
2012/08/24,208,209,205,206,338000,206
2012/08/27,206,206,205,205,137000,205
2012/08/28,207,207,200,202,546000,202
2012/08/29,201,204,201,204,188000,204
2012/08/30,203,203,200,200,322000,200
2012/08/31,199,200,198,198,344000,198
2012/09/03,199,200,197,197,251000,197
2012/09/04,197,198,195,197,535000,197
2012/09/05,196,197,195,196,732000,196
2012/09/06,196,197,195,196,332000,196
2012/09/07,198,199,197,197,138000,197
2012/09/10,197,198,196,197,312000,197
2012/09/11,197,197,195,196,355000,196
2012/09/12,197,198,196,197,205000,197
2012/09/13,197,199,197,198,112000,198
2012/09/14,199,202,198,201,620000,201
2012/09/18,200,201,198,200,457000,200
2012/09/19,199,202,198,201,650000,201
2012/09/20,201,201,199,199,377000,199
2012/09/21,199,201,199,201,339000,201
2012/09/24,201,201,199,200,692000,200
2012/09/25,202,206,201,206,1643000,206
2012/09/26,202,204,196,200,746000,200
2012/09/27,198,201,197,200,432000,200
2012/09/28,199,201,196,201,971000,201
2012/10/01,200,200,196,196,315000,196
2012/10/02,197,197,196,196,113000,196
2012/10/03,195,196,195,195,173000,195
2012/10/04,196,197,195,196,218000,196
2012/10/05,196,196,195,195,392000,195
2012/10/09,195,196,194,194,345000,194
2012/10/10,194,194,192,192,324000,192
2012/10/11,192,193,191,191,273000,191
2012/10/12,191,193,191,192,292000,192
2012/10/15,193,195,192,194,174000,194
2012/10/16,195,198,194,198,311000,198
2012/10/17,197,198,196,196,192000,196
2012/10/18,196,200,196,197,468000,197
2012/10/19,197,199,196,199,184000,199
2012/10/22,197,201,197,201,217000,201
2012/10/23,202,203,201,202,302000,202
2012/10/24,201,203,200,202,254000,202
2012/10/25,202,203,201,203,189000,203
2012/10/26,204,204,201,203,265000,203
2012/10/29,203,203,201,202,101000,202
2012/10/30,202,202,199,199,272000,199
2012/10/31,199,201,199,200,203000,200
2012/11/01,200,202,199,201,210000,201
2012/11/02,202,203,200,202,548000,202
2012/11/05,200,201,199,200,139000,200
2012/11/06,200,200,198,200,115000,200
2012/11/07,200,200,198,198,105000,198
2012/11/08,197,198,196,197,135000,197
2012/11/09,196,197,195,196,223000,196
2012/11/12,195,196,195,195,96000,195
2012/11/13,196,196,193,193,272000,193
2012/11/14,194,196,194,196,170000,196
2012/11/15,196,199,196,198,224000,198
2012/11/16,198,200,198,200,123000,200
2012/11/19,200,201,199,201,264000,201
2012/11/20,202,202,200,201,209000,201
2012/11/21,202,203,200,203,406000,203
2012/11/22,203,205,203,205,608000,205
2012/11/26,205,206,201,204,586000,204
2012/11/27,203,205,203,205,271000,205
2012/11/28,205,205,202,203,205000,203
2012/11/29,203,205,203,204,183000,204
2012/11/30,205,206,203,204,483000,204
2012/12/03,205,209,205,209,943000,209
2012/12/04,209,209,206,208,505000,208
2012/12/05,207,208,206,207,217000,207
2012/12/06,208,209,207,209,401000,209
2012/12/07,209,209,207,207,436000,207
2012/12/10,209,210,207,208,329000,208
2012/12/11,207,208,203,206,414000,206
2012/12/12,206,207,205,207,225000,207
2012/12/13,208,211,207,209,844000,209
2012/12/14,208,209,207,207,609000,207
2012/12/17,209,210,208,209,429000,209
2012/12/18,209,213,208,212,825000,212
2012/12/19,213,216,212,216,876000,216
2012/12/20,216,219,214,219,816000,219
2012/12/21,219,220,215,219,995000,219
2012/12/25,219,222,219,221,655000,221
2012/12/26,220,221,218,221,711000,221
2012/12/27,221,226,221,226,1487000,226
2012/12/28,226,228,225,226,792000,226
2013/01/04,230,231,227,231,1015000,231
2013/01/07,232,232,228,229,649000,229
2013/01/08,230,230,225,227,911000,227
2013/01/09,225,230,224,230,638000,230
2013/01/10,230,243,230,243,2723000,243
2013/01/11,244,248,241,247,2234000,247
2013/01/15,248,249,241,242,1443000,242
2013/01/16,241,242,235,237,1209000,237
2013/01/17,237,239,232,235,1434000,235
2013/01/18,238,241,234,241,1797000,241
2013/01/21,241,245,240,243,1681000,243
2013/01/22,243,244,238,240,973000,240
2013/01/23,238,243,238,240,830000,240
2013/01/24,239,242,235,240,1118000,240
2013/01/25,241,243,239,243,805000,243
2013/01/28,245,245,240,241,800000,241
2013/01/29,241,243,239,240,815000,240
2013/01/30,241,245,239,245,1117000,245
2013/01/31,245,246,243,245,655000,245
2013/02/01,245,247,244,245,1343000,245
2013/02/04,247,250,244,248,1287000,248
2013/02/05,247,249,240,242,2973000,242
2013/02/06,238,241,235,239,2338000,239
2013/02/07,238,242,237,241,1548000,241
2013/02/08,241,242,239,240,927000,240
2013/02/12,239,241,236,238,927000,238
2013/02/13,237,238,230,232,1334000,232
2013/02/14,230,233,229,233,519000,233
2013/02/15,234,234,228,232,1286000,232
2013/02/18,235,236,233,236,455000,236
2013/02/19,238,239,236,239,695000,239
2013/02/20,240,240,235,236,745000,236
2013/02/21,236,236,231,232,1725000,232
2013/02/22,232,234,230,232,756000,232
2013/02/25,236,236,234,236,353000,236
2013/02/26,234,238,233,234,1163000,234
2013/02/27,235,235,232,233,820000,233
2013/02/28,235,237,235,235,675000,235
2013/03/01,236,239,235,239,584000,239
2013/03/04,240,244,240,244,1466000,244
2013/03/05,245,246,241,242,899000,242
2013/03/06,244,245,242,245,752000,245
2013/03/07,247,247,244,245,947000,245
2013/03/08,245,247,245,247,951000,247
2013/03/11,249,255,248,255,2197000,255
2013/03/12,258,260,256,258,1219000,258
2013/03/13,259,260,257,259,1779000,259
2013/03/14,259,265,258,265,2083000,265
2013/03/15,265,268,259,261,2401000,261
2013/03/18,259,259,254,254,1173000,254
2013/03/19,254,258,254,258,791000,258
2013/03/21,260,261,258,260,983000,260
2013/03/22,260,262,259,259,772000,259
2013/03/25,262,262,258,260,1116000,260
2013/03/26,258,258,256,256,1194000,256
2013/03/27,245,252,245,251,1369000,251
2013/03/28,249,249,243,244,703000,244
2013/03/29,244,248,243,244,890000,244
2013/04/01,243,244,237,237,727000,237
2013/04/02,234,234,227,229,1402000,229
2013/04/03,231,233,229,233,686000,233
2013/04/04,249,251,242,247,4900000,247
2013/04/05,257,259,255,257,2878000,257
2013/04/08,260,263,257,262,1733000,262
2013/04/09,262,263,257,257,1221000,257
2013/04/10,257,260,257,259,870000,259
2013/04/11,263,263,260,261,1220000,261
2013/04/12,260,262,257,258,1157000,258
2013/04/15,256,259,255,257,743000,257
2013/04/16,252,256,252,254,974000,254
2013/04/17,256,259,255,257,530000,257
2013/04/18,257,258,255,255,859000,255
2013/04/19,255,255,250,250,1780000,250
2013/04/22,254,256,252,254,1579000,254
2013/04/23,256,258,254,257,1028000,257
2013/04/24,256,261,256,261,954000,261
2013/04/25,263,263,258,259,1027000,259
2013/04/26,260,261,255,255,875000,255
2013/04/30,255,257,254,254,680000,254
2013/05/01,254,256,252,254,432000,254
2013/05/02,254,256,253,254,353000,254
2013/05/07,258,261,258,260,594000,260
2013/05/08,261,263,260,261,767000,261
2013/05/09,262,262,255,256,892000,256
2013/05/10,257,261,257,257,1177000,257
2013/05/13,259,269,259,269,2523000,269
2013/05/14,269,282,269,269,3937000,269
2013/05/15,272,274,262,264,1979000,264
2013/05/16,264,264,257,263,1602000,263
2013/05/17,265,273,264,273,1649000,273
2013/05/20,275,279,274,276,1556000,276
2013/05/21,279,285,276,285,1478000,285
2013/05/22,286,289,283,284,1733000,284
2013/05/23,281,282,265,265,2068000,265
2013/05/24,268,270,256,264,1789000,264
2013/05/27,260,263,257,258,1051000,258
2013/05/28,255,262,255,259,991000,259
2013/05/29,259,259,252,253,1902000,253
2013/05/30,252,253,246,249,1456000,249
2013/05/31,250,251,245,245,1025000,245
2013/06/03,246,246,237,237,881000,237
2013/06/04,237,244,234,244,852000,244
2013/06/05,243,246,239,240,851000,240
2013/06/06,236,241,227,228,1500000,228
2013/06/07,226,227,218,223,1518000,223
2013/06/10,228,231,225,229,1530000,229
2013/06/11,230,231,227,228,938000,228
2013/06/12,225,232,222,226,1404000,226
2013/06/13,223,224,218,218,1293000,218
2013/06/14,220,223,219,219,1417000,219
2013/06/17,221,226,220,226,830000,226
2013/06/18,224,228,224,227,1216000,227
2013/06/19,230,233,229,232,1554000,232
2013/06/20,233,234,227,228,635000,228
2013/06/21,223,229,222,226,782000,226
2013/06/24,230,234,227,227,328000,227
2013/06/25,229,233,226,231,754000,231
2013/06/26,233,233,227,227,481000,227
2013/06/27,230,233,228,230,390000,230
2013/06/28,235,240,233,240,672000,240
2013/07/01,241,245,238,243,541000,243
2013/07/02,246,246,243,246,351000,246
2013/07/03,245,245,242,244,412000,244
2013/07/04,243,245,243,245,220000,245
2013/07/05,247,250,246,250,463000,250
2013/07/08,252,252,245,245,589000,245
2013/07/09,249,249,246,248,268000,248
2013/07/10,249,251,247,247,380000,247
2013/07/11,247,251,246,249,247000,249
2013/07/12,249,251,247,249,510000,249
2013/07/16,251,252,248,250,359000,250
2013/07/17,248,252,248,250,362000,250
2013/07/18,252,256,251,255,611000,255
2013/07/19,257,258,250,251,585000,251
2013/07/22,255,256,253,255,391000,255
2013/07/23,255,257,254,257,364000,257
2013/07/24,257,257,254,256,225000,256
2013/07/25,255,256,249,250,497000,250
2013/07/26,251,251,246,246,482000,246
2013/07/29,245,246,240,241,557000,241
2013/07/30,239,247,239,247,413000,247
2013/07/31,247,247,242,243,221000,243
2013/08/01,245,251,244,250,401000,250
2013/08/02,253,262,251,254,1349000,254
2013/08/05,255,255,251,253,234000,253
2013/08/06,253,255,251,254,315000,254
2013/08/07,254,255,250,251,432000,251
2013/08/08,251,254,249,251,344000,251
2013/08/09,252,252,248,249,280000,249
2013/08/12,248,250,246,250,145000,250
2013/08/13,251,254,249,254,217000,254
2013/08/14,254,255,252,255,282000,255
2013/08/15,253,254,251,251,206000,251
2013/08/16,250,252,248,251,315000,251
2013/08/19,252,254,251,254,176000,254
2013/08/20,253,254,251,251,188000,251
2013/08/21,250,253,250,253,315000,253
2013/08/22,254,254,251,253,237000,253
2013/08/23,254,254,249,252,404000,252
2013/08/26,252,253,250,252,215000,252
2013/08/27,250,253,250,252,225000,252
2013/08/28,251,251,248,249,316000,249
2013/08/29,249,251,248,249,171000,249
2013/08/30,249,249,244,245,368000,245
2013/09/02,244,247,244,247,133000,247
2013/09/03,248,251,246,251,303000,251
2013/09/04,248,251,246,250,300000,250
2013/09/05,251,251,246,248,249000,248
2013/09/06,249,249,246,246,227000,246
2013/09/09,251,251,248,251,420000,251
2013/09/10,253,255,252,254,895000,254
2013/09/11,255,255,251,253,427000,253
2013/09/12,254,258,253,258,589000,258
2013/09/13,255,258,255,257,718000,257
2013/09/17,258,259,257,259,276000,259
2013/09/18,259,260,257,258,360000,258
2013/09/19,259,259,256,259,512000,259
2013/09/20,259,260,258,259,438000,259
2013/09/24,258,266,258,266,889000,266
2013/09/25,268,268,260,265,2158000,265
2013/09/26,265,268,260,268,916000,268
2013/09/27,267,269,266,269,464000,269
2013/09/30,264,267,263,267,399000,267
2013/10/01,267,268,263,263,495000,263
2013/10/02,264,265,259,263,678000,263
2013/10/03,262,262,259,259,303000,259
2013/10/04,259,259,253,256,352000,256
2013/10/07,254,255,250,251,315000,251
2013/10/08,250,257,249,257,655000,257
2013/10/09,256,258,253,258,273000,258
2013/10/10,257,258,256,258,206000,258
2013/10/11,259,263,259,262,454000,262
2013/10/15,263,264,260,260,258000,260
2013/10/16,261,263,259,263,249000,263
2013/10/17,264,264,261,264,219000,264
2013/10/18,263,264,262,264,150000,264
2013/10/21,264,265,262,265,296000,265
2013/10/22,265,266,264,266,201000,266
2013/10/23,267,267,261,261,316000,261
2013/10/24,262,265,260,265,307000,265
2013/10/25,265,265,260,262,222000,262
2013/10/28,264,265,262,265,239000,265
2013/10/29,264,264,261,261,318000,261
2013/10/30,264,264,261,263,514000,263
2013/10/31,263,264,260,262,298000,262
2013/11/01,262,262,256,257,311000,257
2013/11/05,261,267,257,262,1204000,262
2013/11/06,261,263,259,261,296000,261
2013/11/07,262,262,260,262,260000,262
2013/11/08,259,260,258,259,267000,259
2013/11/11,263,263,259,261,205000,261
2013/11/12,259,263,259,263,273000,263
2013/11/13,263,265,262,265,362000,265
2013/11/14,265,266,263,265,410000,265
2013/11/15,265,267,264,267,471000,267
2013/11/18,267,268,265,266,332000,266
2013/11/19,265,267,264,265,246000,265
2013/11/20,266,267,264,267,289000,267
2013/11/21,267,268,266,268,315000,268
2013/11/22,268,269,265,266,472000,266
2013/11/25,267,268,265,267,285000,267
2013/11/26,267,267,264,265,365000,265
2013/11/27,264,265,262,263,201000,263
2013/11/28,265,265,261,264,356000,264
2013/11/29,263,265,262,263,315000,263
2013/12/02,265,266,264,265,276000,265
2013/12/03,265,267,264,264,419000,264
2013/12/04,262,263,260,260,553000,260
2013/12/05,261,262,259,260,349000,260
2013/12/06,260,262,259,261,283000,261
2013/12/09,262,263,261,262,255000,262
2013/12/10,264,264,261,263,317000,263
2013/12/11,261,265,261,262,392000,262
2013/12/12,261,262,258,258,430000,258
2013/12/13,258,259,256,258,870000,258
2013/12/16,259,259,253,253,528000,253
2013/12/17,254,256,252,252,517000,252
2013/12/18,252,254,250,254,850000,254
2013/12/19,255,256,252,254,535000,254
2013/12/20,252,253,251,253,363000,253
2013/12/24,253,253,250,250,565000,250
2013/12/25,250,252,250,250,738000,250
2013/12/26,252,259,252,257,468000,257
2013/12/27,259,260,257,260,405000,260
2013/12/30,261,265,261,264,535000,264
2014/01/06,264,265,263,263,372000,263
2014/01/07,264,264,262,264,350000,264
2014/01/08,265,269,263,269,538000,269
2014/01/09,269,269,265,266,498000,266
2014/01/10,264,267,264,267,485000,267
2014/01/14,264,265,262,262,534000,262
2014/01/15,264,265,260,262,826000,262
2014/01/16,262,264,261,261,513000,261
2014/01/17,261,265,261,265,457000,265
2014/01/20,271,273,270,271,1349000,271
2014/01/21,271,271,268,268,635000,268
2014/01/22,269,270,267,269,633000,269
2014/01/23,269,270,266,266,651000,266
2014/01/24,266,267,262,264,1013000,264
2014/01/27,261,263,259,261,789000,261
2014/01/28,285,291,265,265,4883000,265
2014/01/29,267,268,259,267,1705000,267
2014/01/30,264,265,262,263,685000,263
2014/01/31,264,270,264,268,1428000,268
2014/02/03,266,267,262,263,899000,263
2014/02/04,259,259,248,249,1606000,249
2014/02/05,255,265,253,257,1868000,257
2014/02/06,257,260,256,257,560000,257
2014/02/07,261,263,259,261,521000,261
2014/02/10,264,265,261,262,422000,262
2014/02/12,265,265,263,265,243000,265
2014/02/13,265,266,261,261,330000,261
2014/02/14,261,263,257,260,669000,260
2014/02/17,261,267,260,267,540000,267
2014/02/18,266,268,265,268,463000,268
2014/02/19,267,268,265,267,241000,267
2014/02/20,268,268,264,265,264000,265
2014/02/21,265,269,265,269,447000,269
2014/02/24,269,270,267,269,384000,269
2014/02/25,269,269,267,269,347000,269
2014/02/26,269,272,268,270,782000,270
2014/02/27,269,269,267,268,383000,268
2014/02/28,269,269,266,268,461000,268
2014/03/03,267,268,265,267,484000,267
2014/03/04,264,267,264,267,224000,267
2014/03/05,268,269,267,269,398000,269
2014/03/06,268,270,268,270,358000,270
2014/03/07,270,273,269,273,424000,273
2014/03/10,273,274,271,272,427000,272
2014/03/11,273,275,272,274,395000,274
2014/03/12,271,273,268,268,495000,268
2014/03/13,268,271,268,268,162000,268
2014/03/14,265,267,263,263,801000,263
2014/03/17,263,264,261,261,347000,261
2014/03/18,265,266,263,265,267000,265
2014/03/19,265,268,263,263,372000,263
2014/03/20,265,266,260,260,503000,260
2014/03/24,262,270,262,267,954000,267
2014/03/25,269,273,268,271,759000,271
2014/03/26,272,274,271,274,1233000,274
2014/03/27,261,267,260,266,1180000,266
2014/03/28,266,273,265,272,1273000,272
2014/03/31,272,274,270,274,1130000,274
2014/04/01,273,274,270,274,686000,274
2014/04/02,274,278,272,277,1474000,277
2014/04/03,277,278,275,276,864000,276
2014/04/04,276,280,276,278,1024000,278
2014/04/07,275,278,274,276,425000,276
2014/04/08,273,275,270,271,320000,271
2014/04/09,269,270,266,268,678000,268
2014/04/10,275,275,268,270,640000,270
2014/04/11,271,274,269,269,801000,269
2014/04/14,269,271,268,270,363000,270
2014/04/15,270,272,269,271,435000,271
2014/04/16,273,275,272,274,507000,274
2014/04/17,274,280,274,278,1205000,278
2014/04/18,278,281,278,280,1168000,280
2014/04/21,280,283,279,281,822000,281
2014/04/22,283,283,277,277,728000,277
2014/04/23,280,280,277,280,363000,280
2014/04/24,280,281,278,281,354000,281
2014/04/25,280,281,279,281,453000,281
2014/04/28,280,280,278,279,469000,279
2014/04/30,279,280,278,279,351000,279
2014/05/01,277,281,277,281,535000,281
2014/05/02,281,282,278,282,457000,282
2014/05/07,281,281,276,276,517000,276
2014/05/08,276,279,276,277,417000,277
2014/05/09,275,280,275,280,333000,280
2014/05/12,279,280,277,277,228000,277
2014/05/13,283,289,276,279,2027000,279
2014/05/14,279,283,279,283,546000,283
2014/05/15,283,283,279,281,561000,281
2014/05/16,278,280,277,278,424000,278
2014/05/19,278,282,278,280,567000,280
2014/05/20,282,282,278,278,256000,278
2014/05/21,277,279,276,279,244000,279
2014/05/22,279,280,278,280,389000,280
2014/05/23,281,283,280,280,479000,280
2014/05/26,282,282,279,282,328000,282
2014/05/27,282,282,278,279,401000,279
2014/05/28,281,285,279,284,552000,284
2014/05/29,284,285,282,285,361000,285
2014/05/30,285,285,281,283,344000,283
2014/06/02,285,287,284,286,487000,286
2014/06/03,287,288,286,286,173000,286
2014/06/04,286,287,282,284,376000,284
2014/06/05,285,285,284,285,198000,285
2014/06/06,286,286,284,285,238000,285
2014/06/09,286,288,285,288,319000,288
2014/06/10,289,289,287,287,397000,287
2014/06/11,287,289,287,289,282000,289
2014/06/12,287,289,286,289,324000,289
2014/06/13,287,294,286,293,909000,293
2014/06/16,293,293,287,288,441000,288
2014/06/17,290,293,290,291,361000,291
2014/06/18,291,294,291,293,415000,293
2014/06/19,292,295,292,292,463000,292
2014/06/20,295,295,291,291,622000,291
2014/06/23,293,295,291,295,373000,295
2014/06/24,294,297,293,297,507000,297
2014/06/25,296,297,295,296,297000,296
2014/06/26,297,297,292,292,287000,292
2014/06/27,293,293,287,290,415000,290
2014/06/30,291,294,288,291,538000,291
2014/07/01,292,295,290,293,444000,293
2014/07/02,294,295,291,292,467000,292
2014/07/03,293,295,293,294,342000,294
2014/07/04,297,297,293,294,294000,294
2014/07/07,294,294,291,292,188000,292
2014/07/08,291,291,288,291,419000,291
2014/07/09,292,292,287,290,390000,290
2014/07/10,291,291,286,287,286000,287
2014/07/11,285,288,285,287,244000,287
2014/07/14,287,289,287,287,253000,287
2014/07/15,287,289,286,287,210000,287
2014/07/16,287,288,285,286,370000,286
2014/07/17,287,287,283,285,252000,285
2014/07/18,281,283,280,283,261000,283
2014/07/22,283,285,280,282,516000,282
2014/07/23,283,285,282,283,444000,283
2014/07/24,283,283,281,282,315000,282
2014/07/25,281,283,280,280,238000,280
2014/07/28,281,281,278,280,455000,280
2014/07/29,279,284,279,283,402000,283
2014/07/30,284,285,282,282,267000,282
2014/07/31,285,286,281,282,329000,282
2014/08/01,280,284,276,281,1075000,281
2014/08/04,280,282,278,278,330000,278
2014/08/05,278,279,275,275,482000,275
2014/08/06,275,276,274,274,346000,274
2014/08/07,273,279,272,277,583000,277
2014/08/08,275,279,275,276,435000,276
2014/08/11,277,279,277,279,330000,279
2014/08/12,279,280,276,278,492000,278
2014/08/13,277,279,277,278,212000,278
2014/08/14,278,280,277,278,328000,278
2014/08/15,278,278,276,276,230000,276
2014/08/18,277,278,276,277,212000,277
2014/08/19,279,279,274,278,312000,278
2014/08/20,278,279,277,278,164000,278
2014/08/21,278,281,277,279,367000,279
2014/08/22,281,283,280,281,416000,281
2014/08/25,283,287,282,285,627000,285
2014/08/26,286,286,280,281,333000,281
2014/08/27,280,282,278,279,293000,279
2014/08/28,280,280,276,277,418000,277
2014/08/29,290,297,288,294,3398000,294
2014/09/01,294,294,290,291,1013000,291
2014/09/02,292,294,291,293,725000,293
2014/09/03,293,294,289,291,663000,291
2014/09/04,297,305,295,297,2979000,297
2014/09/05,299,302,298,301,932000,301
2014/09/08,303,303,299,303,692000,303
2014/09/09,304,304,300,303,624000,303
2014/09/10,302,303,300,302,473000,302
2014/09/11,303,303,301,301,422000,301
2014/09/12,303,305,301,303,964000,303
2014/09/16,304,310,303,307,1290000,307
2014/09/17,309,310,304,305,428000,305
2014/09/18,305,307,305,307,415000,307
2014/09/19,308,308,305,308,736000,308
2014/09/22,309,309,307,307,507000,307
2014/09/24,307,308,304,308,546000,308
2014/09/25,308,312,307,311,1746000,311
2014/09/26,307,312,306,310,547000,310
2014/09/29,311,312,308,310,389000,310
2014/09/30,310,311,306,308,442000,308
2014/10/01,305,310,305,308,507000,308
2014/10/02,303,304,294,295,1190000,295
2014/10/03,296,300,296,298,512000,298
2014/10/06,300,301,296,297,459000,297
2014/10/07,301,308,300,305,809000,305
2014/10/08,301,305,300,303,522000,303
2014/10/09,305,305,301,301,441000,301
2014/10/10,296,297,291,292,737000,292
2014/10/14,288,292,286,287,513000,287
2014/10/15,286,290,285,287,369000,287
2014/10/16,285,286,280,280,500000,280
2014/10/17,280,281,277,279,579000,279
2014/10/20,284,286,282,285,341000,285
2014/10/21,288,288,283,285,936000,285
2014/10/22,289,290,286,290,520000,290
2014/10/23,289,290,286,288,219000,288
2014/10/24,291,291,287,291,325000,291
2014/10/27,294,298,294,297,461000,297
2014/10/28,298,299,294,298,489000,298
2014/10/29,300,303,298,300,451000,300
2014/10/30,298,303,298,301,563000,301
2014/10/31,305,310,304,309,862000,309
2014/11/04,310,313,306,307,871000,307
2014/11/05,305,310,300,309,713000,309
2014/11/06,308,314,307,311,1043000,311
2014/11/07,308,313,308,312,832000,312
2014/11/10,310,313,310,311,443000,311
2014/11/11,311,311,307,307,689000,307
2014/11/12,308,312,305,305,821000,305
2014/11/13,305,307,295,297,1334000,297
2014/11/14,301,301,295,299,866000,299
2014/11/17,297,299,295,295,393000,295
2014/11/18,296,300,296,300,366000,300
2014/11/19,300,302,298,300,515000,300
2014/11/20,302,306,300,305,683000,305
2014/11/21,307,308,303,307,390000,307
2014/11/25,307,307,302,304,453000,304
2014/11/26,301,306,301,304,434000,304
2014/11/27,303,306,303,303,361000,303
2014/11/28,306,310,305,310,644000,310
2014/12/01,309,309,305,307,504000,307
2014/12/02,308,312,306,311,677000,311
2014/12/03,310,312,309,310,281000,310
2014/12/04,314,322,312,321,1764000,321
2014/12/05,321,321,314,318,711000,318
2014/12/08,320,320,317,318,377000,318
2014/12/09,315,320,315,317,341000,317
2014/12/10,319,319,313,314,484000,314
2014/12/11,311,314,310,312,439000,312
2014/12/12,313,316,312,312,568000,312
2014/12/15,312,314,309,309,333000,309
2014/12/16,307,308,303,304,411000,304
2014/12/17,301,306,301,302,487000,302
2014/12/18,306,310,305,306,344000,306
2014/12/19,311,312,305,311,589000,311
2014/12/22,313,313,306,308,326000,308
2014/12/24,310,313,308,312,493000,312
2014/12/25,313,315,311,314,383000,314
2014/12/26,316,317,311,316,395000,316
2014/12/29,315,316,310,313,411000,313
2014/12/30,314,314,311,312,330000,312
2015/01/05,312,314,310,311,241000,311
2015/01/06,309,309,304,304,541000,304
2015/01/07,304,313,304,311,638000,311
2015/01/08,312,320,311,318,1009000,318
2015/01/09,318,319,314,315,474000,315
2015/01/13,313,318,312,316,508000,316
2015/01/14,314,315,303,305,1239000,305
2015/01/15,309,311,305,306,512000,306
2015/01/16,305,305,301,302,552000,302
2015/01/19,303,304,301,302,392000,302
2015/01/20,302,305,302,305,566000,305
2015/01/21,305,305,301,302,328000,302
2015/01/22,303,303,300,303,381000,303
2015/01/23,304,305,303,303,421000,303
2015/01/26,303,305,301,304,309000,304
2015/01/27,304,306,303,304,417000,304
2015/01/28,305,308,304,308,293000,308
2015/01/29,307,309,303,304,591000,304
2015/01/30,306,308,305,306,368000,306
2015/02/02,305,307,302,305,302000,305
2015/02/03,306,307,302,304,503000,304
2015/02/04,304,307,304,306,439000,306
2015/02/05,306,306,295,297,1400000,297
2015/02/06,300,306,299,305,809000,305
2015/02/09,305,306,304,306,313000,306
2015/02/10,307,307,304,306,250000,306
2015/02/12,307,309,307,308,519000,308
2015/02/13,311,312,309,310,763000,310
2015/02/16,309,314,309,312,505000,312
2015/02/17,312,315,311,314,363000,314
2015/02/18,315,320,315,319,599000,319
2015/02/19,317,323,317,321,790000,321
2015/02/20,322,324,315,323,897000,323
2015/02/23,325,325,320,321,502000,321
2015/02/24,321,323,320,320,426000,320
2015/02/25,322,325,321,324,441000,324
2015/02/26,325,329,324,327,645000,327
2015/02/27,330,330,324,326,512000,326
2015/03/02,328,329,326,327,292000,327
2015/03/03,327,329,324,326,465000,326
2015/03/04,325,327,324,325,330000,325
2015/03/05,325,327,324,327,377000,327
2015/03/06,327,327,325,327,227000,327
2015/03/09,327,327,325,327,157000,327
2015/03/10,325,328,325,326,320000,326
2015/03/11,326,328,325,327,335000,327
2015/03/12,328,329,326,327,424000,327
2015/03/13,329,329,326,327,516000,327
2015/03/16,327,329,327,328,249000,328
2015/03/17,329,329,327,328,387000,328
2015/03/18,328,337,326,337,929000,337
2015/03/19,336,337,333,335,492000,335
2015/03/20,336,338,334,335,431000,335
2015/03/23,337,340,337,339,361000,339
2015/03/24,339,342,339,340,447000,340
2015/03/25,340,342,338,340,393000,340
2015/03/26,340,342,335,337,686000,337
2015/03/27,322,332,321,328,1177000,328
2015/03/30,322,325,319,322,824000,322
2015/03/31,322,325,320,321,688000,321
2015/04/01,320,321,315,317,744000,317
2015/04/02,319,325,318,321,595000,321
2015/04/03,322,326,321,326,536000,326
2015/04/06,326,326,323,324,197000,324
2015/04/07,324,324,321,324,243000,324
2015/04/08,325,326,323,324,297000,324
2015/04/09,324,324,319,321,459000,321
2015/04/10,321,321,317,319,383000,319
2015/04/13,320,320,317,318,165000,318
2015/04/14,319,328,319,328,602000,328
2015/04/15,326,328,324,325,406000,325
2015/04/16,325,329,324,329,356000,329
2015/04/17,328,328,325,325,417000,325
2015/04/20,324,324,319,320,383000,320
2015/04/21,322,323,320,322,501000,322
2015/04/22,324,329,323,329,549000,329
2015/04/23,329,333,327,333,741000,333
2015/04/24,333,333,327,332,756000,332
2015/04/27,332,332,326,329,419000,329
2015/04/28,330,330,327,328,449000,328
2015/04/30,328,328,321,323,697000,323
2015/05/01,322,324,318,320,414000,320
2015/05/07,320,324,319,321,469000,321
2015/05/08,321,324,319,323,542000,323
2015/05/11,327,335,327,334,823000,334
2015/05/12,334,340,331,339,813000,339
2015/05/13,338,349,325,340,2322000,340
2015/05/14,339,340,329,331,694000,331
2015/05/15,333,336,329,331,388000,331
2015/05/18,331,334,330,332,506000,332
2015/05/19,332,335,329,330,620000,330
2015/05/20,330,332,329,331,688000,331
2015/05/21,331,331,324,327,665000,327
2015/05/22,326,329,326,328,662000,328
2015/05/25,330,330,326,327,388000,327
2015/05/26,326,329,326,328,585000,328
2015/05/27,328,332,326,331,538000,331
2015/05/28,332,332,330,332,391000,332
2015/05/29,332,336,331,333,644000,333
2015/06/01,331,335,330,333,442000,333
2015/06/02,333,335,332,335,563000,335
2015/06/03,335,338,333,338,424000,338
2015/06/04,338,338,335,336,323000,336
2015/06/05,334,339,333,337,398000,337
2015/06/08,339,339,332,332,551000,332
2015/06/09,332,332,329,329,699000,329
2015/06/10,329,332,326,327,724000,327
2015/06/11,328,330,326,327,647000,327
2015/06/12,328,331,328,330,973000,330
2015/06/15,330,331,328,330,742000,330
2015/06/16,330,332,329,330,422000,330
2015/06/17,331,334,330,332,564000,332
2015/06/18,333,333,328,329,500000,329
2015/06/19,331,332,329,332,693000,332
2015/06/22,332,341,331,339,973000,339
2015/06/23,340,344,340,344,721000,344
2015/06/24,345,349,343,346,981000,346
2015/06/25,341,344,338,342,631000,342
2015/06/26,344,344,339,342,430000,342
2015/06/29,337,339,333,333,698000,333
2015/06/30,333,337,332,335,567000,335
2015/07/01,337,338,334,334,371000,334
