2011/01/04,126000,126000,126000,126000,1,420
2011/01/06,127200,129000,127200,129000,6,430
2011/01/13,132801,132801,131601,132000,28,440
2011/01/14,132801,132801,132000,132000,2,440
2011/01/17,129000,131400,128901,129000,22,430
2011/01/20,132000,132000,132000,132000,2,440
2011/01/27,131901,132000,131901,132000,5,440
2011/02/04,133500,140001,133500,135900,22,453
2011/02/14,174999,175500,168000,168000,151,560
2011/02/15,174000,187401,146001,162000,635,540
2011/02/16,161799,165000,146001,149400,370,498
2011/02/18,150999,150999,146901,147000,72,490
2011/02/21,147201,148500,146901,147000,45,490
2011/02/22,147099,147501,147000,147000,30,490
2011/02/24,138000,138000,134100,134100,85,447
2011/02/25,132300,137001,132201,136500,27,455
2011/03/01,140001,144900,140001,143100,34,477
2011/03/11,135000,136500,135000,135000,8,450
2011/03/18,99999,104799,96000,104700,117,349
2011/03/24,108000,108000,104301,105000,37,350
2011/03/30,100101,101001,99999,100500,11,335
2011/04/06,100101,100500,100101,100500,4,335
2011/04/07,100500,102900,100500,100800,33,336
2011/04/12,111801,112899,109899,110100,22,367
2011/04/13,111000,111900,111000,111900,11,373
2011/04/19,114501,114501,113100,113100,2,377
2011/04/21,110100,110100,110100,110100,2,367
2011/04/22,111000,113100,111000,113100,17,377
2011/05/02,114000,114000,114000,114000,1,380
2011/05/06,114501,114600,114501,114600,8,382
2011/05/13,120000,120000,120000,120000,4,400
2011/05/16,114600,114600,114000,114000,7,380
2011/05/19,119400,120000,119400,120000,21,400
2011/05/31,126000,126000,123000,123000,2,410
2011/06/02,116499,118800,116499,118500,5,395
2011/06/06,115701,115701,115500,115500,4,385
2011/06/07,116001,118500,116001,118500,4,395
2011/06/16,116001,116001,115800,115800,24,386
2011/06/20,114399,114501,114000,114000,15,380
2011/06/22,116001,118899,116001,118500,10,395
2011/06/23,118500,119199,118500,119100,5,397
2011/06/24,119301,119400,117900,117900,14,393
2011/06/27,124800,124800,118599,123000,25,410
2011/06/28,123000,123000,118599,120000,13,400
2011/07/08,129999,129999,125400,129300,40,431
2011/07/11,129000,129999,129000,129300,16,431
2011/07/12,131499,131499,129300,129600,6,432
2011/07/13,129999,129999,127200,127200,12,424
2011/07/19,129999,132999,128601,129000,17,430
2011/07/25,132300,132300,132201,132300,12,441
2011/08/01,128499,128499,127500,127500,5,425
2011/08/04,131001,131001,126999,129900,16,433
2011/08/18,121500,123000,121500,123000,4,410
2011/09/02,123900,123900,123900,123900,5,413
2011/09/13,120000,120000,120000,120000,1,400
2011/09/14,120000,121500,120000,121500,3,405
2011/09/16,128001,128001,127800,127800,4,426
2011/09/27,122601,123000,122499,123000,5,410
2011/09/28,125799,125799,124500,124500,3,415
2011/10/04,122100,122100,122100,122100,2,407
2011/10/06,123000,123000,123000,123000,1,410
2011/10/07,122001,122100,122001,122100,2,407
2011/10/20,128001,128499,127200,127200,5,424
2011/10/25,129501,129501,129000,129000,7,430
2011/10/28,129600,129600,129600,129600,4,432
2011/10/31,129000,129000,129000,129000,1,430
2011/11/09,129300,129501,129000,129000,8,430
2011/11/11,129000,129000,128799,129000,5,430
2011/11/15,131301,132999,131100,131100,3,437
2011/11/16,131199,133899,131199,133500,29,445
2011/11/17,134400,144900,134400,139800,78,466
2011/11/18,140001,142800,140001,142800,25,476
2011/11/21,141000,158001,141000,145200,46,484
2011/11/22,148200,165999,144600,156000,71,520
2011/11/25,159999,159999,148500,148500,21,495
2011/12/02,147999,153000,147999,153000,20,510
2011/12/06,152499,153000,150201,153000,14,510
2011/12/12,171999,171999,167499,168000,20,560
2011/12/14,168501,171999,165999,169500,35,565
2011/12/15,165501,165999,162999,165000,17,550
2011/12/16,161001,163800,161001,163800,16,546
2011/12/20,161199,163500,161199,163500,12,545
2011/12/22,165000,165000,161301,163500,9,545
2011/12/26,165000,168000,165000,165000,16,550
2011/12/28,168000,168000,168000,168000,2,560
2012/01/04,166101,180000,166101,174000,43,580
2012/01/05,172101,177000,171999,174900,17,583
2012/01/11,176001,183000,174999,183000,28,610
2012/01/12,186999,195000,185001,192000,56,640
2012/02/02,249699,251001,237000,238200,80,794
2012/02/07,234999,247500,228999,240300,96,801
2012/02/20,225999,225999,222501,225000,46,750
2012/02/23,232599,234900,225999,229500,58,765
2012/02/27,212100,217701,210099,216300,95,721
2012/02/28,216801,219900,213000,219900,25,733
2012/03/05,221799,234501,221799,231000,108,770
2012/03/08,249999,252000,241200,249000,55,830
2012/03/09,249999,257001,246501,252000,48,840
2012/03/13,260001,261999,257001,261000,29,870
2012/03/16,270000,285300,270000,285300,112,951
2012/03/23,290001,290001,260001,288000,173,960
2012/03/27,279000,281001,273000,277500,67,925
2012/03/30,290001,290001,282999,285000,29,950
2012/04/04,312999,320001,302001,306000,159,1020
2012/04/06,306501,308001,297999,303000,67,1010
2012/04/09,303000,313500,297999,313500,100,1045
2012/04/13,294999,294999,273999,274500,133,915
2012/04/16,276999,279999,267099,279900,114,933
2012/04/17,284901,292899,279900,292800,67,976
2012/04/19,291201,291501,281100,281100,76,937
2012/04/23,270900,273000,261999,264000,86,880
2012/04/24,263001,272799,262200,271800,69,906
2012/05/02,280599,291999,280599,289800,103,966
2012/05/10,253500,258000,251001,255000,69,850
2012/05/11,255000,255201,248001,251400,38,838
2012/05/17,210999,216999,203001,216300,277,721
2012/05/21,207999,210699,205101,210000,41,700
2012/05/22,215001,225501,214899,225000,58,750
2012/05/28,234999,245001,234999,235500,52,785
2012/05/29,233001,236901,225000,228000,62,760
2012/05/30,231999,242001,231999,238500,42,795
2012/06/04,256701,264999,248001,251100,66,837
2012/06/08,238101,240000,228600,229500,46,765
2012/06/22,224001,234999,222000,232800,46,776
2012/06/25,240000,243999,236001,237600,84,792
2012/06/27,243999,251901,240000,240000,69,800
2012/07/10,258000,258000,250299,252000,36,840
2012/07/11,255000,258999,250701,256500,33,855
2012/07/12,260001,264999,257001,257100,65,857
2012/07/20,258000,261999,258000,259200,6,864
2012/07/23,258999,258999,253101,253500,19,845
2012/07/25,249900,258000,244500,255000,26,850
2012/08/01,258000,263001,258000,261000,12,870
2012/08/07,239001,243000,239001,243000,12,810
2012/08/09,227499,232800,227499,228300,40,761
2012/08/14,234099,234099,230499,232800,10,776
2012/08/17,237000,240000,237000,240000,15,800
2012/08/20,243999,243999,240999,243900,8,813
2012/08/27,246099,249999,245100,245100,19,817
2012/08/29,241299,243000,240999,241500,8,805
2012/09/05,240999,240999,240000,240000,12,800
2012/09/13,249999,249999,248001,249900,6,833
2012/09/24,252999,252999,249999,252000,8,840
2012/09/25,252000,252000,250200,250200,7,834
2012/09/27,250200,252000,250200,252000,5,840
2012/10/05,270000,275001,270000,270000,34,900
2012/10/17,271899,276501,271899,274500,18,915
2012/10/23,271200,271200,270000,270000,13,900
2012/10/24,269001,272001,269001,270000,8,900
2012/10/25,270000,273501,269001,271500,12,905
2012/10/29,271899,279000,271899,279000,20,930
2012/10/30,275301,275400,271701,273000,11,910
2012/11/01,279000,288999,273900,274500,53,915
2012/11/02,275199,282000,275199,282000,27,940
2012/11/06,281100,290001,281100,287100,52,957
2012/11/07,287199,287199,282999,285900,29,953
2012/11/13,282600,288999,282600,288900,10,963
2012/11/14,289500,289500,289500,289500,1,965
2012/11/20,278001,282000,278001,282000,4,940
2012/11/22,276000,276801,262101,268800,97,896
2012/11/27,264999,270000,260001,270000,31,900
2012/12/10,272499,272499,269001,271200,25,904
2012/12/13,281100,282000,258000,266400,229,888
2012/12/17,267399,268800,264999,265800,43,886
2012/12/28,268800,269901,267999,269400,19,898
2013/01/10,288501,289401,286500,286500,73,955
2013/01/15,282000,282000,276801,279000,111,930
2013/01/16,276999,278499,273399,273600,57,912
2013/01/25,263499,265899,263001,263100,45,877
2013/01/28,264201,267999,264201,265800,78,886
2013/01/31,269001,270000,268200,268800,31,896
2013/02/06,260001,260499,257799,259800,78,866
2013/02/14,260001,260001,258801,259200,15,864
2013/02/15,257799,259899,255399,259800,34,866
2013/02/18,259101,262899,259101,262500,85,875
2013/02/21,264801,267900,264801,267900,55,893
2013/03/05,262800,265200,262800,263400,49,878
2013/03/12,285000,285000,276000,276000,49,920
2013/03/19,279300,281001,277800,277800,19,926
2013/03/26,279999,288900,277500,288900,91,963
2013/04/08,285000,285000,282000,285000,52,950
2013/04/10,288501,330000,288501,315000,289,1050
2013/04/18,374001,440001,366000,427500,282,1425
2013/05/02,399000,429999,387999,427500,168,1425
2013/05/10,410001,419499,408501,414000,41,1380
2013/05/16,407001,407001,369999,393000,68,1310
2013/05/17,413001,420000,399999,420000,65,1400
2013/05/22,408000,408000,399999,402000,28,1340
2013/05/27,358500,378000,357999,372000,22,1240
2013/05/30,363999,366501,360999,366000,23,1220
2013/06/06,369999,375000,357999,363000,28,1210
2013/06/07,345000,347001,324999,330000,30,1100
2013/06/13,378000,378000,368001,375000,3,1250
2013/06/25,413499,413499,406500,406500,33,1355
2013/06/26,399501,399501,392001,399000,7,1330
2013/06/27,399000,406500,399000,406500,17,1355
2013/07/08,418500,423000,418500,423000,10,1410
2013/07/11,429501,429501,420000,420000,7,1400
2013/07/17,408000,408000,399000,405000,21,1350
2013/07/22,408999,410001,399999,405000,14,1350
2013/07/29,393000,393000,390000,390000,9,1300
2013/07/31,399501,399999,398001,399000,18,1330
2013/08/05,389499,396000,389499,390000,13,1300
2013/08/15,389499,405000,387999,403500,48,1345
2013/08/19,402000,402000,393000,393000,8,1310
2013/09/05,3835,3835,3630,3660,7800,1220
2013/09/13,4100,4155,4050,4050,2100,1350
2013/09/18,4170,4170,4155,4170,1400,1390
2013/09/19,4200,4290,4200,4290,1800,1430
2013/09/24,4235,4255,4230,4230,400,1410
2013/10/01,4295,4350,4295,4350,1400,1450
2013/10/02,4280,4350,4215,4350,700,1450
2013/10/07,4300,4300,4170,4260,2600,1420
2013/10/10,4300,4460,4300,4440,900,1480
2013/10/15,4440,4450,4200,4410,3000,1470
2013/10/17,4225,4270,4215,4215,3900,1405
2013/10/18,4180,4215,4150,4155,7700,1385
2013/10/28,4030,4030,3935,3960,1300,1320
2013/11/07,3790,3800,3785,3795,1700,1265
2013/11/08,3795,3800,3755,3765,1400,1255
2013/11/11,3745,3750,3700,3750,2200,1250
2013/11/12,3795,3795,3720,3720,1000,1240
2013/11/14,3785,3830,3765,3765,1100,1255
2013/11/15,3765,3800,3765,3780,2700,1260
2013/11/18,3780,3790,3780,3780,1200,1260
2013/11/20,3800,3810,3800,3810,600,1270
2013/11/26,3880,3880,3870,3870,300,1290
2013/12/09,3935,4030,3890,3975,1300,1325
2013/12/10,3990,4135,3990,4065,5800,1355
2013/12/17,3970,3970,3890,3900,900,1300
2013/12/18,3970,3970,3900,3900,400,1300
2013/12/20,4050,4130,4050,4125,7300,1375
2013/12/24,4125,4175,4050,4050,24100,1350
2013/12/27,4070,4070,4010,4065,400,1355
2014/01/09,4300,4365,4300,4365,1600,1455
2014/01/16,4300,4355,4220,4320,1600,1440
2014/01/31,4540,4610,4505,4530,3300,1510
2014/02/04,4275,4395,4170,4395,3200,1465
2014/02/06,4520,4590,4325,4395,2600,1465
2014/02/19,4410,4480,4380,4380,1700,1460
2014/02/28,4270,4270,4260,4260,300,1420
2014/03/10,4165,4200,4100,4110,2600,1370
2014/03/18,3945,4000,3915,3945,1900,1315
2014/03/24,3890,3950,3885,3930,2500,1310
2014/04/08,4195,4195,4150,4170,2100,1390
2014/04/09,4170,4230,4170,4170,1900,1390
2014/04/15,3950,3950,3840,3840,3100,1280
2014/04/23,3860,3900,3850,3855,2500,1285
2014/04/28,4100,4100,4080,4095,1800,1365
2014/05/09,3935,4005,3925,3960,2200,1320
2014/05/12,4045,4045,3960,3960,800,1320
2014/05/21,4065,4065,3995,4050,300,1350
2014/05/22,4050,4050,3970,3975,3200,1325
2014/05/26,4000,4070,3970,4005,2700,1335
2014/06/04,4150,4200,4110,4200,1500,1400
2014/06/05,4185,4310,4185,4230,2300,1410
2014/06/12,4470,4550,4405,4500,3100,1500
2014/06/13,4440,4500,4335,4500,2800,1500
2014/06/20,4225,4270,4150,4200,2800,1400
2014/07/02,4050,4090,4040,4050,2300,1350
2014/07/03,4060,4070,4050,4050,2100,1350
2014/07/04,4075,4155,4075,4140,1000,1380
2014/07/07,4140,4295,4140,4260,2300,1420
2014/07/11,4370,4370,4255,4260,4300,1420
2014/07/25,4320,4320,4260,4260,800,1420
2014/07/31,4350,4350,4320,4320,400,1440
2014/08/26,4350,4350,4350,4350,300,1450
2014/09/26,4350,4350,4350,4350,200,1450
2014/09/29,4350,4350,4350,4350,200,1450
2014/10/09,4290,4290,4290,4290,200,1430
2014/10/20,4200,4200,4200,4200,100,1400
2014/10/21,4200,4200,4200,4200,100,1400
2014/10/22,4200,4200,4200,4200,200,1400
2014/10/23,4200,4200,4200,4200,200,1400
2014/10/27,4320,4320,4320,4320,300,1440
2014/12/04,4650,4650,4650,4650,300,1550
2014/12/09,4590,4590,4590,4590,400,1530
2014/12/17,4455,4455,4455,4455,300,1485
2014/12/19,4680,4680,4680,4680,100,1560
2014/12/26,4650,4650,4650,4650,100,1550
2015/01/08,4785,4785,4785,4785,300,1595
2015/02/25,1799,1837,1799,1833,2700,1833
2015/02/26,1832,1860,1820,1849,2700,1849
2015/02/27,1860,1879,1844,1846,2100,1846
2015/03/02,1829,1841,1820,1840,1600,1840
2015/03/03,1813,1814,1719,1760,7400,1760
2015/03/04,1760,1830,1760,1802,2200,1802
2015/03/05,1802,1834,1802,1834,400,1834
2015/03/06,1804,1806,1800,1800,1600,1800
2015/03/09,1797,1832,1790,1832,1800,1832
2015/03/10,1815,1829,1815,1829,200,1829
2015/03/11,1800,1823,1727,1820,1500,1820
2015/03/13,1831,1836,1831,1831,1000,1831
2015/03/16,1800,1810,1760,1810,2200,1810
2015/03/17,1790,1800,1760,1799,2400,1799
2015/03/18,1799,1799,1764,1799,800,1799
2015/03/19,1824,1830,1795,1828,1800,1828
2015/03/20,1800,1800,1800,1800,500,1800
2015/03/23,1770,1801,1770,1801,1100,1801
2015/03/24,1828,1828,1780,1800,700,1800
2015/03/25,1836,1836,1801,1801,800,1801
2015/03/26,1835,1835,1800,1800,1000,1800
2015/03/27,1820,1820,1800,1800,300,1800
2015/03/30,1781,1800,1774,1799,800,1799
2015/03/31,1773,1845,1773,1802,3100,1802
2015/04/01,1845,1845,1801,1801,300,1801
2015/04/03,1801,1802,1800,1802,500,1802
2015/04/06,1802,1805,1802,1804,1500,1804
2015/04/07,1805,1805,1805,1805,700,1805
2015/04/08,1800,1803,1800,1801,600,1801
2015/04/09,1830,1830,1829,1829,300,1829
2015/04/10,1850,1850,1850,1850,1300,1850
2015/04/13,1850,1850,1850,1850,400,1850
2015/04/14,1858,1858,1830,1831,1400,1831
2015/04/15,1831,1852,1831,1852,500,1852
2015/04/16,1858,1858,1833,1833,2400,1833
2015/04/17,1830,1851,1830,1851,1900,1851
2015/04/20,1870,1900,1858,1866,11800,1866
2015/04/21,1860,1888,1860,1869,3500,1869
2015/04/22,1883,1883,1856,1860,2500,1860
2015/04/23,1877,1877,1861,1861,400,1861
2015/04/24,1861,1875,1860,1875,700,1875
2015/04/27,1875,1900,1875,1895,1700,1895
2015/04/28,1890,1895,1890,1894,1300,1894
2015/04/30,1871,1886,1857,1857,1500,1857
2015/05/01,1893,1894,1864,1893,1800,1893
2015/05/07,1893,1893,1865,1890,800,1890
2015/05/08,1910,1945,1910,1945,600,1945
2015/05/11,1945,1948,1906,1918,4100,1918
2015/05/12,1902,1902,1902,1902,300,1902
2015/05/13,1909,1909,1893,1908,1000,1908
2015/05/14,1908,1920,1890,1909,1400,1909
2015/05/15,1928,1928,1928,1928,100,1928
2015/05/18,1921,1921,1902,1902,800,1902
2015/05/19,1935,1935,1921,1921,500,1921
2015/05/20,1935,1999,1925,1998,3100,1998
2015/05/21,2000,2030,1998,2014,3400,2014
2015/05/22,2014,2014,2003,2014,1200,2014
2015/05/25,2021,2037,2014,2014,2200,2014
2015/05/26,2035,2036,2035,2036,500,2036
2015/05/27,2035,2040,2035,2040,600,2040
2015/05/28,2049,2049,2010,2010,1400,2010
2015/05/29,2039,2040,2003,2039,2600,2039
2015/06/01,2030,2039,2030,2039,1400,2039
2015/06/02,2040,2040,2040,2040,500,2040
2015/06/03,2030,2030,2015,2021,700,2021
2015/06/04,2026,2026,2001,2010,2400,2010
2015/06/05,1996,1996,1996,1996,100,1996
2015/06/08,1996,2000,1995,1995,600,1995
2015/06/09,1955,1955,1944,1947,3100,1947
2015/06/10,1947,1947,1940,1940,400,1940
2015/06/11,1908,1940,1908,1940,700,1940
2015/06/12,1913,1920,1910,1920,700,1920
2015/06/15,1910,1920,1910,1920,200,1920
2015/06/16,1920,1920,1904,1905,1200,1905
2015/06/17,1903,1940,1900,1905,2800,1905
2015/06/18,1903,1903,1900,1900,900,1900
2015/06/19,1920,2000,1920,2000,7900,2000
2015/06/22,2019,2019,2000,2000,600,2000
2015/06/23,2010,2044,2010,2044,600,2044
2015/06/24,2010,2046,2010,2040,1400,2040
2015/06/25,2049,2060,2010,2060,3800,2060
2015/06/29,2059,2060,2045,2060,1900,2060
2015/06/30,2060,2060,1998,1998,1500,1998
2015/07/01,2058,2059,2008,2059,2800,2059
