2011/12/20,53000,53000,50800,51900,45,519
2011/12/21,52600,53100,51600,51800,27,518
2011/12/22,53300,53500,52400,52400,30,524
2011/12/26,52900,52900,51800,51800,24,518
2011/12/27,51800,52000,51500,51500,13,515
2011/12/28,51500,51500,51500,51500,3,515
2011/12/29,51500,51500,51400,51400,7,514
2011/12/30,51500,51800,50600,50900,27,509
2012/01/04,51900,53900,50900,51000,50,510
2012/01/05,51200,51500,51100,51500,26,515
2012/01/06,51800,52300,51500,51500,13,515
2012/01/10,52100,53500,51800,51800,24,518
2012/01/11,52500,52500,51300,51300,52,513
2012/01/12,51700,51700,51000,51000,23,510
2012/01/13,51700,51800,51100,51500,13,515
2012/01/16,51800,51800,50800,51500,17,515
2012/01/17,51000,51000,49550,50000,137,500
2012/01/19,50100,50300,49700,50000,29,500
2012/01/20,50500,50700,50000,50400,19,504
2012/01/23,50900,51500,50800,51000,53,510
2012/01/24,52000,53100,51500,52000,68,520
2012/01/25,51500,52300,51500,52300,18,523
2012/01/26,52100,52300,51900,51900,22,519
2012/01/27,52700,52800,51900,52300,57,523
2012/01/30,52900,53400,52400,53100,50,531
2012/01/31,53500,53500,52700,53400,24,534
2012/02/01,53700,53700,52600,52800,22,528
2012/02/02,52800,53600,52800,53600,37,536
2012/02/03,53500,53900,51500,53300,59,533
2012/02/06,53500,53700,51500,51500,86,515
2012/02/07,52400,52400,51500,52300,30,523
2012/02/08,52300,52300,51800,52000,9,520
2012/02/09,51900,52000,51400,51900,53,519
2012/02/10,51800,51900,51100,51100,51,511
2012/02/13,51000,51800,51000,51800,20,518
2012/02/14,51500,51600,50800,50900,68,509
2012/02/15,51100,51400,50900,51300,43,513
2012/02/16,52500,54000,52100,52700,241,527
2012/02/17,54000,55900,53800,54200,391,542
2012/02/20,55600,55900,54400,55500,643,555
2012/02/21,55500,55500,54000,54300,204,543
2012/02/22,55000,55200,54400,54900,138,549
2012/02/23,54900,55500,54300,55200,496,552
2012/02/24,55700,56000,54700,55400,641,554
2012/02/27,55500,56000,55200,55500,690,555
2012/02/28,56000,56000,54900,55300,185,553
2012/02/29,55600,55700,54800,54800,140,548
2012/03/01,55000,55500,54800,55000,88,550
2012/03/02,55000,55700,54900,55600,163,556
2012/03/05,55900,56400,55100,56200,782,562
2012/03/06,60200,64300,57800,59700,3049,597
2012/03/07,59600,60000,58100,60000,998,600
2012/03/08,60800,62900,60100,62900,1637,629
2012/03/09,63500,64000,61600,63000,1414,630
2012/03/12,64000,66000,63900,64200,1529,642
2012/03/13,64900,64900,62500,63000,835,630
2012/03/14,64000,64000,60000,62600,895,626
2012/03/15,62400,62900,60400,62900,470,629
2012/03/16,62500,62700,61100,61400,490,614
2012/03/19,61400,62400,61000,62300,403,623
2012/03/21,62300,65000,62000,64500,761,645
2012/03/22,64800,66000,64400,65900,989,659
2012/03/23,65900,65900,63900,65000,532,650
2012/03/26,66000,68000,65400,67900,1161,679
2012/03/27,68000,68600,67200,67600,836,676
2012/03/28,645,665,631,661,56400,661
2012/03/29,681,687,675,681,74300,681
2012/03/30,694,695,665,683,74200,683
2012/04/02,703,779,701,750,264200,750
2012/04/03,749,774,727,766,180300,766
2012/04/04,775,809,752,770,213100,770
2012/04/05,768,824,735,824,160300,824
2012/04/06,836,850,831,832,232400,832
2012/04/09,838,935,838,906,456200,906
2012/04/10,905,917,862,864,300400,864
2012/04/11,826,905,820,896,192900,896
2012/04/12,911,914,881,900,110100,900
2012/04/13,910,913,880,889,80900,889
2012/04/16,877,877,847,859,103400,859
2012/04/17,830,850,802,826,178700,826
2012/04/18,830,846,796,800,120200,800
2012/04/19,785,820,775,791,157000,791
2012/04/20,790,808,778,797,61100,797
2012/04/23,800,835,800,835,107400,835
2012/04/24,810,835,810,826,69500,826
2012/04/25,835,858,835,857,89500,857
2012/04/26,859,859,830,844,51600,844
2012/04/27,844,844,820,825,59700,825
2012/05/01,835,845,810,811,49700,811
2012/05/02,824,873,813,860,98500,860
2012/05/07,830,856,830,845,61600,845
2012/05/08,843,859,835,858,38700,858
2012/05/09,845,878,845,867,74900,867
2012/05/10,861,882,851,881,54400,881
2012/05/11,866,889,851,854,73900,854
2012/05/14,830,835,746,746,140200,746
2012/05/15,740,769,700,753,120500,753
2012/05/16,720,739,702,726,80200,726
2012/05/17,711,750,711,739,38200,739
2012/05/18,710,722,709,709,29800,709
2012/05/21,718,728,715,720,23800,720
2012/05/22,726,733,710,716,44300,716
2012/05/23,725,725,697,699,46400,699
2012/05/24,718,718,660,699,56100,699
2012/05/25,717,717,697,704,44700,704
2012/05/28,707,707,688,689,31700,689
2012/05/29,690,690,616,640,168200,640
2012/05/30,645,657,641,649,69900,649
2012/05/31,654,671,645,670,70000,670
2012/06/01,680,681,662,679,58900,679
2012/06/04,660,660,640,646,50100,646
2012/06/05,660,670,650,667,39100,667
2012/06/06,684,684,670,684,40100,684
2012/06/07,710,710,704,705,47400,705
2012/06/08,715,715,685,704,48200,704
2012/06/11,719,730,712,730,35700,730
2012/06/12,729,753,724,751,70600,751
2012/06/13,776,780,736,750,61400,750
2012/06/14,746,746,737,740,36500,740
2012/06/15,747,747,730,736,30400,736
2012/06/18,737,739,721,734,52400,734
2012/06/19,735,735,701,720,43000,720
2012/06/20,735,745,725,745,32600,745
2012/06/21,754,763,735,760,45800,760
2012/06/22,755,755,741,746,37700,746
2012/06/25,731,743,722,735,20200,735
2012/06/26,734,779,730,779,74700,779
2012/06/27,769,769,758,765,14200,765
2012/06/28,760,778,756,765,15700,765
2012/06/29,766,800,760,799,57800,799
2012/07/02,820,820,803,820,86200,820
2012/07/03,820,855,815,836,122600,836
2012/07/04,848,850,821,839,59300,839
2012/07/05,838,838,825,838,31100,838
2012/07/06,838,840,830,840,28000,840
2012/07/09,840,840,829,832,27000,832
2012/07/10,842,842,818,828,25300,828
2012/07/11,820,826,814,823,38800,823
2012/07/12,826,829,813,820,29900,820
2012/07/13,807,814,804,807,15200,807
2012/07/17,800,827,800,820,26900,820
2012/07/18,835,836,825,828,15800,828
2012/07/19,829,830,811,817,19300,817
2012/07/20,816,816,800,816,13500,816
2012/07/23,799,810,795,806,16500,806
2012/07/24,804,805,780,789,22100,789
2012/07/25,770,780,761,775,20500,775
2012/07/26,775,799,770,798,8700,798
2012/07/27,800,800,778,791,11600,791
2012/07/30,799,800,755,781,20200,781
2012/07/31,782,795,781,787,11000,787
2012/08/01,750,750,694,694,122900,694
2012/08/02,702,730,680,721,53400,721
2012/08/03,706,779,701,774,61200,774
2012/08/06,759,763,728,729,43600,729
2012/08/07,738,748,730,748,40000,748
2012/08/08,744,747,732,733,20300,733
2012/08/09,740,761,735,760,10800,760
2012/08/10,750,758,740,741,8600,741
2012/08/13,741,754,741,753,4900,753
2012/08/14,752,752,742,746,9500,746
2012/08/15,747,757,744,748,11100,748
2012/08/16,746,751,738,745,10400,745
2012/08/17,746,746,732,741,18500,741
2012/08/20,735,752,735,740,25500,740
2012/08/21,738,742,725,735,29200,735
2012/08/22,727,734,727,733,6800,733
2012/08/23,793,810,760,778,104500,778
2012/08/24,780,805,778,800,91200,800
2012/08/27,815,816,808,814,55300,814
2012/08/28,814,820,811,818,39000,818
2012/08/29,820,858,819,840,124300,840
2012/08/30,831,840,810,825,50900,825
2012/08/31,815,824,811,812,24100,812
2012/09/03,809,816,780,805,31500,805
2012/09/04,809,809,785,791,24200,791
2012/09/05,780,793,773,779,19900,779
2012/09/06,784,794,778,784,14000,784
2012/09/07,791,795,777,783,10800,783
2012/09/10,785,791,777,789,8200,789
2012/09/11,787,792,784,788,15200,788
2012/09/12,792,792,778,779,11700,779
2012/09/13,780,781,761,766,30700,766
2012/09/14,771,776,765,775,13900,775
2012/09/18,779,810,779,792,58200,792
2012/09/19,790,807,782,805,28800,805
2012/09/20,806,806,794,797,11900,797
2012/09/21,806,808,793,804,11500,804
2012/09/24,807,810,798,810,27900,810
2012/09/25,797,802,790,801,35400,801
2012/09/26,790,796,788,794,8900,794
2012/09/27,799,802,795,798,12300,798
2012/09/28,798,800,769,796,24400,796
2012/10/01,776,790,770,790,36600,790
2012/10/02,794,794,773,775,35000,775
2012/10/03,771,775,765,766,23200,766
2012/10/04,754,766,743,755,38100,755
2012/10/05,756,764,751,756,21300,756
2012/10/09,752,753,743,747,19900,747
2012/10/10,741,749,730,749,23300,749
2012/10/11,747,747,735,735,16500,735
2012/10/12,740,743,731,732,20500,732
2012/10/15,734,744,732,738,14500,738
2012/10/16,753,757,736,749,31000,749
2012/10/17,750,777,750,773,16900,773
2012/10/18,773,774,761,774,18600,774
2012/10/19,780,780,760,770,17500,770
2012/10/22,765,770,764,770,6100,770
2012/10/23,765,772,765,768,13400,768
2012/10/24,768,768,761,767,14700,767
2012/10/25,763,779,762,777,16500,777
2012/10/26,767,775,767,775,8800,775
2012/10/29,760,766,750,760,15100,760
2012/10/30,715,739,715,727,67900,727
2012/10/31,725,738,725,731,23800,731
2012/11/01,733,734,727,727,20100,727
2012/11/02,735,735,727,734,19800,734
2012/11/05,730,740,730,740,15700,740
2012/11/06,739,739,731,736,13300,736
2012/11/07,735,735,726,726,9700,726
2012/11/08,723,724,715,718,22100,718
2012/11/09,715,716,709,714,12400,714
2012/11/12,709,709,688,695,36000,695
2012/11/13,689,695,686,689,10300,689
2012/11/14,690,690,670,678,19400,678
2012/11/15,671,672,652,653,71900,653
2012/11/16,660,674,656,663,62200,663
2012/11/19,673,690,666,680,24400,680
2012/11/20,698,698,688,689,17400,689
2012/11/21,685,685,676,676,26800,676
2012/11/22,677,677,656,668,47900,668
2012/11/26,668,687,668,678,12500,678
2012/11/27,685,686,678,678,11600,678
2012/11/28,680,690,680,689,18900,689
2012/11/29,681,689,680,689,13000,689
2012/11/30,689,689,672,673,35600,673
2012/12/03,674,674,667,668,26200,668
2012/12/04,675,690,675,689,19600,689
2012/12/05,689,695,688,691,16800,691
2012/12/06,696,714,693,713,28500,713
2012/12/07,715,745,713,739,47800,739
2012/12/10,740,748,722,732,33400,732
2012/12/11,740,744,715,738,26900,738
2012/12/12,738,738,728,734,15300,734
2012/12/13,732,738,722,738,22900,738
2012/12/14,752,777,752,777,181600,777
2012/12/17,781,795,776,780,69400,780
2012/12/18,780,784,775,781,38200,781
2012/12/19,781,784,771,771,35300,771
2012/12/20,776,779,762,765,34700,765
2012/12/21,762,770,750,750,39500,750
2012/12/25,745,747,724,729,56000,729
2012/12/26,728,734,728,730,22900,730
2012/12/27,731,738,730,731,22100,731
2012/12/28,731,740,731,736,36200,736
2013/01/04,751,764,741,758,73400,758
2013/01/07,770,787,762,780,96000,780
2013/01/08,786,792,782,792,50500,792
2013/01/09,796,817,795,817,84800,817
2013/01/10,807,829,807,828,58000,828
2013/01/11,824,828,807,824,81600,824
2013/01/15,810,825,806,817,67800,817
2013/01/16,817,817,798,802,49200,802
2013/01/17,802,840,799,829,94600,829
2013/01/18,830,837,818,830,36400,830
2013/01/21,830,830,818,829,23400,829
2013/01/22,829,830,820,824,18700,824
2013/01/23,818,818,805,805,34500,805
2013/01/24,805,815,803,815,15600,815
2013/01/25,811,825,811,819,27500,819
2013/01/28,823,830,820,829,51700,829
2013/01/29,825,833,815,818,66700,818
2013/01/30,826,925,818,909,458900,909
2013/01/31,879,900,865,880,213700,880
2013/02/01,861,876,810,828,188400,828
2013/02/04,835,840,811,830,73800,830
2013/02/05,822,829,816,820,30700,820
2013/02/06,825,837,823,834,33000,834
2013/02/07,837,838,826,829,16800,829
2013/02/08,833,835,825,827,19100,827
2013/02/12,827,829,815,819,21000,819
2013/02/13,820,820,805,806,19100,806
2013/02/14,806,820,805,810,13700,810
2013/02/15,814,814,760,800,50100,800
2013/02/18,800,814,789,813,18200,813
2013/02/19,815,833,800,833,41100,833
2013/02/20,833,841,827,838,15200,838
2013/02/21,838,844,835,837,28200,837
2013/02/22,822,843,822,835,27100,835
2013/02/25,835,836,826,830,26700,830
2013/02/26,829,834,827,830,12300,830
2013/02/27,826,842,818,818,21000,818
2013/02/28,820,842,818,824,14100,824
2013/03/01,825,839,822,833,11100,833
2013/03/04,840,850,836,846,29300,846
2013/03/05,850,871,848,867,34700,867
2013/03/06,870,879,865,877,25000,877
2013/03/07,880,886,858,880,47800,880
2013/03/08,880,889,877,889,50000,889
2013/03/11,897,900,891,892,30600,892
2013/03/12,893,893,870,886,19700,886
2013/03/13,876,880,870,875,26000,875
2013/03/14,873,880,870,872,21100,872
2013/03/15,879,879,860,875,24800,875
2013/03/18,890,893,875,885,17500,885
2013/03/19,885,900,885,898,35000,898
2013/03/21,899,900,898,899,34200,899
2013/03/22,900,922,898,911,73300,911
2013/03/25,931,957,924,943,78100,943
2013/03/26,944,950,937,939,71000,939
2013/03/27,914,935,909,931,39400,931
2013/03/28,931,935,912,915,27200,915
2013/03/29,915,915,880,902,39600,902
2013/04/01,902,902,858,861,35600,861
2013/04/02,862,862,817,828,66600,828
2013/04/03,843,876,841,866,44000,866
2013/04/04,866,903,842,896,52100,896
2013/04/05,915,915,870,908,60100,908
2013/04/08,908,919,900,919,62000,919
2013/04/09,915,915,891,909,26900,909
2013/04/10,910,910,890,899,21000,899
2013/04/11,900,900,885,897,50700,897
2013/04/12,900,900,883,899,34200,899
2013/04/15,888,900,888,900,19400,900
2013/04/16,890,900,889,894,12700,894
2013/04/17,895,904,895,897,22600,897
2013/04/18,896,900,886,892,17200,892
2013/04/19,898,905,892,897,33300,897
2013/04/22,905,905,899,901,29100,901
2013/04/23,898,906,897,905,41700,905
2013/04/24,905,906,893,904,39700,904
2013/04/25,907,910,902,909,43400,909
2013/04/26,912,915,890,901,80900,901
2013/04/30,905,915,897,912,32200,912
2013/05/01,913,924,910,920,36600,920
2013/05/02,920,925,919,924,38400,924
2013/05/07,925,933,917,922,53800,922
2013/05/08,920,925,913,921,33600,921
2013/05/09,921,925,906,911,32800,911
2013/05/10,918,925,904,909,27900,909
2013/05/13,910,915,864,890,99800,890
2013/05/14,890,890,865,889,51500,889
2013/05/15,820,835,805,809,241500,809
2013/05/16,809,809,752,774,135600,774
2013/05/17,770,803,770,787,84000,787
2013/05/20,820,827,796,800,76200,800
2013/05/21,802,808,801,804,30600,804
2013/05/22,808,816,802,803,37300,803
2013/05/23,804,807,761,763,97100,763
2013/05/24,767,780,740,754,71900,754
2013/05/27,750,750,735,740,43000,740
2013/05/28,731,750,730,744,27900,744
2013/05/29,750,770,740,741,61100,741
2013/05/30,736,741,730,730,35700,730
2013/05/31,734,744,725,732,35000,732
2013/06/03,676,690,653,670,194500,670
2013/06/04,656,680,655,672,91800,672
2013/06/05,668,686,645,647,91600,647
2013/06/06,628,630,601,601,203500,601
2013/06/07,587,587,552,560,191500,560
2013/06/10,590,601,565,565,385700,565
2013/06/11,565,572,558,572,1073400,572
2013/06/12,569,576,562,571,202900,571
2013/06/13,555,555,525,531,607200,531
2013/06/14,543,544,531,532,264800,532
2013/06/17,529,542,527,531,206500,531
2013/06/18,532,541,525,525,790500,525
2013/06/19,527,549,527,537,342600,537
2013/06/20,540,541,529,534,191600,534
2013/06/21,528,534,515,532,226300,532
2013/06/24,534,541,530,538,158800,538
2013/06/25,538,539,524,532,115100,532
2013/06/26,532,534,516,525,117400,525
2013/06/27,530,540,519,540,154900,540
2013/06/28,540,544,531,543,161800,543
2013/07/01,546,552,538,551,170600,551
2013/07/02,553,554,538,548,235500,548
2013/07/03,548,550,542,549,135600,549
2013/07/04,549,550,541,549,135000,549
2013/07/05,550,588,545,586,454900,586
2013/07/08,592,601,568,574,523900,574
2013/07/09,575,581,567,578,222700,578
2013/07/10,575,577,568,571,205400,571
2013/07/11,568,574,565,572,176100,572
2013/07/12,570,573,566,568,127300,568
2013/07/16,573,575,570,572,108100,572
2013/07/17,572,577,568,569,263900,569
2013/07/18,568,569,558,566,282600,566
2013/07/19,565,565,558,559,189800,559
2013/07/22,560,562,555,557,80900,557
2013/07/23,556,556,550,550,104200,550
2013/07/24,546,555,540,550,122100,550
2013/07/25,548,559,548,552,101900,552
2013/07/26,549,550,546,546,79200,546
2013/07/29,536,544,530,530,131100,530
2013/07/30,532,548,531,548,80900,548
2013/07/31,541,541,523,523,177000,523
2013/08/01,543,573,542,573,577400,573
2013/08/02,574,574,563,570,239400,570
2013/08/05,582,598,570,593,610000,593
2013/08/06,599,617,590,597,562900,597
2013/08/07,587,590,566,574,243400,574
2013/08/08,566,577,556,561,187000,561
2013/08/09,566,574,562,564,112100,564
2013/08/12,564,564,550,550,111700,550
2013/08/13,550,560,550,560,59400,560
2013/08/14,565,570,555,563,74700,563
2013/08/15,563,563,550,555,95900,555
2013/08/16,555,564,552,562,75200,562
2013/08/19,563,564,555,556,53100,556
2013/08/20,555,557,544,544,103400,544
2013/08/21,544,550,538,541,67400,541
2013/08/22,540,554,539,552,59700,552
2013/08/23,556,558,546,548,70400,548
2013/08/26,548,552,540,542,45500,542
2013/08/27,543,549,542,543,31800,543
2013/08/28,537,541,531,535,60700,535
2013/08/29,535,538,532,535,39300,535
2013/08/30,534,536,526,528,72000,528
2013/09/02,534,534,526,530,44100,530
2013/09/03,537,541,531,538,65000,538
2013/09/04,533,546,533,545,49200,545
2013/09/05,548,550,533,535,98200,535
2013/09/06,538,539,529,530,73500,530
2013/09/09,535,537,531,536,34200,536
2013/09/10,537,540,533,538,72700,538
2013/09/11,539,545,537,541,87400,541
2013/09/12,544,547,539,542,71900,542
2013/09/13,550,555,545,555,149600,555
2013/09/17,563,577,562,570,195600,570
2013/09/18,579,583,562,565,187200,565
2013/09/19,566,573,566,572,102400,572
2013/09/20,570,571,556,564,128000,564
2013/09/24,565,570,562,565,96900,565
2013/09/25,566,569,559,559,120500,559
2013/09/26,551,566,550,566,66400,566
2013/09/27,562,565,557,559,48100,559
2013/09/30,555,557,551,552,44200,552
2013/10/01,553,555,550,551,83700,551
2013/10/02,555,559,546,549,87200,549
2013/10/03,545,550,540,545,72400,545
2013/10/04,538,544,534,540,58800,540
2013/10/07,540,548,538,545,66700,545
2013/10/08,546,555,542,552,81300,552
2013/10/09,555,558,551,558,76500,558
2013/10/10,560,568,560,568,142100,568
2013/10/11,568,570,561,564,102900,564
2013/10/15,565,568,561,564,58000,564
2013/10/16,564,572,562,569,92800,569
2013/10/17,573,576,570,576,116000,576
2013/10/18,576,580,569,579,139200,579
2013/10/21,581,602,581,597,335100,597
2013/10/22,600,601,585,590,182100,590
2013/10/23,590,594,576,586,123300,586
2013/10/24,580,589,573,589,62100,589
2013/10/25,590,593,585,593,82000,593
2013/10/28,599,633,599,624,485400,624
2013/10/29,626,628,610,612,340700,612
2013/10/30,619,619,611,613,235900,613
2013/10/31,614,630,614,625,273800,625
2013/11/01,633,635,589,605,338100,605
2013/11/05,615,616,603,611,98200,611
2013/11/06,611,615,601,605,91000,605
2013/11/07,614,624,610,615,125600,615
2013/11/08,616,618,610,612,81100,612
2013/11/11,613,617,575,598,156700,598
2013/11/12,600,601,580,597,85500,597
2013/11/13,593,594,590,592,70300,592
2013/11/14,593,606,592,601,72600,601
2013/11/15,600,600,595,597,95800,597
2013/11/18,599,605,595,601,70900,601
2013/11/19,596,605,596,603,55400,603
2013/11/20,597,598,584,597,107200,597
2013/11/21,595,595,582,586,107400,586
2013/11/22,587,591,576,579,144900,579
2013/11/25,581,586,581,586,48400,586
2013/11/26,584,598,584,596,100400,596
2013/11/27,595,600,592,597,65700,597
2013/11/28,595,599,592,597,55300,597
2013/11/29,593,595,590,592,68100,592
2013/12/02,594,608,594,604,139200,604
2013/12/03,605,607,601,601,89900,601
2013/12/04,600,623,598,609,234600,609
2013/12/05,609,612,591,600,140200,600
2013/12/06,595,600,590,595,76000,595
2013/12/09,604,605,599,602,76700,602
2013/12/10,603,603,598,598,35500,598
2013/12/11,598,600,594,599,82400,599
2013/12/12,595,597,593,596,58200,596
2013/12/13,599,599,591,592,105800,592
2013/12/16,592,594,584,586,64300,586
2013/12/17,585,587,582,587,44900,587
2013/12/18,582,589,582,587,48700,587
2013/12/19,584,589,584,585,55200,585
2013/12/20,582,583,580,581,43500,581
2013/12/24,582,583,570,574,126700,574
2013/12/25,572,576,570,575,63800,575
2013/12/26,585,598,580,593,126400,593
2013/12/27,598,606,593,604,44900,604
2013/12/30,602,609,601,609,60500,609
2014/01/06,610,614,591,599,144900,599
2014/01/07,609,609,600,602,59800,602
2014/01/08,606,614,602,612,74400,612
2014/01/09,613,623,611,612,93800,612
2014/01/10,611,612,603,608,57000,608
2014/01/14,606,615,601,603,69900,603
2014/01/15,608,610,600,605,60700,605
2014/01/16,608,609,602,604,45000,604
2014/01/17,605,610,603,607,46100,607
2014/01/20,609,611,605,605,55800,605
2014/01/21,603,607,603,604,39000,604
2014/01/22,605,606,603,604,37000,604
2014/01/23,604,605,601,601,38500,601
2014/01/24,600,605,592,598,104200,598
2014/01/27,595,596,583,583,95600,583
2014/01/28,583,594,583,589,48600,589
2014/01/29,592,603,592,603,19700,603
2014/01/30,600,600,592,595,40300,595
2014/01/31,596,597,584,592,55900,592
2014/02/03,584,589,573,573,80400,573
2014/02/04,565,565,551,561,169700,561
2014/02/05,571,580,562,570,82800,570
2014/02/06,570,587,569,583,47000,583
2014/02/07,590,597,589,597,48500,597
2014/02/10,605,610,598,608,67400,608
2014/02/12,609,615,605,612,89900,612
2014/02/13,614,615,604,608,37200,608
2014/02/14,605,612,596,609,91400,609
2014/02/17,600,608,587,588,55700,588
2014/02/18,592,601,590,601,48500,601
2014/02/19,601,601,592,594,18100,594
2014/02/20,592,603,591,597,29900,597
2014/02/21,597,605,596,602,31700,602
2014/02/24,602,610,602,608,40800,608
2014/02/25,610,613,605,613,61000,613
2014/02/26,610,614,607,609,105900,609
2014/02/27,607,608,601,603,30200,603
2014/02/28,611,611,596,602,31900,602
2014/03/03,605,607,592,605,33500,605
2014/03/04,610,610,605,610,30300,610
2014/03/05,612,614,610,612,48400,612
2014/03/06,614,626,612,624,84400,624
2014/03/07,616,623,616,620,22900,620
2014/03/10,624,633,623,627,51000,627
2014/03/11,633,643,633,641,88300,641
2014/03/12,639,639,628,628,52100,628
2014/03/13,625,633,622,629,46600,629
2014/03/14,620,625,600,607,90000,607
2014/03/17,601,608,592,592,46000,592
2014/03/18,600,610,597,605,30300,605
2014/03/19,605,608,600,603,26100,603
2014/03/20,605,606,588,590,58900,590
2014/03/24,593,627,592,618,82000,618
2014/03/25,625,635,612,622,79100,622
2014/03/26,628,634,624,628,83000,628
2014/03/27,620,629,616,622,56200,622
2014/03/28,623,640,622,640,83100,640
2014/03/31,640,655,638,655,122500,655
2014/04/01,655,657,648,657,65100,657
2014/04/02,659,661,637,642,98900,642
2014/04/03,636,644,629,634,79700,634
2014/04/04,640,649,638,641,34300,641
2014/04/07,640,655,640,648,76500,648
2014/04/08,648,650,633,633,37800,633
2014/04/09,625,628,613,616,41600,616
2014/04/10,617,626,614,622,51700,622
2014/04/11,615,626,607,619,50500,619
2014/04/14,617,635,612,615,18100,615
2014/04/15,616,621,612,612,16500,612
2014/04/16,613,634,613,634,35800,634
2014/04/17,640,640,632,634,23600,634
2014/04/18,644,646,624,636,34500,636
2014/04/21,637,641,635,639,7200,639
2014/04/22,639,639,633,637,18400,637
2014/04/23,635,638,632,636,14000,636
2014/04/24,640,640,632,635,12400,635
2014/04/25,630,642,630,640,40800,640
2014/04/28,640,641,631,639,21500,639
2014/04/30,640,640,631,634,17400,634
2014/05/01,630,636,627,636,17400,636
2014/05/02,639,641,634,641,13900,641
2014/05/07,632,634,622,623,27500,623
2014/05/08,621,630,620,625,9300,625
2014/05/09,632,632,625,629,9600,629
2014/05/12,626,636,619,619,9900,619
2014/05/13,539,585,539,576,144100,576
2014/05/14,573,592,573,590,59900,590
2014/05/15,590,592,577,591,31500,591
2014/05/16,596,596,577,580,50800,580
2014/05/19,584,588,577,578,15700,578
2014/05/20,578,589,578,579,14500,579
2014/05/21,578,582,575,576,12900,576
2014/05/22,586,588,573,588,35400,588
2014/05/23,592,596,588,593,24200,593
2014/05/26,594,597,593,595,11500,595
2014/05/27,597,599,579,580,54500,580
2014/05/28,594,594,581,584,74100,584
2014/05/29,589,589,585,589,28600,589
2014/05/30,589,591,575,585,67800,585
2014/06/02,595,596,580,589,30000,589
2014/06/03,599,600,591,594,64100,594
2014/06/04,590,600,590,593,35800,593
2014/06/05,593,600,590,592,34000,592
2014/06/06,592,600,589,592,23700,592
2014/06/09,597,605,593,600,30800,600
2014/06/10,600,602,593,597,23400,597
2014/06/11,595,600,592,599,16800,599
2014/06/12,596,601,594,596,16200,596
2014/06/13,592,605,592,602,49000,602
2014/06/16,601,604,599,603,17800,603
2014/06/17,605,610,604,609,20500,609
2014/06/18,610,625,610,622,38900,622
2014/06/19,632,643,632,640,57500,640
2014/06/20,639,640,630,640,50200,640
2014/06/23,635,635,612,626,51700,626
2014/06/24,620,623,611,617,42500,617
2014/06/25,616,623,615,619,29100,619
2014/06/26,618,619,610,613,23700,613
2014/06/27,613,625,605,621,48200,621
2014/06/30,620,630,617,627,27200,627
2014/07/01,635,635,618,625,37300,625
2014/07/02,632,639,627,631,54300,631
2014/07/03,625,629,621,623,18900,623
2014/07/04,623,629,622,625,15700,625
2014/07/07,629,630,626,627,6700,627
2014/07/08,625,626,621,622,21900,622
2014/07/09,620,620,610,613,16800,613
2014/07/10,616,616,605,606,12800,606
2014/07/11,603,610,596,602,28500,602
2014/07/14,607,615,600,612,13200,612
2014/07/15,613,617,613,615,6200,615
2014/07/16,615,615,603,606,10600,606
2014/07/17,606,609,601,607,10700,607
2014/07/18,601,610,596,602,22800,602
2014/07/22,602,610,601,607,16300,607
2014/07/23,610,610,601,602,10000,602
2014/07/24,606,606,601,606,9400,606
2014/07/25,602,605,600,604,16600,604
2014/07/28,609,610,598,604,22500,604
2014/07/29,606,608,606,608,6700,608
2014/07/30,606,607,603,605,12300,605
2014/07/31,602,610,598,599,39400,599
2014/08/01,607,620,604,616,83200,616
2014/08/04,620,620,618,618,28900,618
2014/08/05,614,619,614,615,26300,615
2014/08/06,614,619,610,616,26400,616
2014/08/07,611,618,611,617,30100,617
2014/08/08,614,620,610,615,35500,615
2014/08/11,616,624,616,623,48300,623
2014/08/12,625,626,620,626,28100,626
2014/08/13,626,628,618,625,25600,625
2014/08/14,625,627,620,626,15700,626
2014/08/15,628,628,616,617,37100,617
2014/08/18,617,622,613,615,22000,615
2014/08/19,614,620,614,616,39800,616
2014/08/20,617,622,616,619,32000,619
2014/08/21,619,623,619,623,21700,623
2014/08/22,623,625,619,621,13000,621
2014/08/25,619,620,615,616,15700,616
2014/08/26,622,625,617,622,19300,622
2014/08/27,618,620,615,620,16000,620
2014/08/28,620,621,614,621,14600,621
2014/08/29,620,621,619,620,5700,620
2014/09/01,625,625,620,624,15200,624
2014/09/02,628,630,625,629,47000,629
2014/09/03,630,630,626,630,18100,630
2014/09/04,630,635,628,629,27500,629
2014/09/05,628,630,616,623,26300,623
2014/09/08,628,631,628,631,25100,631
2014/09/09,632,635,623,627,17600,627
2014/09/10,628,632,628,631,28800,631
2014/09/11,633,634,629,631,16600,631
2014/09/12,628,634,628,632,38900,632
2014/09/16,632,637,632,634,29300,634
2014/09/17,635,639,633,636,14300,636
2014/09/18,635,645,635,645,46900,645
2014/09/19,647,650,645,650,62800,650
2014/09/22,650,659,649,654,57500,654
2014/09/24,652,656,652,654,34700,654
2014/09/25,656,665,654,664,53200,664
2014/09/26,659,660,653,658,43000,658
2014/09/29,656,661,640,657,52400,657
2014/09/30,657,657,646,653,44700,653
2014/10/01,650,663,648,660,38800,660
2014/10/02,660,660,633,634,75900,634
2014/10/03,634,653,634,646,48200,646
2014/10/06,653,664,647,662,32000,662
2014/10/07,665,686,659,680,135300,680
2014/10/08,680,707,670,695,209900,695
2014/10/09,694,698,675,677,87800,677
2014/10/10,666,669,651,661,52900,661
2014/10/14,641,664,641,656,74500,656
2014/10/15,658,691,657,690,87200,690
2014/10/16,672,672,658,658,50400,658
2014/10/17,660,670,611,627,69500,627
2014/10/20,648,667,643,665,40500,665
2014/10/21,675,700,675,691,78600,691
2014/10/22,694,697,661,668,136300,668
2014/10/23,672,680,667,673,38800,673
2014/10/24,683,685,669,674,26000,674
2014/10/27,684,691,675,689,43200,689
2014/10/28,694,694,674,677,40900,677
2014/10/29,686,686,671,679,37700,679
2014/10/30,675,681,661,661,220700,661
2014/10/31,667,684,663,674,112500,674
2014/11/04,694,696,667,686,295200,686
2014/11/05,683,700,681,700,121700,700
2014/11/06,700,723,697,717,139700,717
2014/11/07,719,719,712,717,61900,717
2014/11/10,720,727,710,725,98600,725
2014/11/11,725,740,710,716,114300,716
2014/11/12,714,727,712,715,35400,715
2014/11/13,711,732,711,731,51300,731
2014/11/14,738,739,724,733,42300,733
2014/11/17,733,733,715,717,44800,717
2014/11/18,716,729,716,723,40600,723
2014/11/19,728,729,717,720,31000,720
2014/11/20,725,733,718,729,53200,729
2014/11/21,734,756,732,756,87500,756
2014/11/25,765,777,760,769,58300,769
2014/11/26,754,769,753,757,50600,757
2014/11/27,767,770,761,761,28600,761
2014/11/28,755,770,754,769,32100,769
2014/12/01,770,784,770,782,53600,782
2014/12/02,781,792,778,792,43400,792
2014/12/03,793,795,788,794,32000,794
2014/12/04,795,820,791,808,127300,808
2014/12/05,811,818,808,810,40400,810
2014/12/08,825,829,802,810,53000,810
2014/12/09,804,813,778,786,48300,786
2014/12/10,768,779,745,761,82700,761
2014/12/11,741,775,738,775,94800,775
2014/12/12,780,780,760,766,73000,766
2014/12/15,766,773,755,761,39700,761
2014/12/16,750,758,747,753,57300,753
2014/12/17,745,758,744,751,49000,751
2014/12/18,773,778,770,774,31300,774
2014/12/19,789,795,780,792,57000,792
2014/12/22,788,798,788,796,25300,796
2014/12/24,799,800,792,796,28000,796
2014/12/25,796,797,785,788,27600,788
2014/12/26,784,800,782,799,22900,799
2014/12/29,808,808,799,802,23100,802
2014/12/30,799,805,799,801,23200,801
2015/01/05,788,799,782,789,21300,789
2015/01/06,789,792,770,770,37400,770
2015/01/07,765,769,751,762,39700,762
2015/01/08,766,783,766,777,24300,777
2015/01/09,777,781,769,778,17200,778
2015/01/13,765,776,756,774,22000,774
2015/01/14,760,767,757,758,22600,758
2015/01/15,763,773,750,768,29100,768
2015/01/16,759,765,745,754,31100,754
2015/01/19,764,764,742,751,28600,751
2015/01/20,758,769,750,769,30800,769
2015/01/21,768,774,755,765,23300,765
2015/01/22,761,765,755,765,21400,765
2015/01/23,765,777,759,777,27500,777
2015/01/26,768,777,762,774,28100,774
2015/01/27,779,793,770,790,35300,790
2015/01/28,791,805,790,802,41300,802
2015/01/29,800,820,800,808,61800,808
2015/01/30,830,860,816,843,237300,843
2015/02/02,860,888,843,879,129300,879
2015/02/03,881,884,855,858,79200,858
2015/02/04,856,877,856,868,49000,868
2015/02/05,875,899,870,898,99500,898
2015/02/06,898,906,877,880,73900,880
2015/02/09,891,900,886,899,56100,899
2015/02/10,894,896,884,890,20200,890
2015/02/12,890,915,889,912,103800,912
2015/02/13,905,929,901,926,84900,926
2015/02/16,915,925,910,912,59400,912
2015/02/17,912,916,871,890,79400,890
2015/02/18,883,899,883,887,47500,887
2015/02/19,895,918,890,917,66700,917
2015/02/20,913,940,906,937,122200,937
2015/02/23,937,954,932,945,91000,945
2015/02/24,950,1017,950,1000,214200,1000
2015/02/25,1000,1010,979,997,123800,997
2015/02/26,998,1037,998,1034,141800,1034
2015/02/27,1049,1126,1047,1084,299000,1084
2015/03/02,1097,1143,1096,1136,188000,1136
2015/03/03,1140,1164,1094,1104,151700,1104
2015/03/04,1120,1180,1116,1140,179600,1140
2015/03/05,1130,1189,1130,1184,149300,1184
2015/03/06,1200,1278,1196,1252,378800,1252
2015/03/09,1230,1261,1210,1243,164500,1243
2015/03/10,1230,1251,1145,1155,293300,1155
2015/03/11,1125,1159,1092,1124,251800,1124
2015/03/12,1124,1155,1110,1131,117400,1131
2015/03/13,1160,1182,1136,1159,192600,1159
2015/03/16,1151,1151,1112,1120,86300,1120
2015/03/17,1138,1160,1120,1124,125700,1124
2015/03/18,1111,1114,1051,1072,248300,1072
2015/03/19,1102,1110,1035,1046,206400,1046
2015/03/20,1059,1075,1032,1070,97600,1070
2015/03/23,1063,1084,1061,1081,87800,1081
2015/03/24,1080,1091,1058,1068,89600,1068
2015/03/25,1061,1075,1055,1063,69100,1063
2015/03/26,1048,1054,1011,1031,128300,1031
2015/03/27,1011,1063,1007,1012,77300,1012
2015/03/30,1010,1019,1003,1016,53000,1016
2015/03/31,1010,1025,1009,1012,61700,1012
2015/04/01,1012,1024,992,1010,71700,1010
2015/04/02,1018,1067,1016,1054,128000,1054
2015/04/03,1050,1060,1033,1059,78600,1059
2015/04/06,1054,1060,1038,1047,99900,1047
2015/04/07,1045,1048,994,1017,196800,1017
2015/04/08,1024,1038,1012,1036,63300,1036
2015/04/09,1050,1059,1033,1058,85600,1058
2015/04/10,1074,1090,1048,1060,103800,1060
2015/04/13,1070,1075,1050,1074,54300,1074
2015/04/14,1088,1109,1083,1105,127900,1105
2015/04/15,1103,1105,1059,1065,84300,1065
2015/04/16,1053,1055,1034,1050,62200,1050
2015/04/17,1040,1049,1027,1033,40500,1033
2015/04/20,1021,1051,1021,1037,34500,1037
2015/04/21,1030,1046,1021,1034,46400,1034
2015/04/22,1034,1040,1026,1028,32600,1028
2015/04/23,1028,1031,1017,1019,39100,1019
2015/04/24,1015,1021,1009,1011,42900,1011
2015/04/27,1011,1020,1006,1009,23600,1009
2015/04/28,1026,1029,1004,1028,49100,1028
2015/04/30,1020,1050,1020,1041,84200,1041
2015/05/01,1041,1043,1014,1024,66000,1024
2015/05/07,1033,1054,1027,1044,55000,1044
2015/05/08,1033,1047,1014,1025,48200,1025
2015/05/11,1043,1043,1034,1037,16500,1037
2015/05/12,1026,1035,1023,1033,22400,1033
2015/05/13,1027,1036,1022,1033,30300,1033
2015/05/14,1040,1042,1025,1038,48500,1038
2015/05/15,1103,1125,1085,1100,220400,1100
2015/05/18,1105,1105,1057,1100,163800,1100
2015/05/19,1105,1136,1087,1100,108900,1100
2015/05/20,1118,1129,1110,1126,75700,1126
2015/05/21,1136,1255,1136,1200,251400,1200
2015/05/22,1183,1185,1140,1173,138600,1173
2015/05/25,1173,1200,1166,1185,101200,1185
2015/05/26,1185,1203,1182,1188,56800,1188
2015/05/27,1180,1207,1165,1195,69800,1195
2015/05/28,1220,1274,1215,1261,208600,1261
2015/05/29,1241,1263,1232,1241,77000,1241
2015/06/01,1247,1260,1236,1256,88300,1256
2015/06/02,1259,1308,1252,1293,132600,1293
2015/06/03,1275,1281,1231,1235,97400,1235
2015/06/04,1222,1225,1200,1204,95600,1204
2015/06/05,1201,1237,1200,1230,57100,1230
2015/06/08,1222,1250,1209,1242,56100,1242
2015/06/09,1236,1236,1199,1200,64900,1200
2015/06/10,1191,1221,1189,1201,65700,1201
2015/06/11,1205,1280,1205,1270,115300,1270
2015/06/12,1290,1327,1270,1295,159400,1295
2015/06/15,1295,1295,1263,1265,53200,1265
2015/06/16,1305,1366,1305,1324,247000,1324
2015/06/17,1354,1400,1333,1394,218600,1394
2015/06/18,1380,1454,1376,1427,226500,1427
2015/06/19,1451,1484,1450,1480,244700,1480
2015/06/22,1500,1559,1436,1456,387200,1456
2015/06/23,1445,1495,1439,1469,133700,1469
2015/06/24,1490,1493,1441,1453,82900,1453
2015/06/25,1453,1542,1453,1520,226900,1520
2015/06/26,1548,1603,1505,1571,293600,1571
2015/06/29,1520,1643,1519,1602,296300,1602
2015/06/30,1603,1680,1585,1638,246200,1638
2015/07/01,1690,1770,1670,1752,360000,1752
