2011/01/04,995,995,975,975,700,975
2011/01/05,1000,1000,1000,1000,100,1000
2011/01/06,1000,1000,1000,1000,100,1000
2011/01/07,1000,1000,1000,1000,100,1000
2011/01/12,1050,1050,1000,1000,500,1000
2011/01/17,1000,1000,1000,1000,300,1000
2011/01/19,1000,1000,1000,1000,100,1000
2011/01/21,1000,1000,980,980,400,980
2011/01/24,1000,1000,1000,1000,100,1000
2011/01/25,1018,1018,1000,1000,600,1000
2011/01/28,1014,1014,1014,1014,100,1014
2011/01/31,991,1020,991,993,600,993
2011/02/01,1008,1008,1008,1008,500,1008
2011/02/03,1024,1024,1024,1024,300,1024
2011/02/04,1009,1009,1009,1009,200,1009
2011/02/07,1002,1002,1002,1002,600,1002
2011/02/08,993,995,990,993,900,993
2011/02/09,994,994,994,994,300,994
2011/02/10,992,992,992,992,100,992
2011/02/15,992,992,992,992,100,992
2011/02/17,1017,1017,1017,1017,100,1017
2011/02/21,996,1005,996,1005,600,1005
2011/02/23,995,995,995,995,100,995
2011/02/24,989,989,987,987,200,987
2011/02/25,986,986,986,986,100,986
2011/02/28,996,996,996,996,100,996
2011/03/01,1011,1011,1011,1011,500,1011
2011/03/02,999,999,999,999,200,999
2011/03/03,986,986,986,986,200,986
2011/03/04,995,996,995,995,300,995
2011/03/07,970,985,970,985,400,985
2011/03/08,976,976,972,972,200,972
2011/03/09,971,971,971,971,200,971
2011/03/10,971,971,970,970,200,970
2011/03/11,961,961,961,961,100,961
2011/03/14,960,960,960,960,200,960
2011/03/15,930,930,860,860,500,860
2011/03/25,880,880,880,880,100,880
2011/03/28,881,881,870,870,600,870
2011/03/30,870,870,870,870,400,870
2011/04/01,898,899,898,899,700,899
2011/04/05,886,886,886,886,800,886
2011/04/13,899,899,899,899,100,899
2011/04/14,898,898,898,898,100,898
2011/04/15,890,890,890,890,100,890
2011/04/18,890,890,890,890,100,890
2011/04/19,890,890,890,890,100,890
2011/04/22,890,890,890,890,200,890
2011/04/25,895,895,895,895,100,895
2011/04/26,910,910,910,910,200,910
2011/04/27,900,900,900,900,100,900
2011/04/28,911,914,910,914,700,914
2011/05/02,914,914,900,900,1700,900
2011/05/06,905,905,905,905,100,905
2011/05/09,895,895,895,895,300,895
2011/05/16,915,915,915,915,100,915
2011/05/18,925,925,925,925,100,925
2011/05/25,955,955,955,955,400,955
2011/05/30,925,940,925,940,200,940
2011/05/31,975,975,975,975,100,975
2011/06/01,988,988,988,988,800,988
2011/06/07,960,960,960,960,100,960
2011/06/13,950,950,950,950,100,950
2011/06/14,950,950,950,950,100,950
2011/06/16,905,905,905,905,300,905
2011/06/20,913,928,913,928,300,928
2011/06/23,915,920,915,920,200,920
2011/06/27,980,980,980,980,100,980
2011/06/28,950,950,950,950,500,950
2011/06/29,965,971,965,971,200,971
2011/06/30,971,971,958,958,1000,958
2011/07/01,970,975,970,970,800,970
2011/07/04,970,970,965,965,300,965
2011/07/05,970,970,970,970,300,970
2011/07/06,970,970,970,970,300,970
2011/07/07,968,968,966,966,300,966
2011/07/08,986,986,986,986,100,986
2011/07/11,986,986,986,986,100,986
2011/07/12,986,986,986,986,100,986
2011/07/13,998,998,987,987,200,987
2011/07/14,984,984,984,984,200,984
2011/07/15,994,994,994,994,200,994
2011/07/19,998,998,994,994,300,994
2011/07/20,994,995,994,995,300,995
2011/07/21,995,995,995,995,200,995
2011/07/22,995,995,992,992,400,992
2011/07/25,992,992,989,989,200,989
2011/07/26,990,990,990,990,100,990
2011/07/27,992,992,992,992,100,992
2011/07/28,992,1030,992,1030,500,1030
2011/07/29,1038,1038,1021,1021,400,1021
2011/08/01,1032,1032,1032,1032,800,1032
2011/08/03,1025,1025,1020,1020,300,1020
2011/08/04,1025,1025,1000,1000,400,1000
2011/08/05,1020,1020,1020,1020,100,1020
2011/08/08,1019,1019,1019,1019,100,1019
2011/08/09,994,1017,990,1017,1100,1017
2011/08/10,990,1018,990,1018,200,1018
2011/08/12,1000,1000,987,987,500,987
2011/08/15,1002,1002,1002,1002,100,1002
2011/08/17,995,995,992,992,600,992
2011/08/18,1006,1006,1006,1006,100,1006
2011/08/23,1009,1009,1009,1009,400,1009
2011/08/24,1007,1007,1000,1000,700,1000
2011/08/25,1007,1007,1007,1007,400,1007
2011/08/26,1005,1008,989,1004,10700,1004
2011/08/29,935,955,930,942,2300,942
2011/08/30,951,951,941,941,600,941
2011/08/31,940,941,940,940,400,940
2011/09/01,925,925,910,925,1000,925
2011/09/02,915,915,915,915,300,915
2011/09/06,930,930,902,902,500,902
2011/09/12,900,900,900,900,200,900
2011/09/13,885,885,885,885,100,885
2011/09/15,900,900,900,900,100,900
2011/09/20,891,891,891,891,100,891
2011/09/26,911,911,911,911,200,911
2011/09/27,914,914,914,914,100,914
2011/09/29,943,943,943,943,200,943
2011/09/30,942,945,942,945,400,945
2011/10/03,930,930,930,930,500,930
2011/10/14,915,915,915,915,100,915
2011/10/25,915,915,915,915,200,915
2011/10/26,930,930,930,930,100,930
2011/10/28,915,925,915,925,200,925
2011/10/31,930,930,930,930,100,930
2011/11/01,930,930,930,930,500,930
2011/11/04,902,903,902,903,200,903
2011/11/16,903,903,890,890,200,890
2011/11/18,875,875,875,875,100,875
2011/11/22,890,890,890,890,100,890
2011/11/25,920,920,920,920,100,920
2011/11/29,920,920,920,920,100,920
2011/11/30,920,920,920,920,300,920
2011/12/01,915,915,905,905,1000,905
2011/12/06,910,910,910,910,1000,910
2011/12/08,910,910,900,900,200,900
2011/12/09,900,900,900,900,100,900
2011/12/12,900,900,900,900,100,900
2011/12/13,888,888,888,888,200,888
2011/12/15,888,900,888,900,200,900
2011/12/16,900,900,900,900,600,900
2011/12/19,885,885,885,885,200,885
2011/12/22,889,889,889,889,100,889
2011/12/26,919,919,889,889,200,889
2011/12/27,889,889,889,889,300,889
2011/12/29,889,889,889,889,200,889
2012/01/04,903,903,903,903,500,903
2012/01/11,900,910,900,910,200,910
2012/01/13,911,911,910,910,400,910
2012/01/17,911,911,911,911,100,911
2012/01/18,910,910,910,910,100,910
2012/01/19,902,902,902,902,100,902
2012/01/24,902,902,902,902,100,902
2012/01/25,917,917,917,917,100,917
2012/01/27,910,910,904,904,300,904
2012/01/30,905,905,905,905,300,905
2012/01/31,905,905,905,905,700,905
2012/02/01,913,913,903,903,800,903
2012/02/02,933,933,933,933,200,933
2012/02/03,907,907,903,903,400,903
2012/02/06,910,910,910,910,100,910
2012/02/09,910,910,910,910,100,910
2012/02/15,910,910,906,906,500,906
2012/02/16,905,905,905,905,100,905
2012/02/20,905,905,905,905,100,905
2012/02/21,910,910,910,910,200,910
2012/02/27,925,925,925,925,100,925
2012/02/29,931,931,908,908,1000,908
2012/03/01,907,907,902,902,600,902
2012/03/02,900,905,900,900,600,900
2012/03/05,900,900,900,900,200,900
2012/03/06,900,904,900,904,200,904
2012/03/07,900,900,900,900,100,900
2012/03/09,900,900,895,895,200,895
2012/03/12,899,899,899,899,100,899
2012/03/14,905,905,905,905,100,905
2012/03/15,901,901,901,901,100,901
2012/03/19,901,901,901,901,100,901
2012/03/21,909,909,909,909,200,909
2012/03/23,910,910,910,910,300,910
2012/03/26,940,940,940,940,100,940
2012/03/27,939,939,913,913,300,913
2012/03/28,915,915,915,915,300,915
2012/03/29,915,915,915,915,200,915
2012/04/02,918,918,915,918,1000,918
2012/04/03,918,918,918,918,300,918
2012/04/04,920,920,918,918,300,918
2012/04/10,929,930,929,930,200,930
2012/04/11,922,922,920,920,200,920
2012/04/12,930,930,930,930,100,930
2012/04/16,933,933,933,933,200,933
2012/04/17,934,934,934,934,100,934
2012/04/18,935,935,935,935,100,935
2012/04/20,934,935,934,935,700,935
2012/04/25,945,945,945,945,100,945
2012/04/26,945,945,945,945,400,945
2012/04/27,950,950,945,950,1200,950
2012/05/01,951,951,951,951,900,951
2012/05/07,951,951,951,951,800,951
2012/05/08,950,950,950,950,600,950
2012/05/09,950,950,950,950,500,950
2012/05/14,945,945,945,945,100,945
2012/05/15,975,975,960,960,200,960
2012/05/16,1034,1034,1004,1004,2100,1004
2012/05/17,989,1000,988,1000,800,1000
2012/05/21,943,943,943,943,300,943
2012/05/25,988,988,988,988,400,988
2012/05/28,975,975,975,975,100,975
2012/05/29,993,993,993,993,100,993
2012/05/30,980,980,980,980,100,980
2012/05/31,980,980,980,980,100,980
2012/06/01,983,983,983,983,800,983
2012/06/04,983,983,983,983,100,983
2012/06/07,984,984,984,984,100,984
2012/06/08,1000,1000,1000,1000,100,1000
2012/06/13,986,986,986,986,100,986
2012/06/14,985,985,985,985,100,985
2012/06/15,955,970,955,970,200,970
2012/06/18,956,971,956,971,200,971
2012/06/20,966,966,966,966,100,966
2012/06/21,967,967,967,967,100,967
2012/06/25,993,993,993,993,200,993
2012/06/26,1000,1000,1000,1000,100,1000
2012/06/27,999,999,999,999,200,999
2012/06/28,988,988,985,985,600,985
2012/06/29,975,975,975,975,400,975
2012/07/02,980,980,977,977,900,977
2012/07/06,980,980,980,980,100,980
2012/07/09,979,990,979,990,200,990
2012/07/11,980,980,980,980,300,980
2012/07/12,981,981,981,981,100,981
2012/07/13,980,980,980,980,100,980
2012/07/17,994,994,994,994,100,994
2012/07/18,995,995,995,995,200,995
2012/07/19,984,984,984,984,100,984
2012/07/23,980,980,980,980,100,980
2012/07/24,982,982,982,982,100,982
2012/07/25,980,980,963,966,500,966
2012/07/26,980,980,980,980,200,980
2012/07/27,981,981,981,981,100,981
2012/07/30,978,981,978,981,400,981
2012/07/31,985,985,985,985,200,985
2012/08/01,997,997,997,997,500,997
2012/08/02,996,996,996,996,100,996
2012/08/03,996,998,992,998,500,998
2012/08/06,998,998,995,995,300,995
2012/08/08,995,995,993,993,300,993
2012/08/10,993,993,991,991,200,991
2012/08/14,994,994,994,994,200,994
2012/08/16,982,982,980,980,1400,980
2012/08/17,979,979,969,969,1200,969
2012/08/20,977,978,974,978,1200,978
2012/08/21,978,978,976,976,300,976
2012/08/22,976,980,976,980,500,980
2012/08/23,977,985,977,985,700,985
2012/08/24,983,983,982,982,600,982
2012/08/27,972,973,972,973,2200,973
2012/08/28,974,983,972,974,10200,974
2012/08/29,940,970,933,935,4300,935
2012/08/30,935,940,935,940,400,940
2012/08/31,940,940,934,934,600,934
2012/09/03,932,932,920,920,600,920
2012/09/04,930,930,900,900,600,900
2012/09/05,896,896,896,896,100,896
2012/09/06,910,916,910,916,400,916
2012/09/07,902,902,893,893,300,893
2012/09/12,900,900,900,900,100,900
2012/09/14,900,903,900,903,400,903
2012/09/18,917,917,917,917,200,917
2012/09/25,915,915,915,915,200,915
2012/09/26,920,927,920,927,300,927
2012/09/27,921,979,921,964,1400,964
2012/09/28,949,956,940,940,800,940
2012/10/01,930,930,930,930,600,930
2012/10/02,905,905,893,893,900,893
2012/10/05,895,895,895,895,100,895
2012/10/09,910,910,910,910,100,910
2012/10/11,895,895,895,895,100,895
2012/10/17,897,897,897,897,500,897
2012/10/25,905,905,905,905,100,905
2012/10/26,906,906,906,906,200,906
2012/10/31,921,921,921,921,100,921
2012/11/01,921,921,921,921,600,921
2012/11/06,910,910,910,910,300,910
2012/11/08,915,915,915,915,100,915
2012/11/14,900,900,900,900,100,900
2012/11/15,900,900,900,900,100,900
2012/11/20,900,900,900,900,100,900
2012/11/22,902,902,902,902,100,902
2012/11/26,917,917,917,917,100,917
2012/11/27,905,905,905,905,200,905
2012/11/28,905,905,905,905,200,905
2012/11/29,905,905,902,902,300,902
2012/12/03,920,955,919,940,1500,940
2012/12/04,937,937,937,937,100,937
2012/12/06,907,907,901,901,600,901
2012/12/10,903,903,902,903,500,903
2012/12/11,903,903,902,903,300,903
2012/12/12,904,904,904,904,200,904
2012/12/13,914,914,910,910,500,910
2012/12/19,908,908,908,908,100,908
2012/12/20,906,906,906,906,200,906
2012/12/25,899,900,899,900,400,900
2012/12/27,906,906,899,899,700,899
2012/12/28,914,915,905,915,500,915
2013/01/04,915,920,915,920,2900,920
2013/01/07,925,928,925,928,700,928
2013/01/08,1031,1035,1017,1035,5300,1035
2013/01/09,1006,1021,1006,1021,1000,1021
2013/01/10,1021,1021,1019,1019,900,1019
2013/01/11,1025,1030,1025,1030,600,1030
2013/01/15,1028,1030,1018,1030,800,1030
2013/01/16,1033,1033,1030,1030,200,1030
2013/01/18,1016,1032,1016,1032,300,1032
2013/01/21,1035,1050,1035,1050,3300,1050
2013/01/22,1035,1035,1023,1023,300,1023
2013/01/24,1018,1018,1018,1018,200,1018
2013/01/25,1045,1045,1045,1045,200,1045
2013/01/28,1026,1026,1026,1026,100,1026
2013/01/29,1040,1040,1040,1040,200,1040
2013/01/31,1048,1048,1040,1040,200,1040
2013/02/01,1042,1045,1041,1041,700,1041
2013/02/04,1040,1045,1040,1045,300,1045
2013/02/06,1021,1021,1020,1020,500,1020
2013/02/07,1022,1022,1022,1022,200,1022
2013/02/08,1022,1022,1015,1015,200,1015
2013/02/14,1015,1015,1015,1015,200,1015
2013/02/18,1040,1045,1040,1045,300,1045
2013/02/22,1040,1047,1040,1047,1000,1047
2013/02/25,1048,1048,1045,1047,1500,1047
2013/02/26,1001,1042,1001,1042,200,1042
2013/02/28,1044,1044,1044,1044,100,1044
2013/03/01,1044,1044,1044,1044,500,1044
2013/03/04,1045,1050,1045,1045,900,1045
2013/03/05,1050,1050,1045,1045,300,1045
2013/03/06,1040,1054,1040,1054,300,1054
2013/03/07,1084,1090,1084,1090,500,1090
2013/03/08,1060,1060,1060,1060,100,1060
2013/03/11,1097,1107,1097,1107,1100,1107
2013/03/12,1137,1137,1094,1097,700,1097
2013/03/13,1085,1100,1078,1083,1200,1083
2013/03/14,1086,1086,1085,1086,400,1086
2013/03/15,1099,1099,1060,1060,2000,1060
2013/03/18,1061,1079,1061,1065,500,1065
2013/03/19,1070,1073,1070,1073,1100,1073
2013/03/21,1091,1125,1091,1125,2400,1125
2013/03/22,1150,1174,1150,1150,1300,1150
2013/03/25,1180,1200,1151,1200,3200,1200
2013/03/26,1200,1200,1200,1200,300,1200
2013/03/27,1180,1185,1180,1185,200,1185
2013/03/28,1185,1185,1185,1185,100,1185
2013/03/29,1197,1197,1160,1160,800,1160
2013/04/01,1161,1190,1161,1190,1400,1190
2013/04/02,1160,1190,1100,1190,2200,1190
2013/04/03,1160,1163,1160,1162,300,1162
2013/04/04,1165,1165,1165,1165,100,1165
2013/04/05,1182,1215,1182,1215,1500,1215
2013/04/08,1251,1299,1251,1299,2400,1299
2013/04/09,1479,1479,1368,1397,12500,1397
2013/04/10,1427,1427,1397,1409,1900,1409
2013/04/11,1400,1400,1350,1379,800,1379
2013/04/12,1355,1390,1355,1375,700,1375
2013/04/15,1400,1400,1340,1400,4100,1400
2013/04/16,1360,1360,1275,1340,2300,1340
2013/04/17,1344,1350,1290,1340,2100,1340
2013/04/18,1333,1333,1320,1320,600,1320
2013/04/19,1301,1304,1295,1300,1200,1300
2013/04/22,1325,1325,1325,1325,200,1325
2013/04/23,1325,1325,1302,1302,400,1302
2013/04/24,1340,1340,1329,1329,300,1329
2013/04/25,1330,1331,1330,1331,400,1331
2013/04/26,1312,1320,1306,1306,600,1306
2013/04/30,1315,1320,1305,1310,700,1310
2013/05/01,1306,1310,1305,1305,700,1305
2013/05/02,1320,1321,1315,1321,700,1321
2013/05/07,1325,1332,1321,1332,3300,1332
2013/05/08,1351,1355,1341,1341,800,1341
2013/05/09,1387,1387,1357,1380,700,1380
2013/05/10,1386,1386,1380,1380,500,1380
2013/05/13,1398,1399,1380,1390,1500,1390
2013/05/14,1390,1390,1390,1390,200,1390
2013/05/15,1395,1395,1370,1370,1400,1370
2013/05/16,1370,1370,1356,1356,1000,1356
2013/05/17,1351,1375,1350,1375,300,1375
2013/05/20,1380,1395,1380,1395,400,1395
2013/05/21,1400,1410,1395,1395,1300,1395
2013/05/22,1365,1365,1360,1360,900,1360
2013/05/23,1361,1361,1318,1322,1100,1322
2013/05/24,1312,1315,1312,1312,800,1312
2013/05/27,1342,1342,1290,1290,1500,1290
2013/05/28,1282,1282,1280,1280,700,1280
2013/05/29,1280,1289,1280,1289,400,1289
2013/05/30,1289,1295,1280,1280,400,1280
2013/05/31,1291,1300,1291,1297,400,1297
2013/06/03,1320,1328,1300,1328,500,1328
2013/06/04,1268,1313,1268,1313,500,1313
2013/06/05,1267,1294,1267,1294,300,1294
2013/06/06,1300,1318,1259,1318,400,1318
2013/06/07,1236,1236,1205,1230,900,1230
2013/06/10,1233,1240,1233,1240,400,1240
2013/06/11,1264,1264,1263,1263,300,1263
2013/06/12,1250,1264,1250,1264,700,1264
2013/06/13,1251,1269,1251,1269,300,1269
2013/06/14,1260,1260,1202,1240,900,1240
2013/06/18,1250,1250,1250,1250,100,1250
2013/06/19,1250,1250,1248,1248,200,1248
2013/06/24,1249,1249,1249,1249,300,1249
2013/06/26,1249,1249,1183,1183,300,1183
2013/06/27,1243,1250,1243,1248,400,1248
2013/06/28,1254,1260,1254,1260,400,1260
2013/07/01,1270,1270,1268,1270,900,1270
2013/07/02,1270,1270,1250,1270,500,1270
2013/07/03,1261,1279,1261,1270,800,1270
2013/07/04,1270,1270,1270,1270,100,1270
2013/07/05,1253,1294,1253,1294,800,1294
2013/07/08,1338,1368,1310,1368,2300,1368
2013/07/09,1368,1368,1355,1355,300,1355
2013/07/10,1349,1349,1349,1349,100,1349
2013/07/11,1339,1360,1312,1360,1000,1360
2013/07/12,1365,1368,1340,1368,500,1368
2013/07/16,1428,1428,1395,1395,3200,1395
2013/07/17,1400,1422,1325,1422,1600,1422
2013/07/19,1392,1398,1371,1398,300,1398
2013/07/22,1400,1400,1400,1400,100,1400
2013/07/23,1460,1468,1455,1465,12000,1465
2013/07/24,1465,1495,1465,1495,3100,1495
2013/07/25,1497,1497,1470,1496,1800,1496
2013/07/26,1467,1467,1457,1467,500,1467
2013/07/29,1467,1493,1467,1481,800,1481
2013/07/30,1462,1483,1459,1483,700,1483
2013/07/31,1489,1489,1489,1489,800,1489
2013/08/01,1487,1487,1312,1368,3400,1368
2013/08/02,1396,1410,1381,1410,1600,1410
2013/08/05,1414,1469,1413,1469,1600,1469
2013/08/06,1469,1469,1460,1460,200,1460
2013/08/07,1448,1448,1445,1448,600,1448
2013/08/09,1440,1440,1440,1440,200,1440
2013/08/12,1351,1405,1351,1405,800,1405
2013/08/15,1377,1377,1377,1377,100,1377
2013/08/16,1407,1407,1318,1331,7500,1331
2013/08/19,1335,1378,1330,1378,1600,1378
2013/08/21,1371,1371,1328,1328,2000,1328
2013/08/22,1320,1340,1320,1336,1900,1336
2013/08/23,1320,1325,1318,1319,1700,1319
2013/08/26,1319,1325,1319,1319,2400,1319
2013/08/27,1315,1338,1310,1310,12000,1310
2013/08/28,1280,1280,1250,1278,5100,1278
2013/08/29,1276,1280,1246,1246,2000,1246
2013/08/30,1246,1246,1226,1226,1100,1226
2013/09/02,1244,1244,1238,1240,500,1240
2013/09/03,1241,1241,1241,1241,200,1241
2013/09/04,1255,1257,1254,1257,700,1257
2013/09/05,1246,1271,1246,1271,500,1271
2013/09/06,1271,1300,1271,1285,1400,1285
2013/09/09,1306,1312,1306,1312,400,1312
2013/09/10,1372,1383,1327,1350,4000,1350
2013/09/11,1331,1331,1331,1331,200,1331
2013/09/12,1326,1326,1289,1289,500,1289
2013/09/13,1287,1287,1287,1287,100,1287
2013/09/18,1317,1317,1287,1287,500,1287
2013/09/19,1300,1300,1300,1300,100,1300
2013/09/20,1291,1291,1270,1270,500,1270
2013/09/24,1270,1270,1270,1270,100,1270
2013/09/25,1280,1282,1280,1282,200,1282
2013/09/26,1252,1252,1247,1247,400,1247
2013/09/27,1251,1252,1248,1248,400,1248
2013/09/30,1278,1280,1270,1280,600,1280
2013/10/01,1310,1310,1257,1257,900,1257
2013/10/02,1249,1249,1248,1248,200,1248
2013/10/03,1247,1248,1245,1245,700,1245
2013/10/04,1235,1235,1224,1224,800,1224
2013/10/07,1220,1220,1185,1185,1700,1185
2013/10/09,1200,1200,1200,1200,400,1200
2013/10/10,1200,1200,1170,1170,700,1170
2013/10/11,1170,1170,1170,1170,200,1170
2013/10/15,1112,1145,1112,1119,1900,1119
2013/10/16,1149,1149,1130,1146,900,1146
2013/10/17,1140,1140,1140,1140,300,1140
2013/10/18,1160,1161,1141,1152,700,1152
2013/10/21,1133,1153,1133,1136,600,1136
2013/10/23,1137,1138,1130,1130,700,1130
2013/10/24,1130,1130,1130,1130,100,1130
2013/10/25,1152,1152,1130,1130,200,1130
2013/10/28,1130,1130,1130,1130,100,1130
2013/10/30,1130,1130,1120,1120,400,1120
2013/10/31,1135,1135,1131,1131,300,1131
2013/11/01,1143,1143,1143,1143,400,1143
2013/11/05,1135,1135,1134,1134,200,1134
2013/11/06,1126,1141,1126,1141,300,1141
2013/11/07,1149,1149,1149,1149,100,1149
2013/11/08,1141,1147,1141,1146,500,1146
2013/11/11,1136,1136,1112,1112,600,1112
2013/11/12,1113,1148,1055,1146,2700,1146
2013/11/13,1139,1139,1109,1109,200,1109
2013/11/14,1091,1091,1091,1091,100,1091
2013/11/18,1120,1120,1120,1120,100,1120
2013/11/19,1110,1110,1110,1110,100,1110
2013/11/20,1110,1110,1110,1110,100,1110
2013/11/21,1100,1100,1087,1087,400,1087
2013/11/22,1094,1094,1093,1093,300,1093
2013/11/25,1121,1121,1121,1121,100,1121
2013/11/26,1109,1109,1109,1109,300,1109
2013/11/27,1109,1109,1096,1096,400,1096
2013/11/28,1100,1100,1100,1100,100,1100
2013/11/29,1101,1101,1101,1101,200,1101
2013/12/02,1110,1110,1101,1101,800,1101
2013/12/03,1101,1115,1101,1115,300,1115
2013/12/04,1109,1109,1109,1109,100,1109
2013/12/05,1102,1102,1102,1102,200,1102
2013/12/09,1105,1110,1105,1110,400,1110
2013/12/10,1102,1110,1102,1110,300,1110
2013/12/11,1110,1110,1102,1102,200,1102
2013/12/12,1102,1102,1080,1080,600,1080
2013/12/13,1109,1109,1062,1074,1400,1074
2013/12/16,1063,1063,1063,1063,200,1063
2013/12/17,1063,1070,1063,1070,300,1070
2013/12/18,1060,1060,1060,1060,500,1060
2013/12/19,1060,1064,1060,1064,400,1064
2013/12/20,1045,1045,1037,1037,700,1037
2013/12/24,1029,1037,1023,1027,2000,1027
2013/12/25,1027,1029,1003,1012,1300,1012
2013/12/26,1015,1075,1015,1074,2200,1074
2013/12/27,1069,1070,1009,1054,3700,1054
2013/12/30,1065,1094,1065,1076,500,1076
2014/01/06,1103,1108,1073,1108,1100,1108
2014/01/07,1115,1120,1110,1120,1500,1120
2014/01/08,1110,1120,1094,1120,1200,1120
2014/01/10,1119,1119,1080,1087,700,1087
2014/01/14,1110,1110,1094,1095,300,1095
2014/01/15,1110,1110,1110,1110,200,1110
2014/01/16,1110,1199,1110,1116,2600,1116
2014/01/17,1136,1136,1136,1136,100,1136
2014/01/20,1150,1160,1150,1160,1600,1160
2014/01/21,1161,1161,1161,1161,200,1161
2014/01/22,1170,1170,1163,1163,400,1163
2014/01/23,1163,1163,1161,1161,700,1161
2014/01/24,1161,1161,1161,1161,500,1161
2014/01/27,1160,1160,1160,1160,300,1160
2014/01/28,1145,1175,1145,1163,500,1163
2014/01/29,1153,1174,1153,1174,400,1174
2014/01/30,1156,1156,1156,1156,200,1156
2014/01/31,1170,1230,1160,1230,2900,1230
2014/02/03,1230,1230,1224,1224,2800,1224
2014/02/04,1126,1213,1126,1213,1600,1213
2014/02/05,1213,1213,1153,1153,200,1153
2014/02/06,1133,1153,1123,1123,400,1123
2014/02/07,1207,1207,1206,1207,700,1207
2014/02/10,1177,1177,1160,1160,2100,1160
2014/02/12,1161,1161,1161,1161,300,1161
2014/02/13,1191,1191,1191,1191,200,1191
2014/02/20,1161,1199,1161,1199,200,1199
2014/02/21,1198,1240,1198,1239,4700,1239
2014/02/25,1231,1231,1227,1227,500,1227
2014/02/28,1208,1208,1201,1201,200,1201
2014/03/03,1210,1210,1210,1210,400,1210
2014/03/04,1200,1200,1200,1200,300,1200
2014/03/05,1209,1209,1200,1200,1100,1200
2014/03/06,1200,1200,1200,1200,200,1200
2014/03/11,1170,1170,1170,1170,100,1170
2014/03/12,1200,1200,1182,1182,500,1182
2014/03/13,1171,1171,1171,1171,100,1171
2014/03/14,1170,1170,1130,1131,2300,1131
2014/03/17,1140,1140,1140,1140,100,1140
2014/03/20,1111,1111,1073,1073,500,1073
2014/03/26,1087,1116,1087,1116,700,1116
2014/03/27,1100,1100,1100,1100,100,1100
2014/03/28,1130,1130,1130,1130,300,1130
2014/03/31,1133,1133,1133,1133,200,1133
2014/04/01,1120,1120,1120,1120,500,1120
2014/04/02,1140,1140,1140,1140,100,1140
2014/04/03,1135,1135,1127,1127,400,1127
2014/04/04,1144,1144,1140,1140,300,1140
2014/04/07,1140,1140,1140,1140,600,1140
2014/04/09,1150,1165,1137,1137,800,1137
2014/04/10,1150,1150,1150,1150,100,1150
2014/04/11,1135,1135,1135,1135,200,1135
2014/04/15,1139,1139,1139,1139,100,1139
2014/04/16,1109,1109,1109,1109,1000,1109
2014/04/17,1130,1135,1130,1135,300,1135
2014/04/22,1140,1140,1137,1137,200,1137
2014/04/23,1137,1137,1137,1137,300,1137
2014/04/24,1138,1138,1138,1138,300,1138
2014/04/28,1138,1138,1135,1135,200,1135
2014/04/30,1137,1137,1137,1137,400,1137
2014/05/01,1137,1137,1136,1136,700,1136
2014/05/02,1137,1137,1137,1137,100,1137
2014/05/08,1137,1137,1137,1137,200,1137
2014/05/12,1137,1137,1137,1137,200,1137
2014/05/13,1135,1137,1133,1137,300,1137
2014/05/14,1137,1137,1125,1125,500,1125
2014/05/15,1121,1121,1121,1121,100,1121
2014/05/16,1120,1120,1120,1120,100,1120
2014/05/19,1120,1120,1120,1120,100,1120
2014/05/22,1149,1149,1149,1149,100,1149
2014/05/23,1119,1119,1116,1116,200,1116
2014/05/26,1145,1145,1145,1145,400,1145
2014/05/27,1121,1121,1121,1121,600,1121
2014/05/28,1121,1121,1121,1121,100,1121
2014/05/29,1121,1121,1120,1120,400,1120
2014/05/30,1125,1125,1125,1125,100,1125
2014/06/02,1153,1153,1150,1152,900,1152
2014/06/03,1150,1150,1147,1149,700,1149
2014/06/04,1149,1150,1149,1150,800,1150
2014/06/06,1153,1153,1153,1153,200,1153
2014/06/09,1170,1170,1170,1170,100,1170
2014/06/10,1165,1165,1160,1160,300,1160
2014/06/11,1160,1160,1154,1154,200,1154
2014/06/12,1153,1153,1152,1152,300,1152
2014/06/13,1150,1150,1148,1150,600,1150
2014/06/16,1150,1150,1150,1150,800,1150
2014/06/18,1170,1170,1170,1170,100,1170
2014/06/19,1176,1176,1170,1175,500,1175
2014/06/20,1165,1165,1165,1165,100,1165
2014/06/23,1195,1195,1195,1195,500,1195
2014/06/24,1190,1190,1180,1190,500,1190
2014/06/25,1187,1187,1187,1187,100,1187
2014/06/26,1190,1196,1190,1196,500,1196
2014/06/27,1200,1200,1197,1197,400,1197
2014/06/30,1205,1225,1205,1225,900,1225
2014/07/01,1254,1262,1250,1262,1500,1262
2014/07/02,1274,1274,1260,1265,500,1265
2014/07/03,1269,1269,1265,1268,500,1268
2014/07/07,1260,1260,1252,1260,600,1260
2014/07/08,1251,1255,1251,1255,400,1255
2014/07/09,1255,1255,1254,1254,500,1254
2014/07/11,1257,1257,1257,1257,200,1257
2014/07/14,1258,1260,1258,1260,300,1260
2014/07/15,1260,1267,1260,1267,800,1267
2014/07/16,1267,1268,1267,1267,800,1267
2014/07/17,1268,1298,1268,1298,1700,1298
2014/07/18,1283,1283,1271,1271,400,1271
2014/07/22,1285,1285,1279,1280,400,1280
2014/07/23,1295,1295,1274,1280,600,1280
2014/07/24,1280,1280,1260,1261,1500,1261
2014/07/25,1272,1272,1272,1272,100,1272
2014/07/28,1270,1277,1270,1273,1000,1273
2014/07/29,1275,1275,1272,1272,800,1272
2014/07/30,1273,1274,1271,1272,1000,1272
2014/07/31,1272,1275,1265,1265,1000,1265
2014/08/01,1263,1274,1262,1274,1200,1274
2014/08/04,1274,1335,1274,1299,3600,1299
2014/08/05,1280,1294,1280,1294,500,1294
2014/08/06,1281,1285,1281,1285,500,1285
2014/08/07,1285,1297,1285,1290,1100,1290
2014/08/08,1267,1289,1267,1289,1300,1289
2014/08/11,1255,1285,1255,1264,2500,1264
2014/08/12,1264,1282,1264,1281,500,1281
2014/08/13,1284,1284,1284,1284,700,1284
2014/08/14,1284,1285,1269,1285,700,1285
2014/08/15,1285,1285,1274,1274,1600,1274
2014/08/18,1285,1285,1284,1285,800,1285
2014/08/19,1293,1294,1278,1290,600,1290
2014/08/20,1290,1290,1290,1290,500,1290
2014/08/21,1280,1287,1280,1287,1200,1287
2014/08/22,1287,1287,1275,1275,1700,1275
2014/08/25,1276,1276,1270,1270,3700,1270
2014/08/26,1268,1270,1261,1270,14400,1270
2014/08/27,1225,1244,1214,1218,7900,1218
2014/08/28,1240,1240,1225,1230,800,1230
2014/08/29,1235,1242,1230,1230,900,1230
2014/09/01,1233,1235,1226,1226,900,1226
2014/09/02,1210,1229,1210,1211,900,1211
2014/09/03,1212,1216,1212,1216,600,1216
2014/09/05,1215,1215,1215,1215,300,1215
2014/09/08,1207,1207,1204,1204,400,1204
2014/09/09,1201,1201,1192,1193,800,1193
2014/09/10,1187,1202,1187,1202,700,1202
2014/09/11,1192,1192,1191,1191,300,1191
2014/09/12,1191,1203,1191,1203,300,1203
2014/09/16,1205,1205,1205,1205,500,1205
2014/09/17,1204,1205,1204,1204,1400,1204
2014/09/18,1205,1205,1200,1200,600,1200
2014/09/19,1215,1215,1215,1215,100,1215
2014/09/22,1210,1210,1210,1210,100,1210
2014/09/24,1215,1235,1215,1233,1800,1233
2014/09/25,1233,1233,1233,1233,100,1233
2014/09/26,1211,1216,1211,1211,600,1211
2014/09/29,1220,1220,1220,1220,100,1220
2014/09/30,1221,1230,1218,1218,300,1218
2014/10/01,1218,1218,1210,1210,500,1210
2014/10/02,1197,1197,1197,1197,100,1197
2014/10/03,1195,1209,1195,1209,300,1209
2014/10/06,1221,1221,1210,1211,300,1211
2014/10/07,1212,1212,1210,1210,200,1210
2014/10/08,1200,1200,1200,1200,200,1200
2014/10/10,1201,1201,1201,1201,100,1201
2014/10/14,1200,1200,1191,1191,600,1191
2014/10/15,1189,1189,1189,1189,200,1189
2014/10/16,1219,1229,1189,1229,1800,1229
2014/10/17,1229,1230,1190,1190,1200,1190
2014/10/20,1188,1188,1187,1187,300,1187
2014/10/21,1217,1218,1216,1216,300,1216
2014/10/23,1216,1216,1216,1216,200,1216
2014/10/24,1216,1216,1216,1216,100,1216
2014/10/27,1216,1216,1214,1214,200,1214
2014/10/28,1203,1203,1203,1203,100,1203
2014/10/29,1213,1213,1190,1190,500,1190
2014/10/30,1192,1200,1192,1200,300,1200
2014/11/04,1215,1223,1210,1223,1200,1223
2014/11/05,1210,1210,1210,1210,100,1210
2014/11/06,1212,1212,1212,1212,100,1212
2014/11/07,1223,1223,1214,1214,500,1214
2014/11/10,1216,1225,1216,1225,700,1225
2014/11/12,1210,1210,1210,1210,200,1210
2014/11/13,1224,1224,1207,1210,500,1210
2014/11/14,1204,1210,1204,1210,200,1210
2014/11/17,1219,1219,1219,1219,100,1219
2014/11/18,1219,1219,1219,1219,100,1219
2014/11/20,1220,1220,1220,1220,400,1220
2014/11/25,1220,1220,1218,1218,300,1218
2014/11/26,1218,1218,1218,1218,100,1218
2014/11/27,1218,1218,1218,1218,200,1218
2014/11/28,1218,1218,1218,1218,300,1218
2014/12/01,1231,1231,1228,1228,700,1228
2014/12/03,1230,1231,1230,1230,800,1230
2014/12/04,1227,1227,1227,1227,100,1227
2014/12/05,1231,1231,1231,1231,800,1231
2014/12/08,1234,1239,1230,1239,700,1239
2014/12/09,1239,1239,1239,1239,200,1239
2014/12/11,1242,1242,1230,1230,200,1230
2014/12/15,1242,1249,1230,1230,1500,1230
2014/12/18,1248,1248,1230,1230,400,1230
2014/12/19,1229,1230,1229,1230,500,1230
2014/12/22,1230,1230,1220,1220,600,1220
2014/12/24,1220,1220,1170,1200,2000,1200
2014/12/25,1226,1226,1172,1191,1600,1191
2014/12/26,1185,1215,1185,1208,600,1208
2014/12/29,1208,1211,1201,1208,900,1208
2014/12/30,1210,1232,1210,1229,1700,1229
2015/01/05,1239,1239,1227,1231,1400,1231
2015/01/07,1225,1225,1225,1225,200,1225
2015/01/08,1252,1252,1249,1249,400,1249
2015/01/09,1223,1223,1223,1223,200,1223
2015/01/14,1243,1243,1243,1243,100,1243
2015/01/16,1240,1240,1240,1240,100,1240
2015/01/19,1240,1240,1224,1224,900,1224
2015/01/20,1249,1249,1248,1248,300,1248
2015/01/21,1300,1300,1240,1245,2300,1245
2015/01/22,1237,1237,1233,1233,500,1233
2015/01/23,1233,1233,1230,1230,700,1230
2015/01/26,1234,1234,1224,1224,700,1224
2015/01/27,1224,1224,1220,1220,600,1220
2015/01/29,1228,1228,1228,1228,100,1228
2015/01/30,1247,1247,1247,1247,200,1247
2015/02/02,1250,1250,1250,1250,400,1250
2015/02/03,1274,1274,1274,1274,200,1274
2015/02/04,1249,1266,1249,1260,800,1260
2015/02/05,1260,1260,1260,1260,1400,1260
2015/02/10,1268,1289,1268,1289,1200,1289
2015/02/12,1289,1289,1261,1261,600,1261
2015/02/13,1264,1279,1264,1279,300,1279
2015/02/16,1279,1279,1278,1278,200,1278
2015/02/17,1278,1278,1264,1264,200,1264
2015/02/18,1265,1265,1263,1264,1100,1264
2015/02/19,1264,1299,1264,1268,1000,1268
2015/02/20,1262,1266,1262,1262,600,1262
2015/02/23,1292,1292,1266,1277,400,1277
2015/02/24,1271,1282,1270,1282,300,1282
2015/02/25,1297,1300,1297,1300,1300,1300
2015/02/26,1299,1299,1281,1292,600,1292
2015/02/27,1293,1294,1274,1274,1000,1274
2015/03/02,1265,1265,1265,1265,1000,1265
2015/03/04,1270,1270,1268,1268,300,1268
2015/03/05,1270,1270,1270,1270,100,1270
2015/03/06,1270,1271,1270,1271,300,1271
2015/03/09,1250,1250,1250,1250,1100,1250
2015/03/10,1280,1280,1250,1250,300,1250
2015/03/11,1250,1370,1231,1364,33400,1364
2015/03/12,1355,1355,1288,1288,6600,1288
2015/03/13,1288,1300,1288,1300,200,1300
2015/03/16,1281,1299,1281,1285,700,1285
2015/03/17,1288,1300,1288,1300,400,1300
2015/03/18,1300,1335,1280,1286,16900,1286
2015/03/19,1297,1297,1280,1290,600,1290
2015/03/20,1290,1335,1290,1296,25400,1296
2015/03/23,1297,1320,1295,1320,1400,1320
2015/03/24,1320,1320,1303,1306,600,1306
2015/03/25,1335,1335,1311,1314,1200,1314
2015/03/26,1307,1307,1300,1300,1000,1300
2015/03/30,1317,1327,1317,1327,2300,1327
2015/03/31,1321,1321,1321,1321,100,1321
2015/04/01,1351,1351,1321,1321,2400,1321
2015/04/02,1303,1340,1303,1329,500,1329
2015/04/03,1310,1346,1306,1310,1900,1310
2015/04/06,1340,1340,1310,1312,800,1312
2015/04/07,1337,1339,1315,1315,700,1315
2015/04/08,1341,1341,1341,1341,200,1341
2015/04/09,1369,1369,1334,1340,2400,1340
2015/04/10,1369,1369,1337,1344,1600,1344
2015/04/13,1368,1368,1347,1350,1400,1350
2015/04/14,1348,1348,1341,1341,1600,1341
2015/04/15,1345,1365,1345,1365,1700,1365
2015/04/16,1364,1366,1364,1366,300,1366
2015/04/17,1364,1366,1362,1366,400,1366
2015/04/20,1367,1377,1367,1377,1000,1377
2015/04/21,1380,1398,1380,1382,1900,1382
2015/04/22,1391,1438,1391,1429,1800,1429
2015/04/23,1411,1427,1405,1407,1000,1407
2015/04/24,1407,1407,1401,1401,700,1401
2015/04/27,1430,1430,1402,1427,1000,1427
2015/04/28,1428,1428,1428,1428,300,1428
2015/04/30,1428,1428,1416,1416,3700,1416
2015/05/01,1420,1420,1404,1419,1800,1419
2015/05/07,1425,1425,1423,1425,600,1425
2015/05/08,1425,1427,1425,1425,1000,1425
2015/05/12,1431,1435,1430,1430,400,1430
2015/05/13,1430,1430,1387,1387,2400,1387
2015/05/14,1387,1417,1387,1403,700,1403
2015/05/15,1404,1405,1401,1401,800,1401
2015/05/18,1412,1415,1400,1402,1700,1402
2015/05/19,1412,1412,1402,1402,400,1402
2015/05/20,1402,1413,1401,1413,500,1413
2015/05/21,1424,1424,1406,1422,600,1422
2015/05/22,1406,1413,1406,1411,600,1411
2015/05/25,1428,1428,1411,1425,700,1425
2015/05/26,1425,1425,1425,1425,100,1425
2015/05/27,1433,1433,1421,1423,300,1423
2015/05/28,1429,1430,1424,1429,700,1429
2015/05/29,1428,1431,1428,1431,200,1431
2015/06/01,1431,1439,1431,1439,2000,1439
2015/06/02,1441,1456,1441,1450,1300,1450
2015/06/03,1450,1450,1444,1444,1500,1444
2015/06/04,1447,1447,1445,1446,700,1446
2015/06/05,1445,1450,1441,1441,900,1441
2015/06/08,1432,1440,1432,1440,800,1440
2015/06/09,1440,1443,1439,1443,500,1443
2015/06/10,1440,1440,1440,1440,500,1440
2015/06/11,1440,1445,1437,1437,500,1437
2015/06/12,1449,1449,1433,1433,400,1433
2015/06/15,1435,1444,1435,1444,200,1444
2015/06/17,1446,1456,1444,1456,1600,1456
2015/06/18,1456,1462,1454,1462,2900,1462
2015/06/19,1466,1469,1466,1468,800,1468
2015/06/22,1476,1480,1476,1480,1000,1480
2015/06/23,1480,1509,1480,1507,2000,1507
2015/06/24,1515,1525,1465,1507,8400,1507
2015/06/25,1507,1507,1467,1494,1300,1494
2015/06/26,1480,1480,1480,1480,400,1480
2015/06/29,1479,1492,1467,1478,1800,1478
2015/06/30,1467,1486,1465,1486,1200,1486
2015/07/01,1499,1500,1499,1500,1900,1500
