2013/05/30,5150,5190,4990,5080,30500,5080
2013/05/31,5220,5310,5160,5220,40400,5220
2013/06/03,5230,5300,5110,5190,22400,5190
2013/06/04,5060,5220,4990,5040,19800,5040
2013/06/05,5050,5250,5010,5220,43800,5220
2013/06/06,5140,5140,4770,4845,31700,4845
2013/06/07,4610,4670,4265,4540,34700,4540
2013/06/10,4750,4860,4705,4850,17000,4850
2013/06/11,4885,4900,4755,4840,13700,4840
2013/06/12,4740,4880,4640,4865,11600,4865
2013/06/13,4840,4840,4510,4620,15400,4620
2013/06/14,4800,4800,4425,4585,27400,4585
2013/06/17,4565,4565,4450,4525,18100,4525
2013/06/18,4600,4650,4435,4470,9500,4470
2013/06/19,4500,4500,4100,4200,50800,4200
2013/06/20,4100,4270,4100,4195,27300,4195
2013/06/21,4055,4245,4000,4240,21600,4240
2013/06/24,4310,4450,4230,4265,24200,4265
2013/06/25,4265,4350,4200,4340,19000,4340
2013/06/26,4410,4630,4375,4440,35900,4440
2013/06/27,4510,4755,4445,4660,99300,4660
2013/06/28,4665,4750,4615,4750,22700,4750
2013/07/01,4820,4970,4710,4875,19000,4875
2013/07/02,4990,5130,4990,5130,13700,5130
2013/07/03,5230,5230,5020,5150,7000,5150
2013/07/04,5100,5180,5070,5180,3100,5180
2013/07/05,5190,5190,5000,5150,4700,5150
2013/07/08,5050,5140,4990,5070,6700,5070
2013/07/09,4980,5120,4915,5090,4600,5090
2013/07/10,5170,5200,5120,5180,4800,5180
2013/07/11,5110,5110,4715,4755,21200,4755
2013/07/12,4760,4835,4430,4535,15200,4535
2013/07/16,4480,4520,4300,4365,413300,4365
2013/07/17,4320,4520,4320,4415,279300,4415
2013/07/18,4460,4475,4360,4390,203300,4390
2013/07/19,4395,4420,4105,4210,423200,4210
2013/07/22,4260,4275,4150,4200,218400,4200
2013/07/23,4200,4445,4200,4400,297200,4400
2013/07/24,4470,4550,4460,4510,383600,4510
2013/07/25,4535,4535,4300,4310,481200,4310
2013/07/26,4265,4270,4210,4230,270600,4230
2013/07/29,4300,4300,4150,4175,203100,4175
2013/07/30,4175,4180,4070,4140,373900,4140
2013/07/31,4170,4170,3810,3900,471000,3900
2013/08/01,3890,3950,3730,3905,392900,3905
2013/08/02,3970,4110,3905,4070,172900,4070
2013/08/05,4000,4175,3990,4175,146800,4175
2013/08/06,4030,4030,3730,3920,644500,3920
2013/08/07,3850,3870,3725,3745,358200,3745
2013/08/08,3705,3795,3620,3625,340000,3625
2013/08/09,3650,3730,3645,3710,194500,3710
2013/08/12,3735,3750,3650,3695,219900,3695
2013/08/13,3650,3670,3465,3490,444600,3490
2013/08/14,3450,3570,3090,3360,1310800,3360
2013/08/15,3300,3345,3200,3210,448700,3210
2013/08/16,3210,3570,3205,3500,585800,3500
2013/08/19,3480,3680,3475,3615,403900,3615
2013/08/20,3560,3780,3540,3775,362300,3775
2013/08/21,3850,4030,3750,3790,577600,3790
2013/08/22,3730,3820,3565,3755,282300,3755
2013/08/23,3845,3850,3610,3645,227300,3645
2013/08/26,3630,3630,3500,3510,205400,3510
2013/08/27,3520,3520,3365,3410,264300,3410
2013/08/28,3230,3330,3135,3295,361000,3295
2013/08/29,3290,3310,3160,3200,310900,3200
2013/08/30,3265,3460,3265,3450,506400,3450
2013/09/02,3380,3550,3370,3515,204500,3515
2013/09/03,3595,3595,3510,3580,202500,3580
2013/09/04,3550,3660,3510,3655,163400,3655
2013/09/05,3700,3830,3695,3755,345400,3755
2013/09/06,3760,3760,3395,3475,520200,3475
2013/09/09,3535,3675,3485,3600,339800,3600
2013/09/10,3605,3615,3420,3445,225800,3445
2013/09/11,3515,3570,3465,3545,142900,3545
2013/09/12,3500,3535,3385,3395,215800,3395
2013/09/13,3465,3465,3385,3415,191700,3415
2013/09/17,3440,3575,3420,3495,221100,3495
2013/09/18,3500,3555,3480,3510,93000,3510
2013/09/19,3640,3665,3585,3660,216400,3660
2013/09/20,3710,3720,3540,3580,181500,3580
2013/09/24,3580,3655,3565,3650,143300,3650
2013/09/25,3680,3765,3665,3760,242200,3760
2013/09/26,3755,3790,3750,3770,239100,3770
2013/09/27,3775,3785,3720,3770,175100,3770
2013/09/30,3745,3745,3640,3690,172800,3690
2013/10/01,3685,3730,3670,3670,171000,3670
2013/10/02,3695,3715,3580,3590,187800,3590
2013/10/03,3520,3560,3475,3480,206200,3480
2013/10/04,3420,3490,3400,3440,155300,3440
2013/10/07,3370,3540,3250,3400,602100,3400
2013/10/08,3360,3440,3360,3405,168300,3405
2013/10/09,3395,3425,3370,3380,156200,3380
2013/10/10,3395,3430,3370,3390,195600,3390
2013/10/11,3450,3460,3220,3365,783600,3365
2013/10/15,3365,3380,3280,3315,215900,3315
2013/10/16,3305,3370,3300,3350,286200,3350
2013/10/17,3445,3600,3445,3530,523100,3530
2013/10/18,3555,3640,3500,3640,240700,3640
2013/10/21,3680,3800,3670,3720,380800,3720
2013/10/22,3720,3730,3610,3670,163000,3670
2013/10/23,3700,3905,3665,3905,523100,3905
2013/10/24,3945,4200,3855,4195,887900,4195
2013/10/25,4240,4400,4100,4300,689000,4300
2013/10/28,4250,4275,3820,4020,731100,4020
2013/10/29,3960,4070,3890,3960,274200,3960
2013/10/30,3920,4085,3905,3955,214000,3955
2013/10/31,3915,4030,3875,3890,146500,3890
2013/11/01,3890,3915,3705,3760,365400,3760
2013/11/05,3755,3965,3700,3955,285500,3955
2013/11/06,3950,3950,3775,3800,262800,3800
2013/11/07,3785,3840,3720,3760,154000,3760
2013/11/08,3750,3825,3730,3745,120400,3745
2013/11/11,3800,3815,3720,3785,151600,3785
2013/11/12,3780,3905,3780,3885,144300,3885
2013/11/13,3875,3970,3805,3820,146900,3820
2013/11/14,3810,3860,3790,3815,108500,3815
2013/11/15,3810,3875,3805,3830,120400,3830
2013/11/18,3830,3850,3760,3835,93300,3835
2013/11/19,3855,3855,3755,3810,115900,3810
2013/11/20,3810,3950,3795,3935,193300,3935
2013/11/21,3920,3930,3850,3895,194300,3895
2013/11/22,3890,3935,3830,3845,133100,3845
2013/11/25,3855,3890,3840,3865,97200,3865
2013/11/26,3865,4080,3810,4030,283500,4030
2013/11/27,4050,4225,4020,4115,437400,4115
2013/11/28,4120,4120,4015,4030,105600,4030
2013/11/29,3990,4050,3970,3990,98000,3990
2013/12/02,4000,4125,3990,4100,199600,4100
2013/12/03,4140,4220,4115,4200,249000,4200
2013/12/04,4170,4220,4145,4170,176400,4170
2013/12/05,4170,4300,4095,4130,468300,4130
2013/12/06,3830,3990,3810,3955,639600,3955
2013/12/09,3960,4255,3955,4240,626600,4240
2013/12/10,4210,4280,4190,4270,241000,4270
2013/12/11,4260,4280,4155,4230,171700,4230
2013/12/12,4255,4380,4235,4340,378400,4340
2013/12/13,4340,4405,4285,4300,272600,4300
2013/12/16,4230,4335,4230,4295,117500,4295
2013/12/17,4320,4410,4320,4385,208600,4385
2013/12/18,4415,4600,4405,4515,462400,4515
2013/12/19,4540,4590,4465,4485,186200,4485
2013/12/20,4480,4540,4440,4460,169400,4460
2013/12/24,4500,4565,4465,4525,377600,4525
2013/12/25,4545,4545,4370,4410,215400,4410
2013/12/26,4425,4435,4320,4340,163000,4340
2013/12/27,4400,4400,4305,4335,108100,4335
2013/12/30,4385,4455,4335,4450,145800,4450
2014/01/06,4405,4580,4400,4555,201300,4555
2014/01/07,4595,4870,4535,4790,751000,4790
2014/01/08,4865,4960,4830,4920,477200,4920
2014/01/09,4900,4930,4865,4905,217600,4905
2014/01/10,4855,5050,4850,4920,348400,4920
2014/01/14,4830,4910,4720,4720,250200,4720
2014/01/15,4250,4270,4030,4195,1599400,4195
2014/01/16,4195,4230,4055,4110,460000,4110
2014/01/17,4040,4125,4015,4075,242100,4075
2014/01/20,4060,4210,4055,4195,211200,4195
2014/01/21,4180,4200,4130,4155,116100,4155
2014/01/22,4110,4115,4020,4050,217800,4050
2014/01/23,4045,4070,3900,3910,200200,3910
2014/01/24,3850,3900,3685,3730,403800,3730
2014/01/27,3630,3650,3530,3550,374300,3550
2014/01/28,3690,3690,3565,3605,215600,3605
2014/01/29,3675,3680,3610,3645,209900,3645
2014/01/30,3580,3640,3470,3575,195300,3575
2014/01/31,3545,3590,3515,3555,112200,3555
2014/02/03,3510,3545,3390,3395,164800,3395
2014/02/04,3205,3235,3135,3150,273200,3150
2014/02/05,3220,3400,3200,3345,364200,3345
2014/02/06,2645,2715,2645,2645,848300,2645
2014/02/07,2595,2600,2281,2400,2492200,2400
2014/02/10,2480,2636,2425,2635,1137200,2635
2014/02/12,2650,2792,2650,2699,920600,2699
2014/02/13,2685,2720,2550,2586,403500,2586
2014/02/14,2620,2646,2465,2511,314300,2511
2014/02/17,2461,2585,2455,2499,302600,2499
2014/02/18,2501,2567,2480,2564,229700,2564
2014/02/19,2588,2597,2513,2594,246500,2594
2014/02/20,2584,2799,2570,2725,735900,2725
2014/02/21,2700,2740,2625,2677,364100,2677
2014/02/24,2675,2698,2590,2612,211400,2612
2014/02/25,2637,2642,2581,2600,259700,2600
2014/02/26,2601,2895,2596,2803,850500,2803
2014/02/27,2753,3020,2746,2966,922200,2966
2014/02/28,2978,3055,2763,2816,619400,2816
2014/03/03,2826,2859,2735,2842,212700,2842
2014/03/04,2800,2833,2701,2732,287900,2732
2014/03/05,2780,2791,2612,2612,467700,2612
2014/03/06,2519,2670,2505,2561,484000,2561
2014/03/07,2563,2654,2561,2640,254200,2640
2014/03/10,2641,2749,2641,2674,227500,2674
2014/03/11,2650,2694,2626,2660,184300,2660
2014/03/12,2670,2699,2635,2640,207500,2640
2014/03/13,2635,2661,2500,2525,223100,2525
2014/03/14,2491,2549,2486,2520,285000,2520
2014/03/17,2523,2564,2523,2541,113400,2541
2014/03/18,2626,2745,2615,2730,367400,2730
2014/03/19,2701,2766,2668,2725,196100,2725
2014/03/20,2726,2842,2620,2842,393200,2842
2014/03/24,2846,3125,2846,3090,767600,3090
2014/03/25,3120,3290,2961,2994,662200,2994
2014/03/26,3080,3110,2955,2991,194700,2991
2014/03/27,2980,3190,2970,3180,259700,3180
2014/03/28,3160,3285,3120,3285,278700,3285
2014/03/31,3300,3310,3050,3085,329300,3085
2014/04/01,3065,3085,2910,2946,477600,2946
2014/04/02,2975,3010,2952,2955,204500,2955
2014/04/03,2950,2964,2885,2945,192400,2945
2014/04/04,2950,2990,2946,2962,116100,2962
2014/04/07,2912,2958,2816,2843,329200,2843
2014/04/08,2803,2958,2803,2916,207100,2916
2014/04/09,2866,2903,2813,2820,168800,2820
2014/04/10,2869,2898,2751,2788,107900,2788
2014/04/11,2702,2819,2700,2749,197700,2749
2014/04/14,2654,2800,2623,2712,214100,2712
2014/04/15,2720,2890,2676,2698,177200,2698
2014/04/16,2653,2678,2630,2662,194500,2662
2014/04/17,2690,2717,2638,2682,160000,2682
2014/04/18,2680,2683,2545,2578,1083900,2578
2014/04/21,2649,2858,2630,2825,631800,2825
2014/04/22,2825,2910,2746,2778,374600,2778
2014/04/23,2750,2830,2750,2778,114300,2778
2014/04/24,2805,2830,2770,2823,104600,2823
2014/04/25,2850,2960,2842,2954,275200,2954
2014/04/28,2929,3040,2896,3040,361700,3040
2014/04/30,3030,3035,2907,2973,283200,2973
2014/05/01,2990,2990,2916,2926,178800,2926
2014/05/02,2882,2965,2845,2850,155500,2850
2014/05/07,2800,2884,2785,2875,175300,2875
2014/05/08,2938,3065,2921,3055,328800,3055
2014/05/09,3035,3180,2995,3155,323700,3155
2014/05/12,3160,3290,3160,3235,398100,3235
2014/05/13,3200,3445,2997,3240,1085200,3240
2014/05/14,3380,3485,3250,3400,767400,3400
2014/05/15,3350,3430,3260,3270,338200,3270
2014/05/16,3245,3245,3085,3180,215900,3180
2014/05/19,3200,3205,3085,3085,161000,3085
2014/05/20,3105,3150,3030,3030,222000,3030
2014/05/21,3050,3080,2950,3035,154300,3035
2014/05/22,3070,3085,2973,2998,173900,2998
2014/05/23,2990,3000,2935,2947,267700,2947
2014/05/26,2973,2978,2847,2873,368700,2873
2014/05/27,2842,2923,2798,2800,409300,2800
2014/05/28,2810,2845,2748,2834,367000,2834
2014/05/29,2834,2935,2834,2845,328800,2845
2014/05/30,2856,2907,2850,2871,234100,2871
2014/06/02,2865,2917,2865,2898,284500,2898
2014/06/03,2917,2926,2859,2901,188700,2901
2014/06/04,2875,2884,2826,2839,220600,2839
2014/06/05,2855,2860,2802,2817,137400,2817
2014/06/06,2832,2881,2810,2851,270900,2851
2014/06/09,2860,2943,2853,2891,287100,2891
2014/06/10,2920,2922,2845,2853,159200,2853
2014/06/11,2840,2880,2816,2870,126300,2870
2014/06/12,2882,2960,2842,2954,275500,2954
2014/06/13,2954,2954,2921,2940,133300,2940
2014/06/16,2951,3085,2933,3070,322900,3070
2014/06/17,3080,3100,3025,3095,193200,3095
2014/06/18,3125,3220,3125,3200,283800,3200
2014/06/19,3200,3395,3200,3395,452800,3395
2014/06/20,3375,3380,3225,3350,192200,3350
2014/06/23,3385,3390,3240,3265,170500,3265
2014/06/24,3195,3345,3190,3325,180400,3325
2014/06/25,3275,3350,3250,3250,85100,3250
2014/06/26,3255,3290,3190,3195,100600,3195
2014/06/27,3200,3245,3140,3190,99200,3190
2014/06/30,3185,3270,3180,3230,48600,3230
2014/07/01,3210,3245,3185,3230,69600,3230
2014/07/02,3300,3410,3250,3280,421300,3280
2014/07/03,3305,3320,3210,3300,112300,3300
2014/07/04,3280,3365,3265,3320,88500,3320
2014/07/07,3285,3285,3195,3200,163300,3200
2014/07/08,3165,3195,3065,3075,263800,3075
2014/07/09,3000,3075,2991,3025,201300,3025
2014/07/10,2995,3015,2924,2963,208200,2963
2014/07/11,3290,3430,3250,3410,1199900,3410
2014/07/14,3410,3410,3315,3360,350900,3360
2014/07/15,3385,3390,3275,3310,261500,3310
2014/07/16,3300,3315,3240,3250,173800,3250
2014/07/17,3235,3245,3120,3145,189000,3145
2014/07/18,3100,3145,3090,3095,105300,3095
2014/07/22,3080,3165,3075,3090,139700,3090
2014/07/23,3100,3145,3095,3105,112400,3105
2014/07/24,3090,3125,3045,3050,128800,3050
2014/07/25,3040,3085,3020,3075,116100,3075
2014/07/28,3045,3085,3045,3070,51700,3070
2014/07/29,3095,3130,3080,3085,77000,3085
2014/07/30,3135,3135,3085,3090,83400,3090
2014/07/31,3100,3120,3075,3095,73400,3095
2014/08/01,3085,3085,3030,3035,86400,3035
2014/08/04,3045,3055,3025,3040,79800,3040
2014/08/05,3065,3095,3030,3030,122200,3030
2014/08/06,3030,3055,3025,3025,96300,3025
2014/08/07,3055,3065,3045,3065,115800,3065
2014/08/08,3070,3105,3045,3070,107400,3070
2014/08/11,3110,3170,3100,3145,89800,3145
2014/08/12,3165,3235,3155,3220,103500,3220
2014/08/13,3220,3220,3165,3175,76700,3175
2014/08/14,3205,3245,3185,3245,79500,3245
2014/08/15,3250,3260,3080,3130,165500,3130
2014/08/18,3150,3165,3135,3155,59600,3155
2014/08/19,3185,3245,3175,3245,92900,3245
2014/08/20,3245,3290,3220,3255,69600,3255
2014/08/21,3295,3295,3230,3275,45300,3275
2014/08/22,3285,3285,3255,3280,43100,3280
2014/08/25,3280,3305,3130,3155,152800,3155
2014/08/26,3160,3215,3060,3070,197100,3070
2014/08/27,3050,3090,3020,3080,96100,3080
2014/08/28,3060,3075,3050,3050,58000,3050
2014/08/29,3040,3045,2970,3005,105200,3005
2014/09/01,3010,3035,3000,3005,55100,3005
2014/09/02,3000,3020,3000,3000,45600,3000
2014/09/03,3020,3060,3005,3060,54600,3060
2014/09/04,3055,3080,3025,3030,39700,3030
2014/09/05,3060,3060,3010,3035,33700,3035
2014/09/08,3065,3170,3050,3150,123400,3150
2014/09/09,3165,3190,3150,3175,69300,3175
2014/09/10,3170,3190,3135,3180,75300,3180
2014/09/11,3195,3210,3160,3165,55900,3165
2014/09/12,3100,3140,3090,3115,159200,3115
2014/09/16,3115,3130,3080,3090,61800,3090
2014/09/17,3115,3115,3065,3100,62600,3100
2014/09/18,3110,3130,3085,3115,54600,3115
2014/09/19,3080,3090,3030,3070,154300,3070
2014/09/22,3035,3060,3020,3055,98400,3055
2014/09/24,3040,3085,3035,3070,56600,3070
2014/09/25,3070,3070,3025,3040,81000,3040
2014/09/26,3030,3040,3005,3010,88800,3010
2014/09/29,2992,3015,2973,2986,126800,2986
2014/09/30,2984,2995,2952,2957,92400,2957
2014/10/01,2950,2972,2927,2930,66600,2930
2014/10/02,2910,2940,2906,2906,68200,2906
2014/10/03,2906,2947,2901,2922,61100,2922
2014/10/06,2973,3065,2966,2977,164600,2977
2014/10/07,2974,3025,2874,2879,153300,2879
2014/10/08,2830,2841,2814,2817,159100,2817
2014/10/09,2817,2830,2693,2701,156000,2701
2014/10/10,2651,2685,2601,2638,138100,2638
2014/10/14,2588,2645,2467,2471,207400,2471
2014/10/15,2521,2578,2508,2550,177500,2550
2014/10/16,2590,2720,2515,2609,389800,2609
2014/10/17,2605,2626,2471,2485,334000,2485
2014/10/20,2561,2579,2363,2378,433400,2378
2014/10/21,2378,2378,2286,2302,288000,2302
2014/10/22,2283,2290,2203,2234,347400,2234
2014/10/23,2227,2320,2222,2264,231400,2264
2014/10/24,2279,2284,2223,2248,143400,2248
2014/10/27,2244,2326,2235,2245,246900,2245
2014/10/28,2235,2300,2215,2275,176500,2275
2014/10/29,2335,2393,2295,2365,314500,2365
2014/10/30,2389,2408,2290,2319,260400,2319
2014/10/31,2369,2425,2333,2420,258800,2420
2014/11/04,2547,2549,2381,2383,247300,2383
2014/11/05,2433,2450,2381,2416,192700,2416
2014/11/06,2432,2474,2302,2332,289500,2332
2014/11/07,2378,2446,2366,2407,213600,2407
2014/11/10,2407,2423,2384,2398,97800,2398
2014/11/11,2398,2406,2337,2342,147600,2342
2014/11/12,2378,2443,2364,2439,218100,2439
2014/11/13,2439,2593,2439,2590,275900,2590
2014/11/14,2590,2598,2520,2568,147100,2568
2014/11/17,2597,2597,2421,2447,179000,2447
2014/11/18,2435,2454,2401,2438,128700,2438
2014/11/19,2485,2496,2445,2465,78200,2465
2014/11/20,2478,2485,2428,2434,87900,2434
2014/11/21,2435,2575,2425,2564,157200,2564
2014/11/25,2565,2584,2523,2536,77800,2536
2014/11/26,2565,2631,2554,2623,153700,2623
2014/11/27,2587,2625,2561,2603,84500,2603
2014/11/28,2637,2770,2611,2755,332900,2755
2014/12/01,2708,2833,2708,2787,235500,2787
2014/12/02,2740,2744,2713,2735,204400,2735
2014/12/03,2735,2795,2711,2790,154400,2790
2014/12/04,2830,2867,2808,2819,144000,2819
2014/12/05,2820,2829,2768,2798,85700,2798
2014/12/08,2898,3065,2870,2921,283600,2921
2014/12/09,2833,2878,2826,2843,139300,2843
2014/12/10,2793,2929,2790,2929,124800,2929
2014/12/11,2958,3055,2930,3040,174800,3040
2014/12/12,3030,3070,3000,3050,133300,3050
2014/12/15,3005,3060,2976,3015,78900,3015
2014/12/16,2945,2970,2862,2898,92100,2898
2014/12/17,2821,2932,2805,2831,271300,2831
2014/12/18,2905,3025,2902,2985,181500,2985
2014/12/19,3005,3020,2906,2929,76400,2929
2014/12/22,2932,2996,2925,2946,67000,2946
2014/12/24,2977,2977,2922,2935,43600,2935
2014/12/25,2915,2925,2890,2898,108600,2898
2014/12/26,2905,3020,2893,2996,70500,2996
2014/12/29,3015,3040,2936,3005,77200,3005
2014/12/30,3000,3055,3000,3015,80700,3015
2015/01/05,2952,3050,2944,3015,92600,3015
2015/01/06,2929,2983,2920,2923,243600,2923
2015/01/07,2921,3200,2903,2911,515200,2911
2015/01/08,2901,2960,2842,2846,192800,2846
2015/01/09,2862,2890,2826,2850,106000,2850
2015/01/13,2819,2819,2780,2788,132700,2788
2015/01/14,2795,2836,2788,2791,70300,2791
2015/01/15,2991,3075,2862,2950,409200,2950
2015/01/16,2945,3115,2933,3095,266700,3095
2015/01/19,3100,3310,3100,3305,342400,3305
2015/01/20,3300,3495,3245,3490,317400,3490
2015/01/21,3490,3595,3380,3580,351900,3580
2015/01/22,3615,3615,3360,3420,215800,3420
2015/01/23,3495,3670,3425,3605,348000,3605
2015/01/26,3555,3640,3535,3570,178700,3570
2015/01/27,3545,3595,3475,3500,152500,3500
2015/01/28,3495,3630,3495,3610,168000,3610
2015/01/29,3540,3730,3540,3590,211100,3590
2015/01/30,3600,3670,3575,3615,134600,3615
2015/02/02,3545,3600,3425,3445,131000,3445
2015/02/03,3440,3470,3365,3395,172000,3395
2015/02/04,3365,3420,3285,3375,164100,3375
2015/02/05,3315,3445,3255,3385,169900,3385
2015/02/06,3315,3400,3265,3305,111900,3305
2015/02/09,3265,3365,3225,3340,182700,3340
2015/02/10,3355,3470,3290,3345,123900,3345
2015/02/12,3415,3485,3375,3430,110800,3430
2015/02/13,3425,3435,3355,3390,64900,3390
2015/02/16,3395,3415,3360,3385,40000,3385
2015/02/17,3365,3400,3325,3340,61200,3340
2015/02/18,3390,3500,3385,3480,105100,3480
2015/02/19,3490,3490,3410,3415,62500,3415
2015/02/20,3450,3460,3370,3425,72800,3425
2015/02/23,3445,3500,3415,3475,80600,3475
2015/02/24,3500,3560,3490,3530,83500,3530
2015/02/25,3535,3560,3455,3520,81500,3520
2015/02/26,3540,3645,3530,3630,132400,3630
2015/02/27,3625,3685,3595,3620,107000,3620
2015/03/02,3590,3630,3580,3605,51400,3605
2015/03/03,3535,3555,3445,3465,108900,3465
2015/03/04,3430,3445,3345,3370,122600,3370
2015/03/05,3355,3375,3320,3335,76100,3335
2015/03/06,3620,3920,3620,3885,744000,3885
2015/03/09,3900,4135,3790,4125,922500,4125
2015/03/10,4085,4200,4060,4200,346200,4200
2015/03/11,4140,4170,4040,4065,259300,4065
2015/03/12,4095,4185,4090,4110,191300,4110
2015/03/13,4110,4210,4070,4185,190900,4185
2015/03/16,4120,4180,4105,4130,60900,4130
2015/03/17,4130,4175,4060,4070,114900,4070
2015/03/18,4070,4155,4045,4065,127500,4065
2015/03/19,4045,4045,3950,3975,112100,3975
2015/03/20,3960,4015,3925,3955,60900,3955
2015/03/23,3930,4005,3915,3930,81100,3930
2015/03/24,3905,3965,3895,3935,83500,3935
2015/03/25,3910,3930,3845,3875,91000,3875
2015/03/26,3905,4035,3900,4005,124200,4005
2015/03/27,4020,4230,4020,4135,195900,4135
2015/03/30,4205,4325,4205,4235,227600,4235
2015/03/31,4225,4230,4020,4165,236000,4165
2015/04/01,4180,4205,4080,4085,82800,4085
2015/04/02,4145,4280,4130,4265,181800,4265
2015/04/03,4300,4545,4270,4285,329400,4285
2015/04/06,4410,4685,4375,4525,339400,4525
2015/04/07,4470,4545,4385,4390,148700,4390
2015/04/08,4405,4480,4400,4465,71000,4465
2015/04/09,4535,4750,4515,4725,234200,4725
2015/04/10,4800,4805,4630,4660,163800,4660
2015/04/13,4695,4710,4575,4610,86600,4610
2015/04/14,4680,4735,4550,4565,159100,4565
2015/04/15,4565,4710,4550,4685,192900,4685
2015/04/16,4805,4880,4660,4715,221700,4715
2015/04/17,4850,5040,4790,4860,500900,4860
2015/04/20,4850,4870,4575,4595,297500,4595
2015/04/21,4605,4650,4450,4500,226700,4500
2015/04/22,4500,4665,4470,4505,205200,4505
2015/04/23,4500,4570,4455,4540,145300,4540
2015/04/24,4595,4725,4500,4650,359800,4650
2015/04/27,4695,4710,4525,4570,156400,4570
2015/04/28,4640,4740,4590,4725,166800,4725
2015/04/30,4655,4675,4600,4620,118300,4620
2015/05/01,4605,4635,4535,4575,83400,4575
2015/05/07,4585,4635,4480,4500,91700,4500
2015/05/08,4725,4790,4660,4715,321200,4715
2015/05/11,4700,4710,4580,4615,149300,4615
2015/05/12,4600,4670,4570,4580,143200,4580
2015/05/13,4470,4570,4360,4545,112000,4545
2015/05/14,4475,4505,4440,4470,103900,4470
2015/05/15,4470,4590,4460,4585,77500,4585
2015/05/18,4600,4625,4555,4605,58200,4605
2015/05/19,4590,4660,4590,4620,59000,4620
2015/05/20,4655,4655,4590,4620,43300,4620
2015/05/21,4585,4635,4570,4620,51500,4620
2015/05/22,4645,4645,4565,4590,51600,4590
2015/05/25,4600,4615,4560,4590,70600,4590
2015/05/26,4580,4625,4560,4600,68300,4600
2015/05/27,4600,4715,4600,4695,101100,4695
2015/05/28,4705,4735,4660,4695,59600,4695
2015/05/29,4705,4895,4705,4815,168900,4815
2015/06/01,4800,4800,4625,4645,134100,4645
2015/06/02,4630,4680,4590,4610,117800,4610
2015/06/03,4615,4655,4590,4635,83600,4635
2015/06/04,4635,4655,4600,4650,63400,4650
2015/06/05,4630,4685,4555,4605,136100,4605
2015/06/08,4815,4965,4740,4925,431900,4925
2015/06/09,4880,5020,4880,4940,217200,4940
2015/06/10,4945,5120,4920,4940,209200,4940
2015/06/11,4930,5130,4930,5130,136500,5130
2015/06/12,5170,5200,5120,5170,175600,5170
2015/06/15,5200,5290,5200,5270,98900,5270
2015/06/16,5260,5380,5230,5310,126700,5310
2015/06/17,5380,5430,5340,5400,138400,5400
2015/06/18,5400,5480,5290,5290,118500,5290
2015/06/19,5340,5390,5270,5330,101700,5330
2015/06/22,5420,5420,5330,5400,55800,5400
2015/06/23,5400,5420,5210,5270,157800,5270
2015/06/24,5250,5340,5180,5300,124300,5300
2015/06/25,5280,5410,5280,5380,93500,5380
2015/06/26,5380,5380,5260,5310,50700,5310
2015/06/29,5150,5300,5150,5240,88800,5240
2015/06/30,5240,5330,5240,5280,39100,5280
2015/07/01,5330,5570,5260,5570,147000,5570
