2011/01/11,33900,34000,33750,33900,1577,339
2011/01/13,34500,34500,34200,34200,1880,342
2011/01/14,34250,34250,33750,34000,1674,340
2011/01/17,34200,34250,33850,33900,1501,339
2011/01/20,34050,34050,33800,33800,1518,338
2011/01/24,33750,33750,33500,33700,992,337
2011/01/26,34000,34000,33850,33900,776,339
2011/02/03,34150,34250,34100,34200,1218,342
2011/02/04,34250,34400,33800,33900,2693,339
2011/02/07,34200,34300,34050,34300,1084,343
2011/02/09,34100,34400,34050,34200,815,342
2011/02/10,34200,34450,34100,34400,1108,344
2011/02/15,34600,34600,34400,34400,936,344
2011/02/16,34450,34700,34450,34600,1531,346
2011/02/18,34850,34850,34700,34800,923,348
2011/02/24,34050,34150,33650,33800,1974,338
2011/02/25,33650,33950,33600,33900,1734,339
2011/03/02,34200,34450,34050,34100,1520,341
2011/03/03,34400,34400,34100,34200,654,342
2011/03/04,34400,34500,34200,34300,941,343
2011/03/07,34450,34450,34100,34200,975,342
2011/03/14,29650,32900,29650,31000,6147,310
2011/03/16,28200,31200,28100,30900,4554,309
2011/03/23,33350,33400,33000,33100,1415,331
2011/03/28,33100,33300,32550,32800,1785,328
2011/03/29,32600,33100,32550,33100,1825,331
2011/03/31,33450,33450,33100,33400,1295,334
2011/04/01,33350,33600,33050,33200,962,332
2011/04/04,33300,33350,33100,33200,869,332
2011/04/07,32850,33600,32850,33400,2729,334
2011/04/08,34300,34550,33900,34500,5507,345
2011/04/11,34300,34750,34100,34700,2632,347
2011/04/13,34650,34950,34550,34800,1527,348
2011/04/14,34800,35000,34650,34900,1649,349
2011/04/18,35150,35850,35150,35800,2843,358
2011/04/19,35600,35750,35200,35700,2067,357
2011/04/22,35600,35600,35100,35500,2429,355
2011/04/27,35800,36450,35650,36400,8958,364
2011/04/28,36500,37350,36400,37000,8066,370
2011/05/06,37150,37500,37050,37500,1980,375
2011/05/09,37500,37550,37200,37300,1379,373
2011/05/11,37450,37800,37250,37800,3351,378
2011/05/12,37700,38450,37600,38200,3968,382
2011/05/17,38050,38200,38000,38100,1805,381
2011/05/18,38150,38600,38000,38600,2367,386
2011/05/20,38800,39200,38650,38900,3108,389
2011/05/23,39000,40000,39000,40000,7382,400
2011/05/24,40100,40750,40000,40600,5346,406
2011/05/26,41000,41050,40450,40600,3215,406
2011/06/01,39500,40400,39400,40300,3770,403
2011/06/06,40700,40900,40250,40600,2499,406
2011/06/10,40900,41000,40750,40900,2033,409
2011/06/13,40900,41000,40650,40900,1618,409
2011/06/16,40150,40300,39950,40100,2483,401
2011/06/21,40350,40400,40150,40400,1578,404
2011/06/22,40400,40800,40400,40800,1793,408
2011/06/27,41100,41250,41000,41200,2815,412
2011/06/30,42900,43150,42600,43100,3974,431
2011/07/01,43200,43650,42950,43000,3410,430
2011/07/06,43500,45000,43400,44500,9925,445
2011/07/08,45100,45150,44350,44500,4647,445
2011/07/13,45200,46750,45000,46600,12076,466
2011/07/19,49700,51500,49550,51000,16052,510
2011/07/20,51500,51700,49200,49700,16238,497
2011/07/25,46950,48350,46950,48000,9639,480
2011/07/28,45500,46250,45250,45900,6405,459
2011/07/29,46100,46400,44600,44600,11328,446
2011/08/10,43300,43450,42200,42900,5163,429
2011/08/15,44800,44800,44200,44800,3352,448
2011/08/18,43550,43600,42500,42700,5708,427
2011/08/19,42000,42500,41750,42100,5129,421
2011/08/22,42200,42500,41000,41000,6022,410
2011/08/23,41000,41100,40250,41000,8188,410
2011/08/24,41500,42200,41100,42000,8229,420
2011/08/25,42050,43500,42050,42600,6813,426
2011/08/30,40150,41450,40100,41400,9862,414
2011/09/05,42150,42500,42000,42500,2804,425
2011/09/07,42100,42450,41650,42400,3307,424
2011/09/12,42100,42300,41700,41700,3142,417
2011/09/13,42150,42250,40800,41000,4319,410
2011/09/14,40750,41050,40150,40400,3143,404
2011/09/15,40450,41300,40450,41100,2390,411
2011/09/16,41250,42000,41050,42000,2441,420
2011/09/20,41400,41650,40950,41400,1857,414
2011/09/21,41450,41500,40800,41100,1469,411
2011/09/30,42400,42700,41650,42100,3329,421
2011/10/04,41150,41800,41000,41300,2046,413
2011/10/05,41650,41800,40100,40100,2284,401
2011/10/06,40200,40900,40200,40700,1030,407
2011/10/07,41600,41900,40300,40400,4063,404
2011/10/11,41400,41400,41000,41400,1616,414
2011/10/17,40950,40950,40350,40800,1623,408
2011/10/19,40900,41000,40400,40700,1477,407
2011/10/20,40450,40700,40250,40700,1676,407
2011/10/21,40250,40500,39000,39200,3990,392
2011/10/24,39800,40550,39550,40400,2679,404
2011/10/25,40850,40900,40050,40200,1436,402
2011/10/26,40000,40300,39800,40200,1219,402
2011/10/27,40250,40800,40050,40700,1938,407
2011/10/28,41000,42150,40900,41900,5884,419
2011/10/31,41900,42500,41650,41900,2404,419
2011/11/07,41700,41850,41350,41800,1492,418
2011/11/09,41350,41700,40900,41200,1843,412
2011/11/11,40700,40950,40250,40400,997,404
2011/11/15,41500,41500,40650,40800,831,408
2011/11/17,40500,40500,40150,40300,1090,403
2011/11/21,40400,40400,40000,40200,1118,402
2011/11/29,40650,41000,40050,41000,1732,410
2011/12/01,41950,41950,41000,41200,2189,412
2011/12/06,41300,41300,40700,40700,1486,407
2011/12/08,41500,41600,41150,41400,2116,414
2011/12/12,41900,41900,41550,41700,1125,417
2011/12/13,41900,41950,41550,41700,1782,417
2011/12/14,41700,41850,41600,41600,898,416
2011/12/16,41500,41550,41100,41100,1119,411
2011/12/20,41750,42000,41500,42000,1721,420
2011/12/22,42250,42500,42150,42200,1221,422
2011/12/28,42250,42650,42250,42400,1213,424
2011/12/29,42600,42850,42450,42800,1606,428
2012/01/04,43200,43500,43150,43300,2981,433
2012/01/12,42700,42750,42200,42500,2979,425
2012/01/13,42550,42800,42400,42600,2628,426
2012/01/16,42650,43300,42400,43300,3556,433
2012/01/18,43300,43550,43150,43300,4030,433
2012/01/19,43500,44050,43500,44000,6525,440
2012/01/20,44500,44600,43900,43900,3324,439
2012/01/23,44100,44400,44000,44100,3302,441
2012/01/24,44250,44400,44200,44200,3082,442
2012/01/26,44000,44200,43800,44000,1668,440
2012/01/30,44350,44550,44200,44500,2316,445
2012/01/31,44550,44550,43850,44000,3226,440
2012/02/02,44250,44350,43950,44000,2212,440
2012/02/10,45300,45450,45050,45100,3560,451
2012/02/13,45250,45350,45050,45200,2419,452
2012/02/14,45250,45350,45100,45300,2157,453
2012/02/20,45050,45100,44700,44800,2249,448
2012/02/21,44800,45050,44700,45000,2233,450
2012/02/22,44950,44950,44550,44700,4039,447
2012/02/23,44800,44850,44700,44700,3773,447
2012/02/28,44450,44550,43850,44100,2862,441
2012/03/01,43550,43700,42450,42900,4222,429
2012/03/06,43650,44450,43650,43900,2690,439
2012/03/07,43700,43900,43200,43800,2872,438
2012/03/13,43600,43600,43300,43400,2519,434
2012/03/14,43500,43700,43300,43300,1391,433
2012/03/16,43250,43450,43200,43400,2871,434
2012/03/23,42600,43250,42550,43100,2073,431
2012/03/28,43600,44100,43100,44100,2925,441
2012/04/03,42800,43000,42600,42700,3313,427
2012/04/04,42750,43000,42450,42800,3521,428
2012/04/09,42100,42100,40400,40700,12346,407
2012/04/12,40400,40400,40000,40100,4789,401
2012/04/13,40100,40300,40000,40200,5329,402
2012/04/16,40250,40450,40100,40200,3198,402
2012/04/20,40100,40350,40050,40200,2094,402
2012/04/23,40200,40300,39300,39400,6837,394
2012/04/25,39500,39900,39350,39800,2690,398
2012/04/26,40000,40150,39800,39800,1560,398
2012/04/27,39800,39850,39250,39400,3611,394
2012/05/07,39100,39200,38700,38800,4004,388
2012/05/08,38800,38950,38500,38600,2536,386
2012/05/10,38000,38600,38000,38500,2093,385
2012/05/11,41300,41350,39000,39000,18234,390
2012/05/14,39350,40200,39350,39700,5349,397
2012/05/15,39500,39500,38200,38600,4594,386
2012/05/17,38600,38800,38050,38400,2832,384
2012/05/23,38500,38550,38050,38100,1982,381
2012/05/24,38150,38200,37100,37300,4145,373
2012/06/04,37500,37900,37350,37600,2903,376
2012/06/07,38200,38200,37750,37900,2096,379
2012/06/13,37650,37750,37500,37500,1280,375
2012/06/14,37500,37500,37250,37300,1540,373
2012/06/15,37250,37600,37200,37500,1872,375
2012/06/20,38800,39200,38800,39200,3168,392
2012/06/21,39500,39600,39300,39600,2273,396
2012/06/26,39200,39350,38800,38900,2195,389
2012/06/27,39000,39500,38900,39500,1577,395
2012/07/05,39900,39950,39750,39900,1312,399
2012/07/11,40200,40200,39750,39800,2498,398
2012/07/12,39600,39800,39050,39700,5782,397
2012/07/17,40100,40100,39900,40000,1187,400
2012/07/20,40100,40200,39950,40100,2509,401
2012/07/23,40100,40200,39900,39900,2392,399
2012/07/25,40200,40200,39850,40000,2105,400
2012/07/26,39950,40400,39850,40400,2704,404
2012/07/27,40550,41000,40350,41000,2350,410
2012/07/30,41050,41300,40850,41300,1637,413
2012/07/31,41400,41800,41200,41700,2108,417
2012/08/07,41300,41300,41100,41300,819,413
2012/08/08,41300,41400,41050,41200,1720,412
2012/08/10,41300,41450,41150,41400,1669,414
2012/08/14,41500,42400,41450,42300,4249,423
2012/08/15,42300,42500,41800,42200,2239,422
2012/08/17,42150,42250,42000,42200,1763,422
2012/08/21,42300,42400,42200,42400,1698,424
2012/08/22,42200,42300,42150,42200,1920,422
2012/09/06,38300,38400,38250,38300,1746,383
2012/09/07,38300,38450,38250,38300,3291,383
2012/09/11,39050,39350,38800,39300,2499,393
2012/09/13,39250,39400,39200,39300,975,393
2012/09/18,39050,39200,38900,39000,1924,390
2012/09/20,39000,39150,38900,38900,1480,389
2012/09/26,39500,39550,39350,39500,1007,395
2012/09/27,39550,39900,39500,39800,1452,398
2012/09/28,40000,40250,39400,39600,2550,396
2012/10/01,40000,40000,39300,39400,1472,394
2012/10/02,39450,39500,39100,39100,1521,391
2012/10/04,39500,40000,39300,40000,1502,400
2012/10/05,39950,40150,39700,40100,1787,401
2012/10/11,39350,39700,39200,39500,2236,395
2012/10/18,39300,39350,38950,39100,2806,391
2012/10/22,38850,39100,38700,39000,1844,390
2012/10/23,39000,39000,38800,38800,2069,388
2012/10/24,38850,38950,38700,38800,2016,388
2012/10/25,38800,38950,38650,38900,3152,389
2012/10/26,38950,39100,38700,38700,1993,387
2012/10/30,39100,39350,39000,39000,1909,390
2012/10/31,39150,39150,38850,39000,1885,390
2012/11/02,39400,39450,39000,39000,1781,390
2012/11/06,39200,39250,39000,39200,1410,392
2012/11/07,39250,39250,39000,39100,1959,391
2012/11/14,39200,39400,39150,39300,660,393
2012/11/15,39450,39450,39200,39300,1248,393
2012/11/16,39350,39500,39200,39500,3009,395
2012/11/19,39550,40000,39550,39800,2064,398
2012/11/20,40000,40000,39800,39800,1337,398
2012/11/21,39950,40200,39700,39900,2490,399
2012/11/22,40200,40200,39850,40000,1360,400
2012/11/26,40400,40400,39800,39900,2224,399
2012/11/29,40450,40550,40200,40400,1770,404
2012/11/30,40550,40700,40400,40600,1373,406
2012/12/06,41250,41400,41150,41200,2006,412
2012/12/07,41300,41350,41000,41000,1402,410
2012/12/17,40850,41000,40700,40700,1356,407
2012/12/18,40900,41000,40800,40900,938,409
2012/12/19,40900,41200,40850,41200,2451,412
2012/12/20,41250,41300,41050,41200,1968,412
2012/12/21,41350,41500,41100,41500,2927,415
2012/12/25,41900,41950,41600,41900,2259,419
2012/12/27,42500,42500,42300,42400,1752,424
2013/01/07,43950,44250,43800,44200,2792,442
2013/01/09,43900,44150,43750,44000,2073,440
2013/01/10,44000,44050,43800,43900,2340,439
2013/01/11,43200,43750,43000,43700,4253,437
2013/01/15,43700,43850,43700,43800,2024,438
2013/01/18,43850,44100,43700,44100,3050,441
2013/01/22,44450,44500,44000,44200,3401,442
2013/01/24,44250,44250,44000,44200,2158,442
2013/01/25,44400,44500,44300,44500,2508,445
2013/01/29,45000,45400,44850,45300,3023,453
2013/02/04,46000,46050,45850,45900,2439,459
2013/02/07,46050,46050,45950,46000,3215,460
2013/02/08,46050,46150,46000,46000,3062,460
2013/02/12,46200,46300,46000,46000,2971,460
2013/02/14,45950,46000,45800,45800,2682,458
2013/02/15,45700,45700,44900,45500,5074,455
2013/02/19,46250,46500,44950,46300,5600,463
2013/02/22,46350,46350,46000,46100,4825,461
2013/02/25,46500,46900,46350,46900,8953,469
2013/02/28,44250,44350,43500,43800,4342,438
2013/03/01,43650,44550,43500,44200,3220,442
2013/03/04,44400,44600,44300,44400,3863,444
2013/03/06,44750,44900,44650,44800,3703,448
2013/03/08,44900,44950,44600,44700,3924,447
2013/03/11,44900,44900,44650,44900,2621,449
2013/03/12,44950,45000,44600,44600,3419,446
2013/03/15,44450,44800,44400,44800,2747,448
2013/03/19,44500,44900,44400,44600,2464,446
2013/03/22,44600,44700,44300,44300,2932,443
2013/03/25,44500,44600,44200,44200,3545,442
2013/03/26,44200,44350,44000,44100,3680,441
2013/03/28,44000,44200,43950,44200,2055,442
2013/04/01,44000,44100,43000,43000,4701,430
2013/04/02,43000,43550,42100,43100,3678,431
2013/04/03,43450,43850,43300,43800,1731,438
2013/04/05,44200,44700,44050,44300,5133,443
2013/04/09,44300,44650,44300,44400,6372,444
2013/04/10,44600,44600,43950,44000,8877,440
2013/04/12,42300,42400,41850,42000,19777,420
2013/04/15,42100,42200,41500,41900,10407,419
2013/04/16,41900,42250,41700,41900,7984,419
2013/04/17,41900,42950,41900,42800,7530,428
2013/04/19,42700,42800,42300,42700,5886,427
2013/04/25,42850,43150,42850,43100,3934,431
2013/05/01,43000,43100,42700,42900,3522,429
2013/05/02,43100,43250,43000,43200,3392,432
2013/05/07,43800,44000,43700,43900,6188,439
2013/05/10,44250,44300,43950,44100,4347,441
2013/05/14,44400,44450,44000,44300,4007,443
2013/05/15,44350,44400,43700,43800,5279,438
2013/05/17,43500,43750,43350,43400,3561,434
2013/05/21,43700,43950,43500,43800,4508,438
2013/05/22,43950,44000,43700,43800,4819,438
2013/05/23,43950,44050,43200,43300,7095,433
2013/05/24,43200,43400,42200,42800,9337,428
2013/05/27,42900,42900,42050,42200,5236,422
2013/05/29,42250,42600,42100,42600,4413,426
2013/06/03,40750,41400,40750,40800,3703,408
2013/06/05,41000,41900,40900,41000,4176,410
2013/06/06,41000,41300,40500,41000,4644,410
2013/06/07,40500,40600,39900,40100,7226,401
2013/06/10,40100,40900,40100,40800,3095,408
2013/06/12,40350,42450,40200,42400,6739,424
2013/06/13,42100,42400,41350,41900,6055,419
2013/06/14,41950,42250,41650,41800,4410,418
2013/06/17,41900,42850,41500,42600,4349,426
2013/06/18,42950,43150,42450,43000,4577,430
2013/06/20,42800,43050,42400,42800,2523,428
2013/06/21,42600,42950,42000,42800,4672,428
2013/06/24,43000,43050,42500,42700,4218,427
2013/07/01,43100,43300,42700,42900,4789,429
2013/07/02,43300,43400,42900,43400,4102,434
2013/07/04,43500,43500,43250,43500,2612,435
2013/07/05,43500,43750,43500,43700,2760,437
2013/07/08,43950,44000,43650,43700,6134,437
2013/07/09,43800,43950,43650,43900,4204,439
2013/07/10,43900,43900,43700,43900,3651,439
2013/07/11,43900,43900,43650,43900,4147,439
2013/07/16,46900,48700,46650,47700,14239,477
2013/07/18,48700,49650,48700,49300,9096,493
2013/07/19,49450,49450,47800,48300,7720,483
2013/07/22,48800,49000,48250,48900,5427,489
2013/07/29,48650,49200,48300,48600,6603,486
2013/07/30,48400,49700,48300,49700,8873,497
2013/07/31,49700,49950,48800,49700,5771,497
2013/08/02,50000,51000,49550,50800,9628,508
2013/08/05,50900,50900,50200,50600,5357,506
2013/08/06,50400,51000,50200,51000,3909,510
2013/08/07,50600,50900,50400,50400,3210,504
2013/08/08,50000,50500,49450,49600,7106,496
2013/08/09,49600,49650,47000,47300,13396,473
2013/08/13,47500,47900,47350,47700,3587,477
2013/08/15,47700,47850,47350,47400,4934,474
2013/08/16,47350,47450,47050,47100,4094,471
2013/08/19,47100,47350,45750,46100,10258,461
2013/08/21,44750,44950,44400,44700,6366,447
2013/08/23,44500,45450,44500,45200,5784,452
2013/08/26,45750,45750,45100,45100,8168,451
2013/08/29,43300,43450,42550,42600,8942,426
2013/09/02,42800,42950,42400,42900,4022,429
2013/09/10,44600,44600,44050,44600,4455,446
2013/09/11,44600,44800,44400,44800,3821,448
2013/09/13,45400,45650,45050,45600,5546,456
2013/09/18,45550,46050,45250,45800,4348,458
2013/09/20,47000,47300,46200,47000,3946,470
2013/09/24,47000,47200,46600,46700,3152,467
2013/09/26,45800,46350,45450,46300,2090,463
2013/09/27,46150,46500,45700,46000,3288,460
2013/10/01,46500,46700,46200,46400,2052,464
2013/10/02,46500,46500,45500,45600,1939,456
2013/10/09,45600,45650,44800,45200,4257,452
2013/10/10,45550,45600,45200,45400,2157,454
2013/10/11,45850,46300,45650,46300,2789,463
2013/10/15,46800,47150,46350,46500,5243,465
2013/10/18,47000,47200,46850,47200,3132,472
2013/10/21,47250,47500,47050,47500,3365,475
2013/10/23,47950,48000,47350,47600,2449,476
2013/10/24,47500,47900,47350,47900,1834,479
2013/10/25,47950,48100,47550,47600,3342,476
2013/10/29,47800,48100,47700,48000,1658,480
2013/10/30,48100,48300,47900,48000,2825,480
2013/10/31,48250,48750,48050,48300,3619,483
2013/11/01,48500,48500,47800,48400,3530,484
2013/11/05,48250,49400,48100,49200,5148,492
2013/11/07,49900,50600,49550,50600,6318,506
2013/11/08,50400,50400,49700,50200,3471,502
2013/11/14,49300,49750,48500,49700,3065,497
2013/11/19,50000,50600,49800,50400,4029,504
2013/11/20,50500,50800,50100,50500,2170,505
2013/11/21,50700,51400,50400,51400,5066,514
2013/11/22,51900,53100,51500,52900,8910,529
2013/11/25,53200,53500,52700,53000,3773,530
2013/11/26,52400,52900,51800,52300,3442,523
2013/11/27,52300,52400,51600,52300,1780,523
2013/11/28,52300,52500,51500,52100,3042,521
2013/11/29,52100,52300,51800,52100,1625,521
2013/12/02,52100,52700,52100,52400,2262,524
2013/12/03,52500,53500,52500,53100,6067,531
2013/12/04,53000,53200,52700,52700,2422,527
2013/12/05,52700,53000,52200,52200,2314,522
2013/12/06,52100,53000,52100,52800,2798,528
2013/12/09,53000,53000,52500,52900,2093,529
2013/12/10,53000,53100,52500,52800,3347,528
2013/12/11,52700,52800,52400,52600,2398,526
2013/12/12,52600,52800,52300,52500,2658,525
2013/12/13,52500,52600,51900,52300,5283,523
2013/12/16,52400,52400,51600,51700,2850,517
2013/12/17,51700,52400,51700,52200,2308,522
2013/12/18,52000,52300,52000,52200,1593,522
2013/12/19,52300,52500,52100,52300,3633,523
2013/12/20,52200,52500,52200,52500,2548,525
2013/12/24,52500,52500,52000,52100,3617,521
2013/12/25,52100,52300,52000,52200,3952,522
2013/12/26,52600,53900,52500,53800,5397,538
2013/12/27,54100,55800,53800,55800,5781,558
2013/12/30,56900,59800,56400,59100,9134,591
2014/01/06,59400,59900,58200,58500,8026,585
2014/01/07,58300,58700,57800,58000,3353,580
2014/01/08,58200,60000,58200,60000,5194,600
2014/01/09,60000,60000,59200,59500,3217,595
2014/01/10,59300,59700,57100,58800,9284,588
2014/01/14,58700,58800,58000,58200,4635,582
2014/01/15,58500,59000,58100,58900,3451,589
2014/01/16,59000,59400,58400,58600,3277,586
2014/01/17,58700,59600,58600,59500,2756,595
2014/01/20,59800,60900,59600,60800,6286,608
2014/01/21,61200,61900,60100,60300,4883,603
2014/01/22,60200,60600,60000,60500,3068,605
2014/01/23,60700,60900,59900,59900,2946,599
2014/01/24,60000,60200,59400,60000,4793,600
2014/01/27,59000,59700,58500,58900,4824,589
2014/01/28,59100,60200,59100,59600,3879,596
2014/01/29,59900,60500,59700,60400,3612,604
2014/01/30,59800,60100,59500,59900,2993,599
2014/01/31,60000,60300,59300,59800,3720,598
2014/02/03,59300,59600,58700,58900,4437,589
2014/02/04,57200,57500,56400,56500,7243,565
2014/02/05,58400,58600,56800,58000,4941,580
2014/02/06,57700,58500,57500,58000,2725,580
2014/02/07,58900,59900,58700,59300,3664,593
2014/02/10,60000,60000,59400,59600,2314,596
2014/02/12,59900,60000,59600,59700,2448,597
2014/02/13,59800,59900,58900,59000,4072,590
2014/02/14,59000,59500,58600,59400,3686,594
2014/02/17,59800,60000,59300,60000,4971,600
2014/02/18,60000,60400,59700,60300,6484,603
2014/02/19,60100,60500,59900,60100,6359,601
2014/02/20,60100,60700,59900,60200,6369,602
2014/02/21,60800,60800,60300,60500,5585,605
2014/02/24,60100,60400,60000,60200,6982,602
2014/02/25,60000,60300,58200,58400,23124,584
2014/02/26,577,585,573,584,1086200,584
2014/02/27,583,593,580,593,795900,593
2014/02/28,593,597,587,595,591600,595
2014/03/03,595,595,583,593,475000,593
2014/03/04,590,594,586,590,392600,590
2014/03/05,598,598,589,593,316500,593
2014/03/06,594,595,588,590,364800,590
2014/03/07,592,595,590,595,303900,595
2014/03/10,595,595,587,589,290500,589
2014/03/11,592,595,588,595,270300,595
2014/03/12,594,594,583,585,262300,585
2014/03/13,585,589,582,586,183300,586
2014/03/14,582,584,576,577,459700,577
2014/03/17,575,582,561,571,358300,571
2014/03/18,575,587,572,584,284800,584
2014/03/19,585,592,581,584,338700,584
2014/03/20,590,594,576,576,557500,576
2014/03/24,580,603,580,602,916600,602
2014/03/25,603,616,591,594,784800,594
2014/03/26,602,608,599,600,362600,600
2014/03/27,596,611,594,611,440100,611
2014/03/28,611,618,606,617,317500,617
2014/03/31,617,622,610,622,406300,622
2014/04/01,622,629,615,629,426400,629
2014/04/02,627,628,609,610,691100,610
2014/04/03,607,610,601,607,482300,607
2014/04/04,603,614,603,610,197600,610
2014/04/07,607,613,606,611,281100,611
2014/04/08,613,623,608,620,502300,620
2014/04/09,624,629,615,623,693600,623
2014/04/10,628,632,619,623,513600,623
2014/04/11,615,623,612,613,572600,613
2014/04/14,605,610,601,603,676200,603
2014/04/15,612,628,610,628,599500,628
2014/04/16,630,659,624,656,888700,656
2014/04/17,664,710,658,698,1775300,698
2014/04/18,697,705,672,697,1705400,697
2014/04/21,698,717,692,711,807500,711
2014/04/22,714,744,710,731,1578300,731
2014/04/23,734,753,732,751,1435400,751
2014/04/24,749,749,730,736,960200,736
2014/04/25,742,756,739,751,1118800,751
2014/04/28,748,750,738,750,830600,750
2014/04/30,751,760,741,745,1254100,745
2014/05/01,740,747,733,738,708400,738
2014/05/02,737,744,733,736,518400,736
2014/05/07,736,742,730,737,696200,737
2014/05/08,734,735,725,733,360800,733
2014/05/09,726,731,726,729,372300,729
2014/05/12,726,729,711,716,542000,716
2014/05/13,724,739,724,727,532900,727
2014/05/14,724,731,724,728,258900,728
2014/05/15,720,727,711,726,445800,726
2014/05/16,718,721,709,712,567300,712
2014/05/19,708,711,691,693,789000,693
2014/05/20,696,699,684,694,586200,694
2014/05/21,696,704,692,702,309500,702
2014/05/22,704,708,692,705,457400,705
2014/05/23,708,732,708,729,730000,729
2014/05/26,735,735,718,730,525000,730
2014/05/27,730,731,723,730,484800,730
2014/05/28,732,734,727,729,515600,729
2014/05/29,730,743,727,736,430200,736
2014/05/30,735,750,735,749,504500,749
2014/06/02,755,758,745,753,539900,753
2014/06/03,755,786,755,784,1076300,784
2014/06/04,792,794,771,785,703200,785
2014/06/05,789,790,774,778,383300,778
2014/06/06,777,783,775,778,256100,778
2014/06/09,778,783,763,765,575000,765
2014/06/10,763,770,757,767,391100,767
2014/06/11,749,775,734,755,1184100,755
2014/06/12,750,769,750,764,446100,764
2014/06/13,766,773,754,762,588000,762
2014/06/16,762,765,756,762,238400,762
2014/06/17,759,765,747,749,559300,749
2014/06/18,748,751,741,744,507500,744
2014/06/19,743,748,741,747,494700,747
2014/06/20,749,749,738,738,466800,738
2014/06/23,740,740,732,736,317100,736
2014/06/24,740,754,737,751,399900,751
2014/06/25,753,768,752,764,705300,764
2014/06/26,770,777,765,769,483900,769
2014/06/27,769,769,741,758,715800,758
2014/06/30,762,785,761,785,1015300,785
2014/07/01,786,803,786,791,800500,791
2014/07/02,799,802,792,794,490600,794
2014/07/03,798,799,788,792,349800,792
2014/07/04,794,794,777,782,595300,782
2014/07/07,782,784,775,779,353100,779
2014/07/08,777,788,776,785,382000,785
2014/07/09,785,785,775,781,483100,781
2014/07/10,783,783,768,772,498800,772
2014/07/11,772,792,772,791,646500,791
2014/07/14,806,815,773,776,1275200,776
2014/07/15,779,782,773,775,482200,775
2014/07/16,777,780,775,778,395800,778
2014/07/17,780,781,772,774,528500,774
2014/07/18,768,775,761,771,399700,771
2014/07/22,779,782,778,780,393800,780
2014/07/23,783,792,782,791,485500,791
2014/07/24,810,833,809,831,1933900,831
2014/07/25,834,854,832,854,1584800,854
2014/07/28,860,880,860,880,1136000,880
2014/07/29,885,890,868,889,971800,889
2014/07/30,890,909,881,906,1130900,906
2014/07/31,906,909,891,897,825000,897
2014/08/01,882,902,882,892,826700,892
2014/08/04,886,900,876,897,826900,897
2014/08/05,900,900,886,887,873000,887
2014/08/06,880,898,880,889,715300,889
2014/08/07,888,910,884,910,946600,910
2014/08/08,908,924,893,907,1458100,907
2014/08/11,910,915,901,914,539200,914
2014/08/12,914,914,901,901,544400,901
2014/08/13,901,902,882,892,781600,892
2014/08/14,895,898,880,883,714900,883
2014/08/15,882,890,876,889,576600,889
2014/08/18,888,890,881,884,413200,884
2014/08/19,887,890,882,890,470600,890
2014/08/20,889,897,888,892,500200,892
2014/08/21,890,891,882,889,532400,889
2014/08/22,915,929,891,900,2609200,900
2014/08/25,901,902,885,887,1125200,887
2014/08/26,886,887,870,873,1931500,873
2014/08/27,873,917,870,916,2743000,916
2014/08/28,914,921,897,916,1346200,916
2014/08/29,920,955,919,952,1871900,952
2014/09/01,949,949,924,944,1265900,944
2014/09/02,945,946,925,926,737400,926
2014/09/03,938,962,934,955,1317400,955
2014/09/04,958,982,958,965,1232700,965
2014/09/05,964,974,952,959,696800,959
2014/09/08,964,965,951,960,432700,960
2014/09/09,961,963,944,950,699500,950
2014/09/10,941,953,935,948,698200,948
2014/09/11,959,972,958,966,746600,966
2014/09/12,972,991,967,989,1403700,989
2014/09/16,998,1014,984,989,1301900,989
2014/09/17,988,992,969,969,864500,969
2014/09/18,980,989,975,989,809500,989
2014/09/19,996,1008,983,1008,1278500,1008
2014/09/22,1009,1010,997,1009,646000,1009
2014/09/24,1007,1027,1003,1021,517700,1021
2014/09/25,1028,1039,1019,1039,603700,1039
2014/09/26,1034,1053,1027,1051,725500,1051
2014/09/29,1065,1074,1046,1051,987600,1051
2014/09/30,1048,1050,1023,1034,983700,1034
2014/10/01,1033,1048,1028,1033,832300,1033
2014/10/02,1030,1068,1029,1041,1712000,1041
2014/10/03,1036,1064,1035,1053,1023500,1053
2014/10/06,1075,1096,1070,1088,2106300,1088
2014/10/07,1109,1140,1027,1031,4039700,1031
2014/10/08,1021,1063,1007,1033,2167800,1033
2014/10/09,1042,1050,993,1000,1629900,1000
2014/10/10,980,994,970,988,1267900,988
2014/10/14,979,996,967,991,1055800,991
2014/10/15,1014,1088,1013,1083,3166300,1083
2014/10/16,1061,1086,1030,1081,2598000,1081
2014/10/17,1090,1098,1008,1014,1779900,1014
2014/10/20,1064,1068,1039,1055,1184600,1055
2014/10/21,1050,1051,1007,1007,1238200,1007
2014/10/22,1020,1025,1003,1007,2029300,1007
2014/10/23,1007,1009,941,957,2611800,957
2014/10/24,972,975,954,957,1653200,957
2014/10/27,969,970,943,954,678600,954
2014/10/28,950,959,927,945,992100,945
2014/10/29,950,956,936,943,1113500,943
2014/10/30,950,964,943,953,942000,953
2014/10/31,950,974,950,969,1104600,969
2014/11/04,999,999,961,962,1303900,962
2014/11/05,962,975,952,971,788200,971
2014/11/06,974,985,962,966,818800,966
2014/11/07,964,966,931,943,1261500,943
2014/11/10,940,952,938,948,454500,948
2014/11/11,954,1013,954,1003,2356600,1003
2014/11/12,1010,1025,1002,1006,1408200,1006
2014/11/13,996,1018,993,1014,825900,1014
2014/11/14,1020,1020,995,1005,1103100,1005
2014/11/17,1006,1006,985,994,1332600,994
2014/11/18,1007,1042,1006,1037,2087800,1037
2014/11/19,1040,1048,1015,1017,635800,1017
2014/11/20,1024,1025,1002,1018,527900,1018
2014/11/21,1013,1019,1001,1013,623300,1013
2014/11/25,1020,1022,1005,1016,588700,1016
2014/11/26,1022,1047,1020,1045,800800,1045
2014/11/27,1046,1046,1024,1025,362500,1025
2014/11/28,1029,1043,1029,1041,436400,1041
2014/12/01,1041,1055,1040,1055,648400,1055
2014/12/02,1055,1060,1041,1055,739900,1055
2014/12/03,1058,1071,1048,1052,749300,1052
2014/12/04,1066,1075,1055,1058,557300,1058
2014/12/05,1060,1074,1055,1073,776700,1073
2014/12/08,1090,1098,1078,1096,1065100,1096
2014/12/09,1099,1119,1090,1103,1117700,1103
2014/12/10,1088,1118,1080,1101,950000,1101
2014/12/11,1070,1104,1062,1096,798600,1096
2014/12/12,1107,1149,1101,1140,1359300,1140
2014/12/15,1139,1184,1126,1177,1427500,1177
2014/12/16,1173,1199,1159,1184,2056700,1184
2014/12/17,1188,1229,1186,1222,2533300,1222
2014/12/18,1250,1268,1240,1264,1645400,1264
2014/12/19,1285,1299,1241,1256,1916000,1256
2014/12/22,1256,1284,1221,1283,1401900,1283
2014/12/24,1295,1372,1279,1339,2087500,1339
2014/12/25,1350,1379,1330,1344,1738300,1344
2014/12/26,1350,1384,1330,1382,1316500,1382
2014/12/29,1403,1415,1374,1389,2271700,1389
2014/12/30,1379,1410,1372,1390,2169100,1390
2015/01/05,1374,1420,1373,1412,1309200,1412
2015/01/06,1390,1393,1334,1343,2637700,1343
2015/01/07,1306,1328,1244,1258,3471100,1258
2015/01/08,1300,1310,1266,1270,1992300,1270
2015/01/09,1289,1301,1245,1248,1431300,1248
2015/01/13,1238,1280,1203,1265,1588900,1265
2015/01/14,1299,1336,1261,1274,3068000,1274
2015/01/15,1276,1359,1274,1356,2630600,1356
2015/01/16,1337,1353,1308,1349,2161000,1349
2015/01/19,1354,1366,1324,1359,1370100,1359
2015/01/20,1369,1374,1336,1351,1520600,1351
2015/01/21,1350,1350,1316,1329,1688700,1329
2015/01/22,1320,1339,1305,1321,1142300,1321
2015/01/23,1321,1328,1284,1288,1247800,1288
2015/01/26,1280,1296,1263,1269,1247800,1269
2015/01/27,1268,1303,1261,1299,1521400,1299
2015/01/28,1287,1366,1281,1364,2460400,1364
2015/01/29,1345,1380,1333,1348,1585300,1348
2015/01/30,1356,1368,1331,1339,779300,1339
2015/02/02,1335,1349,1311,1348,841000,1348
2015/02/03,1356,1370,1305,1314,1193600,1314
2015/02/04,1334,1356,1329,1347,1202700,1347
2015/02/05,1342,1346,1316,1323,854700,1323
2015/02/06,1327,1333,1295,1296,917500,1296
2015/02/09,1300,1302,1272,1276,1145900,1276
2015/02/10,1275,1316,1269,1313,1325700,1313
2015/02/12,1331,1342,1317,1331,1112300,1331
2015/02/13,1331,1338,1323,1328,652700,1328
2015/02/16,1339,1359,1328,1359,1366800,1359
2015/02/17,1360,1367,1313,1348,1254000,1348
2015/02/18,1356,1363,1348,1358,776100,1358
2015/02/19,1363,1410,1362,1406,1892600,1406
2015/02/20,1409,1415,1382,1388,1172900,1388
2015/02/23,1397,1398,1358,1365,1248100,1365
2015/02/24,1355,1375,1327,1335,2076700,1335
2015/02/25,1335,1343,1314,1320,1366600,1320
2015/02/26,1315,1337,1310,1336,752500,1336
2015/02/27,1339,1354,1330,1350,1169700,1350
2015/03/02,1358,1363,1334,1337,844400,1337
2015/03/03,1335,1367,1333,1361,1335300,1361
2015/03/04,1359,1359,1315,1342,1052500,1342
2015/03/05,1354,1379,1337,1339,2028200,1339
2015/03/06,1335,1350,1316,1324,1187900,1324
2015/03/09,1316,1346,1316,1333,744200,1333
2015/03/10,1342,1343,1302,1308,1361100,1308
2015/03/11,1290,1308,1283,1295,1271700,1295
2015/03/12,1291,1305,1288,1296,841700,1296
2015/03/13,1296,1303,1286,1291,960100,1291
2015/03/16,1287,1291,1273,1278,1061800,1278
2015/03/17,1288,1291,1250,1250,1459000,1250
2015/03/18,1245,1259,1223,1257,1380400,1257
2015/03/19,1271,1308,1258,1305,1815400,1305
2015/03/20,1320,1334,1283,1294,3267100,1294
2015/03/23,1291,1299,1281,1287,1110700,1287
2015/03/24,1282,1291,1262,1265,799600,1265
2015/03/25,1265,1284,1255,1271,596300,1271
2015/03/26,1260,1267,1241,1245,840200,1245
2015/03/27,1240,1276,1240,1264,831900,1264
2015/03/30,1260,1260,1241,1252,657400,1252
2015/03/31,1270,1299,1249,1250,965500,1250
2015/04/01,1250,1274,1233,1262,867800,1262
2015/04/02,1262,1289,1262,1281,637300,1281
2015/04/03,1290,1308,1283,1299,783000,1299
2015/04/06,1299,1323,1260,1268,1376600,1268
2015/04/07,1271,1278,1242,1247,1231000,1247
2015/04/08,1252,1258,1244,1252,715700,1252
2015/04/09,1253,1266,1250,1261,546900,1261
2015/04/10,1270,1290,1257,1285,1014100,1285
2015/04/13,1265,1277,1200,1204,3221400,1204
2015/04/14,1213,1219,1201,1210,1627500,1210
2015/04/15,1205,1208,1171,1179,1912600,1179
2015/04/16,1179,1188,1165,1183,1161600,1183
2015/04/17,1183,1192,1170,1187,1023500,1187
2015/04/20,1184,1203,1176,1187,883500,1187
2015/04/21,1180,1188,1176,1181,810000,1181
2015/04/22,1188,1218,1186,1208,1379300,1208
2015/04/23,1218,1219,1194,1208,1175700,1208
2015/04/24,1207,1220,1202,1211,803500,1211
2015/04/27,1211,1222,1207,1221,653900,1221
2015/04/28,1219,1222,1206,1211,1151500,1211
2015/04/30,1210,1211,1180,1194,975100,1194
2015/05/01,1185,1188,1172,1179,573200,1179
2015/05/07,1172,1176,1154,1158,880900,1158
2015/05/08,1157,1185,1155,1182,590300,1182
2015/05/11,1185,1209,1185,1205,739000,1205
2015/05/12,1208,1227,1202,1212,968900,1212
2015/05/13,1214,1215,1202,1213,387900,1213
2015/05/14,1216,1216,1200,1201,403300,1201
2015/05/15,1200,1212,1200,1210,391700,1210
2015/05/18,1213,1218,1209,1218,298700,1218
2015/05/19,1220,1229,1213,1223,617000,1223
2015/05/20,1232,1235,1217,1226,515100,1226
2015/05/21,1233,1233,1210,1214,548300,1214
2015/05/22,1214,1215,1200,1213,525200,1213
2015/05/25,1219,1223,1213,1221,400900,1221
2015/05/26,1225,1255,1222,1244,938300,1244
2015/05/27,1239,1239,1212,1218,782700,1218
2015/05/28,1221,1223,1207,1214,383000,1214
2015/05/29,1212,1239,1212,1236,874800,1236
2015/06/01,1241,1246,1232,1242,372600,1242
2015/06/02,1240,1264,1236,1251,578500,1251
2015/06/03,1259,1261,1238,1261,641100,1261
2015/06/04,1270,1279,1247,1255,501500,1255
2015/06/05,1265,1290,1262,1282,1126700,1282
2015/06/08,1293,1340,1292,1322,2157400,1322
2015/06/09,1313,1324,1301,1310,1138600,1310
2015/06/10,1312,1339,1306,1334,1359100,1334
2015/06/11,1350,1385,1347,1356,2290400,1356
2015/06/12,1370,1403,1366,1398,2239900,1398
2015/06/15,1385,1408,1385,1405,1088700,1405
2015/06/16,1400,1406,1374,1376,1124300,1376
2015/06/17,1395,1428,1391,1411,1430300,1411
2015/06/18,1413,1440,1391,1435,1418100,1435
2015/06/19,1442,1448,1421,1436,1295200,1436
2015/06/22,1448,1488,1445,1486,1633000,1486
2015/06/23,1498,1512,1460,1468,1401400,1468
2015/06/24,1470,1472,1425,1444,1799000,1444
2015/06/25,1430,1453,1421,1431,1045200,1431
2015/06/26,1445,1516,1442,1490,2500800,1490
2015/06/29,1440,1546,1440,1520,2551900,1520
2015/06/30,1520,1598,1518,1542,2890600,1542
2015/07/01,1520,1565,1508,1553,1976300,1553
