2011/01/11,15990,15990,15820,15900,142,159
2011/01/12,16000,16000,15400,15800,196,158
2011/01/14,15790,15790,15540,15700,179,157
2011/01/18,15800,15800,15620,15700,65,157
2011/01/19,15820,15820,15530,15600,157,156
2011/01/21,15710,15810,15580,15600,70,156
2011/01/26,15730,15790,15600,15600,69,156
2011/02/02,15450,15450,15330,15400,139,154
2011/02/16,15480,15500,15480,15500,61,155
2011/02/17,15520,15520,15360,15400,201,154
2011/02/18,15410,15470,15380,15400,155,154
2011/02/22,15410,15410,15390,15400,101,154
2011/02/23,15450,15600,15450,15600,224,156
2011/02/25,15560,15600,15400,15500,138,155
2011/03/15,12700,12700,9860,12500,436,125
2011/03/16,11910,13000,11770,12600,198,126
2011/03/22,14900,15000,14600,14900,148,149
2011/03/25,14950,15080,14920,15000,131,150
2011/03/28,15010,15100,15010,15100,270,151
2011/04/01,13550,13800,13100,13100,67,131
2011/04/05,13740,13740,13300,13300,34,133
2011/04/06,13300,13590,13200,13500,51,135
2011/04/07,13500,13500,13500,13500,6,135
2011/04/08,13500,13500,13250,13500,17,135
2011/04/11,13500,14000,13500,14000,47,140
2011/04/12,13500,13700,13470,13700,43,137
2011/04/14,13730,13730,12900,13300,150,133
2011/04/19,13610,13900,13400,13600,59,136
2011/04/21,13850,13890,13650,13800,21,138
2011/04/25,13630,13630,13500,13500,25,135
2011/04/26,13420,13420,13400,13400,11,134
2011/04/28,13600,13900,13600,13600,27,136
2011/05/06,13990,14000,13660,14000,60,140
2011/05/16,14180,14180,13760,14100,27,141
2011/05/17,14150,14150,13830,14000,31,140
2011/05/23,13800,13800,13450,13500,74,135
2011/05/24,13590,14000,13590,14000,27,140
2011/05/25,13990,14000,13990,14000,21,140
2011/06/06,13770,13770,13700,13700,47,137
2011/06/07,13700,13790,13700,13700,24,137
2011/06/14,13810,13900,13810,13900,37,139
2011/06/27,14440,14450,14220,14300,46,143
2011/07/04,14850,14850,14470,14600,138,146
2011/07/06,14500,14600,14500,14600,68,146
2011/07/07,14510,14520,14500,14500,37,145
2011/07/26,14990,15000,14920,15000,62,150
2011/08/01,15230,15230,14900,14900,50,149
2011/08/08,14910,15100,14900,14900,47,149
2011/08/09,14890,14900,14510,14900,88,149
2011/08/15,14670,14700,14650,14700,33,147
2011/08/16,14990,15000,14990,15000,31,150
2011/08/18,15000,15000,14850,15000,25,150
2011/08/22,15100,15100,15010,15100,38,151
2011/08/23,15000,15100,15000,15000,13,150
2011/08/29,15090,15100,15000,15100,40,151
2011/09/02,15210,15210,15200,15200,17,152
2011/09/05,15150,15200,15150,15200,52,152
2011/09/08,15200,15300,15160,15300,65,153
2011/09/09,15300,15300,15260,15300,49,153
2011/09/12,15300,15300,15080,15100,116,151
2011/09/13,15050,15200,15050,15200,34,152
2011/09/14,15280,15290,15100,15100,57,151
2011/09/26,15450,15460,15280,15400,214,154
2011/09/29,14250,14500,14150,14300,74,143
2011/10/07,14130,14270,14130,14200,26,142
2011/10/12,14200,14900,14200,14700,40,147
2011/10/19,14500,14500,14500,14500,10,145
2011/10/26,14500,14500,14300,14500,20,145
2011/11/01,14400,14830,14400,14400,17,144
2011/11/02,14400,14500,14400,14500,14,145
2011/11/08,14500,14900,14500,14900,19,149
2011/11/09,14440,14900,14440,14900,40,149
2011/11/10,14400,14400,14380,14400,18,144
2011/11/11,14850,14860,14500,14600,17,146
2011/11/16,14500,14800,14430,14500,21,145
2011/11/18,14610,14700,14610,14700,11,147
2011/11/25,14800,14800,14800,14800,10,148
2011/11/28,14820,15000,14800,15000,122,150
2011/11/30,14950,14950,14800,14800,25,148
2011/12/05,14990,15000,14900,15000,34,150
2011/12/06,15100,15100,15000,15100,24,151
2011/12/07,15100,15100,14960,15100,41,151
2011/12/08,15100,15100,15100,15100,11,151
2011/12/09,15100,15100,15000,15000,28,150
2011/12/13,15150,15150,15000,15000,35,150
2011/12/19,15100,15200,14820,15200,52,152
2011/12/20,15100,15200,14900,14900,56,149
2011/12/26,15000,15090,14990,15000,79,150
2011/12/27,15000,15200,15000,15000,90,150
2011/12/29,15150,15200,15050,15200,11,152
2011/12/30,15290,15290,15070,15200,42,152
2012/01/17,15830,15880,15800,15800,75,158
2012/01/24,16050,16110,16050,16100,65,161
2012/02/13,17120,17800,17120,17800,57,178
2012/02/14,17800,18500,17800,18500,109,185
2012/02/15,18500,18510,17800,18000,67,180
2012/02/17,17880,17880,17330,17400,98,174
2012/02/20,17400,17480,17200,17200,94,172
2012/02/21,17200,17200,17000,17200,89,172
2012/02/24,17490,17490,17300,17300,100,173
2012/02/27,17500,17600,17350,17600,135,176
2012/02/28,17690,17690,17000,17200,340,172
2012/02/29,17200,17500,17200,17500,71,175
2012/03/05,17500,17500,17300,17300,212,173
2012/03/08,17490,17550,17400,17400,121,174
2012/03/09,17400,17400,17200,17200,204,172
2012/03/12,17210,17300,17000,17000,291,170
2012/03/19,17150,17170,16800,16800,326,168
2012/03/22,17000,17100,16800,17000,136,170
2012/03/26,17300,17300,16860,17200,471,172
2012/03/28,15900,16490,15900,16200,779,162
2012/03/30,15770,16000,15600,15900,67,159
2012/04/09,15880,15890,15700,15700,142,157
2012/04/11,15700,15800,15600,15600,121,156
2012/04/19,15550,15800,15500,15800,118,158
2012/04/20,15800,15800,15800,15800,11,158
2012/04/24,16000,16000,15700,15700,64,157
2012/04/26,15780,15780,15500,15500,76,155
2012/05/01,15750,15750,15450,15600,151,156
2012/05/02,15590,15850,15590,15800,58,158
2012/05/07,15910,15910,15500,15500,148,155
2012/05/08,15550,15650,15460,15500,64,155
2012/05/10,15470,15500,15470,15500,19,155
2012/05/11,15580,15580,15490,15500,43,155
2012/05/16,15420,15420,15400,15400,41,154
2012/05/21,15600,15600,15500,15500,35,155
2012/05/22,15600,15650,15460,15500,90,155
2012/05/29,15600,15600,15380,15400,147,154
2012/05/30,15700,15700,15500,15600,71,156
2012/06/04,15500,15550,15200,15200,239,152
2012/06/05,15300,15500,15300,15400,35,154
2012/06/06,15590,15650,15300,15300,127,153
2012/06/07,15490,15490,15300,15400,62,154
2012/06/08,15480,15550,15300,15300,117,153
2012/06/11,15500,15600,15300,15300,133,153
2012/06/12,15430,15480,15300,15300,130,153
2012/06/19,15400,15400,15300,15300,108,153
2012/06/20,15440,15490,15300,15300,131,153
2012/06/21,15370,15370,15250,15300,192,153
2012/06/25,15440,15500,15400,15500,157,155
2012/06/26,15480,15640,15400,15500,151,155
2012/06/27,15590,15600,15490,15600,268,156
2012/06/28,15600,16600,15600,16600,355,166
2012/07/02,16300,16380,16100,16100,204,161
2012/07/03,16300,16400,15600,15600,303,156
2012/07/05,15780,15900,15780,15800,105,158
2012/07/09,16100,16250,16060,16200,126,162
2012/07/23,16000,16050,15850,15900,143,159
2012/07/24,15920,16000,15800,15800,143,158
2012/07/25,15800,16240,15760,16000,221,160
2012/07/26,15800,15900,15730,15800,88,158
2012/07/27,15900,15950,15800,15900,93,159
2012/08/01,15990,16000,15850,16000,30,160
2012/08/02,16000,16000,15900,16000,58,160
2012/08/03,15880,16000,15400,15400,476,154
2012/08/06,15700,15850,15600,15600,105,156
2012/08/07,15700,15800,15600,15600,144,156
2012/08/10,15640,15640,15440,15500,343,155
2012/08/14,15550,15580,15400,15400,312,154
2012/08/15,15500,15700,15500,15700,116,157
2012/08/20,15700,15780,15640,15700,224,157
2012/08/21,15800,15950,15770,15800,99,158
2012/08/23,15940,16080,15900,16000,92,160
2012/08/27,16050,16050,15900,15900,171,159
2012/08/29,15870,16000,15840,16000,119,160
2012/09/03,16000,16200,16000,16200,177,162
2012/09/06,16150,16200,15990,16100,175,161
2012/09/07,16000,16250,15960,16200,215,162
2012/09/14,16050,16100,16030,16100,183,161
2012/09/18,16100,16240,16100,16200,264,162
2012/09/26,150,155,149,150,66700,150
2012/09/27,152,154,151,154,12000,154
2012/09/28,155,158,154,156,17600,156
2012/10/01,155,155,153,154,9700,154
2012/10/02,152,154,152,154,6000,154
2012/10/03,153,158,153,156,11200,156
2012/10/04,155,158,152,158,15000,158
2012/10/05,155,156,153,155,9700,155
2012/10/09,155,156,154,154,5400,154
2012/10/10,155,155,153,154,7600,154
2012/10/11,155,156,153,156,8100,156
2012/10/12,155,156,154,155,6000,155
2012/10/15,156,156,155,155,7400,155
2012/10/16,156,156,155,155,1600,155
2012/10/17,156,158,156,158,11500,158
2012/10/18,158,159,157,159,10700,159
2012/10/19,158,164,156,156,25200,156
2012/10/22,157,158,154,157,15000,157
2012/10/23,155,158,155,157,5000,157
2012/10/24,156,159,156,157,1900,157
2012/10/25,156,158,156,158,2300,158
2012/10/26,157,159,156,158,8000,158
2012/10/29,158,160,158,158,2800,158
2012/10/30,158,162,158,158,10700,158
2012/10/31,159,160,158,160,8400,160
2012/11/01,159,160,158,160,1500,160
2012/11/02,160,161,159,160,3300,160
2012/11/05,159,164,159,160,10300,160
2012/11/06,163,163,160,162,11700,162
2012/11/07,164,165,162,164,13800,164
2012/11/08,164,165,162,164,21200,164
2012/11/09,164,164,158,159,40600,159
2012/11/12,160,161,158,160,11700,160
2012/11/13,160,161,158,159,4300,159
2012/11/14,158,158,155,157,18300,157
2012/11/15,160,160,158,160,3500,160
2012/11/16,160,161,160,161,5800,161
2012/11/19,161,165,161,163,6700,163
2012/11/20,163,163,162,162,3500,162
2012/11/21,162,162,158,162,18800,162
2012/11/22,162,162,159,159,7800,159
2012/11/26,164,164,160,163,7000,163
2012/11/27,164,164,161,164,8400,164
2012/11/28,164,164,161,163,5500,163
2012/11/29,162,164,162,163,3400,163
2012/11/30,162,163,161,162,5100,162
2012/12/03,163,164,159,164,18700,164
2012/12/04,163,164,161,162,5600,162
2012/12/05,163,164,162,163,8800,163
2012/12/06,164,164,162,164,5400,164
2012/12/07,164,166,162,166,21400,166
2012/12/10,167,216,167,216,509000,216
2012/12/11,197,200,186,186,330200,186
2012/12/12,195,212,186,187,238100,187
2012/12/13,186,188,173,184,75100,184
2012/12/14,182,185,178,185,51200,185
2012/12/17,184,184,179,181,38300,181
2012/12/18,180,181,172,176,59000,176
2012/12/19,176,178,176,178,21100,178
2012/12/20,178,181,177,180,20400,180
2012/12/21,180,181,179,179,13600,179
2012/12/25,179,180,177,178,20600,178
2012/12/26,180,182,178,180,10800,180
2012/12/27,181,185,178,181,36100,181
2012/12/28,182,189,182,188,24500,188
2013/01/04,195,196,189,195,32600,195
2013/01/07,199,199,194,199,21900,199
2013/01/08,199,199,194,196,22000,196
2013/01/09,197,198,193,194,12900,194
2013/01/10,197,199,195,197,15000,197
2013/01/11,198,200,197,200,15000,200
2013/01/15,201,204,201,201,15800,201
2013/01/16,205,205,201,205,12400,205
2013/01/17,207,207,200,203,16400,203
2013/01/18,203,203,201,203,7900,203
2013/01/21,204,215,203,214,30100,214
2013/01/22,220,227,216,227,57300,227
2013/01/23,226,226,217,222,31000,222
2013/01/24,220,225,218,222,12900,222
2013/01/25,222,223,220,223,8800,223
2013/01/28,224,224,219,223,16700,223
2013/01/29,224,225,222,223,12400,223
2013/01/30,226,227,225,227,13900,227
2013/01/31,227,239,227,237,22600,237
2013/02/01,240,252,237,252,21400,252
2013/02/04,268,300,261,275,89500,275
2013/02/05,289,295,272,290,68300,290
2013/02/06,292,292,275,279,46600,279
2013/02/07,283,283,271,271,26500,271
2013/02/08,270,270,251,258,66200,258
2013/02/12,252,256,239,241,58000,241
2013/02/13,239,241,234,235,25100,235
2013/02/14,233,240,229,237,24400,237
2013/02/15,233,234,225,226,25400,226
2013/02/18,225,239,225,239,14500,239
2013/02/19,240,249,240,247,16300,247
2013/02/20,250,260,250,259,14800,259
2013/02/21,260,262,258,260,17400,260
2013/02/22,260,261,258,259,9700,259
2013/02/25,261,262,259,261,7800,261
2013/02/26,260,262,259,262,9600,262
2013/02/27,262,262,258,261,30700,261
2013/02/28,260,261,258,259,7700,259
2013/03/01,260,261,260,261,8200,261
2013/03/04,265,270,264,270,17600,270
2013/03/05,273,293,273,283,66300,283
2013/03/06,283,288,278,280,25000,280
2013/03/07,279,279,275,279,20000,279
2013/03/08,279,280,276,277,14900,277
2013/03/11,280,283,280,283,15300,283
2013/03/12,285,286,283,283,12100,283
2013/03/13,284,285,278,281,27400,281
2013/03/14,280,282,279,280,11000,280
2013/03/15,278,282,278,282,8400,282
2013/03/18,282,285,280,284,18800,284
2013/03/19,286,290,285,288,17900,288
2013/03/21,294,294,288,294,25000,294
2013/03/22,294,294,290,294,24000,294
2013/03/25,298,298,292,292,28400,292
2013/03/26,293,293,285,285,45000,285
2013/03/27,253,270,251,265,83900,265
2013/03/28,261,270,256,258,25800,258
2013/03/29,260,270,260,264,16600,264
2013/04/01,260,261,255,255,21300,255
2013/04/02,252,253,239,252,24000,252
2013/04/03,251,255,251,255,6400,255
2013/04/04,255,256,250,252,10800,252
2013/04/05,255,260,252,255,14600,255
2013/04/08,260,260,252,255,12000,255
2013/04/09,257,260,254,258,11900,258
2013/04/10,258,260,258,260,9100,260
2013/04/11,262,262,260,262,9500,262
2013/04/12,262,270,262,267,17800,267
2013/04/15,267,271,265,269,12200,269
2013/04/16,265,278,264,277,24300,277
2013/04/17,279,282,273,281,31000,281
2013/04/18,278,283,278,283,9700,283
2013/04/19,283,284,281,284,11700,284
2013/04/22,285,285,279,284,19700,284
2013/04/23,283,286,280,284,12200,284
2013/04/24,282,285,280,281,9700,281
2013/04/25,280,280,278,280,16500,280
2013/04/26,280,280,272,272,15500,272
2013/04/30,273,278,270,278,12900,278
2013/05/01,277,280,273,279,11800,279
2013/05/02,275,279,275,277,4500,277
2013/05/07,279,281,276,281,22400,281
2013/05/08,281,282,278,278,11200,278
2013/05/09,280,282,278,279,10500,279
2013/05/10,281,283,278,282,8700,282
2013/05/13,283,305,283,302,137300,302
2013/05/14,305,355,300,304,284400,304
2013/05/15,310,310,281,302,75100,302
2013/05/16,294,295,280,290,37500,290
2013/05/17,281,320,281,313,68700,313
2013/05/20,336,350,328,330,136300,330
2013/05/21,329,398,321,369,229800,369
2013/05/22,370,370,344,355,76500,355
2013/05/23,351,351,318,318,56800,318
2013/05/24,317,334,311,315,31600,315
2013/05/27,311,314,300,312,25600,312
2013/05/28,303,305,291,304,44300,304
2013/05/29,307,315,304,315,16100,315
2013/05/30,319,319,300,300,15800,300
2013/05/31,300,320,300,320,19700,320
2013/06/03,308,312,301,310,13700,310
2013/06/04,300,309,300,305,13800,305
2013/06/05,305,305,297,302,16200,302
2013/06/06,293,301,288,298,31600,298
2013/06/07,280,290,253,275,58300,275
2013/06/10,275,287,274,278,26800,278
2013/06/11,279,285,278,281,9900,281
2013/06/12,276,288,271,281,18300,281
2013/06/13,282,286,270,281,20000,281
2013/06/14,276,279,275,279,6600,279
2013/06/17,277,282,276,278,6800,278
2013/06/18,278,284,278,282,8000,282
2013/06/19,285,288,283,286,2900,286
2013/06/20,296,296,287,291,9100,291
2013/06/21,291,293,286,290,4300,290
2013/06/24,290,295,290,293,4700,293
2013/06/25,295,295,286,292,6100,292
2013/06/26,294,294,281,284,6300,284
2013/06/27,279,285,277,281,14200,281
2013/06/28,285,289,282,288,6500,288
2013/07/01,295,295,290,293,13300,293
2013/07/02,296,300,296,300,11700,300
2013/07/03,301,306,301,306,11900,306
2013/07/04,312,312,306,312,14900,312
2013/07/05,310,315,309,309,14800,309
2013/07/08,312,315,306,309,12800,309
2013/07/09,314,314,308,311,5500,311
2013/07/10,311,311,308,310,6100,310
2013/07/11,307,310,302,308,11400,308
2013/07/12,310,310,300,300,13000,300
2013/07/16,304,304,300,300,8400,300
2013/07/17,303,304,301,304,7000,304
2013/07/18,305,308,301,305,9300,305
2013/07/19,305,310,301,303,20300,303
2013/07/22,304,309,304,305,6600,305
2013/07/23,305,308,304,304,6800,304
2013/07/24,308,309,306,309,6700,309
2013/07/25,309,309,306,306,2800,306
2013/07/26,306,310,305,309,5200,309
2013/07/29,308,310,303,303,15600,303
2013/07/30,301,305,301,302,5100,302
2013/07/31,303,305,303,303,1700,303
2013/08/01,303,308,302,304,4200,304
2013/08/02,307,308,303,305,9500,305
2013/08/05,308,311,304,311,7600,311
2013/08/06,311,313,311,312,2800,312
2013/08/07,308,314,308,311,5600,311
2013/08/08,310,312,307,309,2000,309
2013/08/09,310,312,309,309,5500,309
2013/08/12,315,315,306,306,9200,306
2013/08/13,310,313,308,312,3400,312
2013/08/14,311,315,311,315,11400,315
2013/08/15,315,315,310,310,14000,310
2013/08/16,309,314,309,311,9500,311
2013/08/19,309,313,309,310,5400,310
2013/08/20,314,314,309,309,8500,309
2013/08/21,308,311,308,309,6700,309
2013/08/22,308,308,306,307,7000,307
2013/08/23,313,314,308,310,7100,310
2013/08/26,310,313,310,313,8900,313
2013/08/27,314,314,310,312,5600,312
2013/08/28,312,312,309,311,6100,311
2013/08/29,320,325,308,309,52300,309
2013/08/30,310,323,308,323,21300,323
2013/09/02,322,338,321,331,40700,331
2013/09/03,335,335,326,333,15300,333
2013/09/04,330,335,326,335,10800,335
2013/09/05,335,345,331,340,27200,340
2013/09/06,343,344,323,325,23900,325
2013/09/09,338,338,330,334,10200,334
2013/09/10,341,343,335,342,15000,342
2013/09/11,345,347,341,344,14100,344
2013/09/12,343,346,340,345,10200,345
2013/09/13,345,349,345,349,12600,349
2013/09/17,350,353,348,353,21100,353
2013/09/18,354,355,352,354,11100,354
2013/09/19,352,354,350,352,20800,352
2013/09/20,351,354,350,354,17900,354
2013/09/24,354,355,352,353,35400,353
2013/09/25,351,355,349,350,57300,350
2013/09/26,321,328,317,322,88100,322
2013/09/27,321,325,320,323,26200,323
2013/09/30,325,325,323,324,14800,324
2013/10/01,323,324,321,321,7300,321
2013/10/02,321,322,317,317,18100,317
2013/10/03,315,317,315,316,11600,316
2013/10/04,316,316,305,311,10900,311
2013/10/07,309,310,305,305,10000,305
2013/10/08,304,310,303,309,17100,309
2013/10/09,309,309,305,309,9300,309
2013/10/10,307,310,307,309,7900,309
2013/10/11,309,311,308,308,7500,308
2013/10/15,308,309,306,306,10400,306
2013/10/16,308,309,307,309,6800,309
2013/10/17,309,310,307,308,12000,308
2013/10/18,308,310,307,308,7300,308
2013/10/21,308,313,307,309,12700,309
2013/10/22,309,312,309,309,8100,309
2013/10/23,309,313,309,312,12700,312
2013/10/24,311,313,309,310,7400,310
2013/10/25,310,313,307,313,13400,313
2013/10/28,311,313,310,313,5900,313
2013/10/29,312,313,312,312,5200,312
2013/10/30,312,312,309,312,5800,312
2013/10/31,311,311,310,310,2600,310
2013/11/01,310,311,308,308,9900,308
2013/11/05,310,311,307,311,10700,311
2013/11/06,310,311,307,307,8400,307
2013/11/07,307,310,307,309,4300,309
2013/11/08,309,310,307,308,4500,308
2013/11/11,309,310,306,309,9700,309
2013/11/12,308,310,307,310,7500,310
2013/11/13,310,310,308,309,10000,309
2013/11/14,310,311,309,309,6200,309
2013/11/15,309,310,308,309,14000,309
2013/11/18,310,310,307,309,26700,309
2013/11/19,310,311,309,310,6200,310
2013/11/20,308,311,307,308,12700,308
2013/11/21,310,310,308,310,5600,310
2013/11/22,307,309,307,308,7100,308
2013/11/25,308,309,307,308,8200,308
2013/11/26,308,310,308,308,15500,308
2013/11/27,308,311,308,310,11000,310
2013/11/28,310,310,307,307,12500,307
2013/11/29,307,309,307,308,10400,308
2013/12/02,307,309,307,309,11800,309
2013/12/03,308,308,307,308,19900,308
2013/12/04,309,310,307,308,15000,308
2013/12/05,308,308,307,308,10900,308
2013/12/06,308,308,306,306,10900,306
2013/12/09,306,308,306,308,12600,308
2013/12/10,307,309,306,309,26200,309
2013/12/11,307,309,306,307,20400,307
2013/12/12,306,309,306,307,11600,307
2013/12/13,307,308,306,307,9300,307
2013/12/16,306,307,305,306,19300,306
2013/12/17,306,306,304,305,17600,305
2013/12/18,304,304,303,303,17500,303
2013/12/19,302,303,299,299,39500,299
2013/12/20,298,299,294,297,25500,297
2013/12/24,290,296,288,289,50600,289
2013/12/25,289,292,286,292,53500,292
2013/12/26,298,300,293,299,19800,299
2013/12/27,300,309,297,304,42400,304
2013/12/30,308,309,307,309,31900,309
2014/01/06,310,311,309,310,29800,310
2014/01/07,310,311,308,310,18500,310
2014/01/08,312,313,309,310,20900,310
2014/01/09,310,311,309,310,15900,310
2014/01/10,310,311,308,309,25700,309
2014/01/14,308,310,306,309,17700,309
2014/01/15,310,310,307,307,17500,307
2014/01/16,307,309,306,307,18600,307
2014/01/17,304,304,302,302,67400,302
2014/01/20,302,303,295,300,86800,300
2014/01/21,300,300,294,299,70200,299
2014/01/22,296,300,292,294,101800,294
2014/01/23,294,299,289,289,109400,289
2014/01/24,289,298,285,291,82800,291
2014/01/27,290,293,289,291,31800,291
2014/01/28,291,296,291,296,28100,296
2014/01/29,294,297,293,293,37700,293
2014/01/30,298,298,293,293,48000,293
2014/01/31,295,296,291,296,49100,296
2014/02/03,293,293,285,285,61500,285
2014/02/04,275,287,260,272,96400,272
2014/02/05,278,289,278,280,17600,280
2014/02/06,279,279,277,279,6600,279
2014/02/07,276,287,276,283,12400,283
2014/02/10,286,289,284,289,10800,289
2014/02/12,291,291,286,290,20700,290
2014/02/13,286,289,285,286,17600,286
2014/02/14,284,290,281,286,26300,286
2014/02/17,281,284,276,284,26600,284
2014/02/18,277,287,277,282,12300,282
2014/02/19,281,285,280,281,21500,281
2014/02/20,279,284,276,278,38300,278
2014/02/21,278,282,278,281,13200,281
2014/02/24,279,285,279,285,24400,285
2014/02/25,278,285,278,283,15300,283
2014/02/26,285,288,281,288,16400,288
2014/02/27,287,287,286,286,11100,286
2014/02/28,286,289,280,284,37000,284
2014/03/03,282,286,281,283,14500,283
2014/03/04,281,286,280,283,32800,283
2014/03/05,281,283,281,281,17200,281
2014/03/06,281,290,281,289,31800,289
2014/03/07,282,287,282,286,28300,286
2014/03/10,286,288,285,288,15300,288
2014/03/11,286,289,286,288,19400,288
2014/03/12,285,290,285,287,18800,287
2014/03/13,285,288,285,287,10400,287
2014/03/14,285,288,281,284,38100,284
2014/03/17,286,286,282,282,24400,282
2014/03/18,281,283,279,279,33500,279
2014/03/19,278,284,277,284,31600,284
2014/03/20,276,282,261,266,52900,266
2014/03/24,268,277,266,268,43000,268
2014/03/25,275,278,265,268,74100,268
2014/03/26,267,267,263,263,90200,263
2014/03/27,246,251,245,249,82500,249
2014/03/28,250,255,249,253,21200,253
2014/03/31,253,258,251,255,36700,255
2014/04/01,253,256,253,254,18200,254
2014/04/02,254,257,253,256,12800,256
2014/04/03,253,265,252,254,36800,254
2014/04/04,253,264,252,259,47500,259
2014/04/07,259,263,257,258,15900,258
2014/04/08,256,264,256,256,20600,256
2014/04/09,256,260,254,254,37500,254
2014/04/10,254,263,254,254,26600,254
2014/04/11,252,257,250,253,33100,253
2014/04/14,251,255,251,254,14800,254
2014/04/15,253,255,252,253,11500,253
2014/04/16,252,255,251,253,35300,253
2014/04/17,253,255,253,253,7800,253
2014/04/18,253,256,252,256,22000,256
2014/04/21,255,257,254,256,13400,256
2014/04/22,254,255,253,253,12000,253
2014/04/23,252,254,252,252,14100,252
2014/04/24,252,253,251,252,13000,252
2014/04/25,251,254,251,252,18900,252
2014/04/28,253,258,251,253,22100,253
2014/04/30,253,257,253,256,12300,256
2014/05/01,254,258,254,255,14000,255
2014/05/02,253,260,253,258,18500,258
2014/05/07,256,258,256,256,8900,256
2014/05/08,255,258,254,255,16200,255
2014/05/09,255,258,254,257,5000,257
2014/05/12,256,258,254,256,15600,256
2014/05/13,253,259,253,255,24400,255
2014/05/14,254,257,253,257,11500,257
2014/05/15,254,255,253,253,24100,253
2014/05/16,253,256,252,252,18700,252
2014/05/19,253,255,253,254,7400,254
2014/05/20,254,256,252,253,7200,253
2014/05/21,253,255,253,253,13800,253
2014/05/22,253,257,253,256,11300,256
2014/05/23,254,255,253,254,13400,254
2014/05/26,254,256,254,255,9800,255
2014/05/27,255,258,255,257,21200,257
2014/05/28,255,259,255,259,14200,259
2014/05/29,255,258,255,258,12600,258
2014/05/30,257,258,257,258,11300,258
2014/06/02,258,260,258,259,18900,259
2014/06/03,260,261,260,261,14100,261
2014/06/04,260,262,260,262,10700,262
2014/06/05,262,266,261,266,15600,266
2014/06/06,265,275,265,275,41300,275
2014/06/09,272,278,272,276,17700,276
2014/06/10,274,274,271,272,16900,272
2014/06/11,270,272,269,271,13400,271
2014/06/12,266,273,263,270,14200,270
2014/06/13,265,273,265,271,10800,271
2014/06/16,272,280,272,279,25400,279
2014/06/17,278,283,274,282,26100,282
2014/06/18,284,284,279,279,14100,279
2014/06/19,281,283,280,282,7900,282
2014/06/20,282,284,281,284,13100,284
2014/06/23,285,287,284,286,21900,286
2014/06/24,287,289,285,285,29800,285
2014/06/25,289,290,284,284,31500,284
2014/06/26,285,289,285,289,20000,289
2014/06/27,290,291,286,286,37200,286
2014/06/30,294,295,288,291,46600,291
2014/07/01,292,295,289,295,49800,295
2014/07/02,294,295,289,290,65400,290
2014/07/03,292,293,289,291,44300,291
2014/07/04,291,293,288,293,53200,293
2014/07/07,294,294,290,292,43900,292
2014/07/08,289,291,289,291,32600,291
2014/07/09,291,291,289,290,13400,290
2014/07/10,290,290,289,289,16200,289
2014/07/11,289,290,288,290,12400,290
2014/07/14,290,290,288,288,20500,288
2014/07/15,289,290,288,288,13700,288
2014/07/16,288,290,287,290,24500,290
2014/07/17,290,290,288,289,18500,289
2014/07/18,289,289,286,287,30400,287
2014/07/22,289,290,289,290,13100,290
2014/07/23,289,290,288,290,22200,290
2014/07/24,290,292,290,292,42100,292
2014/07/25,292,292,290,291,43600,291
2014/07/28,291,291,288,289,71900,289
2014/07/29,290,291,289,290,26400,290
2014/07/30,291,291,289,291,19600,291
2014/07/31,291,291,289,290,18800,290
2014/08/01,288,290,288,290,13300,290
2014/08/04,291,291,288,290,33800,290
2014/08/05,291,292,290,290,24700,290
2014/08/06,289,290,288,289,16400,289
2014/08/07,288,289,287,289,16000,289
2014/08/08,289,289,286,287,32900,287
2014/08/11,289,290,287,290,16000,290
2014/08/12,288,289,288,289,14100,289
2014/08/13,289,290,287,290,37400,290
2014/08/14,305,319,296,302,472400,302
2014/08/15,303,303,295,299,112400,299
2014/08/18,302,302,300,302,45400,302
2014/08/19,302,303,300,301,42900,301
2014/08/20,301,301,299,301,30100,301
2014/08/21,302,302,300,302,37900,302
2014/08/22,302,302,300,300,28100,300
2014/08/25,301,301,299,300,37800,300
2014/08/26,300,301,299,300,20600,300
2014/08/27,301,301,299,300,36000,300
2014/08/28,300,301,299,299,26600,299
2014/08/29,300,301,299,301,21900,301
2014/09/01,302,303,301,303,37400,303
2014/09/02,304,307,303,306,51200,306
2014/09/03,306,307,305,307,24400,307
2014/09/04,308,308,306,306,27800,306
2014/09/05,307,307,306,306,21800,306
2014/09/08,306,308,306,308,21600,308
2014/09/09,306,308,306,307,21200,307
2014/09/10,308,308,306,307,22000,307
2014/09/11,307,308,306,306,20200,306
2014/09/12,307,308,306,307,32500,307
2014/09/16,307,308,306,307,35700,307
2014/09/17,307,308,306,306,27600,306
2014/09/18,307,307,305,307,40600,307
2014/09/19,307,313,301,301,222500,301
2014/09/22,306,307,304,307,46800,307
2014/09/24,307,307,304,304,81900,304
2014/09/25,305,307,302,302,118800,302
2014/09/26,285,293,285,291,127200,291
2014/09/29,289,290,288,288,31500,288
2014/09/30,287,291,287,288,26500,288
2014/10/01,293,293,288,289,34400,289
2014/10/02,288,290,287,288,26800,288
2014/10/03,287,290,287,288,12400,288
2014/10/06,290,290,288,289,18500,289
2014/10/07,292,292,289,289,11900,289
2014/10/08,289,291,288,290,8300,290
2014/10/09,292,292,289,289,12900,289
2014/10/10,289,289,287,287,19800,287
2014/10/14,284,288,282,287,31900,287
2014/10/15,287,293,287,292,28000,292
2014/10/16,290,291,284,285,35300,285
2014/10/17,288,288,284,285,15400,285
2014/10/20,287,289,287,287,10500,287
2014/10/21,288,290,287,288,11600,288
2014/10/22,288,291,288,290,10800,290
2014/10/23,292,292,288,291,10100,291
2014/10/24,291,292,291,292,11700,292
2014/10/27,293,294,292,293,12800,293
2014/10/28,293,294,292,292,8700,292
2014/10/29,293,294,291,294,11400,294
2014/10/30,294,294,291,291,10400,291
2014/10/31,291,294,291,291,16700,291
2014/11/04,295,296,292,293,32700,293
2014/11/05,293,294,293,294,7900,294
2014/11/06,295,296,294,294,12100,294
2014/11/07,294,297,293,293,15500,293
2014/11/10,294,297,293,296,17700,296
2014/11/11,300,302,297,302,40800,302
2014/11/12,300,301,297,300,15000,300
2014/11/13,298,303,297,299,29000,299
2014/11/14,298,298,293,296,52900,296
2014/11/17,298,298,294,296,22700,296
2014/11/18,296,297,295,295,10500,295
2014/11/19,295,298,295,297,8800,297
2014/11/20,297,298,296,297,8700,297
2014/11/21,298,299,296,298,10800,298
2014/11/25,298,299,296,299,21600,299
2014/11/26,299,302,297,302,27600,302
2014/11/27,302,303,300,301,12300,301
2014/11/28,300,303,299,299,11600,299
2014/12/01,303,304,301,302,17000,302
2014/12/02,302,304,301,304,13700,304
2014/12/03,304,304,300,302,15100,302
2014/12/04,302,303,301,302,11300,302
2014/12/05,300,302,300,300,13900,300
2014/12/08,301,303,301,302,12800,302
2014/12/09,301,302,300,302,9700,302
2014/12/10,300,300,298,299,29300,299
2014/12/11,298,300,297,299,7500,299
2014/12/12,299,301,299,301,9800,301
2014/12/15,300,302,300,300,14200,300
2014/12/16,300,301,298,298,13200,298
2014/12/17,299,300,297,298,16500,298
2014/12/18,303,305,302,304,65200,304
2014/12/19,306,306,304,305,29200,305
2014/12/22,306,306,305,306,22700,306
2014/12/24,306,307,305,306,33900,306
2014/12/25,306,307,301,301,28900,301
2014/12/26,305,305,303,305,12800,305
2014/12/29,309,310,307,310,54500,310
2014/12/30,310,311,307,309,31600,309
2015/01/05,311,330,310,325,89300,325
2015/01/06,321,325,318,324,58000,324
2015/01/07,324,325,322,324,22800,324
2015/01/08,324,327,321,323,25400,323
2015/01/09,327,327,318,320,33700,320
2015/01/13,317,320,314,317,32500,317
2015/01/14,316,317,314,316,16500,316
2015/01/15,315,317,312,317,23000,317
2015/01/16,317,317,310,314,34500,314
2015/01/19,315,316,313,316,16700,316
2015/01/20,316,318,316,318,12200,318
2015/01/21,318,319,316,319,17300,319
2015/01/22,320,321,316,318,21800,318
2015/01/23,318,320,318,320,17200,320
2015/01/26,322,323,319,319,23400,319
2015/01/27,320,323,320,323,17700,323
2015/01/28,322,324,321,324,16300,324
2015/01/29,324,324,321,322,14900,322
2015/01/30,324,325,322,322,20300,322
2015/02/02,322,326,321,325,34600,325
2015/02/03,327,327,324,325,26600,325
2015/02/04,328,328,325,326,18700,326
2015/02/05,328,329,326,328,26900,328
2015/02/06,328,330,327,328,27600,328
2015/02/09,330,334,328,330,52600,330
2015/02/10,333,333,330,332,21300,332
2015/02/12,332,333,328,333,37800,333
2015/02/13,333,333,327,330,34500,330
2015/02/16,331,332,329,329,35000,329
2015/02/17,330,330,326,328,24100,328
2015/02/18,328,328,326,326,30800,326
2015/02/19,326,328,325,325,25300,325
2015/02/20,325,326,321,322,81000,322
2015/02/23,324,326,322,324,28600,324
2015/02/24,328,328,325,326,17000,326
2015/02/25,326,332,325,332,28100,332
2015/02/26,332,412,331,367,1022600,367
2015/02/27,400,403,347,363,538700,363
2015/03/02,387,443,380,428,1820600,428
2015/03/03,410,414,354,378,701200,378
2015/03/04,375,376,360,366,192900,366
2015/03/05,364,376,352,354,242700,354
2015/03/06,358,363,357,359,87100,359
2015/03/09,367,389,362,370,522500,370
2015/03/10,370,370,357,358,142900,358
2015/03/11,359,364,355,359,71100,359
2015/03/12,360,360,354,356,84700,356
2015/03/13,358,361,357,360,57600,360
2015/03/16,360,366,360,364,84000,364
2015/03/17,367,368,364,366,53700,366
2015/03/18,368,376,366,372,88000,372
2015/03/19,375,377,372,374,74000,374
2015/03/20,374,376,370,372,53200,372
2015/03/23,375,378,373,375,96400,375
2015/03/24,375,375,369,371,117300,371
2015/03/25,371,371,362,363,110000,363
2015/03/26,360,360,349,350,212500,350
2015/03/27,346,350,341,347,170600,347
2015/03/30,350,371,350,367,202300,367
2015/03/31,381,386,375,383,238800,383
2015/04/01,380,380,360,372,148900,372
2015/04/02,378,378,372,378,69500,378
2015/04/03,380,384,380,382,74400,382
2015/04/06,386,408,386,397,214100,397
2015/04/07,400,477,392,435,803600,435
2015/04/08,427,448,409,434,249800,434
2015/04/09,438,509,438,483,1251900,483
2015/04/10,510,563,509,563,1324000,563
2015/04/13,663,663,663,663,246800,663
2015/04/14,653,747,631,721,4475800,721
2015/04/15,661,718,630,655,1399900,655
2015/04/16,755,755,755,755,196800,755
2015/04/17,795,905,780,905,4504600,905
2015/04/20,950,1055,865,1055,6953600,1055
2015/04/21,987,1031,771,793,5629700,793
2015/04/22,806,878,721,773,5579500,773
2015/04/23,750,750,693,706,1948000,706
2015/04/24,691,712,667,688,1978700,688
2015/04/27,723,735,695,702,2321900,702
2015/04/28,700,731,670,710,1281000,710
2015/04/30,685,700,660,689,455200,689
2015/05/01,690,692,621,646,638400,646
2015/05/07,628,654,601,639,618900,639
2015/05/08,645,695,640,653,774800,653
2015/05/11,661,666,634,647,312400,647
2015/05/12,641,641,611,621,284100,621
2015/05/13,621,640,615,632,200300,632
2015/05/14,635,698,629,648,935400,648
2015/05/15,631,635,598,601,566500,601
2015/05/18,591,597,566,573,385900,573
2015/05/19,600,635,581,588,791800,588
2015/05/20,590,595,575,582,207600,582
2015/05/21,590,590,581,584,111200,584
2015/05/22,594,624,582,595,251200,595
2015/05/25,598,619,596,607,242200,607
2015/05/26,611,617,598,602,247200,602
2015/05/27,594,599,588,591,133800,591
2015/05/28,591,595,584,584,117800,584
2015/05/29,582,588,576,588,98000,588
2015/06/01,591,594,581,589,100400,589
2015/06/02,592,592,578,581,83300,581
2015/06/03,581,584,574,580,77100,580
2015/06/04,576,593,575,590,112600,590
2015/06/05,590,590,576,583,55800,583
2015/06/08,583,600,581,597,205100,597
2015/06/09,601,613,592,592,200800,592
2015/06/10,596,674,593,636,1745600,636
2015/06/11,666,736,645,735,3902000,735
2015/06/12,705,745,681,705,2043100,705
2015/06/15,735,854,720,758,5882500,758
2015/06/16,750,815,711,760,1865200,760
2015/06/17,745,772,731,745,414000,745
2015/06/18,743,743,703,705,364900,705
2015/06/19,695,750,694,745,398500,745
2015/06/22,747,775,741,753,441900,753
2015/06/23,760,788,752,777,399100,777
2015/06/24,782,832,782,828,914000,828
2015/06/25,816,829,760,790,743400,790
2015/06/26,780,818,755,815,449800,815
2015/06/29,755,791,755,765,363200,765
2015/06/30,771,780,758,758,176700,758
2015/07/01,755,786,754,781,165300,781
