2011/01/05,253998,258000,252102,258000,48,430
2011/01/06,258498,261000,255000,255000,78,425
2011/01/14,271602,273000,266100,270000,174,450
2011/01/18,286500,332502,286002,324000,858,540
2011/02/03,292800,292800,287202,288000,56,480
2011/02/07,284502,289002,284502,288000,33,480
2011/02/14,331002,336000,313998,315000,395,525
2011/02/16,307002,314502,307002,312000,71,520
2011/02/23,300000,304002,293502,297600,199,496
2011/03/14,240000,240000,240000,240000,32,400
2011/03/22,222498,223500,210000,210000,414,350
2011/03/28,189102,192000,184002,186000,130,310
2011/04/12,184002,190002,181002,186000,75,310
2011/04/22,180102,180498,179502,180000,23,300
2011/05/02,186600,193998,186600,192000,112,320
2011/05/11,194898,195000,191100,192000,48,320
2011/05/16,190098,190098,185100,189000,27,315
2011/05/23,191202,191202,186198,186600,25,311
2011/06/24,198000,198000,198000,198000,5,330
2011/06/27,196500,199002,196002,198000,9,330
2011/06/29,201300,207498,201300,207000,94,345
2011/07/05,225102,225102,220002,225000,56,375
2011/07/07,232500,237900,227100,228000,142,380
2011/07/08,227502,249402,225000,225000,414,375
2011/07/13,214500,214500,210000,213000,45,355
2011/07/15,210000,214998,209700,213000,96,355
2011/07/19,207000,208002,204498,207000,97,345
2011/07/21,207000,207000,198798,204600,85,341
2011/07/28,204498,204498,198900,199200,30,332
2011/07/29,199200,199200,193002,198000,68,330
2011/08/02,201900,202800,201498,202800,22,338
2011/08/08,187800,192798,183600,189000,32,315
2011/08/26,174498,175002,172602,174000,12,290
2011/09/09,169098,171000,165798,168000,22,280
2011/09/22,142098,142800,140802,142800,47,238
2011/09/28,141102,146400,140202,146400,19,244
2011/10/06,139002,139002,137400,138000,35,230
2011/10/13,151002,158898,151002,156000,130,260
2011/10/24,151002,153000,149202,150000,8,250
2011/11/04,150198,150498,149202,150000,38,250
2011/11/08,144198,145002,144000,144000,19,240
2011/11/14,142002,145902,142002,144000,23,240
2011/11/15,147000,147000,144000,144000,23,240
2011/11/29,167898,180000,166998,180000,78,300
2011/12/12,205002,211302,199200,199200,233,332
2011/12/14,187998,192600,185598,190800,71,318
2011/12/22,190800,190998,186102,189000,34,315
2011/12/29,182100,182802,179700,181800,32,303
2011/12/30,181998,183900,181098,183600,14,306
2012/01/06,195900,196800,192000,192000,42,320
2012/01/19,199002,204000,196500,202800,63,338
2012/01/24,211998,219000,210000,219000,38,365
2012/02/06,247002,248400,238602,240600,137,401
2012/02/29,248100,250002,246600,246600,53,411
2012/03/05,241098,244002,240000,240000,24,400
2012/03/07,233898,237000,231102,235800,25,393
2012/03/09,238398,243798,238002,239400,22,399
2012/03/19,255000,263502,255000,262800,115,438
2012/03/21,262500,262500,259002,261000,28,435
2012/03/22,259998,262002,253200,258000,62,430
2012/04/02,289098,310002,288000,300000,285,500
2012/04/09,307998,308502,301002,306000,46,510
2012/04/13,324498,328002,318000,321000,75,535
2012/04/19,418002,457998,408000,441000,1122,735
2012/04/25,451500,466002,426000,432000,454,720
2012/05/17,430500,457500,430500,453000,119,755
2012/05/18,445002,448002,414000,414000,168,690
2012/05/23,445998,448998,415002,420000,99,700
2012/06/07,203001,204399,195501,195600,61,652
2012/06/08,198999,198999,186000,186600,166,622
2012/06/12,189999,195000,188100,189300,158,631
2012/06/28,227799,228501,209601,216900,316,723
2012/07/03,207501,217701,204999,216000,266,720
2012/07/06,205200,205200,201099,204000,98,680
2012/07/17,183801,184500,172101,175500,502,585
2012/07/18,176001,176100,160200,161100,413,537
2012/07/19,160401,164199,160401,163500,224,545
2012/07/30,161001,162000,159201,159300,68,531
2012/07/31,159801,163200,158001,158100,121,527
2012/08/03,155001,155001,149001,149100,162,497
2012/08/06,148800,152499,147999,149400,100,498
2012/08/08,149601,150000,146199,147000,162,490
2012/08/09,146199,150000,146199,150000,56,500
2012/08/10,150000,152901,149001,151800,77,506
2012/08/22,155100,156699,155001,156000,22,520
2012/08/24,153900,153900,151200,151200,72,504
2012/08/27,152199,152301,151200,151200,34,504
2012/09/05,147801,147801,143601,144000,56,480
2012/09/10,139800,140400,133599,137400,189,458
2012/09/14,147000,156000,144000,152100,301,507
2012/09/18,159999,159999,153501,156000,224,520
2012/09/19,157299,157899,151599,153900,76,513
2012/09/20,153900,156201,147000,150000,164,500
2012/09/26,139401,139701,137100,138600,245,462
2012/09/28,135801,136200,134001,134700,110,449
2012/10/04,136500,145299,135801,142200,214,474
2012/10/10,128001,129999,126999,127500,130,425
2012/10/16,122001,122001,117201,118500,227,395
2012/10/22,122700,124599,121500,122100,67,407
2012/10/26,121299,121299,119400,120000,45,400
2012/11/01,123801,123999,122799,123000,26,410
2012/11/02,123999,125001,123000,123000,55,410
2012/11/05,123999,124899,120999,123900,41,413
2012/11/06,123900,129501,122001,127200,138,424
2012/11/08,135000,135801,128601,129000,185,430
2012/11/14,129999,130800,128400,128700,67,429
2012/11/22,130101,131400,128499,131400,44,438
2012/12/06,134001,134001,132000,132000,81,440
2012/12/07,132999,132999,132201,132300,35,441
2012/12/10,134001,141000,133899,141000,354,470
2012/12/17,137100,138300,133800,135000,262,450
2012/12/21,133200,134499,133200,133200,47,444
2012/12/26,134499,135801,132600,132600,201,442
2012/12/28,132501,134400,132099,134400,90,448
2013/01/07,134199,136401,133500,134700,137,449
2013/01/11,139899,139899,138099,138900,102,463
2013/01/18,141201,141201,139500,139500,119,465
2013/01/25,143799,143799,140001,142200,115,474
2013/01/31,147501,147900,146799,147900,94,493
2013/02/01,150900,153000,149001,152400,369,508
2013/02/04,153201,157200,152499,157200,421,524
2013/02/05,156801,156999,150999,153600,270,512
2013/02/13,147501,147501,140400,141000,309,470
2013/02/18,141999,144000,140001,143700,121,479
2013/02/27,138099,138099,135501,137400,106,458
2013/03/04,132999,133899,132900,133500,104,445
2013/03/06,132501,133800,132201,132300,95,441
2013/03/07,132900,133500,132501,133200,86,444
2013/03/12,135999,137499,135000,135000,98,450
2013/03/14,135099,135399,133299,135000,31,450
2013/03/15,134199,135000,133599,133800,68,446
2013/03/27,135999,136800,135999,136500,20,455
2013/03/29,140001,140601,136899,138000,64,460
2013/04/01,137601,140001,134100,134100,66,447
2013/04/04,132999,137100,132999,134100,55,447
2013/04/09,137799,141300,137799,141000,306,470
2013/04/10,140601,141399,139899,141300,56,471
2013/04/15,131001,132201,129600,132000,296,440
2013/04/22,129000,131499,129000,129900,247,433
2013/04/24,130899,134199,130200,133800,267,446
2013/04/30,133299,133899,131301,132000,88,440
2013/05/01,134901,134901,131499,131700,71,439
2013/05/07,134001,135501,134001,134700,125,449
2013/05/09,136401,137901,135600,135600,68,452
2013/05/15,140499,142800,138501,138600,215,462
2013/05/16,139401,139401,129999,132600,276,442
2013/05/23,134001,134400,131100,131100,109,437
2013/05/27,131001,131100,129999,131100,71,437
2013/05/28,129999,132000,129999,130800,17,436
2013/05/29,132900,132900,131700,131700,7,439
2013/05/31,131001,132900,130401,132900,86,443
2013/06/05,134001,134499,132501,133200,33,444
2013/06/11,128301,130800,128301,129900,71,433
2013/06/12,129699,130500,129699,130500,30,435
2013/06/13,129999,129999,128601,129000,20,430
2013/06/20,129801,131700,129801,130200,12,434
2013/06/21,129999,129999,128001,129900,77,433
2013/06/26,129600,131601,129099,129300,29,431
2013/06/28,128700,133800,128199,133500,111,445
2013/07/04,140499,141501,140001,141000,46,470
2013/07/05,143001,143001,140700,140700,52,469
2013/07/09,152499,153300,150099,153000,708,510
2013/07/11,143499,150000,141000,150000,147,500
2013/07/12,150000,151500,149001,150000,220,500
2013/07/16,153501,169899,151701,162000,606,540
2013/07/19,152001,153000,150600,151500,140,505
2013/07/23,150000,151101,149100,150000,73,500
2013/07/31,143001,143901,141999,142800,12,476
2013/08/06,144900,146001,143700,144900,75,483
2013/08/12,145401,148899,144999,145500,39,485
2013/08/13,145599,148200,145101,148200,26,494
2013/08/15,149001,150000,147999,150000,40,500
2013/08/23,150000,152901,150000,150900,38,503
2013/08/29,1510,1524,1489,1524,4800,508
2013/08/30,1524,1524,1500,1500,3500,500
2013/09/03,1491,1500,1488,1488,3200,496
2013/09/06,1468,1469,1403,1416,17800,472
2013/09/09,1446,1460,1420,1446,17100,482
2013/09/12,1459,1482,1451,1482,8000,494
2013/09/30,1899,1900,1836,1896,16900,632
2013/10/07,1893,1919,1810,1875,35700,625
2013/10/08,1817,1860,1710,1824,23300,608
2013/10/10,1873,1882,1794,1860,12400,620
2013/10/16,1800,1810,1760,1779,10700,593
2013/10/25,1800,1809,1790,1809,4500,603
2013/10/28,1797,1843,1797,1800,11000,600
2013/10/31,1705,1708,1630,1650,21900,550
2013/11/05,1640,1640,1600,1620,11600,540
2013/11/08,1638,1698,1634,1698,6800,566
2013/11/12,1750,1785,1750,1779,14700,593
2013/11/14,1777,1777,1716,1719,7500,573
2013/11/20,1770,1770,1733,1740,7200,580
2013/11/21,1740,1745,1713,1725,4900,575
2013/11/22,1738,1741,1700,1707,11400,569
2013/11/25,1702,1711,1660,1689,11500,563
2013/11/28,1701,1715,1579,1617,46000,539
2013/12/04,1635,1637,1617,1617,4000,539
2013/12/06,1630,1648,1620,1626,7300,542
2013/12/12,1613,1620,1602,1605,5400,535
2013/12/16,1608,1626,1580,1584,13700,528
2013/12/18,1551,1555,1543,1548,7600,516
2013/12/19,1545,1554,1530,1533,9200,511
2013/12/24,1501,1504,1465,1470,17700,490
2013/12/25,1469,1494,1469,1485,13000,495
2013/12/27,1528,1550,1526,1539,8200,513
2014/01/07,1610,1610,1595,1608,6700,536
2014/01/08,1610,1629,1608,1629,8000,543
2014/01/10,1630,1635,1616,1635,4700,545
2014/01/16,1703,1705,1653,1680,28100,560
2014/01/24,1761,1761,1748,1752,8100,584
2014/01/27,1700,1708,1684,1686,13600,562
2014/01/31,1710,1720,1680,1692,7600,564
2014/02/06,1552,1590,1552,1572,6400,524
2014/02/07,1582,1590,1566,1581,7100,527
2014/02/10,1605,1613,1580,1590,8100,530
2014/02/17,1615,1619,1610,1611,4200,537
2014/02/19,1635,1650,1630,1647,5200,549
2014/02/26,1501,1548,1501,1515,35100,505
2014/03/04,1402,1428,1401,1428,4800,476
2014/03/11,1500,1500,1451,1485,4100,495
2014/03/12,1461,1485,1461,1470,3600,490
2014/03/18,1470,1474,1460,1470,6400,490
2014/03/19,1465,1470,1458,1467,4800,489
2014/03/24,1430,1430,1402,1413,5300,471
2014/03/27,1400,1410,1400,1410,5100,470
2014/03/28,1420,1420,1406,1407,3500,469
2014/04/04,1439,1450,1439,1449,1500,483
2014/04/07,1444,1444,1428,1428,1800,476
2014/04/10,1420,1460,1404,1410,2500,470
2014/04/11,1411,1430,1405,1410,4300,470
2014/04/17,1405,1405,1403,1404,2200,468
2014/04/24,1400,1410,1395,1410,2500,470
2014/04/28,1396,1400,1392,1392,3200,464
2014/04/30,1400,1403,1395,1395,2700,465
2014/05/02,1393,1404,1392,1395,2200,465
2014/05/07,1395,1396,1395,1395,1000,465
2014/05/14,1395,1398,1392,1392,1800,464
2014/05/15,1393,1398,1393,1398,1500,466
2014/05/21,1383,1384,1370,1371,2700,457
2014/05/27,1421,1421,1392,1392,1000,464
2014/05/29,1397,1400,1397,1398,700,466
2014/06/09,1432,1440,1431,1431,2800,477
2014/06/10,1432,1435,1418,1419,5200,473
2014/06/23,1525,1529,1507,1518,1600,506
2014/06/26,1983,1983,1983,1983,26700,661
2014/07/01,1780,1780,1728,1731,10000,577
2014/07/02,1745,1749,1730,1731,5700,577
2014/07/03,1734,1735,1701,1701,7300,567
2014/07/10,1682,1699,1674,1674,6700,558
2014/07/14,1671,1689,1665,1665,5800,555
2014/07/16,1740,1785,1717,1770,43300,590
2014/08/14,1950,1980,1938,1980,12900,660
2014/08/19,1983,1983,1971,1980,7300,660
2014/10/15,2568,2568,2511,2550,11500,850
2014/11/18,2691,2775,2691,2775,6900,925
2015/02/25,1430,1439,1410,1410,85300,1410
2015/02/26,1391,1392,1295,1328,141200,1328
2015/02/27,1328,1328,1303,1314,37300,1314
2015/03/02,1314,1314,1276,1285,64900,1285
2015/03/03,1284,1319,1283,1319,35100,1319
2015/03/04,1312,1315,1287,1304,30400,1304
2015/03/05,1309,1345,1308,1345,33100,1345
2015/03/06,1349,1350,1319,1319,31000,1319
2015/03/09,1343,1343,1312,1327,33300,1327
2015/03/10,1340,1340,1302,1307,32500,1307
2015/03/11,1300,1335,1300,1322,33700,1322
2015/03/12,1333,1333,1300,1309,22400,1309
2015/03/13,1320,1320,1300,1301,17000,1301
2015/03/16,1299,1307,1293,1300,30300,1300
2015/03/17,1308,1321,1301,1319,23600,1319
2015/03/18,1326,1326,1310,1319,18900,1319
2015/03/19,1325,1350,1325,1350,52800,1350
2015/03/20,1361,1450,1361,1450,112400,1450
2015/03/23,1469,1494,1451,1470,86200,1470
2015/03/24,1460,1460,1384,1405,51300,1405
2015/03/25,1390,1396,1360,1362,38000,1362
2015/03/26,1366,1389,1364,1366,35100,1366
2015/03/27,1370,1397,1365,1371,20700,1371
2015/03/30,1374,1435,1373,1435,29300,1435
2015/03/31,1442,1446,1402,1402,23700,1402
2015/04/01,1400,1412,1383,1387,15500,1387
2015/04/02,1393,1410,1392,1398,15400,1398
2015/04/03,1400,1405,1381,1386,20900,1386
2015/04/06,1405,1432,1398,1428,28400,1428
2015/04/07,1442,1455,1435,1444,32600,1444
2015/04/08,1445,1479,1437,1479,38700,1479
2015/04/09,1490,1491,1440,1452,68700,1452
2015/04/10,1464,1530,1445,1530,147900,1530
2015/04/13,1430,1445,1395,1416,220100,1416
2015/04/14,1383,1401,1355,1373,172900,1373
2015/04/15,1358,1388,1356,1373,61400,1373
2015/04/16,1369,1372,1345,1367,83200,1367
2015/04/17,1355,1357,1341,1348,42200,1348
2015/04/20,1340,1359,1340,1345,30800,1345
2015/04/21,1340,1345,1305,1321,97400,1321
2015/04/22,1321,1330,1311,1315,39500,1315
2015/04/23,1317,1336,1315,1332,29200,1332
2015/04/24,1329,1335,1321,1328,21100,1328
2015/04/27,1328,1329,1312,1316,39700,1316
2015/04/28,1333,1333,1312,1322,30900,1322
2015/04/30,1327,1327,1303,1307,40500,1307
2015/05/01,1304,1316,1290,1292,47700,1292
2015/05/07,1280,1283,1193,1198,199600,1198
2015/05/08,1215,1243,1214,1234,57800,1234
2015/05/11,1250,1259,1242,1257,41600,1257
2015/05/12,1253,1253,1236,1248,18400,1248
2015/05/13,1242,1247,1230,1238,20900,1238
2015/05/14,1238,1238,1230,1234,12500,1234
2015/05/15,1235,1250,1235,1237,20600,1237
2015/05/18,1247,1247,1227,1232,23100,1232
2015/05/19,1239,1239,1200,1221,51200,1221
2015/05/20,1225,1234,1222,1224,21700,1224
2015/05/21,1225,1243,1223,1243,20500,1243
2015/05/22,1243,1279,1231,1264,34900,1264
2015/05/25,1280,1317,1263,1316,73500,1316
2015/05/26,1339,1344,1292,1310,55000,1310
2015/05/27,1297,1300,1292,1294,18700,1294
2015/05/28,1300,1300,1240,1240,75500,1240
2015/05/29,1240,1240,1214,1238,65400,1238
2015/06/01,1220,1225,1217,1220,54800,1220
2015/06/02,1218,1226,1216,1217,35000,1217
2015/06/03,1217,1229,1211,1219,35700,1219
2015/06/04,1218,1219,1210,1212,61200,1212
2015/06/05,1213,1217,1205,1205,37900,1205
2015/06/08,1216,1238,1212,1230,42100,1230
2015/06/09,1230,1235,1215,1220,30000,1220
2015/06/10,1215,1227,1213,1222,23000,1222
2015/06/11,1226,1255,1220,1238,57400,1238
2015/06/12,1274,1330,1269,1311,161300,1311
2015/06/15,1310,1339,1275,1327,83500,1327
2015/06/16,1400,1427,1358,1370,249400,1370
2015/06/17,1388,1423,1379,1391,124800,1391
2015/06/18,1393,1453,1393,1438,158600,1438
2015/06/19,1438,1450,1375,1428,107500,1428
2015/06/22,1410,1449,1403,1441,65100,1441
2015/06/23,1441,1441,1406,1413,45700,1413
2015/06/24,1410,1425,1390,1419,40000,1419
2015/06/25,1397,1419,1397,1401,35400,1401
2015/06/26,1399,1399,1370,1374,33600,1374
2015/06/29,1320,1396,1311,1360,80900,1360
2015/06/30,1324,1425,1323,1407,146600,1407
2015/07/01,1467,1517,1461,1510,318600,1510
