2011/01/05,48050,51000,48050,51000,11,510
2011/01/06,51000,51000,50200,50200,6,502
2011/01/11,50500,50500,50500,50500,3,505
2011/01/12,49500,49500,47000,49100,21,491
2011/01/13,48400,50500,48400,50500,4,505
2011/01/14,50500,50500,48000,50000,18,500
2011/01/17,49000,49000,49000,49000,1,490
2011/01/20,50000,50000,50000,50000,3,500
2011/01/21,49050,50500,49050,50500,18,505
2011/01/24,50500,50500,49400,50500,4,505
2011/01/25,51300,51300,51300,51300,8,513
2011/01/26,52000,52000,50000,50000,8,500
2011/01/27,49100,49100,48000,48500,7,485
2011/01/28,52000,53000,52000,53000,5,530
2011/01/31,50000,50000,50000,50000,1,500
2011/02/01,50000,50000,50000,50000,2,500
2011/02/02,48300,48300,48300,48300,1,483
2011/02/03,50000,50000,50000,50000,2,500
2011/02/09,48500,48500,48000,48000,2,480
2011/02/10,49400,50000,49400,50000,3,500
2011/02/15,49100,51000,49100,51000,7,510
2011/02/18,51000,51000,50500,50500,4,505
2011/02/21,48850,51200,48850,51200,2,512
2011/02/22,49600,51000,49600,51000,3,510
2011/02/23,51200,52000,51200,52000,10,520
2011/02/24,51900,51900,51100,51100,6,511
2011/02/25,50700,51500,50200,51500,9,515
2011/02/28,51500,53500,51500,53500,19,535
2011/03/01,54900,56000,53000,55000,13,550
2011/03/03,53000,54900,53000,54900,6,549
2011/03/04,56000,60000,55100,55100,27,551
2011/03/07,57100,57100,57100,57100,1,571
2011/03/08,54000,54100,52000,52000,17,520
2011/03/10,51000,51000,49000,49200,11,492
2011/03/14,46500,47000,45500,47000,9,470
2011/03/15,46300,46300,45600,45600,2,456
2011/03/16,45500,45500,45500,45500,1,455
2011/03/17,41000,42000,40900,40900,3,409
2011/03/18,46400,46400,46400,46400,1,464
2011/03/22,46400,46400,43600,43800,20,438
2011/03/24,44500,44600,44100,44600,7,446
2011/03/25,45300,45300,45000,45000,9,450
2011/04/01,41900,41900,41900,41900,1,419
2011/04/04,44700,48900,44000,45700,48,457
2011/04/05,44300,44750,44300,44700,3,447
2011/04/06,48800,48800,45300,45300,7,453
2011/04/08,47400,47400,47400,47400,1,474
2011/04/19,43200,43200,43200,43200,2,432
2011/04/20,45000,45000,45000,45000,1,450
2011/04/21,45000,45000,45000,45000,2,450
2011/04/22,45100,45100,45000,45100,5,451
2011/04/25,46000,46000,46000,46000,6,460
2011/04/27,47400,47400,46500,46500,4,465
2011/04/28,47900,48400,47900,48400,6,484
2011/05/02,50000,51000,49500,51000,7,510
2011/05/06,49000,51000,49000,51000,2,510
2011/05/12,51000,51000,47700,50000,10,500
2011/05/13,50000,51000,50000,51000,6,510
2011/05/16,49900,49900,49900,49900,2,499
2011/05/19,48900,49000,48900,49000,2,490
2011/05/23,47600,47600,47600,47600,1,476
2011/05/24,47800,51000,47800,50900,3,509
2011/05/25,50900,53000,50900,53000,13,530
2011/05/27,53000,54000,53000,53000,6,530
2011/05/30,51000,51000,51000,51000,4,510
2011/05/31,48300,48300,48300,48300,1,483
2011/06/01,50000,52000,50000,52000,3,520
2011/06/03,51400,54000,51000,54000,10,540
2011/06/06,54000,55900,53900,55900,4,559
2011/06/08,52000,52600,50300,52600,14,526
2011/06/09,54500,54500,54500,54500,3,545
2011/06/13,54800,55000,54800,55000,8,550
2011/06/14,56800,56800,54000,54000,11,540
2011/06/15,55000,55000,54200,54200,23,542
2011/06/16,54200,54200,53200,53200,12,532
2011/06/17,52200,53300,52200,53300,2,533
2011/06/22,55000,55000,55000,55000,1,550
2011/06/23,55000,55000,52800,52800,9,528
2011/06/24,54100,54700,54100,54700,2,547
2011/06/27,53700,53700,52200,52200,35,522
2011/06/28,52200,52200,52200,52200,6,522
2011/06/29,51600,51600,51600,51600,1,516
2011/07/01,51600,51600,51600,51600,2,516
2011/07/07,52000,52000,52000,52000,3,520
2011/07/08,50200,53000,50200,53000,9,530
2011/07/11,54000,54000,51000,53700,16,537
2011/07/12,51200,51200,51200,51200,19,512
2011/07/13,51400,52100,51400,52100,2,521
2011/07/14,53800,53800,53800,53800,1,538
2011/07/15,52800,52800,52200,52200,5,522
2011/07/19,52900,53000,52900,53000,2,530
2011/07/20,53000,54000,53000,54000,4,540
2011/07/21,54400,54500,53200,54500,3,545
2011/07/22,54500,54500,54000,54000,4,540
2011/07/25,54000,54500,54000,54500,7,545
2011/07/26,55500,55500,55100,55100,3,551
2011/07/27,56000,57000,55000,55000,30,550
2011/07/28,55900,55900,55000,55000,27,550
2011/07/29,54000,54000,54000,54000,4,540
2011/08/02,55000,55000,55000,55000,2,550
2011/08/03,54200,56000,54200,56000,11,560
2011/08/08,56900,56900,56900,56900,1,569
2011/08/09,50900,50900,50900,50900,4,509
2011/08/10,54900,57600,54900,57600,13,576
2011/08/12,56500,56800,56500,56800,5,568
2011/08/15,56900,56900,56100,56100,6,561
2011/08/18,55700,55700,55700,55700,1,557
2011/08/22,55700,56400,55700,56400,13,564
2011/08/23,54400,59900,54400,59900,9,599
2011/08/24,56900,56900,56900,56900,1,569
2011/08/25,58900,60000,56000,56000,14,560
2011/08/26,56000,58500,56000,58500,4,585
2011/08/29,59500,61300,59500,60400,13,604
2011/08/30,63900,64000,63900,64000,7,640
2011/08/31,64000,68000,64000,68000,37,680
2011/09/01,65000,65000,65000,65000,1,650
2011/09/05,61000,61000,61000,61000,2,610
2011/09/06,61000,61000,58000,58000,18,580
2011/09/07,56100,61500,56100,61500,8,615
2011/09/08,57500,57500,57500,57500,1,575
2011/09/13,56000,56000,56000,56000,3,560
2011/09/14,55600,55600,55000,55000,9,550
2011/09/15,54500,55500,54500,55500,6,555
2011/09/16,54200,55000,54200,55000,2,550
2011/09/20,54100,55600,54100,55600,3,556
2011/09/21,56400,56400,56400,56400,1,564
2011/09/22,56400,57400,56400,57400,3,574
2011/09/26,57400,57400,57400,57400,5,574
2011/09/27,57400,57400,55800,55800,4,558
2011/09/28,54800,56400,54400,56400,8,564
2011/09/29,55500,56600,55200,56600,17,566
2011/09/30,57600,57600,57600,57600,1,576
2011/10/03,57600,57600,55600,56600,18,566
2011/10/04,56000,56000,56000,56000,15,560
2011/10/05,56500,56500,56500,56500,2,565
2011/10/06,57000,57000,57000,57000,1,570
2011/10/07,57500,60000,57500,60000,3,600
2011/10/12,58000,61500,58000,61500,8,615
2011/10/13,60500,60500,60500,60500,3,605
2011/10/17,60500,60500,60500,60500,1,605
2011/10/19,60500,60500,60500,60500,1,605
2011/10/20,60500,60500,60500,60500,3,605
2011/10/24,62000,62000,61600,61600,3,616
2011/10/25,63600,63600,63600,63600,4,636
2011/10/27,63600,63600,63600,63600,2,636
2011/10/28,65600,65600,65600,65600,3,656
2011/10/31,64000,64000,64000,64000,1,640
2011/11/01,60000,60000,60000,60000,1,600
2011/11/04,60000,60000,60000,60000,1,600
2011/11/07,61800,62000,61800,62000,11,620
2011/11/14,63000,63000,63000,63000,3,630
2011/11/16,60500,60500,60500,60500,1,605
2011/11/17,60400,60400,60400,60400,1,604
2011/11/18,60500,60500,60500,60500,1,605
2011/11/21,60500,61000,60500,61000,3,610
2011/11/22,61000,62000,61000,62000,3,620
2011/11/24,62700,62700,62700,62700,1,627
2011/11/25,64200,64200,63600,63600,6,636
2011/11/28,64300,64300,64300,64300,3,643
2011/11/30,64500,64500,64500,64500,1,645
2011/12/01,63000,63000,63000,63000,1,630
2011/12/09,66000,68500,66000,68500,3,685
2011/12/12,70000,71400,69000,69200,27,692
2011/12/13,69500,71400,69500,71400,7,714
2011/12/14,72300,73000,72300,73000,11,730
2011/12/15,73000,74500,72600,72600,10,726
2011/12/16,74100,76700,72500,76700,44,767
2011/12/19,79000,82000,79000,81900,26,819
2011/12/20,81000,82000,80900,82000,13,820
2011/12/21,83100,83200,82000,82000,8,820
2011/12/22,82000,83200,81500,81500,10,815
2011/12/26,76200,80000,76000,76000,15,760
2011/12/27,79900,80000,77100,79500,33,795
2011/12/28,79500,79500,76000,79500,23,795
2011/12/29,79500,79500,79500,79500,1,795
2011/12/30,79500,79500,79500,79500,48,795
2012/01/04,79500,79600,79500,79500,7,795
2012/01/05,79600,79600,79600,79600,2,796
2012/01/06,79500,80000,79500,80000,3,800
2012/01/10,80000,83000,80000,83000,35,830
2012/01/11,87500,87500,87000,87000,5,870
2012/01/13,84000,84000,84000,84000,1,840
2012/01/17,83000,83500,83000,83500,3,835
2012/01/18,84000,84000,84000,84000,2,840
2012/01/19,85500,88000,85500,88000,19,880
2012/01/20,88000,88000,88000,88000,1,880
2012/01/23,88000,90000,85600,85600,16,856
2012/01/24,90000,90000,89000,89000,11,890
2012/01/25,90500,90500,90500,90500,3,905
2012/01/26,92000,92000,92000,92000,1,920
2012/01/27,91000,91000,91000,91000,4,910
2012/01/30,88500,98000,88500,98000,11,980
2012/02/02,93900,93900,88000,88000,7,880
2012/02/07,85100,85100,85100,85100,2,851
2012/02/08,87500,87500,87500,87500,1,875
2012/02/13,85000,85000,85000,85000,3,850
2012/02/14,95400,95400,94500,94500,2,945
2012/02/17,88800,88800,88800,88800,5,888
2012/02/20,90000,90000,90000,90000,2,900
2012/02/21,90300,95500,90300,95500,8,955
2012/02/22,95000,99000,95000,99000,16,990
2012/02/23,98000,100000,98000,99000,22,990
2012/02/24,99000,99000,97000,97000,13,970
2012/02/27,96500,96600,96500,96500,11,965
2012/02/28,96200,96200,96000,96000,16,960
2012/02/29,97800,97800,97800,97800,2,978
2012/03/01,96500,96500,96500,96500,8,965
2012/03/02,95000,95000,91500,91500,18,915
2012/03/05,91500,91500,87300,90000,12,900
2012/03/08,88900,88900,88800,88800,2,888
2012/03/09,92500,92500,90100,90100,5,901
2012/03/12,90000,90000,90000,90000,1,900
2012/03/14,90000,90000,90000,90000,1,900
2012/03/15,86300,86300,86300,86300,14,863
2012/03/16,86300,86400,86300,86300,10,863
2012/03/19,90800,90800,89900,89900,2,899
2012/03/22,88100,88100,88100,88100,1,881
2012/03/23,88200,88200,86000,86000,10,860
2012/03/26,85000,89900,85000,89900,13,899
2012/03/27,89900,90000,89900,90000,6,900
2012/03/28,93500,93500,93000,93000,4,930
2012/03/29,88100,90000,88100,90000,2,900
2012/03/30,88000,88000,86600,86600,3,866
2012/04/02,90000,90000,90000,90000,1,900
2012/04/03,92000,95000,92000,95000,15,950
2012/04/04,96000,108000,96000,96000,42,960
2012/04/05,96000,98500,93000,98000,10,980
2012/04/06,100000,113000,100000,113000,45,1130
2012/04/09,119000,125000,105000,106500,89,1065
2012/04/10,105000,105000,100500,100500,16,1005
2012/04/11,99000,100000,98000,99100,9,991
2012/04/13,102000,108000,100000,102000,10,1020
2012/04/16,117000,117000,116000,116000,2,1160
2012/04/18,107000,108100,107000,108100,4,1081
2012/04/19,108100,111000,108100,111000,8,1110
2012/04/20,111000,111500,111000,111000,3,1110
2012/04/23,111000,111000,111000,111000,1,1110
2012/04/24,111300,111300,111200,111200,3,1112
2012/04/25,116500,117000,116500,117000,4,1170
2012/04/26,117000,117000,117000,117000,1,1170
2012/04/27,117000,117000,114000,115000,7,1150
2012/05/01,115000,115000,106000,106000,3,1060
2012/05/02,112000,112000,112000,112000,1,1120
2012/05/10,103000,103000,100500,100500,8,1005
2012/05/11,102000,102000,102000,102000,1,1020
2012/05/14,101000,101000,101000,101000,2,1010
2012/05/15,100000,100000,100000,100000,3,1000
2012/05/16,100000,100000,100000,100000,2,1000
2012/05/18,100000,100000,100000,100000,2,1000
2012/05/21,100000,100000,100000,100000,2,1000
2012/05/22,100000,100000,100000,100000,1,1000
2012/05/23,100000,100000,100000,100000,1,1000
2012/05/24,100000,100000,99900,99900,3,999
2012/05/25,104400,104400,100000,100000,7,1000
2012/05/28,103000,103000,100000,100000,5,1000
2012/05/30,97000,97000,94000,94000,2,940
2012/06/01,96000,96000,96000,96000,1,960
2012/06/04,90000,90000,90000,90000,1,900
2012/06/15,100000,100000,100000,100000,5,1000
2012/06/19,100000,100000,100000,100000,1,1000
2012/06/21,105000,105000,103000,103000,5,1030
2012/06/25,129900,129900,117900,117900,10,1179
2012/06/26,108900,108900,108900,108900,2,1089
2012/06/28,124900,127000,120000,127000,12,1270
2012/06/29,132900,133000,119000,119500,25,1195
2012/07/02,117200,117200,117000,117000,7,1170
2012/07/03,112000,112000,109000,109000,13,1090
2012/07/04,107600,110600,107600,110600,2,1106
2012/07/05,108700,111500,108500,111500,4,1115
2012/07/06,108500,108500,108500,108500,2,1085
2012/07/09,106000,106000,102200,102200,6,1022
2012/07/10,101000,101000,101000,101000,8,1010
2012/07/11,105900,106400,100200,100200,8,1002
2012/07/13,100100,101500,94000,94000,29,940
2012/07/17,95500,95500,94000,94000,18,940
2012/07/18,92000,92000,90000,90000,15,900
2012/07/20,90000,90000,90000,90000,2,900
2012/07/23,88500,88500,81500,83000,43,830
2012/07/24,83000,86000,83000,86000,5,860
2012/07/25,84500,85500,84500,85500,6,855
2012/07/26,87000,90000,85600,90000,25,900
2012/07/27,93000,93000,88500,88500,21,885
2012/07/30,89000,89000,85500,85500,23,855
2012/07/31,89500,90000,89500,90000,16,900
2012/08/03,87000,87000,87000,87000,1,870
2012/08/06,88000,88000,85600,85600,23,856
2012/08/07,86100,86100,85500,85500,27,855
2012/08/09,85100,85100,85100,85100,1,851
2012/08/10,84100,84100,84000,84000,4,840
2012/08/13,82500,82500,81000,81000,11,810
2012/08/16,80000,81500,78000,81500,29,815
2012/08/17,81500,81500,81500,81500,15,815
2012/08/20,81000,81000,81000,81000,5,810
2012/08/21,81000,81000,78000,79900,131,799
2012/08/22,79900,80000,76800,77500,88,775
2012/08/23,80000,81500,80000,81500,13,815
2012/08/24,83000,84700,82500,84700,10,847
2012/08/27,86200,88000,86200,88000,32,880
2012/08/28,89500,89500,85000,85300,12,853
2012/08/29,86800,91500,85300,90000,99,900
2012/08/30,91000,93000,91000,93000,70,930
2012/08/31,90000,91500,86300,91500,9,915
2012/09/03,90000,90000,90000,90000,7,900
2012/09/04,89000,89000,85200,87500,21,875
2012/09/05,89000,89000,87500,88900,4,889
2012/09/06,90000,90000,90000,90000,1,900
2012/09/07,88500,88500,85200,87500,26,875
2012/09/10,87500,87500,87500,87500,2,875
2012/09/11,88000,88000,88000,88000,1,880
2012/09/12,87400,88500,87400,88000,5,880
2012/09/13,88000,89000,88000,89000,8,890
2012/09/14,88500,88500,84800,85700,70,857
2012/09/18,85400,86000,85400,86000,4,860
2012/09/19,86000,87000,86000,87000,8,870
2012/09/20,87000,87000,85500,85500,10,855
2012/09/21,84500,86400,84500,86400,5,864
2012/09/24,86400,88000,86400,88000,4,880
2012/09/25,89000,89800,88500,88500,18,885
2012/09/26,88500,89300,88300,89300,12,893
2012/09/27,89300,104300,89300,93700,147,937
2012/09/28,95800,99800,94000,99400,93,994
2012/10/01,97000,97000,87200,87300,168,873
2012/10/02,87000,87000,86000,86000,13,860
2012/10/03,85800,88300,85600,87600,5,876
2012/10/04,88300,88300,86300,86600,22,866
2012/10/05,85900,85900,83200,83200,24,832
2012/10/09,81700,82500,81700,82500,9,825
2012/10/10,81800,81800,81700,81700,3,817
2012/10/11,81300,81400,81300,81400,14,814
2012/10/12,81700,81700,81500,81500,3,815
2012/10/15,81700,81900,81000,81000,13,810
2012/10/16,81000,81000,79000,79000,32,790
2012/10/17,79900,79900,79200,79200,3,792
2012/10/18,80000,80000,79400,79400,2,794
2012/10/19,80900,80900,80600,80700,7,807
2012/10/22,82200,82900,81900,82900,16,829
2012/10/23,81900,81900,81700,81700,9,817
2012/10/24,82000,82900,82000,82900,2,829
2012/10/25,82900,84000,82200,84000,13,840
2012/10/26,82300,83000,82100,83000,10,830
2012/10/29,83000,83800,83000,83800,6,838
2012/10/31,82600,82600,81000,82000,4,820
2012/11/01,82000,82000,82000,82000,1,820
2012/11/05,84300,87900,84300,87900,4,879
2012/11/07,83400,84000,81900,81900,15,819
2012/11/08,83600,83600,82500,82500,2,825
2012/11/09,81800,82100,81300,82100,13,821
2012/11/14,80600,81300,80500,80500,11,805
2012/11/16,81100,81100,81000,81000,2,810
2012/11/19,81300,81400,81000,81000,6,810
2012/11/20,81400,81400,81400,81400,1,814
2012/11/21,81400,82100,81000,82100,6,821
2012/11/22,83000,86000,82300,82500,29,825
2012/11/26,82500,83000,81200,81300,17,813
2012/11/27,82600,82600,81100,81200,20,812
2012/11/28,81700,81700,81700,81700,8,817
2012/11/29,82100,82100,81100,81100,14,811
2012/11/30,81800,81800,81300,81400,12,814
2012/12/03,83800,83800,82100,82200,17,822
2012/12/04,82800,84600,82500,84600,30,846
2012/12/05,84700,84700,83600,84500,12,845
2012/12/06,84700,84700,84000,84000,8,840
2012/12/07,85000,85300,84000,85000,5,850
2012/12/10,85600,89000,85600,88000,12,880
2012/12/11,88000,88000,85000,87000,18,870
2012/12/12,86900,87300,86200,86200,9,862
2012/12/13,86900,87000,86500,86600,10,866
2012/12/14,89000,90900,87200,89900,12,899
2012/12/17,91000,92000,90100,92000,18,920
2012/12/18,92700,93000,92000,93000,16,930
2012/12/19,93100,95900,93000,95900,25,959
2012/12/20,96000,99500,96000,99400,14,994
2012/12/21,99300,101800,93100,101800,65,1018
2012/12/25,102500,103500,101500,102000,37,1020
2012/12/26,102000,104800,102000,104800,52,1048
2012/12/27,105000,106000,98200,100000,76,1000
2012/12/28,98700,100800,93200,100000,39,1000
2013/01/04,99000,99700,95500,99700,23,997
2013/01/07,100000,100100,97700,100000,34,1000
2013/01/08,98000,102000,98000,99000,9,990
2013/01/09,99000,100000,97600,98000,54,980
2013/01/10,99900,102000,99900,100000,28,1000
2013/01/11,101500,101500,97800,100000,29,1000
2013/01/15,98900,101900,98900,100000,46,1000
2013/01/16,100000,100500,100000,100000,38,1000
2013/01/17,100000,100500,100000,100500,6,1005
2013/01/18,101900,103000,101900,103000,9,1030
2013/01/21,102500,104000,100300,104000,27,1040
2013/01/22,101000,103900,101000,101200,10,1012
2013/01/23,103600,103600,102000,102500,17,1025
2013/01/24,103300,109800,103300,105000,45,1050
2013/01/25,108000,108000,103000,104200,16,1042
2013/01/28,107000,107000,105000,107000,12,1070
2013/01/29,107400,107400,105100,105100,5,1051
2013/01/30,106800,106800,106800,106800,1,1068
2013/01/31,105900,105900,105900,105900,1,1059
2013/02/01,105100,106000,104200,104200,6,1042
2013/02/04,105100,108500,105000,108500,28,1085
2013/02/05,116500,118800,109200,109900,41,1099
2013/02/06,111000,111000,106800,107500,21,1075
2013/02/07,106000,111000,106000,111000,33,1110
2013/02/08,106200,106400,106200,106400,14,1064
2013/02/12,106500,110000,106500,110000,25,1100
2013/02/13,113000,113000,113000,113000,4,1130
2013/02/14,112900,112900,108000,108000,6,1080
2013/02/15,107100,108600,100000,100200,35,1002
2013/02/18,100200,100200,100200,100200,4,1002
2013/02/21,101000,102000,101000,102000,9,1020
2013/02/22,103000,105700,103000,104800,7,1048
2013/02/25,103000,105600,102100,102300,23,1023
2013/02/26,98900,99100,95800,97500,24,975
2013/02/27,98000,98500,97500,98500,4,985
2013/02/28,99200,100000,99200,100000,16,1000
2013/03/01,100800,100800,100800,100800,1,1008
2013/03/04,101700,108000,101700,108000,28,1080
2013/03/05,109500,109500,104600,108500,15,1085
2013/03/06,105500,108000,102500,108000,16,1080
2013/03/07,110000,111700,107000,111700,16,1117
2013/03/08,112000,121000,110000,118200,44,1182
2013/03/11,120000,148200,119500,140000,148,1400
2013/03/12,131000,135100,127500,128700,49,1287
2013/03/13,126600,130000,124000,130000,18,1300
2013/03/14,128500,148000,126100,148000,49,1480
2013/03/15,147900,147900,142000,144000,21,1440
2013/03/18,141800,141800,130500,130500,27,1305
2013/03/19,131500,140000,131500,140000,9,1400
2013/03/21,135500,140000,135500,138000,17,1380
2013/03/22,139100,139100,136100,136600,17,1366
2013/03/25,136000,139100,135800,139100,20,1391
2013/03/26,139000,139500,139000,139500,6,1395
2013/03/27,140000,142500,139500,142500,5,1425
2013/03/28,142500,142800,140000,142800,28,1428
2013/03/29,143400,144000,142500,144000,18,1440
2013/04/01,144100,145500,130100,133100,41,1331
2013/04/02,134900,134900,128400,130100,9,1301
2013/04/03,129600,135000,129600,135000,9,1350
2013/04/04,135000,137900,118800,137800,195,1378
2013/04/05,167800,167800,143000,148500,297,1485
2013/04/08,150300,153500,148600,151000,61,1510
2013/04/09,150500,152000,150000,151500,49,1515
2013/04/10,149000,149000,145700,148000,19,1480
2013/04/11,145000,148100,145000,148100,14,1481
2013/04/12,146100,150000,146100,149900,33,1499
2013/04/15,151000,152000,151000,151900,27,1519
2013/04/16,147000,149900,141200,148000,18,1480
2013/04/17,148000,148000,145200,145200,5,1452
2013/04/18,146600,152000,146600,148000,17,1480
2013/04/19,148000,150900,147200,149700,10,1497
2013/04/22,149700,149700,145300,145300,39,1453
2013/04/23,145500,148500,145500,148000,26,1480
2013/04/24,148400,150000,147000,150000,32,1500
2013/04/25,150000,157400,148000,157000,29,1570
2013/04/26,153000,155000,146100,151900,75,1519
2013/04/30,149200,150000,147000,150000,45,1500
2013/05/01,150000,153900,149000,153900,12,1539
2013/05/02,149900,151900,147000,151900,23,1519
2013/05/07,153900,153900,149500,152000,11,1520
2013/05/08,150100,150100,149200,149200,20,1492
2013/05/09,149300,149300,137500,139800,160,1398
2013/05/10,139000,139000,125500,127800,139,1278
2013/05/13,132500,136900,132000,133500,84,1335
2013/05/14,132900,132900,128800,129400,30,1294
2013/05/15,130900,131800,127800,128300,45,1283
2013/05/16,127500,130400,125100,126900,46,1269
2013/05/17,126000,130900,125700,128600,16,1286
2013/05/20,130000,131200,129100,129300,13,1293
2013/05/21,131500,132500,130100,130100,26,1301
2013/05/22,132000,139000,129000,131900,61,1319
2013/05/23,130100,132000,126100,126100,16,1261
2013/05/24,126000,126000,124000,124000,9,1240
2013/05/27,122500,122500,120000,122500,19,1225
2013/05/28,118500,118800,118500,118700,10,1187
2013/05/29,119200,124900,119200,124900,5,1249
2013/05/30,124900,124900,121500,121500,4,1215
2013/05/31,121500,124000,121500,124000,2,1240
2013/06/03,120000,120000,119000,119100,6,1191
2013/06/04,115100,119900,115100,119900,21,1199
2013/06/05,120100,123600,120000,123600,3,1236
2013/06/06,120000,120000,105000,109200,106,1092
2013/06/07,105000,108700,102100,103000,20,1030
2013/06/10,108000,108000,106500,107600,6,1076
2013/06/11,107600,111000,107000,110000,24,1100
2013/06/12,105000,107500,103000,107500,7,1075
2013/06/14,107500,108000,107500,107500,3,1075
2013/06/17,110000,110000,107700,109000,7,1090
2013/06/18,111900,113900,111900,113900,4,1139
2013/06/19,114900,114900,114600,114800,8,1148
2013/06/20,116000,116000,114000,114000,20,1140
2013/06/21,111200,113300,110200,113300,5,1133
2013/06/24,113800,113800,113500,113500,8,1135
2013/06/25,118000,118000,117000,117000,19,1170
2013/06/26,116000,116000,107400,107400,33,1074
2013/06/27,107500,108700,106000,106000,10,1060
2013/06/28,101000,101000,94500,96700,110,967
2013/07/01,96200,97600,96200,96600,31,966
2013/07/02,97800,98900,97500,98900,40,989
2013/07/03,98800,98900,97500,97500,28,975
2013/07/04,98700,99000,98100,99000,15,990
2013/07/05,99000,101500,99000,101500,20,1015
2013/07/08,102100,103000,100800,100800,44,1008
2013/07/09,106800,106800,102000,102000,47,1020
2013/07/10,102200,103200,102000,102000,8,1020
2013/07/11,102900,106000,102900,106000,34,1060
2013/07/12,105600,105700,102000,105000,20,1050
2013/07/16,104700,104700,102200,102500,15,1025
2013/07/17,101000,102000,100000,102000,17,1020
2013/07/18,101100,101300,100000,101300,19,1013
2013/07/19,101500,105000,96200,102000,119,1020
2013/07/22,103600,103600,101200,101300,34,1013
2013/07/23,101300,103700,101300,102100,16,1021
2013/07/24,102100,102100,101000,101000,7,1010
2013/07/25,103000,103000,101000,101000,6,1010
2013/07/26,101200,101300,101200,101300,4,1013
2013/07/29,102400,102500,101900,102500,38,1025
2013/07/30,101500,101500,101000,101000,5,1010
2013/07/31,103000,108000,101000,108000,62,1080
2013/08/01,108000,108000,107700,107700,5,1077
2013/08/02,106900,109500,106900,109500,5,1095
2013/08/05,108000,111000,108000,108500,32,1085
2013/08/06,110000,110000,108000,110000,65,1100
2013/08/07,110800,111000,108000,108000,21,1080
2013/08/08,107000,107000,105100,105500,15,1055
2013/08/09,105000,105000,103500,103500,8,1035
2013/08/14,101200,101200,101200,101200,2,1012
2013/08/15,101500,101500,101500,101500,2,1015
2013/08/16,101800,101800,101800,101800,1,1018
2013/08/19,101000,101000,99900,99900,10,999
2013/08/20,101400,101400,99900,99900,14,999
2013/08/21,99900,99900,99900,99900,3,999
2013/08/23,100500,101000,100500,101000,4,1010
2013/08/26,100000,100000,99700,99700,5,997
2013/08/27,100000,102000,100000,102000,5,1020
2013/08/28,1015,1015,1015,1015,200,1015
2013/08/29,1045,1045,1043,1045,700,1045
2013/09/02,995,1009,990,998,1500,998
2013/09/03,990,990,990,990,100,990
2013/09/04,990,995,990,995,200,995
2013/09/05,1000,1000,1000,1000,100,1000
2013/09/06,991,991,980,980,700,980
2013/09/09,1000,1000,1000,1000,24300,1000
2013/09/10,1010,1029,1010,1029,600,1029
2013/09/11,1008,1008,1002,1002,200,1002
2013/09/12,1000,1005,1000,1005,300,1005
2013/09/13,1020,1020,1000,1000,400,1000
2013/09/17,993,993,993,993,400,993
2013/09/18,993,993,993,993,400,993
2013/09/19,999,1002,999,1002,200,1002
2013/09/20,1005,1005,995,999,1100,999
2013/09/24,998,1001,998,1001,600,1001
2013/09/25,1000,1000,998,998,700,998
2013/09/26,999,999,991,991,1500,991
2013/09/27,986,986,971,972,2100,972
2013/09/30,972,972,960,960,1800,960
2013/10/01,961,961,930,930,3300,930
2013/10/02,930,935,914,914,3700,914
2013/10/03,911,915,899,901,6400,901
2013/10/04,897,900,895,896,4100,896
2013/10/07,900,909,895,895,4800,895
2013/10/08,895,895,895,895,1100,895
2013/10/09,895,896,894,895,2100,895
2013/10/10,906,906,900,900,600,900
2013/10/11,910,910,910,910,1100,910
2013/10/15,914,914,906,910,1700,910
2013/10/16,913,913,913,913,300,913
2013/10/17,918,918,915,915,200,915
2013/10/18,912,913,911,911,600,911
2013/10/21,912,917,910,917,1700,917
2013/10/22,918,918,918,918,1100,918
2013/10/23,919,919,918,918,1300,918
2013/10/24,924,924,910,910,1200,910
2013/10/25,918,919,912,912,1100,912
2013/10/28,924,924,917,917,700,917
2013/10/29,918,925,905,905,3000,905
2013/10/31,908,910,908,908,1700,908
2013/11/01,914,914,899,899,3500,899
2013/11/05,900,907,900,900,1400,900
2013/11/06,900,905,899,899,2600,899
2013/11/07,900,904,888,890,4600,890
2013/11/08,883,900,880,894,2500,894
2013/11/11,898,898,898,898,100,898
2013/11/12,899,906,899,906,2300,906
2013/11/13,902,908,902,902,700,902
2013/11/14,900,900,880,889,9300,889
2013/11/15,881,882,869,877,9800,877
2013/11/18,871,871,860,861,14600,861
2013/11/19,866,868,855,859,16500,859
2013/11/20,867,867,844,858,6100,858
2013/11/21,869,869,861,864,1300,864
2013/11/22,865,869,864,867,2900,867
2013/11/25,870,873,868,868,2600,868
2013/11/26,869,878,869,878,2300,878
2013/11/27,880,886,878,886,1100,886
2013/11/28,889,889,885,888,2100,888
2013/11/29,888,888,888,888,300,888
2013/12/02,889,900,885,899,4500,899
2013/12/03,900,901,898,900,2200,900
2013/12/04,903,903,885,887,1700,887
2013/12/05,888,894,888,892,1000,892
2013/12/06,892,901,892,900,1100,900
2013/12/09,900,900,899,899,1300,899
2013/12/10,899,902,899,902,2200,902
2013/12/11,902,902,899,899,3000,899
2013/12/12,903,903,899,899,4800,899
2013/12/13,896,901,896,898,9200,898
2013/12/16,898,900,898,900,2000,900
2013/12/17,900,900,896,896,30600,896
2013/12/18,898,900,896,899,1300,899
2013/12/19,898,898,897,897,30200,897
2013/12/20,900,900,897,897,3800,897
2013/12/24,897,903,897,897,4800,897
2013/12/25,899,900,885,900,3100,900
2013/12/26,905,907,902,907,1300,907
2013/12/27,824,837,800,816,40400,816
2013/12/30,817,862,816,836,13900,836
2014/01/06,838,838,823,827,7000,827
2014/01/07,832,833,825,825,2200,825
2014/01/08,825,836,824,836,3800,836
2014/01/09,830,836,827,832,2200,832
2014/01/10,832,841,830,838,1200,838
2014/01/14,835,837,822,835,4700,835
2014/01/15,835,835,824,824,2300,824
2014/01/16,824,824,822,824,2100,824
2014/01/17,824,831,824,825,1400,825
2014/01/20,830,845,830,831,6800,831
2014/01/21,843,843,831,831,800,831
2014/01/22,831,842,831,834,1100,834
2014/01/23,841,841,832,832,3600,832
2014/01/24,836,841,832,832,1000,832
2014/01/27,832,832,828,828,2200,828
2014/01/28,835,838,830,838,1700,838
2014/01/29,839,839,831,831,900,831
2014/01/30,828,828,826,826,800,826
2014/01/31,830,843,830,843,9300,843
2014/02/03,823,825,819,819,2300,819
2014/02/04,801,810,800,800,3500,800
2014/02/05,786,801,786,787,1000,787
2014/02/06,787,803,787,803,1000,803
2014/02/07,803,803,795,795,300,795
2014/02/10,795,809,792,809,2100,809
2014/02/12,805,848,805,847,1800,847
2014/02/13,830,833,830,833,600,833
2014/02/14,825,825,808,808,700,808
2014/02/17,808,808,808,808,200,808
2014/02/18,846,846,841,841,1100,841
2014/02/19,840,840,840,840,100,840
2014/02/20,820,820,820,820,200,820
2014/02/21,820,820,820,820,100,820
2014/02/24,820,829,819,829,2500,829
2014/02/25,837,840,837,840,1800,840
2014/02/26,801,815,801,811,1500,811
2014/02/27,801,810,788,788,3300,788
2014/02/28,803,803,800,802,600,802
2014/03/03,799,799,799,799,900,799
2014/03/04,790,801,790,801,1000,801
2014/03/05,803,803,786,786,800,786
2014/03/06,784,784,770,771,2000,771
2014/03/07,800,800,783,783,700,783
2014/03/10,785,790,785,789,600,789
2014/03/11,790,790,790,790,100,790
2014/03/12,790,790,783,783,1700,783
2014/03/13,783,789,783,789,200,789
2014/03/14,770,770,770,770,300,770
2014/03/18,770,770,762,762,1000,762
2014/03/19,761,761,760,760,800,760
2014/03/20,775,775,750,750,1200,750
2014/03/24,748,748,713,724,7300,724
2014/03/25,735,735,735,735,300,735
2014/03/26,720,720,720,720,300,720
2014/03/27,713,713,705,705,1400,705
2014/03/28,710,713,710,713,800,713
2014/03/31,710,719,710,719,6300,719
2014/04/01,716,718,715,718,24900,718
2014/04/02,739,740,735,740,600,740
2014/04/03,725,736,725,736,400,736
2014/04/04,749,749,734,741,600,741
2014/04/07,750,750,750,750,300,750
2014/04/08,750,750,740,740,400,740
2014/04/09,740,740,726,740,400,740
2014/04/11,716,720,710,710,1900,710
2014/04/15,715,715,685,685,800,685
2014/04/16,695,715,695,715,200,715
2014/04/18,710,715,692,700,1000,700
2014/04/21,715,850,710,710,13700,710
2014/04/22,710,710,700,700,900,700
2014/04/23,700,700,690,700,1400,700
2014/04/25,729,729,729,729,300,729
2014/04/28,738,738,708,708,400,708
2014/04/30,710,710,700,700,400,700
2014/05/01,707,707,707,707,900,707
2014/05/07,700,701,700,701,800,701
2014/05/08,701,702,701,702,300,702
2014/05/09,717,732,717,732,400,732
2014/05/12,800,800,764,764,5900,764
2014/05/13,719,720,713,714,1400,714
2014/05/14,712,712,712,712,400,712
2014/05/15,712,712,712,712,100,712
2014/05/16,710,710,710,710,100,710
2014/05/19,710,710,706,706,300,706
2014/05/20,706,706,706,706,100,706
2014/05/21,700,700,700,700,800,700
2014/05/23,707,707,707,707,100,707
2014/05/26,729,729,729,729,300,729
2014/05/27,720,729,720,729,200,729
2014/05/28,729,729,729,729,400,729
2014/05/30,744,744,744,744,1000,744
2014/06/02,733,744,729,744,1400,744
2014/06/03,744,744,744,744,500,744
2014/06/04,743,744,743,744,300,744
2014/06/05,743,743,743,743,300,743
2014/06/10,723,723,723,723,100,723
2014/06/11,726,726,726,726,200,726
2014/06/12,725,726,725,726,1000,726
2014/06/13,723,725,723,725,1100,725
2014/06/16,745,745,745,745,500,745
2014/06/17,741,743,741,742,500,742
2014/06/18,743,750,743,750,2100,750
2014/06/19,750,750,750,750,1400,750
2014/06/20,773,775,773,775,700,775
2014/06/23,785,808,785,788,2600,788
2014/06/24,783,783,777,780,500,780
2014/06/25,770,780,770,780,600,780
2014/06/26,781,781,781,781,400,781
2014/06/27,795,796,786,788,600,788
2014/06/30,817,817,783,783,1200,783
2014/07/01,782,788,782,788,300,788
2014/07/03,786,800,772,773,2700,773
2014/07/04,773,773,773,773,100,773
2014/07/07,774,774,774,774,100,774
2014/07/08,773,774,773,774,600,774
2014/07/09,774,774,773,773,900,773
2014/07/10,783,799,783,790,1300,790
2014/07/11,829,829,829,829,600,829
2014/07/14,800,800,785,800,300,800
2014/07/16,793,793,793,793,100,793
2014/07/17,793,793,793,793,300,793
2014/07/18,779,794,779,794,1100,794
2014/07/23,794,794,786,786,300,786
2014/07/24,787,787,784,784,400,784
2014/07/25,785,788,785,788,500,788
2014/07/28,818,818,791,791,300,791
2014/07/29,800,800,800,800,200,800
2014/07/30,796,798,796,798,300,798
2014/08/04,798,798,784,784,200,784
2014/08/05,792,792,792,792,200,792
2014/08/06,767,767,767,767,100,767
2014/08/08,755,755,755,755,2000,755
2014/08/12,756,756,756,756,200,756
2014/08/13,776,776,776,776,100,776
2014/08/20,775,775,775,775,100,775
2014/08/21,775,775,775,775,100,775
2014/08/22,776,776,776,776,100,776
2014/08/25,780,780,780,780,300,780
2014/08/26,780,780,780,780,100,780
2014/08/27,780,780,780,780,100,780
2014/08/28,812,812,765,765,700,765
2014/09/01,787,787,787,787,100,787
2014/09/02,772,772,772,772,100,772
2014/09/03,780,780,775,775,300,775
2014/09/05,775,775,768,775,500,775
2014/09/08,782,782,782,782,100,782
2014/09/09,783,795,783,795,1900,795
2014/09/10,786,786,783,783,5200,783
2014/09/11,785,785,772,773,6200,773
2014/09/12,778,783,778,783,7100,783
2014/09/16,783,804,783,792,5800,792
2014/09/17,790,800,790,800,1000,800
2014/09/18,788,788,785,785,300,785
2014/09/22,786,786,786,786,200,786
2014/09/24,786,790,770,770,4300,770
2014/09/25,777,781,777,780,1000,780
2014/09/26,769,769,761,761,1900,761
2014/09/29,780,808,780,808,500,808
2014/09/30,810,815,790,800,3100,800
2014/10/01,791,791,791,791,100,791
2014/10/03,800,800,800,800,100,800
2014/10/06,785,785,785,785,100,785
2014/10/07,781,781,779,779,500,779
2014/10/08,777,777,777,777,400,777
2014/10/09,770,770,770,770,300,770
2014/10/15,770,770,770,770,200,770
2014/10/17,770,770,770,770,500,770
2014/10/20,770,770,755,755,2200,755
2014/10/27,798,798,783,783,400,783
2014/10/28,794,794,772,772,400,772
2014/10/29,772,772,772,772,100,772
2014/10/30,794,794,764,764,700,764
2014/11/04,759,800,759,800,4700,800
2014/11/05,802,810,802,810,2400,810
2014/11/06,805,805,800,800,600,800
2014/11/07,800,800,790,790,500,790
2014/11/10,790,795,790,795,500,795
2014/11/11,795,796,795,795,800,795
2014/11/12,750,775,750,756,9800,756
2014/11/13,755,756,755,756,700,756
2014/11/14,756,763,756,763,1000,763
2014/11/17,760,760,760,760,100,760
2014/11/18,760,760,760,760,200,760
2014/11/19,760,760,752,760,1500,760
2014/11/20,770,775,770,773,1000,773
2014/11/25,788,791,787,787,1200,787
2014/11/27,797,800,797,799,2400,799
2014/11/28,800,800,782,782,400,782
2014/12/01,782,782,782,782,100,782
2014/12/02,780,780,780,780,100,780
2014/12/03,791,791,791,791,300,791
2014/12/04,779,779,777,777,400,777
2014/12/05,777,777,777,777,300,777
2014/12/08,780,781,779,779,300,779
2014/12/09,779,781,779,780,600,780
2014/12/10,787,787,787,787,200,787
2014/12/11,795,795,780,780,900,780
2014/12/12,780,780,780,780,100,780
2014/12/15,757,775,757,770,700,770
2014/12/16,762,762,761,761,300,761
2014/12/17,762,762,760,760,300,760
2014/12/18,765,772,765,772,2900,772
2014/12/19,757,768,757,762,1300,762
2014/12/22,761,765,759,765,3300,765
2014/12/24,761,762,759,759,1600,759
2014/12/25,773,775,756,758,3800,758
2014/12/26,751,751,715,715,3500,715
2014/12/29,731,731,715,715,1900,715
2014/12/30,717,732,717,732,1400,732
2015/01/05,735,735,733,733,300,733
2015/01/06,740,775,740,745,800,745
2015/01/07,735,750,735,750,600,750
2015/01/09,738,738,734,734,900,734
2015/01/13,732,732,732,732,200,732
2015/01/15,725,725,722,722,1100,722
2015/01/16,722,722,714,714,500,714
2015/01/20,712,712,712,712,100,712
2015/01/21,718,718,718,718,100,718
2015/01/23,724,724,724,724,100,724
2015/01/26,739,740,720,740,1000,740
2015/01/27,737,737,720,728,600,728
2015/01/28,728,738,728,738,900,738
2015/01/29,723,723,722,722,900,722
2015/01/30,713,720,713,714,700,714
2015/02/03,715,715,714,714,400,714
2015/02/04,719,719,719,719,100,719
2015/02/06,721,750,721,750,700,750
2015/02/09,726,726,723,723,600,723
2015/02/10,723,723,723,723,100,723
2015/02/13,780,780,717,760,2600,760
2015/02/16,760,760,760,760,400,760
2015/02/17,734,750,734,750,800,750
2015/02/18,749,749,749,749,100,749
2015/02/20,740,740,740,740,100,740
2015/02/23,754,754,754,754,100,754
2015/02/24,753,753,738,738,500,738
2015/02/25,738,755,738,755,500,755
2015/02/26,734,734,734,734,100,734
2015/02/27,734,735,731,731,1200,731
2015/03/02,789,789,735,735,1700,735
2015/03/03,771,771,771,771,100,771
2015/03/04,745,745,744,744,300,744
2015/03/05,745,754,745,754,1300,754
2015/03/10,756,775,756,771,500,771
2015/03/11,753,753,753,753,100,753
2015/03/13,751,751,746,746,1400,746
2015/03/16,765,765,750,765,2500,765
2015/03/17,765,765,751,755,3900,755
2015/03/18,753,753,753,753,200,753
2015/03/20,755,755,753,755,700,755
2015/03/23,757,760,736,736,4100,736
2015/03/24,759,759,744,751,800,751
2015/03/25,755,755,755,755,300,755
2015/03/26,744,744,744,744,100,744
2015/03/27,744,746,744,746,200,746
2015/03/30,761,784,761,784,900,784
2015/03/31,773,773,764,765,3200,765
2015/04/02,769,783,769,783,2400,783
2015/04/03,780,780,753,753,2600,753
2015/04/06,754,754,752,752,500,752
2015/04/07,750,759,747,759,800,759
2015/04/10,770,781,770,781,200,781
2015/04/13,780,780,780,780,300,780
2015/04/14,770,770,770,770,300,770
2015/04/15,770,770,770,770,200,770
2015/04/16,770,770,770,770,7300,770
2015/04/17,770,770,760,760,200,760
2015/04/20,760,760,760,760,200,760
2015/04/22,760,761,760,760,300,760
2015/04/23,764,774,764,774,1700,774
2015/04/24,774,774,770,770,700,770
2015/04/27,774,780,774,780,900,780
2015/04/28,780,780,765,765,400,765
2015/05/07,766,766,766,766,100,766
2015/05/08,767,778,767,778,7400,778
2015/05/11,763,763,763,763,200,763
2015/05/12,762,762,762,762,100,762
2015/05/13,775,775,775,775,100,775
2015/05/14,780,780,780,780,100,780
2015/05/15,766,766,766,766,100,766
2015/05/18,773,795,773,795,2900,795
2015/05/19,800,800,785,790,1100,790
2015/05/20,781,781,777,777,1400,777
2015/05/21,766,766,759,759,300,759
2015/05/22,762,764,762,763,300,763
2015/05/25,777,777,764,764,500,764
2015/05/27,764,770,764,770,300,770
2015/05/28,764,764,760,760,2300,760
2015/05/29,760,761,760,760,3500,760
2015/06/01,759,759,759,759,100,759
2015/06/02,770,770,770,770,100,770
2015/06/03,785,787,785,787,1100,787
2015/06/04,788,788,788,788,100,788
2015/06/05,795,795,795,795,100,795
2015/06/08,796,796,796,796,100,796
2015/06/09,797,797,783,783,200,783
2015/06/10,795,795,781,781,300,781
2015/06/11,794,795,794,795,300,795
2015/06/12,795,795,780,780,1000,780
2015/06/15,781,781,781,781,100,781
2015/06/16,796,811,796,811,500,811
2015/06/17,811,811,799,811,400,811
2015/06/18,811,811,811,811,100,811
2015/06/19,811,811,802,802,700,802
2015/06/22,802,810,800,810,300,810
2015/06/23,812,817,806,806,1300,806
2015/06/24,806,806,806,806,400,806
2015/06/25,815,956,815,956,32200,956
2015/06/26,1050,1050,873,913,78200,913
2015/06/29,838,853,823,833,13800,833
2015/06/30,803,809,801,802,10900,802
2015/07/01,800,807,798,802,4600,802
