2011/01/05,2460,2500,2460,2460,3300,820
2011/01/07,2347,2350,2311,2340,4500,780
2011/01/11,2330,2330,2250,2319,2400,773
2011/01/12,2300,2300,2260,2295,4400,765
2011/01/18,2389,2390,2385,2388,2000,796
2011/01/19,2380,2415,2370,2415,4200,805
2011/01/24,2275,2300,2220,2262,6700,754
2011/01/25,2270,2310,2270,2310,1600,770
2011/02/01,2270,2280,2270,2271,600,757
2011/02/03,2330,2340,2286,2340,2300,780
2011/02/09,2300,2313,2271,2310,3200,770
2011/02/10,2300,2300,2268,2298,3400,766
2011/02/14,2315,2360,2315,2328,1500,776
2011/02/17,2320,2350,2312,2319,2200,773
2011/02/22,2400,2420,2380,2400,1000,800
2011/03/03,2430,2430,2430,2430,200,810
2011/03/10,2600,2600,2530,2544,4300,848
2011/04/01,1913,1913,1885,1911,3600,637
2011/04/04,1911,2029,1910,1980,18600,660
2011/04/06,2091,2199,2050,2199,7800,733
2011/04/15,2088,2100,2072,2100,1900,700
2011/04/21,2150,2150,2130,2130,600,710
2011/04/26,2240,2260,2230,2259,1100,753
2011/04/28,2240,2295,2240,2295,4600,765
2011/05/11,2288,2295,2280,2280,800,760
2011/05/16,2245,2245,2198,2202,2500,734
2011/05/25,2185,2185,2184,2184,200,728
2011/06/01,2185,2220,2185,2190,1400,730
2011/06/03,2141,2169,2115,2169,7700,723
2011/06/06,2100,2160,2100,2121,3500,707
2011/06/09,2055,2090,2055,2070,1900,690
2011/06/13,2079,2100,2070,2100,1700,700
2011/06/15,2110,2115,2105,2115,2500,705
2011/06/16,2120,2130,2110,2130,1000,710
2011/06/20,2149,2150,2120,2148,3600,716
2011/06/21,2145,2165,2145,2163,4300,721
2011/06/22,2178,2179,2152,2160,1600,720
2011/06/27,2163,2193,2163,2193,300,731
2011/06/30,2156,2179,2156,2157,500,719
2011/07/06,2170,2235,2170,2235,1000,745
2011/07/08,2225,2235,2214,2235,1000,745
2011/07/20,2324,2337,2310,2337,600,779
2011/07/26,2315,2315,2270,2304,1700,768
2011/08/01,2294,2294,2265,2280,800,760
2011/08/02,2265,2280,2262,2262,1100,754
2011/08/03,2214,2255,2214,2250,1300,750
2011/08/09,2013,2100,2013,2100,5400,700
2011/08/17,2200,2200,2151,2175,800,725
2011/08/29,2175,2200,2175,2190,1300,730
2011/08/31,2200,2232,2200,2232,1900,744
2011/09/01,2192,2220,2181,2220,700,740
2011/09/06,2170,2171,2151,2151,1700,717
2011/09/08,2185,2196,2185,2196,500,732
2011/09/12,2125,2190,2125,2190,700,730
2011/09/14,2170,2180,2136,2136,1700,712
2011/09/15,2175,2190,2175,2190,1000,730
2011/09/16,2145,2198,2145,2187,1600,729
2011/09/27,2134,2140,2100,2130,1000,710
2011/09/28,2140,2145,2140,2145,300,715
2011/10/05,2131,2150,2131,2136,400,712
2011/10/11,2160,2180,2155,2160,3000,720
2011/10/14,2150,2150,2112,2130,1300,710
2011/10/21,2149,2149,2121,2121,800,707
2011/10/24,2122,2145,2122,2145,400,715
2011/10/28,2150,2175,2150,2175,2400,725
2011/11/04,2152,2152,2133,2133,1300,711
2011/11/14,2100,2100,2100,2100,700,700
2011/11/16,2060,2080,2050,2058,1200,686
2011/11/17,2036,2040,2036,2040,500,680
2011/11/18,2040,2049,2037,2049,2400,683
2011/11/21,2050,2052,2050,2052,600,684
2011/11/22,2050,2052,2040,2040,1100,680
2011/11/24,2040,2050,2004,2040,2100,680
2011/11/25,2040,2040,2040,2040,1100,680
2011/12/01,2090,2090,2060,2088,300,696
2011/12/02,2088,2100,2088,2100,700,700
2011/12/26,2070,2073,2050,2067,3500,689
2011/12/28,2020,2030,2020,2025,1100,675
2011/12/29,2020,2020,2001,2019,4000,673
2012/01/06,2037,2037,2002,2010,1700,670
2012/01/17,2073,2080,2051,2055,3600,685
2012/01/19,2095,2100,2082,2091,5200,697
2012/01/31,2111,2130,2111,2130,500,710
2012/02/01,2121,2139,2120,2139,600,713
2012/02/07,2120,2134,2120,2121,600,707
2012/02/08,2130,2130,2130,2130,300,710
2012/02/09,2151,2200,2151,2190,1800,730
2012/02/21,2276,2299,2274,2274,1300,758
2012/02/28,2400,2410,2400,2400,3600,800
2012/03/02,2415,2420,2415,2415,1200,805
2012/03/07,2441,2460,2441,2460,600,820
2012/03/14,2480,2480,2430,2436,700,812
2012/03/16,2480,2487,2451,2451,1700,817
2012/03/23,2500,2505,2486,2490,1000,830
2012/03/27,2557,2600,2500,2577,4800,859
2012/03/28,2527,2550,2520,2520,1200,840
2012/03/29,2550,2570,2550,2550,4200,850
2012/03/30,2551,2565,2545,2550,1900,850
2012/04/02,2580,2580,2553,2580,1000,860
2012/04/04,2600,2600,2575,2580,1000,860
2012/04/05,2510,2610,2505,2610,1900,870
2012/04/06,2560,2610,2560,2610,800,870
2012/04/12,2590,2600,2590,2595,1500,865
2012/04/19,2780,2899,2780,2820,4700,940
2012/04/24,2750,2750,2661,2670,1500,890
2012/04/25,2656,2730,2620,2730,600,910
2012/04/26,2700,2700,2700,2700,200,900
2012/05/02,3285,3290,3100,3150,10600,1050
2012/05/15,3005,3005,2940,2940,5600,980
2012/05/16,2940,3000,2940,3000,900,1000
2012/05/18,2963,3000,2961,3000,2600,1000
2012/05/31,3110,3120,3085,3120,800,1040
2012/06/04,3095,3095,3075,3075,1300,1025
2012/06/08,3000,3000,2985,2985,700,995
2012/06/13,3020,3020,3015,3015,700,1005
2012/06/14,3040,3180,3040,3180,3500,1060
2012/06/20,3155,3160,3150,3150,700,1050
2012/07/02,3395,3400,3360,3360,400,1120
2012/07/04,3365,3370,3350,3360,2500,1120
2012/07/06,3350,3350,3230,3300,1700,1100
2012/07/13,3375,3375,3335,3375,600,1125
2012/07/17,3445,3455,3420,3450,1600,1150
2012/07/19,3400,3420,3380,3420,1100,1140
2012/07/23,3445,3445,3355,3390,3500,1130
2012/07/27,3540,3600,3540,3540,2100,1180
2012/08/03,3500,3545,3495,3495,1200,1165
2012/08/09,3470,3490,3465,3465,800,1155
2012/08/13,3480,3480,3380,3390,2900,1130
2012/08/14,3390,3395,3350,3360,2900,1120
2012/08/15,3345,3390,3265,3285,4500,1095
2012/08/16,3285,3345,3285,3345,3600,1115
2012/08/29,1201,1201,1175,1175,2700,1175
2012/08/30,1205,1205,1190,1200,5200,1200
2012/08/31,1200,1200,1175,1175,3800,1175
2012/09/03,1170,1180,1170,1180,3500,1180
2012/09/04,1199,1209,1199,1208,6000,1208
2012/09/05,1215,1249,1209,1220,10400,1220
2012/09/06,1220,1240,1195,1215,2200,1215
2012/09/07,1240,1240,1200,1230,3000,1230
2012/09/10,1241,1260,1238,1238,3200,1238
2012/09/11,1250,1260,1230,1235,3900,1235
2012/09/12,1243,1250,1240,1240,1700,1240
2012/09/13,1251,1279,1241,1275,5600,1275
2012/09/14,1275,1288,1250,1288,10700,1288
2012/09/18,1290,1318,1290,1300,8900,1300
2012/09/19,1318,1348,1310,1335,15300,1335
2012/09/20,1366,1390,1342,1363,32100,1363
2012/09/21,1369,1380,1304,1348,9000,1348
2012/09/24,1348,1358,1312,1320,6300,1320
2012/09/25,1318,1338,1317,1317,3000,1317
2012/09/26,1317,1320,1300,1318,6400,1318
2012/09/27,1340,1340,1301,1310,4500,1310
2012/09/28,1315,1320,1297,1297,4600,1297
2012/10/01,1297,1314,1274,1314,4400,1314
2012/10/02,1315,1329,1314,1321,5200,1321
2012/10/03,1333,1343,1321,1343,8800,1343
2012/10/04,1350,1360,1341,1345,14800,1345
2012/10/05,1345,1357,1340,1357,14400,1357
2012/10/09,1364,1366,1340,1355,10400,1355
2012/10/10,1340,1365,1330,1355,4600,1355
2012/10/11,1330,1365,1330,1337,9100,1337
2012/10/12,1330,1337,1300,1300,10700,1300
2012/10/15,1301,1301,1278,1278,8500,1278
2012/10/16,1278,1278,1230,1278,14900,1278
2012/10/17,1278,1285,1270,1275,10600,1275
2012/10/18,1277,1299,1277,1299,3500,1299
2012/10/19,1300,1310,1299,1300,3300,1300
2012/10/22,1300,1300,1282,1283,1300,1283
2012/10/23,1286,1290,1285,1286,2100,1286
2012/10/24,1289,1345,1285,1332,6200,1332
2012/10/25,1344,1344,1322,1340,1900,1340
2012/10/26,1331,1340,1313,1334,2800,1334
2012/10/29,1322,1345,1301,1325,3900,1325
2012/10/30,1335,1341,1321,1337,2800,1337
2012/10/31,1336,1337,1326,1326,1500,1326
2012/11/01,1326,1330,1315,1315,3700,1315
2012/11/02,1315,1320,1305,1316,3400,1316
2012/11/05,1316,1325,1316,1325,3800,1325
2012/11/06,1339,1367,1320,1364,9600,1364
2012/11/07,1378,1429,1372,1406,19200,1406
2012/11/08,1406,1424,1387,1417,4500,1417
2012/11/09,1410,1425,1410,1410,16300,1410
2012/11/12,1421,1475,1420,1448,16400,1448
2012/11/13,1443,1450,1435,1450,13400,1450
2012/11/14,1480,1499,1452,1472,16000,1472
2012/11/15,1480,1508,1480,1492,15400,1492
2012/11/16,1525,1540,1481,1491,6900,1491
2012/11/19,1500,1560,1500,1531,47200,1531
2012/11/20,1521,1530,1481,1491,10200,1491
2012/11/21,1482,1523,1482,1490,5600,1490
2012/11/22,1483,1510,1478,1510,12900,1510
2012/11/26,1550,1550,1500,1510,8900,1510
2012/11/27,1535,1535,1473,1490,9500,1490
2012/11/28,1503,1503,1480,1486,5600,1486
2012/11/29,1486,1509,1480,1490,5400,1490
2012/11/30,1505,1505,1486,1490,2300,1490
2012/12/03,1490,1580,1490,1580,12400,1580
2012/12/04,1580,1709,1580,1675,23900,1675
2012/12/05,1679,1700,1665,1700,10900,1700
2012/12/06,1704,1704,1650,1701,9600,1701
2012/12/07,1701,1701,1662,1699,2800,1699
2012/12/10,1680,1700,1666,1670,6000,1670
2012/12/11,1658,1660,1601,1648,12400,1648
2012/12/12,1648,1670,1581,1625,11700,1625
2012/12/13,1620,1681,1620,1665,21600,1665
2012/12/14,1660,1681,1625,1650,9700,1650
2012/12/17,1650,1650,1610,1640,4900,1640
2012/12/18,1626,1650,1601,1620,16700,1620
2012/12/19,1619,1635,1573,1620,27300,1620
2012/12/20,1590,1610,1585,1587,4500,1587
2012/12/21,1585,1585,1553,1554,16800,1554
2012/12/25,1550,1551,1485,1540,29900,1540
2012/12/26,1504,1535,1504,1534,6800,1534
2012/12/27,1507,1540,1507,1540,7700,1540
2012/12/28,1550,1645,1550,1610,10700,1610
2013/01/04,1630,1650,1610,1610,18400,1610
2013/01/07,1650,1650,1600,1611,19300,1611
2013/01/08,1611,1614,1604,1604,3600,1604
2013/01/09,1610,1618,1603,1606,3500,1606
2013/01/10,1608,1608,1601,1603,6200,1603
2013/01/11,1600,1603,1599,1600,11700,1600
2013/01/15,1618,1618,1600,1610,5500,1610
2013/01/16,1628,1628,1603,1615,3200,1615
2013/01/17,1615,1648,1614,1648,5500,1648
2013/01/18,1650,1650,1620,1635,5400,1635
2013/01/21,1624,1645,1604,1645,7800,1645
2013/01/22,1625,1635,1600,1619,17800,1619
2013/01/23,1600,1600,1581,1586,9800,1586
2013/01/24,1587,1601,1585,1601,4400,1601
2013/01/25,1601,1603,1599,1603,4800,1603
2013/01/28,1600,1600,1580,1589,9300,1589
2013/01/29,1601,1604,1585,1585,6800,1585
2013/01/30,1581,1604,1580,1600,6300,1600
2013/01/31,1599,1620,1595,1619,6900,1619
2013/02/01,1602,1617,1591,1600,6500,1600
2013/02/04,1600,1618,1600,1602,7800,1602
2013/02/05,1611,1617,1605,1617,6900,1617
2013/02/06,1619,1640,1617,1640,15200,1640
2013/02/07,1667,1830,1667,1776,44900,1776
2013/02/08,1752,1752,1681,1718,16100,1718
2013/02/12,1696,1700,1641,1645,81100,1645
2013/02/13,1650,1670,1637,1645,29800,1645
2013/02/14,1680,1680,1645,1678,6800,1678
2013/02/15,1690,1693,1649,1668,9300,1668
2013/02/18,1685,1685,1650,1655,7100,1655
2013/02/19,1713,1713,1635,1660,35700,1660
2013/02/20,1675,1675,1660,1660,12800,1660
2013/02/21,1660,1674,1652,1655,21400,1655
2013/02/22,1675,1682,1660,1680,4200,1680
2013/02/25,1700,1700,1680,1682,12400,1682
2013/02/26,1675,1697,1675,1695,16000,1695
2013/02/27,1702,1745,1700,1735,9400,1735
2013/02/28,1740,1812,1735,1810,14100,1810
2013/03/01,1811,1820,1793,1817,10100,1817
2013/03/04,1820,1859,1816,1858,7200,1858
2013/03/05,1850,1851,1816,1830,9500,1830
2013/03/06,1848,1868,1848,1855,15200,1855
2013/03/07,1880,1880,1821,1854,7400,1854
2013/03/08,1855,1855,1821,1821,9100,1821
2013/03/11,1820,1851,1820,1850,9100,1850
2013/03/12,1850,1867,1826,1826,9800,1826
2013/03/13,1830,1840,1820,1840,5100,1840
2013/03/14,1849,1868,1827,1868,9700,1868
2013/03/15,1867,1880,1860,1880,23900,1880
2013/03/18,1880,1945,1870,1945,22800,1945
2013/03/19,1970,2020,1952,1999,13500,1999
2013/03/21,2045,2130,2045,2130,18800,2130
2013/03/22,2063,2160,2063,2134,10300,2134
2013/03/25,2165,2219,2140,2201,11300,2201
2013/03/26,2201,2210,2172,2210,6100,2210
2013/03/27,2211,2213,2181,2190,8200,2190
2013/03/28,2195,2195,2180,2180,7200,2180
2013/03/29,2185,2185,2071,2092,25400,2092
2013/04/01,2110,2110,1971,1971,34100,1971
2013/04/02,1985,2120,1974,2075,18400,2075
2013/04/03,2100,2151,2096,2098,9000,2098
2013/04/04,2100,2200,2100,2167,23500,2167
2013/04/05,2240,2240,2150,2179,13300,2179
2013/04/08,2220,2244,2125,2172,11000,2172
2013/04/09,2180,2199,2170,2180,3400,2180
2013/04/10,2200,2200,2160,2180,5800,2180
2013/04/11,2180,2188,2119,2168,7500,2168
2013/04/12,2160,2168,2096,2168,6700,2168
2013/04/15,2150,2150,2120,2144,2300,2144
2013/04/16,2100,2144,2100,2144,9600,2144
2013/04/17,2113,2140,2113,2125,6300,2125
2013/04/18,2169,2200,2138,2194,9000,2194
2013/04/19,2201,2210,2165,2190,4200,2190
2013/04/22,2240,2255,2202,2221,9500,2221
2013/04/23,2300,2400,2260,2400,11700,2400
2013/04/24,2350,2450,2321,2380,12300,2380
2013/04/25,2377,2415,2335,2350,9500,2350
2013/04/26,2340,2350,2300,2348,9800,2348
2013/04/30,2347,2415,2316,2375,22600,2375
2013/05/01,2200,2260,2051,2230,99500,2230
2013/05/02,2220,2220,2105,2183,43300,2183
2013/05/07,2295,2339,2220,2334,23900,2334
2013/05/08,2480,2598,2413,2460,39400,2460
2013/05/09,2500,2560,2500,2502,19300,2502
2013/05/10,2480,2520,2480,2505,17900,2505
2013/05/13,2455,2535,2455,2500,20900,2500
2013/05/14,2467,2489,2444,2460,14000,2460
2013/05/15,2463,2525,2450,2500,60100,2500
2013/05/16,2500,2510,2457,2500,75800,2500
2013/05/17,2500,2501,2470,2499,11600,2499
2013/05/20,2491,2500,2473,2495,7700,2495
2013/05/21,2550,2650,2481,2482,32600,2482
2013/05/22,2484,2485,2380,2401,23500,2401
2013/05/23,2470,2478,2290,2300,20600,2300
2013/05/24,2300,2300,2240,2276,24400,2276
2013/05/27,2257,2260,2205,2257,11200,2257
2013/05/28,2250,2341,2250,2315,11900,2315
2013/05/29,2304,2354,2304,2318,10600,2318
2013/05/30,2340,2340,2240,2250,11500,2250
2013/05/31,2270,2340,2260,2263,7900,2263
2013/06/03,2250,2282,2201,2253,10500,2253
2013/06/04,2245,2252,2200,2252,12800,2252
2013/06/05,2222,2253,2222,2235,7800,2235
2013/06/06,2200,2239,1992,2072,23200,2072
2013/06/07,1873,1940,1759,1840,62200,1840
2013/06/10,1940,2010,1940,1976,16400,1976
2013/06/11,2024,2080,2011,2075,14000,2075
2013/06/12,2050,2050,2012,2030,6400,2030
2013/06/13,2065,2065,1960,1986,9600,1986
2013/06/14,2010,2060,2010,2029,3100,2029
2013/06/17,2020,2029,1985,1986,7200,1986
2013/06/18,1961,2000,1961,1970,12500,1970
2013/06/19,2000,2000,1963,1972,7300,1972
2013/06/20,1960,1990,1960,1985,5200,1985
2013/06/21,1965,1969,1920,1960,14000,1960
2013/06/24,1988,1988,1941,1942,6600,1942
2013/06/25,1930,1930,1856,1883,9200,1883
2013/06/26,1884,1899,1801,1801,13200,1801
2013/06/27,1802,1819,1786,1795,22700,1795
2013/06/28,1810,1866,1810,1865,11600,1865
2013/07/01,1911,1964,1900,1941,8000,1941
2013/07/02,1960,1980,1960,1975,6600,1975
2013/07/03,1975,1995,1960,1960,4700,1960
2013/07/04,1995,2030,1971,2010,16100,2010
2013/07/05,2040,2148,2040,2099,14600,2099
2013/07/08,2147,2163,2126,2148,10900,2148
2013/07/09,2169,2180,2140,2172,6700,2172
2013/07/10,2150,2200,2150,2200,13900,2200
2013/07/11,2180,2200,2150,2180,6300,2180
2013/07/12,2160,2184,2136,2140,3900,2140
2013/07/16,2140,2140,2112,2118,3300,2118
2013/07/17,2147,2147,2000,2075,9500,2075
2013/07/18,2070,2099,2026,2099,4300,2099
2013/07/19,2099,2099,2021,2035,7700,2035
2013/07/22,2077,2077,1999,2016,5700,2016
2013/07/23,2017,2026,2017,2025,3600,2025
2013/07/24,2038,2046,2030,2046,4100,2046
2013/07/25,2043,2083,2043,2071,5100,2071
2013/07/26,2055,2069,2011,2015,5400,2015
2013/07/29,2015,2024,1980,2004,5600,2004
2013/07/30,2000,2095,2000,2085,23100,2085
2013/07/31,2075,2085,2045,2045,8000,2045
2013/08/01,2045,2070,2020,2023,5300,2023
2013/08/02,2079,2095,2041,2095,14700,2095
2013/08/05,2095,2125,2080,2091,8300,2091
2013/08/06,2064,2105,2053,2064,5300,2064
2013/08/07,2064,2132,2032,2132,11400,2132
2013/08/08,2090,2090,2035,2035,11500,2035
2013/08/09,2024,2040,2018,2028,6400,2028
2013/08/12,2014,2034,2000,2030,2500,2030
2013/08/13,2040,2049,2002,2014,5700,2014
2013/08/14,2030,2030,2005,2015,2300,2015
2013/08/15,2015,2020,1967,1991,11800,1991
2013/08/16,1991,2020,1991,2013,7700,2013
2013/08/19,2012,2016,1988,1993,6400,1993
2013/08/20,1993,2000,1968,1968,7100,1968
2013/08/21,1968,1968,1860,1900,25600,1900
2013/08/22,1935,1950,1930,1950,1800,1950
2013/08/23,1933,1978,1930,1971,4000,1971
2013/08/26,1945,1980,1940,1979,2400,1979
2013/08/27,1955,1989,1955,1957,3700,1957
2013/08/28,1935,1935,1915,1929,4100,1929
2013/08/29,1943,1944,1921,1930,1000,1930
2013/08/30,1941,1954,1931,1941,2100,1941
2013/09/02,1940,1948,1940,1948,700,1948
2013/09/03,1948,1999,1940,1979,6900,1979
2013/09/04,1941,1985,1941,1985,1700,1985
2013/09/05,1990,1993,1988,1988,1000,1988
2013/09/06,1990,1990,1970,1971,8800,1971
2013/09/09,1998,1999,1971,1977,2800,1977
2013/09/10,1977,1977,1972,1972,1200,1972
2013/09/11,1972,1972,1970,1970,1200,1970
2013/09/12,2000,2000,1979,1979,2900,1979
2013/09/13,1999,1999,1985,1990,1700,1990
2013/09/17,1999,2000,1990,2000,4300,2000
2013/09/18,2011,2011,2000,2000,3100,2000
2013/09/19,2000,2038,2000,2038,6500,2038
2013/09/20,2050,2080,2022,2079,13800,2079
2013/09/24,2099,2121,2059,2109,12300,2109
2013/09/25,2130,2130,2088,2094,4100,2094
2013/09/26,2100,2100,2072,2096,1200,2096
2013/09/27,2070,2142,2070,2120,7300,2120
2013/09/30,2122,2137,2119,2137,5200,2137
2013/10/01,2135,2176,2135,2171,5300,2171
2013/10/02,2200,2200,2170,2183,9100,2183
2013/10/03,2183,2208,2183,2200,4500,2200
2013/10/04,2198,2198,2161,2164,2200,2164
2013/10/07,2162,2183,2157,2160,4100,2160
2013/10/08,2101,2139,2101,2109,3300,2109
2013/10/09,2109,2139,2076,2139,3800,2139
2013/10/10,2180,2180,2120,2156,2600,2156
2013/10/11,2180,2195,2158,2194,3700,2194
2013/10/15,2194,2204,2166,2204,6800,2204
2013/10/16,2199,2200,2170,2170,1700,2170
2013/10/17,2172,2210,2172,2200,3900,2200
2013/10/18,2201,2239,2200,2238,6000,2238
2013/10/21,2288,2299,2259,2293,10500,2293
2013/10/22,2300,2330,2300,2330,13800,2330
2013/10/23,2331,2345,2331,2336,5900,2336
2013/10/24,2375,2380,2332,2370,18300,2370
2013/10/25,2417,2418,2365,2389,11500,2389
2013/10/28,2403,2403,2337,2337,6400,2337
2013/10/29,2337,2378,2300,2330,6000,2330
2013/10/30,2399,2400,2353,2380,14800,2380
2013/10/31,2378,2378,2311,2376,3800,2376
2013/11/01,2386,2386,2279,2300,7700,2300
2013/11/05,2290,2319,2290,2310,5400,2310
2013/11/06,2330,2330,2291,2319,15100,2319
2013/11/07,2301,2318,2300,2316,4100,2316
2013/11/08,2301,2301,2295,2301,2700,2301
2013/11/11,2290,2290,2251,2251,2200,2251
2013/11/12,2250,2250,2204,2218,5500,2218
2013/11/13,2216,2226,2216,2226,1200,2226
2013/11/14,2238,2260,2235,2236,3100,2236
2013/11/15,2280,2299,2215,2295,8800,2295
2013/11/18,2260,2290,2260,2271,5200,2271
2013/11/19,2280,2285,2280,2285,200,2285
2013/11/20,2260,2260,2255,2257,900,2257
2013/11/21,2282,2284,2252,2257,2900,2257
2013/11/22,2227,2253,2226,2253,2100,2253
2013/11/25,2240,2240,2220,2223,6900,2223
2013/11/26,2221,2221,2215,2220,800,2220
2013/11/27,2230,2240,2203,2210,3800,2210
2013/11/28,2210,2211,2200,2200,3500,2200
2013/11/29,2195,2204,2182,2200,7500,2200
2013/12/02,2210,2210,2188,2201,5800,2201
2013/12/03,2240,2248,2218,2238,20000,2238
2013/12/04,2223,2238,2212,2215,5600,2215
2013/12/05,2200,2230,2200,2220,4300,2220
2013/12/06,2220,2223,2220,2223,5900,2223
2013/12/09,2223,2247,2223,2242,5400,2242
2013/12/10,2249,2290,2249,2275,17500,2275
2013/12/11,2298,2298,2276,2289,3100,2289
2013/12/12,2290,2325,2282,2324,10900,2324
2013/12/13,2370,2400,2349,2390,21600,2390
2013/12/16,2394,2399,2380,2384,12600,2384
2013/12/17,2384,2409,2384,2396,23200,2396
2013/12/18,2400,2405,2390,2390,37300,2390
2013/12/19,2407,2446,2395,2439,31400,2439
2013/12/20,2495,2515,2470,2515,57100,2515
2013/12/24,2450,2451,2415,2450,77700,2450
2013/12/25,2450,2450,2351,2400,39800,2400
2013/12/26,2450,2499,2440,2499,7100,2499
2013/12/27,2501,2539,2452,2455,6200,2455
2013/12/30,2454,2500,2413,2469,5100,2469
2014/01/06,2469,2492,2453,2461,3300,2461
2014/01/07,2461,2461,2413,2451,3500,2451
2014/01/08,2450,2479,2430,2460,1900,2460
2014/01/09,2610,2610,2471,2505,8600,2505
2014/01/10,2510,2528,2480,2480,4100,2480
2014/01/14,2443,2476,2430,2450,2700,2450
2014/01/15,2495,2495,2480,2494,1100,2494
2014/01/16,2500,2526,2480,2483,4400,2483
2014/01/17,2474,2550,2474,2550,4700,2550
2014/01/20,2599,2610,2500,2540,7200,2540
2014/01/21,2550,2582,2542,2580,1400,2580
2014/01/22,2600,2710,2580,2710,15700,2710
2014/01/23,2688,2701,2647,2647,9000,2647
2014/01/24,2588,2699,2588,2693,3600,2693
2014/01/27,2553,2638,2550,2605,10200,2605
2014/01/28,2639,2780,2611,2749,12600,2749
2014/01/29,2700,2749,2620,2650,19400,2650
2014/01/30,2659,2712,2640,2712,6700,2712
2014/01/31,2650,2660,2605,2650,12400,2650
2014/02/03,2650,2650,2600,2608,9500,2608
2014/02/04,2470,2582,2435,2580,15000,2580
2014/02/05,2550,2600,2547,2557,13000,2557
2014/02/06,2557,2650,2510,2600,10600,2600
2014/02/07,2600,2607,2593,2600,9200,2600
2014/02/10,2720,2726,2674,2715,8200,2715
2014/02/12,2775,2844,2775,2840,9100,2840
2014/02/13,2742,2786,2710,2740,14800,2740
2014/02/14,2779,2800,2750,2767,6100,2767
2014/02/17,2770,2837,2770,2830,5900,2830
2014/02/18,2840,2850,2771,2835,7700,2835
2014/02/19,2850,2860,2801,2840,4000,2840
2014/02/20,2840,2840,2700,2736,10400,2736
2014/02/21,2752,2800,2752,2798,1800,2798
2014/02/24,2756,2766,2750,2755,4200,2755
2014/02/25,2800,2850,2780,2781,2200,2781
2014/02/26,2790,2816,2790,2816,800,2816
2014/02/27,2815,2815,2789,2794,2400,2794
2014/02/28,2791,2802,2791,2796,400,2796
2014/03/03,2790,2790,2734,2752,3000,2752
2014/03/04,2761,2810,2761,2780,2500,2780
2014/03/05,2766,2814,2766,2783,1900,2783
2014/03/06,2783,2799,2779,2799,2400,2799
2014/03/07,2799,2850,2781,2848,5100,2848
2014/03/10,2850,2865,2822,2830,3000,2830
2014/03/11,2830,2840,2830,2831,3300,2831
2014/03/12,2831,2849,2830,2849,2000,2849
2014/03/13,2851,2895,2851,2892,11500,2892
2014/03/14,2888,2938,2850,2929,9000,2929
2014/03/17,2850,2900,2812,2829,9500,2829
2014/03/18,2831,2890,2800,2838,7200,2838
2014/03/19,2884,2948,2876,2942,5900,2942
2014/03/20,2908,2911,2730,2853,11000,2853
2014/03/24,2804,2832,2753,2828,5100,2828
2014/03/25,2827,2827,2815,2820,1900,2820
2014/03/26,2866,2868,2809,2822,1800,2822
2014/03/27,2822,2867,2822,2867,2300,2867
2014/03/28,2867,3000,2867,2980,8400,2980
2014/03/31,3000,3150,3000,3150,10100,3150
2014/04/01,3200,3205,3085,3100,17200,3100
2014/04/02,3100,3195,3100,3140,16600,3140
2014/04/03,3200,3240,3100,3190,17700,3190
2014/04/04,3230,3240,3165,3165,11900,3165
2014/04/07,3195,3195,3145,3165,4200,3165
2014/04/08,3105,3190,3100,3150,4500,3150
2014/04/09,3080,3130,3080,3080,4600,3080
2014/04/10,3150,3155,2980,3040,7400,3040
2014/04/11,3080,3080,3020,3035,5000,3035
2014/04/14,3035,3175,3025,3115,6700,3115
2014/04/15,3055,3090,3025,3055,9700,3055
2014/04/16,3125,3125,3095,3110,1400,3110
2014/04/17,3095,3135,3075,3130,2200,3130
2014/04/18,3145,3180,3145,3175,1700,3175
2014/04/21,3180,3180,3140,3145,4600,3145
2014/04/22,3190,3245,3185,3200,7600,3200
2014/04/23,3245,3335,3230,3325,10400,3325
2014/04/24,3270,3310,3200,3275,15600,3275
2014/04/25,3325,3325,3285,3320,4200,3320
2014/04/28,3325,3400,3325,3385,6000,3385
2014/04/30,3430,3430,3325,3380,16100,3380
2014/05/01,3700,3970,3580,3665,42900,3665
2014/05/02,3735,3845,3665,3845,23500,3845
2014/05/07,3705,3735,3530,3540,33600,3540
2014/05/08,3565,3565,3450,3500,15100,3500
2014/05/09,3535,3535,3475,3520,4800,3520
2014/05/12,3520,3560,3430,3435,9000,3435
2014/05/13,3485,3495,3430,3445,5900,3445
2014/05/14,3500,3500,3335,3355,14800,3355
2014/05/15,3360,3450,3360,3445,4300,3445
2014/05/16,3445,3445,3375,3390,2100,3390
2014/05/19,3425,3425,3390,3395,5100,3395
2014/05/20,3390,3455,3390,3450,6200,3450
2014/05/21,3455,3485,3415,3470,7300,3470
2014/05/22,3485,3585,3485,3570,8100,3570
2014/05/23,3590,3600,3500,3510,8600,3510
2014/05/26,3510,3570,3510,3540,5400,3540
2014/05/27,3405,3450,3355,3390,45300,3390
2014/05/28,3360,3365,3155,3205,56400,3205
2014/05/29,3175,3320,3170,3310,19400,3310
2014/05/30,3380,3540,3350,3420,23900,3420
2014/06/02,3430,3510,3420,3455,13600,3455
2014/06/03,3480,3590,3460,3585,14900,3585
2014/06/04,3620,3630,3495,3520,25300,3520
2014/06/05,3540,3730,3520,3720,32500,3720
2014/06/06,3715,3950,3620,3855,42900,3855
2014/06/09,3870,3930,3860,3915,18900,3915
2014/06/10,3705,3770,3575,3575,68000,3575
2014/06/11,3600,3685,3600,3640,16800,3640
2014/06/12,3660,3720,3525,3555,24700,3555
2014/06/13,3470,3480,3440,3460,91300,3460
2014/06/16,3465,3465,3440,3445,18000,3445
2014/06/17,3460,3485,3440,3460,50900,3460
2014/06/18,3480,3530,3465,3515,51600,3515
2014/06/19,3510,3510,3480,3490,45600,3490
2014/06/20,3500,3500,3475,3500,50100,3500
2014/06/23,3505,3510,3495,3505,49300,3505
2014/06/24,3495,3495,3455,3470,21900,3470
2014/06/25,3465,3480,3445,3450,26300,3450
2014/06/26,3435,3460,3405,3405,23600,3405
2014/06/27,3400,3425,3360,3385,27000,3385
2014/06/30,3380,3405,3305,3360,26600,3360
2014/07/01,3315,3440,3270,3440,49000,3440
2014/07/02,3440,3460,3385,3440,18400,3440
2014/07/03,3450,3460,3385,3415,7600,3415
2014/07/04,3415,3420,3350,3355,12800,3355
2014/07/07,3360,3360,3250,3285,30700,3285
2014/07/08,3315,3400,3280,3395,46500,3395
2014/07/09,3400,3400,3330,3375,15200,3375
2014/07/10,3400,3450,3400,3445,37400,3445
2014/07/11,3460,3465,3430,3450,19500,3450
2014/07/14,3470,3480,3450,3470,24200,3470
2014/07/15,3485,3485,3395,3440,21200,3440
2014/07/16,3395,3440,3395,3420,20800,3420
2014/07/17,3415,3470,3405,3470,19100,3470
2014/07/18,3400,3475,3400,3475,21400,3475
2014/07/22,3485,3485,3390,3470,20700,3470
2014/07/23,3470,3475,3425,3470,15900,3470
2014/07/24,3435,3445,3395,3430,12600,3430
2014/07/25,3400,3425,3360,3405,12300,3405
2014/07/28,3410,3420,3355,3375,29700,3375
2014/07/29,3405,3460,3385,3460,30300,3460
2014/07/30,3450,3490,3390,3485,88600,3485
2014/07/31,3485,3485,3375,3390,60700,3390
2014/08/01,3400,3460,3375,3445,25800,3445
2014/08/04,3380,3425,3380,3405,13900,3405
2014/08/05,3450,3460,3430,3450,27000,3450
2014/08/06,3410,3450,3380,3405,21600,3405
2014/08/07,3370,3405,3365,3405,14800,3405
2014/08/08,3405,3405,3275,3320,17000,3320
2014/08/11,3330,3395,3330,3385,10000,3385
2014/08/12,3350,3415,3350,3390,9300,3390
2014/08/13,3440,3495,3405,3495,35900,3495
2014/08/14,3475,3475,3430,3455,18200,3455
2014/08/15,3460,3460,3410,3420,5300,3420
2014/08/18,3415,3445,3410,3425,9600,3425
2014/08/19,3470,3470,3415,3455,25500,3455
2014/08/20,3460,3460,3315,3365,45500,3365
2014/08/21,3375,3375,3320,3355,13100,3355
2014/08/22,3425,3425,3355,3380,10600,3380
2014/08/25,3385,3390,3355,3390,8000,3390
2014/08/26,3375,3405,3360,3405,18100,3405
2014/08/27,3365,3390,3365,3385,13600,3385
2014/08/28,3375,3375,3335,3350,9200,3350
2014/08/29,3350,3385,3330,3385,7700,3385
2014/09/01,3355,3360,3330,3360,8200,3360
2014/09/02,3360,3370,3330,3345,10600,3345
2014/09/03,3360,3360,3320,3340,16000,3340
2014/09/04,3330,3335,3320,3325,9800,3325
2014/09/05,3320,3330,3305,3315,9200,3315
2014/09/08,3320,3340,3305,3320,22400,3320
2014/09/09,3320,3335,3300,3305,13100,3305
2014/09/10,3300,3300,3240,3265,20500,3265
2014/09/11,3285,3285,3230,3240,12200,3240
2014/09/12,3270,3340,3250,3290,23300,3290
2014/09/16,3320,3320,3240,3300,20200,3300
2014/09/17,3320,3350,3290,3340,10300,3340
2014/09/18,3335,3360,3325,3345,7700,3345
2014/09/19,3350,3435,3350,3420,39400,3420
2014/09/22,3400,3405,3335,3350,25300,3350
2014/09/24,3345,3400,3345,3400,18700,3400
2014/09/25,3440,3445,3385,3405,11300,3405
2014/09/26,3405,3405,3350,3380,18100,3380
2014/09/29,3420,3420,3350,3370,19400,3370
2014/09/30,3380,3420,3355,3410,19200,3410
2014/10/01,3410,3430,3350,3410,35400,3410
2014/10/02,3350,3350,3325,3345,20100,3345
2014/10/03,3345,3350,3305,3345,13600,3345
2014/10/06,3365,3390,3340,3390,16800,3390
2014/10/07,3380,3405,3360,3380,13800,3380
2014/10/08,3340,3380,3305,3350,21600,3350
2014/10/09,3360,3360,3305,3315,9100,3315
2014/10/10,3295,3315,3255,3275,24100,3275
2014/10/14,3255,3280,3215,3250,26900,3250
2014/10/15,3275,3300,3260,3290,11500,3290
2014/10/16,3260,3325,3250,3270,24800,3270
2014/10/17,3280,3315,3265,3275,15000,3275
2014/10/20,3300,3370,3300,3360,13300,3360
2014/10/21,3380,3400,3335,3400,23600,3400
2014/10/22,3395,3400,3355,3385,14500,3385
2014/10/23,3400,3400,3370,3385,7300,3385
2014/10/24,3385,3400,3365,3370,5100,3370
2014/10/27,3400,3425,3385,3425,10900,3425
2014/10/28,3420,3430,3400,3430,14200,3430
2014/10/29,3405,3430,3400,3405,26100,3405
2014/10/30,3405,3415,3385,3415,8800,3415
2014/10/31,3420,3440,3395,3430,16400,3430
2014/11/04,3440,3480,3350,3475,45200,3475
2014/11/05,3415,3440,3385,3435,25100,3435
2014/11/06,3420,3425,3385,3405,15400,3405
2014/11/07,3375,3400,3320,3330,32100,3330
2014/11/10,3365,3385,3360,3385,11900,3385
2014/11/11,3390,3410,3385,3405,11500,3405
2014/11/12,3405,3430,3405,3405,14100,3405
2014/11/13,3405,3405,3365,3390,7300,3390
2014/11/14,3425,3425,3400,3415,11600,3415
2014/11/17,3420,3470,3390,3445,28800,3445
2014/11/18,3420,3455,3410,3435,10700,3435
2014/11/19,3435,3455,3420,3430,9400,3430
2014/11/20,3430,3450,3395,3405,20900,3405
2014/11/21,3410,3420,3400,3420,5900,3420
2014/11/25,3425,3450,3400,3420,13200,3420
2014/11/26,3400,3415,3380,3395,21600,3395
2014/11/27,3395,3395,3330,3360,24400,3360
2014/11/28,3355,3390,3350,3380,6900,3380
2014/12/01,3395,3400,3375,3395,16900,3395
2014/12/02,3390,3400,3375,3395,21800,3395
2014/12/03,3395,3405,3360,3400,30600,3400
2014/12/04,3405,3440,3380,3440,28200,3440
2014/12/05,3440,3485,3440,3485,26200,3485
2014/12/08,3490,3520,3480,3505,50300,3505
2014/12/09,3510,3530,3500,3520,26500,3520
2014/12/10,3515,3530,3490,3505,27500,3505
2014/12/11,3455,3510,3450,3510,14100,3510
2014/12/12,3500,3525,3500,3525,23400,3525
2014/12/15,3530,3560,3500,3510,18500,3510
2014/12/16,3505,3505,3465,3495,17700,3495
2014/12/17,3495,3495,3475,3475,16300,3475
2014/12/18,3495,3555,3480,3545,43500,3545
2014/12/19,3550,3580,3540,3560,29100,3560
2014/12/22,3560,3570,3510,3550,23400,3550
2014/12/24,3550,3555,3515,3535,18000,3535
2014/12/25,3535,3540,3505,3510,21400,3510
2014/12/26,3450,3485,3440,3475,25300,3475
2014/12/29,3485,3485,3455,3480,12500,3480
2014/12/30,3455,3500,3455,3465,4800,3465
2015/01/05,3480,3500,3435,3455,14300,3455
2015/01/06,3470,3495,3440,3440,14100,3440
2015/01/07,3460,3520,3460,3495,16700,3495
2015/01/08,3530,3545,3510,3525,14000,3525
2015/01/09,3505,3535,3500,3535,16500,3535
2015/01/13,3510,3540,3500,3535,19700,3535
2015/01/14,3535,3545,3515,3545,29200,3545
2015/01/15,3530,3575,3500,3555,18900,3555
2015/01/16,3555,3565,3520,3540,10300,3540
2015/01/19,3545,3640,3545,3620,30600,3620
2015/01/20,3645,3745,3565,3730,53200,3730
2015/01/21,3660,3760,3660,3700,42100,3700
2015/01/22,3750,3775,3695,3760,37500,3760
2015/01/23,3760,3760,3710,3750,18600,3750
2015/01/26,3760,3825,3760,3825,32400,3825
2015/01/27,3850,3860,3800,3855,37100,3855
2015/01/28,3850,3960,3840,3945,53800,3945
2015/01/29,3945,3985,3890,3975,31900,3975
2015/01/30,3990,4005,3940,3990,38100,3990
2015/02/02,3995,4170,3980,4150,47000,4150
2015/02/03,4080,4080,3895,3935,38400,3935
2015/02/04,3975,3975,3740,3880,32400,3880
2015/02/05,3880,3880,3795,3855,12500,3855
2015/02/06,3850,3950,3850,3950,16000,3950
2015/02/09,3945,4020,3930,4000,40800,4000
2015/02/10,4005,4055,4000,4055,19400,4055
2015/02/12,4045,4080,4000,4065,21200,4065
2015/02/13,4070,4095,4040,4095,18700,4095
2015/02/16,4090,4095,4000,4090,17900,4090
2015/02/17,4090,4330,4090,4325,43700,4325
2015/02/18,4325,4345,4200,4310,29400,4310
2015/02/19,4310,4480,4310,4475,31400,4475
2015/02/20,4450,4580,4385,4525,45900,4525
2015/02/23,4455,4565,4430,4500,32200,4500
2015/02/24,4510,4520,4405,4425,20400,4425
2015/02/25,4465,4495,4430,4480,13100,4480
2015/02/26,4480,4480,4360,4435,17100,4435
2015/02/27,4390,4435,4340,4370,14200,4370
2015/03/02,4350,4400,4265,4310,21100,4310
2015/03/03,4265,4360,4265,4320,14200,4320
2015/03/04,4400,4420,4355,4405,14500,4405
2015/03/05,4470,4480,4395,4455,10400,4455
2015/03/06,4460,4475,4440,4470,7800,4470
2015/03/09,4390,4440,4350,4420,21700,4420
2015/03/10,4410,4470,4385,4470,20900,4470
2015/03/11,4460,4490,4410,4470,12400,4470
2015/03/12,4475,4600,4475,4600,22800,4600
2015/03/13,4600,4820,4555,4780,45400,4780
2015/03/16,4710,4820,4665,4800,45100,4800
2015/03/17,4730,4795,4705,4745,32600,4745
2015/03/18,4755,5030,4755,4955,58300,4955
2015/03/19,4890,4945,4850,4925,16800,4925
2015/03/20,4930,5140,4930,5030,27900,5030
2015/03/23,5030,5030,4935,5010,23400,5010
2015/03/24,5000,5120,4990,5090,21600,5090
2015/03/25,5090,5090,4900,4925,21400,4925
2015/03/26,4855,4905,4755,4805,15400,4805
2015/03/27,4740,4970,4740,4855,14500,4855
2015/03/30,4920,4920,4760,4830,10600,4830
2015/03/31,4950,5090,4890,4995,19100,4995
2015/04/01,5000,5100,4960,4995,19700,4995
2015/04/02,5010,5040,4995,5000,11600,5000
2015/04/03,5000,5180,5000,5180,18900,5180
2015/04/06,5180,5480,5170,5460,25700,5460
2015/04/07,5360,5390,5260,5350,32200,5350
2015/04/08,5350,5590,5340,5570,32800,5570
2015/04/09,5480,5560,5450,5490,20300,5490
2015/04/10,5490,5510,5440,5460,11200,5460
2015/04/13,5450,5450,5210,5250,20600,5250
2015/04/14,5270,5430,5260,5370,16300,5370
2015/04/15,5480,5500,5370,5390,22900,5390
2015/04/16,5410,5470,5120,5220,31900,5220
2015/04/17,5210,5210,5100,5180,20700,5180
2015/04/20,5100,5110,4960,5080,21900,5080
2015/04/21,5130,5280,5100,5200,18800,5200
2015/04/22,5290,5290,5150,5190,13200,5190
2015/04/23,5190,5190,5060,5120,16100,5120
2015/04/24,5080,5090,5030,5050,15200,5050
2015/04/27,5060,5150,5060,5100,10400,5100
2015/04/28,5220,5240,5100,5150,17200,5150
2015/04/30,5150,5150,4980,5100,31800,5100
2015/05/01,5010,5100,4935,4985,33500,4985
2015/05/07,4920,4945,4810,4830,37400,4830
2015/05/08,4845,4940,4845,4920,11300,4920
2015/05/11,4990,4995,4940,4975,7400,4975
2015/05/12,4970,5000,4950,4985,9000,4985
2015/05/13,4970,5060,4950,5050,11400,5050
2015/05/14,5060,5060,4985,5020,8400,5020
2015/05/15,5120,5240,5070,5230,21500,5230
2015/05/18,5270,5600,5260,5500,42900,5500
2015/05/19,5590,5700,5450,5520,38000,5520
2015/05/20,5660,5680,5560,5600,12700,5600
2015/05/21,5550,5620,5490,5620,12700,5620
2015/05/22,5560,5560,5350,5450,16200,5450
2015/05/25,5400,5490,5400,5470,6800,5470
2015/05/26,5500,5530,5460,5480,6100,5480
2015/05/27,5450,5480,5410,5470,14200,5470
2015/05/28,5420,5490,5400,5490,8200,5490
2015/05/29,5470,5530,5470,5490,11200,5490
2015/06/01,5500,5540,5470,5520,8600,5520
2015/06/02,5470,5550,5390,5440,19900,5440
2015/06/03,5350,5370,5250,5310,22200,5310
2015/06/04,5300,5320,5260,5280,24800,5280
2015/06/05,5270,5340,5270,5290,10600,5290
2015/06/08,5390,5390,5270,5310,12100,5310
2015/06/09,5330,5330,5230,5240,10600,5240
2015/06/10,5240,5300,5210,5240,13200,5240
2015/06/11,5230,5320,5230,5320,5400,5320
2015/06/12,5320,5340,5300,5320,21600,5320
2015/06/15,5330,5370,5300,5340,7800,5340
2015/06/16,5350,5370,5300,5320,9100,5320
2015/06/17,5330,5540,5310,5310,26100,5310
2015/06/18,5300,5320,5210,5210,13500,5210
2015/06/19,5300,5300,5230,5230,12000,5230
2015/06/22,5230,5330,5230,5310,12500,5310
2015/06/23,5280,5330,5240,5310,11100,5310
2015/06/24,5300,5340,5250,5340,20800,5340
2015/06/25,5340,5350,5270,5300,20500,5300
2015/06/26,5150,5320,5150,5290,28000,5290
2015/06/29,5100,5280,5100,5270,20100,5270
2015/06/30,5170,5260,5140,5230,18900,5230
2015/07/01,5290,5400,5260,5390,23700,5390
