2011/01/04,905,911,901,910,548000,910
2011/01/05,905,912,902,908,390000,908
2011/01/06,923,949,922,949,1359000,949
2011/01/07,940,948,932,940,700000,940
2011/01/11,930,938,926,935,787000,935
2011/01/12,934,943,928,928,571000,928
2011/01/13,931,940,926,936,752000,936
2011/01/14,924,940,924,925,1352000,925
2011/01/17,937,938,928,930,672000,930
2011/01/18,923,936,922,933,576000,933
2011/01/19,933,943,930,941,468000,941
2011/01/20,928,935,925,929,558000,929
2011/01/21,935,937,923,925,1105000,925
2011/01/24,931,937,927,936,515000,936
2011/01/25,932,944,928,939,496000,939
2011/01/26,932,947,932,941,519000,941
2011/01/27,948,948,934,935,672000,935
2011/01/28,935,944,926,926,550000,926
2011/01/31,915,915,906,909,390000,909
2011/02/01,906,907,888,892,1210000,892
2011/02/02,900,921,899,917,910000,917
2011/02/03,902,911,900,905,737000,905
2011/02/04,917,925,914,922,602000,922
2011/02/07,937,937,919,921,678000,921
2011/02/08,930,938,909,915,889000,915
2011/02/09,926,926,905,905,833000,905
2011/02/10,899,912,898,909,945000,909
2011/02/14,910,917,907,912,546000,912
2011/02/15,908,913,907,908,649000,908
2011/02/16,904,916,904,914,1015000,914
2011/02/17,915,916,903,904,587000,904
2011/02/18,907,908,903,904,832000,904
2011/02/21,902,910,902,906,515000,906
2011/02/22,897,903,884,891,946000,891
2011/02/23,890,899,889,889,911000,889
2011/02/24,891,892,880,883,762000,883
2011/02/25,892,894,882,890,623000,890
2011/02/28,882,896,877,894,688000,894
2011/03/01,899,913,898,912,794000,912
2011/03/02,899,903,881,881,736000,881
2011/03/03,882,895,880,894,485000,894
2011/03/04,909,915,905,906,610000,906
2011/03/07,900,900,882,883,639000,883
2011/03/08,881,886,880,882,429000,882
2011/03/09,890,893,882,884,510000,884
2011/03/10,876,877,855,856,941000,856
2011/03/11,842,856,839,839,3459000,839
2011/03/14,794,802,766,768,1121000,768
2011/03/15,738,738,618,650,2510000,650
2011/03/16,660,700,642,667,3181000,667
2011/03/17,645,683,621,670,3152000,670
2011/03/18,676,710,674,702,2235000,702
2011/03/22,732,758,726,755,2773000,755
2011/03/23,752,766,732,748,2372000,748
2011/03/24,754,768,754,760,1698000,760
2011/03/25,767,784,766,773,2018000,773
2011/03/28,786,787,763,769,1266000,769
2011/03/29,752,791,750,782,2059000,782
2011/03/30,782,797,775,797,1296000,797
2011/03/31,796,809,785,807,1092000,807
2011/04/01,798,810,790,796,1036000,796
2011/04/04,797,802,785,788,1235000,788
2011/04/05,787,789,778,782,1523000,782
2011/04/06,786,789,772,782,1196000,782
2011/04/07,785,785,756,757,2384000,757
2011/04/08,758,787,747,780,2195000,780
2011/04/11,774,788,774,778,608000,778
2011/04/12,769,770,758,765,922000,765
2011/04/13,757,784,753,780,1555000,780
2011/04/14,772,786,765,781,1024000,781
2011/04/15,780,784,770,777,894000,777
2011/04/18,776,782,768,768,1055000,768
2011/04/19,760,774,758,771,784000,771
2011/04/20,783,794,783,787,1014000,787
2011/04/21,794,798,787,792,555000,792
2011/04/22,790,796,786,793,792000,793
2011/04/25,798,800,788,789,462000,789
2011/04/26,783,786,777,783,699000,783
2011/04/27,783,791,780,787,825000,787
2011/04/28,793,803,788,799,897000,799
2011/05/02,803,821,802,815,730000,815
2011/05/06,800,801,790,798,1287000,798
2011/05/09,795,806,793,796,440000,796
2011/05/10,800,802,791,799,801000,799
2011/05/11,806,811,781,796,1764000,796
2011/05/12,789,789,764,764,1842000,764
2011/05/13,771,776,749,762,2013000,762
2011/05/16,755,764,750,760,948000,760
2011/05/17,745,757,737,754,2970000,754
2011/05/18,747,760,740,755,1791000,755
2011/05/19,755,757,745,746,1406000,746
2011/05/20,747,761,745,757,1469000,757
2011/05/23,748,750,737,748,856000,748
2011/05/24,749,753,742,749,1170000,749
2011/05/25,747,749,740,741,790000,741
2011/05/26,743,754,741,752,1309000,752
2011/05/27,745,760,740,751,1347000,751
2011/05/30,745,749,736,746,1324000,746
2011/05/31,746,764,744,758,6469000,758
2011/06/01,772,789,768,772,2449000,772
2011/06/02,755,764,750,759,1627000,759
2011/06/03,750,753,746,746,1313000,746
2011/06/06,746,750,735,735,811000,735
2011/06/07,735,741,729,738,823000,738
2011/06/08,732,733,722,728,1052000,728
2011/06/09,728,733,723,729,1054000,729
2011/06/10,735,742,732,738,2673000,738
2011/06/13,725,733,723,730,478000,730
2011/06/14,726,737,726,737,711000,737
2011/06/15,737,741,730,733,734000,733
2011/06/16,723,732,723,726,754000,726
2011/06/17,730,731,713,715,1258000,715
2011/06/20,717,722,717,721,621000,721
2011/06/21,725,732,722,731,903000,731
2011/06/22,740,750,739,748,891000,748
2011/06/23,737,747,735,740,710000,740
2011/06/24,748,752,744,751,592000,751
2011/06/27,752,752,737,743,669000,743
2011/06/28,749,749,740,745,652000,745
2011/06/29,754,757,746,755,666000,755
2011/06/30,761,770,758,763,957000,763
2011/07/01,777,783,772,781,1192000,781
2011/07/04,792,793,781,785,458000,785
2011/07/05,784,786,780,781,467000,781
2011/07/06,778,790,776,788,575000,788
2011/07/07,786,795,779,792,576000,792
2011/07/08,806,806,795,797,905000,797
2011/07/11,789,792,786,786,337000,786
2011/07/12,771,774,764,771,555000,771
2011/07/13,764,775,759,771,554000,771
2011/07/14,768,775,764,770,504000,770
2011/07/15,773,780,771,773,714000,773
2011/07/19,773,775,770,770,437000,770
2011/07/20,779,783,777,779,416000,779
2011/07/21,781,783,771,775,807000,775
2011/07/22,785,791,784,787,581000,787
2011/07/25,783,789,781,787,461000,787
2011/07/26,788,799,787,797,786000,797
2011/07/27,793,797,785,787,1065000,787
2011/07/28,774,775,757,761,910000,761
2011/07/29,765,769,758,760,1236000,760
2011/08/01,762,773,760,771,636000,771
2011/08/02,763,765,754,760,1052000,760
2011/08/03,741,744,735,740,876000,740
2011/08/04,746,763,742,755,1201000,755
2011/08/05,720,725,718,721,1209000,721
2011/08/08,715,715,699,702,974000,702
2011/08/09,671,690,657,687,1564000,687
2011/08/10,707,708,688,698,1315000,698
2011/08/11,693,731,692,731,2405000,731
2011/08/12,733,743,723,736,2027000,736
2011/08/15,749,757,740,752,1637000,752
2011/08/16,752,752,742,750,1080000,750
2011/08/17,735,754,735,750,974000,750
2011/08/18,742,743,728,729,1120000,729
2011/08/19,714,724,713,716,838000,716
2011/08/22,710,720,702,702,817000,702
2011/08/23,711,716,700,711,1293000,711
2011/08/24,711,720,705,709,874000,709
2011/08/25,711,726,707,719,978000,719
2011/08/26,713,722,712,719,875000,719
2011/08/29,714,725,712,720,628000,720
2011/08/30,727,741,727,739,829000,739
2011/08/31,705,710,693,696,2047000,696
2011/09/01,686,687,662,665,3975000,665
2011/09/02,665,667,655,657,1326000,657
2011/09/05,645,647,636,639,1491000,639
2011/09/06,634,634,614,616,1633000,616
2011/09/07,622,628,618,628,1294000,628
2011/09/08,638,639,627,633,1239000,633
2011/09/09,634,636,622,622,3301000,622
2011/09/12,601,604,596,602,1109000,602
2011/09/13,602,618,601,617,1060000,617
2011/09/14,615,619,602,605,942000,605
2011/09/15,619,630,613,626,1428000,626
2011/09/16,632,654,626,651,1786000,651
2011/09/20,641,642,631,632,707000,632
2011/09/21,631,645,629,640,805000,640
2011/09/22,630,637,619,633,1768000,633
2011/09/26,638,642,617,619,1341000,619
2011/09/27,639,665,639,654,1702000,654
2011/09/28,652,663,644,655,1143000,655
2011/09/29,658,667,653,663,1087000,663
2011/09/30,667,682,660,681,1667000,681
2011/10/03,671,671,652,663,1034000,663
2011/10/04,658,670,656,664,1183000,664
2011/10/05,678,680,667,674,1367000,674
2011/10/06,683,693,677,692,1136000,692
2011/10/07,694,706,690,700,1007000,700
2011/10/11,701,708,694,707,1541000,707
2011/10/12,700,707,698,703,624000,703
2011/10/13,709,713,703,706,588000,706
2011/10/14,706,706,687,697,1706000,697
2011/10/17,705,707,693,696,892000,696
2011/10/18,682,689,681,684,590000,684
2011/10/19,697,707,696,706,936000,706
2011/10/20,704,705,694,699,787000,699
2011/10/21,698,704,695,703,417000,703
2011/10/24,711,717,707,713,829000,713
2011/10/25,710,716,692,697,776000,697
2011/10/26,693,704,687,701,517000,701
2011/10/27,701,720,701,719,491000,719
2011/10/28,729,733,725,731,491000,731
2011/10/31,726,739,720,723,1085000,723
2011/11/01,712,726,710,712,544000,712
2011/11/02,702,720,699,713,890000,713
2011/11/04,720,721,707,718,941000,718
2011/11/07,713,713,703,705,459000,705
2011/11/08,705,709,686,691,720000,691
2011/11/09,700,714,687,689,1311000,689
2011/11/10,671,676,665,666,932000,666
2011/11/11,668,672,656,659,1078000,659
2011/11/14,669,681,667,676,650000,676
2011/11/15,666,667,649,651,910000,651
2011/11/16,657,659,649,650,775000,650
2011/11/17,648,654,645,651,794000,651
2011/11/18,641,648,641,642,514000,642
2011/11/21,640,647,639,640,292000,640
2011/11/22,630,640,623,634,894000,634
2011/11/24,620,628,618,621,549000,621
2011/11/25,615,622,609,612,835000,612
2011/11/28,617,627,616,622,713000,622
2011/11/29,630,636,622,636,782000,636
2011/11/30,638,645,634,640,824000,640
2011/12/01,660,672,660,668,1105000,668
2011/12/02,670,674,667,673,708000,673
2011/12/05,672,682,671,680,534000,680
2011/12/06,676,676,662,664,605000,664
2011/12/07,666,687,665,685,835000,685
2011/12/08,682,692,681,683,580000,683
2011/12/09,664,678,664,675,3658000,675
2011/12/12,685,701,685,696,800000,696
2011/12/13,686,695,679,692,828000,692
2011/12/14,686,696,681,691,692000,691
2011/12/15,691,691,677,678,734000,678
2011/12/16,688,689,666,668,1124000,668
2011/12/19,660,660,647,655,1049000,655
2011/12/20,651,660,647,656,727000,656
2011/12/21,666,676,663,672,742000,672
2011/12/22,672,677,669,675,823000,675
2011/12/26,695,697,683,686,635000,686
2011/12/27,677,687,674,686,293000,686
2011/12/28,686,695,686,694,905000,694
2011/12/29,684,691,677,689,560000,689
2011/12/30,698,698,691,694,398000,694
2012/01/04,702,702,694,694,536000,694
2012/01/05,684,695,684,688,473000,688
2012/01/06,684,689,674,678,590000,678
2012/01/10,679,683,670,671,495000,671
2012/01/11,674,677,670,675,336000,675
2012/01/12,672,677,668,675,357000,675
2012/01/13,687,711,687,709,2144000,709
2012/01/16,709,709,693,702,785000,702
2012/01/17,704,716,703,714,845000,714
2012/01/18,719,736,714,723,834000,723
2012/01/19,726,739,726,734,697000,734
2012/01/20,746,755,740,752,786000,752
2012/01/23,741,750,740,746,522000,746
2012/01/24,751,752,743,743,577000,743
2012/01/25,752,759,748,756,375000,756
2012/01/26,756,764,756,763,500000,763
2012/01/27,778,783,771,777,1450000,777
2012/01/30,765,768,756,759,781000,759
2012/01/31,765,774,763,765,1090000,765
2012/02/01,766,770,764,768,586000,768
2012/02/02,779,785,773,784,730000,784
2012/02/03,781,781,765,767,956000,767
2012/02/06,707,758,706,747,2555000,747
2012/02/07,732,738,705,708,2635000,708
2012/02/08,722,723,705,713,2091000,713
2012/02/09,695,703,692,700,2018000,700
2012/02/10,700,708,699,703,1303000,703
2012/02/13,689,692,683,687,1577000,687
2012/02/14,687,697,685,690,1117000,690
2012/02/15,690,707,690,702,1420000,702
2012/02/16,702,710,699,707,1351000,707
2012/02/17,721,722,713,714,1129000,714
2012/02/20,726,729,721,726,1334000,726
2012/02/21,717,739,717,731,1131000,731
2012/02/22,735,751,732,749,1307000,749
2012/02/23,750,755,746,753,1296000,753
2012/02/24,754,759,747,756,1127000,756
2012/02/27,771,787,771,774,1763000,774
2012/02/28,773,787,766,787,1709000,787
2012/02/29,787,798,772,773,1085000,773
2012/03/01,781,787,769,776,908000,776
2012/03/02,786,791,780,786,739000,786
2012/03/05,789,796,777,778,947000,778
2012/03/06,787,790,776,783,1618000,783
2012/03/07,768,778,761,774,1064000,774
2012/03/08,783,789,773,788,879000,788
2012/03/09,806,815,795,801,3498000,801
2012/03/12,810,811,791,792,869000,792
2012/03/13,790,804,785,787,998000,787
2012/03/14,802,814,800,800,960000,800
2012/03/15,810,810,800,802,936000,802
2012/03/16,804,806,800,802,685000,802
2012/03/19,800,801,794,796,832000,796
2012/03/21,786,790,780,787,1342000,787
2012/03/22,788,804,785,801,1142000,801
2012/03/23,792,795,785,792,815000,792
2012/03/26,820,828,803,804,1708000,804
2012/03/27,809,813,800,807,1410000,807
2012/03/28,794,800,788,795,1154000,795
2012/03/29,790,791,781,782,1436000,782
2012/03/30,787,788,780,783,833000,783
2012/04/02,784,790,777,777,969000,777
2012/04/03,770,774,766,772,584000,772
2012/04/04,765,770,752,754,1281000,754
2012/04/05,754,758,746,753,1076000,753
2012/04/06,744,750,741,743,810000,743
2012/04/09,730,735,729,732,714000,732
2012/04/10,739,746,734,737,1266000,737
2012/04/11,722,731,721,726,779000,726
2012/04/12,728,736,724,734,822000,734
2012/04/13,737,742,727,729,2311000,729
2012/04/16,718,719,708,711,999000,711
2012/04/17,711,717,711,715,679000,715
2012/04/18,725,729,721,727,497000,727
2012/04/19,716,723,716,719,669000,719
2012/04/20,714,717,710,712,724000,712
2012/04/23,713,719,707,711,517000,711
2012/04/24,702,704,696,698,994000,698
2012/04/25,707,709,698,701,1126000,701
2012/04/26,711,714,701,713,1172000,713
2012/04/27,715,722,704,707,1463000,707
2012/05/01,708,724,708,719,995000,719
2012/05/02,732,733,717,722,1018000,722
2012/05/07,707,715,695,702,979000,702
2012/05/08,709,716,707,716,984000,716
2012/05/09,705,710,702,706,1183000,706
2012/05/10,696,799,682,691,2250000,691
2012/05/11,685,689,679,684,1219000,684
2012/05/14,694,699,682,685,875000,685
2012/05/15,681,685,664,672,1140000,672
2012/05/16,668,676,660,666,1030000,666
2012/05/17,665,668,656,664,919000,664
2012/05/18,654,663,651,653,1157000,653
2012/05/21,653,655,649,652,589000,652
2012/05/22,657,662,650,653,869000,653
2012/05/23,653,655,635,638,924000,638
2012/05/24,634,642,629,637,912000,637
2012/05/25,644,647,631,636,1082000,636
2012/05/28,642,642,632,638,717000,638
2012/05/29,633,641,626,641,979000,641
2012/05/30,643,646,635,643,945000,643
2012/05/31,633,633,622,626,1223000,626
2012/06/01,620,621,599,601,1434000,601
2012/06/04,586,587,575,584,1670000,584
2012/06/05,586,600,586,597,704000,597
2012/06/06,596,610,595,609,796000,609
2012/06/07,616,616,601,612,1211000,612
2012/06/08,607,609,584,586,3461000,586
2012/06/11,600,606,595,604,671000,604
2012/06/12,591,597,586,596,858000,596
2012/06/13,597,601,591,591,662000,591
2012/06/14,585,586,577,578,1400000,578
2012/06/15,584,588,571,571,1407000,571
2012/06/18,586,592,583,589,782000,589
2012/06/19,590,590,576,578,707000,578
2012/06/20,585,593,582,591,762000,591
2012/06/21,594,604,594,603,868000,603
2012/06/22,597,607,589,604,857000,604
2012/06/25,622,622,610,611,968000,611
2012/06/26,605,605,596,603,911000,603
2012/06/27,603,603,590,599,807000,599
2012/06/28,601,604,595,596,885000,596
2012/06/29,593,611,588,606,905000,606
2012/07/02,610,613,604,607,519000,607
2012/07/03,608,614,607,611,402000,611
2012/07/04,616,616,608,608,605000,608
2012/07/05,607,612,606,607,350000,607
2012/07/06,608,610,603,604,509000,604
2012/07/09,600,602,591,592,581000,592
2012/07/10,592,601,590,592,473000,592
2012/07/11,590,591,579,583,627000,583
2012/07/12,584,584,568,569,709000,569
2012/07/13,563,571,563,566,1094000,566
2012/07/17,568,568,554,556,793000,556
2012/07/18,554,555,541,542,961000,542
2012/07/19,545,550,541,543,952000,543
2012/07/20,540,543,528,529,1074000,529
2012/07/23,520,520,499,504,1664000,504
2012/07/24,507,513,505,509,1017000,509
2012/07/25,502,502,487,488,1004000,488
2012/07/26,491,498,485,494,1124000,494
2012/07/27,503,504,496,504,781000,504
2012/07/30,510,512,498,503,695000,503
2012/07/31,500,518,500,517,719000,517
2012/08/01,511,513,502,509,642000,509
2012/08/02,507,515,505,508,671000,508
2012/08/03,498,498,484,484,735000,484
2012/08/06,494,496,487,488,645000,488
2012/08/07,482,493,479,491,955000,491
2012/08/08,492,508,490,499,1672000,499
2012/08/09,501,522,500,510,1690000,510
2012/08/10,502,506,496,500,1048000,500
2012/08/13,498,504,492,493,602000,493
2012/08/14,494,497,491,493,687000,493
2012/08/15,499,500,488,494,571000,494
2012/08/16,497,505,494,501,713000,501
2012/08/17,501,517,501,509,962000,509
2012/08/20,513,517,508,512,701000,512
2012/08/21,511,514,507,512,742000,512
2012/08/22,510,512,504,510,814000,510
2012/08/23,508,510,499,508,1011000,508
2012/08/24,500,501,495,497,883000,497
2012/08/27,505,511,500,509,689000,509
2012/08/28,515,515,506,509,1395000,509
2012/08/29,513,513,502,509,1148000,509
2012/08/30,510,510,503,507,941000,507
2012/08/31,501,503,491,492,1032000,492
2012/09/03,490,494,484,484,1073000,484
2012/09/04,486,503,484,503,1193000,503
2012/09/05,495,495,472,474,1417000,474
2012/09/06,471,475,465,470,1227000,470
2012/09/07,482,500,481,494,1517000,494
2012/09/10,486,494,482,489,825000,489
2012/09/11,483,483,474,474,909000,474
2012/09/12,474,483,472,482,1041000,482
2012/09/13,482,484,479,481,525000,481
2012/09/14,485,506,485,503,2762000,503
2012/09/18,506,513,504,509,1212000,509
2012/09/19,516,525,509,522,1246000,522
2012/09/20,516,528,514,524,2390000,524
2012/09/21,520,533,518,531,1114000,531
2012/09/24,531,532,525,532,1380000,532
2012/09/25,531,534,526,531,1105000,531
2012/09/26,519,523,515,518,709000,518
2012/09/27,517,521,509,520,788000,520
2012/09/28,519,519,509,514,914000,514
2012/10/01,504,505,497,503,832000,503
2012/10/02,505,506,500,500,615000,500
2012/10/03,498,500,492,494,558000,494
2012/10/04,500,500,487,496,785000,496
2012/10/05,499,507,498,503,662000,503
2012/10/09,497,499,485,486,900000,486
2012/10/10,478,481,472,472,779000,472
2012/10/11,468,472,459,461,1417000,461
2012/10/12,462,471,462,465,1967000,465
2012/10/15,473,489,470,488,1539000,488
2012/10/16,496,503,495,502,898000,502
2012/10/17,511,518,510,517,1416000,517
2012/10/18,520,536,520,534,1238000,534
2012/10/19,533,537,521,526,950000,526
2012/10/22,513,532,512,528,756000,528
2012/10/23,534,536,518,521,939000,521
2012/10/24,511,524,510,518,640000,518
2012/10/25,521,524,514,522,617000,522
2012/10/26,530,534,523,525,945000,525
2012/10/29,528,531,520,522,566000,522
2012/10/30,525,528,516,518,609000,518
2012/10/31,524,526,521,522,505000,522
2012/11/01,524,529,519,525,300000,525
2012/11/02,536,537,533,535,892000,535
2012/11/05,530,535,527,528,596000,528
2012/11/06,531,531,518,521,604000,521
2012/11/07,526,526,512,513,966000,513
2012/11/08,508,519,500,500,971000,500
2012/11/09,490,498,489,496,895000,496
2012/11/12,490,490,478,478,911000,478
2012/11/13,478,478,468,473,1291000,473
2012/11/14,474,475,469,473,565000,473
2012/11/15,481,490,474,487,1068000,487
2012/11/16,491,509,490,508,1032000,508
2012/11/19,516,522,514,516,738000,516
2012/11/20,511,522,507,521,1192000,521
2012/11/21,525,528,519,526,901000,526
2012/11/22,532,546,532,546,831000,546
2012/11/26,557,575,557,563,1643000,563
2012/11/27,564,581,564,574,1438000,574
2012/11/28,570,575,559,563,1071000,563
2012/11/29,569,584,568,582,989000,582
2012/11/30,584,592,579,582,1305000,582
2012/12/03,583,593,582,587,843000,587
2012/12/04,587,590,575,580,1211000,580
2012/12/05,575,595,574,590,1134000,590
2012/12/06,598,614,595,612,1322000,612
2012/12/07,615,619,609,609,962000,609
2012/12/10,617,617,607,611,614000,611
2012/12/11,612,615,607,609,866000,609
2012/12/12,613,623,612,621,554000,621
2012/12/13,626,644,625,643,1461000,643
2012/12/14,643,644,633,642,3019000,642
2012/12/17,662,662,644,645,980000,645
2012/12/18,646,661,645,656,827000,656
2012/12/19,666,686,660,685,1604000,685
2012/12/20,676,688,672,679,1437000,679
2012/12/21,691,691,665,667,1335000,667
2012/12/25,685,688,672,678,746000,678
2012/12/26,688,698,681,698,816000,698
2012/12/27,703,725,703,715,842000,715
2012/12/28,720,728,713,724,918000,724
2013/01/04,750,750,736,737,973000,737
2013/01/07,742,743,725,726,1127000,726
2013/01/08,717,722,705,711,1369000,711
2013/01/09,699,722,698,720,967000,720
2013/01/10,724,744,724,740,977000,740
2013/01/11,747,758,742,745,1744000,745
2013/01/15,758,766,744,748,1187000,748
2013/01/16,742,744,722,725,1190000,725
2013/01/17,724,725,696,709,1538000,709
2013/01/18,729,753,728,753,1471000,753
2013/01/21,753,755,734,734,1276000,734
2013/01/22,735,737,707,716,1419000,716
2013/01/23,704,707,675,675,1946000,675
2013/01/24,670,689,666,686,1292000,686
2013/01/25,696,698,688,697,1071000,697
2013/01/28,699,700,687,687,751000,687
2013/01/29,680,687,667,670,1605000,670
2013/01/30,672,686,672,686,1003000,686
2013/01/31,680,697,679,695,908000,695
2013/02/01,700,712,693,699,1144000,699
2013/02/04,706,719,705,711,1017000,711
2013/02/05,704,706,684,684,873000,684
2013/02/06,694,717,691,714,1055000,714
2013/02/07,717,719,676,706,1757000,706
2013/02/08,688,699,681,681,1978000,681
2013/02/12,694,694,671,675,1454000,675
2013/02/13,674,678,668,672,986000,672
2013/02/14,673,679,667,673,809000,673
2013/02/15,673,673,652,658,879000,658
2013/02/18,668,684,668,679,822000,679
2013/02/19,668,673,659,663,1229000,663
2013/02/20,669,669,661,662,839000,662
2013/02/21,657,664,651,651,1193000,651
2013/02/22,648,654,637,645,1234000,645
2013/02/25,666,689,666,689,1727000,689
2013/02/26,669,672,656,657,1390000,657
2013/02/27,657,659,642,642,1084000,642
2013/02/28,652,665,650,663,1181000,663
2013/03/01,655,663,651,655,637000,655
2013/03/04,664,666,650,651,915000,651
2013/03/05,655,666,652,656,685000,656
2013/03/06,664,673,664,669,713000,669
2013/03/07,675,680,662,663,901000,663
2013/03/08,671,674,664,669,3898000,669
2013/03/11,675,679,665,668,946000,668
2013/03/12,673,682,668,668,1445000,668
2013/03/13,668,673,666,670,681000,670
2013/03/14,670,688,666,687,1335000,687
2013/03/15,700,702,691,697,1318000,697
2013/03/18,682,682,670,670,1005000,670
2013/03/19,680,681,676,679,613000,679
2013/03/21,685,691,685,691,650000,691
2013/03/22,684,686,678,678,894000,678
2013/03/25,688,693,681,692,788000,692
2013/03/26,682,689,682,687,682000,687
2013/03/27,680,684,670,673,655000,673
2013/03/28,669,669,653,653,1425000,653
2013/03/29,656,663,654,660,568000,660
2013/04/01,663,665,649,650,1145000,650
2013/04/02,645,645,628,628,900000,628
2013/04/03,632,635,621,627,832000,627
2013/04/04,620,632,611,631,977000,631
2013/04/05,660,663,622,622,1705000,622
2013/04/08,646,673,644,673,1937000,673
2013/04/09,687,689,669,673,968000,673
2013/04/10,670,675,661,669,1188000,669
2013/04/11,681,687,677,684,1577000,684
2013/04/12,694,696,681,690,3047000,690
2013/04/15,688,688,660,660,1440000,660
2013/04/16,650,663,646,663,1154000,663
2013/04/17,666,670,664,666,681000,666
2013/04/18,657,662,641,641,1675000,641
2013/04/19,641,650,641,648,601000,648
2013/04/22,662,666,660,664,881000,664
2013/04/23,660,664,657,660,593000,660
2013/04/24,670,690,670,690,1501000,690
2013/04/25,690,709,686,705,1823000,705
2013/04/26,710,718,702,707,1140000,707
2013/04/30,708,712,697,707,977000,707
2013/05/01,710,728,707,724,1207000,724
2013/05/02,716,717,695,697,1240000,697
2013/05/07,722,744,718,743,1649000,743
2013/05/08,745,758,742,745,966000,745
2013/05/09,740,749,725,725,688000,725
2013/05/10,748,760,739,751,1803000,751
2013/05/13,736,750,733,740,1034000,740
2013/05/14,738,757,738,747,825000,747
2013/05/15,760,778,755,761,1182000,761
2013/05/16,768,788,757,787,2220000,787
2013/05/17,777,790,773,788,1034000,788
2013/05/20,798,818,797,813,934000,813
2013/05/21,803,844,803,844,854000,844
2013/05/22,870,891,868,870,1811000,870
2013/05/23,897,912,808,809,2888000,809
2013/05/24,820,829,763,790,2345000,790
2013/05/27,760,775,756,760,1086000,760
2013/05/28,745,776,742,767,1310000,767
2013/05/29,791,792,769,772,1207000,772
2013/05/30,750,766,722,726,1316000,726
2013/05/31,741,752,730,748,920000,748
2013/06/03,721,724,700,701,1227000,701
2013/06/04,701,733,699,728,1113000,728
2013/06/05,722,733,688,688,1057000,688
2013/06/06,688,708,686,693,1076000,693
2013/06/07,683,702,666,690,1228000,690
2013/06/10,709,724,698,724,948000,724
2013/06/11,720,726,701,701,830000,701
2013/06/12,695,713,689,712,544000,712
2013/06/13,690,702,659,659,1209000,659
2013/06/14,664,694,664,670,3287000,670
2013/06/17,662,692,659,692,757000,692
2013/06/18,684,694,677,682,559000,682
2013/06/19,686,701,686,696,656000,696
2013/06/20,686,695,675,680,983000,680
2013/06/21,668,698,663,692,1794000,692
2013/06/24,705,705,680,681,540000,681
2013/06/25,686,687,653,666,927000,666
2013/06/26,681,689,664,665,618000,665
2013/06/27,668,679,659,672,683000,672
2013/06/28,677,707,675,707,795000,707
2013/07/01,708,734,705,732,790000,732
2013/07/02,745,747,736,747,613000,747
2013/07/03,750,756,741,744,551000,744
2013/07/04,744,759,742,752,420000,752
2013/07/05,752,775,752,775,616000,775
2013/07/08,790,790,764,765,520000,765
2013/07/09,785,790,770,789,778000,789
2013/07/10,783,790,768,774,570000,774
2013/07/11,771,777,757,767,788000,767
2013/07/12,779,805,764,785,1552000,785
2013/07/16,803,806,795,804,672000,804
2013/07/17,795,807,790,804,530000,804
2013/07/18,809,830,809,824,907000,824
2013/07/19,833,834,802,808,834000,808
2013/07/22,823,826,797,815,836000,815
2013/07/23,815,824,807,819,526000,819
2013/07/24,814,816,803,807,384000,807
2013/07/25,815,817,808,812,370000,812
2013/07/26,797,806,789,792,468000,792
2013/07/29,777,781,752,752,674000,752
2013/07/30,752,770,752,769,508000,769
2013/07/31,759,768,752,756,634000,756
2013/08/01,758,774,756,774,473000,774
2013/08/02,787,808,782,808,548000,808
2013/08/05,796,810,784,791,440000,791
2013/08/06,782,804,772,803,460000,803
2013/08/07,804,810,748,753,863000,753
2013/08/08,757,757,721,722,971000,722
2013/08/09,727,738,721,730,1262000,730
2013/08/12,721,739,714,730,421000,730
2013/08/13,734,743,729,743,611000,743
2013/08/14,742,753,731,752,622000,752
2013/08/15,742,746,732,737,571000,737
2013/08/16,726,742,724,734,408000,734
2013/08/19,731,735,725,734,275000,734
2013/08/20,734,735,709,711,547000,711
2013/08/21,715,719,705,713,523000,713
2013/08/22,705,714,697,711,563000,711
2013/08/23,720,729,713,725,822000,725
2013/08/26,732,739,725,736,526000,736
2013/08/27,737,739,724,725,372000,725
2013/08/28,703,720,703,716,474000,716
2013/08/29,727,727,713,724,624000,724
2013/08/30,732,734,716,726,805000,726
2013/09/02,727,734,724,733,451000,733
2013/09/03,742,760,741,760,823000,760
2013/09/04,751,764,747,764,467000,764
2013/09/05,765,769,755,765,698000,765
2013/09/06,766,768,751,757,456000,757
2013/09/09,770,786,763,785,534000,785
2013/09/10,788,804,788,803,607000,803
2013/09/11,807,818,803,807,696000,807
2013/09/12,805,815,799,813,569000,813
2013/09/13,808,822,804,814,2683000,814
2013/09/17,825,830,817,822,346000,822
2013/09/18,828,843,822,832,622000,832
2013/09/19,843,847,834,847,731000,847
2013/09/20,846,846,836,840,589000,840
2013/09/24,837,844,829,841,341000,841
2013/09/25,846,846,821,821,972000,821
2013/09/26,799,834,798,833,902000,833
2013/09/27,833,833,824,828,506000,828
2013/09/30,806,817,803,809,501000,809
2013/10/01,811,831,811,821,614000,821
2013/10/02,823,832,792,794,1011000,794
2013/10/03,792,802,786,786,883000,786
2013/10/04,782,804,778,794,817000,794
2013/10/07,793,795,773,773,498000,773
2013/10/08,767,783,767,780,645000,780
2013/10/09,780,810,778,810,774000,810
2013/10/10,811,811,803,810,282000,810
2013/10/11,828,840,826,836,1316000,836
2013/10/15,847,849,841,849,684000,849
2013/10/16,848,860,837,857,797000,857
2013/10/17,866,882,866,880,759000,880
2013/10/18,880,881,870,875,458000,875
2013/10/21,885,894,875,888,532000,888
2013/10/22,888,890,881,889,336000,889
2013/10/23,889,895,867,867,766000,867
2013/10/24,866,869,850,868,487000,868
2013/10/25,862,864,835,835,795000,835
2013/10/28,841,858,837,858,661000,858
2013/10/29,860,863,844,847,620000,847
2013/10/30,860,871,858,867,694000,867
2013/10/31,871,877,862,864,619000,864
2013/11/01,870,870,841,845,592000,845
2013/11/05,849,854,832,836,711000,836
2013/11/06,828,854,827,849,511000,849
2013/11/07,847,847,789,794,1008000,794
2013/11/08,790,806,789,805,1355000,805
2013/11/11,820,826,814,820,610000,820
2013/11/12,823,852,823,850,824000,850
2013/11/13,842,847,835,842,546000,842
2013/11/14,847,883,847,867,1054000,867
2013/11/15,881,892,871,883,1155000,883
2013/11/18,895,895,877,882,564000,882
2013/11/19,874,894,872,890,753000,890
2013/11/20,893,894,883,884,441000,884
2013/11/21,894,908,890,901,755000,901
2013/11/22,910,910,883,885,1037000,885
2013/11/25,898,922,897,922,929000,922
2013/11/26,906,925,904,919,663000,919
2013/11/27,906,925,906,923,605000,923
2013/11/28,926,953,926,953,1060000,953
2013/11/29,953,959,928,934,933000,934
2013/12/02,926,946,926,945,609000,945
2013/12/03,956,965,945,962,1188000,962
2013/12/04,934,944,921,934,742000,934
2013/12/05,926,931,897,899,879000,899
2013/12/06,892,918,892,915,836000,915
2013/12/09,934,946,931,944,747000,944
2013/12/10,940,942,925,928,686000,928
2013/12/11,916,922,901,908,536000,908
2013/12/12,899,907,893,901,769000,901
2013/12/13,899,920,899,911,2509000,911
2013/12/16,913,915,888,888,475000,888
2013/12/17,905,914,901,908,624000,908
2013/12/18,915,947,915,946,1611000,946
2013/12/19,965,974,960,974,1401000,974
2013/12/20,970,974,963,972,790000,972
2013/12/24,974,982,969,972,1057000,972
2013/12/25,974,984,970,983,778000,983
2013/12/26,992,1010,989,1009,708000,1009
2013/12/27,1006,1010,995,1000,566000,1000
2013/12/30,991,1013,991,1011,675000,1011
2014/01/06,992,1008,970,972,1466000,972
2014/01/07,961,975,960,963,846000,963
2014/01/08,969,992,969,992,490000,992
2014/01/09,975,975,963,968,721000,968
2014/01/10,954,966,949,965,1823000,965
2014/01/14,920,924,903,908,2097000,908
2014/01/15,937,971,934,964,1465000,964
2014/01/16,952,965,937,939,997000,939
2014/01/17,950,966,942,962,1074000,962
2014/01/20,956,956,941,941,553000,941
2014/01/21,954,964,952,953,533000,953
2014/01/22,940,952,927,951,918000,951
2014/01/23,953,968,942,944,748000,944
2014/01/24,929,935,916,928,1172000,928
2014/01/27,896,899,886,892,961000,892
2014/01/28,890,909,888,906,739000,906
2014/01/29,932,950,924,950,712000,950
2014/01/30,910,920,904,920,780000,920
2014/01/31,933,937,895,905,663000,905
2014/02/03,893,896,881,881,593000,881
2014/02/04,843,853,826,826,877000,826
2014/02/05,839,850,818,838,792000,838
2014/02/06,823,838,823,823,648000,823
2014/02/07,848,866,846,865,591000,865
2014/02/10,876,879,864,873,493000,873
2014/02/12,883,894,875,882,648000,882
2014/02/13,879,890,869,872,703000,872
2014/02/14,870,888,850,854,1851000,854
2014/02/17,850,869,842,862,525000,862
2014/02/18,877,901,867,899,761000,899
2014/02/19,877,888,877,885,389000,885
2014/02/20,883,884,856,859,597000,859
2014/02/21,862,900,862,899,511000,899
2014/02/24,872,899,872,888,659000,888
2014/02/25,902,904,886,898,1736000,898
2014/02/26,878,890,876,878,1020000,878
2014/02/27,872,876,862,871,606000,871
2014/02/28,873,882,870,876,651000,876
2014/03/03,869,870,850,863,589000,863
2014/03/04,854,870,854,869,519000,869
2014/03/05,877,898,876,890,768000,890
2014/03/06,896,911,885,908,569000,908
2014/03/07,914,919,908,917,459000,917
2014/03/10,918,919,906,911,473000,911
2014/03/11,914,923,909,923,439000,923
2014/03/12,901,908,892,892,611000,892
2014/03/13,891,896,886,888,414000,888
2014/03/14,855,865,844,849,2351000,849
2014/03/17,842,847,831,838,643000,838
2014/03/18,865,866,857,859,493000,859
2014/03/19,865,869,840,855,680000,855
2014/03/20,865,865,834,839,625000,839
2014/03/24,842,871,842,860,793000,860
2014/03/25,845,865,842,855,563000,855
2014/03/26,873,874,862,866,933000,866
2014/03/27,853,870,837,867,827000,867
2014/03/28,875,876,865,874,711000,874
2014/03/31,884,884,870,882,546000,882
2014/04/01,877,879,867,869,672000,869
2014/04/02,876,883,864,876,718000,876
2014/04/03,878,890,876,883,533000,883
2014/04/04,880,882,874,880,386000,880
2014/04/07,865,873,853,856,519000,856
2014/04/08,855,858,844,850,625000,850
2014/04/09,845,845,820,820,623000,820
2014/04/10,843,843,817,823,761000,823
2014/04/11,808,819,801,809,1722000,809
2014/04/14,810,818,806,808,677000,808
2014/04/15,826,828,819,824,828000,824
2014/04/16,834,854,832,852,637000,852
2014/04/17,841,859,840,855,534000,855
2014/04/18,850,860,848,855,460000,855
2014/04/21,851,855,845,846,430000,846
2014/04/22,854,855,838,838,413000,838
2014/04/23,851,856,844,851,555000,851
2014/04/24,858,875,854,862,771000,862
2014/04/25,871,883,867,872,710000,872
2014/04/28,863,874,860,869,638000,869
2014/04/30,874,876,866,875,643000,875
2014/05/01,882,897,880,894,811000,894
2014/05/02,886,891,885,889,458000,889
2014/05/07,873,873,851,851,1058000,851
2014/05/08,869,917,866,904,1551000,904
2014/05/09,902,929,901,923,1265000,923
2014/05/12,924,931,916,921,723000,921
2014/05/13,936,946,930,946,977000,946
2014/05/14,946,950,937,946,660000,946
2014/05/15,944,954,933,951,714000,951
2014/05/16,928,938,925,935,646000,935
2014/05/19,943,949,928,929,647000,929
2014/05/20,940,943,933,936,486000,936
2014/05/21,924,931,920,929,373000,929
2014/05/22,944,954,933,952,653000,952
2014/05/23,954,954,936,946,731000,946
2014/05/26,954,957,947,955,403000,955
2014/05/27,955,958,950,952,543000,952
2014/05/28,952,967,950,963,545000,963
2014/05/29,952,958,948,955,255000,955
2014/05/30,955,965,951,955,744000,955
2014/06/02,966,987,966,986,690000,986
2014/06/03,998,998,977,983,811000,983
2014/06/04,990,1016,989,1012,1111000,1012
2014/06/05,1004,1009,998,1009,749000,1009
2014/06/06,1013,1024,1008,1022,722000,1022
2014/06/09,1033,1035,1018,1021,719000,1021
2014/06/10,1025,1032,1008,1009,767000,1009
2014/06/11,1012,1024,1009,1021,405000,1021
2014/06/12,1009,1015,997,1004,617000,1004
2014/06/13,984,1013,984,1012,1671000,1012
2014/06/16,1015,1015,990,994,629000,994
2014/06/17,1006,1008,997,1002,486000,1002
2014/06/18,1013,1017,1005,1014,443000,1014
2014/06/19,1009,1028,1006,1020,670000,1020
2014/06/20,1009,1038,1009,1038,1193000,1038
2014/06/23,1045,1053,1043,1047,701000,1047
2014/06/24,1043,1049,1032,1046,497000,1046
2014/06/25,1045,1047,1031,1035,449000,1035
2014/06/26,1035,1039,1029,1037,398000,1037
2014/06/27,1031,1031,1005,1009,595000,1009
2014/06/30,1019,1019,1005,1015,454000,1015
2014/07/01,1003,1025,1003,1019,844000,1019
2014/07/02,1016,1031,1014,1014,598000,1014
2014/07/03,1018,1026,1012,1016,536000,1016
2014/07/04,1033,1033,1022,1029,478000,1029
2014/07/07,1029,1030,1017,1018,450000,1018
2014/07/08,1019,1023,1008,1021,502000,1021
2014/07/09,1005,1014,998,1005,421000,1005
2014/07/10,1012,1022,1008,1014,491000,1014
2014/07/11,1000,1006,994,1002,685000,1002
2014/07/14,1003,1007,998,1005,423000,1005
2014/07/15,1009,1011,1003,1009,312000,1009
2014/07/16,1013,1017,1009,1010,437000,1010
2014/07/17,1012,1018,1006,1010,305000,1010
2014/07/18,994,998,986,992,550000,992
2014/07/22,992,1006,992,1001,389000,1001
2014/07/23,1000,1004,1000,1002,184000,1002
2014/07/24,1013,1013,994,995,469000,995
2014/07/25,1008,1009,997,1009,403000,1009
2014/07/28,1009,1021,1008,1017,311000,1017
2014/07/29,1029,1034,1023,1034,492000,1034
2014/07/30,1027,1055,1027,1052,716000,1052
2014/07/31,1057,1065,1052,1053,728000,1053
2014/08/01,1039,1043,1032,1034,574000,1034
2014/08/04,1025,1030,1021,1027,447000,1027
2014/08/05,1022,1022,1000,1001,616000,1001
2014/08/06,993,998,979,982,620000,982
2014/08/07,977,981,947,960,810000,960
2014/08/08,941,944,916,921,1037000,921
2014/08/11,936,950,928,949,899000,949
2014/08/12,949,958,943,948,455000,948
2014/08/13,945,951,943,949,327000,949
2014/08/14,958,967,958,961,492000,961
2014/08/15,961,961,946,950,398000,950
2014/08/18,942,948,939,939,473000,939
2014/08/19,954,954,938,941,763000,941
2014/08/20,946,948,940,944,390000,944
2014/08/21,950,951,944,947,447000,947
2014/08/22,945,949,937,939,388000,939
2014/08/25,939,954,939,952,375000,952
2014/08/26,948,952,941,948,572000,948
2014/08/27,956,959,949,953,497000,953
2014/08/28,954,981,952,969,988000,969
2014/08/29,975,975,957,969,670000,969
2014/09/01,978,978,962,971,576000,971
2014/09/02,977,988,973,984,664000,984
2014/09/03,987,990,957,957,1029000,957
2014/09/04,951,952,941,943,652000,943
2014/09/05,949,950,941,944,399000,944
2014/09/08,940,947,938,939,325000,939
2014/09/09,941,942,936,936,488000,936
2014/09/10,931,933,924,929,522000,929
2014/09/11,938,946,931,946,572000,946
2014/09/12,946,956,942,947,1995000,947
2014/09/16,942,945,926,926,582000,926
2014/09/17,931,933,915,916,750000,916
2014/09/18,919,934,917,931,714000,931
2014/09/19,943,958,938,958,781000,958
2014/09/22,956,962,950,953,665000,953
2014/09/24,955,958,944,948,467000,948
2014/09/25,953,956,947,955,488000,955
2014/09/26,933,947,933,940,524000,940
2014/09/29,940,945,935,939,369000,939
2014/09/30,930,930,919,921,515000,921
2014/10/01,923,932,917,917,509000,917
2014/10/02,910,911,891,891,803000,891
2014/10/03,892,897,883,893,588000,893
2014/10/06,899,909,896,902,443000,902
2014/10/07,892,906,882,882,655000,882
2014/10/08,872,876,865,875,488000,875
2014/10/09,882,885,869,870,518000,870
2014/10/10,862,862,845,849,1142000,849
2014/10/14,830,842,823,823,831000,823
2014/10/15,825,830,818,824,674000,824
2014/10/16,798,821,796,800,1105000,800
2014/10/17,806,812,789,789,823000,789
2014/10/20,808,819,807,818,721000,818
2014/10/21,818,820,800,801,822000,801
2014/10/22,811,825,803,824,927000,824
2014/10/23,820,822,808,810,748000,810
2014/10/24,822,826,815,825,744000,825
2014/10/27,830,834,820,822,571000,822
2014/10/28,817,826,811,823,729000,823
2014/10/29,824,846,821,842,857000,842
2014/10/30,851,870,851,862,983000,862
2014/10/31,874,903,860,897,1563000,897
2014/11/04,927,942,913,933,1847000,933
2014/11/05,928,940,921,932,1052000,932
2014/11/06,934,1079,931,1060,3332000,1060
2014/11/07,1057,1064,1029,1056,2252000,1056
2014/11/10,1053,1093,1046,1092,1930000,1092
2014/11/11,1096,1146,1095,1143,2123000,1143
2014/11/12,1148,1172,1131,1138,2234000,1138
2014/11/13,1146,1163,1137,1158,1416000,1158
2014/11/14,1159,1161,1140,1156,2469000,1156
2014/11/17,1141,1145,1108,1115,1933000,1115
2014/11/18,1129,1143,1128,1138,1412000,1138
2014/11/19,1127,1147,1126,1131,1752000,1131
2014/11/20,1143,1145,1119,1123,1571000,1123
2014/11/21,1123,1127,1094,1116,1739000,1116
2014/11/25,1132,1144,1127,1144,1024000,1144
2014/11/26,1145,1174,1144,1163,1123000,1163
2014/11/27,1163,1184,1159,1174,1209000,1174
2014/11/28,1190,1205,1190,1202,1086000,1202
2014/12/01,1200,1216,1195,1214,725000,1214
2014/12/02,1212,1228,1207,1224,823000,1224
2014/12/03,1227,1249,1221,1238,1576000,1238
2014/12/04,1258,1338,1257,1326,2187000,1326
2014/12/05,1306,1314,1302,1310,1417000,1310
2014/12/08,1312,1316,1298,1310,1174000,1310
2014/12/09,1295,1317,1281,1290,1227000,1290
2014/12/10,1276,1285,1270,1283,818000,1283
2014/12/11,1276,1278,1258,1269,927000,1269
2014/12/12,1269,1291,1269,1272,2429000,1272
2014/12/15,1253,1263,1239,1244,1158000,1244
2014/12/16,1219,1234,1214,1221,1637000,1221
2014/12/17,1209,1244,1205,1241,1446000,1241
2014/12/18,1258,1289,1258,1275,1585000,1275
2014/12/19,1300,1312,1287,1290,1991000,1290
2014/12/22,1291,1303,1279,1291,881000,1291
2014/12/24,1300,1319,1300,1311,448000,1311
2014/12/25,1311,1311,1293,1296,326000,1296
2014/12/26,1302,1304,1295,1298,271000,1298
2014/12/29,1305,1305,1247,1267,1032000,1267
2014/12/30,1266,1267,1248,1251,606000,1251
2015/01/05,1248,1279,1240,1272,796000,1272
2015/01/06,1255,1256,1232,1234,1146000,1234
2015/01/07,1218,1228,1203,1205,1385000,1205
2015/01/08,1210,1239,1210,1236,770000,1236
2015/01/09,1242,1244,1214,1217,1339000,1217
2015/01/13,1207,1210,1175,1209,1126000,1209
2015/01/14,1204,1216,1188,1191,1012000,1191
2015/01/15,1198,1207,1190,1196,1363000,1196
2015/01/16,1178,1178,1143,1160,2126000,1160
2015/01/19,1179,1182,1169,1175,980000,1175
2015/01/20,1175,1221,1175,1214,1176000,1214
2015/01/21,1212,1214,1194,1200,1014000,1200
2015/01/22,1209,1228,1206,1228,837000,1228
2015/01/23,1240,1262,1238,1262,768000,1262
2015/01/26,1259,1286,1246,1286,1406000,1286
2015/01/27,1294,1304,1282,1288,991000,1288
2015/01/28,1286,1317,1278,1312,627000,1312
2015/01/29,1305,1308,1295,1299,859000,1299
2015/01/30,1310,1343,1306,1332,1071000,1332
2015/02/02,1324,1330,1311,1314,887000,1314
2015/02/03,1315,1316,1276,1287,1156000,1287
2015/02/04,1300,1356,1300,1341,1803000,1341
2015/02/05,1335,1335,1230,1248,2248000,1248
2015/02/06,1256,1273,1241,1271,1523000,1271
2015/02/09,1271,1281,1232,1234,1494000,1234
2015/02/10,1232,1240,1217,1231,1195000,1231
2015/02/12,1248,1261,1220,1254,1425000,1254
2015/02/13,1246,1248,1222,1223,1142000,1223
2015/02/16,1231,1236,1188,1189,1043000,1189
2015/02/17,1180,1202,1164,1177,1449000,1177
2015/02/18,1166,1183,1166,1176,1152000,1176
2015/02/19,1181,1184,1157,1161,1163000,1161
2015/02/20,1186,1206,1183,1200,1533000,1200
2015/02/23,1214,1228,1206,1224,1182000,1224
2015/02/24,1230,1234,1222,1231,579000,1231
2015/02/25,1233,1237,1214,1218,598000,1218
2015/02/26,1212,1225,1210,1222,552000,1222
2015/02/27,1226,1227,1208,1216,556000,1216
2015/03/02,1204,1218,1193,1200,626000,1200
2015/03/03,1202,1207,1183,1193,716000,1193
2015/03/04,1180,1194,1175,1191,424000,1191
2015/03/05,1180,1186,1158,1161,1075000,1161
2015/03/06,1165,1174,1158,1167,1267000,1167
2015/03/09,1158,1163,1150,1151,811000,1151
2015/03/10,1164,1164,1136,1141,729000,1141
2015/03/11,1139,1155,1139,1145,534000,1145
2015/03/12,1152,1161,1146,1151,654000,1151
2015/03/13,1177,1189,1160,1180,2425000,1180
2015/03/16,1188,1209,1183,1204,975000,1204
2015/03/17,1210,1211,1182,1192,517000,1192
2015/03/18,1192,1203,1187,1203,572000,1203
2015/03/19,1188,1200,1180,1193,634000,1193
2015/03/20,1181,1188,1171,1182,625000,1182
2015/03/23,1177,1194,1177,1191,505000,1191
2015/03/24,1200,1212,1197,1205,664000,1205
2015/03/25,1219,1219,1210,1218,847000,1218
2015/03/26,1207,1220,1199,1219,1127000,1219
2015/03/27,1207,1230,1179,1193,1323000,1193
2015/03/30,1199,1212,1185,1196,861000,1196
2015/03/31,1186,1188,1153,1153,1402000,1153
2015/04/01,1159,1167,1146,1152,1078000,1152
2015/04/02,1164,1183,1156,1173,726000,1173
2015/04/03,1160,1176,1160,1167,523000,1167
2015/04/06,1160,1162,1147,1152,350000,1152
2015/04/07,1156,1168,1156,1163,441000,1163
2015/04/08,1177,1220,1173,1214,1129000,1214
2015/04/09,1198,1224,1196,1212,1088000,1212
2015/04/10,1215,1215,1194,1196,938000,1196
2015/04/13,1196,1196,1182,1183,309000,1183
2015/04/14,1172,1203,1172,1203,391000,1203
2015/04/15,1207,1207,1190,1196,303000,1196
2015/04/16,1193,1217,1191,1215,514000,1215
2015/04/17,1202,1222,1202,1215,584000,1215
2015/04/20,1222,1242,1208,1235,940000,1235
2015/04/21,1240,1241,1217,1228,536000,1228
2015/04/22,1240,1254,1234,1251,732000,1251
2015/04/23,1260,1287,1257,1260,905000,1260
2015/04/24,1254,1260,1239,1239,547000,1239
2015/04/27,1235,1240,1221,1231,577000,1231
2015/04/28,1253,1253,1237,1240,521000,1240
2015/04/30,1237,1265,1229,1247,921000,1247
2015/05/01,1256,1262,1243,1250,600000,1250
2015/05/07,1224,1252,1213,1214,868000,1214
2015/05/08,1213,1236,1213,1231,756000,1231
2015/05/11,1235,1253,1232,1249,623000,1249
2015/05/12,1219,1345,1219,1345,1949000,1345
2015/05/13,1329,1378,1319,1372,1285000,1372
2015/05/14,1352,1357,1329,1335,1043000,1335
2015/05/15,1306,1333,1303,1313,1005000,1313
2015/05/18,1320,1339,1318,1337,405000,1337
2015/05/19,1350,1373,1346,1364,636000,1364
2015/05/20,1390,1390,1359,1361,791000,1361
2015/05/21,1352,1366,1350,1354,612000,1354
2015/05/22,1360,1397,1360,1391,964000,1391
2015/05/25,1391,1399,1380,1396,556000,1396
2015/05/26,1400,1405,1376,1389,603000,1389
2015/05/27,1370,1394,1370,1392,491000,1392
2015/05/28,1415,1423,1392,1396,414000,1396
2015/05/29,1384,1403,1380,1397,661000,1397
2015/06/01,1398,1405,1392,1400,327000,1400
2015/06/02,1404,1433,1400,1432,684000,1432
2015/06/03,1435,1457,1424,1443,865000,1443
2015/06/04,1453,1470,1447,1455,685000,1455
2015/06/05,1440,1449,1429,1447,538000,1447
2015/06/08,1470,1471,1446,1448,523000,1448
2015/06/09,1435,1447,1417,1419,509000,1419
2015/06/10,1419,1458,1411,1422,710000,1422
2015/06/11,1430,1454,1430,1454,406000,1454
2015/06/12,1465,1465,1437,1444,1380000,1444
2015/06/15,1443,1447,1422,1432,472000,1432
2015/06/16,1433,1438,1404,1414,406000,1414
2015/06/17,1413,1417,1394,1406,480000,1406
2015/06/18,1390,1396,1344,1346,964000,1346
2015/06/19,1360,1369,1351,1365,991000,1365
2015/06/22,1367,1385,1367,1384,387000,1384
2015/06/23,1392,1422,1388,1422,707000,1422
2015/06/24,1429,1455,1423,1450,752000,1450
2015/06/25,1469,1475,1442,1460,736000,1460
2015/06/26,1470,1470,1430,1431,434000,1431
2015/06/29,1416,1416,1358,1363,907000,1363
2015/06/30,1355,1370,1350,1369,514000,1369
2015/07/01,1369,1381,1365,1376,336000,1376
