2011/01/04,1444,1449,1437,1448,277800,1448
2011/01/05,1449,1464,1448,1463,303900,1463
2011/01/06,1470,1496,1470,1485,643400,1485
2011/01/07,1491,1511,1489,1509,489900,1509
2011/01/11,1509,1518,1506,1509,323600,1509
2011/01/12,1505,1518,1482,1490,464000,1490
2011/01/13,1503,1510,1494,1505,575200,1505
2011/01/14,1507,1508,1482,1482,363800,1482
2011/01/17,1485,1489,1455,1456,518800,1456
2011/01/18,1456,1464,1443,1448,397500,1448
2011/01/19,1447,1451,1410,1419,921100,1419
2011/01/20,1430,1482,1420,1450,1999900,1450
2011/01/21,1450,1458,1417,1423,1189400,1423
2011/01/24,1423,1442,1421,1435,472000,1435
2011/01/25,1438,1445,1433,1441,706100,1441
2011/01/26,1440,1460,1436,1440,850200,1440
2011/01/27,1431,1446,1426,1440,543500,1440
2011/01/28,1442,1455,1427,1428,507800,1428
2011/01/31,1424,1458,1413,1454,710100,1454
2011/02/01,1449,1484,1445,1469,815200,1469
2011/02/02,1476,1491,1464,1473,413100,1473
2011/02/03,1487,1523,1230,1395,2564600,1395
2011/02/04,1390,1391,1333,1348,2428300,1348
2011/02/07,1357,1368,1334,1340,1349400,1340
2011/02/08,1362,1363,1343,1345,1356000,1345
2011/02/09,1369,1389,1361,1366,1229700,1366
2011/02/10,1366,1375,1358,1372,683800,1372
2011/02/14,1390,1403,1381,1402,769900,1402
2011/02/15,1405,1432,1404,1419,1046600,1419
2011/02/16,1419,1424,1403,1415,829600,1415
2011/02/17,1425,1428,1410,1413,446700,1413
2011/02/18,1419,1419,1400,1406,519700,1406
2011/02/21,1398,1402,1383,1387,1045600,1387
2011/02/22,1380,1383,1341,1346,1291500,1346
2011/02/23,1331,1374,1330,1354,658400,1354
2011/02/24,1346,1367,1336,1353,1191900,1353
2011/02/25,1326,1353,1318,1348,1458400,1348
2011/02/28,1351,1364,1326,1359,667300,1359
2011/03/01,1369,1373,1355,1373,427300,1373
2011/03/02,1357,1357,1334,1334,441300,1334
2011/03/03,1333,1351,1333,1351,405600,1351
2011/03/04,1369,1370,1338,1352,469300,1352
2011/03/07,1353,1353,1331,1336,474100,1336
2011/03/08,1339,1347,1330,1334,418100,1334
2011/03/09,1334,1343,1321,1324,433700,1324
2011/03/10,1321,1322,1300,1307,461300,1307
2011/03/11,1308,1320,1298,1302,823800,1302
2011/03/14,1062,1160,1062,1127,1350600,1127
2011/03/15,1090,1097,880,1017,1372000,1017
2011/03/16,1025,1103,1005,1097,1139300,1097
2011/03/17,1022,1119,1017,1104,825100,1104
2011/03/18,1107,1159,1107,1147,746500,1147
2011/03/22,1204,1212,1188,1196,522000,1196
2011/03/23,1196,1202,1123,1133,937000,1133
2011/03/24,1143,1157,1127,1128,642800,1128
2011/03/25,1144,1155,1130,1141,600000,1141
2011/03/28,1142,1186,1142,1185,703700,1185
2011/03/29,1174,1182,1143,1156,611300,1156
2011/03/30,1157,1194,1153,1189,512900,1189
2011/03/31,1203,1203,1189,1197,302600,1197
2011/04/01,1201,1214,1176,1176,544500,1176
2011/04/04,1193,1199,1137,1138,869700,1138
2011/04/05,1108,1108,1079,1088,829400,1088
2011/04/06,1099,1104,1063,1069,699300,1069
2011/04/07,1070,1096,1065,1075,416600,1075
2011/04/08,1075,1096,1071,1094,452400,1094
2011/04/11,1090,1114,1085,1105,531600,1105
2011/04/12,1100,1105,1078,1082,321800,1082
2011/04/13,1062,1109,1062,1102,440500,1102
2011/04/14,1105,1146,1099,1143,644200,1143
2011/04/15,1143,1150,1109,1109,606700,1109
2011/04/18,1115,1140,1112,1128,443500,1128
2011/04/19,1112,1118,1097,1105,384900,1105
2011/04/20,1120,1140,1116,1121,304500,1121
2011/04/21,1132,1175,1127,1173,696400,1173
2011/04/22,1167,1218,1155,1209,935900,1209
2011/04/25,1200,1214,1192,1194,774800,1194
2011/04/26,1193,1211,1185,1190,616000,1190
2011/04/27,1191,1222,1191,1208,568000,1208
2011/04/28,1224,1258,1213,1258,847500,1258
2011/05/02,1258,1293,1242,1254,685800,1254
2011/05/06,1227,1230,1185,1204,857700,1204
2011/05/09,1205,1210,1171,1177,560400,1177
2011/05/10,1170,1213,1165,1201,587200,1201
2011/05/11,1207,1213,1192,1198,477500,1198
2011/05/12,1190,1247,1176,1235,591500,1235
2011/05/13,1245,1266,1237,1259,1087200,1259
2011/05/16,1229,1235,1207,1212,705500,1212
2011/05/17,1244,1248,1220,1243,810600,1243
2011/05/18,1223,1233,1206,1223,827900,1223
2011/05/19,1226,1243,1211,1233,641300,1233
2011/05/20,1221,1230,1199,1201,804700,1201
2011/05/23,1200,1225,1191,1223,669000,1223
2011/05/24,1202,1214,1185,1201,383200,1201
2011/05/25,1182,1237,1182,1215,1144100,1215
2011/05/26,1206,1228,1199,1224,618900,1224
2011/05/27,1219,1260,1215,1249,939400,1249
2011/05/30,1257,1268,1239,1246,835000,1246
2011/05/31,1254,1285,1253,1285,615500,1285
2011/06/01,1275,1276,1249,1249,1201800,1249
2011/06/02,1230,1257,1218,1247,1001300,1247
2011/06/03,1232,1234,1209,1212,661400,1212
2011/06/06,1218,1225,1195,1209,474500,1209
2011/06/07,1206,1230,1193,1221,360400,1221
2011/06/08,1210,1233,1209,1229,633300,1229
2011/06/09,1221,1233,1216,1225,270300,1225
2011/06/10,1217,1233,1214,1226,664100,1226
2011/06/13,1207,1213,1204,1207,333600,1207
2011/06/14,1218,1245,1211,1240,653800,1240
2011/06/15,1240,1242,1207,1229,846700,1229
2011/06/16,1206,1230,1202,1202,615400,1202
2011/06/17,1216,1227,1202,1215,504100,1215
2011/06/20,1217,1224,1207,1211,315100,1211
2011/06/21,1217,1218,1206,1218,273600,1218
2011/06/22,1218,1240,1215,1238,388100,1238
2011/06/23,1220,1238,1217,1229,324900,1229
2011/06/24,1238,1250,1229,1246,371100,1246
2011/06/27,1245,1272,1243,1264,689600,1264
2011/06/28,1275,1295,1272,1287,676800,1287
2011/06/29,1299,1304,1289,1304,461800,1304
2011/06/30,1305,1334,1304,1331,708100,1331
2011/07/01,1332,1362,1332,1355,912500,1355
2011/07/04,1371,1380,1362,1375,731700,1375
2011/07/05,1362,1367,1337,1337,835300,1337
2011/07/06,1350,1362,1342,1362,506800,1362
2011/07/07,1358,1360,1343,1346,340900,1346
2011/07/08,1365,1372,1360,1366,403100,1366
2011/07/11,1350,1364,1345,1357,418000,1357
2011/07/12,1357,1357,1323,1331,711300,1331
2011/07/13,1325,1339,1317,1331,286200,1331
2011/07/14,1323,1352,1323,1342,349600,1342
2011/07/15,1342,1344,1323,1329,409300,1329
2011/07/19,1349,1377,1348,1364,785900,1364
2011/07/20,1376,1378,1365,1367,543700,1367
2011/07/21,1372,1372,1354,1359,268700,1359
2011/07/22,1369,1373,1345,1347,559900,1347
2011/07/25,1347,1357,1347,1350,256100,1350
2011/07/26,1350,1356,1338,1344,333100,1344
2011/07/27,1343,1344,1316,1327,299900,1327
2011/07/28,1305,1318,1300,1312,390800,1312
2011/07/29,1313,1314,1296,1298,211800,1298
2011/08/01,1303,1347,1290,1305,783400,1305
2011/08/02,1300,1320,1289,1319,656400,1319
2011/08/03,1319,1325,1306,1317,967800,1317
2011/08/04,1319,1338,1307,1326,614100,1326
2011/08/05,1261,1287,1261,1275,484600,1275
2011/08/08,1252,1255,1208,1209,880300,1209
2011/08/09,1160,1201,1140,1199,700600,1199
2011/08/10,1229,1245,1200,1202,355600,1202
2011/08/11,1173,1193,1168,1177,389800,1177
2011/08/12,1185,1188,1141,1144,464600,1144
2011/08/15,1163,1170,1155,1165,277800,1165
2011/08/16,1172,1194,1166,1175,600000,1175
2011/08/17,1175,1182,1151,1170,561600,1170
2011/08/18,1170,1178,1115,1123,585400,1123
2011/08/19,1093,1098,1079,1082,712600,1082
2011/08/22,1076,1088,1031,1033,488400,1033
2011/08/23,1045,1067,1036,1064,543600,1064
2011/08/24,1091,1101,1026,1032,896700,1032
2011/08/25,1042,1080,1040,1060,573600,1060
2011/08/26,1053,1104,1050,1101,688800,1101
2011/08/29,1106,1123,1082,1099,522100,1099
2011/08/30,1122,1150,1121,1134,582300,1134
2011/08/31,1134,1137,1107,1128,599200,1128
2011/09/01,1144,1148,1112,1132,776300,1132
2011/09/02,1118,1134,1110,1127,434700,1127
2011/09/05,1105,1107,1076,1080,311900,1080
2011/09/06,1081,1085,1042,1042,436000,1042
2011/09/07,1069,1092,1055,1088,347800,1088
2011/09/08,1095,1109,1080,1090,512300,1090
2011/09/09,1084,1096,1064,1071,398100,1071
2011/09/12,1042,1062,1041,1061,259800,1061
2011/09/13,1073,1090,1056,1080,276300,1080
2011/09/14,1081,1099,1063,1067,442900,1067
2011/09/15,1092,1129,1087,1123,633500,1123
2011/09/16,1123,1129,1110,1120,1066000,1120
2011/09/20,1100,1101,1076,1087,650400,1087
2011/09/21,1088,1096,1073,1092,303000,1092
2011/09/22,1070,1078,1054,1063,225800,1063
2011/09/26,1040,1060,1020,1028,466400,1028
2011/09/27,1050,1073,1043,1073,298800,1073
2011/09/28,1080,1114,1077,1112,420000,1112
2011/09/29,1112,1136,1098,1136,388200,1136
2011/09/30,1136,1136,1095,1120,605700,1120
2011/10/03,1060,1098,1059,1092,409900,1092
2011/10/04,1074,1083,1046,1053,566300,1053
2011/10/05,1058,1080,1031,1033,358700,1033
2011/10/06,1050,1070,1043,1052,232000,1052
2011/10/07,1053,1069,980,991,1129300,991
2011/10/11,1002,1025,1001,1009,1229800,1009
2011/10/12,1000,1009,956,985,1171400,985
2011/10/13,1000,1036,999,1017,1093900,1017
2011/10/14,1018,1018,988,993,618400,993
2011/10/17,1021,1028,1003,1016,445200,1016
2011/10/18,1000,1017,995,1010,549900,1010
2011/10/19,1015,1016,987,994,589100,994
2011/10/20,991,992,962,983,418300,983
2011/10/21,950,967,950,967,799000,967
2011/10/24,974,982,969,980,511800,980
2011/10/25,985,985,959,976,546300,976
2011/10/26,968,984,958,970,576500,970
2011/10/27,971,1002,963,996,497600,996
2011/10/28,1012,1018,950,959,1124500,959
2011/10/31,950,972,930,963,1014800,963
2011/11/01,948,952,932,937,367500,937
2011/11/02,930,934,916,918,426200,918
2011/11/04,933,940,921,933,433300,933
2011/11/07,903,909,896,905,606200,905
2011/11/08,906,908,873,880,611700,880
2011/11/09,886,894,843,859,1024000,859
2011/11/10,836,836,821,827,832700,827
2011/11/11,832,855,831,842,506100,842
2011/11/14,857,864,842,847,341100,847
2011/11/15,847,848,833,834,399700,834
2011/11/16,843,843,795,802,721400,802
2011/11/17,802,818,797,803,724300,803
2011/11/18,789,797,756,779,772600,779
2011/11/21,780,780,757,764,364100,764
2011/11/22,753,785,751,780,502500,780
2011/11/24,772,786,760,772,662600,772
2011/11/25,772,805,771,790,673000,790
2011/11/28,800,820,797,801,476800,801
2011/11/29,817,840,809,838,569000,838
2011/11/30,838,843,821,843,706800,843
2011/12/01,870,872,850,853,390100,853
2011/12/02,854,869,849,863,426000,863
2011/12/05,864,875,861,869,359400,869
2011/12/06,871,878,837,841,671200,841
2011/12/07,845,860,834,851,491800,851
2011/12/08,840,865,840,856,518700,856
2011/12/09,834,848,821,841,650900,841
2011/12/12,852,863,846,853,308300,853
2011/12/13,855,859,840,848,546100,848
2011/12/14,845,852,837,842,342300,842
2011/12/15,831,831,801,801,546600,801
2011/12/16,800,805,768,772,883700,772
2011/12/19,774,787,770,777,564400,777
2011/12/20,775,781,773,774,338800,774
2011/12/21,783,790,775,778,477800,778
2011/12/22,781,792,779,785,365100,785
2011/12/26,781,792,780,781,429600,781
2011/12/27,780,785,780,784,147800,784
2011/12/28,786,797,785,786,274600,786
2011/12/29,784,784,776,781,424000,781
2011/12/30,782,807,781,803,408700,803
2012/01/04,815,821,804,817,442100,817
2012/01/05,802,810,800,807,360500,807
2012/01/06,805,805,786,794,414900,794
2012/01/10,799,824,790,791,348600,791
2012/01/11,796,802,785,792,286100,792
2012/01/12,792,796,771,781,379900,781
2012/01/13,782,801,782,790,703200,790
2012/01/16,777,780,769,777,570600,777
2012/01/17,780,785,777,782,349800,782
2012/01/18,782,791,768,790,687200,790
2012/01/19,796,833,795,833,734700,833
2012/01/20,841,845,830,841,513100,841
2012/01/23,850,875,846,871,816200,871
2012/01/24,870,884,866,870,569300,870
2012/01/25,871,898,869,893,731200,893
2012/01/26,891,894,862,864,605700,864
2012/01/27,865,866,839,847,532700,847
2012/01/30,845,845,831,835,397600,835
2012/01/31,828,836,820,823,639500,823
2012/02/01,826,853,825,846,438500,846
2012/02/02,860,871,853,853,363200,853
2012/02/03,864,869,835,859,925300,859
2012/02/06,870,887,847,849,1278400,849
2012/02/07,839,845,835,844,637600,844
2012/02/08,855,883,855,883,831600,883
2012/02/09,886,889,868,887,737900,887
2012/02/10,890,892,867,868,440800,868
2012/02/13,865,875,863,872,306000,872
2012/02/14,867,877,857,870,471600,870
2012/02/15,880,931,875,922,1244000,922
2012/02/16,922,929,907,917,685200,917
2012/02/17,933,944,929,938,408800,938
2012/02/20,970,994,970,978,1165400,978
2012/02/21,980,985,953,964,655200,964
2012/02/22,974,988,950,987,566400,987
2012/02/23,987,1054,977,1036,1401100,1036
2012/02/24,1020,1046,1015,1038,910000,1038
2012/02/27,1051,1068,1043,1046,662800,1046
2012/02/28,1030,1044,1021,1037,564700,1037
2012/02/29,1050,1050,1003,1019,1438500,1019
2012/03/01,1001,1018,958,976,1878700,976
2012/03/02,987,1000,978,985,873600,985
2012/03/05,989,996,969,973,522800,973
2012/03/06,973,986,958,962,559600,962
2012/03/07,940,951,934,941,740000,941
2012/03/08,956,969,946,968,746900,968
2012/03/09,988,1003,977,990,858700,990
2012/03/12,1005,1010,986,987,721200,987
2012/03/13,990,996,971,974,563600,974
2012/03/14,1000,1013,996,998,992600,998
2012/03/15,1007,1025,1006,1016,748700,1016
2012/03/16,1016,1024,1014,1024,458800,1024
2012/03/19,1025,1025,996,999,958000,999
2012/03/21,999,1003,986,993,665300,993
2012/03/22,990,998,974,975,985400,975
2012/03/23,963,967,953,957,601200,957
2012/03/26,968,978,964,968,533600,968
2012/03/27,981,993,979,993,546800,993
2012/03/28,981,1002,972,1001,627200,1001
2012/03/29,1008,1008,986,994,525000,994
2012/03/30,990,990,973,976,494500,976
2012/04/02,988,1001,986,993,604800,993
2012/04/03,989,995,976,982,504300,982
2012/04/04,984,985,950,959,622300,959
2012/04/05,944,976,936,976,901600,976
2012/04/06,970,970,948,955,694800,955
2012/04/09,940,945,927,934,599200,934
2012/04/10,937,961,924,931,617400,931
2012/04/11,910,938,905,936,901400,936
2012/04/12,935,965,927,956,717600,956
2012/04/13,958,960,931,938,862000,938
2012/04/16,930,938,924,926,377400,926
2012/04/17,927,936,921,923,526000,923
2012/04/18,941,958,940,953,515000,953
2012/04/19,946,966,942,958,344700,958
2012/04/20,959,959,937,946,411700,946
2012/04/23,943,956,935,940,356000,940
2012/04/24,929,951,926,942,272200,942
2012/04/25,954,958,935,942,375000,942
2012/04/26,943,959,940,957,414900,957
2012/04/27,965,1015,944,987,2205700,987
2012/05/01,962,974,945,954,942500,954
2012/05/02,961,977,961,972,473600,972
2012/05/07,950,958,931,934,754600,934
2012/05/08,935,946,933,944,613100,944
2012/05/09,942,950,929,938,621100,938
2012/05/10,935,975,929,965,691300,965
2012/05/11,965,986,965,973,534000,973
2012/05/14,973,975,961,971,369000,971
2012/05/15,970,970,937,956,787400,956
2012/05/16,950,955,915,924,540000,924
2012/05/17,923,956,912,952,604100,952
2012/05/18,925,929,906,910,577400,910
2012/05/21,903,920,903,909,417100,909
2012/05/22,922,924,912,917,459800,917
2012/05/23,912,914,878,879,1015800,879
2012/05/24,879,879,851,868,811200,868
2012/05/25,866,886,858,863,486700,863
2012/05/28,853,854,832,847,487300,847
2012/05/29,844,860,832,856,534000,856
2012/05/30,871,871,843,857,443400,857
2012/05/31,839,850,826,839,549300,839
2012/06/01,849,858,822,824,957200,824
2012/06/04,799,811,797,798,498600,798
2012/06/05,808,818,799,818,437500,818
2012/06/06,826,848,817,846,713000,846
2012/06/07,861,873,856,871,447000,871
2012/06/08,872,872,847,853,547200,853
2012/06/11,872,887,869,886,415700,886
2012/06/12,867,888,856,876,300300,876
2012/06/13,878,882,866,868,300600,868
2012/06/14,863,869,857,866,212900,866
2012/06/15,867,875,850,852,386100,852
2012/06/18,869,888,869,878,437400,878
2012/06/19,877,877,861,863,226800,863
2012/06/20,868,882,868,875,265900,875
2012/06/21,884,898,884,891,274100,891
2012/06/22,878,897,878,895,243700,895
2012/06/25,900,908,889,893,205200,893
2012/06/26,887,916,886,914,928800,914
2012/06/27,918,928,903,924,588000,924
2012/06/28,931,950,931,949,717400,949
2012/06/29,947,968,935,961,705600,961
2012/07/02,976,982,969,978,664400,978
2012/07/03,981,990,975,988,534200,988
2012/07/04,990,997,984,985,289900,985
2012/07/05,994,1018,989,1010,907400,1010
2012/07/06,1009,1015,998,1003,780100,1003
2012/07/09,988,990,966,967,620900,967
2012/07/10,967,974,946,946,598600,946
2012/07/11,940,946,924,931,544400,931
2012/07/12,936,939,902,903,612200,903
2012/07/13,896,920,896,909,318400,909
2012/07/17,908,920,878,879,406900,879
2012/07/18,891,893,871,877,345700,877
2012/07/19,889,890,871,886,395500,886
2012/07/20,886,891,849,856,687400,856
2012/07/23,840,843,832,833,452600,833
2012/07/24,833,850,826,845,397400,845
2012/07/25,831,833,806,812,306300,812
2012/07/26,820,852,809,844,515800,844
2012/07/27,858,859,845,856,442400,856
2012/07/30,871,876,853,862,382700,862
2012/07/31,869,892,860,885,551700,885
2012/08/01,872,877,852,857,373300,857
2012/08/02,849,873,849,869,318700,869
2012/08/03,854,859,843,850,333400,850
2012/08/06,870,878,865,871,397400,871
2012/08/07,871,890,865,887,301500,887
2012/08/08,897,913,893,904,500400,904
2012/08/09,905,935,905,933,659700,933
2012/08/10,923,940,916,927,460600,927
2012/08/13,928,937,925,933,285700,933
2012/08/14,933,942,925,938,281300,938
2012/08/15,940,947,922,939,361200,939
2012/08/16,941,959,941,953,415100,953
2012/08/17,958,975,950,972,370400,972
2012/08/20,977,987,971,972,364500,972
2012/08/21,971,989,970,982,332200,982
2012/08/22,982,982,960,973,321400,973
2012/08/23,961,972,955,968,297500,968
2012/08/24,948,960,933,955,458300,955
2012/08/27,967,979,964,968,404300,968
2012/08/28,963,970,937,942,432400,942
2012/08/29,938,951,930,943,416600,943
2012/08/30,946,948,932,940,340000,940
2012/08/31,925,925,899,899,437500,899
2012/09/03,901,920,896,903,500700,903
2012/09/04,903,904,877,893,705100,893
2012/09/05,894,894,868,882,652000,882
2012/09/06,889,892,872,878,472500,878
2012/09/07,922,923,902,923,718000,923
2012/09/10,922,931,911,919,339600,919
2012/09/11,904,904,883,889,503500,889
2012/09/12,890,914,890,913,684800,913
2012/09/13,909,922,902,916,334800,916
2012/09/14,931,939,921,933,404800,933
2012/09/18,934,943,913,916,1191700,916
2012/09/19,913,936,898,930,998900,930
2012/09/20,925,925,885,889,811300,889
2012/09/21,889,900,866,869,770500,869
2012/09/24,867,869,841,846,985400,846
2012/09/25,847,853,837,850,762500,850
2012/09/26,830,836,812,813,921500,813
2012/09/27,810,835,810,817,1043600,817
2012/09/28,824,829,800,810,885800,810
2012/10/01,812,814,799,808,637000,808
2012/10/02,807,818,798,800,639300,800
2012/10/03,798,805,787,792,572700,792
2012/10/04,800,821,790,806,791400,806
2012/10/05,808,816,796,807,718200,807
2012/10/09,799,807,784,788,674800,788
2012/10/10,775,777,767,775,699900,775
2012/10/11,760,768,742,746,988300,746
2012/10/12,750,765,750,759,622800,759
2012/10/15,756,793,754,783,951600,783
2012/10/16,791,806,781,806,880800,806
2012/10/17,810,819,792,794,1175900,794
2012/10/18,805,829,805,826,1146200,826
2012/10/19,830,842,821,834,850400,834
2012/10/22,817,825,807,821,906600,821
2012/10/23,832,832,797,811,982000,811
2012/10/24,781,793,774,775,1517600,775
2012/10/25,772,781,760,779,1055500,779
2012/10/26,790,790,767,771,600200,771
2012/10/29,771,775,755,759,863000,759
2012/10/30,760,782,759,764,601500,764
2012/10/31,768,792,748,755,1616800,755
2012/11/01,756,774,752,760,1017900,760
2012/11/02,771,780,769,778,750200,778
2012/11/05,782,793,777,786,803500,786
2012/11/06,785,788,774,782,784500,782
2012/11/07,788,796,768,769,804000,769
2012/11/08,759,776,756,759,606200,759
2012/11/09,750,756,743,754,727900,754
2012/11/12,752,757,742,742,445800,742
2012/11/13,742,750,734,750,777600,750
2012/11/14,742,744,733,737,667400,737
2012/11/15,752,764,746,762,1441800,762
2012/11/16,777,812,775,800,1131900,800
2012/11/19,814,827,810,813,704400,813
2012/11/20,825,828,807,812,523400,812
2012/11/21,821,838,815,831,696800,831
2012/11/22,846,863,844,861,741400,861
2012/11/26,881,893,866,867,715300,867
2012/11/27,857,864,842,860,717300,860
2012/11/28,850,851,825,829,790100,829
2012/11/29,831,849,831,839,573300,839
2012/11/30,848,858,837,852,657200,852
2012/12/03,855,860,844,850,607500,850
2012/12/04,840,845,827,833,747500,833
2012/12/05,825,846,820,835,628400,835
2012/12/06,844,851,841,843,600800,843
2012/12/07,846,846,835,836,354200,836
2012/12/10,843,844,831,834,339000,834
2012/12/11,829,836,824,826,410300,826
2012/12/12,832,836,826,833,627900,833
2012/12/13,840,858,839,852,794500,852
2012/12/14,862,862,847,857,867300,857
2012/12/17,868,882,862,865,721500,865
2012/12/18,865,869,859,859,531900,859
2012/12/19,870,879,869,879,603300,879
2012/12/20,874,888,850,881,737700,881
2012/12/21,892,894,850,866,766600,866
2012/12/25,874,883,861,862,355700,862
2012/12/26,866,939,865,938,1834400,938
2012/12/27,940,1001,930,989,1496100,989
2012/12/28,998,1005,984,992,823500,992
2013/01/04,1041,1049,1025,1047,862300,1047
2013/01/07,1048,1065,1021,1024,870600,1024
2013/01/08,1013,1021,1000,1004,662400,1004
2013/01/09,985,1025,985,1017,480200,1017
2013/01/10,1025,1028,1014,1018,546500,1018
2013/01/11,1038,1040,1018,1039,479700,1039
2013/01/15,1044,1051,1032,1039,692800,1039
2013/01/16,1041,1047,1028,1031,836000,1031
2013/01/17,1036,1075,1031,1054,963700,1054
2013/01/18,1080,1100,1078,1099,1037500,1099
2013/01/21,1110,1133,1096,1127,943800,1127
2013/01/22,1126,1130,1097,1111,611200,1111
2013/01/23,1091,1113,1085,1086,681100,1086
2013/01/24,1082,1124,1077,1119,676600,1119
2013/01/25,1149,1159,1137,1140,660500,1140
2013/01/28,1156,1156,1134,1137,526300,1137
2013/01/29,1138,1152,1124,1140,599300,1140
2013/01/30,1149,1166,1143,1163,434700,1163
2013/01/31,1164,1199,1162,1196,713700,1196
2013/02/01,1224,1264,1138,1148,2690100,1148
2013/02/04,1180,1198,1144,1190,1414200,1190
2013/02/05,1170,1172,1143,1152,1539600,1152
2013/02/06,1195,1223,1191,1209,1073000,1209
2013/02/07,1210,1257,1206,1241,1098800,1241
2013/02/08,1248,1296,1237,1253,1700200,1253
2013/02/12,1295,1318,1284,1293,1313300,1293
2013/02/13,1294,1294,1236,1253,865400,1253
2013/02/14,1262,1290,1247,1279,841000,1279
2013/02/15,1274,1274,1223,1245,910600,1245
2013/02/18,1275,1312,1274,1284,697900,1284
2013/02/19,1275,1280,1254,1262,526600,1262
2013/02/20,1281,1311,1281,1290,727500,1290
2013/02/21,1281,1293,1256,1272,666800,1272
2013/02/22,1256,1263,1228,1258,660700,1258
2013/02/25,1279,1291,1268,1275,548900,1275
2013/02/26,1237,1251,1225,1227,1120200,1227
2013/02/27,1227,1231,1174,1217,986600,1217
2013/02/28,1247,1272,1247,1264,1058200,1264
2013/03/01,1264,1265,1242,1261,577000,1261
2013/03/04,1269,1275,1248,1261,469800,1261
2013/03/05,1265,1282,1258,1262,477200,1262
2013/03/06,1283,1290,1272,1284,476600,1284
2013/03/07,1290,1306,1271,1278,577000,1278
2013/03/08,1288,1305,1288,1305,905400,1305
2013/03/11,1324,1343,1322,1332,636800,1332
2013/03/12,1350,1360,1321,1323,526800,1323
2013/03/13,1316,1327,1305,1318,461200,1318
2013/03/14,1319,1323,1299,1323,473900,1323
2013/03/15,1327,1347,1327,1339,646500,1339
2013/03/18,1330,1335,1314,1318,588000,1318
2013/03/19,1324,1368,1324,1366,706800,1366
2013/03/21,1380,1397,1380,1394,752500,1394
2013/03/22,1383,1384,1359,1359,492100,1359
2013/03/25,1385,1389,1353,1359,358900,1359
2013/03/26,1351,1369,1341,1364,322600,1364
2013/03/27,1368,1377,1362,1374,420000,1374
2013/03/28,1374,1377,1321,1324,573600,1324
2013/03/29,1324,1327,1305,1320,570700,1320
2013/04/01,1310,1316,1242,1243,686900,1243
2013/04/02,1217,1238,1203,1223,574300,1223
2013/04/03,1241,1288,1234,1269,924100,1269
2013/04/04,1239,1302,1218,1302,847300,1302
2013/04/05,1341,1367,1320,1332,849900,1332
2013/04/08,1360,1371,1339,1370,819000,1370
2013/04/09,1385,1398,1345,1364,916900,1364
2013/04/10,1355,1384,1354,1374,804000,1374
2013/04/11,1380,1399,1376,1397,924700,1397
2013/04/12,1398,1400,1384,1396,626700,1396
2013/04/15,1377,1387,1369,1373,462700,1373
2013/04/16,1350,1364,1323,1347,625600,1347
2013/04/17,1364,1396,1364,1396,757700,1396
2013/04/18,1386,1398,1366,1378,436300,1378
2013/04/19,1380,1387,1369,1378,549200,1378
2013/04/22,1398,1417,1395,1405,982000,1405
2013/04/23,1415,1423,1390,1406,720600,1406
2013/04/24,1422,1445,1420,1445,949400,1445
2013/04/25,1460,1500,1460,1500,1084900,1500
2013/04/26,1500,1508,1408,1417,1521200,1417
2013/04/30,1418,1440,1398,1399,1329300,1399
2013/05/01,1399,1404,1365,1367,1462400,1367
2013/05/02,1350,1401,1350,1373,1101600,1373
2013/05/07,1413,1460,1411,1457,1154100,1457
2013/05/08,1469,1497,1465,1477,930000,1477
2013/05/09,1489,1491,1453,1453,641400,1453
2013/05/10,1500,1539,1491,1538,1447100,1538
2013/05/13,1578,1615,1577,1599,1398100,1599
2013/05/14,1608,1614,1573,1577,907300,1577
2013/05/15,1617,1653,1612,1638,841200,1638
2013/05/16,1660,1660,1582,1613,883400,1613
2013/05/17,1590,1651,1577,1647,723800,1647
2013/05/20,1687,1697,1671,1678,723900,1678
2013/05/21,1678,1693,1660,1689,648100,1689
2013/05/22,1700,1708,1651,1672,815400,1672
2013/05/23,1692,1750,1627,1635,1751100,1635
2013/05/24,1632,1662,1511,1583,1379400,1583
2013/05/27,1556,1562,1475,1494,837400,1494
2013/05/28,1470,1544,1468,1539,744100,1539
2013/05/29,1580,1582,1520,1528,601100,1528
2013/05/30,1497,1530,1478,1487,622600,1487
2013/05/31,1505,1519,1462,1467,601100,1467
2013/06/03,1460,1460,1381,1387,830700,1387
2013/06/04,1357,1400,1327,1399,874900,1399
2013/06/05,1400,1430,1375,1381,779200,1381
2013/06/06,1350,1385,1332,1336,741500,1336
2013/06/07,1290,1315,1261,1288,797400,1288
2013/06/10,1348,1383,1334,1378,484000,1378
2013/06/11,1397,1420,1362,1363,823600,1363
2013/06/12,1335,1374,1320,1364,611700,1364
2013/06/13,1330,1330,1277,1281,506100,1281
2013/06/14,1338,1345,1281,1281,641300,1281
2013/06/17,1281,1338,1265,1338,607800,1338
2013/06/18,1354,1386,1342,1354,384000,1354
2013/06/19,1375,1392,1338,1355,405300,1355
2013/06/20,1347,1362,1334,1346,547900,1346
2013/06/21,1294,1334,1270,1325,938100,1325
2013/06/24,1344,1346,1311,1316,434500,1316
2013/06/25,1311,1345,1286,1304,572900,1304
2013/06/26,1323,1340,1297,1301,298300,1301
2013/06/27,1325,1369,1307,1369,730400,1369
2013/06/28,1395,1447,1392,1430,791300,1430
2013/07/01,1456,1460,1421,1451,512800,1451
2013/07/02,1464,1490,1441,1488,470300,1488
2013/07/03,1508,1525,1495,1507,429200,1507
2013/07/04,1502,1515,1480,1482,369800,1482
2013/07/05,1492,1512,1492,1512,259000,1512
2013/07/08,1535,1544,1495,1500,491200,1500
2013/07/09,1525,1527,1500,1517,386400,1517
2013/07/10,1511,1522,1491,1504,296800,1504
2013/07/11,1484,1505,1465,1497,377000,1497
2013/07/12,1497,1518,1497,1516,389400,1516
2013/07/16,1521,1536,1520,1536,410500,1536
2013/07/17,1536,1552,1536,1546,631800,1546
2013/07/18,1548,1554,1522,1544,389800,1544
2013/07/19,1548,1569,1525,1540,530600,1540
2013/07/22,1552,1560,1530,1547,200700,1547
2013/07/23,1538,1559,1525,1550,237900,1550
2013/07/24,1542,1550,1526,1543,266900,1543
2013/07/25,1543,1555,1531,1534,384100,1534
2013/07/26,1502,1505,1483,1491,452000,1491
2013/07/29,1452,1463,1419,1423,584200,1423
2013/07/30,1402,1458,1400,1448,409100,1448
2013/07/31,1449,1482,1417,1420,521000,1420
2013/08/01,1420,1445,1382,1440,711800,1440
2013/08/02,1441,1450,1423,1449,592900,1449
2013/08/05,1450,1467,1414,1423,603500,1423
2013/08/06,1429,1442,1415,1433,253700,1433
2013/08/07,1397,1399,1372,1372,460600,1372
2013/08/08,1361,1391,1352,1354,382500,1354
2013/08/09,1359,1369,1345,1352,256300,1352
2013/08/12,1337,1361,1323,1340,278200,1340
2013/08/13,1365,1386,1355,1385,221100,1385
2013/08/14,1393,1399,1369,1393,262700,1393
2013/08/15,1372,1387,1354,1379,461100,1379
2013/08/16,1352,1405,1350,1395,422600,1395
2013/08/19,1391,1406,1381,1396,245800,1396
2013/08/20,1373,1390,1351,1353,421700,1353
2013/08/21,1358,1371,1347,1362,256300,1362
2013/08/22,1351,1366,1334,1348,208900,1348
2013/08/23,1373,1401,1366,1388,251900,1388
2013/08/26,1392,1394,1350,1361,296600,1361
2013/08/27,1359,1374,1347,1351,230500,1351
2013/08/28,1321,1328,1310,1313,309100,1313
2013/08/29,1313,1323,1306,1318,227600,1318
2013/08/30,1319,1332,1292,1292,473600,1292
2013/09/02,1307,1307,1275,1292,184900,1292
2013/09/03,1304,1328,1289,1319,519200,1319
2013/09/04,1317,1322,1284,1318,512300,1318
2013/09/05,1331,1339,1311,1323,352900,1323
2013/09/06,1329,1343,1309,1311,289000,1311
2013/09/09,1341,1354,1338,1352,343500,1352
2013/09/10,1353,1372,1351,1365,371000,1365
2013/09/11,1373,1400,1364,1368,447000,1368
2013/09/12,1361,1376,1328,1332,408200,1332
2013/09/13,1333,1355,1317,1342,476800,1342
2013/09/17,1346,1356,1337,1339,336900,1339
2013/09/18,1336,1348,1329,1333,370500,1333
2013/09/19,1356,1375,1349,1373,374900,1373
2013/09/20,1380,1389,1376,1380,360000,1380
2013/09/24,1379,1387,1362,1379,340200,1379
2013/09/25,1388,1388,1363,1366,322700,1366
2013/09/26,1350,1361,1325,1358,456800,1358
2013/09/27,1359,1364,1344,1355,316800,1355
2013/09/30,1340,1340,1304,1313,443500,1313
2013/10/01,1316,1324,1300,1307,433800,1307
2013/10/02,1308,1313,1290,1299,465900,1299
2013/10/03,1295,1309,1290,1298,378800,1298
2013/10/04,1285,1297,1274,1290,340100,1290
2013/10/07,1289,1289,1252,1255,347900,1255
2013/10/08,1247,1267,1220,1263,300100,1263
2013/10/09,1264,1295,1252,1294,403200,1294
2013/10/10,1294,1297,1275,1289,423000,1289
2013/10/11,1315,1325,1305,1318,482800,1318
2013/10/15,1325,1332,1307,1312,256300,1312
2013/10/16,1306,1315,1300,1306,150200,1306
2013/10/17,1332,1332,1300,1311,281700,1311
2013/10/18,1323,1324,1306,1311,212600,1311
2013/10/21,1311,1324,1310,1321,195200,1321
2013/10/22,1321,1340,1319,1339,333800,1339
2013/10/23,1350,1362,1324,1327,525100,1327
2013/10/24,1306,1358,1306,1354,657500,1354
2013/10/25,1353,1362,1334,1358,891600,1358
2013/10/28,1367,1367,1325,1347,526200,1347
2013/10/29,1335,1335,1313,1324,383300,1324
2013/10/30,1341,1349,1328,1345,256100,1345
2013/10/31,1345,1355,1308,1311,674400,1311
2013/11/01,1312,1324,1268,1270,567200,1270
2013/11/05,1280,1294,1224,1232,775000,1232
2013/11/06,1232,1267,1232,1250,535800,1250
2013/11/07,1253,1256,1221,1230,647700,1230
2013/11/08,1220,1264,1220,1250,615800,1250
2013/11/11,1270,1273,1240,1249,314700,1249
2013/11/12,1248,1270,1248,1262,322500,1262
2013/11/13,1259,1262,1245,1251,315700,1251
2013/11/14,1258,1275,1253,1254,599200,1254
2013/11/15,1277,1292,1276,1288,766000,1288
2013/11/18,1301,1306,1280,1285,456400,1285
2013/11/19,1288,1306,1286,1301,623100,1301
2013/11/20,1312,1323,1289,1297,483700,1297
2013/11/21,1297,1318,1297,1308,433300,1308
2013/11/22,1324,1329,1293,1302,522200,1302
2013/11/25,1313,1325,1312,1325,402900,1325
2013/11/26,1327,1352,1325,1342,864000,1342
2013/11/27,1339,1348,1324,1324,337100,1324
2013/11/28,1344,1429,1341,1423,1948500,1423
2013/11/29,1392,1457,1386,1410,1427800,1410
2013/12/02,1409,1423,1398,1403,458700,1403
2013/12/03,1401,1408,1382,1384,644000,1384
2013/12/04,1370,1374,1348,1355,427200,1355
2013/12/05,1350,1359,1322,1326,592200,1326
2013/12/06,1324,1338,1320,1331,254600,1331
2013/12/09,1360,1367,1321,1338,627800,1338
2013/12/10,1342,1342,1320,1326,477000,1326
2013/12/11,1322,1323,1303,1319,395200,1319
2013/12/12,1319,1328,1298,1308,545200,1308
2013/12/13,1306,1322,1295,1302,812700,1302
2013/12/16,1298,1303,1268,1270,533800,1270
2013/12/17,1276,1286,1269,1284,437900,1284
2013/12/18,1281,1296,1277,1292,390200,1292
2013/12/19,1300,1308,1284,1290,552900,1290
2013/12/20,1285,1297,1278,1288,386000,1288
2013/12/24,1294,1295,1265,1268,615500,1268
2013/12/25,1262,1270,1258,1270,589300,1270
2013/12/26,1270,1293,1270,1280,726000,1280
2013/12/27,1293,1305,1281,1299,741300,1299
2013/12/30,1313,1329,1310,1313,716900,1313
2014/01/06,1315,1321,1304,1311,692700,1311
2014/01/07,1310,1314,1281,1285,782300,1285
2014/01/08,1283,1289,1266,1285,999400,1285
2014/01/09,1286,1294,1275,1281,883100,1281
2014/01/10,1276,1281,1262,1279,847300,1279
2014/01/14,1263,1270,1252,1256,602200,1256
2014/01/15,1270,1275,1263,1270,600600,1270
2014/01/16,1284,1298,1279,1285,878700,1285
2014/01/17,1291,1304,1287,1299,853400,1299
2014/01/20,1294,1296,1271,1273,875000,1273
2014/01/21,1280,1281,1262,1264,1280000,1264
2014/01/22,1275,1284,1268,1279,1385400,1279
2014/01/23,1286,1288,1255,1255,936400,1255
2014/01/24,1249,1249,1227,1230,771000,1230
2014/01/27,1205,1214,1188,1188,854800,1188
2014/01/28,1196,1219,1191,1206,644400,1206
2014/01/29,1218,1242,1215,1241,605700,1241
2014/01/30,1212,1213,1190,1198,545600,1198
2014/01/31,1210,1218,1158,1181,1023400,1181
2014/02/03,1180,1213,1089,1097,2093200,1097
2014/02/04,1050,1067,1021,1028,1992900,1028
2014/02/05,1022,1053,1022,1035,1652000,1035
2014/02/06,1039,1040,1014,1026,1197500,1026
2014/02/07,1041,1048,1033,1048,571400,1048
2014/02/10,1069,1071,1047,1061,633200,1061
2014/02/12,1083,1093,1065,1071,594500,1071
2014/02/13,1080,1091,1069,1075,834700,1075
2014/02/14,1080,1086,1050,1060,768400,1060
2014/02/17,1062,1074,1044,1072,425600,1072
2014/02/18,1055,1084,1055,1078,582300,1078
2014/02/19,1083,1086,1067,1080,520100,1080
2014/02/20,1072,1073,1046,1054,543700,1054
2014/02/21,1070,1081,1060,1080,308300,1080
2014/02/24,1085,1106,1072,1088,630900,1088
2014/02/25,1086,1099,1075,1088,436400,1088
2014/02/26,1090,1101,1081,1083,504000,1083
2014/02/27,1074,1080,1061,1072,581700,1072
2014/02/28,1085,1099,1073,1080,559900,1080
2014/03/03,1063,1074,1037,1063,772500,1063
2014/03/04,1051,1073,1046,1064,1559400,1064
2014/03/05,1078,1092,1055,1058,869300,1058
2014/03/06,1059,1077,1051,1071,754300,1071
2014/03/07,1071,1078,1060,1070,872200,1070
2014/03/10,1061,1070,1046,1061,1195200,1061
2014/03/11,1062,1077,1056,1072,599800,1072
2014/03/12,1054,1062,1046,1054,736200,1054
2014/03/13,1051,1059,1040,1047,709000,1047
2014/03/14,1030,1031,1013,1019,923500,1019
2014/03/17,1019,1024,1005,1017,816100,1017
2014/03/18,1039,1048,1025,1025,677000,1025
2014/03/19,1025,1039,1013,1025,796900,1025
2014/03/20,1012,1029,1005,1005,1120100,1005
2014/03/24,1005,1030,1002,1005,527100,1005
2014/03/25,1000,1006,987,998,724900,998
2014/03/26,1001,1028,1000,1024,787800,1024
2014/03/27,1017,1027,996,1022,897500,1022
2014/03/28,1021,1034,1003,1030,746600,1030
2014/03/31,1036,1044,1026,1043,804300,1043
2014/04/01,1042,1043,1026,1040,629900,1040
2014/04/02,1034,1069,1034,1049,716800,1049
2014/04/03,1055,1063,1047,1049,380600,1049
2014/04/04,1042,1056,1041,1052,545900,1052
2014/04/07,1038,1049,1031,1042,507600,1042
2014/04/08,1032,1045,1031,1034,315500,1034
2014/04/09,1020,1024,1007,1024,863400,1024
2014/04/10,1025,1030,1007,1013,903200,1013
2014/04/11,999,1004,988,998,797800,998
2014/04/14,995,1021,995,1016,419700,1016
2014/04/15,1017,1036,1017,1024,722200,1024
2014/04/16,1043,1066,1040,1053,815700,1053
2014/04/17,1053,1067,1043,1059,464800,1059
2014/04/18,1067,1073,1058,1069,370200,1069
2014/04/21,1073,1085,1067,1075,330000,1075
2014/04/22,1080,1082,1053,1054,514400,1054
2014/04/23,1057,1074,1054,1070,415900,1070
2014/04/24,1074,1081,1047,1058,593200,1058
2014/04/25,1075,1145,1055,1110,1586600,1110
2014/04/28,1106,1106,1067,1090,964200,1090
2014/04/30,1099,1104,1050,1055,856700,1055
2014/05/01,1051,1063,1042,1056,703100,1056
2014/05/02,1056,1063,1050,1055,359300,1055
2014/05/07,1050,1052,1027,1027,980400,1027
2014/05/08,1052,1070,1044,1053,582900,1053
2014/05/09,1050,1062,1037,1041,372600,1041
2014/05/12,1037,1047,1014,1024,1007900,1024
2014/05/13,1035,1049,1026,1044,400000,1044
2014/05/14,1044,1054,1040,1048,687100,1048
2014/05/15,1048,1081,1045,1080,888400,1080
2014/05/16,1052,1069,1034,1060,573600,1060
2014/05/19,1060,1074,1055,1072,392800,1072
2014/05/20,1077,1092,1064,1085,496300,1085
2014/05/21,1079,1081,1055,1075,522000,1075
2014/05/22,1078,1094,1070,1091,320500,1091
2014/05/23,1082,1104,1076,1099,634700,1099
2014/05/26,1112,1117,1096,1116,379800,1116
2014/05/27,1120,1134,1119,1127,407200,1127
2014/05/28,1133,1149,1128,1140,612100,1140
2014/05/29,1138,1172,1130,1171,559300,1171
2014/05/30,1171,1178,1120,1132,4781000,1132
2014/06/02,1111,1141,1110,1118,937400,1118
2014/06/03,1121,1124,1093,1095,817800,1095
2014/06/04,1094,1108,1084,1096,796100,1096
2014/06/05,1081,1089,1073,1079,701700,1079
2014/06/06,1091,1094,1076,1082,482800,1082
2014/06/09,1077,1089,1077,1084,316700,1084
2014/06/10,1082,1090,1080,1082,427900,1082
2014/06/11,1080,1103,1080,1090,573400,1090
2014/06/12,1082,1095,1081,1087,442600,1087
2014/06/13,1082,1089,1076,1086,500200,1086
2014/06/16,1081,1089,1072,1084,500000,1084
2014/06/17,1084,1092,1075,1088,543500,1088
2014/06/18,1082,1086,1071,1081,707000,1081
2014/06/19,1087,1095,1080,1088,736300,1088
2014/06/20,1090,1109,1076,1076,1152400,1076
2014/06/23,1087,1096,1078,1079,779200,1079
2014/06/24,1077,1084,1051,1073,736500,1073
2014/06/25,1070,1079,1063,1063,423700,1063
2014/06/26,1069,1080,1066,1074,395900,1074
2014/06/27,1074,1076,1048,1058,535900,1058
2014/06/30,1055,1074,1051,1072,367200,1072
2014/07/01,1078,1088,1074,1082,455400,1082
2014/07/02,1089,1102,1085,1086,472400,1086
2014/07/03,1089,1102,1089,1100,563500,1100
2014/07/04,1108,1120,1103,1105,519300,1105
2014/07/07,1105,1116,1105,1111,392100,1111
2014/07/08,1111,1116,1103,1113,447500,1113
2014/07/09,1093,1095,1075,1082,898200,1082
2014/07/10,1083,1085,1076,1077,439600,1077
2014/07/11,1061,1075,1059,1072,418600,1072
2014/07/14,1074,1090,1063,1082,543600,1082
2014/07/15,1083,1091,1083,1086,277400,1086
2014/07/16,1088,1094,1079,1082,300900,1082
2014/07/17,1083,1087,1074,1080,460700,1080
2014/07/18,1062,1071,1061,1068,248100,1068
2014/07/22,1073,1073,1065,1070,256200,1070
2014/07/23,1075,1084,1066,1068,276300,1068
2014/07/24,1062,1072,1061,1067,253300,1067
2014/07/25,1067,1077,1062,1074,311600,1074
2014/07/28,1078,1084,1067,1078,450200,1078
2014/07/29,1087,1087,1076,1082,470900,1082
2014/07/30,1087,1098,1086,1094,433200,1094
2014/07/31,1099,1239,1097,1179,2177900,1179
2014/08/01,1183,1220,1180,1214,2015300,1214
2014/08/04,1205,1253,1200,1250,1355300,1250
2014/08/05,1251,1258,1241,1244,647100,1244
2014/08/06,1236,1244,1206,1215,716300,1215
2014/08/07,1216,1222,1138,1153,1664400,1153
2014/08/08,1138,1173,1138,1144,885200,1144
2014/08/11,1155,1170,1149,1159,418600,1159
2014/08/12,1159,1162,1147,1155,231400,1155
2014/08/13,1156,1166,1149,1159,331800,1159
2014/08/14,1160,1161,1140,1147,331300,1147
2014/08/15,1151,1162,1141,1155,420900,1155
2014/08/18,1155,1164,1148,1156,209800,1156
2014/08/19,1165,1186,1163,1179,406800,1179
2014/08/20,1185,1195,1177,1180,272000,1180
2014/08/21,1190,1210,1180,1185,549300,1185
2014/08/22,1187,1195,1157,1163,535100,1163
2014/08/25,1164,1169,1156,1164,215100,1164
2014/08/26,1167,1167,1151,1156,259000,1156
2014/08/27,1154,1159,1134,1146,479800,1146
2014/08/28,1142,1145,1135,1143,207600,1143
2014/08/29,1143,1148,1138,1138,173000,1138
2014/09/01,1150,1160,1148,1151,214000,1151
2014/09/02,1152,1172,1150,1159,407500,1159
2014/09/03,1166,1182,1166,1180,321400,1180
2014/09/04,1175,1185,1165,1174,234700,1174
2014/09/05,1187,1198,1182,1185,289700,1185
2014/09/08,1194,1198,1185,1191,219700,1191
2014/09/09,1200,1239,1199,1226,552400,1226
2014/09/10,1226,1239,1219,1233,483600,1233
2014/09/11,1222,1241,1210,1210,800800,1210
2014/09/12,1215,1234,1207,1220,681400,1220
2014/09/16,1220,1223,1195,1200,447900,1200
2014/09/17,1203,1219,1196,1218,797800,1218
2014/09/18,1214,1214,1189,1204,1674600,1204
2014/09/19,1203,1207,1187,1205,902500,1205
2014/09/22,1206,1210,1182,1185,404000,1185
2014/09/24,1183,1185,1164,1172,484100,1172
2014/09/25,1189,1191,1175,1181,351100,1181
2014/09/26,1172,1176,1154,1157,440200,1157
2014/09/29,1145,1157,1136,1143,611400,1143
2014/09/30,1138,1150,1128,1150,419000,1150
2014/10/01,1154,1155,1130,1130,574300,1130
2014/10/02,1121,1124,1099,1108,768400,1108
2014/10/03,1097,1118,1092,1097,482200,1097
2014/10/06,1106,1125,1085,1117,728600,1117
2014/10/07,1111,1115,1100,1104,633400,1104
2014/10/08,1086,1094,1081,1085,590900,1085
2014/10/09,1092,1107,1089,1102,548000,1102
2014/10/10,1081,1085,1069,1076,663700,1076
2014/10/14,1046,1067,1045,1062,489400,1062
2014/10/15,1062,1080,1056,1080,382100,1080
2014/10/16,1053,1068,1053,1060,382800,1060
2014/10/17,1060,1068,1046,1054,394900,1054
2014/10/20,1084,1099,1073,1091,320400,1091
2014/10/21,1090,1110,1073,1076,201700,1076
2014/10/22,1106,1140,1106,1133,608400,1133
2014/10/23,1121,1140,1121,1131,401600,1131
2014/10/24,1147,1156,1135,1141,389700,1141
2014/10/27,1147,1190,1138,1187,542800,1187
2014/10/28,1177,1210,1167,1208,377700,1208
2014/10/29,1206,1219,1201,1208,461200,1208
2014/10/30,1208,1243,1203,1211,722700,1211
2014/10/31,1217,1275,1183,1255,1341100,1255
2014/11/04,1283,1299,1275,1286,1027100,1286
2014/11/05,1276,1284,1260,1281,427200,1281
2014/11/06,1288,1293,1256,1258,404500,1258
2014/11/07,1270,1271,1253,1255,295400,1255
2014/11/10,1243,1292,1241,1287,479500,1287
2014/11/11,1290,1297,1283,1289,298400,1289
2014/11/12,1298,1303,1271,1272,483100,1272
2014/11/13,1275,1305,1271,1295,556500,1295
2014/11/14,1306,1311,1293,1306,349600,1306
2014/11/17,1305,1305,1257,1261,338600,1261
2014/11/18,1264,1284,1258,1279,389900,1279
2014/11/19,1293,1297,1271,1272,313900,1272
2014/11/20,1293,1344,1285,1337,902500,1337
2014/11/21,1338,1357,1328,1350,708600,1350
2014/11/25,1360,1420,1360,1412,1038200,1412
2014/11/26,1418,1434,1405,1430,632300,1430
2014/11/27,1442,1484,1441,1482,1082100,1482
2014/11/28,1488,1510,1455,1481,769700,1481
2014/12/01,1500,1524,1490,1520,960800,1520
2014/12/02,1530,1561,1527,1556,841600,1556
2014/12/03,1566,1588,1524,1554,1127000,1554
2014/12/04,1580,1589,1562,1573,752600,1573
2014/12/05,1577,1581,1551,1577,623500,1577
2014/12/08,1582,1584,1557,1565,495300,1565
2014/12/09,1542,1568,1515,1522,863900,1522
2014/12/10,1500,1509,1470,1490,904900,1490
2014/12/11,1450,1485,1441,1480,546300,1480
2014/12/12,1490,1537,1483,1506,745200,1506
2014/12/15,1506,1506,1446,1457,651700,1457
2014/12/16,1429,1467,1413,1415,695100,1415
2014/12/17,1400,1430,1391,1408,714500,1408
2014/12/18,1451,1465,1433,1446,676200,1446
2014/12/19,1497,1532,1478,1531,1378200,1531
2014/12/22,1537,1545,1509,1520,950000,1520
2014/12/24,1550,1623,1543,1620,1226900,1620
2014/12/25,1610,1631,1600,1610,512000,1610
2014/12/26,1618,1622,1591,1618,396600,1618
2014/12/29,1623,1628,1589,1607,483500,1607
2014/12/30,1602,1645,1588,1615,801200,1615
2015/01/05,1620,1650,1589,1640,614200,1640
2015/01/06,1595,1598,1562,1564,753900,1564
2015/01/07,1550,1608,1550,1569,669200,1569
2015/01/08,1598,1600,1562,1574,678300,1574
2015/01/09,1586,1590,1524,1537,618800,1537
2015/01/13,1513,1535,1495,1535,376400,1535
2015/01/14,1524,1527,1495,1499,329800,1499
2015/01/15,1506,1540,1506,1534,315100,1534
2015/01/16,1512,1530,1480,1505,559000,1505
2015/01/19,1510,1517,1489,1510,370400,1510
2015/01/20,1510,1565,1496,1553,387100,1553
2015/01/21,1550,1588,1542,1587,560200,1587
2015/01/22,1590,1599,1572,1592,568600,1592
2015/01/23,1600,1611,1589,1592,361700,1592
2015/01/26,1568,1588,1559,1586,247900,1586
2015/01/27,1598,1638,1592,1605,688400,1605
2015/01/28,1590,1614,1581,1603,530100,1603
2015/01/29,1593,1604,1565,1577,323700,1577
2015/01/30,1588,1593,1560,1566,488200,1566
2015/02/02,1558,1584,1550,1580,329700,1580
2015/02/03,1555,1583,1340,1395,1640900,1395
2015/02/04,1400,1415,1353,1386,1291000,1386
2015/02/05,1387,1427,1385,1412,739400,1412
2015/02/06,1425,1466,1425,1440,743100,1440
2015/02/09,1470,1478,1448,1462,734700,1462
2015/02/10,1463,1467,1422,1432,893600,1432
2015/02/12,1453,1482,1449,1476,480000,1476
2015/02/13,1486,1494,1441,1443,587000,1443
2015/02/16,1450,1476,1441,1454,354900,1454
2015/02/17,1454,1479,1441,1477,269900,1477
2015/02/18,1484,1490,1459,1474,402700,1474
2015/02/19,1474,1513,1472,1506,363900,1506
2015/02/20,1520,1548,1503,1541,649800,1541
2015/02/23,1541,1541,1505,1521,563500,1521
2015/02/24,1517,1529,1504,1523,485500,1523
2015/02/25,1505,1522,1495,1513,377000,1513
2015/02/26,1505,1529,1501,1527,355000,1527
2015/02/27,1530,1563,1510,1517,563000,1517
2015/03/02,1531,1583,1522,1574,805400,1574
2015/03/03,1570,1572,1528,1543,572000,1543
2015/03/04,1583,1627,1528,1546,1105700,1546
2015/03/05,1536,1543,1517,1524,487200,1524
2015/03/06,1516,1525,1503,1525,557400,1525
2015/03/09,1503,1519,1495,1512,397600,1512
2015/03/10,1522,1524,1501,1510,330900,1510
2015/03/11,1480,1515,1480,1500,483200,1500
2015/03/12,1495,1528,1487,1521,316400,1521
2015/03/13,1522,1535,1512,1528,479400,1528
2015/03/16,1531,1537,1522,1535,223300,1535
2015/03/17,1536,1540,1522,1530,234600,1530
2015/03/18,1530,1537,1516,1537,238400,1537
2015/03/19,1535,1543,1507,1517,421000,1517
2015/03/20,1522,1523,1494,1514,342900,1514
2015/03/23,1510,1555,1510,1553,347200,1553
2015/03/24,1520,1533,1507,1517,383900,1517
2015/03/25,1530,1565,1526,1555,612200,1555
2015/03/26,1526,1533,1491,1506,541000,1506
2015/03/27,1480,1500,1458,1469,403600,1469
2015/03/30,1469,1509,1461,1493,495900,1493
2015/03/31,1520,1520,1498,1504,423100,1504
2015/04/01,1490,1505,1458,1471,516900,1471
2015/04/02,1478,1517,1473,1503,367700,1503
2015/04/03,1514,1529,1505,1524,374000,1524
2015/04/06,1500,1523,1492,1513,228500,1513
2015/04/07,1529,1552,1517,1544,373400,1544
2015/04/08,1552,1559,1536,1547,354700,1547
2015/04/09,1555,1555,1531,1544,207800,1544
2015/04/10,1544,1553,1532,1545,287800,1545
2015/04/13,1532,1543,1513,1538,221600,1538
2015/04/14,1544,1567,1531,1560,253600,1560
2015/04/15,1560,1561,1532,1542,252000,1542
2015/04/16,1549,1570,1532,1567,442000,1567
2015/04/17,1552,1588,1551,1560,278500,1560
2015/04/20,1552,1561,1540,1546,153900,1546
2015/04/21,1550,1586,1550,1573,210600,1573
2015/04/22,1590,1633,1582,1604,536900,1604
2015/04/23,1613,1613,1582,1588,222500,1588
2015/04/24,1600,1629,1600,1618,534900,1618
2015/04/27,1612,1623,1600,1620,413500,1620
2015/04/28,1629,1805,1612,1766,1996100,1766
2015/04/30,1730,1786,1723,1779,1141400,1779
2015/05/01,1756,1760,1724,1758,580600,1758
2015/05/07,1780,1831,1753,1787,1205200,1787
2015/05/08,1778,1786,1749,1783,510900,1783
2015/05/11,1800,1836,1793,1806,549900,1806
2015/05/12,1806,1831,1774,1825,967200,1825
2015/05/13,1818,1818,1763,1801,1033200,1801
2015/05/14,1813,1845,1810,1830,955600,1830
2015/05/15,1849,1892,1832,1875,768700,1875
2015/05/18,1879,1904,1864,1887,544900,1887
2015/05/19,1887,1901,1876,1893,580100,1893
2015/05/20,1890,1923,1886,1910,720400,1910
2015/05/21,1888,1892,1832,1853,1114000,1853
2015/05/22,1870,1901,1862,1882,1096900,1882
2015/05/25,1875,1919,1875,1901,588600,1901
2015/05/26,1911,1943,1900,1932,695000,1932
2015/05/27,1945,1947,1933,1940,465400,1940
2015/05/28,1942,1959,1931,1947,531600,1947
2015/05/29,1947,1976,1932,1976,1068200,1976
2015/06/01,1973,1982,1955,1980,755900,1980
2015/06/02,1985,1986,1960,1965,574300,1965
2015/06/03,1951,1984,1945,1965,647700,1965
2015/06/04,1979,1991,1967,1989,461600,1989
2015/06/05,1987,2011,1985,2007,787100,2007
2015/06/08,2011,2014,1991,1996,535000,1996
2015/06/09,1993,1995,1950,1951,745700,1951
2015/06/10,1934,1962,1931,1936,512300,1936
2015/06/11,1998,2058,1991,2050,1538400,2050
2015/06/12,2051,2060,2027,2056,723400,2056
2015/06/15,2029,2046,2015,2043,446000,2043
2015/06/16,2043,2064,2036,2048,603300,2048
2015/06/17,2058,2070,2033,2048,404700,2048
2015/06/18,2051,2055,2012,2012,440400,2012
2015/06/19,2034,2085,2022,2057,919200,2057
2015/06/22,2059,2080,2051,2070,362600,2070
2015/06/23,2089,2114,2085,2097,468700,2097
2015/06/24,2108,2123,2076,2108,515600,2108
2015/06/25,2107,2127,2092,2102,340300,2102
2015/06/26,2129,2154,2112,2142,649300,2142
2015/06/29,2080,2099,2045,2053,589500,2053
2015/06/30,2039,2072,2031,2064,407700,2064
2015/07/01,2085,2107,2077,2079,439800,2079
