2012/12/14,945,957,937,943,1610000,943
2012/12/17,943,946,940,942,343500,942
2012/12/18,942,944,941,942,160200,942
2012/12/19,942,943,940,940,250800,940
2012/12/20,940,941,936,938,277500,938
2012/12/21,932,932,838,838,311000,838
2012/12/25,848,848,763,810,298000,810
2012/12/26,770,800,766,782,117600,782
2012/12/27,781,800,770,770,104900,770
2012/12/28,781,796,780,785,72300,785
2013/01/04,790,792,777,781,59800,781
2013/01/07,780,780,770,772,66500,772
2013/01/08,767,775,765,765,75800,765
2013/01/09,763,765,753,753,73500,753
2013/01/10,750,751,731,739,117800,739
2013/01/11,731,746,715,723,151200,723
2013/01/15,726,733,726,728,56500,728
2013/01/16,731,747,730,745,72900,745
2013/01/17,750,750,730,738,51000,738
2013/01/18,740,741,726,731,63300,731
2013/01/21,730,734,727,727,35100,727
2013/01/22,727,731,725,727,41600,727
2013/01/23,726,730,725,725,31200,725
2013/01/24,727,729,724,726,25600,726
2013/01/25,733,733,724,725,43100,725
2013/01/28,726,729,725,728,31400,728
2013/01/29,727,730,725,728,46600,728
2013/01/30,727,734,725,731,56400,731
2013/01/31,732,732,726,732,42700,732
2013/02/01,732,732,727,727,39700,727
2013/02/04,728,755,728,755,97600,755
2013/02/05,755,756,739,746,43400,746
2013/02/06,746,748,735,737,67800,737
2013/02/07,736,744,733,734,43200,734
2013/02/08,734,743,732,737,51100,737
2013/02/12,753,753,730,735,86100,735
2013/02/13,733,733,722,724,76900,724
2013/02/14,722,727,720,722,40800,722
2013/02/15,722,723,719,720,47000,720
2013/02/18,723,734,720,734,40400,734
2013/02/19,730,756,730,740,71600,740
2013/02/20,744,755,740,752,60000,752
2013/02/21,757,770,756,765,72100,765
2013/02/22,785,795,766,778,93300,778
2013/02/25,784,785,772,784,69200,784
2013/02/26,780,783,766,783,28700,783
2013/02/27,780,780,770,770,32200,770
2013/02/28,764,771,763,766,41000,766
2013/03/01,764,769,760,768,32700,768
2013/03/04,766,774,760,761,55900,761
2013/03/05,770,770,746,754,69500,754
2013/03/06,756,767,754,760,52600,760
2013/03/07,760,783,760,770,68200,770
2013/03/08,765,781,765,778,49000,778
2013/03/11,784,789,783,787,47500,787
2013/03/12,792,796,780,794,51000,794
2013/03/13,793,794,786,794,38900,794
2013/03/14,790,805,790,805,54700,805
2013/03/15,823,828,810,823,83700,823
2013/03/18,823,837,823,835,53900,835
2013/03/19,839,870,839,870,82800,870
2013/03/21,880,888,880,886,83600,886
2013/03/22,895,907,888,906,90700,906
2013/03/25,910,919,888,899,56900,899
2013/03/26,880,880,859,875,44400,875
2013/03/27,875,893,868,870,33600,870
2013/03/28,887,887,857,868,28600,868
2013/03/29,853,865,840,851,38900,851
2013/04/01,840,847,812,812,39200,812
2013/04/02,813,823,801,818,48400,818
2013/04/03,826,837,825,836,15000,836
2013/04/04,833,833,812,829,20900,829
2013/04/05,845,845,812,826,47100,826
2013/04/08,822,828,816,821,24100,821
2013/04/09,822,833,820,833,27500,833
2013/04/10,834,835,826,831,15500,831
2013/04/11,830,831,822,822,40700,822
2013/04/12,826,827,820,824,29300,824
2013/04/15,836,839,825,835,37100,835
2013/04/16,826,836,825,830,19800,830
2013/04/17,829,834,829,833,23100,833
2013/04/18,834,837,830,835,21500,835
2013/04/19,839,844,829,834,47900,834
2013/04/22,838,838,830,834,38000,834
2013/04/23,832,834,830,832,28500,832
2013/04/24,832,835,829,832,46800,832
2013/04/25,835,838,831,836,34000,836
2013/04/26,833,836,826,827,40300,827
2013/04/30,828,832,824,824,39100,824
2013/05/01,824,833,824,830,19300,830
2013/05/02,833,839,828,835,69200,835
2013/05/07,847,854,842,847,64400,847
2013/05/08,852,865,851,860,67500,860
2013/05/09,1010,1010,952,974,655300,974
2013/05/10,1010,1010,995,1004,410800,1004
2013/05/13,1030,1031,1009,1019,264100,1019
2013/05/14,1020,1020,1000,1018,159200,1018
2013/05/15,1020,1020,1000,1008,152100,1008
2013/05/16,1003,1004,990,999,197100,999
2013/05/17,1001,1010,999,1002,107200,1002
2013/05/20,1010,1015,1005,1009,101000,1009
2013/05/21,1010,1010,1000,1000,90700,1000
2013/05/22,1001,1007,1000,1003,70700,1003
2013/05/23,1002,1002,991,992,187000,992
2013/05/24,992,1002,992,1000,120700,1000
2013/05/27,999,1002,996,999,80900,999
2013/05/28,999,1003,998,999,52700,999
2013/05/29,1000,1001,999,999,51400,999
2013/05/30,999,1000,993,995,102900,995
2013/05/31,995,1000,995,999,60900,999
2013/06/03,1000,1001,996,996,74400,996
2013/06/04,996,998,994,996,68100,996
2013/06/05,1000,1000,997,998,40900,998
2013/06/06,998,998,994,997,54800,997
2013/06/07,988,999,975,997,157000,997
2013/06/10,999,1000,995,998,43600,998
2013/06/11,998,999,995,995,38700,995
2013/06/12,995,998,994,996,30100,996
2013/06/13,997,998,994,998,40400,998
2013/06/14,996,998,995,995,35600,995
2013/06/17,998,999,995,999,51400,999
2013/06/18,999,1000,998,999,21200,999
2013/06/19,999,1000,997,998,35800,998
2013/06/20,998,999,996,996,32300,996
2013/06/21,995,998,994,996,46600,996
2013/06/24,996,998,994,995,94300,995
2013/06/25,995,998,986,998,178400,998
2013/06/26,950,952,933,934,76900,934
2013/06/27,920,920,881,902,84200,902
2013/06/28,905,929,905,927,32600,927
2013/07/01,930,954,930,945,26400,945
2013/07/02,952,953,941,942,20600,942
2013/07/03,944,947,936,937,13500,937
2013/07/04,938,940,933,938,16300,938
2013/07/05,944,944,933,934,29800,934
2013/07/08,939,940,935,935,16800,935
2013/07/09,936,943,935,942,24300,942
2013/07/10,943,943,939,939,17700,939
2013/07/11,943,943,937,940,9800,940
2013/07/12,945,946,937,945,29200,945
2013/07/16,968,968,948,954,21500,954
2013/07/17,957,957,940,955,22300,955
2013/07/18,957,957,952,956,18400,956
2013/07/19,956,956,948,955,26500,955
2013/07/22,957,963,955,963,20600,963
2013/07/23,965,972,961,972,21400,972
2013/07/24,975,975,966,974,16100,974
2013/07/25,978,978,965,968,16600,968
2013/07/26,968,972,963,970,11900,970
2013/07/29,968,970,953,953,20800,953
2013/07/30,950,964,946,950,23200,950
2013/07/31,948,958,945,948,14100,948
2013/08/01,948,948,936,945,16000,945
2013/08/02,954,955,946,948,11800,948
2013/08/05,962,962,951,955,15100,955
2013/08/06,955,955,950,951,8400,951
2013/08/07,955,955,946,946,11200,946
2013/08/08,945,950,942,946,10900,946
2013/08/09,943,953,943,946,6400,946
2013/08/12,949,953,946,952,9500,952
2013/08/13,946,952,946,946,8100,946
2013/08/14,947,954,947,952,8100,952
2013/08/15,960,961,952,959,16600,959
2013/08/16,959,963,954,960,13300,960
2013/08/19,963,963,954,956,10500,956
2013/08/20,960,960,951,957,11400,957
2013/08/21,951,957,950,951,11100,951
2013/08/22,950,954,943,950,10900,950
2013/08/23,954,957,945,956,14000,956
2013/08/26,961,961,950,956,10300,956
2013/08/27,956,957,950,956,15300,956
2013/08/28,952,953,945,952,12300,952
2013/08/29,945,956,944,950,21900,950
2013/08/30,950,950,938,949,20200,949
2013/09/02,950,953,944,949,23200,949
2013/09/03,951,954,946,952,16200,952
2013/09/04,951,955,951,955,9300,955
2013/09/05,961,961,956,957,14600,957
2013/09/06,960,961,955,955,15100,955
2013/09/09,965,968,960,961,16900,961
2013/09/10,961,968,961,966,12600,966
2013/09/11,968,973,967,973,17300,973
2013/09/12,977,978,973,976,12700,976
2013/09/13,978,978,975,978,17100,978
2013/09/17,982,988,980,982,36900,982
2013/09/18,987,995,986,995,32600,995
2013/09/19,997,1003,994,999,54200,999
2013/09/20,1002,1002,993,1000,28100,1000
2013/09/24,1000,1001,996,996,23400,996
2013/09/25,1000,1000,995,995,25400,995
2013/09/26,994,1000,994,997,28600,997
2013/09/27,1000,1003,998,1002,24500,1002
2013/09/30,1001,1008,1000,1000,49100,1000
2013/10/01,1005,1011,1005,1008,43900,1008
2013/10/02,1010,1015,1001,1003,42300,1003
2013/10/03,1004,1014,1002,1004,25600,1004
2013/10/04,1002,1004,979,998,52800,998
2013/10/07,1005,1005,996,1001,25900,1001
2013/10/08,1004,1021,1001,1015,109700,1015
2013/10/09,1004,1015,1002,1006,20900,1006
2013/10/10,1009,1010,1004,1009,16100,1009
2013/10/11,1010,1014,1002,1008,43200,1008
2013/10/15,1012,1012,1006,1007,28200,1007
2013/10/16,1007,1011,1005,1010,19600,1010
2013/10/17,1007,1017,1007,1014,32100,1014
2013/10/18,1018,1027,1014,1024,46100,1024
2013/10/21,1034,1065,1034,1058,123200,1058
2013/10/22,1066,1093,1066,1075,75600,1075
2013/10/23,1075,1077,1055,1058,53200,1058
2013/10/24,1055,1074,1055,1072,46100,1072
2013/10/25,1076,1076,1065,1069,23400,1069
2013/10/28,1090,1091,1081,1088,54100,1088
2013/10/29,1086,1086,1078,1078,33400,1078
2013/10/30,1091,1091,1078,1085,30200,1085
2013/10/31,1080,1089,1075,1083,36800,1083
2013/11/01,1080,1081,1064,1070,39600,1070
2013/11/05,1086,1086,1072,1084,35300,1084
2013/11/06,1080,1085,1076,1079,29700,1079
2013/11/07,1079,1084,1076,1080,26700,1080
2013/11/08,1380,1380,1380,1380,143100,1380
2013/11/11,1350,1370,1311,1320,582900,1320
2013/11/12,1313,1323,1310,1320,237800,1320
2013/11/13,1321,1340,1321,1325,167600,1325
2013/11/14,1326,1333,1326,1332,94500,1332
2013/11/15,1332,1337,1329,1331,156500,1331
2013/11/18,1331,1332,1327,1330,114500,1330
2013/11/19,1330,1336,1329,1331,79100,1331
2013/11/20,1331,1332,1330,1331,54400,1331
2013/11/21,1331,1331,1328,1330,117200,1330
2013/11/22,1327,1329,1321,1329,105600,1329
2013/11/25,1325,1339,1324,1339,217100,1339
2013/11/26,1336,1336,1326,1332,62800,1332
2013/11/27,1330,1333,1329,1329,72300,1329
2013/11/28,1330,1334,1329,1332,74700,1332
2013/11/29,1330,1334,1330,1332,78400,1332
2013/12/02,1332,1345,1330,1338,247100,1338
2013/12/03,1325,1329,1299,1299,81500,1299
2013/12/04,1225,1280,1221,1257,75100,1257
2013/12/05,1280,1300,1274,1290,34500,1290
2013/12/06,1300,1315,1294,1314,28600,1314
2013/12/09,1240,1285,1198,1259,282000,1259
2013/12/10,1254,1254,1229,1233,75600,1233
2013/12/11,1233,1250,1230,1242,41100,1242
2013/12/12,1253,1258,1240,1248,54000,1248
2013/12/13,1258,1277,1255,1275,40400,1275
2013/12/16,1365,1365,1310,1321,89100,1321
2013/12/17,1330,1334,1323,1330,45000,1330
2013/12/18,1330,1337,1328,1335,49800,1335
2013/12/19,1335,1338,1333,1334,41200,1334
2013/12/20,1334,1344,1334,1338,94400,1338
2013/12/24,1334,1338,1333,1335,93200,1335
2013/12/25,1336,1350,1335,1350,102300,1350
2013/12/26,1280,1310,1274,1306,93000,1306
2013/12/27,1306,1310,1301,1308,26000,1308
2013/12/30,1310,1325,1310,1324,30100,1324
2014/01/06,1339,1341,1329,1340,56300,1340
2014/01/07,1340,1345,1335,1342,30600,1342
2014/01/08,1339,1340,1331,1337,16200,1337
2014/01/09,1334,1339,1331,1332,12600,1332
2014/01/10,1332,1334,1328,1328,12700,1328
2014/01/14,1335,1335,1326,1330,26300,1330
2014/01/15,1343,1344,1331,1332,16700,1332
2014/01/16,1335,1340,1332,1335,14400,1335
2014/01/17,1333,1338,1333,1335,8000,1335
2014/01/20,1337,1340,1336,1339,7500,1339
2014/01/21,1338,1339,1335,1335,16300,1335
2014/01/22,1335,1336,1330,1333,12500,1333
2014/01/23,1335,1337,1332,1332,7400,1332
2014/01/24,1330,1332,1328,1328,10500,1328
2014/01/27,1333,1333,1310,1310,17800,1310
2014/01/28,1313,1318,1311,1316,10900,1316
2014/01/29,1331,1335,1317,1332,14800,1332
2014/01/30,1330,1330,1317,1322,8700,1322
2014/01/31,1320,1326,1311,1317,9800,1317
2014/02/03,1317,1318,1310,1313,11700,1313
2014/02/04,1310,1310,1291,1300,32900,1300
2014/02/05,1315,1315,1301,1313,15200,1313
2014/02/06,1310,1312,1303,1305,8700,1305
2014/02/07,1305,1312,1305,1308,5100,1308
2014/02/10,1312,1323,1309,1323,16200,1323
2014/02/12,1330,1340,1330,1336,13000,1336
2014/02/13,1339,1342,1336,1338,6700,1338
2014/02/14,1338,1340,1315,1318,16500,1318
2014/02/17,1345,1345,1324,1334,11800,1334
2014/02/18,1344,1344,1327,1332,4800,1332
2014/02/19,1333,1334,1327,1330,5200,1330
2014/02/20,1330,1331,1316,1316,13000,1316
2014/02/21,1325,1326,1320,1323,6300,1323
2014/02/24,1329,1329,1324,1329,4400,1329
2014/02/25,1339,1339,1331,1332,8700,1332
2014/02/26,1392,1451,1390,1425,132500,1425
2014/02/27,1448,1495,1426,1468,59000,1468
2014/02/28,1468,1496,1441,1475,32200,1475
2014/03/03,1475,1499,1435,1498,39000,1498
2014/03/04,1495,1520,1479,1520,53100,1520
2014/03/05,1555,1630,1551,1605,100100,1605
2014/03/06,1620,1672,1610,1671,65800,1671
2014/03/07,1699,1847,1690,1725,115600,1725
2014/03/10,1695,1725,1602,1650,95700,1650
2014/03/11,1630,1650,1568,1620,73300,1620
2014/03/12,1591,1700,1590,1600,41300,1600
2014/03/13,1613,1638,1601,1625,16900,1625
2014/03/14,1598,1615,1571,1613,26200,1613
2014/03/17,1621,1621,1565,1569,31300,1569
2014/03/18,1597,1615,1572,1600,25600,1600
2014/03/19,1604,1663,1604,1622,25400,1622
2014/03/20,1620,1620,1574,1596,37500,1596
2014/03/24,1598,1615,1581,1590,16500,1590
2014/03/25,1638,1638,1595,1615,12300,1615
2014/03/26,1615,1625,1604,1624,23100,1624
2014/03/27,1630,1705,1620,1705,33700,1705
2014/03/28,1726,1760,1725,1760,38300,1760
2014/03/31,1788,1800,1764,1800,39000,1800
2014/04/01,1811,1839,1811,1826,21400,1826
2014/04/02,1850,1850,1820,1821,28400,1821
2014/04/03,1830,1830,1784,1786,32000,1786
2014/04/04,1780,1842,1764,1842,35200,1842
2014/04/07,1850,1875,1830,1874,35600,1874
2014/04/08,1889,1938,1855,1914,67800,1914
2014/04/09,1901,1971,1881,1961,124500,1961
2014/04/10,2000,2074,1997,2072,142800,2072
2014/04/11,2042,2150,1986,1986,169400,1986
2014/04/14,1980,2244,1976,2114,143300,2114
2014/04/15,2126,2194,2100,2185,118800,2185
2014/04/16,2193,2288,2193,2270,139800,2270
2014/04/17,2312,2489,2312,2425,183800,2425
2014/04/18,2448,2675,2240,2316,182500,2316
2014/04/21,2216,2220,2074,2101,144300,2101
2014/04/22,2060,2179,2060,2123,97300,2123
2014/04/23,2130,2215,2128,2140,74200,2140
2014/04/24,2189,2279,2107,2109,87700,2109
2014/04/25,2159,2194,2107,2142,106000,2142
2014/04/28,2159,2498,2112,2318,467600,2318
2014/04/30,2400,2625,2378,2426,378300,2426
2014/05/01,2390,2440,2299,2310,110900,2310
2014/05/02,2347,2529,2344,2487,165400,2487
2014/05/07,2450,2481,2306,2309,119500,2309
2014/05/08,2340,2357,2286,2309,103400,2309
2014/05/09,2270,2272,2180,2189,113200,2189
2014/05/12,2193,2241,2111,2112,67300,2112
2014/05/13,2120,2195,2118,2172,30500,2172
2014/05/14,2161,2169,2151,2168,20000,2168
2014/05/15,2170,2170,2130,2151,18200,2151
2014/05/16,2124,2128,2085,2103,38100,2103
2014/05/19,2119,2153,2058,2061,55700,2061
2014/05/20,2060,2080,2020,2053,31200,2053
2014/05/21,2053,2137,2021,2133,29000,2133
2014/05/22,2128,2152,2076,2141,29800,2141
2014/05/23,2128,2180,2115,2136,33800,2136
2014/05/26,2179,2179,2141,2163,18400,2163
2014/05/27,2170,2191,2167,2173,22700,2173
2014/05/28,2180,2225,2175,2199,37600,2199
2014/05/29,2202,2220,2193,2215,19800,2215
2014/05/30,2230,2234,2203,2212,24000,2212
2014/06/02,2212,2224,2207,2213,29100,2213
2014/06/03,2213,2222,2211,2222,28500,2222
2014/06/04,2215,2229,2211,2228,26600,2228
2014/06/05,2241,2268,2210,2227,47700,2227
2014/06/06,2226,2256,2226,2255,25600,2255
2014/06/09,2259,2259,2233,2257,21400,2257
2014/06/10,2253,2257,2240,2255,19400,2255
2014/06/11,2255,2259,2239,2248,17100,2248
2014/06/12,2248,2261,2239,2251,17500,2251
2014/06/13,2251,2289,2243,2287,40300,2287
2014/06/16,2300,2300,2282,2289,22200,2289
2014/06/17,2300,2320,2290,2315,37100,2315
2014/06/18,2328,2342,2324,2326,25300,2326
2014/06/19,2328,2340,2321,2329,29000,2329
2014/06/20,2340,2340,2324,2328,22600,2328
2014/06/23,2330,2348,2329,2348,38800,2348
2014/06/24,2343,2355,2336,2343,59900,2343
2014/06/25,2343,2377,2320,2323,108500,2323
2014/06/26,2285,2300,2192,2271,128900,2271
2014/06/27,2236,2257,2090,2124,105000,2124
2014/06/30,2150,2178,2134,2162,48300,2162
2014/07/01,2175,2189,2158,2166,30200,2166
2014/07/02,2170,2185,2157,2157,28100,2157
2014/07/03,2156,2164,2145,2145,16900,2145
2014/07/04,2151,2152,2130,2132,19400,2132
2014/07/07,2142,2142,2129,2131,16600,2131
2014/07/08,2124,2124,2036,2043,104000,2043
2014/07/09,2040,2040,2013,2023,37300,2023
2014/07/10,2028,2028,2001,2001,29800,2001
2014/07/11,2001,2025,1990,1992,37000,1992
2014/07/14,2019,2019,1970,1989,44200,1989
2014/07/15,2019,2019,1979,1990,39700,1990
2014/07/16,1990,2017,1985,1989,26200,1989
2014/07/17,1990,2048,1990,2045,32300,2045
2014/07/18,2043,2047,2010,2034,17100,2034
2014/07/22,2036,2043,2004,2005,20600,2005
2014/07/23,2002,2019,2002,2012,11400,2012
2014/07/24,2020,2020,2001,2004,19000,2004
2014/07/25,2018,2018,2005,2014,17700,2014
2014/07/28,2020,2031,2001,2004,31400,2004
2014/07/29,2007,2049,2007,2042,40600,2042
2014/07/30,2042,2218,2041,2217,163600,2217
2014/07/31,2180,2180,2091,2105,120000,2105
2014/08/01,2076,2082,2025,2031,48600,2031
2014/08/04,2015,2061,2007,2013,42500,2013
2014/08/05,2047,2047,2006,2013,21600,2013
2014/08/06,2005,2011,1998,1998,36400,1998
2014/08/07,1999,2005,1957,1964,47000,1964
2014/08/08,1964,2006,1920,1941,46000,1941
2014/08/11,1986,1995,1958,1965,20300,1965
2014/08/12,1994,1994,1955,1960,18500,1960
2014/08/13,1965,1987,1950,1976,16800,1976
2014/08/14,1988,1988,1961,1982,14600,1982
2014/08/15,1998,2009,1984,1998,21600,1998
2014/08/18,2000,2015,1983,2008,15000,2008
2014/08/19,2019,2019,1998,1998,14000,1998
2014/08/20,2000,2013,1991,2000,13900,2000
2014/08/21,2000,2009,1995,2007,9400,2007
2014/08/22,2012,2014,2000,2003,10200,2003
2014/08/25,2015,2015,2002,2007,19500,2007
2014/08/26,2007,2015,2003,2003,12700,2003
2014/08/27,2017,2017,2005,2011,13600,2011
2014/08/28,2011,2020,2010,2016,18000,2016
2014/08/29,2017,2019,2011,2012,15400,2012
2014/09/01,2032,2052,2020,2052,42100,2052
2014/09/02,2090,2090,2060,2085,26600,2085
2014/09/03,2095,2102,2074,2078,24900,2078
2014/09/04,2086,2100,2073,2096,23000,2096
2014/09/05,2110,2110,2089,2100,21900,2100
2014/09/08,2120,2178,2119,2150,48900,2150
2014/09/09,2155,2167,2145,2154,21800,2154
2014/09/10,2154,2157,2122,2133,23700,2133
2014/09/11,2150,2150,2111,2116,26900,2116
2014/09/12,2139,2139,2120,2120,19800,2120
2014/09/16,2125,2164,2125,2163,25400,2163
2014/09/17,2173,2177,2130,2157,19500,2157
2014/09/18,2157,2183,2143,2180,27300,2180
2014/09/19,2184,2301,2180,2245,116900,2245
2014/09/22,2244,2245,2223,2238,17400,2238
2014/09/24,2237,2280,2229,2278,27500,2278
2014/09/25,2289,2310,2285,2305,34700,2305
2014/09/26,2330,2367,2330,2336,40500,2336
2014/09/29,2379,2379,2342,2359,30300,2359
2014/09/30,2360,2390,2344,2349,27900,2349
2014/10/01,2385,2385,2331,2331,23700,2331
2014/10/02,2300,2330,2235,2239,51700,2239
2014/10/03,2233,2316,2233,2304,25400,2304
2014/10/06,2344,2359,2315,2340,14900,2340
2014/10/07,2350,2350,2321,2330,15600,2330
2014/10/08,2306,2311,2288,2300,15700,2300
2014/10/09,2300,2307,2225,2236,23200,2236
2014/10/10,2200,2215,2200,2208,19700,2208
2014/10/14,2159,2194,2158,2164,22200,2164
2014/10/15,2200,2247,2196,2246,19900,2246
2014/10/16,2205,2215,2171,2172,17000,2172
2014/10/17,2160,2190,2072,2125,58100,2125
2014/10/20,2173,2193,2171,2175,20000,2175
2014/10/21,2198,2198,2160,2160,11900,2160
2014/10/22,2194,2200,2177,2195,10200,2195
2014/10/23,2210,2211,2165,2173,11100,2173
2014/10/24,2183,2186,2165,2171,9400,2171
2014/10/27,2198,2203,2181,2199,7100,2199
2014/10/28,2204,2236,2202,2228,7000,2228
2014/10/29,2235,2260,2220,2221,18300,2221
2014/10/30,2218,2223,2100,2102,81900,2102
2014/10/31,2149,2190,2132,2176,29600,2176
2014/11/04,2229,2248,2190,2229,34300,2229
2014/11/05,2270,2270,2230,2241,21000,2241
2014/11/06,2241,2262,2224,2239,18400,2239
2014/11/07,2223,2263,2223,2261,24300,2261
2014/11/10,2261,2333,2261,2300,40500,2300
2014/11/11,2300,2329,2300,2307,16800,2307
2014/11/12,2307,2318,2301,2305,20300,2305
2014/11/13,2302,2302,2280,2294,17600,2294
2014/11/14,2294,2299,2280,2292,21800,2292
2014/11/17,2310,2310,2247,2255,29100,2255
2014/11/18,2265,2309,2265,2292,15700,2292
2014/11/19,2300,2322,2290,2320,18900,2320
2014/11/20,2323,2349,2310,2310,17200,2310
2014/11/21,2315,2340,2305,2335,13500,2335
2014/11/25,2359,2360,2345,2360,13800,2360
2014/11/26,2361,2376,2361,2371,20800,2371
2014/11/27,2368,2377,2351,2355,15400,2355
2014/11/28,2350,2370,2350,2369,10600,2369
2014/12/01,2375,2390,2371,2387,20700,2387
2014/12/02,2387,2387,2371,2371,15200,2371
2014/12/03,2375,2385,2370,2382,23000,2382
2014/12/04,2372,2383,2370,2378,15400,2378
2014/12/05,2384,2384,2370,2372,16500,2372
2014/12/08,2372,2374,2330,2346,39100,2346
2014/12/09,2316,2340,2316,2326,26200,2326
2014/12/10,2316,2316,2302,2310,19300,2310
2014/12/11,2300,2320,2300,2317,11100,2317
2014/12/12,2320,2368,2320,2348,27800,2348
2014/12/15,2346,2375,2340,2359,20400,2359
2014/12/16,2359,2359,2326,2333,19200,2333
2014/12/17,2356,2359,2332,2354,11400,2354
2014/12/18,2352,2362,2350,2356,15900,2356
2014/12/19,2360,2366,2330,2350,25800,2350
2014/12/22,2350,2355,2340,2349,24000,2349
2014/12/24,2349,2354,2343,2347,35500,2347
2014/12/25,2331,2331,2281,2297,95200,2297
2014/12/26,2218,2260,2202,2230,73000,2230
2014/12/29,2217,2219,2187,2197,31300,2197
2014/12/30,2195,2220,2195,2220,15900,2220
2015/01/05,2241,2241,2195,2197,19900,2197
2015/01/06,2186,2186,2150,2150,22000,2150
2015/01/07,2150,2150,2135,2140,13500,2140
2015/01/08,2140,2160,2135,2155,10900,2155
2015/01/09,2155,2172,2155,2170,11800,2170
2015/01/13,2175,2175,2156,2163,14800,2163
2015/01/14,2178,2178,2154,2154,9500,2154
2015/01/15,2172,2172,2157,2166,13200,2166
2015/01/16,2160,2161,2150,2158,14200,2158
2015/01/19,2161,2185,2161,2178,13500,2178
2015/01/20,2198,2218,2197,2215,12800,2215
2015/01/21,2210,2211,2190,2209,11100,2209
2015/01/22,2210,2218,2185,2201,6400,2201
2015/01/23,2192,2209,2187,2206,8100,2206
2015/01/26,2220,2221,2209,2213,6000,2213
2015/01/27,2209,2220,2200,2218,10400,2218
2015/01/28,2218,2225,2202,2225,10900,2225
2015/01/29,2224,2225,2218,2220,5800,2220
2015/01/30,2226,2230,2221,2230,6900,2230
2015/02/02,2230,2233,2218,2225,10500,2225
2015/02/03,2225,2229,2204,2204,9800,2204
2015/02/04,2207,2224,2205,2223,7100,2223
2015/02/05,2230,2238,2207,2232,15100,2232
2015/02/06,2235,2236,2219,2231,7200,2231
2015/02/09,2236,2246,2231,2245,8800,2245
2015/02/10,2247,2264,2242,2264,14300,2264
2015/02/12,2299,2327,2283,2297,42800,2297
2015/02/13,2300,2344,2300,2339,34300,2339
2015/02/16,2339,2339,2280,2326,30500,2326
2015/02/17,2310,2323,2305,2316,15000,2316
2015/02/18,2316,2329,2316,2325,14700,2325
2015/02/19,2326,2343,2326,2341,19500,2341
2015/02/20,2344,2367,2334,2350,29500,2350
2015/02/23,2350,2370,2345,2353,23900,2353
2015/02/24,2303,2332,2225,2314,62500,2314
2015/02/25,2346,2350,2310,2348,22400,2348
2015/02/26,2350,2360,2348,2355,12800,2355
2015/02/27,2355,2360,2333,2333,19200,2333
2015/03/02,2349,2358,2335,2349,10600,2349
2015/03/03,2345,2358,2343,2349,6500,2349
2015/03/04,2349,2350,2339,2349,8100,2349
2015/03/05,2350,2358,2344,2357,11600,2357
2015/03/06,2360,2378,2355,2371,19200,2371
2015/03/09,2371,2382,2369,2377,15800,2377
2015/03/10,2382,2449,2381,2429,40400,2429
2015/03/11,2418,2433,2381,2400,20600,2400
2015/03/12,2400,2470,2400,2444,24600,2444
2015/03/13,2493,2498,2450,2467,25900,2467
2015/03/16,2498,2543,2472,2528,32800,2528
2015/03/17,2530,2538,2495,2536,19400,2536
2015/03/18,2539,2581,2531,2563,24600,2563
2015/03/19,2563,2567,2550,2563,16400,2563
2015/03/20,2555,2594,2555,2594,28600,2594
2015/03/23,2587,2664,2587,2648,34900,2648
2015/03/24,2630,2645,2596,2618,18000,2618
2015/03/25,2618,2687,2618,2679,25200,2679
2015/03/26,2680,2689,2643,2657,26300,2657
2015/03/27,2607,2675,2607,2660,21100,2660
2015/03/30,2660,2749,2660,2744,36800,2744
2015/03/31,2747,2749,2719,2723,21100,2723
2015/04/01,2748,2797,2712,2796,39000,2796
2015/04/02,2816,2833,2785,2820,25000,2820
2015/04/03,2845,2950,2819,2950,34200,2950
2015/04/06,2950,3000,2893,3000,37800,3000
2015/04/07,3005,3045,2935,2945,53000,2945
2015/04/08,2975,3090,2965,3060,48500,3060
2015/04/09,3065,3150,3065,3145,36500,3145
2015/04/10,3180,3230,3160,3230,43600,3230
2015/04/13,3245,3305,2943,3035,101100,3035
2015/04/14,3015,3175,3005,3090,46500,3090
2015/04/15,3170,3170,3095,3140,20700,3140
2015/04/16,3140,3140,3015,3080,27300,3080
2015/04/17,3050,3050,3010,3035,19000,3035
2015/04/20,2972,3040,2960,3025,20500,3025
2015/04/21,3020,3020,2940,2972,30700,2972
2015/04/22,2970,3020,2970,2996,18500,2996
2015/04/23,3035,3035,2969,2971,21600,2971
2015/04/24,2969,2976,2937,2944,23300,2944
2015/04/27,2945,2988,2945,2958,18500,2958
2015/04/28,2987,3040,2966,2987,79400,2987
2015/04/30,2987,3020,2970,3000,26500,3000
2015/05/01,2990,3015,2970,3000,23000,3000
2015/05/07,3000,3030,2995,3005,23100,3005
2015/05/08,3000,3020,2984,3005,12400,3005
2015/05/11,3015,3030,2870,2975,42700,2975
2015/05/12,2951,2985,2908,2966,32200,2966
2015/05/13,2960,2963,2900,2957,29300,2957
2015/05/14,2936,2941,2914,2928,20000,2928
2015/05/15,2975,3015,2930,2998,50200,2998
2015/05/18,2998,3060,2998,3060,21800,3060
2015/05/19,3075,3135,3070,3125,24300,3125
2015/05/20,3140,3160,3095,3115,20400,3115
2015/05/21,3120,3135,3090,3095,25400,3095
2015/05/22,3080,3080,3050,3070,16800,3070
2015/05/25,3095,3130,3095,3120,18900,3120
2015/05/26,3120,3130,3100,3130,21400,3130
2015/05/27,3130,3140,3105,3105,20700,3105
2015/05/28,3120,3140,3120,3140,26200,3140
2015/05/29,3140,3145,3115,3115,17600,3115
2015/06/01,3110,3145,3110,3135,16400,3135
2015/06/02,3150,3165,3145,3160,18900,3160
2015/06/03,3150,3155,3120,3145,19200,3145
2015/06/04,3140,3150,3125,3135,21700,3135
2015/06/05,3140,3150,3130,3140,24000,3140
2015/06/08,3145,3165,3145,3165,16900,3165
2015/06/09,3170,3170,3150,3150,16600,3150
2015/06/10,3150,3150,3130,3130,29700,3130
2015/06/11,3130,3145,3125,3135,20900,3135
2015/06/12,3140,3155,3135,3150,29200,3150
2015/06/15,3155,3155,3140,3140,23000,3140
2015/06/16,3140,3140,3125,3125,17500,3125
2015/06/17,3130,3135,3125,3125,20500,3125
2015/06/18,3125,3145,3125,3135,23400,3135
2015/06/19,3135,3150,3130,3130,22900,3130
2015/06/22,3130,3145,3130,3145,21400,3145
2015/06/23,3150,3150,3130,3145,29000,3145
2015/06/24,3145,3150,3135,3145,21900,3145
2015/06/25,3135,3140,3105,3120,80400,3120
2015/06/26,3090,3095,3010,3070,77000,3070
2015/06/29,2998,3090,2980,3035,45600,3035
2015/06/30,2995,3110,2995,3110,40200,3110
2015/07/01,3105,3140,3090,3130,33500,3130
