2013/11/20,5100,5360,4100,4100,1052600,4100
2013/11/21,3750,4475,3515,3540,4601200,3540
2013/11/22,3610,3660,3230,3235,774500,3235
2013/11/25,3095,3150,2754,2826,540900,2826
2013/11/26,2870,3020,2775,2785,474800,2785
2013/11/27,2850,2940,2755,2755,212100,2755
2013/11/28,2805,2814,2667,2694,164500,2694
2013/11/29,2696,2737,2553,2573,130800,2573
2013/12/02,2573,2583,2500,2531,98000,2531
2013/12/03,2531,2645,2531,2585,114600,2585
2013/12/04,2585,2626,2480,2600,126900,2600
2013/12/05,2600,2600,2485,2500,52600,2500
2013/12/06,2500,2510,2291,2320,119800,2320
2013/12/09,2334,2335,2224,2255,70500,2255
2013/12/10,2261,2380,2175,2354,186500,2354
2013/12/11,2345,2345,2207,2223,70300,2223
2013/12/12,2151,2160,2110,2160,52900,2160
2013/12/13,2160,2170,2090,2090,43100,2090
2013/12/16,2091,2106,1913,1945,58900,1945
2013/12/17,1930,1977,1885,1909,50500,1909
2013/12/18,1909,2080,1900,2080,124700,2080
2013/12/19,2030,2050,1960,1962,64100,1962
2013/12/20,1985,1985,1866,1880,47900,1880
2013/12/24,1852,2140,1851,1941,249000,1941
2013/12/25,1906,1987,1901,1971,71300,1971
2013/12/26,2011,2095,1985,2068,101300,2068
2013/12/27,2039,2039,1980,2000,37600,2000
2013/12/30,2000,2069,1986,2036,50400,2036
2014/01/06,2067,2090,2012,2026,38600,2026
2014/01/07,2026,2027,1966,1970,26400,1970
2014/01/08,1972,2150,1961,2120,114700,2120
2014/01/09,2170,2435,2130,2201,297900,2201
2014/01/10,2115,2134,2057,2066,78600,2066
2014/01/14,1806,1920,1788,1906,112900,1906
2014/01/15,1906,1949,1859,1889,33800,1889
2014/01/16,1894,1900,1855,1860,18400,1860
2014/01/17,1864,1878,1851,1866,13700,1866
2014/01/20,1871,1877,1852,1859,11500,1859
2014/01/21,1860,1879,1860,1870,13600,1870
2014/01/22,1907,1910,1887,1895,21700,1895
2014/01/23,1905,1908,1851,1879,12100,1879
2014/01/24,1851,1878,1821,1852,11200,1852
2014/01/27,1800,1800,1729,1729,50100,1729
2014/01/28,1710,1719,1671,1676,34700,1676
2014/01/29,1676,1740,1673,1677,16200,1677
2014/01/30,1677,1737,1677,1691,10000,1691
2014/01/31,1698,1698,1610,1630,16400,1630
2014/02/03,1550,1577,1450,1450,30200,1450
2014/02/04,1300,1315,1240,1272,29900,1272
2014/02/05,1330,1339,1120,1215,28600,1215
2014/02/06,1275,1310,1210,1282,16300,1282
2014/02/07,1312,1320,1282,1282,12700,1282
2014/02/10,1285,1308,1283,1297,10700,1297
2014/02/12,1316,1346,1285,1294,16100,1294
2014/02/13,1280,1281,1223,1248,8000,1248
2014/02/14,1225,1264,1201,1207,8400,1207
2014/02/17,1237,1237,1161,1185,12900,1185
2014/02/18,1170,1189,1152,1179,8800,1179
2014/02/19,1193,1229,1164,1205,7200,1205
2014/02/20,1181,1200,1172,1172,3200,1172
2014/02/21,1166,1209,1166,1176,4700,1176
2014/02/24,1210,1244,1180,1188,21000,1188
2014/02/25,1191,1211,1189,1211,7000,1211
2014/02/26,1185,1203,1151,1164,13700,1164
2014/02/27,1170,1170,1137,1137,10100,1137
2014/02/28,1146,1175,1136,1140,5300,1140
2014/03/03,1133,1135,1085,1100,11700,1100
2014/03/04,1110,1129,1108,1123,4200,1123
2014/03/05,1122,1137,1109,1135,4700,1135
2014/03/06,1121,1135,1111,1118,5300,1118
2014/03/07,1134,1155,1132,1145,9300,1145
2014/03/10,1153,1158,1145,1156,5300,1156
2014/03/11,1155,1264,1140,1229,28800,1229
2014/03/12,1289,1290,1201,1207,32700,1207
2014/03/13,1210,1220,1150,1150,13500,1150
2014/03/14,1120,1145,1088,1088,13500,1088
2014/03/17,1086,1097,1031,1043,10700,1043
2014/03/18,1060,1074,1046,1050,3800,1050
2014/03/19,1080,1080,1041,1053,2200,1053
2014/03/20,1060,1063,1017,1017,6200,1017
2014/03/24,1008,1036,1001,1010,5600,1010
2014/03/25,1010,1018,987,1000,6500,1000
2014/03/26,997,1013,990,999,6600,999
2014/03/27,990,1016,982,999,4800,999
2014/03/28,1014,1081,1000,1042,11600,1042
2014/03/31,1050,1069,1040,1058,5900,1058
2014/04/01,1059,1060,1022,1038,3100,1038
2014/04/02,1038,1059,1033,1046,5100,1046
2014/04/03,1106,1243,1061,1118,38700,1118
2014/04/04,1133,1179,1103,1154,13800,1154
2014/04/07,1104,1123,1100,1106,4600,1106
2014/04/08,1100,1100,1050,1071,7500,1071
2014/04/09,1071,1085,1050,1083,2700,1083
2014/04/10,1113,1113,1053,1060,4400,1060
2014/04/11,1050,1060,1013,1030,12700,1030
2014/04/14,910,928,852,899,79800,899
2014/04/15,912,930,888,905,11800,905
2014/04/16,907,928,880,881,13800,881
2014/04/17,903,916,897,910,6000,910
2014/04/18,922,922,889,901,5400,901
2014/04/21,916,916,903,908,1800,908
2014/04/22,913,913,895,895,2200,895
2014/04/23,891,894,869,883,7800,883
2014/04/24,882,885,866,874,2300,874
2014/04/25,889,889,870,874,2600,874
2014/04/28,870,870,854,857,2700,857
2014/04/30,857,860,850,850,2700,850
2014/05/01,850,877,850,853,1500,853
2014/05/02,853,860,845,852,3000,852
2014/05/07,860,881,846,852,3500,852
2014/05/08,867,867,845,845,3500,845
2014/05/09,846,851,842,850,6000,850
2014/05/12,850,850,773,792,7900,792
2014/05/13,774,780,758,777,7200,777
2014/05/14,780,795,765,785,3500,785
2014/05/15,775,775,760,760,4500,760
2014/05/16,759,759,750,756,9900,756
2014/05/19,756,760,740,741,11100,741
2014/05/20,716,725,700,701,6700,701
2014/05/21,679,700,663,685,16300,685
2014/05/22,680,705,676,700,11300,700
2014/05/23,692,726,691,725,9500,725
2014/05/26,713,773,706,727,16000,727
2014/05/27,750,765,733,752,7500,752
2014/05/28,750,769,738,738,4600,738
2014/05/29,740,740,720,734,8500,734
2014/05/30,734,779,734,746,9600,746
2014/06/02,760,817,759,815,19300,815
2014/06/03,809,815,792,802,13300,802
2014/06/04,810,810,794,794,6300,794
2014/06/05,801,801,761,780,12700,780
2014/06/06,780,791,769,790,1100,790
2014/06/09,781,803,780,800,4500,800
2014/06/10,794,806,780,797,6100,797
2014/06/11,776,796,776,789,5100,789
2014/06/12,788,788,772,787,2800,787
2014/06/13,778,819,777,819,6200,819
2014/06/16,834,969,830,969,102900,969
2014/06/17,1080,1119,1034,1119,79400,1119
2014/06/18,1179,1179,990,1011,211500,1011
2014/06/19,988,1000,965,968,46400,968
2014/06/20,972,1010,972,975,23100,975
2014/06/23,966,974,935,959,23900,959
2014/06/24,941,957,931,957,14400,957
2014/06/25,946,952,933,939,8800,939
2014/06/26,942,977,940,941,23500,941
2014/06/27,942,942,881,885,16100,885
2014/06/30,890,940,890,902,12500,902
2014/07/01,914,954,903,945,12700,945
2014/07/02,941,978,927,940,13900,940
2014/07/03,947,963,930,933,5700,933
2014/07/04,936,949,904,921,7300,921
2014/07/07,918,929,903,910,8800,910
2014/07/08,910,922,907,915,4100,915
2014/07/09,903,927,901,903,6000,903
2014/07/10,905,919,903,908,6600,908
2014/07/11,908,920,905,909,5800,909
2014/07/14,879,889,840,860,35900,860
2014/07/15,854,855,837,844,10300,844
2014/07/16,855,855,834,835,5300,835
2014/07/17,835,840,832,832,3100,832
2014/07/18,831,836,828,834,3000,834
2014/07/22,838,849,838,839,4700,839
2014/07/23,847,847,835,840,4500,840
2014/07/24,836,849,836,849,6100,849
2014/07/25,838,849,838,847,2400,847
2014/07/28,836,854,836,854,6700,854
2014/07/29,844,861,843,855,4900,855
2014/07/30,856,860,850,852,4700,852
2014/07/31,861,864,861,861,3800,861
2014/08/01,851,860,842,853,4600,853
2014/08/04,848,849,843,843,2200,843
2014/08/05,872,872,850,850,4000,850
2014/08/06,865,865,842,845,1500,845
2014/08/07,845,856,844,844,1700,844
2014/08/08,844,853,829,835,5400,835
2014/08/11,835,849,835,836,1500,836
2014/08/12,837,840,837,840,1800,840
2014/08/13,845,845,831,831,800,831
2014/08/14,833,840,831,831,1300,831
2014/08/15,844,844,834,834,1300,834
2014/08/18,842,844,833,833,1500,833
2014/08/19,834,843,833,843,1400,843
2014/08/20,836,844,834,844,1400,844
2014/08/21,850,855,843,850,4600,850
2014/08/22,903,903,860,860,21800,860
2014/08/25,880,883,870,883,6100,883
2014/08/26,888,888,872,885,8400,885
2014/08/27,885,897,874,895,7800,895
2014/08/28,900,900,883,885,3300,885
2014/08/29,884,884,856,881,2800,881
2014/09/01,875,880,862,880,2800,880
2014/09/02,880,890,875,888,800,888
2014/09/03,890,895,888,894,3500,894
2014/09/04,895,895,894,895,3100,895
2014/09/05,895,895,878,895,2100,895
2014/09/08,895,900,890,900,4700,900
2014/09/09,895,902,890,902,2600,902
2014/09/10,905,918,891,896,6700,896
2014/09/11,900,925,885,885,9900,885
2014/09/12,881,897,881,893,3600,893
2014/09/16,893,893,883,891,2200,891
2014/09/17,891,894,880,882,3800,882
2014/09/18,890,890,878,887,1500,887
2014/09/19,878,886,864,883,5600,883
2014/09/22,895,896,884,896,2100,896
2014/09/24,896,896,880,896,1800,896
2014/09/25,896,896,880,881,1200,881
2014/09/26,879,883,871,882,1600,882
2014/09/29,887,892,865,875,4700,875
2014/09/30,871,879,870,877,1600,877
2014/10/01,877,877,859,859,6300,859
2014/10/02,855,855,850,854,2000,854
2014/10/03,840,852,840,845,2700,845
2014/10/06,859,859,845,852,700,852
2014/10/07,852,852,852,852,100,852
2014/10/08,862,862,829,831,6300,831
2014/10/09,831,835,825,825,3800,825
2014/10/10,823,830,813,828,3500,828
2014/10/14,796,802,796,799,2500,799
2014/10/15,799,799,795,795,1500,795
2014/10/16,781,794,776,777,3400,777
2014/10/17,776,778,770,770,1000,770
2014/10/20,790,790,790,790,100,790
2014/10/21,785,785,785,785,200,785
2014/10/22,784,798,783,798,1600,798
2014/10/23,802,802,785,785,1100,785
2014/10/24,787,787,784,784,500,784
2014/10/27,791,791,780,780,600,780
2014/10/28,787,787,781,781,200,781
2014/10/29,780,780,780,780,100,780
2014/10/30,778,790,760,790,4400,790
2014/10/31,770,770,770,770,1500,770
2014/11/04,771,773,756,757,5500,757
2014/11/05,756,777,756,777,400,777
2014/11/06,775,788,760,760,2400,760
2014/11/07,760,760,760,760,600,760
2014/11/10,759,759,759,759,400,759
2014/11/11,761,761,761,761,200,761
2014/11/12,764,765,764,765,500,765
2014/11/13,766,769,761,762,1900,762
2014/11/14,762,770,759,759,2500,759
2014/11/17,756,758,751,754,3600,754
2014/11/18,755,756,750,756,1400,756
2014/11/19,759,760,750,751,1700,751
2014/11/20,751,752,751,751,400,751
2014/11/21,751,754,750,750,2000,750
2014/11/25,765,765,756,761,2000,761
2014/11/26,755,765,750,752,2100,752
2014/11/27,764,764,750,760,3300,760
2014/11/28,760,763,754,760,1800,760
2014/12/01,753,769,753,755,4200,755
2014/12/02,754,760,750,750,3200,750
2014/12/03,750,752,749,752,4100,752
2014/12/04,749,760,745,746,7000,746
2014/12/05,746,746,740,741,3300,741
2014/12/08,749,749,741,745,1100,745
2014/12/09,745,750,741,747,900,747
2014/12/10,741,747,733,747,4300,747
2014/12/11,731,731,730,730,900,730
2014/12/12,730,730,726,726,1600,726
2014/12/15,726,730,721,721,4100,721
2014/12/16,721,721,716,716,3000,716
2014/12/17,705,718,705,713,6400,713
2014/12/18,703,705,700,703,8200,703
2014/12/19,702,711,700,704,7800,704
2014/12/22,702,703,698,701,5200,701
2014/12/24,676,693,670,670,12800,670
2014/12/25,663,668,646,646,17700,646
2014/12/26,646,664,646,649,3400,649
2014/12/29,650,688,650,670,9300,670
2014/12/30,670,675,666,672,2200,672
2015/01/05,677,704,677,692,7800,692
2015/01/06,682,710,682,697,1900,697
2015/01/07,695,710,695,704,3500,704
2015/01/08,707,708,701,706,2100,706
2015/01/09,703,710,703,710,1600,710
2015/01/13,695,695,679,690,5100,690
2015/01/14,690,690,676,688,2600,688
2015/01/15,675,680,670,670,2400,670
2015/01/16,667,670,665,669,1500,669
2015/01/19,680,680,670,673,600,673
2015/01/20,675,675,673,673,800,673
2015/01/21,671,671,670,670,500,670
2015/01/22,672,676,672,676,300,676
2015/01/23,669,669,665,665,1200,665
2015/01/26,665,665,664,664,200,664
2015/01/27,664,664,662,662,900,662
2015/01/28,663,671,661,661,2100,661
2015/01/29,663,663,660,660,800,660
2015/01/30,661,670,661,670,200,670
2015/02/02,670,670,650,660,3400,660
2015/02/03,660,660,660,660,100,660
2015/02/04,658,658,649,649,1700,649
2015/02/05,647,648,647,648,1700,648
2015/02/06,648,648,640,640,9300,640
2015/02/09,648,649,645,645,1600,645
2015/02/10,648,648,648,648,100,648
2015/02/12,651,652,651,652,600,652
2015/02/13,652,658,652,658,1500,658
2015/02/16,658,658,657,657,900,657
2015/02/17,660,685,660,685,7800,685
2015/02/18,687,688,672,684,3100,684
2015/02/19,674,682,672,677,1800,677
2015/02/20,673,687,673,687,1400,687
2015/02/23,679,689,673,676,2500,676
2015/02/24,690,690,673,678,5300,678
2015/02/25,697,697,688,688,1200,688
2015/02/26,682,690,680,680,1400,680
2015/02/27,689,690,678,687,1700,687
2015/03/02,688,700,682,700,3100,700
2015/03/03,699,700,683,683,2500,683
2015/03/04,693,700,686,686,2500,686
2015/03/05,696,696,683,683,1300,683
2015/03/06,685,691,684,691,1800,691
2015/03/09,701,701,699,699,2600,699
2015/03/10,700,713,690,710,2900,710
2015/03/11,710,737,695,718,2900,718
2015/03/12,714,737,714,737,2600,737
2015/03/13,737,739,728,728,2100,728
2015/03/16,740,740,735,737,500,737
2015/03/17,745,745,722,722,4300,722
2015/03/18,725,725,711,714,3700,714
2015/03/19,710,710,684,701,4600,701
2015/03/20,688,689,688,689,1000,689
2015/03/23,690,706,690,706,1600,706
2015/03/24,695,695,687,690,4900,690
2015/03/25,690,690,681,683,2800,683
2015/03/26,670,673,663,673,3300,673
2015/03/27,669,669,665,665,800,665
2015/03/30,691,691,670,670,1800,670
2015/03/31,670,670,670,670,500,670
2015/04/01,671,682,670,670,2400,670
2015/04/02,668,668,661,663,2600,663
2015/04/03,669,670,669,670,1500,670
2015/04/06,674,674,670,670,200,670
2015/04/07,670,682,669,682,1500,682
2015/04/08,682,684,680,680,2000,680
2015/04/09,673,715,673,693,4800,693
2015/04/10,703,714,701,714,4200,714
2015/04/13,689,693,670,679,11700,679
2015/04/14,683,684,677,684,2200,684
2015/04/15,674,675,670,674,3300,674
2015/04/16,671,684,670,672,2400,672
2015/04/17,668,685,668,685,2300,685
2015/04/20,672,685,666,685,2100,685
2015/04/21,683,684,683,684,400,684
2015/04/22,678,678,676,676,400,676
2015/04/23,676,680,672,680,900,680
2015/04/24,680,680,674,676,1000,676
2015/04/27,675,676,675,676,800,676
2015/04/28,673,676,673,673,700,673
2015/04/30,673,680,668,670,2000,670
2015/05/01,670,678,665,666,2000,666
2015/05/07,663,665,662,663,1100,663
2015/05/08,663,679,663,668,2600,668
2015/05/12,664,678,662,662,1000,662
2015/05/13,665,665,661,661,2100,661
2015/05/14,658,659,652,656,2500,656
2015/05/15,655,664,650,664,1200,664
2015/05/18,652,652,652,652,200,652
2015/05/19,652,658,652,658,400,658
2015/05/20,650,651,650,651,1000,651
2015/05/21,650,650,650,650,200,650
2015/05/22,650,651,650,650,2000,650
2015/05/25,650,660,650,660,1900,660
2015/05/26,659,659,655,655,900,655
2015/05/27,650,657,650,657,700,657
2015/05/28,651,652,651,652,700,652
2015/05/29,651,651,650,650,700,650
2015/06/01,650,651,650,650,2400,650
2015/06/02,650,660,650,650,4700,650
2015/06/03,652,652,650,650,1400,650
2015/06/04,670,670,650,650,3600,650
2015/06/05,660,660,659,659,500,659
2015/06/08,658,658,657,657,400,657
2015/06/09,652,654,652,654,500,654
2015/06/10,653,657,651,651,1400,651
2015/06/11,651,652,651,651,500,651
2015/06/12,651,657,649,649,2900,649
2015/06/15,647,656,646,656,1700,656
2015/06/16,656,656,649,649,1400,649
2015/06/17,649,651,649,651,800,651
2015/06/18,651,653,651,651,1600,651
2015/06/19,649,653,648,648,400,648
2015/06/22,648,675,648,659,6600,659
2015/06/23,659,667,655,660,900,660
2015/06/24,656,665,655,665,3200,665
2015/06/25,655,656,653,653,4000,653
2015/06/26,651,655,649,655,3800,655
2015/06/29,651,652,648,649,2000,649
2015/06/30,649,649,646,648,4200,648
2015/07/01,646,649,646,649,200,649
