2011/01/04,71,72,71,71,183000,710
2011/01/05,72,72,69,70,741000,700
2011/01/06,71,74,71,74,742000,740
2011/01/07,73,73,72,73,198000,730
2011/01/11,73,75,72,75,2035000,750
2011/01/12,76,76,73,74,1426000,740
2011/01/13,74,75,72,73,561000,730
2011/01/14,73,75,73,75,597000,750
2011/01/17,74,75,73,74,231000,740
2011/01/18,74,75,73,74,229000,740
2011/01/19,75,77,75,77,1347000,770
2011/01/20,76,76,74,75,701000,750
2011/01/21,75,76,72,72,1095000,720
2011/01/24,73,74,72,74,391000,740
2011/01/25,74,74,73,74,314000,740
2011/01/26,73,74,73,73,227000,730
2011/01/27,74,75,73,73,405000,730
2011/01/28,74,74,73,74,227000,740
2011/01/31,72,73,71,72,249000,720
2011/02/01,72,72,71,72,280000,720
2011/02/02,72,74,72,73,356000,730
2011/02/03,74,74,72,74,265000,740
2011/02/04,74,74,73,73,262000,730
2011/02/07,74,75,73,75,328000,750
2011/02/08,75,75,74,74,208000,740
2011/02/09,74,74,72,74,448000,740
2011/02/10,73,74,73,73,171000,730
2011/02/14,74,75,70,73,1177000,730
2011/02/15,73,75,73,75,442000,750
2011/02/16,74,75,72,74,802000,740
2011/02/17,73,74,73,74,415000,740
2011/02/18,74,75,73,75,416000,750
2011/02/21,74,78,74,78,1637000,780
2011/02/22,77,77,75,75,914000,750
2011/02/23,74,76,74,75,459000,750
2011/02/24,74,74,71,72,1239000,720
2011/02/25,72,73,71,73,350000,730
2011/02/28,72,73,72,73,253000,730
2011/03/01,73,74,73,73,465000,730
2011/03/02,73,73,72,72,408000,720
2011/03/03,72,73,71,72,286000,720
2011/03/04,73,77,72,74,2800000,740
2011/03/07,74,76,73,75,1203000,750
2011/03/08,76,78,75,76,4293000,760
2011/03/09,77,77,74,74,682000,740
2011/03/10,74,74,72,73,778000,730
2011/03/11,71,72,71,71,755000,710
2011/03/14,56,64,54,58,2283000,580
2011/03/15,56,56,40,45,3635000,450
2011/03/16,45,52,45,51,2511000,510
2011/03/17,49,55,48,54,2554000,540
2011/03/18,58,58,56,58,1646000,580
2011/03/22,62,63,60,61,1516000,610
2011/03/23,63,64,61,62,983000,620
2011/03/24,62,64,61,62,1481000,620
2011/03/25,64,65,61,62,1255000,620
2011/03/28,62,63,59,61,810000,610
2011/03/29,60,61,59,61,486000,610
2011/03/30,61,65,60,64,1610000,640
2011/03/31,66,71,64,68,3957000,680
2011/04/01,67,67,65,66,665000,660
2011/04/04,67,67,64,65,720000,650
2011/04/05,66,66,62,63,846000,630
2011/04/06,63,63,61,62,424000,620
2011/04/07,62,63,61,62,178000,620
2011/04/08,61,64,61,63,266000,630
2011/04/11,62,64,62,63,617000,630
2011/04/12,63,63,61,61,645000,610
2011/04/13,61,62,60,61,475000,610
2011/04/14,61,64,61,63,650000,630
2011/04/15,63,64,63,63,273000,630
2011/04/18,64,64,63,64,233000,640
2011/04/19,64,64,61,62,473000,620
2011/04/20,63,63,62,63,141000,630
2011/04/21,63,64,62,63,176000,630
2011/04/22,62,64,62,64,191000,640
2011/04/25,64,64,62,62,198000,620
2011/04/26,63,64,62,63,141000,630
2011/04/27,63,64,62,63,160000,630
2011/04/28,63,63,62,63,225000,630
2011/05/02,63,64,62,63,339000,630
2011/05/06,63,63,62,62,224000,620
2011/05/09,63,63,62,62,51000,620
2011/05/10,63,66,63,65,804000,650
2011/05/11,65,65,63,64,548000,640
2011/05/12,64,65,63,64,280000,640
2011/05/13,64,64,62,63,465000,630
2011/05/16,63,63,62,62,286000,620
2011/05/17,62,63,61,62,190000,620
2011/05/18,62,63,61,61,450000,610
2011/05/19,62,62,60,60,223000,600
2011/05/20,61,62,61,61,112000,610
2011/05/23,61,61,59,60,365000,600
2011/05/24,59,60,59,60,145000,600
2011/05/25,60,60,58,58,143000,580
2011/05/26,58,59,58,59,169000,590
2011/05/27,59,60,58,59,160000,590
2011/05/30,59,60,58,59,112000,590
2011/05/31,60,60,59,60,65000,600
2011/06/01,60,61,59,61,438000,610
2011/06/02,60,61,59,60,202000,600
2011/06/03,60,60,59,59,105000,590
2011/06/06,59,60,59,60,285000,600
2011/06/07,59,60,59,59,146000,590
2011/06/08,59,60,59,59,86000,590
2011/06/09,59,61,59,60,301000,600
2011/06/10,61,62,60,60,678000,600
2011/06/13,60,62,60,61,333000,610
2011/06/14,61,62,61,62,198000,620
2011/06/15,62,63,61,61,117000,610
2011/06/16,61,62,61,61,81000,610
2011/06/17,62,62,60,60,234000,600
2011/06/20,60,61,60,60,43000,600
2011/06/21,61,61,60,60,40000,600
2011/06/22,61,62,61,62,159000,620
2011/06/23,61,62,60,61,261000,610
2011/06/24,61,62,60,62,81000,620
2011/06/27,62,62,61,61,106000,610
2011/06/28,62,62,61,61,186000,610
2011/06/29,61,62,61,61,185000,610
2011/06/30,61,62,61,62,122000,620
2011/07/01,62,62,61,61,149000,610
2011/07/04,62,63,61,63,274000,630
2011/07/05,63,63,61,61,98000,610
2011/07/06,61,63,61,62,288000,620
2011/07/07,62,63,61,63,129000,630
2011/07/08,63,64,63,63,824000,630
2011/07/11,64,64,62,63,337000,630
2011/07/12,62,62,61,61,233000,610
2011/07/13,61,63,61,63,319000,630
2011/07/14,63,63,61,63,339000,630
2011/07/15,62,62,61,62,104000,620
2011/07/19,62,62,61,62,84000,620
2011/07/20,62,64,62,63,346000,630
2011/07/21,63,63,62,63,193000,630
2011/07/22,62,63,62,63,90000,630
2011/07/25,62,62,62,62,175000,620
2011/07/26,62,63,62,63,141000,630
2011/07/27,63,63,61,61,141000,610
2011/07/28,61,61,60,60,484000,600
2011/07/29,60,61,60,60,199000,600
2011/08/01,60,62,60,61,427000,610
2011/08/02,61,61,60,60,75000,600
2011/08/03,61,61,60,61,570000,610
2011/08/04,61,61,60,60,246000,600
2011/08/05,58,59,57,58,532000,580
2011/08/08,58,58,55,56,438000,560
2011/08/09,54,56,52,56,726000,560
2011/08/10,57,59,57,58,283000,580
2011/08/11,56,58,56,58,122000,580
2011/08/12,58,59,57,57,176000,570
2011/08/15,58,59,58,58,107000,580
2011/08/16,59,59,58,58,92000,580
2011/08/17,57,58,57,57,232000,570
2011/08/18,57,59,57,57,189000,570
2011/08/19,56,57,56,56,124000,560
2011/08/22,56,57,55,56,115000,560
2011/08/23,56,57,56,57,78000,570
2011/08/24,57,57,55,55,199000,550
2011/08/25,56,57,55,55,177000,550
2011/08/26,55,56,55,56,57000,560
2011/08/29,56,57,56,57,68000,570
2011/08/30,57,57,55,55,943000,550
2011/08/31,55,56,54,55,899000,550
2011/09/01,56,56,55,56,139000,560
2011/09/02,55,56,55,55,63000,550
2011/09/05,55,56,54,54,190000,540
2011/09/06,54,54,53,54,172000,540
2011/09/07,54,55,54,55,500000,550
2011/09/08,55,55,55,55,159000,550
2011/09/09,55,55,54,55,227000,550
2011/09/12,54,54,53,54,154000,540
2011/09/13,54,54,53,54,101000,540
2011/09/14,55,55,53,53,72000,530
2011/09/15,53,54,52,53,189000,530
2011/09/16,53,54,53,54,168000,540
2011/09/20,54,55,53,53,64000,530
2011/09/21,53,54,53,53,99000,530
2011/09/22,52,52,49,51,960000,510
2011/09/26,51,51,49,49,202000,490
2011/09/27,50,51,49,50,260000,500
2011/09/28,51,52,50,52,203000,520
2011/09/29,51,52,50,52,207000,520
2011/09/30,52,53,51,51,303000,510
2011/10/03,51,52,51,51,100000,510
2011/10/04,51,51,49,49,762000,490
2011/10/05,50,50,48,48,300000,480
2011/10/06,49,50,49,50,96000,500
2011/10/07,50,51,50,50,111000,500
2011/10/11,51,52,50,51,159000,510
2011/10/12,51,51,50,51,54000,510
2011/10/13,51,53,51,52,361000,520
2011/10/14,52,53,52,52,103000,520
2011/10/17,53,53,52,53,63000,530
2011/10/18,52,53,51,52,88000,520
2011/10/19,52,53,51,52,82000,520
2011/10/20,52,52,50,50,233000,500
2011/10/21,51,52,51,52,145000,520
2011/10/24,52,52,51,52,68000,520
2011/10/25,52,52,51,51,71000,510
2011/10/26,51,52,50,52,98000,520
2011/10/27,52,52,51,52,135000,520
2011/10/28,53,53,52,53,201000,530
2011/10/31,53,53,52,52,166000,520
2011/11/01,52,52,51,52,145000,520
2011/11/02,51,52,51,51,88000,510
2011/11/04,51,52,51,52,119000,520
2011/11/07,52,52,51,52,91000,520
2011/11/08,52,53,51,51,220000,510
2011/11/09,51,52,51,52,106000,520
2011/11/10,51,51,50,51,253000,510
2011/11/11,51,52,50,52,128000,520
2011/11/14,51,52,51,51,51000,510
2011/11/15,51,52,51,52,69000,520
2011/11/16,52,52,51,51,83000,510
2011/11/17,51,52,50,52,121000,520
2011/11/18,51,52,51,52,151000,520
2011/11/21,52,52,51,52,57000,520
2011/11/22,51,52,51,52,106000,520
2011/11/24,51,52,50,52,106000,520
2011/11/25,51,52,51,51,116000,510
2011/11/28,51,52,51,51,61000,510
2011/11/29,52,52,51,52,220000,520
2011/11/30,52,52,51,52,179000,520
2011/12/01,53,54,53,54,595000,540
2011/12/02,54,57,54,57,2338000,570
2011/12/05,58,59,55,56,2059000,560
2011/12/06,56,56,54,54,556000,540
2011/12/07,55,55,54,55,811000,550
2011/12/08,56,56,54,55,729000,550
2011/12/09,55,55,54,55,360000,550
2011/12/12,55,57,55,56,612000,560
2011/12/13,55,57,55,57,797000,570
2011/12/14,57,63,57,58,16328000,580
2011/12/15,58,59,56,56,2219000,560
2011/12/16,57,58,56,57,1310000,570
2011/12/19,57,57,55,56,1091000,560
2011/12/20,56,59,56,58,2295000,580
2011/12/21,59,62,57,62,3118000,620
2011/12/22,61,64,59,59,2815000,590
2011/12/26,60,61,56,58,1791000,580
2011/12/27,58,58,56,57,854000,570
2011/12/28,56,56,53,54,1823000,540
2011/12/29,53,54,51,53,1486000,530
2011/12/30,54,54,52,54,232000,540
2012/01/04,53,54,53,54,445000,540
2012/01/05,54,55,53,54,539000,540
2012/01/06,55,55,53,54,526000,540
2012/01/10,54,55,53,55,312000,550
2012/01/11,55,55,53,54,508000,540
2012/01/12,54,54,52,53,570000,530
2012/01/13,53,54,53,53,306000,530
2012/01/16,53,54,52,53,420000,530
2012/01/17,54,54,53,53,296000,530
2012/01/18,54,57,54,55,1699000,550
2012/01/19,58,59,56,57,2116000,570
2012/01/20,57,58,56,57,721000,570
2012/01/23,57,58,56,58,724000,580
2012/01/24,57,58,56,57,607000,570
2012/01/25,57,59,57,58,825000,580
2012/01/26,58,60,57,57,2070000,570
2012/01/27,58,59,57,59,512000,590
2012/01/30,59,61,59,59,2626000,590
2012/01/31,59,59,57,58,1185000,580
2012/02/01,58,59,58,59,558000,590
2012/02/02,58,59,58,59,136000,590
2012/02/03,59,59,57,57,383000,570
2012/02/06,58,59,57,59,555000,590
2012/02/07,59,59,57,58,307000,580
2012/02/08,58,59,57,58,402000,580
2012/02/09,58,61,58,59,2881000,590
2012/02/10,60,61,58,60,1341000,600
2012/02/13,60,60,59,59,1048000,590
2012/02/14,60,61,59,61,787000,610
2012/02/15,61,62,59,59,1204000,590
2012/02/16,59,60,58,59,830000,590
2012/02/17,60,60,58,59,705000,590
2012/02/20,60,61,59,61,1917000,610
2012/02/21,61,61,59,60,1546000,600
2012/02/22,60,62,60,62,986000,620
2012/02/23,62,65,61,65,2922000,650
2012/02/24,65,67,63,64,3730000,640
2012/02/27,65,66,64,64,1564000,640
2012/02/28,63,64,62,63,1048000,630
2012/02/29,63,64,63,63,694000,630
2012/03/01,62,63,60,60,1562000,600
2012/03/02,61,62,61,62,278000,620
2012/03/05,61,62,61,61,277000,610
2012/03/06,61,62,60,60,315000,600
2012/03/07,60,61,60,61,653000,610
2012/03/08,61,62,61,61,234000,610
2012/03/09,62,62,61,62,381000,620
2012/03/12,62,63,61,62,517000,620
2012/03/13,62,62,61,61,639000,610
2012/03/14,62,63,61,61,540000,610
2012/03/15,62,62,61,61,198000,610
2012/03/16,62,62,61,61,212000,610
2012/03/19,62,64,61,64,1532000,640
2012/03/21,63,64,63,63,742000,630
2012/03/22,64,66,64,65,2225000,650
2012/03/23,64,64,62,63,1124000,630
2012/03/26,63,63,61,61,809000,610
2012/03/27,63,63,62,63,287000,630
2012/03/28,63,63,62,62,173000,620
2012/03/29,62,63,62,62,198000,620
2012/03/30,63,63,62,62,272000,620
2012/04/02,62,64,62,63,537000,630
2012/04/03,64,64,62,62,442000,620
2012/04/04,62,63,61,62,788000,620
2012/04/05,61,63,61,63,544000,630
2012/04/06,63,63,61,61,789000,610
2012/04/09,61,62,61,61,350000,610
2012/04/10,61,62,60,60,239000,600
2012/04/11,60,61,60,60,343000,600
2012/04/12,61,61,60,60,81000,600
2012/04/13,61,62,60,61,193000,610
2012/04/16,60,60,59,59,455000,590
2012/04/17,60,60,59,59,208000,590
2012/04/18,60,61,60,61,135000,610
2012/04/19,60,61,60,60,214000,600
2012/04/20,60,60,59,60,140000,600
2012/04/23,60,61,59,59,266000,590
2012/04/24,59,60,58,58,523000,580
2012/04/25,59,60,59,59,260000,590
2012/04/26,59,60,59,60,142000,600
2012/04/27,60,60,59,59,335000,590
2012/05/01,59,59,58,58,206000,580
2012/05/02,58,59,58,58,143000,580
2012/05/07,57,58,56,56,633000,560
2012/05/08,56,57,55,56,192000,560
2012/05/09,56,56,51,53,1300000,530
2012/05/10,52,54,51,54,559000,540
2012/05/11,53,54,52,52,486000,520
2012/05/14,52,53,51,53,366000,530
2012/05/15,51,52,50,51,610000,510
2012/05/16,51,52,50,50,243000,500
2012/05/17,51,53,51,53,275000,530
2012/05/18,51,53,51,52,541000,520
2012/05/21,52,53,52,53,288000,530
2012/05/22,53,53,52,52,129000,520
2012/05/23,53,53,52,52,273000,520
2012/05/24,52,53,51,52,153000,520
2012/05/25,52,53,52,52,79000,520
2012/05/28,52,53,51,52,266000,520
2012/05/29,51,52,51,52,207000,520
2012/05/30,52,52,51,52,154000,520
2012/05/31,51,52,50,51,324000,510
2012/06/01,51,51,50,51,419000,510
2012/06/04,49,50,49,49,178000,490
2012/06/05,50,51,49,51,231000,510
2012/06/06,51,52,50,52,337000,520
2012/06/07,52,53,51,53,636000,530
2012/06/08,52,52,51,51,333000,510
2012/06/11,52,53,51,52,274000,520
2012/06/12,51,52,51,52,149000,520
2012/06/13,52,52,51,52,305000,520
2012/06/14,51,52,51,52,222000,520
2012/06/15,51,52,51,51,195000,510
2012/06/18,52,53,52,52,321000,520
2012/06/19,52,52,51,51,203000,510
2012/06/20,52,52,51,52,226000,520
2012/06/21,52,54,52,53,380000,530
2012/06/22,52,54,52,53,455000,530
2012/06/25,54,55,53,54,625000,540
2012/06/26,54,54,53,53,368000,530
2012/06/27,54,54,53,54,145000,540
2012/06/28,54,55,54,54,258000,540
2012/06/29,54,56,54,56,364000,560
2012/07/02,57,57,55,55,248000,550
2012/07/03,55,56,55,55,312000,550
2012/07/04,56,56,55,56,186000,560
2012/07/05,56,56,55,55,193000,550
2012/07/06,55,56,55,55,218000,550
2012/07/09,55,56,55,55,74000,550
2012/07/10,55,56,54,55,279000,550
2012/07/11,55,55,54,54,60000,540
2012/07/12,54,55,53,54,130000,540
2012/07/13,54,54,53,53,94000,530
2012/07/17,54,54,53,53,163000,530
2012/07/18,53,54,52,52,220000,520
2012/07/19,52,53,52,53,113000,530
2012/07/20,52,53,51,51,222000,510
2012/07/23,51,52,51,51,177000,510
2012/07/24,51,51,49,49,790000,490
2012/07/25,50,50,49,49,332000,490
2012/07/26,50,51,49,51,159000,510
2012/07/27,51,52,50,50,290000,500
2012/07/30,52,52,51,52,107000,520
2012/07/31,51,52,51,52,46000,520
2012/08/01,52,52,50,51,169000,510
2012/08/02,52,52,50,50,134000,500
2012/08/03,50,51,50,50,183000,500
2012/08/06,51,52,51,52,56000,520
2012/08/07,52,52,51,52,79000,520
2012/08/08,53,54,53,53,411000,530
2012/08/09,53,54,52,53,410000,530
2012/08/10,53,54,52,54,194000,540
2012/08/13,53,54,52,53,290000,530
2012/08/14,54,54,53,54,89000,540
2012/08/15,54,54,52,52,253000,520
2012/08/16,53,54,53,54,65000,540
2012/08/17,53,54,52,53,189000,530
2012/08/20,53,54,53,53,153000,530
2012/08/21,53,54,52,54,141000,540
2012/08/22,53,54,53,54,77000,540
2012/08/23,53,53,52,52,212000,520
2012/08/24,52,53,51,53,178000,530
2012/08/27,52,52,52,52,94000,520
2012/08/28,52,53,51,51,158000,510
2012/08/29,51,52,51,51,136000,510
2012/08/30,51,52,51,51,217000,510
2012/08/31,51,52,51,51,162000,510
2012/09/03,51,52,51,51,161000,510
2012/09/04,51,51,50,51,114000,510
2012/09/05,51,52,50,52,231000,520
2012/09/06,52,52,50,51,67000,510
2012/09/07,51,52,50,51,216000,510
2012/09/10,51,52,51,51,187000,510
2012/09/11,51,52,50,50,95000,500
2012/09/12,51,52,51,51,112000,510
2012/09/13,51,52,51,51,125000,510
2012/09/14,52,52,51,51,182000,510
2012/09/18,51,52,51,51,211000,510
2012/09/19,52,52,51,52,303000,520
2012/09/20,51,52,51,51,117000,510
2012/09/21,51,52,51,51,269000,510
2012/09/24,51,52,50,52,124000,520
2012/09/25,51,53,51,53,531000,530
2012/09/26,52,52,51,52,369000,520
2012/09/27,52,53,52,52,128000,520
2012/09/28,53,53,51,52,304000,520
2012/10/01,52,54,52,54,317000,540
2012/10/02,53,54,53,53,194000,530
2012/10/03,53,54,53,53,186000,530
2012/10/04,53,54,53,53,222000,530
2012/10/05,53,54,53,53,81000,530
2012/10/09,53,53,53,53,42000,530
2012/10/10,53,54,53,53,240000,530
2012/10/11,53,54,53,53,372000,530
2012/10/12,53,54,53,53,67000,530
2012/10/15,53,53,53,53,86000,530
2012/10/16,53,54,53,53,56000,530
2012/10/17,54,54,53,53,158000,530
2012/10/18,54,55,54,55,337000,550
2012/10/19,55,55,54,55,100000,550
2012/10/22,54,55,54,55,406000,550
2012/10/23,54,55,54,54,693000,540
2012/10/24,54,56,53,55,240000,550
2012/10/25,55,56,55,56,247000,560
2012/10/26,55,56,54,56,247000,560
2012/10/29,55,55,53,53,638000,530
2012/10/30,53,55,53,54,231000,540
2012/10/31,54,55,54,54,146000,540
2012/11/01,55,55,54,55,82000,550
2012/11/02,55,55,54,55,66000,550
2012/11/05,54,55,54,54,98000,540
2012/11/06,54,55,54,55,136000,550
2012/11/07,54,55,53,55,187000,550
2012/11/08,54,56,54,54,950000,540
2012/11/09,54,55,54,54,102000,540
2012/11/12,55,55,54,54,72000,540
2012/11/13,54,54,54,54,351000,540
2012/11/14,54,54,53,53,107000,530
2012/11/15,54,55,53,55,111000,550
2012/11/16,54,55,54,55,89000,550
2012/11/19,55,56,55,56,292000,560
2012/11/20,56,56,55,55,210000,550
2012/11/21,56,57,56,57,698000,570
2012/11/22,57,57,56,57,92000,570
2012/11/26,57,58,57,57,570000,570
2012/11/27,58,59,57,59,966000,590
2012/11/28,59,59,58,58,543000,580
2012/11/29,58,59,57,59,490000,590
2012/11/30,59,59,58,58,221000,580
2012/12/03,58,59,58,58,232000,580
2012/12/04,58,59,58,58,377000,580
2012/12/05,58,59,57,58,236000,580
2012/12/06,58,59,58,59,182000,590
2012/12/07,58,62,58,61,2871000,610
2012/12/10,62,62,60,62,1018000,620
2012/12/11,63,66,63,64,5283000,640
2012/12/12,64,64,62,62,786000,620
2012/12/13,63,64,62,62,771000,620
2012/12/14,62,63,62,63,609000,630
2012/12/17,63,63,60,61,1026000,610
2012/12/18,61,62,61,61,441000,610
2012/12/19,63,63,62,62,473000,620
2012/12/20,63,63,62,62,331000,620
2012/12/21,62,64,62,62,734000,620
2012/12/25,63,64,62,64,2239000,640
2012/12/26,63,63,60,62,1758000,620
2012/12/27,62,63,61,62,1848000,620
2012/12/28,62,63,62,62,1275000,620
2013/01/04,63,64,62,63,1483000,630
2013/01/07,63,66,62,64,2057000,640
2013/01/08,66,66,64,64,565000,640
2013/01/09,64,65,63,65,1303000,650
2013/01/10,64,67,64,66,3150000,660
2013/01/11,67,68,66,66,1343000,660
2013/01/15,67,68,65,66,2127000,660
2013/01/16,67,67,64,64,1134000,640
2013/01/17,65,67,65,65,1696000,650
2013/01/18,66,66,65,65,278000,650
2013/01/21,66,67,65,67,1319000,670
2013/01/22,67,68,66,66,1703000,660
2013/01/23,66,68,65,66,2111000,660
2013/01/24,66,66,65,66,475000,660
2013/01/25,66,73,66,69,6604000,690
2013/01/28,71,71,68,69,1370000,690
2013/01/29,70,72,69,69,1986000,690
2013/01/30,69,72,68,72,1894000,720
2013/01/31,71,72,70,70,740000,700
2013/02/01,70,70,69,70,883000,700
2013/02/04,71,74,70,74,2734000,740
2013/02/05,74,75,72,73,1805000,730
2013/02/06,74,75,73,74,988000,740
2013/02/07,74,74,72,72,579000,720
2013/02/08,72,73,68,68,1771000,680
2013/02/12,70,71,69,69,811000,690
2013/02/13,70,70,64,65,1416000,650
2013/02/14,64,65,63,64,859000,640
2013/02/15,64,64,60,62,708000,620
2013/02/18,63,66,63,66,674000,660
2013/02/19,66,68,66,67,483000,670
2013/02/20,68,69,67,69,400000,690
2013/02/21,68,68,66,66,241000,660
2013/02/22,66,67,65,67,590000,670
2013/02/25,68,68,67,67,261000,670
2013/02/26,67,68,66,68,383000,680
2013/02/27,68,68,66,67,332000,670
2013/02/28,67,69,67,68,1077000,680
2013/03/01,69,69,68,68,426000,680
2013/03/04,69,71,69,70,754000,700
2013/03/05,70,70,68,70,800000,700
2013/03/06,70,70,68,69,602000,690
2013/03/07,70,70,68,69,891000,690
2013/03/08,69,70,68,70,654000,700
2013/03/11,70,78,70,74,4695000,740
2013/03/12,74,74,71,72,1632000,720
2013/03/13,72,72,70,70,768000,700
2013/03/14,70,72,70,70,887000,700
2013/03/15,71,73,70,72,1242000,720
2013/03/18,71,74,70,72,1579000,720
2013/03/19,73,74,72,73,850000,730
2013/03/21,74,74,72,72,851000,720
2013/03/22,72,73,71,71,588000,710
2013/03/25,72,72,70,70,907000,700
2013/03/26,70,70,69,70,519000,700
2013/03/27,70,70,68,69,749000,690
2013/03/28,70,70,67,68,1636000,680
2013/03/29,68,69,67,67,559000,670
2013/04/01,68,69,66,67,802000,670
2013/04/02,65,66,64,64,1140000,640
2013/04/03,66,67,66,66,342000,660
2013/04/04,66,70,66,70,1235000,700
2013/04/05,70,71,69,70,1153000,700
2013/04/08,69,70,68,69,1284000,690
2013/04/09,71,72,70,70,1023000,700
2013/04/10,71,72,70,71,650000,710
2013/04/11,72,72,71,71,1107000,710
2013/04/12,72,72,71,71,673000,710
2013/04/15,71,74,71,72,2440000,720
2013/04/16,71,72,70,71,1502000,710
2013/04/17,72,73,71,72,524000,720
2013/04/18,72,72,71,71,549000,710
2013/04/19,72,73,71,72,795000,720
2013/04/22,73,74,73,74,1400000,740
2013/04/23,75,79,74,78,3935000,780
2013/04/24,80,82,78,82,3796000,820
2013/04/25,84,86,80,82,3663000,820
2013/04/26,82,83,78,80,1515000,800
2013/04/30,80,82,79,80,1408000,800
2013/05/01,80,81,79,80,998000,800
2013/05/02,80,80,78,79,790000,790
2013/05/07,81,83,80,82,1520000,820
2013/05/08,83,84,82,84,1238000,840
2013/05/09,85,85,83,84,1557000,840
2013/05/10,83,83,79,79,2890000,790
2013/05/13,79,81,79,79,1469000,790
2013/05/14,80,81,79,79,770000,790
2013/05/15,80,81,76,77,2147000,770
2013/05/16,77,77,71,75,1946000,750
2013/05/17,74,77,74,76,887000,760
2013/05/20,78,78,77,77,696000,770
2013/05/21,78,79,77,79,1033000,790
2013/05/22,81,85,80,84,4878000,840
2013/05/23,85,87,78,78,3698000,780
2013/05/24,79,80,74,76,1746000,760
2013/05/27,74,74,72,72,1001000,720
2013/05/28,72,74,71,73,870000,730
2013/05/29,74,75,73,73,654000,730
2013/05/30,73,74,72,72,645000,720
2013/05/31,73,74,72,74,613000,740
2013/06/03,72,72,70,70,597000,700
2013/06/04,70,72,69,72,804000,720
2013/06/05,72,73,70,70,515000,700
2013/06/06,68,69,66,66,1173000,660
2013/06/07,65,65,61,63,1301000,630
2013/06/10,66,69,65,67,1092000,670
2013/06/11,69,69,66,67,431000,670
2013/06/12,64,68,64,67,389000,670
2013/06/13,67,67,65,66,403000,660
2013/06/14,67,68,66,66,509000,660
2013/06/17,66,68,66,67,291000,670
2013/06/18,68,68,67,67,250000,670
2013/06/19,68,69,68,68,309000,680
2013/06/20,69,69,67,67,137000,670
2013/06/21,67,67,66,67,249000,670
2013/06/24,67,68,66,66,226000,660
2013/06/25,66,67,66,67,158000,670
2013/06/26,67,67,65,66,292000,660
2013/06/27,67,67,64,66,209000,660
2013/06/28,66,68,66,68,436000,680
2013/07/01,68,71,68,70,566000,700
2013/07/02,70,71,69,70,410000,700
2013/07/03,70,71,69,70,167000,700
2013/07/04,70,71,69,70,237000,700
2013/07/05,70,73,70,72,650000,720
2013/07/08,73,74,72,72,433000,720
2013/07/09,72,73,72,72,176000,720
2013/07/10,71,72,69,70,651000,700
2013/07/11,70,71,69,71,140000,710
2013/07/12,71,71,70,70,231000,700
2013/07/16,71,71,70,70,133000,700
2013/07/17,70,71,69,71,229000,710
2013/07/18,70,71,69,70,455000,700
2013/07/19,70,71,69,69,209000,690
2013/07/22,70,70,69,70,201000,700
2013/07/23,70,70,69,69,281000,690
2013/07/24,70,70,69,69,82000,690
2013/07/25,69,70,69,69,158000,690
2013/07/26,69,69,67,67,458000,670
2013/07/29,67,67,66,66,306000,660
2013/07/30,66,68,66,67,218000,670
2013/07/31,67,69,66,67,397000,670
2013/08/01,66,68,65,67,373000,670
2013/08/02,67,68,67,67,256000,670
2013/08/05,67,68,67,67,118000,670
2013/08/06,68,69,67,69,140000,690
2013/08/07,68,68,67,67,97000,670
2013/08/08,67,68,67,67,113000,670
2013/08/09,67,68,66,67,136000,670
2013/08/12,67,68,66,66,341000,660
2013/08/13,67,68,66,67,181000,670
2013/08/14,68,68,66,68,194000,680
2013/08/15,67,68,66,68,139000,680
2013/08/16,67,68,67,67,69000,670
2013/08/19,67,68,67,67,40000,670
2013/08/20,67,68,67,67,73000,670
2013/08/21,67,68,66,66,190000,660
2013/08/22,66,68,66,68,114000,680
2013/08/23,68,68,67,67,296000,670
2013/08/26,68,68,67,67,224000,670
2013/08/27,67,68,66,66,281000,660
2013/08/28,66,66,65,66,503000,660
2013/08/29,65,66,65,65,459000,650
2013/08/30,66,66,64,64,330000,640
2013/09/02,64,65,64,64,241000,640
2013/09/03,65,67,65,67,559000,670
2013/09/04,66,67,66,66,473000,660
2013/09/05,67,67,65,66,500000,660
2013/09/06,66,67,66,67,370000,670
2013/09/09,68,68,67,67,682000,670
2013/09/10,67,69,67,68,884000,680
2013/09/11,68,69,68,69,559000,690
2013/09/12,68,69,68,68,882000,680
2013/09/13,68,69,68,69,812000,690
2013/09/17,70,73,70,72,1608000,720
2013/09/18,71,72,71,71,841000,710
2013/09/19,71,72,71,71,642000,710
2013/09/20,71,74,71,73,1089000,730
2013/09/24,74,75,72,73,1957000,730
2013/09/25,74,75,73,74,895000,740
2013/09/26,73,74,72,74,1427000,740
2013/09/27,75,76,74,74,2153000,740
2013/09/30,74,76,74,76,1359000,760
2013/10/01,76,94,76,81,42638000,810
2013/10/02,81,83,76,78,6877000,780
2013/10/03,77,77,75,75,2156000,750
2013/10/04,74,75,72,74,2976000,740
2013/10/07,73,74,72,72,1553000,720
2013/10/08,71,74,71,73,1247000,730
2013/10/09,73,75,73,75,1317000,750
2013/10/10,76,76,73,74,1471000,740
2013/10/11,75,76,74,75,1248000,750
2013/10/15,74,76,74,75,1110000,750
2013/10/16,75,76,73,75,1963000,750
2013/10/17,76,78,75,76,1888000,760
2013/10/18,76,78,76,77,1758000,770
2013/10/21,78,81,78,80,4361000,800
2013/10/22,81,82,79,79,3363000,790
2013/10/23,80,80,79,80,3261000,800
2013/10/24,79,80,78,80,2439000,800
2013/10/25,79,80,78,78,2242000,780
2013/10/28,79,80,78,80,1895000,800
2013/10/29,80,80,78,79,2035000,790
2013/10/30,79,80,79,80,1873000,800
2013/10/31,79,86,79,80,11284000,800
2013/11/01,80,80,79,79,4231000,790
2013/11/05,79,80,78,79,2532000,790
2013/11/06,79,82,79,80,3837000,800
2013/11/07,81,81,80,81,2233000,810
2013/11/08,80,80,78,78,2247000,780
2013/11/11,79,80,77,77,1925000,770
2013/11/12,78,79,77,79,1584000,790
2013/11/13,79,81,78,79,1929000,790
2013/11/14,80,81,79,80,1803000,800
2013/11/15,80,82,80,80,1147000,800
2013/11/18,81,82,80,81,1424000,810
2013/11/19,82,82,80,81,1070000,810
2013/11/20,81,83,81,83,3468000,830
2013/11/21,84,85,82,84,3986000,840
2013/11/22,84,84,82,82,1784000,820
2013/11/25,83,83,82,83,1892000,830
2013/11/26,82,82,81,81,1642000,810
2013/11/27,81,82,81,82,1627000,820
2013/11/28,82,82,80,81,2571000,810
2013/11/29,81,83,80,82,2473000,820
2013/12/02,82,83,81,82,3303000,820
2013/12/03,83,84,81,83,4276000,830
2013/12/04,83,84,82,82,3083000,820
2013/12/05,82,83,81,81,1412000,810
2013/12/06,81,82,81,81,1939000,810
2013/12/09,82,82,80,80,2581000,800
2013/12/10,81,82,81,82,1726000,820
2013/12/11,81,82,80,80,1668000,800
2013/12/12,81,81,80,80,1261000,800
2013/12/13,80,81,80,80,1941000,800
2013/12/16,80,81,78,78,2148000,780
2013/12/17,79,80,79,80,2982000,800
2013/12/18,80,81,79,80,3205000,800
2013/12/19,80,81,79,79,1838000,790
2013/12/20,80,80,79,80,2390000,800
2013/12/24,80,80,79,80,4297000,800
2013/12/25,80,81,79,80,3708000,800
2013/12/26,79,81,78,79,3224000,790
2013/12/27,80,80,79,79,1299000,790
2013/12/30,80,81,79,80,1676000,800
2014/01/06,80,81,79,81,2125000,810
2014/01/07,81,82,79,80,2388000,800
2014/01/08,80,81,80,81,2458000,810
2014/01/09,81,82,80,81,1642000,810
2014/01/10,82,85,82,84,5797000,840
2014/01/14,83,83,81,82,2800000,820
2014/01/15,83,84,82,83,2144000,830
2014/01/16,84,85,83,85,2571000,850
2014/01/17,85,86,84,86,3225000,860
2014/01/20,86,87,85,85,2690000,850
2014/01/21,86,86,84,84,2270000,840
2014/01/22,83,84,81,83,2715000,830
2014/01/23,83,84,81,83,2613000,830
2014/01/24,81,83,81,81,1766000,810
2014/01/27,81,81,79,80,2164000,800
2014/01/28,81,81,79,79,1322000,790
2014/01/29,80,81,80,81,1111000,810
2014/01/30,80,80,77,78,2299000,780
2014/01/31,79,80,76,77,1510000,770
2014/02/03,76,78,74,75,2486000,750
2014/02/04,72,73,70,70,2447000,700
2014/02/05,72,72,69,70,1974000,700
2014/02/06,71,73,71,72,1096000,720
2014/02/07,73,75,73,74,1073000,740
2014/02/10,75,76,74,74,512000,740
2014/02/12,76,76,74,75,844000,750
2014/02/13,75,75,73,73,731000,730
2014/02/14,73,75,72,72,710000,720
2014/02/17,73,73,71,71,890000,710
2014/02/18,72,74,72,73,882000,730
2014/02/19,74,74,73,74,752000,740
2014/02/20,73,74,72,72,647000,720
2014/02/21,73,74,72,73,578000,730
2014/02/24,74,75,73,74,662000,740
2014/02/25,74,75,74,74,811000,740
2014/02/26,74,74,74,74,628000,740
2014/02/27,75,75,72,72,782000,720
2014/02/28,72,73,72,72,612000,720
2014/03/03,73,73,71,73,623000,730
2014/03/04,72,73,72,73,609000,730
2014/03/05,73,74,73,73,893000,730
2014/03/06,73,75,72,75,974000,750
2014/03/07,75,76,74,75,1042000,750
2014/03/10,75,75,73,73,887000,730
2014/03/11,74,75,74,75,1115000,750
2014/03/12,75,75,74,75,585000,750
2014/03/13,74,75,74,74,565000,740
2014/03/14,73,73,70,70,1141000,700
2014/03/17,71,71,70,71,745000,710
2014/03/18,72,73,71,71,1346000,710
2014/03/19,71,72,70,71,836000,710
2014/03/20,72,72,68,68,1464000,680
2014/03/24,68,73,68,70,1197000,700
2014/03/25,71,72,70,71,599000,710
2014/03/26,72,72,71,72,501000,720
2014/03/27,72,72,70,70,614000,700
2014/03/28,71,72,70,72,819000,720
2014/03/31,72,73,71,71,821000,710
2014/04/01,72,73,72,73,799000,730
2014/04/02,72,75,72,73,1123000,730
2014/04/03,73,74,72,73,969000,730
2014/04/04,74,75,73,73,839000,730
2014/04/07,73,75,73,73,1368000,730
2014/04/08,73,73,71,71,830000,710
2014/04/09,74,74,71,72,856000,720
2014/04/10,72,73,70,71,830000,710
2014/04/11,69,71,69,70,674000,700
2014/04/14,70,70,69,69,554000,690
2014/04/15,70,71,70,70,555000,700
2014/04/16,70,71,69,71,679000,710
2014/04/17,71,71,70,71,341000,710
2014/04/18,71,71,70,71,477000,710
2014/04/21,70,71,70,71,534000,710
2014/04/22,70,71,70,70,331000,700
2014/04/23,70,71,70,70,416000,700
2014/04/24,70,70,69,70,407000,700
2014/04/25,70,71,70,71,648000,710
2014/04/28,70,71,69,70,704000,700
2014/04/30,70,71,70,70,476000,700
2014/05/01,69,71,69,71,503000,710
2014/05/02,70,71,70,71,686000,710
2014/05/07,70,71,70,70,692000,700
2014/05/08,71,71,70,70,898000,700
2014/05/09,70,72,70,70,636000,700
2014/05/12,70,71,69,69,1205000,690
2014/05/13,70,71,69,71,782000,710
2014/05/14,70,71,70,71,751000,710
2014/05/15,70,71,70,70,658000,700
2014/05/16,70,70,69,69,666000,690
2014/05/19,70,70,69,69,679000,690
2014/05/20,69,70,69,69,730000,690
2014/05/21,69,69,68,68,839000,680
2014/05/22,68,70,68,70,815000,700
2014/05/23,70,71,69,71,724000,710
2014/05/26,70,71,70,71,621000,710
2014/05/27,70,71,70,70,948000,700
2014/05/28,71,71,69,69,934000,690
2014/05/29,70,70,69,69,865000,690
2014/05/30,69,71,69,71,934000,710
2014/06/02,69,70,68,70,2212000,700
2014/06/03,70,72,70,71,1963000,710
2014/06/04,71,71,70,70,706000,700
2014/06/05,71,71,70,71,1157000,710
2014/06/06,70,72,70,71,1262000,710
2014/06/09,71,71,70,70,1337000,700
2014/06/10,71,71,70,71,629000,710
2014/06/11,71,71,70,70,613000,700
2014/06/12,71,73,70,73,1828000,730
2014/06/13,72,73,72,73,1204000,730
2014/06/16,72,74,71,72,1067000,720
2014/06/17,73,73,72,73,744000,730
2014/06/18,73,74,72,74,1116000,740
2014/06/19,72,74,71,73,2299000,730
2014/06/20,73,74,72,72,1164000,720
2014/06/23,73,74,72,73,706000,730
2014/06/24,73,73,72,73,895000,730
2014/06/25,73,74,73,73,970000,730
2014/06/26,73,73,72,73,663000,730
2014/06/27,73,73,72,73,1070000,730
2014/06/30,72,73,71,72,866000,720
2014/07/01,72,73,72,72,842000,720
2014/07/02,73,73,72,73,542000,730
2014/07/03,73,73,72,73,644000,730
2014/07/04,72,73,72,73,1558000,730
2014/07/07,73,75,73,75,1349000,750
2014/07/08,74,75,73,75,753000,750
2014/07/09,75,76,74,74,1146000,740
2014/07/10,75,76,73,73,1113000,730
2014/07/11,73,74,73,73,627000,730
2014/07/14,74,74,73,74,502000,740
2014/07/15,75,75,73,73,785000,730
2014/07/16,74,74,73,73,852000,730
2014/07/17,74,74,72,72,918000,720
2014/07/18,72,73,72,72,675000,720
2014/07/22,73,73,72,73,687000,730
2014/07/23,73,74,72,73,681000,730
2014/07/24,73,74,72,74,261000,740
2014/07/25,74,74,73,73,556000,730
2014/07/28,74,75,73,75,500000,750
2014/07/29,75,76,74,76,1028000,760
2014/07/30,76,76,75,75,549000,750
2014/07/31,75,76,74,74,761000,740
2014/08/01,73,74,72,73,939000,730
2014/08/04,72,73,72,72,972000,720
2014/08/05,72,73,72,73,612000,730
2014/08/06,72,72,71,71,499000,710
2014/08/07,71,72,71,72,596000,720
2014/08/08,71,72,70,71,1012000,710
2014/08/11,72,73,72,73,578000,730
2014/08/12,73,74,72,73,1012000,730
2014/08/13,74,76,74,75,3117000,750
2014/08/14,76,76,73,76,918000,760
2014/08/15,75,76,74,76,688000,760
2014/08/18,76,77,75,77,1050000,770
2014/08/19,76,77,76,76,894000,760
2014/08/20,77,77,76,76,1009000,760
2014/08/21,77,77,75,77,1140000,770
2014/08/22,77,77,75,75,525000,750
2014/08/25,76,77,75,76,855000,760
2014/08/26,77,77,76,77,384000,770
2014/08/27,76,77,76,77,822000,770
2014/08/28,77,77,76,77,620000,770
2014/08/29,77,79,76,79,1775000,790
2014/09/01,79,80,77,78,1218000,780
2014/09/02,78,79,77,78,871000,780
2014/09/03,78,79,77,77,978000,770
2014/09/04,78,79,77,77,767000,770
2014/09/05,78,78,77,77,1159000,770
2014/09/08,77,78,77,78,1189000,780
2014/09/09,77,78,77,78,1191000,780
2014/09/10,78,78,76,76,1712000,760
2014/09/11,77,79,76,79,1672000,790
2014/09/12,78,78,77,77,1380000,770
2014/09/16,77,78,76,77,1340000,770
2014/09/17,77,78,77,77,1083000,770
2014/09/18,77,79,77,78,1272000,780
2014/09/19,78,79,77,79,1280000,790
2014/09/22,79,79,78,78,917000,780
2014/09/24,78,79,77,78,1130000,780
2014/09/25,78,79,77,79,1151000,790
2014/09/26,78,79,77,78,1505000,780
2014/09/29,78,79,78,79,1309000,790
2014/09/30,78,79,77,78,1596000,780
2014/10/01,78,78,77,77,1265000,770
2014/10/02,77,78,75,75,2015000,750
2014/10/03,76,77,75,77,1574000,770
2014/10/06,77,77,76,77,1219000,770
2014/10/07,77,79,76,78,2177000,780
2014/10/08,77,78,76,78,1739000,780
2014/10/09,77,78,76,76,1371000,760
2014/10/10,76,76,73,75,1854000,750
2014/10/14,73,74,72,74,1542000,740
2014/10/15,73,74,72,73,1334000,730
2014/10/16,71,77,71,72,3736000,720
2014/10/17,72,73,72,72,1223000,720
2014/10/20,73,74,73,73,977000,730
2014/10/21,74,74,73,73,1078000,730
2014/10/22,74,75,73,75,1486000,750
2014/10/23,74,75,74,74,999000,740
2014/10/24,75,75,73,73,936000,730
2014/10/27,74,74,73,74,1144000,740
2014/10/28,74,74,72,74,1504000,740
2014/10/29,73,74,73,74,1156000,740
2014/10/30,74,74,73,74,1114000,740
2014/10/31,74,75,73,75,1192000,750
2014/11/04,76,77,75,77,2007000,770
2014/11/05,76,78,76,78,1879000,780
2014/11/06,78,78,77,77,2120000,770
2014/11/07,77,78,76,78,1279000,780
2014/11/10,77,78,76,78,1561000,780
2014/11/11,78,78,76,77,1216000,770
2014/11/12,77,78,76,77,1214000,770
2014/11/13,78,78,77,78,1077000,780
2014/11/14,78,78,77,78,861000,780
2014/11/17,77,78,77,77,1809000,770
2014/11/18,77,78,77,78,1198000,780
2014/11/19,78,79,77,78,1376000,780
2014/11/20,79,80,78,80,1488000,800
2014/11/21,79,80,79,79,1405000,790
2014/11/25,80,82,80,82,2171000,820
2014/11/26,82,82,80,81,1770000,810
2014/11/27,82,83,81,83,2047000,830
2014/11/28,82,83,81,81,1593000,810
2014/12/01,81,82,81,82,1400000,820
2014/12/02,81,83,81,82,1639000,820
2014/12/03,82,83,81,82,2177000,820
2014/12/04,82,82,80,81,2003000,810
2014/12/05,82,82,81,82,1564000,820
2014/12/08,82,83,81,82,2472000,820
2014/12/09,82,84,82,82,1451000,820
2014/12/10,82,82,80,81,2287000,810
2014/12/11,80,81,79,81,1663000,810
2014/12/12,80,81,80,80,1518000,800
2014/12/15,80,81,80,81,1194000,810
2014/12/16,80,80,77,78,1501000,780
2014/12/17,78,79,77,78,1221000,780
2014/12/18,79,80,78,78,1480000,780
2014/12/19,79,80,79,80,1237000,800
2014/12/22,80,81,80,81,883000,810
2014/12/24,80,81,79,80,1427000,800
2014/12/25,80,80,79,79,3042000,790
2014/12/26,78,78,77,78,649000,780
2014/12/29,78,79,77,79,1153000,790
2014/12/30,78,78,76,76,1035000,760
2015/01/05,77,78,76,77,482000,770
2015/01/06,76,77,76,76,618000,760
2015/01/07,76,77,75,75,626000,750
2015/01/08,76,77,75,76,1252000,760
2015/01/09,76,76,74,74,762000,740
2015/01/13,73,74,73,73,829000,730
2015/01/14,74,75,73,73,897000,730
2015/01/15,73,75,73,73,1004000,730
2015/01/16,73,74,72,73,727000,730
2015/01/19,74,74,73,74,210000,740
2015/01/20,74,74,73,74,535000,740
2015/01/21,74,75,74,75,638000,750
2015/01/22,76,77,75,76,1554000,760
2015/01/23,76,77,75,76,712000,760
2015/01/26,76,76,75,76,147000,760
2015/01/27,76,77,75,77,999000,770
2015/01/28,77,77,75,76,768000,760
2015/01/29,76,76,74,75,1212000,750
2015/01/30,75,76,75,76,761000,760
2015/02/02,75,75,74,74,601000,740
2015/02/03,74,75,73,73,929000,730
2015/02/04,74,75,73,74,1037000,740
2015/02/05,74,74,73,74,496000,740
2015/02/06,74,75,74,75,254000,750
2015/02/09,74,75,73,74,929000,740
2015/02/10,74,75,73,75,546000,750
2015/02/12,74,75,74,74,929000,740
2015/02/13,74,74,73,74,1306000,740
2015/02/16,73,74,73,73,1277000,730
2015/02/17,72,74,72,74,1463000,740
2015/02/18,73,75,73,75,1246000,750
2015/02/19,75,76,74,76,708000,760
2015/02/20,75,76,75,76,793000,760
2015/02/23,75,76,74,75,781000,750
2015/02/24,75,76,75,75,798000,750
2015/02/25,75,76,75,76,869000,760
2015/02/26,76,76,75,76,941000,760
2015/02/27,75,76,75,76,776000,760
2015/03/02,75,77,75,76,1279000,760
2015/03/03,76,77,76,76,965000,760
2015/03/04,76,78,76,78,1392000,780
2015/03/05,78,79,77,79,1556000,790
2015/03/06,78,79,76,77,1074000,770
2015/03/09,76,77,76,76,892000,760
2015/03/10,76,77,75,76,734000,760
2015/03/11,76,76,75,76,669000,760
2015/03/12,76,76,74,74,529000,740
2015/03/13,74,76,74,75,1181000,750
2015/03/16,75,75,74,75,754000,750
2015/03/17,75,76,74,75,810000,750
2015/03/18,74,75,74,75,757000,750
2015/03/19,75,76,74,75,1079000,750
2015/03/20,75,76,75,75,524000,750
2015/03/23,75,76,74,75,1169000,750
2015/03/24,74,75,74,74,895000,740
2015/03/25,74,75,74,75,615000,750
2015/03/26,74,75,73,74,949000,740
2015/03/27,74,75,73,73,797000,730
2015/03/30,73,75,73,74,1443000,740
2015/03/31,74,75,73,73,819000,730
2015/04/01,74,74,73,74,532000,740
2015/04/02,73,74,73,73,790000,730
2015/04/03,74,74,73,73,470000,730
2015/04/06,73,74,73,73,1307000,730
2015/04/07,74,75,74,74,1173000,740
2015/04/08,75,76,74,75,1543000,750
2015/04/09,76,76,75,76,727000,760
2015/04/10,76,76,74,74,1002000,740
2015/04/13,75,76,74,76,1424000,760
2015/04/14,75,76,75,75,865000,750
2015/04/15,75,77,75,76,1081000,760
2015/04/16,76,78,76,78,1784000,780
2015/04/17,77,78,75,76,1219000,760
2015/04/20,77,77,76,76,891000,760
2015/04/21,76,76,75,76,930000,760
2015/04/22,75,76,75,75,544000,750
2015/04/23,75,76,75,75,874000,750
2015/04/24,75,76,75,76,533000,760
2015/04/27,75,76,75,75,951000,750
2015/04/28,75,76,75,75,346000,750
2015/04/30,75,76,74,75,783000,750
2015/05/01,74,75,74,74,818000,740
2015/05/07,74,75,74,74,722000,740
2015/05/08,77,77,75,75,1476000,750
2015/05/11,76,76,74,74,1078000,740
2015/05/12,74,75,74,74,884000,740
2015/05/13,75,76,74,74,1404000,740
2015/05/14,74,75,74,74,1236000,740
2015/05/15,74,75,74,74,710000,740
2015/05/18,75,76,75,76,1899000,760
2015/05/19,76,76,75,76,894000,760
2015/05/20,76,77,75,77,1690000,770
2015/05/21,76,77,75,75,1109000,750
2015/05/22,76,76,75,75,1014000,750
2015/05/25,75,76,75,75,1106000,750
2015/05/26,75,76,75,76,988000,760
2015/05/27,76,77,75,77,1617000,770
2015/05/28,77,77,75,76,1137000,760
2015/05/29,76,76,75,76,847000,760
2015/06/01,76,77,75,76,1572000,760
2015/06/02,76,79,76,77,3508000,770
2015/06/03,78,79,77,78,2408000,780
2015/06/04,78,78,76,78,1866000,780
2015/06/05,77,78,77,77,936000,770
2015/06/08,77,78,77,77,852000,770
2015/06/09,77,77,76,76,623000,760
2015/06/10,76,77,76,77,1004000,770
2015/06/11,76,77,76,76,392000,760
2015/06/12,76,76,76,76,441000,760
2015/06/15,76,77,76,77,475000,770
2015/06/16,76,76,75,75,780000,750
2015/06/17,75,76,75,75,915000,750
2015/06/18,75,76,75,75,432000,750
2015/06/19,75,76,74,74,855000,740
2015/06/22,75,75,74,74,1297000,740
2015/06/23,75,77,74,77,3121000,770
2015/06/24,76,77,75,75,2444000,750
2015/06/25,75,76,74,75,1792000,750
2015/06/26,735,746,712,731,268800,731
2015/06/29,723,723,707,714,202000,714
2015/06/30,714,720,707,711,104300,711
2015/07/01,713,713,708,712,41900,712
