2015/03/02,1039,1040,991,1015,526300,1015
2015/03/03,1030,1036,1021,1032,395400,1032
2015/03/04,1040,1085,1039,1062,669800,1062
2015/03/05,1092,1110,1075,1085,530700,1085
2015/03/06,1115,1174,1101,1148,809900,1148
2015/03/09,1150,1273,1150,1270,935500,1270
2015/03/10,1334,1447,1325,1342,2451600,1342
2015/03/11,1340,1349,1256,1264,965500,1264
2015/03/12,1250,1250,1170,1187,824400,1187
2015/03/13,1170,1179,1152,1161,615800,1161
2015/03/16,1151,1196,1150,1182,295900,1182
2015/03/17,1190,1196,1160,1172,220500,1172
2015/03/18,1168,1168,1128,1135,348000,1135
2015/03/19,1111,1133,1104,1124,244000,1124
2015/03/20,1117,1127,1104,1126,250300,1126
2015/03/23,1126,1147,1114,1144,165300,1144
2015/03/24,1144,1144,1121,1126,151000,1126
2015/03/25,1120,1125,1115,1124,121200,1124
2015/03/26,1120,1128,1106,1114,184500,1114
2015/03/27,1106,1120,1101,1112,160200,1112
2015/03/30,1120,1120,1092,1100,250300,1100
2015/03/31,1114,1114,1063,1066,291100,1066
2015/04/01,1048,1083,1033,1079,264000,1079
2015/04/02,1085,1085,1065,1069,169600,1069
2015/04/03,1070,1087,1066,1087,114200,1087
2015/04/06,1087,1089,1075,1076,83000,1076
2015/04/07,1085,1136,1080,1115,372200,1115
2015/04/08,1120,1175,1120,1168,355300,1168
2015/04/09,1176,1210,1143,1148,343900,1148
2015/04/10,1152,1154,1115,1118,195100,1118
2015/04/13,1118,1122,1095,1100,172100,1100
2015/04/14,1103,1110,1100,1109,71900,1109
2015/04/15,1129,1143,1101,1104,209600,1104
2015/04/16,1106,1116,1101,1116,87800,1116
2015/04/17,1108,1110,1102,1102,122300,1102
2015/04/20,1102,1105,1090,1090,126200,1090
2015/04/21,1090,1103,1085,1102,127900,1102
2015/04/22,1106,1112,1092,1095,93300,1095
2015/04/23,1099,1099,1071,1073,191700,1073
2015/04/24,1072,1077,1066,1067,131800,1067
2015/04/27,1063,1070,1057,1060,123100,1060
2015/04/28,1069,1069,1051,1058,179000,1058
2015/04/30,1055,1055,1032,1034,233100,1034
2015/05/01,1034,1037,1006,1009,321800,1009
2015/05/07,1009,1046,1003,1030,212000,1030
2015/05/08,1025,1038,1023,1028,111900,1028
2015/05/11,1046,1060,1036,1056,154700,1056
2015/05/12,1050,1065,1042,1063,112400,1063
2015/05/13,1061,1066,1058,1061,64100,1061
2015/05/14,1053,1056,1039,1042,151900,1042
2015/05/15,1064,1064,1041,1049,84100,1049
2015/05/18,1048,1069,1048,1067,100500,1067
2015/05/19,1065,1082,1065,1081,153100,1081
2015/05/20,1085,1089,1072,1082,105200,1082
2015/05/21,1083,1086,1073,1080,135300,1080
2015/05/22,1084,1095,1081,1090,179900,1090
2015/05/25,1093,1096,1089,1091,76600,1091
2015/05/26,1091,1091,1086,1086,57600,1086
2015/05/27,1085,1088,1075,1085,97400,1085
2015/05/28,1090,1090,1071,1075,108800,1075
2015/05/29,1064,1067,1051,1051,193800,1051
2015/06/01,1050,1065,1050,1065,82700,1065
2015/06/02,1066,1069,1057,1057,81600,1057
2015/06/03,1057,1065,1057,1059,65000,1059
2015/06/04,1057,1062,1052,1057,102600,1057
2015/06/05,1056,1060,1052,1052,104100,1052
2015/06/08,1054,1058,1050,1050,66800,1050
2015/06/09,1050,1053,1041,1041,122700,1041
2015/06/10,1041,1045,1030,1030,126200,1030
2015/06/11,1033,1048,1033,1046,135300,1046
2015/06/12,1051,1055,1046,1050,220700,1050
2015/06/15,1057,1057,1042,1052,111400,1052
2015/06/16,1051,1054,1041,1042,63100,1042
2015/06/17,1043,1045,1030,1030,121200,1030
2015/06/18,1031,1037,1028,1028,97800,1028
2015/06/19,1040,1043,1025,1025,287400,1025
2015/06/22,1030,1052,1030,1046,118600,1046
2015/06/23,1050,1051,1040,1049,112800,1049
2015/06/24,1053,1077,1049,1074,212800,1074
2015/06/25,1065,1072,1053,1055,113700,1055
2015/06/26,1053,1064,1046,1049,102900,1049
2015/06/29,1037,1046,1031,1032,139100,1032
2015/06/30,1037,1066,1037,1053,221700,1053
2015/07/01,1059,1077,1055,1071,155700,1071
