2011/01/04,243800,245800,242400,245600,833,245600
2011/01/05,246800,246800,242900,244500,501,244500
2011/01/06,244500,244500,241000,241600,624,241600
2011/01/07,242000,242700,238800,238900,628,238900
2011/01/11,237000,237600,235100,235400,881,235400
2011/01/12,235000,235000,230000,230100,1416,230100
2011/01/13,230400,231800,224400,226000,2229,226000
2011/01/14,224500,226900,220400,220500,2181,220500
2011/01/17,222000,226500,222000,222600,1236,222600
2011/01/18,223000,223200,218100,219000,984,219000
2011/01/19,219000,220500,218100,220200,1161,220200
2011/01/20,220000,225000,219600,222500,787,222500
2011/01/21,221200,224800,219000,220000,1239,220000
2011/01/24,218000,218300,215100,216600,1043,216600
2011/01/25,218900,221400,217400,218200,654,218200
2011/01/26,219000,220000,217200,218500,617,218500
2011/01/27,223000,223800,220200,220500,844,220500
2011/01/28,220000,221500,213200,215000,1515,215000
2011/01/31,214200,217800,213300,216700,718,216700
2011/02/01,217000,217500,215100,217500,521,217500
2011/02/02,218000,218400,216300,216800,551,216800
2011/02/03,216300,216900,214400,215300,493,215300
2011/02/04,214000,215600,213800,214400,341,214400
2011/02/07,215000,215400,214600,214700,350,214700
2011/02/08,214500,214500,211100,211500,835,211500
2011/02/09,212400,213500,211000,212400,358,212400
2011/02/10,211900,212100,211300,211400,263,211400
2011/02/14,211300,212000,208600,208700,712,208700
2011/02/15,207700,208700,202500,204100,1678,204100
2011/02/16,209100,210500,207300,208200,1657,208200
2011/02/17,208800,212600,208800,212500,1445,212500
2011/02/18,213300,216500,213300,216100,916,216100
2011/02/21,216100,218400,216000,218400,747,218400
2011/02/22,217500,217500,214500,216300,702,216300
2011/02/23,214000,219700,214000,218700,951,218700
2011/02/24,217000,223900,216200,222200,1020,222200
2011/02/25,222200,223900,221800,223900,641,223900
2011/02/28,225000,229300,225000,229100,1065,229100
2011/03/01,230000,233700,229900,232500,1094,232500
2011/03/02,230400,231800,225700,229400,735,229400
2011/03/03,228500,231100,228000,228700,315,228700
2011/03/04,229100,229800,227100,227100,278,227100
2011/03/07,227800,228000,225600,227100,338,227100
2011/03/08,227000,227500,224100,224100,334,224100
2011/03/09,225300,225800,224200,225000,226,225000
2011/03/10,226300,226400,222800,222900,435,222900
2011/03/11,220600,222000,218300,218500,649,218500
2011/03/14,190500,208400,190500,202600,1932,202600
2011/03/15,200000,200000,165000,180100,3526,180100
2011/03/16,181900,196900,181900,194100,1604,194100
2011/03/17,190100,204300,187600,202000,1800,202000
2011/03/18,204900,217500,204000,214700,1911,214700
2011/03/22,216500,221600,213600,221500,1348,221500
2011/03/23,222000,234900,219300,230900,2438,230900
2011/03/24,232900,237900,229000,237900,1677,237900
2011/03/25,234600,239000,234600,234800,975,234800
2011/03/28,234800,234800,226000,230100,924,230100
2011/03/29,225100,233700,224500,231200,598,231200
2011/03/30,233700,235600,232500,235000,598,235000
2011/03/31,235000,236900,232300,236100,544,236100
2011/04/01,236000,236500,233200,235900,606,235900
2011/04/04,236500,236500,234600,235800,650,235800
2011/04/05,237200,240000,236100,239600,1810,239600
2011/04/06,240000,248800,239900,248500,1768,248500
2011/04/07,248200,249800,243600,249800,892,249800
2011/04/08,247600,249400,243500,246000,669,246000
2011/04/11,246000,249700,243200,249700,603,249700
2011/04/12,248600,249600,244100,249600,565,249600
2011/04/13,248900,248900,245900,245900,268,245900
2011/04/14,245500,247000,242100,244300,549,244300
2011/04/15,243100,244000,241100,242000,520,242000
2011/04/18,242900,244200,240000,244000,454,244000
2011/04/19,242000,244600,240100,242800,494,242800
2011/04/20,242800,244000,241300,241500,280,241500
2011/04/21,240600,247000,240300,247000,494,247000
2011/04/22,245400,249300,245200,249200,463,249200
2011/04/25,248400,249700,246800,249500,291,249500
2011/04/26,248200,249500,248000,248800,331,248800
2011/04/27,249000,251800,248200,251200,702,251200
2011/04/28,250800,252400,247700,252400,1393,252400
2011/05/02,252000,253700,251000,252600,488,252600
2011/05/06,252000,253000,250200,253000,345,253000
2011/05/09,253000,253500,249700,250000,362,250000
2011/05/10,250000,251000,248000,248000,272,248000
2011/05/11,248000,248700,245000,245000,371,245000
2011/05/12,244400,244900,238000,238900,1026,238900
2011/05/13,240500,240600,236100,238800,324,238800
2011/05/16,235700,240100,235000,237700,249,237700
2011/05/17,238500,242700,235400,241000,510,241000
2011/05/18,240800,242400,237500,240600,426,240600
2011/05/19,240600,242000,239400,241000,402,241000
2011/05/20,240100,241000,238500,240700,381,240700
2011/05/23,240500,241600,239000,240900,269,240900
2011/05/24,240900,242000,239200,241600,398,241600
2011/05/25,240300,241500,240100,240600,187,240600
2011/05/26,240000,241600,239800,240100,225,240100
2011/05/27,240100,241800,238000,241800,580,241800
2011/05/30,242000,242000,241500,241500,313,241500
2011/05/31,241300,244800,241200,243600,443,243600
2011/06/01,243600,245500,243300,243300,354,243300
2011/06/02,241400,243800,241000,242600,474,242600
2011/06/03,243900,243900,242000,242000,166,242000
2011/06/06,243000,243400,240300,240400,327,240400
2011/06/07,240000,240400,237200,239500,397,239500
2011/06/08,239500,239500,234200,235500,519,235500
2011/06/09,235800,238200,233500,233500,297,233500
2011/06/10,233500,233600,230500,231600,929,231600
2011/06/13,231600,232700,230200,230300,260,230300
2011/06/14,230300,231800,230000,230500,543,230500
2011/06/15,231000,231700,230600,230700,377,230700
2011/06/16,230700,231400,230100,230100,240,230100
2011/06/17,230400,230600,228100,228100,417,228100
2011/06/20,230800,231200,228500,228500,581,228500
2011/06/21,229900,230100,228500,228500,280,228500
2011/06/22,229200,230200,228600,228800,632,228800
2011/06/23,229000,229900,229000,229000,405,229000
2011/06/24,229000,229800,228500,229700,837,229700
2011/06/27,229000,229600,228400,228600,834,228600
2011/06/28,220800,221600,220200,220700,1072,220700
2011/06/29,220900,221300,219000,220500,565,220500
2011/06/30,220100,225500,219500,225000,1153,225000
2011/07/01,224300,224800,222100,223800,241,223800
2011/07/04,224500,224500,223300,224400,373,224400
2011/07/05,224000,224000,222700,223800,181,223800
2011/07/06,223700,223700,220700,222800,323,222800
2011/07/07,220800,222400,220400,220400,210,220400
2011/07/08,221400,221400,218200,218500,518,218500
2011/07/11,219000,219000,216700,217000,344,217000
2011/07/12,216000,216600,213400,216300,547,216300
2011/07/13,216300,219000,215000,218300,381,218300
2011/07/14,217500,218900,217400,217500,252,217500
2011/07/15,217600,219600,217200,218900,165,218900
2011/07/19,218300,219900,218100,218300,227,218300
2011/07/20,218300,219700,218100,219100,202,219100
2011/07/21,218100,218500,216100,217000,219,217000
2011/07/22,219000,219000,216900,217200,187,217200
2011/07/25,217200,218800,215000,218700,471,218700
2011/07/26,217100,217700,215600,215700,219,215700
2011/07/27,215700,215700,214800,215600,252,215600
2011/07/28,215600,215600,210100,210100,537,210100
2011/07/29,210200,211600,208500,208900,490,208900
2011/08/01,208900,210900,208500,209300,439,209300
2011/08/02,209200,209700,207300,208000,291,208000
2011/08/03,207000,209500,206200,208600,253,208600
2011/08/04,208600,213000,208600,211000,445,211000
2011/08/05,207500,209800,205000,205000,560,205000
2011/08/08,205100,207000,200300,202700,571,202700
2011/08/09,199000,199000,191000,197600,816,197600
2011/08/10,201600,202600,197600,198000,516,198000
2011/08/11,194000,198000,192000,195200,430,195200
2011/08/12,196400,199500,196400,198500,323,198500
2011/08/15,199800,206000,199800,203600,385,203600
2011/08/16,206500,209900,205700,209900,296,209900
2011/08/17,209900,213300,207100,213000,286,213000
2011/08/18,213000,213400,211200,212000,144,212000
2011/08/19,209400,211500,207500,210300,179,210300
2011/08/22,208300,212300,208100,211200,306,211200
2011/08/23,213300,213300,209200,209400,217,209400
2011/08/24,211000,211000,207400,209200,152,209200
2011/08/25,208600,209800,206000,206000,261,206000
2011/08/26,206000,206300,205600,206200,107,206200
2011/08/29,206200,207500,205900,206100,138,206100
2011/08/30,206500,207800,206300,207300,272,207300
2011/08/31,207900,210800,207300,210800,277,210800
2011/09/01,210500,210500,208000,208900,167,208900
2011/09/02,210000,210000,208100,209000,71,209000
2011/09/05,209000,209000,206700,206700,157,206700
2011/09/06,206200,206400,202800,203600,231,203600
2011/09/07,207000,207200,202900,206000,432,206000
2011/09/08,206600,206600,202700,202800,216,202800
2011/09/09,202800,205000,202600,202700,356,202700
2011/09/12,202900,203900,200100,200100,244,200100
2011/09/13,200700,201000,200000,200000,282,200000
2011/09/14,201000,201500,198600,198600,427,198600
2011/09/15,198800,199700,196100,196600,434,196600
2011/09/16,196300,198500,195900,197000,1064,197000
2011/09/20,197000,198300,195700,195900,305,195900
2011/09/21,197000,197900,195900,196300,226,196300
2011/09/22,196300,196300,193100,194300,408,194300
2011/09/26,192100,192200,188500,188600,484,188600
2011/09/27,188100,190000,183200,185500,663,185500
2011/09/28,187600,190800,187400,190800,328,190800
2011/09/29,190800,194800,189100,194500,490,194500
2011/09/30,192900,198800,192900,195500,508,195500
2011/10/03,192900,193400,188800,192000,697,192000
2011/10/04,190000,190000,185500,187200,761,187200
2011/10/05,185200,186800,180000,180700,1145,180700
2011/10/06,181100,185000,180200,181700,415,181700
2011/10/07,182000,184800,181100,181100,612,181100
2011/10/11,183100,185500,181700,184000,730,184000
2011/10/12,184900,188000,184900,186500,545,186500
2011/10/13,189100,198000,188000,195300,666,195300
2011/10/14,194200,194300,192000,192000,344,192000
2011/10/17,195800,195800,192000,192000,311,192000
2011/10/18,191500,191500,190000,190900,445,190900
2011/10/19,190400,191700,190000,190000,402,190000
2011/10/20,190000,190200,187500,188100,356,188100
2011/10/21,187100,187900,185300,186000,428,186000
2011/10/24,186000,190200,186000,187500,295,187500
2011/10/25,190300,190300,188000,188000,237,188000
2011/10/26,190200,190200,186300,188200,467,188200
2011/10/27,189800,194000,189300,192600,305,192600
2011/10/28,193100,199800,193100,199800,640,199800
2011/10/31,198000,199800,197000,198200,202,198200
2011/11/01,197500,197600,195500,197300,237,197300
2011/11/02,196000,196600,193000,194800,340,194800
2011/11/04,194900,195900,193000,193000,299,193000
2011/11/07,193100,193800,191200,192700,234,192700
2011/11/08,192600,192700,188200,188200,380,188200
2011/11/09,188300,190600,188300,188700,182,188700
2011/11/10,188000,188000,183200,183700,701,183700
2011/11/11,184000,186800,181400,184200,533,184200
2011/11/14,186500,186500,183700,183700,261,183700
2011/11/15,183600,183600,182000,182000,299,182000
2011/11/16,181300,181500,179000,180500,698,180500
2011/11/17,179500,181000,178500,179400,408,179400
2011/11/18,178500,181000,178500,180200,196,180200
2011/11/21,180200,180200,176100,177100,476,177100
2011/11/22,176500,179200,176500,179000,274,179000
2011/11/24,179000,180800,178300,178900,339,178900
2011/11/25,178800,180900,178000,180000,446,180000
2011/11/28,180600,182900,180600,182900,684,182900
2011/11/29,184200,187200,183400,187200,458,187200
2011/11/30,187000,189600,186500,189400,301,189400
2011/12/01,191000,192800,189200,192500,437,192500
2011/12/02,191400,191500,188800,190100,293,190100
2011/12/05,190200,195100,190000,192600,319,192600
2011/12/06,194000,194300,189400,191500,470,191500
2011/12/07,189100,194400,189000,194400,642,194400
2011/12/08,192000,193900,191100,193900,334,193900
2011/12/09,190800,192500,190600,191700,390,191700
2011/12/12,191800,192000,190100,190900,228,190900
2011/12/13,190200,192000,190200,190600,224,190600
2011/12/14,190500,191000,190100,190400,424,190400
2011/12/15,190100,191200,189800,191200,434,191200
2011/12/16,191000,191000,189600,190000,488,190000
2011/12/19,190000,190800,188200,189500,435,189500
2011/12/20,189500,189500,188500,189200,322,189200
2011/12/21,189700,190100,189300,190000,312,190000
2011/12/22,189500,190300,189500,189900,586,189900
2011/12/26,190000,190800,189500,189800,907,189800
2011/12/27,190500,192900,189800,191100,885,191100
2011/12/28,181300,184800,181300,182800,707,182800
2011/12/29,183600,183600,180400,181200,363,181200
2011/12/30,181300,183200,180200,182400,295,182400
2012/01/04,182200,185500,182200,183100,325,183100
2012/01/05,183500,184000,182600,182700,454,182700
2012/01/06,182500,184200,182500,184200,490,184200
2012/01/10,184300,185700,184100,184100,373,184100
2012/01/11,184100,184800,183000,183000,165,183000
2012/01/12,183800,183900,180800,180800,214,180800
2012/01/13,183000,183000,179300,179300,632,179300
2012/01/16,179400,179900,176700,177400,565,177400
2012/01/17,177500,178500,177200,177200,348,177200
2012/01/18,178500,179500,176900,177100,309,177100
2012/01/19,177700,179000,177500,178000,401,178000
2012/01/20,179000,180800,179000,179700,352,179700
2012/01/23,180900,182000,180200,181900,459,181900
2012/01/24,182700,183800,182000,182700,359,182700
2012/01/25,183000,183800,182500,182500,307,182500
2012/01/26,182700,184000,182300,183200,374,183200
2012/01/27,183800,184000,181500,182600,320,182600
2012/01/30,184000,184500,182400,182600,394,182600
2012/01/31,183500,185000,182700,184800,392,184800
2012/02/01,185000,185100,184000,184600,232,184600
2012/02/02,185000,186400,184100,186400,190,186400
2012/02/03,186400,187500,186000,187200,235,187200
2012/02/06,187200,189500,186300,186300,286,186300
2012/02/07,186300,186800,184100,185300,302,185300
2012/02/08,185000,187400,185000,186400,314,186400
2012/02/09,186600,186900,185100,185400,342,185400
2012/02/10,186500,186500,185100,186100,159,186100
2012/02/13,185600,186700,185600,186600,173,186600
2012/02/14,186700,186900,185500,186500,301,186500
2012/02/15,187000,189400,186000,189400,912,189400
2012/02/16,189900,189900,188500,189000,341,189000
2012/02/17,189000,190900,188000,190500,1534,190500
2012/02/20,193700,197500,192600,194600,1044,194600
2012/02/21,195200,195900,193400,194000,469,194000
2012/02/22,194200,195500,193600,194000,392,194000
2012/02/23,194000,198800,194000,198400,617,198400
2012/02/24,199900,206500,199400,204100,1088,204100
2012/02/27,209900,214000,207100,212200,1249,212200
2012/02/28,211000,214000,208600,212400,959,212400
2012/02/29,212300,212300,208700,211900,687,211900
2012/03/01,209700,211300,205100,205100,624,205100
2012/03/02,207000,209800,206000,209000,402,209000
2012/03/05,209500,210300,206000,207100,387,207100
2012/03/06,207000,209100,204500,205000,416,205000
2012/03/07,204500,204500,200800,203600,768,203600
2012/03/08,205800,209900,205800,209000,707,209000
2012/03/09,211200,214600,211200,214000,974,214000
2012/03/12,213800,216000,212500,214000,921,214000
2012/03/13,214000,214900,212600,213300,544,213300
2012/03/14,215000,217000,212600,215200,674,215200
2012/03/15,214000,215500,211000,215500,1143,215500
2012/03/16,215000,217900,215000,216900,603,216900
2012/03/19,217200,219000,217200,218800,427,218800
2012/03/21,218000,218800,215700,216800,787,216800
2012/03/22,215000,216800,212000,212100,600,212100
2012/03/23,210000,213200,209600,212200,615,212200
2012/03/26,213500,215700,212100,215700,677,215700
2012/03/27,216300,218400,216300,218200,625,218200
2012/03/28,218900,220900,218300,219800,765,219800
2012/03/29,219000,223300,219000,222500,695,222500
2012/03/30,223200,226500,223200,225500,779,225500
2012/04/02,226500,230500,226500,230000,727,230000
2012/04/03,231000,231700,226700,227200,806,227200
2012/04/04,226000,226700,220100,223900,684,223900
2012/04/05,221000,222500,217800,220700,812,220700
2012/04/06,222200,222700,219500,222100,299,222100
2012/04/09,220000,222500,220000,220100,283,220100
2012/04/10,220000,222600,219700,220600,360,220600
2012/04/11,218000,219000,216500,216800,481,216800
2012/04/12,217700,218000,216200,216500,212,216500
2012/04/13,220000,221000,218000,220900,262,220900
2012/04/16,220600,221200,220100,220200,181,220200
2012/04/17,221000,221900,220300,220300,307,220300
2012/04/18,221000,221800,220800,221500,255,221500
2012/04/19,222000,223000,220600,221200,407,221200
2012/04/20,221500,223600,221500,223600,436,223600
2012/04/23,224900,225500,220800,220800,330,220800
2012/04/24,220800,222600,220000,220200,393,220200
2012/04/25,221200,221900,220200,220400,298,220400
2012/04/26,220400,222000,219200,219200,392,219200
2012/04/27,219300,223500,219300,221900,533,221900
2012/05/01,221900,222700,220000,221700,280,221700
2012/05/02,221000,222300,220000,222300,220,222300
2012/05/07,219600,220000,213700,215000,461,215000
2012/05/08,217000,217500,213000,213500,302,213500
2012/05/09,211900,212200,209400,210700,550,210700
2012/05/10,208000,212500,208000,210000,280,210000
2012/05/11,211500,212500,208300,209300,144,209300
2012/05/14,208700,208700,207300,208000,210,208000
2012/05/15,206000,206000,202000,203100,468,203100
2012/05/16,201000,203100,195900,196700,982,196700
2012/05/17,196000,207000,196000,204200,554,204200
2012/05/18,200000,202500,199000,200300,440,200300
2012/05/21,200300,201700,200200,200400,278,200400
2012/05/22,201200,202800,201200,201500,146,201500
2012/05/23,201800,202800,200000,200300,375,200300
2012/05/24,200900,202200,200300,202000,203,202000
2012/05/25,204400,204900,202800,202900,298,202900
2012/05/28,203200,210000,202000,204100,203,204100
2012/05/29,202100,208700,201900,208700,463,208700
2012/05/30,208000,208000,205000,206600,265,206600
2012/05/31,205500,210200,204500,210200,615,210200
2012/06/01,207100,209000,203100,204000,500,204000
2012/06/04,200000,202900,196800,196800,753,196800
2012/06/05,198000,199900,197000,199800,371,199800
2012/06/06,200100,200900,198600,198600,509,198600
2012/06/07,202000,202500,200700,201700,296,201700
2012/06/08,201700,202400,199600,200000,505,200000
2012/06/11,202000,203900,201800,202100,388,202100
2012/06/12,201200,203000,200000,200500,652,200500
2012/06/13,200700,201100,199700,199700,587,199700
2012/06/14,200000,200500,199300,199300,490,199300
2012/06/15,199000,199900,199000,199100,527,199100
2012/06/18,202200,204300,201000,204300,511,204300
2012/06/19,205000,206300,204300,206000,525,206000
2012/06/20,207400,210500,207100,210400,901,210400
2012/06/21,211400,213200,210600,213200,626,213200
2012/06/22,211700,214900,211100,214900,723,214900
2012/06/25,214700,215100,210000,211000,1136,211000
2012/06/26,210000,210000,205000,206000,1252,206000
2012/06/27,196100,200000,196000,199900,859,199900
2012/06/28,199400,203100,199400,202400,732,202400
2012/06/29,202700,204300,201300,201700,577,201700
2012/07/02,203100,204000,202100,203000,788,203000
2012/07/03,203000,203800,201800,203500,511,203500
2012/07/04,203500,203600,202000,202700,431,202700
2012/07/05,202700,202700,201500,202500,274,202500
2012/07/06,202500,202500,200300,202200,500,202200
2012/07/09,202000,202000,199300,199300,597,199300
2012/07/10,199000,200000,198200,198500,721,198500
2012/07/11,198100,199000,197100,197100,577,197100
2012/07/12,197100,199300,195500,197000,559,197000
2012/07/13,195700,197900,195100,196000,667,196000
2012/07/17,197100,199000,197100,197900,291,197900
2012/07/18,198800,199300,195000,195000,648,195000
2012/07/19,195300,198500,195300,198300,812,198300
2012/07/20,195700,197000,194900,195300,808,195300
2012/07/23,195000,195500,193000,193000,460,193000
2012/07/24,192000,192000,190100,191000,793,191000
2012/07/25,190500,190900,186900,187100,722,187100
2012/07/26,187400,189200,185200,186500,826,186500
2012/07/27,186800,191000,186800,190600,510,190600
2012/07/30,192000,193500,191200,192900,535,192900
2012/07/31,191300,193700,191200,192500,427,192500
2012/08/01,192500,192500,190700,191100,237,191100
2012/08/02,191000,193700,190700,193600,276,193600
2012/08/03,192900,193200,191700,193200,349,193200
2012/08/06,192200,193700,192000,192000,422,192000
2012/08/07,192000,193400,191100,192500,221,192500
2012/08/08,192700,193900,192500,193600,396,193600
2012/08/09,193700,193700,192100,192600,165,192600
2012/08/10,192500,193000,192000,193000,516,193000
2012/08/13,193000,193100,192000,192400,440,192400
2012/08/14,191100,193000,191100,192500,437,192500
2012/08/15,192500,193600,192000,192000,334,192000
2012/08/16,191700,192600,191100,191100,580,191100
2012/08/17,191200,195300,191200,195000,576,195000
2012/08/20,193400,194800,193400,194400,467,194400
2012/08/21,194300,194800,193600,194700,388,194700
2012/08/22,194700,196700,193400,196700,626,196700
2012/08/23,196100,197800,195700,196100,394,196100
2012/08/24,196000,197000,194700,196900,518,196900
2012/08/27,198800,199300,197300,198100,448,198100
2012/08/28,198500,198800,196100,196200,319,196200
2012/08/29,196000,197500,195500,196600,257,196600
2012/08/30,198600,198600,196100,197000,400,197000
2012/08/31,197100,198500,196600,198100,306,198100
2012/09/03,198200,198500,196400,196600,403,196600
2012/09/04,196700,197300,196100,196800,280,196800
2012/09/05,196700,197000,195200,196100,324,196100
2012/09/06,196100,196700,195300,195500,257,195500
2012/09/07,196800,196800,195800,196100,173,196100
2012/09/10,196500,196600,195900,196200,248,196200
2012/09/11,196100,196200,195400,195500,623,195500
2012/09/12,195500,195900,194700,194700,388,194700
2012/09/13,194500,195300,193600,194100,578,194100
2012/09/14,195600,197700,194400,196700,617,196700
2012/09/18,196700,197500,195800,197500,416,197500
2012/09/19,197500,198500,197100,197900,704,197900
2012/09/20,198000,198000,195200,196800,612,196800
2012/09/21,197800,198100,196100,198100,430,198100
2012/09/24,198000,198000,197000,198000,373,198000
2012/09/25,198600,199700,198000,199700,439,199700
2012/09/26,199800,199900,199200,199200,753,199200
2012/09/27,199000,203500,199000,203500,755,203500
2012/09/28,203000,204000,202600,204000,580,204000
2012/10/01,204800,205000,203200,204400,753,204400
2012/10/02,205000,205000,201500,201500,492,201500
2012/10/03,201000,202900,199100,199100,683,199100
2012/10/04,199200,201500,199100,201400,503,201400
2012/10/05,201500,201600,200400,201500,465,201500
2012/10/09,203800,203900,200400,200400,489,200400
2012/10/10,200400,201200,200300,200300,373,200300
2012/10/11,200100,201700,200100,201700,274,201700
2012/10/12,200900,203800,200800,203800,529,203800
2012/10/15,204000,205100,202600,205100,615,205100
2012/10/16,205000,205500,204300,204900,421,204900
2012/10/17,205700,205700,204000,204900,741,204900
2012/10/18,204900,205500,204400,205500,757,205500
2012/10/19,205000,205000,204400,204400,578,204400
2012/10/22,204000,204600,203400,204000,542,204000
2012/10/23,204900,205500,203900,205500,892,205500
2012/10/24,205400,208300,205000,208000,1612,208000
2012/10/25,209000,210300,208500,210300,714,210300
2012/10/26,211400,211600,210300,211000,765,211000
2012/10/29,211000,212000,210100,211000,713,211000
2012/10/30,210100,211900,210000,210400,661,210400
2012/10/31,210400,210400,208600,209600,832,209600
2012/11/01,205000,205000,198600,199700,3786,199700
2012/11/02,199500,201500,199400,200000,1783,200000
2012/11/05,200100,200900,199800,200100,1059,200100
2012/11/06,200300,200900,198100,198600,1374,198600
2012/11/07,199100,200900,199100,200900,591,200900
2012/11/08,200300,200900,199700,200800,523,200800
2012/11/09,200600,200600,199200,199700,697,199700
2012/11/12,200000,200000,198100,198200,566,198200
2012/11/13,198100,198200,194200,194300,957,194300
2012/11/14,193400,196000,193400,196000,1221,196000
2012/11/15,195000,199500,195000,198600,953,198600
2012/11/16,200000,201900,199000,201900,636,201900
2012/11/19,202200,203200,201600,202300,680,202300
2012/11/20,203500,204000,202500,203400,237,203400
2012/11/21,203700,204500,202100,203200,613,203200
2012/11/22,203800,204800,203600,204800,401,204800
2012/11/26,205000,205200,204700,205200,508,205200
2012/11/27,205000,205300,204600,205200,346,205200
2012/11/28,205400,205400,204800,205200,423,205200
2012/11/29,205000,205400,204000,205300,648,205300
2012/11/30,205300,205700,204700,205600,616,205600
2012/12/03,205800,206300,205600,205900,676,205900
2012/12/04,205800,205900,203300,204400,837,204400
2012/12/05,204400,204400,202600,203500,545,203500
2012/12/06,203600,205300,203600,205300,553,205300
2012/12/07,205300,205400,204500,205300,639,205300
2012/12/10,205500,205600,204700,204700,507,204700
2012/12/11,204700,204900,203600,204000,413,204000
2012/12/12,203700,203800,203000,203100,531,203100
2012/12/13,203700,204100,203200,204000,648,204000
2012/12/14,204000,204300,203600,204200,658,204200
2012/12/17,204400,204700,204100,204700,668,204700
2012/12/18,204800,206500,204700,206500,946,206500
2012/12/19,206700,208700,206500,208500,926,208500
2012/12/20,209000,209000,207600,208400,984,208400
2012/12/21,208500,208900,208300,208900,1427,208900
2012/12/25,208800,210300,203900,209800,2224,209800
2012/12/26,202700,205500,202000,204000,1210,204000
2012/12/27,203200,204600,202900,203000,1102,203000
2012/12/28,202800,204500,202200,204500,991,204500
2013/01/04,205000,209700,205000,209300,1759,209300
2013/01/07,209900,209900,208500,209500,952,209500
2013/01/08,209400,209400,206200,206900,1112,206900
2013/01/09,206200,207700,206000,207700,785,207700
2013/01/10,208100,209600,207700,209300,1803,209300
2013/01/11,209400,209500,206900,208800,1479,208800
2013/01/15,208600,209000,207500,207700,1348,207700
2013/01/16,207700,207800,206700,206700,799,206700
2013/01/17,206700,207700,206400,206500,518,206500
2013/01/18,207100,208900,207100,208800,963,208800
2013/01/21,209000,209000,208400,208700,446,208700
2013/01/22,208600,209000,208000,208800,734,208800
2013/01/23,208200,208600,207800,208000,847,208000
2013/01/24,207800,209100,207700,209100,1296,209100
2013/01/25,209200,210400,209100,210300,2239,210300
2013/01/28,210500,214800,210500,214400,1615,214400
2013/01/29,214500,216700,214500,216200,1557,216200
2013/01/30,216700,217500,216200,216800,1638,216800
2013/01/31,217600,224300,217300,224200,2617,224200
2013/02/01,225000,232400,224100,230200,3280,230200
2013/02/04,230800,231000,226900,227000,1495,227000
2013/02/05,226000,226600,225000,225300,1181,225300
2013/02/06,225200,227700,225200,227700,1370,227700
2013/02/07,227300,227300,225000,225300,1235,225300
2013/02/08,224700,225300,222500,223100,1093,223100
2013/02/12,223500,224700,223000,223000,918,223000
2013/02/13,222500,223100,217000,220300,1481,220300
2013/02/14,218000,220500,217000,219200,906,219200
2013/02/15,217900,217900,213000,217400,1498,217400
2013/02/18,216900,221200,216900,220300,1055,220300
2013/02/19,219000,220100,219000,220100,666,220100
2013/02/20,220100,222000,220000,220800,999,220800
2013/02/21,221000,221600,219600,220700,754,220700
2013/02/22,220800,221200,219300,220700,596,220700
2013/02/25,220700,222400,220000,222400,1646,222400
2013/02/26,222000,222600,220200,222400,1128,222400
2013/02/27,223000,224600,222800,224100,1552,224100
2013/02/28,224900,225000,223000,223000,1308,223000
2013/03/01,224400,225300,223700,224300,956,224300
2013/03/04,225900,229100,225700,226400,2836,226400
2013/03/05,227400,227400,224500,224500,1553,224500
2013/03/06,225200,225800,224000,224300,1586,224300
2013/03/07,225000,225500,223800,224200,1207,224200
2013/03/08,224600,224600,222000,222000,1489,222000
2013/03/11,222000,224000,222000,224000,996,224000
2013/03/12,224000,225000,223800,224800,1125,224800
2013/03/13,224800,225500,224300,225100,983,225100
2013/03/14,225400,227300,225300,227300,1158,227300
2013/03/15,228900,233400,228600,232900,2098,232900
2013/03/18,237900,240600,234600,235600,3272,235600
2013/03/19,236900,240500,236900,238900,2475,238900
2013/03/21,240100,245000,239900,245000,2051,245000
2013/03/22,248000,255900,247700,255900,2975,255900
2013/03/25,263000,277700,261600,276400,3230,276400
2013/03/26,274100,276900,272200,275500,2551,275500
2013/03/27,280000,298300,280000,297700,3651,297700
2013/03/28,297700,297800,283100,288900,3573,288900
2013/03/29,283900,287600,268600,283000,4170,283000
2013/04/01,280200,282000,266700,266700,3052,266700
2013/04/02,251100,270000,248000,267300,3119,267300
2013/04/03,268600,271900,256000,260100,2084,260100
2013/04/04,255100,267900,250100,266100,2600,266100
2013/04/05,290000,290000,270100,272400,5025,272400
2013/04/08,274500,274800,272500,274400,2236,274400
2013/04/09,273800,273800,265700,267000,2472,267000
2013/04/10,265300,270000,265100,269000,1959,269000
2013/04/11,270000,270000,260000,262600,2478,262600
2013/04/12,261300,267000,260500,265000,1249,265000
2013/04/15,264500,264500,260000,262200,1239,262200
2013/04/16,259000,262000,255300,258200,1687,258200
2013/04/17,260000,261800,255500,257200,1362,257200
2013/04/18,256400,261500,253400,258100,1394,258100
2013/04/19,260400,263300,258100,263000,857,263000
2013/04/22,265000,266800,262600,262600,1179,262600
2013/04/23,265200,265200,262000,263400,889,263400
2013/04/24,263700,263700,262000,263400,1537,263400
2013/04/25,263300,263300,260500,262100,725,262100
2013/04/26,262200,262900,260000,260300,926,260300
2013/04/30,260300,260900,258500,259800,1359,259800
2013/05/01,259800,259900,258300,259800,576,259800
2013/05/02,258700,259400,256000,257200,1401,257200
2013/05/07,257400,259800,256000,256000,1380,256000
2013/05/08,255800,257200,252700,253600,1813,253600
2013/05/09,253000,253400,250200,250300,2052,250300
2013/05/10,249600,250000,243300,243900,2885,243900
2013/05/13,241600,242900,234000,236000,3016,236000
2013/05/14,234000,241000,225600,236600,2838,236600
2013/05/15,236700,237300,230100,232000,2434,232000
2013/05/16,232400,240700,230600,233600,2193,233600
2013/05/17,237900,249300,237000,249100,2342,249100
2013/05/20,255800,259700,254700,258100,2592,258100
2013/05/21,259000,259000,251600,252900,1338,252900
2013/05/22,252900,254100,249100,250700,1011,250700
2013/05/23,248000,248000,239000,239100,2360,239100
2013/05/24,240000,244800,232100,238600,2095,238600
2013/05/27,237900,243300,237100,241800,1240,241800
2013/05/28,241800,243500,238000,243400,1337,243400
2013/05/29,242600,243300,237000,241700,1839,241700
2013/05/30,232000,232000,220100,226900,6548,226900
2013/05/31,225500,232000,223900,231800,3402,231800
2013/06/03,227000,228300,224200,227000,1871,227000
2013/06/04,223000,226400,221000,225300,1718,225300
2013/06/05,224200,224800,220200,221000,1161,221000
2013/06/06,217800,219000,209600,209600,2661,209600
2013/06/07,206200,212500,206000,208700,2558,208700
2013/06/10,209700,211000,202600,205500,3689,205500
2013/06/11,206700,212000,206500,208500,2075,208500
2013/06/12,205300,205700,202700,203600,1019,203600
2013/06/13,202900,203500,200000,201000,912,201000
2013/06/14,200000,210300,200000,209000,2278,209000
2013/06/17,209000,210000,205700,208900,1396,208900
2013/06/18,208500,210100,207000,209900,782,209900
2013/06/19,209800,210000,207400,207400,636,207400
2013/06/20,205500,205800,201000,202700,877,202700
2013/06/21,200300,203000,200100,202400,1325,202400
2013/06/24,202600,204500,202300,202600,558,202600
2013/06/25,202500,202600,200100,201300,980,201300
2013/06/26,201200,206100,201000,205800,839,205800
2013/06/27,205800,212000,204400,210800,1366,210800
2013/06/28,211100,221600,211100,221600,1423,221600
2013/07/01,220100,220900,217700,218100,541,218100
2013/07/02,218000,218900,217400,218300,1041,218300
2013/07/03,218600,221200,218600,220500,913,220500
2013/07/04,220600,224400,220000,223500,818,223500
2013/07/05,223900,224900,222100,222500,470,222500
2013/07/08,222500,222500,218000,219500,929,219500
2013/07/09,218600,222100,217500,220800,918,220800
2013/07/10,219300,221700,218500,221400,683,221400
2013/07/11,219400,222500,219400,221500,650,221500
2013/07/12,222500,227500,219500,226300,1159,226300
2013/07/16,227900,228000,223700,226300,1230,226300
2013/07/17,228000,228000,225000,227100,471,227100
2013/07/18,227300,229500,226800,229500,532,229500
2013/07/19,228600,229600,227000,227100,624,227100
2013/07/22,227000,228400,226700,228400,575,228400
2013/07/23,226900,230200,226900,229100,716,229100
2013/07/24,229100,229400,227000,228000,572,228000
2013/07/25,227200,228400,227000,227000,356,227000
2013/07/26,226400,227200,225000,226500,506,226500
2013/07/29,226000,226100,221000,222400,594,222400
2013/07/30,222400,222400,221000,221000,408,221000
2013/07/31,221000,221000,218000,220500,754,220500
2013/08/01,220400,225800,220300,225000,525,225000
2013/08/02,226000,227500,225100,227000,462,227000
2013/08/05,226800,228000,226000,228000,787,228000
2013/08/06,227900,227900,226000,226900,495,226900
2013/08/07,226000,226500,224800,225000,459,225000
2013/08/08,224100,226500,223900,225300,384,225300
2013/08/09,223500,227400,223300,226900,429,226900
2013/08/12,225600,226000,221600,223900,298,223900
2013/08/13,222500,225500,222100,222900,281,222900
2013/08/14,223000,225000,223000,225000,124,225000
2013/08/15,224800,225800,224100,225500,194,225500
2013/08/16,224600,224600,223000,223000,234,223000
2013/08/19,223000,223500,222600,222800,323,222800
2013/08/20,222900,223400,222000,223100,188,223100
2013/08/21,222000,222300,218900,219000,450,219000
2013/08/22,218600,219900,216000,216500,325,216500
2013/08/23,218800,218800,216300,216300,286,216300
2013/08/26,217000,218000,216800,217000,229,217000
2013/08/27,217100,217100,215900,215900,322,215900
2013/08/28,215200,216000,214500,215700,183,215700
2013/08/29,214800,216000,212900,216000,399,216000
2013/08/30,214500,216300,214000,216000,221,216000
2013/09/02,216000,217000,215500,215600,296,215600
2013/09/03,217400,219500,217100,219500,467,219500
2013/09/04,219500,220900,217900,220800,339,220800
2013/09/05,220500,221300,219200,219700,251,219700
2013/09/06,219500,219900,217600,219300,254,219300
2013/09/09,221200,223700,218900,223500,791,223500
2013/09/10,221000,227500,220600,227500,998,227500
2013/09/11,227000,228000,225100,228000,601,228000
2013/09/12,227500,228900,224500,226700,1072,226700
2013/09/13,224000,226500,224000,226200,269,226200
2013/09/17,225000,226200,224500,225200,578,225200
2013/09/18,225000,225100,221600,221800,1000,221800
2013/09/19,222000,224700,222000,224700,769,224700
2013/09/20,224500,224800,223700,224700,665,224700
2013/09/24,224100,224400,222700,224100,500,224100
2013/09/25,224000,224400,222900,224000,909,224000
2013/09/26,224000,224700,223000,224500,875,224500
2013/09/27,224500,227800,224400,227200,1239,227200
2013/09/30,227000,241000,226000,232000,2217,232000
2013/10/01,231100,231800,227500,227800,740,227800
2013/10/02,228900,228900,221700,221900,967,221900
2013/10/03,221900,224900,221500,223100,464,223100
2013/10/04,221900,223000,219000,220200,943,220200
2013/10/07,220200,221000,219300,219300,499,219300
2013/10/08,220000,221500,218000,220100,458,220100
2013/10/09,220100,225500,220000,225400,382,225400
2013/10/10,225800,226800,223200,226500,327,226500
2013/10/11,226000,226800,225000,225700,308,225700
2013/10/15,226000,226800,225000,226400,427,226400
2013/10/16,225000,226500,225000,225200,224,225200
2013/10/17,226500,226500,225200,225800,386,225800
2013/10/18,225800,225800,224800,225700,372,225700
2013/10/21,225900,227500,225800,227500,482,227500
2013/10/22,227500,227500,226100,226100,270,226100
2013/10/23,226400,227300,226200,226800,211,226800
2013/10/24,226500,227200,226000,227200,267,227200
2013/10/25,227500,227500,226400,226800,548,226800
2013/10/28,227500,227500,226200,227400,255,227400
2013/10/29,227400,227400,226200,226500,328,226500
2013/10/30,226600,227500,226400,226500,469,226500
2013/10/31,226500,227000,226000,226600,491,226600
2013/11/01,226400,226500,225200,225600,410,225600
2013/11/05,226000,226000,224100,225900,584,225900
2013/11/06,225800,226300,225100,225400,392,225400
2013/11/07,225100,225900,223200,223700,435,223700
2013/11/08,223100,225200,223100,224300,549,224300
2013/11/11,225200,226700,224900,224900,450,224900
2013/11/12,226100,226300,225400,226300,309,226300
2013/11/13,226500,226700,225700,226400,529,226400
2013/11/14,226000,227500,225400,227500,620,227500
2013/11/15,227300,230800,227300,230800,935,230800
2013/11/18,231000,232900,229800,230000,1002,230000
2013/11/19,230100,230200,227600,228300,491,228300
2013/11/20,228300,229900,227600,229800,717,229800
2013/11/21,230000,230000,228100,228400,616,228400
2013/11/22,228700,230400,228500,229200,455,229200
2013/11/25,229500,230400,228400,228400,625,228400
2013/11/26,230000,230200,228600,228600,577,228600
2013/11/27,229000,232500,228600,232500,855,232500
2013/11/28,231000,232400,230200,231300,561,231300
2013/11/29,231400,234000,231400,234000,835,234000
2013/12/02,234000,239000,234000,238900,1390,238900
2013/12/03,238200,238400,236100,237300,728,237300
2013/12/04,236500,236800,234100,235300,889,235300
2013/12/05,235000,235100,232000,232900,929,232900
2013/12/06,232200,233400,232000,233400,436,233400
2013/12/09,234900,235400,234500,235400,652,235400
2013/12/10,235400,235400,234100,234700,656,234700
2013/12/11,234600,234700,232500,233000,884,233000
2013/12/12,232700,232800,231600,231600,646,231600
2013/12/13,232000,234600,231500,233900,1178,233900
2013/12/16,234000,234400,231700,232500,1040,232500
2013/12/17,232700,233900,232300,233200,528,233200
2013/12/18,233400,233500,232600,232800,1002,232800
2013/12/19,233000,233700,232900,233000,963,233000
2013/12/20,233000,233500,232900,233200,1326,233200
2013/12/24,233000,233300,232600,232600,1700,232600
2013/12/25,232600,232700,230400,231900,2083,231900
2013/12/26,223700,230100,223600,229500,1921,229500
2013/12/27,229000,231300,228700,229400,1036,229400
2013/12/30,230500,235100,230200,234600,1754,234600
2014/01/06,234600,234700,232200,233800,1574,233800
2014/01/07,233800,233800,231100,231200,949,231200
2014/01/08,231600,233400,231000,233400,1032,233400
2014/01/09,233400,233500,232500,233400,675,233400
2014/01/10,232100,233400,232100,233400,393,233400
2014/01/14,233000,233400,232300,232700,577,232700
2014/01/15,233400,234700,231800,233900,795,233900
2014/01/16,234600,237300,234600,236900,1237,236900
2014/01/17,236900,238000,236300,238000,842,238000
2014/01/20,238000,238400,236500,237700,536,237700
2014/01/21,237000,237100,235200,236800,849,236800
2014/01/22,236300,236700,235100,236600,514,236600
2014/01/23,236500,236500,235500,236400,570,236400
2014/01/24,235000,235000,232000,233000,817,233000
2014/01/27,229900,229900,227800,228500,1022,228500
2014/01/28,228000,229700,227500,229500,516,229500
2014/01/29,229900,233500,229900,233200,423,233200
2014/01/30,231000,232800,230300,232800,986,232800
2014/01/31,232800,233900,232400,233900,696,233900
2014/02/03,233600,233700,228200,228200,590,228200
2014/02/04,226000,226000,221600,222000,1014,222000
2014/02/05,223000,225000,222400,223200,671,223200
2014/02/06,224400,225400,223800,225400,414,225400
2014/02/07,225900,228400,225700,227700,663,227700
2014/02/10,229700,229700,225900,227400,431,227400
2014/02/12,228300,230500,227400,228300,493,228300
2014/02/13,228300,230200,227000,227000,353,227000
2014/02/14,227300,228900,225600,226200,338,226200
2014/02/17,226600,227900,226000,226700,201,226700
2014/02/18,229800,229800,227000,227000,393,227000
2014/02/19,227700,229000,227000,227900,472,227900
2014/02/20,227600,228800,227500,228000,636,228000
2014/02/21,227600,228900,226900,228900,445,228900
2014/02/24,229000,229000,226000,227300,673,227300
2014/02/25,227300,227600,226500,227600,346,227600
2014/02/26,227400,227700,225700,225900,709,225900
2014/02/27,226300,230000,226100,230000,1160,230000
2014/02/28,229600,234300,229000,234100,1902,234100
2014/03/03,234000,234000,230000,231200,577,231200
2014/03/04,230300,232200,230000,231300,432,231300
2014/03/05,232000,232800,231400,231900,856,231900
2014/03/06,232600,234100,232000,234000,639,234000
2014/03/07,234000,234500,232600,234400,374,234400
2014/03/10,232000,234400,232000,233900,549,233900
2014/03/11,233900,235000,231000,235000,769,235000
2014/03/12,235000,235500,232200,232500,1007,232500
2014/03/13,232100,232500,229000,229000,711,229000
2014/03/14,227000,228300,225800,226400,630,226400
2014/03/17,226200,227700,224800,227700,736,227700
2014/03/18,227600,229900,226500,227900,685,227900
2014/03/19,228900,228900,226000,226600,524,226600
2014/03/20,226100,227200,225500,225500,1167,225500
2014/03/24,226800,227900,225100,227000,547,227000
2014/03/25,226900,232900,226300,230300,1014,230300
2014/03/26,231400,231400,229600,229700,622,229700
2014/03/27,230900,234900,230100,234100,700,234100
2014/03/28,234900,234900,232200,233200,773,233200
2014/03/31,233200,234000,232000,233100,506,233100
2014/04/01,233100,235000,233100,234800,546,234800
2014/04/02,234600,235100,234000,235000,438,235000
2014/04/03,235000,236000,234300,235200,627,235200
2014/04/04,235200,235200,231200,231200,463,231200
2014/04/07,234500,235000,232800,234600,503,234600
2014/04/08,234600,234600,230100,231900,488,231900
2014/04/09,231500,232200,228500,228500,454,228500
2014/04/10,230000,231500,229000,229000,668,229000
2014/04/11,227000,229700,227000,229100,604,229100
2014/04/14,228100,230500,227400,230300,578,230300
2014/04/15,230800,230800,228100,228100,378,228100
2014/04/16,229700,230700,229100,229700,354,229700
2014/04/17,230800,230800,229800,229800,229,229800
2014/04/18,230500,231200,229900,230000,572,230000
2014/04/21,230000,230900,229500,229500,220,229500
2014/04/22,230500,230500,229500,230500,257,230500
2014/04/23,230200,230500,229600,230400,224,230400
2014/04/24,230000,230700,229600,230700,407,230700
2014/04/25,230300,231400,230200,231400,365,231400
2014/04/28,231200,231300,230200,230800,444,230800
2014/04/30,230300,231400,230300,231200,515,231200
2014/05/01,231200,232100,230800,232000,460,232000
2014/05/02,232000,233500,231600,232700,798,232700
2014/05/07,232300,232800,231500,231500,405,231500
2014/05/08,232800,232900,232000,232900,383,232900
2014/05/09,232500,232700,231700,232200,482,232200
2014/05/12,232200,232500,231000,231900,410,231900
2014/05/13,232700,232700,231000,231000,484,231000
2014/05/14,231200,232000,231200,231400,338,231400
2014/05/15,232000,232200,230700,231000,982,231000
2014/05/16,231100,231500,230400,231400,762,231400
2014/05/19,231400,231800,230800,231400,492,231400
2014/05/20,231200,231400,230600,231400,366,231400
2014/05/21,230900,231500,230600,230800,612,230800
2014/05/22,232000,232000,231400,231400,481,231400
2014/05/23,231400,232400,231100,231100,730,231100
2014/05/26,231300,232500,231300,232000,427,232000
2014/05/27,232400,232600,231600,232100,837,232100
2014/05/28,232200,232800,232200,232200,1012,232200
2014/05/29,232300,232800,232100,232200,869,232200
2014/05/30,232300,232900,232300,232800,1152,232800
2014/06/02,233000,233600,233000,233100,1134,233100
2014/06/03,233600,234900,233500,234200,1877,234200
2014/06/04,234200,236200,233500,233600,1768,233600
2014/06/05,235000,236000,234700,235600,1515,235600
2014/06/06,236900,237000,235700,237000,1565,237000
2014/06/09,236800,237200,236700,236700,1749,236700
2014/06/10,236700,237100,233600,234600,1484,234600
2014/06/11,235200,236000,233800,235500,817,235500
2014/06/12,235300,236800,235300,236000,1080,236000
2014/06/13,236100,238500,235400,237700,1795,237700
2014/06/16,238200,239000,237300,237300,1476,237300
2014/06/17,238200,238800,237700,238100,1184,238100
2014/06/18,238300,239600,238100,238700,1329,238700
2014/06/19,239700,244700,239700,243500,3706,243500
2014/06/20,244900,245200,243000,245200,2851,245200
2014/06/23,245900,247500,244000,244000,2308,244000
2014/06/24,244400,245900,244100,244100,1714,244100
2014/06/25,245000,245500,242600,244000,2518,244000
2014/06/26,236000,237500,234200,234300,3748,234300
2014/06/27,235200,235500,234000,234800,1709,234800
2014/06/30,235400,235700,234100,234500,1271,234500
2014/07/01,234900,235000,234000,234000,1678,234000
2014/07/02,234200,235000,234200,234300,995,234300
2014/07/03,235000,237400,234900,237200,2009,237200
2014/07/04,237500,239000,237200,238100,1262,238100
2014/07/07,238400,238400,235500,236100,1182,236100
2014/07/08,236500,237800,235700,237600,927,237600
2014/07/09,237600,239300,237600,239300,999,239300
2014/07/10,239300,240000,238200,240000,1195,240000
2014/07/11,239900,240500,237700,238500,1134,238500
2014/07/14,239900,239900,238500,239500,529,239500
2014/07/15,239700,239900,238800,239700,379,239700
2014/07/16,239700,240100,238900,240100,906,240100
2014/07/17,239900,240200,239800,239800,369,239800
2014/07/18,239500,242000,239200,240400,1525,240400
2014/07/22,241000,242900,240600,242900,991,242900
2014/07/23,242300,242700,240700,241300,671,241300
2014/07/24,241700,242000,240500,241300,779,241300
2014/07/25,241700,243500,240500,243500,1112,243500
2014/07/28,242000,242300,241700,241900,610,241900
2014/07/29,241800,242200,241100,241500,819,241500
2014/07/30,241300,241800,240900,241000,670,241000
2014/07/31,241000,241400,240300,240300,2093,240300
2014/08/01,240100,241800,240000,241800,736,241800
2014/08/04,241700,242000,240600,241000,512,241000
2014/08/05,241500,242600,240900,242600,589,242600
2014/08/06,242000,242500,240100,240100,630,240100
2014/08/07,241600,241600,240100,240900,660,240900
2014/08/08,240700,240800,239000,239800,606,239800
2014/08/11,240200,241900,240200,241100,418,241100
2014/08/12,241600,242500,241600,242400,505,242400
2014/08/13,242400,242400,241300,241500,319,241500
2014/08/14,242200,244700,241900,244700,963,244700
2014/08/15,244900,246200,244300,246200,1109,246200
2014/08/18,246200,247200,245000,246700,844,246700
2014/08/19,247300,249000,244000,248000,1191,248000
2014/08/20,246500,247700,246200,247100,706,247100
2014/08/21,247000,247700,246400,247200,393,247200
2014/08/22,247500,248000,246600,247000,412,247000
2014/08/25,247300,249500,246300,248900,863,248900
2014/08/26,249500,250500,249100,250000,617,250000
2014/08/27,250000,250500,246200,249600,905,249600
2014/08/28,249900,250000,248000,248100,322,248100
2014/08/29,249500,249900,248300,249500,717,249500
2014/09/01,250000,250000,249000,249000,194,249000
2014/09/02,249000,250300,248700,249700,472,249700
2014/09/03,250100,252400,250100,251600,771,251600
2014/09/04,251600,253000,251500,251700,723,251700
2014/09/05,253000,253200,251500,251600,910,251600
2014/09/08,252500,254000,251400,254000,833,254000
2014/09/09,254000,254300,253000,253800,708,253800
2014/09/10,255000,257900,254000,256100,1120,256100
2014/09/11,256300,257600,255500,255700,422,255700
2014/09/12,257900,257900,256400,257900,649,257900
2014/09/16,257900,260500,257100,258800,1617,258800
2014/09/17,258000,262300,257000,260600,1837,260600
2014/09/18,260800,261400,259000,259000,985,259000
2014/09/19,262300,264500,260100,263200,1004,263200
2014/09/22,264000,264900,262300,262500,556,262500
2014/09/24,264900,270000,262300,268500,1592,268500
2014/09/25,268300,272900,266800,272000,1640,272000
2014/09/26,269000,274100,268000,272900,1883,272900
2014/09/29,271100,272600,270600,272400,1938,272400
2014/09/30,272600,272600,266000,271100,2357,271100
2014/10/01,270000,274200,270000,273000,1670,273000
2014/10/02,271300,272600,265100,269700,2448,269700
2014/10/03,266200,273700,266200,272600,1832,272600
2014/10/06,272400,282900,270000,282000,2346,282000
2014/10/07,278700,282000,278400,280300,1374,280300
2014/10/08,276600,282000,275700,279900,1971,279900
2014/10/09,280000,281500,277000,278000,902,278000
2014/10/10,275000,278000,271500,276100,1737,276100
2014/10/14,271500,273100,266700,269600,1459,269600
2014/10/15,267200,272100,265700,270600,1138,270600
2014/10/16,268800,270600,265900,268700,873,268700
2014/10/17,267500,268000,263100,264100,1067,264100
2014/10/20,265800,278000,265800,276900,1668,276900
2014/10/21,276900,277000,272100,275400,840,275400
2014/10/22,276000,278800,274000,277700,1125,277700
2014/10/23,277700,280000,275500,278000,825,278000
2014/10/24,277900,278300,272400,274200,1597,274200
2014/10/27,274300,274300,271400,271600,1084,271600
2014/10/28,271500,274200,271300,272600,698,272600
2014/10/29,273900,276300,273100,273100,646,273100
2014/10/30,273500,275000,271300,273700,748,273700
2014/10/31,275000,286000,274400,279400,1003,279400
2014/11/04,287800,288000,281300,282800,1660,282800
2014/11/05,281200,281200,276300,278400,899,278400
2014/11/06,278400,279900,272300,272300,885,272300
2014/11/07,275500,275500,270500,271000,854,271000
2014/11/10,272000,274300,272000,274300,394,274300
2014/11/11,275500,275900,274400,275400,422,275400
2014/11/12,275800,275900,273500,273900,659,273900
2014/11/13,274200,274500,273500,273800,319,273800
2014/11/14,274100,274500,273000,274000,773,274000
2014/11/17,274100,274200,273200,273600,570,273600
2014/11/18,273700,274100,272200,272300,821,272300
2014/11/19,273500,274100,273100,274100,393,274100
2014/11/20,274100,275700,274000,275200,736,275200
2014/11/21,275800,279800,275700,278800,919,278800
2014/11/25,279200,284000,279000,282700,1222,282700
2014/11/26,282700,286000,281900,284000,1374,284000
2014/11/27,285000,287700,282700,283800,951,283800
2014/11/28,286800,290000,283000,289700,1570,289700
2014/12/01,290000,294900,289300,294100,2413,294100
2014/12/02,295000,295900,290000,294600,2129,294600
2014/12/03,295900,298200,294400,297300,2177,297300
2014/12/04,299000,301500,297500,299900,2682,299900
2014/12/05,300500,304000,299500,304000,1436,304000
2014/12/08,304000,306000,302500,302500,902,302500
2014/12/09,302500,304000,300500,303500,1128,303500
2014/12/10,302500,304000,301500,301500,1081,301500
2014/12/11,301000,304000,298500,304000,1243,304000
2014/12/12,304500,311500,304500,310000,1882,310000
2014/12/15,309000,310000,308500,308500,906,308500
2014/12/16,307500,308500,302500,303000,1168,303000
2014/12/17,303000,305000,298700,299100,1466,299100
2014/12/18,300000,300500,296400,296500,1296,296500
2014/12/19,297100,303500,296400,303500,1803,303500
2014/12/22,303000,306500,303000,305500,1219,305500
2014/12/24,307500,309500,306500,309000,1207,309000
2014/12/25,309500,310000,307500,309000,1938,309000
2014/12/26,300000,301500,298000,299400,3113,299400
2014/12/29,299800,300500,299400,299900,1947,299900
2014/12/30,300000,304000,300000,302000,1088,302000
2015/01/05,298700,300000,297400,299500,2211,299500
2015/01/06,298300,299400,295700,296400,1638,296400
2015/01/07,295700,303500,295200,299400,2095,299400
2015/01/08,302000,305500,300500,304500,808,304500
2015/01/09,305500,310000,305000,309000,1584,309000
2015/01/13,309500,310000,307000,310000,753,310000
2015/01/14,310000,321000,310000,321000,1742,321000
2015/01/15,322000,339000,322000,336000,2097,336000
2015/01/16,337000,339500,327000,338000,1977,338000
2015/01/19,337000,337500,331000,333000,779,333000
2015/01/20,332500,334500,329000,329000,1188,329000
2015/01/21,329500,333000,326500,328000,944,328000
2015/01/22,329500,329500,314500,320000,1520,320000
2015/01/23,314500,319000,312500,318000,1657,318000
2015/01/26,318000,321500,313000,316500,1074,316500
2015/01/27,315500,316000,310500,312000,1027,312000
2015/01/28,312000,313500,300500,302500,1423,302500
2015/01/29,302500,306500,299600,299900,1527,299900
2015/01/30,301000,305000,299700,301000,730,301000
2015/02/02,300500,300500,293100,295000,1014,295000
2015/02/03,296000,296000,276300,281100,2473,281100
2015/02/04,284900,287000,284000,286800,1338,286800
2015/02/05,287000,292700,284500,290600,1148,290600
2015/02/06,292700,296300,292100,296200,1235,296200
2015/02/09,298800,299500,279100,283900,1956,283900
2015/02/10,286700,289100,282300,286900,1166,286900
2015/02/12,289000,296700,288500,296700,1666,296700
2015/02/13,296600,297800,291700,293600,561,293600
2015/02/16,297600,303500,294600,301000,889,301000
2015/02/17,303500,309000,301000,308500,1017,308500
2015/02/18,310000,312500,306500,308000,780,308000
2015/02/19,309000,309000,297800,299800,608,299800
2015/02/20,296200,301000,293100,294200,1526,294200
2015/02/23,294400,304000,294300,303000,941,303000
2015/02/24,303000,304000,298300,302000,824,302000
2015/02/25,304000,304000,301500,304000,352,304000
2015/02/26,304000,308500,301000,308500,542,308500
2015/02/27,309000,310000,301500,302000,975,302000
2015/03/02,304000,304000,299800,300000,395,300000
2015/03/03,301000,303000,296000,303000,676,303000
2015/03/04,300500,305000,296900,302500,796,302500
2015/03/05,300500,302000,297800,298500,837,298500
2015/03/06,300000,300000,298200,298200,270,298200
2015/03/09,298200,298900,293300,294600,504,294600
2015/03/10,294300,295000,290300,292500,619,292500
2015/03/11,290500,292000,290000,290100,488,290100
2015/03/12,290100,295000,290100,294700,676,294700
2015/03/13,294700,294700,290300,291000,1039,291000
2015/03/16,292000,295000,290400,294600,546,294600
2015/03/17,294600,294600,291300,292900,884,292900
2015/03/18,291800,293600,290600,292500,760,292500
2015/03/19,292300,296900,292100,294000,787,294000
2015/03/20,292800,293000,291100,291400,730,291400
2015/03/23,291700,293000,291500,291700,435,291700
2015/03/24,294300,294300,290200,290200,1141,290200
2015/03/25,291000,294800,290900,294700,726,294700
2015/03/26,297000,297000,289600,289600,1037,289600
2015/03/27,291300,294800,290200,294800,790,294800
2015/03/30,293900,293900,290100,290100,734,290100
2015/03/31,293000,293000,290800,290800,482,290800
2015/04/01,290800,290800,288000,288000,814,288000
2015/04/02,288800,290000,287400,289800,669,289800
2015/04/03,289000,290000,287800,289400,236,289400
2015/04/06,288800,289500,288700,288700,105,288700
2015/04/07,289000,289500,288600,289400,580,289400
2015/04/08,289600,289900,288300,288400,695,288400
2015/04/09,289100,290800,288800,290100,1007,290100
2015/04/10,290600,293000,289700,292400,1112,292400
2015/04/13,342500,342500,320000,342500,13077,342500
2015/04/14,335500,341000,328500,335500,3040,335500
2015/04/15,332000,359000,332000,356500,3904,356500
2015/04/16,355000,369000,352000,364500,4025,364500
2015/04/17,360500,365500,360000,360000,2270,360000
2015/04/20,351000,368000,350500,360500,2001,360500
2015/04/21,359500,363000,350500,350500,1862,350500
2015/04/22,351500,354000,344500,350500,2235,350500
2015/04/23,350000,356000,348500,355500,1444,355500
2015/04/24,356000,365000,355000,361000,1576,361000
2015/04/27,362000,362500,354000,355500,825,355500
2015/04/28,359500,363000,356000,362500,1161,362500
2015/04/30,360000,361500,352500,355500,1731,355500
2015/05/01,358000,362500,352500,362500,1708,362500
2015/05/07,361500,362000,352000,352000,1303,352000
2015/05/08,353000,359000,351500,353500,949,353500
2015/05/11,354000,358500,354000,356500,713,356500
2015/05/12,354500,356500,346000,346500,968,346500
2015/05/13,351000,351000,347500,350000,469,350000
2015/05/14,347500,354500,345000,351500,830,351500
2015/05/15,349500,359000,349000,356000,621,356000
2015/05/18,353000,360000,352500,360000,584,360000
2015/05/19,355500,360000,353500,354000,929,354000
2015/05/20,356500,356500,353000,353000,444,353000
2015/05/21,359000,359000,352500,354000,863,354000
2015/05/22,355500,357500,355000,357500,353,357500
2015/05/25,356500,361000,356500,359500,473,359500
2015/05/26,362000,365500,360000,365500,702,365500
2015/05/27,360500,366500,360500,365500,416,365500
2015/05/28,365500,370000,362500,368500,739,368500
2015/05/29,367500,372500,366000,370000,904,370000
2015/06/01,372000,372000,369500,369500,217,369500
2015/06/02,366500,380000,366000,378500,832,378500
2015/06/03,378500,385000,377000,383500,901,383500
2015/06/04,384500,389500,381500,387000,1328,387000
2015/06/05,385500,388000,378000,385000,1078,385000
2015/06/08,381000,387500,380500,383500,631,383500
2015/06/09,383000,390000,382500,390000,719,390000
2015/06/10,390000,390000,385500,388500,891,388500
2015/06/11,386000,387500,378000,380000,965,380000
2015/06/12,378500,381500,377000,377500,351,377500
2015/06/15,374500,378000,374500,375500,494,375500
2015/06/16,377500,378000,375000,377500,536,377500
2015/06/17,374000,380000,374000,377500,881,377500
2015/06/18,377500,382500,375500,380000,703,380000
2015/06/19,378500,379000,375500,375500,909,375500
2015/06/22,377000,380500,376500,376500,646,376500
2015/06/23,377500,380000,374500,378000,731,378000
2015/06/24,377000,377500,371000,374000,1167,374000
2015/06/25,371000,379500,367500,378000,1610,378000
2015/06/26,370000,376500,369000,371000,1150,371000
2015/06/29,364000,370500,358500,368000,1477,368000
2015/06/30,364000,375500,364000,374500,619,374500
2015/07/01,370000,370000,362000,364000,1694,364000
