2011/01/04,320000,324500,318500,323000,1650,64600
2011/01/05,323500,324500,319000,324000,1463,64800
2011/01/06,324500,324500,318500,323500,1018,64700
2011/01/07,323500,324000,321000,321000,622,64200
2011/01/11,320500,322500,315500,321500,656,64300
2011/01/12,320500,321000,316500,318000,568,63600
2011/01/13,317000,319000,315500,317000,716,63400
2011/01/14,315000,318000,308500,318000,1367,63600
2011/01/17,318000,319000,313500,314500,486,62900
2011/01/18,313500,314000,307000,308500,923,61700
2011/01/19,301500,305000,301000,304000,1593,60800
2011/01/20,303000,304500,301500,304000,958,60800
2011/01/21,302500,303500,290700,295000,1424,59000
2011/01/24,291800,296900,290500,296900,1252,59380
2011/01/25,301500,303500,300500,303000,1227,60600
2011/01/26,304500,304500,299500,302000,1425,60400
2011/01/27,289100,294500,288000,293300,1242,58660
2011/01/28,288300,290100,283500,284700,1836,56940
2011/01/31,280200,285500,278600,281000,724,56200
2011/02/01,288000,294000,286000,291900,1313,58380
2011/02/02,293000,295000,288500,289000,961,57800
2011/02/03,286700,289000,283700,283700,810,56740
2011/02/04,283700,284600,280900,281400,437,56280
2011/02/07,280000,280000,275100,276900,609,55380
2011/02/08,272300,274000,268800,269600,1531,53920
2011/02/09,264600,269000,264500,265300,1431,53060
2011/02/10,265600,271000,262400,262600,1771,52520
2011/02/14,262500,263000,258600,258900,1616,51780
2011/02/15,257500,262000,256500,256700,1438,51340
2011/02/16,260000,265900,257700,265300,866,53060
2011/02/17,269700,269700,263600,266000,885,53200
2011/02/18,268000,272300,266600,269300,1007,53860
2011/02/21,271600,274900,269800,272800,982,54560
2011/02/22,272800,275000,265200,272200,1538,54440
2011/02/23,267200,270000,267000,267500,791,53500
2011/02/24,265500,273400,265500,273000,1005,54600
2011/02/25,271400,277800,270500,277800,856,55560
2011/02/28,279700,284100,278000,283000,697,56600
2011/03/01,285000,289800,285000,289300,1114,57860
2011/03/02,291000,295000,286000,286700,1054,57340
2011/03/03,288000,288700,284600,285400,355,57080
2011/03/04,285500,287700,285500,286500,294,57300
2011/03/07,287500,287700,284700,285000,336,57000
2011/03/08,285000,286900,281100,281100,383,56220
2011/03/09,281000,283500,279000,279000,390,55800
2011/03/10,280000,281000,273900,276300,489,55260
2011/03/11,274000,275800,270000,271100,851,54220
2011/03/14,241100,254000,240000,245300,2010,49060
2011/03/15,240300,241000,195500,218000,2352,43600
2011/03/16,219000,240000,219000,236400,1227,47280
2011/03/17,226400,242600,225400,237100,1139,47420
2011/03/18,242000,251900,242000,247200,849,49440
2011/03/22,257200,258700,253500,256300,775,51260
2011/03/23,256200,266900,255600,258100,1274,51620
2011/03/24,263100,265000,259600,260600,333,52120
2011/03/25,261100,265700,261100,261400,628,52280
2011/03/28,260900,261000,253100,255500,521,51100
2011/03/29,252100,253000,250400,251100,1112,50220
2011/03/30,252000,255500,252000,254500,294,50900
2011/03/31,254700,255500,251600,254500,565,50900
2011/04/01,255000,261300,254900,261300,549,52260
2011/04/04,269000,269000,263000,264500,446,52900
2011/04/05,264500,266900,260800,264800,437,52960
2011/04/06,264800,269000,261500,266000,290,53200
2011/04/07,263700,268800,263000,268800,739,53760
2011/04/08,266500,267900,263300,265300,598,53060
2011/04/11,265300,269000,265100,268100,479,53620
2011/04/12,267900,267900,263500,266500,349,53300
2011/04/13,263100,266000,258300,259000,591,51800
2011/04/14,260200,262000,258300,260600,514,52120
2011/04/15,260900,260900,258300,259800,252,51960
2011/04/18,259800,261800,259800,261000,337,52200
2011/04/19,259800,265500,259500,265000,498,53000
2011/04/20,265600,268000,265000,266200,420,53240
2011/04/21,266300,267000,262500,263200,261,52640
2011/04/22,265700,267400,264200,264800,252,52960
2011/04/25,267300,267800,265800,267800,258,53560
2011/04/26,267900,268800,265800,268200,291,53640
2011/04/27,268600,272000,268500,271000,595,54200
2011/04/28,272500,282000,271400,279400,1096,55880
2011/05/02,280100,285700,275000,276300,702,55260
2011/05/06,273000,279400,271100,272800,794,54560
2011/05/09,272000,274500,272000,274200,274,54840
2011/05/10,276900,276900,272300,272300,263,54460
2011/05/11,272400,273000,270500,270500,306,54100
2011/05/12,270100,270600,268100,269400,369,53880
2011/05/13,268500,269000,265000,265100,507,53020
2011/05/16,265000,266800,262500,265000,232,53000
2011/05/17,267000,268600,265200,265300,161,53060
2011/05/18,268700,268700,265000,266000,301,53200
2011/05/19,265700,271000,265700,270800,291,54160
2011/05/20,270800,274600,270800,273900,290,54780
2011/05/23,273100,273800,270500,271000,185,54200
2011/05/24,269800,272700,268000,271100,150,54220
2011/05/25,269000,273900,269000,272700,272,54540
2011/05/26,272000,274400,270600,272600,151,54520
2011/05/27,273900,276400,272500,275500,338,55100
2011/05/30,277000,278800,277000,278000,386,55600
2011/05/31,277500,281400,277000,281300,436,56260
2011/06/01,281300,284000,279500,282100,434,56420
2011/06/02,281400,282500,280100,282400,365,56480
2011/06/03,280300,284800,280300,282800,433,56560
2011/06/06,282500,285000,280500,280500,278,56100
2011/06/07,277000,280500,275700,280500,422,56100
2011/06/08,280500,280500,276800,278500,290,55700
2011/06/09,278500,281500,276100,277500,399,55500
2011/06/10,275800,278500,274800,276400,380,55280
2011/06/13,276500,279700,273600,277800,297,55560
2011/06/14,278000,280500,276800,276800,236,55360
2011/06/15,279900,284000,279000,283900,405,56780
2011/06/16,282900,283500,278500,278500,482,55700
2011/06/17,279000,279400,275000,275000,206,55000
2011/06/20,275100,279200,275100,279200,197,55840
2011/06/21,281300,281800,279200,281700,233,56340
2011/06/22,281100,281600,279400,279400,197,55880
2011/06/23,280900,282300,279000,279100,352,55820
2011/06/24,279100,281500,279000,281400,221,56280
2011/06/27,281400,284000,280500,283000,343,56600
2011/06/28,281500,286000,281500,283000,507,56600
2011/06/29,283500,288500,283500,288000,496,57600
2011/06/30,289000,295000,288900,294000,829,58800
2011/07/01,294100,294700,292500,294600,470,58920
2011/07/04,293900,294200,292700,293700,531,58740
2011/07/05,291500,293200,288400,290500,392,58100
2011/07/06,288500,290400,286000,288000,428,57600
2011/07/07,286200,287900,283100,284000,428,56800
2011/07/08,285000,288600,284200,284300,370,56860
2011/07/11,285200,285500,283100,283100,317,56620
2011/07/12,283100,284200,281100,281100,369,56220
2011/07/13,282000,282800,280200,281000,357,56200
2011/07/14,280300,282500,280000,282200,325,56440
2011/07/15,280700,282400,280700,281100,267,56220
2011/07/19,281000,286200,280800,286200,426,57240
2011/07/20,284900,285100,283600,284100,571,56820
2011/07/21,284000,285100,283900,285000,419,57000
2011/07/22,285000,285300,284000,285300,353,57060
2011/07/25,284100,285500,284100,285500,483,57100
2011/07/26,285000,285000,282500,283600,515,56720
2011/07/27,270600,271100,266200,267800,1103,53560
2011/07/28,266200,266200,257100,257200,1104,51440
2011/07/29,259500,259500,258000,258100,325,51620
2011/08/01,268100,269800,265600,269000,849,53800
2011/08/02,270000,270700,267500,269000,599,53800
2011/08/03,268300,270000,267100,269800,429,53960
2011/08/04,269900,278900,269000,278000,942,55600
2011/08/05,273000,281700,270000,270000,1334,54000
2011/08/08,267500,267800,262500,262500,620,52500
2011/08/09,255300,264900,251000,259000,772,51800
2011/08/10,264500,265400,260000,265400,527,53080
2011/08/11,258000,263400,257300,260100,324,52020
2011/08/12,261000,262800,260400,261800,348,52360
2011/08/15,263500,269800,263400,268300,175,53660
2011/08/16,270000,279800,269900,279800,730,55960
2011/08/17,279600,284500,277000,283400,701,56680
2011/08/18,280600,283000,280500,282900,364,56580
2011/08/19,278200,282700,275500,281400,315,56280
2011/08/22,277300,278900,275000,276000,150,55200
2011/08/23,276000,277400,270300,271500,256,54300
2011/08/24,271700,271700,268000,269900,281,53980
2011/08/25,269900,269900,267500,267500,251,53500
2011/08/26,267600,274500,267600,274500,275,54900
2011/08/29,270700,278000,270700,276100,132,55220
2011/08/30,276300,279000,275000,276700,216,55340
2011/08/31,275700,278000,271100,276900,411,55380
2011/09/01,276800,278000,272800,275600,292,55120
2011/09/02,276900,276900,274200,275100,99,55020
2011/09/05,273900,277000,265000,272000,160,54400
2011/09/06,272000,274900,269500,271300,211,54260
2011/09/07,273000,278000,271300,275100,372,55020
2011/09/08,277900,281300,277000,277800,534,55560
2011/09/09,280000,280000,271400,279200,722,55840
2011/09/12,279000,279000,270300,272000,250,54400
2011/09/13,272000,274100,268000,268000,274,53600
2011/09/14,268100,270500,265000,265000,282,53000
2011/09/15,265000,265000,259100,261900,513,52380
2011/09/16,260800,266000,260000,260000,849,52000
2011/09/20,260000,260700,258700,258700,252,51740
2011/09/21,259000,262000,258900,259000,333,51800
2011/09/22,258000,258100,255300,256800,244,51360
2011/09/26,256900,257000,250100,250400,238,50080
2011/09/27,255400,255400,250100,253100,282,50620
2011/09/28,258100,258900,253900,256100,369,51220
2011/09/29,254000,258000,251000,256800,495,51360
2011/09/30,257000,263000,257000,261000,491,52200
2011/10/03,258200,263000,255000,261100,416,52220
2011/10/04,261000,261000,257100,259500,575,51900
2011/10/05,254500,254600,250000,250000,875,50000
2011/10/06,250000,254300,247800,249600,340,49920
2011/10/07,249600,252000,249200,250700,328,50140
2011/10/11,255000,256900,250400,255600,452,51120
2011/10/12,255000,256000,251800,253300,218,50660
2011/10/13,256700,263300,254500,263000,513,52600
2011/10/14,263000,264500,262500,262500,503,52500
2011/10/17,263800,263800,260200,261000,201,52200
2011/10/18,258900,261900,256500,258600,114,51720
2011/10/19,261800,261900,258200,261000,214,52200
2011/10/20,260000,260000,258000,259800,164,51960
2011/10/21,255300,261300,255300,255400,131,51080
2011/10/24,256800,258400,254400,254400,195,50880
2011/10/25,254500,257500,254500,256100,366,51220
2011/10/26,256300,258800,255500,258600,328,51720
2011/10/27,259800,261500,258600,259600,232,51920
2011/10/28,260000,265000,260000,265000,561,53000
2011/10/31,266000,268700,265000,267400,401,53480
2011/11/01,263000,264600,260200,263000,179,52600
2011/11/02,260100,263800,258600,263500,420,52700
2011/11/04,261000,262900,260000,260700,270,52140
2011/11/07,263000,263000,260700,262000,190,52400
2011/11/08,262000,262000,255000,255100,312,51020
2011/11/09,255600,257400,252800,254500,262,50900
2011/11/10,255000,255000,247600,247600,474,49520
2011/11/11,252000,253000,248500,251000,207,50200
2011/11/14,251100,258400,251100,254900,506,50980
2011/11/15,254900,255000,253200,254000,276,50800
2011/11/16,254000,254500,249000,249500,394,49900
2011/11/17,251000,251000,244000,244200,321,48840
2011/11/18,245100,247100,241500,247100,322,49420
2011/11/21,247000,247000,241500,242300,357,48460
2011/11/22,238000,248000,238000,247800,188,49560
2011/11/24,247800,247800,244000,245100,275,49020
2011/11/25,248500,248500,245400,245500,282,49100
2011/11/28,247800,247900,239000,240000,254,48000
2011/11/29,245000,247000,244000,247000,507,49400
2011/11/30,247200,250000,247000,247800,353,49560
2011/12/01,253300,254000,248100,252500,279,50500
2011/12/02,248300,251400,248100,248600,162,49720
2011/12/05,250000,258500,249200,257700,593,51540
2011/12/06,257800,259400,252900,255700,235,51140
2011/12/07,253200,255500,250100,253700,444,50740
2011/12/08,252900,255100,252000,252900,270,50580
2011/12/09,253000,254500,251800,252000,240,50400
2011/12/12,255400,255400,253500,254000,368,50800
2011/12/13,254100,255700,254000,254000,290,50800
2011/12/14,254000,254100,250800,251500,305,50300
2011/12/15,251500,253900,251000,252000,271,50400
2011/12/16,252000,252000,249300,249400,322,49880
2011/12/19,249400,250800,247500,248600,364,49720
2011/12/20,248700,250100,248000,248500,226,49700
2011/12/21,249400,252200,249000,250600,344,50120
2011/12/22,250700,251000,248600,248600,365,49720
2011/12/26,251400,251400,247700,247800,361,49560
2011/12/27,249600,251500,247800,251500,245,50300
2011/12/28,251900,252700,250600,251700,524,50340
2011/12/29,251800,251900,249600,251800,451,50360
2011/12/30,251800,252900,251100,251800,362,50360
2012/01/04,252000,253000,251800,252500,456,50500
2012/01/05,252600,254000,251500,251700,604,50340
2012/01/06,251700,255000,251600,255000,655,51000
2012/01/10,255000,255400,253800,254100,617,50820
2012/01/11,255000,256200,254400,255400,437,51080
2012/01/12,255300,255500,254100,254700,294,50940
2012/01/13,255100,255400,254600,255000,528,51000
2012/01/16,254700,254700,252500,254400,270,50880
2012/01/17,254400,255000,254100,254500,489,50900
2012/01/18,254500,254800,254000,254400,237,50880
2012/01/19,254400,255000,254400,254800,305,50960
2012/01/20,254900,255800,254900,255500,413,51100
2012/01/23,260000,260800,258000,259600,808,51920
2012/01/24,259700,261000,256800,257900,671,51580
2012/01/25,257900,258800,256600,257500,1024,51500
2012/01/26,256900,257900,255700,256200,1646,51240
2012/01/27,247700,251000,247200,249000,1494,49800
2012/01/30,249100,253100,248800,251700,972,50340
2012/01/31,252800,253000,251600,252200,637,50440
2012/02/01,252200,252300,249700,249700,489,49940
2012/02/02,251000,253100,251000,252500,349,50500
2012/02/03,252600,254800,251300,253000,446,50600
2012/02/06,254000,254000,251100,252000,370,50400
2012/02/07,252000,252100,250100,251500,309,50300
2012/02/08,251500,252900,250200,251300,319,50260
2012/02/09,251400,251500,250200,250300,452,50060
2012/02/10,250800,251400,250200,251200,312,50240
2012/02/13,251600,252900,251600,252000,197,50400
2012/02/14,252100,253700,251900,252600,219,50520
2012/02/15,252600,257000,252600,254300,599,50860
2012/02/16,257200,258600,256000,258600,344,51720
2012/02/17,260000,273000,259500,268300,1465,53660
2012/02/20,270000,274400,270000,273500,623,54700
2012/02/21,269000,272000,267300,269700,406,53940
2012/02/22,269000,269600,267300,267300,281,53460
2012/02/23,268900,273000,268100,273000,247,54600
2012/02/24,273500,293500,273500,285200,1130,57040
2012/02/27,289500,293000,287200,290700,733,58140
2012/02/28,287000,292000,285900,287700,714,57540
2012/02/29,287600,294900,285900,293700,890,58740
2012/03/01,290400,292200,283100,284100,374,56820
2012/03/02,286500,288000,283300,285600,324,57120
2012/03/05,283800,287400,283800,285000,238,57000
2012/03/06,285000,285000,280200,281700,430,56340
2012/03/07,273200,288000,273200,288000,484,57600
2012/03/08,287600,292500,287400,290200,493,58040
2012/03/09,295000,297800,291000,297800,1025,59560
2012/03/12,300000,300000,294500,294800,541,58960
2012/03/13,294900,298800,293000,294600,475,58920
2012/03/14,294700,298000,293600,294600,522,58920
2012/03/15,294700,297800,292300,297000,670,59400
2012/03/16,301500,314500,301500,311500,1693,62300
2012/03/19,306500,316500,306500,313000,676,62600
2012/03/21,312000,313000,301000,304000,454,60800
2012/03/22,303000,304000,299200,299300,543,59860
2012/03/23,298000,302000,298000,301500,571,60300
2012/03/26,301500,305000,299100,305000,173,61000
2012/03/27,305000,308500,304500,308500,408,61700
2012/03/28,310000,315000,308500,311500,347,62300
2012/03/29,311500,323000,308500,321500,766,64300
2012/03/30,323000,330000,322000,330000,773,66000
2012/04/02,323000,341500,322500,341500,1226,68300
2012/04/03,339500,340000,327500,332500,775,66500
2012/04/04,332000,332000,324500,329500,637,65900
2012/04/05,320000,326000,320000,321500,604,64300
2012/04/06,319000,325500,318000,325500,253,65100
2012/04/09,324500,324500,320000,321000,194,64200
2012/04/10,321000,326500,318000,322500,280,64500
2012/04/11,315500,321500,315500,319500,284,63900
2012/04/12,316500,320000,316500,317500,151,63500
2012/04/13,319500,325500,319500,325500,343,65100
2012/04/16,324000,324500,320000,321000,114,64200
2012/04/17,321500,323000,315500,316000,319,63200
2012/04/18,320000,323500,317500,323500,405,64700
2012/04/19,323500,327500,317500,318000,234,63600
2012/04/20,322500,326500,319500,325000,314,65000
2012/04/23,325000,327500,320000,324000,376,64800
2012/04/24,321000,324000,319500,322000,144,64400
2012/04/25,322000,329500,321000,327000,313,65400
2012/04/26,330000,331000,322000,324000,493,64800
2012/04/27,329000,334000,324500,334000,478,66800
2012/05/01,334000,340000,330000,334500,501,66900
2012/05/02,328500,336000,328500,336000,462,67200
2012/05/07,330000,330500,320000,325000,690,65000
2012/05/08,325000,328500,321000,322000,295,64400
2012/05/09,321000,322000,319000,320000,191,64000
2012/05/10,313000,319500,313000,316000,303,63200
2012/05/11,317000,317000,307000,307000,403,61400
2012/05/14,308000,316000,308000,313500,255,62700
2012/05/15,313500,314000,306000,312500,203,62500
2012/05/16,306000,308500,302500,302500,391,60500
2012/05/17,302500,321000,302500,317500,336,63500
2012/05/18,307000,314000,306000,312500,385,62500
2012/05/21,308500,316000,308500,314000,201,62800
2012/05/22,314000,316000,310000,310000,282,62000
2012/05/23,313500,313500,307500,308000,114,61600
2012/05/24,308500,311000,306500,310500,135,62100
2012/05/25,308000,316500,308000,313500,413,62700
2012/05/28,314000,319000,309500,319000,219,63800
2012/05/29,319000,319000,315000,316000,290,63200
2012/05/30,312000,314500,302000,314000,616,62800
2012/05/31,313500,318500,308500,318500,545,63700
2012/06/01,318500,319000,309000,310500,297,62100
2012/06/04,300500,301000,295900,297600,741,59520
2012/06/05,298100,304000,297900,300500,374,60100
2012/06/06,300500,306500,300000,302000,303,60400
2012/06/07,303500,313000,303500,312000,320,62400
2012/06/08,319000,322000,309000,310000,576,62000
2012/06/11,312000,316500,310500,310500,179,62100
2012/06/12,308000,313000,306000,311500,299,62300
2012/06/13,313500,313500,310000,313000,126,62600
2012/06/14,315000,319500,310500,310500,375,62100
2012/06/15,314000,314500,310500,311000,138,62200
2012/06/18,318000,327500,318000,320000,278,64000
2012/06/19,327000,327000,321000,325000,381,65000
2012/06/20,327000,332000,327000,330000,276,66000
2012/06/21,330000,332000,327500,327500,246,65500
2012/06/22,325500,333000,325000,333000,295,66600
2012/06/25,335000,335000,326500,330000,393,66000
2012/06/26,333000,334500,330500,333000,336,66600
2012/06/27,333000,339000,332500,337500,491,67500
2012/06/28,337500,342500,333500,339000,463,67800
2012/06/29,342000,348000,338500,344000,754,68800
2012/07/02,344000,352500,344000,351000,567,70200
2012/07/03,347500,353000,347500,351500,470,70300
2012/07/04,352000,353000,351000,352500,494,70500
2012/07/05,352500,352500,346000,348000,404,69600
2012/07/06,346000,346000,339500,340000,585,68000
2012/07/09,340000,344500,338000,338000,188,67600
2012/07/10,340000,344500,339000,340000,215,68000
2012/07/11,339000,339000,335000,335500,247,67100
2012/07/12,335000,335500,331500,333500,221,66700
2012/07/13,331500,346000,331500,346000,297,69200
2012/07/17,342000,348500,341000,348500,339,69700
2012/07/18,347500,351000,344000,344000,282,68800
2012/07/19,344000,345000,340000,340000,235,68000
2012/07/20,340000,341000,339000,341000,277,68200
2012/07/23,341000,342000,338500,338500,371,67700
2012/07/24,339000,342000,338000,340000,462,68000
2012/07/25,341000,344000,339000,341000,527,68200
2012/07/26,336000,341000,336000,338500,417,67700
2012/07/27,325500,338500,325000,337000,785,67400
2012/07/30,335000,338000,332000,336500,564,67300
2012/07/31,330000,333000,330000,330500,377,66100
2012/08/01,334000,334000,328500,330000,371,66000
2012/08/02,328500,330000,322500,323000,739,64600
2012/08/03,325500,327500,320000,324500,520,64900
2012/08/06,325500,327000,321500,323500,239,64700
2012/08/07,321500,325500,319500,324500,371,64900
2012/08/08,327000,329000,321500,321500,351,64300
2012/08/09,322500,322500,319000,319500,221,63900
2012/08/10,320000,320500,319000,320500,245,64100
2012/08/13,321000,321000,318500,319000,340,63800
2012/08/14,320000,320000,319500,320000,249,64000
2012/08/15,320000,320000,315500,316500,436,63300
2012/08/16,316500,317500,315500,315500,351,63100
2012/08/17,317500,318000,317000,317500,411,63500
2012/08/20,317000,321000,317000,319500,182,63900
2012/08/21,320000,323000,320000,322000,345,64400
2012/08/22,323000,332000,322500,331500,351,66300
2012/08/23,332500,332500,328500,330000,510,66000
2012/08/24,328000,334500,328000,333000,327,66600
2012/08/27,334500,338000,333500,336000,505,67200
2012/08/28,338000,338000,330500,333500,208,66700
2012/08/29,335000,335000,333000,334000,176,66800
2012/08/30,334000,337000,333000,335500,395,67100
2012/08/31,334000,338000,330000,333500,214,66700
2012/09/03,338000,340000,331000,334000,269,66800
2012/09/04,334000,334000,325000,332500,331,66500
2012/09/05,327000,334500,327000,334500,247,66900
2012/09/06,332000,334500,332000,334000,401,66800
2012/09/07,335000,336000,333500,334000,166,66800
2012/09/10,336000,336000,332500,333000,416,66600
2012/09/11,336000,336000,333000,333500,437,66700
2012/09/12,331000,335000,331000,332000,382,66400
2012/09/13,332000,340000,332000,340000,587,68000
2012/09/14,338000,344500,338000,339500,537,67900
2012/09/18,339500,341000,337000,341000,163,68200
2012/09/19,344000,347500,342500,344500,325,68900
2012/09/20,343000,345000,338500,345000,246,69000
2012/09/21,347500,351000,346500,348000,814,69600
2012/09/24,346000,350000,345000,348000,293,69600
2012/09/25,350000,365000,349000,365000,559,73000
2012/09/26,360500,369000,357000,366000,796,73200
2012/09/27,359500,372500,358500,370500,603,74100
2012/09/28,371000,380000,371000,380000,586,76000
2012/10/01,380000,380500,363000,369500,774,73900
2012/10/02,369500,380000,367000,368500,345,73700
2012/10/03,364000,374000,363000,371000,469,74200
2012/10/04,367500,372500,365000,372500,355,74500
2012/10/05,370000,374000,365000,369000,550,73800
2012/10/09,366500,373000,365500,366000,275,73200
2012/10/10,365000,367000,365000,365500,180,73100
2012/10/11,362000,369500,362000,367500,227,73500
2012/10/12,370000,370000,365500,368500,221,73700
2012/10/15,368500,373500,367500,373500,255,74700
2012/10/16,373000,373500,370000,370500,313,74100
2012/10/17,371500,374000,371000,374000,471,74800
2012/10/18,375000,383000,375000,382500,520,76500
2012/10/19,379000,381000,374000,374500,429,74900
2012/10/22,375000,384500,375000,384000,414,76800
2012/10/23,384000,385000,382000,385000,261,77000
2012/10/24,385000,397500,385000,397000,556,79400
2012/10/25,388000,396000,388000,395000,640,79000
2012/10/26,390000,398000,390000,398000,414,79600
2012/10/29,397500,400000,392000,394000,372,78800
2012/10/30,392500,394500,381000,385000,746,77000
2012/10/31,382500,393500,370500,387500,1004,77500
2012/11/01,391500,395000,388500,393500,498,78700
2012/11/02,394000,400000,392500,398000,580,79600
2012/11/05,395500,398500,386500,389000,446,77800
2012/11/06,387500,389000,383000,386000,275,77200
2012/11/07,388000,388000,382500,386000,177,77200
2012/11/08,391000,391000,380500,386000,341,77200
2012/11/09,381500,387000,381000,386000,305,77200
2012/11/12,381000,385000,379000,379000,362,75800
2012/11/13,379000,383000,376000,380500,209,76100
2012/11/14,381000,395000,380000,394000,395,78800
2012/11/15,396000,400000,394500,400000,745,80000
2012/11/16,399000,400000,392000,397000,406,79400
2012/11/19,397000,399500,395000,395500,121,79100
2012/11/20,396000,399500,394000,396500,293,79300
2012/11/21,398000,399500,395500,399500,286,79900
2012/11/22,399000,399500,398000,399500,244,79900
2012/11/26,400000,400000,395500,396000,178,79200
2012/11/27,397500,400000,395000,398500,321,79700
2012/11/28,398500,404000,398000,404000,339,80800
2012/11/29,404500,417500,401000,416000,442,83200
2012/11/30,413000,424500,408500,421000,555,84200
2012/12/03,421000,427000,418500,425500,426,85100
2012/12/04,425500,425500,416500,423500,520,84700
2012/12/05,422000,428000,420000,423000,188,84600
2012/12/06,428500,428500,419000,421000,226,84200
2012/12/07,425000,426000,416500,421500,506,84300
2012/12/10,421500,421500,413500,417500,394,83500
2012/12/11,417500,417500,407500,409000,494,81800
2012/12/12,415000,415000,405500,407000,254,81400
2012/12/13,407000,417500,406000,417500,465,83500
2012/12/14,428000,446000,425500,446000,1603,89200
2012/12/17,442000,457000,442000,457000,709,91400
2012/12/18,453500,455000,438500,445000,984,89000
2012/12/19,446000,446000,438500,441500,561,88300
2012/12/20,442000,454500,441000,444500,1033,88900
2012/12/21,444000,460000,443500,453000,2417,90600
2012/12/25,455500,479500,454500,471000,1746,94200
2012/12/26,471500,473000,465000,467000,432,93400
2012/12/27,467000,469500,456500,466500,819,93300
2012/12/28,469500,469500,460000,463000,562,92600
2013/01/04,479000,479000,468500,470000,1074,94000
2013/01/07,471000,475000,466500,468500,406,93700
2013/01/08,462500,465000,457000,457000,505,91400
2013/01/09,459500,460000,457000,459000,377,91800
2013/01/10,461500,461500,458500,460000,466,92000
2013/01/11,460000,469500,460000,468000,517,93600
2013/01/15,471000,477000,464000,469500,891,93900
2013/01/16,469500,470000,462000,468500,543,93700
2013/01/17,468500,470000,462500,463000,530,92600
2013/01/18,470000,478000,467000,478000,819,95600
2013/01/21,480000,483000,474000,477500,441,95500
2013/01/22,478000,481500,471000,476000,490,95200
2013/01/23,476000,477500,468500,472000,432,94400
2013/01/24,472000,481000,470000,481000,352,96200
2013/01/25,485000,488000,472500,481000,1032,96200
2013/01/28,486000,486000,479000,483500,871,96700
2013/01/29,475000,483000,473500,478500,1048,95700
2013/01/30,482000,483500,476000,478000,925,95600
2013/01/31,481000,485000,479000,485000,715,97000
2013/02/01,486500,491000,474000,479500,1105,95900
2013/02/04,476000,479500,473500,476500,404,95300
2013/02/05,470500,472500,457500,462000,847,92400
2013/02/06,465000,477000,465000,474000,578,94800
2013/02/07,469000,472500,467000,469000,903,93800
2013/02/08,468500,469000,462000,464500,664,92900
2013/02/12,466000,467500,456500,457500,663,91500
2013/02/13,452000,460000,452000,460000,474,92000
2013/02/14,459500,459500,450000,450000,632,90000
2013/02/15,449000,455000,447500,450000,537,90000
2013/02/18,464000,476000,461500,476000,1484,95200
2013/02/19,476000,480000,469000,480000,1087,96000
2013/02/20,478000,492000,478000,492000,1014,98400
2013/02/21,491500,491500,486500,491000,580,98200
2013/02/22,489000,497000,485500,497000,787,99400
2013/02/25,497000,505000,495500,504000,1239,100800
2013/02/26,500000,512000,500000,506000,1757,101200
2013/02/27,510000,540000,510000,530000,1136,106000
2013/02/28,525000,531000,520000,530000,2265,106000
2013/03/01,532000,560000,528000,541000,2381,108200
2013/03/04,557000,566000,542000,544000,2678,108800
2013/03/05,552000,553000,538000,539000,3711,107800
2013/03/06,537000,566000,537000,560000,2580,112000
2013/03/07,568000,569000,553000,556000,1147,111200
2013/03/08,550000,560000,538000,540000,1364,108000
2013/03/11,539000,561000,539000,559000,1302,111800
2013/03/12,559000,591000,556000,586000,1376,117200
2013/03/13,583000,594000,577000,591000,779,118200
2013/03/14,587000,614000,587000,610000,1062,122000
2013/03/15,620000,640000,612000,633000,1564,126600
2013/03/18,638000,638000,619000,626000,1139,125200
2013/03/19,633000,637000,611000,624000,1416,124800
2013/03/21,623000,636000,619000,636000,888,127200
2013/03/22,636000,647000,629000,641000,1199,128200
2013/03/25,648000,682000,646000,678000,1632,135600
2013/03/26,678000,683000,662000,681000,1234,136200
2013/03/27,685000,728000,685000,720000,1194,144000
2013/03/28,730000,734000,680000,697000,1715,139400
2013/03/29,672000,705000,640000,701000,1630,140200
2013/04/01,703000,710000,644000,644000,1648,128800
2013/04/02,599000,655000,594000,627000,1764,125400
2013/04/03,628000,649000,610000,620000,1029,124000
2013/04/04,607000,669000,604000,657000,1494,131400
2013/04/05,733000,733000,686000,696000,2084,139200
2013/04/08,717000,717000,696000,711000,1339,142200
2013/04/09,711000,714000,696000,698000,1222,139600
2013/04/10,691000,704000,686000,699000,1290,139800
2013/04/11,693000,700000,671000,699000,1254,139800
2013/04/12,689000,702000,685000,700000,911,140000
2013/04/15,700000,700000,688000,690000,626,138000
2013/04/16,680000,684000,662000,664000,898,132800
2013/04/17,665000,675000,656000,659000,805,131800
2013/04/18,654000,679000,651000,673000,803,134600
2013/04/19,678000,700000,675000,697000,822,139400
2013/04/22,700000,704000,688000,690000,692,138000
2013/04/23,685000,690000,673000,678000,807,135600
2013/04/24,681000,688000,667000,670000,827,134000
2013/04/25,669000,679000,663000,675000,609,135000
2013/04/26,678000,678000,661000,661000,721,132200
2013/04/30,654000,680000,652000,677000,688,135400
2013/05/01,677000,684000,669000,673000,479,134600
2013/05/02,669000,673000,661000,663000,448,132600
2013/05/07,670000,676000,660000,660000,618,132000
2013/05/08,654000,669000,654000,666000,695,133200
2013/05/09,657000,660000,630000,637000,808,127400
2013/05/10,635000,646000,600000,622000,1570,124400
2013/05/13,612000,613000,573000,592000,1788,118400
2013/05/14,572000,590000,543000,550000,2338,110000
2013/05/15,549000,575000,538000,555000,2079,111000
2013/05/16,560000,590000,539000,561000,1837,112200
2013/05/17,570000,600000,562000,600000,1309,120000
2013/05/20,606000,665000,605000,644000,2020,128800
2013/05/21,649000,650000,615000,627000,773,125400
2013/05/22,627000,636000,607000,618000,884,123600
2013/05/23,609000,610000,558000,574000,1170,114800
2013/05/24,574000,598000,541000,568000,1222,113600
2013/05/27,558000,595000,555000,589000,696,117800
2013/05/28,598000,598000,571000,593000,662,118600
2013/05/29,593000,609000,578000,590000,698,118000
2013/05/30,567000,590000,564000,581000,799,116200
2013/05/31,591000,603000,568000,601000,856,120200
2013/06/03,581000,612000,572000,600000,979,120000
2013/06/04,590000,591000,563000,587000,2068,117400
2013/06/05,577000,583000,550000,573000,1301,114600
2013/06/06,551000,568000,543000,558000,1222,111600
2013/06/07,545000,573000,545000,559000,686,111800
2013/06/10,569000,573000,552000,564000,1100,112800
2013/06/11,555000,574000,552000,573000,999,114600
2013/06/12,558000,564000,546000,562000,1098,112400
2013/06/13,546000,554000,538000,538000,791,107600
2013/06/14,530000,579000,530000,569000,1254,113800
2013/06/17,573000,583000,557000,567000,307,113400
2013/06/18,561000,562000,545000,550000,1065,110000
2013/06/19,550000,554000,541000,541000,540,108200
2013/06/20,538000,540000,523000,531000,679,106200
2013/06/21,522000,547000,522000,538000,598,107600
2013/06/24,549000,549000,532000,532000,261,106400
2013/06/25,535000,543000,524000,540000,476,108000
2013/06/26,541000,552000,532000,552000,467,110400
2013/06/27,554000,576000,551000,574000,886,114800
2013/06/28,580000,617000,578000,617000,871,123400
2013/07/01,620000,622000,606000,614000,357,122800
2013/07/02,622000,622000,610000,622000,531,124400
2013/07/03,616000,619000,606000,619000,586,123800
2013/07/04,616000,620000,603000,604000,765,120800
2013/07/05,609000,609000,601000,602000,571,120400
2013/07/08,610000,610000,591000,592000,532,118400
2013/07/09,602000,602000,595000,597000,314,119400
2013/07/10,592000,602000,592000,602000,401,120400
2013/07/11,601000,610000,596000,610000,302,122000
2013/07/12,616000,638000,607000,634000,778,126800
2013/07/16,640000,640000,626000,634000,526,126800
2013/07/17,634000,642000,630000,631000,301,126200
2013/07/18,630000,637000,625000,630000,704,126000
2013/07/19,627000,627000,613000,614000,416,122800
2013/07/22,608000,613000,600000,606000,609,121200
2013/07/23,606000,616000,605000,605000,306,121000
2013/07/24,606000,607000,596000,596000,427,119200
2013/07/25,603000,603000,595000,596000,270,119200
2013/07/26,595000,598000,591000,596000,196,119200
2013/07/29,590000,591000,570000,574000,346,114800
2013/07/30,563000,574000,555000,556000,795,111200
2013/07/31,551000,563000,544000,548000,514,109600
2013/08/01,545000,582000,545000,571000,401,114200
2013/08/02,584000,584000,564000,568000,353,113600
2013/08/05,560000,566000,556000,561000,493,112200
2013/08/06,561000,566000,554000,557000,317,111400
2013/08/07,547000,556000,544000,546000,406,109200
2013/08/08,547000,561000,544000,545000,228,109000
2013/08/09,547000,552000,541000,548000,357,109600
2013/08/12,541000,564000,541000,554000,281,110800
2013/08/13,564000,565000,555000,563000,226,112600
2013/08/14,564000,566000,554000,563000,439,112600
2013/08/15,556000,580000,555000,574000,473,114800
2013/08/16,564000,570000,560000,561000,244,112200
2013/08/19,571000,571000,559000,561000,213,112200
2013/08/20,559000,569000,550000,551000,330,110200
2013/08/21,547000,558000,547000,557000,272,111400
2013/08/22,547000,547000,541000,546000,682,109200
2013/08/23,552000,555000,543000,555000,352,111000
2013/08/26,562000,562000,552000,555000,341,111000
2013/08/27,550000,554000,546000,549000,498,109800
2013/08/28,545000,549000,536000,540000,1225,108000
2013/08/29,541000,550000,536000,542000,2055,108400
2013/08/30,545000,554000,540000,548000,846,109600
2013/09/02,537000,558000,537000,548000,2217,109600
2013/09/03,558000,581000,554000,575000,1419,115000
2013/09/04,568000,577000,562000,573000,2073,114600
2013/09/05,564000,572000,559000,572000,2350,114400
2013/09/06,565000,568000,562000,568000,756,113600
2013/09/09,578000,597000,578000,594000,1786,118800
2013/09/10,595000,605000,590000,602000,2280,120400
2013/09/11,605000,627000,605000,619000,1072,123800
2013/09/12,619000,622000,603000,617000,858,123400
2013/09/13,617000,621000,608000,618000,587,123600
2013/09/17,625000,630000,621000,628000,608,125600
2013/09/18,618000,631000,618000,630000,646,126000
2013/09/19,635000,647000,634000,647000,926,129400
2013/09/20,647000,655000,634000,655000,2030,131000
2013/09/24,641000,650000,630000,646000,1474,129200
2013/09/25,648000,658000,633000,658000,1204,131600
2013/09/26,652000,659000,635000,648000,1246,129600
2013/09/27,642000,663000,642000,656000,979,131200
2013/09/30,659000,680000,647000,679000,1267,135800
2013/10/01,679000,679000,662000,673000,1200,134600
2013/10/02,673000,673000,639000,640000,862,128000
2013/10/03,640000,650000,631000,642000,580,128400
2013/10/04,639000,642000,623000,628000,530,125600
2013/10/07,625000,636000,619000,629000,718,125800
2013/10/08,621000,638000,620000,634000,348,126800
2013/10/09,633000,669000,625000,663000,718,132600
2013/10/10,661000,661000,649000,657000,544,131400
2013/10/11,663000,669000,660000,669000,896,133800
2013/10/15,663000,680000,659000,679000,872,135800
2013/10/16,669000,679000,662000,676000,706,135200
2013/10/17,676000,679000,666000,675000,549,135000
2013/10/18,669000,679000,664000,679000,542,135800
2013/10/21,679000,685000,673000,685000,941,137000
2013/10/22,685000,689000,677000,685000,753,137000
2013/10/23,689000,693000,680000,685000,995,137000
2013/10/24,685000,694000,683000,690000,555,138000
2013/10/25,690000,694000,683000,693000,801,138600
2013/10/28,694000,695000,688000,695000,329,139000
2013/10/29,695000,695000,681000,690000,541,138000
2013/10/30,687000,697000,682000,696000,692,139200
2013/10/31,692000,692000,682000,689000,639,137800
2013/11/01,684000,686000,667000,676000,873,135200
2013/11/05,675000,675000,657000,667000,1237,133400
2013/11/06,661000,672000,658000,658000,503,131600
2013/11/07,652000,665000,650000,655000,573,131000
2013/11/08,649000,657000,645000,654000,463,130800
2013/11/11,655000,659000,652000,659000,287,131800
2013/11/12,652000,667000,652000,667000,385,133400
2013/11/13,668000,668000,655000,659000,313,131800
2013/11/14,664000,670000,659000,667000,409,133400
2013/11/15,670000,679000,667000,679000,1254,135800
2013/11/18,678000,683000,672000,681000,577,136200
2013/11/19,677000,680000,668000,675000,373,135000
2013/11/20,672000,675000,663000,672000,342,134400
2013/11/21,668000,670000,661000,666000,559,133200
2013/11/22,666000,675000,656000,670000,488,134000
2013/11/25,670000,671000,662000,666000,314,133200
2013/11/26,660000,676000,660000,667000,440,133400
2013/11/27,670000,689000,670000,689000,687,137800
2013/11/28,688000,689000,680000,683000,487,136600
2013/11/29,688000,700000,685000,700000,848,140000
2013/12/02,691000,700000,690000,700000,580,140000
2013/12/03,698000,700000,686000,688000,681,137600
2013/12/04,685000,686000,670000,678000,844,135600
2013/12/05,672000,675000,660000,662000,788,132400
2013/12/06,657000,667000,656000,658000,433,131600
2013/12/09,661000,665000,658000,665000,357,133000
2013/12/10,669000,669000,658000,665000,532,133000
2013/12/11,661000,667000,660000,664000,460,132800
2013/12/12,664000,667000,662000,662000,306,132400
2013/12/13,661000,671000,660000,665000,496,133000
2013/12/16,664000,665000,657000,665000,466,133000
2013/12/17,663000,670000,658000,666000,587,133200
2013/12/18,665000,678000,664000,673000,620,134600
2013/12/19,678000,678000,660000,668000,600,133600
2013/12/20,669000,682000,665000,682000,1020,136400
2013/12/24,685000,689000,679000,685000,1206,137000
2013/12/25,688000,688000,674000,680000,569,136000
2013/12/26,688000,701000,685000,701000,548,140200
2013/12/27,701000,701000,690000,690000,658,138000
2013/12/30,700000,708000,695000,698000,1236,139600
2014/01/06,691000,694000,681000,692000,792,138400
2014/01/07,682000,689000,680000,685000,870,137000
2014/01/08,681000,684000,671000,671000,975,134200
2014/01/09,671000,676000,660000,661000,928,132200
2014/01/10,666000,680000,666000,680000,961,136000
2014/01/14,668000,679000,666000,679000,792,135800
2014/01/15,685000,685000,674000,682000,478,136400
2014/01/16,685000,688000,680000,688000,449,137600
2014/01/17,698000,704000,683000,685000,1142,137000
2014/01/20,694000,694000,679000,690000,528,138000
2014/01/21,687000,690000,684000,690000,220,138000
2014/01/22,690000,693000,682000,684000,369,136800
2014/01/23,684000,687000,675000,675000,438,135000
2014/01/24,674000,678000,668000,672000,367,134400
2014/01/27,665000,676000,663000,673000,545,134600
2014/01/28,677000,677000,667000,674000,494,134800
2014/01/29,134600,136000,128100,135600,2938,135600
2014/01/30,134300,135800,130500,133900,4546,133900
2014/01/31,135600,136700,134500,135900,5077,135900
2014/02/03,135800,135900,132000,132400,2611,132400
2014/02/04,131000,132000,126100,130200,3456,130200
2014/02/05,130300,131700,125900,127000,4361,127000
2014/02/06,124000,131000,122300,126900,5715,126900
2014/02/07,129000,131900,126400,131100,2011,131100
2014/02/10,131100,133700,129100,132400,2554,132400
2014/02/12,133000,135400,132600,134700,1505,134700
2014/02/13,134000,135000,132600,133700,2675,133700
2014/02/14,134900,135100,130500,133300,2480,133300
2014/02/17,134900,135900,133000,135100,1747,135100
2014/02/18,135800,136700,133600,135800,1761,135800
2014/02/19,135400,137000,134800,134900,2061,134900
2014/02/20,133600,136000,133300,136000,1741,136000
2014/02/21,136000,137600,130500,137400,1816,137400
2014/02/24,137000,137500,135400,136700,2150,136700
2014/02/25,136900,137500,135500,137000,1894,137000
2014/02/26,137000,137500,135600,137100,2160,137100
2014/02/27,137500,137800,134500,137700,2026,137700
2014/02/28,136500,138100,136000,137900,2133,137900
2014/03/03,137500,138000,136900,137900,1831,137900
2014/03/04,136100,137900,136000,137000,2123,137000
2014/03/05,136000,137800,135400,137000,2892,137000
2014/03/06,135700,136800,132600,136000,3232,136000
2014/03/07,136000,136800,134300,136400,3050,136400
2014/03/10,136400,137200,134100,137200,3343,137200
2014/03/11,137100,137900,136000,137300,2691,137300
2014/03/12,135200,137200,134600,135400,2795,135400
2014/03/13,134000,136700,133700,135000,2619,135000
2014/03/14,133200,134600,132400,134000,3060,134000
2014/03/17,134800,135100,132200,133700,1940,133700
2014/03/18,133500,135500,133400,134200,2270,134200
2014/03/19,134100,136100,132500,133100,2104,133100
2014/03/20,133000,134400,130900,132900,3125,132900
2014/03/24,132000,136900,130500,134800,2991,134800
2014/03/25,134500,137000,133300,134900,3627,134900
2014/03/26,133000,136900,132800,134800,2474,134800
2014/03/27,135000,139900,133700,138100,4373,138100
2014/03/28,137800,139700,133200,134700,4352,134700
2014/03/31,137200,137400,134300,136400,3088,136400
2014/04/01,138000,138900,137100,138200,3125,138200
2014/04/02,137000,139900,136800,139900,2685,139900
2014/04/03,140000,140200,139000,139400,2319,139400
2014/04/04,138200,139400,136000,136400,1878,136400
2014/04/07,137200,138900,135600,137000,1684,137000
2014/04/08,135400,136800,133100,136300,4039,136300
2014/04/09,134900,136300,133800,134400,2000,134400
2014/04/10,134500,136800,133800,134100,2173,134100
2014/04/11,133000,134900,132000,133000,3592,133000
2014/04/14,132700,134900,132500,134000,3100,134000
2014/04/15,132000,134800,132000,133100,2565,133100
2014/04/16,132800,134600,131200,133700,2430,133700
2014/04/17,134700,136600,134700,135700,3109,135700
2014/04/18,134800,139400,134800,138800,2424,138800
2014/04/21,138100,138900,136400,137200,1963,137200
2014/04/22,138300,138500,135500,138000,2321,138000
2014/04/23,137300,137300,135000,135200,1840,135200
2014/04/24,135400,136100,134800,135900,1744,135900
2014/04/25,135300,136600,134900,136400,2075,136400
2014/04/28,135100,136400,134600,136100,2129,136100
2014/04/30,136000,137400,135500,136400,1628,136400
2014/05/01,136500,138400,136500,137600,2008,137600
2014/05/02,136300,137300,134100,136200,3297,136200
2014/05/07,135500,137400,135400,135400,2325,135400
2014/05/08,135600,136000,133800,134800,2107,134800
2014/05/09,135900,136800,134100,135900,2203,135900
2014/05/12,136400,136800,135000,136200,1341,136200
2014/05/13,136400,137500,135800,136300,1655,136300
2014/05/14,137000,138200,136500,136700,2807,136700
2014/05/15,137000,137000,135000,135100,1845,135100
2014/05/16,136600,137500,134000,137500,1687,137500
2014/05/19,136400,137100,135500,135800,1145,135800
2014/05/20,136600,137200,135300,136300,1175,136300
2014/05/21,136200,136500,134300,135500,1145,135500
2014/05/22,136300,137000,135800,136300,1195,136300
2014/05/23,136100,137800,135800,136600,1282,136600
2014/05/26,137500,137700,136000,136000,1208,136000
2014/05/27,136500,139200,136200,138300,3101,138300
2014/05/28,139900,139900,136300,136400,4079,136400
2014/05/29,136500,137000,135800,136300,2147,136300
2014/05/30,136800,137700,136400,137700,2262,137700
2014/06/02,136400,138000,136400,136900,1968,136900
2014/06/03,137000,138600,137000,137200,1907,137200
2014/06/04,137100,138000,136000,136100,2069,136100
2014/06/05,136100,136800,134500,135500,2806,135500
2014/06/06,135700,136800,135200,135900,1665,135900
2014/06/09,135600,136500,135600,135600,2382,135600
2014/06/10,136200,137000,135500,136000,2553,136000
2014/06/11,136300,137500,136000,137500,2970,137500
2014/06/12,137300,137900,136300,137600,4179,137600
2014/06/13,137500,138500,137000,137900,3837,137900
2014/06/16,137800,138900,136700,136900,1746,136900
2014/06/17,136800,138400,136300,137800,2074,137800
2014/06/18,138000,139500,137800,139000,3300,139000
2014/06/19,138800,139500,138500,139200,2367,139200
2014/06/20,139600,144000,139300,144000,6686,144000
2014/06/23,143800,143800,140700,141300,4741,141300
2014/06/24,142600,144400,141900,143800,4639,143800
2014/06/25,144200,145800,143600,145600,2993,145600
2014/06/26,145100,146900,145100,145400,2206,145400
2014/06/27,146000,147800,145300,146900,3661,146900
2014/06/30,147000,147900,144800,146800,3348,146800
2014/07/01,147200,149400,145500,147500,5400,147500
2014/07/02,148200,149400,147600,148000,4013,148000
2014/07/03,149300,151600,149300,150900,6279,150900
2014/07/04,152000,152200,150400,150700,3565,150700
2014/07/07,149700,150700,148700,150400,2240,150400
2014/07/08,150000,150300,148900,149400,2422,149400
2014/07/09,148800,150100,148600,150100,2519,150100
2014/07/10,147700,150700,145300,150300,4953,150300
2014/07/11,149000,149900,147800,149600,3044,149600
2014/07/14,149200,149800,148000,149800,2474,149800
2014/07/15,149500,150000,149100,150000,1971,150000
2014/07/16,149800,149900,148400,149900,3906,149900
2014/07/17,149600,150000,149400,150000,2705,150000
2014/07/18,149200,150600,149000,150100,3313,150100
2014/07/22,151500,151900,150100,151100,5158,151100
2014/07/23,150500,152800,150400,151900,9466,151900
2014/07/24,151900,154100,151100,154100,16810,154100
2014/07/25,154000,155400,153400,155000,6609,155000
2014/07/28,155400,156500,154400,154400,5912,154400
2014/07/29,153100,153700,151800,152000,6069,152000
2014/07/30,151000,152000,150100,152000,6442,152000
2014/07/31,151500,151600,150400,151100,7104,151100
2014/08/01,149700,150900,149300,150900,12282,150900
2014/08/04,151100,152600,151000,152300,22614,152300
2014/08/05,151700,153300,151600,153100,7738,153100
2014/08/06,153500,154900,153200,154900,8263,154900
2014/08/07,154900,154900,151200,152700,5701,152700
2014/08/08,153300,155000,152800,153800,6746,153800
2014/08/11,155000,157200,154800,157100,7762,157100
2014/08/12,157400,157400,155200,155400,4746,155400
2014/08/13,154700,155600,152700,153000,5488,153000
2014/08/14,154000,155000,154000,154100,5279,154100
2014/08/15,153500,154000,153400,153900,3525,153900
2014/08/18,154900,155700,153800,153900,2907,153900
2014/08/19,155000,155000,153700,153800,2136,153800
2014/08/20,153300,154100,152300,152500,2524,152500
2014/08/21,152500,154200,152200,154100,4753,154100
2014/08/22,153500,154100,152400,152400,2151,152400
2014/08/25,152300,152400,150800,151000,3010,151000
2014/08/26,150500,151200,150200,150700,2716,150700
2014/08/27,150800,152000,150600,151200,3447,151200
2014/08/28,150600,151800,150300,150800,3380,150800
2014/08/29,150100,150800,149400,150700,4534,150700
2014/09/01,150800,151000,150100,150200,2441,150200
2014/09/02,150800,150900,150000,150700,2771,150700
2014/09/03,150500,151400,150400,150900,4582,150900
2014/09/04,150900,152000,150300,150500,4361,150500
2014/09/05,150800,151800,147400,148600,4800,148600
2014/09/08,148200,149000,145500,145700,8140,145700
2014/09/09,147000,147000,145100,145300,2215,145300
2014/09/10,145300,148600,145300,148500,3470,148500
2014/09/11,149100,149100,146400,146900,4198,146900
2014/09/12,147300,147900,146500,146600,2052,146600
2014/09/16,148300,148300,145800,145800,2921,145800
2014/09/17,146700,147200,145600,146400,3273,146400
2014/09/18,147100,147600,146300,146600,2971,146600
2014/09/19,146600,147300,145300,146000,6203,146000
2014/09/22,147200,148900,146900,147900,3247,147900
2014/09/24,147900,148700,147300,147600,2125,147600
2014/09/25,148800,151800,148800,151400,3807,151400
2014/09/26,151400,151400,149800,150900,2211,150900
2014/09/29,151500,153500,150600,152900,2616,152900
2014/09/30,151200,153800,151200,152400,4839,152400
2014/10/01,153000,153500,151400,152300,1536,152300
2014/10/02,151600,151700,148400,148500,1900,148500
2014/10/03,148600,151200,148100,150500,3554,150500
2014/10/06,151100,153700,151100,153300,2490,153300
2014/10/07,153600,153600,151400,151500,1930,151500
2014/10/08,149200,151800,148800,150900,3677,150900
2014/10/09,149500,152000,149500,149800,1531,149800
2014/10/10,147000,152000,147000,151800,2903,151800
2014/10/14,150400,151700,147500,150300,3587,150300
2014/10/15,150400,151000,148800,148900,2028,148900
2014/10/16,148000,150900,146300,146900,3189,146900
2014/10/17,147500,148300,144600,146200,1752,146200
2014/10/20,146500,150600,146500,150500,1971,150500
2014/10/21,150600,151000,147900,148000,2920,148000
2014/10/22,151000,151800,147700,148000,4807,148000
2014/10/23,148100,149900,147100,149800,1639,149800
2014/10/24,149800,150000,147000,147000,3836,147000
2014/10/27,147500,149300,147500,149000,1378,149000
2014/10/28,149400,150400,148900,149400,1867,149400
2014/10/29,150700,151800,149500,149900,1721,149900
2014/10/30,149500,151600,149000,151600,1747,151600
2014/10/31,150600,157000,150600,156100,5546,156100
2014/11/04,176100,176100,161400,165000,8701,165000
2014/11/05,160700,164100,157600,160100,7499,160100
2014/11/06,160000,160000,154100,154100,7069,154100
2014/11/07,156500,156900,145800,151800,7700,151800
2014/11/10,153000,156300,152800,155100,3673,155100
2014/11/11,155100,159000,155100,157200,2694,157200
2014/11/12,158300,160000,156700,159900,5156,159900
2014/11/13,158600,159800,157700,159100,1996,159100
2014/11/14,159300,161000,158500,161000,2828,161000
2014/11/17,161100,162500,159800,161800,4187,161800
2014/11/18,161900,164000,159300,160600,4406,160600
2014/11/19,161900,163700,161200,163700,7702,163700
2014/11/20,163800,166000,163400,163500,4011,163500
2014/11/21,162700,164800,161500,162600,5246,162600
2014/11/25,165000,166400,163200,164000,2949,164000
2014/11/26,163500,165600,163200,163400,4078,163400
2014/11/27,165100,167000,162700,163300,2733,163300
2014/11/28,165600,167000,164700,166100,4739,166100
2014/12/01,168500,171600,167900,168800,5525,168800
2014/12/02,171500,175200,170600,171100,6846,171100
2014/12/03,170300,173000,168500,169800,5006,169800
2014/12/04,170300,172100,166300,166300,5005,166300
2014/12/05,168000,170400,166300,166500,4770,166500
2014/12/08,167200,168700,165000,165400,2627,165400
2014/12/09,166100,167800,164500,166400,3118,166400
2014/12/10,164100,167200,162000,166200,4537,166200
2014/12/11,162600,167000,162600,167000,3294,167000
2014/12/12,167300,168700,165500,166400,4538,166400
2014/12/15,166700,167900,164300,166800,3100,166800
2014/12/16,166000,166300,163500,164800,3067,164800
2014/12/17,163100,166000,163000,164100,3611,164100
2014/12/18,164700,165800,161300,162000,3682,162000
2014/12/19,162800,165700,162200,162200,6084,162200
2014/12/22,163900,166300,162900,164000,5289,164000
2014/12/24,164500,165500,163600,165400,3598,165400
2014/12/25,164600,167000,164600,166300,2100,166300
2014/12/26,167400,171900,166600,171800,2987,171800
2014/12/29,170800,171800,168500,170600,4051,170600
2014/12/30,172000,174000,170700,172400,3792,172400
2015/01/05,171400,172400,169400,172100,2261,172100
2015/01/06,171500,172100,168800,170300,4361,170300
2015/01/07,170300,173500,170200,171800,2759,171800
2015/01/08,173500,174300,171800,172100,3539,172100
2015/01/09,173300,176300,172400,176200,3389,176200
2015/01/13,176200,176800,167500,176800,3861,176800
2015/01/14,177900,181500,177000,180400,5191,180400
2015/01/15,181500,183600,180000,182000,4628,182000
2015/01/16,181000,182500,178000,181900,4148,181900
2015/01/19,182000,182000,176800,177000,5333,177000
2015/01/20,177900,180800,177600,179800,3015,179800
2015/01/21,180000,181200,178200,178600,5250,178600
2015/01/22,179400,179900,175700,175700,5468,175700
2015/01/23,176200,179100,175800,177900,2914,177900
2015/01/26,176600,177200,174300,175100,2864,175100
2015/01/27,175600,177200,171600,172700,4644,172700
2015/01/28,170100,172200,170000,171300,3789,171300
2015/01/29,170300,171300,167000,167000,4858,167000
2015/01/30,165900,169700,165800,166600,4042,166600
2015/02/02,165600,166300,161600,163800,5208,163800
2015/02/03,164000,164200,158000,158400,4652,158400
2015/02/04,162400,162700,158400,158700,5127,158700
2015/02/05,158300,164200,157700,161700,2724,161700
2015/02/06,163900,165600,162100,164700,1877,164700
2015/02/09,164500,165100,161800,163500,4338,163500
2015/02/10,161500,161600,158700,158700,3184,158700
2015/02/12,159400,164600,159000,164600,3720,164600
2015/02/13,163700,165900,162700,165000,2052,165000
2015/02/16,166000,166000,163600,165000,2204,165000
2015/02/17,164200,168300,163500,168300,2502,168300
2015/02/18,168000,169300,167100,168800,2538,168800
2015/02/19,168800,170000,167300,168500,2837,168500
2015/02/20,167500,167600,165100,165700,2123,165700
2015/02/23,165700,165700,162200,164200,3065,164200
2015/02/24,165700,167000,164000,166800,2978,166800
2015/02/25,166400,168300,165400,167900,1872,167900
2015/02/26,165400,169800,165200,168000,5113,168000
2015/02/27,168100,171900,168100,169200,5167,169200
2015/03/02,170000,171500,164900,164900,4795,164900
2015/03/03,166000,167200,164100,165400,2488,165400
2015/03/04,163100,163900,161500,161700,2407,161700
2015/03/05,160200,160700,157900,158800,7477,158800
2015/03/06,160400,160800,157100,157900,6087,157900
2015/03/09,158800,158800,156300,156700,3730,156700
2015/03/10,156800,160800,156800,160500,5594,160500
2015/03/11,160000,161600,158400,159000,2808,159000
2015/03/12,158300,161600,157500,157500,3278,157500
2015/03/13,159600,161300,158200,161100,5575,161100
2015/03/16,162000,163200,160400,163200,3356,163200
2015/03/17,163500,163800,160900,162000,3662,162000
2015/03/18,161200,166400,160600,166200,4501,166200
2015/03/19,165000,167700,163900,167400,4470,167400
2015/03/20,165700,170000,165200,169400,4439,169400
2015/03/23,170000,171100,169000,171000,2188,171000
2015/03/24,170000,174000,169900,173800,3943,173800
2015/03/25,173900,176800,172600,176800,4240,176800
2015/03/26,172800,176700,172600,174200,3650,174200
2015/03/27,174200,176800,173100,174100,2855,174100
2015/03/30,175800,176300,170900,170900,2939,170900
2015/03/31,173200,174500,169000,169300,4772,169300
2015/04/01,166500,170900,165500,166800,3538,166800
2015/04/02,169300,170900,166500,170900,2108,170900
2015/04/03,170900,171100,168500,169600,2317,169600
2015/04/06,169600,171400,167600,169600,1691,169600
2015/04/07,169500,169900,167800,169300,3342,169300
2015/04/08,169500,171100,168500,169000,2035,169000
2015/04/09,169600,169800,168000,169100,2628,169100
2015/04/10,171000,171000,168300,170600,3826,170600
2015/04/13,168700,170100,166700,167800,2975,167800
2015/04/14,168000,170700,167800,167900,1940,167900
2015/04/15,167900,168100,167000,167000,2051,167000
2015/04/16,167200,171300,166600,170500,4275,170500
2015/04/17,169600,170300,167900,168100,1828,168100
2015/04/20,167300,167500,163300,163600,3748,163600
2015/04/21,167200,167200,163400,163400,3365,163400
2015/04/22,163700,166100,163000,163000,3649,163000
2015/04/23,163400,164100,162400,162900,3015,162900
2015/04/24,164600,164900,162700,162700,3839,162700
2015/04/27,164300,165500,163700,163800,4632,163800
2015/04/28,165800,165800,163600,163600,2367,163600
2015/04/30,163900,164800,162700,164700,4052,164700
2015/05/01,164300,165500,163400,163400,3815,163400
2015/05/07,163400,163500,160300,162000,3117,162000
2015/05/08,164100,164800,161900,164500,5238,164500
2015/05/11,165900,169000,165400,166400,6075,166400
2015/05/12,166600,168200,164800,165000,3706,165000
2015/05/13,163200,165700,163200,163800,2346,163800
2015/05/14,163500,165000,162900,164300,2026,164300
2015/05/15,164200,165200,163400,163900,2246,163900
2015/05/18,165100,166000,164100,165500,1483,165500
2015/05/19,165200,165500,162400,162400,3873,162400
2015/05/20,163400,163400,160000,160500,5275,160500
2015/05/21,160700,161100,159900,160400,2876,160400
2015/05/22,160000,160700,159000,160000,3083,160000
2015/05/25,161400,164100,161200,164000,2949,164000
2015/05/26,163300,164700,162700,164700,1594,164700
2015/05/27,164400,165400,163700,164600,3247,164600
2015/05/28,164600,167300,164000,167300,2329,167300
2015/05/29,166400,166700,164900,165800,2486,165800
2015/06/01,166400,166700,164300,164300,1934,164300
2015/06/02,165700,165700,163300,163300,2712,163300
2015/06/03,163800,164200,162600,163300,2195,163300
2015/06/04,162500,164000,162500,162500,4178,162500
2015/06/05,160200,162500,159500,161700,4144,161700
2015/06/08,162000,164900,162000,162200,3055,162200
2015/06/09,161500,163100,161000,162700,3768,162700
2015/06/10,163700,163700,160700,161900,2872,161900
2015/06/11,161900,162400,158500,158500,4249,158500
2015/06/12,160300,160600,159000,160000,3827,160000
2015/06/15,160500,161000,159600,160500,1625,160500
2015/06/16,160100,161100,159000,159600,2375,159600
2015/06/17,159300,161000,158600,159200,2096,159200
2015/06/18,157700,160900,157700,160200,2242,160200
2015/06/19,159500,161000,157900,158100,3290,158100
2015/06/22,158300,160600,157200,157200,3244,157200
2015/06/23,159000,159000,157100,157600,3387,157600
2015/06/24,157500,160000,157400,158800,3682,158800
2015/06/25,158700,160000,158200,158800,3180,158800
2015/06/26,159800,161200,159200,160000,2638,160000
2015/06/29,157500,160000,157100,159500,4539,159500
2015/06/30,158800,160700,158400,158400,2860,158400
2015/07/01,158700,159000,157100,157800,3315,157800
