2011/01/05,5230,5640,5220,5440,38638,272
2011/01/06,5470,5490,5100,5100,21292,255
2011/01/07,5150,5520,4950,5520,22665,276
2011/01/11,5430,5580,5230,5340,15117,267
2011/01/24,11500,12750,10730,12300,153416,615
2011/01/25,12370,12590,11650,11940,83994,597
2011/01/27,10650,11400,10370,10700,70392,535
2011/01/28,10580,10870,9820,9980,46268,499
2011/02/02,10700,11250,10080,10220,73300,511
2011/02/07,10200,10760,9950,10160,42915,508
2011/02/08,10400,10820,10270,10480,45663,524
2011/02/09,10770,11340,10300,10320,64198,516
2011/02/10,10200,10540,9970,10060,39594,503
2011/02/14,10230,10500,10000,10040,27367,502
2011/02/16,10050,10460,9850,9980,31889,499
2011/02/17,10070,10330,9910,10140,30586,507
2011/02/18,10150,10300,10020,10120,17991,506
2011/02/21,10300,10300,9310,9360,38134,468
2011/02/22,10700,10860,10170,10860,116601,543
2011/02/23,10820,11420,10300,10300,115371,515
2011/02/28,9460,10080,9360,9880,27751,494
2011/03/01,9870,9880,9470,9580,18571,479
2011/03/04,9410,9540,9300,9400,10767,470
2011/03/07,9480,9480,9240,9240,8488,462
2011/03/09,8900,9350,8870,9000,16218,450
2011/03/11,7890,8200,7650,7700,27596,385
2011/03/14,6200,6200,6200,6200,1515,310
2011/03/15,5200,5200,5200,5200,842,260
2011/03/18,5890,6450,5730,6380,33334,319
2011/03/23,7000,7260,6910,7080,13983,354
2011/03/24,7200,7220,6650,6760,11165,338
2011/03/25,6660,6690,6430,6540,8163,327
2011/03/28,6360,6460,5890,6100,13212,305
2011/03/29,6000,6550,5910,6300,8296,315
2011/03/30,6350,6540,6280,6340,7535,317
2011/04/07,6400,6510,6330,6460,3240,323
2011/04/12,7100,7490,6860,7080,10910,354
2011/04/13,6930,7290,6930,7280,3887,364
2011/04/14,6800,7250,6750,6960,18426,348
2011/04/15,6820,6900,6470,6520,10935,326
2011/04/18,6320,6600,6320,6520,4176,326
2011/04/19,6350,6420,6280,6300,5611,315
2011/04/22,6300,6350,6020,6080,7957,304
2011/04/28,6200,6290,6110,6180,3598,309
2011/05/06,6020,6050,5900,5980,6955,299
2011/05/10,5890,5950,5820,5880,4009,294
2011/05/11,5850,6880,5850,6500,39896,325
2011/05/12,6400,6500,6040,6160,17375,308
2011/05/13,6100,6100,5870,5940,8103,297
2011/05/19,6050,6070,5880,5980,4506,299
2011/05/20,5890,6150,5850,6000,3301,300
2011/05/23,5860,5970,5800,5800,6297,290
2011/05/24,5610,5900,5610,5840,3679,292
2011/05/27,6100,6170,5910,6040,3537,302
2011/05/30,5950,6040,5910,5940,2932,297
2011/05/31,5950,6170,5860,6160,5340,308
2011/06/03,5820,5980,5810,5840,3296,292
2011/06/06,5830,5880,5510,5620,5623,281
2011/06/07,5640,5810,5620,5760,2999,288
2011/06/08,5760,5760,5590,5680,2931,284
2011/06/09,5580,5660,5510,5520,2436,276
2011/06/10,5560,5670,5490,5580,2014,279
2011/06/13,5490,5580,5380,5380,2038,269
2011/06/14,5330,5330,5140,5240,4521,262
2011/06/15,5200,5440,5060,5380,4418,269
2011/06/16,5180,5360,5150,5280,1803,264
2011/06/20,5890,5890,5330,5340,6440,267
2011/06/22,5270,5500,5250,5400,1696,270
2011/06/23,5410,5540,5360,5500,2077,275
2011/06/24,5420,5510,5340,5500,1986,275
2011/06/27,5550,5680,5480,5480,2473,274
2011/06/28,5550,5700,5500,5660,2538,283
2011/06/29,5630,5880,5630,5840,3701,292
2011/06/30,5860,6000,5720,5920,6918,296
2011/07/01,6020,6200,5970,6040,8449,302
2011/07/12,6450,6450,6100,6140,9438,307
2011/07/13,6190,6420,6100,6400,6066,320
2011/07/14,6410,6470,6150,6200,7515,310
2011/07/19,5930,6030,5760,5800,17079,290
2011/07/20,5900,5920,5600,5720,9245,286
2011/07/21,5550,5650,5400,5520,12070,276
2011/07/22,5430,5650,5300,5560,12813,278
2011/07/25,5550,5580,5350,5420,5351,271
2011/07/26,5360,5620,5350,5380,7583,269
2011/07/27,5410,5490,5380,5380,4449,269
2011/07/28,5380,5400,5180,5200,6293,260
2011/07/29,5250,5360,5000,5060,6938,253
2011/08/04,5130,5140,5020,5060,3090,253
2011/08/08,4810,4910,4660,4660,5083,233
2011/08/12,4720,4890,4615,4620,5266,231
2011/08/18,5310,5540,5260,5300,8895,265
2011/08/19,5100,5550,5050,5340,8414,267
2011/08/22,5400,6140,5400,5840,25188,292
2011/08/23,5820,5920,5570,5600,8097,280
2011/08/24,5600,5790,5200,5240,7028,262
2011/08/25,5200,5640,5160,5600,5651,280
2011/08/26,5560,5840,5510,5700,5877,285
2011/08/29,5790,6050,5650,6000,8627,300
2011/08/30,6010,6500,5000,5240,55996,262
2011/08/31,5340,5460,4995,5140,29832,257
2011/09/01,5100,5160,5040,5060,9292,253
2011/09/05,4890,4900,4800,4820,6092,241
2011/09/08,4495,4600,4250,4340,18572,217
2011/09/16,3850,3940,3750,3920,11032,196
2011/09/20,3830,3930,3660,3660,12136,183
2011/09/21,3520,3685,3330,3360,17556,168
2011/09/28,3180,3400,3150,3340,9856,167
2011/10/05,2972,2990,2750,2800,8242,140
2011/10/13,3205,3705,3180,3620,20222,181
2011/10/18,3065,3165,2992,3060,16776,153
2011/10/31,2925,2969,2831,2900,5639,145
2011/11/10,1310,1520,1292,1480,344985,74
2011/11/28,1353,1474,1352,1400,51605,70
2011/11/29,1485,1700,1452,1700,148596,85
2011/12/07,1571,1664,1570,1620,56373,81
2011/12/19,1434,1485,1416,1440,29514,72
2011/12/27,2741,3000,2150,2280,562263,114
2012/01/10,3285,3370,2914,3020,389946,151
2012/02/16,2140,2288,2056,2100,172890,105
2012/02/17,2140,2300,2125,2240,176460,112
2012/03/06,1940,1982,1908,1920,26432,96
2012/03/07,1893,1899,1801,1880,70820,94
2012/03/22,1897,1924,1880,1900,25141,95
2012/04/05,1750,1750,1667,1720,45839,86
2012/04/19,2050,2084,1900,1940,86839,97
2012/05/09,1689,1710,1640,1700,24010,85
2012/05/14,1668,1695,1600,1600,14453,80
2012/05/15,1580,1580,1400,1500,37499,75
2012/06/01,1420,1460,1361,1380,23233,69
2012/06/12,1350,1360,1332,1360,9670,68
2012/06/19,1468,1497,1412,1460,15451,73
2012/07/03,1545,1575,1510,1520,16745,76
2012/07/27,1350,1363,1242,1280,25899,64
2012/07/31,1270,1270,1200,1260,8820,63
2012/08/02,1218,1259,1218,1240,4789,62
2012/08/09,1195,1215,1191,1200,4741,60
2012/08/21,1495,1667,1495,1540,123081,77
2012/08/22,1530,1530,1334,1360,92258,68
2012/08/24,1340,1350,1258,1280,69027,64
2012/08/31,1186,1235,1181,1200,18286,60
2012/09/14,1222,1400,1220,1320,172177,66
2012/10/02,1198,1220,1193,1200,13792,60
2012/11/05,1386,1545,1358,1400,97050,70
2012/12/12,1308,1329,1291,1320,22761,66
2012/12/19,1400,1409,1334,1340,41268,67
2012/12/28,1814,1870,1685,1780,197314,89
2013/01/07,2200,2320,1984,2000,175172,100
2013/01/18,1917,1924,1841,1880,47842,94
2013/01/21,1852,1910,1809,1860,40872,93
2013/01/28,1825,1971,1825,1900,84668,95
2013/01/31,1987,1987,1871,1900,51415,95
2013/02/13,1610,1615,1514,1540,47163,77
2013/02/27,1680,1698,1601,1640,35513,82
2013/02/28,1680,1717,1630,1640,47377,82
2013/04/01,4335,4615,3915,4200,199677,210
2013/04/02,3780,4900,3700,4900,225633,245
2013/04/03,5600,5600,5600,5600,4572,280
2013/04/04,5700,6600,5680,6600,326203,330
2013/04/05,7600,7600,7600,7600,7102,380
2013/04/08,8950,9100,8700,9100,68207,455
2013/04/09,10600,10600,7600,7680,335010,384
2013/04/11,7900,8100,6320,6980,246917,349
2013/04/12,6780,7980,6660,7980,234480,399
2013/04/23,7320,7600,6660,6840,177262,342
2013/04/30,6140,6530,5900,6300,80153,315
2013/05/02,6550,6760,6370,6640,66946,332
2013/05/07,7010,7060,6650,6760,82320,338
2013/05/08,6750,6770,6100,6300,100427,315
2013/05/09,6260,7300,6180,7300,284033,365
2013/05/13,6940,7040,6410,6480,101093,324
2013/05/16,5810,6400,5140,5880,99965,294
2013/05/17,5980,6780,5780,6380,119873,319
2013/05/20,6500,6600,6140,6280,66433,314
2013/05/22,5550,6080,5310,5600,70189,280
2013/05/24,5320,5420,4720,5180,70809,259
2013/05/28,4850,5250,4750,5020,47479,251
2013/06/04,4500,4800,4280,4800,68224,240
2013/06/07,3600,4095,3330,3980,80008,199
2013/06/11,4100,4190,3850,3940,44113,197
2013/06/14,3910,4180,3880,3960,38008,198
2013/06/17,3925,3945,3705,3780,31062,189
2013/06/18,3710,4480,3710,4480,111578,224
2013/06/20,4060,4340,4050,4200,38746,210
2013/06/24,4220,4420,4165,4260,49178,213
2013/06/28,3605,4100,3605,3980,64289,199
2013/07/11,5200,6000,5160,5680,79762,284
2013/07/16,6500,6600,5760,5760,90965,288
2013/07/17,5510,5590,4980,5180,82532,259
2013/07/23,4700,4830,4500,4580,57427,229
2013/07/26,4400,4565,4335,4400,28864,220
2013/08/05,4345,4660,4200,4400,35306,220
2013/08/08,4380,4600,4310,4340,24903,217
2013/08/14,4300,4360,4030,4220,18329,211
2013/08/15,4125,4180,4075,4120,12319,206
2013/08/23,4295,4295,4090,4100,16501,205
2013/08/29,3775,3875,3720,3740,11381,187
2013/09/04,4400,4685,4310,4600,46854,230
2013/09/10,5130,5540,4930,5080,148599,254
2013/10/07,4320,4345,4115,4220,18886,211
2013/10/08,4115,4390,4100,4360,16120,218
2013/10/17,4360,4390,4280,4280,12562,214
2013/10/18,4280,4550,4270,4500,25875,225
2013/10/31,4200,4250,4110,4120,10775,206
2013/11/06,3955,4095,3955,4040,8074,202
2013/11/12,3950,4060,3870,4040,12000,202
2013/11/19,4350,4395,4175,4220,33072,211
2013/11/20,4250,4320,4190,4280,14924,214
2013/11/25,4200,4275,4155,4160,19115,208
2013/11/26,4020,4200,3990,4200,29921,210
2013/11/27,210,230,208,211,678300,211
2013/11/28,217,218,210,212,261900,212
2013/11/29,214,215,204,206,373000,206
2013/12/02,205,211,202,207,290500,207
2013/12/03,209,209,203,204,250400,204
2013/12/04,202,205,202,204,168900,204
2013/12/05,205,206,201,202,212400,202
2013/12/06,201,205,200,204,234300,204
2013/12/09,202,210,202,207,301500,207
2013/12/10,208,209,205,205,225200,205
2013/12/11,205,206,199,203,296500,203
2013/12/12,199,203,199,201,270600,201
2013/12/13,200,202,199,200,137200,200
2013/12/16,200,204,200,200,305200,200
2013/12/17,202,203,193,197,294600,197
2013/12/18,194,197,191,195,310000,195
2013/12/19,196,200,195,196,282100,196
2013/12/20,198,198,192,196,305700,196
2013/12/24,191,195,185,188,627300,188
2013/12/25,188,190,184,189,739700,189
2013/12/26,192,239,191,239,3871400,239
2013/12/27,231,236,222,229,2005400,229
2013/12/30,250,303,237,261,6575900,261
2014/01/06,271,273,248,266,1539300,266
2014/01/07,261,265,246,254,946700,254
2014/01/08,250,255,242,248,592900,248
2014/01/09,246,252,236,238,779400,238
2014/01/10,242,243,237,242,485700,242
2014/01/14,241,244,228,228,699100,228
2014/01/15,232,233,223,228,456400,228
2014/01/16,230,235,224,229,494900,229
2014/01/17,227,239,225,236,1023600,236
2014/01/20,238,241,232,240,507300,240
2014/01/21,239,241,233,234,367500,234
2014/01/22,231,236,230,232,456200,232
2014/01/23,232,254,230,232,2709000,232
2014/01/24,229,235,226,231,619900,231
2014/01/27,224,225,216,217,774800,217
2014/01/28,237,286,227,247,8405400,247
2014/01/29,247,279,236,267,4834500,267
2014/01/30,251,262,246,247,1941300,247
2014/01/31,255,291,252,291,6224100,291
2014/02/03,297,338,265,275,16451600,275
2014/02/04,235,256,210,217,4452700,217
2014/02/05,240,260,226,242,5229700,242
2014/02/06,245,253,236,239,1495500,239
2014/02/07,255,256,231,233,1507100,233
2014/02/10,240,241,233,237,637300,237
2014/02/12,237,245,232,232,651700,232
2014/02/13,231,232,221,225,683500,225
2014/02/14,225,232,217,221,600700,221
2014/02/17,225,229,214,229,531700,229
2014/02/18,229,247,223,244,867000,244
2014/02/19,240,242,230,232,557400,232
2014/02/20,228,240,225,235,631500,235
2014/02/21,240,250,237,239,857900,239
2014/02/24,246,250,240,243,579000,243
2014/02/25,244,248,237,239,482500,239
2014/02/26,233,242,233,234,354000,234
2014/02/27,230,237,229,229,300400,229
2014/02/28,228,233,224,229,404700,229
2014/03/03,235,269,226,241,5721200,241
2014/03/04,237,252,236,241,1627400,241
2014/03/05,246,250,242,246,1029200,246
2014/03/06,247,247,242,242,455300,242
2014/03/07,246,258,245,256,2160900,256
2014/03/10,272,315,270,293,15025400,293
2014/03/11,289,325,280,295,15376900,295
2014/03/12,288,306,265,266,4758000,266
2014/03/13,274,278,248,253,2083000,253
2014/03/14,258,268,247,248,3243800,248
2014/03/17,250,263,248,252,1185200,252
2014/03/18,259,261,251,253,632300,253
2014/03/19,260,284,258,262,2991500,262
2014/03/20,257,263,236,239,1654900,239
2014/03/24,243,254,240,248,973300,248
2014/03/25,246,249,236,236,811300,236
2014/03/26,235,244,234,237,580000,237
2014/03/27,231,239,221,239,795000,239
2014/03/28,244,246,239,240,582800,240
2014/03/31,247,263,245,255,1424900,255
2014/04/01,255,257,251,256,485200,256
2014/04/02,260,269,255,269,1614400,269
2014/04/03,268,270,257,261,707200,261
2014/04/04,255,266,254,266,751100,266
2014/04/07,260,269,256,261,838000,261
2014/04/08,258,278,257,261,1228300,261
2014/04/09,259,266,254,255,566600,255
2014/04/10,259,263,240,244,695200,244
2014/04/11,238,267,236,263,1191600,263
2014/04/14,247,254,235,239,1231000,239
2014/04/15,245,246,223,223,1227100,223
2014/04/16,223,227,220,225,715200,225
2014/04/17,227,234,226,229,549000,229
2014/04/18,231,232,226,228,427900,228
2014/04/21,223,230,220,224,879500,224
2014/04/22,225,227,213,218,651300,218
2014/04/23,221,221,213,221,407600,221
2014/04/24,218,221,215,215,300600,215
2014/04/25,215,219,213,214,222000,214
2014/04/28,210,211,203,204,429700,204
2014/04/30,210,210,199,203,426200,203
2014/05/01,199,205,196,205,366100,205
2014/05/02,205,209,203,206,286900,206
2014/05/07,203,205,198,201,265300,201
2014/05/08,202,203,197,200,248000,200
2014/05/09,198,201,196,197,219000,197
2014/05/12,198,199,185,185,396000,185
2014/05/13,188,193,186,189,396100,189
2014/05/14,192,212,189,202,868200,202
2014/05/15,202,209,196,202,515200,202
2014/05/16,198,200,192,197,271100,197
2014/05/19,192,195,185,187,390800,187
2014/05/20,184,189,183,186,257500,186
2014/05/21,183,189,182,188,161400,188
2014/05/22,190,197,189,191,288200,191
2014/05/23,193,199,193,194,299700,194
2014/05/26,199,201,196,198,290300,198
2014/05/27,198,200,196,196,237700,196
2014/05/28,198,208,197,207,479100,207
2014/05/29,210,212,208,208,294600,208
2014/05/30,211,212,203,206,231000,206
2014/06/02,207,212,207,207,290600,207
2014/06/03,209,211,207,209,198800,209
2014/06/04,211,211,207,207,231100,207
2014/06/05,208,208,200,202,310800,202
2014/06/06,204,205,202,203,183600,203
2014/06/09,206,216,204,215,512600,215
2014/06/10,216,235,212,217,2279800,217
2014/06/11,220,224,215,219,629300,219
2014/06/12,215,221,215,216,302700,216
2014/06/13,216,217,211,216,389700,216
2014/06/16,218,218,212,215,195700,215
2014/06/17,216,216,211,213,155700,213
2014/06/18,209,212,208,210,189300,210
2014/06/19,212,227,211,219,767400,219
2014/06/20,222,237,218,228,1474500,228
2014/06/23,235,239,227,229,664300,229
2014/06/24,228,228,220,222,271000,222
2014/06/25,220,220,212,212,349600,212
2014/06/26,213,223,211,219,331500,219
2014/06/27,217,221,209,211,273800,211
2014/06/30,210,216,210,215,131400,215
2014/07/01,220,220,216,216,243600,216
2014/07/02,218,223,218,220,241500,220
2014/07/03,222,231,221,224,716500,224
2014/07/04,228,228,218,220,412100,220
2014/07/07,221,221,213,214,296800,214
2014/07/08,213,213,210,212,229200,212
2014/07/09,211,212,206,207,270600,207
2014/07/10,208,208,203,205,215400,205
2014/07/11,203,206,200,204,228800,204
2014/07/14,201,215,201,212,308100,212
2014/07/15,204,207,200,203,618000,203
2014/07/16,203,203,199,199,265200,199
2014/07/17,198,200,196,197,185600,197
2014/07/18,190,196,190,193,260900,193
2014/07/22,195,198,194,194,113800,194
2014/07/23,193,196,192,193,99100,193
2014/07/24,191,197,191,194,162200,194
2014/07/25,195,196,194,196,114600,196
2014/07/28,196,197,192,193,196000,193
2014/07/29,193,196,192,193,124600,193
2014/07/30,195,195,190,192,290400,192
2014/07/31,192,196,192,192,353100,192
2014/08/01,187,191,187,191,297900,191
2014/08/04,189,193,188,190,152100,190
2014/08/05,190,191,187,188,134600,188
2014/08/06,186,186,181,182,240300,182
2014/08/07,183,183,179,181,169100,181
2014/08/08,177,179,175,176,284900,176
2014/08/11,175,181,175,181,183700,181
2014/08/12,180,182,177,177,103300,177
2014/08/13,177,179,176,177,88200,177
2014/08/14,178,179,175,175,165900,175
2014/08/15,176,179,176,179,87600,179
2014/08/18,179,181,176,176,259600,176
2014/08/19,177,179,176,179,125600,179
2014/08/20,180,183,178,180,191900,180
2014/08/21,182,182,179,180,141400,180
2014/08/22,182,186,181,182,425800,182
2014/08/25,186,197,185,196,708800,196
2014/08/26,198,199,187,189,709500,189
2014/08/27,189,191,184,184,235300,184
2014/08/28,184,186,182,182,95600,182
2014/08/29,181,181,178,180,167800,180
2014/09/01,179,186,179,184,183000,184
2014/09/02,186,190,185,189,288300,189
2014/09/03,191,193,187,187,279600,187
2014/09/04,185,186,183,184,188500,184
2014/09/05,184,185,182,184,108100,184
2014/09/08,184,191,181,187,436600,187
2014/09/09,191,194,186,186,413300,186
2014/09/10,190,191,184,187,375900,187
2014/09/11,187,189,187,188,204800,188
2014/09/12,194,197,185,186,715800,186
2014/09/16,186,186,181,182,240000,182
2014/09/17,183,183,179,179,178000,179
2014/09/18,181,183,179,181,116300,181
2014/09/19,183,183,180,181,105700,181
2014/09/22,183,183,181,181,80300,181
2014/09/24,181,182,179,181,110300,181
2014/09/25,180,181,178,179,87800,179
2014/09/26,178,181,178,179,91700,179
2014/09/29,180,181,177,179,69400,179
2014/09/30,179,180,177,178,103400,178
2014/10/01,176,177,170,170,215700,170
2014/10/02,166,168,164,166,175100,166
2014/10/03,163,171,163,169,143900,169
2014/10/06,172,173,170,172,86200,172
2014/10/07,170,172,165,166,123800,166
2014/10/08,165,166,163,165,101600,165
2014/10/09,167,167,162,162,187300,162
2014/10/10,160,161,155,159,284400,159
2014/10/14,150,153,148,151,205000,151
2014/10/15,156,176,156,168,1121100,168
2014/10/16,161,165,156,156,186200,156
2014/10/17,159,160,150,150,229300,150
2014/10/20,154,156,151,154,173500,154
2014/10/21,154,156,149,153,178600,153
2014/10/22,157,158,153,156,138700,156
2014/10/23,153,155,153,153,66600,153
2014/10/24,157,157,154,157,116000,157
2014/10/27,159,160,155,156,77700,156
2014/10/28,155,157,153,155,72600,155
2014/10/29,155,157,153,155,119200,155
2014/10/30,155,159,154,156,170900,156
2014/10/31,158,182,154,177,1678600,177
2014/11/04,227,227,215,227,4816700,227
2014/11/05,217,230,207,216,3124700,216
2014/11/06,225,270,223,223,7253700,223
2014/11/07,219,229,210,219,1968700,219
2014/11/10,210,213,200,205,1193900,205
2014/11/11,207,213,198,213,1232200,213
2014/11/12,218,256,213,218,6618900,218
2014/11/13,222,223,201,212,1442800,212
2014/11/14,214,239,205,223,1514800,223
2014/11/17,230,243,216,226,3099400,226
2014/11/18,231,257,230,256,4156400,256
2014/11/19,252,263,240,252,3801800,252
2014/11/20,257,258,237,237,1522200,237
2014/11/21,230,239,225,228,1468700,228
2014/11/25,230,231,217,223,1039200,223
2014/11/26,223,227,219,224,325200,224
2014/11/27,220,223,215,218,611400,218
2014/11/28,218,227,218,222,797000,222
2014/12/01,223,224,219,220,474900,220
2014/12/02,217,225,216,220,618800,220
2014/12/03,220,225,217,217,614900,217
2014/12/04,218,221,216,217,360500,217
2014/12/05,214,217,212,214,345500,214
2014/12/08,216,223,215,215,640100,215
2014/12/09,213,215,203,211,479600,211
2014/12/10,204,210,203,205,287500,205
2014/12/11,198,205,193,203,703900,203
2014/12/12,204,205,200,204,322300,204
2014/12/15,200,202,192,193,317800,193
2014/12/16,189,191,184,187,395800,187
2014/12/17,185,193,185,190,179000,190
2014/12/18,197,199,194,198,167300,198
2014/12/19,198,209,197,208,558500,208
2014/12/22,204,207,200,201,269700,201
2014/12/24,205,205,195,195,249800,195
2014/12/25,191,195,189,190,305700,190
2014/12/26,192,207,191,205,491400,205
2014/12/29,219,220,203,207,445200,207
2014/12/30,207,210,204,205,158800,205
2015/01/05,203,214,200,206,302200,206
2015/01/06,202,206,201,202,218000,202
2015/01/07,200,204,199,201,195200,201
2015/01/08,203,206,201,206,281000,206
2015/01/09,207,211,206,211,381900,211
2015/01/13,205,218,204,217,477500,217
2015/01/14,225,228,199,201,1949600,201
2015/01/15,202,204,190,199,752400,199
2015/01/16,197,198,190,192,434500,192
2015/01/19,193,194,186,187,401800,187
2015/01/20,187,201,182,199,839200,199
2015/01/21,201,202,192,193,412600,193
2015/01/22,195,195,190,193,176900,193
2015/01/23,194,195,191,191,157200,191
2015/01/26,191,196,190,194,207500,194
2015/01/27,194,201,193,195,258800,195
2015/01/28,194,214,194,207,1738700,207
2015/01/29,201,205,197,198,467400,198
2015/01/30,201,201,196,196,348000,196
2015/02/02,195,197,190,192,336000,192
2015/02/03,193,193,187,187,284000,187
2015/02/04,185,201,185,201,996000,201
2015/02/05,200,202,196,198,359900,198
2015/02/06,199,200,197,197,173500,197
2015/02/09,200,200,197,198,124800,198
2015/02/10,198,198,195,197,239300,197
2015/02/12,198,200,196,196,79100,196
2015/02/13,196,199,195,198,221500,198
2015/02/16,200,204,198,204,462900,204
2015/02/17,201,211,201,210,714800,210
2015/02/18,211,214,203,204,389900,204
2015/02/19,207,211,205,210,326700,210
2015/02/20,211,221,211,214,670400,214
2015/02/23,218,218,210,211,291400,211
2015/02/24,210,214,207,210,239800,210
2015/02/25,209,213,209,210,158000,210
2015/02/26,214,218,213,217,350200,217
2015/02/27,215,217,214,215,216200,215
2015/03/02,220,223,216,218,471500,218
2015/03/03,216,219,207,209,411200,209
2015/03/04,207,211,206,210,182600,210
2015/03/05,209,210,207,207,92000,207
2015/03/06,206,210,205,207,203200,207
2015/03/09,205,207,201,204,420900,204
2015/03/10,205,205,198,199,197000,199
2015/03/11,198,202,196,200,103700,200
2015/03/12,202,205,200,202,85600,202
2015/03/13,204,210,202,207,292100,207
2015/03/16,209,213,203,207,322300,207
2015/03/17,210,210,205,207,182000,207
2015/03/18,207,218,203,218,1199000,218
2015/03/19,219,225,211,213,1271800,213
2015/03/20,212,223,212,220,509600,220
2015/03/23,221,221,216,216,297800,216
2015/03/24,215,217,211,212,219400,212
2015/03/25,210,216,209,215,222900,215
2015/03/26,212,214,210,212,206700,212
2015/03/27,210,214,207,210,227400,210
2015/03/30,209,212,207,212,74900,212
2015/03/31,212,216,211,213,166500,213
2015/04/01,213,224,212,220,647800,220
2015/04/02,221,223,216,220,343000,220
2015/04/03,220,225,217,224,524700,224
2015/04/06,224,241,223,241,1787600,241
2015/04/07,245,245,229,235,1387400,235
2015/04/08,240,242,230,237,674500,237
2015/04/09,237,238,231,234,528600,234
2015/04/10,232,237,226,232,623000,232
2015/04/13,234,244,234,241,964700,241
2015/04/14,241,244,224,227,1880500,227
2015/04/15,224,226,215,219,843700,219
2015/04/16,216,221,215,216,396200,216
2015/04/17,217,219,214,217,336000,217
2015/04/20,216,216,210,211,412200,211
2015/04/21,213,215,211,213,350100,213
2015/04/22,214,219,214,215,200900,215
2015/04/23,218,219,213,213,228800,213
2015/04/24,212,214,209,210,311600,210
2015/04/27,208,210,207,207,236700,207
2015/04/28,209,209,202,204,355600,204
2015/04/30,206,206,200,201,325100,201
2015/05/01,200,201,196,200,297900,200
2015/05/07,199,200,197,199,127800,199
2015/05/08,200,210,199,208,284500,208
2015/05/11,210,210,205,206,121200,206
2015/05/12,203,207,202,203,142300,203
2015/05/13,201,205,201,205,103700,205
2015/05/14,205,206,201,202,182800,202
2015/05/15,202,204,200,201,191900,201
2015/05/18,201,202,198,199,195700,199
2015/05/19,199,203,198,201,190200,201
2015/05/20,203,208,202,207,443100,207
2015/05/21,207,207,202,203,205700,203
2015/05/22,203,203,201,201,108500,201
2015/05/25,201,205,201,204,245600,204
2015/05/26,206,208,204,205,198400,205
2015/05/27,203,205,202,202,171600,202
2015/05/28,203,204,201,202,160100,202
2015/05/29,201,204,201,201,148700,201
2015/06/01,201,202,200,200,126000,200
2015/06/02,201,201,199,199,178200,199
2015/06/03,199,203,197,202,189200,202
2015/06/04,203,203,201,202,168400,202
2015/06/05,201,202,199,199,153500,199
2015/06/08,202,206,201,205,362800,205
2015/06/09,205,205,202,202,131300,202
2015/06/10,204,217,203,212,1807700,212
2015/06/11,213,218,208,208,812300,208
2015/06/12,209,212,208,211,234500,211
2015/06/15,211,212,206,206,313600,206
2015/06/16,206,207,201,201,267600,201
2015/06/17,202,203,201,202,119600,202
2015/06/18,202,203,200,200,207000,200
2015/06/19,202,204,201,203,168800,203
2015/06/22,202,207,202,206,109800,206
2015/06/23,207,207,205,206,137100,206
2015/06/24,205,206,203,204,203200,204
2015/06/25,204,205,203,205,90900,205
2015/06/26,205,205,203,203,77000,203
2015/06/29,193,198,192,195,460600,195
2015/06/30,195,201,195,201,257600,201
2015/07/01,199,204,199,204,104400,204
