2011/01/04,26920,27500,26612,26800,61,67
2011/01/11,26952,27300,26900,27200,38,68
2011/01/18,27820,28000,27820,28000,25,70
2011/02/14,28000,28552,27812,28000,41,70
2011/02/22,28000,28000,27600,27600,54,69
2011/03/10,27600,27992,27600,27600,27,69
2011/03/14,23000,24500,22800,22800,155,57
2011/03/22,25200,25500,24500,25200,40,63
2011/03/23,25200,26000,25000,26000,13,65
2011/03/24,26000,26000,26000,26000,1,65
2011/03/28,25012,25600,25012,25600,3,64
2011/04/18,26280,26300,26000,26000,6,65
2011/04/22,26300,26300,26000,26000,62,65
2011/04/25,26500,26500,26000,26000,10,65
2011/05/18,26500,26800,26500,26800,5,67
2011/05/31,26540,26800,26532,26800,18,67
2011/06/17,26752,26892,26572,26800,119,67
2011/07/01,23752,24552,23552,24400,147,61
2011/07/15,23912,24080,23900,24000,19,60
2011/07/22,24000,24252,23800,24000,25,60
2011/07/25,24012,24012,23800,24000,33,60
2011/07/27,23620,23652,23600,23600,31,59
2011/07/29,23600,23600,23600,23600,11,59
2011/08/08,22172,22900,22172,22400,33,56
2011/09/28,23700,23700,23300,23600,11,59
2011/10/28,23500,23800,23500,23600,45,59
2011/11/10,23600,23600,23600,23600,6,59
2012/01/13,23400,23452,23200,23200,94,58
2012/01/30,23592,24000,23592,24000,105,60
2012/02/14,24400,24452,24092,24400,35,61
2012/02/16,24412,24452,24180,24400,102,61
2012/02/20,24712,25200,24420,24800,226,62
2012/02/22,24740,25300,24612,25200,273,63
2012/03/01,26000,26252,25880,26000,182,65
2012/04/02,29300,34452,29300,34400,2949,86
2012/04/10,30400,32500,30400,30800,277,77
2012/04/17,30852,30852,30000,30400,138,76
2012/05/23,29500,29500,29100,29200,100,73
2012/06/01,29700,29740,29500,29600,96,74
2012/06/07,29400,29400,28832,29200,156,73
2012/06/11,41200,41200,39352,40000,4391,100
2012/06/19,36800,37800,36452,37200,375,93
2012/06/28,16730,17190,15910,16000,963,80
2012/07/04,16150,16200,15900,16200,592,81
2012/07/06,15900,16110,15810,16000,346,80
2012/07/10,15900,16060,15710,16000,200,80
2012/07/11,16000,16000,15600,15800,303,79
2012/07/20,16700,16700,16100,16400,290,82
2012/07/25,16100,16100,15600,16000,213,80
2012/07/30,16490,16800,16140,16600,217,83
2012/08/10,16350,17270,16230,17000,1609,85
2012/08/16,16900,17000,16650,17000,564,85
2012/09/13,18120,18120,17540,18000,331,90
2012/09/21,17850,17940,17630,17800,92,89
2012/09/24,17800,17950,17800,17800,131,89
2012/09/27,17800,17800,17700,17800,86,89
2012/10/03,18550,19200,18490,19000,614,95
2012/10/05,19180,19700,19150,19600,500,98
2012/10/09,19700,20200,19650,20000,911,100
2012/10/10,19800,20100,19680,20000,215,100
2012/10/15,20000,20400,19610,20000,358,100
2012/10/17,18980,19350,18880,19200,295,96
2012/10/26,20430,20810,20250,20800,541,104
2012/11/09,23700,24910,22750,23600,1751,118
2012/11/15,24240,26000,24240,26000,835,130
2012/11/16,25990,26700,25300,26400,1645,132
2012/11/21,29250,29500,28350,29200,634,146
2012/11/30,28870,29750,28200,29000,1148,145
2012/12/03,28500,29400,27620,28200,606,141
2012/12/06,27930,27930,26590,27800,731,139
2012/12/10,27000,28680,26980,28600,576,143
2012/12/14,29000,30000,28710,30000,964,150
2012/12/20,30800,31500,30000,30600,604,153
2012/12/28,34500,35400,33800,35400,476,177
2013/01/11,43900,43900,41000,42200,682,211
2013/01/15,41500,43100,41500,43000,694,215
2013/01/17,39400,41000,37150,40000,1335,200
2013/01/24,40600,42200,39900,42200,415,211
2013/01/28,49100,53900,48500,51600,1354,258
2013/01/29,50600,51600,47300,48000,1050,240
2013/01/30,49000,55000,49000,54800,2048,274
2013/01/31,55000,55600,52200,53800,776,269
2013/02/12,47250,47800,43000,43600,3939,218
2013/02/19,43050,44450,42000,43400,1231,217
2013/02/28,48100,50700,48100,50400,950,252
2013/03/01,50800,54500,50800,53600,1500,268
2013/03/04,57000,57300,53800,56000,1983,280
2013/03/06,57000,57900,53100,56400,1349,282
2013/03/08,53000,54100,50200,51200,972,256
2013/03/13,48500,51500,47700,51400,770,257
2013/03/14,50900,54200,50600,54000,897,270
2013/03/25,58000,58000,54700,56200,476,281
2013/03/26,55200,55700,54100,54800,607,274
2013/03/29,57900,57900,54500,56000,906,280
2013/04/01,57700,57700,52000,52000,1366,260
2013/04/02,50000,53700,46550,52000,1317,260
2013/04/03,54000,55900,53000,54600,864,273
2013/04/04,53000,56200,52000,56000,961,280
2013/04/05,60000,66000,57700,66000,10258,330
2013/04/08,76000,76000,76000,76000,189,380
2013/04/09,86500,91000,80000,91000,14097,455
2013/04/10,85200,97800,83200,86800,7676,434
2013/04/11,90900,92500,75200,79600,6286,398
2013/04/12,76600,84900,76600,81800,2993,409
2013/04/15,79000,79100,74000,75800,2382,379
2013/04/18,75000,77000,72000,73600,1725,368
2013/04/19,74500,74600,71200,72800,1258,364
2013/04/23,79200,80900,76600,78800,2828,394
2013/04/25,75400,76400,73100,75800,1719,379
2013/05/02,77200,78600,75900,78600,1755,393
2013/05/07,81800,87400,80400,87000,3095,435
2013/05/14,86900,88000,83700,85000,2584,425
2013/05/15,84000,84200,70200,74200,4563,371
2013/05/16,75100,82900,68000,80000,3656,400
2013/05/17,79000,84700,76000,84000,2330,420
2013/05/28,68400,71000,66000,69000,1071,345
2013/05/30,70500,71800,69300,69800,1152,349
2013/06/03,66100,69500,65500,65800,638,329
2013/06/04,67500,70000,63000,70000,1039,350
2013/06/06,64500,67600,60000,61000,1329,305
2013/06/11,61700,64500,60000,62800,825,314
2013/06/14,63500,64000,61400,63000,513,315
2013/06/17,64000,64000,62000,64000,356,320
2013/06/19,70700,72200,67000,71200,1468,356
2013/06/20,68800,72000,68800,72000,528,360
2013/06/25,68500,69000,63500,66400,1069,332
2013/06/26,331,346,263,271,193600,271
2013/06/27,287,301,258,294,210100,294
2013/06/28,320,330,305,323,155600,323
2013/07/01,323,334,317,328,143200,328
2013/07/02,335,336,320,330,170700,330
2013/07/03,335,339,320,322,187800,322
2013/07/04,323,355,315,348,326800,348
2013/07/05,352,357,341,349,158100,349
2013/07/08,360,369,350,358,238600,358
2013/07/09,361,374,353,373,232000,373
2013/07/10,369,372,346,371,231700,371
2013/07/11,368,385,357,384,197100,384
2013/07/12,385,385,363,373,219100,373
2013/07/16,377,377,357,362,156900,362
2013/07/17,358,358,345,350,107400,350
2013/07/18,345,358,345,355,56100,355
2013/07/19,364,364,322,343,117100,343
2013/07/22,340,350,331,342,43500,342
2013/07/23,342,359,333,347,74000,347
2013/07/24,342,351,336,346,84700,346
2013/07/25,345,345,339,340,53700,340
2013/07/26,335,337,327,337,89600,337
2013/07/29,320,330,311,312,142800,312
2013/07/30,304,320,292,320,194600,320
2013/07/31,319,323,311,316,73900,316
2013/08/01,314,339,311,339,103200,339
2013/08/02,350,359,341,350,154700,350
2013/08/05,354,372,350,363,245600,363
2013/08/06,365,365,340,360,125900,360
2013/08/07,350,358,335,337,116900,337
2013/08/08,330,348,315,342,203500,342
2013/08/09,322,325,290,300,616300,300
2013/08/12,292,300,269,269,441900,269
2013/08/13,274,292,273,291,207900,291
2013/08/14,294,320,280,309,437000,309
2013/08/15,301,306,291,294,159800,294
2013/08/16,290,300,285,297,174100,297
2013/08/19,297,297,282,287,205300,287
2013/08/20,283,287,279,281,182200,281
2013/08/21,284,293,275,288,280800,288
2013/08/22,285,290,280,282,130300,282
2013/08/23,285,288,281,284,94200,284
2013/08/26,285,285,274,275,149800,275
2013/08/27,274,275,250,272,321800,272
2013/08/28,256,265,251,251,188200,251
2013/08/29,254,260,249,253,180900,253
2013/08/30,254,259,252,254,70400,254
2013/09/02,258,287,257,286,225400,286
2013/09/03,294,294,271,284,215900,284
2013/09/04,278,289,276,280,97300,280
2013/09/05,283,283,269,274,114400,274
2013/09/06,273,273,258,258,172700,258
2013/09/09,298,301,280,293,603200,293
2013/09/10,305,307,290,294,411200,294
2013/09/11,294,294,284,286,135600,286
2013/09/12,284,293,281,293,114300,293
2013/09/13,295,304,295,304,156800,304
2013/09/17,313,314,300,304,127100,304
2013/09/18,316,334,308,334,402700,334
2013/09/19,334,344,326,339,288600,339
2013/09/20,340,340,325,334,224300,334
2013/09/24,326,333,307,311,299500,311
2013/09/25,311,313,295,298,284900,298
2013/09/26,294,321,292,318,150600,318
2013/09/27,316,325,311,321,100700,321
2013/09/30,315,320,308,319,80900,319
2013/10/01,314,315,302,305,152800,305
2013/10/02,305,307,297,302,125800,302
2013/10/03,301,301,298,299,33100,299
2013/10/04,298,310,291,310,102900,310
2013/10/07,309,309,292,293,75600,293
2013/10/08,288,300,285,295,70600,295
2013/10/09,288,303,288,300,51700,300
2013/10/10,303,305,300,302,46700,302
2013/10/11,309,309,302,305,52000,305
2013/10/15,303,303,295,300,47800,300
2013/10/16,296,300,294,298,53700,298
2013/10/17,299,305,299,301,61900,301
2013/10/18,300,306,299,303,57300,303
2013/10/21,302,314,301,313,159800,313
2013/10/22,316,318,307,314,92500,314
2013/10/23,316,318,305,309,89000,309
2013/10/24,305,312,302,312,58100,312
2013/10/25,311,312,303,306,75300,306
2013/10/28,308,308,300,304,39200,304
2013/10/29,304,307,302,304,38300,304
2013/10/30,301,307,290,295,150100,295
2013/10/31,293,300,291,296,59000,296
2013/11/01,292,294,285,291,87300,291
2013/11/05,290,294,288,294,37200,294
2013/11/06,293,294,292,293,19100,293
2013/11/07,297,300,289,290,132600,290
2013/11/08,272,274,263,271,306300,271
2013/11/11,265,272,264,268,118300,268
2013/11/12,263,269,259,267,154900,267
2013/11/13,269,305,268,283,383000,283
2013/11/14,282,290,280,286,135100,286
2013/11/15,283,293,283,291,184200,291
2013/11/18,299,301,293,295,147500,295
2013/11/19,296,299,294,295,84000,295
2013/11/20,295,297,291,294,70500,294
2013/11/21,295,295,289,290,90300,290
2013/11/22,286,291,286,289,92300,289
2013/11/25,285,289,281,286,67900,286
2013/11/26,281,285,275,283,87200,283
2013/11/27,277,283,277,282,37200,282
2013/11/28,280,285,270,283,165600,283
2013/11/29,283,283,279,283,36200,283
2013/12/02,285,287,279,284,69000,284
2013/12/03,284,288,280,283,63900,283
2013/12/04,280,281,278,281,27800,281
2013/12/05,278,280,276,277,62500,277
2013/12/06,275,277,273,275,56700,275
2013/12/09,275,279,275,277,94600,277
2013/12/10,277,280,277,280,32000,280
2013/12/11,280,280,276,280,24300,280
2013/12/12,278,280,276,278,31600,278
2013/12/13,277,281,276,278,46200,278
2013/12/16,278,278,268,269,119000,269
2013/12/17,268,270,260,263,129900,263
2013/12/18,263,268,260,267,49600,267
2013/12/19,267,279,267,274,199900,274
2013/12/20,277,278,273,276,54500,276
2013/12/24,276,278,265,267,109900,267
2013/12/25,265,267,262,266,176100,266
2013/12/26,275,277,267,277,68200,277
2013/12/27,276,279,275,278,62700,278
2013/12/30,280,292,279,287,148400,287
2014/01/06,290,292,288,290,152800,290
2014/01/07,291,294,289,292,55100,292
2014/01/08,295,298,293,297,84300,297
2014/01/09,299,307,299,306,188800,306
2014/01/10,307,309,300,307,129000,307
2014/01/14,304,307,296,304,174900,304
2014/01/15,305,314,305,312,150900,312
2014/01/16,315,325,296,299,567100,299
2014/01/17,306,314,302,304,249800,304
2014/01/20,306,307,304,306,69600,306
2014/01/21,303,306,302,303,120600,303
2014/01/22,303,304,301,301,70500,301
2014/01/23,303,313,303,304,188000,304
2014/01/24,300,312,298,307,138400,307
2014/01/27,293,300,292,296,104600,296
2014/01/28,296,300,292,300,67600,300
2014/01/29,298,310,298,308,82200,308
2014/01/30,300,301,294,297,91000,297
2014/01/31,297,299,290,294,153400,294
2014/02/03,286,287,272,272,136700,272
2014/02/04,232,265,232,245,229700,245
2014/02/05,257,260,245,259,122200,259
2014/02/06,253,259,248,255,115900,255
2014/02/07,253,263,253,259,99000,259
2014/02/10,263,265,261,265,25400,265
2014/02/12,270,284,270,282,107600,282
2014/02/13,277,281,274,274,52600,274
2014/02/14,275,278,267,270,87800,270
2014/02/17,271,273,258,270,85800,270
2014/02/18,273,277,265,274,71100,274
2014/02/19,270,276,270,273,26200,273
2014/02/20,271,271,263,263,42800,263
2014/02/21,263,267,263,266,24200,266
2014/02/24,263,271,263,266,24800,266
2014/02/25,266,271,260,265,40600,265
2014/02/26,265,270,262,268,25500,268
2014/02/27,266,267,263,263,30200,263
2014/02/28,261,263,256,261,46000,261
2014/03/03,256,256,244,253,57300,253
2014/03/04,247,256,247,256,57000,256
2014/03/05,260,265,253,259,47500,259
2014/03/06,261,264,256,261,59300,261
2014/03/07,262,266,261,263,36000,263
2014/03/10,265,267,263,266,51100,266
2014/03/11,267,268,263,267,57900,267
2014/03/12,264,267,261,261,34900,261
2014/03/13,262,264,259,259,27200,259
2014/03/14,250,254,248,251,58900,251
2014/03/17,243,250,241,243,136300,243
2014/03/18,247,252,245,252,41400,252
2014/03/19,251,256,250,254,60100,254
2014/03/20,250,253,239,242,70000,242
2014/03/24,237,248,237,245,72700,245
2014/03/25,240,245,240,240,27200,240
2014/03/26,240,245,239,240,33400,240
2014/03/27,236,244,236,244,21300,244
2014/03/28,244,249,244,249,21700,249
2014/03/31,253,256,248,256,49500,256
2014/04/01,256,259,253,258,29400,258
2014/04/02,258,264,258,264,41000,264
2014/04/03,264,264,261,261,25200,261
2014/04/04,261,262,257,257,22500,257
2014/04/07,249,255,249,254,58400,254
2014/04/08,251,254,249,254,22700,254
2014/04/09,254,254,250,250,27900,250
2014/04/10,251,253,247,248,25500,248
2014/04/11,242,250,241,246,26900,246
2014/04/14,241,246,241,244,29700,244
2014/04/15,245,247,243,244,19900,244
2014/04/16,245,249,245,249,9800,249
2014/04/17,248,249,246,248,22000,248
2014/04/18,246,249,246,248,19600,248
2014/04/21,247,248,244,248,16800,248
2014/04/22,248,249,243,243,26400,243
2014/04/23,243,246,242,246,19900,246
2014/04/24,248,248,245,246,15600,246
2014/04/25,240,245,240,244,66400,244
2014/04/28,240,244,238,240,57700,240
2014/04/30,243,243,237,238,33200,238
2014/05/01,238,242,238,242,12000,242
2014/05/02,240,245,238,245,34100,245
2014/05/07,245,251,245,250,48800,250
2014/05/08,246,252,246,251,22100,251
2014/05/09,245,246,232,238,98800,238
2014/05/12,236,236,228,231,61300,231
2014/05/13,229,235,229,231,37200,231
2014/05/14,233,239,232,238,35700,238
2014/05/15,236,236,226,231,217900,231
2014/05/16,226,228,224,228,44800,228
2014/05/19,227,228,215,215,129700,215
2014/05/20,214,215,210,214,63400,214
2014/05/21,216,216,212,214,32400,214
2014/05/22,218,225,216,222,43900,222
2014/05/23,222,229,221,229,36200,229
2014/05/26,237,239,234,239,46300,239
2014/05/27,239,239,233,235,53600,235
2014/05/28,239,240,238,239,24200,239
2014/05/29,238,241,238,239,23400,239
2014/05/30,242,243,240,242,38200,242
2014/06/02,245,245,241,243,39900,243
2014/06/03,246,246,243,244,32900,244
2014/06/04,244,245,242,244,44900,244
2014/06/05,244,244,241,243,18600,243
2014/06/06,243,243,238,243,43400,243
2014/06/09,244,247,244,247,48400,247
2014/06/10,248,248,246,247,38500,247
2014/06/11,245,246,244,245,34700,245
2014/06/12,245,245,242,244,26300,244
2014/06/13,244,247,242,247,24400,247
2014/06/16,251,252,248,252,51800,252
2014/06/17,253,255,252,255,40400,255
2014/06/18,255,256,254,256,43900,256
2014/06/19,257,257,254,255,31300,255
2014/06/20,255,260,255,259,79800,259
2014/06/23,261,263,259,261,84200,261
2014/06/24,258,260,257,260,97700,260
2014/06/25,258,259,254,258,93600,258
2014/06/26,247,254,247,253,56600,253
2014/06/27,251,252,244,246,52900,246
2014/06/30,244,251,244,248,35600,248
2014/07/01,250,250,246,250,13700,250
2014/07/02,250,250,238,240,350900,240
2014/07/03,240,243,239,241,51700,241
2014/07/04,242,243,239,241,114400,241
2014/07/07,242,243,242,243,21100,243
2014/07/08,243,244,241,244,37300,244
2014/07/09,241,245,241,242,95900,242
2014/07/10,241,242,239,240,32400,240
2014/07/11,254,319,253,271,4975500,271
2014/07/14,265,270,258,264,420300,264
2014/07/15,268,268,261,263,182000,263
2014/07/16,262,262,253,255,346800,255
2014/07/17,256,263,256,263,182100,263
2014/07/18,261,262,256,259,190300,259
2014/07/22,261,268,260,261,135700,261
2014/07/23,262,263,261,261,90900,261
2014/07/24,261,262,260,261,89600,261
2014/07/25,261,263,260,263,70900,263
2014/07/28,263,265,262,265,115600,265
2014/07/29,269,281,268,277,360200,277
2014/07/30,281,285,276,280,239800,280
2014/07/31,285,286,280,280,147800,280
2014/08/01,274,282,272,279,102200,279
2014/08/04,281,286,281,285,106200,285
2014/08/05,285,289,282,282,190100,282
2014/08/06,284,285,277,282,207400,282
2014/08/07,279,281,273,277,132300,277
2014/08/08,256,261,246,250,456900,250
2014/08/11,255,255,247,251,130800,251
2014/08/12,251,251,247,249,91100,249
2014/08/13,248,248,246,247,56900,247
2014/08/14,247,248,245,248,64300,248
2014/08/15,248,255,247,255,52700,255
2014/08/18,255,261,253,253,92800,253
2014/08/19,256,256,250,252,60700,252
2014/08/20,252,253,250,251,42400,251
2014/08/21,250,251,249,251,79800,251
2014/08/22,253,253,249,251,51400,251
2014/08/25,250,253,249,253,96800,253
2014/08/26,254,262,253,254,155700,254
2014/08/27,255,256,251,253,61100,253
2014/08/28,251,252,251,251,46100,251
2014/08/29,251,252,250,250,47700,250
2014/09/01,250,252,249,251,75800,251
2014/09/02,252,255,251,255,81100,255
2014/09/03,257,261,255,261,97200,261
2014/09/04,260,260,255,255,57100,255
2014/09/05,258,258,255,255,40500,255
2014/09/08,257,257,255,256,31300,256
2014/09/09,256,258,255,257,61700,257
2014/09/10,258,262,256,260,81700,260
2014/09/11,261,266,260,266,64700,266
2014/09/12,267,270,261,263,70200,263
2014/09/16,263,263,257,258,75700,258
2014/09/17,257,258,255,256,52100,256
2014/09/18,256,257,256,257,28700,257
2014/09/19,259,259,258,258,19800,258
2014/09/22,258,259,257,257,30900,257
2014/09/24,259,259,256,256,26400,256
2014/09/25,255,256,253,255,54100,255
2014/09/26,254,257,254,255,17200,255
2014/09/29,257,257,255,257,32400,257
2014/09/30,257,258,255,255,22200,255
2014/10/01,255,256,253,253,44600,253
2014/10/02,253,253,250,251,72700,251
2014/10/03,250,270,250,263,204200,263
2014/10/06,265,266,262,264,119100,264
2014/10/07,264,265,262,263,25400,263
2014/10/08,258,263,257,263,68200,263
2014/10/09,263,263,256,256,42900,256
2014/10/10,253,255,251,254,123100,254
2014/10/14,254,254,250,252,61000,252
2014/10/15,250,253,250,251,35200,251
2014/10/16,248,249,244,246,79000,246
2014/10/17,245,247,241,244,53000,244
2014/10/20,245,250,244,249,32800,249
2014/10/21,251,251,247,248,15500,248
2014/10/22,249,252,248,252,13700,252
2014/10/23,251,254,251,252,28600,252
2014/10/24,252,254,251,253,44000,253
2014/10/27,253,254,252,253,44500,253
2014/10/28,254,255,253,253,22500,253
2014/10/29,253,254,251,253,33600,253
2014/10/30,253,254,251,252,29700,252
2014/10/31,253,264,251,260,174300,260
2014/11/04,283,283,266,270,536100,270
2014/11/05,275,275,267,271,109900,271
2014/11/06,273,273,264,266,166500,266
2014/11/07,271,272,267,268,161400,268
2014/11/10,268,269,265,269,76500,269
2014/11/11,269,270,266,270,71800,270
2014/11/12,269,272,268,269,165500,269
2014/11/13,267,267,263,263,161700,263
2014/11/14,265,268,262,267,67100,267
2014/11/17,267,268,264,266,111900,266
2014/11/18,267,276,267,275,123100,275
2014/11/19,273,273,268,271,107800,271
2014/11/20,271,276,271,272,112000,272
2014/11/21,273,274,271,274,62400,274
2014/11/25,277,290,276,290,250200,290
2014/11/26,290,293,289,290,138000,290
2014/11/27,292,293,288,293,101400,293
2014/11/28,293,298,293,296,124100,296
2014/12/01,300,307,299,305,197800,305
2014/12/02,303,309,303,307,168000,307
2014/12/03,315,317,310,312,191100,312
2014/12/04,310,314,300,303,229400,303
2014/12/05,305,309,303,308,103400,308
2014/12/08,314,320,311,319,170700,319
2014/12/09,315,316,309,309,101900,309
2014/12/10,302,307,300,306,118300,306
2014/12/11,300,305,300,304,52700,304
2014/12/12,308,310,305,309,48100,309
2014/12/15,308,310,305,307,52200,307
2014/12/16,302,302,286,296,165500,296
2014/12/17,284,294,282,292,82700,292
2014/12/18,299,299,295,295,56700,295
2014/12/19,295,296,285,289,123700,289
2014/12/22,290,292,287,292,66700,292
2014/12/24,292,292,289,292,60500,292
2014/12/25,287,288,280,286,132500,286
2014/12/26,276,283,276,281,63200,281
2014/12/29,289,289,282,283,23500,283
2014/12/30,283,286,282,284,44100,284
2015/01/05,287,288,283,286,46400,286
2015/01/06,284,285,280,280,42200,280
2015/01/07,279,283,278,279,72600,279
2015/01/08,282,284,279,282,64000,282
2015/01/09,284,284,277,277,67300,277
2015/01/13,274,276,270,272,125800,272
2015/01/14,270,273,269,270,28000,270
2015/01/15,268,278,268,277,103700,277
2015/01/16,275,276,270,276,43200,276
2015/01/19,276,280,273,273,31800,273
2015/01/20,274,276,267,273,55600,273
2015/01/21,273,275,270,273,31800,273
2015/01/22,273,274,270,271,44200,271
2015/01/23,319,320,282,288,1450400,288
2015/01/26,289,295,288,290,242400,290
2015/01/27,295,295,290,291,126800,291
2015/01/28,291,303,290,303,246600,303
2015/01/29,298,302,295,298,116400,298
2015/01/30,297,300,292,296,68800,296
2015/02/02,299,299,292,292,72400,292
2015/02/03,293,296,287,290,94800,290
2015/02/04,290,293,288,289,44300,289
2015/02/05,288,292,288,288,31700,288
2015/02/06,284,294,283,292,155800,292
2015/02/09,292,297,292,297,116300,297
2015/02/10,296,298,294,298,45600,298
2015/02/12,298,318,296,314,575400,314
2015/02/13,313,313,305,307,163100,307
2015/02/16,307,310,305,305,63800,305
2015/02/17,318,319,312,313,437500,313
2015/02/18,314,317,307,313,184000,313
2015/02/19,314,314,308,314,99200,314
2015/02/20,314,316,311,314,126100,314
2015/02/23,315,315,309,313,94400,313
2015/02/24,312,313,309,313,73200,313
2015/02/25,314,314,311,312,51300,312
2015/02/26,316,316,312,314,152900,314
2015/02/27,315,316,312,315,67900,315
2015/03/02,315,316,313,315,72100,315
2015/03/03,317,328,316,324,320900,324
2015/03/04,324,324,318,320,66200,320
2015/03/05,316,319,314,315,108500,315
2015/03/06,318,318,310,312,151000,312
2015/03/09,317,320,313,316,225700,316
2015/03/10,319,338,317,326,678300,326
2015/03/11,320,335,320,332,231600,332
2015/03/12,333,334,327,327,165500,327
2015/03/13,327,338,327,337,240600,337
2015/03/16,339,353,338,350,476400,350
2015/03/17,357,363,348,349,433800,349
2015/03/18,345,347,334,343,262300,343
2015/03/19,350,351,340,347,161700,347
2015/03/20,346,357,346,357,182900,357
2015/03/23,365,372,363,371,327000,371
2015/03/24,365,374,365,368,133700,368
2015/03/25,367,368,355,357,230600,357
2015/03/26,354,354,343,348,250500,348
2015/03/27,345,367,345,352,203800,352
2015/03/30,355,359,352,357,65700,357
2015/03/31,363,365,360,363,106900,363
2015/04/01,361,361,351,357,138900,357
2015/04/02,354,360,354,359,77200,359
2015/04/03,360,377,359,377,305000,377
2015/04/06,372,385,370,382,233700,382
2015/04/07,385,392,375,381,251800,381
2015/04/08,384,384,375,380,115400,380
2015/04/09,383,383,371,371,141700,371
2015/04/10,370,375,367,368,130400,368
2015/04/13,372,378,368,376,144300,376
2015/04/14,377,380,375,377,65200,377
2015/04/15,375,378,371,373,79600,373
2015/04/16,373,373,365,370,158700,370
2015/04/17,369,370,361,364,153000,364
2015/04/20,351,360,350,352,250800,352
2015/04/21,353,365,353,364,99900,364
2015/04/22,370,371,365,367,109400,367
2015/04/23,371,371,365,366,79700,366
2015/04/24,368,368,364,364,35000,364
2015/04/27,361,365,359,363,80100,363
2015/04/28,364,367,358,359,77400,359
2015/04/30,358,359,352,357,140400,357
2015/05/01,354,355,351,351,84000,351
2015/05/07,351,360,351,359,71500,359
2015/05/08,369,369,363,366,123100,366
2015/05/11,369,369,364,365,68800,365
2015/05/12,366,366,363,366,50000,366
2015/05/13,366,367,364,366,59400,366
2015/05/14,366,367,364,364,65200,364
2015/05/15,366,367,363,365,42100,365
2015/05/18,367,367,365,367,42000,367
2015/05/19,367,370,366,369,85500,369
2015/05/20,371,379,371,375,187200,375
2015/05/21,376,378,374,375,108000,375
2015/05/22,377,378,370,371,100700,371
2015/05/25,374,377,371,375,120500,375
2015/05/26,343,351,336,337,1665900,337
2015/05/27,336,336,333,336,499400,336
2015/05/28,334,334,330,331,701000,331
2015/05/29,329,332,328,330,471900,330
2015/06/01,330,344,330,334,563000,334
2015/06/02,337,345,336,345,999200,345
2015/06/03,343,344,340,341,1109100,341
2015/06/04,342,343,340,340,334800,340
2015/06/05,338,340,338,339,344800,339
2015/06/08,339,340,337,337,411000,337
2015/06/09,337,338,336,337,242200,337
2015/06/10,337,341,337,338,2065900,338
2015/06/11,341,341,337,339,242900,339
2015/06/12,340,340,337,339,238700,339
2015/06/15,340,344,340,344,353200,344
2015/06/16,342,344,340,342,321800,342
2015/06/17,343,344,341,343,190300,343
2015/06/18,341,342,340,340,194700,340
2015/06/19,341,342,340,340,229300,340
2015/06/22,340,345,339,345,435900,345
2015/06/23,344,345,342,344,243900,344
2015/06/24,343,344,342,342,285400,342
2015/06/25,343,344,342,343,794200,343
2015/06/26,333,337,332,334,420600,334
2015/06/29,329,329,326,328,253300,328
2015/06/30,325,328,325,326,168200,326
2015/07/01,324,334,324,334,211000,334
