2013/09/25,2475,2498,2322,2330,2838800,1165
2013/09/26,2400,2475,2280,2420,1843200,1210
2013/09/27,2395,2455,2326,2400,933300,1200
2013/10/01,2365,2404,2263,2280,573500,1140
2013/10/03,2340,2358,2290,2304,347300,1152
2013/10/07,2281,2303,2205,2280,347500,1140
2013/10/08,2246,2379,2241,2356,462800,1178
2013/10/09,2351,2398,2314,2384,489000,1192
2013/10/16,2317,2317,2258,2278,165400,1139
2013/10/17,2280,2295,2243,2254,312000,1127
2013/10/22,2484,2564,2449,2528,1372900,1264
2013/10/24,2468,2684,2418,2648,1411900,1324
2013/10/25,2602,2709,2562,2640,1418000,1320
2013/10/28,2700,2720,2570,2620,526200,1310
2013/10/29,2600,2624,2535,2600,264000,1300
2013/11/01,2597,2625,2472,2556,280000,1278
2013/11/05,2556,2578,2480,2526,115300,1263
2013/11/08,2460,2558,2460,2526,221700,1263
2013/11/13,2560,2588,2503,2586,198900,1293
2013/11/18,2600,2600,2374,2400,699900,1200
2013/11/25,2357,2407,2323,2388,251200,1194
2013/11/26,2407,2429,2388,2428,139200,1214
2013/11/27,2424,2447,2390,2422,193000,1211
2013/11/29,2450,2494,2434,2464,164100,1232
2013/12/02,2440,2492,2433,2474,136000,1237
2013/12/04,2470,2511,2410,2500,157400,1250
2013/12/05,2487,2510,2389,2454,219800,1227
2013/12/06,2405,2473,2380,2462,187300,1231
2013/12/09,2465,2495,2438,2486,110200,1243
2013/12/10,2500,2518,2453,2492,214700,1246
2013/12/11,2494,2494,2390,2420,226300,1210
2013/12/12,2400,2480,2395,2428,137300,1214
2013/12/13,2461,2490,2414,2468,167300,1234
2013/12/16,2451,2467,2393,2400,126800,1200
2013/12/19,2421,2421,2351,2378,125400,1189
2013/12/24,2429,2473,2293,2316,440700,1158
2013/12/30,2441,2465,2419,2428,104800,1214
2014/01/07,2435,2435,2378,2380,73500,1190
2014/01/08,2395,2409,2362,2378,131600,1189
2014/01/09,2358,2358,2314,2320,191600,1160
2014/01/10,2315,2375,2315,2374,114400,1187
2014/01/17,2240,2251,2194,2198,238200,1099
2014/01/20,2212,2220,2146,2152,246300,1076
2014/01/24,2063,2081,2033,2042,236000,1021
2014/01/27,2020,2020,1920,1934,373700,967
2014/01/30,1891,1900,1865,1888,210200,944
2014/02/03,1797,1842,1704,1724,365800,862
2014/02/04,1524,1606,1490,1512,764300,756
2014/02/06,1570,1667,1570,1640,193100,820
2014/02/10,1800,1829,1765,1800,302400,900
2014/02/12,1822,1856,1807,1814,182700,907
2014/02/18,1730,1804,1725,1780,331000,890
2014/02/21,1929,2027,1928,2002,301400,1001
2014/02/24,2003,2120,1991,2044,373700,1022
2014/02/25,2069,2075,2017,2050,193800,1025
2014/02/27,2020,2029,1976,1984,185100,992
2014/03/03,1980,1980,1901,1936,227600,968
2014/03/04,1912,1933,1891,1896,178000,948
2014/03/10,1924,1960,1869,1886,115000,943
2014/03/12,1875,1897,1826,1834,62100,917
2014/03/13,1829,1839,1773,1796,76500,898
2014/03/18,1722,1772,1722,1752,73500,876
2014/03/20,1823,1823,1692,1750,177500,875
2014/03/25,1730,1742,1670,1680,59600,840
2014/04/01,1788,1844,1754,1800,91500,900
2014/04/08,1819,1823,1754,1760,94600,880
2014/04/09,1721,1764,1692,1700,131100,850
2014/04/14,1675,1709,1638,1640,120400,820
2014/04/21,1784,1784,1681,1694,51100,847
2014/04/22,1685,1710,1663,1696,79400,848
2014/04/23,1685,1705,1655,1662,63500,831
2014/04/25,1701,1710,1659,1676,87100,838
2014/05/07,1946,1987,1927,1956,229600,978
2014/05/09,1951,1991,1883,1962,179500,981
2014/05/12,1939,1970,1840,1856,134400,928
2014/05/13,1880,1932,1850,1868,235000,934
2014/05/15,2011,2098,1969,2076,230900,1038
2014/05/16,2008,2119,2000,2012,216200,1006
2014/05/20,2016,2095,2016,2064,165200,1032
2014/05/21,2014,2036,1982,2010,107200,1005
2014/05/22,2029,2068,1995,2046,77700,1023
2014/05/28,2217,2257,2190,2228,117500,1114
2014/05/29,2253,2320,2217,2298,171300,1149
2014/06/03,2395,2398,2335,2380,177300,1190
2014/06/04,2383,2419,2363,2372,131900,1186
2014/06/05,2383,2435,2370,2378,173900,1189
2014/06/06,2394,2410,2334,2356,174500,1178
2014/06/09,2340,2394,2303,2386,105200,1193
2014/06/10,2390,2393,2340,2366,113500,1183
2014/06/12,2344,2381,2341,2346,82700,1173
2014/06/13,2372,2434,2360,2420,157700,1210
2014/06/16,2411,2418,2346,2364,72200,1182
2014/06/25,2363,2363,2315,2334,59100,1167
2014/06/27,2340,2341,2260,2292,72100,1146
2014/07/02,2390,2400,2343,2354,43400,1177
2014/07/03,2320,2358,2320,2330,37200,1165
2014/07/04,2337,2348,2292,2300,47500,1150
2014/07/09,2280,2300,2252,2270,66200,1135
2014/07/14,2151,2185,2107,2178,77700,1089
2014/07/15,2168,2297,2167,2286,140000,1143
2014/07/16,2270,2284,2255,2270,65400,1135
2014/07/17,2244,2259,2212,2246,72800,1123
2014/07/23,2221,2238,2205,2210,41100,1105
2014/07/30,2107,2118,2085,2092,45100,1046
2014/08/05,2009,2138,2007,2122,154600,1061
2014/08/06,2072,2110,2011,2034,96400,1017
2014/08/07,2027,2087,2027,2080,88100,1040
2014/08/08,2080,2150,2039,2058,89900,1029
2014/08/13,2140,2145,2004,2042,211500,1021
2014/08/15,2100,2110,1965,2002,344400,1001
2014/08/18,2015,2065,2010,2042,161800,1021
2014/08/20,2044,2059,1998,2004,123100,1002
2014/08/22,2055,2070,2031,2044,90200,1022
2014/08/26,2034,2055,2003,2042,110000,1021
2014/08/27,2042,2053,2006,2022,53200,1011
2014/08/28,2010,2026,1991,2004,62500,1002
2014/08/29,2000,2002,1972,1988,52700,994
2014/09/01,1998,2056,1998,2052,127100,1026
2014/09/03,2185,2287,2166,2280,210000,1140
2014/09/08,2185,2220,2170,2178,62700,1089
2014/09/10,2129,2148,2107,2138,44400,1069
2014/09/16,2105,2134,2096,2126,61600,1063
2014/09/17,2111,2111,2070,2074,91900,1037
2014/09/18,2081,2138,2076,2118,69800,1059
2014/09/22,2130,2132,2101,2128,48700,1064
2014/09/24,2129,2135,2101,2110,63600,1055
2014/09/26,2069,2085,2048,2076,60300,1038
2014/09/29,2072,2081,2041,2046,48300,1023
2014/09/30,2050,2054,2020,2044,45900,1022
2014/10/02,1990,1995,1920,1958,174600,979
2014/10/07,2003,2003,1921,1924,86800,962
2014/10/09,1908,1922,1861,1864,69600,932
2014/10/10,1846,1858,1800,1840,104800,920
2014/10/14,1782,1839,1774,1824,82700,912
2014/10/16,1796,1806,1704,1758,109300,879
2014/10/17,1745,1820,1745,1786,78500,893
2014/10/20,1810,1861,1810,1860,116400,930
2014/10/21,1895,1927,1841,1846,153000,923
2014/10/30,1804,1804,1768,1782,101700,891
2014/11/04,2337,2337,2075,2268,817800,1134
2014/11/05,2233,2267,2182,2200,313600,1100
2014/11/10,2160,2181,2135,2172,62300,1086
2014/11/12,2196,2228,2174,2176,106100,1088
2014/11/13,2177,2230,2177,2220,64900,1110
2014/11/14,2220,2397,2151,2392,443300,1196
2014/11/17,2410,2410,2208,2230,181100,1115
2014/11/18,2228,2234,2163,2178,259700,1089
2014/11/20,2247,2250,2186,2190,101800,1095
2014/11/21,2171,2200,2171,2180,123800,1090
2014/11/26,2230,2239,2199,2210,60400,1105
2014/11/27,2234,2294,2219,2242,146100,1121
2014/12/03,2326,2349,2270,2278,281500,1139
2014/12/05,2282,2295,2205,2240,173200,1120
2014/12/09,2200,2200,2156,2188,116600,1094
2014/12/11,2095,2146,2087,2136,98100,1068
2014/12/12,2100,2135,2071,2076,229300,1038
2014/12/15,2065,2075,1996,1998,203300,999
2014/12/17,2026,2171,2026,2132,177000,1066
2014/12/19,2123,2220,2123,2212,132500,1106
2014/12/22,2212,2289,2193,2278,216300,1139
2015/01/05,2359,2359,2274,2284,119100,1142
2015/01/06,2245,2258,2175,2186,187200,1093
2015/01/07,2175,2279,2170,2266,173800,1133
2015/01/08,2227,2273,2212,2256,135000,1128
2015/01/09,2233,2252,2172,2200,222700,1100
2015/01/13,2185,2228,2153,2222,119100,1111
2015/01/14,2200,2280,2191,2236,106400,1118
2015/01/21,2175,2183,2120,2138,108700,1069
2015/01/23,2157,2170,2109,2122,52200,1061
2015/01/26,2172,2172,2122,2140,42200,1070
2015/01/27,2140,2173,2140,2162,28200,1081
2015/01/28,2141,2162,2119,2122,91600,1061
2015/01/30,2020,2049,2015,2030,152600,1015
2015/02/03,2051,2051,1932,1944,189400,972
2015/02/04,1960,2014,1960,2000,149600,1000
2015/02/05,1990,2035,1977,1998,67400,999
2015/02/06,2028,2038,2000,2002,63000,1001
2015/02/09,2033,2038,1956,1970,88100,985
2015/02/16,2503,2553,2400,2420,1226600,1210
2015/02/19,2594,2764,2559,2634,544300,1317
2015/02/20,2601,2820,2593,2800,674700,1400
2015/02/25,2683,2767,2655,2734,169000,1367
2015/03/02,2766,2783,2722,2742,197900,1371
2015/03/03,2766,2769,2660,2680,246300,1340
2015/03/06,2701,2760,2683,2728,155600,1364
2015/03/10,2691,2850,2690,2848,347400,1424
2015/03/11,2843,3030,2835,2992,490400,1496
2015/03/13,3025,3090,2999,3060,196700,1530
2015/03/16,2950,3035,2918,2926,277700,1463
2015/03/17,2947,2984,2904,2952,137200,1476
2015/03/18,2955,2955,2840,2922,181100,1461
2015/03/19,2923,2968,2883,2946,93300,1473
2015/03/25,2940,2948,2901,2904,98300,1452
2015/03/31,2835,2894,2809,2818,63800,1409
2015/04/01,2813,2925,2800,2898,147600,1449
2015/04/06,3180,3295,3050,3090,262600,1545
2015/04/13,3190,3200,3115,3160,96600,1580
2015/04/16,3140,3150,3090,3150,55800,1575
2015/04/20,3005,3110,2991,3070,92700,1535
2015/04/21,3050,3095,3025,3060,84000,1530
2015/04/22,3075,3225,3065,3210,130200,1605
2015/04/24,3135,3160,3050,3100,128400,1550
2015/04/27,3100,3125,3075,3090,41600,1545
2015/05/07,3095,3100,3010,3020,86500,1510
2015/05/08,3010,3025,2993,3000,100900,1500
2015/05/11,3045,3080,3030,3040,33400,1520
2015/05/14,3175,3235,3140,3150,184400,1575
2015/05/18,3320,3865,3320,3680,880000,1840
2015/05/22,3805,3865,3720,3760,328700,1880
2015/05/25,3880,3945,3775,3780,260400,1890
2015/05/27,3730,3885,3715,3830,365900,1915
2015/06/01,3675,3780,3655,3760,232500,1880
2015/06/03,3675,3700,3580,3610,296300,1805
2015/06/12,3750,3755,3680,3690,143900,1845
2015/06/16,3685,3740,3660,3660,123900,1830
2015/06/17,3725,3745,3650,3680,159800,1840
2015/06/18,3695,3720,3650,3690,151500,1845
2015/06/19,3900,3925,3795,3920,708500,1960
2015/06/23,4075,4110,3945,4110,374100,2055
2015/06/24,4065,4235,4010,4220,421500,2110
2015/06/26,2095,2143,2065,2134,335800,2134
2015/06/29,1984,2072,1969,2052,582500,2052
2015/06/30,2025,2081,1988,2071,273800,2071
2015/07/01,2071,2088,2009,2048,301900,2048
