2011/01/04,213,216,211,213,11700,213
2011/01/05,218,220,215,218,10000,218
2011/01/06,218,221,216,221,9700,221
2011/01/07,220,226,217,226,15800,226
2011/01/11,227,236,222,233,40500,233
2011/01/12,235,238,228,231,48200,231
2011/01/13,230,233,227,231,7400,231
2011/01/14,232,234,229,234,2900,234
2011/01/17,233,238,230,238,34800,238
2011/01/18,238,242,233,235,31700,235
2011/01/19,236,238,224,227,34200,227
2011/01/20,227,230,221,222,29400,222
2011/01/21,223,224,214,216,16200,216
2011/01/24,213,216,210,214,15500,214
2011/01/25,216,220,216,219,4200,219
2011/01/26,220,222,219,219,5000,219
2011/01/27,221,221,215,218,3800,218
2011/01/28,218,221,211,217,16200,217
2011/01/31,216,217,206,212,20700,212
2011/02/01,208,212,208,211,7400,211
2011/02/02,212,219,209,219,12800,219
2011/02/03,218,218,210,212,8100,212
2011/02/04,210,213,210,211,13400,211
2011/02/07,211,214,211,214,8900,214
2011/02/08,214,214,211,213,4000,213
2011/02/09,211,212,209,212,7100,212
2011/02/10,213,215,213,213,5800,213
2011/02/14,214,216,212,213,7200,213
2011/02/15,216,232,216,230,42300,230
2011/02/16,234,234,226,229,54000,229
2011/02/17,231,233,226,226,7700,226
2011/02/18,227,227,224,226,6000,226
2011/02/21,222,230,222,227,13700,227
2011/02/22,226,227,222,226,4500,226
2011/02/23,225,225,221,223,4800,223
2011/02/24,225,225,216,216,13600,216
2011/02/25,211,214,211,212,9400,212
2011/02/28,213,215,213,214,2700,214
2011/03/01,215,215,212,215,5800,215
2011/03/02,213,219,212,219,6800,219
2011/03/03,218,218,214,216,7600,216
2011/03/04,216,218,212,218,3100,218
2011/03/07,215,217,214,217,3000,217
2011/03/08,218,218,217,217,1600,217
2011/03/09,217,217,214,215,10100,215
2011/03/10,217,217,209,215,10300,215
2011/03/11,211,213,209,213,5300,213
2011/03/14,177,190,170,180,98300,180
2011/03/15,177,178,142,154,182200,154
2011/03/16,139,147,121,132,206300,132
2011/03/17,138,138,112,130,187400,130
2011/03/18,137,146,135,143,74100,143
2011/03/22,158,162,151,160,65200,160
2011/03/23,158,160,153,158,23400,158
2011/03/24,158,160,153,156,20800,156
2011/03/25,158,158,151,154,19500,154
2011/03/28,154,157,152,154,11900,154
2011/03/29,153,153,150,151,12800,151
2011/03/30,155,155,151,152,7800,152
2011/03/31,155,160,153,158,16400,158
2011/04/01,158,161,158,161,17700,161
2011/04/04,161,164,158,161,24700,161
2011/04/05,156,162,155,155,5300,155
2011/04/06,155,157,155,155,5600,155
2011/04/07,155,156,154,156,5500,156
2011/04/08,155,157,154,157,2600,157
2011/04/11,172,207,170,207,251700,207
2011/04/12,184,206,181,190,289500,190
2011/04/13,188,193,184,193,40500,193
2011/04/14,195,206,194,197,65900,197
2011/04/15,200,211,196,211,67100,211
2011/04/18,210,211,201,207,36300,207
2011/04/19,203,203,193,196,34600,196
2011/04/20,193,196,193,195,7600,195
2011/04/21,196,197,192,195,9400,195
2011/04/22,192,195,191,195,7100,195
2011/04/25,195,199,192,199,9000,199
2011/04/26,196,196,192,193,5800,193
2011/04/27,196,197,194,197,800,197
2011/04/28,196,196,190,194,24700,194
2011/05/02,195,198,194,195,20500,195
2011/05/06,194,197,193,197,10200,197
2011/05/09,197,198,195,197,7700,197
2011/05/10,200,200,193,195,13400,195
2011/05/11,196,199,192,196,14100,196
2011/05/12,196,196,191,196,11500,196
2011/05/13,196,196,191,191,6300,191
2011/05/16,190,190,188,189,8600,189
2011/05/17,186,188,184,187,14000,187
2011/05/18,185,187,181,186,14200,186
2011/05/19,185,185,185,185,800,185
2011/05/20,187,188,186,186,3500,186
2011/05/23,186,186,182,184,3100,184
2011/05/24,182,183,181,181,5400,181
2011/05/25,181,185,180,185,3900,185
2011/05/26,184,184,182,183,1900,183
2011/05/27,183,184,181,184,2400,184
2011/05/30,182,186,182,186,1300,186
2011/05/31,187,197,187,193,19400,193
2011/06/01,193,197,190,190,7200,190
2011/06/02,185,189,185,187,1700,187
2011/06/03,186,186,186,186,800,186
2011/06/06,185,185,183,185,4200,185
2011/06/07,185,185,184,184,2700,184
2011/06/08,184,189,184,189,2400,189
2011/06/09,186,190,184,187,2700,187
2011/06/10,190,190,184,185,4100,185
2011/06/13,183,185,181,182,17200,182
2011/06/14,182,183,181,182,1400,182
2011/06/15,182,182,179,180,9900,180
2011/06/16,179,179,177,178,11500,178
2011/06/17,178,179,178,179,2300,179
2011/06/20,180,180,179,179,600,179
2011/06/21,179,182,179,182,2600,182
2011/06/22,185,185,182,185,7900,185
2011/06/23,186,188,182,188,3400,188
2011/06/24,186,186,180,186,17300,186
2011/06/27,184,185,184,185,1500,185
2011/06/28,185,185,180,181,9300,181
2011/06/29,181,185,181,185,2500,185
2011/06/30,185,185,183,184,900,184
2011/07/01,184,188,184,188,3900,188
2011/07/04,188,188,185,186,16400,186
2011/07/05,186,191,186,189,8800,189
2011/07/06,188,190,187,190,12000,190
2011/07/07,189,191,189,189,8600,189
2011/07/08,191,198,190,198,29000,198
2011/07/11,222,246,220,232,411300,232
2011/07/12,223,223,214,218,86200,218
2011/07/13,216,216,209,210,45600,210
2011/07/14,211,214,210,214,25900,214
2011/07/15,214,214,211,213,11600,213
2011/07/19,215,215,205,205,31600,205
2011/07/20,208,208,205,207,12600,207
2011/07/21,210,210,204,206,10100,206
2011/07/22,206,220,205,218,49300,218
2011/07/25,218,218,210,214,25900,214
2011/07/26,216,216,205,206,54600,206
2011/07/27,206,208,205,207,5800,207
2011/07/28,206,207,202,206,9700,206
2011/07/29,204,205,203,205,7000,205
2011/08/01,202,206,202,206,9900,206
2011/08/02,207,207,202,205,5300,205
2011/08/03,201,203,201,202,15500,202
2011/08/04,202,205,202,203,5100,203
2011/08/05,198,201,194,197,43100,197
2011/08/08,192,197,192,195,25400,195
2011/08/09,186,191,183,191,61500,191
2011/08/10,195,196,192,195,23900,195
2011/08/11,194,195,189,194,9100,194
2011/08/12,194,195,194,194,2900,194
2011/08/15,192,198,192,196,11100,196
2011/08/16,196,200,196,199,11800,199
2011/08/17,199,199,196,199,5200,199
2011/08/18,199,199,196,197,10300,197
2011/08/19,195,196,193,193,6700,193
2011/08/22,193,195,193,195,3300,195
2011/08/23,194,199,192,199,14600,199
2011/08/24,199,202,198,201,9300,201
2011/08/25,205,205,200,200,6800,200
2011/08/26,200,200,195,198,15400,198
2011/08/29,198,199,196,199,7100,199
2011/08/30,199,203,199,203,9300,203
2011/08/31,204,207,201,201,1800,201
2011/09/01,202,203,202,202,2800,202
2011/09/02,202,202,200,200,3100,200
2011/09/05,200,205,200,205,6800,205
2011/09/06,200,200,197,199,13300,199
2011/09/07,196,202,196,199,9000,199
2011/09/08,200,200,199,199,12800,199
2011/09/09,200,205,199,200,14200,200
2011/09/12,206,206,197,197,20300,197
2011/09/13,198,208,198,205,13200,205
2011/09/14,205,208,203,205,27600,205
2011/09/15,203,207,203,205,10000,205
2011/09/16,203,205,200,202,27600,202
2011/09/20,204,204,199,199,20000,199
2011/09/21,203,205,199,205,27200,205
2011/09/22,201,205,200,205,15000,205
2011/09/26,200,201,191,201,22900,201
2011/09/27,200,201,198,201,5800,201
2011/09/28,202,203,200,200,4400,200
2011/09/29,201,201,192,199,7200,199
2011/09/30,201,207,201,206,7200,206
2011/10/03,204,210,200,210,26200,210
2011/10/04,208,213,208,213,22400,213
2011/10/05,215,217,213,215,16800,215
2011/10/06,216,234,216,226,46000,226
2011/10/07,224,230,222,230,25100,230
2011/10/11,250,250,215,216,225800,216
2011/10/12,216,228,216,226,33500,226
2011/10/13,224,226,218,223,37900,223
2011/10/14,218,220,212,217,24800,217
2011/10/17,218,218,209,211,29100,211
2011/10/18,211,211,206,210,17000,210
2011/10/19,211,211,205,206,24000,206
2011/10/20,203,204,201,202,26500,202
2011/10/21,204,208,204,205,9600,205
2011/10/24,207,210,206,206,7900,206
2011/10/25,208,210,208,209,3400,209
2011/10/26,208,208,205,206,7500,206
2011/10/27,205,206,201,205,12800,205
2011/10/28,204,205,203,204,23700,204
2011/10/31,206,209,206,207,20000,207
2011/11/01,208,210,207,210,5300,210
2011/11/02,209,209,206,207,5600,207
2011/11/04,207,207,204,207,12200,207
2011/11/07,207,208,206,207,7700,207
2011/11/08,209,215,207,207,13900,207
2011/11/09,209,209,207,209,4900,209
2011/11/10,206,207,204,206,12500,206
2011/11/11,207,207,203,204,6200,204
2011/11/14,205,208,204,206,18400,206
2011/11/15,208,210,208,208,6900,208
2011/11/16,209,210,207,207,7400,207
2011/11/17,207,207,205,207,8200,207
2011/11/18,207,207,204,206,3800,206
2011/11/21,205,205,204,205,3800,205
2011/11/22,204,204,201,203,5000,203
2011/11/24,203,203,200,201,12000,201
2011/11/25,200,203,196,201,10300,201
2011/11/28,203,203,201,201,4600,201
2011/11/29,200,202,200,202,2400,202
2011/11/30,203,203,201,202,28800,202
2011/12/01,204,205,204,204,5600,204
2011/12/02,205,205,204,205,2800,205
2011/12/05,210,213,210,212,12700,212
2011/12/06,212,215,210,211,20800,211
2011/12/07,213,222,211,220,27900,220
2011/12/08,219,221,214,218,17000,218
2011/12/09,215,217,214,217,3700,217
2011/12/12,222,224,220,222,33000,222
2011/12/13,222,225,218,225,27600,225
2011/12/14,225,225,220,223,46900,223
2011/12/15,223,230,223,229,38300,229
2011/12/16,231,232,222,227,26300,227
2011/12/19,224,225,216,219,27100,219
2011/12/20,219,225,219,224,19800,224
2011/12/21,224,226,222,224,37700,224
2011/12/22,224,226,224,225,9600,225
2011/12/26,225,226,223,223,69800,223
2011/12/27,223,223,219,221,15400,221
2011/12/28,222,224,219,224,7300,224
2011/12/29,224,224,219,222,11500,222
2011/12/30,222,222,219,221,8900,221
2012/01/04,222,226,221,224,22100,224
2012/01/05,224,229,222,228,26300,228
2012/01/06,231,236,225,231,42100,231
2012/01/10,231,237,229,237,35700,237
2012/01/11,236,236,233,234,21200,234
2012/01/12,232,237,232,236,15200,236
2012/01/13,236,245,236,245,34500,245
2012/01/16,230,232,221,222,80500,222
2012/01/17,222,222,210,218,52700,218
2012/01/18,214,218,212,218,35400,218
2012/01/19,218,220,216,217,8600,217
2012/01/20,218,223,218,219,10100,219
2012/01/23,220,221,215,221,20000,221
2012/01/24,221,223,220,222,9400,222
2012/01/25,222,226,222,225,8400,225
2012/01/26,223,225,220,221,7600,221
2012/01/27,221,223,217,218,14300,218
2012/01/30,220,222,218,220,10800,220
2012/01/31,221,222,219,220,9100,220
2012/02/01,221,223,218,223,10300,223
2012/02/02,222,224,221,222,5300,222
2012/02/03,223,223,221,222,6800,222
2012/02/06,226,227,225,225,32200,225
2012/02/07,226,227,225,226,19300,226
2012/02/08,227,228,225,227,24500,227
2012/02/09,228,233,228,232,31400,232
2012/02/10,234,236,234,235,22800,235
2012/02/13,236,238,232,238,21700,238
2012/02/14,238,244,233,239,34700,239
2012/02/15,243,243,237,240,18900,240
2012/02/16,238,240,237,239,5900,239
2012/02/17,240,246,240,243,22400,243
2012/02/20,245,249,244,248,16700,248
2012/02/21,247,272,247,255,78800,255
2012/02/22,255,284,255,270,82100,270
2012/02/23,274,274,256,262,49000,262
2012/02/24,262,273,258,261,17600,261
2012/02/27,261,267,255,258,28800,258
2012/02/28,258,258,251,256,46900,256
2012/02/29,256,258,250,257,14100,257
2012/03/01,257,258,249,249,17700,249
2012/03/02,249,251,243,251,23000,251
2012/03/05,248,248,246,247,9600,247
2012/03/06,247,264,246,264,24600,264
2012/03/07,252,265,252,261,34500,261
2012/03/08,261,271,261,270,49200,270
2012/03/09,272,350,272,350,1599500,350
2012/03/12,344,383,326,326,944400,326
2012/03/13,334,345,305,322,298500,322
2012/03/14,326,332,312,317,167100,317
2012/03/15,324,360,320,350,469100,350
2012/03/16,358,367,335,343,349800,343
2012/03/19,336,345,320,324,186500,324
2012/03/21,322,338,318,322,48700,322
2012/03/22,320,322,301,302,136100,302
2012/03/23,303,312,298,301,87100,301
2012/03/26,304,305,293,293,83800,293
2012/03/27,293,302,293,300,44400,300
2012/03/28,304,318,303,316,42000,316
2012/03/29,316,325,313,323,38300,323
2012/03/30,323,335,317,335,44400,335
2012/04/02,338,340,326,335,55200,335
2012/04/03,335,335,316,323,75100,323
2012/04/04,323,323,307,309,42000,309
2012/04/05,305,308,301,307,23500,307
2012/04/06,306,322,305,318,34000,318
2012/04/09,316,329,311,320,39600,320
2012/04/10,322,322,313,315,21900,315
2012/04/11,313,318,306,316,45800,316
2012/04/12,319,338,319,322,89500,322
2012/04/13,330,345,327,334,145400,334
2012/04/16,278,287,265,272,791700,272
2012/04/17,274,275,258,268,257000,268
2012/04/18,273,276,269,275,160500,275
2012/04/19,276,281,275,280,82500,280
2012/04/20,278,280,271,275,80600,275
2012/04/23,272,278,267,267,96400,267
2012/04/24,268,271,267,268,26900,268
2012/04/25,270,276,267,274,75200,274
2012/04/26,272,273,270,270,35700,270
2012/04/27,272,273,269,269,16700,269
2012/05/01,271,273,267,267,25600,267
2012/05/02,267,268,264,267,19300,267
2012/05/07,263,263,242,242,125800,242
2012/05/08,250,254,248,251,20900,251
2012/05/09,253,253,241,242,54600,242
2012/05/10,239,244,237,242,38600,242
2012/05/11,240,243,228,230,77900,230
2012/05/14,230,230,218,219,56300,219
2012/05/15,215,217,198,209,193200,209
2012/05/16,214,217,198,206,80700,206
2012/05/17,206,215,202,213,90800,213
2012/05/18,209,209,203,205,38200,205
2012/05/21,205,210,205,206,17500,206
2012/05/22,212,212,208,211,26500,211
2012/05/23,213,222,206,207,42900,207
2012/05/24,208,212,208,210,11200,210
2012/05/25,213,213,208,212,13100,212
2012/05/28,213,213,208,208,15600,208
2012/05/29,208,212,208,212,7100,212
2012/05/30,213,213,209,209,10900,209
2012/05/31,207,210,207,210,7300,210
2012/06/01,208,212,203,206,28600,206
2012/06/04,206,207,198,201,45800,201
2012/06/05,201,214,197,207,35000,207
2012/06/06,206,213,205,210,30700,210
2012/06/07,218,218,210,212,23000,212
2012/06/08,211,211,207,210,8300,210
2012/06/11,210,215,210,213,13000,213
2012/06/12,210,239,209,222,208600,222
2012/06/13,230,237,226,226,73300,226
2012/06/14,228,230,214,223,37700,223
2012/06/15,218,219,212,213,47500,213
2012/06/18,216,219,215,219,47700,219
2012/06/19,218,219,217,219,17500,219
2012/06/20,221,222,219,220,13200,220
2012/06/21,222,222,218,218,18600,218
2012/06/22,216,219,216,218,12400,218
2012/06/25,220,222,219,221,25900,221
2012/06/26,221,223,219,222,19700,222
2012/06/27,223,223,220,221,9900,221
2012/06/28,224,229,223,225,53400,225
2012/06/29,225,232,224,232,100300,232
2012/07/02,237,237,229,232,34900,232
2012/07/03,232,234,226,228,52100,228
2012/07/04,229,231,228,231,21600,231
2012/07/05,231,232,227,227,45600,227
2012/07/06,229,229,227,228,24800,228
2012/07/09,231,234,229,234,52000,234
2012/07/10,234,240,234,236,28200,236
2012/07/11,237,237,229,232,31700,232
2012/07/12,233,235,228,228,28900,228
2012/07/13,229,248,229,245,107200,245
2012/07/17,232,239,229,231,107400,231
2012/07/18,229,229,215,217,85500,217
2012/07/19,215,220,215,220,11300,220
2012/07/20,221,221,213,216,20900,216
2012/07/23,215,215,210,210,16500,210
2012/07/24,209,212,205,211,20600,211
2012/07/25,207,211,205,205,18800,205
2012/07/26,207,210,206,210,6100,210
2012/07/27,210,214,210,213,7700,213
2012/07/30,214,215,211,212,11700,212
2012/07/31,210,212,208,209,14100,209
2012/08/01,209,211,208,209,7200,209
2012/08/02,209,209,207,209,5800,209
2012/08/03,210,215,208,211,9000,211
2012/08/06,211,212,210,211,13600,211
2012/08/07,211,212,209,212,6000,212
2012/08/08,213,215,210,211,27700,211
2012/08/09,214,214,209,212,7300,212
2012/08/10,211,212,209,212,20000,212
2012/08/13,210,214,209,213,8500,213
2012/08/14,209,215,209,213,17800,213
2012/08/15,213,214,212,212,6600,212
2012/08/16,213,214,211,214,12000,214
2012/08/17,214,219,214,219,23300,219
2012/08/20,220,220,217,219,19600,219
2012/08/21,219,219,218,219,5100,219
2012/08/22,218,220,217,218,6700,218
2012/08/23,218,218,214,218,19500,218
2012/08/24,215,216,214,216,7500,216
2012/08/27,216,218,213,215,36000,215
2012/08/28,214,215,210,210,30100,210
2012/08/29,207,209,205,207,28200,207
2012/08/30,206,209,205,208,17500,208
2012/08/31,207,207,205,206,4400,206
2012/09/03,206,208,206,207,19300,207
2012/09/04,206,207,205,206,4200,206
2012/09/05,205,207,203,204,11000,204
2012/09/06,204,205,202,205,16700,205
2012/09/07,204,207,204,207,10800,207
2012/09/10,207,207,202,202,9500,202
2012/09/11,203,204,201,203,8600,203
2012/09/12,200,201,199,200,43800,200
2012/09/13,201,204,201,202,6300,202
2012/09/14,200,203,200,203,32100,203
2012/09/18,201,203,200,201,21900,201
2012/09/19,201,206,201,206,31600,206
2012/09/20,206,206,204,205,9100,205
2012/09/21,204,205,203,203,4100,203
2012/09/24,204,207,203,206,13500,206
2012/09/25,206,206,202,203,15700,203
2012/09/26,202,203,201,203,16500,203
2012/09/27,203,205,203,203,5400,203
2012/09/28,204,204,201,203,8900,203
2012/10/01,204,204,202,202,12800,202
2012/10/02,202,202,200,202,27900,202
2012/10/03,201,205,201,203,7900,203
2012/10/04,204,207,204,207,16000,207
2012/10/05,207,209,207,208,11700,208
2012/10/09,208,211,208,211,11600,211
2012/10/10,210,210,207,208,10300,208
2012/10/11,205,209,205,209,6400,209
2012/10/12,209,217,209,216,47900,216
2012/10/15,208,208,201,205,107500,205
2012/10/16,205,205,203,205,19600,205
2012/10/17,205,208,205,207,9700,207
2012/10/18,208,214,206,214,39400,214
2012/10/19,214,217,213,215,42600,215
2012/10/22,214,214,210,213,13400,213
2012/10/23,213,216,212,214,36600,214
2012/10/24,214,220,213,218,45000,218
2012/10/25,220,223,219,219,38200,219
2012/10/26,219,222,218,220,40600,220
2012/10/29,220,220,217,218,23300,218
2012/10/30,217,217,214,216,29500,216
2012/10/31,215,219,214,214,12300,214
2012/11/01,220,222,216,219,25700,219
2012/11/02,214,216,214,216,19200,216
2012/11/05,216,220,214,214,15600,214
2012/11/06,216,217,214,214,13300,214
2012/11/07,214,214,206,210,27100,210
2012/11/08,210,211,201,201,60300,201
2012/11/09,203,205,201,203,17900,203
2012/11/12,204,206,202,202,36000,202
2012/11/13,203,205,201,201,21000,201
2012/11/14,202,204,201,202,28500,202
2012/11/15,202,206,201,203,12500,203
2012/11/16,202,205,201,203,15600,203
2012/11/19,203,209,203,206,25600,206
2012/11/20,208,208,203,203,27200,203
2012/11/21,203,206,203,204,15800,204
2012/11/22,204,206,202,203,40400,203
2012/11/26,204,206,202,204,26100,204
2012/11/27,203,205,203,204,38900,204
2012/11/28,205,206,205,205,16700,205
2012/11/29,205,211,204,209,50100,209
2012/11/30,208,210,206,210,33500,210
2012/12/03,211,212,210,210,40200,210
2012/12/04,209,211,207,209,15100,209
2012/12/05,207,210,207,209,18000,209
2012/12/06,210,211,208,211,13200,211
2012/12/07,211,211,207,208,20200,208
2012/12/10,209,209,208,208,13400,208
2012/12/11,207,207,204,205,41400,205
2012/12/12,205,207,205,207,9800,207
2012/12/13,207,217,205,210,65100,210
2012/12/14,212,213,207,209,40100,209
2012/12/17,210,210,206,209,38000,209
2012/12/18,209,209,207,208,26600,208
2012/12/19,210,211,208,208,33100,208
2012/12/20,211,211,209,210,12600,210
2012/12/21,210,213,210,210,62600,210
2012/12/25,210,219,209,214,164600,214
2012/12/26,215,226,214,221,117000,221
2012/12/27,221,221,217,220,53400,220
2012/12/28,220,224,217,220,54100,220
2013/01/04,220,224,216,224,99600,224
2013/01/07,228,230,223,228,63900,228
2013/01/08,230,234,226,228,54200,228
2013/01/09,228,229,225,227,47400,227
2013/01/10,229,233,229,231,65600,231
2013/01/11,233,235,230,233,54900,233
2013/01/15,234,237,228,233,100900,233
2013/01/16,210,217,210,212,228200,212
2013/01/17,209,212,205,209,101500,209
2013/01/18,209,211,208,211,28400,211
2013/01/21,210,212,208,212,35100,212
2013/01/22,211,211,209,210,29900,210
2013/01/23,211,211,209,209,6300,209
2013/01/24,210,210,208,209,16700,209
2013/01/25,210,214,209,213,35800,213
2013/01/28,215,218,213,215,31700,215
2013/01/29,216,217,213,213,33100,213
2013/01/30,214,215,213,214,18700,214
2013/01/31,215,217,213,217,31300,217
2013/02/01,217,217,213,214,31500,214
2013/02/04,216,219,216,218,33800,218
2013/02/05,217,217,213,214,32100,214
2013/02/06,215,215,213,214,41300,214
2013/02/07,213,216,210,213,53700,213
2013/02/08,213,214,210,212,40100,212
2013/02/12,214,214,211,212,13400,212
2013/02/13,213,213,207,207,55500,207
2013/02/14,207,208,202,202,44000,202
2013/02/15,203,204,198,199,77000,199
2013/02/18,197,200,196,200,52700,200
2013/02/19,200,203,200,202,11400,202
2013/02/20,201,206,200,200,44000,200
2013/02/21,202,218,201,213,202000,213
2013/02/22,210,213,207,209,68700,209
2013/02/25,209,210,206,207,56300,207
2013/02/26,206,208,205,206,17600,206
2013/02/27,206,208,204,206,33000,206
2013/02/28,205,208,203,206,27900,206
2013/03/01,206,207,204,206,29500,206
2013/03/04,208,208,205,206,23300,206
2013/03/05,208,212,206,210,109100,210
2013/03/06,210,220,210,220,148600,220
2013/03/07,220,299,217,286,1839000,286
2013/03/08,286,327,251,263,1381700,263
2013/03/11,270,277,250,258,269800,258
2013/03/12,250,255,248,250,131600,250
2013/03/13,258,278,250,261,389800,261
2013/03/14,260,263,256,261,85400,261
2013/03/15,265,265,255,257,56200,257
2013/03/18,258,263,253,256,45700,256
2013/03/19,258,264,256,262,67400,262
2013/03/21,260,260,242,255,118100,255
2013/03/22,259,259,249,250,55800,250
2013/03/25,259,262,253,262,87300,262
2013/03/26,266,289,263,275,407800,275
2013/03/27,285,305,275,298,397700,298
2013/03/28,310,313,284,294,295700,294
2013/03/29,290,298,284,298,112600,298
2013/04/01,298,298,263,263,167900,263
2013/04/02,250,269,246,265,125900,265
2013/04/03,272,272,262,265,31300,265
2013/04/04,264,270,261,270,30800,270
2013/04/05,278,280,265,266,59500,266
2013/04/08,267,272,263,266,80700,266
2013/04/09,267,269,260,261,78100,261
2013/04/10,262,266,261,266,44900,266
2013/04/11,268,268,260,262,65100,262
2013/04/12,263,264,260,261,55300,261
2013/04/15,263,266,260,262,54500,262
2013/04/16,239,250,232,245,229600,245
2013/04/17,246,259,246,258,92300,258
2013/04/18,258,267,250,266,124600,266
2013/04/19,267,272,267,271,75200,271
2013/04/22,275,275,271,275,71800,275
2013/04/23,275,276,272,276,52400,276
2013/04/24,280,281,278,279,43500,279
2013/04/25,279,280,271,278,92100,278
2013/04/26,277,278,275,278,42700,278
2013/04/30,278,287,275,287,76900,287
2013/05/01,291,310,290,304,255100,304
2013/05/02,300,315,296,308,155800,308
2013/05/07,315,316,310,313,68100,313
2013/05/08,315,323,310,312,123700,312
2013/05/09,310,323,295,307,201200,307
2013/05/10,302,306,298,305,35600,305
2013/05/13,305,320,302,320,82100,320
2013/05/14,324,324,316,322,150000,322
2013/05/15,324,324,242,278,297100,278
2013/05/16,275,285,267,274,60500,274
2013/05/17,275,302,274,295,67700,295
2013/05/20,296,308,296,303,46900,303
2013/05/21,301,305,296,300,40900,300
2013/05/22,300,302,295,297,36400,297
2013/05/23,293,297,272,273,70100,273
2013/05/24,270,283,258,274,87600,274
2013/05/27,275,279,268,278,37100,278
2013/05/28,270,280,270,274,15900,274
2013/05/29,278,288,274,288,43700,288
2013/05/30,282,285,275,283,65500,283
2013/05/31,283,285,280,285,26000,285
2013/06/03,280,282,268,271,32500,271
2013/06/04,269,274,255,272,67100,272
2013/06/05,273,275,258,269,33400,269
2013/06/06,263,268,240,260,58300,260
2013/06/07,242,253,229,233,100200,233
2013/06/10,249,251,237,245,39600,245
2013/06/11,245,248,240,246,37900,246
2013/06/12,241,247,237,246,56500,246
2013/06/13,241,247,241,244,37500,244
2013/06/14,244,246,237,245,34000,245
2013/06/17,246,248,242,246,18100,246
2013/06/18,248,259,248,257,31400,257
2013/06/19,257,260,252,258,27700,258
2013/06/20,253,259,252,256,39800,256
2013/06/21,251,256,248,249,40000,249
2013/06/24,253,298,253,280,339500,280
2013/06/25,280,303,278,302,321000,302
2013/06/26,298,300,280,288,222600,288
2013/06/27,282,295,261,284,78900,284
2013/06/28,277,302,277,296,276000,296
2013/07/01,298,301,290,298,65500,298
2013/07/02,292,298,277,296,174200,296
2013/07/03,295,299,289,299,39000,299
2013/07/04,291,300,291,298,69900,298
2013/07/05,298,299,292,298,54000,298
2013/07/08,297,298,285,297,58700,297
2013/07/09,297,298,288,296,70300,296
2013/07/10,293,296,287,292,70100,292
2013/07/11,300,305,294,302,112100,302
2013/07/12,305,305,294,299,90300,299
2013/07/16,297,299,285,291,85600,291
2013/07/17,290,293,285,292,61800,292
2013/07/18,287,292,285,289,60400,289
2013/07/19,291,295,284,284,63000,284
2013/07/22,280,287,275,285,21900,285
2013/07/23,280,288,280,286,3300,286
2013/07/24,287,290,279,290,39900,290
2013/07/25,288,290,284,289,1800,289
2013/07/26,288,289,276,287,98100,287
2013/07/29,280,280,252,258,92400,258
2013/07/30,259,260,252,260,39600,260
2013/07/31,258,260,252,253,34200,253
2013/08/01,254,255,247,248,34600,248
2013/08/02,250,250,244,245,28500,245
2013/08/05,250,250,244,244,22000,244
2013/08/06,244,265,243,250,30900,250
2013/08/07,250,253,250,251,16900,251
2013/08/08,250,252,248,248,10900,248
2013/08/09,249,249,244,244,18000,244
2013/08/12,247,247,244,246,16300,246
2013/08/13,245,245,240,243,16700,243
2013/08/14,248,248,245,245,3600,245
2013/08/15,245,245,244,245,2800,245
2013/08/16,244,246,244,245,7000,245
2013/08/19,245,245,242,244,4000,244
2013/08/20,245,245,241,243,7800,243
2013/08/21,243,243,242,242,4800,242
2013/08/22,241,241,236,239,20800,239
2013/08/23,238,238,215,221,82400,221
2013/08/26,222,228,221,225,99700,225
2013/08/27,226,231,226,228,32800,228
2013/08/28,226,226,204,208,300600,208
2013/08/29,210,220,210,214,38400,214
2013/08/30,217,217,208,212,57600,212
2013/09/02,216,217,208,208,47900,208
2013/09/03,210,214,210,214,16600,214
2013/09/04,215,215,212,212,22100,212
2013/09/05,214,219,213,216,45200,216
2013/09/06,215,217,213,213,39700,213
2013/09/09,215,218,212,214,38300,214
2013/09/10,215,218,212,218,33600,218
2013/09/11,218,218,213,215,31600,215
2013/09/12,214,218,214,216,79300,216
2013/09/13,217,222,212,219,82700,219
2013/09/17,213,213,204,207,234600,207
2013/09/18,208,211,207,210,31800,210
2013/09/19,210,217,210,217,40500,217
2013/09/20,214,217,213,216,29100,216
2013/09/24,217,226,215,221,99600,221
2013/09/25,220,222,209,215,94500,215
2013/09/26,214,221,211,214,94600,214
2013/09/27,215,222,213,222,65500,222
2013/09/30,221,221,218,221,40100,221
2013/10/01,219,221,217,219,24700,219
2013/10/02,218,219,217,217,51000,217
2013/10/03,217,220,217,219,13000,219
2013/10/04,218,221,216,219,34400,219
2013/10/07,216,219,216,216,67600,216
2013/10/08,215,217,210,216,21200,216
2013/10/09,214,216,211,216,15700,216
2013/10/10,216,217,210,216,6500,216
2013/10/11,216,216,214,215,5300,215
2013/10/15,213,213,210,213,31000,213
2013/10/16,213,213,208,213,10500,213
2013/10/17,213,215,211,214,22200,214
2013/10/18,211,215,210,215,8600,215
2013/10/21,214,216,212,214,22300,214
2013/10/22,213,217,213,217,22200,217
2013/10/23,216,218,213,215,18800,215
2013/10/24,215,215,213,214,6500,214
2013/10/25,214,216,213,215,23700,215
2013/10/28,215,218,214,217,35500,217
2013/10/29,216,218,215,216,31400,216
2013/10/30,217,217,208,211,52800,211
2013/10/31,212,213,208,208,42300,208
2013/11/01,209,212,207,208,15000,208
2013/11/05,207,210,205,207,21500,207
2013/11/06,206,210,205,207,6900,207
2013/11/07,207,208,204,205,22000,205
2013/11/08,205,207,205,205,20400,205
2013/11/11,206,208,205,208,27900,208
2013/11/12,206,210,205,209,50800,209
2013/11/13,208,220,208,216,73700,216
2013/11/14,216,217,215,216,24500,216
2013/11/15,215,217,214,217,60300,217
2013/11/18,221,276,217,218,554700,218
2013/11/19,222,225,214,216,237600,216
2013/11/20,220,222,215,216,82000,216
2013/11/21,219,219,213,216,41300,216
2013/11/22,218,218,213,214,37600,214
2013/11/25,214,215,205,209,63900,209
2013/11/26,208,209,208,209,21500,209
2013/11/27,208,209,206,207,33300,207
2013/11/28,208,210,207,207,22100,207
2013/11/29,208,209,207,209,17500,209
2013/12/02,210,210,208,210,11900,210
2013/12/03,210,210,208,209,10500,209
2013/12/04,209,209,207,207,32000,207
2013/12/05,207,208,206,206,16600,206
2013/12/06,206,208,205,208,15400,208
2013/12/09,209,209,206,209,10100,209
2013/12/10,209,210,207,208,31500,208
2013/12/11,208,209,208,209,19400,209
2013/12/12,209,210,209,209,34900,209
2013/12/13,211,212,210,211,42400,211
2013/12/16,210,212,209,211,45100,211
2013/12/17,208,211,208,210,20000,210
2013/12/18,209,212,208,210,25900,210
2013/12/19,210,211,210,210,34000,210
2013/12/20,211,230,211,225,252200,225
2013/12/24,220,221,187,201,571300,201
2013/12/25,196,202,190,202,118500,202
2013/12/26,200,201,199,200,43200,200
2013/12/27,199,201,197,201,36900,201
2013/12/30,201,201,199,200,41100,200
2014/01/06,201,202,195,200,146100,200
2014/01/07,204,204,198,202,31800,202
2014/01/08,201,203,199,201,19100,201
2014/01/09,200,204,199,202,29700,202
2014/01/10,201,203,200,201,24100,201
2014/01/14,199,203,199,200,21400,200
2014/01/15,202,202,199,200,15400,200
2014/01/16,202,203,201,201,18300,201
2014/01/17,203,208,201,208,38500,208
2014/01/20,208,208,204,205,13800,205
2014/01/21,204,205,202,203,16900,203
2014/01/22,204,205,201,203,48900,203
2014/01/23,203,209,202,202,40700,202
2014/01/24,203,207,203,205,10700,205
2014/01/27,200,204,199,202,44000,202
2014/01/28,200,201,198,199,20500,199
2014/01/29,199,201,199,200,7900,200
2014/01/30,201,206,200,201,50500,201
2014/01/31,201,204,200,202,43500,202
2014/02/03,199,199,195,196,33400,196
2014/02/04,189,191,177,186,109900,186
2014/02/05,189,192,181,185,13700,185
2014/02/06,185,190,185,186,5000,186
2014/02/07,189,190,186,187,23300,187
2014/02/10,192,192,188,191,5100,191
2014/02/12,190,190,187,187,11600,187
2014/02/13,189,191,185,186,28500,186
2014/02/14,187,196,187,195,44800,195
2014/02/17,192,192,189,190,2200,190
2014/02/18,192,194,190,194,4400,194
2014/02/19,193,193,193,193,7700,193
2014/02/20,191,194,189,194,3000,194
2014/02/21,191,193,189,192,7700,192
2014/02/24,189,190,185,189,21800,189
2014/02/25,189,190,188,190,5300,190
2014/02/26,188,191,188,191,4600,191
2014/02/27,191,191,188,190,3800,190
2014/02/28,189,190,188,188,2500,188
2014/03/03,188,188,182,185,19600,185
2014/03/04,186,186,184,184,11700,184
2014/03/05,186,192,184,190,28900,190
2014/03/06,190,192,188,188,6700,188
2014/03/07,187,190,187,190,5100,190
2014/03/10,190,191,187,188,6900,188
2014/03/11,188,188,186,187,6800,187
2014/03/12,188,189,186,188,3300,188
2014/03/13,187,192,186,189,11100,189
2014/03/14,188,191,186,188,2900,188
2014/03/17,187,188,184,188,9000,188
2014/03/18,188,188,186,186,3400,186
2014/03/19,186,189,185,188,7200,188
2014/03/20,188,189,184,187,10600,187
2014/03/24,187,187,184,186,14600,186
2014/03/25,186,186,181,185,14100,185
2014/03/26,185,187,182,187,67600,187
2014/03/27,184,186,183,186,3400,186
2014/03/28,182,185,182,185,6600,185
2014/03/31,183,185,182,184,35600,184
2014/04/01,185,185,183,185,9900,185
2014/04/02,183,185,182,184,4800,184
2014/04/03,184,185,182,185,6300,185
2014/04/04,183,185,183,183,7300,183
2014/04/07,183,184,183,184,2200,184
2014/04/08,183,184,183,183,2900,183
2014/04/09,183,183,181,181,7500,181
2014/04/10,181,183,180,182,10200,182
2014/04/11,178,180,178,179,16300,179
2014/04/14,180,180,177,179,9800,179
2014/04/15,177,178,172,174,11000,174
2014/04/16,173,173,171,172,12900,172
2014/04/17,172,175,172,175,2800,175
2014/04/18,175,176,174,176,14300,176
2014/04/21,176,176,174,174,600,174
2014/04/22,173,174,172,172,3900,172
2014/04/23,172,174,172,174,6400,174
2014/04/24,174,174,172,173,2900,173
2014/04/25,173,173,172,173,6500,173
2014/04/28,173,173,169,169,14800,169
2014/04/30,169,170,169,170,2000,170
2014/05/01,169,170,167,170,14900,170
2014/05/02,170,170,165,169,23000,169
2014/05/07,166,168,165,167,3500,167
2014/05/08,167,168,166,167,8800,167
2014/05/09,167,169,167,169,14700,169
2014/05/12,166,168,166,166,2900,166
2014/05/13,163,164,158,161,37100,161
2014/05/14,158,161,158,159,15300,159
2014/05/15,160,161,157,159,11900,159
2014/05/16,153,155,144,150,83500,150
2014/05/19,148,149,129,129,115700,129
2014/05/20,130,138,128,132,57500,132
2014/05/21,137,165,132,134,425100,134
2014/05/22,135,135,131,133,41800,133
2014/05/23,134,134,132,133,13100,133
2014/05/26,136,142,135,137,28200,137
2014/05/27,139,162,139,146,377100,146
2014/05/28,144,158,144,151,65900,151
2014/05/29,150,150,145,147,12800,147
2014/05/30,146,154,146,147,6800,147
2014/06/02,149,149,146,146,3900,146
2014/06/03,153,155,149,153,17500,153
2014/06/04,149,152,149,149,4800,149
2014/06/05,146,150,146,150,4400,150
2014/06/06,145,148,145,145,25000,145
2014/06/09,152,153,150,152,24200,152
2014/06/10,152,152,146,148,12200,148
2014/06/11,150,150,148,149,6800,149
2014/06/12,145,147,145,147,17900,147
2014/06/13,147,147,145,145,17600,145
2014/06/16,146,146,139,143,30900,143
2014/06/17,142,142,138,141,31200,141
2014/06/18,148,148,142,142,25000,142
2014/06/19,142,144,141,142,8100,142
2014/06/20,146,172,146,153,690800,153
2014/06/23,147,151,146,146,102700,146
2014/06/24,145,147,143,145,116800,145
2014/06/25,144,149,143,146,38200,146
2014/06/26,145,145,142,144,38300,144
2014/06/27,146,146,143,143,9500,143
2014/06/30,142,145,142,144,58900,144
2014/07/01,146,146,143,145,9900,145
2014/07/02,144,146,144,145,8000,145
2014/07/03,145,146,143,145,11000,145
2014/07/04,148,148,144,147,24300,147
2014/07/07,150,160,148,153,90700,153
2014/07/08,152,152,150,151,19300,151
2014/07/09,150,154,150,151,22700,151
2014/07/10,151,154,151,151,15800,151
2014/07/11,152,154,150,150,14100,150
2014/07/14,155,159,152,152,37700,152
2014/07/15,155,157,151,157,22400,157
2014/07/16,157,159,153,156,24900,156
2014/07/17,154,157,154,155,14300,155
2014/07/18,151,156,150,155,26500,155
2014/07/22,160,161,152,159,49200,159
2014/07/23,156,160,156,158,26600,158
2014/07/24,158,159,155,157,24800,157
2014/07/25,157,161,156,158,15800,158
2014/07/28,158,158,152,153,90300,153
2014/07/29,154,157,153,155,17000,155
2014/07/30,156,156,153,154,18800,154
2014/07/31,154,155,154,155,8400,155
2014/08/01,155,155,152,154,8900,154
2014/08/04,154,155,153,154,16300,154
2014/08/05,154,155,153,154,16700,154
2014/08/06,153,154,153,153,9000,153
2014/08/07,155,155,153,153,4600,153
2014/08/08,153,153,150,150,22500,150
2014/08/11,154,154,148,148,16600,148
2014/08/12,148,153,148,149,3500,149
2014/08/13,149,153,149,151,800,151
2014/08/14,149,153,148,148,7500,148
2014/08/15,148,151,147,151,6900,151
2014/08/18,150,150,149,149,3700,149
2014/08/19,149,150,148,150,2100,150
2014/08/20,150,150,149,150,4500,150
2014/08/21,149,150,148,149,9900,149
2014/08/22,149,150,146,146,11000,146
2014/08/25,147,149,147,149,2700,149
2014/08/26,148,149,145,149,9500,149
2014/08/27,146,149,146,149,1600,149
2014/08/28,148,149,147,149,4000,149
2014/08/29,149,152,149,152,11100,152
2014/09/01,153,153,151,152,16100,152
2014/09/02,153,153,150,151,9800,151
2014/09/03,153,153,150,152,1500,152
2014/09/04,148,150,148,150,1200,150
2014/09/05,149,150,149,150,500,150
2014/09/08,150,150,146,150,3500,150
2014/09/09,150,150,146,148,20500,148
2014/09/10,148,148,145,147,18800,147
2014/09/11,145,147,145,147,15800,147
2014/09/12,148,149,145,148,6100,148
2014/09/16,148,150,145,145,3400,145
2014/09/17,148,165,148,148,213900,148
2014/09/18,150,150,145,148,25800,148
2014/09/19,148,150,148,148,2500,148
2014/09/22,147,150,146,148,7600,148
2014/09/24,148,149,147,147,6000,147
2014/09/25,146,150,146,150,29700,150
2014/09/26,150,150,150,150,7300,150
2014/09/29,150,151,148,148,49900,148
2014/09/30,149,151,149,149,4900,149
2014/10/01,150,151,148,148,28200,148
2014/10/02,148,148,146,146,35400,146
2014/10/03,145,149,145,146,14800,146
2014/10/06,147,148,144,146,27000,146
2014/10/07,146,148,145,146,6000,146
2014/10/08,145,146,144,145,6900,145
2014/10/09,145,146,144,144,6400,144
2014/10/10,140,146,140,144,24100,144
2014/10/14,141,141,140,140,20700,140
2014/10/15,140,147,138,145,17200,145
2014/10/16,140,140,130,135,72400,135
2014/10/17,138,140,134,134,31200,134
2014/10/20,134,134,128,132,20500,132
2014/10/21,135,135,132,132,9600,132
2014/10/22,134,134,132,132,7900,132
2014/10/23,131,133,129,133,23000,133
2014/10/24,133,134,130,134,15200,134
2014/10/27,135,136,132,132,14000,132
2014/10/28,131,134,130,131,16000,131
2014/10/29,131,133,131,131,3400,131
2014/10/30,131,132,130,131,12700,131
2014/10/31,132,132,127,132,33000,132
2014/11/04,132,135,128,130,22800,130
2014/11/05,130,132,126,130,25500,130
2014/11/06,135,150,126,128,537500,128
2014/11/07,129,130,127,127,71200,127
2014/11/10,129,129,126,128,25300,128
2014/11/11,128,128,126,127,10700,127
2014/11/12,128,128,125,126,19800,126
2014/11/13,127,128,123,127,39800,127
2014/11/14,125,126,125,125,13300,125
2014/11/17,125,126,124,125,5000,125
2014/11/18,125,128,124,124,16000,124
2014/11/19,126,126,124,126,10000,126
2014/11/20,125,126,124,125,24900,125
2014/11/21,124,124,122,122,46500,122
2014/11/25,122,124,120,121,63600,121
2014/11/26,121,123,120,121,23500,121
2014/11/27,122,126,122,125,66000,125
2014/11/28,126,136,126,136,306600,136
2014/12/01,142,154,138,148,609600,148
2014/12/02,149,152,142,151,237300,151
2014/12/03,152,186,149,149,1309900,149
2014/12/04,147,165,142,162,435100,162
2014/12/05,166,167,159,163,147500,163
2014/12/08,166,168,161,161,118500,161
2014/12/09,160,160,153,153,65800,153
2014/12/10,148,155,148,152,36000,152
2014/12/11,150,153,149,151,17600,151
2014/12/12,150,153,149,150,11400,150
2014/12/15,151,151,144,146,35700,146
2014/12/16,146,148,140,141,29800,141
2014/12/17,140,145,139,143,24300,143
2014/12/18,145,148,143,146,36400,146
2014/12/19,146,147,142,142,26800,142
2014/12/22,141,144,140,143,36500,143
2014/12/24,139,141,136,137,161400,137
2014/12/25,138,139,133,136,439300,136
2014/12/26,135,142,135,139,37900,139
2014/12/29,143,143,139,143,25600,143
2014/12/30,140,141,137,141,29400,141
2015/01/05,138,140,137,138,19400,138
2015/01/06,137,138,134,135,22400,135
2015/01/07,136,137,133,137,16500,137
2015/01/08,137,138,134,135,13900,135
2015/01/09,137,137,133,133,19700,133
2015/01/13,132,133,131,131,13800,131
2015/01/14,136,168,132,132,1660200,132
2015/01/15,131,132,124,128,278600,128
2015/01/16,128,128,125,127,20500,127
2015/01/19,126,127,125,125,34800,125
2015/01/20,130,144,126,128,317700,128
2015/01/21,130,130,127,127,65600,127
2015/01/22,128,131,124,129,101500,129
2015/01/23,129,130,124,128,120700,128
2015/01/26,127,128,125,127,23200,127
2015/01/27,127,133,126,129,118800,129
2015/01/28,128,135,128,134,134300,134
2015/01/29,132,133,130,130,53400,130
2015/01/30,131,131,125,125,100500,125
2015/02/02,126,128,125,125,20600,125
2015/02/03,125,126,125,125,18400,125
2015/02/04,126,127,123,126,41300,126
2015/02/05,127,127,124,125,39100,125
2015/02/06,126,126,125,126,9400,126
2015/02/09,127,132,126,127,30800,127
2015/02/10,127,129,126,126,23400,126
2015/02/12,128,132,126,130,167600,130
2015/02/13,131,136,129,135,108800,135
2015/02/16,137,141,133,134,148000,134
2015/02/17,133,134,131,132,44600,132
2015/02/18,132,134,129,129,37200,129
2015/02/19,131,131,129,129,23500,129
2015/02/20,129,132,129,130,34900,130
2015/02/23,130,130,128,129,40000,129
2015/02/24,129,129,128,128,28600,128
2015/02/25,128,130,128,129,25000,129
2015/02/26,129,149,129,135,996800,135
2015/02/27,139,139,134,134,191700,134
2015/03/02,135,137,133,136,94500,136
2015/03/03,138,139,135,136,177000,136
2015/03/04,136,137,133,134,88000,134
2015/03/05,133,135,132,134,38700,134
2015/03/06,134,135,133,134,88300,134
2015/03/09,133,135,133,133,16800,133
2015/03/10,132,133,131,132,35800,132
2015/03/11,132,133,131,132,57700,132
2015/03/12,132,132,131,132,43600,132
2015/03/13,132,134,130,130,88200,130
2015/03/16,131,131,125,126,97100,126
2015/03/17,127,127,124,125,82500,125
2015/03/18,126,128,126,127,65000,127
2015/03/19,127,128,126,127,27300,127
2015/03/20,127,128,127,127,14500,127
2015/03/23,128,128,127,127,22100,127
2015/03/24,126,127,126,127,17100,127
2015/03/25,127,128,126,127,21200,127
2015/03/26,127,128,125,125,25900,125
2015/03/27,125,126,123,124,24800,124
2015/03/30,124,124,121,121,32100,121
2015/03/31,121,123,120,122,69100,122
2015/04/01,122,125,122,125,21300,125
2015/04/02,125,126,124,126,20300,126
2015/04/03,126,126,123,124,30800,124
2015/04/06,124,124,121,122,40300,122
2015/04/07,124,125,122,123,24900,123
2015/04/08,123,123,121,122,69100,122
2015/04/09,122,123,120,120,43100,120
2015/04/10,122,122,118,120,110000,120
2015/04/13,118,118,114,116,180300,116
2015/04/14,116,119,115,119,62300,119
2015/04/15,112,113,108,111,477800,111
2015/04/16,109,111,106,107,246200,107
2015/04/17,106,108,103,105,225700,105
2015/04/20,103,104,101,104,168700,104
2015/04/21,103,104,97,101,448500,101
2015/04/22,100,101,98,100,237900,100
2015/04/23,100,100,98,98,154300,98
2015/04/24,98,98,94,96,462600,96
2015/04/27,96,96,94,94,126900,94
2015/04/28,93,93,89,90,351000,90
2015/04/30,88,107,87,95,3924200,95
2015/05/01,92,93,88,88,610500,88
2015/05/07,87,88,84,85,349300,85
2015/05/08,83,85,82,84,270200,84
2015/05/11,84,85,83,83,133400,83
2015/05/12,83,83,81,81,111300,81
2015/05/13,81,81,79,79,250700,79
2015/05/14,81,89,79,79,713900,79
2015/05/15,79,80,77,77,263300,77
2015/05/18,77,80,76,78,207300,78
2015/05/19,76,77,71,75,772300,75
2015/05/20,75,76,74,75,201900,75
2015/05/21,75,76,74,75,101100,75
2015/05/22,72,74,71,73,348400,73
2015/05/25,74,74,72,74,99500,74
2015/05/26,75,79,74,78,255400,78
2015/05/27,78,78,75,76,161800,76
2015/05/28,75,81,75,79,342600,79
2015/05/29,78,78,76,76,136300,76
2015/06/01,76,76,74,75,154300,75
2015/06/02,75,79,74,76,181500,76
2015/06/03,76,78,75,75,186300,75
2015/06/04,75,77,75,77,97900,77
2015/06/05,77,80,76,76,181400,76
2015/06/08,77,78,76,77,84500,77
2015/06/09,78,79,75,75,148300,75
2015/06/10,75,77,75,76,70200,76
2015/06/11,76,78,76,78,66300,78
2015/06/12,78,79,76,78,154800,78
2015/06/15,76,77,74,75,293600,75
2015/06/16,75,76,74,75,69300,75
2015/06/17,75,76,75,76,43200,76
2015/06/18,75,76,74,75,62500,75
2015/06/19,75,75,74,74,61500,74
2015/06/22,75,75,73,73,83800,73
2015/06/23,73,76,73,75,212000,75
2015/06/24,73,74,73,73,126000,73
2015/06/25,73,98,73,77,7121300,77
2015/06/26,77,78,72,72,1009800,72
2015/06/29,70,70,66,67,764200,67
2015/06/30,67,69,66,68,243000,68
2015/07/01,68,71,67,69,257600,69
