2011/01/12,9050,9200,9050,9200,58,92
2011/01/18,9720,9800,9600,9600,63,96
2011/01/24,8900,9200,8880,9200,60,92
2011/02/03,9030,9350,9030,9200,23,92
2011/02/09,9600,9630,9520,9600,36,96
2011/02/16,9450,9740,9320,9500,41,95
2011/02/21,9790,9790,9400,9400,97,94
2011/02/24,9250,9300,9030,9100,39,91
2011/03/02,9490,9490,9130,9200,49,92
2011/03/03,9490,9500,9240,9500,38,95
2011/03/04,9650,9650,9400,9500,37,95
2011/03/10,9390,9390,9250,9300,27,93
2011/03/25,9100,9150,9030,9100,70,91
2011/03/28,9200,9200,8940,9000,142,90
2011/04/07,8710,8860,8600,8600,23,86
2011/04/11,8970,8970,8860,8900,18,89
2011/04/14,8700,8800,8700,8800,23,88
2011/04/15,8860,8860,8710,8800,21,88
2011/04/26,9060,9060,8900,8900,37,89
2011/04/27,9090,9090,8900,9000,29,90
2011/04/28,9000,9000,8850,9000,36,90
2011/05/09,9360,9500,9360,9500,32,95
2011/05/11,10100,10480,9900,9900,1290,99
2011/05/12,9800,9800,9510,9800,192,98
2011/05/19,9300,9300,8990,9000,183,90
2011/06/02,8450,8600,8450,8600,56,86
2011/06/09,8630,8630,8500,8500,18,85
2011/06/15,8780,8830,8780,8800,14,88
2011/06/17,8840,8860,8800,8800,37,88
2011/06/20,8870,8950,8800,8900,18,89
2011/06/24,8750,8800,8600,8600,29,86
2011/06/30,8490,8780,8490,8700,137,87
2011/07/05,9250,9350,9200,9300,66,93
2011/07/06,9200,9200,8770,9100,115,91
2011/07/07,9120,9120,9100,9100,21,91
2011/07/08,9240,9240,9100,9100,44,91
2011/07/11,9100,9300,9100,9300,101,93
2011/07/12,9300,9400,9200,9200,72,92
2011/07/15,8900,9000,8830,9000,59,90
2011/07/19,9000,9010,8960,9000,78,90
2011/08/03,9070,9070,9000,9000,31,90
2011/08/10,8440,8440,8300,8300,186,83
2011/08/11,8300,8350,8200,8300,14,83
2011/08/15,8110,8400,8110,8200,120,82
2011/08/18,8290,8400,8290,8400,12,84
2011/08/31,8270,8300,8270,8300,5,83
2011/09/12,8280,8300,7800,8300,85,83
2011/09/15,8020,8200,8020,8200,17,82
2011/09/22,7920,8100,7910,8100,53,81
2011/09/26,8000,8000,7800,7800,58,78
2011/10/19,8200,8300,8200,8300,88,83
2011/10/20,8300,8300,8300,8300,42,83
2011/10/25,8130,8200,8130,8200,23,82
2011/10/26,8320,8320,8200,8300,13,83
2011/10/27,8350,8350,8100,8100,120,81
2011/11/09,8170,8170,8100,8100,5,81
2011/11/10,8000,8050,7990,8000,175,80
2011/11/11,7900,8000,7900,7900,144,79
2011/11/15,7840,7940,7840,7900,10,79
2011/11/21,8000,8000,7800,7900,63,79
2011/11/25,8000,8000,7810,8000,21,80
2011/11/29,8210,8210,8000,8000,8,80
2011/12/09,8160,8290,8100,8100,10,81
2011/12/14,8200,8330,8100,8100,10,81
2011/12/15,8200,8300,8200,8300,14,83
2011/12/16,8060,8200,8060,8100,24,81
2012/01/05,8180,8180,8100,8100,7,81
2012/01/24,8070,8100,8070,8100,17,81
2012/01/25,8150,8150,8050,8100,38,81
2012/01/31,8050,8180,8000,8000,250,80
2012/02/09,8000,8100,8000,8100,34,81
2012/02/17,8200,8320,8200,8300,21,83
2012/02/23,8880,8990,8640,8900,118,89
2012/02/27,8940,9900,8940,9500,341,95
2012/02/28,9420,9420,8900,9200,88,92
2012/03/07,9250,9250,9030,9100,27,91
2012/03/14,9410,9520,9300,9300,78,93
2012/03/26,9150,9200,8950,9200,142,92
2012/03/29,8930,9100,8920,9100,109,91
2012/04/10,8800,9000,8760,9000,28,90
2012/04/12,8610,8760,8600,8600,22,86
2012/04/13,8710,8710,8500,8500,76,85
2012/04/16,8500,8580,8380,8400,163,84
2012/04/19,8870,8900,8750,8900,30,89
2012/04/20,8900,8900,8900,8900,38,89
2012/04/25,9100,9300,9000,9300,23,93
2012/05/10,8630,8630,8320,8500,45,85
2012/05/11,8750,9000,8500,8500,147,85
2012/05/18,8620,8650,8320,8400,132,84
2012/05/22,8590,8700,8550,8700,11,87
2012/06/05,8600,8630,8410,8600,41,86
2012/06/13,8700,8700,8700,8700,2,87
2012/06/15,8750,9000,8750,9000,61,90
2012/07/02,9490,9550,9400,9400,113,94
2012/07/11,8900,9100,8900,9100,16,91
2012/07/17,9210,9210,8890,9000,21,90
2012/07/25,8650,8650,8400,8400,265,84
2012/07/31,8550,8800,8510,8800,14,88
2012/08/07,8600,8700,8590,8600,102,86
2012/08/08,8600,8750,8600,8700,5,87
2012/08/20,8650,8660,8530,8600,29,86
2012/08/23,8650,8650,8450,8600,48,86
2012/08/29,8560,8600,8500,8500,82,85
2012/08/31,8580,8580,8400,8400,73,84
2012/09/04,8550,8550,8400,8400,29,84
2012/09/14,8460,8800,8460,8600,170,86
2012/09/19,8840,9180,8800,9000,212,90
2012/09/24,9100,9140,8750,8800,160,88
2012/09/25,8800,8850,8750,8800,40,88
2012/09/27,9010,9010,8900,9000,26,90
2012/09/28,8910,9000,8910,9000,2,90
2012/10/03,8980,9000,8750,9000,128,90
2012/10/09,8930,8930,8830,8900,29,89
2012/10/11,8830,8830,8700,8700,2,87
2012/10/12,8710,8710,8700,8700,77,87
2012/10/15,8720,8720,8700,8700,107,87
2012/10/18,8610,8700,8590,8700,208,87
2012/10/22,8660,8700,8580,8700,67,87
2012/10/25,8550,8650,8520,8600,28,86
2012/11/08,9250,9280,9000,9000,251,90
2012/12/03,12140,12300,11800,11800,742,118
2012/12/06,11600,11760,11220,11600,758,116
2012/12/07,11360,11600,11250,11600,435,116
2012/12/14,12010,14300,11850,13200,1590,132
2012/12/20,13800,13910,13000,13200,830,132
2013/01/09,14180,14300,13520,13900,594,139
2013/01/16,13610,13700,13250,13500,190,135
2013/01/24,13870,14250,13550,14100,453,141
2013/01/31,15560,16200,15500,16200,339,162
2013/02/07,17300,17330,17000,17200,416,172
2013/02/08,17100,17100,16130,16200,526,162
2013/02/13,16860,16860,14000,15600,602,156
2013/02/14,15210,15830,15120,15700,148,157
2013/02/19,15020,15500,14800,15500,140,155
2013/02/22,17200,17360,16600,17300,246,173
2013/02/25,17280,17440,17090,17400,310,174
2013/02/28,16510,17480,16510,17200,384,172
2013/03/07,19250,22650,19200,22300,3076,223
2013/03/08,22200,22430,21000,22200,1287,222
2013/03/12,20650,21050,20350,20500,861,205
2013/03/21,21600,22100,21590,21800,555,218
2013/03/22,21900,21900,21200,21800,296,218
2013/03/25,21800,26800,21220,26400,2407,264
2013/03/26,26000,26200,25010,25800,1139,258
2013/03/28,25940,25940,23000,24300,462,243
2013/03/29,23600,23800,23090,23400,186,234
2013/04/01,23500,24420,20300,20300,556,203
2013/04/03,21560,22500,21310,21400,319,214
2013/04/08,21570,23950,21560,23400,649,234
2013/04/10,23000,23500,22800,23000,278,230
2013/04/11,23000,23300,22010,22600,276,226
2013/04/12,22600,23550,21850,22000,454,220
2013/04/15,22430,22430,21770,22000,201,220
2013/04/18,22110,23500,22000,22900,275,229
2013/04/19,23900,23900,22130,23500,339,235
2013/04/22,24000,24500,23000,23700,253,237
2013/04/23,23200,24500,23200,24500,606,245
2013/04/24,24500,27000,24500,27000,1185,270
2013/04/30,26730,29180,26600,28500,417,285
2013/05/02,26620,27700,26000,26000,939,260
2013/05/07,27000,27930,26810,27000,1012,270
2013/05/09,28200,29700,28000,29700,1022,297
2013/05/10,30200,32300,30200,32300,1521,323
2013/05/13,33850,34350,32300,32300,955,323
2013/05/15,32300,32450,28050,29500,720,295
2013/05/16,28050,32000,24500,30000,1351,300
2013/05/20,29500,31000,29480,30500,629,305
2013/05/22,28010,29000,27120,27800,823,278
2013/05/27,23570,24000,23550,23900,513,239
2013/05/28,23140,23570,21310,22300,1808,223
2013/05/30,21730,22480,21600,21700,527,217
2013/06/07,20000,20790,17150,20000,3012,200
2013/06/10,21200,21490,20100,21000,1304,210
2013/06/11,21500,21940,20810,21100,835,211
2013/06/26,19720,20080,18790,18900,456,189
2013/06/27,19000,19100,17000,18800,362,188
2013/06/28,18800,19990,18800,19900,380,199
2013/07/10,22510,22530,22070,22400,235,224
2013/07/16,22020,22510,21900,21900,183,219
2013/07/22,21700,21800,21540,21800,86,218
2013/07/23,21600,22250,21600,22200,126,222
2013/07/25,23550,25490,23000,23100,993,231
2013/07/30,21220,21580,20800,21500,165,215
2013/08/01,21200,22810,21150,22300,295,223
2013/08/05,23770,26990,23100,25800,1849,258
2013/08/07,23880,24470,23060,23200,1571,232
2013/08/09,22500,22900,22170,22200,535,222
2013/08/12,21650,21650,21200,21300,338,213
2013/08/13,21490,22000,21350,21800,168,218
2013/08/14,22060,22900,22060,22700,309,227
2013/08/16,22960,23590,22960,23500,132,235
2013/08/27,23870,23870,23240,23500,126,235
2013/09/03,22300,22900,22300,22800,203,228
2013/09/04,22850,23000,22600,23000,120,230
2013/09/06,22800,22800,22100,22100,128,221
2013/09/17,22720,23240,22720,23000,191,230
2013/09/26,239,239,227,236,64300,236
2013/09/27,238,248,237,243,32200,243
2013/09/30,245,245,235,244,31000,244
2013/10/01,244,244,238,241,13300,241
2013/10/02,240,240,227,228,48000,228
2013/10/03,229,234,229,233,20600,233
2013/10/04,233,233,220,225,47900,225
2013/10/07,225,226,217,221,33000,221
2013/10/08,219,220,216,220,16700,220
2013/10/09,220,224,218,223,18300,223
2013/10/10,224,228,224,225,6600,225
2013/10/11,228,232,227,232,29400,232
2013/10/15,233,233,225,229,12100,229
2013/10/16,228,231,225,228,12600,228
2013/10/17,229,235,224,230,32600,230
2013/10/18,231,233,230,232,2200,232
2013/10/21,233,236,229,234,44500,234
2013/10/22,238,239,233,237,45600,237
2013/10/23,237,238,231,234,19900,234
2013/10/24,232,233,230,232,12700,232
2013/10/25,233,234,230,232,17600,232
2013/10/28,248,249,235,248,116900,248
2013/10/29,247,248,244,245,31900,245
2013/10/30,249,253,243,243,66600,243
2013/10/31,243,247,235,240,44800,240
2013/11/01,239,239,225,225,50900,225
2013/11/05,229,235,229,232,30400,232
2013/11/06,231,237,229,232,22500,232
2013/11/07,232,238,228,229,54600,229
2013/11/08,232,233,230,232,22800,232
2013/11/11,235,235,214,223,98600,223
2013/11/12,226,231,224,230,22400,230
2013/11/13,230,230,227,230,13700,230
2013/11/14,229,233,227,230,22300,230
2013/11/15,230,230,217,230,142900,230
2013/11/18,232,235,230,231,75900,231
2013/11/19,231,232,227,232,19700,232
2013/11/20,234,243,234,242,123600,242
2013/11/21,241,242,232,239,86900,239
2013/11/22,239,244,237,240,56200,240
2013/11/25,242,242,233,235,70300,235
2013/11/26,237,238,234,237,21900,237
2013/11/27,239,241,235,235,59600,235
2013/11/28,240,240,236,238,23300,238
2013/11/29,243,310,241,280,1573400,280
2013/12/02,275,293,270,285,408800,285
2013/12/03,274,280,260,275,222100,275
2013/12/04,275,278,254,265,187400,265
2013/12/05,260,276,260,265,71500,265
2013/12/06,261,267,261,265,33700,265
2013/12/09,265,268,261,266,47100,266
2013/12/10,270,275,269,274,65800,274
2013/12/11,269,274,266,274,39500,274
2013/12/12,271,298,270,296,305200,296
2013/12/13,290,294,285,291,147300,291
2013/12/16,291,304,291,303,371200,303
2013/12/17,299,324,297,306,438200,306
2013/12/18,298,311,296,303,75700,303
2013/12/19,307,318,302,305,266200,305
2013/12/20,310,317,304,307,155400,307
2013/12/24,310,312,284,292,146600,292
2013/12/25,289,295,287,290,97800,290
2013/12/26,300,318,298,315,187300,315
2013/12/27,324,324,307,309,120300,309
2013/12/30,309,316,303,316,124900,316
2014/01/06,318,318,306,308,84800,308
2014/01/07,308,316,308,312,43900,312
2014/01/08,313,329,313,320,138600,320
2014/01/09,321,326,316,325,95600,325
2014/01/10,321,324,310,311,107700,311
2014/01/14,309,310,302,305,72600,305
2014/01/15,311,313,304,306,38500,306
2014/01/16,310,310,305,310,32100,310
2014/01/17,309,312,309,312,37700,312
2014/01/20,314,327,314,327,81000,327
2014/01/21,335,337,328,328,119700,328
2014/01/22,325,335,325,335,48200,335
2014/01/23,334,354,332,351,128400,351
2014/01/24,345,348,336,338,114600,338
2014/01/27,321,324,311,313,103100,313
2014/01/28,318,322,300,305,91000,305
2014/01/29,307,317,301,307,78000,307
2014/01/30,299,309,293,304,57500,304
2014/01/31,296,307,296,304,53600,304
2014/02/03,294,295,287,290,47600,290
2014/02/04,256,277,235,258,113000,258
2014/02/05,266,272,240,259,69300,259
2014/02/06,252,271,252,265,37900,265
2014/02/07,272,273,258,265,38300,265
2014/02/10,265,278,265,275,32200,275
2014/02/12,280,283,274,274,14600,274
2014/02/13,275,276,262,262,16300,262
2014/02/14,263,264,255,257,27200,257
2014/02/17,257,261,256,258,19700,258
2014/02/18,258,264,256,264,30900,264
2014/02/19,262,268,262,266,11200,266
2014/02/20,269,269,262,262,6300,262
2014/02/21,264,272,260,268,24900,268
2014/02/24,268,271,267,268,13100,268
2014/02/25,267,273,261,263,37500,263
2014/02/26,260,260,249,250,80200,250
2014/02/27,252,254,251,252,14100,252
2014/02/28,251,255,245,246,50600,246
2014/03/03,246,246,232,239,37700,239
2014/03/04,230,235,225,233,58100,233
2014/03/05,233,253,233,249,66200,249
2014/03/06,253,260,245,253,51300,253
2014/03/07,255,262,253,256,17900,256
2014/03/10,264,264,257,262,21100,262
2014/03/11,262,262,258,258,13500,258
2014/03/12,256,257,252,252,11200,252
2014/03/13,252,256,236,242,48900,242
2014/03/14,237,239,231,234,33700,234
2014/03/17,234,236,230,230,12600,230
2014/03/18,233,241,233,238,12300,238
2014/03/19,241,245,235,238,56200,238
2014/03/20,235,236,225,230,35300,230
2014/03/24,231,232,227,229,13800,229
2014/03/25,229,231,225,226,29600,226
2014/03/26,229,232,227,232,25700,232
2014/03/27,227,233,226,230,13300,230
2014/03/28,228,240,228,240,15400,240
2014/03/31,242,243,239,243,13200,243
2014/04/01,247,247,237,239,21600,239
2014/04/02,239,244,238,242,8700,242
2014/04/03,244,244,235,240,25800,240
2014/04/04,241,243,237,238,14000,238
2014/04/07,237,244,232,233,35600,233
2014/04/08,233,238,231,233,10500,233
2014/04/09,232,235,231,233,18100,233
2014/04/10,233,236,231,232,16900,232
2014/04/11,229,235,226,229,17300,229
2014/04/14,229,234,228,228,8100,228
2014/04/15,230,231,228,230,5100,230
2014/04/16,231,236,231,236,4900,236
2014/04/17,236,238,235,235,12400,235
2014/04/18,238,239,236,239,4800,239
2014/04/21,241,250,238,240,10500,240
2014/04/22,238,240,237,237,3600,237
2014/04/23,237,245,236,236,8000,236
2014/04/24,241,241,236,240,3900,240
2014/04/25,242,242,236,239,8800,239
2014/04/28,239,239,234,235,12500,235
2014/04/30,236,255,236,238,25000,238
2014/05/01,238,242,238,240,3400,240
2014/05/02,242,250,239,246,19200,246
2014/05/07,246,260,242,257,18500,257
2014/05/08,260,270,251,257,103600,257
2014/05/09,257,260,252,252,16700,252
2014/05/12,257,260,253,254,11100,254
2014/05/13,254,260,254,256,14600,256
2014/05/14,258,259,255,255,10800,255
2014/05/15,255,259,251,253,15300,253
2014/05/16,252,253,249,250,26800,250
2014/05/19,250,252,245,250,24800,250
2014/05/20,248,250,246,248,21200,248
2014/05/21,248,248,245,247,10500,247
2014/05/22,245,253,245,250,16400,250
2014/05/23,254,260,254,258,17000,258
2014/05/26,261,264,260,260,20600,260
2014/05/27,264,265,260,260,15000,260
2014/05/28,258,265,258,262,16500,262
2014/05/29,262,265,260,264,20600,264
2014/05/30,265,265,257,259,17600,259
2014/06/02,256,262,255,262,37300,262
2014/06/03,258,262,258,262,35200,262
2014/06/04,257,260,256,259,48300,259
2014/06/05,259,262,257,260,36600,260
2014/06/06,260,261,259,260,7400,260
2014/06/09,266,266,263,265,19100,265
2014/06/10,265,265,260,262,20000,262
2014/06/11,261,265,259,263,20000,263
2014/06/12,259,262,259,261,36500,261
2014/06/13,264,270,261,269,59000,269
2014/06/16,266,276,266,275,85300,275
2014/06/17,275,290,273,283,207100,283
2014/06/18,288,294,282,291,121800,291
2014/06/19,293,293,281,284,106600,284
2014/06/20,285,285,274,274,46500,274
2014/06/23,274,279,274,278,16500,278
2014/06/24,277,277,275,275,29100,275
2014/06/25,276,281,276,279,27700,279
2014/06/26,280,286,279,282,39800,282
2014/06/27,284,284,275,276,46800,276
2014/06/30,276,277,270,274,38700,274
2014/07/01,274,281,274,279,37200,279
2014/07/02,280,283,273,280,32100,280
2014/07/03,281,281,278,280,14300,280
2014/07/04,282,283,279,283,21200,283
2014/07/07,285,289,284,284,33500,284
2014/07/08,287,287,283,284,36500,284
2014/07/09,280,282,279,280,19900,280
2014/07/10,280,280,274,274,34600,274
2014/07/11,270,276,268,275,26600,275
2014/07/14,275,281,275,281,14400,281
2014/07/15,285,286,282,282,40200,282
2014/07/16,284,284,281,283,13200,283
2014/07/17,283,285,281,282,12600,282
2014/07/18,277,282,276,279,24200,279
2014/07/22,278,280,273,277,25800,277
2014/07/23,279,280,277,279,8300,279
2014/07/24,279,281,279,280,11900,280
2014/07/25,282,285,277,284,35300,284
2014/07/28,286,287,283,283,12500,283
2014/07/29,284,285,282,284,18600,284
2014/07/30,285,310,283,294,144100,294
2014/07/31,300,301,292,297,56200,297
2014/08/01,289,300,288,295,39600,295
2014/08/04,258,264,250,250,434200,250
2014/08/05,251,255,250,251,112700,251
2014/08/06,250,250,241,246,52900,246
2014/08/07,244,246,239,242,27500,242
2014/08/08,242,242,234,235,44900,235
2014/08/11,241,246,241,243,19700,243
2014/08/12,245,245,242,244,11900,244
2014/08/13,245,245,243,245,11300,245
2014/08/14,244,245,242,243,6600,243
2014/08/15,243,243,239,241,15600,241
2014/08/18,244,245,241,244,12300,244
2014/08/19,246,248,244,247,21000,247
2014/08/20,246,248,246,248,7800,248
2014/08/21,250,250,248,250,17000,250
2014/08/22,250,251,245,248,20100,248
2014/08/25,249,249,243,247,18800,247
2014/08/26,248,251,247,247,16600,247
2014/08/27,249,254,249,254,12500,254
2014/08/28,254,259,253,258,34100,258
2014/08/29,260,260,256,259,19000,259
2014/09/01,261,262,260,261,15700,261
2014/09/02,263,263,260,261,10500,261
2014/09/03,260,261,257,259,25200,259
2014/09/04,263,263,256,260,21000,260
2014/09/05,257,259,257,258,9200,258
2014/09/08,259,260,257,258,12900,258
2014/09/09,259,259,257,257,16300,257
2014/09/10,257,259,255,259,9200,259
2014/09/11,259,259,256,258,17600,258
2014/09/12,259,259,255,257,12300,257
2014/09/16,258,258,255,257,19400,257
2014/09/17,258,258,255,255,11800,255
2014/09/18,256,256,250,251,28600,251
2014/09/19,250,257,248,251,46500,251
2014/09/22,251,255,249,255,37300,255
2014/09/24,251,254,249,254,63100,254
2014/09/25,253,257,251,257,495000,257
2014/09/26,246,248,245,246,99500,246
2014/09/29,246,247,242,246,26100,246
2014/09/30,243,244,241,244,19100,244
2014/10/01,241,241,236,237,31500,237
2014/10/02,232,237,230,234,28600,234
2014/10/03,232,241,231,238,21200,238
2014/10/06,238,240,235,240,14600,240
2014/10/07,241,241,236,236,5400,236
2014/10/08,231,235,230,233,11900,233
2014/10/09,232,235,230,232,12000,232
2014/10/10,227,229,222,223,25100,223
2014/10/14,217,220,213,213,26500,213
2014/10/15,217,217,214,215,16700,215
2014/10/16,213,215,211,211,14400,211
2014/10/17,212,217,212,215,15600,215
2014/10/20,221,238,219,227,22100,227
2014/10/21,230,233,227,230,5900,230
2014/10/22,233,233,227,228,3300,228
2014/10/23,221,225,221,225,11700,225
2014/10/24,225,227,219,219,11800,219
2014/10/27,223,223,220,220,6700,220
2014/10/28,220,220,217,219,16200,219
2014/10/29,218,220,218,220,17900,220
2014/10/30,220,223,218,221,9200,221
2014/10/31,223,232,219,232,12100,232
2014/11/04,237,241,230,230,28300,230
2014/11/05,226,232,224,232,16300,232
2014/11/06,235,235,228,232,6800,232
2014/11/07,232,234,225,230,5900,230
2014/11/10,228,230,228,230,3600,230
2014/11/11,229,230,226,229,10900,229
2014/11/12,229,230,228,230,4600,230
2014/11/13,230,230,226,229,11700,229
2014/11/14,229,229,226,227,3900,227
2014/11/17,227,230,227,229,7300,229
2014/11/18,227,229,225,225,24400,225
2014/11/19,229,229,224,228,12300,228
2014/11/20,227,228,226,226,6900,226
2014/11/21,226,228,223,227,9300,227
2014/11/25,227,230,226,228,22800,228
2014/11/26,226,234,226,228,21700,228
2014/11/27,235,235,229,231,19200,231
2014/11/28,231,234,230,230,7600,230
2014/12/01,231,233,228,228,17100,228
2014/12/02,226,229,225,227,14900,227
2014/12/03,227,227,224,224,15000,224
2014/12/04,225,227,218,226,37200,226
2014/12/05,231,231,225,225,18700,225
2014/12/08,232,232,225,231,32200,231
2014/12/09,232,232,225,226,15600,226
2014/12/10,226,229,226,227,6300,227
2014/12/11,225,227,225,227,2700,227
2014/12/12,225,230,224,226,12600,226
2014/12/15,224,224,220,223,8200,223
2014/12/16,219,220,215,218,27100,218
2014/12/17,215,223,215,217,122800,217
2014/12/18,217,222,217,220,16900,220
2014/12/19,223,224,219,224,21500,224
2014/12/22,225,225,220,223,73300,223
2014/12/24,222,229,220,226,62700,226
2014/12/25,226,227,224,224,22100,224
2014/12/26,224,228,224,227,13600,227
2014/12/29,230,230,228,229,8600,229
2014/12/30,229,231,227,230,12100,230
2015/01/05,231,235,228,234,14800,234
2015/01/06,232,232,229,232,5300,232
2015/01/07,228,230,228,229,6900,229
2015/01/08,230,231,227,231,13500,231
2015/01/09,230,230,226,226,4000,226
2015/01/13,228,228,226,227,3100,227
2015/01/14,227,231,226,226,7500,226
2015/01/15,227,228,226,228,700,228
2015/01/16,227,227,225,227,9800,227
2015/01/19,226,231,226,229,9200,229
2015/01/20,227,230,227,227,6800,227
2015/01/21,228,232,228,232,17200,232
2015/01/22,231,232,229,232,5800,232
2015/01/23,232,234,232,233,12600,233
2015/01/26,231,233,230,232,7200,232
2015/01/27,229,232,228,231,12400,231
2015/01/28,229,233,229,233,29800,233
2015/01/29,233,234,230,232,6000,232
2015/01/30,233,233,231,233,9600,233
2015/02/02,233,233,230,232,5700,232
2015/02/03,231,231,226,226,8000,226
2015/02/04,234,235,231,234,33400,234
2015/02/05,234,248,233,246,99500,246
2015/02/06,246,248,239,244,41400,244
2015/02/09,246,247,241,241,12500,241
2015/02/10,241,245,237,245,8300,245
2015/02/12,244,250,241,245,22300,245
2015/02/13,249,249,241,244,15600,244
2015/02/16,247,247,243,247,4900,247
2015/02/17,248,253,247,248,18600,248
2015/02/18,248,251,241,247,14600,247
2015/02/19,244,246,242,244,6600,244
2015/02/20,242,243,241,241,11400,241
2015/02/23,242,243,238,238,6900,238
2015/02/24,238,242,238,239,4400,239
2015/02/25,241,244,239,240,7700,240
2015/02/26,244,244,241,244,5700,244
2015/02/27,246,248,239,241,37200,241
2015/03/02,243,248,241,242,27200,242
2015/03/03,247,247,242,245,8000,245
2015/03/04,245,246,242,244,10000,244
2015/03/05,244,247,243,247,9100,247
2015/03/06,248,248,240,243,23500,243
2015/03/09,242,245,238,242,11700,242
2015/03/10,242,243,240,243,6300,243
2015/03/11,239,242,238,241,12500,241
2015/03/12,241,244,239,243,5700,243
2015/03/13,244,245,240,245,14400,245
2015/03/16,245,245,243,244,27200,244
2015/03/17,244,248,244,246,23100,246
2015/03/18,246,261,245,252,70900,252
2015/03/19,253,257,249,250,11900,250
2015/03/20,252,258,246,252,23900,252
2015/03/23,254,256,252,252,13500,252
2015/03/24,251,257,251,256,22900,256
2015/03/25,256,258,252,255,46800,255
2015/03/26,253,254,250,250,27900,250
2015/03/27,245,250,242,246,21300,246
2015/03/30,246,251,246,248,4300,248
2015/03/31,247,249,246,249,3400,249
2015/04/01,249,250,245,246,5200,246
2015/04/02,247,250,243,248,12800,248
2015/04/03,247,250,240,244,38100,244
2015/04/06,245,246,243,245,3400,245
2015/04/07,246,248,245,246,3200,246
2015/04/08,248,249,246,246,3600,246
2015/04/09,249,251,248,248,9100,248
2015/04/10,250,251,245,250,5200,250
2015/04/13,250,252,249,252,7200,252
2015/04/14,251,253,249,251,7600,251
2015/04/15,252,256,252,256,12700,256
2015/04/16,255,256,253,255,7300,255
2015/04/17,253,255,251,253,8900,253
2015/04/20,250,253,250,252,6700,252
2015/04/21,252,261,249,260,42200,260
2015/04/22,260,268,255,267,82800,267
2015/04/23,267,278,267,273,63300,273
2015/04/24,268,273,264,265,21900,265
2015/04/27,270,272,261,268,18600,268
2015/04/28,275,348,268,348,6828200,348
2015/04/30,344,428,339,381,40547900,381
2015/05/01,381,413,362,372,35395900,372
2015/05/07,357,367,343,355,3717900,355
2015/05/08,347,349,318,324,2297000,324
2015/05/11,342,357,322,328,2625500,328
2015/05/12,325,327,309,316,723700,316
2015/05/13,317,320,311,315,291800,315
2015/05/14,313,343,310,322,1204700,322
2015/05/15,314,320,306,312,322600,312
2015/05/18,315,317,303,306,204600,306
2015/05/19,311,328,307,318,340600,318
2015/05/20,342,354,326,332,1419200,332
2015/05/21,324,334,311,317,352200,317
2015/05/22,309,325,309,320,164300,320
2015/05/25,321,329,315,322,219400,322
2015/05/26,327,328,321,326,89600,326
2015/05/27,328,329,317,317,164800,317
2015/05/28,320,328,308,311,162100,311
2015/05/29,306,313,304,313,113200,313
2015/06/01,308,312,304,312,74800,312
2015/06/02,310,325,308,314,158900,314
2015/06/03,314,317,311,316,56300,316
2015/06/04,316,324,316,318,96700,318
2015/06/05,329,345,323,329,705000,329
2015/06/08,333,334,320,326,155000,326
2015/06/09,323,326,313,315,135000,315
2015/06/10,311,317,310,312,66800,312
2015/06/11,312,316,303,309,137600,309
2015/06/12,315,315,311,314,41600,314
2015/06/15,314,314,307,310,90600,310
2015/06/16,310,310,305,305,104900,305
2015/06/17,306,309,304,306,36000,306
2015/06/18,306,308,304,304,46400,304
2015/06/19,305,306,304,306,36400,306
2015/06/22,309,319,309,314,138900,314
2015/06/23,320,321,313,315,91700,315
2015/06/24,316,316,305,307,101000,307
2015/06/25,308,312,308,310,35100,310
2015/06/26,312,313,307,309,40500,309
2015/06/29,300,305,290,296,151700,296
2015/06/30,294,304,294,299,78500,299
2015/07/01,299,310,299,302,55600,302
