2011/01/05,9400,9400,9000,9300,353,93
2011/01/13,9140,9300,9140,9200,250,92
2011/01/19,9090,9200,8900,9200,333,92
2011/01/20,9000,9190,8900,9100,212,91
2011/01/21,9100,9150,8400,8700,574,87
2011/01/26,8900,9160,8900,9000,58,90
2011/01/28,8900,9100,8600,8800,385,88
2011/02/14,9100,9100,8870,9100,196,91
2011/02/16,9000,9090,8820,9000,225,90
2011/02/24,8780,8780,8560,8700,175,87
2011/02/28,8880,8900,8600,8900,122,89
2011/03/01,8890,8980,8700,8900,205,89
2011/03/02,8780,8900,8700,8900,164,89
2011/03/09,9300,9370,9100,9300,441,93
2011/03/11,8600,9100,8510,9100,123,91
2011/03/17,7200,7900,7200,7900,138,79
2011/03/28,8000,8040,7780,8000,181,80
2011/04/01,8030,8030,7800,8000,32,80
2011/04/04,8000,8050,7750,8000,50,80
2011/04/26,8000,8240,8000,8000,94,80
2011/05/06,7660,7900,7660,7900,26,79
2011/05/12,7690,7710,7620,7700,82,77
2011/05/20,7420,7600,7410,7600,56,76
2011/05/26,7600,7770,7510,7700,47,77
2011/06/06,7530,7600,7370,7600,55,76
2011/06/13,7400,7440,7400,7400,25,74
2011/06/16,7400,7500,7380,7500,66,75
2011/06/24,7350,7430,7350,7400,19,74
2011/06/27,7420,7500,7330,7500,100,75
2011/06/28,7400,7500,7340,7500,29,75
2011/07/01,7380,7380,7250,7300,38,73
2011/07/05,7320,7320,7200,7200,90,72
2011/07/06,7180,7290,7110,7200,42,72
2011/07/14,7100,7200,7100,7200,26,72
2011/07/19,7200,7300,7090,7100,212,71
2011/08/09,7000,7300,6900,7300,248,73
2011/08/11,7120,7410,7060,7300,175,73
2011/08/12,7500,7790,7500,7600,113,76
2011/08/18,7990,8000,7650,7800,163,78
2011/08/22,7630,7930,7630,7800,57,78
2011/08/23,7650,8000,7570,7800,224,78
2011/08/24,7800,7800,7520,7800,100,78
2011/08/30,8400,8400,7630,7900,395,79
2011/09/01,7790,8000,7790,8000,54,80
2011/09/05,7670,7950,7650,7800,81,78
2011/09/08,7500,7600,7410,7600,44,76
2011/09/15,7280,7340,7140,7300,34,73
2011/09/20,7300,7390,7030,7300,118,73
2011/09/26,7100,7170,6670,6700,179,67
2011/09/28,6850,7100,6850,7100,26,71
2011/09/29,6850,7150,6750,7100,95,71
2011/10/04,7400,7800,7400,7700,46,77
2011/10/06,7700,8000,7700,8000,29,80
2011/10/07,7900,8000,7750,8000,85,80
2011/10/14,8350,8350,7870,8100,40,81
2011/10/19,7960,8090,7800,7800,87,78
2011/10/21,7700,7910,7700,7900,29,79
2011/10/24,7910,8200,7900,8000,82,80
2011/10/26,8280,9550,7900,8400,4230,84
2011/11/07,8000,8040,7700,7900,120,79
2011/11/10,7500,7500,6950,7400,256,74
2011/11/11,7260,7270,7200,7200,112,72
2011/11/14,7050,7400,7050,7300,40,73
2011/11/16,7200,7810,7200,7400,125,74
2011/11/17,7250,7460,7250,7300,24,73
2011/11/22,7110,7500,7100,7500,175,75
2011/11/24,7500,7500,7330,7500,28,75
2011/11/28,7310,7600,7310,7500,131,75
2011/12/12,7730,7730,7410,7600,122,76
2011/12/14,7490,7800,7490,7800,131,78
2011/12/26,8000,8100,7780,8000,84,80
2012/01/05,8240,8240,7700,7800,122,78
2012/01/10,7590,7710,7550,7700,85,77
2012/01/11,7700,7850,7600,7600,206,76
2012/01/18,7600,7790,7600,7700,94,77
2012/01/19,7750,7840,7700,7800,25,78
2012/01/25,8000,8280,7950,8100,168,81
2012/02/01,8490,8600,8370,8600,99,86
2012/02/07,8730,8800,8500,8800,70,88
2012/02/13,8220,8600,8220,8600,93,86
2012/02/17,8670,8840,8280,8700,127,87
2012/02/20,8600,8700,8400,8500,165,85
2012/02/23,9240,9350,9000,9300,156,93
2012/02/27,9300,9300,8800,8800,255,88
2012/03/08,8300,8400,8200,8400,79,84
2012/03/09,8400,8400,8250,8300,52,83
2012/03/12,8310,8400,8100,8200,265,82
2012/03/15,8500,8950,8490,8800,340,88
2012/03/19,8990,9080,8850,9000,104,90
2012/03/30,8920,9060,8890,9000,67,90
2012/04/03,9210,9220,9080,9200,26,92
2012/04/10,9040,9300,9040,9300,91,93
2012/04/11,9300,9330,9100,9200,105,92
2012/04/13,9210,9300,9000,9300,167,93
2012/04/17,9250,9320,9090,9200,85,92
2012/04/23,9240,9250,9000,9100,94,91
2012/04/26,9000,9100,8900,9000,42,90
2012/05/01,9300,9310,9010,9300,95,93
2012/05/09,9390,9390,8760,9000,198,90
2012/05/10,8850,9300,8850,9300,74,93
2012/05/15,8800,8800,8220,8800,367,88
2012/05/16,8790,8880,8550,8800,46,88
2012/05/21,8800,8850,8700,8700,34,87
2012/05/22,8520,8790,8510,8600,129,86
2012/05/24,8650,8700,8500,8700,43,87
2012/05/28,8380,8550,8380,8500,7,85
2012/05/30,8500,8500,8500,8500,9,85
2012/06/01,8500,8500,8500,8500,1,85
2012/06/04,8500,8500,7710,7900,229,79
2012/06/05,8000,8200,8000,8200,6,82
2012/06/08,8300,8300,7900,8100,164,81
2012/06/11,8300,8300,8130,8200,49,82
2012/06/20,8260,8500,8180,8500,31,85
2012/06/21,8500,8700,8500,8700,99,87
2012/06/22,8700,8870,8500,8800,57,88
2012/06/27,9000,9300,8880,9200,84,92
2012/06/29,9020,9100,8820,9100,111,91
2012/07/11,8970,8970,8800,8900,44,89
2012/07/12,8750,8980,8700,8800,38,88
2012/07/13,8680,9100,8680,9100,122,91
2012/07/19,8630,9150,8630,9100,173,91
2012/07/20,9150,9350,8920,9200,401,92
2012/07/23,9100,10700,9100,10700,8023,107
2012/08/03,7870,7870,7280,7700,850,77
2012/08/07,7930,7930,7590,7600,213,76
2012/08/09,7570,7660,7410,7600,324,76
2012/08/20,7530,7850,7510,7800,289,78
2012/08/22,7680,7700,7430,7600,409,76
2012/08/23,7570,7590,7430,7500,398,75
2012/08/31,7450,7550,7450,7500,119,75
2012/09/03,7500,7520,7310,7500,132,75
2012/09/04,7450,7510,7400,7500,78,75
2012/09/10,7430,7430,7310,7400,64,74
2012/09/13,7310,7390,7200,7200,180,72
2012/09/20,7500,7500,7390,7400,23,74
2012/09/21,7330,7400,7330,7400,51,74
2012/09/27,7300,7410,7300,7400,21,74
2012/10/09,7320,7360,7240,7300,46,73
2012/10/19,7290,7370,7280,7300,158,73
2012/11/02,7040,7040,6970,7000,142,70
2012/11/05,7000,7070,6920,7000,230,70
2012/11/06,7000,7000,6950,7000,36,70
2012/11/07,7000,7200,6800,6800,795,68
2012/11/27,7000,7120,6980,7000,10,70
2012/11/28,6900,7140,6900,7100,182,71
2012/12/05,7200,7300,7180,7300,27,73
2012/12/06,7300,7300,6960,7200,405,72
2012/12/12,7350,7360,7150,7300,70,73
2012/12/14,7500,7850,7470,7800,686,78
2012/12/26,8100,8200,8030,8200,78,82
2013/01/22,8690,8700,8500,8700,306,87
2013/01/25,8410,8660,8410,8600,480,86
2013/01/28,8670,8800,8610,8700,172,87
2013/01/29,8740,8800,8500,8600,483,86
2013/01/31,8750,9300,8740,9000,558,90
2013/02/01,7800,8300,7540,7700,4503,77
2013/02/05,8040,8040,7710,7800,313,78
2013/02/06,7820,7950,7700,7700,437,77
2013/02/14,7530,7600,7310,7600,202,76
2013/02/15,7370,7500,7110,7200,276,72
2013/02/21,7140,7430,7140,7300,307,73
2013/03/07,8070,8270,8000,8200,167,82
2013/03/08,8200,8200,7890,8000,719,80
2013/03/14,8030,8030,7820,7900,106,79
2013/03/21,7660,7820,7660,7700,176,77
2013/03/27,7780,7800,7680,7800,108,78
2013/04/05,7490,7700,7470,7500,353,75
2013/04/12,8020,8170,7900,8000,506,80
2013/04/15,8400,8500,8050,8300,719,83
2013/04/17,8450,8450,8200,8300,485,83
2013/04/22,8670,8670,8250,8300,733,83
2013/04/23,8500,8500,8330,8400,231,84
2013/04/24,8480,8500,8270,8400,251,84
2013/05/08,8320,8400,8180,8200,314,82
2013/05/21,9300,9300,8930,9200,512,92
2013/05/24,9490,9700,8800,9000,829,90
2013/05/30,8780,8780,8300,8300,196,83
2013/06/14,7760,7770,7550,7700,283,77
2013/06/20,7660,8200,7650,8200,482,82
2013/06/25,7700,7850,7600,7600,508,76
2013/06/28,7300,7600,7280,7600,171,76
2013/07/08,7850,8220,7760,8100,402,81
2013/07/23,10170,12500,10140,10300,8240,103
2013/07/26,10500,10710,9500,10000,2201,100
2013/07/29,10100,13000,10080,13000,10930,130
2013/08/01,9960,10000,8750,9400,3795,94
2013/08/08,9110,9560,9000,9100,1093,91
2013/08/12,8900,8900,8100,8400,1146,84
2013/08/15,8650,8910,8440,8500,451,85
2013/08/16,8650,8770,8200,8500,661,85
2013/08/27,8130,8250,8100,8200,222,82
2013/08/29,8000,8090,7960,8000,344,80
2013/08/30,8000,8270,8000,8200,320,82
2013/09/18,9070,9450,8800,9100,1678,91
2013/09/19,9550,10600,9300,10600,4279,106
2013/09/25,9990,10130,9700,9700,1033,97
2013/09/26,99,100,93,98,62700,98
2013/09/27,98,99,97,99,33700,99
2013/09/30,100,113,98,108,258300,108
2013/10/01,108,110,99,100,98500,100
2013/10/02,102,107,97,101,158300,101
2013/10/03,100,100,98,99,33200,99
2013/10/04,99,99,92,99,110000,99
2013/10/07,101,101,94,96,31500,96
2013/10/08,92,96,91,95,24500,95
2013/10/09,93,97,93,95,8600,95
2013/10/10,98,98,95,97,11800,97
2013/10/11,99,99,96,98,29400,98
2013/10/15,96,98,95,97,52200,97
2013/10/16,96,97,95,95,14700,95
2013/10/17,96,107,95,103,226800,103
2013/10/18,108,129,100,108,1973200,108
2013/10/21,106,110,105,108,204300,108
2013/10/22,107,112,104,106,185500,106
2013/10/23,108,111,106,108,101100,108
2013/10/24,106,109,105,106,66100,106
2013/10/25,109,109,102,103,188500,103
2013/10/28,104,110,101,106,117300,106
2013/10/29,108,108,104,104,58100,104
2013/10/30,103,104,99,99,203900,99
2013/10/31,93,96,92,93,217900,93
2013/11/01,93,93,90,90,67100,90
2013/11/05,90,95,90,93,100400,93
2013/11/06,95,96,93,94,73700,94
2013/11/07,94,96,94,96,17600,96
2013/11/08,95,99,94,97,64900,97
2013/11/11,96,96,90,90,130100,90
2013/11/12,90,92,90,92,33700,92
2013/11/13,92,92,90,92,36300,92
2013/11/14,92,93,91,91,14200,91
2013/11/15,91,97,91,93,93200,93
2013/11/18,93,95,93,94,35600,94
2013/11/19,94,94,90,90,227500,90
2013/11/20,91,93,91,92,88200,92
2013/11/21,91,93,91,93,44100,93
2013/11/22,94,95,92,93,78400,93
2013/11/25,92,106,92,95,720500,95
2013/11/26,95,103,94,103,454700,103
2013/11/27,101,105,98,100,230300,100
2013/11/28,99,102,98,99,124800,99
2013/11/29,99,109,99,101,945600,101
2013/12/02,101,105,99,101,561500,101
2013/12/03,101,101,98,99,220000,99
2013/12/04,99,100,96,98,148500,98
2013/12/05,97,101,97,98,163200,98
2013/12/06,99,128,99,109,7697800,109
2013/12/09,119,159,118,159,5171800,159
2013/12/10,209,209,209,209,1187600,209
2013/12/11,281,289,230,289,9535200,289
2013/12/12,265,283,209,209,3320800,209
2013/12/13,233,287,199,204,10976800,204
2013/12/16,212,271,206,222,9113500,222
2013/12/17,250,263,226,239,2640300,239
2013/12/18,225,233,212,216,1421500,216
2013/12/19,212,212,188,199,1531300,199
2013/12/20,197,198,177,181,1283700,181
2013/12/24,196,208,181,181,1746700,181
2013/12/25,175,179,167,175,862000,175
2013/12/26,171,191,170,178,1165100,178
2013/12/27,172,175,167,171,526100,171
2013/12/30,168,171,164,168,447400,168
2014/01/06,168,169,161,165,463000,165
2014/01/07,167,189,165,167,1845900,167
2014/01/08,167,214,164,210,3262100,210
2014/01/09,211,216,180,186,2044500,186
2014/01/10,183,197,182,186,591000,186
2014/01/14,183,183,171,178,346100,178
2014/01/15,181,183,172,173,355600,173
2014/01/16,173,173,166,169,347400,169
2014/01/17,169,171,165,171,225900,171
2014/01/20,172,172,168,169,179300,169
2014/01/21,171,193,167,181,1838700,181
2014/01/22,181,187,174,177,414700,177
2014/01/23,182,210,181,184,5767400,184
2014/01/24,176,181,171,176,662300,176
2014/01/27,169,170,164,165,365700,165
2014/01/28,165,166,156,156,381300,156
2014/01/29,159,165,158,163,145200,163
2014/01/30,158,161,151,157,268900,157
2014/01/31,161,161,144,147,287400,147
2014/02/03,132,136,129,134,626900,134
2014/02/04,121,129,113,120,545100,120
2014/02/05,128,128,116,121,402800,121
2014/02/06,126,129,120,127,319000,127
2014/02/07,130,132,124,125,273400,125
2014/02/10,129,129,125,127,103000,127
2014/02/12,127,129,125,126,118900,126
2014/02/13,122,175,122,158,11154000,158
2014/02/14,153,161,135,141,1640800,141
2014/02/17,137,139,123,129,533700,129
2014/02/18,127,137,127,134,228300,134
2014/02/19,140,151,138,141,877700,141
2014/02/20,138,139,130,131,272800,131
2014/02/21,136,147,135,136,420600,136
2014/02/24,136,138,134,138,170700,138
2014/02/25,138,138,135,135,106300,135
2014/02/26,137,137,132,134,112300,134
2014/02/27,135,135,129,129,134500,129
2014/02/28,129,130,126,127,140700,127
2014/03/03,125,125,118,120,169000,120
2014/03/04,125,144,125,130,1423400,130
2014/03/05,131,135,128,131,206800,131
2014/03/06,134,134,130,132,90100,132
2014/03/07,135,135,131,131,129700,131
2014/03/10,132,134,130,132,43400,132
2014/03/11,132,145,132,140,976800,140
2014/03/12,136,138,134,134,268200,134
2014/03/13,134,138,132,133,207200,133
2014/03/14,128,129,124,126,184300,126
2014/03/17,125,129,123,124,99800,124
2014/03/18,128,128,121,123,201600,123
2014/03/19,126,127,122,124,102800,124
2014/03/20,122,122,115,118,190100,118
2014/03/24,110,114,106,114,235300,114
2014/03/25,116,116,109,110,193700,110
2014/03/26,110,113,106,106,130900,106
2014/03/27,107,111,101,107,135400,107
2014/03/28,111,130,111,116,874500,116
2014/03/31,118,118,115,116,98300,116
2014/04/01,120,125,117,120,119600,120
2014/04/02,120,122,119,119,100400,119
2014/04/03,120,120,118,118,75100,118
2014/04/04,118,119,117,118,46300,118
2014/04/07,117,117,111,113,93700,113
2014/04/08,111,115,110,115,64300,115
2014/04/09,116,118,112,117,98700,117
2014/04/10,117,117,110,113,128700,113
2014/04/11,108,111,108,110,47900,110
2014/04/14,113,147,113,125,6188700,125
2014/04/15,120,127,115,119,1006400,119
2014/04/16,129,144,126,135,2782200,135
2014/04/17,140,145,130,135,989700,135
2014/04/18,134,134,129,129,249600,129
2014/04/21,130,130,124,126,261800,126
2014/04/22,125,126,119,119,203100,119
2014/04/23,123,123,117,118,201400,118
2014/04/24,121,126,118,120,208300,120
2014/04/25,122,123,120,120,79300,120
2014/04/28,120,121,117,117,61500,117
2014/04/30,120,120,115,116,69500,116
2014/05/01,116,119,116,118,53700,118
2014/05/02,119,119,116,119,53100,119
2014/05/07,118,119,117,117,53300,117
2014/05/08,118,124,117,124,91800,124
2014/05/09,129,138,120,121,1089500,121
2014/05/12,120,122,113,113,223600,113
2014/05/13,114,116,113,114,94300,114
2014/05/14,116,117,113,115,59700,115
2014/05/15,116,119,114,118,47900,118
2014/05/16,118,118,116,116,39500,116
2014/05/19,116,116,108,108,120600,108
2014/05/20,112,127,112,116,1426800,116
2014/05/21,114,118,112,116,214000,116
2014/05/22,118,136,118,128,1734100,128
2014/05/23,123,137,121,127,885600,127
2014/05/26,132,138,128,134,911600,134
2014/05/27,134,136,130,133,386200,133
2014/05/28,134,137,130,131,217700,131
2014/05/29,130,177,128,163,4331100,163
2014/05/30,163,164,146,157,1630200,157
2014/06/02,162,207,162,207,10912600,207
2014/06/03,239,280,214,221,14180500,221
2014/06/04,215,235,202,218,3473900,218
2014/06/05,218,227,203,213,2129900,213
2014/06/06,210,260,205,210,5843800,210
2014/06/09,216,237,213,219,4513900,219
2014/06/10,216,216,194,199,1445400,199
2014/06/11,196,206,191,199,965800,199
2014/06/12,210,219,201,203,1585900,203
2014/06/13,200,206,195,198,503400,198
2014/06/16,195,200,192,196,378800,196
2014/06/17,197,198,188,190,407000,190
2014/06/18,192,194,185,191,507100,191
2014/06/19,205,208,194,194,1108300,194
2014/06/20,189,194,185,194,390900,194
2014/06/23,209,227,198,213,5595700,213
2014/06/24,212,232,207,230,1781100,230
2014/06/25,243,309,224,286,9363200,286
2014/06/26,296,347,263,268,8815200,268
2014/06/27,284,348,266,348,7710700,348
2014/06/30,370,405,311,311,11089000,311
2014/07/01,350,366,321,333,4226900,333
2014/07/02,349,352,316,322,1723600,322
2014/07/03,313,325,295,313,1496100,313
2014/07/04,308,313,296,301,820900,301
2014/07/07,299,340,290,304,2497100,304
2014/07/08,291,304,289,300,891300,300
2014/07/09,288,295,280,285,627300,285
2014/07/10,290,290,267,272,640900,272
2014/07/11,291,308,280,295,2157700,295
2014/07/14,287,334,287,322,1825200,322
2014/07/15,319,348,305,325,2582700,325
2014/07/16,321,325,306,315,759700,315
2014/07/17,309,336,300,305,1180700,305
2014/07/18,289,307,288,299,574600,299
2014/07/22,309,322,304,318,994000,318
2014/07/23,326,355,322,339,1773200,339
2014/07/24,329,339,311,321,1036200,321
2014/07/25,319,342,316,335,997400,335
2014/07/28,335,353,333,349,1175600,349
2014/07/29,357,359,338,348,900600,348
2014/07/30,341,344,306,306,993500,306
2014/07/31,323,324,297,300,975600,300
2014/08/01,292,311,285,302,666900,302
2014/08/04,286,290,279,283,543400,283
2014/08/05,286,294,266,272,429300,272
2014/08/06,279,284,256,260,408600,260
2014/08/07,265,265,247,259,374700,259
2014/08/08,249,251,222,235,499400,235
2014/08/11,251,253,243,248,176800,248
2014/08/12,241,243,221,223,466000,223
2014/08/13,226,229,216,225,272200,225
2014/08/14,225,235,225,231,185500,231
2014/08/15,224,232,223,232,141200,232
2014/08/18,226,251,226,243,577900,243
2014/08/19,241,247,236,237,254700,237
2014/08/20,237,239,227,230,195300,230
2014/08/21,228,230,221,223,146700,223
2014/08/22,221,224,217,222,141500,222
2014/08/25,222,233,219,226,181800,226
2014/08/26,234,306,234,306,5808300,306
2014/08/27,290,305,266,270,1986500,270
2014/08/28,266,271,255,256,504200,256
2014/08/29,253,258,245,256,313900,256
2014/09/01,269,270,259,259,311900,259
2014/09/02,261,263,250,254,215400,254
2014/09/03,259,277,249,275,334700,275
2014/09/04,275,275,250,255,459600,255
2014/09/05,256,262,250,253,189900,253
2014/09/08,255,257,249,251,186200,251
2014/09/09,252,252,238,244,121100,244
2014/09/10,246,247,236,236,112700,236
2014/09/11,233,246,233,238,198700,238
2014/09/12,238,240,233,240,108800,240
2014/09/16,240,252,240,246,159300,246
2014/09/17,246,247,237,238,116500,238
2014/09/18,238,243,237,238,59300,238
2014/09/19,238,241,237,240,70300,240
2014/09/22,240,273,240,258,612400,258
2014/09/24,270,319,265,295,5960000,295
2014/09/25,294,322,281,287,2162800,287
2014/09/26,271,276,258,264,703200,264
2014/09/29,288,310,277,296,2452300,296
2014/09/30,288,293,264,279,600200,279
2014/10/01,255,265,243,243,867900,243
2014/10/02,244,260,230,248,805300,248
2014/10/03,243,248,236,245,270300,245
2014/10/06,246,265,239,257,425400,257
2014/10/07,248,255,242,243,246100,243
2014/10/08,236,243,234,239,151200,239
2014/10/09,247,248,230,230,355700,230
2014/10/10,220,224,219,219,280900,219
2014/10/14,201,219,201,213,280700,213
2014/10/15,212,222,209,211,124200,211
2014/10/16,209,209,200,201,147900,201
2014/10/17,203,205,190,191,179600,191
2014/10/20,199,237,197,205,921100,205
2014/10/21,203,208,199,201,303200,201
2014/10/22,205,279,203,254,5712800,254
2014/10/23,246,264,233,235,1934800,235
2014/10/24,234,245,220,223,995800,223
2014/10/27,225,228,219,219,220200,219
2014/10/28,217,237,210,230,594500,230
2014/10/29,226,237,222,222,212900,222
2014/10/30,223,228,217,219,216000,219
2014/10/31,220,225,215,220,156000,220
2014/11/04,228,228,221,223,212700,223
2014/11/05,228,235,222,228,308500,228
2014/11/06,233,269,229,245,2120600,245
2014/11/07,250,253,233,235,607900,235
2014/11/10,238,238,228,233,217200,233
2014/11/11,232,232,225,228,201900,228
2014/11/12,233,233,224,225,188400,225
2014/11/13,225,234,220,229,247800,229
2014/11/14,240,240,224,226,262400,226
2014/11/17,225,226,220,220,162900,220
2014/11/18,220,226,219,222,120600,222
2014/11/19,226,226,220,223,67600,223
2014/11/20,219,220,217,217,149200,217
2014/11/21,216,222,215,221,97900,221
2014/11/25,222,227,219,221,165600,221
2014/11/26,222,227,220,224,169500,224
2014/11/27,225,242,223,235,507500,235
2014/11/28,231,235,222,223,226100,223
2014/12/01,222,223,220,220,126800,220
2014/12/02,221,226,221,223,59700,223
2014/12/03,222,225,218,218,144000,218
2014/12/04,217,221,212,213,176600,213
2014/12/05,214,218,212,212,65100,212
2014/12/08,212,213,207,208,98700,208
2014/12/09,207,208,202,203,123900,203
2014/12/10,203,209,200,204,101200,204
2014/12/11,202,214,202,210,106900,210
2014/12/12,213,213,203,204,110600,204
2014/12/15,204,205,200,200,63000,200
2014/12/16,197,197,191,193,134500,193
2014/12/17,187,194,186,189,93300,189
2014/12/18,192,196,191,192,76000,192
2014/12/19,193,197,191,191,103200,191
2014/12/22,191,193,186,188,97100,188
2014/12/24,188,188,175,177,204000,177
2014/12/25,172,176,168,175,304800,175
2014/12/26,173,185,173,184,128700,184
2014/12/29,185,190,180,186,114500,186
2014/12/30,183,194,183,192,109700,192
2015/01/05,192,227,192,215,794700,215
2015/01/06,210,213,202,207,238100,207
2015/01/07,204,213,204,211,97200,211
2015/01/08,211,211,207,209,89900,209
2015/01/09,206,208,200,202,85600,202
2015/01/13,198,205,197,198,49400,198
2015/01/14,198,203,196,196,55700,196
2015/01/15,196,199,192,193,69400,193
2015/01/16,190,192,186,192,60900,192
2015/01/19,190,196,190,192,50000,192
2015/01/20,195,207,192,198,130600,198
2015/01/21,202,207,195,201,118600,201
2015/01/22,201,201,196,197,52800,197
2015/01/23,197,199,196,196,31300,196
2015/01/26,192,200,191,194,49800,194
2015/01/27,195,197,193,194,29000,194
2015/01/28,189,195,189,194,39400,194
2015/01/29,193,193,189,189,26500,189
2015/01/30,189,192,187,190,31800,190
2015/02/02,185,189,184,186,49400,186
2015/02/03,184,185,179,179,64600,179
2015/02/04,180,188,180,186,63100,186
2015/02/05,189,189,185,186,37300,186
2015/02/06,186,187,183,183,42100,183
2015/02/09,184,185,182,183,48200,183
2015/02/10,181,182,178,180,53100,180
2015/02/12,183,186,181,185,91400,185
2015/02/13,185,185,182,182,25500,182
2015/02/16,181,183,179,181,50200,181
2015/02/17,181,184,179,179,50500,179
2015/02/18,180,225,180,195,2000500,195
2015/02/19,197,222,188,205,1851800,205
2015/02/20,211,252,208,238,3827400,238
2015/02/23,214,226,210,215,907100,215
2015/02/24,216,263,204,229,3905500,229
2015/02/25,228,246,215,218,1328800,218
2015/02/26,222,260,221,252,3926800,252
2015/02/27,268,275,238,238,2831400,238
2015/03/02,236,247,226,226,902700,226
2015/03/03,224,225,211,215,499300,215
2015/03/04,210,220,206,214,368500,214
2015/03/05,210,218,209,214,309500,214
2015/03/06,214,245,208,219,2980700,219
2015/03/09,217,233,212,224,823700,224
2015/03/10,229,245,226,230,862500,230
2015/03/11,228,237,217,228,410700,228
2015/03/12,229,229,220,222,185200,222
2015/03/13,223,226,218,218,274200,218
2015/03/16,220,249,219,231,1852600,231
2015/03/17,236,259,234,239,2504400,239
2015/03/18,239,242,225,231,637500,231
2015/03/19,231,231,223,226,267500,226
2015/03/20,225,235,223,231,235500,231
2015/03/23,237,237,226,227,196600,227
2015/03/24,226,228,222,222,236400,222
2015/03/25,221,228,221,224,179200,224
2015/03/26,223,223,219,219,124400,219
2015/03/27,218,221,212,217,122800,217
2015/03/30,217,221,215,220,90400,220
2015/03/31,221,223,216,219,82700,219
2015/04/01,219,219,215,218,63200,218
2015/04/02,215,216,213,215,78900,215
2015/04/03,212,220,212,213,105700,213
2015/04/06,210,220,209,220,99100,220
2015/04/07,220,232,218,226,295000,226
2015/04/08,227,234,224,225,214300,225
2015/04/09,225,226,221,225,79700,225
2015/04/10,224,224,220,221,74800,221
2015/04/13,221,224,219,219,67300,219
2015/04/14,218,228,218,227,162400,227
2015/04/15,228,240,225,235,607600,235
2015/04/16,241,254,235,238,1442200,238
2015/04/17,236,237,227,227,305900,227
2015/04/20,227,233,225,231,232600,231
2015/04/21,234,235,226,229,172600,229
2015/04/22,234,234,229,232,98200,232
2015/04/23,231,231,226,226,113900,226
2015/04/24,226,228,225,228,43300,228
2015/04/27,228,228,223,225,77200,225
2015/04/28,222,225,217,220,133800,220
2015/04/30,223,223,215,217,122400,217
2015/05/01,214,218,213,213,92100,213
2015/05/07,213,217,213,216,87100,216
2015/05/08,215,224,215,224,59800,224
2015/05/11,214,219,213,219,158900,219
2015/05/12,218,220,215,216,49600,216
2015/05/13,216,216,208,214,134000,214
2015/05/14,214,215,208,208,108800,208
2015/05/15,213,215,209,210,94900,210
2015/05/18,210,211,208,208,35600,208
2015/05/19,208,213,207,211,93200,211
2015/05/20,212,212,210,212,23800,212
2015/05/21,211,218,209,214,106900,214
2015/05/22,215,216,214,215,54100,215
2015/05/25,216,225,213,219,164200,219
2015/05/26,220,220,215,217,50400,217
2015/05/27,216,218,214,215,44800,215
2015/05/28,217,217,213,214,40100,214
2015/05/29,215,217,213,215,134000,215
2015/06/01,216,228,216,224,219000,224
2015/06/02,240,245,223,226,774400,226
2015/06/03,227,243,223,243,559600,243
2015/06/04,251,261,237,240,1452200,240
2015/06/05,242,243,233,242,161200,242
2015/06/08,242,247,238,238,172900,238
2015/06/09,236,236,226,229,158100,229
2015/06/10,228,242,228,235,213100,235
2015/06/11,240,243,232,243,235500,243
2015/06/12,245,256,243,250,910600,250
2015/06/15,251,315,242,287,6214400,287
2015/06/16,279,290,255,265,1713600,265
2015/06/17,260,304,259,285,3328500,285
2015/06/18,280,316,272,273,4316500,273
2015/06/19,273,299,273,277,1624100,277
2015/06/22,283,306,283,296,1962500,296
2015/06/23,294,297,284,293,714700,293
2015/06/24,297,304,276,281,656200,281
2015/06/25,282,287,280,282,272100,282
2015/06/26,314,362,285,362,12416200,362
2015/06/29,370,442,355,442,11568300,442
2015/06/30,522,522,522,522,1591900,522
2015/07/01,582,622,525,622,24631700,622
