2011/01/04,1079,1091,1071,1085,122900,1085
2011/01/05,1085,1090,1062,1070,96900,1070
2011/01/06,1088,1090,1048,1057,224000,1057
2011/01/07,1070,1086,1065,1077,169500,1077
2011/01/11,1084,1098,1065,1071,146900,1071
2011/01/12,1071,1078,1035,1040,228900,1040
2011/01/13,1042,1056,1039,1046,118300,1046
2011/01/14,1035,1050,1018,1021,192500,1021
2011/01/17,1020,1042,1018,1030,128800,1030
2011/01/18,1008,1010,998,999,293100,999
2011/01/19,974,975,947,959,468300,959
2011/01/20,960,975,944,947,294300,947
2011/01/21,955,957,909,917,247000,917
2011/01/24,947,981,938,972,364700,972
2011/01/25,980,982,950,966,234400,966
2011/01/26,955,973,952,970,201000,970
2011/01/27,962,970,951,958,173600,958
2011/01/28,955,960,943,949,146500,949
2011/01/31,950,978,946,964,217900,964
2011/02/01,968,976,961,968,86400,968
2011/02/02,975,980,969,975,101000,975
2011/02/03,966,982,960,979,128400,979
2011/02/04,990,1000,986,991,115300,991
2011/02/07,1010,1035,1009,1034,230600,1034
2011/02/08,1054,1068,1012,1013,297800,1013
2011/02/09,1017,1047,1012,1041,175500,1041
2011/02/10,1041,1059,1028,1057,159500,1057
2011/02/14,1046,1074,1046,1065,186300,1065
2011/02/15,1070,1072,1055,1067,98400,1067
2011/02/16,1067,1067,1030,1030,212800,1030
2011/02/17,1032,1038,1012,1031,256600,1031
2011/02/18,1050,1070,1049,1066,234300,1066
2011/02/21,1069,1079,1032,1071,194700,1071
2011/02/22,1047,1077,1036,1069,160000,1069
2011/02/23,1064,1064,1041,1049,151000,1049
2011/02/24,1040,1058,1030,1044,187700,1044
2011/02/25,1031,1043,1007,1037,192500,1037
2011/02/28,1050,1071,1044,1068,207400,1068
2011/03/01,1070,1143,1066,1128,339900,1128
2011/03/02,1100,1120,1054,1055,388200,1055
2011/03/03,1055,1070,1037,1059,283600,1059
2011/03/04,1061,1078,1048,1051,204200,1051
2011/03/07,1053,1054,1039,1043,83800,1043
2011/03/08,1048,1067,1048,1059,120100,1059
2011/03/09,1076,1105,1076,1099,275300,1099
2011/03/10,1090,1100,1077,1092,177300,1092
2011/03/11,1074,1086,1042,1042,246200,1042
2011/03/14,892,974,861,913,403700,913
2011/03/15,876,900,763,763,381600,763
2011/03/16,793,860,789,856,445800,856
2011/03/17,810,930,810,883,320400,883
2011/03/18,930,965,918,949,221600,949
2011/03/22,990,1012,971,997,191000,997
2011/03/23,997,1041,995,1021,220800,1021
2011/03/24,1035,1062,1031,1049,195300,1049
2011/03/25,1060,1065,1025,1034,162800,1034
2011/03/28,1036,1040,1001,1013,158000,1013
2011/03/29,1005,1007,968,988,149400,988
2011/03/30,1003,1049,997,1032,157200,1032
2011/03/31,1032,1049,1019,1047,119100,1047
2011/04/01,1051,1059,1044,1048,127100,1048
2011/04/04,1050,1075,1050,1067,136000,1067
2011/04/05,1059,1070,1044,1055,108800,1055
2011/04/06,1059,1059,1028,1034,97900,1034
2011/04/07,1020,1045,1010,1010,73900,1010
2011/04/08,1000,1019,992,1012,126700,1012
2011/04/11,1042,1055,1025,1050,157200,1050
2011/04/12,1046,1059,1033,1049,109000,1049
2011/04/13,1049,1068,1039,1063,90400,1063
2011/04/14,1069,1094,1067,1076,127200,1076
2011/04/15,1070,1096,1062,1079,67600,1079
2011/04/18,1075,1076,1046,1055,75200,1055
2011/04/19,1034,1080,1034,1072,72100,1072
2011/04/20,1081,1090,1061,1063,59800,1063
2011/04/21,1080,1080,1061,1072,41200,1072
2011/04/22,1056,1069,1050,1062,50600,1062
2011/04/25,1063,1070,1056,1060,51800,1060
2011/04/26,1070,1070,1057,1062,55700,1062
2011/04/27,1065,1069,1035,1042,160200,1042
2011/04/28,1046,1055,1032,1046,166900,1046
2011/05/02,1058,1058,1036,1037,107100,1037
2011/05/06,1027,1034,1007,1032,139600,1032
2011/05/09,1047,1063,1040,1060,128000,1060
2011/05/10,1113,1234,1106,1219,912700,1219
2011/05/11,1200,1216,1186,1195,332800,1195
2011/05/12,1198,1229,1175,1186,184400,1186
2011/05/13,1173,1180,1100,1128,302700,1128
2011/05/16,1156,1156,1094,1101,183800,1101
2011/05/17,1092,1169,1092,1160,205100,1160
2011/05/18,1200,1290,1198,1245,541400,1245
2011/05/19,1248,1327,1247,1308,642300,1308
2011/05/20,1302,1345,1289,1307,510800,1307
2011/05/23,1282,1324,1258,1315,274700,1315
2011/05/24,1288,1336,1288,1326,286800,1326
2011/05/25,1296,1326,1289,1298,374300,1298
2011/05/26,1304,1362,1272,1358,551900,1358
2011/05/27,1358,1376,1343,1369,371300,1369
2011/05/30,1351,1435,1351,1431,556300,1431
2011/05/31,1419,1450,1392,1438,505600,1438
2011/06/01,1408,1425,1395,1406,365000,1406
2011/06/02,1398,1405,1382,1403,240800,1403
2011/06/03,1386,1395,1334,1368,459000,1368
2011/06/06,1360,1407,1360,1387,319700,1387
2011/06/07,1374,1413,1370,1411,228200,1411
2011/06/08,1411,1472,1402,1458,438600,1458
2011/06/09,1445,1469,1420,1433,300400,1433
2011/06/10,1459,1486,1445,1481,343700,1481
2011/06/13,1475,1475,1436,1448,237900,1448
2011/06/14,1438,1453,1397,1424,298800,1424
2011/06/15,1447,1478,1421,1436,409300,1436
2011/06/16,1406,1431,1403,1411,233500,1411
2011/06/17,1411,1418,1377,1403,234200,1403
2011/06/20,1390,1390,1365,1367,147200,1367
2011/06/21,1352,1382,1313,1381,291000,1381
2011/06/22,1383,1457,1383,1441,335300,1441
2011/06/23,1432,1448,1414,1419,182400,1419
2011/06/24,1410,1431,1396,1404,143200,1404
2011/06/27,1391,1416,1383,1399,168600,1399
2011/06/28,1420,1453,1420,1450,268000,1450
2011/06/29,1469,1471,1441,1448,207300,1448
2011/06/30,1451,1487,1445,1482,317300,1482
2011/07/01,1497,1514,1470,1477,310200,1477
2011/07/04,1480,1510,1480,1487,206300,1487
2011/07/05,1488,1501,1460,1488,206200,1488
2011/07/06,1495,1500,1477,1495,164600,1495
2011/07/07,1497,1519,1477,1497,284800,1497
2011/07/08,1508,1572,1507,1559,446700,1559
2011/07/11,1560,1573,1548,1566,200600,1566
2011/07/12,1543,1585,1543,1548,220600,1548
2011/07/13,1538,1613,1535,1597,285900,1597
2011/07/14,1613,1676,1613,1669,398100,1669
2011/07/15,1653,1663,1627,1649,207900,1649
2011/07/19,1630,1639,1600,1617,161300,1617
2011/07/20,1638,1670,1620,1646,219000,1646
2011/07/21,1670,1675,1642,1644,230800,1644
2011/07/22,1665,1673,1655,1662,156700,1662
2011/07/25,1652,1670,1652,1669,127800,1669
2011/07/26,1671,1675,1661,1662,119800,1662
2011/07/27,1661,1670,1630,1668,113500,1668
2011/07/28,1675,1690,1633,1645,165700,1645
2011/07/29,1670,1670,1625,1626,163100,1626
2011/08/01,1603,1662,1600,1652,214300,1652
2011/08/02,1678,1810,1674,1796,935100,1796
2011/08/03,1767,1819,1756,1792,445100,1792
2011/08/04,1793,1873,1757,1765,498900,1765
2011/08/05,1655,1764,1646,1752,448100,1752
2011/08/08,1726,1773,1666,1692,286400,1692
2011/08/09,1642,1670,1564,1664,289900,1664
2011/08/10,1716,1740,1686,1697,234700,1697
2011/08/11,1655,1696,1646,1689,213100,1689
2011/08/12,1720,1729,1654,1666,189200,1666
2011/08/15,1689,1723,1681,1710,122700,1710
2011/08/16,1723,1737,1710,1727,140200,1727
2011/08/17,1729,1729,1682,1700,213500,1700
2011/08/18,1691,1698,1655,1662,201000,1662
2011/08/19,1622,1663,1608,1625,208900,1625
2011/08/22,1648,1679,1640,1656,344100,1656
2011/08/23,1672,1690,1642,1680,266900,1680
2011/08/24,1686,1732,1655,1710,383100,1710
2011/08/25,1721,1737,1702,1716,246600,1716
2011/08/26,1700,1730,1693,1724,121700,1724
2011/08/29,1725,1769,1720,1752,176700,1752
2011/08/30,1778,1785,1769,1780,138200,1780
2011/08/31,1788,1797,1770,1795,157700,1795
2011/09/01,1808,1888,1805,1885,505800,1885
2011/09/02,1860,1878,1829,1837,330200,1837
2011/09/05,1817,1869,1817,1850,190900,1850
2011/09/06,1865,1866,1800,1812,357400,1812
2011/09/07,1851,1909,1820,1900,495500,1900
2011/09/08,1926,1940,1871,1888,256500,1888
2011/09/09,1893,1965,1888,1917,338500,1917
2011/09/12,1900,1909,1864,1866,213000,1866
2011/09/13,1891,1920,1877,1893,186200,1893
2011/09/14,1879,1885,1766,1782,360100,1782
2011/09/15,1821,1850,1808,1839,244100,1839
2011/09/16,1853,1895,1824,1892,257800,1892
2011/09/20,1898,1902,1835,1846,150400,1846
2011/09/21,1842,1884,1842,1867,135400,1867
2011/09/22,1858,1861,1789,1808,205300,1808
2011/09/26,1780,1787,1679,1693,269900,1693
2011/09/27,1748,1786,1738,1783,178700,1783
2011/09/28,1801,1887,1801,1877,256400,1877
2011/09/29,1853,1905,1850,1902,171700,1902
2011/09/30,1916,1984,1893,1927,343500,1927
2011/10/03,1890,1910,1829,1873,184300,1873
2011/10/04,1854,1919,1837,1906,244500,1906
2011/10/05,1900,1900,1858,1869,189800,1869
2011/10/06,1890,1896,1859,1867,114200,1867
2011/10/07,1900,1900,1868,1891,157100,1891
2011/10/11,1892,1944,1868,1930,337600,1930
2011/10/12,1904,1944,1888,1901,195600,1901
2011/10/13,1902,1910,1820,1824,219200,1824
2011/10/14,1821,1845,1791,1795,157600,1795
2011/10/17,1812,1812,1745,1758,226200,1758
2011/10/18,1761,1800,1759,1779,216400,1779
2011/10/19,1800,1809,1782,1799,202400,1799
2011/10/20,1813,1873,1810,1865,329600,1865
2011/10/21,1855,1868,1821,1830,166700,1830
2011/10/24,1849,1886,1834,1884,142700,1884
2011/10/25,1890,1905,1871,1887,219200,1887
2011/10/26,1870,1883,1802,1866,196400,1866
2011/10/27,1887,1920,1880,1894,186900,1894
2011/10/28,1910,1930,1902,1909,212900,1909
2011/10/31,1924,1976,1923,1930,368700,1930
2011/11/01,1905,1925,1888,1895,147900,1895
2011/11/02,1855,1916,1855,1905,156900,1905
2011/11/04,1928,1945,1910,1939,152200,1939
2011/11/07,1953,1974,1951,1965,110600,1965
2011/11/08,1925,1938,1875,1908,240200,1908
2011/11/09,1929,1935,1893,1923,168600,1923
2011/11/10,1884,1914,1881,1909,127900,1909
2011/11/11,1900,1909,1873,1881,131300,1881
2011/11/14,1905,1918,1881,1886,77400,1886
2011/11/15,1884,1910,1871,1880,138400,1880
2011/11/16,1876,1917,1871,1903,161800,1903
2011/11/17,1900,1917,1868,1915,179700,1915
2011/11/18,1915,1935,1905,1920,214500,1920
2011/11/21,1919,1927,1911,1915,95300,1915
2011/11/22,1893,1929,1893,1915,97000,1915
2011/11/24,1894,1906,1855,1880,247800,1880
2011/11/25,1880,1895,1830,1831,215300,1831
2011/11/28,1818,1826,1761,1786,192900,1786
2011/11/29,1795,1809,1776,1795,216500,1795
2011/11/30,1780,1839,1777,1806,336600,1806
2011/12/01,1878,1878,1820,1822,152400,1822
2011/12/02,1836,1879,1835,1859,134800,1859
2011/12/05,1857,1866,1810,1817,118200,1817
2011/12/06,1814,1820,1778,1780,154200,1780
2011/12/07,1780,1790,1735,1758,296300,1758
2011/12/08,1773,1809,1773,1798,204600,1798
2011/12/09,1801,1805,1778,1783,197100,1783
2011/12/12,1796,1815,1780,1792,178300,1792
2011/12/13,1760,1809,1757,1796,196700,1796
2011/12/14,1796,1807,1765,1777,113600,1777
2011/12/15,1760,1784,1711,1719,179600,1719
2011/12/16,1713,1749,1708,1713,151300,1713
2011/12/19,1710,1712,1650,1674,185200,1674
2011/12/20,1723,1731,1705,1718,139500,1718
2011/12/21,1718,1720,1665,1673,245200,1673
2011/12/22,1665,1748,1665,1743,360200,1743
2011/12/26,1727,1733,1682,1685,180100,1685
2011/12/27,1694,1701,1669,1677,103600,1677
2011/12/28,1683,1703,1678,1697,91600,1697
2011/12/29,1697,1705,1670,1698,126900,1698
2011/12/30,1705,1705,1673,1682,128200,1682
2012/01/04,1722,1742,1717,1728,126300,1728
2012/01/05,1741,1768,1731,1765,157000,1765
2012/01/06,1766,1790,1753,1775,220700,1775
2012/01/10,1784,1798,1766,1769,153200,1769
2012/01/11,1805,1813,1789,1808,174800,1808
2012/01/12,1792,1812,1770,1780,115900,1780
2012/01/13,1774,1775,1719,1730,143300,1730
2012/01/16,1719,1752,1703,1750,112300,1750
2012/01/17,1749,1778,1710,1720,103200,1720
2012/01/18,1707,1716,1677,1678,149600,1678
2012/01/19,1668,1690,1595,1605,355100,1605
2012/01/20,1595,1619,1565,1590,258400,1590
2012/01/23,1593,1631,1590,1612,197000,1612
2012/01/24,1611,1635,1575,1611,232900,1611
2012/01/25,1639,1670,1623,1663,168100,1663
2012/01/26,1658,1665,1598,1606,190100,1606
2012/01/27,1585,1610,1568,1598,267400,1598
2012/01/30,1607,1625,1600,1613,111700,1613
2012/01/31,1625,1677,1624,1659,240600,1659
2012/02/01,1662,1671,1636,1650,164000,1650
2012/02/02,1671,1671,1625,1639,69500,1639
2012/02/03,1670,1670,1610,1624,173400,1624
2012/02/06,1633,1663,1628,1660,105200,1660
2012/02/07,1654,1740,1649,1723,310000,1723
2012/02/08,1717,1723,1657,1662,250500,1662
2012/02/09,1663,1680,1653,1660,190300,1660
2012/02/10,1657,1658,1610,1612,202600,1612
2012/02/13,1618,1639,1614,1617,246300,1617
2012/02/14,1619,1695,1619,1682,273300,1682
2012/02/15,1665,1668,1640,1643,179800,1643
2012/02/16,1641,1660,1630,1637,157800,1637
2012/02/17,1655,1664,1617,1617,136000,1617
2012/02/20,1624,1624,1550,1552,324300,1552
2012/02/21,1552,1587,1552,1583,132800,1583
2012/02/22,1585,1632,1583,1600,272700,1600
2012/02/23,1598,1598,1576,1583,155600,1583
2012/02/24,1583,1609,1576,1590,166800,1590
2012/02/27,1580,1584,1554,1556,202800,1556
2012/02/28,1556,1595,1551,1590,216800,1590
2012/02/29,1594,1599,1565,1569,117200,1569
2012/03/01,1569,1578,1552,1560,133600,1560
2012/03/02,1555,1570,1553,1560,142600,1560
2012/03/05,1562,1568,1555,1556,171700,1556
2012/03/06,1560,1628,1560,1623,301300,1623
2012/03/07,1624,1693,1623,1684,426700,1684
2012/03/08,1685,1713,1663,1712,323300,1712
2012/03/09,1713,1719,1664,1692,276400,1692
2012/03/12,1698,1698,1669,1670,171600,1670
2012/03/13,1676,1688,1651,1656,209900,1656
2012/03/14,1667,1688,1616,1617,331400,1617
2012/03/15,1613,1613,1589,1599,237700,1599
2012/03/16,1587,1613,1579,1604,165000,1604
2012/03/19,1586,1601,1584,1591,98400,1591
2012/03/21,1594,1644,1594,1631,233600,1631
2012/03/22,1626,1694,1626,1684,317100,1684
2012/03/23,1681,1681,1656,1665,136700,1665
2012/03/26,1665,1685,1663,1671,131300,1671
2012/03/27,1671,1698,1670,1687,188400,1687
2012/03/28,1673,1674,1651,1664,101000,1664
2012/03/29,1650,1677,1637,1673,130100,1673
2012/03/30,1674,1706,1663,1696,140700,1696
2012/04/02,1703,1709,1670,1685,170200,1685
2012/04/03,1688,1688,1628,1646,203200,1646
2012/04/04,1630,1644,1600,1634,158500,1634
2012/04/05,1616,1640,1605,1621,147400,1621
2012/04/06,1600,1631,1600,1631,172700,1631
2012/04/09,1611,1664,1611,1652,149200,1652
2012/04/10,1681,1739,1681,1735,456000,1735
2012/04/11,1736,1832,1735,1787,763500,1787
2012/04/12,1770,1856,1767,1803,445700,1803
2012/04/13,1803,1853,1801,1844,348500,1844
2012/04/16,1845,1868,1837,1839,232300,1839
2012/04/17,1820,1856,1785,1846,209400,1846
2012/04/18,1868,1906,1848,1854,307800,1854
2012/04/19,1880,1880,1824,1826,216100,1826
2012/04/20,1806,1892,1806,1878,314600,1878
2012/04/23,1875,1886,1847,1852,144700,1852
2012/04/24,1857,1879,1841,1873,183000,1873
2012/04/25,1878,1913,1865,1905,219400,1905
2012/04/26,1928,1929,1887,1888,217900,1888
2012/04/27,1901,1923,1869,1884,289300,1884
2012/05/01,1862,1890,1843,1878,242000,1878
2012/05/02,1899,1929,1888,1927,232200,1927
2012/05/07,1901,1902,1864,1870,213800,1870
2012/05/08,1964,2128,1940,2111,1023200,2111
2012/05/09,2103,2140,2084,2092,737500,2092
2012/05/10,2070,2098,2055,2090,283100,2090
2012/05/11,2089,2124,2059,2068,257200,2068
2012/05/14,2040,2053,1961,1971,304700,1971
2012/05/15,1951,1990,1906,1968,389100,1968
2012/05/16,1968,1990,1922,1936,308900,1936
2012/05/17,1937,1943,1860,1921,345100,1921
2012/05/18,1894,1930,1850,1858,404100,1858
2012/05/21,1860,1907,1838,1877,236800,1877
2012/05/22,1855,1870,1807,1852,331600,1852
2012/05/23,1868,1882,1834,1841,261800,1841
2012/05/24,1822,1857,1795,1824,269600,1824
2012/05/25,1803,1898,1797,1876,258300,1876
2012/05/28,1861,1872,1801,1818,151900,1818
2012/05/29,1845,1889,1825,1876,256200,1876
2012/05/30,1879,1890,1843,1859,161800,1859
2012/05/31,1845,1854,1818,1847,181900,1847
2012/06/01,1817,1842,1802,1807,154600,1807
2012/06/04,1768,1783,1751,1771,158800,1771
2012/06/05,1775,1795,1736,1763,186700,1763
2012/06/06,1785,1802,1764,1790,166800,1790
2012/06/07,1790,1824,1772,1816,195600,1816
2012/06/08,1806,1815,1683,1703,389400,1703
2012/06/11,1733,1733,1702,1722,171300,1722
2012/06/12,1720,1729,1686,1716,146800,1716
2012/06/13,1722,1732,1691,1712,128000,1712
2012/06/14,1704,1730,1702,1717,183300,1717
2012/06/15,1695,1711,1675,1693,172100,1693
2012/06/18,1769,1775,1726,1738,213700,1738
2012/06/19,1766,1766,1717,1727,129600,1727
2012/06/20,1741,1756,1718,1738,129000,1738
2012/06/21,1737,1805,1736,1804,191700,1804
2012/06/22,1800,1869,1788,1850,295700,1850
2012/06/25,1868,1900,1846,1859,201100,1859
2012/06/26,1866,1884,1856,1866,146600,1866
2012/06/27,1908,1953,1896,1903,373600,1903
2012/06/28,1903,1924,1867,1885,181500,1885
2012/06/29,1885,1924,1860,1915,194600,1915
2012/07/02,1921,1929,1860,1880,258600,1880
2012/07/03,1903,1946,1880,1941,245000,1941
2012/07/04,1950,1973,1937,1951,195800,1951
2012/07/05,1942,1961,1922,1951,127000,1951
2012/07/06,1951,1973,1938,1945,158400,1945
2012/07/09,1959,1998,1948,1985,186600,1985
2012/07/10,1995,2010,1976,2000,369000,2000
2012/07/11,2014,2068,1984,2060,378600,2060
2012/07/12,2030,2068,1991,2056,481000,2056
2012/07/13,2063,2096,2060,2085,303100,2085
2012/07/17,2086,2097,2045,2086,232100,2086
2012/07/18,2071,2100,2070,2077,160700,2077
2012/07/19,2069,2088,2037,2043,289700,2043
2012/07/20,1913,2025,1913,2017,425500,2017
2012/07/23,1999,2005,1961,1963,156200,1963
2012/07/24,1950,1968,1941,1957,114800,1957
2012/07/25,1997,1999,1954,1959,133300,1959
2012/07/26,1985,1992,1950,1962,117900,1962
2012/07/27,1962,1962,1896,1906,250900,1906
2012/07/30,1900,2008,1899,1988,247100,1988
2012/07/31,2006,2065,2005,2051,275300,2051
2012/08/01,2027,2028,1983,1992,175500,1992
2012/08/02,1990,2040,1986,2038,207900,2038
2012/08/03,2039,2039,1990,2001,169200,2001
2012/08/06,2019,2070,2009,2047,204900,2047
2012/08/07,2100,2156,2092,2140,667400,2140
2012/08/08,2140,2149,2080,2106,457500,2106
2012/08/09,2119,2140,2089,2140,244300,2140
2012/08/10,2140,2150,2121,2129,180400,2129
2012/08/13,2130,2149,2106,2130,202400,2130
2012/08/14,2134,2166,2036,2070,702500,2070
2012/08/15,2051,2058,1961,2016,856500,2016
2012/08/16,2068,2143,2040,2138,933400,2138
2012/08/17,2115,2166,2102,2151,491900,2151
2012/08/20,2149,2164,2135,2158,328100,2158
2012/08/21,2160,2195,2152,2187,346000,2187
2012/08/22,2194,2236,2180,2231,706400,2231
2012/08/23,2230,2244,2189,2224,455100,2224
2012/08/24,2199,2239,2192,2223,219900,2223
2012/08/27,2245,2286,2227,2275,298700,2275
2012/08/28,2279,2290,2245,2273,329700,2273
2012/08/29,2260,2302,2253,2296,281100,2296
2012/08/30,2289,2293,2258,2285,236500,2285
2012/08/31,2294,2305,2274,2278,181900,2278
2012/09/03,2278,2303,2263,2263,144200,2263
2012/09/04,2241,2289,2198,2271,187200,2271
2012/09/05,2246,2276,2215,2246,195000,2246
2012/09/06,2250,2250,2202,2215,158200,2215
2012/09/07,2225,2275,2225,2238,182800,2238
2012/09/10,2243,2312,2240,2311,437800,2311
2012/09/11,2312,2334,2296,2310,336700,2310
2012/09/12,2309,2399,2308,2399,395100,2399
2012/09/13,2387,2399,2362,2391,211200,2391
2012/09/14,2400,2400,2284,2291,532300,2291
2012/09/18,2294,2306,2194,2206,450000,2206
2012/09/19,2227,2257,2212,2230,226600,2230
2012/09/20,2225,2261,2192,2244,272200,2244
2012/09/21,2260,2378,2260,2355,554200,2355
2012/09/24,2371,2391,2348,2387,291800,2387
2012/09/25,2389,2444,2385,2433,447100,2433
2012/09/26,2418,2494,2407,2481,342900,2481
2012/09/27,2475,2520,2459,2514,281700,2514
2012/09/28,2496,2509,2479,2492,218700,2492
2012/10/01,2471,2474,2375,2405,410900,2405
2012/10/02,2415,2463,2405,2435,235400,2435
2012/10/03,2449,2457,2425,2438,191000,2438
2012/10/04,2445,2472,2395,2466,164800,2466
2012/10/05,2472,2550,2472,2535,287800,2535
2012/10/09,2500,2577,2491,2551,338500,2551
2012/10/10,2578,2630,2566,2598,485200,2598
2012/10/11,2559,2625,2542,2603,424400,2603
2012/10/12,2612,2658,2594,2595,451300,2595
2012/10/15,2556,2570,2463,2480,303800,2480
2012/10/16,2520,2533,2486,2518,305400,2518
2012/10/17,2523,2559,2466,2505,409200,2505
2012/10/18,2500,2510,2435,2489,360500,2489
2012/10/19,2525,2529,2482,2498,193900,2498
2012/10/22,2485,2556,2475,2549,288500,2549
2012/10/23,2570,2583,2535,2572,382000,2572
2012/10/24,2573,2580,2540,2553,339900,2553
2012/10/25,2534,2590,2522,2590,324200,2590
2012/10/26,2619,2682,2611,2669,621000,2669
2012/10/29,2670,2690,2623,2633,367700,2633
2012/10/30,2712,2818,2654,2662,999200,2662
2012/10/31,2750,2755,2623,2663,517600,2663
2012/11/01,2684,2735,2645,2711,377600,2711
2012/11/02,2750,2750,2681,2707,304300,2707
2012/11/05,2685,2737,2657,2681,231500,2681
2012/11/06,2631,2700,2596,2665,397600,2665
2012/11/07,2700,2727,2631,2658,421900,2658
2012/11/08,2652,2672,2611,2621,256400,2621
2012/11/09,2603,2649,2567,2619,208300,2619
2012/11/12,2614,2627,2572,2589,175800,2589
2012/11/13,2621,2711,2618,2694,521100,2694
2012/11/14,2680,2714,2660,2697,223200,2697
2012/11/15,2690,2698,2621,2638,282700,2638
2012/11/16,2620,2668,2610,2626,364700,2626
2012/11/19,2601,2660,2572,2620,301500,2620
2012/11/20,2604,2649,2589,2600,368400,2600
2012/11/21,2609,2609,2504,2530,559300,2530
2012/11/22,2510,2513,2382,2390,949800,2390
2012/11/26,2442,2525,2387,2403,1087300,2403
2012/11/27,2422,2516,2421,2495,559600,2495
2012/11/28,2540,2580,2536,2578,623300,2578
2012/11/29,2578,2625,2575,2605,632900,2605
2012/11/30,2605,2605,2554,2566,326400,2566
2012/12/03,2566,2597,2541,2566,457300,2566
2012/12/04,2582,2605,2541,2599,411500,2599
2012/12/05,2584,2620,2571,2612,276900,2612
2012/12/06,2636,2681,2634,2664,474400,2664
2012/12/07,2665,2694,2625,2639,225800,2639
2012/12/10,2639,2645,2597,2608,160200,2608
2012/12/11,2609,2633,2571,2579,124400,2579
2012/12/12,2589,2614,2551,2552,215900,2552
2012/12/13,2554,2565,2475,2481,390400,2481
2012/12/14,2450,2497,2424,2432,581200,2432
2012/12/17,2482,2497,2425,2443,351700,2443
2012/12/18,2445,2478,2431,2455,259200,2455
2012/12/19,2450,2454,2352,2360,747900,2360
2012/12/20,2336,2400,2328,2376,487100,2376
2012/12/21,2397,2450,2382,2399,384400,2399
2012/12/25,2415,2436,2355,2355,393600,2355
2012/12/26,2355,2401,2351,2393,273900,2393
2012/12/27,2391,2392,2279,2284,501800,2284
2012/12/28,2287,2302,2245,2295,496000,2295
2013/01/04,2330,2338,2296,2327,484800,2327
2013/01/07,2302,2317,2267,2288,532700,2288
2013/01/08,2327,2427,2309,2383,1082700,2383
2013/01/09,2400,2486,2393,2444,1019200,2444
2013/01/10,2494,2559,2435,2537,987500,2537
2013/01/11,2535,2629,2535,2623,886700,2623
2013/01/15,2625,2639,2555,2572,439900,2572
2013/01/16,2589,2659,2556,2590,484200,2590
2013/01/17,2591,2654,2563,2642,512100,2642
2013/01/18,2635,2677,2605,2639,337900,2639
2013/01/21,2639,2681,2601,2614,275300,2614
2013/01/22,2600,2712,2575,2687,613300,2687
2013/01/23,2695,2720,2658,2661,360500,2661
2013/01/24,2662,2690,2658,2679,284600,2679
2013/01/25,2653,2723,2653,2695,389700,2695
2013/01/28,2719,2720,2645,2678,312900,2678
2013/01/29,2680,2697,2657,2669,265800,2669
2013/01/30,2680,2698,2623,2646,512400,2646
2013/01/31,2659,2670,2603,2619,311900,2619
2013/02/01,2645,2674,2613,2657,249000,2657
2013/02/04,2700,2702,2642,2672,253900,2672
2013/02/05,2600,2600,2460,2572,853900,2572
2013/02/06,2590,2590,2455,2484,817600,2484
2013/02/07,2460,2482,2421,2441,598400,2441
2013/02/08,2427,2455,2388,2396,552200,2396
2013/02/12,2397,2444,2331,2410,688500,2410
2013/02/13,2460,2543,2431,2533,1096700,2533
2013/02/14,2550,2572,2453,2454,530600,2454
2013/02/15,2458,2508,2410,2444,346200,2444
2013/02/18,2431,2499,2417,2496,365300,2496
2013/02/19,2496,2540,2450,2474,270100,2474
2013/02/20,2502,2518,2467,2513,290200,2513
2013/02/21,2514,2608,2508,2581,642500,2581
2013/02/22,2580,2695,2575,2690,843100,2690
2013/02/25,2680,2704,2630,2652,631500,2652
2013/02/26,2645,2687,2620,2676,339300,2676
2013/02/27,2676,2693,2642,2663,421200,2663
2013/02/28,2660,2700,2639,2651,320700,2651
2013/03/01,2663,2782,2658,2777,649100,2777
2013/03/04,2802,2873,2802,2830,581400,2830
2013/03/05,2838,2914,2838,2872,529400,2872
2013/03/06,2900,3015,2883,2998,816200,2998
2013/03/07,3030,3080,2934,3025,721900,3025
2013/03/08,3050,3080,2940,2983,530700,2983
2013/03/11,2921,2969,2871,2963,515300,2963
2013/03/12,2950,3045,2922,2960,481200,2960
2013/03/13,2961,3010,2954,2992,341500,2992
2013/03/14,2960,3020,2960,3010,239300,3010
2013/03/15,3035,3150,3020,3110,389100,3110
2013/03/18,3160,3235,3150,3200,470700,3200
2013/03/19,3230,3280,3165,3255,355000,3255
2013/03/21,3280,3335,3265,3330,351300,3330
2013/03/22,3335,3335,3240,3245,289300,3245
2013/03/25,3175,3280,3175,3250,210400,3250
2013/03/26,3235,3280,3215,3250,245400,3250
2013/03/27,3195,3250,3195,3225,210900,3225
2013/03/28,3245,3340,3185,3320,325700,3320
2013/03/29,3370,3400,3250,3275,197900,3275
2013/04/01,3300,3305,3210,3230,241600,3230
2013/04/02,3185,3245,3070,3205,314100,3205
2013/04/03,3200,3320,3165,3300,307400,3300
2013/04/04,3235,3360,3180,3305,386700,3305
2013/04/05,3395,3475,3295,3315,704300,3315
2013/04/08,3285,3540,3285,3520,610900,3520
2013/04/09,3540,3545,3485,3520,382300,3520
2013/04/10,3500,3550,3480,3510,396600,3510
2013/04/11,3525,3570,3450,3480,210900,3480
2013/04/12,3435,3460,3370,3400,389900,3400
2013/04/15,3435,3485,3420,3455,239200,3455
2013/04/16,3385,3500,3360,3470,333600,3470
2013/04/17,3460,3545,3460,3490,217300,3490
2013/04/18,3495,3530,3430,3485,263500,3485
2013/04/19,3485,3510,3375,3395,281800,3395
2013/04/22,3465,3685,3465,3660,470200,3660
2013/04/23,3605,3625,3545,3570,306400,3570
2013/04/24,3610,3655,3580,3640,298600,3640
2013/04/25,3675,3735,3655,3725,317800,3725
2013/04/26,3735,3740,3660,3690,274200,3690
2013/04/30,3690,3790,3685,3750,318400,3750
2013/05/01,3815,3870,3765,3775,413800,3775
2013/05/02,3800,3800,3675,3790,274600,3790
2013/05/07,3855,3925,3815,3925,397400,3925
2013/05/08,4000,4160,3940,3970,1136100,3970
2013/05/09,4100,4165,4025,4060,831500,4060
2013/05/10,4100,4120,3985,4020,368000,4020
2013/05/13,4030,4120,4020,4085,380000,4085
2013/05/14,4100,4250,4090,4165,390100,4165
2013/05/15,4180,4195,3985,4025,458500,4025
2013/05/16,3960,4110,3835,3945,449000,3945
2013/05/17,3945,4050,3860,3910,402700,3910
2013/05/20,4070,4070,3865,3890,329500,3890
2013/05/21,3985,4020,3915,3990,431700,3990
2013/05/22,4005,4030,3895,3990,290100,3990
2013/05/23,3920,3990,3685,3685,574400,3685
2013/05/24,3680,3830,3540,3695,433100,3695
2013/05/27,3570,3790,3470,3720,302100,3720
2013/05/28,3695,3750,3610,3700,298200,3700
2013/05/29,3675,3720,3600,3665,466800,3665
2013/05/30,3620,3775,3575,3630,566200,3630
2013/05/31,3665,3725,3590,3675,255000,3675
2013/06/03,3665,3740,3590,3595,309200,3595
2013/06/04,3540,3560,3470,3540,317200,3540
2013/06/05,3550,3745,3540,3585,301200,3585
2013/06/06,3470,3500,3300,3355,457600,3355
2013/06/07,3220,3305,3150,3255,272500,3255
2013/06/10,3255,3465,3240,3455,265600,3455
2013/06/11,3450,3460,3390,3430,327200,3430
2013/06/12,3395,3500,3365,3490,218700,3490
2013/06/13,3490,3490,3355,3425,309500,3425
2013/06/14,3565,3620,3540,3575,454900,3575
2013/06/17,3555,3645,3510,3615,318200,3615
2013/06/18,3590,3640,3585,3600,192200,3600
2013/06/19,3590,3650,3575,3620,238100,3620
2013/06/20,3570,3585,3485,3535,294200,3535
2013/06/21,3485,3620,3475,3600,293300,3600
2013/06/24,3595,3625,3510,3530,367100,3530
2013/06/25,3475,3505,3330,3390,476800,3390
2013/06/26,3440,3440,3280,3290,219400,3290
2013/06/27,3310,3545,3290,3540,391500,3540
2013/06/28,3540,3650,3500,3650,281000,3650
2013/07/01,3630,3715,3600,3695,147700,3695
2013/07/02,3755,3780,3720,3775,168100,3775
2013/07/03,3800,3810,3730,3755,165000,3755
2013/07/04,3785,3785,3690,3725,81200,3725
2013/07/05,3750,3780,3705,3740,134300,3740
2013/07/08,3770,3770,3645,3655,174400,3655
2013/07/09,3650,3770,3650,3760,169200,3760
2013/07/10,3760,3765,3645,3680,180300,3680
2013/07/11,3655,3705,3605,3640,196700,3640
2013/07/12,3650,3700,3600,3615,194100,3615
2013/07/16,3600,3660,3575,3620,120200,3620
2013/07/17,3660,3725,3630,3710,187500,3710
2013/07/18,3725,3775,3690,3715,114800,3715
2013/07/19,3725,3780,3700,3765,207700,3765
2013/07/22,3795,3845,3755,3815,188500,3815
2013/07/23,3800,3860,3775,3850,163500,3850
2013/07/24,3850,3950,3825,3915,220500,3915
2013/07/25,3895,3915,3835,3855,131900,3855
2013/07/26,3785,3785,3695,3715,189200,3715
2013/07/29,3685,3755,3630,3700,148600,3700
2013/07/30,3655,3765,3630,3745,244400,3745
2013/07/31,3750,3755,3590,3620,212600,3620
2013/08/01,3600,3715,3600,3715,104800,3715
2013/08/02,3725,3790,3675,3790,126800,3790
2013/08/05,3795,3795,3700,3720,124300,3720
2013/08/06,3790,3985,3790,3935,577700,3935
2013/08/07,3785,3800,3670,3680,269100,3680
2013/08/08,3630,3680,3545,3560,283900,3560
2013/08/09,3560,3580,3455,3460,239800,3460
2013/08/12,3335,3395,3305,3335,271100,3335
2013/08/13,3315,3435,3250,3430,208300,3430
2013/08/14,3430,3470,3395,3470,136300,3470
2013/08/15,3440,3480,3410,3420,157600,3420
2013/08/16,3360,3470,3360,3445,179500,3445
2013/08/19,3435,3480,3420,3480,120500,3480
2013/08/20,3475,3525,3425,3495,168500,3495
2013/08/21,3495,3570,3475,3540,203200,3540
2013/08/22,3500,3625,3480,3605,233800,3605
2013/08/23,3620,3720,3610,3695,331600,3695
2013/08/26,3725,3745,3670,3700,206200,3700
2013/08/27,3705,3715,3630,3675,151000,3675
2013/08/28,3635,3635,3550,3595,148700,3595
2013/08/29,3530,3565,3495,3540,202400,3540
2013/08/30,3560,3600,3540,3560,265600,3560
2013/09/02,3540,3610,3535,3590,126100,3590
2013/09/03,3600,3650,3595,3650,157700,3650
2013/09/04,3640,3680,3595,3655,150700,3655
2013/09/05,3635,3670,3605,3655,163500,3655
2013/09/06,3660,3670,3550,3570,252400,3570
2013/09/09,3635,3695,3595,3615,336900,3615
2013/09/10,3700,3765,3655,3680,362700,3680
2013/09/11,3800,3885,3725,3755,407300,3755
2013/09/12,3740,3795,3650,3755,417700,3755
2013/09/13,3710,3795,3710,3790,333500,3790
2013/09/17,3790,3965,3785,3865,332700,3865
2013/09/18,3815,3850,3800,3820,156900,3820
2013/09/19,3780,3805,3720,3805,257900,3805
2013/09/20,3760,3800,3755,3770,199600,3770
2013/09/24,3740,3865,3725,3860,200300,3860
2013/09/25,3890,3955,3835,3870,322300,3870
2013/09/26,3870,3880,3785,3870,177100,3870
2013/09/27,3850,3925,3845,3915,211100,3915
2013/09/30,3905,3905,3815,3825,150800,3825
2013/10/01,3800,3845,3765,3780,212700,3780
2013/10/02,3785,3785,3720,3750,160000,3750
2013/10/03,3770,3945,3770,3925,646200,3925
2013/10/04,3875,3925,3805,3915,315700,3915
2013/10/07,3940,4095,3910,4005,556200,4005
2013/10/08,3935,3970,3905,3925,292900,3925
2013/10/09,3935,3970,3915,3970,145200,3970
2013/10/10,3970,4020,3970,4020,126200,4020
2013/10/11,4050,4130,4010,4125,305100,4125
2013/10/15,4140,4150,4100,4130,202300,4130
2013/10/16,4120,4140,4090,4115,160700,4115
2013/10/17,4120,4135,4085,4120,153100,4120
2013/10/18,4125,4230,4050,4210,226400,4210
2013/10/21,4250,4315,4200,4250,150800,4250
2013/10/22,4255,4255,4170,4170,106400,4170
2013/10/23,4170,4195,4080,4090,234800,4090
2013/10/24,4060,4190,4030,4175,234100,4175
2013/10/25,4170,4175,4040,4040,244400,4040
2013/10/28,4060,4070,4015,4065,161900,4065
2013/10/29,4100,4125,4085,4110,129100,4110
2013/10/30,4100,4120,4055,4055,97200,4055
2013/10/31,4070,4120,4015,4020,163500,4020
2013/11/01,4030,4045,3950,3985,151000,3985
2013/11/05,3955,4000,3915,3945,198400,3945
2013/11/06,3805,3970,3805,3900,333400,3900
2013/11/07,3950,3975,3875,3910,220400,3910
2013/11/08,3910,3940,3880,3890,172700,3890
2013/11/11,3950,4005,3900,3950,207600,3950
2013/11/12,4005,4175,4005,4110,368600,4110
2013/11/13,4120,4160,4090,4110,227700,4110
2013/11/14,4040,4110,4020,4070,319900,4070
2013/11/15,4035,4085,4035,4060,165000,4060
2013/11/18,4085,4105,4045,4050,173600,4050
2013/11/19,4060,4190,4050,4130,273100,4130
2013/11/20,4110,4110,4075,4095,157300,4095
2013/11/21,4190,4270,4160,4205,286500,4205
2013/11/22,4260,4330,4195,4275,421600,4275
2013/11/25,4300,4300,4170,4205,178900,4205
2013/11/26,4175,4200,4145,4195,114700,4195
2013/11/27,4190,4190,4140,4155,73300,4155
2013/11/28,4190,4255,4180,4235,152000,4235
2013/11/29,4250,4375,4235,4370,289900,4370
2013/12/02,4370,4400,4285,4365,238700,4365
2013/12/03,4350,4350,4235,4255,152300,4255
2013/12/04,4250,4315,4210,4210,133000,4210
2013/12/05,4230,4255,4150,4165,157900,4165
2013/12/06,4170,4200,4110,4150,108800,4150
2013/12/09,4235,4235,4150,4185,85400,4185
2013/12/10,4210,4270,4200,4200,115900,4200
2013/12/11,4195,4215,4150,4170,91300,4170
2013/12/12,4140,4150,4095,4125,98200,4125
2013/12/13,4145,4165,4120,4125,189600,4125
2013/12/16,4125,4135,4040,4055,103800,4055
2013/12/17,4055,4095,4055,4080,107300,4080
2013/12/18,4075,4080,4020,4040,152800,4040
2013/12/19,4080,4100,4020,4045,183100,4045
2013/12/20,4050,4080,4015,4035,170700,4035
2013/12/24,4020,4020,3730,3875,290000,3875
2013/12/25,3875,3920,3830,3885,252400,3885
2013/12/26,3970,3990,3900,3975,163900,3975
2013/12/27,3985,4000,3915,3935,205700,3935
2013/12/30,3970,4170,3965,4085,263000,4085
2014/01/06,4155,4195,4095,4180,375600,4180
2014/01/07,4150,4195,4135,4170,147600,4170
2014/01/08,4195,4215,4140,4165,80500,4165
2014/01/09,4165,4180,4090,4140,127300,4140
2014/01/10,4115,4150,4080,4150,144900,4150
2014/01/14,4095,4105,4045,4060,114500,4060
2014/01/15,4055,4085,4050,4070,113200,4070
2014/01/16,4075,4110,4055,4100,106800,4100
2014/01/17,4055,4140,4040,4130,108800,4130
2014/01/20,4140,4140,4065,4085,71500,4085
2014/01/21,4090,4115,4060,4085,86700,4085
2014/01/22,4040,4065,4005,4050,134300,4050
2014/01/23,4100,4115,4040,4055,168500,4055
2014/01/24,4050,4050,3950,3970,156900,3970
2014/01/27,3850,3990,3850,3920,175700,3920
2014/01/28,3910,3965,3895,3895,104200,3895
2014/01/29,3915,3995,3895,3990,139300,3990
2014/01/30,3900,3915,3865,3910,122000,3910
2014/01/31,3890,3965,3890,3940,165300,3940
2014/02/03,3890,3925,3820,3850,117900,3850
2014/02/04,3760,3775,3600,3615,179600,3615
2014/02/05,3600,3670,3375,3475,426700,3475
2014/02/06,3510,3750,3500,3745,380700,3745
2014/02/07,3725,3725,3540,3635,303000,3635
2014/02/10,3690,3765,3690,3740,131400,3740
2014/02/12,3745,3770,3670,3730,160700,3730
2014/02/13,3710,3765,3650,3695,170500,3695
2014/02/14,3675,3715,3555,3585,146100,3585
2014/02/17,3575,3645,3535,3605,121700,3605
2014/02/18,3610,3740,3590,3735,181100,3735
2014/02/19,3675,3700,3585,3610,152000,3610
2014/02/20,3580,3620,3510,3540,202700,3540
2014/02/21,3560,3700,3555,3695,121700,3695
2014/02/24,3705,3725,3635,3700,136900,3700
2014/02/25,3740,3740,3655,3700,166100,3700
2014/02/26,3735,3755,3680,3690,103800,3690
2014/02/27,3695,3735,3650,3660,137900,3660
2014/02/28,3680,3715,3590,3635,187300,3635
2014/03/03,3595,3600,3505,3580,107100,3580
2014/03/04,3570,3675,3570,3655,118400,3655
2014/03/05,3690,3690,3590,3605,95300,3605
2014/03/06,3605,3630,3550,3585,161900,3585
2014/03/07,3565,3605,3545,3585,101400,3585
2014/03/10,3585,3640,3580,3585,77000,3585
2014/03/11,3600,3640,3600,3635,66600,3635
2014/03/12,3595,3635,3515,3520,81700,3520
2014/03/13,3545,3580,3495,3510,101700,3510
2014/03/14,3510,3525,3430,3445,215500,3445
2014/03/17,3400,3440,3290,3300,178500,3300
2014/03/18,3360,3455,3360,3425,193000,3425
2014/03/19,3440,3500,3400,3475,115300,3475
2014/03/20,3520,3520,3450,3460,123000,3460
2014/03/24,3560,3700,3530,3645,190700,3645
2014/03/25,3680,3800,3670,3685,241600,3685
2014/03/26,3715,3745,3645,3720,221700,3720
2014/03/27,3740,3860,3575,3845,267000,3845
2014/03/28,3785,3865,3785,3850,213500,3850
2014/03/31,3885,3970,3875,3960,242900,3960
2014/04/01,3960,4005,3925,3960,229700,3960
2014/04/02,3985,4000,3915,3920,233800,3920
2014/04/03,3985,4040,3935,3950,297200,3950
2014/04/04,3900,3975,3860,3945,227900,3945
2014/04/07,3900,3940,3880,3890,149000,3890
2014/04/08,3890,3900,3810,3830,108400,3830
2014/04/09,3790,3830,3765,3770,133300,3770
2014/04/10,3860,3870,3750,3760,114400,3760
2014/04/11,3695,3745,3620,3710,111700,3710
2014/04/14,3685,3760,3680,3695,139100,3695
2014/04/15,3655,3715,3485,3545,311600,3545
2014/04/16,3605,3645,3555,3620,136600,3620
2014/04/17,3670,3695,3635,3665,154400,3665
2014/04/18,3665,3665,3580,3625,96300,3625
2014/04/21,3625,3650,3605,3630,46300,3630
2014/04/22,3630,3665,3585,3590,68700,3590
2014/04/23,3660,3685,3640,3670,101200,3670
2014/04/24,3670,3695,3565,3580,87900,3580
2014/04/25,3585,3630,3525,3540,125600,3540
2014/04/28,3540,3560,3475,3490,124700,3490
2014/04/30,3525,3545,3450,3480,170800,3480
2014/05/01,3525,3620,3495,3615,149300,3615
2014/05/02,3555,3605,3555,3590,59800,3590
2014/05/07,3535,3610,3515,3580,202700,3580
2014/05/08,3590,3655,3590,3630,119600,3630
2014/05/09,3695,3695,3445,3465,261700,3465
2014/05/12,3465,3500,3400,3415,188500,3415
2014/05/13,3450,3525,3445,3485,143500,3485
2014/05/14,3440,3500,3435,3455,72700,3455
2014/05/15,3395,3400,3305,3325,259400,3325
2014/05/16,3290,3335,3250,3315,279600,3315
2014/05/19,3245,3260,3155,3190,249100,3190
2014/05/20,3320,3425,3305,3340,323300,3340
2014/05/21,3270,3355,3265,3315,178800,3315
2014/05/22,3340,3430,3330,3425,113100,3425
2014/05/23,3425,3480,3415,3445,109200,3445
2014/05/26,3470,3505,3420,3485,137600,3485
2014/05/27,3480,3545,3470,3490,133700,3490
2014/05/28,3470,3565,3430,3475,172400,3475
2014/05/29,3460,3595,3460,3575,147800,3575
2014/05/30,3580,3630,3555,3600,148100,3600
2014/06/02,3630,3645,3600,3625,97400,3625
2014/06/03,3560,3645,3560,3620,143800,3620
2014/06/04,3585,3680,3585,3640,155400,3640
2014/06/05,3690,3690,3600,3625,94400,3625
2014/06/06,3635,3635,3585,3605,85400,3605
2014/06/09,3625,3635,3520,3535,124100,3535
2014/06/10,3560,3565,3465,3495,144200,3495
2014/06/11,3485,3565,3485,3550,90900,3550
2014/06/12,3510,3525,3470,3500,111000,3500
2014/06/13,3485,3600,3485,3590,129700,3590
2014/06/16,3550,3575,3485,3505,127700,3505
2014/06/17,3470,3570,3440,3540,180400,3540
2014/06/18,3570,3590,3535,3585,88200,3585
2014/06/19,3620,3720,3615,3715,212200,3715
2014/06/20,3685,3690,3570,3585,216300,3585
2014/06/23,3580,3605,3520,3580,180500,3580
2014/06/24,3560,3575,3500,3515,210100,3515
2014/06/25,3510,3565,3505,3535,135700,3535
2014/06/26,3515,3560,3475,3500,148700,3500
2014/06/27,3475,3505,3440,3500,149000,3500
2014/06/30,3530,3550,3500,3550,91100,3550
2014/07/01,3590,3615,3540,3590,103100,3590
2014/07/02,3520,3600,3520,3580,90300,3580
2014/07/03,3560,3595,3525,3535,89700,3535
2014/07/04,3570,3610,3550,3560,130600,3560
2014/07/07,3510,3530,3475,3500,123600,3500
2014/07/08,3475,3495,3435,3460,131400,3460
2014/07/09,3405,3435,3395,3405,167600,3405
2014/07/10,3380,3395,3340,3360,236400,3360
2014/07/11,3320,3345,3305,3335,127600,3335
2014/07/14,3330,3330,3300,3320,113400,3320
2014/07/15,3360,3455,3355,3410,221100,3410
2014/07/16,3410,3450,3360,3380,172000,3380
2014/07/17,3380,3405,3340,3350,103600,3350
2014/07/18,3330,3355,3315,3325,176100,3325
2014/07/22,3360,3400,3325,3385,168800,3385
2014/07/23,3425,3485,3420,3440,184200,3440
2014/07/24,3440,3470,3435,3455,205600,3455
2014/07/25,3490,3545,3485,3510,181900,3510
2014/07/28,3505,3530,3495,3505,108800,3505
2014/07/29,3505,3525,3480,3510,73200,3510
2014/07/30,3510,3525,3460,3475,71500,3475
2014/07/31,3475,3475,3385,3400,125200,3400
2014/08/01,3380,3420,3380,3395,64300,3395
2014/08/04,3390,3410,3375,3405,79700,3405
2014/08/05,3375,3440,3375,3410,107700,3410
2014/08/06,3355,3520,3355,3485,262400,3485
2014/08/07,3415,3425,3310,3400,251800,3400
2014/08/08,3380,3385,3305,3325,167300,3325
2014/08/11,3400,3400,3350,3370,108300,3370
2014/08/12,3420,3450,3370,3385,135700,3385
2014/08/13,3395,3425,3360,3415,76300,3415
2014/08/14,3440,3455,3410,3435,104300,3435
2014/08/15,3450,3470,3435,3470,46100,3470
2014/08/18,3460,3470,3440,3460,67800,3460
2014/08/19,3470,3480,3430,3465,98900,3465
2014/08/20,3430,3470,3420,3455,69100,3455
2014/08/21,3445,3465,3420,3465,66500,3465
2014/08/22,3455,3460,3420,3440,52000,3440
2014/08/25,3450,3455,3425,3440,52500,3440
2014/08/26,3455,3455,3385,3385,61100,3385
2014/08/27,3405,3445,3375,3435,92300,3435
2014/08/28,3380,3380,3310,3345,200000,3345
2014/08/29,3315,3350,3315,3320,123100,3320
2014/09/01,3320,3335,3270,3295,160200,3295
2014/09/02,3310,3340,3300,3325,97200,3325
2014/09/03,3325,3345,3290,3295,158900,3295
2014/09/04,3285,3295,3215,3240,192900,3240
2014/09/05,3275,3300,3255,3280,130600,3280
2014/09/08,3290,3290,3235,3265,108400,3265
2014/09/09,3280,3300,3250,3265,111300,3265
2014/09/10,3255,3300,3255,3285,64200,3285
2014/09/11,3300,3320,3255,3265,121800,3265
2014/09/12,3290,3365,3285,3355,224000,3355
2014/09/16,3320,3365,3315,3350,130600,3350
2014/09/17,3375,3385,3350,3350,130800,3350
2014/09/18,3370,3370,3335,3350,86900,3350
2014/09/19,3345,3380,3330,3360,196700,3360
2014/09/22,3390,3435,3385,3425,93900,3425
2014/09/24,3395,3425,3385,3425,118500,3425
2014/09/25,3445,3500,3440,3500,96600,3500
2014/09/26,3430,3490,3420,3475,91200,3475
2014/09/29,3505,3525,3430,3515,129800,3515
2014/09/30,3525,3535,3490,3510,121100,3510
2014/10/01,3525,3560,3505,3510,139400,3510
2014/10/02,3455,3525,3440,3470,177600,3470
2014/10/03,2930,2956,2860,2900,1129200,2900
2014/10/06,2910,2919,2894,2902,611700,2902
2014/10/07,2887,2891,2836,2853,529100,2853
2014/10/08,2853,2853,2775,2787,485800,2787
2014/10/09,2779,2785,2648,2698,475100,2698
2014/10/10,2670,2718,2615,2640,378500,2640
2014/10/14,2600,2615,2517,2525,479600,2525
2014/10/15,2521,2583,2505,2544,1066600,2544
2014/10/16,2469,2478,2468,2468,1832000,2468
2014/10/17,2468,2486,2467,2467,2059400,2467
2014/10/20,2489,2583,2489,2575,1099200,2575
2014/10/21,2574,2574,2494,2517,657100,2517
2014/10/22,2518,2555,2516,2537,837500,2537
2014/10/23,2527,2528,2483,2509,3161900,2509
2014/10/24,2512,2515,2483,2498,695500,2498
2014/10/27,2510,2519,2482,2491,569400,2491
2014/10/28,2485,2487,2444,2459,353300,2459
2014/10/29,2463,2508,2455,2487,384500,2487
2014/10/30,2499,2506,2473,2506,635700,2506
2014/10/31,2507,2569,2482,2566,1149800,2566
2014/11/04,2587,2624,2502,2530,824600,2530
2014/11/05,2552,2565,2506,2535,481600,2535
2014/11/06,2619,2795,2615,2689,2348700,2689
2014/11/07,2695,2761,2650,2749,852300,2749
2014/11/10,2754,2772,2699,2746,590200,2746
2014/11/11,2740,2746,2681,2719,451500,2719
2014/11/12,2745,2760,2701,2704,371700,2704
2014/11/13,2720,2820,2720,2810,634000,2810
2014/11/14,2850,2857,2778,2851,549400,2851
2014/11/17,2850,2876,2794,2807,661600,2807
2014/11/18,2807,2825,2743,2761,617500,2761
2014/11/19,2799,2849,2798,2818,344300,2818
2014/11/20,2786,2819,2762,2800,388200,2800
2014/11/21,2796,2810,2764,2800,258300,2800
2014/11/25,2800,2823,2784,2789,224100,2789
2014/11/26,2789,2821,2785,2795,194200,2795
2014/11/27,2782,2792,2733,2753,211900,2753
2014/11/28,2750,2766,2731,2745,196700,2745
2014/12/01,2746,2800,2745,2795,221400,2795
2014/12/02,2780,2799,2756,2796,221400,2796
2014/12/03,2800,2824,2775,2803,299600,2803
2014/12/04,2792,2818,2792,2799,204000,2799
2014/12/05,2790,2790,2752,2764,226300,2764
2014/12/08,2771,2788,2733,2743,194200,2743
2014/12/09,2730,2731,2682,2690,236000,2690
2014/12/10,2640,2661,2631,2658,314700,2658
2014/12/11,2633,2679,2606,2673,335900,2673
2014/12/12,2689,2708,2675,2678,260500,2678
2014/12/15,2658,2691,2657,2659,119800,2659
2014/12/16,2620,2627,2570,2570,223000,2570
2014/12/17,2569,2625,2561,2584,183100,2584
2014/12/18,2649,2662,2625,2645,322300,2645
2014/12/19,2678,2720,2666,2687,220900,2687
2014/12/22,2700,2740,2688,2740,214200,2740
2014/12/24,2770,2779,2758,2767,201500,2767
2014/12/25,2768,2768,2747,2755,162100,2755
2014/12/26,2759,2780,2745,2774,160600,2774
2014/12/29,2761,2790,2722,2766,261400,2766
2014/12/30,2766,2778,2728,2742,160000,2742
2015/01/05,2737,2775,2700,2763,182400,2763
2015/01/06,2706,2734,2644,2646,246100,2646
2015/01/07,2620,2703,2620,2672,184000,2672
2015/01/08,2700,2735,2698,2713,181600,2713
2015/01/09,2725,2745,2691,2713,157300,2713
2015/01/13,2700,2719,2655,2684,209300,2684
2015/01/14,2683,2683,2654,2661,218200,2661
2015/01/15,2675,2807,2675,2787,294600,2787
2015/01/16,2738,2741,2635,2701,231100,2701
2015/01/19,2702,2740,2683,2733,66500,2733
2015/01/20,2749,2775,2719,2764,89800,2764
2015/01/21,2763,2763,2712,2722,82300,2722
2015/01/22,2722,2722,2681,2715,99700,2715
2015/01/23,2752,2792,2732,2784,265900,2784
2015/01/26,2755,2783,2748,2777,101900,2777
2015/01/27,2792,2899,2789,2893,406100,2893
2015/01/28,2888,2919,2839,2893,231700,2893
2015/01/29,2875,2939,2860,2911,234200,2911
2015/01/30,2946,2970,2907,2931,418000,2931
2015/02/02,2930,2984,2908,2975,229800,2975
2015/02/03,2975,2978,2866,2881,264600,2881
2015/02/04,2918,2940,2869,2880,208300,2880
2015/02/05,2865,2868,2802,2807,331500,2807
2015/02/06,2843,2874,2824,2858,196100,2858
2015/02/09,2864,2884,2830,2864,197100,2864
2015/02/10,2888,2895,2829,2844,236400,2844
2015/02/12,2806,2824,2720,2752,456700,2752
2015/02/13,2658,2702,2602,2644,665300,2644
2015/02/16,2630,2631,2530,2549,563000,2549
2015/02/17,2578,2636,2566,2632,485700,2632
2015/02/18,2649,2692,2625,2641,331100,2641
2015/02/19,2642,2695,2629,2666,363700,2666
2015/02/20,2635,2686,2630,2640,391900,2640
2015/02/23,2670,2674,2626,2648,253300,2648
2015/02/24,2630,2664,2562,2599,646300,2599
2015/02/25,2607,2626,2586,2608,353600,2608
2015/02/26,2624,2632,2597,2618,415600,2618
2015/02/27,2610,2610,2581,2587,438600,2587
2015/03/02,2596,2633,2581,2597,755900,2597
2015/03/03,2612,2617,2573,2579,244600,2579
2015/03/04,2556,2586,2555,2570,317500,2570
2015/03/05,2569,2615,2556,2584,265500,2584
2015/03/06,2600,2650,2600,2650,315500,2650
2015/03/09,2640,2648,2603,2622,336600,2622
2015/03/10,2630,2689,2616,2643,528400,2643
2015/03/11,2643,2789,2643,2785,684400,2785
2015/03/12,2765,2873,2765,2868,571100,2868
2015/03/13,2918,2944,2888,2915,760600,2915
2015/03/16,2905,2958,2895,2928,429700,2928
2015/03/17,2921,2958,2890,2893,335900,2893
2015/03/18,2893,2953,2893,2952,414400,2952
2015/03/19,2923,2958,2868,2878,336500,2878
2015/03/20,2870,2872,2825,2843,403200,2843
2015/03/23,2845,2885,2845,2860,178700,2860
2015/03/24,2845,2858,2742,2770,491000,2770
2015/03/25,2780,2785,2726,2780,376800,2780
2015/03/26,2770,2790,2746,2775,208200,2775
2015/03/27,2726,2761,2650,2669,233800,2669
2015/03/30,2671,2672,2640,2658,231500,2658
2015/03/31,2718,2755,2694,2741,307500,2741
2015/04/01,2741,2770,2706,2726,257600,2726
2015/04/02,2760,2800,2755,2775,209000,2775
2015/04/03,2760,2809,2760,2801,174700,2801
2015/04/06,2770,2794,2738,2747,200600,2747
2015/04/07,2754,2827,2747,2814,226700,2814
2015/04/08,2840,2878,2821,2860,271600,2860
2015/04/09,2880,2909,2872,2907,282300,2907
2015/04/10,2907,2930,2878,2908,297400,2908
2015/04/13,2920,2972,2919,2950,370100,2950
2015/04/14,2954,2982,2921,2933,165300,2933
2015/04/15,2952,2952,2908,2931,296200,2931
2015/04/16,2910,2963,2892,2963,232600,2963
2015/04/17,2985,2985,2941,2965,283800,2965
2015/04/20,2941,2974,2929,2943,375200,2943
2015/04/21,3000,3030,2974,2998,291700,2998
2015/04/22,3010,3030,2987,3020,190000,3020
2015/04/23,3030,3070,3015,3045,205700,3045
2015/04/24,3060,3060,3010,3030,168000,3030
2015/04/27,3025,3025,2965,2982,141300,2982
2015/04/28,3015,3020,2956,2987,156700,2987
2015/04/30,2916,2971,2910,2930,395700,2930
2015/05/01,2903,2923,2807,2825,593800,2825
2015/05/07,2811,2859,2807,2834,436800,2834
2015/05/08,2852,2872,2814,2846,298700,2846
2015/05/11,2750,2765,2643,2653,908400,2653
2015/05/12,2638,2647,2550,2571,818900,2571
2015/05/13,2567,2570,2468,2490,1109200,2490
2015/05/14,2493,2515,2472,2502,558800,2502
2015/05/15,2512,2538,2491,2521,430400,2521
2015/05/18,2539,2578,2537,2566,632600,2566
2015/05/19,2599,2600,2571,2580,467200,2580
2015/05/20,2580,2599,2566,2576,322300,2576
2015/05/21,2570,2592,2544,2548,282600,2548
2015/05/22,2541,2560,2512,2555,596400,2555
2015/05/25,2560,2616,2560,2595,418000,2595
2015/05/26,2595,2596,2523,2529,391100,2529
2015/05/27,2545,2573,2530,2569,504500,2569
2015/05/28,2563,2563,2505,2526,634900,2526
2015/05/29,2520,2533,2506,2531,340100,2531
2015/06/01,2520,2541,2501,2536,321000,2536
2015/06/02,2540,2588,2512,2585,362300,2585
2015/06/03,2585,2615,2567,2573,455700,2573
2015/06/04,2570,2578,2537,2562,299300,2562
2015/06/05,2537,2570,2535,2549,297600,2549
2015/06/08,2546,2547,2502,2505,352300,2505
2015/06/09,2500,2508,2462,2468,422300,2468
2015/06/10,2463,2467,2414,2418,532500,2418
2015/06/11,2430,2521,2430,2491,445800,2491
2015/06/12,2491,2514,2440,2446,511900,2446
2015/06/15,2434,2468,2425,2459,246500,2459
2015/06/16,2446,2498,2442,2451,316800,2451
2015/06/17,2467,2493,2455,2470,313300,2470
2015/06/18,2485,2505,2441,2441,265300,2441
2015/06/19,2451,2484,2435,2484,521000,2484
2015/06/22,2483,2526,2471,2505,309200,2505
2015/06/23,2530,2560,2516,2541,281400,2541
2015/06/24,2574,2679,2570,2645,779700,2645
2015/06/25,2618,2654,2565,2617,341700,2617
2015/06/26,2625,2675,2598,2648,259600,2648
2015/06/29,2523,2616,2519,2580,388800,2580
2015/06/30,2591,2594,2526,2530,224900,2530
2015/07/01,2538,2556,2516,2543,113100,2543
