2011/12/09,305,372,305,368,7100,368
2011/12/12,369,375,336,370,14900,370
2011/12/13,362,362,352,356,2000,356
2011/12/14,364,364,342,342,1200,342
2011/12/15,334,339,318,339,7500,339
2011/12/16,327,343,327,337,1500,337
2011/12/19,334,339,321,334,1600,334
2011/12/20,340,340,330,330,500,330
2011/12/21,330,340,330,339,2800,339
2011/12/22,341,347,335,344,2700,344
2011/12/26,350,350,320,339,8000,339
2011/12/27,330,334,325,334,1200,334
2011/12/28,340,350,340,350,1700,350
2011/12/29,342,350,335,348,2300,348
2011/12/30,348,350,330,350,4200,350
2012/01/04,358,358,348,355,3800,355
2012/01/05,350,355,340,355,2700,355
2012/01/06,350,356,342,356,600,356
2012/01/10,355,361,350,359,1700,359
2012/01/11,356,356,339,350,1100,350
2012/01/12,346,357,345,354,2500,354
2012/01/13,355,360,352,356,2900,356
2012/01/16,348,355,348,350,900,350
2012/01/17,350,350,332,340,4300,340
2012/01/18,335,349,335,349,3800,349
2012/01/19,346,353,346,353,2300,353
2012/01/20,349,365,349,360,4800,360
2012/01/23,360,365,357,365,900,365
2012/01/24,362,370,362,366,6300,366
2012/01/25,374,374,369,369,2900,369
2012/01/26,369,369,366,368,600,368
2012/01/27,373,378,372,378,2700,378
2012/01/30,374,374,363,369,1800,369
2012/01/31,374,374,370,370,4400,370
2012/02/01,374,375,374,374,4100,374
2012/02/02,374,375,370,370,3200,370
2012/02/03,370,372,368,370,5900,370
2012/02/06,374,374,366,366,600,366
2012/02/07,366,370,362,369,700,369
2012/02/08,361,362,361,362,2200,362
2012/02/09,370,370,362,369,1700,369
2012/02/10,370,390,360,374,12900,374
2012/02/13,390,390,375,388,3000,388
2012/02/14,380,380,376,379,1600,379
2012/02/15,375,384,370,380,5800,380
2012/02/16,372,383,371,371,3200,371
2012/02/17,375,382,373,376,2900,376
2012/02/20,375,378,362,373,12600,373
2012/02/21,373,373,365,367,1700,367
2012/02/22,370,373,370,370,3800,370
2012/02/23,375,380,371,378,4800,378
2012/02/24,377,380,376,380,3400,380
2012/02/27,370,370,362,363,5700,363
2012/02/28,363,367,363,365,1600,365
2012/02/29,369,369,365,365,1600,365
2012/03/01,362,366,354,363,6500,363
2012/03/02,360,368,356,363,4800,363
2012/03/05,365,370,360,368,4500,368
2012/03/06,369,370,362,362,1900,362
2012/03/07,362,362,360,361,600,361
2012/03/08,370,370,361,365,4100,365
2012/03/09,365,365,365,365,300,365
2012/03/12,381,425,381,394,11100,394
2012/03/13,404,417,395,408,14100,408
2012/03/14,416,418,410,411,5800,411
2012/03/15,411,411,401,405,10600,405
2012/03/16,399,399,389,395,9200,395
2012/03/19,411,411,400,405,3500,405
2012/03/21,403,405,400,402,3100,402
2012/03/22,402,403,391,403,4000,403
2012/03/23,395,402,391,402,5300,402
2012/03/26,402,406,396,402,7400,402
2012/03/27,404,404,399,404,3300,404
2012/03/28,404,404,398,402,5300,402
2012/03/29,402,402,398,400,2000,400
2012/03/30,401,404,396,403,6100,403
2012/04/02,400,402,400,402,6200,402
2012/04/03,401,402,385,398,10400,398
2012/04/04,402,402,397,402,4300,402
2012/04/05,399,426,397,420,19800,420
2012/04/06,420,437,420,426,19200,426
2012/04/09,426,429,418,429,21800,429
2012/04/10,413,413,393,397,49400,397
2012/04/11,393,400,383,395,22700,395
2012/04/12,400,400,395,396,10900,396
2012/04/13,395,396,393,396,8900,396
2012/04/16,396,402,396,397,4200,397
2012/04/17,401,415,401,415,11300,415
2012/04/18,415,417,411,417,6800,417
2012/04/19,415,419,415,417,3300,417
2012/04/20,417,422,416,420,9700,420
2012/04/23,425,425,410,419,9000,419
2012/04/24,411,419,407,409,4600,409
2012/04/25,417,418,410,418,7100,418
2012/04/26,415,418,410,412,4200,412
2012/04/27,415,420,412,419,3600,419
2012/05/01,419,426,416,425,13800,425
2012/05/02,430,437,425,435,20900,435
2012/05/07,432,437,421,436,12100,436
2012/05/08,440,462,440,453,19600,453
2012/05/09,458,465,445,445,12000,445
2012/05/10,437,445,432,440,4200,440
2012/05/11,432,440,424,432,10400,432
2012/05/14,421,432,419,424,8200,424
2012/05/15,416,416,387,409,18500,409
2012/05/16,395,398,390,398,4800,398
2012/05/17,392,404,391,398,3500,398
2012/05/18,398,400,395,400,1400,400
2012/05/21,397,397,390,397,2400,397
2012/05/22,397,405,397,404,1700,404
2012/05/23,407,407,400,403,1000,403
2012/05/24,405,405,401,403,1000,403
2012/05/25,410,416,410,410,3500,410
2012/05/28,417,417,391,408,3200,408
2012/05/29,404,409,397,407,800,407
2012/05/30,407,409,401,409,800,409
2012/05/31,409,425,409,422,10800,422
2012/06/01,419,442,417,439,14500,439
2012/06/04,428,431,410,431,4900,431
2012/06/05,425,434,420,434,800,434
2012/06/06,434,434,426,433,3800,433
2012/06/07,435,435,433,435,1700,435
2012/06/08,434,444,430,436,9500,436
2012/06/11,436,440,436,436,4200,436
2012/06/12,436,440,436,440,2700,440
2012/06/13,440,444,440,444,4100,444
2012/06/14,440,442,434,440,2900,440
2012/06/15,432,441,432,440,6700,440
2012/06/18,440,440,440,440,7900,440
2012/06/19,440,440,440,440,600,440
2012/06/20,440,449,440,442,2400,442
2012/06/21,449,465,447,458,5900,458
2012/06/22,443,458,440,458,3900,458
2012/06/25,474,474,447,459,10900,459
2012/06/26,459,510,459,510,15700,510
2012/06/27,507,507,474,487,7600,487
2012/06/28,503,509,470,475,7800,475
2012/06/29,483,490,463,475,3200,475
2012/07/02,483,483,450,459,9700,459
2012/07/03,443,450,438,446,23300,446
2012/07/04,447,448,433,443,7200,443
2012/07/05,443,449,443,449,1100,449
2012/07/06,449,451,435,450,4600,450
2012/07/09,450,454,445,445,2900,445
2012/07/10,469,469,450,450,16600,450
2012/07/11,460,464,452,455,15200,455
2012/07/12,459,459,445,455,12600,455
2012/07/13,454,454,437,446,22900,446
2012/07/17,446,446,437,442,9300,442
2012/07/18,445,448,438,440,8000,440
2012/07/19,437,441,428,438,9900,438
2012/07/20,432,440,430,437,4200,437
2012/07/23,421,430,415,422,31700,422
2012/07/24,414,419,401,412,17300,412
2012/07/25,419,420,404,410,8400,410
2012/07/26,410,411,407,411,1000,411
2012/07/27,414,418,412,412,4000,412
2012/07/30,404,406,401,403,92100,403
2012/07/31,403,403,401,402,14900,402
2012/08/01,401,401,400,400,13700,400
2012/08/02,399,400,395,398,26300,398
2012/08/03,395,399,392,396,19500,396
2012/08/06,396,399,395,399,2300,399
2012/08/07,399,399,397,399,8600,399
2012/08/08,399,400,398,400,8700,400
2012/08/09,399,402,399,401,10500,401
2012/08/10,396,400,396,398,15100,398
2012/08/13,400,402,399,399,12000,399
2012/08/14,400,401,398,401,18700,401
2012/08/15,400,400,399,400,8800,400
2012/08/16,400,402,399,402,15700,402
2012/08/17,402,406,402,406,18400,406
2012/08/20,408,411,407,410,19000,410
2012/08/21,413,415,412,413,9700,413
2012/08/22,414,414,409,414,17300,414
2012/08/23,408,412,406,411,19700,411
2012/08/24,408,409,405,408,7300,408
2012/08/27,410,411,406,407,14500,407
2012/08/28,406,407,402,406,15300,406
2012/08/29,401,403,398,401,12200,401
2012/08/30,403,404,401,404,5100,404
2012/08/31,403,407,402,407,7400,407
2012/09/03,407,407,405,406,8300,406
2012/09/04,406,407,404,405,17900,405
2012/09/05,403,405,401,404,22500,404
2012/09/06,403,404,400,404,2600,404
2012/09/07,403,406,401,406,4400,406
2012/09/10,406,408,404,408,25500,408
2012/09/11,405,408,403,407,14100,407
2012/09/12,407,412,406,412,24100,412
2012/09/13,412,426,412,426,29200,426
2012/09/14,428,429,425,427,11200,427
2012/09/18,430,443,430,441,37300,441
2012/09/19,446,446,441,443,20700,443
2012/09/20,441,443,436,442,8700,442
2012/09/21,442,443,429,431,9500,431
2012/09/24,426,436,425,431,13400,431
2012/09/25,435,435,429,434,15100,434
2012/09/26,431,446,430,441,18700,441
2012/09/27,442,451,435,445,24500,445
2012/09/28,446,458,440,456,49300,456
2012/10/01,459,463,453,460,43000,460
2012/10/02,465,470,458,458,55800,458
2012/10/03,450,450,434,435,84700,435
2012/10/04,440,440,435,439,19300,439
2012/10/05,447,450,440,450,45500,450
2012/10/09,457,466,455,466,55000,466
2012/10/10,469,487,466,480,108800,480
2012/10/11,473,482,470,481,41400,481
2012/10/12,481,481,467,472,25400,472
2012/10/15,467,477,467,471,21100,471
2012/10/16,469,475,460,463,22000,463
2012/10/17,466,471,461,467,46500,467
2012/10/18,473,490,472,490,82100,490
2012/10/19,495,503,493,499,48700,499
2012/10/22,491,500,490,494,25200,494
2012/10/23,492,493,477,486,30300,486
2012/10/24,483,486,477,477,14800,477
2012/10/25,480,485,478,478,22700,478
2012/10/26,480,484,473,476,15000,476
2012/10/29,481,481,466,473,19400,473
2012/10/30,471,478,471,472,10400,472
2012/10/31,475,483,473,477,12600,477
2012/11/01,480,491,477,491,24400,491
2012/11/02,495,496,486,491,26200,491
2012/11/05,489,490,484,484,12700,484
2012/11/06,484,486,480,482,9600,482
2012/11/07,482,487,481,484,13600,484
2012/11/08,480,485,480,484,12300,484
2012/11/09,484,500,484,488,40700,488
2012/11/12,488,489,483,489,10700,489
2012/11/13,493,493,481,482,22500,482
2012/11/14,484,486,478,485,39800,485
2012/11/15,482,488,481,487,8800,487
2012/11/16,490,490,485,488,8700,488
2012/11/19,488,499,485,492,30100,492
2012/11/20,495,497,494,496,9600,496
2012/11/21,498,518,498,512,31600,512
2012/11/22,512,516,511,515,18800,515
2012/11/26,519,519,513,516,21200,516
2012/11/27,515,515,512,514,12900,514
2012/11/28,512,515,510,515,23500,515
2012/11/29,512,517,512,516,13600,516
2012/11/30,518,530,518,528,32400,528
2012/12/03,525,536,525,535,44100,535
2012/12/04,515,527,507,507,126700,507
2012/12/05,517,518,513,513,19000,513
2012/12/06,513,515,504,515,21100,515
2012/12/07,518,518,507,516,23800,516
2012/12/10,516,516,501,513,41500,513
2012/12/11,523,523,503,510,61500,510
2012/12/12,507,509,505,509,20800,509
2012/12/13,507,509,494,494,46600,494
2012/12/14,486,488,474,485,72800,485
2012/12/17,477,480,466,468,84100,468
2012/12/18,467,469,458,459,78000,459
2012/12/19,460,460,453,456,84000,456
2012/12/20,451,487,451,470,118100,470
2012/12/21,473,474,460,460,45300,460
2012/12/25,462,469,461,469,38200,469
2012/12/26,467,478,466,471,48700,471
2012/12/27,473,483,471,483,62300,483
2012/12/28,484,487,474,481,53900,481
2013/01/04,486,487,481,486,35000,486
2013/01/07,487,496,487,491,55200,491
2013/01/08,492,496,492,496,28400,496
2013/01/09,492,497,488,497,24100,497
2013/01/10,499,504,498,504,37700,504
2013/01/11,504,509,500,506,35800,506
2013/01/15,507,512,504,511,42000,511
2013/01/16,510,514,506,508,29100,508
2013/01/17,508,514,495,510,36100,510
2013/01/18,510,512,501,505,13600,505
2013/01/21,503,508,502,506,18000,506
2013/01/22,506,508,498,499,25900,499
2013/01/23,499,503,497,499,21200,499
2013/01/24,499,503,498,502,8200,502
2013/01/25,503,506,499,504,36800,504
2013/01/28,505,510,504,510,31300,510
2013/01/29,510,511,497,500,41800,500
2013/01/30,503,540,503,521,237600,521
2013/01/31,511,522,504,505,145400,505
2013/02/01,503,508,501,501,52300,501
2013/02/04,508,508,503,503,33000,503
2013/02/05,502,507,502,503,14400,503
2013/02/06,507,507,501,505,33100,505
2013/02/07,507,507,504,504,13500,504
2013/02/08,504,506,501,504,18500,504
2013/02/12,504,506,504,505,20200,505
2013/02/13,508,509,504,505,21400,505
2013/02/14,503,507,501,507,71900,507
2013/02/15,501,504,496,498,42100,498
2013/02/18,500,504,500,504,20300,504
2013/02/19,505,506,502,503,22200,503
2013/02/20,490,494,489,492,183200,492
2013/02/21,493,495,492,494,44800,494
2013/02/22,494,496,494,495,40400,495
2013/02/25,496,499,495,496,64700,496
2013/02/26,476,486,475,483,58300,483
2013/02/27,484,484,472,474,37400,474
2013/02/28,477,479,475,479,21600,479
2013/03/01,479,485,476,480,54500,480
2013/03/04,483,485,480,483,28400,483
2013/03/05,481,483,480,482,15600,482
2013/03/06,481,483,481,482,20100,482
2013/03/07,483,486,481,482,45000,482
2013/03/08,485,488,482,484,52500,484
2013/03/11,487,497,484,497,76100,497
2013/03/12,496,496,490,491,33200,491
2013/03/13,492,495,490,491,32800,491
2013/03/14,493,496,492,495,45400,495
2013/03/15,496,498,495,498,34500,498
2013/03/18,500,500,497,497,38900,497
2013/03/19,500,504,498,502,36100,502
2013/03/21,505,505,501,504,31500,504
2013/03/22,506,506,504,504,44400,504
2013/03/25,505,506,503,504,31600,504
2013/03/26,504,506,504,506,32700,506
2013/03/27,510,530,507,527,76300,527
2013/03/28,522,535,520,535,77900,535
2013/03/29,535,559,531,557,76300,557
2013/04/01,580,589,560,577,122400,577
2013/04/02,557,575,531,570,86000,570
2013/04/03,567,602,567,599,94800,599
2013/04/04,591,615,588,590,49700,590
2013/04/05,595,602,558,575,44800,575
2013/04/08,580,590,563,566,34200,566
2013/04/09,566,577,566,571,31300,571
2013/04/10,560,563,548,551,73600,551
2013/04/11,569,599,561,588,57600,588
2013/04/12,588,589,582,585,32900,585
2013/04/15,593,615,592,610,78100,610
2013/04/16,593,611,593,605,29200,605
2013/04/17,605,615,600,607,18200,607
2013/04/18,608,635,607,621,52100,621
2013/04/19,619,635,619,626,45200,626
2013/04/22,630,663,630,663,66900,663
2013/04/23,670,730,663,691,107400,691
2013/04/24,753,791,753,791,102000,791
2013/04/25,910,913,792,807,169100,807
2013/04/26,819,860,760,770,118300,770
2013/04/30,765,840,765,819,89700,819
2013/05/01,822,850,806,810,53200,810
2013/05/02,810,864,801,850,67700,850
2013/05/07,850,862,820,838,86000,838
2013/05/08,839,845,825,826,35600,826
2013/05/09,826,845,816,838,36400,838
2013/05/10,844,845,818,831,27900,831
2013/05/13,823,826,799,801,22600,801
2013/05/14,799,809,779,803,33400,803
2013/05/15,803,823,782,820,30800,820
2013/05/16,819,819,751,784,40900,784
2013/05/17,771,788,771,785,8000,785
2013/05/20,788,820,785,809,22800,809
2013/05/21,812,812,765,776,23100,776
2013/05/22,782,795,770,774,13800,774
2013/05/23,764,764,689,699,101300,699
2013/05/24,690,729,645,694,33500,694
2013/05/27,684,689,669,673,17000,673
2013/05/28,655,673,647,653,31400,653
2013/05/29,670,688,665,675,16700,675
2013/05/30,675,675,637,644,25300,644
2013/05/31,648,660,639,639,17400,639
2013/06/03,635,640,613,622,14800,622
2013/06/04,615,624,603,623,17200,623
2013/06/05,633,640,615,621,10600,621
2013/06/06,605,619,580,595,28700,595
2013/06/07,555,575,548,574,44500,574
2013/06/10,582,600,554,585,28600,585
2013/06/11,590,597,578,585,15700,585
2013/06/12,603,603,561,596,15900,596
2013/06/13,596,596,548,564,29800,564
2013/06/14,565,574,556,556,22400,556
2013/06/17,553,563,547,554,13900,554
2013/06/18,564,579,557,557,6700,557
2013/06/19,568,568,551,558,10000,558
2013/06/20,560,560,549,549,12600,549
2013/06/21,533,540,524,532,30900,532
2013/06/24,519,521,510,512,65900,512
2013/06/25,514,514,502,513,34400,513
2013/06/26,510,513,503,508,16500,508
2013/06/27,510,512,503,511,23600,511
2013/06/28,515,522,514,518,16200,518
2013/07/01,519,534,519,532,21400,532
2013/07/02,539,575,539,567,39800,567
2013/07/03,571,576,562,562,38200,562
2013/07/04,572,572,565,565,9300,565
2013/07/05,525,550,521,544,100700,544
2013/07/08,544,552,543,546,55300,546
2013/07/09,548,551,541,543,26300,543
2013/07/10,541,544,530,531,50200,531
2013/07/11,530,531,524,524,32200,524
2013/07/12,525,534,525,529,16500,529
2013/07/16,530,537,530,535,17000,535
2013/07/17,538,538,530,535,32200,535
2013/07/18,539,540,533,535,22400,535
2013/07/19,537,537,526,528,33200,528
2013/07/22,532,534,527,529,15600,529
2013/07/23,533,539,532,536,10200,536
2013/07/24,539,548,537,548,20700,548
2013/07/25,552,552,544,545,17600,545
2013/07/26,535,536,532,534,14200,534
2013/07/29,530,536,525,525,20800,525
2013/07/30,525,532,520,525,19100,525
2013/07/31,520,524,518,520,10800,520
2013/08/01,519,522,518,521,5400,521
2013/08/02,524,531,523,529,14500,529
2013/08/05,529,538,527,538,13000,538
2013/08/06,530,538,530,538,4400,538
2013/08/07,536,540,527,529,16300,529
2013/08/08,529,539,529,529,13000,529
2013/08/09,529,529,520,521,11400,521
2013/08/12,525,525,520,521,6800,521
2013/08/13,520,526,520,525,3900,525
2013/08/14,526,526,520,523,4300,523
2013/08/15,523,523,521,522,8700,522
2013/08/16,523,524,520,520,7500,520
2013/08/19,520,525,520,523,9000,523
2013/08/20,523,526,520,522,15200,522
2013/08/21,522,525,519,519,7000,519
2013/08/22,511,519,511,519,9800,519
2013/08/23,513,515,510,515,19300,515
2013/08/26,514,515,509,510,13600,510
2013/08/27,506,509,503,505,26100,505
2013/08/28,494,499,493,497,12400,497
2013/08/29,499,499,490,493,11500,493
2013/08/30,491,492,477,477,19500,477
2013/09/02,478,479,472,474,28500,474
2013/09/03,479,483,476,483,7300,483
2013/09/04,483,488,482,488,3500,488
2013/09/05,488,489,485,488,6700,488
2013/09/06,485,486,482,486,3600,486
2013/09/09,500,500,491,493,13600,493
2013/09/10,498,498,482,492,13400,492
2013/09/11,495,495,489,492,4600,492
2013/09/12,490,492,487,490,7100,490
2013/09/13,487,490,486,490,10900,490
2013/09/17,487,490,487,489,9500,489
2013/09/18,489,491,487,490,8200,490
2013/09/19,494,496,489,495,10500,495
2013/09/20,496,498,495,498,3700,498
2013/09/24,498,503,496,503,10600,503
2013/09/25,504,506,503,506,10100,506
2013/09/26,506,515,498,512,29000,512
2013/09/27,515,515,495,506,23900,506
2013/09/30,508,509,505,505,9100,505
2013/10/01,507,511,504,508,8600,508
2013/10/02,506,507,501,505,9700,505
2013/10/03,503,503,501,502,14100,502
2013/10/04,502,503,497,499,18200,499
2013/10/07,493,500,491,498,11100,498
2013/10/08,495,500,491,500,12000,500
2013/10/09,480,482,472,481,44700,481
2013/10/10,476,480,475,477,16000,477
2013/10/11,473,476,473,473,22900,473
2013/10/15,504,523,481,499,119900,499
2013/10/16,507,507,488,496,17200,496
2013/10/17,497,497,487,487,9400,487
2013/10/18,495,495,484,485,8300,485
2013/10/21,485,485,480,485,14800,485
2013/10/22,483,485,481,484,9000,484
2013/10/23,484,490,484,485,13300,485
2013/10/24,484,489,482,489,10400,489
2013/10/25,488,488,481,484,17400,484
2013/10/28,480,486,480,484,15500,484
2013/10/29,486,488,481,486,10400,486
2013/10/30,483,492,483,488,25800,488
2013/10/31,489,491,484,486,5600,486
2013/11/01,483,484,479,479,14700,479
2013/11/05,478,479,475,478,10500,478
2013/11/06,477,478,475,475,11200,475
2013/11/07,482,482,475,476,7400,476
2013/11/08,472,474,468,472,25600,472
2013/11/11,472,480,467,467,20600,467
2013/11/12,470,476,464,464,21000,464
2013/11/13,466,469,460,460,23700,460
2013/11/14,444,449,442,447,211600,447
2013/11/15,446,449,445,447,72400,447
2013/11/18,447,450,447,447,39800,447
2013/11/19,448,449,446,446,35900,446
2013/11/20,447,448,446,447,17200,447
2013/11/21,447,448,445,446,26700,446
2013/11/22,447,447,442,444,53000,444
2013/11/25,446,446,442,445,29000,445
2013/11/26,443,447,443,445,22100,445
2013/11/27,447,448,445,447,44100,447
2013/11/28,446,449,446,449,41500,449
2013/11/29,447,449,447,448,19200,448
2013/12/02,449,452,448,451,50600,451
2013/12/03,452,453,451,451,34900,451
2013/12/04,452,453,450,452,23600,452
2013/12/05,452,456,452,455,34700,455
2013/12/06,455,460,453,460,37500,460
2013/12/09,461,471,460,463,45000,463
2013/12/10,463,464,460,463,23300,463
2013/12/11,462,462,456,460,36400,460
2013/12/12,460,463,457,460,27600,460
2013/12/13,458,461,457,457,30600,457
2013/12/16,457,457,448,451,34200,451
2013/12/17,449,450,441,444,52100,444
2013/12/18,442,446,442,443,24000,443
2013/12/19,442,446,442,442,38000,442
2013/12/20,443,444,442,443,21100,443
2013/12/24,446,447,442,444,37400,444
2013/12/25,444,449,440,445,60500,445
2013/12/26,445,448,443,448,20700,448
2013/12/27,447,454,447,454,19300,454
2013/12/30,452,458,451,457,47000,457
2014/01/06,462,463,458,461,46800,461
2014/01/07,462,469,460,468,32200,468
2014/01/08,465,480,465,479,39300,479
2014/01/09,481,485,480,483,29600,483
2014/01/10,484,492,483,484,62200,484
2014/01/14,480,480,467,476,41000,476
2014/01/15,478,478,466,473,41500,473
2014/01/16,475,482,474,479,16800,479
2014/01/17,479,488,479,488,19400,488
2014/01/20,492,492,489,490,23600,490
2014/01/21,491,491,489,489,21500,489
2014/01/22,489,489,483,488,20300,488
2014/01/23,486,488,480,480,24200,480
2014/01/24,478,479,476,476,15800,476
2014/01/27,476,476,467,467,32200,467
2014/01/28,465,469,465,468,12900,468
2014/01/29,468,475,468,475,17000,475
2014/01/30,475,475,465,466,31400,466
2014/01/31,472,472,462,463,16700,463
2014/02/03,463,465,454,454,24900,454
2014/02/04,450,450,438,442,72600,442
2014/02/05,446,457,446,449,72700,449
2014/02/06,454,454,449,451,15600,451
2014/02/07,456,457,453,455,12200,455
2014/02/10,457,463,457,458,10000,458
2014/02/12,466,466,455,458,24500,458
2014/02/13,458,459,453,454,14800,454
2014/02/14,454,456,442,448,63400,448
2014/02/17,453,453,446,448,17400,448
2014/02/18,447,452,445,452,27900,452
2014/02/19,452,452,448,450,18300,450
2014/02/20,450,451,447,449,28000,449
2014/02/21,451,456,451,452,27000,452
2014/02/24,455,455,452,453,55300,453
2014/02/25,449,456,449,453,47100,453
2014/02/26,441,447,440,446,26800,446
2014/02/27,443,446,443,443,9800,443
2014/02/28,442,442,439,441,19900,441
2014/03/03,440,440,435,438,30700,438
2014/03/04,438,440,436,440,13800,440
2014/03/05,443,443,437,438,21100,438
2014/03/06,442,442,438,438,6400,438
2014/03/07,439,442,439,441,6700,441
2014/03/10,444,445,439,442,18400,442
2014/03/11,442,443,440,442,13000,442
2014/03/12,443,443,439,440,11900,440
2014/03/13,442,442,440,440,10000,440
2014/03/14,442,442,437,437,28900,437
2014/03/17,437,440,435,436,16000,436
2014/03/18,436,439,436,438,6400,438
2014/03/19,439,439,437,439,11400,439
2014/03/20,439,439,437,437,7500,437
2014/03/24,438,441,438,441,15500,441
2014/03/25,444,445,441,444,18000,444
2014/03/26,442,445,442,445,10800,445
2014/03/27,441,445,441,445,8400,445
2014/03/28,445,452,443,452,19700,452
2014/03/31,451,451,446,451,15100,451
2014/04/01,451,451,445,447,12200,447
2014/04/02,447,451,447,447,11400,447
2014/04/03,450,451,445,449,18200,449
2014/04/04,450,450,446,449,9000,449
2014/04/07,449,451,446,448,9700,448
2014/04/08,444,447,444,445,13900,445
2014/04/09,445,446,439,439,22900,439
2014/04/10,442,445,439,441,11700,441
2014/04/11,420,422,403,415,97800,415
2014/04/14,412,419,412,418,22600,418
2014/04/15,418,418,413,416,13400,416
2014/04/16,417,417,406,416,21900,416
2014/04/17,416,416,413,416,13400,416
2014/04/18,415,416,413,415,7600,415
2014/04/21,415,416,414,415,8800,415
2014/04/22,415,416,413,413,11700,413
2014/04/23,418,424,417,420,26300,420
2014/04/24,430,454,429,451,127500,451
2014/04/25,443,447,438,442,20700,442
2014/04/28,442,444,435,437,21900,437
2014/04/30,444,448,440,445,23300,445
2014/05/01,450,461,448,455,41900,455
2014/05/02,454,459,452,458,23300,458
2014/05/07,448,456,447,449,10000,449
2014/05/08,447,450,436,449,8900,449
2014/05/09,449,451,446,449,5400,449
2014/05/12,438,456,438,456,15500,456
2014/05/13,456,456,441,452,4900,452
2014/05/14,452,455,445,451,10500,451
2014/05/15,454,454,448,452,6800,452
2014/05/16,452,452,446,446,8100,446
2014/05/19,442,446,439,439,5000,439
2014/05/20,439,445,439,440,4600,440
2014/05/21,440,445,435,439,5600,439
2014/05/22,450,452,446,447,29000,447
2014/05/23,452,452,443,447,5500,447
2014/05/26,450,453,449,452,8400,452
2014/05/27,452,452,450,451,3100,451
2014/05/28,451,454,450,453,7100,453
2014/05/29,453,453,449,449,4600,449
2014/05/30,449,455,449,451,7300,451
2014/06/02,452,455,450,454,8600,454
2014/06/03,454,455,453,453,6700,453
2014/06/04,454,456,453,455,9900,455
2014/06/05,455,456,453,455,4200,455
2014/06/06,454,456,454,456,6000,456
2014/06/09,455,460,454,458,13800,458
2014/06/10,456,460,454,458,6500,458
2014/06/11,456,460,456,458,15000,458
2014/06/12,460,461,456,460,10800,460
2014/06/13,458,460,457,460,16600,460
2014/06/16,460,462,456,461,23600,461
2014/06/17,463,463,459,461,12600,461
2014/06/18,461,461,458,461,5100,461
2014/06/19,461,461,459,461,4600,461
2014/06/20,461,462,460,461,8300,461
2014/06/23,461,463,459,463,10600,463
2014/06/24,459,463,459,463,7100,463
2014/06/25,465,465,460,461,15100,461
2014/06/26,462,464,462,463,3200,463
2014/06/27,464,464,459,459,7000,459
2014/06/30,460,464,460,463,11000,463
2014/07/01,464,465,464,465,9800,465
2014/07/02,466,466,463,464,7400,464
2014/07/03,466,472,466,468,16700,468
2014/07/04,470,470,468,468,5000,468
2014/07/07,468,475,468,471,9200,471
2014/07/08,474,475,472,473,7500,473
2014/07/09,472,474,469,473,6400,473
2014/07/10,459,461,439,450,81900,450
2014/07/11,454,454,442,444,34500,444
2014/07/14,449,450,429,437,55200,437
2014/07/15,442,442,435,437,16100,437
2014/07/16,443,443,421,426,65600,426
2014/07/17,426,433,418,430,48900,430
2014/07/18,430,431,427,429,19100,429
2014/07/22,433,433,428,429,22100,429
2014/07/23,434,435,430,431,7400,431
2014/07/24,435,440,433,437,13900,437
2014/07/25,439,439,436,438,5000,438
2014/07/28,441,442,437,438,22800,438
2014/07/29,439,442,439,442,8700,442
2014/07/30,443,444,441,443,11400,443
2014/07/31,442,445,441,442,9000,442
2014/08/01,442,445,441,443,10600,443
2014/08/04,443,446,440,440,7500,440
2014/08/05,441,446,441,444,10200,444
2014/08/06,441,445,437,439,12700,439
2014/08/07,435,439,433,439,13700,439
2014/08/08,431,437,431,433,14900,433
2014/08/11,441,445,439,444,8500,444
2014/08/12,444,444,436,441,11300,441
2014/08/13,443,445,442,442,4700,442
2014/08/14,442,445,441,444,5300,444
2014/08/15,442,442,440,442,3600,442
2014/08/18,443,443,439,442,6700,442
2014/08/19,441,442,436,441,13000,441
2014/08/20,441,442,440,442,4700,442
2014/08/21,442,442,440,440,6200,440
2014/08/22,441,442,440,441,12800,441
2014/08/25,442,460,442,453,53800,453
2014/08/26,453,454,450,450,12200,450
2014/08/27,450,450,443,445,12600,445
2014/08/28,444,451,444,446,6800,446
2014/08/29,444,449,444,448,6400,448
2014/09/01,455,455,445,449,14200,449
2014/09/02,450,454,449,450,11600,450
2014/09/03,455,455,450,454,8400,454
2014/09/04,454,454,449,453,7100,453
2014/09/05,455,455,450,450,5600,450
2014/09/08,457,457,444,452,9000,452
2014/09/09,456,456,448,450,2300,450
2014/09/10,448,456,448,454,4100,454
2014/09/11,453,455,449,454,5800,454
2014/09/12,455,456,449,453,14100,453
2014/09/16,456,456,450,452,10300,452
2014/09/17,449,458,449,452,11200,452
2014/09/18,452,459,452,454,7100,454
2014/09/19,454,459,453,457,8200,457
2014/09/22,459,459,453,456,4200,456
2014/09/24,454,457,454,456,5100,456
2014/09/25,460,460,455,459,8100,459
2014/09/26,459,459,454,456,4300,456
2014/09/29,460,460,452,454,9100,454
2014/09/30,454,455,450,451,8100,451
2014/10/01,459,459,449,452,12000,452
2014/10/02,449,450,435,442,12900,442
2014/10/03,437,449,437,449,3400,449
2014/10/06,441,453,441,449,8400,449
2014/10/07,445,450,445,448,2900,448
2014/10/08,448,453,445,450,10900,450
2014/10/09,453,455,445,446,9300,446
2014/10/10,444,456,440,454,12200,454
2014/10/14,450,450,440,442,21100,442
2014/10/15,445,445,437,441,7500,441
2014/10/16,436,440,430,431,9200,431
2014/10/17,438,438,422,425,6700,425
2014/10/20,440,440,425,434,8600,434
2014/10/21,435,437,429,430,6600,430
2014/10/22,431,439,431,438,1000,438
2014/10/23,440,440,432,433,2700,433
2014/10/24,435,439,431,432,3700,432
2014/10/27,445,445,434,441,5100,441
2014/10/28,443,443,435,436,5200,436
2014/10/29,440,445,433,445,9100,445
2014/10/30,442,445,439,445,20000,445
2014/10/31,440,449,438,449,16100,449
2014/11/04,450,455,443,451,26200,451
2014/11/05,449,452,447,452,13700,452
2014/11/06,452,452,443,447,12800,447
2014/11/07,448,449,442,446,12200,446
2014/11/10,450,450,443,447,9600,447
2014/11/11,450,450,447,449,6900,449
2014/11/12,451,452,447,447,9700,447
2014/11/13,444,447,443,446,9100,446
2014/11/14,449,449,445,446,4700,446
2014/11/17,452,452,444,445,10500,445
2014/11/18,446,451,440,449,18700,449
2014/11/19,450,450,446,450,7400,450
2014/11/20,450,450,444,447,12800,447
2014/11/21,448,452,445,451,11000,451
2014/11/25,452,452,445,449,11400,449
2014/11/26,450,452,448,451,9600,451
2014/11/27,450,450,445,450,10500,450
2014/11/28,449,450,447,450,7400,450
2014/12/01,451,451,446,450,13600,450
2014/12/02,450,450,445,449,4900,449
2014/12/03,449,450,446,450,12200,450
2014/12/04,449,450,446,450,8100,450
2014/12/05,449,449,448,448,4800,448
2014/12/08,448,449,447,448,14300,448
2014/12/09,445,446,410,432,98300,432
2014/12/10,430,432,425,430,35000,430
2014/12/11,428,432,423,432,38000,432
2014/12/12,436,436,424,426,25100,426
2014/12/15,425,430,425,428,12400,428
2014/12/16,425,426,420,423,23200,423
2014/12/17,422,423,407,410,43900,410
2014/12/18,422,422,413,414,33700,414
2014/12/19,415,420,415,420,19500,420
2014/12/22,425,425,415,420,19400,420
2014/12/24,420,422,414,417,32800,417
2014/12/25,414,418,411,415,59100,415
2014/12/26,414,421,414,420,7100,420
2014/12/29,429,442,424,437,51700,437
2014/12/30,450,459,439,440,113400,440
2015/01/05,448,448,433,435,23400,435
2015/01/06,435,436,429,430,18300,430
2015/01/07,428,433,426,429,10700,429
2015/01/08,430,432,428,429,8200,429
2015/01/09,429,431,426,428,13200,428
2015/01/13,429,432,426,432,8300,432
2015/01/14,428,434,427,430,5800,430
2015/01/15,430,431,426,429,8400,429
2015/01/16,427,428,423,425,14600,425
2015/01/19,425,430,424,425,4900,425
2015/01/20,430,430,425,428,5700,428
2015/01/21,429,429,424,425,13000,425
2015/01/22,427,427,423,425,5400,425
2015/01/23,425,426,422,423,8900,423
2015/01/26,428,428,424,425,9400,425
2015/01/27,428,430,426,430,10400,430
2015/01/28,435,443,434,438,20000,438
2015/01/29,436,439,436,438,4700,438
2015/01/30,439,441,437,439,11800,439
2015/02/02,439,442,437,440,16300,440
2015/02/03,441,442,433,434,9300,434
2015/02/04,434,439,434,438,6400,438
2015/02/05,440,440,434,437,8300,437
2015/02/06,439,439,434,436,6700,436
2015/02/09,436,436,430,433,10600,433
2015/02/10,433,433,430,431,13300,431
2015/02/12,432,439,431,433,12400,433
2015/02/13,438,439,433,436,8800,436
2015/02/16,436,440,435,439,19100,439
2015/02/17,440,445,439,440,12100,440
2015/02/18,448,448,439,440,21000,440
2015/02/19,442,445,442,444,8600,444
2015/02/20,443,446,441,443,17800,443
2015/02/23,443,447,442,442,17600,442
2015/02/24,441,444,440,443,13200,443
2015/02/25,437,441,434,438,30700,438
2015/02/26,440,440,437,437,6000,437
2015/02/27,439,439,435,435,6500,435
2015/03/02,433,436,433,436,7100,436
2015/03/03,439,439,436,437,8900,437
2015/03/04,439,439,437,439,9500,439
2015/03/05,436,440,436,437,4300,437
2015/03/06,435,439,435,438,7600,438
2015/03/09,438,439,437,438,3200,438
2015/03/10,438,440,431,435,16200,435
2015/03/11,440,440,436,438,8600,438
2015/03/12,439,440,435,438,11500,438
2015/03/13,437,440,437,438,14900,438
2015/03/16,440,446,440,440,11900,440
2015/03/17,442,447,441,444,22500,444
2015/03/18,444,444,440,441,5700,441
2015/03/19,441,444,440,444,6000,444
2015/03/20,445,445,442,443,5000,443
2015/03/23,445,445,441,444,16400,444
2015/03/24,446,446,442,445,8600,445
2015/03/25,442,445,436,442,15100,442
2015/03/26,442,442,437,438,5000,438
2015/03/27,437,440,435,436,10000,436
2015/03/30,435,436,430,433,15200,433
2015/03/31,436,436,426,433,11400,433
2015/04/01,433,434,426,430,14700,430
2015/04/02,430,437,428,435,9900,435
2015/04/03,438,439,436,439,5700,439
2015/04/06,440,440,437,437,5800,437
2015/04/07,437,439,437,437,5700,437
2015/04/08,439,440,437,439,5700,439
2015/04/09,439,441,438,441,7300,441
2015/04/10,442,445,440,445,17400,445
2015/04/13,439,439,423,431,72900,431
2015/04/14,429,435,429,431,11400,431
2015/04/15,434,435,425,427,30600,427
2015/04/16,428,440,423,426,40500,426
2015/04/17,430,435,430,431,17100,431
2015/04/20,431,435,430,430,9300,430
2015/04/21,435,435,429,429,8100,429
2015/04/22,430,434,430,430,7100,430
2015/04/23,432,432,429,430,5900,430
2015/04/24,431,433,430,431,9200,431
2015/04/27,433,434,431,433,10400,433
2015/04/28,433,435,432,434,19400,434
2015/04/30,432,433,429,430,11500,430
2015/05/01,430,433,426,430,26200,430
2015/05/07,432,434,430,430,8500,430
2015/05/08,430,432,429,431,10400,431
2015/05/11,430,432,429,431,15200,431
2015/05/12,431,433,430,433,6900,433
2015/05/13,433,435,431,433,5200,433
2015/05/14,435,435,430,433,7400,433
2015/05/15,431,433,430,431,12200,431
2015/05/18,430,433,430,433,12500,433
2015/05/19,432,433,431,432,16300,432
2015/05/20,431,433,431,433,9300,433
2015/05/21,433,434,432,432,8700,432
2015/05/22,432,435,432,432,8500,432
2015/05/25,434,434,432,432,8200,432
2015/05/26,432,433,431,431,7000,431
2015/05/27,431,434,431,432,8000,432
2015/05/28,432,433,431,432,9100,432
2015/05/29,432,435,431,431,14600,431
2015/06/01,431,433,430,431,9600,431
2015/06/02,432,448,431,441,66800,441
2015/06/03,440,453,434,447,92700,447
2015/06/04,450,451,441,450,33900,450
2015/06/05,449,453,446,450,18200,450
2015/06/08,448,452,447,450,21600,450
2015/06/09,445,452,444,451,17000,451
2015/06/10,449,453,449,450,15000,450
2015/06/11,450,452,450,452,11900,452
2015/06/12,452,453,448,452,20500,452
2015/06/15,452,452,450,451,9200,451
2015/06/16,450,450,446,447,12900,447
2015/06/17,447,447,444,444,9200,444
2015/06/18,444,449,443,445,18200,445
2015/06/19,447,450,443,446,5700,446
2015/06/22,450,450,445,447,2800,447
2015/06/23,446,452,446,452,25700,452
2015/06/24,453,457,445,449,38000,449
2015/06/25,454,457,449,449,8600,449
2015/06/26,450,451,447,448,5700,448
2015/06/29,440,450,436,438,21200,438
2015/06/30,444,447,441,446,8300,446
2015/07/01,447,455,446,451,14800,451
