2011/01/04,1062,1072,1059,1059,1200,353
2011/01/05,1062,1072,1062,1071,1500,357
2011/01/13,1090,1095,1074,1083,6700,361
2011/01/17,1081,1090,1066,1083,4600,361
2011/01/19,1082,1082,1062,1071,4700,357
2011/01/20,1060,1075,1060,1074,4000,358
2011/02/01,1092,1092,1085,1092,1100,364
2011/02/02,1111,1113,1094,1110,10400,370
2011/02/03,1111,1137,1111,1137,4200,379
2011/02/15,1321,1341,1320,1326,56500,442
2011/02/18,1299,1300,1256,1290,42300,430
2011/02/22,1293,1314,1290,1314,78200,438
2011/02/28,1264,1269,1261,1266,9600,422
2011/03/02,1246,1257,1246,1257,20800,419
2011/03/04,1230,1233,1223,1227,32800,409
2011/03/15,980,980,850,900,63100,300
2011/03/24,1179,1179,1161,1164,13200,388
2011/03/29,1165,1165,1160,1161,17200,387
2011/03/31,1170,1179,1160,1179,10600,393
2011/04/05,1187,1187,1168,1170,5900,390
2011/04/14,1157,1163,1141,1149,6200,383
2011/04/22,1160,1160,1136,1140,6600,380
2011/04/26,1139,1150,1092,1122,12200,374
2011/05/09,1199,1199,1161,1191,6900,397
2011/05/10,1186,1186,1155,1161,7600,387
2011/05/25,1133,1136,1131,1131,1700,377
2011/06/01,1127,1135,1120,1122,5100,374
2011/06/02,1123,1135,1123,1131,4400,377
2011/06/13,1121,1146,1120,1146,4000,382
2011/06/14,1145,1145,1135,1140,3100,380
2011/06/20,1147,1147,1139,1140,3600,380
2011/06/22,1140,1143,1133,1140,2800,380
2011/06/28,1156,1165,1140,1158,2300,386
2011/06/29,1170,1176,1157,1176,2600,392
2011/07/04,1166,1175,1166,1173,2500,391
2011/07/05,1172,1181,1167,1170,3800,390
2011/07/14,1175,1175,1167,1167,2400,389
2011/07/19,1171,1173,1167,1170,4400,390
2011/07/20,1170,1170,1165,1167,3800,389
2011/07/21,1170,1179,1167,1173,3700,391
2011/07/26,1183,1183,1175,1179,2200,393
2011/08/02,1146,1146,1126,1134,6400,378
2011/08/03,1125,1126,1116,1116,5300,372
2011/08/05,1097,1100,1081,1095,6000,365
2011/08/08,1095,1098,1078,1080,4600,360
2011/08/09,1054,1067,1051,1053,6700,351
2011/08/19,1100,1109,1085,1092,4400,364
2011/08/24,1099,1099,1090,1092,2200,364
2011/08/25,1092,1100,1083,1083,2100,361
2011/08/26,1084,1100,1083,1092,1200,364
2011/08/31,1099,1099,1080,1092,3400,364
2011/09/02,1100,1100,1083,1083,4800,361
2011/09/06,1085,1090,1085,1089,4000,363
2011/09/08,1130,1130,1110,1122,1600,374
2011/09/13,1118,1119,1111,1113,3100,371
2011/09/14,1120,1127,1119,1125,1100,375
2011/09/21,1132,1138,1129,1134,6200,378
2011/09/22,1133,1133,1125,1128,4400,376
2011/09/26,1143,1143,1124,1128,9800,376
2011/09/29,1104,1104,1092,1092,5900,364
2011/10/04,1079,1079,1059,1059,2400,353
2011/10/06,1065,1076,1051,1071,2700,357
2011/10/11,1113,1113,1088,1101,2300,367
2011/10/12,1101,1107,1086,1107,1600,369
2011/10/17,1082,1099,1082,1095,3600,365
2011/10/21,1085,1099,1085,1086,1200,362
2011/10/28,1087,1090,1070,1083,5200,361
2011/10/31,1084,1086,1077,1077,2000,359
2011/11/04,1073,1095,1073,1080,4400,360
2011/11/07,1085,1090,1085,1089,2900,363
2011/11/08,1089,1089,1070,1071,2400,357
2011/11/15,1029,1049,1029,1044,2500,348
2011/11/22,1049,1049,1044,1044,1500,348
2011/11/28,1045,1050,1041,1041,2000,347
2011/11/29,1058,1065,1045,1065,1600,355
2011/12/08,1059,1059,1053,1059,3000,353
2011/12/12,1060,1061,1050,1053,2900,351
2011/12/13,1053,1055,1050,1053,2700,351
2011/12/21,1041,1044,1035,1035,5300,345
2011/12/28,1043,1045,1043,1044,1300,348
2011/12/29,1045,1060,1045,1053,1700,351
2012/01/04,1075,1080,1045,1080,5000,360
2012/01/11,1089,1089,1083,1089,800,363
2012/01/17,1075,1089,1075,1077,1300,359
2012/01/19,1088,1088,1081,1086,1500,362
2012/02/01,1115,1119,1115,1119,2900,373
2012/02/02,1120,1120,1110,1110,3000,370
2012/02/10,1123,1123,1116,1116,4700,372
2012/02/13,1117,1121,1115,1119,3700,373
2012/02/15,1127,1127,1121,1125,4100,375
2012/02/23,1139,1143,1139,1140,3300,380
2012/02/24,1141,1143,1140,1140,3500,380
2012/02/28,1155,1170,1148,1170,4500,390
2012/03/05,1165,1169,1160,1161,4800,387
2012/03/06,1168,1173,1161,1164,6100,388
2012/03/12,1166,1172,1164,1164,6400,388
2012/03/16,1170,1180,1170,1179,6300,393
2012/03/22,1178,1184,1176,1179,9500,393
2012/03/23,1179,1180,1175,1176,8900,392
2012/03/28,1165,1165,1153,1161,20300,387
2012/04/06,1158,1158,1152,1152,1800,384
2012/04/10,1151,1153,1149,1149,3300,383
2012/04/16,1132,1146,1128,1146,2200,382
2012/04/19,1146,1150,1142,1146,5000,382
2012/04/20,1140,1154,1140,1152,3600,384
2012/04/26,1146,1150,1146,1146,1300,382
2012/04/27,1146,1150,1142,1146,2300,382
2012/05/07,1147,1149,1141,1149,1700,383
2012/05/10,1149,1149,1139,1143,4300,381
2012/05/25,1102,1102,1080,1080,3300,360
2012/06/19,1102,1113,1100,1107,1900,369
2012/06/20,1130,1130,1128,1128,2900,376
2012/06/21,1133,1142,1115,1125,1700,375
2012/06/22,1121,1140,1119,1140,1500,380
2012/06/25,1147,1155,1143,1155,2500,385
2012/06/28,1152,1173,1152,1173,3500,391
2012/06/29,1170,1173,1166,1173,1700,391
2012/07/02,1183,1185,1175,1176,3400,392
2012/07/09,1181,1182,1179,1179,1300,393
2012/07/10,1179,1181,1173,1173,1800,391
2012/07/12,1171,1171,1155,1155,3000,385
2012/07/24,1184,1184,1151,1179,2900,393
2012/07/26,1141,1159,1141,1152,3100,384
2012/08/02,1160,1178,1148,1155,5100,385
2012/08/03,1147,1162,1147,1152,1700,384
2012/08/07,1167,1178,1167,1176,1200,392
2012/08/14,1180,1190,1180,1185,4900,395
2012/08/15,1190,1190,1180,1182,4700,394
2012/08/20,1200,1202,1196,1200,4300,400
2012/08/22,1220,1221,1206,1206,7700,402
2012/08/23,1204,1218,1204,1215,2700,405
2012/08/28,1237,1244,1231,1233,10000,411
2012/09/21,1279,1294,1279,1293,9900,431
2012/09/24,1308,1310,1300,1305,19500,435
2012/09/25,1305,1306,1290,1305,51700,435
2012/10/02,1271,1290,1271,1290,5900,430
2012/10/11,1275,1279,1262,1272,6900,424
2012/10/22,1250,1251,1245,1251,4300,417
2012/10/25,1251,1253,1245,1245,2700,415
2012/10/26,1258,1258,1250,1251,2900,417
2012/10/29,1252,1255,1250,1251,2800,417
2012/11/06,1248,1248,1235,1239,5200,413
2012/11/09,1206,1216,1206,1215,2100,405
2012/11/19,1192,1199,1192,1197,3900,399
2012/11/20,1210,1215,1197,1206,4900,402
2012/12/03,1224,1232,1223,1230,3000,410
2012/12/06,1235,1238,1231,1236,3500,412
2012/12/07,1243,1245,1234,1236,2700,412
2012/12/10,1242,1242,1234,1239,3800,413
2012/12/12,1295,1295,1264,1278,21400,426
2012/12/17,1301,1303,1295,1299,9400,433
2012/12/19,1309,1309,1295,1305,8400,435
2012/12/20,1305,1308,1302,1305,10100,435
2012/12/25,1313,1320,1305,1320,8400,440
2012/12/28,1330,1330,1321,1326,3200,442
2013/01/04,1327,1340,1325,1329,9000,443
2013/01/08,1337,1365,1337,1365,6700,455
2013/01/16,1460,1467,1450,1452,14000,484
2013/01/17,1453,1460,1453,1455,6700,485
2013/01/18,1460,1468,1455,1467,5300,489
2013/01/30,1454,1480,1454,1470,6800,490
2013/02/04,1510,1510,1468,1476,17300,492
2013/02/07,1472,1475,1468,1470,4800,490
2013/02/15,1448,1448,1428,1434,8000,478
2013/02/20,1452,1479,1451,1455,5100,485
2013/02/21,1466,1474,1458,1464,5000,488
2013/02/26,1509,1517,1497,1509,3500,503
2013/02/27,1520,1520,1500,1500,6100,500
2013/03/08,1599,1611,1595,1608,13500,536
2013/03/11,1628,1644,1617,1635,4800,545
2013/03/12,1657,1669,1653,1653,7900,551
2013/03/21,1700,1728,1692,1716,12500,572
2013/03/22,1721,1795,1721,1752,12400,584
2013/03/26,1767,1774,1670,1746,29900,582
2013/03/28,1709,1709,1688,1692,9200,564
2013/04/12,1645,1645,1605,1623,7000,541
2013/04/17,1613,1620,1608,1617,4800,539
2013/04/25,1729,1746,1715,1746,14900,582
2013/05/01,1755,1758,1725,1740,7800,580
2013/05/09,1802,1922,1801,1887,21200,629
2013/05/13,1868,1926,1863,1926,13900,642
2013/05/16,1871,1899,1730,1878,23600,626
2013/05/17,1811,1895,1811,1881,9000,627
2013/05/20,1889,1890,1860,1881,7900,627
2013/05/23,2273,2395,2078,2151,219100,717
2013/05/28,2009,2100,2009,2055,21400,685
2013/05/30,2100,2105,2020,2025,15500,675
2013/06/03,2049,2050,2000,2001,14800,667
2013/06/07,1825,1835,1750,1815,25200,605
2013/06/13,1921,1926,1882,1908,5200,636
2013/06/18,1993,2008,1975,1992,13800,664
2013/06/20,2058,2131,2055,2124,19200,708
2013/06/26,700,709,680,684,41900,684
2013/06/27,681,699,681,697,38700,697
2013/06/28,717,740,705,725,64500,725
2013/07/01,730,745,725,732,67000,732
2013/07/02,735,735,724,730,45800,730
2013/07/03,729,731,723,726,25600,726
2013/07/04,724,729,707,711,43200,711
2013/07/05,725,726,715,717,28800,717
2013/07/08,729,729,705,710,37000,710
2013/07/09,711,713,697,703,47500,703
2013/07/10,710,716,707,712,50000,712
2013/07/11,720,720,700,706,37000,706
2013/07/12,704,720,700,718,27700,718
2013/07/16,726,726,708,711,17900,711
2013/07/17,708,717,708,715,15100,715
2013/07/18,716,720,712,715,15700,715
2013/07/19,715,719,704,706,21600,706
2013/07/22,707,712,707,712,9900,712
2013/07/23,712,714,705,709,20200,709
2013/07/24,712,723,710,710,29800,710
2013/07/25,720,721,711,718,21700,718
2013/07/26,713,719,712,712,19800,712
2013/07/29,710,710,702,704,29100,704
2013/07/30,702,714,702,710,14100,710
2013/07/31,710,712,703,703,14400,703
2013/08/01,704,709,701,707,19400,707
2013/08/02,710,710,677,708,46500,708
2013/08/05,705,705,692,698,22600,698
2013/08/06,695,698,691,694,14400,694
2013/08/07,694,699,693,696,13300,696
2013/08/08,696,699,695,695,29200,695
2013/08/09,699,700,695,697,23600,697
2013/08/12,699,699,692,692,14800,692
2013/08/13,691,698,690,697,21900,697
2013/08/14,697,698,690,698,11800,698
2013/08/15,695,699,695,698,9700,698
2013/08/16,680,699,680,695,21700,695
2013/08/19,691,695,689,690,11000,690
2013/08/20,691,691,687,687,19100,687
2013/08/21,689,690,685,688,15200,688
2013/08/22,686,690,685,688,18100,688
2013/08/23,689,692,687,691,11800,691
2013/08/26,699,699,692,695,8000,695
2013/08/27,697,699,695,699,16600,699
2013/08/28,698,699,691,691,13000,691
2013/08/29,692,694,690,690,8800,690
2013/08/30,690,694,688,689,10900,689
2013/09/02,688,695,688,694,11100,694
2013/09/03,697,700,695,698,10100,698
2013/09/04,700,704,688,704,14100,704
2013/09/05,706,706,698,703,14400,703
2013/09/06,703,733,703,722,31900,722
2013/09/09,727,745,725,729,47700,729
2013/09/10,738,744,731,742,25700,742
2013/09/11,745,745,730,736,23000,736
2013/09/12,735,749,732,744,29000,744
2013/09/13,744,748,735,741,22000,741
2013/09/17,743,777,740,742,67300,742
2013/09/18,744,776,742,775,68700,775
2013/09/19,772,775,738,755,62500,755
2013/09/20,748,765,746,756,25100,756
2013/09/24,756,759,749,757,40600,757
2013/09/25,747,752,747,748,97100,748
2013/09/26,773,773,759,767,60200,767
2013/09/27,767,770,762,769,42000,769
2013/09/30,765,765,749,753,23300,753
2013/10/01,751,768,748,765,34600,765
2013/10/02,761,768,753,758,26200,758
2013/10/03,758,760,741,748,26800,748
2013/10/04,747,750,735,748,19600,748
2013/10/07,740,743,725,730,30100,730
2013/10/08,730,734,719,731,23500,731
2013/10/09,735,765,732,765,42800,765
2013/10/10,763,780,738,776,76300,776
2013/10/11,785,816,781,807,92400,807
2013/10/15,820,957,810,930,460600,930
2013/10/16,903,930,890,909,229400,909
2013/10/17,900,912,878,910,123500,910
2013/10/18,919,950,908,950,185100,950
2013/10/21,955,1017,955,991,279500,991
2013/10/22,999,1008,976,999,157100,999
2013/10/23,1000,1009,987,988,114500,988
2013/10/24,958,985,955,981,64900,981
2013/10/25,979,981,954,960,46300,960
2013/10/28,952,961,931,943,53700,943
2013/10/29,938,944,925,940,37500,940
2013/10/30,932,942,921,923,41300,923
2013/10/31,920,930,912,914,27200,914
2013/11/01,910,910,875,892,62800,892
2013/11/05,893,903,881,893,37300,893
2013/11/06,908,945,908,938,64000,938
2013/11/07,930,930,913,919,17300,919
2013/11/08,900,911,900,908,15700,908
2013/11/11,903,915,900,901,18500,901
2013/11/12,901,905,870,905,48400,905
2013/11/13,909,909,887,898,14300,898
2013/11/14,890,910,889,906,25100,906
2013/11/15,905,910,898,900,33400,900
2013/11/18,898,907,896,902,19100,902
2013/11/19,902,906,892,900,16500,900
2013/11/20,900,901,890,899,17900,899
2013/11/21,900,905,887,891,18300,891
2013/11/22,891,900,888,892,23300,892
2013/11/25,889,895,880,883,26800,883
2013/11/26,880,887,872,874,18800,874
2013/11/27,874,879,871,875,23800,875
2013/11/28,868,875,852,872,31600,872
2013/11/29,860,876,858,874,22400,874
2013/12/02,870,884,861,881,33500,881
2013/12/03,884,900,880,884,31100,884
2013/12/04,881,881,872,872,21400,872
2013/12/05,871,878,864,866,86200,866
2013/12/06,866,885,866,879,46600,879
2013/12/09,890,925,889,920,106300,920
2013/12/10,930,944,918,927,62900,927
2013/12/11,930,932,900,921,69600,921
2013/12/12,921,923,897,899,40700,899
2013/12/13,893,898,884,887,49700,887
2013/12/16,888,896,876,876,35400,876
2013/12/17,877,892,877,883,18500,883
2013/12/18,883,892,883,887,41100,887
2013/12/19,888,895,881,890,49100,890
2013/12/20,896,905,891,904,74800,904
2013/12/24,904,918,904,906,56500,906
2013/12/25,907,912,900,908,69200,908
2013/12/26,919,999,918,989,108800,989
2013/12/27,995,1052,981,1040,152700,1040
2013/12/30,1051,1089,1040,1084,92700,1084
2014/01/06,1058,1079,1033,1039,87500,1039
2014/01/07,1039,1075,1031,1047,56200,1047
2014/01/08,1075,1160,1074,1126,132400,1126
2014/01/09,1168,1169,1071,1086,143500,1086
2014/01/10,1072,1111,1037,1053,118800,1053
2014/01/14,1050,1050,1002,1032,55100,1032
2014/01/15,1041,1052,1020,1046,37700,1046
2014/01/16,1048,1056,1039,1041,43400,1041
2014/01/17,1045,1066,1041,1066,31600,1066
2014/01/20,1067,1101,1067,1091,54500,1091
2014/01/21,1105,1120,1100,1100,37500,1100
2014/01/22,1118,1118,1070,1091,71100,1091
2014/01/23,1089,1090,1055,1072,41300,1072
2014/01/24,1064,1077,1051,1072,47300,1072
2014/01/27,1062,1072,1053,1062,61500,1062
2014/01/28,1062,1087,1057,1057,34600,1057
2014/01/29,1087,1099,1073,1084,17600,1084
2014/01/30,1084,1089,1059,1081,42700,1081
2014/01/31,1099,1118,1051,1061,63800,1061
2014/02/03,1051,1060,1017,1044,93000,1044
2014/02/04,939,960,921,944,103500,944
2014/02/05,971,988,928,949,49500,949
2014/02/06,950,969,946,958,45800,958
2014/02/07,1000,1005,960,963,51000,963
2014/02/10,971,1019,971,984,29600,984
2014/02/12,990,1005,990,996,25000,996
2014/02/13,996,997,950,950,40900,950
2014/02/14,950,951,911,931,43100,931
2014/02/17,928,929,908,916,34100,916
2014/02/18,915,947,915,932,22500,932
2014/02/19,944,945,932,934,12000,934
2014/02/20,946,946,917,932,48800,932
2014/02/21,936,951,929,936,30800,936
2014/02/24,938,950,928,939,26100,939
2014/02/25,947,985,943,971,77400,971
2014/02/26,972,972,923,929,71400,929
2014/02/27,935,943,924,932,26200,932
2014/02/28,931,931,902,917,46500,917
2014/03/03,918,920,890,916,42000,916
2014/03/04,901,903,844,857,220200,857
2014/03/05,871,874,830,837,209400,837
2014/03/06,839,846,833,844,94500,844
2014/03/07,849,853,832,833,74200,833
2014/03/10,840,852,836,846,64900,846
2014/03/11,838,852,838,850,35100,850
2014/03/12,849,849,837,838,34400,838
2014/03/13,842,846,836,840,22100,840
2014/03/14,832,850,825,826,79400,826
2014/03/17,825,827,802,809,32500,809
2014/03/18,811,820,808,811,44300,811
2014/03/19,821,833,805,812,28500,812
2014/03/20,827,827,801,801,57300,801
2014/03/24,801,839,801,835,61500,835
2014/03/25,847,856,822,825,86500,825
2014/03/26,835,849,835,845,91300,845
2014/03/27,821,837,816,829,37400,829
2014/03/28,830,842,826,837,22300,837
2014/03/31,849,849,832,839,34700,839
2014/04/01,849,862,845,857,39400,857
2014/04/02,852,862,850,850,30500,850
2014/04/03,861,861,826,832,35700,832
2014/04/04,845,865,840,862,39300,862
2014/04/07,860,860,823,833,30900,833
2014/04/08,831,838,822,822,21900,822
2014/04/09,822,831,814,814,38100,814
2014/04/10,824,832,816,816,13100,816
2014/04/11,810,811,803,807,34500,807
2014/04/14,803,815,802,806,16700,806
2014/04/15,809,813,808,808,7000,808
2014/04/16,810,829,810,820,17400,820
2014/04/17,831,831,817,819,11800,819
2014/04/18,822,825,818,821,8200,821
2014/04/21,829,829,817,817,8100,817
2014/04/22,827,827,814,814,10000,814
2014/04/23,815,819,815,818,7700,818
2014/04/24,823,823,814,816,4000,816
2014/04/25,814,834,811,830,16000,830
2014/04/28,817,818,812,816,9500,816
2014/04/30,828,828,812,822,19700,822
2014/05/01,832,838,825,835,12600,835
2014/05/02,838,838,828,830,6900,830
2014/05/07,845,845,826,827,18200,827
2014/05/08,834,844,825,843,19000,843
2014/05/09,844,845,831,837,21100,837
2014/05/12,845,845,833,833,21500,833
2014/05/13,830,838,818,824,14200,824
2014/05/14,816,827,808,822,12400,822
2014/05/15,830,830,816,820,8300,820
2014/05/16,818,818,805,808,18300,808
2014/05/19,811,815,803,803,12400,803
2014/05/20,804,808,740,741,64300,741
2014/05/21,756,792,756,788,56200,788
2014/05/22,798,812,795,805,28900,805
2014/05/23,794,811,794,805,19400,805
2014/05/26,804,820,804,813,15200,813
2014/05/27,812,824,810,818,20700,818
2014/05/28,814,822,812,816,7500,816
2014/05/29,813,818,810,811,9200,811
2014/05/30,818,819,814,816,4600,816
2014/06/02,815,819,811,814,11500,814
2014/06/03,813,825,813,823,14800,823
2014/06/04,828,830,821,824,5300,824
2014/06/05,835,835,816,829,9900,829
2014/06/06,821,831,819,820,10500,820
2014/06/09,834,871,834,868,48900,868
2014/06/10,879,879,851,857,38000,857
2014/06/11,866,874,858,874,31700,874
2014/06/12,873,876,862,870,14600,870
2014/06/13,872,882,866,880,22400,880
2014/06/16,882,884,877,879,15800,879
2014/06/17,893,894,884,891,26700,891
2014/06/18,893,900,887,891,18500,891
2014/06/19,899,905,897,903,30600,903
2014/06/20,908,908,897,898,10500,898
2014/06/23,899,902,851,874,42400,874
2014/06/24,875,889,875,889,11100,889
2014/06/25,879,886,875,877,17000,877
2014/06/26,877,880,855,864,24700,864
2014/06/27,856,868,853,863,26000,863
2014/06/30,864,875,863,865,21200,865
2014/07/01,870,885,860,863,35200,863
2014/07/02,864,870,857,859,28900,859
2014/07/03,867,867,861,863,12600,863
2014/07/04,864,867,860,863,28900,863
2014/07/07,866,866,861,862,17300,862
2014/07/08,860,861,854,858,27900,858
2014/07/09,858,859,854,859,10000,859
2014/07/10,860,863,854,854,15300,854
2014/07/11,852,855,851,851,14500,851
2014/07/14,850,856,850,852,10400,852
2014/07/15,857,857,851,852,10200,852
2014/07/16,852,859,852,853,12400,853
2014/07/17,853,856,852,852,9100,852
2014/07/18,852,855,850,850,10700,850
2014/07/22,850,853,848,851,14600,851
2014/07/23,848,855,844,846,18100,846
2014/07/24,850,854,845,850,10700,850
2014/07/25,856,857,849,853,7900,853
2014/07/28,850,866,850,863,20800,863
2014/07/29,871,879,869,877,20600,877
2014/07/30,888,895,879,890,30300,890
2014/07/31,890,890,872,876,12700,876
2014/08/01,870,882,862,869,12700,869
2014/08/04,868,883,861,878,21500,878
2014/08/05,872,883,872,875,14400,875
2014/08/06,865,874,861,861,16600,861
2014/08/07,861,874,861,874,14600,874
2014/08/08,874,875,851,861,29400,861
2014/08/11,870,873,858,864,14800,864
2014/08/12,872,872,865,866,10100,866
2014/08/13,866,871,865,869,11400,869
2014/08/14,865,888,865,875,16200,875
2014/08/15,875,884,875,879,7700,879
2014/08/18,880,880,871,874,11300,874
2014/08/19,874,876,870,874,11900,874
2014/08/20,872,888,872,876,12900,876
2014/08/21,876,886,876,882,14000,882
2014/08/22,884,886,873,878,15900,878
2014/08/25,888,927,881,908,109500,908
2014/08/26,910,911,889,901,26900,901
2014/08/27,890,901,890,896,13000,896
2014/08/28,895,899,890,899,15600,899
2014/08/29,899,901,894,898,20300,898
2014/09/01,920,931,918,927,52300,927
2014/09/02,930,930,918,929,20200,929
2014/09/03,930,934,928,932,15800,932
2014/09/04,930,932,926,927,12300,927
2014/09/05,922,930,922,927,18700,927
2014/09/08,950,974,940,974,80500,974
2014/09/09,973,974,950,961,46700,961
2014/09/10,950,958,930,941,27400,941
2014/09/11,944,953,935,952,14700,952
2014/09/12,960,961,950,959,30700,959
2014/09/16,958,958,955,956,13500,956
2014/09/17,954,959,952,957,11200,957
2014/09/18,955,966,955,966,16800,966
2014/09/19,966,975,965,974,22800,974
2014/09/22,975,978,971,973,18700,973
2014/09/24,970,977,966,976,21000,976
2014/09/25,980,989,979,989,100200,989
2014/09/26,950,970,949,969,42100,969
2014/09/29,973,1001,973,990,40400,990
2014/09/30,981,985,974,982,18200,982
2014/10/01,972,988,972,973,19000,973
2014/10/02,951,956,928,942,37200,942
2014/10/03,940,949,933,947,15600,947
2014/10/06,947,973,939,966,18400,966
2014/10/07,957,969,954,956,14600,956
2014/10/08,932,949,928,940,16400,940
2014/10/09,938,943,929,930,13100,930
2014/10/10,918,918,893,913,21500,913
2014/10/14,900,906,897,899,16100,899
2014/10/15,894,905,890,905,15000,905
2014/10/16,901,902,885,886,13200,886
2014/10/17,882,884,860,862,31800,862
2014/10/20,892,902,886,894,10500,894
2014/10/21,894,902,870,889,8900,889
2014/10/22,894,910,892,900,12000,900
2014/10/23,888,903,888,890,4600,890
2014/10/24,896,901,896,896,4400,896
2014/10/27,896,902,892,900,6600,900
2014/10/28,915,915,897,901,10900,901
2014/10/29,910,912,902,908,5600,908
2014/10/30,917,917,908,908,7900,908
2014/10/31,909,926,904,926,14900,926
2014/11/04,939,945,927,929,14700,929
2014/11/05,920,939,915,932,38500,932
2014/11/06,932,933,920,928,16100,928
2014/11/07,938,940,930,933,10500,933
2014/11/10,925,937,925,936,4600,936
2014/11/11,936,940,933,937,6900,937
2014/11/12,935,938,899,919,15400,919
2014/11/13,911,937,908,915,21800,915
2014/11/14,927,927,912,917,10200,917
2014/11/17,917,919,903,905,13900,905
2014/11/18,900,913,900,913,9300,913
2014/11/19,902,917,902,915,14900,915
2014/11/20,917,930,915,926,20800,926
2014/11/21,928,932,921,929,6800,929
2014/11/25,932,938,930,936,8000,936
2014/11/26,937,939,925,933,9700,933
2014/11/27,933,935,921,927,34300,927
2014/11/28,933,933,925,929,12300,929
2014/12/01,932,933,920,921,22100,921
2014/12/02,920,924,911,920,18600,920
2014/12/03,921,924,917,920,14900,920
2014/12/04,924,927,919,923,13000,923
2014/12/05,925,926,919,922,20900,922
2014/12/08,920,922,916,918,14800,918
2014/12/09,917,920,913,915,11800,915
2014/12/10,915,917,905,907,22100,907
2014/12/11,901,913,901,906,11000,906
2014/12/12,896,914,896,907,35600,907
2014/12/15,910,915,908,910,10300,910
2014/12/16,910,910,898,899,17600,899
2014/12/17,896,902,890,892,16900,892
2014/12/18,907,907,890,895,13000,895
2014/12/19,905,918,905,918,19600,918
2014/12/22,920,920,908,911,18600,911
2014/12/24,909,915,909,913,20000,913
2014/12/25,920,920,915,918,14600,918
2014/12/26,913,925,913,925,16800,925
2014/12/29,924,924,918,921,9200,921
2014/12/30,925,925,920,921,5600,921
2015/01/05,920,920,909,913,21200,913
2015/01/06,913,913,894,895,38900,895
2015/01/07,895,906,895,901,10800,901
2015/01/08,911,911,902,904,8400,904
2015/01/09,905,910,902,905,8200,905
2015/01/13,905,905,901,902,7400,902
2015/01/14,905,907,898,898,8900,898
2015/01/15,903,906,898,901,9100,901
2015/01/16,897,903,892,895,15400,895
2015/01/19,907,907,895,901,10200,901
2015/01/20,903,908,900,905,10600,905
2015/01/21,905,908,903,906,6700,906
2015/01/22,906,906,900,904,7700,904
2015/01/23,906,912,904,911,8000,911
2015/01/26,908,922,908,919,9200,919
2015/01/27,923,925,917,925,10400,925
2015/01/28,928,929,923,929,6600,929
2015/01/29,924,929,920,920,13200,920
2015/01/30,929,941,920,927,18600,927
2015/02/02,925,935,921,924,9300,924
2015/02/03,924,928,907,907,14800,907
2015/02/04,912,925,912,924,9100,924
2015/02/05,918,923,913,921,5900,921
2015/02/06,924,926,916,925,7200,925
2015/02/09,925,935,922,932,13400,932
2015/02/10,935,938,928,931,14000,931
2015/02/12,938,939,934,938,11200,938
2015/02/13,940,948,937,945,25500,945
2015/02/16,950,960,949,958,18600,958
2015/02/17,956,964,954,955,9300,955
2015/02/18,961,961,951,953,12200,953
2015/02/19,953,959,953,959,10000,959
2015/02/20,959,960,950,951,14400,951
2015/02/23,951,952,937,942,20000,942
2015/02/24,942,954,942,946,8600,946
2015/02/25,950,950,943,944,11800,944
2015/02/26,947,951,946,947,9700,947
2015/02/27,947,949,943,943,12600,943
2015/03/02,950,954,948,949,12400,949
2015/03/03,945,950,944,947,13500,947
2015/03/04,945,945,940,940,16000,940
2015/03/05,940,942,935,935,17200,935
2015/03/06,935,937,927,932,18600,932
2015/03/09,932,940,928,939,18000,939
2015/03/10,948,948,935,939,19100,939
2015/03/11,944,949,942,943,19800,943
2015/03/12,944,950,942,945,21200,945
2015/03/13,959,960,950,959,28200,959
2015/03/16,958,964,956,961,21900,961
2015/03/17,960,968,960,966,23000,966
2015/03/18,969,980,967,975,17300,975
2015/03/19,975,995,967,989,41500,989
2015/03/20,989,990,982,990,18800,990
2015/03/23,996,996,985,987,23700,987
2015/03/24,988,992,986,990,14900,990
2015/03/25,989,990,984,990,18400,990
2015/03/26,975,989,973,984,61500,984
2015/03/27,968,970,928,941,51500,941
2015/03/30,940,945,930,930,17400,930
2015/03/31,940,950,922,926,20400,926
2015/04/01,920,927,913,920,26000,920
2015/04/02,931,944,929,940,15200,940
2015/04/03,946,951,932,943,19000,943
2015/04/06,942,943,930,938,10900,938
2015/04/07,939,949,936,948,22600,948
2015/04/08,945,950,938,949,26000,949
2015/04/09,948,948,940,947,9500,947
2015/04/10,947,948,936,939,18600,939
2015/04/13,948,950,943,945,20900,945
2015/04/14,947,952,946,950,18100,950
2015/04/15,950,951,944,944,16800,944
2015/04/16,945,948,944,948,12000,948
2015/04/17,950,950,945,949,6800,949
2015/04/20,945,945,939,941,13500,941
2015/04/21,941,948,941,948,12000,948
2015/04/22,943,962,943,962,27600,962
2015/04/23,962,964,949,952,10400,952
2015/04/24,960,960,945,948,11800,948
2015/04/27,948,957,945,950,9100,950
2015/04/28,949,953,940,940,20300,940
2015/04/30,935,937,931,936,15600,936
2015/05/01,933,940,933,937,9200,937
2015/05/07,940,944,935,935,9600,935
2015/05/08,938,950,937,950,17500,950
2015/05/11,953,969,951,961,33400,961
2015/05/12,957,965,951,954,15600,954
2015/05/13,956,957,949,953,7700,953
2015/05/14,949,949,936,940,17100,940
2015/05/15,942,947,940,947,8700,947
2015/05/18,948,953,946,952,6600,952
2015/05/19,952,952,942,947,17100,947
2015/05/20,950,950,938,942,15100,942
2015/05/21,946,946,938,943,9400,943
2015/05/22,946,946,938,939,8400,939
2015/05/25,939,942,936,938,15300,938
2015/05/26,938,942,938,941,6000,941
2015/05/27,944,945,939,945,7200,945
2015/05/28,948,949,933,939,18100,939
2015/05/29,946,946,937,943,10700,943
2015/06/01,943,946,933,940,15600,940
2015/06/02,945,945,936,941,10300,941
2015/06/03,932,937,932,933,14900,933
2015/06/04,939,946,931,942,16900,942
2015/06/05,936,945,936,941,13700,941
2015/06/08,945,949,940,945,17700,945
2015/06/09,946,947,941,941,10100,941
2015/06/10,948,948,941,943,14900,943
2015/06/11,941,944,937,939,10300,939
2015/06/12,945,950,943,950,41300,950
2015/06/15,950,957,945,956,14500,956
2015/06/16,956,961,948,949,11200,949
2015/06/17,949,950,946,946,6600,946
2015/06/18,946,950,945,945,12600,945
2015/06/19,945,949,941,948,15200,948
2015/06/22,955,965,950,958,22000,958
2015/06/23,957,960,945,958,23200,958
2015/06/24,958,960,949,954,14300,954
2015/06/25,954,958,952,952,6400,952
2015/06/26,952,954,945,945,15800,945
2015/06/29,930,938,924,928,30400,928
2015/06/30,933,946,932,946,13400,946
2015/07/01,945,951,944,945,5800,945
