2011/01/04,107000,107000,104500,105000,19,1050
2011/01/05,105500,105500,104000,105500,14,1055
2011/01/06,104600,111800,103500,106000,73,1060
2011/01/07,107000,121800,107000,116700,127,1167
2011/01/11,118000,118000,112000,114000,60,1140
2011/01/12,113600,116700,112100,114900,59,1149
2011/01/13,116000,127500,114400,123000,160,1230
2011/01/14,120000,132900,119000,127000,88,1270
2011/01/17,127000,128900,119600,122600,69,1226
2011/01/18,119700,120000,117000,117000,26,1170
2011/01/19,114100,116300,112600,116300,32,1163
2011/01/20,113300,113300,106100,109600,45,1096
2011/01/21,106800,108000,100800,101800,50,1018
2011/01/24,98800,103400,98800,103400,27,1034
2011/01/25,103400,104800,102000,103900,12,1039
2011/01/26,104500,107700,103800,107700,12,1077
2011/01/27,101700,104000,100300,104000,68,1040
2011/01/28,104000,104000,100200,100400,27,1004
2011/01/31,99100,99600,99000,99200,38,992
2011/02/01,99200,100500,99200,100500,4,1005
2011/02/02,101000,101000,99000,100800,6,1008
2011/02/03,100000,100000,99100,99800,11,998
2011/02/04,99800,114800,99000,114800,148,1148
2011/02/07,129800,129800,118800,121000,160,1210
2011/02/08,118200,122000,115100,115600,68,1156
2011/02/09,117900,117900,112500,112500,35,1125
2011/02/10,111500,114000,111500,112200,12,1122
2011/02/14,113500,117600,111100,115000,23,1150
2011/02/15,116700,117000,112000,113000,31,1130
2011/02/16,121000,128000,114100,116300,108,1163
2011/02/17,116800,120000,114500,114500,34,1145
2011/02/18,114500,114500,111600,111800,23,1118
2011/02/21,110200,113000,109100,112000,29,1120
2011/02/22,112000,112000,109000,111000,20,1110
2011/02/23,109500,109700,108500,109000,6,1090
2011/02/24,107500,108000,101000,102500,46,1025
2011/02/25,99500,101000,99000,101000,15,1010
2011/02/28,101000,110000,101000,109300,21,1093
2011/03/01,111500,114000,109000,109200,28,1092
2011/03/02,106000,110000,106000,110000,9,1100
2011/03/03,108200,108200,108000,108000,2,1080
2011/03/04,110000,110800,107100,109000,8,1090
2011/03/07,109900,109900,105000,105000,8,1050
2011/03/08,102000,102000,101300,101700,17,1017
2011/03/09,102000,102100,101000,101100,23,1011
2011/03/10,101100,101100,98000,98100,30,981
2011/03/11,98100,98100,92600,94500,15,945
2011/03/14,79500,79500,79500,79500,16,795
2011/03/15,64500,64500,64500,64500,25,645
2011/03/16,59500,65500,58500,63000,143,630
2011/03/17,60000,63000,59200,63000,33,630
2011/03/18,68500,73000,65800,73000,39,730
2011/03/22,88000,88000,88000,88000,11,880
2011/03/23,88000,88000,79000,82600,42,826
2011/03/24,84100,84500,82600,84000,21,840
2011/03/25,81400,81400,79000,80000,9,800
2011/03/28,77500,77500,77000,77000,11,770
2011/03/29,75000,77000,70500,77000,12,770
2011/03/30,80000,81500,80000,81500,6,815
2011/03/31,80000,80000,80000,80000,7,800
2011/04/01,80000,80000,76000,76000,5,760
2011/04/04,74500,75200,74000,75200,9,752
2011/04/06,72200,72200,72200,72200,4,722
2011/04/07,72200,72600,72200,72600,4,726
2011/04/08,72000,72700,72000,72700,4,727
2011/04/11,72600,72700,70800,72700,5,727
2011/04/12,72600,72600,72000,72000,3,720
2011/04/13,75000,75000,75000,75000,1,750
2011/04/15,79500,80000,75000,80000,13,800
2011/04/18,80400,86500,80400,83500,23,835
2011/04/19,83500,85000,80000,81500,16,815
2011/04/20,78400,78400,76600,76800,52,768
2011/04/21,78000,78000,76500,76500,13,765
2011/04/22,76500,76500,75000,75000,6,750
2011/04/25,75000,75100,75000,75100,4,751
2011/04/26,78700,79900,77900,79700,10,797
2011/04/27,80000,80000,80000,80000,21,800
2011/04/28,80000,80000,76900,78000,4,780
2011/05/02,78000,78000,77500,77700,6,777
2011/05/06,79200,79500,79100,79500,4,795
2011/05/09,80000,82500,79000,80000,13,800
2011/05/10,80100,86900,79600,86500,28,865
2011/05/11,96500,99000,89900,89900,65,899
2011/05/12,83500,86500,83000,83100,13,831
2011/05/13,80100,80100,76000,77000,12,770
2011/05/16,77000,92000,76000,87000,70,870
2011/05/17,86500,86500,80000,80300,20,803
2011/05/18,78800,80300,78200,78900,19,789
2011/05/19,79900,80000,72500,75900,36,759
2011/05/20,74700,76200,74700,76000,9,760
2011/05/23,75000,75000,73000,74500,7,745
2011/05/24,73900,77500,73900,76000,11,760
2011/05/25,76000,76000,76000,76000,2,760
2011/05/26,75500,75500,73100,74000,19,740
2011/05/27,73100,73100,73100,73100,3,731
2011/05/30,73600,74500,73600,74500,9,745
2011/05/31,74500,74500,74500,74500,2,745
2011/06/01,76000,76000,75800,75900,5,759
2011/06/02,75000,75600,73200,75600,6,756
2011/06/03,75600,75600,74500,74500,2,745
2011/06/06,74600,74600,74600,74600,3,746
2011/06/07,74500,74500,74300,74500,5,745
2011/06/08,74100,74600,74000,74600,6,746
2011/06/09,74500,74500,74200,74200,4,742
2011/06/10,75700,78000,75700,78000,10,780
2011/06/13,80000,82000,80000,80000,17,800
2011/06/14,80000,80100,80000,80000,9,800
2011/06/15,80000,80000,80000,80000,18,800
2011/06/16,79100,80000,78000,80000,12,800
2011/06/17,85300,95000,82000,86500,228,865
2011/06/20,83500,89000,81700,83300,65,833
2011/06/21,82100,86000,81000,84200,36,842
2011/06/22,83000,83600,79000,80600,24,806
2011/06/23,80100,81500,79900,79900,10,799
2011/06/24,79200,79700,78600,78700,10,787
2011/06/27,77200,82500,77200,82000,19,820
2011/06/28,83500,83500,82000,82000,2,820
2011/06/29,85000,85900,83500,85900,9,859
2011/06/30,87400,93500,87400,88000,18,880
2011/07/01,88000,88000,88000,88000,1,880
2011/07/04,88000,88000,86100,87500,18,875
2011/07/05,87500,87500,83600,83600,5,836
2011/07/06,83000,83000,82500,82500,2,825
2011/07/07,82500,82500,82500,82500,6,825
2011/07/08,82600,85200,82600,85200,8,852
2011/07/11,85200,85200,85200,85200,1,852
2011/07/12,84000,84000,84000,84000,1,840
2011/07/14,84000,84000,82500,82500,2,825
2011/07/15,82500,82500,80900,81000,15,810
2011/07/19,80200,82500,80200,82500,6,825
2011/07/20,82500,82500,80500,80500,9,805
2011/07/21,80000,80500,79000,80500,15,805
2011/07/22,80500,82000,80000,81500,13,815
2011/07/25,80000,80000,80000,80000,7,800
2011/07/26,80000,80000,80000,80000,2,800
2011/07/27,80000,80000,80000,80000,9,800
2011/07/28,78500,78500,77000,78500,13,785
2011/07/29,77000,77700,75300,77700,21,777
2011/08/01,80000,80000,80000,80000,4,800
2011/08/02,77500,77500,74500,76000,26,760
2011/08/03,74500,74500,70100,73500,19,735
2011/08/04,75000,78500,75000,78300,9,783
2011/08/05,69300,75000,69300,74900,27,749
2011/08/08,71900,71900,68000,68000,31,680
2011/08/09,68000,68400,63400,67600,9,676
2011/08/10,68000,68400,67000,68400,26,684
2011/08/11,65000,65200,65000,65200,10,652
2011/08/12,66100,68500,65500,68500,6,685
2011/08/15,72000,74500,70000,74500,13,745
2011/08/16,74300,74300,71500,71500,12,715
2011/08/17,71500,72500,71500,72500,5,725
2011/08/18,71000,71000,71000,71000,3,710
2011/08/19,69500,71000,69500,71000,6,710
2011/08/22,70000,70000,70000,70000,1,700
2011/08/23,69500,69500,69500,69500,1,695
2011/08/24,66500,69500,66500,69500,3,695
2011/08/26,68500,69000,68000,69000,3,690
2011/08/29,70000,70000,69800,69800,4,698
2011/08/30,68800,68800,68600,68700,4,687
2011/08/31,69000,69000,69000,69000,1,690
2011/09/01,68500,68600,68500,68600,2,686
2011/09/02,68000,68000,68000,68000,4,680
2011/09/05,67000,67000,67000,67000,1,670
2011/09/06,66800,66800,64200,64200,10,642
2011/09/07,65000,65000,63100,64100,4,641
2011/09/08,64100,64100,64100,64100,2,641
2011/09/12,64100,64100,64000,64000,3,640
2011/09/13,62000,62000,60000,61200,10,612
2011/09/14,61700,61800,60800,60800,8,608
2011/09/15,61000,61000,59300,60300,8,603
2011/09/16,61000,61000,61000,61000,1,610
2011/09/20,61000,61000,59000,59000,7,590
2011/09/21,59000,59000,56000,56000,6,560
2011/09/22,56000,56000,54000,54000,10,540
2011/09/26,52000,52000,49000,49000,8,490
2011/09/27,48300,48300,45000,46000,53,460
2011/09/29,46950,48000,44300,48000,43,480
2011/09/30,48000,48300,48000,48200,11,482
2011/10/03,47500,47500,45100,45200,16,452
2011/10/04,44300,44300,42000,42000,28,420
2011/10/05,43400,43400,41800,42000,14,420
2011/10/06,45000,45000,43100,43100,9,431
2011/10/07,43400,43400,41300,42500,26,425
2011/10/11,44400,47000,44400,46900,38,469
2011/10/12,48300,51400,48300,50900,20,509
2011/10/13,50900,52300,49350,49600,13,496
2011/10/14,51500,51500,51500,51500,2,515
2011/10/17,52500,56800,51600,51600,25,516
2011/10/18,51000,51000,50000,50000,8,500
2011/10/19,51000,51000,51000,51000,1,510
2011/10/20,50800,50800,50800,50800,2,508
2011/10/26,50700,50700,49000,49900,3,499
2011/10/28,51000,52500,51000,51000,8,510
2011/10/31,51500,53000,51000,53000,7,530
2011/11/01,51000,51000,51000,51000,4,510
2011/11/02,51200,54900,50300,54800,18,548
2011/11/04,53800,64000,53800,58000,43,580
2011/11/07,62000,68000,62000,68000,29,680
2011/11/08,70000,78000,65300,65300,70,653
2011/11/09,65300,65300,58000,60100,26,601
2011/11/10,57100,61000,56000,60000,20,600
2011/11/11,57500,58000,54500,54800,20,548
2011/11/14,54100,56100,54100,56100,9,561
2011/11/15,54100,54100,53800,53800,9,538
2011/11/16,52000,52900,50900,50900,4,509
2011/11/17,51900,54400,50500,50500,15,505
2011/11/21,46600,46600,45700,45700,9,457
2011/11/22,44000,46800,44000,46800,2,468
2011/11/24,45000,45000,43000,43000,16,430
2011/11/25,43800,44000,43800,44000,7,440
2011/11/28,44500,49000,44500,47500,13,475
2011/11/29,50300,50500,48000,48000,15,480
2011/11/30,50200,50200,47600,47600,8,476
2011/12/01,49000,49000,48000,48500,7,485
2011/12/02,49500,49500,48500,48500,8,485
2011/12/05,48000,54800,48000,53700,25,537
2011/12/06,53700,53700,49900,51000,14,510
2011/12/07,50000,51500,49900,50000,7,500
2011/12/08,53000,60000,53000,60000,101,600
2011/12/09,70000,70000,70000,70000,28,700
2011/12/12,85000,85000,80000,85000,315,850
2011/12/13,79000,79900,72500,73500,143,735
2011/12/14,70500,72000,68000,71200,89,712
2011/12/15,71900,86200,71900,86200,174,862
2011/12/16,87000,99800,87000,92500,327,925
2011/12/19,95500,95500,82500,85700,76,857
2011/12/20,79200,79200,74100,77500,132,775
2011/12/21,85000,85000,77300,77300,91,773
2011/12/22,78800,78800,72000,75100,59,751
2011/12/26,76500,76600,70300,72400,51,724
2011/12/27,73900,73900,69800,69800,49,698
2011/12/28,69500,69900,66800,69900,11,699
2011/12/29,68200,71900,68200,71800,15,718
2011/12/30,69200,72600,69200,72000,16,720
2012/01/04,71300,71500,68700,70200,12,702
2012/01/05,69000,73800,68600,73800,14,738
2012/01/06,73800,74500,71500,71500,11,715
2012/01/10,70500,70500,66700,67500,30,675
2012/01/11,67500,67500,67500,67500,8,675
2012/01/12,67500,67500,64400,64400,37,644
2012/01/13,67500,67500,60200,62500,75,625
2012/01/16,61500,62000,60300,62000,33,620
2012/01/17,61200,62100,60300,62100,12,621
2012/01/18,61700,61700,60300,60500,10,605
2012/01/19,61900,62500,60600,60600,27,606
2012/01/20,61500,61500,60600,61200,9,612
2012/01/23,62200,63200,61500,61600,13,616
2012/01/24,62300,62300,61000,61700,11,617
2012/01/25,62300,62500,62300,62500,3,625
2012/01/26,62500,66500,61900,65500,36,655
2012/01/27,66500,66500,63500,63500,20,635
2012/01/30,64000,73500,64000,69000,178,690
2012/01/31,67000,67000,64500,66100,45,661
2012/02/01,66300,70500,66300,69200,44,692
2012/02/02,68500,68900,66200,68800,28,688
2012/02/03,68100,74200,68100,70500,65,705
2012/02/06,70700,76700,70700,73000,60,730
2012/02/07,73600,87900,73100,79000,160,790
2012/02/08,80500,85000,75600,75600,79,756
2012/02/09,75600,75800,72100,74700,34,747
2012/02/10,76200,76200,72000,73600,21,736
2012/02/13,72100,73800,72100,73200,15,732
2012/02/14,74400,74400,72700,74400,19,744
2012/02/15,67200,68000,65300,67500,102,675
2012/02/16,67000,68000,65400,66200,47,662
2012/02/17,65600,67000,65600,66500,20,665
2012/02/20,66500,66500,64000,64100,42,641
2012/02/21,62200,62600,61000,62100,28,621
2012/02/22,66100,66200,64100,64500,21,645
2012/02/23,64800,68000,64800,68000,21,680
2012/02/24,67100,68700,67000,68000,5,680
2012/02/27,66000,67900,66000,66100,12,661
2012/02/28,66100,66100,66000,66000,3,660
2012/02/29,66300,66500,62500,65500,18,655
2012/03/01,64100,64300,64100,64100,5,641
2012/03/02,61500,63500,61500,62100,25,621
2012/03/05,64100,67000,63800,67000,15,670
2012/03/06,66000,66500,64500,65500,9,655
2012/03/07,65900,66500,65900,66500,13,665
2012/03/08,67200,68800,67000,68500,31,685
2012/03/09,68500,68500,66500,66500,7,665
2012/03/12,66700,69800,66700,67800,24,678
2012/03/13,68000,68800,68000,68800,4,688
2012/03/14,69000,70000,68800,70000,10,700
2012/03/15,73000,75000,65400,65500,44,655
2012/03/16,66600,71000,66600,70500,25,705
2012/03/19,72000,72000,71800,71800,12,718
2012/03/21,71800,72100,71200,72100,15,721
2012/03/22,69100,72100,69100,72100,20,721
2012/03/26,72100,72100,72100,72100,2,721
2012/03/28,71500,71500,71300,71500,12,715
2012/03/29,68700,70700,68700,70700,2,707
2012/03/30,70000,70500,68200,70500,15,705
2012/04/02,70000,70000,68200,69100,13,691
2012/04/03,68300,70300,68300,69900,3,699
2012/04/04,70000,70300,69700,70200,16,702
2012/04/05,70000,71000,70000,71000,6,710
2012/04/06,71000,72200,71000,72200,15,722
2012/04/09,72200,72200,72200,72200,2,722
2012/04/10,72200,74500,72200,74500,17,745
2012/04/11,72400,74500,72400,74500,2,745
2012/04/12,74500,74500,74000,74000,11,740
2012/04/13,75000,75000,74000,74000,3,740
2012/04/16,74000,76900,74000,75000,19,750
2012/04/17,74600,74600,71000,71500,14,715
2012/04/18,72000,72000,72000,72000,3,720
2012/04/19,73500,73500,73500,73500,2,735
2012/04/20,71500,71500,71000,71000,4,710
2012/04/23,70000,70000,70000,70000,1,700
2012/04/24,69900,69900,69000,69000,4,690
2012/04/26,69000,69000,68000,68000,3,680
2012/04/27,68000,68000,66600,67600,7,676
2012/05/01,68500,68500,67000,67000,5,670
2012/05/07,66000,66000,66000,66000,2,660
2012/05/09,62300,62300,61600,61600,9,616
2012/05/10,60100,60900,60100,60900,4,609
2012/05/11,62900,62900,61000,61000,6,610
2012/05/14,61000,61000,59900,59900,10,599
2012/05/15,62900,62900,55000,56000,20,560
2012/05/16,57000,57000,56100,56100,4,561
2012/05/17,53500,56000,53500,56000,2,560
2012/05/18,56000,57000,56000,56000,4,560
2012/05/21,53000,54000,53000,54000,3,540
2012/05/22,59000,59000,59000,59000,1,590
2012/05/23,60000,61000,60000,61000,14,610
2012/05/24,61000,61000,61000,61000,5,610
2012/05/25,55000,62000,54000,62000,11,620
2012/05/28,62000,62000,62000,62000,1,620
2012/05/30,55000,55000,53100,53100,10,531
2012/05/31,52100,52200,51500,51500,13,515
2012/06/01,50500,53800,50200,53800,11,538
2012/06/04,50800,50800,49200,49200,5,492
2012/06/05,49900,50900,49900,50900,3,509
2012/06/06,51000,54800,51000,54800,20,548
2012/06/07,56800,56800,53000,54500,10,545
2012/06/11,56000,56000,54500,54500,10,545
2012/06/12,54500,54500,54500,54500,7,545
2012/06/13,55100,56100,55100,56100,3,561
2012/06/14,56000,56000,55500,55500,3,555
2012/06/15,61000,65500,61000,65500,23,655
2012/06/18,75500,75500,75500,75500,6,755
2012/06/19,80000,89000,77500,79000,279,790
2012/06/20,92000,94000,90000,94000,372,940
2012/06/21,98500,109000,90100,109000,445,1090
2012/06/22,138700,139000,136000,139000,482,1390
2012/06/25,169000,169000,150000,169000,704,1690
2012/06/26,137000,158000,137000,142000,776,1420
2012/06/27,141900,141900,116000,120000,423,1200
2012/06/28,123000,128000,112200,112200,375,1122
2012/06/29,142200,142200,142200,142200,222,1422
2012/07/02,148200,160000,126000,127700,604,1277
2012/07/03,120500,124800,115500,118100,216,1181
2012/07/04,114200,116900,112100,112200,183,1122
2012/07/05,111000,127000,110100,122900,347,1229
2012/07/06,118100,119000,100800,117500,319,1175
2012/07/09,117000,117000,103200,105000,111,1050
2012/07/10,99500,103000,98500,99000,140,990
2012/07/11,103000,103000,94000,95100,134,951
2012/07/12,96000,96000,90300,90300,79,903
2012/07/13,90900,90900,87200,90000,80,900
2012/07/17,92700,93900,86000,86000,66,860
2012/07/18,86300,86500,77500,78600,146,786
2012/07/19,81000,87700,80000,80000,120,800
2012/07/20,80300,86900,80300,85200,73,852
2012/07/23,81100,84900,81000,81000,48,810
2012/07/24,81000,81000,78000,79400,49,794
2012/07/25,79400,79400,73200,73200,19,732
2012/07/26,72500,74200,70300,71500,50,715
2012/07/27,73000,76800,73000,73000,40,730
2012/07/30,79700,82000,78700,80000,49,800
2012/07/31,75500,77000,73100,76200,55,762
2012/08/01,77200,83400,77200,83400,60,834
2012/08/02,80400,81000,77700,80000,66,800
2012/08/03,80200,80900,78600,78800,37,788
2012/08/06,78300,80000,76200,78800,44,788
2012/08/07,79200,82000,79200,80600,18,806
2012/08/08,82000,82000,80900,81100,7,811
2012/08/09,94600,96100,94600,96100,116,961
2012/08/10,111100,111100,107200,111100,284,1111
2012/08/13,99100,103700,94700,98500,267,985
2012/08/14,97100,97800,90100,92600,84,926
2012/08/15,90800,94900,90000,92400,65,924
2012/08/16,90900,90900,87300,88000,79,880
2012/08/17,88000,88700,87000,88100,35,881
2012/08/20,88800,88800,86100,86300,29,863
2012/08/21,85100,87600,85100,86100,23,861
2012/08/22,87600,87600,85600,86000,23,860
2012/08/23,88900,89400,86700,86700,20,867
2012/08/24,86700,87700,85000,85000,38,850
2012/08/27,86500,86500,85300,86500,6,865
2012/08/28,84800,87800,84200,84200,24,842
2012/08/29,84100,85600,82800,85000,25,850
2012/08/30,86000,89300,83300,83300,28,833
2012/08/31,82700,82900,81400,81600,25,816
2012/09/03,81900,82000,79600,82000,33,820
2012/09/04,79500,80700,79500,79600,29,796
2012/09/05,80600,80600,78600,78600,14,786
2012/09/06,77100,78000,77100,78000,4,780
2012/09/07,79000,79000,79000,79000,1,790
2012/09/10,77500,78400,77500,78400,2,784
2012/09/11,78500,78500,76200,76700,12,767
2012/09/12,76000,76000,75000,76000,26,760
2012/09/13,77500,77500,76000,77000,20,770
2012/09/14,77300,79700,77300,79600,10,796
2012/09/18,82600,83500,81000,81500,41,815
2012/09/19,80500,80500,78200,78600,22,786
2012/09/20,78200,82000,77900,78300,38,783
2012/09/21,77100,78000,76700,76700,19,767
2012/09/24,76700,78000,76700,78000,8,780
2012/09/25,77300,77300,76900,76900,5,769
2012/09/26,76700,76900,76000,76100,11,761
2012/09/27,76100,76100,75100,75600,17,756
2012/09/28,75300,76500,74500,75200,22,752
2012/10/01,74500,74500,74000,74000,6,740
2012/10/02,73600,73600,72400,72400,15,724
2012/10/03,73500,75000,73500,74200,8,742
2012/10/04,74000,74000,72200,73000,14,730
2012/10/05,73800,74000,73200,73200,5,732
2012/10/09,76200,88200,76200,88200,154,882
2012/10/10,95700,96500,81000,82000,174,820
2012/10/11,82500,86500,82000,83000,19,830
2012/10/12,86000,98000,85900,98000,101,980
2012/10/15,113000,113000,113000,113000,45,1130
2012/10/16,119000,141900,117000,128900,919,1289
2012/10/17,129000,130000,102400,102800,281,1028
2012/10/18,100000,107500,99000,103000,151,1030
2012/10/19,101500,107000,100000,106500,108,1065
2012/10/22,103500,110000,102500,106000,59,1060
2012/10/23,107500,107500,100000,100500,81,1005
2012/10/24,100800,102200,100000,101000,46,1010
2012/10/25,101100,131000,100800,131000,268,1310
2012/10/26,134000,142000,121000,126500,352,1265
2012/10/29,125000,126000,118000,120700,56,1207
2012/10/30,123700,123700,115000,118500,40,1185
2012/10/31,118500,142000,118500,124800,275,1248
2012/11/01,124800,127800,118300,122100,58,1221
2012/11/02,122200,126000,120300,121500,36,1215
2012/11/05,127500,133000,124500,131500,70,1315
2012/11/06,134000,136500,131000,135000,105,1350
2012/11/07,137000,145000,130000,131500,201,1315
2012/11/08,127100,135000,126700,134000,53,1340
2012/11/09,119000,121000,112000,119500,158,1195
2012/11/12,118300,118300,105100,105200,112,1052
2012/11/13,105200,109000,100500,102000,107,1020
2012/11/14,104500,104500,100100,100600,59,1006
2012/11/15,101100,106100,98100,103000,49,1030
2012/11/16,103000,103000,100100,101000,12,1010
2012/11/19,102000,102900,101500,101500,7,1015
2012/11/20,101100,102500,100700,102000,22,1020
2012/11/21,108000,115000,103400,105000,91,1050
2012/11/22,105000,109000,104000,107000,40,1070
2012/11/26,105500,105500,103300,105000,16,1050
2012/11/27,103400,105000,102500,105000,14,1050
2012/11/28,105000,110000,104900,104900,41,1049
2012/11/29,105100,111800,105100,105100,50,1051
2012/11/30,106100,106100,104300,104300,21,1043
2012/12/03,103500,104500,103500,103600,12,1036
2012/12/04,106600,107000,103000,103000,14,1030
2012/12/05,103000,104000,100500,103000,18,1030
2012/12/06,103000,103000,100300,103000,20,1030
2012/12/07,102000,102000,100500,100600,24,1006
2012/12/10,103600,103600,100800,100800,15,1008
2012/12/11,100800,102500,100800,102500,9,1025
2012/12/12,102000,102000,101000,101000,6,1010
2012/12/13,100700,101500,98500,101500,19,1015
2012/12/14,101800,103000,101000,102500,13,1025
2012/12/17,102800,105000,101500,105000,23,1050
2012/12/18,104900,104900,101500,101500,10,1015
2012/12/19,100700,105000,97600,100600,72,1006
2012/12/20,97100,99500,97100,98500,25,985
2012/12/21,97600,99800,97300,98000,9,980
2012/12/25,96500,98000,95100,98000,32,980
2012/12/26,97000,98300,96400,98300,9,983
2012/12/27,99000,99000,97900,98900,10,989
2012/12/28,99000,99500,98000,98000,5,980
2013/01/04,98600,100100,95000,97600,41,976
2013/01/07,97600,101900,97500,101900,32,1019
2013/01/08,103000,104000,101200,101300,15,1013
2013/01/09,103600,104000,101100,104000,21,1040
2013/01/10,104000,104500,101700,102000,35,1020
2013/01/11,103600,104500,102000,104000,19,1040
2013/01/15,104100,104900,102400,104500,33,1045
2013/01/16,103900,103900,102200,102500,11,1025
2013/01/17,102500,104900,102500,103100,27,1031
2013/01/18,105400,133100,103100,127000,1037,1270
2013/01/21,133200,147000,119100,128000,462,1280
2013/01/22,116200,120500,115200,116500,182,1165
2013/01/23,113200,116300,113100,113200,160,1132
2013/01/24,112200,116500,112000,114000,49,1140
2013/01/25,115000,122500,115000,116200,66,1162
2013/01/28,122200,123700,117000,119900,88,1199
2013/01/29,120900,120900,114000,114000,65,1140
2013/01/30,112000,117000,109000,116000,80,1160
2013/01/31,116000,116000,113000,113100,10,1131
2013/02/01,115900,119000,115500,115500,16,1155
2013/02/04,119400,120700,112000,113500,30,1135
2013/02/05,112000,116500,110000,116500,26,1165
2013/02/06,118900,118900,113100,114300,22,1143
2013/02/07,112600,115400,112500,115400,9,1154
2013/02/08,112400,118500,112400,115800,19,1158
2013/02/12,112800,114500,112500,112600,20,1126
2013/02/13,127600,138500,115000,120900,354,1209
2013/02/14,118000,120900,111000,114300,59,1143
2013/02/15,114300,114300,101500,104500,92,1045
2013/02/18,104600,109500,104500,108000,37,1080
2013/02/19,109500,109500,105500,105500,16,1055
2013/02/20,105500,110000,105500,106600,32,1066
2013/02/21,108100,123000,108100,118900,265,1189
2013/02/22,125000,126000,119000,121500,121,1215
2013/02/25,125000,132000,125000,126000,84,1260
2013/02/26,120000,126000,118800,122100,50,1221
2013/02/27,122400,130000,122000,125300,111,1253
2013/02/28,131300,137800,129300,136000,190,1360
2013/03/01,149000,149000,135100,137400,261,1374
2013/03/04,134400,149000,133000,144900,205,1449
2013/03/05,153000,174900,153000,174900,621,1749
2013/03/06,214900,214900,214900,214900,395,2149
2013/03/07,213000,214000,180000,180900,1127,1809
2013/03/08,184900,193000,170000,175000,528,1750
2013/03/11,172100,172100,155200,155400,205,1554
2013/03/12,156100,164500,153000,162000,185,1620
2013/03/13,162000,171800,159000,167000,144,1670
2013/03/14,170100,205000,170100,192000,643,1920
2013/03/15,196000,203000,175500,183800,298,1838
2013/03/18,180000,191000,179500,182000,116,1820
2013/03/19,190000,192000,183000,186200,126,1862
2013/03/21,198000,218000,193000,208300,517,2083
2013/03/22,222000,255900,215000,232800,764,2328
2013/03/25,242800,247800,202700,223000,398,2230
2013/03/26,213000,222500,210100,220000,167,2200
2013/03/27,219000,220000,213100,218800,120,2188
2013/03/28,232800,248000,222200,248000,317,2480
2013/03/29,273000,293000,251000,269800,799,2698
2013/04/01,274800,279900,240000,253000,496,2530
2013/04/02,218000,250000,212000,236000,267,2360
2013/04/03,241000,263800,241000,263000,219,2630
2013/04/04,262800,262800,240000,249000,199,2490
2013/04/05,255000,265000,238000,238000,190,2380
2013/04/08,235000,237900,226100,233100,128,2331
2013/04/09,232500,237500,229300,232000,99,2320
2013/04/10,229300,238500,229300,237000,57,2370
2013/04/11,235400,236300,221500,223000,159,2230
2013/04/12,220200,224700,218100,219000,70,2190
2013/04/15,219000,231000,219000,224000,96,2240
2013/04/16,235000,236000,225200,236000,97,2360
2013/04/17,244000,244500,236000,242700,107,2427
2013/04/18,237700,240000,231700,231700,111,2317
2013/04/19,236700,236700,228000,231000,37,2310
2013/04/22,228000,229900,225600,226000,125,2260
2013/04/23,223000,226500,217700,220000,115,2200
2013/04/24,224900,232200,217700,222800,142,2228
2013/04/25,227800,227800,219500,219700,62,2197
2013/04/26,227000,227000,220100,220100,44,2201
2013/04/30,221500,225000,220100,221600,40,2216
2013/05/01,223500,229000,222500,222500,64,2225
2013/05/02,230000,232100,225500,232000,158,2320
2013/05/07,242000,242300,233000,236500,210,2365
2013/05/08,241500,256000,240000,242900,305,2429
2013/05/09,272900,282000,262000,262000,368,2620
2013/05/10,290000,292900,262000,280000,343,2800
2013/05/13,280000,280000,262600,262600,149,2626
2013/05/14,270000,309000,265000,308000,608,3080
2013/05/15,378000,378000,378000,378000,120,3780
2013/05/16,350000,363000,308000,339500,937,3395
2013/05/17,320500,335000,304000,309000,271,3090
2013/05/20,318000,349000,316500,348000,338,3480
2013/05/21,370000,372000,317500,320000,314,3200
2013/05/22,300000,310000,265000,290000,284,2900
2013/05/23,287100,287100,251700,251700,161,2517
2013/05/24,269900,269900,231100,253000,133,2530
2013/05/27,250000,250000,231000,234000,71,2340
2013/05/28,234000,249000,229000,234900,121,2349
2013/05/29,239900,249800,238100,245000,81,2450
2013/05/30,235000,237500,228100,228100,74,2281
2013/05/31,233100,233900,225000,228200,57,2282
2013/06/03,225000,225000,210000,213300,92,2133
2013/06/04,208300,210100,205100,208000,47,2080
2013/06/05,210100,219900,205200,205200,48,2052
2013/06/06,195200,195200,170000,170400,112,1704
2013/06/07,173000,176500,152900,170400,105,1704
2013/06/10,190400,194800,181300,191000,54,1910
2013/06/11,183000,190500,183000,185100,47,1851
2013/06/12,175000,185500,175000,185500,24,1855
2013/06/13,178100,186000,178000,185500,27,1855
2013/06/14,185300,190000,180000,181000,43,1810
2013/06/17,181000,195000,181000,192000,42,1920
2013/06/18,191000,193000,190000,190000,52,1900
2013/06/19,192000,223000,192000,211100,188,2111
2013/06/20,202500,208000,200000,202000,89,2020
2013/06/21,194500,196000,184000,196000,49,1960
2013/06/24,200000,202000,189000,189000,35,1890
2013/06/25,185000,185900,165100,169900,50,1699
2013/06/26,177500,177500,152100,152100,60,1521
2013/06/27,154900,169000,150500,169000,82,1690
2013/06/28,169000,179900,167000,179900,36,1799
2013/07/01,180100,187800,180000,187800,28,1878
2013/07/02,190600,194900,184000,189500,27,1895
2013/07/03,189500,196700,185100,186000,75,1860
2013/07/04,189000,193600,185600,191800,24,1918
2013/07/05,195800,206000,192500,199900,98,1999
2013/07/08,209000,209000,200000,200100,73,2001
2013/07/09,207700,207700,200000,201900,17,2019
2013/07/10,202900,203800,197000,200000,38,2000
2013/07/11,202800,204600,200000,200300,24,2003
2013/07/12,200600,207000,200600,203500,28,2035
2013/07/16,202200,213700,202200,212800,72,2128
2013/07/17,212800,258500,210000,230500,274,2305
2013/07/18,242000,247000,233400,245000,186,2450
2013/07/19,247900,247900,218800,224100,103,2241
2013/07/22,229100,230000,223000,225000,40,2250
2013/07/23,235000,252300,232100,247900,342,2479
2013/07/24,244000,244000,238000,244000,82,2440
2013/07/25,244000,247900,235000,239500,77,2395
2013/07/26,233000,234000,227000,230000,76,2300
2013/07/29,225200,227000,219000,220000,67,2200
2013/07/30,220000,222500,218500,220100,30,2201
2013/07/31,220200,226900,220000,221000,51,2210
2013/08/01,223000,226000,215100,226000,53,2260
2013/08/02,226000,230000,223000,224200,40,2242
2013/08/05,226000,229600,224000,226300,31,2263
2013/08/06,224000,226400,222100,224500,21,2245
2013/08/07,222000,225000,220100,221900,27,2219
2013/08/08,219000,231800,217000,220000,60,2200
2013/08/09,175000,183000,170000,170000,694,1700
2013/08/12,170000,170300,160000,165000,167,1650
2013/08/13,161000,173600,161000,165000,101,1650
2013/08/14,170700,170700,166100,168500,44,1685
2013/08/15,160500,166000,160500,166000,52,1660
2013/08/16,165800,165800,160100,162400,34,1624
2013/08/19,161000,161600,159300,160800,43,1608
2013/08/20,157800,162000,156000,159000,44,1590
2013/08/21,162400,162400,157000,158500,17,1585
2013/08/22,158500,158500,152500,152500,35,1525
2013/08/23,151500,156400,151200,151500,38,1515
2013/08/26,148800,150000,148600,149100,35,1491
2013/08/27,149100,154900,149100,154900,21,1549
2013/08/28,158000,160500,153400,157400,41,1574
2013/08/29,158000,160400,156400,156600,28,1566
2013/08/30,155500,159000,154100,154100,23,1541
2013/09/02,154100,155000,147500,148400,28,1484
2013/09/03,148000,153000,148000,150500,23,1505
2013/09/04,150500,152900,150500,152900,15,1529
2013/09/05,158900,158900,145700,146700,65,1467
2013/09/06,148000,148000,144100,144100,45,1441
2013/09/09,154800,154800,144300,145100,35,1451
2013/09/10,152000,152000,146600,148400,25,1484
2013/09/11,148900,149900,145000,147000,52,1470
2013/09/12,149900,152000,149500,149500,27,1495
2013/09/13,149000,152000,148100,150000,14,1500
2013/09/17,153000,153000,150200,150200,33,1502
2013/09/18,152100,153000,152000,152200,16,1522
2013/09/19,156000,156000,152500,154800,44,1548
2013/09/20,154500,154500,152700,152800,21,1528
2013/09/24,155500,155500,153000,154000,37,1540
2013/09/25,153900,154000,151600,152100,20,1521
2013/09/26,151200,152500,151200,152500,6,1525
2013/09/27,154900,156000,153000,154000,39,1540
2013/09/30,157000,157000,154000,156000,44,1560
2013/10/01,159000,177000,159000,170000,122,1700
2013/10/02,171000,176000,162600,163200,105,1632
2013/10/03,165000,166900,161600,163100,37,1631
2013/10/04,159100,163000,156600,160000,48,1600
2013/10/07,159000,163000,152500,154000,30,1540
2013/10/08,152000,154000,146000,154000,37,1540
2013/10/09,156800,159600,154500,155000,21,1550
2013/10/10,154100,156200,150700,155100,8,1551
2013/10/11,158000,158300,151500,157400,42,1574
2013/10/15,165000,165000,157700,157700,38,1577
2013/10/16,156200,162600,153000,157800,25,1578
2013/10/17,158900,160000,157500,158000,39,1580
2013/10/18,162000,170000,158600,167400,96,1674
2013/10/21,174000,207400,173100,207400,440,2074
2013/10/22,240000,249800,201700,206500,618,2065
2013/10/23,203000,203000,192100,194000,213,1940
2013/10/24,192000,196800,186700,196800,103,1968
2013/10/25,205800,220000,201200,214300,240,2143
2013/10/28,225000,264300,221000,241000,966,2410
2013/10/29,251000,291000,246000,283000,1117,2830
2013/10/30,300000,300000,233000,236300,704,2363
2013/10/31,256300,270000,237000,245000,265,2450
2013/11/01,244500,244500,221500,223800,210,2238
2013/11/05,232100,233100,216600,218200,202,2182
2013/11/06,217000,245000,217000,227300,223,2273
2013/11/07,221000,226200,220500,220800,75,2208
2013/11/08,217500,217500,206000,207900,146,2079
2013/11/11,209900,215000,206200,206200,65,2062
2013/11/12,216200,218500,207200,214000,62,2140
2013/11/13,211000,211800,201600,203200,85,2032
2013/11/14,209500,209500,203200,203200,31,2032
2013/11/15,166200,179000,166200,174200,556,1742
2013/11/18,175300,182500,175000,176500,168,1765
2013/11/19,176500,176600,171700,172200,62,1722
2013/11/20,176000,176000,170100,172000,32,1720
2013/11/21,171800,175000,171100,173500,43,1735
2013/11/22,172100,174300,171900,171900,41,1719
2013/11/25,179800,179800,171900,172500,57,1725
2013/11/26,172500,173200,171900,171900,16,1719
2013/11/27,174400,174400,171000,171000,25,1710
2013/11/28,170100,172200,170000,170000,30,1700
2013/11/29,171800,173500,170000,170400,23,1704
2013/12/02,170800,171500,170100,171500,16,1715
2013/12/03,170100,172800,170100,170200,33,1702
2013/12/04,170100,172500,167600,170000,31,1700
2013/12/05,173000,173000,171100,171600,31,1716
2013/12/06,175400,175400,170100,171100,29,1711
2013/12/09,174900,174900,172100,174900,24,1749
2013/12/10,172900,185000,172900,185000,112,1850
2013/12/11,190000,225000,190000,196500,605,1965
2013/12/12,202700,215000,198000,198200,194,1982
2013/12/13,188100,190000,185300,185300,81,1853
2013/12/16,179800,180000,175100,178000,73,1780
2013/12/17,180100,183000,175200,177500,26,1775
2013/12/18,177000,177000,172500,173300,49,1733
2013/12/19,173400,178900,172900,173000,38,1730
2013/12/20,173000,178000,173000,175500,54,1755
2013/12/24,174000,174900,170300,170500,95,1705
2013/12/25,170000,180000,168100,174000,127,1740
2013/12/26,1751,1840,1751,1840,3500,1840
2013/12/27,1830,1860,1769,1822,2800,1822
2013/12/30,1849,1849,1775,1784,2900,1784
2014/01/06,1744,1779,1730,1740,6200,1740
2014/01/07,1740,1764,1708,1720,4300,1720
2014/01/08,1708,1730,1670,1699,8500,1699
2014/01/09,1701,1720,1685,1710,3000,1710
2014/01/10,1732,1738,1710,1710,3800,1710
2014/01/14,1700,1712,1684,1684,2200,1684
2014/01/15,1709,1709,1670,1670,5000,1670
2014/01/16,1684,1684,1675,1679,700,1679
2014/01/17,1676,1700,1676,1682,800,1682
2014/01/20,1684,1690,1684,1685,2300,1685
2014/01/21,1690,1850,1681,1847,16400,1847
2014/01/22,1807,1815,1750,1807,5900,1807
2014/01/23,1767,1797,1758,1758,2600,1758
2014/01/24,1692,1745,1692,1744,2700,1744
2014/01/27,1665,1700,1665,1687,1900,1687
2014/01/28,1720,1730,1680,1700,1300,1700
2014/01/29,1740,1740,1718,1730,900,1730
2014/01/30,1720,1720,1656,1660,900,1660
2014/01/31,1670,1670,1630,1640,2000,1640
2014/02/03,1629,1629,1451,1451,5200,1451
2014/02/04,1250,1322,1155,1283,6100,1283
2014/02/05,1300,1325,1230,1240,4700,1240
2014/02/06,1270,1285,1240,1285,1400,1285
2014/02/07,1565,1565,1350,1464,6100,1464
2014/02/10,1604,1604,1420,1430,3500,1430
2014/02/12,1436,1500,1436,1438,1200,1438
2014/02/13,1498,1498,1420,1420,1500,1420
2014/02/14,1300,1300,1201,1240,15500,1240
2014/02/17,1290,1290,1206,1240,1200,1240
2014/02/18,1243,1248,1241,1248,1400,1248
2014/02/19,1289,1290,1260,1274,1600,1274
2014/02/20,1270,1270,1200,1245,2500,1245
2014/02/21,1280,1280,1270,1270,400,1270
2014/02/24,1213,1220,1213,1220,200,1220
2014/02/25,1229,1286,1229,1270,1800,1270
2014/02/26,1285,1300,1233,1300,2200,1300
2014/02/27,1300,1300,1300,1300,600,1300
2014/02/28,1241,1274,1241,1246,700,1246
2014/03/03,1210,1210,1200,1200,1400,1200
2014/03/04,1200,1225,1190,1200,1400,1200
2014/03/05,1205,1225,1205,1225,800,1225
2014/03/06,1250,1250,1231,1233,900,1233
2014/03/07,1250,1250,1234,1234,200,1234
2014/03/10,1205,1235,1205,1235,400,1235
2014/03/11,1235,1235,1235,1235,100,1235
2014/03/12,1230,1340,1220,1299,3500,1299
2014/03/13,1297,1300,1250,1250,1200,1250
2014/03/14,1213,1213,1190,1198,700,1198
2014/03/17,1199,1220,1199,1220,1000,1220
2014/03/18,1191,1211,1191,1206,400,1206
2014/03/19,1206,1206,1201,1201,600,1201
2014/03/20,1251,1251,1150,1150,1400,1150
2014/03/24,1220,1250,1170,1170,300,1170
2014/03/25,1170,1170,1130,1130,700,1130
2014/03/26,1090,1190,1080,1190,2200,1190
2014/03/27,1219,1229,1151,1162,900,1162
2014/03/28,1116,1156,1116,1148,1100,1148
2014/03/31,1170,1220,1170,1200,300,1200
2014/04/01,1230,1250,1229,1250,600,1250
2014/04/02,1260,1270,1260,1270,300,1270
2014/04/03,1250,1260,1250,1260,700,1260
2014/04/04,1270,1270,1240,1240,300,1240
2014/04/08,1230,1230,1230,1230,500,1230
2014/04/09,1155,1180,1135,1135,1400,1135
2014/04/10,1142,1143,1140,1140,500,1140
2014/04/11,1140,1140,1101,1109,700,1109
2014/04/15,1150,1150,1094,1100,2100,1100
2014/04/16,1126,1126,1101,1110,400,1110
2014/04/21,1260,1260,1155,1155,1700,1155
2014/04/22,1154,1154,1120,1120,600,1120
2014/04/23,1120,1125,1019,1080,8300,1080
2014/04/24,1080,1080,1001,1037,3800,1037
2014/04/25,1037,1037,1030,1034,700,1034
2014/04/28,1015,1015,992,997,2200,997
2014/04/30,995,1000,977,977,2300,977
2014/05/01,989,989,950,965,1600,965
2014/05/02,975,990,975,990,700,990
2014/05/07,990,990,990,990,300,990
2014/05/08,990,1010,985,990,2000,990
2014/05/09,1010,1040,1008,1008,400,1008
2014/05/12,998,998,976,990,1700,990
2014/05/13,1000,1000,1000,1000,100,1000
2014/05/14,978,978,976,976,300,976
2014/05/15,1007,1007,972,972,1100,972
2014/05/19,927,927,900,900,900,900
2014/05/20,900,900,845,860,1400,860
2014/05/21,860,861,860,861,400,861
2014/05/22,1011,1011,1000,1011,1800,1011
2014/05/23,966,999,950,995,7200,995
2014/05/26,1130,1145,1070,1145,4600,1145
2014/05/27,1265,1390,1130,1230,21000,1230
2014/05/28,1230,1330,1186,1187,2400,1187
2014/05/29,1217,1217,1137,1169,1000,1169
2014/05/30,1200,1201,1138,1141,1100,1141
2014/06/02,1261,1261,1187,1187,1900,1187
2014/06/03,1187,1187,1187,1187,400,1187
2014/06/04,1230,1230,1230,1230,300,1230
2014/06/05,1200,1200,1172,1177,500,1177
2014/06/06,1205,1205,1200,1200,500,1200
2014/06/09,1200,1230,1173,1186,1000,1186
2014/06/10,1190,1190,1187,1187,400,1187
2014/06/11,1187,1330,1187,1265,9600,1265
2014/06/12,1251,1265,1205,1250,2700,1250
2014/06/13,1250,1251,1220,1250,1600,1250
2014/06/16,1238,1238,1203,1203,1400,1203
2014/06/17,1184,1200,1182,1182,600,1182
2014/06/18,1210,1215,1185,1186,1000,1186
2014/06/19,1246,1329,1234,1250,7100,1250
2014/06/20,1310,1310,1206,1206,4400,1206
2014/06/23,1210,1210,1191,1200,3900,1200
2014/06/24,1195,1218,1194,1218,700,1218
2014/06/25,1200,1226,1195,1205,900,1205
2014/06/26,1233,1233,1209,1209,500,1209
2014/06/27,1200,1205,1185,1200,1200,1200
2014/06/30,1187,1188,1187,1188,500,1188
2014/07/01,1188,1188,1188,1188,200,1188
2014/07/02,1188,1278,1187,1193,3100,1193
2014/07/03,1275,1278,1201,1226,2400,1226
2014/07/04,1220,1220,1202,1205,400,1205
2014/07/07,1234,1290,1211,1212,4600,1212
2014/07/08,1213,1219,1204,1219,500,1219
2014/07/09,1210,1260,1189,1255,3100,1255
2014/07/11,1254,1275,1240,1240,2900,1240
2014/07/14,1240,1329,1240,1303,3500,1303
2014/07/15,1329,1329,1310,1312,3200,1312
2014/07/16,1310,1310,1210,1240,2400,1240
2014/07/17,1225,1230,1224,1224,700,1224
2014/07/18,1220,1288,1200,1288,2200,1288
2014/07/22,1299,1299,1245,1275,1400,1275
2014/07/23,1245,1275,1245,1275,200,1275
2014/07/24,1245,1245,1245,1245,100,1245
2014/07/25,1245,1275,1245,1245,700,1245
2014/07/28,1215,1245,1215,1230,800,1230
2014/07/29,1216,1220,1211,1220,700,1220
2014/07/30,1210,1210,1201,1201,1100,1201
2014/07/31,1219,1219,1202,1202,1200,1202
2014/08/01,1202,1202,1120,1149,1600,1149
2014/08/04,1119,1151,1110,1151,800,1151
2014/08/05,1150,1193,1150,1193,1200,1193
2014/08/06,1132,1160,1125,1149,1600,1149
2014/08/07,1140,1150,1135,1145,1500,1145
2014/08/08,1295,1425,1151,1279,27300,1279
2014/08/11,1369,1369,1237,1318,9600,1318
2014/08/12,1288,1318,1241,1253,4500,1253
2014/08/13,1279,1279,1205,1210,3300,1210
2014/08/14,1210,1224,1190,1190,2100,1190
2014/08/15,1220,1229,1190,1229,1800,1229
2014/08/18,1230,1300,1230,1300,1700,1300
2014/08/19,1290,1290,1260,1273,1300,1273
2014/08/20,1262,1272,1242,1272,1100,1272
2014/08/21,1265,1299,1265,1280,1000,1280
2014/08/22,1266,1297,1255,1270,1100,1270
2014/08/25,1270,1370,1270,1320,6800,1320
2014/08/26,1375,1620,1375,1620,43200,1620
2014/08/27,1780,1950,1450,1475,57800,1475
2014/08/28,1775,1775,1775,1775,4000,1775
2014/08/29,1895,1900,1782,1789,49200,1789
2014/09/01,1861,1861,1750,1755,20700,1755
2014/09/02,1763,1766,1658,1659,16200,1659
2014/09/03,1672,1698,1610,1631,6200,1631
2014/09/04,1656,1682,1609,1639,5800,1639
2014/09/05,1650,1824,1650,1760,11800,1760
2014/09/08,1793,1840,1760,1798,10800,1798
2014/09/09,1828,1829,1755,1787,4400,1787
2014/09/10,1765,1800,1730,1730,2500,1730
2014/09/11,1735,1980,1660,1980,33000,1980
2014/09/12,2150,2380,2025,2380,63900,2380
2014/09/16,2880,2880,2880,2880,7600,2880
2014/09/17,3100,3380,3050,3380,122800,3380
2014/09/18,2910,3270,2680,2799,262600,2799
2014/09/19,2658,2673,2430,2464,135900,2464
2014/09/22,2560,2699,2390,2569,79900,2569
2014/09/24,2451,2569,2426,2500,31200,2500
2014/09/25,2699,3000,2520,3000,186300,3000
2014/09/26,2880,2944,2660,2760,108600,2760
2014/09/29,3260,3260,3260,3260,14600,3260
2014/09/30,3330,3960,2910,3790,415600,3790
2014/10/01,3790,4245,3350,3380,430800,3380
2014/10/02,3150,3310,2951,3080,119200,3080
2014/10/03,3105,3175,2780,2940,96600,2940
2014/10/06,2946,3440,2910,3440,109400,3440
2014/10/07,4070,4140,3465,3510,377000,3510
2014/10/08,3370,4210,3250,4210,238800,4210
2014/10/09,4605,4880,3790,3820,390700,3820
2014/10/10,3755,4520,3610,4520,336400,4520
2014/10/14,5100,5220,5000,5220,79400,5220
2014/10/15,5620,6050,4830,5100,434600,5100
2014/10/16,4760,5270,4280,4570,168300,4570
2014/10/17,4780,4780,3870,3870,118400,3870
2014/10/20,4010,4250,3600,4100,281200,4100
2014/10/21,4040,4175,3600,3730,106900,3730
2014/10/22,3870,4430,3850,4430,179500,4430
2014/10/23,4920,5080,4215,4405,385500,4405
2014/10/24,4530,4615,4105,4225,111500,4225
2014/10/27,4430,4430,3955,4010,52600,4010
2014/10/28,4045,4635,3925,4460,150300,4460
2014/10/29,4435,4580,4240,4365,94000,4365
2014/10/30,4495,4825,4355,4580,101200,4580
2014/10/31,4440,4675,4400,4595,69600,4595
2014/11/04,4500,4505,4130,4305,82400,4305
2014/11/05,4240,4400,4180,4320,67400,4320
2014/11/06,4390,4895,4280,4455,161200,4455
2014/11/07,4615,5160,4600,5160,234600,5160
2014/11/10,5260,6160,5240,6160,316300,6160
2014/11/11,7010,7160,6910,7160,157900,7160
2014/11/12,8360,8500,6810,6970,357000,6970
2014/11/13,6500,7200,5970,5970,166700,5970
2014/11/14,5570,5970,5090,5500,172500,5500
2014/11/17,5490,6450,5200,5930,317400,5930
2014/11/18,5730,6250,5510,5700,117800,5700
2014/11/19,5660,5810,5300,5450,58900,5450
2014/11/20,5500,5560,5150,5150,29200,5150
2014/11/21,5180,5210,4755,4990,79400,4990
2014/11/25,5350,5690,5200,5690,63300,5690
2014/11/26,5420,5570,5270,5370,86800,5370
2014/11/27,5570,6370,5540,6370,211200,6370
2014/11/28,6070,6100,5460,5750,171200,5750
2014/12/01,5650,5920,5520,5650,51500,5650
2014/12/02,5880,6420,5710,5990,221300,5990
2014/12/03,5920,6200,5550,5560,85900,5560
2014/12/04,5660,5770,5070,5230,76900,5230
2014/12/05,5380,5380,4970,5040,43100,5040
2014/12/08,5000,5000,4690,4725,52700,4725
2014/12/09,4605,5060,4560,4570,41000,4570
2014/12/10,4570,4580,4275,4350,35400,4350
2014/12/11,4180,4405,4170,4320,29700,4320
2014/12/12,4275,4850,4235,4240,53600,4240
2014/12/15,4235,4450,4070,4145,31000,4145
2014/12/16,4285,4500,4020,4125,33000,4125
2014/12/17,4335,4335,4030,4040,25300,4040
2014/12/18,4110,4135,3805,3900,33300,3900
2014/12/19,4000,4075,3770,3785,22900,3785
2014/12/22,3855,3855,3620,3635,18900,3635
2014/12/24,3610,3630,3380,3505,34300,3505
2014/12/25,3400,3810,3360,3730,57200,3730
2014/12/26,3550,3795,3475,3615,31400,3615
2014/12/29,3640,3870,3640,3725,32500,3725
2014/12/30,3665,3670,3485,3485,18400,3485
2015/01/05,3505,3690,3505,3660,16600,3660
2015/01/06,3510,3600,3440,3455,13800,3455
2015/01/07,3365,3500,3365,3450,10700,3450
2015/01/08,3505,3630,3475,3605,8800,3605
2015/01/09,3560,3580,3335,3350,13900,3350
2015/01/13,3330,3405,3240,3320,5900,3320
2015/01/14,3310,3350,3215,3215,7900,3215
2015/01/15,3285,3290,3205,3240,5300,3240
2015/01/16,3240,3240,3005,3050,8700,3050
2015/01/19,3175,3200,3055,3175,7800,3175
2015/01/20,3175,3330,3175,3220,7300,3220
2015/01/21,3220,3470,3190,3250,15500,3250
2015/01/22,3265,3950,3265,3950,78200,3950
2015/01/23,4000,4125,3505,3635,95100,3635
2015/01/26,3425,3920,3325,3645,39800,3645
2015/01/27,3700,3765,3590,3635,17900,3635
2015/01/28,3565,3595,3505,3525,11300,3525
2015/01/29,3480,3520,3350,3365,14200,3365
2015/01/30,3385,3480,3365,3400,6600,3400
2015/02/02,3330,3390,3305,3320,6700,3320
2015/02/03,3355,3360,3265,3295,5700,3295
2015/02/04,3315,3400,3290,3375,5800,3375
2015/02/05,3445,3445,3165,3235,7000,3235
2015/02/06,3255,3255,3035,3075,12700,3075
2015/02/09,3020,3125,3000,3060,11300,3060
2015/02/10,3090,3200,3045,3100,8900,3100
2015/02/12,3135,3135,3010,3065,10700,3065
2015/02/13,3035,3045,2930,2930,9800,2930
2015/02/16,3430,3430,3430,3430,3600,3430
2015/02/17,3750,3775,3250,3305,78100,3305
2015/02/18,3235,3295,3095,3095,14700,3095
2015/02/19,3250,3795,3140,3795,71800,3795
2015/02/20,3605,3730,3405,3530,63800,3530
2015/02/23,3530,3650,3460,3575,14900,3575
2015/02/24,3645,4180,3640,4070,143000,4070
2015/02/25,4180,4270,3690,3950,54100,3950
2015/02/26,3950,4070,3800,3975,24900,3975
2015/02/27,3905,4400,3905,4125,53200,4125
2015/03/02,4055,4210,4050,4190,17200,4190
2015/03/03,4250,4250,3900,3995,21500,3995
2015/03/04,3875,3875,3715,3805,16100,3805
2015/03/05,3735,3840,3675,3685,9100,3685
2015/03/06,3685,3685,3545,3555,7400,3555
2015/03/09,3515,3620,3500,3520,5700,3520
2015/03/10,3530,3530,3350,3350,7200,3350
2015/03/11,3350,3750,3300,3600,21700,3600
2015/03/12,3720,3720,3545,3560,6700,3560
2015/03/13,3560,3570,3455,3545,4500,3545
2015/03/16,3545,3800,3505,3600,11000,3600
2015/03/17,3720,3720,3600,3610,6300,3610
2015/03/18,3615,3615,3410,3480,11700,3480
2015/03/19,3430,3600,3425,3460,4700,3460
2015/03/20,3460,3555,3460,3490,3400,3490
2015/03/23,3560,3560,3465,3550,4100,3550
2015/03/24,3505,3535,3445,3475,2300,3475
2015/03/25,3445,3480,3440,3455,4400,3455
2015/03/26,3415,3475,3405,3405,2400,3405
2015/03/27,3415,3505,3360,3400,4000,3400
2015/03/30,3355,3370,3200,3295,9200,3295
2015/03/31,3310,3390,3310,3355,1400,3355
2015/04/01,3305,3350,3295,3325,1100,3325
2015/04/02,3350,3350,3290,3290,2300,3290
2015/04/03,3430,3430,3185,3200,5400,3200
2015/04/06,3200,3285,3200,3260,3600,3260
2015/04/07,3260,3400,3260,3400,3900,3400
2015/04/08,3400,3445,3295,3370,5300,3370
2015/04/09,3425,3425,3330,3395,1700,3395
2015/04/10,3400,3400,3330,3385,2400,3385
2015/04/13,3345,3345,3300,3310,1500,3310
2015/04/14,3340,3400,3325,3400,2300,3400
2015/04/15,3355,3400,3345,3400,3300,3400
2015/04/16,3420,3790,3420,3620,34600,3620
2015/04/17,3620,3630,3515,3530,6100,3530
2015/04/20,3440,3520,3400,3410,4900,3410
2015/04/21,3475,3475,3355,3440,1200,3440
2015/04/22,3510,3510,3365,3400,3100,3400
2015/04/23,3680,3680,3450,3465,15300,3465
2015/04/24,3535,3535,3450,3470,4100,3470
2015/04/27,3480,3480,3400,3420,2600,3420
2015/04/28,3420,3420,3320,3320,5400,3320
2015/04/30,3340,3435,3240,3240,6400,3240
2015/05/01,3240,3240,3155,3155,5300,3155
2015/05/07,3100,3100,3050,3060,3600,3060
2015/05/08,3060,3250,3060,3245,5000,3245
2015/05/11,3140,3300,3105,3210,2600,3210
2015/05/12,3140,3190,3140,3190,2800,3190
2015/05/13,3210,3215,3170,3170,1000,3170
2015/05/14,3235,3240,3205,3240,1500,3240
2015/05/15,3100,3110,3035,3055,8200,3055
2015/05/18,3065,3110,3040,3050,2400,3050
2015/05/19,3055,3060,3005,3045,3000,3045
2015/05/20,3045,3045,3010,3035,3100,3035
2015/05/21,3175,3175,3070,3070,2900,3070
2015/05/22,3070,3070,3020,3050,1800,3050
2015/05/25,3040,3075,3025,3025,1600,3025
2015/05/26,3000,3100,3000,3035,3900,3035
2015/05/27,3010,3050,3000,3020,6200,3020
2015/05/28,3040,3045,3005,3015,2500,3015
2015/05/29,3005,3020,3005,3005,2200,3005
2015/06/01,3005,3040,2994,2994,4200,2994
2015/06/02,3255,3380,3200,3220,37300,3220
2015/06/03,3130,3260,3070,3140,13100,3140
2015/06/04,3140,3140,3080,3130,6500,3130
2015/06/05,3065,3320,3065,3150,9100,3150
2015/06/08,3160,3245,3160,3185,4000,3185
2015/06/09,3150,3165,3070,3070,5200,3070
2015/06/10,3095,3095,3040,3060,5600,3060
2015/06/11,3130,3155,3040,3090,4100,3090
2015/06/12,3280,3690,3215,3590,78900,3590
2015/06/15,3730,4290,3730,4290,117600,4290
2015/06/16,4220,4400,3740,3880,117400,3880
2015/06/17,3950,4310,3715,3980,128500,3980
2015/06/18,3925,4010,3805,3820,31200,3820
2015/06/19,3790,3925,3650,3650,25800,3650
2015/06/22,3705,4080,3705,4010,48900,4010
2015/06/23,4180,4710,4180,4365,179800,4365
2015/06/24,4495,4520,4035,4235,69300,4235
2015/06/25,4100,4200,4040,4135,21000,4135
2015/06/26,4110,4430,4110,4200,31100,4200
2015/06/29,3900,4125,3900,4020,21100,4020
2015/06/30,4020,4140,3940,4100,19600,4100
2015/07/01,4130,4135,3925,4075,12100,4075
