2011/01/05,3380,3405,3380,3380,15700,1690
2011/01/06,3380,3390,3370,3380,13700,1690
2011/01/07,3390,3390,3365,3370,33100,1685
2011/01/11,3370,3430,3355,3420,28200,1710
2011/01/12,3440,3455,3420,3440,20300,1720
2011/01/13,3440,3450,3425,3440,17100,1720
2011/01/14,3420,3445,3420,3430,29600,1715
2011/01/19,3540,3580,3540,3550,15300,1775
2011/01/21,3505,3520,3480,3490,29300,1745
2011/01/24,3500,3540,3480,3540,19900,1770
2011/01/25,3535,3600,3530,3590,25100,1795
2011/01/27,3590,3640,3580,3610,17200,1805
2011/01/28,3620,3620,3580,3580,10200,1790
2011/01/31,3560,3560,3535,3540,18800,1770
2011/02/08,3610,3610,3570,3570,14000,1785
2011/02/14,3605,3610,3590,3600,10900,1800
2011/02/15,3590,3615,3590,3610,5000,1805
2011/02/16,3600,3615,3595,3610,11200,1805
2011/02/17,3610,3610,3595,3610,14700,1805
2011/02/22,3755,3805,3735,3750,36800,1875
2011/02/23,3720,3745,3715,3730,27500,1865
2011/02/25,3690,3690,3655,3680,7400,1840
2011/03/01,3745,3775,3745,3750,15300,1875
2011/03/03,3715,3740,3700,3710,9000,1855
2011/03/04,3750,3750,3695,3700,14500,1850
2011/03/08,3710,3720,3710,3710,3900,1855
2011/03/10,3735,3735,3695,3700,15300,1850
2011/03/14,3295,3485,3210,3380,59300,1690
2011/03/17,3030,3130,3005,3090,51700,1545
2011/03/22,3375,3430,3315,3420,41400,1710
2011/03/24,3415,3420,3300,3300,45700,1650
2011/03/28,3300,3320,3200,3220,81900,1610
2011/03/29,3065,3080,3000,3020,108200,1510
2011/03/31,3050,3065,3020,3040,65700,1520
2011/04/04,3060,3080,2980,2994,72900,1497
2011/04/05,2991,3010,2920,2930,81800,1465
2011/04/06,2935,2954,2920,2922,44100,1461
2011/04/07,2920,2954,2920,2930,27700,1465
2011/04/08,2930,2954,2920,2928,45100,1464
2011/04/12,2992,2992,2955,2974,29100,1487
2011/04/18,3095,3095,3020,3060,17900,1530
2011/04/19,3010,3040,3005,3010,18400,1505
2011/04/20,3045,3045,3020,3020,12400,1510
2011/04/21,3025,3030,3005,3020,16500,1510
2011/04/22,3010,3020,2979,3010,20600,1505
2011/04/27,2943,2947,2905,2908,69500,1454
2011/04/28,2915,2976,2915,2974,38900,1487
2011/05/06,2999,3010,2981,3010,18600,1505
2011/05/09,3010,3010,2976,2982,20300,1491
2011/05/11,3035,3045,3000,3000,24500,1500
2011/05/12,2991,3050,2991,3040,25400,1520
2011/05/13,3020,3045,2944,2954,79200,1477
2011/05/17,2941,2950,2902,2906,47200,1453
2011/05/18,2910,2981,2902,2956,56600,1478
2011/05/19,2970,2980,2947,2972,26100,1486
2011/05/20,2984,2995,2952,2978,34200,1489
2011/05/26,2999,3025,2980,3020,29600,1510
2011/06/01,3055,3070,3045,3060,13100,1530
2011/06/03,3025,3030,3010,3020,19400,1510
2011/06/06,3010,3045,3000,3040,16200,1520
2011/06/08,3035,3040,3005,3010,15300,1505
2011/06/09,3010,3015,2954,2970,47600,1485
2011/06/10,2955,2972,2950,2956,47600,1478
2011/06/15,2949,2956,2921,2926,35200,1463
2011/06/20,2902,2907,2888,2888,31200,1444
2011/06/23,2909,2914,2887,2902,33900,1451
2011/06/24,2901,2924,2900,2924,17900,1462
2011/06/29,2920,2935,2917,2928,25700,1464
2011/06/30,2936,3015,2932,3010,43800,1505
2011/07/04,3010,3035,2990,3030,28600,1515
2011/07/06,3085,3090,3060,3090,25600,1545
2011/07/13,3080,3135,3070,3130,13400,1565
2011/07/15,3135,3145,3120,3130,19300,1565
2011/07/21,3085,3105,3080,3080,20900,1540
2011/07/22,3100,3135,3095,3120,25500,1560
2011/07/27,3135,3135,3095,3110,19300,1555
2011/07/29,3090,3095,3070,3070,17900,1535
2011/08/01,3065,3100,3065,3100,23200,1550
2011/08/04,3010,3025,3005,3010,16300,1505
2011/08/05,2965,2990,2941,2944,43300,1472
2011/08/08,2960,2960,2910,2916,45600,1458
2011/08/09,2882,2894,2861,2894,49600,1447
2011/08/10,2950,2980,2934,2936,32500,1468
2011/08/11,2905,2957,2905,2952,16600,1476
2011/08/12,3005,3020,2981,3000,14300,1500
2011/08/17,2990,3000,2969,2986,8800,1493
2011/08/19,2942,2983,2939,2950,27700,1475
2011/08/23,2901,2939,2901,2904,25900,1452
2011/08/25,2932,2950,2904,2934,21000,1467
2011/09/02,3020,3035,3010,3030,13900,1515
2011/09/05,3030,3055,3015,3050,11800,1525
2011/09/06,3060,3070,3030,3040,14900,1520
2011/09/07,3050,3070,3035,3070,15800,1535
2011/09/09,3085,3100,3070,3090,17600,1545
2011/09/13,2972,3000,2972,2992,13300,1496
2011/09/15,3000,3025,2981,2984,11300,1492
2011/09/16,3015,3030,3010,3030,9700,1515
2011/09/20,3025,3030,3010,3020,11700,1510
2011/09/26,3020,3025,2991,2998,18400,1499
2011/09/27,3010,3040,3010,3030,13200,1515
2011/09/28,2974,3060,2971,3060,21100,1530
2011/09/29,3040,3080,3040,3080,20800,1540
2011/10/03,3040,3060,3040,3060,16800,1530
2011/10/04,3040,3055,3030,3040,17700,1520
2011/10/06,2989,3020,2989,3020,17500,1510
2011/10/13,3025,3025,2980,2982,19000,1491
2011/10/17,2993,2993,2965,2968,13800,1484
2011/10/18,2965,2980,2965,2966,5800,1483
2011/10/19,2970,2979,2958,2958,10400,1479
2011/10/20,2958,2970,2950,2964,11000,1482
2011/10/21,2953,2962,2950,2950,7300,1475
2011/10/24,2951,2969,2945,2948,10700,1474
2011/10/26,2914,2921,2900,2904,23300,1452
2011/10/27,2902,2915,2891,2900,29600,1450
2011/10/31,2910,2937,2909,2918,22000,1459
2011/11/01,2908,2933,2906,2912,14400,1456
2011/11/02,2903,2913,2895,2900,18200,1450
2011/11/04,2911,2970,2910,2956,22600,1478
2011/11/07,2968,2968,2870,2900,44700,1450
2011/11/08,2900,2915,2880,2888,14800,1444
2011/11/10,2882,2882,2854,2866,31900,1433
2011/11/17,2983,2997,2955,2994,27300,1497
2011/11/18,2971,2997,2953,2990,18000,1495
2011/11/22,3000,3020,2980,3020,13500,1510
2011/11/30,2976,2990,2960,2990,18700,1495
2011/12/01,3000,3005,2939,2944,21000,1472
2011/12/06,2995,3010,2995,3000,13000,1500
2011/12/08,2959,2960,2945,2946,14500,1473
2011/12/09,2942,2976,2942,2960,19900,1480
2011/12/12,2960,2970,2954,2954,21100,1477
2011/12/13,2953,2966,2950,2956,13400,1478
2011/12/14,2967,2969,2956,2964,12200,1482
2011/12/15,2954,2960,2953,2954,13300,1477
2011/12/16,2954,2995,2954,2988,27400,1494
2011/12/27,2965,2969,2952,2954,10700,1477
2012/01/04,2970,2992,2970,2982,10100,1491
2012/01/05,2982,2989,2980,2980,14100,1490
2012/01/06,2981,2987,2964,2972,12400,1486
2012/01/11,2967,2969,2958,2958,7000,1479
2012/01/18,2970,2970,2954,2958,15500,1479
2012/01/19,2956,2962,2937,2940,20500,1470
2012/01/31,2977,2986,2964,2982,12600,1491
2012/02/01,2983,2998,2981,2994,14500,1497
2012/02/03,2998,3000,2982,2982,10300,1491
2012/02/06,2998,2998,2984,2988,13000,1494
2012/02/07,2990,2996,2990,2994,12100,1497
2012/02/09,2992,3005,2990,2998,16000,1499
2012/02/13,2990,2996,2985,2988,9100,1494
2012/02/14,2987,2996,2982,2994,15100,1497
2012/02/15,2992,3000,2985,3000,28400,1500
2012/02/17,2995,3020,2990,3010,28000,1505
2012/02/20,3010,3040,3010,3020,21200,1510
2012/02/21,3025,3040,3015,3030,17300,1515
2012/02/24,3060,3075,3055,3070,15300,1535
2012/02/28,3120,3120,3085,3090,17100,1545
2012/02/29,3100,3110,3070,3070,17800,1535
2012/03/01,3115,3185,3090,3160,54600,1580
2012/03/02,3195,3245,3180,3240,40300,1620
2012/03/05,3255,3280,3165,3190,49500,1595
2012/03/06,3200,3235,3200,3220,18700,1610
2012/03/07,3200,3300,3200,3300,33800,1650
2012/03/08,3300,3320,3270,3290,24900,1645
2012/03/13,3290,3300,3240,3240,26000,1620
2012/03/15,3245,3260,3240,3250,20700,1625
2012/03/19,3215,3255,3215,3240,19900,1620
2012/03/21,3240,3255,3235,3240,23300,1620
2012/03/22,3245,3260,3240,3260,18700,1630
2012/03/28,3200,3260,3190,3250,63400,1625
2012/03/29,3245,3250,3220,3240,28100,1620
2012/03/30,3235,3290,3230,3280,32500,1640
2012/04/02,3260,3265,3245,3260,23800,1630
2012/04/04,3235,3235,3160,3190,26100,1595
2012/04/09,3105,3110,3090,3100,24600,1550
2012/04/10,3105,3140,3105,3140,14600,1570
2012/04/11,3090,3145,3075,3130,35100,1565
2012/04/18,3170,3185,3155,3180,10700,1590
2012/04/20,3160,3180,3120,3170,20000,1585
2012/04/25,3120,3125,3105,3110,10400,1555
2012/05/02,3125,3130,3105,3130,11100,1565
2012/05/08,3075,3090,3050,3090,6600,1545
2012/05/09,3070,3075,3030,3040,13500,1520
2012/05/11,3015,3035,3000,3000,14600,1500
2012/05/14,3000,3015,2960,2962,15400,1481
2012/05/15,2940,2950,2902,2922,27800,1461
2012/05/16,2937,2978,2937,2970,18200,1485
2012/05/21,2950,2955,2910,2918,21200,1459
2012/05/22,2950,2970,2934,2950,32000,1475
2012/05/23,2980,3030,2951,2960,44000,1480
2012/05/24,2950,2971,2915,2928,24700,1464
2012/05/25,2930,2953,2926,2942,14100,1471
2012/05/29,2970,2995,2938,2990,21300,1495
2012/05/30,2991,3010,2967,2990,13100,1495
2012/06/04,2935,2935,2922,2926,13300,1463
2012/06/06,2944,2944,2913,2924,12700,1462
2012/06/08,2927,2927,2909,2912,18700,1456
2012/06/11,2924,2924,2910,2912,8400,1456
2012/06/18,2928,2947,2921,2938,15000,1469
2012/06/20,2911,2940,2911,2932,15300,1466
2012/06/25,2994,2994,2949,2954,13000,1477
2012/06/29,2970,2983,2965,2982,16300,1491
2012/07/03,3015,3015,3005,3010,9300,1505
2012/07/05,3005,3015,2996,3010,9700,1505
2012/07/09,3005,3010,2991,3000,9200,1500
2012/07/11,3000,3030,3000,3030,11100,1515
2012/07/19,3020,3020,3010,3010,7200,1505
2012/07/23,2998,2998,2954,2954,13100,1477
2012/07/24,2950,2950,2907,2908,28400,1454
2012/08/01,2931,2944,2924,2940,14600,1470
2012/08/03,2959,2997,2943,2990,17400,1495
2012/08/06,2990,2995,2960,2982,20300,1491
2012/08/08,2908,2960,2908,2920,63300,1460
2012/08/14,2901,2924,2901,2920,19500,1460
2012/08/17,2915,2920,2906,2910,22800,1455
2012/08/20,2910,2924,2908,2916,20400,1458
2012/08/24,2914,2914,2900,2900,28500,1450
2012/08/28,2922,2925,2901,2914,31700,1457
2012/08/29,2913,2919,2903,2916,14600,1458
2012/08/30,2906,2911,2890,2900,28900,1450
2012/09/04,2898,2913,2888,2892,23300,1446
2012/09/06,2877,2895,2872,2894,16700,1447
2012/09/19,2912,2932,2908,2932,19000,1466
2012/09/20,2934,2937,2903,2910,27800,1455
2012/09/21,2912,2946,2912,2936,40600,1468
2012/09/24,2936,2946,2933,2946,19400,1473
2012/09/25,2944,2954,2944,2954,21000,1477
2012/09/27,2907,2924,2906,2912,15400,1456
2012/10/02,2913,2914,2897,2898,19200,1449
2012/10/04,2894,2901,2882,2892,34600,1446
2012/10/05,2893,2914,2885,2906,40400,1453
2012/10/09,2900,2920,2900,2914,21500,1457
2012/10/10,2900,2910,2889,2896,13400,1448
2012/10/11,2896,2903,2888,2890,19000,1445
2012/10/17,2951,2991,2948,2988,43200,1494
2012/10/18,2988,3000,2970,2992,46700,1496
2012/10/23,2953,2967,2941,2950,25300,1475
2012/10/25,2978,3010,2961,2998,44800,1499
2012/10/26,3000,3020,2998,3010,25900,1505
2012/10/30,2961,3000,2952,2986,49700,1493
2012/11/01,2986,2987,2960,2968,39300,1484
2012/11/06,2970,3010,2960,3000,37800,1500
2012/11/08,2962,3005,2957,2998,25300,1499
2012/11/19,2939,2953,2935,2952,25400,1476
2012/11/21,2968,2975,2957,2972,12000,1486
2012/11/29,2990,3010,2984,2988,19200,1494
2012/12/06,3040,3050,3035,3040,19900,1520
2012/12/17,3060,3065,3010,3010,17800,1505
2012/12/18,3015,3030,3005,3020,14000,1510
2012/12/19,3010,3035,3000,3000,19200,1500
2012/12/21,3045,3065,3040,3060,25600,1530
2012/12/26,3045,3060,3045,3060,6400,1530
2012/12/27,3065,3080,3060,3080,13200,1540
2012/12/28,3085,3090,3065,3070,20000,1535
2013/01/07,3155,3165,3140,3140,16500,1570
2013/01/08,3140,3185,3140,3160,21200,1580
2013/01/09,3175,3200,3160,3200,16700,1600
2013/01/11,3200,3200,3185,3190,12000,1595
2013/01/15,3200,3205,3190,3200,13100,1600
2013/01/17,3245,3250,3220,3240,18900,1620
2013/01/21,3315,3315,3285,3300,24600,1650
2013/01/24,3310,3320,3305,3310,9200,1655
2013/01/29,3335,3430,3335,3420,31500,1710
2013/01/31,3600,3645,3580,3610,32800,1805
2013/02/01,3610,3630,3600,3620,22700,1810
2013/02/08,3760,3775,3745,3750,29200,1875
2013/02/12,3730,3735,3570,3580,65900,1790
2013/02/13,3580,3595,3535,3550,32400,1775
2013/02/14,3525,3545,3515,3520,18100,1760
2013/02/18,3500,3600,3500,3600,15000,1800
2013/02/21,3645,3690,3645,3680,17000,1840
2013/02/26,3595,3605,3565,3570,31000,1785
2013/02/28,3730,3750,3690,3750,25000,1875
2013/03/06,3840,3855,3820,3840,31400,1920
2013/03/07,3840,3930,3840,3920,51900,1960
2013/03/11,4075,4100,4040,4090,38400,2045
2013/03/15,4120,4250,4120,4250,68200,2125
2013/03/19,4270,4435,4270,4420,56600,2210
2013/03/29,4495,4495,4380,4460,32700,2230
2013/04/02,4050,4280,4005,4210,48900,2105
2013/04/03,4155,4400,4150,4400,48400,2200
2013/04/05,4600,4635,4540,4580,75800,2290
2013/04/08,4605,4830,4600,4820,114300,2410
2013/04/09,4800,4800,4695,4730,36100,2365
2013/04/10,4685,4710,4625,4650,25800,2325
2013/04/12,4575,4625,4540,4600,32800,2300
2013/04/18,4660,4700,4585,4660,32400,2330
2013/04/23,4680,4690,4645,4690,32400,2345
2013/04/25,4785,4865,4770,4850,32900,2425
2013/04/30,4760,4810,4760,4780,18300,2390
2013/05/01,4750,4800,4720,4760,15600,2380
2013/05/08,4955,5040,4920,5020,42400,2510
2013/05/09,5020,5040,4885,4910,18600,2455
2013/05/14,4930,5330,4920,5310,127100,2655
2013/05/15,5210,5290,5090,5130,55000,2565
2013/05/16,5130,5310,5020,5250,64400,2625
2013/05/17,5140,5300,5120,5250,66300,2625
2013/05/20,5250,5250,5180,5210,31100,2605
2013/05/21,5210,5380,5160,5330,45500,2665
2013/05/22,5300,5330,5260,5290,33100,2645
2013/05/23,5300,5330,5080,5090,61900,2545
2013/05/24,5190,5260,4920,5040,51400,2520
2013/05/29,4845,5160,4830,5060,82800,2530
2013/05/31,4790,4880,4715,4750,45300,2375
2013/06/04,4555,4645,4500,4600,40700,2300
2013/06/06,4470,4495,4300,4340,49500,2170
2013/06/10,4430,4555,4430,4470,33900,2235
2013/06/11,4450,4525,4360,4440,54500,2220
2013/06/13,4410,4410,4290,4310,37800,2155
2013/06/14,4350,4350,4180,4180,85700,2090
2013/06/20,4290,4305,4215,4250,25100,2125
2013/06/24,4360,4400,4345,4370,17100,2185
2013/06/27,4320,4380,4250,4380,31800,2190
2013/07/01,4490,4550,4460,4510,20200,2255
2013/07/02,4535,4535,4485,4530,16800,2265
2013/07/03,4490,4540,4470,4480,24300,2240
2013/07/04,4480,4515,4470,4500,14300,2250
2013/07/08,4595,4660,4595,4610,26900,2305
2013/07/09,4650,4745,4650,4710,34800,2355
2013/07/11,4800,4850,4740,4800,62400,2400
2013/07/17,4870,4890,4800,4880,22600,2440
2013/07/19,4825,4845,4695,4730,56400,2365
2013/07/22,4725,4735,4665,4690,35100,2345
2013/07/23,4660,4780,4660,4760,24200,2380
2013/07/24,4755,4825,4710,4820,29600,2410
2013/07/26,4810,4810,4735,4770,21600,2385
2013/07/30,4505,4665,4505,4660,18000,2330
2013/07/31,4715,4715,4570,4580,18300,2290
2013/08/02,4675,4750,4630,4750,15400,2375
2013/08/06,4720,4900,4685,4880,39700,2440
2013/08/07,4740,4870,4740,4790,37000,2395
2013/08/08,4795,4855,4760,4770,14700,2385
2013/08/09,4780,4820,4750,4800,14400,2400
2013/08/12,4790,4790,4635,4640,16500,2320
2013/08/26,4790,4820,4790,4810,6000,2405
2013/08/27,4820,4820,4765,4800,10200,2400
2013/08/29,4670,4750,4670,4750,6800,2375
2013/08/30,4715,4740,4670,4700,9800,2350
2013/09/03,4685,4750,4680,4750,10400,2375
2013/09/06,4715,4715,4610,4640,12100,2320
2013/09/09,4730,4740,4660,4690,10600,2345
2013/09/10,4690,4725,4680,4710,11100,2355
2013/09/12,4690,4690,4610,4620,16100,2310
2013/09/13,4585,4645,4585,4630,18600,2315
2013/09/17,4660,4670,4500,4570,28000,2285
2013/09/18,4570,4625,4570,4590,12800,2295
2013/09/19,4610,4740,4605,4730,33100,2365
2013/09/20,4730,4775,4725,4750,15200,2375
2013/09/24,4755,4835,4750,4810,21400,2405
2013/09/26,4760,4865,4760,4850,17000,2425
2013/09/27,4855,5060,4825,5040,57400,2520
2013/09/30,4950,4965,4860,4960,26200,2480
2013/10/01,4935,5020,4920,4980,36800,2490
2013/10/02,4990,5030,4905,4980,49100,2490
2013/10/03,4915,4920,4815,4820,38300,2410
2013/10/04,4790,4790,4695,4700,33700,2350
2013/10/07,4685,4765,4675,4690,27400,2345
2013/10/10,4825,5020,4820,4940,56900,2470
2013/10/16,4935,4985,4925,4970,14700,2485
2013/10/17,4960,4980,4920,4950,29300,2475
2013/10/18,4970,5020,4965,5000,30100,2500
2013/10/21,5000,5050,5000,5040,15700,2520
2013/10/22,5050,5120,5030,5120,29100,2560
2013/10/23,5110,5150,5020,5030,31900,2515
2013/10/24,4995,5080,4960,5060,21700,2530
2013/10/25,5060,5060,5000,5010,11500,2505
2013/10/28,4975,5030,4975,5000,16500,2500
2013/10/29,4980,5040,4955,5020,23100,2510
2013/10/31,4990,5070,4990,5050,16200,2525
2013/11/01,5010,5020,4890,4900,32600,2450
2013/11/05,4935,5050,4935,5020,34000,2510
2013/11/06,5010,5040,4990,5010,13800,2505
2013/11/07,5010,5080,4975,5050,22300,2525
2013/11/08,4985,5070,4985,5050,14600,2525
2013/11/11,5050,5130,5050,5120,26800,2560
2013/11/12,5120,5190,5100,5190,24400,2595
2013/11/13,5170,5230,5170,5200,30800,2600
2013/11/14,5140,5180,4975,5000,115900,2500
2013/11/15,5030,5070,5000,5020,114100,2510
2013/11/18,5030,5100,4990,5070,51800,2535
2013/11/19,5070,5180,5070,5180,37400,2590
2013/11/20,5180,5180,5110,5120,21100,2560
2013/11/21,5100,5150,5100,5150,19900,2575
2013/11/22,5110,5140,5060,5080,22300,2540
2013/11/25,5120,5170,5110,5140,18400,2570
2013/11/26,5140,5140,5060,5060,29600,2530
2013/11/27,5070,5080,5040,5050,13600,2525
2013/11/28,5080,5090,5030,5040,16500,2520
2013/11/29,5040,5040,4995,5010,42900,2505
2013/12/02,5030,5040,4995,5000,21500,2500
2013/12/03,5000,5020,4995,5000,23000,2500
2013/12/04,4990,5010,4950,4950,31800,2475
2013/12/09,4925,4980,4925,4960,15700,2480
2013/12/10,4955,4955,4900,4920,26600,2460
2013/12/12,4975,4975,4915,4920,26800,2460
2013/12/16,4915,4925,4860,4860,30100,2430
2013/12/18,4855,4900,4855,4880,37600,2440
2013/12/19,4900,4970,4900,4960,40900,2480
2013/12/20,4960,4960,4910,4910,27700,2455
2013/12/30,4980,5040,4960,5030,48200,2515
2014/01/06,5070,5090,5050,5060,31100,2530
2014/01/07,5030,5050,4990,4990,17200,2495
2014/01/08,5010,5070,5010,5060,24000,2530
2014/01/09,5060,5070,5030,5050,20100,2525
2014/01/10,5030,5070,4985,5050,43900,2525
2014/01/14,5000,5050,4965,5010,36600,2505
2014/01/15,5040,5060,5030,5060,20600,2530
2014/01/16,5050,5060,5020,5020,25700,2510
2014/01/17,5040,5100,5030,5080,29700,2540
2014/01/20,5090,5150,5090,5100,37000,2550
2014/01/21,5100,5110,5020,5030,32900,2515
2014/01/22,5030,5030,4995,5010,30400,2505
2014/01/24,4910,4945,4870,4890,49800,2445
2014/01/27,4845,4880,4820,4830,36700,2415
2014/01/28,4850,4895,4850,4850,22200,2425
2014/01/30,4890,4890,4825,4840,27400,2420
2014/01/31,4885,4935,4860,4900,35600,2450
2014/02/05,4700,4745,4590,4650,40700,2325
2014/02/10,4745,4835,4745,4820,26900,2410
2014/02/17,4845,4845,4780,4820,14400,2410
2014/02/18,4850,4870,4800,4840,18600,2420
2014/02/19,4830,4845,4805,4840,14000,2420
2014/02/21,4790,4830,4765,4800,45800,2400
2014/02/24,4820,4820,4720,4770,28200,2385
2014/02/25,4800,4815,4760,4800,20600,2400
2014/02/26,4800,4800,4715,4720,25000,2360
2014/02/28,4740,4750,4680,4720,27800,2360
2014/03/03,4730,4760,4700,4760,23800,2380
2014/03/06,4865,4940,4865,4930,32500,2465
2014/03/11,4995,5040,4970,5010,26700,2505
2014/03/12,5010,5060,4980,5030,40000,2515
2014/03/13,5030,5030,4970,4980,20100,2490
2014/03/17,4885,4945,4855,4860,31500,2430
2014/03/20,4970,4970,4900,4900,25400,2450
2014/03/24,4910,5070,4910,5030,62700,2515
2014/03/25,5100,5190,5090,5120,67400,2560
2014/03/26,5220,5220,5130,5130,114400,2565
2014/03/27,5080,5130,4980,5110,78800,2555
2014/03/28,5120,5150,5040,5120,52000,2560
2014/03/31,5120,5120,5030,5080,41700,2540
2014/04/01,5060,5090,5040,5070,29800,2535
2014/04/02,5080,5150,5070,5120,45300,2560
2014/04/03,5090,5150,5090,5100,21200,2550
2014/04/04,5090,5110,5060,5060,13200,2530
2014/04/09,4875,4885,4855,4860,21600,2430
2014/04/15,4865,4875,4790,4800,22300,2400
2014/04/17,4840,4875,4810,4810,18400,2405
2014/04/22,4880,4890,4820,4820,7500,2410
2014/05/01,4885,4955,4875,4940,18300,2470
2014/05/07,4900,4900,4815,4820,19400,2410
2014/05/12,4820,4885,4820,4820,18200,2410
2014/05/13,4885,4885,4815,4840,20800,2420
2014/05/16,4805,4830,4800,4810,42000,2405
2014/05/20,4790,4850,4790,4800,22300,2400
2014/05/23,4915,4955,4905,4950,28100,2475
2014/05/26,4980,4985,4915,4980,21100,2490
2014/05/27,4985,5030,4975,5020,17000,2510
2014/05/28,5010,5050,5000,5030,16100,2515
2014/05/29,4980,5040,4980,5000,16500,2500
2014/06/03,4980,5040,4970,5030,24200,2515
2014/06/04,5000,5080,4995,5070,30000,2535
2014/06/05,5030,5040,5000,5020,23600,2510
2014/06/06,5030,5100,5000,5080,38200,2540
2014/06/09,5050,5130,5040,5120,25800,2560
2014/06/10,5110,5110,5030,5050,12300,2525
2014/06/11,5040,5050,5010,5040,7300,2520
2014/06/12,5020,5120,5010,5100,19600,2550
2014/06/13,5050,5150,5050,5130,28300,2565
2014/06/16,5140,5190,5120,5160,18000,2580
2014/06/17,5150,5200,5150,5190,16200,2595
2014/06/18,5190,5190,5140,5160,11900,2580
2014/06/19,5170,5220,5160,5220,30000,2610
2014/06/20,5220,5240,5190,5220,21800,2610
2014/06/23,5230,5290,5220,5270,20500,2635
2014/06/24,5300,5370,5290,5370,26900,2685
2014/06/25,5330,5440,5330,5400,33500,2700
2014/06/26,5400,5430,5330,5330,15700,2665
2014/06/27,5320,5330,5250,5300,13500,2650
2014/06/30,5300,5450,5300,5430,23600,2715
2014/07/01,5430,5470,5390,5460,26500,2730
2014/07/02,5480,5490,5410,5470,21800,2735
2014/07/03,5480,5580,5470,5540,23300,2770
2014/07/04,5550,5600,5520,5600,18700,2800
2014/07/07,5610,5650,5560,5650,15700,2825
2014/07/08,5630,5700,5550,5680,27200,2840
2014/07/09,5670,5670,5630,5640,13300,2820
2014/07/10,5650,5650,5550,5550,14400,2775
2014/07/11,5500,5570,5490,5550,15300,2775
2014/07/14,5550,5580,5540,5570,6000,2785
2014/07/15,5570,5610,5570,5570,6800,2785
2014/07/16,5570,5650,5550,5650,19200,2825
2014/07/17,5600,5680,5560,5660,30100,2830
2014/07/18,5600,5600,5540,5560,18900,2780
2014/07/22,5600,5640,5560,5590,8600,2795
2014/07/23,5610,5610,5560,5600,7300,2800
2014/07/24,5620,5690,5590,5680,13200,2840
2014/07/25,5660,5710,5630,5680,25100,2840
2014/07/28,5700,5740,5680,5730,15000,2865
2014/07/29,5740,5750,5680,5750,14200,2875
2014/07/30,5720,5750,5700,5720,17700,2860
2014/07/31,5740,5740,5610,5640,17800,2820
2014/08/01,5600,5630,5580,5590,9700,2795
2014/08/04,5570,5610,5540,5570,14500,2785
2014/08/05,5530,5620,5530,5580,16900,2790
2014/08/06,5650,5680,5520,5530,22300,2765
2014/08/07,5520,5720,5520,5710,23500,2855
2014/08/08,5640,5710,5610,5640,21000,2820
2014/08/11,5660,5820,5660,5790,27400,2895
2014/08/12,5800,5840,5770,5810,19900,2905
2014/08/13,5800,5830,5740,5810,9700,2905
2014/08/14,5820,5840,5770,5790,11400,2895
2014/08/15,5790,5810,5770,5810,8800,2905
2014/08/18,5800,5830,5770,5800,7600,2900
2014/08/19,5810,5870,5770,5850,19800,2925
2014/08/20,5890,5950,5880,5920,18700,2960
2014/08/21,5920,5980,5880,5970,18400,2985
2014/08/22,5980,5980,5940,5960,10200,2980
2014/08/25,5950,5950,5920,5920,9900,2960
2014/08/26,5940,5950,5900,5920,15100,2960
2014/08/27,5920,5920,5800,5850,21200,2925
2014/08/28,5850,5850,5810,5820,9400,2910
2014/08/29,5820,5930,5820,5880,18200,2940
2014/09/01,5870,5990,5850,5900,24900,2950
2014/09/02,5900,5940,5870,5930,7300,2965
2014/09/03,5950,5950,5890,5930,7600,2965
2014/09/04,5890,5960,5890,5890,9400,2945
2014/09/05,5910,5930,5850,5870,14200,2935
2014/09/08,5930,5930,5850,5870,20600,2935
2014/09/09,5880,5950,5880,5930,11700,2965
2014/09/10,5940,6000,5900,5990,10600,2995
2014/09/11,6000,6000,5920,5950,12800,2975
2014/09/12,6000,6000,5870,5900,32500,2950
2014/09/16,5960,5990,5930,5980,8000,2990
2014/09/17,6000,6030,5970,6000,12600,3000
2014/09/18,6010,6080,6010,6070,9700,3035
2014/09/19,6100,6190,6040,6130,51200,3065
2014/09/22,6150,6160,5970,6010,28100,3005
2014/09/24,6010,6090,5980,6040,31500,3020
2014/09/25,6080,6130,6030,6130,18500,3065
2014/09/26,5910,6050,5910,5940,33500,2970
2014/09/29,5940,5960,5740,5760,67600,2880
2014/09/30,5760,5780,5540,5540,106700,2770
2014/10/01,5550,5670,5520,5630,41300,2815
2014/10/02,5570,5610,5520,5550,36800,2775
2014/10/03,5500,5660,5460,5640,39800,2820
2014/10/06,5670,5770,5650,5750,28300,2875
2014/10/07,5770,5770,5690,5700,23900,2850
2014/10/08,5660,5740,5580,5680,30600,2840
2014/10/09,5690,5720,5670,5700,20100,2850
2014/10/10,5550,5660,5550,5640,30700,2820
2014/10/14,5540,5630,5510,5580,25900,2790
2014/10/15,5630,5700,5630,5690,19500,2845
2014/10/16,5590,5640,5570,5590,22100,2795
2014/10/17,5650,5700,5490,5530,62400,2765
2014/10/20,5700,5760,5640,5740,28700,2870
2014/10/21,5740,5740,5640,5650,15100,2825
2014/10/22,5760,5790,5740,5770,24400,2885
2014/10/23,5760,5760,5650,5700,17500,2850
2014/10/24,5730,5740,5670,5720,15700,2860
2014/10/27,5760,5760,5700,5720,9900,2860
2014/10/28,5720,5740,5680,5690,10700,2845
2014/10/29,5710,5740,5570,5630,31500,2815
2014/10/30,5660,5750,5650,5670,46000,2835
2014/10/31,5740,5870,5720,5830,41900,2915
2014/11/04,5920,5930,5800,5810,50800,2905
2014/11/05,5810,5940,5800,5890,45800,2945
2014/11/06,5890,5930,5810,5810,29100,2905
2014/11/07,5800,5880,5790,5860,26700,2930
2014/11/10,5880,5920,5850,5900,20900,2950
2014/11/11,5900,5910,5840,5860,20600,2930
2014/11/12,5880,5930,5880,5910,23100,2955
2014/11/13,5880,5910,5820,5860,25100,2930
2014/11/14,5950,6040,5880,6000,63300,3000
2014/11/17,6000,6120,5980,6120,55500,3060
2014/11/18,6130,6180,6090,6170,47400,3085
2014/11/19,6290,6430,6200,6220,57200,3110
2014/11/20,6230,6430,6200,6300,38900,3150
2014/11/21,6300,6340,6190,6210,41300,3105
2014/11/25,6260,6410,6260,6390,47200,3195
2014/11/26,6420,6530,6410,6480,53900,3240
2014/11/27,6440,6500,6420,6450,18500,3225
2014/11/28,6450,6570,6450,6550,24600,3275
2014/12/01,6610,6730,6610,6700,32600,3350
2014/12/02,6750,6870,6730,6860,45500,3430
2014/12/03,6910,6980,6840,6950,59500,3475
2014/12/04,6950,6990,6910,6940,33300,3470
2014/12/05,6940,6940,6730,6810,42700,3405
2014/12/08,6810,6840,6710,6740,40700,3370
2014/12/09,6650,6810,6590,6770,39200,3385
2014/12/10,6760,6760,6610,6620,35400,3310
2014/12/11,6610,6790,6610,6740,30700,3370
2014/12/12,6730,6780,6670,6740,38600,3370
2014/12/15,6770,6790,6710,6730,14900,3365
2014/12/16,6700,6760,6670,6670,22700,3335
2014/12/17,6660,6690,6590,6610,21700,3305
2014/12/18,6660,6710,6620,6670,17600,3335
2014/12/19,6750,6860,6730,6850,35100,3425
2014/12/22,6800,6810,6750,6770,15300,3385
2014/12/24,6850,6890,6790,6870,28100,3435
2014/12/25,6880,6900,6820,6850,23300,3425
2014/12/26,6850,6900,6820,6860,17400,3430
2014/12/29,6900,6960,6860,6950,23200,3475
2014/12/30,6970,6970,6900,6940,11800,3470
2015/01/05,6870,6960,6840,6900,15600,3450
2015/01/06,6900,6960,6880,6930,36500,3465
2015/01/07,6910,6930,6860,6890,15600,3445
2015/01/08,6900,6960,6890,6940,18800,3470
2015/01/09,6940,6980,6900,6980,20400,3490
2015/01/13,6970,7090,6900,7010,38300,3505
2015/01/14,7010,7140,7010,7100,28000,3550
2015/01/15,7150,7240,7140,7220,36300,3610
2015/01/16,7210,7250,7040,7240,33300,3620
2015/01/19,7240,7300,7200,7280,17400,3640
2015/01/20,7300,7380,7290,7370,20200,3685
2015/01/21,7390,7430,7220,7300,36800,3650
2015/01/22,7260,7270,7150,7200,32600,3600
2015/01/23,7200,7230,7160,7190,15100,3595
2015/01/26,7160,7240,7130,7240,23100,3620
2015/01/27,7310,7430,7280,7410,36900,3705
2015/01/28,7450,7690,7420,7650,46200,3825
2015/01/29,7640,7810,7630,7690,42600,3845
2015/01/30,7690,7730,7550,7590,38100,3795
2015/02/02,7500,7660,7410,7640,27800,3820
2015/02/03,7720,7780,7460,7470,39600,3735
2015/02/04,7460,7640,7460,7560,36500,3780
2015/02/05,7530,7640,7470,7530,34600,3765
2015/02/06,7560,7590,7390,7520,56600,3760
2015/02/09,7550,7630,7420,7430,55300,3715
2015/02/10,7480,7540,7380,7400,48400,3700
2015/02/12,7530,7760,7450,7730,63200,3865
2015/02/13,7730,7740,7590,7590,41900,3795
2015/02/16,7690,7690,7610,7630,25000,3815
2015/02/17,7600,7640,7540,7610,24500,3805
2015/02/18,7700,7800,7650,7700,46100,3850
2015/02/19,7700,7710,7660,7700,23300,3850
2015/02/20,7700,7800,7700,7790,20500,3895
2015/02/23,7800,7810,7750,7770,18400,3885
2015/02/24,7760,7810,7710,7770,33500,3885
2015/02/25,7780,7780,7710,7730,16800,3865
2015/02/26,7770,7790,7690,7730,22900,3865
2015/02/27,7740,7830,7650,7800,42900,3900
2015/03/02,8500,8550,8310,8460,183700,4230
2015/03/03,8460,8460,8130,8360,99600,4180
2015/03/04,8210,8270,8140,8230,49200,4115
2015/03/05,8200,8290,8180,8230,34900,4115
2015/03/06,8300,8300,8220,8250,28900,4125
2015/03/09,8250,8340,8190,8260,32100,4130
2015/03/10,8340,8400,8250,8280,34100,4140
2015/03/11,8250,8270,8190,8200,46400,4100
2015/03/12,8210,8240,8160,8230,32600,4115
2015/03/13,8270,8320,8250,8310,28400,4155
2015/03/16,8310,8340,8240,8260,25800,4130
2015/03/17,8290,8340,8250,8280,27700,4140
2015/03/18,8280,8320,8230,8280,43500,4140
2015/03/19,8270,8400,8270,8380,48600,4190
2015/03/20,8410,8500,8410,8490,44300,4245
2015/03/23,8570,8670,8570,8640,40100,4320
2015/03/24,8660,8680,8560,8590,42600,4295
2015/03/25,8600,8610,8500,8530,47500,4265
2015/03/26,8430,8460,8330,8350,84400,4175
2015/03/27,4105,4160,4060,4090,112200,4090
2015/03/30,4060,4080,4000,4070,109700,4070
2015/03/31,4105,4140,4070,4085,72700,4085
2015/04/01,4075,4080,3990,4020,91000,4020
2015/04/02,4045,4120,4035,4095,58500,4095
2015/04/03,4095,4125,4080,4120,59200,4120
2015/04/06,4130,4130,4085,4115,44200,4115
2015/04/07,4105,4120,4090,4100,40400,4100
2015/04/08,4100,4130,4095,4130,48100,4130
2015/04/09,4130,4150,4105,4125,55500,4125
2015/04/10,4125,4130,4085,4090,45000,4090
2015/04/13,4090,4090,4020,4055,49000,4055
2015/04/14,4035,4070,4025,4050,47900,4050
2015/04/15,4030,4040,4005,4010,51900,4010
2015/04/16,4000,4025,3950,3995,92000,3995
2015/04/17,3995,4020,3975,4000,50200,4000
2015/04/20,3960,4010,3960,3995,40700,3995
2015/04/21,4010,4030,3985,4020,31300,4020
2015/04/22,4025,4085,4025,4075,65300,4075
2015/04/23,4075,4085,4040,4060,41300,4060
2015/04/24,4045,4130,4040,4105,88500,4105
2015/04/27,4105,4130,4080,4110,60000,4110
2015/04/28,4120,4140,4100,4115,52200,4115
2015/04/30,4095,4105,4015,4025,55000,4025
2015/05/01,4015,4025,3980,3995,58500,3995
2015/05/07,3990,4025,3945,3960,46600,3960
2015/05/08,3950,4025,3950,4005,26100,4005
2015/05/11,4050,4080,4030,4060,35500,4060
2015/05/12,4060,4080,4020,4075,28300,4075
2015/05/13,4040,4090,4030,4075,29600,4075
2015/05/14,4075,4090,3995,4000,75100,4000
2015/05/15,4035,4145,4030,4145,93500,4145
2015/05/18,4145,4145,4070,4085,63000,4085
2015/05/19,4090,4140,4065,4075,61000,4075
2015/05/20,4085,4095,4035,4070,65000,4070
2015/05/21,4090,4115,4040,4065,70500,4065
2015/05/22,4100,4115,4040,4075,45900,4075
2015/05/25,4115,4125,4075,4110,39200,4110
2015/05/26,4120,4135,4075,4105,36700,4105
2015/05/27,4100,4145,4095,4140,40000,4140
2015/05/28,4145,4155,4105,4145,51300,4145
2015/05/29,4130,4175,4125,4160,53100,4160
2015/06/01,4160,4175,4115,4145,37100,4145
2015/06/02,4145,4170,4100,4160,56500,4160
2015/06/03,4125,4125,4075,4090,51700,4090
2015/06/04,4110,4140,4095,4125,50000,4125
2015/06/05,4105,4160,4095,4145,65100,4145
2015/06/08,4160,4170,4140,4155,40500,4155
2015/06/09,4125,4125,4075,4085,56300,4085
2015/06/10,4100,4115,4055,4085,42300,4085
2015/06/11,4110,4120,4080,4100,49400,4100
2015/06/12,4140,4165,4085,4105,62900,4105
2015/06/15,4120,4175,4100,4165,47100,4165
2015/06/16,4180,4195,4165,4165,49900,4165
2015/06/17,4190,4200,4130,4135,39100,4135
2015/06/18,4135,4185,4135,4145,45400,4145
2015/06/19,4170,4175,4130,4130,55700,4130
2015/06/22,4145,4185,4140,4170,46700,4170
2015/06/23,4185,4215,4160,4205,51500,4205
2015/06/24,4230,4245,4200,4215,57500,4215
2015/06/25,4200,4215,4175,4180,46400,4180
2015/06/26,4225,4235,4210,4210,37800,4210
2015/06/29,4155,4170,4110,4110,60200,4110
2015/06/30,4090,4090,4005,4030,121600,4030
2015/07/01,4030,4050,4005,4015,91500,4015
