2011/01/04,535,540,534,539,7060000,539
2011/01/05,540,543,538,539,4520000,539
2011/01/06,543,548,539,543,8136000,543
2011/01/07,543,549,541,544,5170000,544
2011/01/11,545,551,541,548,7839000,548
2011/01/12,550,558,545,545,7426000,545
2011/01/13,554,555,547,552,5929000,552
2011/01/14,548,555,547,551,7562000,551
2011/01/17,556,559,553,554,5320000,554
2011/01/18,551,565,551,562,8154000,562
2011/01/19,567,573,560,564,10711000,564
2011/01/20,561,563,553,556,9151000,556
2011/01/21,561,561,545,547,10031000,547
2011/01/24,548,564,547,560,10221000,560
2011/01/25,567,575,567,571,10300000,571
2011/01/26,567,577,565,571,5681000,571
2011/01/27,571,579,567,578,7177000,578
2011/01/28,571,572,560,563,9727000,563
2011/01/31,555,564,553,560,6288000,560
2011/02/01,564,567,559,566,5443000,566
2011/02/02,571,574,570,571,6138000,571
2011/02/03,568,585,568,584,8624000,584
2011/02/04,586,598,560,564,26841000,564
2011/02/07,573,573,560,561,10904000,561
2011/02/08,563,572,562,568,8189000,568
2011/02/09,573,575,559,561,6944000,561
2011/02/10,560,566,559,565,4895000,565
2011/02/14,569,570,565,567,4593000,567
2011/02/15,571,580,568,578,10003000,578
2011/02/16,577,582,574,575,6484000,575
2011/02/17,584,587,580,583,6953000,583
2011/02/18,581,583,575,582,6906000,582
2011/02/21,580,584,579,583,5753000,583
2011/02/22,577,578,564,568,7514000,568
2011/02/23,562,568,559,560,7438000,560
2011/02/24,557,557,543,543,9721000,543
2011/02/25,547,558,546,556,8003000,556
2011/02/28,555,566,549,564,7131000,564
2011/03/01,569,579,569,578,6551000,578
2011/03/02,568,577,563,564,10007000,564
2011/03/03,572,582,571,580,9463000,580
2011/03/04,589,593,584,590,11185000,590
2011/03/07,584,584,575,577,6338000,577
2011/03/08,578,579,573,574,5717000,574
2011/03/09,583,588,579,583,6134000,583
2011/03/10,581,583,572,575,5252000,575
2011/03/11,565,568,560,560,10110000,560
2011/03/14,530,541,506,511,17968000,511
2011/03/15,491,493,411,450,15366000,450
2011/03/16,506,530,505,529,15266000,529
2011/03/17,500,519,499,505,11283000,505
2011/03/18,510,523,508,510,8394000,510
2011/03/22,532,551,532,546,9700000,546
2011/03/23,543,548,532,540,6630000,540
2011/03/24,537,545,533,534,6912000,534
2011/03/25,548,553,540,549,8818000,549
2011/03/28,551,556,545,555,7163000,555
2011/03/29,550,554,537,544,7777000,544
2011/03/30,549,563,547,561,7422000,561
2011/03/31,561,564,555,561,5505000,561
2011/04/01,562,569,556,563,6594000,563
2011/04/04,567,571,564,565,5141000,565
2011/04/05,567,567,547,552,8184000,552
2011/04/06,540,544,532,535,8744000,535
2011/04/07,538,541,531,533,4526000,533
2011/04/08,532,542,523,539,6898000,539
2011/04/11,536,537,530,532,4186000,532
2011/04/12,524,526,516,520,6253000,520
2011/04/13,515,527,511,525,6027000,525
2011/04/14,521,528,513,526,8928000,526
2011/04/15,522,528,518,526,6547000,526
2011/04/18,532,533,521,521,4730000,521
2011/04/19,514,519,512,516,4570000,516
2011/04/20,524,531,522,526,6791000,526
2011/04/21,530,531,522,526,4750000,526
2011/04/22,526,540,524,537,11261000,537
2011/04/25,539,542,530,531,5177000,531
2011/04/26,525,528,522,526,8525000,526
2011/04/27,531,544,531,544,10477000,544
2011/04/28,545,554,542,554,10152000,554
2011/05/02,557,558,548,556,7737000,556
2011/05/06,546,547,540,542,7103000,542
2011/05/09,546,546,539,542,4444000,542
2011/05/10,544,556,544,550,8159000,550
2011/05/11,557,561,539,542,12871000,542
2011/05/12,540,545,537,538,5050000,538
2011/05/13,541,541,527,532,5656000,532
2011/05/16,531,532,526,529,4304000,529
2011/05/17,528,529,520,527,5445000,527
2011/05/18,532,539,530,538,6963000,538
2011/05/19,538,541,527,529,5572000,529
2011/05/20,529,533,526,527,3243000,527
2011/05/23,525,530,522,527,6925000,527
2011/05/24,522,524,516,520,5799000,520
2011/05/25,518,524,517,520,7074000,520
2011/05/26,522,524,517,522,6036000,522
2011/05/27,518,524,515,519,5565000,519
2011/05/30,519,526,516,522,4942000,522
2011/05/31,522,532,521,532,5342000,532
2011/06/01,534,537,530,535,5759000,535
2011/06/02,525,532,524,532,5234000,532
2011/06/03,532,535,519,519,4524000,519
2011/06/06,518,523,516,516,5499000,516
2011/06/07,517,529,516,527,6388000,527
2011/06/08,525,534,524,533,4755000,533
2011/06/09,528,531,526,530,3998000,530
2011/06/10,532,537,528,529,6033000,529
2011/06/13,526,534,525,527,3935000,527
2011/06/14,528,537,528,535,5553000,535
2011/06/15,539,542,536,540,6559000,540
2011/06/16,536,536,523,524,7064000,524
2011/06/17,528,529,513,515,7644000,515
2011/06/20,519,522,514,517,3962000,517
2011/06/21,517,519,512,518,4326000,518
2011/06/22,520,531,518,529,6498000,529
2011/06/23,523,530,522,523,3758000,523
2011/06/24,525,528,522,526,3174000,526
2011/06/27,523,525,519,522,4598000,522
2011/06/28,526,530,522,524,3477000,524
2011/06/29,530,532,526,532,2835000,532
2011/06/30,535,541,532,540,5061000,540
2011/07/01,542,548,538,540,6005000,540
2011/07/04,547,551,542,543,7387000,543
2011/07/05,545,553,544,545,5554000,545
2011/07/06,544,551,541,550,5443000,550
2011/07/07,548,551,545,549,4686000,549
2011/07/08,555,555,547,550,3947000,550
2011/07/11,548,553,546,550,4336000,550
2011/07/12,545,546,542,544,5077000,544
2011/07/13,543,551,543,547,5732000,547
2011/07/14,548,560,543,557,8401000,557
2011/07/15,556,559,550,554,6230000,554
2011/07/19,554,565,553,563,8201000,563
2011/07/20,566,567,555,559,7103000,559
2011/07/21,560,564,557,560,4619000,560
2011/07/22,567,567,562,564,4390000,564
2011/07/25,564,564,559,563,3693000,563
2011/07/26,562,565,559,564,2962000,564
2011/07/27,557,558,553,556,3968000,556
2011/07/28,551,553,546,549,4740000,549
2011/07/29,546,551,545,545,3963000,545
2011/08/01,547,555,546,548,4287000,548
2011/08/02,544,553,540,548,8576000,548
2011/08/03,539,539,531,534,5996000,534
2011/08/04,543,555,540,545,10784000,545
2011/08/05,519,526,518,524,8157000,524
2011/08/08,517,522,509,513,7371000,513
2011/08/09,500,509,483,509,10614000,509
2011/08/10,518,526,515,518,7242000,518
2011/08/11,508,520,508,518,7909000,518
2011/08/12,522,523,513,517,6933000,517
2011/08/15,524,524,514,519,5896000,519
2011/08/16,524,537,524,537,11833000,537
2011/08/17,536,538,526,530,11005000,530
2011/08/18,525,529,520,523,8310000,523
2011/08/19,513,516,502,504,7726000,504
2011/08/22,499,507,495,496,6501000,496
2011/08/23,495,499,485,491,9266000,491
2011/08/24,493,496,482,485,9019000,485
2011/08/25,493,500,491,492,8259000,492
2011/08/26,492,502,491,495,7328000,495
2011/08/29,497,503,493,497,9992000,497
2011/08/30,504,508,501,506,6494000,506
2011/08/31,498,508,495,506,5910000,506
2011/09/01,510,519,509,516,6730000,516
2011/09/02,515,516,501,503,8650000,503
2011/09/05,495,499,493,495,3489000,495
2011/09/06,491,497,483,484,4752000,484
2011/09/07,492,494,486,493,5146000,493
2011/09/08,498,499,488,492,4278000,492
2011/09/09,487,494,487,490,8733000,490
2011/09/12,478,482,475,480,7985000,480
2011/09/13,484,485,477,479,8423000,479
2011/09/14,480,485,472,475,8174000,475
2011/09/15,482,490,474,477,6981000,477
2011/09/16,485,491,484,491,6870000,491
2011/09/20,487,489,481,485,5559000,485
2011/09/21,483,486,479,480,5034000,480
2011/09/22,475,475,466,471,6604000,471
2011/09/26,476,478,459,462,7472000,462
2011/09/27,467,470,461,467,6789000,467
2011/09/28,465,472,463,469,6251000,469
2011/09/29,467,473,460,470,7057000,470
2011/09/30,471,473,461,469,5756000,469
2011/10/03,460,463,450,455,7699000,455
2011/10/04,448,451,443,451,6965000,451
2011/10/05,455,455,437,442,7569000,442
2011/10/06,445,466,444,466,8674000,466
2011/10/07,472,489,470,484,8103000,484
2011/10/11,492,493,482,484,6274000,484
2011/10/12,482,486,474,484,6792000,484
2011/10/13,489,490,484,488,3637000,488
2011/10/14,482,489,479,486,5022000,486
2011/10/17,490,491,480,482,4402000,482
2011/10/18,475,478,472,474,3307000,474
2011/10/19,474,475,467,471,4500000,471
2011/10/20,467,467,462,464,3374000,464
2011/10/21,460,462,457,460,3249000,460
2011/10/24,462,473,461,473,3923000,473
2011/10/25,473,476,467,470,4052000,470
2011/10/26,465,471,460,467,2182000,467
2011/10/27,468,478,467,478,2575000,478
2011/10/28,484,485,472,474,4249000,474
2011/10/31,471,480,467,470,4914000,470
2011/11/01,469,471,461,465,3684000,465
2011/11/02,460,476,449,463,13084000,463
2011/11/04,465,467,455,459,8156000,459
2011/11/07,456,457,446,456,6748000,456
2011/11/08,451,458,448,450,5240000,450
2011/11/09,457,460,450,459,5197000,459
2011/11/10,451,455,447,455,7024000,455
2011/11/11,454,455,443,446,6908000,446
2011/11/14,454,459,452,459,4425000,459
2011/11/15,454,457,452,455,3699000,455
2011/11/16,454,455,446,448,5302000,448
2011/11/17,443,449,437,445,5850000,445
2011/11/18,439,443,437,438,4478000,438
2011/11/21,439,444,438,442,4164000,442
2011/11/22,435,447,435,447,4465000,447
2011/11/24,440,443,436,439,3142000,439
2011/11/25,443,445,439,443,5180000,443
2011/11/28,448,450,442,445,5421000,445
2011/11/29,449,461,448,459,5767000,459
2011/11/30,457,459,448,459,6641000,459
2011/12/01,467,468,459,460,6253000,460
2011/12/02,464,466,460,464,4679000,464
2011/12/05,469,473,466,471,5235000,471
2011/12/06,469,469,461,461,5128000,461
2011/12/07,463,468,457,466,8832000,466
2011/12/08,460,463,453,460,8277000,460
2011/12/09,453,464,453,459,10381000,459
2011/12/12,470,473,461,462,6484000,462
2011/12/13,459,468,457,466,6447000,466
2011/12/14,467,471,465,467,6374000,467
2011/12/15,462,462,457,460,6468000,460
2011/12/16,462,465,458,460,6752000,460
2011/12/19,456,456,443,447,6703000,447
2011/12/20,446,451,446,448,3256000,448
2011/12/21,456,459,455,457,3594000,457
2011/12/22,457,462,456,457,5536000,457
2011/12/26,462,462,457,459,1574000,459
2011/12/27,453,458,452,457,1511000,457
2011/12/28,461,464,456,456,4263000,456
2011/12/29,458,464,451,462,3712000,462
2011/12/30,462,464,458,464,2294000,464
2012/01/04,472,477,470,475,4537000,475
2012/01/05,473,474,468,469,2663000,469
2012/01/06,463,464,456,460,5050000,460
2012/01/10,469,470,461,464,5064000,464
2012/01/11,464,469,462,467,3863000,467
2012/01/12,465,469,464,468,3142000,468
2012/01/13,474,476,470,475,5819000,475
2012/01/16,475,475,469,471,3659000,471
2012/01/17,474,475,468,473,3119000,473
2012/01/18,471,486,468,481,5239000,481
2012/01/19,480,484,480,481,3425000,481
2012/01/20,484,490,482,484,5583000,484
2012/01/23,484,488,482,487,3258000,487
2012/01/24,488,489,478,481,3861000,481
2012/01/25,484,490,481,488,4424000,488
2012/01/26,489,490,485,488,3868000,488
2012/01/27,490,494,488,492,4923000,492
2012/01/30,492,494,486,488,2872000,488
2012/01/31,488,490,480,482,4170000,482
2012/02/01,481,487,480,487,3117000,487
2012/02/02,487,491,485,485,3066000,485
2012/02/03,484,493,472,483,12002000,483
2012/02/06,484,486,480,481,4232000,481
2012/02/07,480,483,477,479,5452000,479
2012/02/08,482,484,477,484,3662000,484
2012/02/09,483,489,483,485,3202000,485
2012/02/10,485,492,481,489,6713000,489
2012/02/13,486,489,482,485,4319000,485
2012/02/14,483,484,475,482,3816000,482
2012/02/15,484,493,482,488,6181000,488
2012/02/16,489,492,484,487,3757000,487
2012/02/17,493,501,490,496,8434000,496
2012/02/20,501,504,493,495,4542000,495
2012/02/21,495,498,493,494,5755000,494
2012/02/22,499,509,498,508,8550000,508
2012/02/23,509,516,507,512,8672000,512
2012/02/24,513,516,510,510,4588000,510
2012/02/27,517,517,509,512,4890000,512
2012/02/28,507,514,500,512,7595000,512
2012/02/29,517,523,513,515,7185000,515
2012/03/01,518,527,514,515,8453000,515
2012/03/02,520,521,510,510,6037000,510
2012/03/05,511,517,507,510,5604000,510
2012/03/06,512,514,499,506,10302000,506
2012/03/07,495,502,495,502,8830000,502
2012/03/08,508,511,506,508,4507000,508
2012/03/09,517,522,512,517,9763000,517
2012/03/12,522,523,516,518,7217000,518
2012/03/13,499,504,487,490,31383000,490
2012/03/14,496,501,484,496,24805000,496
2012/03/15,499,501,496,499,8100000,499
2012/03/16,499,502,496,502,6592000,502
2012/03/19,503,503,499,501,5714000,501
2012/03/21,500,509,498,506,10834000,506
2012/03/22,503,503,499,501,8111000,501
2012/03/23,499,500,496,499,7050000,499
2012/03/26,502,502,497,497,4022000,497
2012/03/27,510,517,508,516,11014000,516
2012/03/28,508,512,504,507,7158000,507
2012/03/29,505,508,503,508,5218000,508
2012/03/30,511,515,507,511,9742000,511
2012/04/02,515,515,502,504,6181000,504
2012/04/03,502,507,501,503,4505000,503
2012/04/04,504,507,496,498,6449000,498
2012/04/05,495,496,491,494,6495000,494
2012/04/06,491,497,489,494,5801000,494
2012/04/09,490,499,489,494,6132000,494
2012/04/10,496,498,490,493,5987000,493
2012/04/11,484,491,482,487,9297000,487
2012/04/12,486,494,483,492,4952000,492
2012/04/13,493,497,491,494,5827000,494
2012/04/16,486,491,485,488,3185000,488
2012/04/17,491,494,487,491,4177000,491
2012/04/18,497,503,495,501,3409000,501
2012/04/19,495,500,493,495,4109000,495
2012/04/20,493,497,491,497,4288000,497
2012/04/23,499,504,498,500,4654000,500
2012/04/24,493,498,492,496,4400000,496
2012/04/25,504,504,496,497,4777000,497
2012/04/26,501,503,494,498,4325000,498
2012/04/27,495,504,491,496,4643000,496
2012/05/01,497,497,490,491,4047000,491
2012/05/02,489,494,487,491,3740000,491
2012/05/07,481,482,475,478,4535000,478
2012/05/08,480,483,477,479,3571000,479
2012/05/09,476,483,470,481,8033000,481
2012/05/10,476,482,474,475,5900000,475
2012/05/11,477,478,471,473,3820000,473
2012/05/14,473,474,461,465,5161000,465
2012/05/15,457,464,454,462,5343000,462
2012/05/16,463,464,451,455,5505000,455
2012/05/17,456,462,453,460,4870000,460
2012/05/18,452,453,441,444,6585000,444
2012/05/21,443,446,440,440,5140000,440
2012/05/22,448,448,442,444,4108000,444
2012/05/23,447,447,436,437,4840000,437
2012/05/24,435,440,430,435,5783000,435
2012/05/25,440,440,432,435,4958000,435
2012/05/28,435,437,428,432,2668000,432
2012/05/29,429,435,426,435,3952000,435
2012/05/30,427,431,426,429,6355000,429
2012/05/31,421,427,417,424,7409000,424
2012/06/01,418,420,405,406,9246000,406
2012/06/04,398,407,395,406,8665000,406
2012/06/05,406,418,406,418,6813000,418
2012/06/06,414,423,409,420,7665000,420
2012/06/07,425,427,421,424,5301000,424
2012/06/08,422,422,410,412,8136000,412
2012/06/11,420,422,415,417,5219000,417
2012/06/12,408,414,405,412,6767000,412
2012/06/13,413,418,411,415,5544000,415
2012/06/14,411,412,407,410,4323000,410
2012/06/15,407,411,405,407,8336000,407
2012/06/18,420,422,416,417,6977000,417
2012/06/19,418,421,412,414,3161000,414
2012/06/20,421,427,420,425,6030000,425
2012/06/21,427,431,426,429,5182000,429
2012/06/22,423,427,422,425,3930000,425
2012/06/25,430,430,419,420,4489000,420
2012/06/26,412,416,406,412,8180000,412
2012/06/27,414,419,409,419,5176000,419
2012/06/28,421,423,418,422,3966000,422
2012/06/29,420,432,419,430,5228000,430
2012/07/02,436,436,430,431,3290000,431
2012/07/03,430,436,429,432,2936000,432
2012/07/04,438,438,432,433,4419000,433
2012/07/05,433,437,432,434,2833000,434
2012/07/06,434,437,426,429,7943000,429
2012/07/09,425,430,425,427,3659000,427
2012/07/10,432,434,427,428,4999000,428
2012/07/11,429,429,420,422,3488000,422
2012/07/12,423,427,417,418,4855000,418
2012/07/13,418,426,418,424,5740000,424
2012/07/17,424,427,418,421,4774000,421
2012/07/18,421,427,420,422,3009000,422
2012/07/19,427,433,426,427,2247000,427
2012/07/20,427,428,415,418,4688000,418
2012/07/23,416,419,409,409,3848000,409
2012/07/24,409,411,406,410,3642000,410
2012/07/25,408,408,400,403,4414000,403
2012/07/26,404,406,399,404,5467000,404
2012/07/27,410,414,406,411,4578000,411
2012/07/30,418,419,412,418,4007000,418
2012/07/31,418,420,413,418,4982000,418
2012/08/01,411,412,405,410,3770000,410
2012/08/02,409,411,398,400,10504000,400
2012/08/03,396,396,386,393,5679000,393
2012/08/06,398,399,392,397,5065000,397
2012/08/07,398,408,397,407,5142000,407
2012/08/08,408,419,406,407,7895000,407
2012/08/09,409,419,407,418,7191000,418
2012/08/10,416,421,414,416,5852000,416
2012/08/13,417,420,413,420,4735000,420
2012/08/14,419,426,415,421,5894000,421
2012/08/15,421,421,413,420,3963000,420
2012/08/16,421,427,419,426,3710000,426
2012/08/17,428,432,425,431,3577000,431
2012/08/20,432,433,429,430,2929000,430
2012/08/21,430,431,424,427,4175000,427
2012/08/22,426,428,421,424,3547000,424
2012/08/23,424,427,418,425,6573000,425
2012/08/24,423,426,418,423,6218000,423
2012/08/27,425,426,421,422,2710000,422
2012/08/28,423,425,413,416,4371000,416
2012/08/29,414,421,414,419,3431000,419
2012/08/30,417,419,412,413,3957000,413
2012/08/31,410,414,406,407,4390000,407
2012/09/03,407,409,402,403,4958000,403
2012/09/04,404,409,403,406,3746000,406
2012/09/05,406,406,396,397,3198000,397
2012/09/06,398,400,389,390,4826000,390
2012/09/07,398,404,394,404,5338000,404
2012/09/10,405,405,400,404,2984000,404
2012/09/11,403,403,395,398,3050000,398
2012/09/12,400,405,397,405,4705000,405
2012/09/13,402,408,401,407,2258000,407
2012/09/14,412,417,409,414,6244000,414
2012/09/18,417,420,414,416,3977000,416
2012/09/19,419,425,415,419,4737000,419
2012/09/20,418,423,413,416,3400000,416
2012/09/21,417,423,413,421,4836000,421
2012/09/24,418,422,416,419,3476000,419
2012/09/25,419,424,416,423,4695000,423
2012/09/26,410,413,405,408,4429000,408
2012/09/27,406,410,403,408,4252000,408
2012/09/28,409,411,398,403,5236000,403
2012/10/01,402,404,398,402,5736000,402
2012/10/02,402,408,401,406,6187000,406
2012/10/03,404,404,393,396,6255000,396
2012/10/04,399,407,396,402,4121000,402
2012/10/05,402,409,402,408,3727000,408
2012/10/09,408,411,404,405,4360000,405
2012/10/10,400,406,399,403,5104000,403
2012/10/11,404,412,404,406,6433000,406
2012/10/12,412,418,411,413,7257000,413
2012/10/15,414,423,412,420,6387000,420
2012/10/16,418,429,416,427,5521000,427
2012/10/17,430,436,430,432,5557000,432
2012/10/18,436,438,432,436,4728000,436
2012/10/19,437,442,433,436,5529000,436
2012/10/22,430,439,429,436,5728000,436
2012/10/23,435,438,430,433,6671000,433
2012/10/24,429,437,428,431,6096000,431
2012/10/25,433,438,431,438,6506000,438
2012/10/26,439,441,432,432,5415000,432
2012/10/29,437,439,432,436,4304000,436
2012/10/30,436,440,432,434,7904000,434
2012/10/31,437,441,435,439,4098000,439
2012/11/01,440,448,432,443,8645000,443
2012/11/02,454,464,454,460,8495000,460
2012/11/05,455,462,453,462,6103000,462
2012/11/06,454,460,454,456,4086000,456
2012/11/07,458,458,450,454,5849000,454
2012/11/08,446,449,443,444,5219000,444
2012/11/09,437,440,435,438,5332000,438
2012/11/12,438,442,437,439,5798000,439
2012/11/13,439,443,437,443,5329000,443
2012/11/14,443,444,438,440,3349000,440
2012/11/15,443,455,442,452,6675000,452
2012/11/16,455,460,452,459,6394000,459
2012/11/19,466,469,457,458,5426000,458
2012/11/20,460,461,455,457,4219000,457
2012/11/21,459,462,454,458,6824000,458
2012/11/22,467,467,460,462,5077000,462
2012/11/26,470,472,466,468,5655000,468
2012/11/27,466,471,464,465,5454000,465
2012/11/28,462,465,460,461,3689000,461
2012/11/29,463,468,461,468,4247000,468
2012/11/30,471,473,465,470,7677000,470
2012/12/03,472,474,467,469,4483000,469
2012/12/04,469,480,469,479,6140000,479
2012/12/05,473,476,470,474,7108000,474
2012/12/06,484,485,479,485,8698000,485
2012/12/07,479,484,478,479,4650000,479
2012/12/10,479,482,476,478,3956000,478
2012/12/11,479,481,474,476,2687000,476
2012/12/12,481,484,480,482,2995000,482
2012/12/13,486,491,485,486,5389000,486
2012/12/14,488,492,484,488,8541000,488
2012/12/17,496,496,479,482,7061000,482
2012/12/18,480,490,480,483,6325000,483
2012/12/19,491,498,491,497,8075000,497
2012/12/20,495,502,494,497,8077000,497
2012/12/21,505,505,493,497,10412000,497
2012/12/25,507,507,497,499,5447000,499
2012/12/26,501,503,498,503,4485000,503
2012/12/27,505,508,503,505,5242000,505
2012/12/28,507,510,505,507,4369000,507
2013/01/04,524,526,519,523,5206000,523
2013/01/07,526,526,512,514,6086000,514
2013/01/08,515,518,506,508,6476000,508
2013/01/09,504,513,503,509,6850000,509
2013/01/10,514,517,512,514,6051000,514
2013/01/11,521,522,512,515,7029000,515
2013/01/15,520,520,513,516,4992000,516
2013/01/16,517,517,508,510,6770000,510
2013/01/17,515,515,501,512,6694000,512
2013/01/18,519,528,517,527,9384000,527
2013/01/21,526,527,517,519,5573000,519
2013/01/22,522,529,514,520,7847000,520
2013/01/23,511,520,510,512,6376000,512
2013/01/24,508,521,507,520,6060000,520
2013/01/25,528,529,524,529,7812000,529
2013/01/28,530,532,526,528,5583000,528
2013/01/29,523,531,523,525,4863000,525
2013/01/30,528,531,527,531,5767000,531
2013/01/31,528,530,520,528,7430000,528
2013/02/01,534,537,530,533,6883000,533
2013/02/04,534,543,532,539,6229000,539
2013/02/05,538,546,523,524,13356000,524
2013/02/06,534,541,532,538,8344000,538
2013/02/07,537,545,537,541,6748000,541
2013/02/08,534,543,532,543,8253000,543
2013/02/12,548,550,544,545,5267000,545
2013/02/13,542,548,539,542,5244000,542
2013/02/14,542,543,535,538,7150000,538
2013/02/15,535,539,531,538,7493000,538
2013/02/18,542,558,541,557,8210000,557
2013/02/19,554,562,550,553,5535000,553
2013/02/20,560,566,559,564,4988000,564
2013/02/21,557,563,553,560,4953000,560
2013/02/22,555,562,552,559,5795000,559
2013/02/25,569,572,566,569,4989000,569
2013/02/26,559,565,551,553,6068000,553
2013/02/27,555,558,548,548,5530000,548
2013/02/28,558,558,540,548,11150000,548
2013/03/01,549,574,548,571,11574000,571
2013/03/04,570,574,568,571,5942000,571
2013/03/05,573,578,571,572,4559000,572
2013/03/06,575,580,571,580,4585000,580
2013/03/07,595,606,594,598,9353000,598
2013/03/08,600,606,595,604,11390000,604
2013/03/11,609,610,604,607,4900000,607
2013/03/12,610,616,608,610,5031000,610
2013/03/13,603,606,597,598,5876000,598
2013/03/14,602,613,599,608,6954000,608
2013/03/15,614,628,613,628,10329000,628
2013/03/18,618,628,615,624,6449000,624
2013/03/19,630,641,628,638,5648000,638
2013/03/21,633,650,632,646,7961000,646
2013/03/22,639,643,637,637,6725000,637
2013/03/25,641,642,633,633,7101000,633
2013/03/26,630,640,629,636,5852000,636
2013/03/27,632,635,628,632,4064000,632
2013/03/28,635,635,625,633,6224000,633
2013/03/29,630,633,625,628,4874000,628
2013/04/01,623,625,608,609,5426000,609
2013/04/02,607,608,591,591,7812000,591
2013/04/03,592,598,586,590,9276000,590
2013/04/04,585,617,581,616,11135000,616
2013/04/05,640,646,627,632,10089000,632
2013/04/08,650,652,633,645,6024000,645
2013/04/09,646,650,634,639,6553000,639
2013/04/10,641,649,640,646,7021000,646
2013/04/11,651,668,651,665,11893000,665
2013/04/12,669,675,662,664,5423000,664
2013/04/15,663,667,649,650,7608000,650
2013/04/16,634,649,629,648,8185000,648
2013/04/17,655,665,653,663,5746000,663
2013/04/18,659,661,646,647,5991000,647
2013/04/19,652,652,641,646,3871000,646
2013/04/22,651,660,650,651,4919000,651
2013/04/23,653,655,636,644,7118000,644
2013/04/24,652,679,650,670,15323000,670
2013/04/25,673,677,658,663,7671000,663
2013/04/26,663,665,654,658,5698000,658
2013/04/30,659,661,652,654,5627000,654
2013/05/01,651,664,648,660,5319000,660
2013/05/02,654,665,652,661,4567000,661
2013/05/07,681,697,681,685,8122000,685
2013/05/08,690,693,675,679,6350000,679
2013/05/09,679,695,657,659,9964000,659
2013/05/10,679,695,674,692,9985000,692
2013/05/13,702,717,702,709,7586000,709
2013/05/14,715,716,710,710,5511000,710
2013/05/15,717,734,716,720,9926000,720
2013/05/16,741,746,723,732,7862000,732
2013/05/17,728,728,717,725,6481000,725
2013/05/20,735,737,725,725,5226000,725
2013/05/21,726,740,726,739,6934000,739
2013/05/22,746,758,740,741,7575000,741
2013/05/23,753,758,690,691,13677000,691
2013/05/24,701,723,673,701,11228000,701
2013/05/27,680,701,679,679,9014000,679
2013/05/28,665,697,662,692,8058000,692
2013/05/29,710,711,695,698,6395000,698
2013/05/30,682,697,663,670,10912000,670
2013/05/31,682,698,673,692,10651000,692
2013/06/03,686,710,677,683,14866000,683
2013/06/04,669,672,650,667,8471000,667
2013/06/05,659,692,659,660,7443000,660
2013/06/06,650,662,642,647,11379000,647
2013/06/07,637,653,623,641,8360000,641
2013/06/10,655,663,648,663,4185000,663
2013/06/11,663,674,654,654,6285000,654
2013/06/12,645,658,640,652,5450000,652
2013/06/13,636,637,612,614,6673000,614
2013/06/14,634,638,619,620,9914000,620
2013/06/17,614,640,613,640,9508000,640
2013/06/18,648,648,632,638,6969000,638
2013/06/19,662,668,650,659,7733000,659
2013/06/20,649,652,635,647,8927000,647
2013/06/21,625,649,618,649,14329000,649
2013/06/24,650,660,645,653,6754000,653
2013/06/25,661,661,638,646,6562000,646
2013/06/26,656,656,633,637,5083000,637
2013/06/27,647,649,632,649,5844000,649
2013/06/28,649,662,648,656,6931000,656
2013/07/01,665,669,659,665,8153000,665
2013/07/02,670,674,661,668,10864000,668
2013/07/03,674,675,662,666,8312000,666
2013/07/04,656,660,652,654,7128000,654
2013/07/05,657,664,654,664,5190000,664
2013/07/08,668,670,647,650,6777000,650
2013/07/09,658,666,652,666,5856000,666
2013/07/10,672,685,667,679,8881000,679
2013/07/11,671,674,657,668,5642000,668
2013/07/12,668,676,665,669,4713000,669
2013/07/16,672,675,662,666,3648000,666
2013/07/17,667,671,662,664,8009000,664
2013/07/18,666,670,659,664,7872000,664
2013/07/19,668,669,651,664,8098000,664
2013/07/22,671,671,657,661,6944000,661
2013/07/23,658,665,656,665,4451000,665
2013/07/24,659,663,656,662,5099000,662
2013/07/25,661,663,657,659,3669000,659
2013/07/26,650,653,639,640,4614000,640
2013/07/29,620,628,616,616,5442000,616
2013/07/30,614,636,612,631,5823000,631
2013/07/31,623,631,615,621,4866000,621
2013/08/01,631,651,631,648,7684000,648
2013/08/02,658,681,653,679,14844000,679
2013/08/05,700,723,694,706,13515000,706
2013/08/06,710,728,696,726,11245000,726
2013/08/07,717,730,712,712,10108000,712
2013/08/08,707,723,702,709,9412000,709
2013/08/09,708,718,706,712,7181000,712
2013/08/12,713,719,703,711,5457000,711
2013/08/13,720,734,716,731,5953000,731
2013/08/14,728,734,723,733,5111000,733
2013/08/15,724,731,717,719,5267000,719
2013/08/16,708,720,707,714,3524000,714
2013/08/19,716,719,706,718,3709000,718
2013/08/20,716,722,712,716,7705000,716
2013/08/21,720,723,700,708,8711000,708
2013/08/22,708,718,702,711,5321000,711
2013/08/23,729,736,725,727,6906000,727
2013/08/26,727,734,720,724,4599000,724
2013/08/27,719,740,717,740,8894000,740
2013/08/28,722,730,712,727,6826000,727
2013/08/29,723,738,723,735,8366000,735
2013/08/30,733,740,717,724,7911000,724
2013/09/02,737,737,723,728,3119000,728
2013/09/03,736,739,732,739,5465000,739
2013/09/04,732,741,730,739,6335000,739
2013/09/05,745,747,739,745,6717000,745
2013/09/06,745,745,726,735,4249000,735
2013/09/09,750,754,734,739,5002000,739
2013/09/10,745,753,737,741,4946000,741
2013/09/11,748,750,731,733,4928000,733
2013/09/12,733,736,722,728,4306000,728
2013/09/13,720,731,719,728,7149000,728
2013/09/17,739,740,726,729,3627000,729
2013/09/18,744,751,738,743,6915000,743
2013/09/19,755,756,744,755,4538000,755
2013/09/20,755,755,739,740,4947000,740
2013/09/24,744,750,742,748,5222000,748
2013/09/25,748,751,742,750,5025000,750
2013/09/26,748,753,732,750,4144000,750
2013/09/27,750,753,740,746,4397000,746
2013/09/30,739,748,732,739,3973000,739
2013/10/01,742,745,734,739,3118000,739
2013/10/02,737,743,727,730,3773000,730
2013/10/03,730,732,711,714,6809000,714
2013/10/04,712,714,704,704,3351000,704
2013/10/07,703,704,688,689,3781000,689
2013/10/08,686,701,685,697,3598000,697
2013/10/09,692,712,688,709,2513000,709
2013/10/10,712,715,701,707,4516000,707
2013/10/11,716,728,711,716,6873000,716
2013/10/15,726,737,724,732,5714000,732
2013/10/16,728,734,724,728,2238000,728
2013/10/17,732,738,729,733,2704000,733
2013/10/18,731,735,725,727,2443000,727
2013/10/21,730,736,725,729,3089000,729
2013/10/22,740,751,738,749,7423000,749
2013/10/23,753,756,734,734,4568000,734
2013/10/24,730,736,726,734,2712000,734
2013/10/25,733,733,716,716,4106000,716
2013/10/28,721,726,716,722,3110000,722
2013/10/29,717,725,715,721,2826000,721
2013/10/30,729,731,724,728,3424000,728
2013/10/31,735,753,735,745,8049000,745
2013/11/01,758,759,745,755,6849000,755
2013/11/05,764,768,749,755,5842000,755
2013/11/06,751,764,749,756,4827000,756
2013/11/07,757,761,749,750,4556000,750
2013/11/08,748,759,746,754,4231000,754
2013/11/11,763,768,758,768,5482000,768
2013/11/12,766,768,760,766,5888000,766
2013/11/13,770,784,767,781,7492000,781
2013/11/14,780,792,775,785,8058000,785
2013/11/15,792,792,780,786,5889000,786
2013/11/18,790,793,784,792,4967000,792
2013/11/19,790,792,782,789,4550000,789
2013/11/20,790,792,783,791,5156000,791
2013/11/21,793,801,788,797,6612000,797
2013/11/22,802,804,793,801,5898000,801
2013/11/25,804,804,796,800,4164000,800
2013/11/26,800,820,797,817,10198000,817
2013/11/27,811,814,802,808,5713000,808
2013/11/28,809,810,801,806,3543000,806
2013/11/29,805,808,793,808,3837000,808
2013/12/02,810,812,800,805,2999000,805
2013/12/03,810,818,806,814,5473000,814
2013/12/04,799,807,793,799,4791000,799
2013/12/05,793,798,788,791,5148000,791
2013/12/06,794,795,785,792,5370000,792
2013/12/09,800,804,796,800,4228000,800
2013/12/10,802,808,799,806,5139000,806
2013/12/11,805,817,803,813,8590000,813
2013/12/12,807,810,797,806,4763000,806
2013/12/13,804,812,795,804,12039000,804
2013/12/16,804,806,793,800,4564000,800
2013/12/17,808,812,804,810,5881000,810
2013/12/18,804,814,803,813,5763000,813
2013/12/19,812,813,800,805,7785000,805
2013/12/20,793,800,787,798,9630000,798
2013/12/24,803,804,796,798,5221000,798
2013/12/25,791,796,790,794,4786000,794
2013/12/26,796,806,792,806,3880000,806
2013/12/27,808,810,804,808,4055000,808
2013/12/30,814,829,811,824,6349000,824
2014/01/06,830,837,822,828,5717000,828
2014/01/07,823,830,818,823,3617000,823
2014/01/08,833,845,831,844,6657000,844
2014/01/09,849,863,835,849,9233000,849
2014/01/10,845,849,836,846,5792000,846
2014/01/14,834,839,826,830,6721000,830
2014/01/15,840,840,819,832,6945000,832
2014/01/16,833,840,824,836,6247000,836
2014/01/17,835,845,832,842,4095000,842
2014/01/20,843,843,828,835,5538000,835
2014/01/21,831,837,825,828,4888000,828
2014/01/22,827,831,820,827,5463000,827
2014/01/23,832,832,812,814,7520000,814
2014/01/24,802,810,798,805,6282000,805
2014/01/27,781,787,778,781,6245000,781
2014/01/28,784,792,778,785,5622000,785
2014/01/29,795,820,794,819,7151000,819
2014/01/30,804,804,777,792,7796000,792
2014/01/31,800,806,784,785,6588000,785
2014/02/03,786,787,772,775,5457000,775
2014/02/04,760,766,738,739,7450000,739
2014/02/05,746,751,697,713,16541000,713
2014/02/06,700,714,686,707,17485000,707
2014/02/07,712,730,712,722,9673000,722
2014/02/10,735,737,724,733,6472000,733
2014/02/12,730,748,729,747,7942000,747
2014/02/13,746,749,736,746,10696000,746
2014/02/14,739,742,715,721,9107000,721
2014/02/17,721,729,712,725,4212000,725
2014/02/18,728,740,723,738,4990000,738
2014/02/19,738,742,731,741,5136000,741
2014/02/20,736,737,720,722,5660000,722
2014/02/21,733,741,728,739,4609000,739
2014/02/24,730,743,721,729,7636000,729
2014/02/25,735,739,730,739,6779000,739
2014/02/26,734,747,733,744,5514000,744
2014/02/27,745,745,726,728,6221000,728
2014/02/28,723,727,714,723,7308000,723
2014/03/03,708,714,697,712,5615000,712
2014/03/04,696,713,695,710,6381000,710
2014/03/05,717,727,717,720,4112000,720
2014/03/06,714,725,708,722,5982000,722
2014/03/07,727,735,721,733,6554000,733
2014/03/10,726,734,724,733,3783000,733
2014/03/11,735,741,734,740,3601000,740
2014/03/12,727,728,714,715,4416000,715
2014/03/13,714,722,711,714,4353000,714
2014/03/14,691,693,680,681,10855000,681
2014/03/17,681,694,678,686,5364000,686
2014/03/18,703,704,694,696,3650000,696
2014/03/19,707,711,695,701,7055000,701
2014/03/20,701,702,680,680,8158000,680
2014/03/24,684,698,682,688,6474000,688
2014/03/25,691,700,685,695,5169000,695
2014/03/26,702,703,692,699,4356000,699
2014/03/27,698,709,687,707,7951000,707
2014/03/28,704,706,693,701,5146000,701
2014/03/31,710,710,696,702,6235000,702
2014/04/01,706,707,692,696,7278000,696
2014/04/02,699,700,691,691,6953000,691
2014/04/03,689,695,685,689,6792000,689
2014/04/04,690,704,690,704,7363000,704
2014/04/07,697,699,690,691,4108000,691
2014/04/08,692,694,682,682,5891000,682
2014/04/09,670,676,666,669,6505000,669
2014/04/10,677,685,670,673,4865000,673
2014/04/11,653,671,653,668,6001000,668
2014/04/14,664,680,664,673,4085000,673
2014/04/15,677,680,665,665,4560000,665
2014/04/16,671,690,669,690,4568000,690
2014/04/17,695,700,682,682,7009000,682
2014/04/18,694,694,685,690,2241000,690
2014/04/21,691,696,690,690,2347000,690
2014/04/22,691,701,691,694,4863000,694
2014/04/23,697,709,696,709,7453000,709
2014/04/24,707,708,691,696,4881000,696
2014/04/25,696,706,694,700,3648000,700
2014/04/28,695,699,691,695,3437000,695
2014/04/30,701,709,694,695,5141000,695
2014/05/01,698,701,691,698,3509000,698
2014/05/02,696,699,693,696,3137000,696
2014/05/07,692,692,673,675,4912000,675
2014/05/08,678,684,677,682,3428000,682
2014/05/09,675,692,671,673,8031000,673
2014/05/12,678,694,678,682,5370000,682
2014/05/13,700,708,692,706,6942000,706
2014/05/14,704,723,704,720,5782000,720
2014/05/15,715,736,711,736,8668000,736
2014/05/16,722,728,715,721,4931000,721
2014/05/19,721,723,717,719,2938000,719
2014/05/20,724,727,718,725,3381000,725
2014/05/21,723,724,716,721,2832000,721
2014/05/22,729,735,724,732,4677000,732
2014/05/23,740,748,739,741,5859000,741
2014/05/26,744,745,737,743,2904000,743
2014/05/27,744,754,744,749,4495000,749
2014/05/28,753,757,747,753,3716000,753
2014/05/29,750,756,747,752,3187000,752
2014/05/30,755,760,754,760,4366000,760
2014/06/02,770,772,759,760,5363000,760
2014/06/03,775,776,759,761,4728000,761
2014/06/04,763,767,760,767,4493000,767
2014/06/05,767,767,753,753,6647000,753
2014/06/06,761,768,759,766,5192000,766
2014/06/09,769,770,753,755,5975000,755
2014/06/10,758,763,753,756,3611000,756
2014/06/11,759,766,757,765,3379000,765
2014/06/12,753,758,749,755,5138000,755
2014/06/13,744,756,744,756,7903000,756
2014/06/16,756,760,754,755,3403000,755
2014/06/17,757,767,755,764,5415000,764
2014/06/18,769,773,766,768,5176000,768
2014/06/19,772,788,771,784,7611000,784
2014/06/20,784,789,776,783,6455000,783
2014/06/23,783,790,783,790,4121000,790
2014/06/24,781,787,778,784,4845000,784
2014/06/25,782,784,778,779,2805000,779
2014/06/26,777,780,767,772,5134000,772
2014/06/27,774,779,760,769,4013000,769
2014/06/30,774,778,770,775,3620000,775
2014/07/01,768,788,767,784,5227000,784
2014/07/02,793,795,790,792,4253000,792
2014/07/03,792,792,779,787,3945000,787
2014/07/04,793,793,786,789,3142000,789
2014/07/07,786,791,785,785,1907000,785
2014/07/08,783,787,775,785,3881000,785
2014/07/09,776,784,775,782,2262000,782
2014/07/10,784,784,772,774,2436000,774
2014/07/11,767,775,763,774,2882000,774
2014/07/14,775,780,774,777,1916000,777
2014/07/15,780,793,779,792,4122000,792
2014/07/16,791,796,790,790,2505000,790
2014/07/17,796,797,793,796,2753000,796
2014/07/18,784,790,782,787,2118000,787
2014/09/17,880,880,873,873,3155000,873
2014/12/12,1062,1087,1061,1070,7627000,1070
2015/01/14,1102,1120,1100,1106,5760000,1106
2015/02/02,1167,1199,1167,1195,5135000,1195
2015/02/23,1220,1237,1218,1230,6813000,1230
2015/02/24,1235,1248,1207,1217,8844000,1217
2015/03/12,1225,1239,1219,1237,4370000,1237
2015/03/20,1248,1248,1220,1228,10010000,1228
2015/03/31,1192,1195,1149,1149,6997000,1149
2015/04/03,1152,1159,1144,1159,3280000,1159
2015/04/06,1140,1150,1137,1144,2595000,1144
2015/04/22,1134,1146,1125,1134,4493000,1134
2015/05/26,1104,1106,1096,1097,3235000,1097
2015/06/10,1056,1057,1043,1043,5519000,1043
2015/06/19,985,1011,985,1004,8233000,1004
2015/06/29,1010,1029,1010,1013,6653000,1013
