2011/01/14,1440,1440,1440,1440,1100,360
2011/01/20,1540,1540,1540,1540,100,385
2011/01/25,1527,1600,1527,1600,400,400
2011/01/27,1600,1600,1600,1600,1900,400
2011/02/07,1680,1680,1680,1680,100,420
2011/02/21,1580,1580,1580,1580,100,395
2011/02/23,1576,1576,1576,1576,200,394
2011/02/25,1576,1616,1576,1616,300,404
2011/02/28,1616,1616,1616,1616,900,404
2011/03/01,1616,1616,1616,1616,1500,404
2011/03/02,1616,1616,1616,1616,400,404
2011/03/04,1536,1536,1536,1536,200,384
2011/03/07,1616,1616,1616,1616,100,404
2011/03/14,1595,1595,1500,1500,600,375
2011/03/23,1680,1680,1680,1680,100,420
2011/03/24,1600,1600,1600,1600,1000,400
2011/03/28,1800,1800,1800,1800,1400,450
2011/03/29,1800,1800,1800,1800,800,450
2011/03/30,1800,1800,1800,1800,500,450
2011/03/31,1800,1800,1800,1800,200,450
2011/04/01,1799,1800,1799,1800,900,450
2011/04/06,1700,1700,1700,1700,200,425
2011/04/11,1690,1700,1690,1700,1300,425
2011/04/21,1625,1625,1600,1600,500,400
2011/04/22,1610,1630,1610,1620,500,405
2011/05/10,2501,2558,2311,2420,9600,605
2011/05/18,2180,2200,2040,2200,700,550
2011/05/23,2060,2060,1880,1880,700,470
2011/06/09,2076,2076,2076,2076,300,519
2011/06/16,2055,2080,2055,2080,200,520
2011/06/22,2068,2068,2068,2068,200,517
2011/06/27,2068,2068,2068,2068,600,517
2011/06/28,2004,2004,2004,2004,100,501
2011/06/29,2004,2004,2004,2004,2400,501
2011/06/30,2004,2004,2004,2004,100,501
2011/07/01,2004,2004,2004,2004,400,501
2011/07/05,1960,1960,1960,1960,100,490
2011/07/07,1880,1880,1860,1860,500,465
2011/07/11,1821,1862,1813,1840,600,460
2011/07/12,1844,1844,1844,1844,100,461
2011/07/26,1800,1800,1800,1800,1300,450
2011/07/27,1800,1800,1800,1800,500,450
2011/07/28,1800,1800,1800,1800,1000,450
2011/07/29,1800,1800,1800,1800,400,450
2011/08/01,1800,1800,1800,1800,900,450
2011/08/05,1795,1800,1795,1800,600,450
2011/08/08,1700,1700,1700,1700,300,425
2011/08/10,1788,1788,1788,1788,100,447
2011/08/12,1850,1850,1691,1796,1500,449
2011/08/19,1620,1620,1620,1620,500,405
2011/08/25,1600,1600,1600,1600,100,400
2011/08/31,1625,1700,1625,1700,300,425
2011/09/15,1780,1780,1780,1780,100,445
2011/09/27,1705,1800,1705,1800,600,450
2011/09/28,1800,1800,1800,1800,300,450
2011/10/03,1800,1800,1800,1800,400,450
2011/10/05,1681,1800,1681,1800,300,450
2011/10/20,1800,1800,1800,1800,100,450
2011/10/27,1948,1948,1948,1948,700,487
2011/11/01,1978,1978,1820,1976,1000,494
2011/11/29,1730,1750,1623,1624,1700,406
2011/12/19,1600,1600,1540,1600,1200,400
2012/01/05,1632,1632,1592,1592,300,398
2012/01/06,1628,1628,1628,1628,100,407
2012/01/10,1600,1600,1600,1600,100,400
2012/01/11,1600,1600,1600,1600,200,400
2012/01/24,1660,1660,1660,1660,200,415
2012/02/07,1860,1860,1860,1860,100,465
2012/02/13,1800,1800,1800,1800,100,450
2012/03/13,1852,1852,1852,1852,500,463
2012/03/23,1995,1995,1980,1980,1000,495
2012/03/27,1979,1980,1979,1980,700,495
2012/03/28,1901,1980,1901,1980,500,495
2012/04/06,1960,1960,1960,1960,1000,490
2012/04/17,1930,1930,1900,1900,1600,475
2012/04/24,1900,1900,1860,1880,600,470
2012/05/09,1940,1940,1940,1940,800,485
2012/05/14,1940,1940,1940,1940,500,485
2012/05/16,1960,1960,1960,1960,1000,490
2012/06/06,1940,1940,1940,1940,500,485
2012/06/07,1940,1940,1940,1940,300,485
2012/06/13,1940,1940,1940,1940,1000,485
2012/06/19,1940,1940,1940,1940,800,485
2012/06/27,1940,1940,1940,1940,500,485
2012/07/02,1940,1940,1940,1940,2600,485
2012/07/17,1820,1920,1820,1920,300,480
2012/07/26,1800,1840,1800,1840,300,460
2012/07/27,1840,1840,1840,1840,600,460
2012/08/01,1850,1850,1840,1840,500,460
2012/08/07,1800,1800,1800,1800,300,450
2012/08/13,1750,1800,1750,1800,400,450
2012/09/05,1720,1720,1720,1720,200,430
2012/09/06,1720,1720,1720,1720,200,430
2012/09/07,1760,1760,1760,1760,100,440
2012/09/14,1760,1760,1760,1760,100,440
2012/09/25,1700,1700,1700,1700,300,425
2012/09/26,1700,1748,1700,1748,1700,437
2012/09/27,1748,1748,1748,1748,700,437
2012/09/28,1748,1748,1748,1748,400,437
2012/10/01,1748,1748,1748,1748,400,437
2012/10/03,1670,1700,1670,1700,500,425
2012/10/05,1700,1700,1700,1700,100,425
2012/10/09,1728,1728,1728,1728,100,432
2012/10/12,1699,1748,1699,1748,600,437
2012/10/18,1748,1748,1748,1748,100,437
2012/11/08,1758,1760,1758,1760,800,440
2012/11/09,1800,2000,1760,1788,600,447
2012/11/14,1788,1788,1788,1788,100,447
2012/11/16,1799,1800,1799,1800,900,450
2012/11/19,1805,1805,1800,1800,3000,450
2012/11/21,1760,1800,1760,1800,400,450
2012/11/26,1800,1800,1800,1800,300,450
2012/11/27,1800,1800,1800,1800,700,450
2012/11/29,1780,1780,1780,1780,100,445
2012/11/30,1763,1780,1763,1780,200,445
2012/12/04,1890,2090,1890,2000,8600,500
2012/12/20,1841,1880,1802,1840,4400,460
2012/12/27,1885,1920,1885,1920,1700,480
2012/12/28,1850,1920,1850,1900,5800,475
2013/01/04,1950,1975,1900,1944,8700,486
2013/01/09,1881,1940,1881,1940,3400,485
2013/01/10,1950,1965,1930,1940,1400,485
2013/01/15,1982,1982,1960,1980,700,495
2013/01/18,1989,1989,1953,1956,5900,489
2013/01/21,1980,1980,1951,1980,2000,495
2013/01/25,1949,1980,1948,1980,1700,495
2013/01/28,1980,1983,1980,1980,1500,495
2013/01/29,1990,2001,1985,2000,1800,500
2013/02/12,2379,2434,2230,2320,7800,580
2013/02/15,2200,2200,2090,2200,5500,550
2013/02/26,2380,2380,2380,2380,100,595
2013/03/06,2447,2447,2385,2400,4600,600
2013/03/07,2430,2450,2395,2400,4700,600
2013/03/08,2430,2525,2430,2520,7900,630
2013/03/14,2570,2640,2570,2600,5900,650
2013/03/18,2500,2550,2490,2540,6200,635
2013/03/21,2580,2600,2553,2600,5200,650
2013/03/27,2690,2765,2690,2740,9300,685
2013/04/02,2450,2479,2253,2460,5600,615
2013/04/10,2630,2630,2570,2572,2600,643
2013/04/11,2622,2639,2569,2580,5500,645
2013/04/12,2600,2710,2551,2708,27900,677
2013/04/18,2790,2790,2721,2780,8500,695
2013/04/19,2763,2839,2752,2800,5600,700
2013/04/22,2870,2870,2770,2820,11000,705
2013/04/23,2820,2850,2800,2836,6500,709
2013/04/30,2771,2790,2744,2788,9500,697
2013/05/02,2805,2809,2770,2780,5700,695
2013/05/07,2805,2888,2780,2832,15300,708
2013/05/10,3000,3130,3000,3040,13400,760
2013/05/13,3160,3200,3100,3160,11400,790
2013/05/16,3060,3060,2803,2908,19200,727
2013/05/17,2830,2998,2824,2936,6500,734
2013/05/21,3195,3195,3005,3020,5800,755
2013/05/24,2736,2823,2600,2760,7900,690
2013/05/27,2760,2800,2688,2760,4200,690
2013/05/28,2690,2795,2626,2716,4900,679
2013/05/29,2800,2900,2800,2852,7100,713
2013/05/30,2945,2945,2761,2844,1300,711
2013/06/03,2900,3075,2870,3060,27700,765
2013/06/04,3000,3080,2885,3000,7800,750
2013/06/11,2740,2870,2700,2800,6700,700
2013/06/12,2700,2700,2700,2700,100,675
2013/06/28,2498,2540,2498,2540,1800,635
2013/07/05,2630,2680,2599,2620,1500,655
2013/07/08,2680,2700,2680,2680,1400,670
2013/07/17,2620,2620,2600,2600,600,650
2013/07/18,2630,2630,2560,2580,1400,645
2013/07/19,2551,2555,2501,2548,2500,637
2013/07/23,2600,2630,2600,2620,1200,655
2013/07/25,2580,2580,2515,2520,1100,630
2013/07/26,2517,2558,2517,2520,1400,630
2013/07/31,2383,2384,2383,2384,300,596
2013/08/02,2355,2420,2355,2420,1000,605
2013/08/08,2400,2480,2400,2480,1200,620
2013/08/09,2384,2479,2384,2400,1900,600
2013/08/12,2386,2690,2380,2468,14400,617
2013/08/15,2579,2579,2440,2460,3100,615
2013/08/16,2459,2500,2440,2500,1300,625
2013/08/22,2451,2460,2450,2460,1000,615
2013/08/23,2440,2460,2440,2460,800,615
2013/09/10,2800,2815,2750,2800,4800,700
2013/09/12,2770,2780,2750,2780,1400,695
2013/09/13,2830,3100,2741,2940,19300,735
2013/09/17,3035,3150,3000,3080,17700,770
2013/09/27,1584,1585,1570,1570,9700,785
2013/09/30,1570,1600,1546,1590,9100,795
2013/10/01,1590,1590,1530,1580,3500,790
2013/10/03,1500,1550,1470,1520,11000,760
2013/10/04,1541,1553,1410,1518,10800,759
2013/10/07,1478,1550,1458,1550,6900,775
2013/10/09,1507,1539,1491,1538,4000,769
2013/10/11,1529,1595,1529,1590,7900,795
2013/10/15,1589,1600,1565,1570,6800,785
2013/10/21,1757,1830,1720,1800,34400,900
2013/10/22,1819,1829,1766,1800,13600,900
2013/10/23,1790,1790,1736,1746,9200,873
2013/10/24,1730,1770,1730,1740,8200,870
2013/10/25,1726,1770,1726,1744,2500,872
2013/10/28,1750,1759,1738,1738,5700,869
2013/11/01,1665,1690,1630,1630,4500,815
2013/11/05,1627,1700,1627,1690,2700,845
2013/11/11,1621,1621,1560,1560,5500,780
2013/11/12,1565,1590,1561,1590,6500,795
2013/11/15,1700,1700,1641,1660,33800,830
2013/11/19,1689,1689,1644,1646,2600,823
2013/11/21,1657,1699,1654,1660,9300,830
2013/11/26,1700,1700,1672,1686,3800,843
2013/11/28,1705,1720,1640,1698,16000,849
2013/11/29,1730,1730,1710,1724,12100,862
2013/12/03,1721,1724,1710,1720,9800,860
2013/12/05,1724,1782,1716,1782,22000,891
2013/12/06,1784,1788,1750,1776,2600,888
2013/12/09,1787,1788,1735,1760,5300,880
2013/12/18,1715,1715,1681,1700,1300,850
2013/12/25,1685,1740,1685,1710,9300,855
2013/12/26,1740,1794,1710,1794,14200,897
2013/12/27,1800,1845,1794,1844,12700,922
2013/12/30,1844,1915,1844,1912,17200,956
2014/01/06,1920,1950,1920,1920,18600,960
2014/01/07,1960,2027,1950,1958,26100,979
2014/01/14,2090,2121,2069,2090,13100,1045
2014/01/15,2118,2118,1919,2118,12500,1059
2014/01/16,2117,2148,2050,2120,10700,1060
2014/01/22,2069,2100,1901,2060,15200,1030
2014/01/23,2060,2070,2020,2020,2200,1010
2014/01/24,2000,2040,1991,2010,4200,1005
2014/01/28,1977,2020,1972,2000,4100,1000
2014/01/30,1960,2011,1942,1942,7000,971
2014/02/03,1945,1998,1934,1936,3400,968
2014/02/05,1895,1989,1855,1950,3700,975
2014/02/07,1999,2000,1999,2000,300,1000
2014/02/10,1950,2008,1950,2000,1900,1000
2014/02/12,2007,2020,2007,2020,1100,1010
2014/02/14,2030,2069,2005,2020,9600,1010
2014/02/17,2021,2038,1998,2020,13900,1010
2014/02/18,2000,2029,1900,2018,18500,1009
2014/02/21,1949,1989,1927,1950,1800,975
2014/02/24,1950,1965,1950,1950,3400,975
2014/02/28,1952,1985,1910,1910,6600,955
2014/03/03,1933,1980,1931,1980,5400,990
2014/03/04,1992,2006,1980,1992,10000,996
2014/03/05,2182,2182,2053,2080,11200,1040
2014/03/06,2130,2275,2117,2264,23100,1132
2014/03/10,2245,2284,2137,2180,14600,1090
2014/03/11,2201,2298,2201,2260,9000,1130
2014/03/12,2260,2265,2212,2216,8900,1108
2014/03/13,2215,2255,2205,2246,15000,1123
2014/03/19,2500,2500,2258,2430,11900,1215
2014/03/20,2430,2430,2265,2284,7700,1142
2014/03/25,2307,2308,2245,2300,6500,1150
2014/03/26,2349,2349,2254,2278,3400,1139
2014/03/28,2256,2307,2256,2298,1700,1149
2014/04/01,2378,2430,2319,2430,11600,1215
2014/04/07,2351,2427,2329,2410,3400,1205
2014/04/09,2300,2355,2300,2330,4500,1165
2014/04/10,2331,2370,2250,2338,2700,1169
2014/04/11,2250,2313,2250,2292,3000,1146
2014/04/14,2330,2330,2330,2330,200,1165
2014/04/15,2370,2396,2370,2380,1200,1190
2014/04/18,2401,2401,2280,2370,2900,1185
2014/04/22,2300,2312,2300,2312,1600,1156
2014/04/23,2300,2330,2300,2330,1500,1165
2014/04/28,2359,2398,2356,2386,2000,1193
2014/04/30,2393,2393,2386,2386,800,1193
2014/05/01,2386,2410,2386,2408,3700,1204
2014/05/02,2430,2437,2401,2430,1800,1215
2014/05/07,2480,2490,2410,2410,2000,1205
2014/05/09,2444,2485,2425,2450,7100,1225
2014/05/13,2375,2395,2300,2370,6300,1185
2014/05/15,2312,2358,2305,2358,3000,1179
2014/05/19,2365,2365,2260,2310,3900,1155
2014/05/20,2310,2310,2300,2300,6100,1150
2014/05/23,2339,2370,2339,2370,200,1185
2014/05/27,2400,2400,2390,2390,1600,1195
2014/05/28,2420,2420,2401,2418,1300,1209
2014/05/30,2525,2580,2435,2568,13900,1284
2014/06/02,2668,2700,2618,2630,9200,1315
2014/06/04,2699,2720,2572,2660,15600,1330
2014/06/05,2700,2700,2587,2628,3600,1314
2014/06/11,2689,2720,2676,2700,3500,1350
2014/06/12,2750,2750,2725,2746,3800,1373
2014/06/13,2746,2820,2701,2820,8900,1410
2014/06/17,2880,2900,2810,2850,5200,1425
2014/06/18,2850,2921,2850,2892,3700,1446
2014/06/19,2892,2892,2851,2860,1300,1430
2014/06/20,2861,2861,2790,2790,2000,1395
2014/06/23,2790,2800,2690,2740,5800,1370
2014/06/25,2700,2720,2681,2682,3500,1341
2014/06/27,2685,2720,2685,2690,2200,1345
2014/07/01,2880,2880,2806,2870,3800,1435
2014/07/07,2826,2870,2826,2870,1000,1435
2014/07/08,2859,2860,2859,2860,200,1430
2014/07/09,2810,2830,2586,2820,4600,1410
2014/07/11,2845,2845,2750,2750,3800,1375
2014/07/14,2761,2798,2760,2798,10500,1399
2014/07/15,2800,2820,2781,2820,4900,1410
2014/07/18,2765,2798,2710,2798,2600,1399
2014/07/22,2798,2798,2755,2778,2100,1389
2014/07/23,2780,2800,2780,2800,2200,1400
2014/07/24,2800,2800,2770,2800,1100,1400
2014/07/25,2800,2800,2790,2790,700,1395
2014/07/28,2791,2879,2790,2878,3900,1439
2014/07/29,2878,2878,2830,2830,2300,1415
2014/07/30,2830,2850,2830,2850,1800,1425
2014/07/31,2850,2850,2812,2812,1300,1406
2014/08/06,2762,2763,2710,2710,1300,1355
2014/08/14,2785,2800,2730,2792,2800,1396
2014/08/15,2770,2820,2770,2820,2000,1410
2014/08/18,2800,2810,2800,2800,1900,1400
2014/08/19,2840,2860,2820,2820,1900,1410
2014/08/20,2839,2839,2756,2780,1900,1390
2014/08/21,2830,2830,2810,2820,4000,1410
2014/08/22,2781,2781,2780,2780,200,1390
2014/08/25,2790,2850,2781,2850,1600,1425
2014/08/27,2879,2901,2879,2900,6100,1450
2014/08/28,2900,2925,2851,2900,6500,1450
2014/09/01,2998,2998,2931,2950,6000,1475
2014/09/02,2960,2989,2956,2956,1600,1478
2014/09/04,2952,2952,2890,2930,3500,1465
2014/09/05,2927,2927,2900,2900,200,1450
2014/09/08,2900,2900,2850,2870,600,1435
2014/09/09,2870,2898,2865,2866,1700,1433
2014/09/10,2900,2920,2850,2916,2700,1458
2014/09/11,2916,2916,2857,2860,1300,1430
2014/09/12,2845,2893,2770,2820,8900,1410
2014/09/17,2822,2888,2821,2822,5500,1411
2014/09/18,2811,2900,2806,2900,2600,1450
2014/09/19,2900,2901,2823,2900,21400,1450
2014/09/24,2929,2929,2847,2900,5000,1450
2014/09/25,2910,2910,2840,2900,2700,1450
2014/09/26,2829,2900,2829,2900,300,1450
2014/10/01,2889,2896,2860,2860,600,1430
2014/10/02,2801,2820,2721,2750,3700,1375
2014/10/03,2800,2800,2750,2750,500,1375
2014/10/07,2745,2778,2745,2778,600,1389
2014/10/08,2707,2735,2700,2710,2200,1355
2014/10/09,2710,2710,2660,2660,1800,1330
2014/10/10,2630,2631,2570,2580,6900,1290
2014/10/15,2508,2540,2508,2540,200,1270
2014/10/16,2540,2545,2520,2520,1800,1260
2014/10/17,2520,2520,2430,2430,2800,1215
2014/10/27,2565,2580,2565,2580,1500,1290
2014/10/30,2575,2600,2575,2600,1600,1300
2014/10/31,2610,2610,2560,2560,1000,1280
2014/11/06,2670,2774,2580,2580,4400,1290
2014/11/07,2600,2624,2597,2598,6400,1299
2014/11/10,2585,2610,2585,2610,1700,1305
2014/11/11,2600,2610,2600,2610,1200,1305
2014/11/12,2606,2631,2599,2600,1500,1300
2014/11/14,2600,2843,2575,2698,14700,1349
2014/11/18,2770,2800,2700,2724,9800,1362
2014/11/19,2768,2770,2678,2680,4600,1340
2014/11/20,2684,2728,2678,2728,2000,1364
2014/11/21,2730,2730,2700,2700,1100,1350
2014/11/25,2725,2740,2700,2740,2500,1370
2014/11/26,2741,2819,2741,2808,4100,1404
2014/11/28,2900,2968,2897,2950,10900,1475
2014/12/02,2970,3200,2970,3200,10100,1600
2014/12/03,3200,3200,3035,3100,3600,1550
2014/12/04,3100,3250,3100,3240,7400,1620
2014/12/08,3350,3350,3290,3350,2000,1675
2014/12/11,3250,3300,3155,3300,3500,1650
2014/12/12,3340,3340,3200,3250,2400,1625
2014/12/15,3300,3550,3270,3520,6000,1760
2014/12/16,3345,3400,3210,3280,6200,1640
2014/12/17,3220,3340,3170,3170,3200,1585
2014/12/19,3445,3445,3360,3400,2200,1700
2014/12/22,3400,3400,3300,3330,1500,1665
2014/12/24,3380,3600,3380,3500,5000,1750
2014/12/25,3570,3570,3500,3500,3500,1750
2014/12/26,1778,1800,1771,1790,5400,1790
2014/12/29,1790,1795,1770,1780,7200,1780
2014/12/30,1780,1780,1760,1765,2600,1765
2015/01/05,1830,1830,1778,1793,4300,1793
2015/01/06,1780,1780,1714,1737,8100,1737
2015/01/07,1750,1756,1626,1689,9200,1689
2015/01/08,1694,1747,1690,1744,7900,1744
2015/01/09,1722,1731,1704,1705,3500,1705
2015/01/13,1705,1724,1684,1724,4700,1724
2015/01/14,1710,1725,1696,1710,4200,1710
2015/01/15,1720,1725,1700,1710,2200,1710
2015/01/16,1700,1740,1660,1710,3000,1710
2015/01/19,1709,1710,1709,1710,600,1710
2015/01/20,1710,1710,1681,1681,9200,1681
2015/01/21,1665,1665,1632,1632,1600,1632
2015/01/22,1672,1672,1610,1610,1600,1610
2015/01/23,1650,1650,1565,1580,7100,1580
2015/01/26,1620,1620,1571,1600,3100,1600
2015/01/27,1600,1632,1600,1616,3700,1616
2015/01/28,1615,1615,1610,1611,3200,1611
2015/01/29,1601,1601,1599,1599,3700,1599
2015/01/30,1599,1625,1591,1615,3900,1615
2015/02/02,1620,1620,1605,1615,3600,1615
2015/02/03,1614,1614,1594,1597,900,1597
2015/02/04,1592,1608,1592,1605,900,1605
2015/02/05,1600,1601,1594,1594,1600,1594
2015/02/06,1593,1605,1591,1591,1100,1591
2015/02/09,1595,1595,1539,1570,3800,1570
2015/02/10,1555,1557,1524,1528,5100,1528
2015/02/12,1558,1570,1555,1555,3600,1555
2015/02/13,1570,1583,1340,1366,16600,1366
2015/02/16,1447,1447,1367,1372,15900,1372
2015/02/17,1377,1386,1366,1370,11500,1370
2015/02/18,1397,1397,1365,1365,9700,1365
2015/02/19,1372,1379,1342,1358,15500,1358
2015/02/20,1358,1365,1300,1320,21800,1320
2015/02/23,1310,1351,1310,1341,14400,1341
2015/02/24,1360,1370,1335,1364,15300,1364
2015/02/25,1362,1364,1322,1340,15500,1340
2015/02/26,1363,1363,1336,1340,5200,1340
2015/02/27,1340,1352,1330,1346,11800,1346
2015/03/02,1359,1359,1331,1331,9900,1331
2015/03/03,1330,1339,1320,1320,9700,1320
2015/03/04,1338,1338,1311,1311,5700,1311
2015/03/05,1311,1320,1301,1301,5800,1301
2015/03/06,1316,1316,1300,1302,8200,1302
2015/03/09,1299,1299,1280,1280,11100,1280
2015/03/10,1285,1286,1257,1257,11900,1257
2015/03/11,1240,1250,1227,1245,21900,1245
2015/03/12,1314,1318,1250,1255,45300,1255
2015/03/13,1312,1370,1267,1272,27200,1272
2015/03/16,1276,1310,1275,1280,11400,1280
2015/03/17,1285,1370,1285,1320,29600,1320
2015/03/18,1320,1348,1312,1327,9100,1327
2015/03/19,1350,1442,1340,1372,38000,1372
2015/03/20,1386,1417,1380,1396,11300,1396
2015/03/23,1400,1438,1388,1388,20400,1388
2015/03/24,1400,1404,1329,1330,18800,1330
2015/03/25,1330,1332,1294,1304,24200,1304
2015/03/26,1304,1304,1277,1277,7800,1277
2015/03/27,1277,1278,1235,1242,15700,1242
2015/03/30,1245,1306,1245,1289,6600,1289
2015/03/31,1319,1319,1251,1266,7900,1266
2015/04/01,1266,1268,1252,1252,5600,1252
2015/04/02,1260,1265,1250,1250,4200,1250
2015/04/03,1269,1274,1257,1265,7800,1265
2015/04/06,1273,1273,1252,1254,5700,1254
2015/04/07,1260,1294,1250,1283,12000,1283
2015/04/08,1290,1325,1270,1270,6500,1270
2015/04/09,1300,1304,1282,1298,1600,1298
2015/04/10,1310,1318,1295,1302,2300,1302
2015/04/13,1303,1305,1290,1301,3800,1301
2015/04/14,1325,1325,1300,1325,8700,1325
2015/04/15,1313,1324,1300,1309,6300,1309
2015/04/16,1324,1325,1320,1325,3900,1325
2015/04/17,1306,1333,1300,1310,8700,1310
2015/04/20,1303,1303,1275,1283,6700,1283
2015/04/21,1283,1290,1279,1279,6300,1279
2015/04/22,1282,1285,1278,1278,10200,1278
2015/04/23,1270,1270,1250,1250,15100,1250
2015/04/24,1245,1255,1245,1246,8000,1246
2015/04/27,1250,1250,1245,1246,9600,1246
2015/04/28,1250,1268,1250,1252,1000,1252
2015/04/30,1274,1274,1244,1244,7100,1244
2015/05/01,1240,1250,1232,1235,3800,1235
2015/05/07,1240,1240,1225,1225,15100,1225
2015/05/08,1240,1240,1228,1235,4000,1235
2015/05/11,1233,1240,1233,1233,3200,1233
2015/05/12,1232,1240,1230,1240,1400,1240
2015/05/13,1240,1246,1240,1246,2000,1246
2015/05/14,1245,1270,1221,1242,11300,1242
2015/05/15,1281,1282,1266,1282,13600,1282
2015/05/18,1300,1316,1295,1316,13000,1316
2015/05/19,1348,1350,1333,1347,15000,1347
2015/05/20,1349,1350,1326,1331,7400,1331
2015/05/21,1330,1330,1282,1315,12200,1315
2015/05/22,1306,1306,1282,1285,7100,1285
2015/05/25,1284,1290,1274,1274,4600,1274
2015/05/26,1273,1273,1254,1265,8200,1265
2015/05/27,1271,1275,1265,1266,4100,1266
2015/05/28,1266,1275,1255,1255,4700,1255
2015/05/29,1259,1265,1248,1253,7100,1253
2015/06/01,1254,1268,1250,1250,5700,1250
2015/06/02,1250,1263,1248,1263,4700,1263
2015/06/03,1263,1277,1263,1276,4500,1276
2015/06/04,1279,1286,1277,1286,5000,1286
2015/06/05,1300,1300,1278,1282,3800,1282
2015/06/08,1304,1304,1287,1288,7200,1288
2015/06/09,1300,1300,1289,1289,6500,1289
2015/06/10,1288,1301,1288,1292,3000,1292
2015/06/11,1274,1280,1272,1274,7400,1274
2015/06/12,1274,1275,1252,1261,7300,1261
2015/06/15,1261,1264,1253,1260,4100,1260
2015/06/16,1247,1274,1247,1273,4600,1273
2015/06/17,1273,1273,1260,1268,1700,1268
2015/06/18,1268,1299,1268,1268,5800,1268
2015/06/19,1268,1275,1263,1270,900,1270
2015/06/22,1287,1297,1270,1297,4100,1297
2015/06/23,1300,1329,1286,1329,10800,1329
2015/06/24,1321,1323,1304,1308,4300,1308
2015/06/25,1305,1345,1297,1336,8400,1336
2015/06/26,1326,1344,1320,1344,7100,1344
2015/06/29,1342,1380,1342,1370,30300,1370
2015/06/30,1353,1375,1331,1331,6600,1331
2015/07/01,1379,1394,1359,1382,12100,1382
