2011/01/04,3080,3105,3010,3070,50,307
2011/01/11,3195,3200,3100,3200,790,320
2011/01/12,3270,3270,3250,3250,540,325
2011/01/13,3270,3300,3155,3300,190,330
2011/01/17,3295,3295,3130,3200,1710,320
2011/01/18,3285,3285,3150,3150,580,315
2011/01/20,3165,3170,3165,3170,50,317
2011/01/21,3170,3170,3050,3140,190,314
2011/01/24,3100,3150,3100,3150,60,315
2011/01/25,3080,3220,3080,3220,60,322
2011/01/27,3205,3270,3180,3270,270,327
2011/01/28,3280,3420,3280,3420,700,342
2011/01/31,3345,3345,3230,3300,120,330
2011/02/01,3160,3300,3160,3280,120,328
2011/02/02,3270,3380,3260,3260,700,326
2011/02/03,3280,3280,3280,3280,390,328
2011/02/04,3220,3220,3220,3220,40,322
2011/02/07,3290,3320,3290,3320,380,332
2011/02/08,3320,3320,3250,3250,60,325
2011/02/09,3245,3300,3245,3300,160,330
2011/02/10,3300,3300,3230,3230,80,323
2011/02/14,3295,3295,3240,3240,420,324
2011/02/15,3290,3290,3290,3290,20,329
2011/02/21,3250,3250,3180,3200,940,320
2011/02/22,3195,3195,3110,3110,2750,311
2011/02/23,3110,3190,3110,3190,80,319
2011/03/02,3050,3050,2965,3020,470,302
2011/03/03,3020,3065,3020,3020,310,302
2011/03/04,3030,3030,3000,3000,920,300
2011/03/07,3070,3070,3070,3070,100,307
2011/03/08,2670,2730,2615,2690,3020,269
2011/03/09,2700,2810,2690,2690,1170,269
2011/03/10,2760,2760,2650,2650,320,265
2011/03/11,2640,2650,2640,2650,120,265
2011/03/14,2315,2499,2250,2400,820,240
2011/03/15,2328,2328,1900,1990,7650,199
2011/03/16,1790,1800,1590,1590,9490,159
2011/03/17,1530,1530,1205,1370,20890,137
2011/03/22,1850,1975,1820,1860,10420,186
2011/03/23,1780,1855,1711,1750,3770,175
2011/03/28,1530,1630,1525,1630,2050,163
2011/03/29,1630,1710,1628,1650,1640,165
2011/03/30,1680,1700,1650,1650,310,165
2011/04/01,1700,1740,1700,1730,1150,173
2011/04/07,1570,1570,1555,1570,140,157
2011/04/08,1530,1569,1530,1540,1740,154
2011/04/11,1566,1630,1560,1560,660,156
2011/04/12,1560,1699,1555,1600,3230,160
2011/04/13,1600,1790,1600,1780,7570,178
2011/04/18,1700,1730,1660,1730,270,173
2011/04/19,1732,1735,1655,1720,280,172
2011/04/20,1710,1710,1650,1700,1290,170
2011/04/21,1710,1730,1710,1730,350,173
2011/04/22,1730,1730,1700,1730,670,173
2011/04/27,1757,1757,1610,1650,1300,165
2011/05/12,1687,1700,1660,1660,520,166
2011/05/16,1706,1706,1660,1660,470,166
2011/05/19,1719,1745,1700,1700,780,170
2011/05/23,1700,1700,1700,1700,60,170
2011/05/24,1700,1736,1630,1710,420,171
2011/05/31,2744,3100,2335,2420,38470,242
2011/06/01,2420,2880,2400,2540,17510,254
2011/06/07,2060,2060,1951,2010,4490,201
2011/06/10,2012,2014,1940,1970,5030,197
2011/06/13,1900,1900,1820,1820,4320,182
2011/06/14,1801,1948,1775,1880,2300,188
2011/06/20,1854,1869,1752,1830,1470,183
2011/06/27,1988,2180,1988,2080,2330,208
2011/06/30,2059,2090,1980,2030,720,203
2011/07/01,2007,2010,1923,1990,910,199
2011/07/04,1995,2120,1995,2080,930,208
2011/07/05,2011,2050,2000,2050,520,205
2011/07/07,2037,2079,2010,2070,970,207
2011/07/13,2044,2050,2020,2020,780,202
2011/07/19,2032,2084,2032,2050,410,205
2011/07/20,2050,2079,2050,2070,790,207
2011/07/27,215,220,207,207,7200,207
2011/07/28,210,210,190,197,12200,197
2011/07/29,199,199,183,188,5700,188
2011/08/01,188,192,188,190,3700,190
2011/08/02,190,207,187,190,4600,190
2011/08/03,190,190,183,183,1900,183
2011/08/04,183,197,182,197,1100,197
2011/08/05,180,200,175,196,6900,196
2011/08/08,195,195,181,181,300,181
2011/08/09,166,176,161,176,4600,176
2011/08/10,179,183,172,177,900,177
2011/08/11,175,176,168,170,2300,170
2011/08/12,170,172,161,172,20700,172
2011/08/15,166,170,166,170,2000,170
2011/08/16,167,167,167,167,600,167
2011/08/17,169,173,167,173,5800,173
2011/08/18,173,173,167,167,1500,167
2011/08/19,165,165,160,162,4600,162
2011/08/22,162,164,159,159,400,159
2011/08/23,160,165,160,161,2700,161
2011/08/24,160,160,160,160,100,160
2011/08/25,160,162,152,162,14000,162
2011/08/26,162,163,160,163,700,163
2011/08/29,170,170,169,169,1900,169
2011/08/30,164,168,164,168,300,168
2011/08/31,168,168,161,161,2600,161
2011/09/01,165,165,157,160,7500,160
2011/09/02,157,158,153,158,6000,158
2011/09/05,155,158,155,158,900,158
2011/09/06,158,158,153,158,2900,158
2011/09/07,160,202,154,166,51300,166
2011/09/08,182,183,167,171,22000,171
2011/09/09,169,169,162,167,8500,167
2011/09/12,160,166,157,160,6900,160
2011/09/13,178,178,166,176,15400,176
2011/09/14,180,183,174,183,8700,183
2011/09/15,183,183,172,175,1800,175
2011/09/16,171,175,170,175,2000,175
2011/09/20,166,178,166,178,5600,178
2011/09/21,169,169,164,165,3100,165
2011/09/22,168,168,156,159,9400,159
2011/09/26,157,157,140,145,9200,145
2011/09/27,151,151,148,148,4400,148
2011/09/28,146,150,146,150,4700,150
2011/09/29,145,147,145,147,1100,147
2011/09/30,150,151,149,150,2600,150
2011/10/03,149,152,149,152,500,152
2011/10/04,153,153,149,149,3100,149
2011/10/05,157,157,151,151,300,151
2011/10/06,154,154,153,153,200,153
2011/10/11,158,158,153,153,400,153
2011/10/12,151,151,150,151,2700,151
2011/10/13,150,157,148,157,4700,157
2011/10/17,153,153,153,153,300,153
2011/10/18,157,157,157,157,100,157
2011/10/19,154,154,153,153,200,153
2011/10/20,153,180,150,174,8900,174
2011/10/21,174,224,164,224,57700,224
2011/10/24,280,304,231,245,358500,245
2011/10/25,233,268,221,229,136600,229
2011/10/26,228,235,222,225,30000,225
2011/10/27,235,273,225,264,71100,264
2011/10/28,264,269,239,242,46600,242
2011/10/31,234,250,230,230,47700,230
2011/11/01,230,242,217,224,28500,224
2011/11/02,232,232,213,214,17800,214
2011/11/04,214,225,214,216,2600,216
2011/11/07,215,221,211,215,13300,215
2011/11/08,212,212,211,212,3300,212
2011/11/09,211,215,210,210,2900,210
2011/11/10,204,210,203,205,4800,205
2011/11/11,201,205,201,202,2000,202
2011/11/14,207,231,207,226,31700,226
2011/11/15,230,239,230,235,18700,235
2011/11/16,235,235,219,234,8500,234
2011/11/17,235,240,217,235,6500,235
2011/11/18,217,235,217,235,2000,235
2011/11/21,235,262,235,251,29600,251
2011/11/22,250,253,244,253,7000,253
2011/11/24,253,253,229,230,10200,230
2011/11/25,230,245,230,238,900,238
2011/11/28,249,250,245,249,4300,249
2011/11/29,251,251,250,250,2200,250
2011/11/30,243,252,240,252,3200,252
2011/12/01,251,251,237,251,5400,251
2011/12/02,251,270,251,270,20100,270
2011/12/05,278,300,256,293,20800,293
2011/12/06,293,293,280,289,9700,289
2011/12/07,289,289,280,288,3900,288
2011/12/08,272,289,272,289,4200,289
2011/12/09,369,369,356,369,67100,369
2011/12/12,429,449,358,370,397800,370
2011/12/13,374,410,362,384,155200,384
2011/12/14,400,464,397,464,361800,464
2011/12/15,514,544,482,544,527000,544
2011/12/16,589,631,505,523,610100,523
2011/12/19,522,548,465,491,298800,491
2011/12/20,504,571,492,571,249300,571
2011/12/21,582,625,527,550,415500,550
2011/12/22,530,535,496,508,122200,508
2011/12/26,518,520,465,472,105000,472
2011/12/27,472,474,453,474,77700,474
2011/12/28,458,554,446,554,302500,554
2011/12/29,536,584,515,517,448800,517
2011/12/30,522,533,500,507,60600,507
2012/01/04,500,534,485,502,76300,502
2012/01/05,493,519,484,486,67500,486
2012/01/06,496,505,481,490,48500,490
2012/01/10,506,520,483,489,71900,489
2012/01/11,489,496,466,469,56100,469
2012/01/12,472,530,463,475,114800,475
2012/01/13,471,499,471,482,39500,482
2012/01/16,485,491,466,479,27700,479
2012/01/17,471,475,443,452,67800,452
2012/01/18,446,466,437,456,24300,456
2012/01/19,456,456,445,446,20700,446
2012/01/20,441,445,405,411,82900,411
2012/01/23,408,448,407,430,54900,430
2012/01/24,425,445,425,431,8300,431
2012/01/25,435,450,426,450,27200,450
2012/01/26,445,495,445,463,68100,463
2012/01/27,456,467,448,452,21200,452
2012/01/30,452,469,452,452,22300,452
2012/01/31,452,452,421,433,24900,433
2012/02/01,432,433,418,423,20900,423
2012/02/02,420,433,415,419,25700,419
2012/02/03,422,424,412,416,19700,416
2012/02/06,424,439,421,432,26600,432
2012/02/07,433,488,433,466,60500,466
2012/02/08,468,468,453,462,15000,462
2012/02/09,465,513,455,477,60200,477
2012/02/10,499,530,490,527,162600,527
2012/02/13,545,561,520,561,140500,561
2012/02/14,568,580,536,545,87700,545
2012/02/15,542,542,514,530,46800,530
2012/02/16,532,545,530,536,17600,536
2012/02/17,536,545,515,520,32800,520
2012/02/20,555,570,529,548,67300,548
2012/02/21,546,592,545,592,106100,592
2012/02/22,601,615,575,586,147400,586
2012/02/23,596,598,575,577,70000,577
2012/02/24,572,655,570,646,167500,646
2012/02/27,675,746,645,684,382200,684
2012/02/28,731,770,666,706,280600,706
2012/02/29,692,744,685,706,69200,706
2012/03/01,685,724,684,694,72900,694
2012/03/02,692,723,675,699,79700,699
2012/03/05,705,799,701,799,292400,799
2012/03/06,799,887,760,807,344300,807
2012/03/07,800,814,748,763,128500,763
2012/03/08,748,830,650,698,669900,698
2012/03/09,680,689,632,650,347300,650
2012/03/12,621,630,588,603,368000,603
2012/03/13,605,609,558,573,215200,573
2012/03/14,563,594,547,566,214400,566
2012/03/15,570,585,559,560,103200,560
2012/03/16,556,579,549,550,70400,550
2012/03/19,540,557,524,540,94900,540
2012/03/21,534,567,534,542,100000,542
2012/03/22,535,557,535,554,55100,554
2012/03/23,535,547,510,514,166200,514
2012/03/26,524,527,512,518,68700,518
2012/03/27,508,524,508,513,49100,513
2012/03/28,515,537,515,537,39000,537
2012/03/29,534,557,534,557,64700,557
2012/03/30,547,558,541,558,49500,558
2012/04/02,563,563,550,550,28500,550
2012/04/03,550,550,515,536,52900,536
2012/04/04,526,540,521,526,29100,526
2012/04/05,506,540,506,540,29700,540
2012/04/06,526,530,519,519,7600,519
2012/04/09,519,521,512,521,11000,521
2012/04/10,513,518,500,513,13200,513
2012/04/11,502,508,501,505,7200,505
2012/04/12,508,509,498,501,7800,501
2012/04/13,495,500,480,488,11900,488
2012/04/16,480,480,470,475,12600,475
2012/04/17,467,489,467,487,13300,487
2012/04/18,490,513,490,510,18400,510
2012/04/19,500,507,490,506,14700,506
2012/04/20,505,505,492,497,15300,497
2012/04/23,490,500,482,500,7200,500
2012/04/24,499,500,490,497,5900,497
2012/04/25,495,495,485,485,4900,485
2012/04/26,488,496,487,487,3600,487
2012/04/27,485,501,485,501,9700,501
2012/05/01,500,500,472,491,6000,491
2012/05/02,494,494,475,490,2700,490
2012/05/07,490,490,476,479,5600,479
2012/05/08,479,479,460,468,8100,468
2012/05/09,468,468,450,457,11700,457
2012/05/10,457,457,428,446,13400,446
2012/05/11,446,446,435,441,4700,441
2012/05/14,427,427,410,411,18100,411
2012/05/15,399,399,341,362,33300,362
2012/05/16,353,360,351,354,13900,354
2012/05/17,361,397,361,392,33500,392
2012/05/18,353,376,353,376,23100,376
2012/05/21,360,376,358,372,5700,372
2012/05/22,371,400,371,399,6300,399
2012/05/23,394,400,380,394,2800,394
2012/05/24,394,394,375,383,2400,383
2012/05/25,380,400,374,400,7700,400
2012/05/28,400,408,391,397,3500,397
2012/05/29,395,395,377,388,6500,388
2012/05/30,385,392,380,391,4900,391
2012/05/31,390,390,382,389,500,389
2012/06/01,376,385,361,379,4700,379
2012/06/04,359,367,352,355,3400,355
2012/06/05,360,375,357,375,5700,375
2012/06/06,380,400,372,398,9700,398
2012/06/07,392,399,387,396,4900,396
2012/06/08,400,420,382,406,28200,406
2012/06/11,449,486,437,486,53000,486
2012/06/12,512,566,498,508,295700,508
2012/06/13,512,512,466,510,73100,510
2012/06/14,490,500,472,500,24400,500
2012/06/15,499,499,476,490,8000,490
2012/06/18,493,498,473,484,17000,484
2012/06/19,488,488,474,480,4300,480
2012/06/20,480,503,478,497,12200,497
2012/06/21,495,504,495,498,5700,498
2012/06/22,482,505,482,490,8800,490
2012/06/25,482,494,482,492,3400,492
2012/06/26,484,495,484,484,4000,484
2012/06/27,483,499,482,485,4400,485
2012/06/28,483,492,483,490,1300,490
2012/06/29,485,491,480,490,10000,490
2012/07/02,499,521,493,520,18700,520
2012/07/03,523,523,505,518,16400,518
2012/07/04,515,515,507,510,6600,510
2012/07/05,508,508,500,508,7800,508
2012/07/06,500,504,493,504,6100,504
2012/07/09,509,519,501,511,5700,511
2012/07/10,515,516,502,516,3500,516
2012/07/11,517,517,490,496,9500,496
2012/07/12,500,512,500,512,5300,512
2012/07/13,513,527,510,527,33000,527
2012/07/17,534,545,515,532,30300,532
2012/07/18,542,544,523,530,12400,530
2012/07/19,530,535,520,535,7000,535
2012/07/20,534,535,515,525,11100,525
2012/07/23,525,530,518,529,10200,529
2012/07/24,525,525,510,522,16000,522
2012/07/25,521,521,486,491,12200,491
2012/07/26,485,498,471,498,7100,498
2012/07/27,495,520,495,520,3700,520
2012/07/30,529,529,510,520,3100,520
2012/07/31,512,529,512,529,5400,529
2012/08/01,516,525,510,525,1800,525
2012/08/03,515,524,510,523,2300,523
2012/08/06,525,535,515,525,6200,525
2012/08/07,511,525,510,523,3300,523
2012/08/08,513,528,513,516,1900,516
2012/08/09,520,524,509,522,10500,522
2012/08/10,515,521,510,521,5000,521
2012/08/13,517,540,517,529,11300,529
2012/08/14,531,554,531,547,31600,547
2012/08/15,547,570,547,570,45600,570
2012/08/16,595,609,585,600,97400,600
2012/08/17,599,614,591,608,33400,608
2012/08/20,607,618,607,613,28400,613
2012/08/21,609,633,609,633,43400,633
2012/08/22,632,658,625,650,42900,650
2012/08/23,658,660,628,642,49500,642
2012/08/24,635,645,622,639,23500,639
2012/08/27,626,626,592,619,44500,619
2012/08/28,612,635,612,633,14700,633
2012/08/29,634,639,625,639,16500,639
2012/08/30,640,643,630,639,15800,639
2012/08/31,632,640,632,639,25000,639
2012/09/03,650,663,640,663,42100,663
2012/09/04,671,686,660,686,58100,686
2012/09/05,690,700,672,685,71500,685
2012/09/06,665,678,639,673,38900,673
2012/09/07,653,666,624,648,69400,648
2012/09/10,589,598,565,580,205000,580
2012/09/11,480,480,480,480,16000,480
2012/09/12,448,455,422,440,461100,440
2012/09/13,442,446,426,426,144800,426
2012/09/14,430,436,419,430,99600,430
2012/09/18,422,422,403,414,73600,414
2012/09/19,417,417,392,400,84200,400
2012/09/20,392,422,390,414,78900,414
2012/09/21,411,424,399,424,69300,424
2012/09/24,425,425,413,424,46700,424
2012/09/25,433,445,420,420,132300,420
2012/09/26,400,405,384,396,97600,396
2012/09/27,390,394,370,376,76800,376
2012/09/28,379,380,371,373,38400,373
2012/10/01,378,390,368,387,31700,387
2012/10/02,393,393,370,379,48800,379
2012/10/03,374,379,357,369,40700,369
2012/10/04,358,364,342,356,44400,356
2012/10/05,352,354,341,346,28100,346
2012/10/09,346,355,344,352,28600,352
2012/10/10,344,344,325,330,37900,330
2012/10/11,323,335,323,324,24000,324
2012/10/12,320,324,311,313,37400,313
2012/10/15,313,313,297,299,49100,299
2012/10/16,298,315,298,314,20700,314
2012/10/17,322,323,311,314,14500,314
2012/10/18,316,352,314,342,64100,342
2012/10/19,334,339,326,334,32900,334
2012/10/22,330,334,320,323,21600,323
2012/10/23,321,324,316,324,11200,324
2012/10/24,308,325,308,323,21000,323
2012/10/25,324,343,316,334,27000,334
2012/10/26,342,357,332,347,52500,347
2012/10/29,341,350,337,345,20600,345
2012/10/30,352,364,350,360,42300,360
2012/10/31,357,358,355,355,19200,355
2012/11/01,350,360,335,353,25000,353
2012/11/02,351,360,350,355,10800,355
2012/11/05,355,362,352,360,7500,360
2012/11/06,344,350,341,345,25600,345
2012/11/07,346,346,336,339,5700,339
2012/11/08,331,335,322,335,7900,335
2012/11/09,327,335,318,320,13400,320
2012/11/12,323,323,314,320,5700,320
2012/11/13,314,320,314,315,6500,315
2012/11/14,316,328,315,325,14800,325
2012/11/15,325,327,318,327,7600,327
2012/11/16,322,339,320,338,8100,338
2012/11/19,330,338,326,333,14700,333
2012/11/20,340,340,329,335,11000,335
2012/11/21,334,354,331,340,12500,340
2012/11/22,342,347,330,338,5800,338
2012/11/26,338,340,334,338,9100,338
2012/11/27,337,337,333,336,2700,336
2012/11/28,329,332,327,328,6200,328
2012/11/29,334,334,327,333,2400,333
2012/11/30,332,333,325,329,6200,329
2012/12/03,329,350,328,337,13000,337
2012/12/04,331,335,330,335,3100,335
2012/12/05,335,335,325,335,10400,335
2012/12/06,326,341,326,341,12600,341
2012/12/07,345,346,338,346,13400,346
2012/12/10,347,365,345,356,48900,356
2012/12/11,336,340,320,328,71800,328
2012/12/12,321,323,316,321,21700,321
2012/12/13,320,322,319,322,5800,322
2012/12/14,321,321,307,313,44700,313
2012/12/17,313,315,305,309,19600,309
2012/12/18,308,312,307,311,12600,311
2012/12/19,311,313,305,306,11900,306
2012/12/20,307,315,307,312,7200,312
2012/12/21,311,313,305,311,18700,311
2012/12/25,311,311,305,305,20500,305
2012/12/26,306,322,306,314,26200,314
2012/12/27,317,321,316,321,9200,321
2012/12/28,319,320,315,320,12100,320
2013/01/04,326,326,321,325,15000,325
2013/01/07,329,330,321,327,12100,327
2013/01/08,330,330,325,329,7300,329
2013/01/09,329,337,326,336,23800,336
2013/01/10,339,348,337,347,30300,347
2013/01/11,352,358,345,351,46300,351
2013/01/15,358,361,355,359,24100,359
2013/01/16,368,368,350,351,18900,351
2013/01/17,350,359,337,340,18800,340
2013/01/18,345,357,343,347,16600,347
2013/01/21,351,357,351,354,8200,354
2013/01/22,358,358,345,352,7300,352
2013/01/23,355,355,336,343,13700,343
2013/01/24,343,345,332,338,12100,338
2013/01/25,338,344,335,339,13500,339
2013/01/28,339,345,338,340,4500,340
2013/01/29,338,338,333,337,15700,337
2013/01/30,335,348,329,338,35000,338
2013/01/31,338,339,334,338,14000,338
2013/02/01,352,352,342,342,16900,342
2013/02/04,353,361,344,359,22000,359
2013/02/05,360,361,350,356,16600,356
2013/02/06,357,365,350,360,12200,360
2013/02/07,356,365,355,360,17800,360
2013/02/08,369,371,363,365,13500,365
2013/02/12,372,374,365,369,21900,369
2013/02/13,365,365,310,348,35400,348
2013/02/14,343,345,334,339,9600,339
2013/02/15,335,338,321,330,12400,330
2013/02/18,323,340,323,339,5400,339
2013/02/19,329,344,329,344,4600,344
2013/02/20,344,348,336,347,4600,347
2013/02/21,335,345,335,337,7700,337
2013/02/22,337,347,337,342,4500,342
2013/02/25,347,347,342,345,5200,345
2013/02/26,341,343,340,341,6400,341
2013/02/27,342,343,338,343,11100,343
2013/02/28,343,357,340,355,14900,355
2013/03/01,363,368,349,368,18700,368
2013/03/04,373,394,373,391,32600,391
2013/03/05,413,418,405,410,42900,410
2013/03/06,418,419,388,405,51800,405
2013/03/07,402,417,396,417,30700,417
2013/03/08,417,419,395,409,34500,409
2013/03/11,380,385,365,369,61600,369
2013/03/12,374,396,374,392,49200,392
2013/03/13,390,390,375,390,7700,390
2013/03/14,390,390,377,387,9100,387
2013/03/15,377,380,370,371,13600,371
2013/03/18,370,377,370,377,15100,377
2013/03/19,389,389,371,375,16800,375
2013/03/21,382,383,371,383,16800,383
2013/03/22,384,384,377,378,7600,378
2013/03/25,372,377,370,375,12100,375
2013/03/26,374,380,373,378,11300,378
2013/03/27,373,378,362,370,10800,370
2013/03/28,369,370,360,370,12000,370
2013/03/29,364,370,363,365,3000,365
2013/04/01,360,362,341,345,28800,345
2013/04/02,332,343,332,336,14300,336
2013/04/03,340,345,330,345,11800,345
2013/04/04,348,348,339,345,6700,345
2013/04/05,350,350,333,333,12100,333
2013/04/08,340,343,340,343,3800,343
2013/04/09,343,357,343,349,9100,349
2013/04/10,345,348,342,346,5400,346
2013/04/11,350,366,348,355,7100,355
2013/04/12,361,361,350,359,12200,359
2013/04/15,359,359,350,356,10000,356
2013/04/16,350,350,350,350,13700,350
2013/04/17,343,350,340,345,66400,345
2013/04/18,343,349,343,346,10000,346
2013/04/19,347,347,340,341,9300,341
2013/04/22,344,347,342,346,18100,346
2013/04/23,345,348,339,348,45700,348
2013/04/24,346,350,341,350,24700,350
2013/04/25,352,370,350,358,37600,358
2013/04/26,362,362,348,348,46500,348
2013/04/30,353,359,345,350,32200,350
2013/05/01,347,349,345,348,15700,348
2013/05/02,347,347,342,345,27000,345
2013/05/07,347,353,347,352,27700,352
2013/05/08,352,365,349,357,71200,357
2013/05/09,364,374,357,363,58700,363
2013/05/10,370,376,360,373,31700,373
2013/05/13,376,376,365,372,21800,372
2013/05/14,371,376,363,372,15100,372
2013/05/15,366,369,352,352,36400,352
2013/05/16,352,354,340,345,23700,345
2013/05/17,346,354,346,354,6100,354
2013/05/20,354,360,354,360,5200,360
2013/05/21,360,365,360,364,7400,364
2013/05/22,366,372,360,372,26700,372
2013/05/23,374,375,354,354,39400,354
2013/05/24,350,360,341,344,32200,344
2013/05/27,345,348,344,348,6100,348
2013/05/28,353,356,343,352,9800,352
2013/05/29,352,358,347,357,12600,357
2013/05/30,352,357,345,349,16600,349
2013/05/31,350,356,347,354,5500,354
2013/06/03,348,355,341,348,4900,348
2013/06/04,346,365,340,360,13700,360
2013/06/05,356,362,346,354,5600,354
2013/06/06,349,355,333,344,23300,344
2013/06/07,329,334,303,318,67200,318
2013/06/10,321,335,321,333,7800,333
2013/06/11,324,333,324,333,10600,333
2013/06/12,330,330,324,330,7000,330
2013/06/13,282,299,282,288,82400,288
2013/06/14,288,294,283,283,24300,283
2013/06/17,283,286,282,283,8900,283
2013/06/18,275,280,275,280,7900,280
2013/06/19,281,281,277,280,4600,280
2013/06/20,280,280,277,279,1500,279
2013/06/21,278,279,274,275,6000,275
2013/06/24,280,280,276,279,1600,279
2013/06/25,276,276,272,275,7700,275
2013/06/26,277,277,270,270,4600,270
2013/06/27,271,271,260,265,6000,265
2013/06/28,273,273,261,266,12000,266
2013/07/01,262,265,260,264,2600,264
2013/07/02,265,274,261,264,5600,264
2013/07/03,265,271,265,269,10600,269
2013/07/04,266,268,265,265,9100,265
2013/07/05,266,274,266,272,15000,272
2013/07/08,295,343,290,304,91700,304
2013/07/09,309,310,280,305,26600,305
2013/07/10,300,300,288,290,7200,290
2013/07/11,293,296,284,291,12500,291
2013/07/12,289,295,287,292,8700,292
2013/07/16,290,292,284,286,6100,286
2013/07/17,286,290,284,285,6200,285
2013/07/18,285,287,281,287,7100,287
2013/07/19,284,285,275,278,9400,278
2013/07/22,277,279,277,279,3800,279
2013/07/23,278,280,278,280,1600,280
2013/07/24,284,284,280,280,2100,280
2013/07/25,285,290,279,290,4500,290
2013/07/26,283,292,283,289,5100,289
2013/07/29,288,288,275,280,7100,280
2013/07/30,280,280,275,277,2400,277
2013/07/31,277,277,276,277,1700,277
2013/08/01,279,279,268,271,5500,271
2013/08/02,274,274,273,273,7900,273
2013/08/05,278,278,270,275,2100,275
2013/08/06,276,276,257,270,21400,270
2013/08/07,269,270,265,265,5700,265
2013/08/08,264,273,261,265,4300,265
2013/08/09,263,264,263,263,4700,263
2013/08/12,265,265,263,263,3600,263
2013/08/13,262,263,256,262,14000,262
2013/08/14,261,265,261,264,4200,264
2013/08/15,264,264,263,263,1200,263
2013/08/16,262,270,259,270,7400,270
2013/08/19,273,274,273,273,4900,273
2013/08/20,277,280,270,270,6300,270
2013/08/21,266,271,265,266,1600,266
2013/08/22,271,275,261,268,9500,268
2013/08/23,268,268,266,266,2200,266
2013/08/26,267,267,266,267,1300,267
2013/08/27,266,267,266,267,700,267
2013/08/28,259,263,259,263,13300,263
2013/08/29,265,267,265,267,500,267
2013/08/30,266,266,265,265,900,265
2013/09/02,270,275,265,268,2900,268
2013/09/03,268,271,268,270,900,270
2013/09/04,275,275,273,273,700,273
2013/09/05,270,273,270,273,3600,273
2013/09/06,272,285,272,280,8400,280
2013/09/09,281,284,266,280,11100,280
2013/09/10,277,282,275,282,3500,282
2013/09/11,280,299,279,299,19900,299
2013/09/12,283,283,269,272,47200,272
2013/09/13,274,278,274,276,7300,276
2013/09/17,275,281,275,277,4900,277
2013/09/18,279,280,279,279,3600,279
2013/09/19,280,281,279,281,4000,281
2013/09/20,280,282,278,282,5800,282
2013/09/24,280,282,280,281,5000,281
2013/09/25,284,284,282,284,9200,284
2013/09/26,284,297,283,295,8500,295
2013/09/27,300,305,298,302,21700,302
2013/09/30,300,300,293,298,5700,298
2013/10/01,295,295,294,295,7800,295
2013/10/02,296,297,295,295,7500,295
2013/10/03,296,296,289,293,5800,293
2013/10/04,290,293,288,293,5200,293
2013/10/07,293,294,293,293,1400,293
2013/10/08,291,293,291,293,3100,293
2013/10/09,296,296,293,293,2200,293
2013/10/10,293,293,291,293,3900,293
2013/10/11,298,302,295,298,15400,298
2013/10/15,299,302,299,300,9000,300
2013/10/16,298,299,293,296,9100,296
2013/10/17,294,298,294,296,3900,296
2013/10/18,294,316,294,316,16700,316
2013/10/21,310,324,310,320,18700,320
2013/10/22,320,323,316,320,6300,320
2013/10/23,323,326,320,320,9600,320
2013/10/24,313,320,313,317,3300,317
2013/10/25,320,323,317,317,4100,317
2013/10/28,322,322,314,318,3300,318
2013/10/29,321,324,321,321,1200,321
2013/10/30,324,324,316,316,3200,316
2013/10/31,318,322,312,312,5600,312
2013/11/01,310,311,305,309,5400,309
2013/11/05,315,315,307,307,2000,307
2013/11/06,310,318,308,318,5000,318
2013/11/07,313,320,312,320,1200,320
2013/11/08,304,312,304,309,6200,309
2013/11/11,308,319,308,311,5000,311
2013/11/12,310,311,301,311,7800,311
2013/11/13,310,310,309,309,6300,309
2013/11/14,310,312,309,309,2800,309
2013/11/15,314,314,309,309,4000,309
2013/11/18,310,314,310,310,5100,310
2013/11/19,315,315,311,311,3100,311
2013/11/20,314,314,310,310,3400,310
2013/11/21,317,320,315,319,11200,319
2013/11/22,320,327,320,325,9100,325
2013/11/25,325,370,325,340,61900,340
2013/11/26,333,334,321,323,11600,323
2013/11/27,330,332,322,328,2700,328
2013/11/28,342,342,325,330,7900,330
2013/11/29,327,338,320,338,10300,338
2013/12/02,327,332,326,332,1500,332
2013/12/03,329,329,328,328,2700,328
2013/12/04,328,334,328,334,400,334
2013/12/05,330,330,325,325,4800,325
2013/12/06,330,337,328,330,7100,330
2013/12/09,341,353,335,353,33800,353
2013/12/10,340,341,334,340,33000,340
2013/12/11,340,353,340,343,15500,343
2013/12/12,359,370,343,359,98400,359
2013/12/13,361,361,352,352,19200,352
2013/12/16,355,366,348,366,47500,366
2013/12/17,365,365,345,350,25800,350
2013/12/18,353,353,345,349,7000,349
2013/12/19,350,353,346,346,18200,346
2013/12/20,346,351,345,345,7300,345
2013/12/24,345,348,339,339,11900,339
2013/12/25,339,349,336,343,16100,343
2013/12/26,343,352,343,350,8400,350
2013/12/27,350,366,350,365,22600,365
2013/12/30,373,379,362,379,14300,379
2014/01/06,371,378,363,370,14200,370
2014/01/07,371,388,370,378,17000,378
2014/01/08,381,409,380,402,37200,402
2014/01/09,400,400,388,399,8900,399
2014/01/10,391,410,391,410,6600,410
2014/01/14,400,400,391,394,3300,394
2014/01/15,399,406,383,383,6200,383
2014/01/16,395,400,388,400,4200,400
2014/01/17,404,409,400,403,7300,403
2014/01/20,409,415,383,414,14900,414
2014/01/21,406,448,402,448,26500,448
2014/01/22,449,449,421,430,23800,430
2014/01/23,438,444,430,432,9000,432
2014/01/24,430,432,406,421,13400,421
2014/01/27,400,425,390,425,25900,425
2014/01/28,425,428,416,420,2300,420
2014/01/29,429,439,421,438,2100,438
2014/01/30,422,429,415,421,2600,421
2014/01/31,434,436,415,423,1600,423
2014/02/03,410,413,401,401,5400,401
2014/02/04,365,396,361,379,14600,379
2014/02/05,387,407,387,388,5200,388
2014/02/06,381,397,381,397,2300,397
2014/02/07,397,397,396,396,1600,396
2014/02/10,395,400,395,400,1500,400
2014/02/12,405,445,405,440,51900,440
2014/02/13,455,520,450,466,359500,466
2014/02/14,476,501,456,482,151400,482
2014/02/17,498,555,485,525,245400,525
2014/02/18,515,533,500,512,55400,512
2014/02/19,520,522,495,495,30800,495
2014/02/20,494,540,494,513,72100,513
2014/02/21,515,520,508,508,22500,508
2014/02/24,512,555,512,549,88400,549
2014/02/25,559,611,526,539,285400,539
2014/02/26,545,548,516,518,118300,518
2014/02/27,518,534,512,529,47700,529
2014/02/28,523,541,501,509,60400,509
2014/03/03,496,515,470,503,66300,503
2014/03/04,490,534,490,528,42100,528
2014/03/05,536,545,531,544,71200,544
2014/03/06,539,558,531,556,61500,556
2014/03/07,557,565,546,559,67100,559
2014/03/10,550,555,515,540,138200,540
2014/03/11,530,540,508,510,115200,510
2014/03/12,492,510,492,503,111800,503
2014/03/13,405,416,403,403,360900,403
2014/03/14,395,399,371,381,239700,381
2014/03/17,387,387,372,372,43000,372
2014/03/18,374,377,355,361,50200,361
2014/03/19,375,375,350,356,44000,356
2014/03/20,363,379,353,373,88500,373
2014/03/24,371,382,370,374,52300,374
2014/03/25,370,372,361,363,23700,363
2014/03/26,360,367,360,361,13500,361
2014/03/27,357,364,357,363,6900,363
2014/03/28,369,373,364,368,4600,368
2014/03/31,367,374,362,367,6000,367
2014/04/01,367,378,367,377,15100,377
2014/04/02,371,386,371,385,19000,385
2014/04/03,381,389,377,377,15600,377
2014/04/04,377,391,377,387,31100,387
2014/04/07,380,384,377,379,7200,379
2014/04/08,375,375,365,372,8500,372
2014/04/09,367,368,363,363,9900,363
2014/04/10,369,374,361,361,8900,361
2014/04/11,345,355,344,355,17600,355
2014/04/14,376,417,354,360,106300,360
2014/04/15,360,364,357,357,19100,357
2014/04/16,357,364,353,360,9100,360
2014/04/17,370,370,360,360,8900,360
2014/04/18,368,373,363,373,7400,373
2014/04/21,370,380,370,378,9000,378
2014/04/22,373,374,358,358,19100,358
2014/04/23,355,364,355,359,13400,359
2014/04/24,358,366,357,359,7600,359
2014/04/25,356,360,356,356,7600,356
2014/04/28,359,360,352,357,4300,357
2014/04/30,354,357,354,355,3900,355
2014/05/01,352,360,352,359,3400,359
2014/05/02,365,372,355,367,7500,367
2014/05/07,356,359,351,353,6100,353
2014/05/08,354,362,353,362,7000,362
2014/05/09,365,370,354,370,4200,370
2014/05/12,370,370,358,359,1600,359
2014/05/13,355,360,355,360,6700,360
2014/05/14,358,365,355,360,3900,360
2014/05/15,358,358,350,354,16100,354
2014/05/16,348,352,346,352,6300,352
2014/05/19,352,352,334,350,5900,350
2014/05/20,342,348,342,348,4700,348
2014/05/21,348,348,325,342,15600,342
2014/05/22,343,344,331,340,3600,340
2014/05/23,338,347,338,346,8500,346
2014/05/26,340,350,340,344,4800,344
2014/05/27,343,348,343,345,2900,345
2014/05/28,348,353,348,353,3900,353
2014/05/29,353,359,338,358,10200,358
2014/05/30,358,367,353,353,9600,353
2014/06/02,354,358,354,357,1400,357
2014/06/03,357,359,354,359,6300,359
2014/06/04,359,370,359,362,10500,362
2014/06/05,363,364,353,357,7700,357
2014/06/06,360,362,358,358,4800,358
2014/06/09,358,364,358,358,4700,358
2014/06/10,366,373,360,373,25200,373
2014/06/11,370,377,366,372,12800,372
2014/06/12,378,400,370,380,89000,380
2014/06/13,373,376,370,374,17500,374
2014/06/16,380,380,373,373,11400,373
2014/06/17,379,383,373,379,17600,379
2014/06/18,384,387,382,386,19900,386
2014/06/19,381,386,380,383,4200,383
2014/06/20,384,384,377,383,2900,383
2014/06/23,383,385,378,385,3700,385
2014/06/24,377,382,377,379,3800,379
2014/06/25,380,384,377,378,8500,378
2014/06/26,379,380,375,377,7500,377
2014/06/27,377,377,361,374,11200,374
2014/06/30,373,379,367,378,4900,378
2014/07/01,376,378,372,378,6700,378
2014/07/02,384,391,378,384,15000,384
2014/07/03,387,388,379,384,4400,384
2014/07/04,384,386,375,382,8400,382
2014/07/07,382,405,382,405,45200,405
2014/07/08,435,444,400,408,85100,408
2014/07/09,404,415,390,414,19300,414
2014/07/10,419,419,390,404,12200,404
2014/07/11,404,414,391,411,23000,411
2014/07/14,413,431,412,430,41700,430
2014/07/15,440,452,431,450,57500,450
2014/07/16,458,520,450,500,279000,500
2014/07/17,492,514,492,498,95700,498
2014/07/18,490,490,474,476,34200,476
2014/07/22,480,487,452,466,16400,466
2014/07/23,453,457,429,446,35900,446
2014/07/24,444,444,436,439,4900,439
2014/07/25,434,441,423,432,30400,432
2014/07/28,432,450,426,438,19000,438
2014/07/29,438,443,435,435,8700,435
2014/07/30,440,446,431,431,8500,431
2014/07/31,428,436,428,428,9000,428
2014/08/01,428,435,416,424,15300,424
2014/08/04,430,435,416,435,7500,435
2014/08/05,442,458,423,431,18400,431
2014/08/06,426,439,417,423,9200,423
2014/08/07,420,451,419,424,15300,424
2014/08/08,416,426,410,414,7700,414
2014/08/11,415,419,415,419,2900,419
2014/08/12,430,446,421,440,7200,440
2014/08/13,445,446,431,431,5200,431
2014/08/14,427,441,425,434,8500,434
2014/08/15,441,441,435,435,700,435
2014/08/18,435,436,426,430,3400,430
2014/08/19,430,432,428,431,4700,431
2014/08/20,428,435,421,421,1900,421
2014/08/21,421,426,418,425,5800,425
2014/08/22,420,438,415,434,16800,434
2014/08/25,435,435,416,435,11100,435
2014/08/26,439,439,424,427,5100,427
2014/08/27,428,440,421,429,8600,429
2014/08/28,438,450,426,447,18000,447
2014/08/29,450,460,440,453,26700,453
2014/09/01,460,473,456,468,18000,468
2014/09/02,475,548,475,486,521200,486
2014/09/03,478,495,461,472,92500,472
2014/09/04,470,470,451,464,31900,464
2014/09/05,458,463,440,440,25900,440
2014/09/08,453,482,453,474,57400,474
2014/09/09,479,480,471,478,5600,478
2014/09/10,471,474,459,462,6200,462
2014/09/11,470,471,458,467,13300,467
2014/09/12,459,480,453,480,35600,480
2014/09/16,440,448,425,431,109100,431
2014/09/17,431,431,415,416,54300,416
2014/09/18,418,427,404,411,28700,411
2014/09/19,412,419,400,409,24600,409
2014/09/22,406,415,405,414,7400,414
2014/09/24,418,427,411,425,22600,425
2014/09/25,424,425,411,412,5700,412
2014/09/26,417,425,400,425,32200,425
2014/09/29,428,434,420,425,10400,425
2014/09/30,425,430,420,423,7600,423
2014/10/01,430,430,411,414,10300,414
2014/10/02,407,412,400,402,29500,402
2014/10/03,400,406,395,404,10400,404
2014/10/06,410,412,406,410,4200,410
2014/10/07,410,412,406,412,3200,412
2014/10/08,405,408,400,404,8000,404
2014/10/09,404,406,399,403,7000,403
2014/10/10,392,400,392,395,6900,395
2014/10/14,385,394,380,385,15700,385
2014/10/15,385,393,383,393,6200,393
2014/10/16,380,390,379,385,5000,385
2014/10/17,380,382,379,379,4800,379
2014/10/20,384,388,384,386,6500,386
2014/10/21,386,405,386,400,7600,400
2014/10/22,400,415,385,413,10700,413
2014/10/23,415,415,407,407,600,407
2014/10/24,415,416,410,414,7300,414
2014/10/27,414,414,410,413,11900,413
2014/10/28,405,405,402,402,1300,402
2014/10/29,399,400,399,399,2200,399
2014/10/30,399,400,390,400,2100,400
2014/10/31,400,400,383,397,12100,397
2014/11/04,399,403,399,399,8900,399
2014/11/05,395,405,395,403,1300,403
2014/11/06,403,403,388,391,13100,391
2014/11/07,394,401,388,401,8000,401
2014/11/10,410,410,390,390,9900,390
2014/11/11,391,402,390,390,13700,390
2014/11/12,394,399,391,391,10600,391
2014/11/13,398,402,390,390,14600,390
2014/11/14,392,397,389,389,6500,389
2014/11/17,398,398,391,397,4100,397
2014/11/18,393,399,392,399,5000,399
2014/11/19,398,405,397,397,6000,397
2014/11/20,399,405,398,398,2300,398
2014/11/21,396,396,393,394,5100,394
2014/11/25,391,397,391,395,3200,395
2014/11/26,395,412,395,401,14500,401
2014/11/27,405,408,400,401,2400,401
2014/11/28,408,408,392,400,8200,400
2014/12/01,415,415,404,404,7700,404
2014/12/02,402,404,400,403,3200,403
2014/12/03,400,411,400,408,8900,408
2014/12/04,408,411,402,404,6900,404
2014/12/05,406,470,406,427,129000,427
2014/12/08,457,466,440,443,67400,443
2014/12/09,445,445,421,427,28700,427
2014/12/10,429,450,424,445,22900,445
2014/12/11,405,415,403,409,64400,409
2014/12/12,411,420,411,419,22900,419
2014/12/15,429,440,424,432,28500,432
2014/12/16,425,429,415,419,8800,419
2014/12/17,420,430,419,425,7400,425
2014/12/18,420,426,420,420,10500,420
2014/12/19,421,423,418,421,9000,421
2014/12/22,423,433,422,428,7500,428
2014/12/24,428,428,421,421,13600,421
2014/12/25,426,426,420,420,17100,420
2014/12/26,419,424,417,420,7000,420
2014/12/29,430,440,422,440,12100,440
2014/12/30,440,440,426,437,8900,437
2015/01/05,440,440,430,438,7400,438
2015/01/06,440,440,426,428,3900,428
2015/01/07,428,435,428,434,1700,434
2015/01/08,434,437,432,435,6500,435
2015/01/09,435,438,428,435,7600,435
2015/01/13,448,448,433,443,24800,443
2015/01/14,447,450,442,446,5100,446
2015/01/15,445,445,434,434,7300,434
2015/01/16,434,439,434,437,8200,437
2015/01/19,450,450,441,450,6600,450
2015/01/20,453,485,451,485,43400,485
2015/01/21,490,495,472,480,25600,480
2015/01/22,472,480,442,444,28100,444
2015/01/23,447,455,445,454,11700,454
2015/01/26,462,468,455,461,7600,461
2015/01/27,464,466,458,466,6100,466
2015/01/28,460,467,456,463,7200,463
2015/01/29,463,468,450,450,8400,450
2015/01/30,452,452,445,447,4900,447
2015/02/02,527,527,527,527,28100,527
2015/02/03,627,627,627,627,20900,627
2015/02/04,727,727,727,727,37200,727
2015/02/05,1027,1027,977,1027,1447100,1027
2015/02/06,997,1290,934,999,3951500,999
2015/02/09,954,1094,863,902,1564700,902
2015/02/10,887,945,776,830,682800,830
2015/02/12,845,875,757,782,719600,782
2015/02/13,780,809,729,745,509300,745
2015/02/16,745,774,725,761,347400,761
2015/02/17,746,751,670,700,467800,700
2015/02/18,702,710,675,685,277400,685
2015/02/19,694,727,685,701,326700,701
2015/02/20,676,682,650,656,361900,656
2015/02/23,666,726,656,684,584100,684
2015/02/24,676,742,666,701,512500,701
2015/02/25,688,723,688,703,153700,703
2015/02/26,727,733,702,704,150000,704
2015/02/27,698,703,668,671,149400,671
2015/03/02,670,677,658,659,85100,659
2015/03/03,660,671,606,626,178800,626
2015/03/04,629,629,591,618,85700,618
2015/03/05,608,617,600,613,49000,613
2015/03/06,613,623,605,619,39700,619
2015/03/09,606,610,592,605,51400,605
2015/03/10,602,618,601,602,39800,602
2015/03/11,601,614,594,596,37500,596
2015/03/12,601,660,599,635,195300,635
2015/03/13,631,632,615,616,60800,616
2015/03/16,540,547,525,544,198800,544
2015/03/17,540,549,529,539,65400,539
2015/03/18,539,539,516,536,61800,536
2015/03/19,540,544,522,534,31600,534
2015/03/20,526,530,518,523,22600,523
2015/03/23,518,533,518,531,17300,531
2015/03/24,523,540,523,539,23100,539
2015/03/25,531,540,526,540,28600,540
2015/03/26,532,535,527,528,12300,528
2015/03/27,525,583,525,533,149800,533
2015/03/30,534,534,512,522,32300,522
2015/03/31,530,545,527,543,43300,543
2015/04/01,548,575,545,574,65100,574
2015/04/02,614,614,558,571,108000,571
2015/04/03,581,583,550,558,38800,558
2015/04/06,568,581,551,558,35700,558
2015/04/07,558,576,556,569,25600,569
2015/04/08,576,590,575,582,35100,582
2015/04/09,592,592,559,563,73200,563
2015/04/10,573,578,553,553,27600,553
2015/04/13,555,559,543,548,20500,548
2015/04/14,547,556,543,551,12600,551
2015/04/15,558,564,548,559,17500,559
2015/04/16,568,638,555,577,223500,577
2015/04/17,570,586,570,577,26000,577
2015/04/20,605,625,582,589,152100,589
2015/04/21,599,609,582,583,55800,583
2015/04/22,581,581,571,574,24600,574
2015/04/23,579,587,579,579,12700,579
2015/04/24,580,586,575,576,11100,576
2015/04/27,580,585,574,576,13800,576
2015/04/28,575,578,568,571,15500,571
2015/04/30,575,575,557,559,28700,559
2015/05/01,559,566,519,533,48200,533
2015/05/07,534,546,530,543,20900,543
2015/05/08,544,550,540,542,9400,542
2015/05/11,560,560,545,557,17800,557
2015/05/12,556,558,542,547,12100,547
2015/05/13,547,547,537,537,8300,537
2015/05/14,537,542,532,541,6700,541
2015/05/15,539,547,535,545,5800,545
2015/05/18,550,550,531,531,8500,531
2015/05/19,534,538,531,531,9600,531
2015/05/20,539,547,535,538,19500,538
2015/05/21,538,543,527,536,17300,536
2015/05/22,532,539,530,536,8700,536
2015/05/25,539,539,527,528,12100,528
2015/05/26,534,534,527,529,14900,529
2015/05/27,529,533,527,527,6300,527
2015/05/28,527,531,526,531,14400,531
2015/05/29,530,530,526,527,10200,527
2015/06/01,527,531,523,529,7000,529
2015/06/02,525,530,525,527,6800,527
2015/06/03,525,528,520,522,14700,522
2015/06/04,521,540,519,532,39500,532
2015/06/05,532,538,526,529,5000,529
2015/06/08,529,550,529,543,24700,543
2015/06/09,534,535,518,524,18400,524
2015/06/10,531,531,520,527,2500,527
2015/06/11,507,513,505,509,28100,509
2015/06/12,503,506,481,486,55800,486
2015/06/15,473,484,473,475,24600,475
2015/06/16,477,486,477,479,15000,479
2015/06/17,480,493,480,487,9300,487
2015/06/18,488,496,485,495,7400,495
2015/06/19,487,495,486,492,5900,492
2015/06/22,496,500,495,500,4800,500
2015/06/23,503,510,497,510,7900,510
2015/06/24,500,517,500,511,9600,511
2015/06/25,501,514,500,507,5400,507
2015/06/26,502,510,497,497,6700,497
2015/06/29,490,496,478,494,8700,494
2015/06/30,486,500,484,490,12300,490
2015/07/01,490,506,482,488,13300,488
