2011/01/04,155,160,155,160,8000,160
2011/01/05,161,165,161,163,25000,163
2011/01/06,162,166,162,166,4000,166
2011/01/07,166,166,164,164,19000,164
2011/01/11,166,171,165,171,31000,171
2011/01/12,176,176,173,173,20000,173
2011/01/13,175,182,170,175,119000,175
2011/01/14,174,180,173,178,40000,178
2011/01/17,177,181,175,176,25000,176
2011/01/18,176,176,173,173,15000,173
2011/01/19,176,178,175,178,21000,178
2011/01/20,178,178,177,177,8000,177
2011/01/21,177,177,169,169,29000,169
2011/01/24,170,170,167,170,11000,170
2011/01/25,171,173,171,172,20000,172
2011/01/26,172,174,170,170,27000,170
2011/01/27,175,175,172,172,4000,172
2011/01/28,171,171,168,170,26000,170
2011/01/31,163,166,163,166,12000,166
2011/02/01,171,171,168,168,14000,168
2011/02/02,172,172,169,171,8000,171
2011/02/03,171,174,169,171,7000,171
2011/02/04,173,173,173,173,6000,173
2011/02/07,174,175,173,173,23000,173
2011/02/08,175,175,172,173,16000,173
2011/02/09,173,175,173,173,11000,173
2011/02/10,172,173,172,173,10000,173
2011/02/14,173,174,173,173,11000,173
2011/02/15,174,174,174,174,1000,174
2011/02/16,172,175,172,174,7000,174
2011/02/17,172,175,172,174,16000,174
2011/02/18,173,175,173,175,4000,175
2011/02/21,177,177,176,176,10000,176
2011/02/22,180,180,176,177,37000,177
2011/02/23,175,175,175,175,8000,175
2011/02/24,172,173,172,173,19000,173
2011/02/25,168,174,168,174,8000,174
2011/02/28,175,175,175,175,19000,175
2011/03/01,175,176,174,174,5000,174
2011/03/02,174,174,171,171,4000,171
2011/03/03,171,171,169,169,2000,169
2011/03/04,174,174,171,172,9000,172
2011/03/07,172,174,169,169,12000,169
2011/03/08,172,172,170,171,5000,171
2011/03/09,172,172,171,171,5000,171
2011/03/10,170,172,169,169,9000,169
2011/03/11,174,174,172,173,28000,173
2011/03/14,151,154,145,154,24000,154
2011/03/15,154,154,123,138,56000,138
2011/03/16,134,139,130,139,27000,139
2011/03/17,129,138,129,138,31000,138
2011/03/18,140,145,137,141,26000,141
2011/03/22,148,150,145,145,36000,145
2011/03/23,146,150,145,146,38000,146
2011/03/24,146,152,146,147,21000,147
2011/03/25,150,153,147,149,42000,149
2011/03/28,151,152,151,152,31000,152
2011/03/29,151,152,150,152,26000,152
2011/03/30,152,152,150,152,21000,152
2011/03/31,152,163,152,161,16000,161
2011/04/01,165,165,156,156,8000,156
2011/04/04,152,156,152,156,11000,156
2011/04/05,156,156,151,151,5000,151
2011/04/06,149,149,149,149,10000,149
2011/04/07,149,150,148,149,5000,149
2011/04/08,148,149,148,149,8000,149
2011/04/11,154,154,150,150,10000,150
2011/04/12,150,153,149,149,15000,149
2011/04/13,147,149,147,149,2000,149
2011/04/14,152,153,152,153,4000,153
2011/04/15,153,155,151,155,5000,155
2011/04/18,150,150,150,150,6000,150
2011/04/20,150,155,150,155,4000,155
2011/04/21,155,155,147,154,22000,154
2011/04/22,154,154,154,154,1000,154
2011/04/25,152,153,150,153,12000,153
2011/04/26,153,153,150,150,19000,150
2011/04/27,153,153,151,151,5000,151
2011/04/28,150,154,150,150,5000,150
2011/05/02,150,151,150,151,5000,151
2011/05/06,151,155,150,151,19000,151
2011/05/09,154,154,154,154,1000,154
2011/05/10,151,153,151,152,5000,152
2011/05/11,154,154,151,151,8000,151
2011/05/12,151,154,151,154,8000,154
2011/05/13,154,154,152,152,6000,152
2011/05/16,152,153,151,153,7000,153
2011/05/17,150,151,150,151,11000,151
2011/05/18,148,149,148,149,7000,149
2011/05/19,154,154,147,149,13000,149
2011/05/20,150,150,146,149,12000,149
2011/05/23,146,147,145,146,18000,146
2011/05/24,146,146,145,146,4000,146
2011/05/25,146,146,145,146,7000,146
2011/05/26,146,150,146,150,24000,150
2011/05/27,146,146,146,146,3000,146
2011/05/30,147,152,147,152,4000,152
2011/05/31,152,152,152,152,1000,152
2011/06/01,152,153,148,149,15000,149
2011/06/02,149,151,148,148,6000,148
2011/06/03,147,148,147,147,5000,147
2011/06/06,150,150,150,150,11000,150
2011/06/07,151,151,146,146,2000,146
2011/06/08,146,147,146,147,3000,147
2011/06/09,150,150,150,150,1000,150
2011/06/10,151,151,151,151,22000,151
2011/06/13,147,147,147,147,1000,147
2011/06/14,145,145,145,145,2000,145
2011/06/15,150,150,146,149,10000,149
2011/06/16,146,150,145,146,13000,146
2011/06/17,148,150,148,150,2000,150
2011/06/20,150,158,150,158,34000,158
2011/06/21,158,158,150,155,9000,155
2011/06/22,155,155,151,151,4000,151
2011/06/23,150,152,149,149,11000,149
2011/06/24,148,155,148,155,9000,155
2011/06/27,159,164,156,164,42000,164
2011/06/28,164,164,157,159,7000,159
2011/06/29,162,162,158,161,10000,161
2011/06/30,163,164,158,164,9000,164
2011/07/01,169,169,165,165,7000,165
2011/07/04,169,169,161,161,26000,161
2011/07/05,161,165,160,163,16000,163
2011/07/06,165,166,165,166,6000,166
2011/07/07,166,166,162,165,5000,165
2011/07/08,165,167,165,166,14000,166
2011/07/11,166,167,166,167,12000,167
2011/07/12,166,166,166,166,2000,166
2011/07/13,163,166,163,164,11000,164
2011/07/14,167,167,167,167,2000,167
2011/07/15,168,168,165,165,5000,165
2011/07/19,168,168,167,167,4000,167
2011/07/20,168,174,168,174,35000,174
2011/07/21,172,173,163,167,16000,167
2011/07/22,172,173,172,172,5000,172
2011/07/25,174,174,168,171,9000,171
2011/07/26,172,172,171,172,20000,172
2011/07/27,170,170,170,170,2000,170
2011/07/28,166,167,166,167,5000,167
2011/07/29,167,167,166,167,9000,167
2011/08/01,174,174,174,174,8000,174
2011/08/02,170,170,166,167,5000,167
2011/08/03,164,164,160,160,8000,160
2011/08/04,165,165,160,160,3000,160
2011/08/05,160,160,160,160,4000,160
2011/08/08,160,160,150,152,13000,152
2011/08/09,142,147,142,147,7000,147
2011/08/10,154,154,145,146,30000,146
2011/08/11,151,151,151,151,3000,151
2011/08/12,159,159,154,154,5000,154
2011/08/15,157,162,155,155,10000,155
2011/08/16,155,155,155,155,4000,155
2011/08/17,165,165,160,160,8000,160
2011/08/18,160,168,160,160,9000,160
2011/08/19,160,160,157,158,4000,158
2011/08/22,158,158,151,156,10000,156
2011/08/23,156,156,152,156,4000,156
2011/08/24,157,157,152,152,4000,152
2011/08/25,156,157,152,154,11000,154
2011/08/26,154,158,154,158,12000,158
2011/08/29,164,165,164,165,9000,165
2011/08/30,165,166,160,166,5000,166
2011/08/31,166,166,161,161,2000,161
2011/09/01,165,165,157,157,9000,157
2011/09/02,157,157,156,156,2000,156
2011/09/05,153,156,153,156,6000,156
2011/09/06,155,156,152,153,16000,153
2011/09/07,151,152,151,152,4000,152
2011/09/08,150,153,150,153,7000,153
2011/09/09,150,152,150,152,21000,152
2011/09/12,152,152,152,152,10000,152
2011/09/13,147,149,146,146,44000,146
2011/09/14,147,149,147,149,2000,149
2011/09/15,150,150,148,148,3000,148
2011/09/16,152,154,152,154,6000,154
2011/09/20,156,156,153,153,7000,153
2011/09/21,151,151,151,151,1000,151
2011/09/22,147,154,147,154,8000,154
2011/09/26,156,156,150,155,21000,155
2011/09/27,155,155,155,155,1000,155
2011/09/28,156,158,156,158,7000,158
2011/09/29,157,157,153,154,10000,154
2011/09/30,158,158,153,153,8000,153
2011/10/03,155,155,147,147,8000,147
2011/10/04,147,147,147,147,6000,147
2011/10/05,147,147,146,146,6000,146
2011/10/06,149,149,149,149,1000,149
2011/10/07,152,152,146,146,4000,146
2011/10/11,146,150,146,150,8000,150
2011/10/12,150,151,147,151,19000,151
2011/10/13,151,152,151,152,5000,152
2011/10/14,152,152,152,152,1000,152
2011/10/17,156,156,155,155,2000,155
2011/10/18,157,157,155,155,2000,155
2011/10/19,154,154,150,150,3000,150
2011/10/20,150,150,150,150,1000,150
2011/10/21,147,148,147,147,7000,147
2011/10/24,147,148,147,148,10000,148
2011/10/25,149,151,149,151,11000,151
2011/10/26,151,151,151,151,15000,151
2011/10/27,151,151,149,150,6000,150
2011/10/28,150,156,150,150,18000,150
2011/10/31,152,153,147,150,33000,150
2011/11/01,151,151,151,151,1000,151
2011/11/02,147,148,146,147,14000,147
2011/11/04,147,147,147,147,1000,147
2011/11/07,149,149,145,145,8000,145
2011/11/08,145,145,144,144,12000,144
2011/11/09,144,144,143,143,7000,143
2011/11/10,141,142,139,139,9000,139
2011/11/11,140,140,140,140,5000,140
2011/11/14,142,145,142,145,2000,145
2011/11/15,146,146,145,145,3000,145
2011/11/16,145,145,139,140,8000,140
2011/11/17,140,141,139,139,5000,139
2011/11/18,138,138,137,137,9000,137
2011/11/21,140,140,139,139,8000,139
2011/11/22,138,138,137,137,4000,137
2011/11/24,137,140,134,140,19000,140
2011/11/25,136,141,136,141,12000,141
2011/11/28,141,143,140,141,24000,141
2011/11/29,138,142,138,141,11000,141
2011/11/30,143,143,140,140,6000,140
2011/12/01,143,143,143,143,3000,143
2011/12/02,144,145,141,142,46000,142
2011/12/05,146,146,141,143,12000,143
2011/12/06,143,145,142,142,14000,142
2011/12/07,142,143,142,143,5000,143
2011/12/08,144,144,144,144,4000,144
2011/12/09,142,143,142,143,17000,143
2011/12/12,146,148,145,145,20000,145
2011/12/13,145,147,145,146,9000,146
2011/12/14,145,148,144,144,11000,144
2011/12/15,144,145,143,144,13000,144
2011/12/16,144,144,144,144,2000,144
2011/12/19,143,144,143,144,6000,144
2011/12/20,142,144,141,144,4000,144
2011/12/21,147,147,144,144,3000,144
2011/12/22,147,149,147,149,11000,149
2011/12/26,150,153,150,150,36000,150
2011/12/27,151,151,148,148,7000,148
2011/12/29,149,149,149,149,2000,149
2011/12/30,150,150,148,148,5000,148
2012/01/04,151,151,150,150,3000,150
2012/01/05,151,151,151,151,3000,151
2012/01/06,147,151,147,150,10000,150
2012/01/10,150,151,148,148,10000,148
2012/01/11,148,148,148,148,2000,148
2012/01/12,149,149,149,149,4000,149
2012/01/13,149,151,149,151,6000,151
2012/01/16,150,150,150,150,4000,150
2012/01/17,147,177,147,158,311000,158
2012/01/18,159,160,156,160,27000,160
2012/01/19,158,160,158,160,5000,160
2012/01/20,160,160,155,159,18000,159
2012/01/23,158,160,157,159,4000,159
2012/01/24,161,163,159,160,15000,160
2012/01/25,163,164,161,164,16000,164
2012/01/26,168,169,165,165,76000,165
2012/01/27,163,165,163,165,12000,165
2012/01/30,164,166,164,166,7000,166
2012/01/31,166,167,165,166,11000,166
2012/02/01,163,164,162,164,28000,164
2012/02/02,162,163,160,161,20000,161
2012/02/03,161,162,161,161,18000,161
2012/02/06,164,164,161,161,6000,161
2012/02/07,161,164,160,164,11000,164
2012/02/08,165,166,164,166,19000,166
2012/02/09,166,168,164,168,16000,168
2012/02/10,168,168,163,163,18000,163
2012/02/13,163,163,163,163,5000,163
2012/02/14,163,164,163,164,3000,164
2012/02/15,163,166,163,165,21000,165
2012/02/16,165,165,165,165,4000,165
2012/02/17,166,167,165,165,19000,165
2012/02/20,166,166,166,166,6000,166
2012/02/21,166,167,165,167,9000,167
2012/02/22,167,169,167,169,26000,169
2012/02/23,169,173,169,173,16000,173
2012/02/24,173,174,171,174,14000,174
2012/02/27,174,175,170,175,27000,175
2012/02/28,173,174,172,174,9000,174
2012/02/29,173,175,172,173,16000,173
2012/03/01,173,173,171,171,9000,171
2012/03/02,171,172,170,172,8000,172
2012/03/05,170,170,167,167,23000,167
2012/03/06,169,169,165,167,21000,167
2012/03/07,166,167,166,167,3000,167
2012/03/08,165,168,165,168,5000,168
2012/03/09,166,170,166,169,30000,169
2012/03/12,176,176,169,169,31000,169
2012/03/13,170,172,170,172,4000,172
2012/03/14,171,173,171,172,17000,172
2012/03/15,172,175,172,173,21000,173
2012/03/16,176,179,171,179,74000,179
2012/03/19,180,180,179,179,9000,179
2012/03/21,178,178,173,174,16000,174
2012/03/22,173,177,173,177,10000,177
2012/03/23,177,180,175,180,12000,180
2012/03/26,180,180,176,177,26000,177
2012/03/27,179,179,176,179,17000,179
2012/03/28,177,177,172,172,9000,172
2012/03/29,173,176,173,175,6000,175
2012/03/30,175,175,173,175,10000,175
2012/04/02,175,175,165,169,50000,169
2012/04/03,169,169,166,169,8000,169
2012/04/04,164,164,163,164,22000,164
2012/04/05,162,166,159,159,13000,159
2012/04/06,160,164,160,164,11000,164
2012/04/09,160,160,158,159,20000,159
2012/04/10,161,162,161,161,10000,161
2012/04/11,157,157,157,157,3000,157
2012/04/12,159,159,158,158,5000,158
2012/04/13,160,163,160,163,8000,163
2012/04/16,162,162,157,157,6000,157
2012/04/17,157,157,156,156,5000,156
2012/04/18,161,162,161,162,4000,162
2012/04/19,164,164,160,160,2000,160
2012/04/20,162,162,162,162,1000,162
2012/04/23,163,163,159,163,6000,163
2012/04/24,159,159,159,159,2000,159
2012/04/25,162,164,160,164,8000,164
2012/04/26,164,166,162,162,21000,162
2012/04/27,163,164,161,164,9000,164
2012/05/01,163,163,160,163,4000,163
2012/05/02,160,160,160,160,2000,160
2012/05/07,160,160,151,157,13000,157
2012/05/08,153,159,153,159,6000,159
2012/05/09,155,155,152,152,5000,152
2012/05/10,152,152,152,152,3000,152
2012/05/11,152,152,152,152,2000,152
2012/05/14,153,153,146,146,7000,146
2012/05/15,151,151,141,143,16000,143
2012/05/16,143,146,143,146,6000,146
2012/05/17,146,146,146,146,1000,146
2012/05/18,145,147,142,147,5000,147
2012/05/21,146,148,146,148,5000,148
2012/05/22,147,149,146,149,6000,149
2012/05/23,149,149,146,146,4000,146
2012/05/24,143,145,143,145,5000,145
2012/05/25,148,150,147,150,9000,150
2012/05/28,150,150,147,147,19000,147
2012/05/29,145,149,145,149,5000,149
2012/05/30,144,148,140,144,10000,144
2012/05/31,144,144,144,144,3000,144
2012/06/01,144,145,144,144,3000,144
2012/06/04,142,144,142,144,4000,144
2012/06/05,144,145,144,145,3000,145
2012/06/06,148,148,141,144,20000,144
2012/06/07,145,148,142,148,16000,148
2012/06/08,145,146,144,146,19000,146
2012/06/11,145,149,145,147,13000,147
2012/06/12,145,148,145,148,8000,148
2012/06/13,146,146,144,145,8000,145
2012/06/14,143,144,143,144,7000,144
2012/06/15,144,144,144,144,2000,144
2012/06/18,146,146,145,146,9000,146
2012/06/19,145,147,145,147,2000,147
2012/06/20,147,150,147,150,13000,150
2012/06/21,153,154,152,154,3000,154
2012/06/25,152,154,152,154,9000,154
2012/06/26,154,156,154,155,21000,155
2012/06/27,152,153,152,153,3000,153
2012/06/28,151,153,149,151,11000,151
2012/06/29,152,155,150,155,11000,155
2012/07/02,155,155,153,154,6000,154
2012/07/03,155,156,155,156,5000,156
2012/07/04,159,159,153,156,10000,156
2012/07/05,158,158,158,158,6000,158
2012/07/06,158,158,156,158,28000,158
2012/07/09,154,155,153,153,7000,153
2012/07/10,155,155,149,150,15000,150
2012/07/12,153,154,152,152,8000,152
2012/07/13,152,153,152,153,3000,153
2012/07/17,148,148,148,148,3000,148
2012/07/18,150,150,150,150,2000,150
2012/07/19,151,154,151,154,6000,154
2012/07/20,154,157,154,155,6000,155
2012/07/23,155,155,151,151,23000,151
2012/07/24,156,156,155,155,2000,155
2012/07/25,156,156,151,151,11000,151
2012/07/26,151,151,143,146,33000,146
2012/07/27,148,148,141,147,21000,147
2012/07/30,148,149,148,149,7000,149
2012/07/31,146,146,141,146,8000,146
2012/08/01,147,149,147,149,2000,149
2012/08/02,145,145,145,145,2000,145
2012/08/03,143,146,143,145,11000,145
2012/08/06,147,148,147,148,6000,148
2012/08/07,148,148,148,148,2000,148
2012/08/08,148,148,146,148,3000,148
2012/08/09,151,151,148,150,11000,150
2012/08/10,150,150,145,145,2000,145
2012/08/14,150,152,150,152,3000,152
2012/08/15,147,152,147,152,2000,152
2012/08/16,152,153,144,152,16000,152
2012/08/17,149,152,149,152,5000,152
2012/08/20,152,156,152,156,7000,156
2012/08/21,156,156,155,155,4000,155
2012/08/22,160,160,155,157,7000,157
2012/08/23,156,156,153,156,6000,156
2012/08/24,156,156,155,155,7000,155
2012/08/27,155,156,155,156,14000,156
2012/08/28,159,159,149,149,12000,149
2012/08/29,154,154,154,154,2000,154
2012/08/30,154,158,153,153,8000,153
2012/08/31,151,151,151,151,3000,151
2012/09/03,148,148,148,148,2000,148
2012/09/04,147,147,147,147,3000,147
2012/09/05,146,146,146,146,2000,146
2012/09/06,145,149,145,149,6000,149
2012/09/07,146,147,146,147,3000,147
2012/09/10,145,149,145,149,4000,149
2012/09/11,147,147,147,147,1000,147
2012/09/12,148,151,148,151,2000,151
2012/09/13,151,151,151,151,2000,151
2012/09/14,155,155,150,150,18000,150
2012/09/18,150,154,150,154,2000,154
2012/09/19,150,151,148,151,9000,151
2012/09/20,150,151,150,151,3000,151
2012/09/21,149,149,148,148,4000,148
2012/09/24,149,149,148,148,2000,148
2012/09/25,152,157,152,153,9000,153
2012/09/26,160,161,154,160,28000,160
2012/09/27,155,159,154,159,4000,159
2012/09/28,159,159,154,154,5000,154
2012/10/01,154,154,152,152,6000,152
2012/10/02,152,152,150,150,2000,150
2012/10/03,148,153,148,150,4000,150
2012/10/04,149,149,148,148,4000,148
2012/10/05,149,149,149,149,2000,149
2012/10/09,147,148,147,148,4000,148
2012/10/10,144,145,144,144,6000,144
2012/10/11,145,145,145,145,4000,145
2012/10/12,143,143,143,143,1000,143
2012/10/15,142,142,142,142,1000,142
2012/10/16,147,147,147,147,47000,147
2012/10/17,150,150,149,149,2000,149
2012/10/18,149,150,149,150,4000,150
2012/10/19,149,149,148,148,3000,148
2012/10/23,148,148,148,148,1000,148
2012/10/24,146,146,146,146,1000,146
2012/10/25,148,150,148,150,11000,150
2012/10/26,150,152,150,152,19000,152
2012/10/30,152,152,141,145,14000,145
2012/10/31,150,150,150,150,5000,150
2012/11/01,151,151,147,147,3000,147
2012/11/02,147,147,147,147,2000,147
2012/11/05,145,145,145,145,2000,145
2012/11/06,145,147,145,146,12000,146
2012/11/08,145,145,145,145,1000,145
2012/11/09,145,145,145,145,2000,145
2012/11/12,141,141,141,141,1000,141
2012/11/13,141,144,141,142,4000,142
2012/11/14,142,144,142,142,4000,142
2012/11/15,146,148,146,148,2000,148
2012/11/19,148,150,145,145,12000,145
2012/11/20,147,147,145,146,3000,146
2012/11/21,148,148,147,147,6000,147
2012/11/22,150,151,149,151,5000,151
2012/11/26,155,156,152,152,32000,152
2012/11/27,157,157,150,154,9000,154
2012/11/28,151,153,151,153,4000,153
2012/11/29,151,152,150,150,5000,150
2012/11/30,150,153,150,150,10000,150
2012/12/03,152,153,152,153,3000,153
2012/12/04,155,155,152,152,15000,152
2012/12/05,153,154,152,154,12000,154
2012/12/06,152,153,152,152,9000,152
2012/12/07,153,154,153,154,23000,154
2012/12/10,155,155,155,155,5000,155
2012/12/11,155,157,155,157,3000,157
2012/12/12,158,159,158,158,9000,158
2012/12/13,158,159,158,159,15000,159
2012/12/14,157,159,157,157,22000,157
2012/12/17,157,158,156,158,11000,158
2012/12/18,157,157,157,157,4000,157
2012/12/19,157,162,157,162,9000,162
2012/12/20,162,162,158,158,13000,158
2012/12/21,160,161,159,161,15000,161
2012/12/25,163,169,161,169,19000,169
2012/12/26,168,168,168,168,15000,168
2012/12/27,168,168,164,166,6000,166
2012/12/28,165,165,163,163,9000,163
2013/01/04,164,167,164,166,14000,166
2013/01/07,169,169,167,167,13000,167
2013/01/08,167,167,166,166,16000,166
2013/01/09,162,166,162,166,4000,166
2013/01/10,166,166,163,163,16000,163
2013/01/11,166,169,166,167,11000,167
2013/01/15,172,173,169,170,12000,170
2013/01/16,167,167,165,165,6000,165
2013/01/17,165,165,162,162,6000,162
2013/01/18,165,167,165,166,8000,166
2013/01/21,166,166,166,166,1000,166
2013/01/22,167,169,164,164,9000,164
2013/01/23,163,165,163,165,4000,165
2013/01/24,163,166,163,166,2000,166
2013/01/25,166,169,166,167,35000,167
2013/01/28,167,170,167,170,25000,170
2013/01/29,170,170,167,167,3000,167
2013/01/30,170,170,170,170,5000,170
2013/01/31,171,171,169,169,8000,169
2013/02/01,168,168,166,166,6000,166
2013/02/04,166,167,164,167,22000,167
2013/02/05,163,167,163,165,13000,165
2013/02/06,165,167,165,166,17000,166
2013/02/07,164,167,164,165,6000,165
2013/02/08,165,165,163,163,6000,163
2013/02/12,165,165,163,163,11000,163
2013/02/13,163,165,160,160,19000,160
2013/02/14,160,161,159,159,9000,159
2013/02/15,159,159,153,156,34000,156
2013/02/18,158,159,158,159,8000,159
2013/02/19,160,165,160,163,6000,163
2013/02/20,164,164,164,164,2000,164
2013/02/21,162,162,162,162,2000,162
2013/02/22,160,163,159,162,11000,162
2013/02/25,164,168,164,167,45000,167
2013/02/26,167,168,163,163,19000,163
2013/02/27,161,165,161,165,9000,165
2013/02/28,162,166,162,166,16000,166
2013/03/01,166,166,166,166,3000,166
2013/03/04,168,171,163,164,76000,164
2013/03/05,170,170,168,168,19000,168
2013/03/06,168,170,168,169,23000,169
2013/03/07,167,178,167,172,128000,172
2013/03/08,175,175,171,173,68000,173
2013/03/11,174,180,174,180,48000,180
2013/03/12,181,182,178,179,41000,179
2013/03/13,177,178,173,178,44000,178
2013/03/14,179,180,176,176,26000,176
2013/03/15,176,181,176,180,108000,180
2013/03/18,180,182,179,181,33000,181
2013/03/19,182,187,182,185,73000,185
2013/03/21,186,191,186,187,84000,187
2013/03/22,192,192,185,185,38000,185
2013/03/25,189,189,187,187,45000,187
2013/03/26,187,189,185,189,53000,189
2013/03/27,186,186,181,184,11000,184
2013/03/28,183,183,180,180,5000,180
2013/03/29,180,180,177,177,8000,177
2013/04/01,175,180,175,176,16000,176
2013/04/02,175,177,169,171,31000,171
2013/04/03,172,174,171,174,12000,174
2013/04/04,172,175,169,175,15000,175
2013/04/05,184,186,170,182,214000,182
2013/04/08,187,189,180,187,158000,187
2013/04/09,188,188,183,187,53000,187
2013/04/10,184,189,184,187,34000,187
2013/04/11,189,189,181,185,74000,185
2013/04/12,182,183,181,181,47000,181
2013/04/15,180,180,175,180,82000,180
2013/04/16,178,179,173,177,76000,177
2013/04/17,177,180,177,179,25000,179
2013/04/18,175,179,175,177,39000,177
2013/04/19,178,180,177,177,23000,177
2013/04/22,183,185,180,183,23000,183
2013/04/23,183,187,183,185,32000,185
2013/04/24,187,190,186,186,51000,186
2013/04/25,188,191,187,191,77000,191
2013/04/26,191,194,188,193,72000,193
2013/04/30,193,195,188,194,23000,194
2013/05/01,192,195,192,194,47000,194
2013/05/02,192,194,188,191,33000,191
2013/05/07,199,221,193,214,246000,214
2013/05/08,222,222,200,203,118000,203
2013/05/09,205,211,201,202,76000,202
2013/05/10,203,207,203,205,36000,205
2013/05/13,208,212,204,204,47000,204
2013/05/14,204,217,204,209,47000,209
2013/05/15,220,230,219,221,268000,221
2013/05/16,269,301,253,301,1869000,301
2013/05/17,308,330,277,291,1034000,291
2013/05/20,294,294,279,284,394000,284
2013/05/21,281,294,275,275,223000,275
2013/05/22,289,289,276,280,220000,280
2013/05/23,279,280,262,267,365000,267
2013/05/24,270,285,270,283,249000,283
2013/05/27,296,305,291,295,517000,295
2013/05/28,287,303,287,302,288000,302
2013/05/29,304,319,294,318,395000,318
2013/05/30,307,309,294,294,159000,294
2013/05/31,298,301,293,293,38000,293
2013/06/03,295,295,278,278,115000,278
2013/06/04,280,285,270,279,102000,279
2013/06/05,280,289,279,281,39000,281
2013/06/06,281,284,247,263,103000,263
2013/06/07,257,280,250,276,78000,276
2013/06/10,284,285,280,281,49000,281
2013/06/11,284,284,273,273,31000,273
2013/06/12,281,298,279,292,88000,292
2013/06/13,289,289,275,277,36000,277
2013/06/14,280,284,274,274,61000,274
2013/06/17,270,277,269,274,15000,274
2013/06/18,282,282,277,277,6000,277
2013/06/19,280,283,277,277,14000,277
2013/06/20,282,282,277,278,16000,278
2013/06/21,275,275,265,272,33000,272
2013/06/24,277,282,277,277,31000,277
2013/06/25,284,284,267,275,38000,275
2013/06/26,278,279,261,274,39000,274
2013/06/27,270,273,267,271,34000,271
2013/06/28,270,282,270,280,33000,280
2013/07/01,280,282,276,282,26000,282
2013/07/02,287,291,283,287,51000,287
2013/07/03,294,294,283,283,38000,283
2013/07/04,288,292,286,288,32000,288
2013/07/05,291,296,291,291,37000,291
2013/07/08,296,298,286,287,30000,287
2013/07/09,287,295,287,295,20000,295
2013/07/10,295,295,286,286,24000,286
2013/07/11,286,287,283,285,21000,285
2013/07/12,289,289,285,286,8000,286
2013/07/16,286,286,280,282,23000,282
2013/07/17,281,285,280,284,35000,284
2013/07/18,285,285,280,280,10000,280
2013/07/19,283,283,280,280,30000,280
2013/07/22,280,285,280,283,22000,283
2013/07/23,278,303,278,300,79000,300
2013/07/24,308,316,304,314,151000,314
2013/07/25,312,315,305,307,47000,307
2013/07/26,303,303,290,295,27000,295
2013/07/29,289,290,288,288,19000,288
2013/07/30,283,299,283,299,31000,299
2013/07/31,299,300,291,291,15000,291
2013/08/01,283,292,282,291,36000,291
2013/08/02,296,307,296,304,83000,304
2013/08/05,296,308,296,308,23000,308
2013/08/06,308,333,300,333,93000,333
2013/08/07,317,321,309,309,43000,309
2013/08/08,305,306,301,301,15000,301
2013/08/09,299,299,296,296,19000,296
2013/08/12,290,291,290,290,11000,290
2013/08/13,291,293,288,293,9000,293
2013/08/14,294,303,294,300,8000,300
2013/08/15,296,309,296,309,14000,309
2013/08/16,301,302,297,300,18000,300
2013/08/19,298,300,297,298,7000,298
2013/08/20,297,299,294,297,12000,297
2013/08/21,297,297,289,294,28000,294
2013/08/22,294,294,287,289,20000,289
2013/08/23,289,290,287,290,14000,290
2013/08/26,290,295,290,294,16000,294
2013/08/27,286,301,286,299,13000,299
2013/08/28,283,287,282,285,34000,285
2013/08/29,283,287,281,281,12000,281
2013/08/30,287,287,280,280,22000,280
2013/09/02,279,279,275,276,14000,276
2013/09/03,278,283,278,283,19000,283
2013/09/04,283,283,278,280,14000,280
2013/09/05,280,281,280,281,10000,281
2013/09/06,280,283,279,279,13000,279
2013/09/09,283,285,283,284,16000,284
2013/09/10,289,292,285,292,22000,292
2013/09/11,293,294,289,289,9000,289
2013/09/12,288,290,288,289,12000,289
2013/09/13,288,289,287,287,32000,287
2013/09/17,288,289,287,288,14000,288
2013/09/18,289,295,289,291,22000,291
2013/09/19,295,297,293,297,11000,297
2013/09/20,299,305,298,302,32000,302
2013/09/24,298,303,298,303,10000,303
2013/09/25,303,303,297,297,27000,297
2013/09/26,296,297,291,294,39000,294
2013/09/27,293,302,293,302,54000,302
2013/09/30,296,297,296,297,3000,297
2013/10/01,302,304,300,300,25000,300
2013/10/02,303,303,294,294,21000,294
2013/10/03,298,298,286,288,41000,288
2013/10/04,285,288,285,287,8000,287
2013/10/07,285,293,285,285,10000,285
2013/10/08,284,289,283,287,25000,287
2013/10/09,287,289,284,289,13000,289
2013/10/10,286,289,286,289,9000,289
2013/10/11,289,300,288,300,37000,300
2013/10/15,292,295,292,293,13000,293
2013/10/16,292,295,291,294,8000,294
2013/10/17,294,303,293,296,45000,296
2013/10/18,295,299,295,298,16000,298
2013/10/21,299,301,299,299,12000,299
2013/10/22,299,303,299,302,32000,302
2013/10/23,302,310,302,309,92000,309
2013/10/24,309,316,309,313,31000,313
2013/10/25,314,316,306,311,79000,311
2013/10/28,311,313,308,311,46000,311
2013/10/29,312,313,311,312,27000,312
2013/10/30,316,316,312,314,34000,314
2013/10/31,314,315,305,305,48000,305
2013/11/01,300,300,295,299,20000,299
2013/11/05,291,293,286,292,92000,292
2013/11/06,285,292,285,290,36000,290
2013/11/07,295,295,288,289,12000,289
2013/11/08,295,295,290,293,10000,293
2013/11/11,294,294,289,289,27000,289
2013/11/12,293,293,288,290,19000,290
2013/11/13,289,298,288,295,68000,295
2013/11/14,293,299,293,299,28000,299
2013/11/15,300,302,296,301,29000,301
2013/11/18,302,302,296,299,17000,299
2013/11/19,297,299,295,297,15000,297
2013/11/20,300,313,300,307,70000,307
2013/11/21,308,309,293,293,43000,293
2013/11/22,301,307,300,301,44000,301
2013/11/25,302,307,295,300,90000,300
2013/11/26,300,300,297,298,29000,298
2013/11/27,298,300,297,299,9000,299
2013/11/28,300,300,296,296,20000,296
2013/11/29,296,299,295,299,6000,299
2013/12/02,295,296,294,295,55000,295
2013/12/03,298,298,293,293,27000,293
2013/12/04,293,293,291,291,11000,291
2013/12/05,291,291,286,288,39000,288
2013/12/06,288,292,288,290,29000,290
2013/12/09,292,292,290,292,19000,292
2013/12/10,292,293,292,292,9000,292
2013/12/11,290,293,289,289,22000,289
2013/12/12,291,291,288,288,23000,288
2013/12/13,287,290,287,288,38000,288
2013/12/16,299,301,296,297,116000,297
2013/12/17,309,309,300,300,44000,300
2013/12/18,302,302,296,296,50000,296
2013/12/19,298,299,294,294,40000,294
2013/12/20,294,295,292,293,43000,293
2013/12/24,293,294,288,289,60000,289
2013/12/25,290,291,288,289,67000,289
2013/12/26,290,299,290,297,33000,297
2013/12/27,315,315,302,315,210000,315
2013/12/30,316,344,316,334,160000,334
2014/01/06,341,341,330,331,99000,331
2014/01/07,330,331,326,330,57000,330
2014/01/08,332,334,327,331,39000,331
2014/01/09,331,331,327,330,16000,330
2014/01/10,329,330,323,329,131000,329
2014/01/14,321,322,318,318,34000,318
2014/01/15,333,333,324,325,21000,325
2014/01/16,326,328,325,328,43000,328
2014/01/17,328,335,326,333,42000,333
2014/01/20,346,347,341,343,76000,343
2014/01/21,348,348,337,337,40000,337
2014/01/22,340,340,335,340,35000,340
2014/01/23,338,342,330,330,35000,330
2014/01/24,330,333,327,328,30000,328
2014/01/27,327,327,316,316,69000,316
2014/01/28,315,323,314,316,36000,316
2014/01/29,318,324,317,322,36000,322
2014/01/30,322,322,310,315,59000,315
2014/01/31,324,325,308,315,48000,315
2014/02/03,309,309,298,299,45000,299
2014/02/04,293,293,281,283,66000,283
2014/02/05,291,291,281,282,36000,282
2014/02/06,282,284,282,282,17000,282
2014/02/07,285,287,283,284,41000,284
2014/02/10,292,292,289,289,23000,289
2014/02/12,293,294,292,292,25000,292
2014/02/13,296,296,290,290,17000,290
2014/02/14,290,292,287,287,13000,287
2014/02/17,287,289,287,288,13000,288
2014/02/18,288,293,288,293,20000,293
2014/02/19,290,290,285,288,9000,288
2014/02/20,288,288,288,288,2000,288
2014/02/21,288,289,287,289,10000,289
2014/02/24,289,291,289,290,14000,290
2014/02/25,291,299,291,299,31000,299
2014/02/26,299,303,299,299,37000,299
2014/02/27,296,296,291,291,29000,291
2014/02/28,291,291,289,289,11000,289
2014/03/03,288,288,281,283,18000,283
2014/03/04,287,287,281,283,17000,283
2014/03/05,285,287,284,286,10000,286
2014/03/06,286,288,285,287,24000,287
2014/03/07,289,291,289,289,20000,289
2014/03/10,288,291,288,288,12000,288
2014/03/11,288,291,284,285,53000,285
2014/03/12,283,283,282,283,13000,283
2014/03/13,284,284,283,283,12000,283
2014/03/14,279,284,279,281,51000,281
2014/03/17,285,285,276,276,19000,276
2014/03/18,278,278,277,277,7000,277
2014/03/19,278,278,277,277,7000,277
2014/03/20,275,280,275,277,27000,277
2014/03/24,273,277,271,275,48000,275
2014/03/25,275,277,275,276,22000,276
2014/03/26,276,277,272,277,25000,277
2014/03/27,269,276,269,272,17000,272
2014/03/28,277,277,270,271,34000,271
2014/03/31,272,275,272,274,19000,274
2014/04/01,273,277,273,277,25000,277
2014/04/02,275,277,275,277,34000,277
2014/04/03,277,278,275,277,27000,277
2014/04/04,276,278,275,277,37000,277
2014/04/07,275,276,273,273,18000,273
2014/04/08,273,273,270,271,33000,271
2014/04/09,270,270,264,264,33000,264
2014/04/10,267,267,264,264,12000,264
2014/04/11,261,267,261,263,28000,263
2014/04/14,261,264,261,264,15000,264
2014/04/15,265,265,263,263,17000,263
2014/04/16,264,267,264,266,13000,266
2014/04/17,269,274,269,273,25000,273
2014/04/18,276,277,274,277,21000,277
2014/04/21,278,281,278,281,12000,281
2014/04/22,280,280,276,276,6000,276
2014/04/23,280,280,275,276,20000,276
2014/04/24,280,280,275,276,7000,276
2014/04/25,276,278,276,278,11000,278
2014/04/28,278,278,276,277,14000,277
2014/04/30,276,277,276,277,15000,277
2014/05/01,278,278,275,276,5000,276
2014/05/02,274,275,274,274,11000,274
2014/05/07,277,277,271,272,9000,272
2014/05/08,271,279,270,276,14000,276
2014/05/09,274,276,274,276,7000,276
2014/05/12,272,276,272,273,7000,273
2014/05/13,271,277,271,275,4000,275
2014/05/14,273,273,273,273,2000,273
2014/05/15,271,273,271,273,10000,273
2014/05/16,270,270,256,258,63000,258
2014/05/19,257,260,253,253,20000,253
2014/05/20,255,259,250,250,50000,250
2014/05/21,251,252,248,248,18000,248
2014/05/22,249,250,247,248,26000,248
2014/05/23,256,256,248,249,42000,249
2014/05/26,251,253,249,253,87000,253
2014/05/27,251,252,249,249,80000,249
2014/05/28,251,252,250,251,45000,251
2014/05/29,251,251,250,250,18000,250
2014/05/30,252,252,250,250,15000,250
2014/06/02,251,253,250,251,93000,251
2014/06/03,254,256,253,254,47000,254
2014/06/04,259,259,257,257,27000,257
2014/06/05,258,258,255,255,22000,255
2014/06/06,258,258,256,256,13000,256
2014/06/09,258,260,258,258,38000,258
2014/06/10,258,261,258,259,19000,259
2014/06/11,260,263,259,263,36000,263
2014/06/12,264,264,260,262,13000,262
2014/06/13,259,269,259,269,55000,269
2014/06/16,269,269,266,266,40000,266
2014/06/17,267,272,266,271,53000,271
2014/06/18,271,272,268,268,47000,268
2014/06/19,267,272,265,268,33000,268
2014/06/20,268,268,267,267,16000,267
2014/06/23,267,270,267,269,13000,269
2014/06/24,269,277,269,275,99000,275
2014/06/25,275,276,272,273,17000,273
2014/06/26,273,275,272,272,28000,272
2014/06/27,272,273,268,268,42000,268
2014/06/30,268,275,267,275,46000,275
2014/07/01,277,279,275,276,32000,276
2014/07/02,282,282,277,277,63000,277
2014/07/03,279,279,275,275,24000,275
2014/07/04,277,282,277,281,57000,281
2014/07/07,280,286,280,286,44000,286
2014/07/08,287,287,285,287,52000,287
2014/07/09,288,288,282,282,39000,282
2014/07/10,285,285,277,279,32000,279
2014/07/11,272,277,272,275,25000,275
2014/07/14,275,279,273,278,16000,278
2014/07/15,277,280,277,280,18000,280
2014/07/16,279,283,277,278,20000,278
2014/07/17,279,279,277,278,18000,278
2014/07/18,275,276,272,275,39000,275
2014/07/22,276,280,275,280,47000,280
2014/07/23,280,280,277,277,14000,277
2014/07/24,278,280,277,277,6000,277
2014/07/25,277,278,277,277,12000,277
2014/07/28,277,280,276,277,28000,277
2014/07/29,277,278,277,278,8000,278
2014/07/30,278,280,276,277,21000,277
2014/07/31,279,280,277,277,22000,277
2014/08/01,272,272,269,272,73000,272
2014/08/04,270,271,269,270,27000,270
2014/08/05,269,270,268,268,36000,268
2014/08/06,275,282,267,267,115000,267
2014/08/07,267,268,266,266,14000,266
2014/08/08,264,265,261,261,30000,261
2014/08/11,263,264,263,263,14000,263
2014/08/12,265,265,261,262,16000,262
2014/08/13,262,268,262,268,23000,268
2014/08/14,268,272,268,271,33000,271
2014/08/15,270,271,269,271,12000,271
2014/08/18,271,275,270,273,28000,273
2014/08/19,270,272,267,271,33000,271
2014/08/20,272,273,272,272,12000,272
2014/08/21,274,275,273,274,17000,274
2014/08/22,275,276,272,272,12000,272
2014/08/25,274,274,271,274,10000,274
2014/08/26,275,276,271,273,15000,273
2014/08/27,272,273,272,272,12000,272
2014/08/28,273,275,273,274,31000,274
2014/08/29,274,274,273,274,10000,274
2014/09/01,275,277,275,276,16000,276
2014/09/02,277,280,277,279,38000,279
2014/09/03,279,281,277,278,19000,278
2014/09/04,278,278,277,277,5000,277
2014/09/05,277,277,277,277,12000,277
2014/09/08,280,281,279,279,16000,279
2014/09/09,279,280,278,280,10000,280
2014/09/10,281,281,280,281,14000,281
2014/09/11,281,282,280,281,11000,281
2014/09/12,279,280,279,280,29000,280
2014/09/16,283,284,282,282,19000,282
2014/09/17,282,283,280,280,12000,280
2014/09/18,281,289,281,287,38000,287
2014/09/19,287,292,286,288,71000,288
2014/09/22,295,295,290,292,36000,292
2014/09/24,290,290,288,289,9000,289
2014/09/25,289,293,288,292,27000,292
2014/09/26,290,292,285,290,18000,290
2014/09/29,290,291,288,288,12000,288
2014/09/30,289,289,283,286,35000,286
2014/10/01,285,289,285,286,21000,286
2014/10/02,285,285,282,282,16000,282
2014/10/03,282,282,280,280,19000,280
2014/10/06,288,288,284,284,15000,284
2014/10/07,284,287,280,283,8000,283
2014/10/08,279,281,277,281,14000,281
2014/10/09,286,287,281,281,4000,281
2014/10/10,274,275,271,272,30000,272
2014/10/14,270,271,265,267,46000,267
2014/10/15,270,271,270,270,24000,270
2014/10/16,264,264,262,262,18000,262
2014/10/17,264,264,260,260,32000,260
2014/10/20,267,267,262,265,15000,265
2014/10/21,266,266,265,266,7000,266
2014/10/22,266,267,265,265,6000,265
2014/10/23,265,268,265,268,7000,268
2014/10/24,273,273,270,271,8000,271
2014/10/27,271,273,271,273,10000,273
2014/10/28,273,273,266,268,22000,268
2014/10/29,271,277,271,272,30000,272
2014/10/30,273,273,270,270,15000,270
2014/10/31,270,276,258,271,53000,271
2014/11/04,278,282,277,277,47000,277
2014/11/05,275,278,275,277,20000,277
2014/11/06,276,279,275,275,45000,275
2014/11/07,277,280,277,277,14000,277
2014/11/10,277,280,277,279,12000,279
2014/11/11,284,284,282,282,18000,282
2014/11/12,282,283,276,277,51000,277
2014/11/13,277,278,277,277,8000,277
2014/11/14,280,280,277,279,14000,279
2014/11/17,275,277,275,277,6000,277
2014/11/18,275,276,274,276,45000,276
2014/11/19,276,276,272,273,41000,273
2014/11/20,273,273,270,270,80000,270
2014/11/21,270,273,270,271,25000,271
2014/11/25,271,272,266,269,76000,269
2014/11/26,270,272,270,270,64000,270
2014/11/27,272,277,272,274,56000,274
2014/11/28,277,277,275,275,10000,275
2014/12/01,275,275,273,273,31000,273
2014/12/02,275,275,273,275,46000,275
2014/12/03,275,279,275,278,76000,278
2014/12/04,278,279,278,278,18000,278
2014/12/05,278,281,276,279,39000,279
2014/12/08,279,281,278,278,31000,278
2014/12/09,279,280,278,278,59000,278
2014/12/10,273,280,273,276,32000,276
2014/12/11,280,280,275,277,43000,277
2014/12/12,275,277,274,277,71000,277
2014/12/15,277,277,273,273,23000,273
2014/12/16,270,273,270,270,24000,270
2014/12/17,270,272,269,269,56000,269
2014/12/18,272,280,271,276,45000,276
2014/12/19,278,280,276,277,31000,277
2014/12/22,279,279,275,278,22000,278
2014/12/24,278,278,276,277,14000,277
2014/12/25,279,280,278,280,44000,280
2014/12/26,280,280,279,279,53000,279
2014/12/29,280,280,278,280,23000,280
2014/12/30,278,280,278,278,11000,278
2015/01/05,276,281,276,280,14000,280
2015/01/06,280,280,276,277,15000,277
2015/01/07,278,278,277,277,6000,277
2015/01/08,277,278,277,277,38000,277
2015/01/09,280,280,280,280,8000,280
2015/01/13,279,280,275,279,13000,279
2015/01/14,276,280,276,279,15000,279
2015/01/15,279,280,279,280,5000,280
2015/01/16,278,278,276,276,36000,276
2015/01/19,276,276,276,276,6000,276
2015/01/20,279,279,275,277,24000,277
2015/01/21,277,278,275,277,37000,277
2015/01/22,276,276,275,276,19000,276
2015/01/23,277,277,276,276,12000,276
2015/01/26,276,276,276,276,10000,276
2015/01/27,279,280,279,280,5000,280
2015/01/28,276,277,275,275,142000,275
2015/01/29,276,276,274,274,19000,274
2015/01/30,278,278,275,275,29000,275
2015/02/02,278,278,274,274,53000,274
2015/02/03,274,275,274,274,19000,274
2015/02/04,273,275,273,274,9000,274
2015/02/05,278,278,273,273,49000,273
2015/02/06,274,275,272,272,31000,272
2015/02/09,274,274,272,272,20000,272
2015/02/10,272,274,272,272,21000,272
2015/02/12,277,277,272,272,32000,272
2015/02/13,278,278,272,272,66000,272
2015/02/16,274,276,272,276,40000,276
2015/02/17,274,274,272,273,50000,273
2015/02/18,273,275,273,273,36000,273
2015/02/19,276,277,275,275,20000,275
2015/02/20,278,280,276,276,35000,276
2015/02/23,278,279,277,278,29000,278
2015/02/24,279,279,277,279,66000,279
2015/02/25,279,280,278,278,26000,278
2015/02/26,280,282,280,281,54000,281
2015/02/27,284,284,281,282,53000,282
2015/03/02,282,282,280,281,20000,281
2015/03/03,281,281,279,279,46000,279
2015/03/04,279,282,279,280,54000,280
2015/03/05,280,283,280,283,24000,283
2015/03/06,283,283,282,282,11000,282
2015/03/09,283,283,280,281,15000,281
2015/03/10,283,283,281,282,30000,282
2015/03/11,283,283,279,282,18000,282
2015/03/12,282,283,281,282,73000,282
2015/03/13,285,285,282,283,72000,283
2015/03/16,284,286,283,284,19000,284
2015/03/17,285,286,284,284,53000,284
2015/03/18,286,286,283,284,50000,284
2015/03/19,284,285,281,282,50000,282
2015/03/20,284,287,284,284,47000,284
2015/03/23,287,289,285,288,71000,288
2015/03/24,304,312,300,306,238000,306
2015/03/25,307,307,302,304,87000,304
2015/03/26,302,304,301,303,45000,303
2015/03/27,299,303,295,296,44000,296
2015/03/30,296,297,294,294,41000,294
2015/03/31,294,297,294,295,22000,295
2015/04/01,294,297,293,297,51000,297
2015/04/02,296,305,294,303,59000,303
2015/04/03,299,303,298,303,45000,303
2015/04/06,303,303,300,303,12000,303
2015/04/07,302,308,301,308,60000,308
2015/04/08,308,308,305,305,32000,305
2015/04/09,304,304,298,300,28000,300
2015/04/10,299,304,299,302,15000,302
2015/04/13,303,303,297,301,26000,301
2015/04/14,299,300,298,300,16000,300
2015/04/15,300,304,300,302,24000,302
2015/04/16,303,303,302,302,3000,302
2015/04/17,298,303,295,300,61000,300
2015/04/20,296,301,296,296,52000,296
2015/04/21,298,302,298,299,19000,299
2015/04/22,301,301,298,301,14000,301
2015/04/23,301,301,299,299,4000,299
2015/04/24,300,304,296,300,91000,300
2015/04/27,299,301,299,301,28000,301
2015/04/28,303,304,298,300,67000,300
2015/04/30,298,299,297,298,36000,298
2015/05/01,301,301,298,300,37000,300
2015/05/07,299,301,296,297,68000,297
2015/05/08,298,301,297,301,85000,301
2015/05/11,301,303,299,299,25000,299
2015/05/12,299,301,299,300,11000,300
2015/05/13,298,303,298,302,44000,302
2015/05/14,303,303,301,301,35000,301
2015/05/15,301,304,301,303,41000,303
2015/05/18,325,362,318,350,539000,350
2015/05/19,349,357,341,348,142000,348
2015/05/20,354,355,335,341,82000,341
2015/05/21,343,347,342,345,41000,345
2015/05/22,345,345,341,344,33000,344
2015/05/25,344,345,342,344,22000,344
2015/05/26,344,345,343,343,26000,343
2015/05/27,345,348,345,347,24000,347
2015/05/28,354,355,349,349,65000,349
2015/05/29,355,355,350,352,35000,352
2015/06/01,353,357,351,355,36000,355
2015/06/02,358,362,355,362,39000,362
2015/06/03,363,365,359,363,54000,363
2015/06/04,364,373,362,363,62000,363
2015/06/05,363,363,361,362,15000,362
2015/06/08,362,367,362,365,34000,365
2015/06/09,369,369,362,364,27000,364
2015/06/10,363,367,359,359,43000,359
2015/06/11,360,364,360,361,20000,361
2015/06/12,361,367,360,364,62000,364
2015/06/15,366,366,363,365,9000,365
2015/06/16,365,366,363,363,33000,363
2015/06/17,363,365,362,364,13000,364
2015/06/18,362,364,359,359,26000,359
2015/06/19,358,363,358,361,13000,361
2015/06/22,361,363,361,362,21000,362
2015/06/23,361,363,358,363,35000,363
2015/06/24,363,367,362,363,46000,363
2015/06/25,367,374,366,373,52000,373
2015/06/26,375,386,375,378,78000,378
2015/06/29,364,373,363,369,51000,369
2015/06/30,365,371,365,371,25000,371
2015/07/01,368,369,363,369,39000,369
