2011/01/04,32,34,32,33,104000,33
2011/01/05,34,34,33,33,179000,33
2011/01/06,33,35,33,35,141000,35
2011/01/07,35,35,33,35,242000,35
2011/01/11,35,35,34,35,118000,35
2011/01/12,35,36,35,35,170000,35
2011/01/13,36,37,35,35,474000,35
2011/01/14,35,36,35,36,73000,36
2011/01/17,36,36,35,35,38000,35
2011/01/18,35,36,35,35,175000,35
2011/01/19,35,35,35,35,82000,35
2011/01/20,35,35,34,35,37000,35
2011/01/21,34,35,34,34,387000,34
2011/01/24,34,34,33,34,53000,34
2011/01/25,34,35,34,34,24000,34
2011/01/26,34,35,34,34,42000,34
2011/01/27,34,35,34,35,20000,35
2011/01/28,35,35,34,34,222000,34
2011/01/31,34,34,33,33,38000,33
2011/02/01,34,34,33,33,61000,33
2011/02/02,33,35,33,34,55000,34
2011/02/03,34,35,34,35,46000,35
2011/02/04,35,35,34,34,81000,34
2011/02/07,35,35,34,35,260000,35
2011/02/08,35,37,35,35,430000,35
2011/02/09,35,35,34,35,157000,35
2011/02/10,35,37,35,37,161000,37
2011/02/14,37,38,35,37,1008000,37
2011/02/15,36,36,34,34,552000,34
2011/02/16,34,35,34,34,58000,34
2011/02/17,34,35,34,35,61000,35
2011/02/18,34,35,34,34,38000,34
2011/02/21,35,35,34,34,127000,34
2011/02/22,34,35,34,34,70000,34
2011/02/23,34,35,34,34,82000,34
2011/02/24,34,37,34,36,651000,36
2011/02/25,35,36,34,36,321000,36
2011/02/28,35,36,35,35,59000,35
2011/03/01,36,36,35,35,111000,35
2011/03/02,35,36,35,35,65000,35
2011/03/03,36,36,35,35,109000,35
2011/03/04,36,37,35,37,215000,37
2011/03/07,36,38,36,37,669000,37
2011/03/08,37,37,36,36,90000,36
2011/03/09,37,37,36,37,94000,37
2011/03/10,36,36,35,35,398000,35
2011/03/11,36,36,34,34,443000,34
2011/03/14,29,30,27,28,549000,28
2011/03/15,27,28,25,27,681000,27
2011/03/16,25,28,25,27,172000,27
2011/03/17,26,30,26,30,265000,30
2011/03/18,30,32,29,29,462000,29
2011/03/22,31,32,28,30,1006000,30
2011/03/23,30,31,29,30,363000,30
2011/03/24,31,31,30,30,116000,30
2011/03/25,31,31,29,29,502000,29
2011/03/28,29,30,29,30,205000,30
2011/03/29,30,30,29,30,112000,30
2011/03/30,29,30,29,30,192000,30
2011/03/31,31,33,30,33,579000,33
2011/04/01,33,33,31,31,230000,31
2011/04/04,32,33,31,32,107000,32
2011/04/05,31,32,30,31,324000,31
2011/04/06,30,31,30,30,156000,30
2011/04/07,30,31,30,30,26000,30
2011/04/08,29,30,29,30,175000,30
2011/04/11,30,31,30,31,42000,31
2011/04/12,31,31,30,30,90000,30
2011/04/13,30,31,30,30,53000,30
2011/04/14,30,30,29,29,52000,29
2011/04/15,30,30,29,29,73000,29
2011/04/18,30,31,30,30,131000,30
2011/04/19,30,30,30,30,137000,30
2011/04/20,30,30,30,30,91000,30
2011/04/21,30,31,30,31,66000,31
2011/04/22,31,31,30,30,37000,30
2011/04/25,30,31,30,30,56000,30
2011/04/26,30,32,30,31,314000,31
2011/04/27,31,34,30,32,1739000,32
2011/04/28,32,32,31,32,314000,32
2011/05/02,32,32,31,31,89000,31
2011/05/06,31,31,30,30,398000,30
2011/05/09,31,51,30,44,24232000,44
2011/05/10,43,45,39,39,6844000,39
2011/05/11,40,40,37,37,2087000,37
2011/05/12,38,40,37,39,2419000,39
2011/05/13,38,39,36,37,666000,37
2011/05/16,37,37,34,34,947000,34
2011/05/17,34,35,32,34,887000,34
2011/05/18,33,36,33,33,674000,33
2011/05/19,35,38,34,35,2713000,35
2011/05/20,35,35,33,33,721000,33
2011/05/23,33,34,32,32,316000,32
2011/05/24,32,34,31,33,1191000,33
2011/05/25,34,34,32,33,790000,33
2011/05/26,33,33,32,32,251000,32
2011/05/27,33,38,33,38,2900000,38
2011/05/30,36,36,34,36,1662000,36
2011/05/31,36,36,35,36,257000,36
2011/06/01,36,36,34,35,574000,35
2011/06/02,34,35,33,33,286000,33
2011/06/03,35,35,33,33,774000,33
2011/06/06,33,34,33,33,149000,33
2011/06/07,33,34,33,33,135000,33
2011/06/08,33,35,33,34,327000,34
2011/06/09,34,35,33,34,280000,34
2011/06/10,34,34,33,34,177000,34
2011/06/13,34,34,33,33,69000,33
2011/06/14,34,34,33,34,113000,34
2011/06/15,34,34,32,33,766000,33
2011/06/16,33,33,32,33,336000,33
2011/06/17,33,34,32,32,145000,32
2011/06/20,33,34,32,34,203000,34
2011/06/21,33,34,33,34,85000,34
2011/06/22,34,35,33,35,284000,35
2011/06/23,34,34,33,33,117000,33
2011/06/24,34,34,33,33,62000,33
2011/06/27,33,34,32,33,551000,33
2011/06/28,33,34,33,34,92000,34
2011/06/29,34,34,33,33,69000,33
2011/06/30,33,35,33,34,580000,34
2011/07/01,34,34,33,34,69000,34
2011/07/04,33,35,33,35,380000,35
2011/07/05,35,35,34,34,227000,34
2011/07/06,34,35,33,34,89000,34
2011/07/07,34,34,34,34,80000,34
2011/07/08,34,35,34,34,114000,34
2011/07/11,34,35,33,35,89000,35
2011/07/12,34,35,33,35,116000,35
2011/07/13,34,35,33,35,137000,35
2011/07/14,34,35,34,34,87000,34
2011/07/15,35,37,34,35,1481000,35
2011/07/19,35,35,34,34,266000,34
2011/07/20,34,35,34,34,165000,34
2011/07/21,34,35,34,34,301000,34
2011/07/22,35,35,34,35,148000,35
2011/07/25,34,35,34,34,141000,34
2011/07/26,34,35,34,34,497000,34
2011/07/27,34,35,34,35,98000,35
2011/07/28,35,36,34,36,254000,36
2011/07/29,35,36,34,34,643000,34
2011/08/01,34,34,33,34,72000,34
2011/08/02,35,35,34,34,74000,34
2011/08/03,33,33,33,33,72000,33
2011/08/04,33,34,33,33,122000,33
2011/08/05,32,33,32,32,414000,32
2011/08/08,32,32,31,31,119000,31
2011/08/09,31,31,30,31,425000,31
2011/08/10,32,32,31,32,92000,32
2011/08/11,30,32,30,32,120000,32
2011/08/12,32,32,31,32,139000,32
2011/08/15,32,33,32,33,44000,33
2011/08/16,33,33,31,33,176000,33
2011/08/17,32,33,32,33,59000,33
2011/08/18,33,33,31,33,111000,33
2011/08/19,32,33,31,32,85000,32
2011/08/22,31,32,31,31,43000,31
2011/08/23,32,32,31,31,91000,31
2011/08/24,31,32,31,31,73000,31
2011/08/25,31,32,31,31,132000,31
2011/08/26,31,32,31,31,24000,31
2011/08/29,32,32,31,31,36000,31
2011/08/30,32,32,31,32,71000,32
2011/08/31,32,32,31,31,87000,31
2011/09/01,32,32,31,32,121000,32
2011/09/02,32,32,31,32,106000,32
2011/09/05,32,32,32,32,128000,32
2011/09/06,32,33,31,32,119000,32
2011/09/07,31,32,31,32,30000,32
2011/09/08,33,33,32,32,174000,32
2011/09/09,32,33,32,33,214000,33
2011/09/12,32,33,32,32,64000,32
2011/09/13,33,33,32,33,43000,33
2011/09/14,33,33,32,32,49000,32
2011/09/15,32,33,31,33,85000,33
2011/09/16,32,34,32,34,108000,34
2011/09/20,34,34,33,33,44000,33
2011/09/21,33,33,31,31,372000,31
2011/09/22,31,31,31,31,184000,31
2011/09/26,31,31,29,30,320000,30
2011/09/27,30,31,29,30,193000,30
2011/09/28,30,31,30,31,97000,31
2011/09/29,31,31,30,31,57000,31
2011/09/30,31,32,30,32,204000,32
2011/10/03,31,31,30,31,44000,31
2011/10/04,31,31,30,30,34000,30
2011/10/05,30,30,30,30,59000,30
2011/10/06,30,31,30,30,20000,30
2011/10/07,30,31,30,31,34000,31
2011/10/11,31,31,30,31,27000,31
2011/10/12,30,31,30,30,21000,30
2011/10/13,30,31,30,30,81000,30
2011/10/14,30,31,30,30,93000,30
2011/10/17,31,32,31,32,225000,32
2011/10/18,31,31,30,30,63000,30
2011/10/19,31,32,30,30,130000,30
2011/10/20,30,30,30,30,22000,30
2011/10/21,31,31,30,31,127000,31
2011/10/24,31,31,30,31,233000,31
2011/10/25,31,32,31,32,33000,32
2011/10/26,31,32,30,32,66000,32
2011/10/27,31,34,31,34,1516000,34
2011/10/28,34,36,33,34,1014000,34
2011/10/31,34,34,32,32,240000,32
2011/11/01,32,32,32,32,153000,32
2011/11/02,31,32,31,31,74000,31
2011/11/04,32,33,32,32,184000,32
2011/11/07,33,33,32,33,18000,33
2011/11/08,33,33,31,31,319000,31
2011/11/09,31,32,30,30,170000,30
2011/11/10,30,30,29,30,690000,30
2011/11/11,29,30,29,30,365000,30
2011/11/14,30,31,30,30,60000,30
2011/11/15,30,30,30,30,173000,30
2011/11/16,30,30,30,30,10000,30
2011/11/17,29,31,29,30,76000,30
2011/11/18,30,30,29,30,81000,30
2011/11/21,30,30,30,30,22000,30
2011/11/22,30,30,29,30,89000,30
2011/11/24,29,30,29,29,45000,29
2011/11/25,29,30,29,29,20000,29
2011/11/28,29,31,29,30,115000,30
2011/11/29,30,31,29,30,57000,30
2011/11/30,29,30,29,29,40000,29
2011/12/01,30,31,30,31,48000,31
2011/12/02,31,31,30,30,153000,30
2011/12/05,31,33,31,31,596000,31
2011/12/06,32,33,31,31,124000,31
2011/12/07,31,31,31,31,59000,31
2011/12/08,31,32,31,31,159000,31
2011/12/09,32,32,31,32,193000,32
2011/12/12,31,32,31,31,110000,31
2011/12/13,31,31,30,31,206000,31
2011/12/14,31,34,31,31,895000,31
2011/12/15,32,33,30,30,415000,30
2011/12/16,31,32,30,30,307000,30
2011/12/19,31,32,31,31,219000,31
2011/12/20,31,32,30,31,29000,31
2011/12/21,31,31,30,31,92000,31
2011/12/22,32,32,30,30,103000,30
2011/12/26,31,31,30,30,71000,30
2011/12/27,31,31,30,30,67000,30
2011/12/28,30,31,30,30,22000,30
2011/12/29,31,31,30,30,60000,30
2011/12/30,31,31,30,31,35000,31
2012/01/04,31,31,30,31,187000,31
2012/01/05,31,32,31,32,55000,32
2012/01/06,31,32,31,31,48000,31
2012/01/10,31,32,31,32,298000,32
2012/01/11,31,32,30,30,209000,30
2012/01/12,31,31,31,31,63000,31
2012/01/13,31,31,30,31,67000,31
2012/01/16,31,31,30,31,87000,31
2012/01/17,31,31,30,31,76000,31
2012/01/18,32,33,31,32,631000,32
2012/01/19,32,32,32,32,211000,32
2012/01/20,33,34,33,33,580000,33
2012/01/23,33,33,32,33,235000,33
2012/01/24,33,33,32,32,290000,32
2012/01/25,32,33,32,32,131000,32
2012/01/26,33,34,33,34,626000,34
2012/01/27,34,34,33,33,349000,33
2012/01/30,33,34,33,33,67000,33
2012/01/31,34,34,33,34,129000,34
2012/02/01,33,33,33,33,91000,33
2012/02/02,33,34,33,33,193000,33
2012/02/03,33,34,32,33,185000,33
2012/02/06,33,34,33,33,235000,33
2012/02/07,34,35,33,34,534000,34
2012/02/08,34,35,34,34,245000,34
2012/02/09,34,41,34,40,4943000,40
2012/02/10,48,66,47,49,29599000,49
2012/02/13,49,51,43,44,3400000,44
2012/02/14,47,54,46,53,8235000,53
2012/02/15,52,53,48,49,2602000,49
2012/02/16,49,49,46,46,1146000,46
2012/02/17,48,49,45,46,1209000,46
2012/02/20,46,46,44,45,677000,45
2012/02/21,44,44,43,44,620000,44
2012/02/22,44,45,43,44,565000,44
2012/02/23,45,49,44,48,2326000,48
2012/02/24,47,49,46,46,834000,46
2012/02/27,48,49,47,49,534000,49
2012/02/28,47,49,47,48,599000,48
2012/02/29,48,49,47,48,789000,48
2012/03/01,47,47,46,46,341000,46
2012/03/02,46,48,44,45,657000,45
2012/03/05,45,47,45,47,256000,47
2012/03/06,46,47,45,45,213000,45
2012/03/07,45,46,45,46,159000,46
2012/03/08,46,46,45,45,94000,45
2012/03/09,45,47,45,47,396000,47
2012/03/12,47,49,47,47,855000,47
2012/03/13,46,48,46,48,219000,48
2012/03/14,48,49,46,47,667000,47
2012/03/15,47,48,46,46,440000,46
2012/03/16,46,47,45,45,653000,45
2012/03/19,45,46,44,45,740000,45
2012/03/21,45,46,44,44,180000,44
2012/03/22,44,45,43,44,162000,44
2012/03/23,43,44,43,43,119000,43
2012/03/26,44,44,42,42,196000,42
2012/03/27,43,43,42,43,167000,43
2012/03/28,41,43,41,42,163000,42
2012/03/29,43,44,42,43,240000,43
2012/03/30,43,44,42,43,108000,43
2012/04/02,44,45,43,44,329000,44
2012/04/03,44,46,44,45,308000,45
2012/04/04,45,45,44,44,94000,44
2012/04/05,44,46,44,45,421000,45
2012/04/06,45,45,44,45,95000,45
2012/04/09,44,45,44,44,76000,44
2012/04/10,44,44,44,44,126000,44
2012/04/11,44,45,44,44,153000,44
2012/04/12,44,44,44,44,51000,44
2012/04/13,44,44,44,44,57000,44
2012/04/16,44,44,43,44,20000,44
2012/04/17,44,45,42,42,394000,42
2012/04/18,43,44,43,43,155000,43
2012/04/19,43,44,42,43,118000,43
2012/04/20,43,43,42,43,68000,43
2012/04/23,43,43,42,42,117000,42
2012/04/24,42,43,42,42,107000,42
2012/04/25,42,44,42,44,137000,44
2012/04/26,44,46,43,46,213000,46
2012/04/27,46,46,44,45,172000,45
2012/05/01,44,45,44,44,97000,44
2012/05/02,45,45,44,44,117000,44
2012/05/07,43,44,41,41,340000,41
2012/05/08,41,46,41,44,884000,44
2012/05/09,44,44,39,40,596000,40
2012/05/10,39,41,39,40,138000,40
2012/05/11,42,42,39,39,173000,39
2012/05/14,39,39,34,34,389000,34
2012/05/15,34,35,33,35,313000,35
2012/05/16,34,34,33,33,214000,33
2012/05/17,33,35,33,35,95000,35
2012/05/18,33,34,32,33,135000,33
2012/05/21,33,33,32,32,109000,32
2012/05/22,33,37,33,36,337000,36
2012/05/23,36,37,33,34,294000,34
2012/05/24,34,34,33,34,119000,34
2012/05/25,34,35,33,34,46000,34
2012/05/28,34,34,33,33,49000,33
2012/05/29,33,34,33,34,73000,34
2012/05/30,34,34,33,33,17000,33
2012/05/31,33,33,32,32,75000,32
2012/06/01,33,36,33,34,192000,34
2012/06/04,34,34,32,33,108000,33
2012/06/05,33,33,32,33,132000,33
2012/06/06,33,35,33,35,118000,35
2012/06/07,35,36,34,36,104000,36
2012/06/08,36,37,35,35,154000,35
2012/06/11,36,36,34,34,113000,34
2012/06/12,34,35,34,35,74000,35
2012/06/13,35,35,34,34,39000,34
2012/06/14,34,34,33,34,58000,34
2012/06/15,33,34,33,33,122000,33
2012/06/18,34,34,33,33,55000,33
2012/06/19,34,34,33,34,34000,34
2012/06/20,34,34,33,34,103000,34
2012/06/21,34,35,34,35,39000,35
2012/06/22,35,35,33,35,162000,35
2012/06/25,35,37,35,35,146000,35
2012/06/26,35,36,35,35,59000,35
2012/06/27,36,37,36,36,110000,36
2012/06/28,37,37,36,36,88000,36
2012/06/29,36,37,35,36,91000,36
2012/07/02,37,40,36,40,432000,40
2012/07/03,41,41,40,40,229000,40
2012/07/04,40,40,40,40,98000,40
2012/07/05,40,40,38,38,161000,38
2012/07/06,38,38,37,37,59000,37
2012/07/09,37,37,36,36,31000,36
2012/07/10,36,38,36,37,60000,37
2012/07/11,36,37,36,37,44000,37
2012/07/12,37,37,36,36,17000,36
2012/07/13,36,36,35,35,265000,35
2012/07/17,36,36,35,35,42000,35
2012/07/18,36,37,34,35,219000,35
2012/07/19,34,35,34,34,11000,34
2012/07/20,34,35,34,34,29000,34
2012/07/23,33,34,33,33,39000,33
2012/07/24,33,34,32,33,74000,33
2012/07/25,33,33,32,32,29000,32
2012/07/26,32,34,32,34,92000,34
2012/07/27,34,34,33,34,77000,34
2012/07/30,35,35,33,34,81000,34
2012/07/31,34,34,33,33,59000,33
2012/08/01,33,34,33,34,92000,34
2012/08/02,34,34,33,33,22000,33
2012/08/03,34,34,33,34,65000,34
2012/08/06,34,34,33,34,70000,34
2012/08/07,33,35,33,33,107000,33
2012/08/08,35,35,34,34,323000,34
2012/08/09,35,36,35,36,109000,36
2012/08/10,35,35,33,35,278000,35
2012/08/13,34,35,34,35,283000,35
2012/08/14,35,35,34,35,157000,35
2012/08/15,35,35,34,35,73000,35
2012/08/16,35,36,35,35,206000,35
2012/08/17,35,36,34,36,59000,36
2012/08/20,36,36,35,35,89000,35
2012/08/21,35,36,35,35,41000,35
2012/08/22,35,35,34,35,33000,35
2012/08/23,35,35,34,34,46000,34
2012/08/24,34,35,34,35,88000,35
2012/08/27,34,35,34,34,44000,34
2012/08/28,34,34,34,34,29000,34
2012/08/29,34,34,33,33,286000,33
2012/08/30,34,35,33,35,95000,35
2012/08/31,34,34,33,33,53000,33
2012/09/03,33,34,33,33,17000,33
2012/09/04,34,34,33,33,13000,33
2012/09/05,33,34,33,34,36000,34
2012/09/06,34,34,33,33,143000,33
2012/09/07,33,33,33,33,153000,33
2012/09/10,33,33,33,33,38000,33
2012/09/11,33,33,32,32,58000,32
2012/09/12,32,34,32,34,47000,34
2012/09/13,33,34,33,34,78000,34
2012/09/14,34,35,33,35,250000,35
2012/09/18,35,35,34,35,36000,35
2012/09/19,35,36,35,36,216000,36
2012/09/20,36,36,35,35,131000,35
2012/09/21,34,35,34,34,32000,34
2012/09/24,34,35,34,35,72000,35
2012/09/25,34,35,34,35,29000,35
2012/09/26,34,35,34,35,139000,35
2012/09/27,34,35,34,35,71000,35
2012/09/28,34,35,34,34,26000,34
2012/10/01,34,35,34,34,163000,34
2012/10/02,34,34,34,34,32000,34
2012/10/03,34,35,33,34,22000,34
2012/10/04,34,35,33,34,45000,34
2012/10/05,34,34,34,34,33000,34
2012/10/09,34,34,33,34,55000,34
2012/10/10,34,34,33,33,13000,33
2012/10/11,33,34,33,34,14000,34
2012/10/12,34,34,33,33,85000,33
2012/10/15,34,34,33,33,50000,33
2012/10/16,33,34,33,33,57000,33
2012/10/17,34,35,34,35,53000,35
2012/10/18,34,36,34,35,138000,35
2012/10/19,35,36,35,35,81000,35
2012/10/22,34,35,34,35,51000,35
2012/10/23,35,35,34,34,39000,34
2012/10/24,34,35,34,35,47000,35
2012/10/25,35,36,34,36,18000,36
2012/10/26,36,36,35,36,27000,36
2012/10/29,35,36,35,36,46000,36
2012/10/30,35,37,34,35,430000,35
2012/10/31,35,36,35,35,42000,35
2012/11/01,35,37,35,36,54000,36
2012/11/02,36,37,36,37,65000,37
2012/11/05,36,37,36,37,56000,37
2012/11/06,36,38,36,36,589000,36
2012/11/07,36,36,35,36,144000,36
2012/11/08,36,36,35,35,126000,35
2012/11/09,35,35,34,35,253000,35
2012/11/12,35,35,35,35,73000,35
2012/11/13,35,36,34,34,46000,34
2012/11/14,34,35,34,35,16000,35
2012/11/15,35,36,34,36,88000,36
2012/11/16,36,36,35,35,75000,35
2012/11/19,35,37,35,36,125000,36
2012/11/20,37,37,35,35,57000,35
2012/11/21,36,37,35,35,143000,35
2012/11/22,36,37,36,37,50000,37
2012/11/26,38,38,36,37,110000,37
2012/11/27,37,37,36,37,57000,37
2012/11/28,37,37,36,36,130000,36
2012/11/29,36,37,35,36,277000,36
2012/11/30,36,36,35,35,50000,35
2012/12/03,36,38,36,36,256000,36
2012/12/04,37,37,36,37,245000,37
2012/12/05,37,37,36,37,75000,37
2012/12/06,37,38,36,38,92000,38
2012/12/07,38,38,37,37,215000,37
2012/12/10,38,38,37,37,116000,37
2012/12/11,38,38,37,38,143000,38
2012/12/12,38,38,36,37,239000,37
2012/12/13,37,38,36,36,348000,36
2012/12/14,36,38,36,38,364000,38
2012/12/17,38,38,37,37,119000,37
2012/12/18,36,38,36,37,436000,37
2012/12/19,38,38,37,37,1019000,37
2012/12/20,37,38,37,38,110000,38
2012/12/21,38,40,37,37,955000,37
2012/12/25,37,40,37,39,737000,39
2012/12/26,40,43,39,42,1128000,42
2012/12/27,44,45,42,44,1118000,44
2012/12/28,45,45,42,42,899000,42
2013/01/04,44,44,42,43,578000,43
2013/01/07,44,44,42,44,779000,44
2013/01/08,44,45,43,45,422000,45
2013/01/09,44,51,43,50,1709000,50
2013/01/10,54,57,52,52,3532000,52
2013/01/11,53,53,47,49,2716000,49
2013/01/15,50,51,49,50,643000,50
2013/01/16,51,52,49,50,867000,50
2013/01/17,50,51,49,50,1134000,50
2013/01/18,51,51,46,47,1385000,47
2013/01/21,45,47,45,47,1055000,47
2013/01/22,47,51,46,51,1826000,51
2013/01/23,51,51,48,50,1215000,50
2013/01/24,49,52,49,51,949000,51
2013/01/25,52,52,50,51,602000,51
2013/01/28,52,56,51,52,3005000,52
2013/01/29,53,53,49,51,1708000,51
2013/01/30,51,52,50,51,368000,51
2013/01/31,52,53,51,51,1023000,51
2013/02/01,51,52,50,50,1290000,50
2013/02/04,51,52,51,51,253000,51
2013/02/05,51,51,50,50,437000,50
2013/02/06,51,52,50,50,261000,50
2013/02/07,51,55,50,52,2276000,52
2013/02/08,52,53,52,52,530000,52
2013/02/12,53,53,51,53,511000,53
2013/02/13,52,52,49,49,943000,49
2013/02/14,47,48,45,45,999000,45
2013/02/15,45,46,42,43,638000,43
2013/02/18,44,46,44,45,256000,45
2013/02/19,46,48,46,47,339000,47
2013/02/20,48,49,46,47,606000,47
2013/02/21,47,47,46,46,52000,46
2013/02/22,46,47,45,46,101000,46
2013/02/25,47,48,46,47,110000,47
2013/02/26,46,48,46,47,187000,47
2013/02/27,48,48,46,46,150000,46
2013/02/28,47,48,47,48,300000,48
2013/03/01,49,50,48,48,715000,48
2013/03/04,49,50,47,48,643000,48
2013/03/05,48,48,46,46,620000,46
2013/03/06,46,47,46,46,127000,46
2013/03/07,47,47,46,46,130000,46
2013/03/08,46,47,46,47,223000,47
2013/03/11,47,50,47,50,521000,50
2013/03/12,51,51,47,47,959000,47
2013/03/13,48,48,47,47,152000,47
2013/03/14,48,50,48,49,490000,49
2013/03/15,50,50,48,49,388000,49
2013/03/18,49,49,47,48,214000,48
2013/03/19,48,50,48,48,228000,48
2013/03/21,49,49,48,48,288000,48
2013/03/22,48,49,47,47,213000,47
2013/03/25,48,48,47,47,187000,47
2013/03/26,47,47,45,46,708000,46
2013/03/27,47,49,45,49,408000,49
2013/03/28,48,49,47,48,116000,48
2013/03/29,49,49,47,47,103000,47
2013/04/01,48,50,45,45,1038000,45
2013/04/02,44,45,42,45,493000,45
2013/04/03,46,49,46,48,543000,48
2013/04/04,47,51,46,48,1508000,48
2013/04/05,51,53,49,51,1710000,51
2013/04/08,58,78,55,73,16363000,73
2013/04/09,83,88,68,70,10986000,70
2013/04/10,67,74,62,66,3726000,66
2013/04/11,68,70,64,64,1649000,64
2013/04/12,67,69,66,67,2150000,67
2013/04/15,67,69,65,67,1155000,67
2013/04/16,65,66,62,64,1572000,64
2013/04/17,65,66,64,65,508000,65
2013/04/18,64,64,60,63,1659000,63
2013/04/19,62,63,61,62,532000,62
2013/04/22,63,70,63,69,2295000,69
2013/04/23,67,70,66,66,1597000,66
2013/04/24,67,68,65,67,1104000,67
2013/04/25,66,68,65,68,929000,68
2013/04/26,68,69,67,68,1698000,68
2013/04/30,70,72,69,70,1888000,70
2013/05/01,70,71,69,69,1373000,69
2013/05/02,69,69,68,68,293000,68
2013/05/07,70,70,69,69,1281000,69
2013/05/08,70,70,67,69,1352000,69
2013/05/09,69,71,67,67,1733000,67
2013/05/10,69,69,66,66,713000,66
2013/05/13,67,67,64,66,1133000,66
2013/05/14,67,68,66,67,392000,67
2013/05/15,68,69,63,63,873000,63
2013/05/16,59,59,53,59,2479000,59
2013/05/17,58,62,57,62,924000,62
2013/05/20,62,65,61,63,825000,63
2013/05/21,62,64,61,63,649000,63
2013/05/22,64,65,62,63,710000,63
2013/05/23,63,64,57,61,1150000,61
2013/05/24,60,61,55,56,1359000,56
2013/05/27,56,56,53,53,760000,53
2013/05/28,53,54,52,53,481000,53
2013/05/29,55,56,53,56,568000,56
2013/05/30,55,55,49,52,1251000,52
2013/05/31,56,62,54,56,3147000,56
2013/06/03,54,55,52,52,513000,52
2013/06/04,52,54,51,53,458000,53
2013/06/05,55,55,53,54,426000,54
2013/06/06,53,53,47,50,1374000,50
2013/06/07,48,49,44,44,1208000,44
2013/06/10,48,50,46,49,810000,49
2013/06/11,47,48,46,46,1014000,46
2013/06/12,45,47,45,47,253000,47
2013/06/13,47,47,45,45,202000,45
2013/06/14,47,47,45,45,291000,45
2013/06/17,46,47,46,46,132000,46
2013/06/18,47,48,47,47,215000,47
2013/06/19,48,49,48,49,548000,49
2013/06/20,49,49,48,48,100000,48
2013/06/21,46,48,46,48,215000,48
2013/06/24,48,48,46,46,102000,46
2013/06/25,47,47,45,46,163000,46
2013/06/26,46,47,44,44,777000,44
2013/06/27,44,45,42,44,432000,44
2013/06/28,45,47,45,47,236000,47
2013/07/01,47,48,46,48,198000,48
2013/07/02,49,50,48,50,293000,50
2013/07/03,50,52,49,51,229000,51
2013/07/04,51,65,51,56,3764000,56
2013/07/05,56,58,55,55,907000,55
2013/07/08,57,57,55,55,309000,55
2013/07/09,56,56,54,55,144000,55
2013/07/10,55,55,53,54,243000,54
2013/07/11,53,55,53,55,109000,55
2013/07/12,55,55,54,55,169000,55
2013/07/16,55,55,54,54,75000,54
2013/07/17,54,54,52,53,198000,53
2013/07/18,53,54,52,54,132000,54
2013/07/19,54,54,52,52,353000,52
2013/07/22,52,53,52,53,76000,53
2013/07/23,52,53,51,52,135000,52
2013/07/24,52,52,51,51,65000,51
2013/07/25,52,52,50,50,154000,50
2013/07/26,50,51,49,49,283000,49
2013/07/29,49,49,45,46,727000,46
2013/07/30,47,48,46,48,236000,48
2013/07/31,48,49,47,47,171000,47
2013/08/01,45,47,45,47,387000,47
2013/08/02,47,50,47,50,279000,50
2013/08/05,49,50,49,50,50000,50
2013/08/06,50,50,49,49,114000,49
2013/08/07,49,49,47,49,271000,49
2013/08/08,48,49,48,48,95000,48
2013/08/09,47,48,47,47,130000,47
2013/08/12,46,47,46,47,206000,47
2013/08/13,47,49,47,48,137000,48
2013/08/14,49,49,48,49,129000,49
2013/08/15,49,49,48,48,49000,48
2013/08/16,48,48,47,48,57000,48
2013/08/19,47,49,47,48,71000,48
2013/08/20,48,48,47,48,128000,48
2013/08/21,47,48,47,48,49000,48
2013/08/22,48,48,47,48,31000,48
2013/08/23,48,49,47,48,99000,48
2013/08/26,48,48,46,46,115000,46
2013/08/27,47,47,46,47,219000,47
2013/08/28,46,47,46,47,86000,47
2013/08/29,46,46,46,46,178000,46
2013/08/30,46,47,46,46,51000,46
2013/09/02,46,48,45,48,463000,48
2013/09/03,48,48,46,48,242000,48
2013/09/04,47,49,47,49,161000,49
2013/09/05,49,51,48,50,291000,50
2013/09/06,49,50,48,48,147000,48
2013/09/09,50,52,50,51,487000,51
2013/09/10,51,52,50,51,357000,51
2013/09/11,51,52,50,52,277000,52
2013/09/12,52,52,51,52,288000,52
2013/09/13,51,52,51,51,309000,51
2013/09/17,52,52,50,51,751000,51
2013/09/18,51,57,50,53,1607000,53
2013/09/19,55,55,52,52,781000,52
2013/09/20,53,57,53,56,1343000,56
2013/09/24,56,56,54,55,439000,55
2013/09/25,55,55,53,54,390000,54
2013/09/26,53,55,52,55,241000,55
2013/09/27,55,56,54,55,202000,55
2013/09/30,54,54,53,54,322000,54
2013/10/01,55,60,54,56,1878000,56
2013/10/02,57,57,53,54,861000,54
2013/10/03,53,54,53,54,215000,54
2013/10/04,53,54,52,52,181000,52
2013/10/07,52,53,50,51,372000,51
2013/10/08,50,51,49,50,758000,50
2013/10/09,50,53,49,53,919000,53
2013/10/10,54,54,51,53,377000,53
2013/10/11,53,53,52,53,310000,53
2013/10/15,52,53,52,52,340000,52
2013/10/16,52,53,52,53,104000,53
2013/10/17,53,54,53,53,372000,53
2013/10/18,54,55,53,54,301000,54
2013/10/21,55,56,54,56,822000,56
2013/10/22,56,56,55,56,332000,56
2013/10/23,57,61,56,57,2874000,57
2013/10/24,56,59,55,59,1100000,59
2013/10/25,58,59,56,57,759000,57
2013/10/28,58,60,57,59,521000,59
2013/10/29,59,59,57,59,486000,59
2013/10/30,59,60,57,59,1262000,59
2013/10/31,58,59,56,56,944000,56
2013/11/01,56,57,54,55,1013000,55
2013/11/05,56,56,54,55,232000,55
2013/11/06,55,56,54,54,134000,54
2013/11/07,55,55,54,55,197000,55
2013/11/08,54,55,54,54,64000,54
2013/11/11,55,55,54,55,204000,55
2013/11/12,55,55,54,55,123000,55
2013/11/13,56,56,54,54,155000,54
2013/11/14,55,57,55,57,494000,57
2013/11/15,55,56,54,55,648000,55
2013/11/18,55,56,55,55,913000,55
2013/11/19,55,56,54,55,196000,55
2013/11/20,55,56,54,56,110000,56
2013/11/21,56,56,54,54,486000,54
2013/11/22,54,55,54,55,261000,55
2013/11/25,55,55,54,55,131000,55
2013/11/26,55,55,52,53,446000,53
2013/11/27,53,54,53,54,93000,54
2013/11/28,54,55,53,55,322000,55
2013/11/29,55,55,53,54,185000,54
2013/12/02,54,55,54,54,267000,54
2013/12/03,55,56,55,55,436000,55
2013/12/04,55,55,53,53,487000,53
2013/12/05,53,54,52,52,317000,52
2013/12/06,53,54,53,53,153000,53
2013/12/09,54,54,53,53,98000,53
2013/12/10,54,55,54,54,239000,54
2013/12/11,54,54,53,53,160000,53
2013/12/12,53,55,53,54,223000,54
2013/12/13,54,55,54,54,261000,54
2013/12/16,54,54,52,53,410000,53
2013/12/17,52,54,52,53,930000,53
2013/12/18,53,53,52,53,746000,53
2013/12/19,53,54,52,53,1280000,53
2013/12/20,53,53,52,52,1512000,52
2013/12/24,52,52,47,48,2181000,48
2013/12/25,48,50,48,49,1401000,49
2013/12/26,51,53,51,53,1242000,53
2013/12/27,53,54,53,54,593000,54
2013/12/30,54,56,54,55,1153000,55
2014/01/06,55,59,55,57,1150000,57
2014/01/07,57,58,54,56,1040000,56
2014/01/08,56,57,56,57,391000,57
2014/01/09,57,57,56,57,266000,57
2014/01/10,57,57,55,56,763000,56
2014/01/14,55,56,54,54,612000,54
2014/01/15,55,57,55,56,669000,56
2014/01/16,56,57,55,56,618000,56
2014/01/17,56,58,55,57,869000,57
2014/01/20,58,58,57,57,479000,57
2014/01/21,58,58,56,56,1432000,56
2014/01/22,57,57,56,56,921000,56
2014/01/23,57,58,55,55,1527000,55
2014/01/24,55,55,54,54,948000,54
2014/01/27,53,53,52,52,420000,52
2014/01/28,53,54,52,52,625000,52
2014/01/29,53,54,53,53,285000,53
2014/01/30,53,54,51,51,1372000,51
2014/01/31,52,52,51,51,752000,51
2014/02/03,50,50,48,48,1185000,48
2014/02/04,47,48,45,47,1254000,47
2014/02/05,48,50,47,47,650000,47
2014/02/06,47,49,47,48,441000,48
2014/02/07,50,50,48,49,639000,49
2014/02/10,50,50,48,48,416000,48
2014/02/12,50,51,49,51,418000,51
2014/02/13,50,51,49,49,251000,49
2014/02/14,49,49,46,47,724000,47
2014/02/17,47,48,46,47,214000,47
2014/02/18,47,49,47,49,277000,49
2014/02/19,49,50,48,48,255000,48
2014/02/20,49,49,47,48,293000,48
2014/02/21,47,49,47,48,246000,48
2014/02/24,49,49,48,48,135000,48
2014/02/25,48,49,47,49,128000,49
2014/02/26,48,49,47,49,169000,49
2014/02/27,48,50,47,50,243000,50
2014/02/28,49,49,48,48,291000,48
2014/03/03,48,49,47,47,373000,47
2014/03/04,48,48,47,48,263000,48
2014/03/05,48,49,48,49,369000,49
2014/03/06,49,49,49,49,215000,49
2014/03/07,50,50,49,50,337000,50
2014/03/10,50,50,49,49,258000,49
2014/03/11,50,50,49,50,197000,50
2014/03/12,49,49,48,48,275000,48
2014/03/13,48,49,47,47,383000,47
2014/03/14,47,47,46,46,335000,46
2014/03/17,46,47,45,46,214000,46
2014/03/18,47,47,46,46,185000,46
2014/03/19,47,47,47,47,211000,47
2014/03/20,48,48,46,46,58000,46
2014/03/24,46,47,46,47,291000,47
2014/03/25,48,48,47,48,256000,48
2014/03/26,47,48,47,48,154000,48
2014/03/27,48,48,47,48,81000,48
2014/03/28,48,49,47,49,217000,49
2014/03/31,50,50,48,49,226000,49
2014/04/01,49,50,48,50,148000,50
2014/04/02,50,51,49,49,252000,49
2014/04/03,50,50,49,49,171000,49
2014/04/04,50,50,49,50,324000,50
2014/04/07,49,50,48,49,207000,49
2014/04/08,49,49,47,47,367000,47
2014/04/09,47,47,47,47,391000,47
2014/04/10,48,49,47,49,320000,49
2014/04/11,48,48,47,47,436000,47
2014/04/14,47,48,47,47,113000,47
2014/04/15,47,47,47,47,93000,47
2014/04/16,47,48,47,47,224000,47
2014/04/17,48,48,47,47,209000,47
2014/04/18,48,48,47,48,351000,48
2014/04/21,47,48,47,47,423000,47
2014/04/22,47,48,46,47,1124000,47
2014/04/23,47,48,46,47,535000,47
2014/04/24,47,47,46,46,230000,46
2014/04/25,46,47,46,46,394000,46
2014/04/28,46,47,46,46,443000,46
2014/04/30,47,47,46,46,403000,46
2014/05/01,46,46,44,46,919000,46
2014/05/02,45,46,45,45,150000,45
2014/05/07,45,47,45,46,1132000,46
2014/05/08,47,49,45,46,1082000,46
2014/05/09,46,46,45,45,360000,45
2014/05/12,45,46,45,46,406000,46
2014/05/13,46,46,45,46,298000,46
2014/05/14,46,47,45,46,201000,46
2014/05/15,45,47,45,46,460000,46
2014/05/16,46,47,46,47,343000,47
2014/05/19,46,46,44,45,593000,45
2014/05/20,45,45,44,45,259000,45
2014/05/21,45,45,43,44,489000,44
2014/05/22,44,45,43,45,141000,45
2014/05/23,45,46,44,46,359000,46
2014/05/26,45,46,45,46,187000,46
2014/05/27,46,46,45,46,241000,46
2014/05/28,46,46,45,46,217000,46
2014/05/29,46,46,45,45,159000,45
2014/05/30,45,47,45,46,462000,46
2014/06/02,46,48,46,47,812000,47
2014/06/03,47,47,45,46,320000,46
2014/06/04,46,47,46,47,464000,47
2014/06/05,47,47,46,46,373000,46
2014/06/06,47,47,46,47,284000,47
2014/06/09,47,48,47,47,371000,47
2014/06/10,47,47,46,47,334000,47
2014/06/11,47,48,46,48,410000,48
2014/06/12,47,48,47,47,478000,47
2014/06/13,48,48,47,47,343000,47
2014/06/16,47,48,47,47,303000,47
2014/06/17,47,48,47,47,449000,47
2014/06/18,47,47,46,46,445000,46
2014/06/19,47,48,47,48,386000,48
2014/06/20,48,48,47,47,574000,47
2014/06/23,48,48,46,46,594000,46
2014/06/24,46,48,46,48,484000,48
2014/06/25,47,48,47,47,310000,47
2014/06/26,47,48,46,46,313000,46
2014/06/27,47,47,46,46,147000,46
2014/06/30,47,48,46,48,609000,48
2014/07/01,48,49,47,47,876000,47
2014/07/02,48,49,47,49,576000,49
2014/07/03,49,49,48,49,807000,49
2014/07/04,49,49,48,48,666000,48
2014/07/07,48,49,47,48,771000,48
2014/07/08,49,49,48,48,476000,48
2014/07/09,48,50,48,48,744000,48
2014/07/10,48,48,47,47,703000,47
2014/07/11,48,49,47,47,907000,47
2014/07/14,47,48,47,47,1026000,47
2014/07/15,48,48,47,48,587000,48
2014/07/16,48,49,47,48,650000,48
2014/07/17,49,49,48,48,204000,48
2014/07/18,48,48,46,47,595000,47
2014/07/22,48,48,47,48,643000,48
2014/07/23,48,49,47,48,627000,48
2014/07/24,48,48,48,48,270000,48
2014/07/25,49,49,48,48,365000,48
2014/07/28,49,49,49,49,604000,49
2014/07/29,49,52,49,52,1774000,52
2014/07/30,52,52,50,51,1256000,51
2014/07/31,52,52,50,50,858000,50
2014/08/01,50,50,48,50,910000,50
2014/08/04,49,49,48,48,581000,48
2014/08/05,49,50,48,49,493000,49
2014/08/06,49,50,48,48,580000,48
2014/08/07,48,49,48,48,951000,48
2014/08/08,48,48,47,47,554000,47
2014/08/11,47,48,47,48,543000,48
2014/08/12,48,48,47,47,549000,47
2014/08/13,48,48,47,48,537000,48
2014/08/14,48,48,47,48,532000,48
2014/08/15,48,48,47,48,991000,48
2014/08/18,48,49,47,48,1110000,48
2014/08/19,48,48,47,47,1104000,47
2014/08/20,48,48,47,47,672000,47
2014/08/21,47,48,47,48,464000,48
2014/08/22,47,47,46,47,625000,47
2014/08/25,47,47,46,47,593000,47
2014/08/26,46,47,46,46,738000,46
2014/08/27,46,47,46,47,508000,47
2014/08/28,46,47,46,47,747000,47
2014/08/29,46,47,46,47,1000000,47
2014/09/01,47,49,46,49,969000,49
2014/09/02,48,49,48,49,707000,49
2014/09/03,49,49,48,48,713000,48
2014/09/04,48,50,48,49,1633000,49
2014/09/05,49,49,48,48,782000,48
2014/09/08,49,49,48,49,1194000,49
2014/09/09,49,49,48,48,975000,48
2014/09/10,48,48,47,48,824000,48
2014/09/11,47,49,47,48,1091000,48
2014/09/12,48,48,47,47,895000,47
2014/09/16,47,49,47,48,1032000,48
2014/09/17,47,48,47,48,667000,48
2014/09/18,47,48,47,47,615000,47
2014/09/19,48,48,47,47,1303000,47
2014/09/22,47,48,47,48,880000,48
2014/09/24,48,48,47,48,816000,48
2014/09/25,48,48,47,48,783000,48
2014/09/26,47,48,47,47,1039000,47
2014/09/29,48,49,48,48,2107000,48
2014/09/30,48,49,47,47,1834000,47
2014/10/01,48,48,47,47,1523000,47
2014/10/02,47,48,46,46,1484000,46
2014/10/03,46,47,46,46,1204000,46
2014/10/06,47,47,46,46,1437000,46
2014/10/07,47,47,46,46,1566000,46
2014/10/08,46,47,46,46,1549000,46
2014/10/09,46,46,45,45,1344000,45
2014/10/10,45,45,43,43,2076000,43
2014/10/14,44,44,43,44,1646000,44
2014/10/15,44,44,43,43,1616000,43
2014/10/16,43,44,42,42,1453000,42
2014/10/17,42,43,41,42,1761000,42
2014/10/20,43,43,40,42,1762000,42
2014/10/21,42,42,40,41,1983000,41
2014/10/22,41,41,40,41,2206000,41
2014/10/23,40,42,40,42,2038000,42
2014/10/24,41,42,41,41,1821000,41
2014/10/27,42,43,41,43,2515000,43
2014/10/28,42,43,41,43,2628000,43
2014/10/29,43,44,43,44,1844000,44
2014/10/30,44,44,43,44,2157000,44
2014/10/31,44,46,43,46,2261000,46
2014/11/04,48,48,46,47,2654000,47
2014/11/05,47,47,46,47,2130000,47
2014/11/06,48,48,46,46,1902000,46
2014/11/07,47,47,46,47,1987000,47
2014/11/10,46,47,46,46,1945000,46
2014/11/11,46,48,46,47,2027000,47
2014/11/12,47,48,47,48,2033000,48
2014/11/13,48,48,47,48,1899000,48
2014/11/14,47,49,46,47,3369000,47
2014/11/17,47,47,46,46,2221000,46
2014/11/18,46,47,46,47,2909000,47
2014/11/19,47,47,46,47,2294000,47
2014/11/20,46,47,46,47,2967000,47
2014/11/21,47,48,47,47,2301000,47
2014/11/25,47,48,47,47,1904000,47
2014/11/26,47,48,47,48,2475000,48
2014/11/27,48,49,48,48,3185000,48
2014/11/28,49,50,47,47,3536000,47
2014/12/01,48,55,48,52,5379000,52
2014/12/02,52,57,52,52,5084000,52
2014/12/03,53,54,52,53,3145000,53
2014/12/04,54,65,53,64,12185000,64
2014/12/05,60,62,57,62,8942000,62
2014/12/08,62,67,59,64,7160000,64
2014/12/09,62,63,56,59,6461000,59
2014/12/10,58,59,57,58,2383000,58
2014/12/11,56,58,56,58,2596000,58
2014/12/12,57,58,56,57,2726000,57
2014/12/15,56,57,54,56,2780000,56
2014/12/16,53,55,51,51,3194000,51
2014/12/17,51,53,50,53,2766000,53
2014/12/18,54,61,54,61,4041000,61
2014/12/19,59,60,56,56,4319000,56
2014/12/22,56,57,54,54,3157000,54
2014/12/24,56,56,52,53,3041000,53
2014/12/25,53,53,51,52,2691000,52
2014/12/26,52,54,51,53,1481000,53
2014/12/29,55,56,53,53,1834000,53
2014/12/30,55,55,54,54,1597000,54
2015/01/05,55,56,54,55,1642000,55
2015/01/06,54,54,52,52,1009000,52
2015/01/07,53,55,52,53,1712000,53
2015/01/08,53,54,52,52,1221000,52
2015/01/09,52,53,51,52,1060000,52
2015/01/13,51,52,51,51,899000,51
2015/01/14,50,51,50,51,915000,51
2015/01/15,51,54,51,52,2187000,52
2015/01/16,52,52,50,50,1063000,50
2015/01/19,51,51,50,51,1017000,51
2015/01/20,51,52,50,52,1253000,52
2015/01/21,52,52,51,51,1004000,51
2015/01/22,52,52,51,51,1071000,51
2015/01/23,51,55,51,54,1803000,54
2015/01/26,52,54,52,53,1384000,53
2015/01/27,54,58,53,56,3958000,56
2015/01/28,56,57,55,56,1629000,56
2015/01/29,56,56,53,53,1712000,53
2015/01/30,54,55,53,54,1812000,54
2015/02/02,52,53,51,53,1436000,53
2015/02/03,53,53,52,52,1389000,52
2015/02/04,52,54,52,54,943000,54
2015/02/05,53,54,52,54,1137000,54
2015/02/06,53,56,53,56,2264000,56
2015/02/09,56,56,54,54,874000,54
2015/02/10,54,55,54,55,978000,55
2015/02/12,55,56,54,54,1151000,54
2015/02/13,55,55,53,53,1287000,53
2015/02/16,54,55,53,53,1718000,53
2015/02/17,53,54,53,53,882000,53
2015/02/18,54,54,53,53,967000,53
2015/02/19,53,55,52,55,1343000,55
2015/02/20,55,55,54,55,551000,55
2015/02/23,55,55,53,53,1079000,53
2015/02/24,54,55,53,55,836000,55
2015/02/25,54,57,54,54,4128000,54
2015/02/26,54,56,54,56,2710000,56
2015/02/27,56,56,54,55,1961000,55
2015/03/02,54,55,53,54,1396000,54
2015/03/03,54,56,53,54,2421000,54
2015/03/04,54,55,53,53,1624000,53
2015/03/05,53,57,53,56,2226000,56
2015/03/06,56,58,55,57,2911000,57
2015/03/09,58,59,56,58,2158000,58
2015/03/10,58,59,56,58,2043000,58
2015/03/11,57,59,57,59,1670000,59
2015/03/12,59,60,59,60,1994000,60
2015/03/13,60,61,59,59,1832000,59
2015/03/16,58,59,57,57,1829000,57
2015/03/17,57,58,56,56,962000,56
2015/03/18,57,58,57,58,1131000,58
2015/03/19,58,59,57,58,1275000,58
2015/03/20,58,59,57,58,1093000,58
2015/03/23,59,63,59,60,3176000,60
2015/03/24,61,61,59,59,2032000,59
2015/03/25,60,60,58,58,1159000,58
2015/03/26,58,59,57,57,900000,57
2015/03/27,59,60,58,58,1201000,58
2015/03/30,59,59,57,57,1259000,57
2015/03/31,58,58,55,55,1314000,55
2015/04/01,56,56,55,56,1411000,56
2015/04/02,56,57,55,57,1483000,57
2015/04/03,56,57,55,56,1105000,56
2015/04/06,56,57,55,57,1329000,57
2015/04/07,57,60,56,60,2515000,60
2015/04/08,60,60,58,58,1526000,58
2015/04/09,59,59,58,59,949000,59
2015/04/10,58,58,57,57,987000,57
2015/04/13,57,58,56,57,1665000,57
2015/04/14,57,58,56,57,1151000,57
2015/04/15,57,58,56,57,1021000,57
2015/04/16,58,58,57,57,1009000,57
2015/04/17,57,58,56,58,861000,58
2015/04/20,58,58,57,57,603000,57
2015/04/21,57,57,56,57,877000,57
2015/04/22,57,58,56,58,997000,58
2015/04/23,58,58,56,56,1251000,56
2015/04/24,57,57,56,56,1270000,56
2015/04/27,57,57,56,56,888000,56
2015/04/28,56,56,55,55,865000,55
2015/04/30,55,55,54,55,1318000,55
2015/05/01,54,55,54,55,1742000,55
2015/05/07,54,55,54,54,1331000,54
2015/05/08,54,55,54,55,1192000,55
2015/05/11,55,55,53,53,1271000,53
2015/05/12,54,54,53,53,1201000,53
2015/05/13,54,57,54,55,1616000,55
2015/05/14,54,56,54,55,1352000,55
2015/05/15,55,56,55,55,1164000,55
2015/05/18,54,57,54,56,1440000,56
2015/05/19,56,56,55,56,1345000,56
2015/05/20,56,56,55,55,1271000,55
2015/05/21,56,57,56,57,1279000,57
2015/05/22,56,58,56,56,1498000,56
2015/05/25,56,57,56,56,1172000,56
2015/05/26,57,57,55,55,1082000,55
2015/05/27,56,56,55,55,963000,55
2015/05/28,55,56,55,55,1026000,55
2015/05/29,55,56,55,55,965000,55
2015/06/01,56,58,55,58,2322000,58
2015/06/02,58,61,56,61,4154000,61
2015/06/03,60,61,59,60,2771000,60
2015/06/04,60,60,59,60,1120000,60
2015/06/05,59,60,58,59,1410000,59
2015/06/08,59,59,57,57,1633000,57
2015/06/09,57,61,57,60,3009000,60
2015/06/10,60,60,57,57,2604000,57
2015/06/11,58,59,58,59,1706000,59
2015/06/12,58,59,58,58,924000,58
2015/06/15,58,60,57,60,2327000,60
2015/06/16,59,60,58,60,1634000,60
2015/06/17,60,65,59,63,6277000,63
2015/06/18,62,64,61,64,3096000,64
2015/06/19,65,65,61,62,4097000,62
2015/06/22,62,62,60,61,1905000,61
2015/06/23,62,69,61,68,8366000,68
2015/06/24,72,84,69,71,44629000,71
2015/06/25,78,98,75,98,66355000,98
2015/06/26,93,100,86,90,62827000,90
2015/06/29,87,110,87,97,86875000,97
2015/06/30,106,116,98,113,92342000,113
2015/07/01,120,124,112,120,60331000,120
