2011/01/04,29,31,28,31,387000,31
2011/01/05,30,30,29,29,258000,29
2011/01/06,29,30,29,29,175000,29
2011/01/07,30,31,29,30,406000,30
2011/01/11,31,31,30,30,239000,30
2011/01/12,31,31,30,30,518000,30
2011/01/13,31,32,31,31,199000,31
2011/01/14,31,31,30,30,159000,30
2011/01/17,31,32,30,30,172000,30
2011/01/18,30,31,30,31,61000,31
2011/01/19,31,32,31,31,169000,31
2011/01/20,31,34,31,34,1043000,34
2011/01/21,34,35,31,31,1842000,31
2011/01/24,32,36,32,35,865000,35
2011/01/25,37,42,35,39,3169000,39
2011/01/26,39,39,37,37,905000,37
2011/01/27,37,37,34,34,1192000,34
2011/01/28,34,34,33,34,523000,34
2011/01/31,33,35,33,35,346000,35
2011/02/01,36,36,34,34,264000,34
2011/02/02,35,38,35,37,913000,37
2011/02/03,37,37,36,37,322000,37
2011/02/04,37,37,36,36,344000,36
2011/02/07,36,40,36,40,1045000,40
2011/02/08,41,42,38,39,760000,39
2011/02/09,40,40,37,38,744000,38
2011/02/10,38,39,35,39,695000,39
2011/02/14,36,37,34,37,1070000,37
2011/02/15,36,37,34,34,643000,34
2011/02/16,35,36,34,35,517000,35
2011/02/17,35,36,35,35,139000,35
2011/02/18,36,37,35,37,366000,37
2011/02/21,37,37,35,36,625000,36
2011/02/22,36,36,34,34,475000,34
2011/02/23,34,34,32,34,462000,34
2011/02/24,33,34,32,33,363000,33
2011/02/25,32,33,32,33,198000,33
2011/02/28,34,35,34,34,462000,34
2011/03/01,35,36,34,35,219000,35
2011/03/02,34,35,33,34,255000,34
2011/03/03,35,35,34,34,162000,34
2011/03/04,34,35,34,35,504000,35
2011/03/07,34,34,33,34,216000,34
2011/03/08,34,36,34,36,542000,36
2011/03/09,36,36,34,34,765000,34
2011/03/10,34,34,33,34,396000,34
2011/03/11,33,34,32,32,224000,32
2011/03/14,22,25,20,23,2437000,23
2011/03/15,21,22,15,17,2143000,17
2011/03/16,18,24,18,23,954000,23
2011/03/17,20,24,20,24,940000,24
2011/03/18,24,26,24,26,566000,26
2011/03/22,27,28,27,28,590000,28
2011/03/23,27,27,26,27,347000,27
2011/03/24,26,27,25,26,574000,26
2011/03/25,26,27,24,25,291000,25
2011/03/28,25,25,24,24,193000,24
2011/03/29,24,25,23,24,326000,24
2011/03/30,24,26,24,26,321000,26
2011/03/31,27,27,25,27,295000,27
2011/04/01,26,27,26,27,128000,27
2011/04/04,27,28,27,28,349000,28
2011/04/05,28,28,26,27,220000,27
2011/04/06,27,27,25,26,183000,26
2011/04/07,26,27,26,27,35000,27
2011/04/08,26,27,25,27,83000,27
2011/04/11,27,27,25,27,63000,27
2011/04/12,27,27,26,27,61000,27
2011/04/13,26,27,26,27,64000,27
2011/04/14,26,27,26,26,144000,26
2011/04/15,27,30,27,28,1600000,28
2011/04/18,29,31,29,29,1024000,29
2011/04/19,30,37,30,33,3743000,33
2011/04/20,33,33,30,31,691000,31
2011/04/21,31,31,29,31,457000,31
2011/04/22,31,31,28,29,544000,29
2011/04/25,29,31,29,30,407000,30
2011/04/26,31,31,29,30,170000,30
2011/04/27,30,30,28,30,273000,30
2011/04/28,29,30,29,29,83000,29
2011/05/02,29,30,29,30,80000,30
2011/05/06,29,30,29,29,25000,29
2011/05/09,29,30,28,30,288000,30
2011/05/10,30,32,29,29,269000,29
2011/05/11,30,31,29,31,96000,31
2011/05/12,31,31,30,31,111000,31
2011/05/13,30,33,30,30,856000,30
2011/05/16,31,31,29,29,560000,29
2011/05/17,29,30,29,29,322000,29
2011/05/18,29,31,29,31,386000,31
2011/05/19,31,31,29,30,647000,30
2011/05/20,30,31,30,31,57000,31
2011/05/23,31,31,30,31,72000,31
2011/05/24,30,31,30,31,409000,31
2011/05/25,31,32,30,31,259000,31
2011/05/26,32,32,31,31,146000,31
2011/05/27,31,32,31,32,226000,32
2011/05/30,32,34,32,32,567000,32
2011/05/31,32,33,32,32,93000,32
2011/06/01,32,33,32,32,531000,32
2011/06/02,32,32,31,32,209000,32
2011/06/03,32,33,32,32,73000,32
2011/06/06,32,32,31,32,153000,32
2011/06/07,32,33,32,32,59000,32
2011/06/08,32,32,31,31,230000,31
2011/06/09,32,33,31,31,80000,31
2011/06/10,31,32,30,30,299000,30
2011/06/13,30,35,30,32,1101000,32
2011/06/14,32,33,31,32,260000,32
2011/06/15,32,34,32,33,278000,33
2011/06/16,33,34,32,32,33000,32
2011/06/17,33,34,32,32,332000,32
2011/06/20,32,33,31,31,72000,31
2011/06/21,32,33,31,31,196000,31
2011/06/22,32,32,31,31,212000,31
2011/06/23,31,32,31,31,106000,31
2011/06/24,31,32,31,32,89000,32
2011/06/27,32,32,31,32,223000,32
2011/06/28,32,32,31,31,189000,31
2011/06/29,32,33,32,32,257000,32
2011/06/30,32,33,31,31,110000,31
2011/07/01,32,33,32,32,109000,32
2011/07/04,32,33,32,33,460000,33
2011/07/05,33,33,32,33,86000,33
2011/07/06,33,35,33,35,471000,35
2011/07/07,35,35,34,35,391000,35
2011/07/08,35,36,34,35,733000,35
2011/07/11,35,35,33,35,143000,35
2011/07/12,34,34,34,34,142000,34
2011/07/13,34,34,33,34,198000,34
2011/07/14,33,34,33,33,176000,33
2011/07/15,34,35,33,35,151000,35
2011/07/19,35,36,34,35,626000,35
2011/07/20,35,36,34,36,134000,36
2011/07/21,35,36,35,35,243000,35
2011/07/22,35,36,34,36,102000,36
2011/07/25,36,39,35,38,996000,38
2011/07/26,37,39,37,39,615000,39
2011/07/27,40,58,40,51,19377000,51
2011/07/28,50,63,49,50,16460000,50
2011/07/29,51,53,45,46,4073000,46
2011/08/01,51,55,49,49,4142000,49
2011/08/02,50,53,49,53,1812000,53
2011/08/03,53,61,51,59,6564000,59
2011/08/04,60,63,56,57,4945000,57
2011/08/05,54,56,51,56,2148000,56
2011/08/08,49,50,42,43,5892000,43
2011/08/09,39,41,36,40,2685000,40
2011/08/10,43,44,40,41,2034000,41
2011/08/11,38,43,38,42,761000,42
2011/08/12,42,45,41,41,1187000,41
2011/08/15,43,43,41,41,368000,41
2011/08/16,44,46,42,43,1110000,43
2011/08/17,43,43,42,42,384000,42
2011/08/18,42,42,41,42,292000,42
2011/08/19,40,41,40,41,253000,41
2011/08/22,40,41,39,39,409000,39
2011/08/23,39,39,35,37,872000,37
2011/08/24,38,39,36,36,375000,36
2011/08/25,37,38,37,38,301000,38
2011/08/26,38,39,38,39,182000,39
2011/08/29,39,40,38,39,341000,39
2011/08/30,39,43,39,42,461000,42
2011/08/31,42,42,40,41,228000,41
2011/09/01,41,42,40,40,111000,40
2011/09/02,40,45,40,44,966000,44
2011/09/05,44,44,42,42,387000,42
2011/09/06,43,43,40,40,228000,40
2011/09/07,41,41,40,40,131000,40
2011/09/08,40,42,38,39,432000,39
2011/09/09,39,39,37,38,344000,38
2011/09/12,37,38,36,36,287000,36
2011/09/13,37,42,37,40,1523000,40
2011/09/14,40,43,40,40,663000,40
2011/09/15,41,41,39,39,353000,39
2011/09/16,39,41,39,40,276000,40
2011/09/20,41,44,41,42,1446000,42
2011/09/21,42,42,40,42,483000,42
2011/09/22,40,41,39,40,266000,40
2011/09/26,39,40,37,37,621000,37
2011/09/27,37,41,37,39,488000,39
2011/09/28,41,42,39,42,364000,42
2011/09/29,41,41,39,41,310000,41
2011/09/30,42,42,39,40,234000,40
2011/10/03,40,40,38,39,302000,39
2011/10/04,38,39,38,38,228000,38
2011/10/05,39,40,38,39,274000,39
2011/10/06,39,39,38,38,86000,38
2011/10/07,39,39,38,39,345000,39
2011/10/11,39,40,38,39,145000,39
2011/10/12,39,39,38,38,137000,38
2011/10/13,39,40,38,39,119000,39
2011/10/14,39,44,38,43,818000,43
2011/10/17,45,54,44,53,6955000,53
2011/10/18,50,54,47,53,3882000,53
2011/10/19,52,55,49,52,2918000,52
2011/10/20,51,53,47,48,1956000,48
2011/10/21,47,49,46,48,978000,48
2011/10/24,49,51,45,46,1395000,46
2011/10/25,46,46,43,45,930000,45
2011/10/26,45,48,44,46,614000,46
2011/10/27,47,47,45,46,310000,46
2011/10/28,47,48,46,47,478000,47
2011/10/31,47,48,46,47,421000,47
2011/11/01,47,49,47,47,527000,47
2011/11/02,47,49,46,48,363000,48
2011/11/04,49,50,48,50,464000,50
2011/11/07,51,55,48,55,3474000,55
2011/11/08,53,53,48,48,3605000,48
2011/11/09,48,50,44,44,2541000,44
2011/11/10,44,44,42,44,791000,44
2011/11/11,44,46,44,44,489000,44
2011/11/14,44,44,40,42,1654000,42
2011/11/15,41,42,40,41,264000,41
2011/11/16,41,41,40,41,316000,41
2011/11/17,40,41,39,39,305000,39
2011/11/18,39,39,37,37,526000,37
2011/11/21,38,38,37,38,203000,38
2011/11/22,37,38,36,37,345000,37
2011/11/24,37,37,34,35,815000,35
2011/11/25,34,34,32,32,1089000,32
2011/11/28,33,36,33,35,1156000,35
2011/11/29,36,38,36,37,593000,37
2011/11/30,37,37,35,36,393000,36
2011/12/01,36,38,36,37,452000,37
2011/12/02,37,39,37,39,427000,39
2011/12/05,38,40,38,39,962000,39
2011/12/06,39,39,36,37,540000,37
2011/12/07,37,38,36,38,214000,38
2011/12/08,37,38,36,37,269000,37
2011/12/09,36,37,35,37,470000,37
2011/12/12,37,37,36,37,280000,37
2011/12/13,37,42,36,41,6777000,41
2011/12/14,39,41,38,39,1784000,39
2011/12/15,39,39,37,37,817000,37
2011/12/16,38,39,37,38,744000,38
2011/12/19,39,39,37,38,495000,38
2011/12/20,39,40,37,40,552000,40
2011/12/21,40,40,38,38,547000,38
2011/12/22,37,37,36,36,1050000,36
2011/12/26,36,38,36,38,793000,38
2011/12/27,38,38,37,37,326000,37
2011/12/28,37,38,37,38,90000,38
2011/12/29,37,38,36,38,152000,38
2011/12/30,38,38,37,38,251000,38
2012/01/04,38,39,37,39,232000,39
2012/01/05,39,39,37,38,355000,38
2012/01/06,38,38,37,38,116000,38
2012/01/10,37,39,37,37,259000,37
2012/01/11,37,38,37,38,111000,38
2012/01/12,37,39,37,39,653000,39
2012/01/13,39,39,38,39,112000,39
2012/01/16,39,39,38,38,283000,38
2012/01/17,38,39,37,38,194000,38
2012/01/18,39,44,39,41,2000000,41
2012/01/19,41,43,39,41,640000,41
2012/01/20,41,41,39,40,532000,40
2012/01/23,41,44,40,43,853000,43
2012/01/24,43,43,41,42,695000,42
2012/01/25,42,43,41,43,492000,43
2012/01/26,43,46,42,45,1567000,45
2012/01/27,43,45,42,43,900000,43
2012/01/30,42,43,41,41,602000,41
2012/01/31,41,41,40,41,483000,41
2012/02/01,41,43,40,42,415000,42
2012/02/02,42,44,41,43,661000,43
2012/02/03,42,43,42,43,373000,43
2012/02/06,43,46,42,46,998000,46
2012/02/07,45,45,44,45,501000,45
2012/02/08,45,50,45,50,2402000,50
2012/02/09,50,50,46,48,2542000,48
2012/02/10,48,53,47,53,4038000,53
2012/02/13,43,44,40,43,5005000,43
2012/02/14,43,43,41,42,940000,42
2012/02/15,43,43,41,42,404000,42
2012/02/16,42,43,41,42,222000,42
2012/02/17,42,43,42,43,284000,43
2012/02/20,43,44,42,43,973000,43
2012/02/21,43,44,43,44,347000,44
2012/02/22,44,46,43,46,1104000,46
2012/02/23,45,46,44,45,793000,45
2012/02/24,45,46,43,45,559000,45
2012/02/27,44,45,44,44,327000,44
2012/02/28,44,44,43,44,332000,44
2012/02/29,44,44,42,42,302000,42
2012/03/01,43,47,43,44,1462000,44
2012/03/02,44,46,44,45,783000,45
2012/03/05,45,45,43,43,345000,43
2012/03/06,44,44,43,43,226000,43
2012/03/07,43,43,42,43,399000,43
2012/03/08,43,44,42,43,191000,43
2012/03/09,44,45,43,45,415000,45
2012/03/12,45,47,45,46,1305000,46
2012/03/13,46,46,44,45,765000,45
2012/03/14,46,46,44,44,193000,44
2012/03/15,45,45,43,44,568000,44
2012/03/16,44,45,43,45,322000,45
2012/03/19,44,44,43,43,309000,43
2012/03/21,43,44,43,43,154000,43
2012/03/22,43,43,42,43,658000,43
2012/03/23,43,43,41,42,614000,42
2012/03/26,42,42,41,41,235000,41
2012/03/27,42,42,41,41,191000,41
2012/03/28,41,42,41,42,206000,42
2012/03/29,42,42,41,42,120000,42
2012/03/30,42,42,41,41,93000,41
2012/04/02,42,42,41,42,303000,42
2012/04/03,42,49,42,48,12087000,48
2012/04/04,47,48,44,46,3300000,46
2012/04/05,44,45,43,45,856000,45
2012/04/06,43,44,43,43,461000,43
2012/04/09,43,44,42,43,504000,43
2012/04/10,43,44,42,43,430000,43
2012/04/11,43,44,42,43,469000,43
2012/04/12,43,44,42,42,413000,42
2012/04/13,43,45,43,44,614000,44
2012/04/16,44,44,42,43,611000,43
2012/04/17,43,45,42,44,728000,44
2012/04/18,44,45,43,44,663000,44
2012/04/19,43,43,42,43,505000,43
2012/04/20,44,44,43,44,571000,44
2012/04/23,44,45,43,43,502000,43
2012/04/24,43,43,42,43,411000,43
2012/04/25,43,45,43,43,866000,43
2012/04/26,43,46,43,45,1039000,45
2012/04/27,45,47,43,43,2413000,43
2012/05/01,43,44,42,43,355000,43
2012/05/02,43,44,42,43,151000,43
2012/05/07,42,43,40,41,979000,41
2012/05/08,41,42,41,42,249000,42
2012/05/09,42,42,40,41,668000,41
2012/05/10,40,41,39,41,369000,41
2012/05/11,41,41,39,39,714000,39
2012/05/14,36,37,35,36,1460000,36
2012/05/15,36,36,33,36,1076000,36
2012/05/16,35,36,34,35,269000,35
2012/05/17,35,38,35,37,311000,37
2012/05/18,36,37,35,36,274000,36
2012/05/21,35,37,35,37,236000,37
2012/05/22,37,37,36,37,250000,37
2012/05/23,37,37,36,36,153000,36
2012/05/24,35,37,35,36,125000,36
2012/05/25,36,37,35,36,233000,36
2012/05/28,36,36,34,34,309000,34
2012/05/29,34,35,34,35,264000,35
2012/05/30,35,35,34,34,110000,34
2012/05/31,34,36,34,36,722000,36
2012/06/01,36,36,34,35,207000,35
2012/06/04,34,35,34,35,119000,35
2012/06/05,34,35,34,35,43000,35
2012/06/06,35,36,35,36,216000,36
2012/06/07,36,37,35,36,244000,36
2012/06/08,36,36,35,36,165000,36
2012/06/11,36,37,36,36,114000,36
2012/06/12,35,36,35,36,168000,36
2012/06/13,36,37,36,36,103000,36
2012/06/14,36,37,35,37,183000,37
2012/06/15,37,37,36,37,159000,37
2012/06/18,37,40,37,39,532000,39
2012/06/19,39,40,38,39,404000,39
2012/06/20,39,40,39,40,287000,40
2012/06/21,40,41,39,41,294000,41
2012/06/22,40,41,39,41,164000,41
2012/06/25,40,41,40,41,162000,41
2012/06/26,40,41,40,40,175000,40
2012/06/27,40,40,38,39,314000,39
2012/06/28,39,40,39,39,166000,39
2012/06/29,39,41,38,40,274000,40
2012/07/02,40,41,39,41,289000,41
2012/07/03,40,41,40,40,89000,40
2012/07/04,39,40,39,40,431000,40
2012/07/05,39,40,38,39,98000,39
2012/07/06,39,39,38,39,33000,39
2012/07/09,39,40,39,39,91000,39
2012/07/10,40,40,38,40,34000,40
2012/07/11,39,40,38,40,53000,40
2012/07/12,39,39,38,39,33000,39
2012/07/13,38,39,37,38,189000,38
2012/07/17,38,39,37,38,191000,38
2012/07/18,38,39,37,38,87000,38
2012/07/19,38,38,37,38,123000,38
2012/07/20,37,38,37,38,259000,38
2012/07/23,36,37,35,36,342000,36
2012/07/24,34,36,34,36,161000,36
2012/07/25,35,36,34,35,100000,35
2012/07/26,36,36,34,36,263000,36
2012/07/27,36,37,36,37,222000,37
2012/07/30,37,38,36,37,109000,37
2012/07/31,37,37,36,37,213000,37
2012/08/01,37,37,37,37,71000,37
2012/08/02,36,38,36,37,86000,37
2012/08/03,37,37,36,36,230000,36
2012/08/06,37,38,37,37,201000,37
2012/08/07,37,40,37,39,425000,39
2012/08/08,37,37,35,36,799000,36
2012/08/09,36,37,35,37,359000,37
2012/08/10,36,36,35,36,407000,36
2012/08/13,36,37,36,37,156000,37
2012/08/14,36,37,35,36,148000,36
2012/08/15,36,36,35,36,38000,36
2012/08/16,36,37,36,37,89000,37
2012/08/17,37,37,36,37,74000,37
2012/08/20,36,37,36,37,97000,37
2012/08/21,36,37,36,37,32000,37
2012/08/22,36,37,36,37,134000,37
2012/08/23,36,37,36,37,507000,37
2012/08/24,36,37,36,37,110000,37
2012/08/27,37,37,36,37,64000,37
2012/08/28,36,37,36,37,115000,37
2012/08/29,36,37,36,37,101000,37
2012/08/30,36,37,36,37,104000,37
2012/08/31,36,37,36,36,240000,36
2012/09/03,36,36,36,36,128000,36
2012/09/04,35,36,35,36,129000,36
2012/09/05,36,36,35,36,50000,36
2012/09/06,36,37,36,36,115000,36
2012/09/07,36,37,36,37,77000,37
2012/09/10,36,37,36,37,88000,37
2012/09/11,36,37,35,36,430000,36
2012/09/12,36,37,36,37,101000,37
2012/09/13,37,37,36,37,52000,37
2012/09/14,36,39,36,39,689000,39
2012/09/18,39,39,37,39,281000,39
2012/09/19,39,39,38,39,66000,39
2012/09/20,38,39,37,38,75000,38
2012/09/21,37,38,36,38,210000,38
2012/09/24,37,38,37,37,207000,37
2012/09/25,36,38,36,36,269000,36
2012/09/26,36,37,36,37,194000,37
2012/09/27,36,37,36,36,148000,36
2012/09/28,37,37,36,37,37000,37
2012/10/01,36,37,36,37,401000,37
2012/10/02,36,37,36,36,191000,36
2012/10/03,36,37,36,37,302000,37
2012/10/04,37,38,37,37,47000,37
2012/10/05,37,38,37,38,126000,38
2012/10/09,37,37,37,37,43000,37
2012/10/10,37,37,35,36,354000,36
2012/10/11,35,36,35,35,198000,35
2012/10/12,35,36,35,36,52000,36
2012/10/15,35,36,35,36,178000,36
2012/10/16,36,37,36,37,24000,37
2012/10/17,36,37,36,37,104000,37
2012/10/18,37,37,36,37,103000,37
2012/10/19,37,38,37,38,130000,38
2012/10/22,37,38,36,38,68000,38
2012/10/23,37,38,36,38,132000,38
2012/10/24,37,38,36,38,82000,38
2012/10/25,38,38,37,38,370000,38
2012/10/26,38,38,37,38,741000,38
2012/10/29,37,38,37,38,67000,38
2012/10/30,37,38,37,38,128000,38
2012/10/31,37,38,37,38,362000,38
2012/11/01,38,38,37,37,117000,37
2012/11/02,37,41,37,40,1221000,40
2012/11/05,38,39,37,38,753000,38
2012/11/06,38,38,37,38,224000,38
2012/11/07,37,38,37,37,79000,37
2012/11/08,37,38,36,37,209000,37
2012/11/09,37,38,36,37,220000,37
2012/11/12,37,37,36,37,102000,37
2012/11/13,37,38,36,38,342000,38
2012/11/14,37,38,37,38,239000,38
2012/11/15,38,40,38,40,472000,40
2012/11/16,39,40,38,40,274000,40
2012/11/19,40,40,39,40,182000,40
2012/11/20,40,40,38,38,503000,38
2012/11/21,38,39,38,39,44000,39
2012/11/22,39,39,38,38,191000,38
2012/11/26,39,40,39,39,193000,39
2012/11/27,39,39,38,38,188000,38
2012/11/28,38,39,38,39,349000,39
2012/11/29,38,39,38,39,201000,39
2012/11/30,39,39,38,39,293000,39
2012/12/03,39,40,38,40,202000,40
2012/12/04,39,41,39,40,574000,40
2012/12/05,41,41,40,41,901000,41
2012/12/06,40,42,40,42,258000,42
2012/12/07,42,43,41,43,327000,43
2012/12/10,42,43,41,43,881000,43
2012/12/11,43,43,41,42,333000,42
2012/12/12,42,43,42,43,185000,43
2012/12/13,43,45,43,44,809000,44
2012/12/14,43,45,43,44,476000,44
2012/12/17,44,45,43,44,189000,44
2012/12/18,45,46,44,46,842000,46
2012/12/19,46,47,45,46,1069000,46
2012/12/20,46,47,45,46,572000,46
2012/12/21,46,47,45,45,734000,45
2012/12/25,45,46,42,44,1295000,44
2012/12/26,45,47,44,47,710000,47
2012/12/27,47,48,46,47,606000,47
2012/12/28,48,50,47,48,1020000,48
2013/01/04,49,52,49,52,2633000,52
2013/01/07,55,62,54,58,4534000,58
2013/01/08,59,60,56,58,1270000,58
2013/01/09,58,61,57,60,1467000,60
2013/01/10,62,74,62,70,4240000,70
2013/01/11,69,70,64,67,1604000,67
2013/01/15,67,70,65,70,1419000,70
2013/01/16,69,69,68,69,627000,69
2013/01/17,69,69,62,64,1789000,64
2013/01/18,64,66,60,63,1677000,63
2013/01/21,63,64,62,63,536000,63
2013/01/22,65,71,64,71,1045000,71
2013/01/23,68,70,67,68,1267000,68
2013/01/24,67,69,67,69,378000,69
2013/01/25,68,69,67,69,550000,69
2013/01/28,70,71,68,69,1338000,69
2013/01/29,70,70,68,69,584000,69
2013/01/30,68,70,67,70,438000,70
2013/01/31,70,70,67,68,671000,68
2013/02/01,69,69,68,68,290000,68
2013/02/04,69,71,69,71,1368000,71
2013/02/05,70,71,69,70,1063000,70
2013/02/06,70,71,68,69,822000,69
2013/02/07,68,69,68,68,739000,68
2013/02/08,69,69,66,68,651000,68
2013/02/12,68,70,67,68,914000,68
2013/02/13,66,67,58,63,1817000,63
2013/02/14,60,63,58,60,607000,60
2013/02/15,60,60,54,57,1245000,57
2013/02/18,56,59,54,58,746000,58
2013/02/19,58,62,58,62,349000,62
2013/02/20,62,62,60,62,177000,62
2013/02/21,61,62,60,60,84000,60
2013/02/22,59,63,58,63,345000,63
2013/02/25,63,63,61,62,237000,62
2013/02/26,61,62,60,60,282000,60
2013/02/27,61,62,60,62,131000,62
2013/02/28,62,63,61,62,178000,62
2013/03/01,61,63,61,63,477000,63
2013/03/04,63,68,63,66,993000,66
2013/03/05,67,69,66,67,796000,67
2013/03/06,66,68,66,67,380000,67
2013/03/07,67,68,65,65,404000,65
2013/03/08,66,67,65,65,323000,65
2013/03/11,66,70,66,70,2036000,70
2013/03/12,75,78,68,70,3061000,70
2013/03/13,69,72,69,72,1274000,72
2013/03/14,72,84,71,79,6990000,79
2013/03/15,79,81,73,74,3797000,74
2013/03/18,75,77,74,75,1115000,75
2013/03/19,75,76,72,73,800000,73
2013/03/21,73,75,73,75,881000,75
2013/03/22,75,75,73,74,451000,74
2013/03/25,69,71,68,71,1235000,71
2013/03/26,71,72,70,71,380000,71
2013/03/27,71,75,69,72,598000,72
2013/03/28,74,75,71,72,704000,72
2013/03/29,72,72,68,71,560000,71
2013/04/01,70,73,66,67,1307000,67
2013/04/02,65,69,64,68,549000,68
2013/04/03,69,73,69,72,1307000,72
2013/04/04,74,82,70,76,4798000,76
2013/04/05,81,86,78,81,4947000,81
2013/04/08,89,111,88,109,15979000,109
2013/04/09,119,120,97,99,8990000,99
2013/04/10,95,102,94,99,2855000,99
2013/04/11,102,103,96,98,2284000,98
2013/04/12,98,98,95,96,1401000,96
2013/04/15,93,94,90,92,1711000,92
2013/04/16,90,96,88,94,1117000,94
2013/04/17,95,96,92,92,793000,92
2013/04/18,91,94,91,92,543000,92
2013/04/19,93,96,93,96,415000,96
2013/04/22,97,104,96,103,1974000,103
2013/04/23,107,107,100,101,1178000,101
2013/04/24,102,103,98,99,669000,99
2013/04/25,99,99,95,96,589000,96
2013/04/26,96,98,95,95,1043000,95
2013/04/30,96,98,95,97,324000,97
2013/05/01,97,101,97,99,985000,99
2013/05/02,98,99,97,98,633000,98
2013/05/07,101,102,99,100,854000,100
2013/05/08,101,103,99,100,730000,100
2013/05/09,101,105,100,100,1403000,100
2013/05/10,99,100,98,99,1104000,99
2013/05/13,99,101,98,99,472000,99
2013/05/14,99,100,97,98,758000,98
2013/05/15,95,96,83,83,2276000,83
2013/05/16,80,84,63,73,3293000,73
2013/05/17,75,83,73,80,1956000,80
2013/05/20,82,84,81,83,931000,83
2013/05/21,82,82,79,79,802000,79
2013/05/22,80,80,77,77,1081000,77
2013/05/23,78,78,70,70,2114000,70
2013/05/24,72,74,66,69,791000,69
2013/05/27,68,69,66,67,347000,67
2013/05/28,67,70,67,69,281000,69
2013/05/29,70,73,70,73,514000,73
2013/05/30,70,73,69,70,1247000,70
2013/05/31,72,73,69,70,964000,70
2013/06/03,69,73,68,70,799000,70
2013/06/04,70,71,69,71,275000,71
2013/06/05,72,73,69,69,854000,69
2013/06/06,69,69,60,65,948000,65
2013/06/07,60,61,54,56,1930000,56
2013/06/10,60,63,59,62,982000,62
2013/06/11,62,62,59,61,293000,61
2013/06/12,59,62,58,62,212000,62
2013/06/13,61,61,59,61,855000,61
2013/06/14,63,63,59,60,365000,60
2013/06/17,58,61,58,61,282000,61
2013/06/18,60,62,59,62,502000,62
2013/06/19,62,63,60,60,357000,60
2013/06/20,61,61,60,60,111000,60
2013/06/21,58,60,57,60,273000,60
2013/06/24,60,61,58,59,292000,59
2013/06/25,59,59,54,55,1640000,55
2013/06/26,56,56,50,51,1036000,51
2013/06/27,51,54,49,53,684000,53
2013/06/28,53,57,53,55,570000,55
2013/07/01,55,57,54,57,384000,57
2013/07/02,57,61,57,61,955000,61
2013/07/03,61,63,59,63,704000,63
2013/07/04,63,70,63,70,2767000,70
2013/07/05,68,70,66,67,1519000,67
2013/07/08,70,71,67,67,1117000,67
2013/07/09,68,68,66,67,360000,67
2013/07/10,67,68,66,66,84000,66
2013/07/11,65,69,65,69,621000,69
2013/07/12,71,71,69,70,395000,70
2013/07/16,71,72,70,72,912000,72
2013/07/17,73,73,71,71,649000,71
2013/07/18,71,72,70,70,134000,70
2013/07/19,70,70,66,68,555000,68
2013/07/22,68,69,66,68,293000,68
2013/07/23,67,68,67,67,46000,67
2013/07/24,67,68,67,68,87000,68
2013/07/25,67,67,66,67,194000,67
2013/07/26,66,66,64,64,191000,64
2013/07/29,64,64,60,62,424000,62
2013/07/30,62,64,62,62,220000,62
2013/07/31,62,62,61,61,123000,61
2013/08/01,60,60,55,57,1412000,57
2013/08/02,58,60,57,60,1279000,60
2013/08/05,59,62,59,61,410000,61
2013/08/06,60,61,59,60,240000,60
2013/08/07,60,61,58,58,555000,58
2013/08/08,59,60,58,58,288000,58
2013/08/09,58,60,56,57,439000,57
2013/08/12,57,57,54,54,688000,54
2013/08/13,54,56,54,55,826000,55
2013/08/14,55,55,54,55,751000,55
2013/08/15,54,54,53,53,215000,53
2013/08/16,53,55,53,53,222000,53
2013/08/19,53,55,53,53,223000,53
2013/08/20,54,54,54,54,79000,54
2013/08/21,53,54,53,54,251000,54
2013/08/22,53,53,52,53,91000,53
2013/08/23,54,54,53,53,121000,53
2013/08/26,54,54,52,52,174000,52
2013/08/27,52,53,52,52,98000,52
2013/08/28,51,51,49,49,543000,49
2013/08/29,50,50,49,49,171000,49
2013/08/30,50,50,48,48,166000,48
2013/09/02,48,52,48,52,1043000,52
2013/09/03,52,53,50,52,676000,52
2013/09/04,51,54,51,53,451000,53
2013/09/05,53,53,50,51,532000,51
2013/09/06,51,51,50,50,140000,50
2013/09/09,55,55,53,53,1113000,53
2013/09/10,54,54,50,52,1526000,52
2013/09/11,53,53,51,51,989000,51
2013/09/12,52,52,51,52,438000,52
2013/09/13,53,54,52,53,702000,53
2013/09/17,54,54,52,53,2241000,53
2013/09/18,55,64,53,60,13016000,60
2013/09/19,59,60,55,57,4544000,57
2013/09/20,57,57,54,55,2681000,55
2013/09/24,55,56,53,55,1455000,55
2013/09/25,55,55,53,53,823000,53
2013/09/26,54,55,52,55,491000,55
2013/09/27,54,55,53,54,580000,54
2013/09/30,53,54,52,54,623000,54
2013/10/01,54,55,54,55,981000,55
2013/10/02,55,56,54,55,2945000,55
2013/10/03,56,57,54,57,4023000,57
2013/10/04,57,61,57,59,9730000,59
2013/10/07,60,60,53,53,3946000,53
2013/10/08,52,53,49,52,2992000,52
2013/10/09,52,55,51,54,1759000,54
2013/10/10,55,55,52,52,1730000,52
2013/10/11,54,55,53,54,2868000,54
2013/10/15,56,62,55,61,10726000,61
2013/10/16,58,60,57,57,4160000,57
2013/10/17,59,62,58,60,4724000,60
2013/10/18,61,62,59,60,2817000,60
2013/10/21,61,69,60,66,11485000,66
2013/10/22,67,72,64,69,9259000,69
2013/10/23,72,73,67,69,11684000,69
2013/10/24,70,73,68,73,5949000,73
2013/10/25,71,74,70,71,6118000,71
2013/10/28,71,71,66,67,3971000,67
2013/10/29,67,70,64,68,3987000,68
2013/10/30,68,69,66,67,2173000,67
2013/10/31,66,67,64,65,1849000,65
2013/11/01,65,66,61,63,2559000,63
2013/11/05,64,65,62,65,793000,65
2013/11/06,66,69,66,68,1647000,68
2013/11/07,68,68,66,66,804000,66
2013/11/08,65,66,64,64,725000,64
2013/11/11,65,66,64,65,1268000,65
2013/11/12,64,68,63,68,2006000,68
2013/11/13,68,70,67,70,2239000,70
2013/11/14,64,66,61,64,5296000,64
2013/11/15,65,67,64,66,3172000,66
2013/11/18,66,66,64,64,1014000,64
2013/11/19,65,65,62,63,1496000,63
2013/11/20,63,63,62,62,814000,62
2013/11/21,62,64,62,62,917000,62
2013/11/22,63,64,62,62,1105000,62
2013/11/25,62,63,61,61,1050000,61
2013/11/26,60,61,58,58,2109000,58
2013/11/27,58,61,58,60,1367000,60
2013/11/28,60,60,58,59,912000,59
2013/11/29,60,61,59,60,1116000,60
2013/12/02,60,61,59,59,1088000,59
2013/12/03,60,62,59,62,1695000,62
2013/12/04,61,61,59,60,1127000,60
2013/12/05,60,61,58,59,2256000,59
2013/12/06,59,60,58,59,605000,59
2013/12/09,59,60,58,59,1010000,59
2013/12/10,58,59,58,58,1174000,58
2013/12/11,58,58,55,58,1661000,58
2013/12/12,57,59,57,57,906000,57
2013/12/13,58,58,55,57,1579000,57
2013/12/16,57,57,54,54,1519000,54
2013/12/17,54,55,53,53,758000,53
2013/12/18,53,58,53,57,1823000,57
2013/12/19,59,59,56,56,871000,56
2013/12/20,56,57,55,55,511000,55
2013/12/24,56,58,55,55,1238000,55
2013/12/25,56,60,56,59,1697000,59
2013/12/26,59,61,58,60,1543000,60
2013/12/27,60,63,59,60,2316000,60
2013/12/30,61,62,60,61,1658000,61
2014/01/06,60,67,59,66,12749000,66
2014/01/07,71,74,63,66,21262000,66
2014/01/08,67,67,65,67,3605000,67
2014/01/09,68,70,66,68,6243000,68
2014/01/10,70,70,68,69,3954000,69
2014/01/14,70,77,69,72,10213000,72
2014/01/15,75,82,75,79,18683000,79
2014/01/16,80,83,72,73,15594000,73
2014/01/17,75,83,75,80,17188000,80
2014/01/20,87,91,83,89,24215000,89
2014/01/21,88,89,84,85,9041000,85
2014/01/22,83,86,80,86,8963000,86
2014/01/23,85,86,80,80,6442000,80
2014/01/24,75,79,75,78,5588000,78
2014/01/27,74,77,73,74,4429000,74
2014/01/28,75,78,75,78,3138000,78
2014/01/29,78,80,75,77,3091000,77
2014/01/30,74,74,70,73,4016000,73
2014/01/31,74,74,66,69,4079000,69
2014/02/03,67,67,61,62,4184000,62
2014/02/04,55,59,53,57,7027000,57
2014/02/05,60,61,56,60,3214000,60
2014/02/06,60,64,60,62,2817000,62
2014/02/07,65,68,64,64,5137000,64
2014/02/10,66,67,65,66,1423000,66
2014/02/12,68,69,66,67,1833000,67
2014/02/13,66,66,62,63,1950000,63
2014/02/14,63,63,58,60,4634000,60
2014/02/17,60,61,57,59,2377000,59
2014/02/18,60,65,60,64,1795000,64
2014/02/19,63,65,61,64,1988000,64
2014/02/20,62,63,60,61,1931000,61
2014/02/21,62,62,60,61,1478000,61
2014/02/24,62,62,60,60,930000,60
2014/02/25,63,66,61,63,3756000,63
2014/02/26,63,63,61,62,680000,62
2014/02/27,62,62,60,61,1077000,61
2014/02/28,61,61,59,59,1047000,59
2014/03/03,60,62,59,62,1411000,62
2014/03/04,61,66,61,65,3086000,65
2014/03/05,66,66,63,63,2586000,63
2014/03/06,63,66,62,66,1302000,66
2014/03/07,65,66,63,64,1068000,64
2014/03/10,64,65,63,65,687000,65
2014/03/11,64,65,63,65,587000,65
2014/03/12,64,65,63,63,853000,63
2014/03/13,63,63,60,61,1499000,61
2014/03/14,58,60,57,58,1741000,58
2014/03/17,59,61,58,58,1071000,58
2014/03/18,59,60,59,59,591000,59
2014/03/19,60,61,58,59,912000,59
2014/03/20,58,59,53,55,3657000,55
2014/03/24,70,71,63,63,17872000,63
2014/03/25,64,71,64,69,6625000,69
2014/03/26,71,71,66,68,6821000,68
2014/03/27,66,69,64,68,4210000,68
2014/03/28,69,69,66,68,3094000,68
2014/03/31,68,68,64,65,2842000,65
2014/04/01,66,68,65,67,2355000,67
2014/04/02,67,67,65,66,2733000,66
2014/04/03,66,67,64,65,1559000,65
2014/04/04,64,66,64,65,845000,65
2014/04/07,64,65,63,63,1271000,63
2014/04/08,63,63,60,60,2255000,60
2014/04/09,59,61,59,60,1333000,60
2014/04/10,61,62,59,59,1040000,59
2014/04/11,57,61,57,60,1607000,60
2014/04/14,60,63,60,62,805000,62
2014/04/15,64,64,61,61,848000,61
2014/04/16,62,63,61,62,664000,62
2014/04/17,62,63,61,62,654000,62
2014/04/18,62,63,61,63,348000,63
2014/04/21,62,63,61,62,442000,62
2014/04/22,62,62,59,59,1121000,59
2014/04/23,60,61,59,61,515000,61
2014/04/24,60,60,59,59,401000,59
2014/04/25,59,61,59,59,422000,59
2014/04/28,59,60,58,59,804000,59
2014/04/30,60,60,58,58,869000,58
2014/05/01,59,60,58,60,516000,60
2014/05/02,60,61,59,61,495000,61
2014/05/07,60,61,59,59,547000,59
2014/05/08,60,60,59,59,325000,59
2014/05/09,59,60,59,59,313000,59
2014/05/12,60,61,59,60,657000,60
2014/05/13,61,62,60,61,619000,61
2014/05/14,62,62,60,62,838000,62
2014/05/15,58,59,57,58,2169000,58
2014/05/16,57,58,55,56,1805000,56
2014/05/19,56,56,48,49,4729000,49
2014/05/20,49,50,46,48,4007000,48
2014/05/21,48,50,47,48,1877000,48
2014/05/22,49,49,48,48,848000,48
2014/05/23,48,51,48,50,1759000,50
2014/05/26,57,58,55,56,5084000,56
2014/05/27,56,58,55,57,1961000,57
2014/05/28,57,58,56,57,2999000,57
2014/05/29,58,64,57,64,4535000,64
2014/05/30,66,67,61,63,7872000,63
2014/06/02,63,63,58,59,6187000,59
2014/06/03,59,59,55,56,3978000,56
2014/06/04,57,61,56,58,4483000,58
2014/06/05,57,58,56,57,2284000,57
2014/06/06,57,57,55,56,3054000,56
2014/06/09,57,59,57,58,1978000,58
2014/06/10,58,58,56,56,1949000,56
2014/06/11,56,57,56,57,606000,57
2014/06/12,55,57,55,55,1202000,55
2014/06/13,55,58,55,58,2209000,58
2014/06/16,57,58,56,57,1935000,57
2014/06/17,57,57,55,56,1806000,56
2014/06/18,57,57,55,56,1192000,56
2014/06/19,57,57,56,56,994000,56
2014/06/20,57,59,56,58,5713000,58
2014/06/23,58,58,57,57,2203000,57
2014/06/24,57,58,56,57,758000,57
2014/06/25,57,58,56,57,1023000,57
2014/06/26,57,58,56,57,500000,57
2014/06/27,57,57,55,55,1978000,55
2014/06/30,56,56,55,55,1030000,55
2014/07/01,55,56,54,55,1976000,55
2014/07/02,55,56,55,55,329000,55
2014/07/03,55,56,55,55,723000,55
2014/07/04,55,56,55,56,1014000,56
2014/07/07,55,56,55,56,405000,56
2014/07/08,56,56,55,56,835000,56
2014/07/09,56,59,56,57,3809000,57
2014/07/10,57,58,56,57,965000,57
2014/07/11,56,57,55,56,1040000,56
2014/07/14,55,56,55,55,389000,55
2014/07/15,56,57,55,55,1434000,55
2014/07/16,55,56,54,55,1859000,55
2014/07/17,55,55,53,55,1782000,55
2014/07/18,53,55,52,53,1937000,53
2014/07/22,54,55,53,53,1320000,53
2014/07/23,54,54,53,54,350000,54
2014/07/24,53,54,53,53,323000,53
2014/07/25,53,54,52,54,1482000,54
2014/07/28,53,54,53,53,748000,53
2014/07/29,53,55,53,54,685000,54
2014/07/30,54,55,54,54,1020000,54
2014/07/31,55,55,53,53,572000,53
2014/08/01,53,54,53,53,464000,53
2014/08/04,54,57,53,56,3135000,56
2014/08/05,56,56,54,54,1761000,54
2014/08/06,55,55,53,53,1391000,53
2014/08/07,54,54,53,53,340000,53
2014/08/08,53,54,51,52,2088000,52
2014/08/11,53,54,52,53,928000,53
2014/08/12,53,54,53,53,335000,53
2014/08/13,54,56,53,56,2461000,56
2014/08/14,55,55,54,55,1275000,55
2014/08/15,55,56,54,55,1537000,55
2014/08/18,55,56,55,56,2034000,56
2014/08/19,56,56,54,56,1252000,56
2014/08/20,55,56,55,55,881000,55
2014/08/21,55,56,54,55,1133000,55
2014/08/22,55,56,55,55,1053000,55
2014/08/25,55,56,55,55,572000,55
2014/08/26,55,57,55,56,2711000,56
2014/08/27,57,57,55,56,1488000,56
2014/08/28,56,57,56,57,708000,57
2014/08/29,57,60,57,60,6010000,60
2014/09/01,61,62,59,59,3548000,59
2014/09/02,60,60,58,59,2003000,59
2014/09/03,60,62,60,61,3055000,61
2014/09/04,61,64,60,63,5457000,63
2014/09/05,65,66,63,64,4995000,64
2014/09/08,64,64,62,62,1567000,62
2014/09/09,63,64,62,62,1735000,62
2014/09/10,63,66,63,66,5576000,66
2014/09/11,67,78,67,69,20578000,69
2014/09/12,67,68,65,67,6878000,67
2014/09/16,66,66,62,63,4455000,63
2014/09/17,63,63,59,60,5861000,60
2014/09/18,60,60,58,58,3560000,58
2014/09/19,59,61,58,60,4614000,60
2014/09/22,59,60,58,58,1317000,58
2014/09/24,58,60,58,60,1154000,60
2014/09/25,60,61,58,59,3931000,59
2014/09/26,58,60,58,59,798000,59
2014/09/29,59,60,57,57,2321000,57
2014/09/30,57,57,56,56,1708000,56
2014/10/01,56,58,55,56,2949000,56
2014/10/02,55,56,54,55,2370000,55
2014/10/03,55,57,54,57,2144000,57
2014/10/06,57,60,56,59,1711000,59
2014/10/07,57,58,56,57,1467000,57
2014/10/08,56,57,55,56,643000,56
2014/10/09,57,57,54,55,1564000,55
2014/10/10,54,54,52,53,2066000,53
2014/10/14,52,53,51,52,1805000,52
2014/10/15,53,55,52,55,1818000,55
2014/10/16,53,53,51,52,1216000,52
2014/10/17,53,54,51,51,1291000,51
2014/10/20,52,53,52,52,538000,52
2014/10/21,53,53,52,52,581000,52
2014/10/22,53,53,51,52,2035000,52
2014/10/23,52,52,51,51,402000,51
2014/10/24,52,53,51,51,808000,51
2014/10/27,52,52,51,51,1089000,51
2014/10/28,52,53,51,53,917000,53
2014/10/29,53,54,52,53,1144000,53
2014/10/30,53,53,52,52,933000,52
2014/10/31,52,58,52,57,2731000,57
2014/11/04,63,64,59,59,7366000,59
2014/11/05,60,60,57,59,1671000,59
2014/11/06,59,65,59,62,6222000,62
2014/11/07,61,62,60,61,1006000,61
2014/11/10,61,62,60,61,896000,61
2014/11/11,62,62,60,61,669000,61
2014/11/12,61,62,60,61,1768000,61
2014/11/13,60,60,59,60,1196000,60
2014/11/14,60,61,58,59,2170000,59
2014/11/17,60,60,58,60,1651000,60
2014/11/18,59,61,59,60,1899000,60
2014/11/19,60,61,59,60,1325000,60
2014/11/20,60,61,59,60,1071000,60
2014/11/21,59,60,57,59,2947000,59
2014/11/25,59,64,59,63,5087000,63
2014/11/26,63,68,62,67,7712000,67
2014/11/27,70,74,68,71,12820000,71
2014/11/28,70,72,67,69,5581000,69
2014/12/01,71,76,69,75,6093000,75
2014/12/02,82,93,78,84,46413000,84
2014/12/03,92,94,85,85,27725000,85
2014/12/04,82,87,76,83,19241000,83
2014/12/05,84,112,84,112,87228000,112
2014/12/08,122,145,113,113,101345000,113
2014/12/09,116,119,88,91,50043000,91
2014/12/10,86,89,81,87,27089000,87
2014/12/11,85,95,84,93,25511000,93
2014/12/12,92,92,76,77,24226000,77
2014/12/15,76,80,74,76,16210000,76
2014/12/16,74,75,69,70,14458000,70
2014/12/17,69,72,67,68,11153000,68
2014/12/18,70,71,65,67,9028000,67
2014/12/19,68,71,66,67,9292000,67
2014/12/22,68,70,66,67,6328000,67
2014/12/24,68,68,63,64,5089000,64
2014/12/25,63,66,62,64,6760000,64
2014/12/26,72,92,70,87,62450000,87
2014/12/29,95,103,81,86,44737000,86
2014/12/30,94,95,82,83,18683000,83
2015/01/05,85,92,84,88,8376000,88
2015/01/06,85,95,83,93,16185000,93
2015/01/07,108,115,100,105,95866000,105
2015/01/08,103,106,96,101,24558000,101
2015/01/09,103,118,98,116,54651000,116
2015/01/13,121,143,117,143,76633000,143
2015/01/14,133,136,119,121,62751000,121
2015/01/15,112,128,99,125,63067000,125
2015/01/16,123,127,110,117,25365000,117
2015/01/19,107,112,105,108,13146000,108
2015/01/20,108,123,105,110,20556000,110
2015/01/21,112,129,112,127,26944000,127
2015/01/22,126,151,113,119,68223000,119
2015/01/23,124,137,118,124,22816000,124
2015/01/26,129,141,125,132,24002000,132
2015/01/27,135,142,128,132,16320000,132
2015/01/28,130,133,123,125,9789000,125
2015/01/29,124,125,117,118,6950000,118
2015/01/30,116,127,113,122,9747000,122
2015/02/02,112,118,109,115,9393000,115
2015/02/03,118,122,115,116,6644000,116
2015/02/04,117,128,117,128,13640000,128
2015/02/05,125,128,106,113,20060000,113
2015/02/06,113,113,108,109,6237000,109
2015/02/09,109,110,104,106,6092000,106
2015/02/10,104,106,100,102,7127000,102
2015/02/12,101,111,99,110,7543000,110
2015/02/13,105,107,100,101,6842000,101
2015/02/16,100,101,95,96,7153000,96
2015/02/17,93,95,91,94,7066000,94
2015/02/18,94,96,91,92,5881000,92
2015/02/19,92,99,91,98,9525000,98
2015/02/20,96,97,94,95,4318000,95
2015/02/23,93,94,92,92,3064000,92
2015/02/24,93,99,93,99,7216000,99
2015/02/25,97,98,95,96,3841000,96
2015/02/26,96,96,93,94,2492000,94
2015/02/27,97,97,94,94,2147000,94
2015/03/02,95,95,92,92,2690000,92
2015/03/03,93,95,91,92,2281000,92
2015/03/04,92,97,91,96,4710000,96
2015/03/05,93,94,90,91,6003000,91
2015/03/06,90,90,85,85,7433000,85
2015/03/09,83,85,81,81,3458000,81
2015/03/10,79,80,77,77,5330000,77
2015/03/11,79,84,79,82,6511000,82
2015/03/12,82,86,81,86,4098000,86
2015/03/13,85,87,83,83,2473000,83
2015/03/16,83,84,81,83,2397000,83
2015/03/17,83,86,83,84,1642000,84
2015/03/18,84,85,83,83,980000,83
2015/03/19,84,84,80,81,2678000,81
2015/03/20,81,83,80,82,2141000,82
2015/03/23,82,83,80,81,1733000,81
2015/03/24,80,81,79,81,2072000,81
2015/03/25,80,80,78,80,2903000,80
2015/03/26,80,80,78,78,1499000,78
2015/03/27,77,78,75,75,2549000,75
2015/03/30,77,77,73,75,3199000,75
2015/03/31,74,75,73,74,2240000,74
2015/04/01,70,71,69,70,5291000,70
2015/04/02,70,77,69,77,9880000,77
2015/04/03,75,77,74,77,2762000,77
2015/04/06,76,77,73,73,2685000,73
2015/04/07,73,75,71,74,3285000,74
2015/04/08,74,76,73,75,1914000,75
2015/04/09,75,76,72,73,1454000,73
2015/04/10,72,73,71,72,2366000,72
2015/04/13,72,73,70,71,3014000,71
2015/04/14,70,71,69,71,1853000,71
2015/04/15,71,73,70,72,1416000,72
2015/04/16,72,74,71,73,2977000,73
2015/04/17,73,76,73,73,3860000,73
2015/04/20,73,76,72,74,3017000,74
2015/04/21,74,83,74,83,14829000,83
2015/04/22,86,87,81,83,9769000,83
2015/04/23,83,83,79,79,4082000,79
2015/04/24,80,82,78,81,3267000,81
2015/04/27,80,81,78,79,2156000,79
2015/04/28,79,79,78,79,1551000,79
2015/04/30,78,78,76,78,2055000,78
2015/05/01,77,78,74,75,1635000,75
2015/05/07,75,77,72,75,2040000,75
2015/05/08,74,75,73,73,1666000,73
2015/05/11,75,81,74,79,4839000,79
2015/05/12,78,81,77,80,2954000,80
2015/05/13,79,79,77,78,1183000,78
2015/05/14,78,82,77,81,2507000,81
2015/05/15,88,90,82,83,17169000,83
2015/05/18,81,81,78,78,4281000,78
2015/05/19,78,79,76,77,2463000,77
2015/05/20,78,78,76,77,1697000,77
2015/05/21,77,80,77,78,4346000,78
2015/05/22,78,79,77,78,1115000,78
2015/05/25,79,79,77,77,1933000,77
2015/05/26,78,78,76,77,1705000,77
2015/05/27,76,77,76,76,936000,76
2015/05/28,76,77,74,75,2802000,75
2015/05/29,75,76,73,74,1219000,74
2015/06/01,74,75,73,74,500000,74
2015/06/02,74,77,74,77,3171000,77
2015/06/03,76,76,74,75,3824000,75
2015/06/04,75,75,74,74,1552000,74
2015/06/05,74,74,73,74,1518000,74
2015/06/08,73,75,72,74,2640000,74
2015/06/09,73,74,72,73,1845000,73
2015/06/10,73,74,72,73,1081000,73
2015/06/11,73,74,72,73,1144000,73
2015/06/12,73,74,72,74,2006000,74
2015/06/15,73,73,70,72,6536000,72
2015/06/16,71,72,71,71,1792000,71
2015/06/17,72,73,72,72,1239000,72
2015/06/18,72,73,71,71,759000,71
2015/06/19,71,72,70,72,1706000,72
2015/06/22,72,72,71,72,800000,72
2015/06/23,71,72,70,71,3139000,71
2015/06/24,71,72,70,71,2557000,71
2015/06/25,71,75,71,75,6026000,75
2015/06/26,74,74,71,72,5595000,72
2015/06/29,70,70,67,69,5852000,69
2015/06/30,68,71,68,70,2997000,70
2015/07/01,70,70,68,70,5585000,70
