2011/01/04,591,606,588,605,114400,605
2011/01/05,614,623,611,623,117100,623
2011/01/06,630,640,624,637,135100,637
2011/01/07,637,638,621,621,65500,621
2011/01/11,641,675,637,668,273400,668
2011/01/12,668,684,666,671,205800,671
2011/01/13,670,675,658,663,137700,663
2011/01/14,657,662,653,653,80100,653
2011/01/17,650,664,650,654,71700,654
2011/01/18,652,664,652,661,47300,661
2011/01/19,663,670,659,661,106200,661
2011/01/20,652,656,643,648,75000,648
2011/01/21,646,646,621,622,96900,622
2011/01/24,619,632,618,632,48800,632
2011/01/25,635,648,635,644,51100,644
2011/01/26,640,642,634,635,41900,635
2011/01/27,629,636,629,632,53400,632
2011/01/28,629,632,620,622,65000,622
2011/01/31,615,622,615,617,76800,617
2011/02/01,617,626,616,623,65300,623
2011/02/02,631,641,625,632,71800,632
2011/02/03,625,630,623,626,33000,626
2011/02/04,641,641,625,635,85000,635
2011/02/07,640,640,628,632,40500,632
2011/02/08,631,639,626,626,43300,626
2011/02/09,630,633,623,625,29700,625
2011/02/10,628,631,624,625,25000,625
2011/02/14,628,634,625,631,28100,631
2011/02/15,634,635,631,631,15200,631
2011/02/16,628,632,627,627,30200,627
2011/02/17,630,630,627,629,34100,629
2011/02/18,625,628,625,628,34000,628
2011/02/21,622,623,618,622,29300,622
2011/02/22,618,619,605,605,47200,605
2011/02/23,595,608,591,599,54600,599
2011/02/24,600,605,592,600,76600,600
2011/02/25,604,612,596,608,48600,608
2011/02/28,601,615,596,613,47500,613
2011/03/01,617,626,615,620,38700,620
2011/03/02,610,610,600,600,40600,600
2011/03/03,602,607,600,606,35400,606
2011/03/04,610,617,608,609,29800,609
2011/03/07,609,613,596,599,42900,599
2011/03/08,599,614,599,602,27200,602
2011/03/09,611,620,600,602,35300,602
2011/03/10,596,601,591,592,49000,592
2011/03/11,590,590,575,575,134000,575
2011/03/14,475,529,475,522,188800,522
2011/03/15,490,492,432,466,157300,466
2011/03/16,450,488,450,481,151400,481
2011/03/17,449,495,449,474,117700,474
2011/03/18,482,520,482,513,86900,513
2011/03/22,560,560,538,541,91200,541
2011/03/23,539,547,531,536,47900,536
2011/03/24,531,536,515,525,88400,525
2011/03/25,551,560,536,545,80800,545
2011/03/28,549,549,529,545,38700,545
2011/03/29,546,560,522,560,57900,560
2011/03/30,563,577,560,577,57700,577
2011/03/31,578,580,563,574,45400,574
2011/04/01,567,580,559,559,38700,559
2011/04/04,562,563,550,554,36800,554
2011/04/05,557,559,529,538,51900,538
2011/04/06,548,548,507,522,94400,522
2011/04/07,517,534,512,513,45100,513
2011/04/08,510,533,509,518,131800,518
2011/04/11,511,525,511,517,50000,517
2011/04/12,512,517,507,511,40500,511
2011/04/13,510,521,510,518,26800,518
2011/04/14,518,529,514,524,28800,524
2011/04/15,520,527,513,518,70400,518
2011/04/18,523,544,518,534,59600,534
2011/04/19,526,533,523,525,31000,525
2011/04/20,537,545,528,540,63600,540
2011/04/21,546,546,530,535,22000,535
2011/04/22,530,544,530,541,29400,541
2011/04/25,542,542,532,533,23600,533
2011/04/26,533,536,525,530,27700,530
2011/04/27,534,540,527,530,31200,530
2011/04/28,537,543,533,541,30100,541
2011/05/02,540,546,540,544,21000,544
2011/05/06,536,539,530,536,22000,536
2011/05/09,542,542,531,537,20700,537
2011/05/10,533,545,528,540,24000,540
2011/05/11,545,545,530,542,27700,542
2011/05/12,528,540,528,534,33100,534
2011/05/13,530,534,503,509,96200,509
2011/05/16,506,525,506,510,32900,510
2011/05/17,511,514,506,511,26900,511
2011/05/18,512,521,511,518,22500,518
2011/05/19,520,533,515,516,31800,516
2011/05/20,514,524,509,509,29800,509
2011/05/23,510,514,507,508,14600,508
2011/05/24,504,525,504,525,74600,525
2011/05/25,530,530,505,514,30200,514
2011/05/26,519,520,515,520,11000,520
2011/05/27,517,517,509,509,20600,509
2011/05/30,507,509,505,508,25600,508
2011/05/31,511,518,506,506,41300,506
2011/06/01,509,511,506,510,23800,510
2011/06/02,502,509,501,506,31300,506
2011/06/03,506,506,493,493,39200,493
2011/06/06,494,498,488,490,22300,490
2011/06/07,493,497,491,496,17800,496
2011/06/08,492,496,487,487,25500,487
2011/06/09,485,488,484,484,13200,484
2011/06/10,484,497,484,486,83300,486
2011/06/13,477,488,477,480,25100,480
2011/06/14,484,494,480,490,23800,490
2011/06/15,490,495,488,492,21300,492
2011/06/16,493,493,482,483,34100,483
2011/06/17,480,485,468,468,52200,468
2011/06/20,469,479,469,471,28400,471
2011/06/21,475,486,475,486,32700,486
2011/06/22,488,508,486,505,44600,505
2011/06/23,504,515,492,509,32100,509
2011/06/24,506,515,506,512,18800,512
2011/06/27,512,512,501,504,36400,504
2011/06/28,508,514,504,506,13200,506
2011/06/29,514,514,506,512,23700,512
2011/06/30,510,514,508,514,25500,514
2011/07/01,513,522,510,514,40100,514
2011/07/04,529,533,527,533,104900,533
2011/07/05,530,534,527,531,44300,531
2011/07/06,528,535,520,535,54000,535
2011/07/07,528,535,520,530,39900,530
2011/07/08,535,538,531,531,27100,531
2011/07/11,525,533,525,531,32800,531
2011/07/12,521,530,520,528,17100,528
2011/07/13,526,532,520,525,34500,525
2011/07/14,521,525,515,515,20800,515
2011/07/15,513,516,512,515,29500,515
2011/07/19,515,519,510,519,26200,519
2011/07/20,515,519,515,516,40200,516
2011/07/21,520,520,510,510,17900,510
2011/07/22,510,524,509,521,30500,521
2011/07/25,521,521,515,515,17000,515
2011/07/26,510,519,510,513,27900,513
2011/07/27,507,508,497,503,34700,503
2011/07/28,494,503,492,501,35000,501
2011/07/29,501,506,490,490,34100,490
2011/08/01,495,509,492,500,32700,500
2011/08/02,493,495,485,489,54300,489
2011/08/03,482,482,470,472,75600,472
2011/08/04,476,483,468,476,60700,476
2011/08/05,450,460,450,456,77500,456
2011/08/08,450,453,441,447,37200,447
2011/08/09,435,454,430,454,96800,454
2011/08/10,462,462,451,458,46700,458
2011/08/11,450,454,445,454,33100,454
2011/08/12,459,463,450,451,32300,451
2011/08/15,456,457,451,453,21900,453
2011/08/16,456,459,454,459,27400,459
2011/08/17,461,489,461,479,64300,479
2011/08/18,482,485,476,477,30500,477
2011/08/19,467,481,467,477,48100,477
2011/08/22,479,486,478,478,46600,478
2011/08/23,486,492,486,492,33200,492
2011/08/24,500,500,485,489,39300,489
2011/08/25,499,503,491,496,43200,496
2011/08/26,492,505,491,500,28600,500
2011/08/29,496,509,496,505,27900,505
2011/08/30,515,519,505,509,50300,509
2011/08/31,503,505,497,499,96600,499
2011/09/01,499,514,499,509,37200,509
2011/09/02,502,506,495,502,39200,502
2011/09/05,493,496,488,492,23300,492
2011/09/06,494,495,487,492,30500,492
2011/09/07,500,507,499,507,31800,507
2011/09/08,508,509,500,505,18300,505
2011/09/09,499,506,497,501,73100,501
2011/09/12,490,494,485,494,33100,494
2011/09/13,501,508,501,502,28400,502
2011/09/14,508,509,485,492,50700,492
2011/09/15,500,509,498,507,30100,507
2011/09/16,508,524,508,524,86100,524
2011/09/20,520,520,500,504,56000,504
2011/09/21,504,504,491,491,46700,491
2011/09/22,487,502,482,494,32300,494
2011/09/26,497,497,480,481,48000,481
2011/09/27,489,516,486,516,49900,516
2011/09/28,513,530,512,530,83100,530
2011/09/29,528,535,522,535,74300,535
2011/09/30,531,546,531,546,64500,546
2011/10/03,542,542,524,534,40500,534
2011/10/04,530,530,502,506,50400,506
2011/10/05,507,514,488,490,42700,490
2011/10/06,497,520,496,518,30800,518
2011/10/07,515,523,515,519,38600,519
2011/10/11,520,523,510,516,46200,516
2011/10/12,507,512,497,502,44300,502
2011/10/13,510,510,486,492,61400,492
2011/10/14,490,497,483,484,56900,484
2011/10/17,492,497,485,496,25800,496
2011/10/18,488,495,487,487,19700,487
2011/10/19,487,496,486,488,26100,488
2011/10/20,489,489,481,481,28400,481
2011/10/21,481,482,476,476,16000,476
2011/10/24,478,482,470,477,27500,477
2011/10/25,477,477,465,470,38900,470
2011/10/26,459,469,454,463,32000,463
2011/10/27,464,477,462,477,27500,477
2011/10/28,485,495,472,476,63000,476
2011/10/31,478,489,475,475,35600,475
2011/11/01,476,486,474,479,31700,479
2011/11/02,470,474,461,471,33400,471
2011/11/04,469,488,464,484,27700,484
2011/11/07,476,476,470,475,18300,475
2011/11/08,467,478,467,477,22400,477
2011/11/09,484,500,484,500,67800,500
2011/11/10,482,483,475,478,17000,478
2011/11/11,478,498,476,491,33600,491
2011/11/14,489,491,478,482,21200,482
2011/11/15,476,480,473,473,16500,473
2011/11/16,472,473,466,470,34700,470
2011/11/17,463,469,445,465,39100,465
2011/11/18,457,497,457,483,63100,483
2011/11/21,486,486,468,473,38600,473
2011/11/22,463,477,462,473,39400,473
2011/11/24,462,470,460,460,47700,460
2011/11/25,459,467,455,455,32000,455
2011/11/28,463,468,455,457,27600,457
2011/11/29,455,469,455,469,34300,469
2011/11/30,466,466,451,459,63300,459
2011/12/01,462,467,457,459,36800,459
2011/12/02,461,469,456,465,44300,465
2011/12/05,462,470,461,468,29400,468
2011/12/06,470,470,456,456,41700,456
2011/12/07,456,466,456,466,33200,466
2011/12/08,463,464,460,461,20700,461
2011/12/09,453,455,451,451,117000,451
2011/12/12,454,455,451,451,31500,451
2011/12/13,450,454,450,452,22900,452
2011/12/14,457,460,453,454,47700,454
2011/12/15,453,456,450,450,28500,450
2011/12/16,454,455,450,450,50100,450
2011/12/19,450,456,444,454,60500,454
2011/12/20,455,455,445,447,54000,447
2011/12/21,449,451,442,443,23600,443
2011/12/22,440,443,440,441,29900,441
2011/12/26,448,448,441,446,24600,446
2011/12/27,441,443,441,441,10300,441
2011/12/28,442,444,440,440,21500,440
2011/12/29,444,445,441,444,14800,444
2011/12/30,445,455,445,452,20200,452
2012/01/04,462,465,459,464,71100,464
2012/01/05,465,465,460,462,31900,462
2012/01/06,465,465,457,458,30600,458
2012/01/10,460,464,450,450,41600,450
2012/01/11,453,456,451,452,6300,452
2012/01/12,456,456,443,443,41700,443
2012/01/13,444,453,444,446,31100,446
2012/01/16,444,445,440,440,29400,440
2012/01/17,442,449,440,445,29500,445
2012/01/18,448,451,443,444,33200,444
2012/01/19,445,451,444,446,37500,446
2012/01/20,445,452,445,450,71800,450
2012/01/23,456,456,436,441,93900,441
2012/01/24,447,447,435,438,121400,438
2012/01/25,444,444,438,442,109500,442
2012/01/26,442,447,442,442,56300,442
2012/01/27,445,449,445,447,35800,447
2012/01/30,449,459,449,453,55500,453
2012/01/31,455,455,445,448,66200,448
2012/02/01,450,450,443,443,44500,443
2012/02/02,443,451,440,446,89800,446
2012/02/03,448,448,445,446,24100,446
2012/02/06,460,460,455,458,104900,458
2012/02/07,461,463,457,461,62300,461
2012/02/08,461,474,456,474,74300,474
2012/02/09,471,475,467,471,52100,471
2012/02/10,469,472,456,464,55000,464
2012/02/13,459,466,459,464,23600,464
2012/02/14,465,470,462,470,35100,470
2012/02/15,468,476,468,473,102800,473
2012/02/16,471,476,465,466,50500,466
2012/02/17,473,475,469,475,56100,475
2012/02/20,476,478,469,472,58600,472
2012/02/21,474,476,471,471,35300,471
2012/02/22,478,494,471,492,112400,492
2012/02/23,492,496,485,494,89200,494
2012/02/24,498,498,486,489,46500,489
2012/02/27,496,496,486,491,76400,491
2012/02/28,488,506,483,503,94000,503
2012/02/29,509,524,500,504,137600,504
2012/03/01,507,515,490,491,71200,491
2012/03/02,499,512,498,512,52700,512
2012/03/05,513,513,500,500,48300,500
2012/03/06,500,503,495,500,32800,500
2012/03/07,494,500,491,500,43700,500
2012/03/08,506,507,503,503,26200,503
2012/03/09,510,515,501,513,112700,513
2012/03/12,515,516,510,510,48100,510
2012/03/13,510,518,506,508,48800,508
2012/03/14,514,519,506,506,44500,506
2012/03/15,515,529,514,524,115600,524
2012/03/16,523,533,520,524,86500,524
2012/03/19,526,536,526,532,74600,532
2012/03/21,535,536,526,526,76300,526
2012/03/22,534,535,526,530,62400,530
2012/03/23,524,537,524,531,61100,531
2012/03/26,531,537,525,532,54600,532
2012/03/27,535,550,533,549,87300,549
2012/03/28,547,547,530,537,64600,537
2012/03/29,531,546,527,543,54400,543
2012/03/30,547,550,541,549,77500,549
2012/04/02,543,551,541,549,125100,549
2012/04/03,543,545,537,537,28700,537
2012/04/04,543,552,541,551,132300,551
2012/04/05,541,551,539,550,83600,550
2012/04/06,540,544,539,539,53100,539
2012/04/09,539,552,539,548,89200,548
2012/04/10,550,560,548,557,97300,557
2012/04/11,548,548,534,542,56400,542
2012/04/12,549,576,549,569,123700,569
2012/04/13,574,579,563,577,74400,577
2012/04/16,575,575,555,555,71600,555
2012/04/17,557,575,556,573,56700,573
2012/04/18,579,580,566,577,120600,577
2012/04/19,568,572,555,557,57400,557
2012/04/20,558,575,558,573,94300,573
2012/04/23,566,572,561,569,63000,569
2012/04/24,569,571,562,569,35300,569
2012/04/25,572,574,569,573,69300,573
2012/04/26,574,583,571,581,87400,581
2012/04/27,581,584,575,583,85200,583
2012/05/01,580,580,569,572,36000,572
2012/05/02,569,578,560,577,56500,577
2012/05/07,558,560,548,553,52000,553
2012/05/08,558,570,555,561,46500,561
2012/05/09,559,559,550,550,55900,550
2012/05/10,550,550,537,545,31500,545
2012/05/11,555,598,555,588,177200,588
2012/05/14,581,598,574,586,83400,586
2012/05/15,583,591,578,587,87700,587
2012/05/16,583,583,562,566,70300,566
2012/05/17,556,570,550,568,50300,568
2012/05/18,554,560,545,556,62300,556
2012/05/21,550,553,535,549,59900,549
2012/05/22,555,559,547,556,49600,556
2012/05/23,550,550,524,528,60200,528
2012/05/24,522,535,519,533,38600,533
2012/05/25,533,545,524,538,35300,538
2012/05/28,533,542,522,540,35600,540
2012/05/29,541,553,536,549,40100,549
2012/05/30,546,548,529,546,35800,546
2012/05/31,537,570,537,568,54100,568
2012/06/01,553,559,544,558,32900,558
2012/06/04,537,550,537,548,60000,548
2012/06/05,552,552,536,546,61300,546
2012/06/06,555,555,541,549,33300,549
2012/06/07,550,561,543,559,51600,559
2012/06/08,559,559,542,546,67300,546
2012/06/11,553,556,546,547,25400,547
2012/06/12,538,544,532,543,52300,543
2012/06/13,541,547,535,544,28800,544
2012/06/14,540,544,536,541,44500,541
2012/06/15,543,560,543,560,39400,560
2012/06/18,570,575,568,571,27000,571
2012/06/19,568,572,563,566,39400,566
2012/06/20,566,571,556,566,44400,566
2012/06/21,569,569,559,568,24900,568
2012/06/22,564,565,558,561,18700,561
2012/06/25,561,566,553,556,24500,556
2012/06/26,552,559,538,551,34700,551
2012/06/27,552,563,547,563,30900,563
2012/06/28,561,570,561,566,37200,566
2012/06/29,561,572,554,569,42600,569
2012/07/02,572,572,562,570,44000,570
2012/07/03,577,589,574,585,76200,585
2012/07/04,585,590,582,590,44900,590
2012/07/05,587,592,582,585,27000,585
2012/07/06,581,588,580,580,26800,580
2012/07/09,570,577,568,575,20300,575
2012/07/10,578,587,571,573,19700,573
2012/07/11,569,574,560,561,15800,561
2012/07/12,563,563,550,550,21300,550
2012/07/13,546,555,546,548,19900,548
2012/07/17,549,553,546,546,30400,546
2012/07/18,550,551,531,535,25100,535
2012/07/19,541,565,541,561,23200,561
2012/07/20,565,570,532,537,55500,537
2012/07/23,531,532,513,513,35200,513
2012/07/24,512,512,496,502,43700,502
2012/07/25,505,523,497,503,119900,503
2012/07/26,499,508,495,507,30800,507
2012/07/27,520,533,507,528,44200,528
2012/07/30,535,535,522,533,20400,533
2012/07/31,526,526,520,523,22200,523
2012/08/01,525,546,523,543,47400,543
2012/08/02,545,550,534,545,23300,545
2012/08/03,539,541,528,535,22600,535
2012/08/06,545,545,534,539,19800,539
2012/08/07,539,545,529,538,16400,538
2012/08/08,541,545,535,541,24200,541
2012/08/09,541,559,536,550,29900,550
2012/08/10,546,551,545,551,16400,551
2012/08/13,543,552,543,549,10800,549
2012/08/14,551,559,545,557,32800,557
2012/08/15,560,560,544,559,20600,559
2012/08/16,551,575,551,571,45900,571
2012/08/17,574,578,560,578,30600,578
2012/08/20,575,575,560,567,27600,567
2012/08/21,560,570,557,568,23700,568
2012/08/22,569,569,554,560,13600,560
2012/08/23,559,560,553,559,16000,559
2012/08/24,555,564,555,558,14900,558
2012/08/27,565,569,556,557,32600,557
2012/08/28,562,562,550,551,29700,551
2012/08/29,554,559,549,553,7800,553
2012/08/30,555,558,550,550,12900,550
2012/08/31,547,549,536,538,21900,538
2012/09/03,542,544,524,534,28100,534
2012/09/04,534,534,519,523,32500,523
2012/09/05,524,531,512,520,17000,520
2012/09/06,519,524,503,509,27400,509
2012/09/07,519,527,516,520,20000,520
2012/09/10,525,525,512,517,20300,517
2012/09/11,512,514,507,513,19700,513
2012/09/12,510,525,508,523,19900,523
2012/09/13,525,535,517,533,19300,533
2012/09/14,542,548,527,547,61200,547
2012/09/18,538,550,536,549,19900,549
2012/09/19,550,559,544,556,31600,556
2012/09/20,548,548,530,531,73800,531
2012/09/21,531,536,514,521,65200,521
2012/09/24,522,533,522,531,35700,531
2012/09/25,534,545,528,543,37400,543
2012/09/26,535,543,532,539,23100,539
2012/09/27,538,546,534,544,24800,544
2012/09/28,547,548,533,542,26100,542
2012/10/01,533,537,520,531,28700,531
2012/10/02,530,534,519,520,17800,520
2012/10/03,524,525,510,510,33900,510
2012/10/04,515,517,504,512,17500,512
2012/10/05,518,518,506,514,19000,514
2012/10/09,520,535,520,527,53800,527
2012/10/10,518,525,509,511,27100,511
2012/10/11,509,515,502,511,28600,511
2012/10/12,514,529,511,514,42000,514
2012/10/15,509,531,509,530,18100,530
2012/10/16,531,532,524,528,15200,528
2012/10/17,535,535,524,526,29400,526
2012/10/18,511,519,511,517,76900,517
2012/10/19,515,519,515,517,43200,517
2012/10/22,512,518,507,514,49100,514
2012/10/23,514,519,506,517,41600,517
2012/10/24,507,510,506,508,31900,508
2012/10/25,509,510,505,510,43300,510
2012/10/26,511,513,499,504,49900,504
2012/10/29,502,506,496,504,67700,504
2012/10/30,506,509,495,497,126500,497
2012/10/31,495,501,493,497,74200,497
2012/11/01,514,514,500,507,77900,507
2012/11/02,510,511,499,502,72100,502
2012/11/05,500,505,498,500,31800,500
2012/11/06,495,500,492,494,58900,494
2012/11/07,499,499,483,483,69200,483
2012/11/08,478,485,474,477,53800,477
2012/11/09,471,479,468,474,42800,474
2012/11/12,482,485,469,469,46300,469
2012/11/13,470,476,466,471,33100,471
2012/11/14,466,473,460,461,65700,461
2012/11/15,461,469,457,468,46100,468
2012/11/16,471,483,469,482,40100,482
2012/11/19,489,498,487,497,68400,497
2012/11/20,500,500,484,490,64400,490
2012/11/21,492,495,488,491,60600,491
2012/11/22,495,499,493,499,51900,499
2012/11/26,507,510,503,505,61900,505
2012/11/27,510,510,501,505,62600,505
2012/11/28,506,506,493,497,29300,497
2012/11/29,497,503,497,500,22600,500
2012/11/30,501,504,491,492,55900,492
2012/12/03,495,500,492,496,36600,496
2012/12/04,499,501,495,500,31800,500
2012/12/05,502,505,498,505,33500,505
2012/12/06,506,517,505,516,86700,516
2012/12/07,501,509,500,504,176700,504
2012/12/10,500,501,498,498,46400,498
2012/12/11,499,504,498,502,43300,502
2012/12/12,507,507,502,503,50300,503
2012/12/13,503,505,501,501,72900,501
2012/12/14,501,504,498,498,146200,498
2012/12/17,509,510,503,503,75500,503
2012/12/18,502,510,502,506,110700,506
2012/12/19,509,524,509,522,168000,522
2012/12/20,518,529,515,519,177900,519
2012/12/21,523,524,511,519,101200,519
2012/12/25,530,534,523,528,114000,528
2012/12/26,531,536,527,532,80900,532
2012/12/27,533,540,531,536,96700,536
2012/12/28,539,542,531,537,103300,537
2013/01/04,550,553,541,547,137000,547
2013/01/07,549,553,539,542,84300,542
2013/01/08,546,547,535,542,83600,542
2013/01/09,542,545,537,542,63200,542
2013/01/10,542,559,540,555,128100,555
2013/01/11,562,574,559,572,128000,572
2013/01/15,576,578,565,574,137900,574
2013/01/16,575,576,559,563,76300,563
2013/01/17,563,575,558,569,112000,569
2013/01/18,572,576,569,574,142100,574
2013/01/21,576,586,570,584,171800,584
2013/01/22,586,586,570,575,79900,575
2013/01/23,569,578,565,571,50000,571
2013/01/24,570,579,567,579,98300,579
2013/01/25,580,583,572,575,131200,575
2013/01/28,577,579,567,567,72600,567
2013/01/29,567,571,565,566,70100,566
2013/01/30,562,569,560,565,100500,565
2013/01/31,570,570,562,567,46800,567
2013/02/01,573,573,560,562,135700,562
2013/02/04,569,569,560,560,113800,560
2013/02/05,556,565,551,561,119200,561
2013/02/06,560,560,550,552,207600,552
2013/02/07,552,557,540,547,120500,547
2013/02/08,551,551,539,541,106300,541
2013/02/12,539,550,536,537,105000,537
2013/02/13,535,543,524,525,104000,525
2013/02/14,514,535,513,532,152300,532
2013/02/15,528,543,524,542,127500,542
2013/02/18,550,563,547,563,146900,563
2013/02/19,562,572,560,564,129100,564
2013/02/20,568,570,559,563,70700,563
2013/02/21,566,570,558,560,51300,560
2013/02/22,555,557,548,550,68600,550
2013/02/25,560,571,560,568,97100,568
2013/02/26,561,562,552,556,60200,556
2013/02/27,554,556,551,552,65300,552
2013/02/28,553,573,553,573,97600,573
2013/03/01,566,569,564,565,49100,565
2013/03/04,572,573,564,564,210600,564
2013/03/05,569,572,562,564,63800,564
2013/03/06,568,568,562,565,39400,565
2013/03/07,568,571,566,570,102400,570
2013/03/08,571,580,570,573,334000,573
2013/03/11,573,574,565,569,119800,569
2013/03/12,609,610,593,595,480500,595
2013/03/13,601,630,596,626,321700,626
2013/03/14,630,636,613,621,289200,621
2013/03/15,628,632,618,631,226400,631
2013/03/18,630,630,622,624,96900,624
2013/03/19,624,627,621,622,103800,622
2013/03/21,624,632,618,621,145600,621
2013/03/22,619,620,606,606,70500,606
2013/03/25,606,613,603,607,85600,607
2013/03/26,600,619,600,618,107900,618
2013/03/27,611,618,606,608,64100,608
2013/03/28,606,606,597,605,61700,605
2013/03/29,609,609,596,601,64800,601
2013/04/01,594,594,561,561,106800,561
2013/04/02,569,569,547,562,138500,562
2013/04/03,562,587,562,586,75900,586
2013/04/04,589,605,570,605,87700,605
2013/04/05,610,625,609,616,243400,616
2013/04/08,620,639,609,628,192800,628
2013/04/09,635,635,610,613,93900,613
2013/04/10,623,623,610,618,76000,618
2013/04/11,615,625,613,619,97300,619
2013/04/12,613,624,613,621,61000,621
2013/04/15,615,627,615,623,50200,623
2013/04/16,610,624,607,614,130600,614
2013/04/17,616,617,610,613,43100,613
2013/04/18,610,614,609,610,66100,610
2013/04/19,610,617,606,614,58000,614
2013/04/22,614,634,614,628,134000,628
2013/04/23,625,637,625,631,52000,631
2013/04/24,635,662,635,659,225400,659
2013/04/25,659,664,650,659,90900,659
2013/04/26,661,662,645,646,84700,646
2013/04/30,656,658,645,649,49400,649
2013/05/01,645,646,635,642,41400,642
2013/05/02,642,644,636,642,38800,642
2013/05/07,660,686,660,685,185200,685
2013/05/08,688,692,669,672,94000,672
2013/05/09,682,687,656,661,86400,661
2013/05/10,678,687,668,671,124700,671
2013/05/13,681,700,680,697,177200,697
2013/05/14,700,740,698,736,319300,736
2013/05/15,756,770,736,754,303300,754
2013/05/16,765,765,727,744,164600,744
2013/05/17,737,749,731,736,123500,736
2013/05/20,738,744,721,730,145000,730
2013/05/21,725,730,714,722,119700,722
2013/05/22,722,732,716,719,101300,719
2013/05/23,716,723,670,670,167900,670
2013/05/24,670,691,665,677,181200,677
2013/05/27,670,670,636,636,116300,636
2013/05/28,620,653,620,647,106700,647
2013/05/29,659,662,640,645,94600,645
2013/05/30,635,663,631,646,242800,646
2013/05/31,646,661,642,646,173200,646
2013/06/03,647,647,630,633,91500,633
2013/06/04,620,652,613,652,131500,652
2013/06/05,654,668,643,643,79000,643
2013/06/06,631,635,600,601,174700,601
2013/06/07,585,600,565,586,144500,586
2013/06/10,626,649,620,638,214200,638
2013/06/11,640,650,620,621,126200,621
2013/06/12,621,622,596,608,98200,608
2013/06/13,609,609,578,579,106300,579
2013/06/14,590,612,590,601,216900,601
2013/06/17,631,644,612,625,179800,625
2013/06/18,625,638,622,624,82200,624
2013/06/19,644,647,632,642,69000,642
2013/06/20,643,643,619,619,109100,619
2013/06/21,605,609,591,598,228800,598
2013/06/24,613,613,594,597,60000,597
2013/06/25,597,599,579,593,76300,593
2013/06/26,603,605,578,579,51000,579
2013/06/27,592,595,580,595,68800,595
2013/06/28,610,620,609,619,99900,619
2013/07/01,624,624,611,624,51700,624
2013/07/02,620,633,620,633,92700,633
2013/07/03,644,650,641,645,129400,645
2013/07/04,647,648,641,644,80300,644
2013/07/05,644,649,642,646,74300,646
2013/07/08,650,650,626,627,151000,627
2013/07/09,642,658,637,654,136200,654
2013/07/10,664,666,658,662,92100,662
2013/07/11,663,667,654,660,83800,660
2013/07/12,660,668,656,659,72000,659
2013/07/16,680,703,677,690,320900,690
2013/07/17,698,714,696,713,262200,713
2013/07/18,757,767,725,731,671700,731
2013/07/19,735,739,702,724,282200,724
2013/07/22,723,723,694,709,168900,709
2013/07/23,701,723,701,718,89800,718
2013/07/24,722,729,710,713,135500,713
2013/07/25,719,719,701,704,79400,704
2013/07/26,689,693,680,682,104600,682
2013/07/29,659,666,650,650,104200,650
2013/07/30,650,673,650,668,77500,668
2013/07/31,667,680,650,669,100000,669
2013/08/01,650,665,650,665,129600,665
2013/08/02,680,680,668,679,91800,679
2013/08/05,682,689,678,687,64000,687
2013/08/06,691,697,671,696,109000,696
2013/08/07,696,697,675,675,94100,675
2013/08/08,664,673,639,639,130300,639
2013/08/09,642,655,642,648,50400,648
2013/08/12,646,669,642,665,72400,665
2013/08/13,671,671,661,664,51400,664
2013/08/14,665,672,661,668,31800,668
2013/08/15,661,663,657,659,38400,659
2013/08/16,650,658,647,651,36000,651
2013/08/19,650,657,646,655,40700,655
2013/08/20,645,655,644,644,50800,644
2013/08/21,640,644,633,639,50100,639
2013/08/22,638,661,633,656,103200,656
2013/08/23,657,658,644,647,51900,647
2013/08/26,653,655,630,631,97400,631
2013/08/27,632,645,632,640,29400,640
2013/08/28,622,633,621,628,41100,628
2013/08/29,623,635,623,630,33200,630
2013/08/30,635,635,611,612,74200,612
2013/09/02,611,616,608,609,59200,609
2013/09/03,610,633,610,626,86800,626
2013/09/04,626,640,624,638,35100,638
2013/09/05,637,640,627,634,32000,634
2013/09/06,638,640,628,631,40400,631
2013/09/09,649,653,640,646,42600,646
2013/09/10,650,657,648,654,67700,654
2013/09/11,659,659,654,655,50800,655
2013/09/12,650,675,650,661,55400,661
2013/09/13,655,673,655,666,119400,666
2013/09/17,664,670,656,658,38100,658
2013/09/18,661,668,655,666,39200,666
2013/09/19,666,675,660,674,52600,674
2013/09/20,677,687,673,680,71300,680
2013/09/24,679,685,676,683,38300,683
2013/09/25,682,687,680,686,39300,686
2013/09/26,685,685,659,684,50100,684
2013/09/27,680,686,675,681,43900,681
2013/09/30,677,680,654,666,40100,666
2013/10/01,658,670,655,662,33700,662
2013/10/02,660,665,642,643,56400,643
2013/10/03,633,649,633,639,52500,639
2013/10/04,634,644,630,635,33400,635
2013/10/07,635,643,628,633,37200,633
2013/10/08,625,644,624,631,78900,631
2013/10/09,624,653,623,652,40600,652
2013/10/10,649,649,640,642,35900,642
2013/10/11,646,668,646,662,98400,662
2013/10/15,662,667,658,659,44000,659
2013/10/16,651,661,651,661,52500,661
2013/10/17,661,668,657,662,64500,662
2013/10/18,660,666,655,659,66900,659
2013/10/21,650,651,639,641,254200,641
2013/10/22,638,644,638,640,87200,640
2013/10/23,643,648,627,628,127100,628
2013/10/24,627,641,623,639,74100,639
2013/10/25,639,640,627,628,92200,628
2013/10/28,628,637,626,635,84300,635
2013/10/29,629,631,624,625,95500,625
2013/10/30,628,632,625,626,112200,626
2013/10/31,624,631,623,625,72100,625
2013/11/01,635,637,629,630,146700,630
2013/11/05,630,643,627,642,145800,642
2013/11/06,643,648,638,642,141600,642
2013/11/07,647,648,635,639,83200,639
2013/11/08,635,649,633,644,81000,644
2013/11/11,658,658,647,653,148700,653
2013/11/12,655,659,650,657,96400,657
2013/11/13,647,660,644,656,135200,656
2013/11/14,658,666,658,664,139900,664
2013/11/15,667,671,667,668,169700,668
2013/11/18,668,680,668,679,163300,679
2013/11/19,706,724,704,712,656600,712
2013/11/20,714,721,713,718,270200,718
2013/11/21,719,731,716,731,278700,731
2013/11/22,735,738,718,721,270200,721
2013/11/25,727,729,715,722,124000,722
2013/11/26,715,730,715,730,128100,730
2013/11/27,737,765,737,748,605300,748
2013/11/28,750,757,739,743,172000,743
2013/11/29,741,744,730,736,140600,736
2013/12/02,735,737,725,730,143700,730
2013/12/03,736,736,723,733,122400,733
2013/12/04,724,733,720,728,177100,728
2013/12/05,725,732,725,728,210800,728
2013/12/06,725,750,723,743,217300,743
2013/12/09,749,749,738,742,78700,742
2013/12/10,742,745,738,740,92100,740
2013/12/11,739,739,729,730,83600,730
2013/12/12,734,759,728,755,316100,755
2013/12/13,760,777,746,774,641400,774
2013/12/16,771,792,771,779,329400,779
2013/12/17,780,790,763,768,179500,768
2013/12/18,772,788,763,772,238400,772
2013/12/19,780,780,768,772,184400,772
2013/12/20,767,772,760,769,196600,769
2013/12/24,771,772,748,749,221400,749
2013/12/25,746,763,746,762,156900,762
2013/12/26,767,787,757,782,131300,782
2013/12/27,787,795,782,793,127100,793
2013/12/30,799,844,797,836,319700,836
2014/01/06,835,835,813,825,184000,825
2014/01/07,821,826,814,817,121800,817
2014/01/08,828,875,826,869,312900,869
2014/01/09,856,864,850,860,159800,860
2014/01/10,863,865,845,860,205900,860
2014/01/14,845,847,825,836,127200,836
2014/01/15,850,857,842,851,140600,851
2014/01/16,854,859,847,847,130200,847
2014/01/17,842,865,839,862,108500,862
2014/01/20,863,868,856,865,77600,865
2014/01/21,860,875,857,867,115000,867
2014/01/22,866,870,859,868,73500,868
2014/01/23,873,873,852,852,107700,852
2014/01/24,835,839,823,831,173800,831
2014/01/27,801,817,798,802,175400,802
2014/01/28,801,816,801,805,119700,805
2014/01/29,815,830,808,830,84800,830
2014/01/30,814,820,802,807,114600,807
2014/01/31,806,815,790,800,93200,800
2014/02/03,796,800,779,785,88900,785
2014/02/04,695,749,695,722,296200,722
2014/02/05,723,745,719,735,137900,735
2014/02/06,734,789,729,745,235400,745
2014/02/07,791,792,767,777,175700,777
2014/02/10,785,800,775,784,92500,784
2014/02/12,787,807,787,804,131500,804
2014/02/13,797,798,775,778,107500,778
2014/02/14,795,808,777,804,218200,804
2014/02/17,809,816,791,814,122900,814
2014/02/18,817,835,808,832,119500,832
2014/02/19,825,835,820,834,96100,834
2014/02/20,835,835,812,825,89900,825
2014/02/21,830,836,825,834,72300,834
2014/02/24,825,845,821,827,66900,827
2014/02/25,842,844,834,841,67300,841
2014/02/26,823,839,823,828,63400,828
2014/02/27,820,832,815,820,45800,820
2014/02/28,818,820,809,819,70200,819
2014/03/03,820,820,791,809,77700,809
2014/03/04,810,833,803,812,139200,812
2014/03/05,824,837,824,833,83600,833
2014/03/06,836,845,828,845,85600,845
2014/03/07,847,855,835,843,94700,843
2014/03/10,838,843,832,839,68300,839
2014/03/11,840,850,839,849,82900,849
2014/03/12,834,836,825,825,57700,825
2014/03/13,825,839,819,831,63700,831
2014/03/14,804,820,804,805,194900,805
2014/03/17,796,808,791,794,77300,794
2014/03/18,805,836,805,827,88500,827
2014/03/19,829,832,811,815,99800,815
2014/03/20,822,823,804,805,81900,805
2014/03/24,816,850,815,834,200400,834
2014/03/25,850,875,844,847,233300,847
2014/03/26,861,865,836,841,163800,841
2014/03/27,849,859,825,855,131300,855
2014/03/28,859,862,829,839,150300,839
2014/03/31,844,851,836,849,166400,849
2014/04/01,855,878,848,878,241800,878
2014/04/02,881,903,881,882,304900,882
2014/04/03,890,890,869,881,183300,881
2014/04/04,880,905,878,904,228100,904
2014/04/07,903,904,882,890,128100,890
2014/04/08,885,888,856,858,130500,858
2014/04/09,848,868,837,854,194900,854
2014/04/10,863,870,842,848,112900,848
2014/04/11,833,842,828,830,76100,830
2014/04/14,822,839,822,828,61000,828
2014/04/15,835,844,824,827,66100,827
2014/04/16,839,859,835,857,73900,857
2014/04/17,857,866,851,859,56400,859
2014/04/18,861,873,860,872,54700,872
2014/04/21,871,873,854,860,59800,860
2014/04/22,866,866,850,851,57600,851
2014/04/23,859,860,853,859,43500,859
2014/04/24,855,869,849,861,50100,861
2014/04/25,865,865,849,860,43600,860
2014/04/28,858,865,849,864,54900,864
2014/04/30,869,869,856,858,48700,858
2014/05/01,870,877,851,874,132800,874
2014/05/02,859,859,826,841,190400,841
2014/05/07,835,835,808,815,151700,815
2014/05/08,824,841,819,839,98900,839
2014/05/09,830,855,830,846,108800,846
2014/05/12,835,845,823,823,82900,823
2014/05/13,844,845,832,836,43900,836
2014/05/14,832,841,824,831,43500,831
2014/05/15,820,829,808,827,46400,827
2014/05/16,808,809,795,801,120100,801
2014/05/19,804,813,796,797,87400,797
2014/05/20,809,809,797,797,74400,797
2014/05/21,793,801,785,794,39200,794
2014/05/22,800,805,789,798,60100,798
2014/05/23,805,814,800,804,76600,804
2014/05/26,818,824,808,823,56000,823
2014/05/27,822,829,812,814,55400,814
2014/05/28,823,823,807,809,78300,809
2014/05/29,806,817,802,813,49300,813
2014/05/30,812,820,810,815,51200,815
2014/06/02,822,825,814,821,55000,821
2014/06/03,823,824,817,817,78300,817
2014/06/04,818,830,814,823,58900,823
2014/06/05,830,845,814,815,142400,815
2014/06/06,816,832,815,827,102100,827
2014/06/09,838,838,826,828,61900,828
2014/06/10,831,838,826,826,74300,826
2014/06/11,820,840,820,839,96700,839
2014/06/12,834,834,821,823,79600,823
2014/06/13,826,848,820,845,170200,845
2014/06/16,842,842,825,829,86200,829
2014/06/17,829,831,822,824,75400,824
2014/06/18,825,838,825,831,67600,831
2014/06/19,836,843,828,838,137200,838
2014/06/20,830,842,827,841,86800,841
2014/06/23,843,850,841,849,39800,849
2014/06/24,845,868,841,862,71700,862
2014/06/25,867,867,848,850,70700,850
2014/06/26,852,853,840,840,48300,840
2014/06/27,846,851,825,832,90600,832
2014/06/30,840,879,840,876,239500,876
2014/07/01,867,885,865,875,179400,875
2014/07/02,875,878,867,871,123900,871
2014/07/03,875,884,871,878,149100,878
2014/07/04,878,886,873,884,184500,884
2014/07/07,889,905,885,899,327500,899
2014/07/08,900,932,885,922,460600,922
2014/07/09,916,920,907,916,152500,916
2014/07/10,916,917,901,903,110100,903
2014/07/11,899,914,899,905,108000,905
2014/07/14,906,924,904,922,91900,922
2014/07/15,924,937,918,928,137700,928
2014/07/16,925,937,924,932,131300,932
2014/07/17,937,959,930,955,378500,955
2014/07/18,941,954,915,950,139700,950
2014/07/22,950,972,945,960,167600,960
2014/07/23,961,966,937,962,139300,962
2014/07/24,958,962,940,944,118500,944
2014/07/25,949,961,943,958,82000,958
2014/07/28,961,964,952,958,49300,958
2014/07/29,952,958,946,955,86200,955
2014/07/30,953,960,947,951,72900,951
2014/07/31,950,950,926,930,136400,930
2014/08/01,925,957,921,936,202100,936
2014/08/04,936,949,925,941,117800,941
2014/08/05,951,958,938,939,150000,939
2014/08/06,930,937,920,930,160700,930
2014/08/07,937,962,931,961,242500,961
2014/08/08,952,957,931,939,116100,939
2014/08/11,940,959,933,957,83300,957
2014/08/12,959,961,949,950,119800,950
2014/08/13,945,960,941,956,132200,956
2014/08/14,958,968,953,958,85400,958
2014/08/15,958,966,951,962,92300,962
2014/08/18,957,965,954,962,65500,962
2014/08/19,966,982,966,976,141300,976
2014/08/20,981,989,967,967,143200,967
2014/08/21,974,976,956,967,118000,967
2014/08/22,967,971,951,963,115900,963
2014/08/25,968,973,957,961,57800,961
2014/08/26,959,960,948,953,70900,953
2014/08/27,947,960,942,948,87200,948
2014/08/28,940,949,930,946,93800,946
2014/08/29,938,944,932,935,57000,935
2014/09/01,931,946,931,943,73000,943
2014/09/02,947,947,922,927,183900,927
2014/09/03,927,928,919,923,189000,923
2014/09/04,919,926,915,915,157500,915
2014/09/05,915,924,904,906,173700,906
2014/09/08,912,919,903,910,126600,910
2014/09/09,910,914,893,895,141300,895
2014/09/10,890,911,889,910,143900,910
2014/09/11,913,918,894,894,114800,894
2014/09/12,902,920,895,916,266000,916
2014/09/16,925,939,916,932,182600,932
2014/09/17,928,946,913,916,101400,916
2014/09/18,916,925,914,919,133700,919
2014/09/19,920,934,914,927,252500,927
2014/09/22,939,942,923,940,129500,940
2014/09/24,928,953,924,951,152400,951
2014/09/25,952,954,938,947,117000,947
2014/09/26,947,948,928,936,99600,936
2014/09/29,938,940,926,932,96500,932
2014/09/30,950,987,946,980,510800,980
2014/10/01,986,1029,985,998,595000,998
2014/10/02,990,991,943,952,340500,952
2014/10/03,942,981,942,973,253300,973
2014/10/06,987,1005,987,988,156000,988
2014/10/07,988,1010,985,994,190500,994
2014/10/08,979,994,966,988,160400,988
2014/10/09,988,990,970,972,122000,972
2014/10/10,942,954,939,945,158400,945
2014/10/14,930,949,930,939,178700,939
2014/10/15,946,963,931,948,161800,948
2014/10/16,936,937,902,926,339000,926
2014/10/17,925,925,889,893,242800,893
2014/10/20,922,946,912,946,168100,946
2014/10/21,955,955,933,944,167700,944
2014/10/22,955,962,943,959,126000,959
2014/10/23,948,958,941,956,117000,956
2014/10/24,960,970,954,961,122000,961
2014/10/27,970,978,959,970,136400,970
2014/10/28,964,970,955,964,165400,964
2014/10/29,979,1008,926,939,538200,939
2014/10/30,911,928,894,909,670200,909
2014/10/31,924,960,918,954,365300,954
2014/11/04,960,999,960,983,413100,983
2014/11/05,983,992,960,963,290200,963
2014/11/06,975,976,950,953,142600,953
2014/11/07,955,961,946,953,101100,953
2014/11/10,950,956,941,955,71600,955
2014/11/11,963,971,954,971,212700,971
2014/11/12,973,981,949,953,146500,953
2014/11/13,947,965,945,965,115500,965
2014/11/14,970,975,956,963,111300,963
2014/11/17,967,968,936,943,142100,943
2014/11/18,945,960,945,959,58800,959
2014/11/19,972,985,961,963,104700,963
2014/11/20,976,980,961,975,125500,975
2014/11/21,970,980,962,970,121400,970
2014/11/25,980,980,964,972,117200,972
2014/11/26,968,987,965,979,100400,979
2014/11/27,985,987,968,968,57700,968
2014/11/28,968,973,947,957,219400,957
2014/12/01,961,973,961,965,127000,965
2014/12/02,955,968,946,966,174000,966
2014/12/03,967,970,955,960,62900,960
2014/12/04,968,973,960,968,95100,968
2014/12/05,969,970,946,951,192600,951
2014/12/08,959,959,940,953,131300,953
2014/12/09,942,949,933,934,162100,934
2014/12/10,922,943,922,928,131700,928
2014/12/11,915,923,906,920,147000,920
2014/12/12,912,928,910,910,195600,910
2014/12/15,910,917,909,909,66500,909
2014/12/16,906,911,884,891,207600,891
2014/12/17,889,900,880,880,112100,880
2014/12/18,905,907,886,887,140900,887
2014/12/19,907,920,900,919,153100,919
2014/12/22,929,931,917,927,162400,927
2014/12/24,937,941,928,938,122000,938
2014/12/25,940,940,928,932,65700,932
2014/12/26,931,943,929,942,56500,942
2014/12/29,943,952,938,949,101100,949
2014/12/30,950,950,937,938,65700,938
2015/01/05,940,948,929,941,75100,941
2015/01/06,936,936,914,915,137700,915
2015/01/07,923,939,922,937,132500,937
2015/01/08,940,950,939,950,126700,950
2015/01/09,950,953,943,947,162500,947
2015/01/13,947,949,931,944,158200,944
2015/01/14,930,939,916,928,180100,928
2015/01/15,928,938,920,935,131500,935
2015/01/16,911,921,903,912,166700,912
2015/01/19,920,930,917,928,57000,928
2015/01/20,933,946,928,946,96200,946
2015/01/21,946,948,935,937,121200,937
2015/01/22,941,941,927,940,74700,940
2015/01/23,950,959,938,957,137800,957
2015/01/26,956,962,950,961,86800,961
2015/01/27,965,981,961,974,203800,974
2015/01/28,973,984,966,981,115900,981
2015/01/29,977,978,955,960,98600,960
2015/01/30,965,974,961,967,74400,967
2015/02/02,953,969,945,957,115000,957
2015/02/03,960,962,941,946,101500,946
2015/02/04,958,975,957,963,109800,963
2015/02/05,964,968,955,960,93300,960
2015/02/06,976,1010,976,1003,339300,1003
2015/02/09,1006,1013,996,1010,209900,1010
2015/02/10,1000,1008,996,1007,121900,1007
2015/02/12,1010,1019,1004,1009,182600,1009
2015/02/13,1009,1022,1002,1017,129900,1017
2015/02/16,1017,1031,1015,1024,128600,1024
2015/02/17,1027,1048,1022,1045,172800,1045
2015/02/18,1053,1054,1040,1044,144300,1044
2015/02/19,1047,1057,1032,1054,156300,1054
2015/02/20,1061,1083,1050,1075,233500,1075
2015/02/23,1090,1104,1080,1085,211900,1085
2015/02/24,1083,1083,1050,1057,264100,1057
2015/02/25,1062,1070,1029,1036,252600,1036
2015/02/26,1038,1059,1035,1055,138700,1055
2015/02/27,1055,1071,1055,1060,93900,1060
2015/03/02,1052,1066,1045,1048,151900,1048
2015/03/03,1054,1068,1051,1057,131100,1057
2015/03/04,1053,1053,1028,1036,163500,1036
2015/03/05,1037,1063,1037,1058,113700,1058
2015/03/06,1067,1074,1061,1071,117200,1071
2015/03/09,1068,1069,1045,1052,174500,1052
2015/03/10,1067,1073,1060,1064,107900,1064
2015/03/11,1064,1081,1062,1076,86200,1076
2015/03/12,1079,1085,1072,1079,79600,1079
2015/03/13,1100,1103,1087,1096,238000,1096
2015/03/16,1102,1107,1090,1105,103700,1105
2015/03/17,1111,1115,1091,1109,121200,1109
2015/03/18,1104,1115,1096,1115,81700,1115
2015/03/19,1115,1115,1087,1097,125600,1097
2015/03/20,1093,1096,1086,1094,128100,1094
2015/03/23,1100,1100,1086,1089,58200,1089
2015/03/24,1086,1094,1081,1094,68500,1094
2015/03/25,1087,1100,1082,1088,61400,1088
2015/03/26,1080,1088,1071,1075,94400,1075
2015/03/27,1064,1088,1053,1061,72800,1061
2015/03/30,1070,1072,1057,1067,58000,1067
2015/03/31,1079,1094,1065,1075,73700,1075
2015/04/01,1061,1077,1055,1059,88400,1059
2015/04/02,1052,1099,1052,1095,132900,1095
2015/04/03,1099,1099,1080,1089,54200,1089
2015/04/06,1086,1086,1066,1075,55100,1075
2015/04/07,1078,1086,1070,1080,50700,1080
2015/04/08,1098,1099,1079,1086,63700,1086
2015/04/09,1076,1095,1072,1088,54000,1088
2015/04/10,1084,1098,1082,1092,92500,1092
2015/04/13,1092,1092,1070,1075,67500,1075
2015/04/14,1075,1089,1070,1079,59600,1079
2015/04/15,1080,1093,1064,1067,84900,1067
2015/04/16,1058,1089,1058,1084,66400,1084
2015/04/17,1084,1084,1067,1067,79800,1067
2015/04/20,1067,1087,1061,1062,100800,1062
2015/04/21,1057,1072,1053,1064,73100,1064
2015/04/22,1064,1079,1059,1071,41700,1071
2015/04/23,1071,1088,1067,1079,78400,1079
2015/04/24,1080,1082,1072,1074,34700,1074
2015/04/27,1074,1084,1068,1083,55700,1083
2015/04/28,1083,1083,1067,1071,58500,1071
2015/04/30,1065,1087,1041,1048,151100,1048
2015/05/01,1060,1142,1057,1133,410000,1133
2015/05/07,1142,1209,1140,1187,457000,1187
2015/05/08,1200,1230,1186,1219,342400,1219
2015/05/11,1245,1275,1229,1271,340100,1271
2015/05/12,1261,1295,1234,1290,295500,1290
2015/05/13,1280,1358,1280,1349,401200,1349
2015/05/14,1347,1347,1291,1335,277900,1335
2015/05/15,1335,1335,1296,1307,155400,1307
2015/05/18,1309,1340,1301,1317,136900,1317
2015/05/19,1326,1338,1313,1321,114400,1321
2015/05/20,1316,1325,1297,1317,134800,1317
2015/05/21,1310,1315,1293,1295,105700,1295
2015/05/22,1290,1314,1285,1304,84500,1304
2015/05/25,1293,1312,1286,1306,89800,1306
2015/05/26,1306,1310,1297,1305,67500,1305
2015/05/27,1312,1324,1306,1317,69000,1317
2015/05/28,1309,1318,1296,1308,72500,1308
2015/05/29,1301,1312,1291,1302,89800,1302
2015/06/01,1302,1310,1291,1303,66800,1303
2015/06/02,1295,1319,1292,1304,147500,1304
2015/06/03,1295,1296,1263,1280,176800,1280
2015/06/04,1279,1305,1266,1291,114600,1291
2015/06/05,1276,1290,1271,1285,79500,1285
2015/06/08,1273,1298,1272,1287,90800,1287
2015/06/09,1300,1358,1292,1330,508000,1330
2015/06/10,1360,1370,1323,1325,228200,1325
2015/06/11,1301,1345,1301,1332,162700,1332
2015/06/12,1319,1332,1304,1310,214900,1310
2015/06/15,1296,1315,1286,1310,121600,1310
2015/06/16,1300,1304,1274,1274,148200,1274
2015/06/17,1266,1287,1265,1270,136900,1270
2015/06/18,1264,1272,1250,1250,102100,1250
2015/06/19,1255,1314,1255,1303,206700,1303
2015/06/22,1300,1310,1271,1286,145000,1286
2015/06/23,1300,1338,1289,1324,185600,1324
2015/06/24,1333,1340,1302,1310,136000,1310
2015/06/25,1302,1329,1302,1315,87600,1315
2015/06/26,1318,1330,1298,1321,77500,1321
2015/06/29,1274,1313,1274,1299,128500,1299
2015/06/30,1290,1310,1281,1295,78000,1295
2015/07/01,1295,1298,1275,1296,49500,1296
