2011/01/04,3980,4020,3970,4010,44600,4010
2011/01/05,4020,4025,3975,4000,57500,4000
2011/01/06,4005,4020,3990,3995,35500,3995
2011/01/07,3995,4050,3990,4030,48900,4030
2011/01/11,4045,4045,4010,4040,31600,4040
2011/01/12,4055,4080,4020,4025,64000,4025
2011/01/13,4060,4075,4025,4075,47600,4075
2011/01/14,4040,4075,4040,4040,33200,4040
2011/01/17,4050,4050,3965,3975,70000,3975
2011/01/18,3990,4040,3990,4020,42700,4020
2011/01/19,4020,4020,3960,3995,43600,3995
2011/01/20,4000,4000,3970,3980,27000,3980
2011/01/21,3985,3995,3925,3930,56600,3930
2011/01/24,3910,3925,3885,3920,31600,3920
2011/01/25,3915,3925,3865,3900,53600,3900
2011/01/26,3865,3865,3810,3815,69100,3815
2011/01/27,3805,3815,3790,3800,59200,3800
2011/01/28,3810,3820,3770,3775,54200,3775
2011/01/31,3770,3770,3735,3750,40000,3750
2011/02/01,3760,3760,3675,3700,94400,3700
2011/02/02,3730,3755,3710,3735,93000,3735
2011/02/03,3725,3770,3725,3755,47100,3755
2011/02/04,3750,3785,3745,3785,46200,3785
2011/02/07,3800,3800,3755,3765,52300,3765
2011/02/08,3795,3795,3765,3765,47100,3765
2011/02/09,3785,3790,3770,3775,42500,3775
2011/02/10,3780,3790,3770,3775,30300,3775
2011/02/14,3800,3815,3795,3800,37600,3800
2011/02/15,3820,3820,3790,3805,27500,3805
2011/02/16,3805,3850,3805,3830,70300,3830
2011/02/17,3850,3885,3835,3885,57600,3885
2011/02/18,3890,3890,3790,3810,134100,3810
2011/02/21,3830,3885,3820,3870,65900,3870
2011/02/22,3850,3850,3815,3820,26800,3820
2011/02/23,3795,3850,3795,3815,43100,3815
2011/02/24,3790,3820,3780,3795,45600,3795
2011/02/25,3800,3865,3785,3865,54600,3865
2011/02/28,3880,3895,3830,3880,44900,3880
2011/03/01,3890,3900,3865,3890,22800,3890
2011/03/02,3875,3875,3820,3820,44300,3820
2011/03/03,3815,3855,3815,3840,33800,3840
2011/03/04,3870,3870,3845,3860,35500,3860
2011/03/07,3855,3855,3820,3830,32300,3830
2011/03/08,3830,3850,3820,3820,29300,3820
2011/03/09,3850,3870,3830,3850,34400,3850
2011/03/10,3835,3850,3825,3830,40800,3830
2011/03/11,3810,3820,3785,3785,81000,3785
2011/03/14,3435,3710,3330,3570,76900,3570
2011/03/15,3500,3530,3035,3260,112400,3260
2011/03/16,3255,3335,3200,3270,128000,3270
2011/03/17,3200,3375,3160,3310,79800,3310
2011/03/18,3245,3300,3200,3255,177800,3255
2011/03/22,3390,3465,3350,3425,95900,3425
2011/03/23,3470,3520,3395,3485,93600,3485
2011/03/24,3415,3500,3415,3470,61400,3470
2011/03/25,3530,3530,3440,3470,55500,3470
2011/03/28,3470,3500,3430,3500,51000,3500
2011/03/29,3480,3520,3455,3505,33100,3505
2011/03/30,3500,3550,3475,3550,52200,3550
2011/03/31,3550,3565,3515,3560,43400,3560
2011/04/01,3535,3550,3480,3490,45800,3490
2011/04/04,3495,3510,3415,3415,60700,3415
2011/04/05,3415,3445,3405,3435,52900,3435
2011/04/06,3405,3420,3355,3360,51300,3360
2011/04/07,3405,3435,3365,3400,65600,3400
2011/04/08,3355,3400,3305,3320,129500,3320
2011/04/11,3325,3370,3325,3330,64100,3330
2011/04/12,3310,3335,3275,3285,81900,3285
2011/04/13,3250,3360,3250,3350,90900,3350
2011/04/14,3350,3380,3320,3355,89300,3355
2011/04/15,3375,3380,3315,3320,62400,3320
2011/04/18,3320,3370,3320,3355,43300,3355
2011/04/19,3355,3375,3330,3355,54900,3355
2011/04/20,3260,3325,3210,3280,239000,3280
2011/04/21,3260,3265,3205,3220,107400,3220
2011/04/22,3180,3225,3170,3200,65100,3200
2011/04/25,3225,3265,3225,3225,55700,3225
2011/04/26,3245,3255,3210,3250,57900,3250
2011/04/27,3300,3320,3260,3275,84300,3275
2011/04/28,3295,3335,3280,3335,68700,3335
2011/05/02,3380,3380,3335,3345,46800,3345
2011/05/06,3350,3380,3320,3375,45600,3375
2011/05/09,3335,3380,3330,3355,50300,3355
2011/05/10,3395,3435,3360,3425,93400,3425
2011/05/11,3435,3470,3430,3445,63500,3445
2011/05/12,3405,3465,3385,3425,36100,3425
2011/05/13,3420,3435,3370,3410,59400,3410
2011/05/16,3410,3415,3360,3390,42100,3390
2011/05/17,3395,3410,3345,3360,36200,3360
2011/05/18,3370,3470,3355,3450,52800,3450
2011/05/19,3430,3435,3375,3425,43600,3425
2011/05/20,3440,3445,3410,3440,28400,3440
2011/05/23,3440,3440,3400,3430,27700,3430
2011/05/24,3435,3450,3405,3430,36600,3430
2011/05/25,3425,3425,3380,3400,37900,3400
2011/05/26,3360,3380,3335,3370,55100,3370
2011/05/27,3370,3420,3360,3400,25600,3400
2011/05/30,3390,3420,3360,3400,31100,3400
2011/05/31,3430,3430,3400,3415,75000,3415
2011/06/01,3445,3465,3410,3430,57100,3430
2011/06/02,3425,3500,3425,3490,77100,3490
2011/06/03,3465,3535,3465,3520,93800,3520
2011/06/06,3500,3505,3470,3490,71000,3490
2011/06/07,3455,3520,3425,3505,43300,3505
2011/06/08,3505,3575,3495,3560,78200,3560
2011/06/09,3540,3560,3500,3545,52900,3545
2011/06/10,3530,3540,3485,3515,48100,3515
2011/06/13,3470,3520,3470,3520,20400,3520
2011/06/14,3520,3545,3495,3535,37500,3535
2011/06/15,3540,3540,3485,3495,24700,3495
2011/06/16,3460,3490,3435,3480,47800,3480
2011/06/17,3460,3470,3430,3455,37700,3455
2011/06/20,3435,3465,3430,3440,18700,3440
2011/06/21,3460,3525,3445,3525,42400,3525
2011/06/22,3505,3535,3485,3525,31100,3525
2011/06/23,3500,3520,3475,3485,43100,3485
2011/06/24,3480,3520,3470,3505,27000,3505
2011/06/27,3475,3530,3475,3510,23000,3510
2011/06/28,3535,3545,3505,3535,42900,3535
2011/06/29,3545,3585,3530,3575,32200,3575
2011/06/30,3565,3625,3560,3625,40600,3625
2011/07/01,3615,3615,3585,3595,16000,3595
2011/07/04,3645,3645,3610,3620,25100,3620
2011/07/05,3630,3640,3620,3630,18500,3630
2011/07/06,3635,3635,3585,3620,33600,3620
2011/07/07,3600,3620,3585,3605,28700,3605
2011/07/08,3605,3615,3590,3605,21600,3605
2011/07/11,3575,3625,3575,3620,30300,3620
2011/07/12,3570,3595,3555,3595,33400,3595
2011/07/13,3545,3585,3515,3530,71000,3530
2011/07/14,3550,3630,3540,3570,63500,3570
2011/07/15,3570,3600,3560,3590,25500,3590
2011/07/19,3555,3580,3530,3550,44700,3550
2011/07/20,3535,3540,3480,3495,61200,3495
2011/07/21,3475,3485,3465,3480,34000,3480
2011/07/22,3480,3535,3480,3525,36400,3525
2011/07/25,3505,3510,3480,3490,24300,3490
2011/07/26,3470,3505,3470,3485,41100,3485
2011/07/27,3485,3510,3465,3485,28600,3485
2011/07/28,3460,3485,3450,3470,52300,3470
2011/07/29,3480,3485,3445,3450,26300,3450
2011/08/01,3455,3565,3455,3540,43700,3540
2011/08/02,3545,3580,3510,3550,31500,3550
2011/08/03,3470,3490,3455,3465,33500,3465
2011/08/04,3445,3475,3415,3450,34000,3450
2011/08/05,3405,3420,3345,3390,43600,3390
2011/08/08,3340,3345,3320,3320,19700,3320
2011/08/09,3290,3290,3170,3280,48100,3280
2011/08/10,3345,3390,3310,3355,49000,3355
2011/08/11,3255,3335,3255,3335,30200,3335
2011/08/12,3355,3380,3330,3350,18400,3350
2011/08/15,3370,3370,3315,3365,15200,3365
2011/08/16,3375,3385,3350,3360,12900,3360
2011/08/17,3335,3385,3335,3370,18300,3370
2011/08/18,3345,3385,3310,3355,37000,3355
2011/08/19,3290,3350,3290,3320,21200,3320
2011/08/22,3320,3320,3280,3280,28600,3280
2011/08/23,3280,3340,3280,3305,40300,3305
2011/08/24,3330,3370,3285,3300,45600,3300
2011/08/25,3320,3330,3280,3285,47000,3285
2011/08/26,3295,3330,3295,3310,22800,3310
2011/08/29,3310,3355,3295,3345,23400,3345
2011/08/30,3390,3390,3340,3370,50300,3370
2011/08/31,3395,3430,3385,3425,27200,3425
2011/09/01,3420,3440,3365,3380,22900,3380
2011/09/02,3420,3420,3370,3395,19200,3395
2011/09/05,3370,3395,3365,3365,16000,3365
2011/09/06,3370,3370,3300,3310,27300,3310
2011/09/07,3355,3375,3330,3345,15500,3345
2011/09/08,3375,3385,3350,3380,15900,3380
2011/09/09,3385,3395,3375,3380,24200,3380
2011/09/12,3380,3395,3315,3330,31200,3330
2011/09/13,3365,3395,3350,3370,13700,3370
2011/09/14,3385,3400,3360,3370,44500,3370
2011/09/15,3370,3410,3360,3385,49500,3385
2011/09/16,3445,3475,3425,3465,73700,3465
2011/09/20,3430,3460,3420,3430,28100,3430
2011/09/21,3450,3500,3420,3485,54000,3485
2011/09/22,3495,3495,3410,3440,60800,3440
2011/09/26,3420,3430,3280,3335,92200,3335
2011/09/27,3390,3500,3375,3485,67800,3485
2011/09/28,3445,3550,3440,3550,59300,3550
2011/09/29,3510,3580,3485,3545,45000,3545
2011/09/30,3550,3585,3520,3585,56900,3585
2011/10/03,3565,3565,3520,3560,38500,3560
2011/10/04,3515,3540,3500,3515,54400,3515
2011/10/05,3505,3510,3460,3495,29100,3495
2011/10/06,3515,3565,3510,3550,19900,3550
2011/10/07,3540,3545,3480,3510,39300,3510
2011/10/11,3580,3585,3485,3555,81700,3555
2011/10/12,3555,3615,3515,3525,75300,3525
2011/10/13,3510,3550,3485,3525,31500,3525
2011/10/14,3385,3430,3330,3395,79300,3395
2011/10/17,3395,3430,3365,3380,51300,3380
2011/10/18,3375,3385,3360,3375,28400,3375
2011/10/19,3375,3390,3355,3375,27200,3375
2011/10/20,3350,3380,3340,3380,46800,3380
2011/10/21,3340,3350,3325,3335,16500,3335
2011/10/24,3370,3375,3335,3370,23700,3370
2011/10/25,3390,3390,3310,3320,35800,3320
2011/10/26,3310,3315,3220,3220,68400,3220
2011/10/27,3265,3290,3250,3285,46600,3285
2011/10/28,3320,3395,3285,3350,124400,3350
2011/10/31,3385,3420,3340,3345,60300,3345
2011/11/01,3385,3395,3320,3335,31200,3335
2011/11/02,3340,3350,3265,3275,42600,3275
2011/11/04,3285,3285,3230,3240,49600,3240
2011/11/07,3225,3305,3225,3280,27900,3280
2011/11/08,3265,3280,3230,3245,22200,3245
2011/11/09,3275,3280,3240,3265,27100,3265
2011/11/10,3200,3230,3180,3205,31600,3205
2011/11/11,3200,3220,3170,3205,30700,3205
2011/11/14,3255,3285,3215,3225,20200,3225
2011/11/15,3220,3220,3185,3195,19100,3195
2011/11/16,3200,3240,3195,3205,31400,3205
2011/11/17,3210,3235,3190,3205,22400,3205
2011/11/18,3210,3220,3180,3190,27500,3190
2011/11/21,3160,3180,3140,3150,22000,3150
2011/11/22,3120,3140,3105,3120,24800,3120
2011/11/24,3085,3100,3055,3075,12200,3075
2011/11/25,3090,3090,3020,3020,24800,3020
2011/11/28,3030,3075,3010,3065,17900,3065
2011/11/29,3090,3090,3040,3090,27300,3090
2011/11/30,3100,3145,3100,3145,23300,3145
2011/12/01,3185,3190,3070,3080,48800,3080
2011/12/02,3115,3150,3045,3090,88300,3090
2011/12/05,3060,3110,3050,3095,40500,3095
2011/12/06,3120,3185,3115,3155,53600,3155
2011/12/07,3180,3225,3155,3220,60400,3220
2011/12/08,3195,3195,3135,3170,38000,3170
2011/12/09,3175,3225,3175,3210,55300,3210
2011/12/12,3240,3265,3230,3240,28900,3240
2011/12/13,3220,3260,3215,3225,17400,3225
2011/12/14,3240,3255,3225,3240,21300,3240
2011/12/15,3245,3270,3215,3220,29200,3220
2011/12/16,3230,3270,3215,3220,20400,3220
2011/12/19,3200,3220,3175,3215,23400,3215
2011/12/20,3235,3235,3200,3215,17400,3215
2011/12/21,3225,3240,3225,3240,15400,3240
2011/12/22,3260,3300,3235,3270,38600,3270
2011/12/26,3270,3270,3215,3225,10600,3225
2011/12/27,3220,3295,3220,3280,37500,3280
2011/12/28,3260,3270,3245,3250,8200,3250
2011/12/29,3235,3255,3215,3255,9300,3255
2011/12/30,3230,3260,3220,3255,8900,3255
2012/01/04,3285,3335,3285,3325,33200,3325
2012/01/05,3290,3290,3235,3235,19900,3235
2012/01/06,3200,3225,3180,3195,27500,3195
2012/01/10,3205,3220,3180,3180,17400,3180
2012/01/11,3180,3215,3160,3175,21000,3175
2012/01/12,3180,3220,3180,3185,28900,3185
2012/01/13,3185,3210,3180,3200,18100,3200
2012/01/16,3200,3210,3180,3180,26600,3180
2012/01/17,3250,3275,3220,3265,78800,3265
2012/01/18,3265,3265,3215,3215,31800,3215
2012/01/19,3215,3265,3215,3235,28200,3235
2012/01/20,3260,3260,3170,3185,71700,3185
2012/01/23,3200,3230,3185,3210,24800,3210
2012/01/24,3210,3215,3155,3165,82400,3165
2012/01/25,3210,3210,3180,3200,24600,3200
2012/01/26,3190,3200,3175,3190,14500,3190
2012/01/27,3195,3195,3155,3160,70700,3160
2012/01/30,3170,3255,3170,3240,47600,3240
2012/01/31,3240,3255,3235,3250,18800,3250
2012/02/01,3205,3245,3205,3240,19500,3240
2012/02/02,3270,3290,3230,3275,28600,3275
2012/02/03,3265,3280,3250,3265,26500,3265
2012/02/06,3285,3290,3255,3265,21800,3265
2012/02/07,3265,3295,3265,3280,26400,3280
2012/02/08,3245,3260,3220,3255,31400,3255
2012/02/09,3275,3275,3255,3265,12700,3265
2012/02/10,3275,3275,3240,3260,15000,3260
2012/02/13,3260,3290,3260,3280,21600,3280
2012/02/14,3280,3285,3245,3270,23000,3270
2012/02/15,3275,3315,3250,3305,31900,3305
2012/02/16,3290,3335,3290,3330,28500,3330
2012/02/17,3320,3340,3310,3325,21600,3325
2012/02/20,3330,3340,3315,3320,19500,3320
2012/02/21,3310,3345,3300,3345,19200,3345
2012/02/22,3345,3360,3330,3345,32400,3345
2012/02/23,3360,3405,3350,3390,17100,3390
2012/02/24,3410,3410,3380,3395,18400,3395
2012/02/27,3400,3415,3385,3405,27300,3405
2012/02/28,3410,3470,3395,3465,41200,3465
2012/02/29,3480,3535,3435,3440,55500,3440
2012/03/01,3440,3470,3405,3460,46100,3460
2012/03/02,3500,3515,3470,3485,30900,3485
2012/03/05,3480,3545,3480,3500,29500,3500
2012/03/06,3505,3545,3500,3515,15700,3515
2012/03/07,3495,3540,3475,3535,22200,3535
2012/03/08,3545,3550,3530,3535,11200,3535
2012/03/09,3600,3600,3565,3585,38000,3585
2012/03/12,3585,3600,3565,3570,18300,3570
2012/03/13,3590,3620,3575,3600,34200,3600
2012/03/14,3610,3645,3595,3600,59400,3600
2012/03/15,3585,3645,3585,3615,30700,3615
2012/03/16,3625,3635,3615,3620,19300,3620
2012/03/19,3620,3630,3610,3630,18700,3630
2012/03/21,3635,3645,3620,3630,16100,3630
2012/03/22,3630,3660,3620,3655,17900,3655
2012/03/23,3655,3660,3630,3655,22400,3655
2012/03/26,3655,3660,3620,3625,20100,3625
2012/03/27,3640,3690,3620,3690,44200,3690
2012/03/28,3670,3680,3645,3645,22200,3645
2012/03/29,3660,3700,3640,3700,30300,3700
2012/03/30,3665,3700,3655,3695,38500,3695
2012/04/02,3665,3695,3565,3600,52500,3600
2012/04/03,3620,3625,3580,3585,29200,3585
2012/04/04,3555,3565,3495,3545,38300,3545
2012/04/05,3540,3570,3525,3550,30600,3550
2012/04/06,3490,3525,3475,3525,28000,3525
2012/04/09,3525,3560,3500,3520,27800,3520
2012/04/10,3545,3570,3520,3540,31200,3540
2012/04/11,3530,3570,3510,3520,34700,3520
2012/04/12,3490,3490,3340,3400,81800,3400
2012/04/13,3420,3470,3420,3455,67900,3455
2012/04/16,3435,3510,3425,3485,31100,3485
2012/04/17,3460,3575,3460,3530,63700,3530
2012/04/18,3600,3605,3530,3595,44100,3595
2012/04/19,3600,3600,3535,3540,26800,3540
2012/04/20,3550,3570,3520,3545,42700,3545
2012/04/23,3590,3675,3565,3625,61900,3625
2012/04/24,3600,3645,3585,3620,36300,3620
2012/04/25,3690,3690,3650,3685,43900,3685
2012/04/26,3690,3735,3680,3715,56200,3715
2012/04/27,3730,3730,3645,3680,35000,3680
2012/05/01,3680,3780,3675,3760,72600,3760
2012/05/02,3765,3780,3705,3780,40000,3780
2012/05/07,3710,3745,3685,3730,31000,3730
2012/05/08,3750,3750,3710,3730,38700,3730
2012/05/09,3715,3725,3660,3680,30000,3680
2012/05/10,3650,3710,3635,3700,35500,3700
2012/05/11,3685,3685,3600,3630,36000,3630
2012/05/14,3595,3640,3590,3590,21200,3590
2012/05/15,3510,3515,3390,3485,72200,3485
2012/05/16,3480,3490,3295,3340,82400,3340
2012/05/17,3350,3400,3245,3265,126800,3265
2012/05/18,3250,3315,3225,3260,79600,3260
2012/05/21,3255,3335,3215,3245,86200,3245
2012/05/22,3280,3290,3170,3210,94700,3210
2012/05/23,3220,3220,3140,3150,125700,3150
2012/05/24,3145,3175,3115,3120,90400,3120
2012/05/25,3180,3210,3145,3180,48800,3180
2012/05/28,3250,3255,3115,3135,74300,3135
2012/05/29,3135,3165,3110,3150,43800,3150
2012/05/30,3220,3225,3150,3200,90200,3200
2012/05/31,3150,3200,3150,3190,30900,3190
2012/06/01,3150,3170,3100,3130,72200,3130
2012/06/04,3080,3125,3070,3105,40700,3105
2012/06/05,3100,3125,3080,3105,38000,3105
2012/06/06,3150,3385,3110,3285,153100,3285
2012/06/07,3300,3420,3295,3390,124400,3390
2012/06/08,3370,3370,3295,3310,89700,3310
2012/06/11,3310,3310,3260,3270,55600,3270
2012/06/12,3250,3295,3225,3285,59000,3285
2012/06/13,3310,3325,3260,3280,57800,3280
2012/06/14,3270,3310,3260,3270,30800,3270
2012/06/15,3290,3305,3265,3265,50000,3265
2012/06/18,3305,3345,3300,3315,26500,3315
2012/06/19,3325,3350,3275,3285,18800,3285
2012/06/20,3325,3340,3275,3325,23600,3325
2012/06/21,3305,3425,3305,3385,51100,3385
2012/06/22,3380,3395,3335,3335,40300,3335
2012/06/25,3365,3390,3340,3375,22800,3375
2012/06/26,3375,3400,3315,3330,42700,3330
2012/06/27,3330,3370,3330,3360,31400,3360
2012/06/28,3385,3515,3345,3485,97300,3485
2012/06/29,3475,3675,3430,3635,137900,3635
2012/07/02,3595,3610,3545,3575,51000,3575
2012/07/03,3600,3670,3580,3655,44500,3655
2012/07/04,3605,3660,3600,3610,42700,3610
2012/07/05,3590,3630,3560,3575,68600,3575
2012/07/06,3615,3635,3580,3605,67000,3605
2012/07/09,3610,3645,3595,3630,32100,3630
2012/07/10,3610,3695,3610,3640,42700,3640
2012/07/11,3635,3645,3590,3635,34500,3635
2012/07/12,3585,3680,3525,3660,48100,3660
2012/07/13,3660,3695,3660,3675,52200,3675
2012/07/17,3680,3685,3645,3645,24900,3645
2012/07/18,3650,3670,3610,3615,34100,3615
2012/07/19,3745,3765,3710,3750,60000,3750
2012/07/20,3760,3875,3725,3730,76600,3730
2012/07/23,3690,3765,3680,3680,48500,3680
2012/07/24,3720,3735,3695,3720,41700,3720
2012/07/25,3690,3700,3660,3685,48100,3685
2012/07/26,3730,3730,3670,3705,32400,3705
2012/07/27,3750,3750,3670,3695,37900,3695
2012/07/30,3745,3770,3730,3770,44600,3770
2012/07/31,3780,3815,3760,3800,40300,3800
2012/08/01,3780,3790,3715,3750,46500,3750
2012/08/02,3765,3825,3760,3820,35400,3820
2012/08/03,3770,3810,3755,3780,38300,3780
2012/08/06,3795,3815,3770,3795,33200,3795
2012/08/07,3820,3840,3815,3840,29000,3840
2012/08/08,3875,3890,3785,3810,68100,3810
2012/08/09,3855,3870,3810,3830,39600,3830
2012/08/10,3830,3845,3795,3810,42900,3810
2012/08/13,3820,3835,3760,3785,30200,3785
2012/08/14,3790,3880,3780,3870,39600,3870
2012/08/15,3890,3940,3890,3920,48800,3920
2012/08/16,3910,3910,3825,3855,53400,3855
2012/08/17,3895,3910,3855,3870,40000,3870
2012/08/20,3900,3905,3770,3775,57000,3775
2012/08/21,3780,3825,3780,3805,29600,3805
2012/08/22,3805,3860,3800,3835,47200,3835
2012/08/23,3815,3875,3800,3860,56300,3860
2012/08/24,3820,3830,3770,3795,60100,3795
2012/08/27,3805,3805,3725,3740,48900,3740
2012/08/28,3770,3795,3735,3760,65100,3760
2012/08/29,3785,3920,3785,3900,89000,3900
2012/08/30,3885,3915,3880,3915,48900,3915
2012/08/31,3885,3955,3875,3880,80400,3880
2012/09/03,3900,4030,3895,4000,111200,4000
2012/09/04,4045,4050,3970,3995,68900,3995
2012/09/05,3985,4020,3960,4010,51800,4010
2012/09/06,4010,4010,3910,3915,61100,3915
2012/09/07,3970,3970,3890,3900,77000,3900
2012/09/10,3885,3905,3855,3890,39900,3890
2012/09/11,3905,3945,3900,3940,46100,3940
2012/09/12,3950,4040,3940,4040,39300,4040
2012/09/13,4045,4070,4030,4070,30300,4070
2012/09/14,4090,4090,3995,4005,63500,4005
2012/09/18,4010,4025,3985,3995,84500,3995
2012/09/19,4010,4015,3925,3935,79300,3935
2012/09/20,3955,3965,3910,3925,39100,3925
2012/09/21,3950,4030,3945,4010,42500,4010
2012/09/24,4035,4060,4025,4060,25800,4060
2012/09/25,4080,4200,4070,4200,103700,4200
2012/09/26,4130,4140,4100,4130,57600,4130
2012/09/27,4125,4195,4115,4180,43300,4180
2012/09/28,4180,4200,4165,4190,34400,4190
2012/10/01,4200,4220,4150,4220,65200,4220
2012/10/02,4240,4270,4185,4210,49600,4210
2012/10/03,4165,4170,4045,4045,50100,4045
2012/10/04,4060,4130,4060,4115,25900,4115
2012/10/05,4135,4170,4115,4170,33000,4170
2012/10/09,4175,4175,4090,4095,46800,4095
2012/10/10,4020,4170,3955,3965,82300,3965
2012/10/11,3890,3955,3865,3885,84700,3885
2012/10/12,3860,4010,3860,3995,69300,3995
2012/10/15,3930,3940,3855,3860,68700,3860
2012/10/16,3870,3910,3825,3895,106600,3895
2012/10/17,3920,4040,3915,3950,138900,3950
2012/10/18,3950,4000,3950,3970,54900,3970
2012/10/19,3995,4015,3935,3995,56700,3995
2012/10/22,3940,3955,3895,3930,90200,3930
2012/10/23,3960,3980,3880,3885,73600,3885
2012/10/24,3870,3940,3865,3905,49300,3905
2012/10/25,3950,4025,3920,4025,66100,4025
2012/10/26,4080,4140,4050,4120,97400,4120
2012/10/29,4160,4170,4095,4100,57600,4100
2012/10/30,4120,4165,4075,4080,65400,4080
2012/10/31,4100,4110,4050,4090,37400,4090
2012/11/01,4090,4115,4050,4115,28300,4115
2012/11/02,4175,4200,4145,4200,51900,4200
2012/11/05,4185,4220,4175,4195,39200,4195
2012/11/06,4190,4265,4165,4240,71400,4240
2012/11/07,4290,4290,4170,4180,48100,4180
2012/11/08,4130,4150,4075,4080,29100,4080
2012/11/09,4080,4120,4080,4085,24700,4085
2012/11/12,4085,4085,4010,4010,24700,4010
2012/11/13,4005,4040,3950,3980,46600,3980
2012/11/14,3895,3980,3875,3975,59400,3975
2012/11/15,3970,3990,3925,3980,27300,3980
2012/11/16,3980,3995,3930,3955,35900,3955
2012/11/19,3970,4000,3950,3950,33600,3950
2012/11/20,3975,4035,3950,3995,46100,3995
2012/11/21,4015,4055,4000,4030,50600,4030
2012/11/22,4065,4075,3990,4015,44000,4015
2012/11/26,4015,4025,3930,3940,48500,3940
2012/11/27,3920,3975,3910,3960,47600,3960
2012/11/28,3965,3980,3940,3980,30900,3980
2012/11/29,4015,4070,4010,4020,53500,4020
2012/11/30,4050,4070,3995,4045,42000,4045
2012/12/03,4025,4115,4015,4060,36200,4060
2012/12/04,4085,4110,4035,4090,35400,4090
2012/12/05,4060,4180,4060,4180,52600,4180
2012/12/06,4200,4230,4130,4165,61900,4165
2012/12/07,4170,4170,4115,4130,34400,4130
2012/12/10,4155,4175,4130,4160,21900,4160
2012/12/11,4105,4140,4105,4130,29600,4130
2012/12/12,4150,4165,4095,4105,21900,4105
2012/12/13,4140,4140,4070,4100,35000,4100
2012/12/14,4085,4140,4075,4100,46200,4100
2012/12/17,4155,4165,4100,4125,36000,4125
2012/12/18,4150,4150,4105,4120,40200,4120
2012/12/19,4150,4150,4085,4100,68900,4100
2012/12/20,4130,4170,4085,4170,54900,4170
2012/12/21,4170,4190,4155,4170,28100,4170
2012/12/25,4200,4200,4140,4160,38000,4160
2012/12/26,4165,4170,4080,4120,28400,4120
2012/12/27,4145,4145,4110,4115,19100,4115
2012/12/28,4135,4155,4095,4100,19500,4100
2013/01/04,4200,4200,4110,4160,28700,4160
2013/01/07,4150,4150,4110,4125,37400,4125
2013/01/08,4105,4170,4100,4150,34300,4150
2013/01/09,4155,4175,4135,4160,23000,4160
2013/01/10,4180,4180,4135,4165,21800,4165
2013/01/11,4165,4180,4120,4165,37000,4165
2013/01/15,4165,4185,4125,4130,41200,4130
2013/01/16,4135,4150,4075,4085,82700,4085
2013/01/17,4090,4200,4060,4120,96400,4120
2013/01/18,4240,4240,4070,4105,181700,4105
2013/01/21,4125,4135,4055,4075,137200,4075
2013/01/22,4090,4140,4080,4135,61100,4135
2013/01/23,4110,4190,4100,4155,62000,4155
2013/01/24,4165,4250,4155,4245,99600,4245
2013/01/25,4270,4295,4250,4295,77100,4295
2013/01/28,4365,4390,4315,4335,73900,4335
2013/01/29,4350,4360,4290,4305,64400,4305
2013/01/30,4345,4380,4310,4370,48600,4370
2013/01/31,4390,4420,4355,4415,48700,4415
2013/02/01,4440,4475,4410,4435,57000,4435
2013/02/04,4475,4475,4420,4460,37400,4460
2013/02/05,4465,4590,4460,4535,66800,4535
2013/02/06,4540,4615,4540,4610,75600,4610
2013/02/07,4610,4620,4550,4580,43500,4580
2013/02/08,4600,4625,4565,4595,39600,4595
2013/02/12,4595,4605,4550,4555,40700,4555
2013/02/13,4555,4610,4535,4550,56700,4550
2013/02/14,4550,4595,4550,4550,38700,4550
2013/02/15,4530,4540,4465,4495,33500,4495
2013/02/18,4560,4630,4555,4615,35600,4615
2013/02/19,4605,4625,4590,4620,21100,4620
2013/02/20,4630,4690,4630,4690,25700,4690
2013/02/21,4680,4745,4635,4670,45400,4670
2013/02/22,4665,4710,4620,4685,21400,4685
2013/02/25,4680,4730,4635,4645,37400,4645
2013/02/26,4645,4670,4600,4660,63700,4660
2013/02/27,4700,5030,4700,4995,172500,4995
2013/02/28,4945,4970,4905,4935,39900,4935
2013/03/01,4950,5030,4925,5010,60300,5010
2013/03/04,5080,5200,5080,5120,52600,5120
2013/03/05,5090,5090,4970,4975,45300,4975
2013/03/06,4990,5140,4980,5000,72000,5000
2013/03/07,5000,5100,4905,4915,78600,4915
2013/03/08,4950,5000,4870,4890,114300,4890
2013/03/11,4940,4940,4860,4880,49800,4880
2013/03/12,4930,4980,4890,4950,61100,4950
2013/03/13,4905,4920,4865,4875,39900,4875
2013/03/14,4885,4910,4845,4870,66900,4870
2013/03/15,4870,4960,4855,4940,82900,4940
2013/03/18,4905,4960,4865,4870,46200,4870
2013/03/19,4900,4990,4900,4980,39500,4980
2013/03/21,5020,5120,5020,5110,64900,5110
2013/03/22,5100,5100,4950,4950,38700,4950
2013/03/25,5020,5030,4935,5010,49400,5010
2013/03/26,4975,5060,4965,5030,35500,5030
2013/03/27,5000,5040,4995,5040,21600,5040
2013/03/28,5050,5070,4980,5070,25600,5070
2013/03/29,5100,5160,5070,5130,42000,5130
2013/04/01,5140,5140,4955,4970,37200,4970
2013/04/02,4910,4910,4755,4870,60500,4870
2013/04/03,4895,5130,4885,5120,51000,5120
2013/04/04,5050,5170,4990,5160,59200,5160
2013/04/05,5180,5290,5160,5210,85300,5210
2013/04/08,5300,5360,5240,5270,64800,5270
2013/04/09,5210,5250,5170,5240,48800,5240
2013/04/10,5260,5330,5230,5320,45400,5320
2013/04/11,5330,5420,5300,5400,58700,5400
2013/04/12,5420,5540,5400,5500,53700,5500
2013/04/15,5500,5550,5470,5500,37500,5500
2013/04/16,5400,5560,5350,5500,66100,5500
2013/04/17,5560,5670,5510,5580,41500,5580
2013/04/18,5580,5610,5470,5510,56400,5510
2013/04/19,5470,5580,5450,5550,40900,5550
2013/04/22,5640,5820,5630,5790,70500,5790
2013/04/23,5960,6100,5950,6090,134800,6090
2013/04/24,6070,6130,5980,6000,89100,6000
2013/04/25,5940,6040,5940,6040,65400,6040
2013/04/26,6100,6130,5970,5980,66100,5980
2013/04/30,5880,6020,5880,6000,38200,6000
2013/05/01,5960,6050,5940,6040,55000,6040
2013/05/02,6060,6280,5940,6260,78200,6260
2013/05/07,6360,6430,6290,6320,61700,6320
2013/05/08,6350,6660,6350,6460,95200,6460
2013/05/09,6460,6530,6270,6290,50000,6290
2013/05/10,6290,6410,6180,6200,57900,6200
2013/05/13,6100,6250,6020,6240,55400,6240
2013/05/14,6140,6260,6130,6140,56400,6140
2013/05/15,6140,6230,6070,6090,47900,6090
2013/05/16,6090,6160,5870,6090,66100,6090
2013/05/17,6100,6240,6010,6200,43100,6200
2013/05/20,6230,6240,6080,6100,48600,6100
2013/05/21,6090,6130,5920,5940,57700,5940
2013/05/22,5950,5960,5870,5880,53000,5880
2013/05/23,5880,5890,5660,5670,71100,5670
2013/05/24,5530,5690,5460,5570,130900,5570
2013/05/27,5570,5600,5340,5490,67600,5490
2013/05/28,5400,5600,5400,5430,60700,5430
2013/05/29,5530,5740,5460,5680,45600,5680
2013/05/30,5580,5750,5510,5530,66400,5530
2013/05/31,5550,5690,5550,5630,46100,5630
2013/06/03,5640,5700,5480,5540,73500,5540
2013/06/04,5560,5670,5500,5560,62800,5560
2013/06/05,5470,5630,5330,5340,69700,5340
2013/06/06,5300,5360,5180,5220,50900,5220
2013/06/07,5050,5230,5030,5150,69700,5150
2013/06/10,5250,5400,5230,5370,38000,5370
2013/06/11,5390,5480,5340,5380,33800,5380
2013/06/12,5320,5430,5240,5380,29200,5380
2013/06/13,5280,5400,5190,5220,34900,5220
2013/06/14,5400,5530,5350,5500,93100,5500
2013/06/17,5500,5660,5490,5620,62900,5620
2013/06/18,5690,5730,5640,5700,68600,5700
2013/06/19,5750,5810,5690,5780,55900,5780
2013/06/20,5780,5780,5540,5560,51300,5560
2013/06/21,5480,5810,5430,5780,65100,5780
2013/06/24,5780,5780,5600,5670,31400,5670
2013/06/25,5700,5770,5560,5740,40200,5740
2013/06/26,5790,5790,5540,5580,33100,5580
2013/06/27,5570,5720,5460,5650,60000,5650
2013/06/28,5590,5700,5520,5670,72200,5670
2013/07/01,5670,5790,5640,5750,37300,5750
2013/07/02,5830,5870,5780,5870,30100,5870
2013/07/03,5850,5870,5760,5840,20200,5840
2013/07/04,5850,5860,5770,5800,18300,5800
2013/07/05,5860,5910,5810,5910,23300,5910
2013/07/08,5930,5940,5840,5840,22400,5840
2013/07/09,5860,5940,5750,5810,28800,5810
2013/07/10,5900,5900,5810,5840,30200,5840
2013/07/11,5730,5830,5550,5590,69600,5590
2013/07/12,5690,5830,5640,5740,44900,5740
2013/07/16,5740,5900,5700,5830,32800,5830
2013/07/17,5850,5910,5820,5860,23300,5860
2013/07/18,5920,6100,5910,6060,68700,6060
2013/07/19,6060,6140,5940,5970,69400,5970
2013/07/22,6060,6060,5940,6040,46300,6040
2013/07/23,5950,6020,5940,6010,25400,6010
2013/07/24,6010,6050,5960,6020,22700,6020
2013/07/25,6030,6030,5950,5950,33800,5950
2013/07/26,5920,5960,5900,5910,33800,5910
2013/07/29,5910,5960,5690,5760,46000,5760
2013/07/30,5700,5850,5700,5820,75600,5820
2013/07/31,5760,5760,5590,5590,42400,5590
2013/08/01,5640,5740,5570,5740,16900,5740
2013/08/02,5770,5780,5690,5780,50300,5780
2013/08/05,5710,5790,5680,5750,35800,5750
2013/08/06,5800,5840,5710,5800,39800,5800
2013/08/07,5730,5820,5670,5670,33500,5670
2013/08/08,5680,5790,5620,5620,31900,5620
2013/08/09,5660,5690,5590,5600,29500,5600
2013/08/12,5590,5640,5560,5610,23200,5610
2013/08/13,5600,5640,5530,5610,36400,5610
2013/08/14,5680,5720,5520,5600,42000,5600
2013/08/15,5610,5650,5570,5570,18100,5570
2013/08/16,5570,5620,5550,5560,26900,5560
2013/08/19,5540,5590,5510,5590,14900,5590
2013/08/20,5590,5670,5560,5560,33300,5560
2013/08/21,5560,5600,5520,5560,17400,5560
2013/08/22,5620,5640,5560,5620,24800,5620
2013/08/23,5690,5690,5620,5650,12700,5650
2013/08/26,5620,5630,5590,5600,3100,5600
2013/08/27,5500,5590,5440,5540,30200,5540
2013/08/28,5470,5540,5420,5470,41600,5470
2013/08/29,5460,5490,5420,5430,12100,5430
2013/08/30,5450,5460,5350,5350,24200,5350
2013/09/02,5350,5440,5340,5410,17100,5410
2013/09/03,5460,5520,5460,5510,19100,5510
2013/09/04,5410,5500,5410,5490,21000,5490
2013/09/05,5420,5500,5390,5450,28000,5450
2013/09/06,5470,5480,5300,5400,30100,5400
2013/09/09,5470,5530,5460,5520,26800,5520
2013/09/10,5540,5620,5510,5620,68600,5620
2013/09/11,5650,5680,5610,5660,45900,5660
2013/09/12,5650,5660,5480,5520,50500,5520
2013/09/13,5460,5530,5430,5490,68900,5490
2013/09/17,5490,5570,5480,5550,37700,5550
2013/09/18,5580,5630,5540,5570,22800,5570
2013/09/19,5600,5640,5560,5620,39200,5620
2013/09/20,5650,5670,5620,5660,19900,5660
2013/09/24,5650,5650,5550,5560,41500,5560
2013/09/25,5540,5540,5370,5420,96900,5420
2013/09/26,5400,5470,5370,5470,52100,5470
2013/09/27,5480,5570,5470,5560,43500,5560
2013/09/30,5470,5480,5380,5440,44700,5440
2013/10/01,5410,5430,5280,5310,74600,5310
2013/10/02,5310,5310,5090,5110,107600,5110
2013/10/03,5060,5120,5040,5110,75200,5110
2013/10/04,5060,5180,5050,5150,47300,5150
2013/10/07,5150,5150,5030,5060,45000,5060
2013/10/08,5030,5120,5020,5110,24800,5110
2013/10/09,5100,5160,5060,5150,35500,5150
2013/10/10,5160,5190,5110,5120,68800,5120
2013/10/11,5370,5480,5330,5450,172500,5450
2013/10/15,5500,5500,5380,5430,53300,5430
2013/10/16,5400,5440,5330,5360,66600,5360
2013/10/17,5460,5460,5360,5400,28500,5400
2013/10/18,5320,5380,5300,5350,29500,5350
2013/10/21,5360,5390,5320,5360,19400,5360
2013/10/22,5380,5530,5310,5520,55300,5520
2013/10/23,5550,5580,5440,5460,37500,5460
2013/10/24,5460,5480,5340,5470,37900,5470
2013/10/25,5480,5480,5360,5380,36600,5380
2013/10/28,5470,5590,5460,5590,72000,5590
2013/10/29,5600,5640,5510,5610,43900,5610
2013/10/30,5610,5730,5570,5720,63900,5720
2013/10/31,5690,5770,5680,5710,38100,5710
2013/11/01,5700,5740,5540,5570,20300,5570
2013/11/05,5620,5680,5580,5600,19000,5600
2013/11/06,5630,5630,5580,5600,17300,5600
2013/11/07,5600,5600,5410,5450,46700,5450
2013/11/08,5410,5460,5380,5410,33900,5410
2013/11/11,5410,5440,5370,5430,38900,5430
2013/11/12,5400,5490,5400,5480,38200,5480
2013/11/13,5480,5480,5380,5450,32600,5450
2013/11/14,5450,5500,5420,5470,25000,5470
2013/11/15,5480,5560,5460,5530,46600,5530
2013/11/18,5540,5600,5490,5530,43700,5530
2013/11/19,5510,5570,5460,5500,37000,5500
2013/11/20,5490,5570,5490,5560,20200,5560
2013/11/21,5570,5650,5570,5630,28300,5630
2013/11/22,5640,5640,5580,5600,24000,5600
2013/11/25,5630,5630,5560,5620,15800,5620
2013/11/26,5560,5640,5560,5610,21200,5610
2013/11/27,5570,5580,5520,5540,21700,5540
2013/11/28,5510,5580,5420,5430,49800,5430
2013/11/29,5420,5440,5370,5390,57800,5390
2013/12/02,5380,5430,5360,5370,31000,5370
2013/12/03,5420,5470,5390,5410,47200,5410
2013/12/04,5420,5440,5360,5360,33600,5360
2013/12/05,5310,5360,5280,5290,35200,5290
2013/12/06,5390,5390,5290,5350,21800,5350
2013/12/09,5380,5410,5330,5350,29000,5350
2013/12/10,5380,5380,5300,5350,15700,5350
2013/12/11,5310,5370,5300,5310,24200,5310
2013/12/12,5320,5330,5290,5320,9800,5320
2013/12/13,5280,5350,5200,5270,77400,5270
2013/12/16,5270,5270,5200,5210,31800,5210
2013/12/17,5260,5260,5200,5220,20200,5220
2013/12/18,5200,5280,5190,5280,27300,5280
2013/12/19,5290,5290,5180,5240,31900,5240
2013/12/20,5210,5260,5210,5240,25000,5240
2013/12/24,5240,5380,5240,5360,68100,5360
2013/12/25,5370,5430,5300,5430,60500,5430
2013/12/26,5410,5460,5410,5440,20700,5440
2013/12/27,5450,5600,5450,5570,49500,5570
2013/12/30,5600,5640,5530,5540,30900,5540
2014/01/06,5550,5590,5520,5570,23900,5570
2014/01/07,5570,5610,5500,5530,23900,5530
2014/01/08,5550,5600,5530,5600,15000,5600
2014/01/09,5600,5600,5520,5560,12600,5560
2014/01/10,5500,5600,5500,5600,28500,5600
2014/01/14,5590,5610,5520,5530,33800,5530
2014/01/15,5550,5630,5550,5620,21300,5620
2014/01/16,5610,5680,5560,5570,35900,5570
2014/01/17,5530,5580,5470,5550,37700,5550
2014/01/20,5560,5600,5520,5580,42300,5580
2014/01/21,5560,5570,5520,5550,29700,5550
2014/01/22,5520,5590,5450,5570,50500,5570
2014/01/23,5530,5560,5440,5440,21800,5440
2014/01/24,5350,5380,5290,5330,38800,5330
2014/01/27,5250,5280,5200,5200,30600,5200
2014/01/28,5200,5310,5150,5240,60700,5240
2014/01/29,5250,5490,5250,5490,40700,5490
2014/01/30,5250,5320,5220,5240,51100,5240
2014/01/31,5290,5340,5220,5310,41300,5310
2014/02/03,5250,5330,5220,5270,39300,5270
2014/02/04,5190,5270,5060,5120,112500,5120
2014/02/05,5130,5150,5010,5100,77500,5100
2014/02/06,5120,5350,5110,5270,50300,5270
2014/02/07,5280,5340,5250,5330,31500,5330
2014/02/10,5330,5390,5300,5370,28700,5370
2014/02/12,5400,5480,5400,5480,38000,5480
2014/02/13,5450,5450,5340,5370,49900,5370
2014/02/14,5340,5380,5270,5340,39900,5340
2014/02/17,5340,5370,5290,5360,25800,5360
2014/02/18,5370,5480,5300,5480,29500,5480
2014/02/19,5400,5440,5390,5430,38100,5430
2014/02/20,5400,5450,5350,5350,17400,5350
2014/02/21,5430,5490,5400,5450,26400,5450
2014/02/24,5440,5490,5390,5460,32800,5460
2014/02/25,5530,5530,5440,5490,17400,5490
2014/02/26,5410,5480,5410,5440,12700,5440
2014/02/27,5450,5450,5390,5410,8200,5410
2014/02/28,5400,5410,5330,5400,23300,5400
2014/03/03,5340,5390,5260,5360,15000,5360
2014/03/04,5360,5450,5330,5450,17600,5450
2014/03/05,5450,5480,5360,5400,18600,5400
2014/03/06,5400,5460,5390,5460,20200,5460
2014/03/07,5470,5520,5460,5500,18400,5500
2014/03/10,5470,5540,5460,5510,11500,5510
2014/03/11,5510,5530,5450,5520,7600,5520
2014/03/12,5470,5470,5330,5350,24300,5350
2014/03/13,5340,5400,5330,5350,23500,5350
2014/03/14,5220,5260,5190,5220,65300,5220
2014/03/17,5150,5160,5030,5060,44300,5060
2014/03/18,5160,5210,5090,5200,28100,5200
2014/03/19,5210,5250,5150,5190,56700,5190
2014/03/20,5230,5240,5090,5120,40500,5120
2014/03/24,5090,5270,5090,5100,117600,5100
2014/03/25,5280,5360,5250,5290,38900,5290
2014/03/26,5260,5360,5200,5310,50400,5310
2014/03/27,5150,5280,5150,5190,65800,5190
2014/03/28,5230,5270,5150,5270,40100,5270
2014/03/31,5320,5340,5240,5280,31000,5280
2014/04/01,5320,5350,5270,5350,44800,5350
2014/04/02,5370,5390,5290,5300,34000,5300
2014/04/03,5300,5320,5260,5260,20100,5260
2014/04/04,5250,5250,5220,5240,10300,5240
2014/04/07,5160,5200,5120,5130,28200,5130
2014/04/08,5120,5190,5110,5150,34800,5150
2014/04/09,5170,5180,5120,5140,61200,5140
2014/04/10,5210,5270,5180,5200,36300,5200
2014/04/11,5270,5390,5190,5350,93800,5350
2014/04/14,5270,5340,5220,5240,59700,5240
2014/04/15,5240,5290,5190,5210,56700,5210
2014/04/16,5200,5230,5160,5230,54400,5230
2014/04/17,5340,5420,5270,5380,61500,5380
2014/04/18,5380,5380,5300,5320,30000,5320
2014/04/21,5340,5380,5330,5340,38200,5340
2014/04/22,5370,5430,5290,5300,57500,5300
2014/04/23,5340,5370,5310,5340,79400,5340
2014/04/24,5360,5390,5280,5320,72400,5320
2014/04/25,5300,5300,5200,5220,63900,5220
2014/04/28,5230,5260,5210,5250,40800,5250
2014/04/30,5290,5290,5230,5260,49900,5260
2014/05/01,5250,5330,5250,5290,49100,5290
2014/05/02,5320,5320,5260,5280,26600,5280
2014/05/07,5350,5360,5270,5280,51800,5280
2014/05/08,5330,5390,5320,5350,81500,5350
2014/05/09,5360,5450,5360,5440,49300,5440
2014/05/12,5440,5470,5430,5450,47500,5450
2014/05/13,5490,5550,5380,5400,34900,5400
2014/05/14,5390,5430,5370,5410,41200,5410
2014/05/15,5390,5450,5320,5450,32800,5450
2014/05/16,5360,5380,5250,5290,43800,5290
2014/05/19,5290,5320,5270,5270,19900,5270
2014/05/20,5300,5320,5280,5280,36200,5280
2014/05/21,5280,5320,5260,5310,22000,5310
2014/05/22,5290,5320,5240,5300,37500,5300
2014/05/23,5330,5330,5250,5270,48100,5270
2014/05/26,5310,5460,5270,5460,40000,5460
2014/05/27,5420,5480,5400,5400,28600,5400
2014/05/28,5420,5500,5420,5460,29900,5460
2014/05/29,5480,5490,5440,5450,19000,5450
2014/05/30,5440,5490,5410,5460,40000,5460
2014/06/02,5490,5520,5460,5500,32200,5500
2014/06/03,5540,5580,5480,5560,38000,5560
2014/06/04,5600,5690,5550,5640,75500,5640
2014/06/05,5650,5680,5510,5520,36700,5520
2014/06/06,5540,5550,5430,5450,76600,5450
2014/06/09,5450,5490,5380,5420,58700,5420
2014/06/10,5450,5460,5360,5380,24800,5380
2014/06/11,5390,5420,5370,5380,19900,5380
2014/06/12,5380,5460,5370,5430,39800,5430
2014/06/13,5450,5550,5440,5480,65000,5480
2014/06/16,5450,5490,5430,5470,25900,5470
2014/06/17,5450,5500,5430,5480,39500,5480
2014/06/18,5490,5550,5470,5490,56400,5490
2014/06/19,5480,5500,5440,5490,59600,5490
2014/06/20,5460,5490,5400,5450,53200,5450
2014/06/23,5490,5500,5460,5470,30000,5470
2014/06/24,5480,5490,5440,5470,24000,5470
2014/06/25,5500,5550,5470,5490,38100,5490
2014/06/26,5490,5520,5460,5460,13200,5460
2014/06/27,5460,5490,5410,5430,20100,5430
2014/06/30,5460,5490,5420,5490,13600,5490
2014/07/01,5500,5600,5490,5560,40900,5560
2014/07/02,5590,5590,5460,5470,31000,5470
2014/07/03,5480,5520,5420,5440,25600,5440
2014/07/04,5490,5490,5430,5480,24700,5480
2014/07/07,5480,5510,5430,5450,19500,5450
2014/07/08,5450,5530,5440,5500,35900,5500
2014/07/09,5460,5500,5460,5500,21100,5500
2014/07/10,5500,5510,5440,5460,24700,5460
2014/07/11,5430,5610,5430,5570,78600,5570
2014/07/14,5520,5620,5520,5570,22500,5570
2014/07/15,5600,5630,5560,5590,29000,5590
2014/07/16,5570,5680,5570,5660,52700,5660
2014/07/17,5700,5740,5680,5720,55900,5720
2014/07/18,5680,5700,5590,5620,51800,5620
2014/07/22,5680,5740,5640,5650,66800,5650
2014/07/23,5700,5760,5670,5760,45000,5760
2014/07/24,5780,5800,5730,5800,57000,5800
2014/07/25,5830,5850,5760,5810,64000,5810
2014/07/28,5880,5890,5800,5860,82900,5860
2014/07/29,5890,5890,5790,5810,43900,5810
2014/07/30,5810,5820,5770,5780,43700,5780
2014/07/31,5780,5800,5760,5790,36500,5790
2014/08/01,5750,5830,5720,5820,46700,5820
2014/08/04,5820,5880,5800,5820,37000,5820
2014/08/05,5820,5820,5720,5720,50000,5720
2014/08/06,5700,5700,5630,5650,39100,5650
2014/08/07,5660,5730,5650,5720,21400,5720
2014/08/08,5630,5700,5590,5590,22400,5590
2014/08/11,5690,5730,5650,5710,34000,5710
2014/08/12,5740,5760,5700,5750,30600,5750
2014/08/13,5750,5780,5720,5740,24800,5740
2014/08/14,5770,5790,5750,5770,14500,5770
2014/08/15,5760,5780,5730,5760,26900,5760
2014/08/18,5760,5770,5730,5760,31900,5760
2014/08/19,5810,5810,5770,5780,20800,5780
2014/08/20,5780,5800,5760,5770,15600,5770
2014/08/21,5770,5820,5770,5820,14900,5820
2014/08/22,5810,5820,5790,5810,14000,5810
2014/08/25,5900,5950,5840,5910,28400,5910
2014/08/26,5870,5870,5800,5800,13600,5800
2014/08/27,5860,5860,5800,5840,14200,5840
2014/08/28,5820,5880,5800,5880,19600,5880
2014/08/29,5810,5850,5810,5830,10100,5830
2014/09/01,5840,5890,5820,5890,32300,5890
2014/09/02,5970,6020,5910,5940,50400,5940
2014/09/03,5960,5980,5940,5980,32800,5980
2014/09/04,5980,5980,5960,5970,18700,5970
2014/09/05,5980,6000,5950,5980,33400,5980
2014/09/08,5990,6000,5950,5980,21600,5980
2014/09/09,6000,6030,5970,5990,20000,5990
2014/09/10,5940,5940,5900,5920,26200,5920
2014/09/11,5960,5960,5880,5890,19000,5890
2014/09/12,5870,5980,5870,5950,46900,5950
2014/09/16,5990,6030,5960,6000,26000,6000
2014/09/17,6020,6020,5970,5970,13200,5970
2014/09/18,5970,6100,5890,6090,74300,6090
2014/09/19,6040,6040,5750,5820,154300,5820
2014/09/22,5830,5860,5800,5820,75300,5820
2014/09/24,5820,5850,5780,5790,96500,5790
2014/09/25,5810,5810,5700,5760,120000,5760
2014/09/26,5730,5830,5720,5780,84000,5780
2014/09/29,5680,5840,5600,5720,107200,5720
2014/09/30,5740,5820,5740,5810,57600,5810
2014/10/01,5840,5930,5830,5850,90500,5850
2014/10/02,5790,5840,5770,5790,57000,5790
2014/10/03,5760,5810,5760,5780,41600,5780
2014/10/06,5820,5830,5750,5780,51800,5780
2014/10/07,5800,5840,5780,5800,39700,5800
2014/10/08,5760,5820,5730,5810,39000,5810
2014/10/09,5820,5830,5790,5830,41300,5830
2014/10/10,5760,5800,5740,5790,48800,5790
2014/10/14,5730,5870,5730,5760,104700,5760
2014/10/15,5760,5840,5760,5810,91200,5810
2014/10/16,5640,5780,5580,5630,138400,5630
2014/10/17,5580,5580,5450,5450,105100,5450
2014/10/20,5410,5480,5320,5440,94500,5440
2014/10/21,5360,5430,5280,5290,104200,5290
2014/10/22,5350,5380,5300,5370,60400,5370
2014/10/23,5350,5390,5300,5330,49300,5330
2014/10/24,5350,5410,5350,5390,50900,5390
2014/10/27,5390,5460,5390,5420,39000,5420
2014/10/28,5420,5470,5410,5430,27200,5430
2014/10/29,5450,5550,5440,5530,50200,5530
2014/10/30,5470,5530,5470,5490,36200,5490
2014/10/31,5490,5780,5490,5770,84200,5770
2014/11/04,5880,5910,5690,5690,102400,5690
2014/11/05,5710,5840,5710,5840,69300,5840
2014/11/06,5890,5950,5700,5730,81800,5730
2014/11/07,5790,5820,5760,5800,30500,5800
2014/11/10,5800,5840,5680,5710,40600,5710
2014/11/11,5710,5790,5710,5760,34600,5760
2014/11/12,5830,5850,5770,5800,48400,5800
2014/11/13,5800,5880,5770,5870,44100,5870
2014/11/14,5960,5960,5850,5920,43100,5920
2014/11/17,5920,5930,5760,5770,34500,5770
2014/11/18,5780,5800,5740,5780,42600,5780
2014/11/19,5780,5880,5720,5730,40200,5730
2014/11/20,5750,5750,5710,5710,16500,5710
2014/11/21,5700,5700,5600,5670,59900,5670
2014/11/25,5770,5770,5710,5720,45700,5720
2014/11/26,5720,5770,5710,5750,48800,5750
2014/11/27,5770,5770,5700,5710,19100,5710
2014/11/28,5730,5750,5710,5730,20900,5730
2014/12/01,5800,5810,5710,5730,40400,5730
2014/12/02,5790,5830,5770,5800,49800,5800
2014/12/03,5770,5820,5730,5790,172700,5790
2014/12/04,5810,5890,5780,5810,166200,5810
2014/12/05,5850,5850,5790,5820,73600,5820
2014/12/08,5870,5900,5850,5890,33200,5890
2014/12/09,5850,5890,5820,5820,27800,5820
2014/12/10,5860,5860,5770,5790,51700,5790
2014/12/11,5750,5790,5720,5740,25400,5740
2014/12/12,5670,5720,5670,5670,47400,5670
2014/12/15,5610,5670,5600,5610,30200,5610
2014/12/16,5460,5510,5380,5380,110000,5380
2014/12/17,5390,5400,5290,5290,99300,5290
2014/12/18,5390,5410,5360,5390,47400,5390
2014/12/19,5440,5530,5430,5520,57400,5520
2014/12/22,5480,5560,5480,5560,39700,5560
2014/12/24,5590,5590,5500,5550,41100,5550
2014/12/25,5600,5600,5550,5570,30200,5570
2014/12/26,5560,5580,5540,5580,50400,5580
2014/12/29,5490,5490,5410,5480,73800,5480
2014/12/30,5470,5540,5470,5500,59900,5500
2015/01/05,5560,5560,5510,5530,47500,5530
2015/01/06,5510,5510,5450,5500,74800,5500
2015/01/07,5440,5520,5440,5450,30300,5450
2015/01/08,5460,5510,5430,5510,45500,5510
2015/01/09,5480,5520,5470,5500,32900,5500
2015/01/13,5470,5510,5440,5510,32600,5510
2015/01/14,5460,5520,5460,5520,31600,5520
2015/01/15,5590,5660,5550,5650,64700,5650
2015/01/16,5510,5690,5510,5670,66800,5670
2015/01/19,5720,5720,5630,5700,26000,5700
2015/01/20,5650,5810,5650,5800,32900,5800
2015/01/21,5790,5850,5760,5830,31600,5830
2015/01/22,5780,5840,5730,5820,40400,5820
2015/01/23,5880,5950,5820,5930,41200,5930
2015/01/26,5840,5970,5840,5940,55900,5940
2015/01/27,5990,5990,5960,5990,27500,5990
2015/01/28,5980,6180,5970,6150,72300,6150
2015/01/29,6050,6100,6000,6060,52600,6060
2015/01/30,6120,6240,6120,6140,85800,6140
2015/02/02,6140,6140,6040,6070,41200,6070
2015/02/03,6080,6090,5820,5840,61700,5840
2015/02/04,5940,5950,5850,5870,79500,5870
2015/02/05,5810,5880,5810,5820,49500,5820
2015/02/06,5840,5870,5800,5800,29000,5800
2015/02/09,5850,5860,5800,5830,42500,5830
2015/02/10,5870,5920,5810,5880,54100,5880
2015/02/12,5900,6010,5880,5890,57500,5890
2015/02/13,5890,5900,5830,5840,37800,5840
2015/02/16,5840,5940,5840,5930,16000,5930
2015/02/17,5900,5990,5900,5970,22300,5970
2015/02/18,6000,6070,5990,6030,35600,6030
2015/02/19,5980,6040,5970,5980,43800,5980
2015/02/20,6050,6110,5980,6090,56400,6090
2015/02/23,6080,6120,6050,6090,39900,6090
2015/02/24,6050,6150,6050,6100,33600,6100
2015/02/25,6150,6170,6110,6150,39100,6150
2015/02/26,6180,6180,6110,6160,79500,6160
2015/02/27,6160,6160,6080,6130,37400,6130
2015/03/02,6130,6210,6060,6060,50300,6060
2015/03/03,6060,6070,6010,6030,46600,6030
2015/03/04,6020,6060,5970,6030,51900,6030
2015/03/05,6040,6090,6020,6080,31600,6080
2015/03/06,6070,6160,6070,6160,16500,6160
2015/03/09,6100,6150,6090,6090,19500,6090
2015/03/10,6150,6160,6070,6100,41100,6100
2015/03/11,6160,6160,6000,6030,43200,6030
2015/03/12,6030,6060,6000,6020,35200,6020
2015/03/13,6040,6080,5990,6020,63400,6020
2015/03/16,6060,6060,6000,6030,30700,6030
2015/03/17,6020,6060,6020,6030,26600,6030
2015/03/18,6010,6050,6000,6040,41200,6040
2015/03/19,6090,6090,5920,5950,48900,5950
2015/03/20,5990,6030,5960,6010,31100,6010
2015/03/23,5990,6060,5990,6040,30800,6040
2015/03/24,6020,6100,6020,6040,37600,6040
2015/03/25,6070,6070,5990,6020,39400,6020
2015/03/26,6010,6020,5930,6000,27100,6000
2015/03/27,6020,6140,6000,6050,68800,6050
2015/03/30,6020,6050,5890,5900,49400,5900
2015/03/31,5930,5970,5850,5900,42700,5900
2015/04/01,5880,6000,5820,5920,75200,5920
2015/04/02,5970,6040,5950,5990,56300,5990
2015/04/03,5950,6010,5950,5990,52900,5990
2015/04/06,5960,5970,5920,5960,25000,5960
2015/04/07,5960,6050,5950,6030,56400,6030
2015/04/08,6070,6130,6060,6100,37300,6100
2015/04/09,6080,6100,6050,6100,42900,6100
2015/04/10,6090,6170,6060,6120,71200,6120
2015/04/13,6090,6150,6030,6100,80900,6100
2015/04/14,6060,6120,6050,6100,47400,6100
2015/04/15,6050,6100,6030,6050,42500,6050
2015/04/16,6050,6050,5930,5950,82100,5950
2015/04/17,5940,6000,5900,5980,124500,5980
2015/04/20,5880,5930,5830,5890,107100,5890
2015/04/21,5870,5950,5850,5930,79200,5930
2015/04/22,5850,5870,5770,5830,112900,5830
2015/04/23,5860,5890,5830,5870,71800,5870
2015/04/24,5880,5900,5810,5870,76100,5870
2015/04/27,5860,5880,5830,5860,26700,5860
2015/04/28,5860,5890,5830,5850,31200,5850
2015/04/30,5810,5840,5760,5760,54100,5760
2015/05/01,5750,5790,5730,5790,55600,5790
2015/05/07,5820,5880,5780,5810,50200,5810
2015/05/08,5820,5870,5790,5820,33200,5820
2015/05/11,5880,5970,5840,5930,44000,5930
2015/05/12,5920,6000,5890,6000,46700,6000
2015/05/13,5990,6030,5950,5960,22900,5960
2015/05/14,5930,5960,5930,5930,16400,5930
2015/05/15,5970,5970,5910,5910,18200,5910
2015/05/18,5910,5970,5910,5960,23400,5960
2015/05/19,5990,6020,5960,5970,30600,5970
2015/05/20,6000,6180,6000,6160,56900,6160
2015/05/21,6240,6250,6160,6190,52200,6190
2015/05/22,6190,6190,6100,6140,21300,6140
2015/05/25,6180,6220,6140,6170,17200,6170
2015/05/26,6170,6200,6140,6180,18600,6180
2015/05/27,6160,6210,6110,6130,25400,6130
2015/05/28,6130,6180,6100,6160,35900,6160
2015/05/29,6160,6190,6050,6060,32300,6060
2015/06/01,6060,6060,6000,6030,35200,6030
2015/06/02,6110,6130,6100,6100,27200,6100
2015/06/03,6100,6170,6100,6170,14500,6170
2015/06/04,6170,6330,6110,6310,69500,6310
2015/06/05,6260,6430,6250,6390,47800,6390
2015/06/08,6390,6470,6360,6440,28100,6440
2015/06/09,6400,6440,6360,6410,34200,6410
2015/06/10,6350,6410,6250,6280,29700,6280
2015/06/11,6280,6350,6270,6330,18100,6330
2015/06/12,6340,6410,6340,6380,30700,6380
2015/06/15,6360,6400,6330,6340,11100,6340
2015/06/16,6330,6330,6290,6300,16500,6300
2015/06/17,6310,6360,6250,6260,26000,6260
2015/06/18,6290,6320,6250,6290,18500,6290
2015/06/19,6290,6410,6280,6380,27700,6380
2015/06/22,6320,6430,6320,6390,17600,6390
2015/06/23,6420,6440,6370,6420,23500,6420
2015/06/24,6450,6450,6280,6340,39600,6340
2015/06/25,6430,6430,6270,6270,26300,6270
2015/06/26,6310,6380,6290,6380,32500,6380
2015/06/29,6200,6290,6200,6250,18200,6250
2015/06/30,6280,6300,6250,6280,14900,6280
2015/07/01,6330,6400,6330,6360,24400,6360
