2011/01/04,30000,34500,29700,34500,12587,345
2011/01/07,31350,34000,30500,30800,3127,308
2011/01/11,30000,30450,29700,30000,1085,300
2011/01/12,30300,31900,29850,30000,1116,300
2011/01/13,31050,33600,30100,33000,5023,330
2011/01/14,32300,33750,31600,32000,3202,320
2011/01/19,31350,32000,30950,31000,599,310
2011/01/24,28260,28280,26500,26600,945,266
2011/01/26,26860,27990,26600,27500,614,275
2011/01/27,27000,27680,26700,27100,672,271
2011/02/02,26000,29260,25180,28200,3795,282
2011/02/03,26790,27800,25610,26200,999,262
2011/02/10,25260,25380,24910,25000,368,250
2011/02/15,25580,25580,24560,25000,180,250
2011/02/18,24100,27300,24050,25000,1176,250
2011/02/22,27440,27440,26000,26500,538,265
2011/02/28,24980,26450,24500,26200,289,262
2011/03/23,18610,19300,18300,18700,475,187
2011/03/25,19000,19000,17600,18200,226,182
2011/03/28,17610,18200,17000,17400,130,174
2011/03/29,17080,18000,17000,17800,258,178
2011/03/31,18000,18390,16800,17000,415,170
2011/04/01,17500,18000,17410,17900,166,179
2011/04/13,17000,17170,16610,17100,111,171
2011/04/26,22030,22130,20850,21100,571,211
2011/04/27,21120,21520,20450,20600,153,206
2011/04/28,20480,21210,20480,20600,195,206
2011/05/09,20380,20380,19800,20200,216,202
2011/05/11,19760,20700,19650,20700,318,207
2011/05/12,18900,20450,18500,19900,501,199
2011/05/18,17500,18930,17300,18400,476,184
2011/05/19,18000,18600,17700,17900,156,179
2011/05/25,32500,32500,32500,32500,425,325
2011/05/26,46500,46500,45200,46500,10421,465
2011/05/27,48600,53500,45550,53500,23371,535
2011/05/30,56500,63500,53000,61500,25030,615
2011/05/31,58000,64800,55800,61800,12675,618
2011/06/01,62000,71800,62000,71800,13506,718
2011/06/02,77800,86800,76000,86800,21189,868
2011/06/03,98800,101800,88000,97000,21552,970
2011/06/06,93000,98400,88200,93200,8997,932
2011/06/07,91000,108200,89300,108200,16317,1082
2011/06/08,120200,136000,112000,117200,22886,1172
2011/06/09,111200,116200,96600,101700,12588,1017
2011/06/10,100500,107500,93700,97300,9361,973
2011/06/13,100200,104000,89100,91800,8844,918
2011/06/14,91100,99800,87200,99800,13002,998
2011/06/15,98300,98600,89500,89900,6244,899
2011/06/16,95000,99000,90100,91200,6285,912
2011/06/17,88400,89600,79500,82000,7148,820
2011/06/20,81000,85000,77100,79100,5183,791
2011/06/21,82100,94100,81000,90800,24537,908
2011/06/22,87800,103800,87300,101300,24199,1013
2011/06/23,107300,111700,90700,94000,23268,940
2011/06/24,98000,101900,89900,91200,9362,912
2011/06/27,92500,93400,85700,87600,5109,876
2011/06/28,91100,93900,84700,86000,7025,860
2011/06/29,88900,90800,86000,87300,4353,873
2011/06/30,86700,86700,80500,81800,4345,818
2011/07/01,77300,80700,75100,77800,6396,778
2011/07/04,80800,83100,75100,76000,4551,760
2011/07/05,74400,75400,72000,72200,3051,722
2011/07/06,75000,81300,72500,72600,6794,726
2011/07/07,72600,77400,71100,75000,4755,750
2011/07/08,73500,76900,72700,72800,3401,728
2011/07/11,72800,75400,71600,72700,1875,727
2011/07/12,72700,72900,68000,68100,3246,681
2011/07/13,73000,78100,72100,78100,10361,781
2011/07/14,83300,87000,77300,79300,18179,793
2011/07/15,77200,79100,72600,73100,4286,731
2011/07/19,71700,74000,70000,72200,2049,722
2011/07/20,73700,74700,70700,70800,1459,708
2011/07/21,71300,73600,70000,71400,2154,714
2011/07/22,71600,72000,69100,69500,2043,695
2011/07/25,69000,72400,68100,70200,2117,702
2011/07/26,69500,71000,68600,70600,1603,706
2011/07/27,69700,71000,68100,68100,1335,681
2011/07/28,67100,67800,64900,66400,1502,664
2011/07/29,65800,65800,61100,62000,1448,620
2011/08/01,63000,66100,61900,62500,1943,625
2011/08/02,63500,71600,63000,67400,8353,674
2011/08/03,64400,66100,61000,61100,2732,611
2011/08/04,61700,63600,60400,60500,2162,605
2011/08/05,55500,57500,54700,56800,2727,568
2011/08/08,55000,56500,49500,50200,2747,502
2011/08/09,48950,53500,46900,52000,3082,520
2011/08/10,53900,57800,53000,53600,2589,536
2011/08/11,50600,55300,49150,54600,1867,546
2011/08/12,55100,56400,51600,52000,1501,520
2011/08/15,52300,55200,52300,53900,796,539
2011/08/16,55800,63900,55300,63900,5205,639
2011/08/17,66800,73900,65000,72800,20621,728
2011/08/18,74000,76200,68000,70800,9890,708
2011/08/19,68300,70700,65800,65800,2903,658
2011/08/22,66800,74000,65800,70500,6260,705
2011/08/23,72500,76200,71200,72000,6017,720
2011/08/24,74500,77000,63600,66700,7168,667
2011/08/25,67000,69700,64100,65800,1914,658
2011/08/26,65000,65500,62500,64000,1374,640
2011/08/29,66600,67900,65300,66100,1125,661
2011/08/30,66000,67800,65300,66700,1077,667
2011/08/31,66500,66500,62600,63900,1127,639
2011/09/01,63000,67500,62900,64800,1824,648
2011/09/02,63800,64500,62000,63000,908,630
2011/09/05,61300,63400,60200,60200,608,602
2011/09/06,59200,61000,54500,55200,1108,552
2011/09/07,55000,58300,54800,56200,1384,562
2011/09/08,59500,61800,56300,57000,1748,570
2011/09/09,56200,57700,55300,56900,523,569
2011/09/12,55200,55700,52200,52400,655,524
2011/09/13,52900,54000,52000,52300,711,523
2011/09/14,53300,56500,50100,50800,1404,508
2011/09/15,52700,52700,49200,49200,751,492
2011/09/16,49900,54200,49150,53600,2046,536
2011/09/20,51600,52400,49750,50000,973,500
2011/09/22,44950,46650,43150,43900,1735,439
2011/09/27,43250,43250,39450,41400,1318,414
2011/09/28,43000,43400,41000,42000,788,420
2011/10/03,39600,40800,38350,39000,696,390
2011/10/06,37550,39000,37550,38000,431,380
2011/10/07,38950,40550,37850,39300,1140,393
2011/10/13,43250,45800,42300,44100,1619,441
2011/10/18,39400,39700,38700,38900,491,389
2011/10/19,39550,39550,37500,39000,687,390
2011/10/20,39000,39000,36300,37000,505,370
2011/10/21,37500,38350,36200,37700,414,377
2011/10/24,37500,38150,37250,38000,243,380
2011/10/26,37600,38500,37000,37100,468,371
2011/10/28,37900,38300,36900,37300,437,373
2011/10/31,37400,43000,36500,40700,1954,407
2011/11/01,40950,41450,38200,38200,1039,382
2011/11/02,37300,37800,36700,37000,503,370
2011/11/04,37000,38000,36250,36900,657,369
2011/11/07,36900,37400,36300,36800,299,368
2011/11/14,33550,35450,33400,33600,462,336
2011/11/18,30900,32000,29500,31800,422,318
2011/11/21,31200,31250,29550,29800,290,298
2011/11/24,29400,30200,28600,30200,492,302
2011/11/25,29500,37200,29010,37200,2737,372
2011/11/28,42100,44200,41250,44200,4394,442
2011/11/29,51200,51200,50500,51200,2294,512
2011/11/30,55000,61000,47500,49400,12958,494
2011/12/02,48000,49200,45500,46300,2623,463
2011/12/05,45600,53300,45500,53300,4014,533
2011/12/06,58300,62000,51500,53000,10765,530
2011/12/07,52500,56000,51100,54200,3189,542
2011/12/08,57000,64200,55100,61000,17581,610
2011/12/09,59800,68800,59300,67500,13424,675
2011/12/12,72000,75400,67900,69200,10663,692
2011/12/13,68200,73900,65900,68200,5794,682
2011/12/14,68700,71900,62100,65000,5315,650
2011/12/15,65200,70900,61800,70000,7228,700
2011/12/16,72800,76700,68600,71800,10864,718
2011/12/19,71000,73600,64500,68900,4078,689
2011/12/20,70200,71800,66700,70900,3895,709
2011/12/21,71300,71800,65800,65800,3026,658
2011/12/22,65500,66900,61000,62000,2922,620
2011/12/26,62000,64000,60000,60300,1290,603
2011/12/27,59700,62000,56300,59800,2471,598
2011/12/28,58800,69800,58100,68300,8282,683
2011/12/29,68000,69100,65000,65000,3389,650
2011/12/30,65100,72400,63000,68500,7675,685
2012/01/04,70500,72000,68000,68200,2575,682
2012/01/05,67300,67500,64400,64600,1687,646
2012/01/06,64900,66900,63600,64400,1187,644
2012/01/10,65400,65400,61300,62200,1173,622
2012/01/11,62200,62300,56000,56000,1810,560
2012/01/12,59000,60000,55100,55500,1350,555
2012/01/13,55800,56500,55300,55900,623,559
2012/01/16,53500,54100,50200,50700,1425,507
2012/01/17,52300,55000,51500,52000,1971,520
2012/01/18,51000,52700,51000,51400,862,514
2012/01/19,51500,53100,51000,51400,830,514
2012/01/23,49450,56400,49050,53600,5781,536
2012/01/24,52600,53600,50100,50500,2578,505
2012/01/25,51500,53500,51000,52500,1489,525
2012/01/26,51600,52200,50400,50400,1216,504
2012/01/27,50000,51000,49250,50000,687,500
2012/01/31,49050,54000,49050,51300,2349,513
2012/02/01,49300,50900,48800,49200,1993,492
2012/02/02,49300,50900,48800,48800,925,488
2012/02/03,48500,48500,45550,46100,1965,461
2012/02/09,46800,48000,46500,47300,562,473
2012/02/13,48500,48500,46950,47800,572,478
2012/02/15,46300,46600,45600,45900,478,459
2012/02/20,45900,46600,45100,45500,388,455
2012/02/21,44950,46500,44500,44500,533,445
2012/02/22,44800,46500,44600,46200,859,462
2012/02/23,45900,49000,45900,49000,1808,490
2012/02/24,49200,54500,49200,53000,6344,530
2012/02/27,54500,56300,50600,51700,3568,517
2012/02/28,51000,51000,48400,50400,939,504
2012/03/01,47500,48200,46350,46400,1026,464
2012/03/02,45900,48900,45800,47200,650,472
2012/03/05,47000,48000,46000,47300,342,473
2012/03/07,46000,46000,44850,45800,703,458
2012/03/09,45450,47600,45250,46400,789,464
2012/03/12,45700,48300,45700,46800,718,468
2012/03/13,47650,48300,46600,47700,411,477
2012/03/14,48050,48500,46900,47200,784,472
2012/03/15,47300,47300,46000,46700,468,467
2012/03/19,46000,46600,45600,46300,231,463
2012/03/22,45900,46150,45200,45800,401,458
2012/03/23,45600,45750,45100,45300,242,453
2012/03/26,45250,45500,44600,44800,409,448
2012/03/27,44650,45750,44650,44700,253,447
2012/03/30,48500,48500,46850,47500,514,475
2012/04/02,46950,47350,46500,46500,369,465
2012/04/05,45250,45500,43900,44800,595,448
2012/04/09,42100,43250,41700,42100,475,421
2012/04/10,42500,42750,41900,41900,363,419
2012/04/11,40500,41000,40000,40500,446,405
2012/04/12,40900,40900,39900,40000,362,400
2012/04/13,40700,42850,40000,41800,418,418
2012/04/16,41800,45700,40500,43000,1529,430
2012/04/17,42300,43000,41600,41600,608,416
2012/04/20,47900,48800,45200,45200,3288,452
2012/04/23,45000,45600,43150,43200,1074,432
2012/04/24,42650,43900,42350,42600,564,426
2012/04/25,43000,43400,42350,42500,271,425
2012/04/26,42600,42650,41500,41600,526,416
2012/04/27,41500,42000,41000,41200,361,412
2012/05/02,41250,44150,41050,42600,580,426
2012/05/07,42600,43600,41300,41600,487,416
2012/05/08,41650,42200,40700,41900,283,419
2012/05/09,42000,42000,40300,40400,406,404
2012/05/11,40500,41800,39050,40100,531,401
2012/05/14,40500,40500,36050,37000,825,370
2012/05/16,35800,37000,35000,35700,340,357
2012/05/17,34300,39100,34300,38200,490,382
2012/05/18,35400,37950,35200,36800,499,368
2012/05/24,33500,34000,32500,33400,412,334
2012/05/28,32650,33350,32000,32000,271,320
2012/05/29,32000,33600,31300,33000,241,330
2012/05/30,32550,34400,32100,32800,352,328
2012/06/01,31500,31600,30500,30500,215,305
2012/06/06,30750,31800,30500,31000,289,310
2012/06/07,32100,38000,31700,38000,1535,380
2012/06/08,41500,42900,37500,39000,4249,390
2012/06/12,35250,36200,33700,36100,830,361
2012/06/13,35400,36500,34700,35100,396,351
2012/06/14,34000,34650,32900,32900,513,329
2012/06/15,33500,34250,32800,32900,321,329
2012/06/21,38500,40500,37650,38800,594,388
2012/06/26,38700,39900,38600,39200,288,392
2012/06/28,37550,37800,37100,37800,259,378
2012/06/29,37000,39250,36800,38000,548,380
2012/07/03,38100,38200,37050,37700,261,377
2012/07/04,37700,39350,37700,38600,525,386
2012/07/09,40000,42900,39000,39000,1074,390
2012/07/10,39250,41200,39150,39500,520,395
2012/07/12,38350,38950,37900,37900,253,379
2012/07/18,37550,38000,34500,35200,645,352
2012/07/20,35350,35850,34100,34300,488,343
2012/07/23,33900,33900,32250,32300,440,323
2012/07/25,33000,33000,30500,31000,454,310
2012/07/26,31150,32000,30500,31700,334,317
2012/07/30,32550,33300,32400,32900,370,329
2012/08/01,33550,33900,32800,33000,515,330
2012/08/02,32600,32800,32450,32800,93,328
2012/08/03,32400,32450,31100,31700,214,317
2012/08/07,32150,32400,31050,32400,118,324
2012/08/09,32500,32500,31800,32300,124,323
2012/08/14,32000,32000,31200,31700,158,317
2012/08/16,31950,32100,31700,32000,52,320
2012/08/17,31800,32400,31500,31800,184,318
2012/08/21,32250,32650,32000,32600,200,326
2012/08/24,32100,32500,32050,32100,127,321
2012/08/27,32050,33500,32050,33200,340,332
2012/08/28,33300,33400,32700,32900,127,329
2012/08/29,32600,33700,32500,33700,308,337
2012/08/30,33700,33700,32700,32700,186,327
2012/09/04,32100,32200,31800,31800,112,318
2012/09/05,31800,32050,31500,31800,84,318
2012/09/06,31550,31650,31000,31000,163,310
2012/09/10,31400,31750,31400,31500,44,315
2012/09/13,31500,32000,31400,32000,204,320
2012/09/14,32350,38400,32300,35400,2751,354
2012/09/24,33050,33200,32000,32400,104,324
2012/09/27,31950,32500,31800,31900,105,319
2012/09/28,31900,32500,31600,31700,172,317
2012/10/01,31500,31800,31250,31300,305,313
2012/10/09,33650,34800,33650,34800,302,348
2012/10/11,33100,33100,31700,32000,417,320
2012/10/12,31800,33000,31600,32000,201,320
2012/10/15,32000,32200,31450,31800,251,318
2012/10/16,31800,32000,31250,31500,174,315
2012/10/18,32850,33500,32250,33300,470,333
2012/10/23,32750,33350,32200,32800,332,328
2012/10/25,32950,36000,32600,35200,1651,352
2012/10/29,33450,33500,32400,32600,302,326
2012/10/30,33150,33750,32850,33700,304,337
2012/10/31,33700,34500,33100,33700,358,337
2012/11/02,33250,33750,32500,33700,368,337
2012/11/05,33350,33700,32800,33000,338,330
2012/11/06,33000,33400,32550,33000,211,330
2012/11/08,33600,34450,33450,33600,191,336
2012/11/09,33600,33900,33000,33800,220,338
2012/11/13,32650,33100,32100,32300,327,323
2012/11/14,32050,32500,31650,32500,447,325
2012/11/15,32000,33000,31800,33000,152,330
2012/11/19,34050,34600,33500,34600,374,346
2012/11/20,35300,36450,34500,35000,1371,350
2012/11/21,37000,42000,36850,42000,6871,420
2012/11/22,48000,48600,40200,40500,8838,405
2012/11/26,39100,40000,37300,38500,2263,385
2012/11/27,38650,42500,38650,40000,2580,400
2012/11/28,38600,42500,38250,39900,1989,399
2012/11/29,39200,39850,37300,37300,905,373
2012/11/30,37300,39500,37300,39500,900,395
2012/12/03,39100,39150,37250,38400,735,384
2012/12/04,37300,39000,37300,38000,862,380
2012/12/05,38000,38000,37300,37500,258,375
2012/12/06,38900,40500,38250,38300,798,383
2012/12/07,38000,38750,37550,37900,245,379
2012/12/10,37600,38650,37550,38000,404,380
2012/12/11,37650,39050,37550,38500,546,385
2012/12/13,40800,40800,39300,39700,372,397
2012/12/14,39700,40200,38750,39000,445,390
2012/12/17,39650,39650,39000,39000,110,390
2012/12/18,38500,39200,37850,38200,402,382
2012/12/19,38200,38500,36800,37100,444,371
2012/12/20,37050,37650,36800,37000,297,370
2012/12/26,371,380,341,361,59400,361
2012/12/27,363,367,343,367,42900,367
2012/12/28,360,370,358,360,16700,360
2013/01/04,363,373,360,371,43000,371
2013/01/07,379,387,370,374,47600,374
2013/01/08,375,381,374,377,19300,377
2013/01/09,371,375,370,375,26200,375
2013/01/10,375,381,370,372,37700,372
2013/01/11,378,382,368,380,32700,380
2013/01/15,381,384,376,382,40300,382
2013/01/16,382,386,378,378,34100,378
2013/01/17,378,379,365,367,24100,367
2013/01/18,369,379,369,376,26400,376
2013/01/21,383,410,383,402,100600,402
2013/01/22,401,401,375,388,45400,388
2013/01/23,383,390,376,380,44100,380
2013/01/24,380,392,375,380,20000,380
2013/01/25,381,390,381,382,30600,382
2013/01/28,411,437,399,411,210100,411
2013/01/29,435,448,401,408,136300,408
2013/01/30,393,408,393,396,34200,396
2013/01/31,404,415,392,398,54900,398
2013/02/01,401,440,400,428,206500,428
2013/02/04,442,442,404,413,107300,413
2013/02/05,408,415,392,392,46200,392
2013/02/06,396,406,391,402,46200,402
2013/02/07,401,406,396,406,25000,406
2013/02/08,406,414,387,389,50700,389
2013/02/12,397,397,373,377,51300,377
2013/02/13,368,371,346,355,66500,355
2013/02/14,355,367,355,365,22100,365
2013/02/15,360,360,344,355,50900,355
2013/02/18,356,363,356,360,8800,360
2013/02/19,360,376,360,368,31100,368
2013/02/20,370,372,365,368,21000,368
2013/02/21,371,375,367,375,34300,375
2013/02/22,375,375,366,373,21100,373
2013/02/25,376,380,371,376,39300,376
2013/02/26,371,372,363,372,36700,372
2013/02/27,370,371,367,368,19700,368
2013/02/28,368,372,366,367,16700,367
2013/03/01,364,376,362,372,33800,372
2013/03/04,372,374,366,367,33500,367
2013/03/05,370,375,368,372,31800,372
2013/03/06,375,417,375,415,245000,415
2013/03/07,423,425,397,400,172700,400
2013/03/08,402,405,382,387,94000,387
2013/03/11,394,398,384,386,55800,386
2013/03/12,390,390,373,373,34000,373
2013/03/13,369,373,364,372,33600,372
2013/03/14,373,384,373,379,28500,379
2013/03/15,374,384,373,378,33500,378
2013/03/18,382,382,375,376,29000,376
2013/03/19,379,381,373,377,21800,377
2013/03/21,382,392,379,387,42900,387
2013/03/22,387,394,380,380,33300,380
2013/03/25,388,391,380,382,19000,382
2013/03/26,380,384,379,380,13500,380
2013/03/27,380,389,379,383,23100,383
2013/03/28,389,389,376,383,36200,383
2013/03/29,385,420,383,405,107200,405
2013/04/01,403,403,375,390,84100,390
2013/04/02,377,385,374,382,35200,382
2013/04/03,380,390,377,385,32300,385
2013/04/04,388,388,376,386,36100,386
2013/04/05,387,387,376,377,74800,377
2013/04/08,379,384,375,383,40200,383
2013/04/09,381,383,378,381,25200,381
2013/04/10,380,383,377,382,42200,382
2013/04/11,382,383,377,380,27000,380
2013/04/12,381,384,380,384,18700,384
2013/04/15,382,385,381,383,32800,383
2013/04/16,380,383,377,383,36300,383
2013/04/17,386,403,386,401,110000,401
2013/04/18,396,407,388,388,86900,388
2013/04/19,393,418,393,405,167700,405
2013/04/22,410,415,400,407,80500,407
2013/04/23,407,408,395,402,65300,402
2013/04/24,410,414,398,398,59300,398
2013/04/25,404,408,400,400,28600,400
2013/04/26,401,404,387,389,68700,389
2013/04/30,393,401,390,397,23000,397
2013/05/01,397,409,397,403,63800,403
2013/05/02,405,408,397,406,56100,406
2013/05/07,415,425,412,424,140400,424
2013/05/08,424,480,404,430,322900,430
2013/05/09,440,448,420,425,132400,425
2013/05/10,430,440,411,433,72900,433
2013/05/13,457,457,420,426,140600,426
2013/05/14,432,447,425,447,99300,447
2013/05/15,453,460,416,425,203300,425
2013/05/16,425,425,376,398,147700,398
2013/05/17,398,423,398,421,71700,421
2013/05/20,425,436,411,411,79100,411
2013/05/21,416,424,403,422,121700,422
2013/05/22,416,420,411,413,37000,413
2013/05/23,418,423,376,376,141600,376
2013/05/24,382,397,365,367,121000,367
2013/05/27,375,398,370,389,61500,389
2013/05/28,382,388,379,387,25000,387
2013/05/29,388,396,383,396,32700,396
2013/05/30,390,395,373,380,43900,380
2013/05/31,388,390,378,388,23400,388
2013/06/03,388,424,384,422,217800,422
2013/06/04,406,426,392,426,103600,426
2013/06/05,430,444,403,425,105700,425
2013/06/06,505,505,505,505,123200,505
2013/06/07,605,605,590,605,821200,605
2013/06/10,705,705,705,705,44800,705
2013/06/11,798,855,610,619,2823300,619
2013/06/12,609,648,555,568,1763100,568
2013/06/13,583,668,567,667,1943000,667
2013/06/14,627,690,571,580,1487300,580
2013/06/17,590,630,580,609,527000,609
2013/06/18,610,709,590,709,1087600,709
2013/06/19,738,744,641,646,829300,646
2013/06/20,623,675,622,633,311900,633
2013/06/21,593,619,580,605,317000,605
2013/06/24,621,705,616,633,780400,633
2013/06/25,624,673,585,605,411700,605
2013/06/26,615,617,508,513,402500,513
2013/06/27,540,549,480,538,197800,538
2013/06/28,547,580,540,570,175900,570
2013/07/01,570,634,561,610,300800,610
2013/07/02,624,666,580,666,378300,666
2013/07/03,666,666,612,638,449200,638
2013/07/04,619,637,603,622,197100,622
2013/07/05,615,637,613,629,121500,629
2013/07/08,633,639,596,604,186100,604
2013/07/09,607,626,597,618,108700,618
2013/07/10,618,625,579,596,201100,596
2013/07/11,590,634,586,616,161300,616
2013/07/12,618,681,606,608,510600,608
2013/07/16,627,647,613,647,167000,647
2013/07/17,666,747,664,724,1912000,724
2013/07/18,684,874,657,874,2198000,874
2013/07/19,848,868,745,746,1189500,746
2013/07/22,790,896,766,896,1802700,896
2013/07/23,989,1046,950,1046,822300,1046
2013/07/24,1316,1346,1003,1005,4794200,1005
2013/07/25,1275,1305,1125,1305,1884000,1305
2013/07/26,1448,1605,1435,1605,3115600,1605
2013/07/29,1805,2005,1450,1549,3952300,1549
2013/07/30,1519,1949,1442,1949,3788400,1949
2013/07/31,2029,2298,1840,2000,5601600,2000
2013/08/01,1650,1848,1500,1500,2867600,1500
2013/08/02,1460,1510,1166,1286,1657000,1286
2013/08/05,1280,1488,1210,1349,2903000,1349
2013/08/06,1278,1308,1173,1205,969700,1205
2013/08/07,1365,1468,1300,1410,2090700,1410
2013/08/08,1320,1390,1223,1290,816000,1290
2013/08/09,1330,1447,1237,1319,752000,1319
2013/08/12,1264,1284,1170,1176,339000,1176
2013/08/13,1230,1244,1156,1200,318900,1200
2013/08/14,1211,1425,1206,1340,1111600,1340
2013/08/15,1261,1372,1260,1320,388300,1320
2013/08/16,1320,1470,1283,1416,690300,1416
2013/08/19,1580,1716,1560,1716,878100,1716
2013/08/20,1916,2020,1611,1685,3408100,1685
2013/08/21,1845,2085,1761,1956,3700100,1956
2013/08/22,1970,2060,1556,1599,2277600,1599
2013/08/23,1580,1744,1470,1649,1462600,1649
2013/08/26,1580,1690,1553,1596,1021300,1596
2013/08/27,1580,1639,1506,1535,498700,1535
2013/08/28,1465,1507,1350,1393,525900,1393
2013/08/29,1400,1440,1307,1365,446500,1365
2013/08/30,1344,1437,1323,1375,701300,1375
2013/09/02,1396,1398,1144,1197,1249500,1197
2013/09/03,1239,1241,1157,1212,480900,1212
2013/09/04,1224,1353,1201,1310,1174300,1310
2013/09/05,1281,1330,1250,1260,488200,1260
2013/09/06,1275,1338,1169,1197,693500,1197
2013/09/09,1221,1221,1136,1188,328200,1188
2013/09/10,1192,1207,1081,1114,425800,1114
2013/09/11,1091,1183,1090,1118,387900,1118
2013/09/12,1126,1136,1053,1070,286500,1070
2013/09/13,1113,1315,1113,1210,1648800,1210
2013/09/17,1180,1185,1114,1118,544100,1118
2013/09/18,1128,1170,1120,1149,324400,1149
2013/09/19,1165,1229,1130,1168,597900,1168
2013/09/20,1160,1177,1143,1155,191300,1155
2013/09/24,1158,1168,1130,1135,168400,1135
2013/09/25,1149,1154,1090,1095,217400,1095
2013/09/26,1065,1220,1059,1118,418100,1118
2013/09/27,1100,1196,1099,1119,300100,1119
2013/09/30,1100,1118,1083,1100,154000,1100
2013/10/01,1091,1150,1075,1082,261800,1082
2013/10/02,1074,1163,1071,1080,483300,1080
2013/10/03,1104,1315,1093,1264,1733700,1264
2013/10/04,1251,1280,1140,1155,754700,1155
2013/10/07,1177,1416,1170,1380,2722300,1380
2013/10/08,1320,1379,1202,1301,962300,1301
2013/10/09,1339,1594,1330,1540,2839200,1540
2013/10/10,1600,1823,1488,1650,4086600,1650
2013/10/11,1770,1795,1538,1631,1419700,1631
2013/10/15,1634,1810,1505,1810,2317700,1810
2013/10/16,1730,1938,1587,1600,4019300,1600
2013/10/17,1680,2000,1680,2000,4141700,2000
2013/10/18,2042,2480,1930,2047,10890500,2047
2013/10/21,1997,2143,1903,1958,2686100,1958
2013/10/22,2050,2131,1958,2070,1777100,2070
2013/10/23,2081,2160,1982,1998,1326200,1998
2013/10/24,1968,2025,1933,1954,363000,1954
2013/10/25,2284,2354,2220,2354,3794800,2354
2013/10/28,2400,2837,2312,2360,10574400,2360
2013/10/29,2310,2594,2190,2439,5379200,2439
2013/10/30,2200,2315,1955,2065,2029900,2065
2013/10/31,2076,2135,1891,1907,895200,1907
2013/11/01,2180,2198,1955,2080,1383100,2080
2013/11/05,2028,2030,1871,1906,644100,1906
2013/11/06,1940,2030,1871,1913,470800,1913
2013/11/07,1878,1944,1840,1870,544500,1870
2013/11/08,1890,1923,1820,1841,277000,1841
2013/11/11,1880,1902,1690,1728,443600,1728
2013/11/12,1702,1869,1553,1760,865500,1760
2013/11/13,1720,1900,1700,1771,712700,1771
2013/11/14,1850,1950,1791,1810,626300,1810
2013/11/15,1774,1843,1752,1790,378200,1790
2013/11/18,1825,1850,1750,1772,405800,1772
2013/11/19,1800,1840,1760,1777,245300,1777
2013/11/20,1793,1794,1713,1725,177100,1725
2013/11/21,1725,1747,1690,1690,170400,1690
2013/11/22,1700,1700,1618,1651,255200,1651
2013/11/25,1655,1655,1580,1605,195800,1605
2013/11/26,1787,2005,1708,2005,2404000,2005
2013/11/27,1955,1976,1765,1801,1223100,1801
2013/11/28,1841,2200,1760,2030,3901300,2030
2013/11/29,2002,2415,2001,2415,6616200,2415
2013/12/02,2515,2915,2494,2837,9097500,2837
2013/12/03,2800,2837,2420,2425,3614800,2425
2013/12/04,2425,2710,2425,2569,4459800,2569
2013/12/05,2669,2729,2300,2400,4309700,2400
2013/12/06,2420,2480,2185,2303,1818400,2303
2013/12/09,2453,2803,2366,2803,9274000,2803
2013/12/10,2782,3120,2633,2712,11689200,2712
2013/12/11,2621,2767,2371,2494,3374600,2494
2013/12/12,2694,2800,2585,2630,2946200,2630
2013/12/13,2799,2898,2700,2792,2936400,2792
2013/12/16,2892,2920,2563,2600,2146500,2600
2013/12/17,2600,2862,2540,2752,2715000,2752
2013/12/18,2720,2850,2626,2795,2182000,2795
2013/12/19,2835,3275,2832,3275,7151000,3275
2013/12/20,3250,3490,3000,3110,6041700,3110
2013/12/24,3150,3280,2905,2925,2478800,2925
2013/12/25,2900,3230,2881,3165,3270000,3165
2013/12/26,3250,3320,3040,3070,2108100,3070
2013/12/27,3100,3190,3015,3075,1126600,3075
2013/12/30,3130,3295,2999,3160,1940400,3160
2014/01/06,3210,3340,3125,3235,2019000,3235
2014/01/07,3175,3270,3005,3115,1048200,3115
2014/01/08,3185,3210,3095,3100,637800,3100
2014/01/09,3125,3130,3030,3060,314400,3060
2014/01/10,3055,3150,3000,3050,442500,3050
2014/01/14,3000,3030,2911,2984,469000,2984
2014/01/15,3060,3070,2890,2940,324900,2940
2014/01/16,2939,2950,2780,2805,490500,2805
2014/01/17,2844,3025,2808,2933,852900,2933
2014/01/20,2883,2948,2835,2894,493600,2894
2014/01/21,2892,3050,2883,2975,632200,2975
2014/01/22,2975,3020,2885,2955,472900,2955
2014/01/23,2989,3140,2925,2935,1263700,2935
2014/01/24,2850,2970,2828,2882,428100,2882
2014/01/27,2725,2778,2690,2690,369200,2690
2014/01/28,2725,2820,2649,2660,290700,2660
2014/01/29,2705,2810,2700,2750,234600,2750
2014/01/30,2660,2930,2555,2763,699400,2763
2014/01/31,2803,2870,2550,2639,522900,2639
2014/02/03,2250,2328,2139,2153,1055700,2153
2014/02/04,1953,1954,1677,1810,956100,1810
2014/02/05,2100,2100,1751,1900,566600,1900
2014/02/06,1920,2200,1865,2100,657800,2100
2014/02/07,2220,2289,2020,2100,594000,2100
2014/02/10,2145,2271,2120,2187,650700,2187
2014/02/12,2249,2254,2135,2140,355100,2140
2014/02/13,1990,2151,1980,2000,371400,2000
2014/02/14,1971,2032,1860,1912,293900,1912
2014/02/17,1912,1938,1801,1882,195200,1882
2014/02/18,1882,1919,1806,1911,215500,1911
2014/02/19,1880,2050,1866,1969,409700,1969
2014/02/20,1906,1940,1842,1862,215900,1862
2014/02/21,1890,1915,1858,1870,246500,1870
2014/02/24,1900,2028,1900,1970,444900,1970
2014/02/25,1985,2243,1955,2162,1777100,2162
2014/02/26,2100,2140,2030,2033,588400,2033
2014/02/27,2130,2249,2020,2050,815300,2050
2014/02/28,2017,2060,1950,1971,270000,1971
2014/03/03,1875,1900,1850,1882,245400,1882
2014/03/04,1811,1898,1808,1829,193100,1829
2014/03/05,1890,1898,1824,1840,144500,1840
2014/03/06,1880,1970,1850,1905,271600,1905
2014/03/07,1924,1960,1885,1897,184400,1897
2014/03/10,1898,1989,1898,1958,202800,1958
2014/03/11,1997,2077,1983,2037,473200,2037
2014/03/12,2011,2019,1972,1998,123300,1998
2014/03/13,2031,2033,1875,1882,180400,1882
2014/03/14,1820,1838,1788,1801,197800,1801
2014/03/17,1780,1819,1750,1753,108100,1753
2014/03/18,1793,1809,1751,1772,92000,1772
2014/03/19,1785,1797,1661,1686,159300,1686
2014/03/20,1646,1655,1474,1522,353500,1522
2014/03/24,1523,1570,1488,1535,123000,1535
2014/03/25,1500,1517,1350,1398,287400,1398
2014/03/26,1439,1532,1405,1459,367100,1459
2014/03/27,1425,1756,1341,1756,683000,1756
2014/03/28,1676,1785,1623,1741,524400,1741
2014/03/31,1821,1833,1712,1734,204100,1734
2014/04/01,1725,1769,1655,1710,128400,1710
2014/04/02,1756,1888,1716,1850,700200,1850
2014/04/03,1900,1948,1811,1837,401100,1837
2014/04/04,1797,1846,1747,1787,312400,1787
2014/04/07,1720,1797,1710,1748,290200,1748
2014/04/08,1668,1765,1664,1718,180700,1718
2014/04/09,1678,1757,1678,1698,117800,1698
2014/04/10,1750,1760,1560,1600,194900,1600
2014/04/11,1480,1549,1476,1527,169800,1527
2014/04/14,1481,1547,1480,1480,114500,1480
2014/04/15,1513,1556,1461,1481,384100,1481
2014/04/16,1482,1597,1482,1581,266700,1581
2014/04/17,1621,1628,1517,1541,173600,1541
2014/04/18,1559,1598,1530,1580,147900,1580
2014/04/21,1608,1715,1608,1687,447300,1687
2014/04/22,1647,1675,1524,1552,291800,1552
2014/04/23,1592,1592,1515,1552,153000,1552
2014/04/24,1587,1613,1552,1587,127700,1587
2014/04/25,1570,1615,1550,1600,107800,1600
2014/04/28,1550,1597,1517,1526,149800,1526
2014/04/30,1516,1540,1428,1436,149600,1436
2014/05/01,1421,1441,1383,1427,208000,1427
2014/05/02,1450,1467,1401,1436,157400,1436
2014/05/07,1400,1411,1380,1395,105800,1395
2014/05/08,1420,1457,1389,1399,147400,1399
2014/05/09,1371,1399,1358,1374,96500,1374
2014/05/12,1352,1363,1154,1158,317300,1158
2014/05/13,1205,1249,1160,1204,266700,1204
2014/05/14,1201,1295,1170,1247,215600,1247
2014/05/15,1170,1288,1170,1287,170100,1287
2014/05/16,1231,1269,1193,1220,142200,1220
2014/05/19,1210,1224,1106,1112,157200,1112
2014/05/20,1133,1217,1120,1184,191500,1184
2014/05/21,1124,1350,1121,1285,405200,1285
2014/05/22,1315,1341,1251,1264,248000,1264
2014/05/23,1324,1450,1300,1401,823600,1401
2014/05/26,1461,1568,1430,1525,627500,1525
2014/05/27,1515,1549,1481,1481,262100,1481
2014/05/28,1511,1540,1481,1519,197300,1519
2014/05/29,1547,1648,1532,1590,524100,1590
2014/05/30,1652,1679,1552,1617,405700,1617
2014/06/02,1640,1654,1617,1634,216500,1634
2014/06/03,1626,1770,1602,1750,1066600,1750
2014/06/04,2130,2138,1986,2103,2450600,2103
2014/06/05,2007,2030,1860,1936,1025600,1936
2014/06/06,1930,2018,1871,1999,800700,1999
2014/06/09,2001,2200,1984,2124,1533100,2124
2014/06/10,2074,2170,1961,2000,1039400,2000
2014/06/11,1980,2044,1925,1981,367100,1981
2014/06/12,1955,2020,1910,1965,302500,1965
2014/06/13,1925,1955,1900,1935,245700,1935
2014/06/16,1930,1963,1895,1910,150800,1910
2014/06/17,1913,1930,1825,1854,155200,1854
2014/06/18,1894,1960,1862,1932,262600,1932
2014/06/19,1930,1960,1880,1884,181500,1884
2014/06/20,1861,1872,1752,1766,258400,1766
2014/06/23,1800,1845,1778,1806,195500,1806
2014/06/24,1770,1848,1770,1815,157600,1815
2014/06/25,1820,1854,1780,1789,149000,1789
2014/06/26,1777,1800,1755,1776,95400,1776
2014/06/27,1752,1757,1656,1680,146600,1680
2014/06/30,1662,1726,1661,1692,107500,1692
2014/07/01,1709,1815,1685,1764,388300,1764
2014/07/02,1798,1823,1749,1760,158200,1760
2014/07/03,1752,1764,1705,1710,86900,1710
2014/07/04,1760,1816,1716,1729,321800,1729
2014/07/07,1710,1775,1701,1726,156400,1726
2014/07/08,1715,1815,1713,1805,329800,1805
2014/07/09,1755,1792,1746,1769,120700,1769
2014/07/10,1769,1780,1708,1720,79000,1720
2014/07/11,1699,1750,1674,1726,134100,1726
2014/07/14,1735,1747,1703,1720,62000,1720
2014/07/15,1730,2085,1711,2085,616900,2085
2014/07/16,1985,1996,1871,1884,935100,1884
2014/07/17,1900,1915,1777,1783,335100,1783
2014/07/18,1722,1828,1720,1745,347500,1745
2014/07/22,1731,1760,1716,1716,166300,1716
2014/07/23,1712,1724,1702,1705,95300,1705
2014/07/24,1705,1728,1688,1692,93200,1692
2014/07/25,1692,1733,1692,1706,97600,1706
2014/07/28,1705,1724,1694,1710,72100,1710
2014/07/29,1714,1760,1705,1731,119400,1731
2014/07/30,1738,1803,1715,1726,239900,1726
2014/07/31,1726,1776,1722,1740,249200,1740
2014/08/01,1703,1715,1661,1668,257800,1668
2014/08/04,1660,1661,1608,1614,176900,1614
2014/08/05,1609,1656,1542,1542,233000,1542
2014/08/06,1535,1535,1482,1488,152500,1488
2014/08/07,1488,1500,1414,1441,102100,1441
2014/08/08,1471,1471,1342,1370,135000,1370
2014/08/11,1448,1476,1421,1434,86300,1434
2014/08/12,1420,1487,1403,1439,79800,1439
2014/08/13,1420,1456,1410,1425,56300,1425
2014/08/14,1430,1466,1430,1443,70000,1443
2014/08/15,1460,1493,1450,1484,68200,1484
2014/08/18,1503,1525,1494,1494,75000,1494
2014/08/19,1528,1540,1510,1511,83100,1511
2014/08/20,1521,1533,1515,1531,42600,1531
2014/08/21,1532,1585,1530,1562,53400,1562
2014/08/22,1579,1581,1551,1560,54200,1560
2014/08/25,1558,1559,1522,1539,47400,1539
2014/08/26,1530,1550,1490,1503,81700,1503
2014/08/27,1506,1540,1490,1492,36100,1492
2014/08/28,1518,1550,1489,1492,76900,1492
2014/08/29,1486,1510,1457,1490,42000,1490
2014/09/01,1487,1488,1460,1466,35600,1466
2014/09/02,1470,1497,1456,1470,40500,1470
2014/09/03,1470,1496,1466,1472,45400,1472
2014/09/04,1480,1545,1477,1477,67400,1477
2014/09/05,1477,1500,1454,1455,27700,1455
2014/09/08,1455,1458,1412,1419,47500,1419
2014/09/09,1415,1463,1414,1420,43400,1420
2014/09/10,1423,1428,1397,1397,43700,1397
2014/09/11,1395,1554,1377,1513,309400,1513
2014/09/12,1553,1553,1455,1467,109200,1467
2014/09/16,1544,1544,1475,1484,57300,1484
2014/09/17,1486,1500,1463,1467,35200,1467
2014/09/18,1470,1528,1458,1528,130500,1528
2014/09/19,1516,1534,1497,1534,66700,1534
2014/09/22,1574,1622,1537,1605,233600,1605
2014/09/24,1476,1494,1435,1481,190700,1481
2014/09/25,1451,1451,1418,1430,142500,1430
2014/09/26,1421,1440,1415,1426,51300,1426
2014/09/29,1435,1440,1420,1427,30300,1427
2014/09/30,1420,1435,1390,1398,49100,1398
2014/10/01,1396,1410,1299,1305,100200,1305
2014/10/02,1255,1316,1246,1280,73600,1280
2014/10/03,1252,1347,1252,1347,53100,1347
2014/10/06,1386,1386,1348,1365,38300,1365
2014/10/07,1316,1334,1302,1304,39200,1304
2014/10/08,1262,1285,1257,1270,61400,1270
2014/10/09,1285,1311,1201,1207,64900,1207
2014/10/10,1142,1198,1122,1158,108500,1158
2014/10/14,1100,1148,1079,1100,99700,1100
2014/10/15,1104,1149,1104,1139,45600,1139
2014/10/16,1100,1132,1084,1104,41400,1104
2014/10/17,1100,1144,1100,1116,32600,1116
2014/10/20,1168,1206,1155,1187,55400,1187
2014/10/21,1200,1218,1151,1151,49400,1151
2014/10/22,1190,1209,1175,1186,34600,1186
2014/10/23,1170,1198,1164,1185,32000,1185
2014/10/24,1210,1220,1181,1209,42300,1209
2014/10/27,1220,1229,1196,1207,26000,1207
2014/10/28,1190,1205,1168,1169,40500,1169
2014/10/29,1180,1198,1168,1198,31000,1198
2014/10/30,1174,1205,1174,1177,21000,1177
2014/10/31,1188,1207,1170,1199,35700,1199
2014/11/04,1259,1348,1240,1306,138600,1306
2014/11/05,1297,1304,1284,1299,38500,1299
2014/11/06,1301,1423,1300,1360,137100,1360
2014/11/07,1352,1371,1320,1321,44000,1321
2014/11/10,1310,1341,1300,1312,46000,1312
2014/11/11,1334,1334,1304,1324,24800,1324
2014/11/12,1325,1325,1304,1305,39500,1305
2014/11/13,1305,1306,1267,1268,36900,1268
2014/11/14,1263,1300,1211,1225,53600,1225
2014/11/17,1246,1246,1210,1216,28600,1216
2014/11/18,1237,1296,1222,1296,59000,1296
2014/11/19,1300,1327,1274,1296,50500,1296
2014/11/20,1297,1299,1271,1275,34800,1275
2014/11/21,1271,1286,1269,1275,28100,1275
2014/11/25,1277,1302,1276,1278,26500,1278
2014/11/26,1283,1310,1277,1280,34100,1280
2014/11/27,1283,1387,1280,1360,165000,1360
2014/11/28,1385,1413,1341,1346,140300,1346
2014/12/01,1346,1354,1311,1353,56300,1353
2014/12/02,1350,1359,1335,1358,29000,1358
2014/12/03,1380,1380,1320,1336,58600,1336
2014/12/04,1314,1370,1314,1322,78000,1322
2014/12/05,1317,1336,1313,1330,28800,1330
2014/12/08,1330,1336,1305,1305,38700,1305
2014/12/09,1291,1292,1230,1234,85800,1234
2014/12/10,1201,1242,1200,1222,31300,1222
2014/12/11,1202,1240,1201,1216,28900,1216
2014/12/12,1228,1235,1215,1218,23900,1218
2014/12/15,1217,1217,1192,1201,40100,1201
2014/12/16,1195,1200,1181,1181,27100,1181
2014/12/17,1160,1190,1160,1160,28000,1160
2014/12/18,1208,1208,1165,1168,20800,1168
2014/12/19,1175,1212,1175,1197,35500,1197
2014/12/22,1200,1205,1161,1171,30400,1171
2014/12/24,1183,1184,1150,1150,60400,1150
2014/12/25,1127,1160,1108,1109,70000,1109
2014/12/26,1112,1173,1112,1173,37400,1173
2014/12/29,1190,1223,1186,1191,43000,1191
2014/12/30,1195,1205,1177,1179,23700,1179
2015/01/05,1195,1209,1181,1200,20500,1200
2015/01/06,1195,1195,1150,1154,27300,1154
2015/01/07,1149,1159,1136,1138,21100,1138
2015/01/08,1144,1160,1139,1153,22300,1153
2015/01/09,1169,1169,1118,1126,34400,1126
2015/01/13,1100,1119,1097,1098,33000,1098
2015/01/14,1095,1097,1075,1075,37900,1075
2015/01/15,1071,1072,1031,1035,55600,1035
2015/01/16,1005,1049,998,1030,69700,1030
2015/01/19,1047,1048,1024,1043,18300,1043
2015/01/20,1047,1118,1032,1075,49400,1075
2015/01/21,1080,1114,1058,1069,30700,1069
2015/01/22,1047,1073,1042,1045,23200,1045
2015/01/23,1055,1055,1031,1040,16500,1040
2015/01/26,1060,1060,1040,1057,21600,1057
2015/01/27,1080,1080,1043,1057,32600,1057
2015/01/28,1057,1078,1049,1077,30500,1077
2015/01/29,1057,1123,1055,1096,72200,1096
2015/01/30,1110,1200,1105,1200,115100,1200
2015/02/02,1165,1264,1165,1217,159700,1217
2015/02/03,1247,1247,1121,1133,84500,1133
2015/02/04,1152,1200,1150,1151,38800,1151
2015/02/05,1150,1167,1122,1151,23200,1151
2015/02/06,1133,1154,1088,1127,55700,1127
2015/02/09,1156,1207,1141,1204,58300,1204
2015/02/10,1215,1218,1179,1214,42900,1214
2015/02/12,1221,1233,1212,1230,38600,1230
2015/02/13,1230,1234,1210,1222,42600,1222
2015/02/16,1230,1253,1221,1224,36100,1224
2015/02/17,1224,1234,1173,1205,49600,1205
2015/02/18,1201,1211,1181,1199,18400,1199
2015/02/19,1210,1230,1201,1221,48300,1221
2015/02/20,1221,1240,1216,1224,27500,1224
2015/02/23,1245,1275,1227,1275,58600,1275
2015/02/24,1274,1295,1268,1277,41100,1277
2015/02/25,1271,1280,1265,1268,26100,1268
2015/02/26,1268,1275,1232,1243,37700,1243
2015/02/27,1213,1228,1209,1210,32900,1210
2015/03/02,1186,1215,1175,1187,28200,1187
2015/03/03,1187,1199,1135,1148,30400,1148
2015/03/04,1140,1150,1100,1147,44600,1147
2015/03/05,1124,1149,1122,1126,21100,1126
2015/03/06,1126,1126,1106,1113,29300,1113
2015/03/09,1104,1122,1104,1114,7200,1114
2015/03/10,1106,1131,1106,1128,19100,1128
2015/03/11,1120,1125,1108,1111,18200,1111
2015/03/12,1111,1120,1100,1104,24300,1104
2015/03/13,1098,1115,1087,1087,24600,1087
2015/03/16,1087,1099,1071,1072,18200,1072
2015/03/17,1071,1088,1042,1058,31800,1058
2015/03/18,1067,1067,1025,1037,24500,1037
2015/03/19,1012,1047,1010,1039,21900,1039
2015/03/20,1038,1078,1038,1064,22300,1064
2015/03/23,1071,1073,1061,1065,20400,1065
2015/03/24,1079,1079,1064,1064,16200,1064
2015/03/25,1080,1082,1059,1061,14100,1061
2015/03/26,1059,1065,1035,1035,31900,1035
2015/03/27,1044,1059,1033,1038,11200,1038
2015/03/30,1038,1054,1038,1040,7800,1040
2015/03/31,1040,1062,1040,1050,15100,1050
2015/04/01,1067,1067,1046,1060,9700,1060
2015/04/02,1360,1360,1360,1360,57700,1360
2015/04/03,1343,1388,1202,1230,674800,1230
2015/04/06,1200,1257,1170,1252,97500,1252
2015/04/07,1248,1250,1209,1217,51900,1217
2015/04/08,1210,1237,1205,1209,29900,1209
2015/04/09,1205,1233,1189,1190,48700,1190
2015/04/10,1200,1200,1170,1171,27900,1171
2015/04/13,1161,1197,1160,1197,31500,1197
2015/04/14,1200,1200,1177,1177,25300,1177
2015/04/15,1170,1198,1162,1171,22600,1171
2015/04/16,1164,1204,1163,1202,37700,1202
2015/04/17,1204,1220,1197,1220,36800,1220
2015/04/20,1201,1205,1185,1205,48200,1205
2015/04/21,1220,1220,1196,1196,13400,1196
2015/04/22,1192,1203,1185,1202,16800,1202
2015/04/23,1204,1204,1186,1188,12100,1188
2015/04/24,1199,1203,1189,1200,16900,1200
2015/04/27,1199,1208,1185,1185,16500,1185
2015/04/28,1185,1193,1178,1184,14900,1184
2015/04/30,1179,1190,1168,1174,17100,1174
2015/05/01,1170,1170,1136,1162,22900,1162
2015/05/07,1108,1143,1108,1142,17300,1142
2015/05/08,1165,1176,1151,1160,22000,1160
2015/05/11,1151,1193,1150,1190,20300,1190
2015/05/12,1160,1186,1160,1181,21100,1181
2015/05/13,1168,1209,1168,1200,25900,1200
2015/05/14,1190,1201,1185,1185,10200,1185
2015/05/15,1190,1190,1150,1157,16000,1157
2015/05/18,1162,1165,1150,1151,7400,1151
2015/05/19,1161,1161,1130,1137,19400,1137
2015/05/20,1134,1165,1134,1138,26700,1138
2015/05/21,1186,1243,1171,1178,87700,1178
2015/05/22,1171,1200,1171,1200,22400,1200
2015/05/25,1230,1234,1202,1220,39800,1220
2015/05/26,1220,1226,1198,1221,33500,1221
2015/05/27,1225,1430,1225,1281,487600,1281
2015/05/28,1251,1273,1234,1237,60900,1237
2015/05/29,1241,1300,1241,1299,57600,1299
2015/06/01,1301,1345,1288,1305,94700,1305
2015/06/02,1292,1309,1289,1309,29500,1309
2015/06/03,1290,1304,1290,1291,28600,1291
2015/06/04,1292,1300,1289,1292,21000,1292
2015/06/05,1288,1294,1272,1278,14900,1278
2015/06/08,1272,1294,1270,1273,14100,1273
2015/06/09,1271,1271,1231,1232,23700,1232
2015/06/10,1221,1235,1216,1223,12500,1223
2015/06/11,1232,1275,1232,1260,16500,1260
2015/06/12,1264,1287,1250,1287,24500,1287
2015/06/15,1275,1287,1275,1282,11500,1282
2015/06/16,1282,1282,1262,1262,20300,1262
2015/06/17,1260,1275,1259,1273,16100,1273
2015/06/18,1275,1281,1261,1266,27600,1266
2015/06/19,1265,1275,1262,1264,11400,1264
2015/06/22,1260,1278,1260,1266,6200,1266
2015/06/23,1260,1284,1260,1277,13000,1277
2015/06/24,1277,1283,1274,1278,13700,1278
2015/06/25,1275,1284,1261,1279,12200,1279
2015/06/26,1280,1310,1275,1306,22400,1306
2015/06/29,1210,1261,1196,1256,52700,1256
2015/06/30,1226,1258,1226,1258,17900,1258
2015/07/01,1258,1263,1231,1257,16200,1257
