2011/12/14,1307,1310,1222,1270,28255700,1270
2011/12/15,1265,1269,1232,1244,7075700,1244
2011/12/16,1245,1257,1091,1100,10224800,1100
2011/12/19,1040,1123,1020,1060,5532600,1060
2011/12/20,1050,1080,1023,1053,3693400,1053
2011/12/21,1100,1112,1045,1060,2622600,1060
2011/12/22,1090,1142,1059,1117,5233200,1117
2011/12/26,1138,1177,1120,1175,2791500,1175
2011/12/27,1162,1190,1144,1156,1825000,1156
2011/12/28,1130,1154,1112,1122,1384000,1122
2011/12/29,1115,1137,1075,1107,1296300,1107
2011/12/30,1102,1129,1102,1107,880900,1107
2012/01/04,1124,1160,1111,1153,1489500,1153
2012/01/05,1155,1166,1146,1152,823000,1152
2012/01/06,1146,1150,1115,1125,525300,1125
2012/01/10,1100,1153,1100,1150,751600,1150
2012/01/11,1140,1190,1140,1187,1963300,1187
2012/01/12,1187,1195,1164,1165,1095800,1165
2012/01/13,1170,1199,1165,1198,928200,1198
2012/01/16,1230,1240,1194,1199,2493700,1199
2012/01/17,1202,1204,1187,1195,1826600,1195
2012/01/18,1205,1209,1198,1200,901200,1200
2012/01/19,1191,1204,1187,1190,1372500,1190
2012/01/20,1180,1184,1155,1164,1666400,1164
2012/01/23,1145,1146,1100,1112,1448300,1112
2012/01/24,1115,1150,1111,1148,954300,1148
2012/01/25,1149,1171,1133,1138,1024900,1138
2012/01/26,1122,1131,1030,1087,2336400,1087
2012/01/27,1075,1127,1053,1118,1904800,1118
2012/01/30,1117,1187,1108,1170,9757300,1170
2012/01/31,1146,1160,1100,1115,2228600,1115
2012/02/01,1100,1146,1098,1140,1137900,1140
2012/02/02,1141,1146,1127,1143,451900,1143
2012/02/03,1150,1161,1121,1135,735000,1135
2012/02/06,1144,1155,1130,1138,350800,1138
2012/02/07,1165,1171,1142,1145,895400,1145
2012/02/08,1158,1188,1154,1187,1708100,1187
2012/02/09,1188,1197,1175,1186,792800,1186
2012/02/10,1194,1216,1173,1210,1207300,1210
2012/02/13,1220,1242,1211,1240,1337700,1240
2012/02/14,1250,1271,1238,1264,1927600,1264
2012/02/15,1220,1244,1194,1203,2220100,1203
2012/02/16,1180,1180,1145,1153,1729000,1153
2012/02/17,1170,1170,1108,1124,1231700,1124
2012/02/20,1122,1125,1101,1101,766300,1101
2012/02/21,1102,1133,1102,1128,1055600,1128
2012/02/22,1138,1158,1129,1155,830200,1155
2012/02/23,1150,1172,1134,1164,1226500,1164
2012/02/24,1168,1185,1168,1182,1367100,1182
2012/02/27,1199,1240,1190,1236,2425200,1236
2012/02/28,1220,1233,1184,1202,1387500,1202
2012/02/29,1190,1199,1159,1175,1038200,1175
2012/03/01,1199,1220,1180,1192,856900,1192
2012/03/02,1219,1219,1178,1199,1076500,1199
2012/03/05,1213,1213,1195,1196,526300,1196
2012/03/06,1190,1210,1185,1195,548200,1195
2012/03/07,1210,1220,1195,1208,1284600,1208
2012/03/08,1225,1238,1214,1238,1329600,1238
2012/03/09,1250,1250,1223,1229,1285100,1229
2012/03/12,1231,1234,1217,1229,437700,1229
2012/03/13,1222,1225,1206,1212,706300,1212
2012/03/14,1225,1230,1200,1210,592600,1210
2012/03/15,1220,1220,1182,1190,1348000,1190
2012/03/16,1177,1270,1172,1259,2084100,1259
2012/03/19,1241,1278,1241,1274,1567800,1274
2012/03/21,1274,1310,1270,1295,1655900,1295
2012/03/22,1350,1395,1350,1372,6617800,1372
2012/03/23,1373,1380,1352,1368,2137500,1368
2012/03/26,1376,1410,1360,1374,2055800,1374
2012/03/27,1374,1409,1374,1405,2558500,1405
2012/03/28,1401,1465,1398,1450,3316400,1450
2012/03/29,1453,1469,1415,1447,1639400,1447
2012/03/30,1449,1466,1423,1442,1863200,1442
2012/04/02,1443,1457,1415,1438,864600,1438
2012/04/03,1445,1477,1425,1457,1340600,1457
2012/04/04,1450,1462,1434,1444,1280600,1444
2012/04/05,1414,1423,1386,1412,1379200,1412
2012/04/06,1430,1461,1424,1450,1168700,1450
2012/04/09,1467,1475,1415,1454,1060500,1454
2012/04/10,1452,1499,1448,1471,1541100,1471
2012/04/11,1450,1510,1442,1497,1615600,1497
2012/04/12,1501,1529,1479,1501,1341800,1501
2012/04/13,1499,1500,1460,1482,1023000,1482
2012/04/16,1470,1471,1434,1445,1490600,1445
2012/04/17,1450,1470,1438,1444,1020200,1444
2012/04/18,1470,1509,1465,1490,1143000,1490
2012/04/19,1473,1509,1470,1505,1034800,1505
2012/04/20,1531,1577,1531,1556,2762900,1556
2012/04/23,1558,1588,1550,1559,1157700,1559
2012/04/24,1559,1576,1525,1541,981300,1541
2012/04/25,1553,1570,1530,1560,843300,1560
2012/04/26,1575,1584,1472,1524,4052000,1524
2012/04/27,1557,1569,1515,1524,2111900,1524
2012/05/01,1508,1521,1451,1464,1532900,1464
2012/05/02,1464,1492,1444,1484,889500,1484
2012/05/07,1431,1507,1428,1480,1206900,1480
2012/05/08,1481,1579,1444,1538,1832900,1538
2012/05/09,1511,1570,1491,1540,1484600,1540
2012/05/10,1529,1530,1452,1475,1869100,1475
2012/05/11,1543,1557,1455,1466,2684200,1466
2012/05/14,1440,1461,1427,1445,1397400,1445
2012/05/15,1415,1476,1400,1427,2582700,1427
2012/05/16,1450,1454,1386,1406,2595400,1406
2012/05/17,1401,1425,1381,1411,1233600,1411
2012/05/18,1390,1403,1373,1380,859500,1380
2012/05/21,1350,1385,1332,1345,1618100,1345
2012/05/22,1345,1374,1342,1349,1256000,1349
2012/05/23,1339,1349,1312,1327,1381900,1327
2012/05/24,1328,1345,1296,1306,1403200,1306
2012/05/25,1350,1360,1308,1331,1754900,1331
2012/05/28,1336,1340,1291,1319,1392500,1319
2012/05/29,1289,1315,1266,1309,1502000,1309
2012/05/30,1309,1331,1264,1288,1819200,1288
2012/05/31,1258,1264,1203,1239,9433300,1239
2012/06/01,1238,1249,1223,1249,1744200,1249
2012/06/04,1190,1212,1185,1200,1303800,1200
2012/06/05,1225,1263,1216,1256,2046300,1256
2012/06/06,1346,1350,1275,1309,2104100,1309
2012/06/07,1339,1342,1311,1322,1286000,1322
2012/06/08,1332,1332,1280,1319,1338100,1319
2012/06/11,1379,1393,1361,1387,1765000,1387
2012/06/12,1387,1406,1377,1404,1979700,1404
2012/06/13,1413,1413,1386,1397,1057500,1397
2012/06/14,1396,1401,1378,1392,704500,1392
2012/06/15,1392,1407,1362,1394,635100,1394
2012/06/18,1413,1456,1406,1448,827200,1448
2012/06/19,1449,1491,1441,1469,820200,1469
2012/06/20,1495,1520,1482,1514,1138000,1514
2012/06/21,1514,1514,1473,1478,850000,1478
2012/06/22,1463,1473,1447,1462,585100,1462
2012/06/25,1452,1468,1443,1455,417900,1455
2012/06/26,1455,1487,1452,1485,1079400,1485
2012/06/27,1484,1484,1446,1477,463000,1477
2012/06/28,1490,1505,1480,1505,607000,1505
2012/06/29,1520,1553,1515,1550,1390900,1550
2012/07/02,1600,1616,1553,1554,770900,1554
2012/07/03,1550,1580,1544,1575,863400,1575
2012/07/04,1590,1610,1585,1604,917600,1604
2012/07/05,1597,1602,1580,1597,456600,1597
2012/07/06,1595,1608,1588,1602,489900,1602
2012/07/09,1610,1672,1610,1659,1673400,1659
2012/07/10,1670,1693,1637,1646,1486600,1646
2012/07/11,1625,1632,1561,1609,1213200,1609
2012/07/12,1616,1636,1593,1606,990500,1606
2012/07/13,1600,1623,1593,1594,876200,1594
2012/07/17,1600,1646,1595,1597,1006700,1597
2012/07/18,1580,1583,1487,1522,1492200,1522
2012/07/19,1549,1576,1504,1510,929200,1510
2012/07/20,1500,1514,1484,1491,736800,1491
2012/07/23,1455,1505,1453,1460,452500,1460
2012/07/24,1496,1510,1478,1498,762300,1498
2012/07/25,1450,1513,1450,1509,640000,1509
2012/07/26,1535,1591,1515,1587,1117100,1587
2012/07/27,1620,1644,1585,1637,2100400,1637
2012/07/30,1645,1645,1554,1587,2138700,1587
2012/07/31,1609,1633,1591,1621,1131400,1621
2012/08/01,1630,1640,1605,1615,542800,1615
2012/08/02,1600,1604,1579,1595,401800,1595
2012/08/03,1589,1595,1583,1592,348500,1592
2012/08/06,1600,1624,1587,1588,496100,1588
2012/08/07,1588,1606,1566,1575,574300,1575
2012/08/08,1600,1614,1577,1595,603900,1595
2012/08/09,1596,1638,1571,1635,1119300,1635
2012/08/10,1235,1235,1235,1235,142100,1235
2012/08/13,1175,1204,1094,1138,7615900,1138
2012/08/14,1153,1158,1110,1133,2653700,1133
2012/08/15,1126,1175,1126,1140,2278700,1140
2012/08/16,1139,1204,1139,1199,2931800,1199
2012/08/17,1229,1240,1174,1189,2168500,1189
2012/08/20,1190,1260,1185,1254,1345900,1254
2012/08/21,1242,1251,1220,1226,823300,1226
2012/08/22,1240,1245,1201,1212,834000,1212
2012/08/23,1194,1208,1164,1167,1674900,1167
2012/08/24,1155,1173,1145,1155,1118800,1155
2012/08/27,1152,1161,1148,1150,642700,1150
2012/08/28,1128,1146,1116,1125,843500,1125
2012/08/29,1135,1152,1135,1144,420200,1144
2012/08/30,1150,1153,1127,1139,600700,1139
2012/08/31,1125,1137,1107,1129,686300,1129
2012/09/03,1132,1139,1113,1116,380100,1116
2012/09/04,1116,1120,1099,1103,506600,1103
2012/09/05,1100,1101,1038,1044,1057900,1044
2012/09/06,1030,1072,1010,1051,1436900,1051
2012/09/07,1070,1091,1057,1064,857500,1064
2012/09/10,1048,1100,1033,1078,883000,1078
2012/09/11,1078,1110,1071,1084,1039300,1084
2012/09/12,1074,1074,1055,1059,696100,1059
2012/09/13,1059,1067,1052,1055,788500,1055
2012/09/14,1070,1076,1027,1029,1655200,1029
2012/09/18,1033,1051,1033,1043,676500,1043
2012/09/19,1052,1072,1045,1049,1433600,1049
2012/09/20,1043,1046,1025,1030,1006400,1030
2012/09/21,1028,1035,1020,1027,573100,1027
2012/09/24,1055,1060,1030,1038,1164300,1038
2012/09/25,1040,1047,1027,1035,779600,1035
2012/09/26,1034,1057,1032,1050,829000,1050
2012/09/27,1047,1060,1040,1057,1118500,1057
2012/09/28,1077,1082,1052,1073,1020600,1073
2012/10/01,1059,1059,1033,1037,1003900,1037
2012/10/02,1100,1153,1070,1099,3581100,1099
2012/10/03,1118,1118,1077,1082,1072600,1082
2012/10/04,1077,1115,1069,1100,1019000,1100
2012/10/05,1100,1109,1083,1087,622100,1087
2012/10/09,1082,1086,1063,1070,921000,1070
2012/10/10,1047,1051,1021,1031,957300,1031
2012/10/11,1016,1023,1000,1018,1183100,1018
2012/10/12,1021,1021,998,999,822800,999
2012/10/15,975,994,928,968,1188500,968
2012/10/16,983,998,975,988,503500,988
2012/10/17,997,1027,984,1027,771200,1027
2012/10/18,1038,1064,1016,1022,1056500,1022
2012/10/19,1008,1016,978,993,942700,993
2012/10/22,993,1010,988,992,538500,992
2012/10/23,991,993,956,958,1007000,958
2012/10/24,957,962,948,953,1295100,953
2012/10/25,966,983,958,980,668200,980
2012/10/26,980,984,965,967,689700,967
2012/10/29,963,989,957,984,495800,984
2012/10/30,989,989,963,969,715500,969
2012/10/31,962,973,958,973,465300,973
2012/11/01,980,980,960,969,380300,969
2012/11/02,990,997,981,996,735300,996
2012/11/05,987,988,963,970,591700,970
2012/11/06,963,964,917,928,1872900,928
2012/11/07,939,939,894,910,1420100,910
2012/11/08,909,922,903,916,1301400,916
2012/11/09,851,852,766,766,5480000,766
2012/11/12,764,764,666,690,8101100,690
2012/11/13,715,770,708,760,5205400,760
2012/11/14,760,794,749,763,2718500,763
2012/11/15,761,771,754,760,914800,760
2012/11/16,760,777,759,764,1004200,764
2012/11/19,779,841,777,826,2664200,826
2012/11/20,839,895,835,862,3368600,862
2012/11/21,874,881,851,863,1308000,863
2012/11/22,862,873,838,870,956000,870
2012/11/26,882,899,878,897,1265700,897
2012/11/27,891,930,888,914,1391500,914
2012/11/28,910,917,902,902,785300,902
2012/11/29,914,915,908,912,779400,912
2012/11/30,930,945,915,924,2580900,924
2012/12/03,922,928,906,907,904500,907
2012/12/04,903,919,896,913,724300,913
2012/12/05,919,919,902,910,965700,910
2012/12/06,911,913,869,877,1276900,877
2012/12/07,875,875,849,864,749500,864
2012/12/10,860,870,852,855,475000,855
2012/12/11,855,856,834,851,510300,851
2012/12/12,910,920,886,895,2143200,895
2012/12/13,903,904,895,897,768100,897
2012/12/14,905,905,890,904,928800,904
2012/12/17,905,909,895,906,448600,906
2012/12/18,908,909,893,899,398500,899
2012/12/19,884,888,856,886,989700,886
2012/12/20,892,892,866,879,725800,879
2012/12/21,897,898,868,894,1171700,894
2012/12/25,894,896,886,889,467700,889
2012/12/26,889,893,876,881,304900,881
2012/12/27,877,891,851,853,918500,853
2012/12/28,850,869,848,868,604600,868
2013/01/04,890,898,876,898,746800,898
2013/01/07,906,907,880,897,495100,897
2013/01/08,892,899,872,873,374800,873
2013/01/09,873,874,833,842,1048100,842
2013/01/10,837,854,836,854,709700,854
2013/01/11,854,905,854,903,1143300,903
2013/01/15,905,910,884,896,618100,896
2013/01/16,885,894,880,888,349300,888
2013/01/17,883,896,856,869,845700,869
2013/01/18,870,872,862,867,862400,867
2013/01/21,912,935,898,908,2495800,908
2013/01/22,905,910,884,895,772700,895
2013/01/23,923,1038,913,1001,4210600,1001
2013/01/24,1016,1038,956,963,2115100,963
2013/01/25,970,982,944,953,1397900,953
2013/01/28,953,980,941,944,1167600,944
2013/01/29,943,960,915,952,718500,952
2013/01/30,954,965,934,949,1067000,949
2013/01/31,951,966,950,961,687200,961
2013/02/01,961,982,951,964,1251700,964
2013/02/04,968,984,955,969,1036300,969
2013/02/05,958,961,915,925,1049800,925
2013/02/06,940,968,926,953,986800,953
2013/02/07,945,965,945,956,817600,956
2013/02/08,938,944,901,909,1190100,909
2013/02/12,939,939,885,887,1678400,887
2013/02/13,858,891,846,857,2463400,857
2013/02/14,858,904,815,821,3595700,821
2013/02/15,829,853,818,837,1235700,837
2013/02/18,829,847,829,840,1257400,840
2013/02/19,835,868,833,860,990400,860
2013/02/20,901,924,868,883,2203300,883
2013/02/21,880,905,869,873,835400,873
2013/02/22,862,878,855,859,749600,859
2013/02/25,874,885,871,880,702700,880
2013/02/26,860,869,837,855,676800,855
2013/02/27,867,867,839,847,711000,847
2013/02/28,863,863,834,841,1434700,841
2013/03/01,844,855,830,833,1246700,833
2013/03/04,840,846,835,840,1157600,840
2013/03/05,857,887,856,862,1646200,862
2013/03/06,871,871,835,845,1346700,845
2013/03/07,855,857,840,849,980800,849
2013/03/08,864,873,857,869,1624200,869
2013/03/11,883,886,864,868,860700,868
2013/03/12,868,880,852,873,1744900,873
2013/03/13,858,859,836,843,1237600,843
2013/03/14,847,848,835,840,843700,840
2013/03/15,839,849,834,849,2468300,849
2013/03/18,840,841,814,822,1474900,822
2013/03/19,833,845,829,839,1393500,839
2013/03/21,849,892,843,880,2882800,880
2013/03/22,920,926,899,912,3610100,912
2013/03/25,927,927,904,912,1487000,912
2013/03/26,900,911,893,911,621300,911
2013/03/27,912,922,908,913,549700,913
2013/03/28,915,920,909,913,771400,913
2013/03/29,916,924,904,915,719100,915
2013/04/01,915,917,902,906,940500,906
2013/04/02,889,913,881,904,1016400,904
2013/04/03,900,922,897,917,1148400,917
2013/04/04,915,922,894,922,1726700,922
2013/04/05,925,980,916,949,3614200,949
2013/04/08,979,983,955,979,1569300,979
2013/04/09,990,1005,962,970,1323400,970
2013/04/10,955,1013,942,993,1467300,993
2013/04/11,1012,1012,975,982,784200,982
2013/04/12,977,995,962,986,1257700,986
2013/04/15,986,1046,986,1038,2557700,1038
2013/04/16,1017,1098,995,1098,3306900,1098
2013/04/17,1099,1123,1070,1091,3140400,1091
2013/04/18,1068,1130,1055,1100,1804000,1100
2013/04/19,1110,1124,1064,1085,1416800,1085
2013/04/22,1100,1142,1099,1142,2552600,1142
2013/04/23,1172,1188,1150,1181,1893500,1181
2013/04/24,1200,1205,1169,1191,1641400,1191
2013/04/25,1210,1213,1182,1197,1521300,1197
2013/04/26,1198,1210,1185,1205,1638500,1205
2013/04/30,1197,1223,1174,1182,1001300,1182
2013/05/01,1187,1196,1154,1167,843900,1167
2013/05/02,1160,1172,1135,1142,942300,1142
2013/05/07,1138,1138,1082,1111,2384900,1111
2013/05/08,1136,1165,1103,1131,2197600,1131
2013/05/09,1150,1160,1111,1119,1065700,1119
2013/05/10,1298,1298,1175,1192,4123300,1192
2013/05/13,1282,1287,1163,1178,2907300,1178
2013/05/14,1160,1203,1132,1158,2602200,1158
2013/05/15,1182,1295,1180,1230,5563800,1230
2013/05/16,1250,1254,1113,1175,2498600,1175
2013/05/17,1195,1263,1195,1243,1856000,1243
2013/05/20,1263,1264,1188,1199,2417700,1199
2013/05/21,1211,1229,1195,1209,1690000,1209
2013/05/22,1215,1235,1149,1201,1082100,1201
2013/05/23,1203,1227,1138,1145,1881700,1145
2013/05/24,1163,1185,1101,1140,1295600,1140
2013/05/27,1110,1169,1093,1155,951300,1155
2013/05/28,1130,1139,1109,1119,1046200,1119
2013/05/29,1137,1207,1135,1184,2100800,1184
2013/05/30,1145,1170,1103,1113,1889100,1113
2013/05/31,1118,1129,1079,1090,1342300,1090
2013/06/03,1070,1096,1021,1030,1547400,1030
2013/06/04,1035,1037,994,1035,1644100,1035
2013/06/05,1060,1112,1050,1053,1910300,1053
2013/06/06,1036,1096,1031,1041,1056500,1041
2013/06/07,1018,1020,968,998,2537400,998
2013/06/10,1030,1047,1005,1025,1332500,1025
2013/06/11,1025,1069,1009,1046,1457000,1046
2013/06/12,1021,1042,998,1036,961400,1036
2013/06/13,1006,1024,969,981,3817300,981
2013/06/14,986,1002,953,967,3311900,967
2013/06/17,956,1014,956,1012,1227200,1012
2013/06/18,1023,1084,1016,1070,1562300,1070
2013/06/19,1089,1125,1055,1069,1361100,1069
2013/06/20,1039,1076,1011,1016,1112400,1016
2013/06/21,1001,1019,972,1012,803100,1012
2013/06/24,1011,1011,976,982,1441400,982
2013/06/25,989,1005,943,955,1717900,955
2013/06/26,960,974,938,949,1014200,949
2013/06/27,955,1020,952,1016,1643300,1016
2013/06/28,1042,1107,1035,1094,2684400,1094
2013/07/01,1106,1117,1082,1101,1123100,1101
2013/07/02,1145,1179,1128,1170,1883500,1170
2013/07/03,1181,1187,1144,1152,955800,1152
2013/07/04,1162,1186,1155,1172,901800,1172
2013/07/05,1199,1200,1173,1179,682700,1179
2013/07/08,1190,1190,1128,1131,1173400,1131
2013/07/09,1159,1179,1138,1162,687600,1162
2013/07/10,1158,1168,1138,1163,683800,1163
2013/07/11,1147,1162,1135,1161,516300,1161
2013/07/12,1164,1180,1156,1180,845900,1180
2013/07/16,1185,1185,1166,1178,474600,1178
2013/07/17,1175,1186,1170,1178,1133400,1178
2013/07/18,1197,1236,1197,1230,2102600,1230
2013/07/19,1240,1249,1205,1241,1603600,1241
2013/07/22,1258,1284,1252,1280,1289600,1280
2013/07/23,1281,1327,1275,1322,2066500,1322
2013/07/24,1333,1369,1292,1329,1946300,1329
2013/07/25,1348,1352,1297,1298,1039300,1298
2013/07/26,1260,1280,1230,1255,1013100,1255
2013/07/29,1240,1257,1216,1230,654300,1230
2013/07/30,1211,1256,1185,1243,858100,1243
2013/07/31,1231,1284,1197,1239,1250400,1239
2013/08/01,1251,1276,1220,1264,1190100,1264
2013/08/02,1285,1289,1260,1277,716700,1277
2013/08/05,1261,1261,1215,1221,1176000,1221
2013/08/06,1209,1231,1184,1213,2040300,1213
2013/08/07,1206,1207,1169,1171,1428600,1171
2013/08/08,1173,1197,1136,1145,1146200,1145
2013/08/09,1157,1178,1124,1126,1518600,1126
2013/08/12,1127,1139,1010,1082,4593400,1082
2013/08/13,1067,1081,1011,1075,5218200,1075
2013/08/14,1090,1096,1045,1077,1703100,1077
2013/08/15,1059,1084,1045,1072,1178300,1072
2013/08/16,1075,1095,1020,1042,2276000,1042
2013/08/19,1031,1050,1020,1048,1245600,1048
2013/08/20,1049,1067,1028,1032,1602100,1032
2013/08/21,1039,1047,1007,1033,1889500,1033
2013/08/22,1052,1063,1015,1035,1247700,1035
2013/08/23,1065,1078,1047,1053,1589300,1053
2013/08/26,1052,1071,1048,1058,878900,1058
2013/08/27,1036,1058,1032,1043,559400,1043
2013/08/28,1029,1076,1027,1060,2105800,1060
2013/08/29,1072,1094,1065,1083,2124300,1083
2013/08/30,1079,1107,1066,1074,1932300,1074
2013/09/02,1092,1115,1067,1078,1897100,1078
2013/09/03,1079,1109,1078,1103,1741700,1103
2013/09/04,1105,1140,1101,1121,2109500,1121
2013/09/05,1151,1168,1119,1144,2121200,1144
2013/09/06,1141,1142,1108,1112,1433500,1112
2013/09/09,1142,1157,1126,1142,953300,1142
2013/09/10,1150,1150,1106,1127,1595800,1127
2013/09/11,1127,1154,1123,1142,928800,1142
2013/09/12,1142,1160,1128,1155,1181700,1155
2013/09/13,1168,1195,1156,1165,1461400,1165
2013/09/17,1165,1187,1163,1163,772000,1163
2013/09/18,1168,1185,1164,1171,926800,1171
2013/09/19,1183,1187,1151,1160,1113000,1160
2013/09/20,1166,1172,1138,1155,854200,1155
2013/09/24,1145,1168,1141,1166,736000,1166
2013/09/25,1178,1188,1155,1171,1183700,1171
2013/09/26,1180,1185,1136,1168,1050500,1168
2013/09/27,1171,1190,1161,1184,1156100,1184
2013/09/30,1180,1214,1165,1196,1690700,1196
2013/10/01,1234,1260,1206,1213,3034000,1213
2013/10/02,1240,1273,1231,1251,3528300,1251
2013/10/03,1245,1252,1208,1213,1377800,1213
2013/10/04,1265,1265,1222,1237,1617400,1237
2013/10/07,1242,1244,1192,1194,1159300,1194
2013/10/08,1188,1189,1161,1181,862500,1181
2013/10/09,1165,1195,1156,1192,523200,1192
2013/10/10,1222,1225,1181,1188,1040100,1188
2013/10/11,1225,1237,1202,1207,1052700,1207
2013/10/15,1234,1276,1232,1251,1884300,1251
2013/10/16,1253,1264,1219,1223,1598900,1223
2013/10/17,1235,1255,1230,1239,1075400,1239
2013/10/18,1239,1251,1228,1240,861000,1240
2013/10/21,1240,1244,1213,1227,573100,1227
2013/10/22,1230,1234,1212,1216,536600,1216
2013/10/23,1215,1223,1181,1181,1403500,1181
2013/10/24,1183,1205,1181,1204,784100,1204
2013/10/25,1205,1207,1163,1168,983700,1168
2013/10/28,1170,1180,1153,1160,822700,1160
2013/10/29,1155,1162,1132,1147,1114900,1147
2013/10/30,1151,1156,1117,1120,1710000,1120
2013/10/31,1118,1154,1116,1146,1789400,1146
2013/11/01,1144,1145,1118,1131,1359900,1131
2013/11/05,1140,1145,1122,1142,1261600,1142
2013/11/06,1143,1147,1134,1140,1297000,1140
2013/11/07,1141,1141,1120,1131,1024900,1131
2013/11/08,1120,1129,1102,1117,1856500,1117
2013/11/11,922,937,863,877,6416400,877
2013/11/12,882,909,867,890,5621100,890
2013/11/13,890,897,883,894,2481700,894
2013/11/14,914,914,898,901,2506500,901
2013/11/15,900,913,895,906,2226900,906
2013/11/18,923,963,922,958,2699400,958
2013/11/19,951,958,937,944,2448000,944
2013/11/20,949,951,933,935,2067900,935
2013/11/21,947,951,939,947,1454200,947
2013/11/22,952,969,950,955,2192300,955
2013/11/25,964,974,958,968,1759000,968
2013/11/26,961,967,939,947,1575300,947
2013/11/27,941,949,935,935,1007900,935
2013/11/28,943,958,943,948,1050900,948
2013/11/29,950,956,944,954,1205700,954
2013/12/02,972,983,971,972,923200,972
2013/12/03,977,984,969,978,1131500,978
2013/12/04,982,982,957,977,1527600,977
2013/12/05,982,986,964,965,1520100,965
2013/12/06,975,978,962,976,1206700,976
2013/12/09,985,1034,980,1030,2680100,1030
2013/12/10,1037,1037,999,1017,2355900,1017
2013/12/11,1044,1072,1005,1016,2851600,1016
2013/12/12,1009,1009,978,985,1616400,985
2013/12/13,975,989,968,968,1905500,968
2013/12/16,973,980,957,961,841600,961
2013/12/17,961,980,957,975,1092300,975
2013/12/18,975,976,957,971,1496100,971
2013/12/19,973,979,954,956,1197300,956
2013/12/20,957,964,950,957,1015400,957
2013/12/24,958,970,944,949,954600,949
2013/12/25,944,953,938,947,723300,947
2013/12/26,950,956,937,941,751100,941
2013/12/27,943,950,937,942,936800,942
2013/12/30,945,980,943,972,1266000,972
2014/01/06,975,975,940,941,1269700,941
2014/01/07,940,940,924,925,1238700,925
2014/01/08,939,945,926,945,1400600,945
2014/01/09,945,946,925,935,1310400,935
2014/01/10,922,952,922,948,1431900,948
2014/01/14,939,945,927,934,1114900,934
2014/01/15,943,943,933,942,1189200,942
2014/01/16,940,947,935,940,926900,940
2014/01/17,940,945,935,940,828300,940
2014/01/20,940,940,921,924,987800,924
2014/01/21,926,931,918,925,898400,925
2014/01/22,930,961,927,955,1857800,955
2014/01/23,954,956,922,922,1379800,922
2014/01/24,920,929,912,916,1174500,916
2014/01/27,899,899,870,870,1406900,870
2014/01/28,879,892,870,878,1906400,878
2014/01/29,884,906,883,902,1144100,902
2014/01/30,890,895,877,893,1275500,893
2014/01/31,900,909,882,898,1071600,898
2014/02/03,881,886,860,866,1460900,866
2014/02/04,825,837,806,829,1982400,829
2014/02/05,841,847,817,834,1234400,834
2014/02/06,840,868,839,859,931200,859
2014/02/07,856,857,835,836,1102100,836
2014/02/10,855,897,854,896,1458700,896
2014/02/12,891,904,878,883,1026000,883
2014/02/13,881,881,832,837,2146800,837
2014/02/14,849,877,830,856,2294300,856
2014/02/17,862,871,839,870,1569300,870
2014/02/18,878,901,870,898,998500,898
2014/02/19,908,915,889,910,1575100,910
2014/02/20,908,908,858,868,1453600,868
2014/02/21,883,894,868,894,1255000,894
2014/02/24,893,915,888,915,1556800,915
2014/02/25,928,935,916,922,1160300,922
2014/02/26,917,920,890,898,1091500,898
2014/02/27,898,913,891,903,813800,903
2014/02/28,889,899,859,864,2067500,864
2014/03/03,850,859,831,853,1318600,853
2014/03/04,853,858,841,855,749000,855
2014/03/05,889,924,886,905,2622400,905
2014/03/06,895,902,879,895,1368200,895
2014/03/07,891,896,882,893,903000,893
2014/03/10,876,887,873,881,763600,881
2014/03/11,886,902,884,895,620400,895
2014/03/12,883,886,867,877,861200,877
2014/03/13,870,881,858,861,713100,861
2014/03/14,846,846,820,822,1331600,822
2014/03/17,822,832,816,821,905100,821
2014/03/18,835,842,826,837,727400,837
2014/03/19,832,832,812,819,1226400,819
2014/03/20,818,820,789,792,2166400,792
2014/03/24,795,839,794,820,2109300,820
2014/03/25,811,828,805,815,1388600,815
2014/03/26,816,828,808,819,893800,819
2014/03/27,813,822,797,819,1095300,819
2014/03/28,817,841,808,837,916500,837
2014/03/31,850,870,841,870,1439600,870
2014/04/01,860,861,836,847,1121800,847
2014/04/02,855,871,850,864,919900,864
2014/04/03,858,865,848,850,856900,850
2014/04/04,849,862,846,858,669800,858
2014/04/07,847,854,838,839,797800,839
2014/04/08,835,835,812,831,1019000,831
2014/04/09,810,818,800,801,1193200,801
2014/04/10,806,814,791,796,1088300,796
2014/04/11,782,811,780,792,1704200,792
2014/04/14,790,814,786,803,773000,803
2014/04/15,805,810,791,794,1182300,794
2014/04/16,803,825,800,824,1323800,824
2014/04/17,814,829,810,821,979000,821
2014/04/18,828,839,820,838,692500,838
2014/04/21,837,848,833,836,311600,836
2014/04/22,839,842,822,822,521500,822
2014/04/23,821,836,817,822,284800,822
2014/04/24,821,825,807,811,598000,811
2014/04/25,802,820,801,809,744300,809
2014/04/28,797,803,781,796,1040400,796
2014/04/30,795,801,790,798,902900,798
2014/05/01,802,814,798,810,644200,810
2014/05/02,811,819,808,812,600500,812
2014/05/07,795,797,782,782,1085700,782
2014/05/08,782,805,782,799,668100,799
2014/05/09,792,812,792,809,645100,809
2014/05/12,806,811,790,802,1531200,802
2014/05/13,812,830,802,822,1858500,822
2014/05/14,852,927,850,921,4638900,921
2014/05/15,891,918,887,903,2476600,903
2014/05/16,884,901,878,882,1684400,882
2014/05/19,877,907,867,871,1895900,871
2014/05/20,878,909,878,900,1335900,900
2014/05/21,875,886,870,873,1744700,873
2014/05/22,868,891,859,884,1880600,884
2014/05/23,890,913,890,896,1478500,896
2014/05/26,906,908,896,906,1859600,906
2014/05/27,910,916,900,903,1312000,903
2014/05/28,913,913,895,904,1333600,904
2014/05/29,902,902,888,894,1055800,894
2014/05/30,898,908,878,893,3343300,893
2014/06/02,900,915,894,913,1151600,913
2014/06/03,915,928,911,923,1376300,923
2014/06/04,923,928,917,925,1138900,925
2014/06/05,932,948,912,920,1183900,920
2014/06/06,941,969,936,967,2218400,967
2014/06/09,978,991,962,969,1257300,969
2014/06/10,982,986,950,956,1604600,956
2014/06/11,970,974,950,968,1397300,968
2014/06/12,977,989,961,975,1696700,975
2014/06/13,978,989,968,987,1809400,987
2014/06/16,999,1012,990,994,1380400,994
2014/06/17,990,998,964,982,1531900,982
2014/06/18,982,996,982,987,666600,987
2014/06/19,982,1004,976,999,1626900,999
2014/06/20,1002,1004,973,986,2879700,986
2014/06/23,990,997,985,990,872900,990
2014/06/24,988,997,983,991,1424500,991
2014/06/25,990,996,984,984,971500,984
2014/06/26,992,1008,980,983,1239200,983
2014/06/27,985,987,950,958,1212800,958
2014/06/30,959,971,955,967,702000,967
2014/07/01,982,998,981,988,1105900,988
2014/07/02,991,1008,991,1008,1459600,1008
2014/07/03,1015,1027,1005,1011,881600,1011
2014/07/04,1014,1024,1009,1013,904100,1013
2014/07/07,1013,1025,1002,1016,567800,1016
2014/07/08,1031,1060,1004,1016,2650800,1016
2014/07/09,989,1004,969,993,1946500,993
2014/07/10,997,1008,992,993,1001400,993
2014/07/11,980,984,921,932,3217500,932
2014/07/14,933,957,925,942,2134800,942
2014/07/15,943,953,936,943,873000,943
2014/07/16,953,966,940,944,1127200,944
2014/07/17,940,942,923,928,1180400,928
2014/07/18,922,934,917,929,817900,929
2014/07/22,931,954,931,947,861700,947
2014/07/23,948,958,940,941,652900,941
2014/07/24,938,960,938,958,894100,958
2014/07/25,960,974,958,972,709000,972
2014/07/28,967,981,966,972,618600,972
2014/07/29,971,975,959,969,771700,969
2014/07/30,969,1002,967,977,3353200,977
2014/07/31,1000,1004,980,1000,1900800,1000
2014/08/01,1000,1004,977,979,1888600,979
2014/08/04,982,986,972,974,885700,974
2014/08/05,973,981,959,961,837000,961
2014/08/06,966,982,957,962,936900,962
2014/08/07,962,966,934,952,1165800,952
2014/08/08,952,969,933,944,950200,944
2014/08/11,951,960,945,952,1083200,952
2014/08/12,956,982,956,971,1258700,971
2014/08/13,965,970,951,962,964800,962
2014/08/14,963,970,922,928,1656200,928
2014/08/15,900,946,892,936,1796800,936
2014/08/18,922,926,906,913,1294600,913
2014/08/19,918,920,903,914,779700,914
2014/08/20,925,927,899,908,1406500,908
2014/08/21,908,915,900,914,691300,914
2014/08/22,918,924,909,913,913100,913
2014/08/25,913,921,906,919,657800,919
2014/08/26,912,917,904,905,764500,905
2014/08/27,899,907,890,900,1130500,900
2014/08/28,893,904,892,901,789800,901
2014/08/29,902,914,900,908,850400,908
2014/09/01,905,910,896,901,504800,901
2014/09/02,902,914,901,908,574800,908
2014/09/03,910,914,896,898,572400,898
2014/09/04,895,895,876,880,809400,880
2014/09/05,883,886,878,882,424400,882
2014/09/08,889,890,875,880,546400,880
2014/09/09,884,898,880,889,683700,889
2014/09/10,887,898,887,890,715100,890
2014/09/11,889,899,884,897,627900,897
2014/09/12,900,907,886,888,1199600,888
2014/09/16,885,903,882,899,699300,899
2014/09/17,902,915,899,907,611500,907
2014/09/18,911,917,909,915,521300,915
2014/09/19,917,921,912,920,471800,920
2014/09/22,925,925,910,910,314700,910
2014/09/24,898,905,891,900,441800,900
2014/09/25,909,927,905,927,664900,927
2014/09/26,918,925,910,920,542400,920
2014/09/29,921,926,909,915,753600,915
2014/09/30,915,915,898,905,598800,905
2014/10/01,907,908,889,891,541400,891
2014/10/02,880,897,868,874,1049800,874
2014/10/03,859,890,858,883,1048000,883
2014/10/06,892,908,891,902,714700,902
2014/10/07,904,914,895,907,864000,907
2014/10/08,894,913,893,910,669400,910
2014/10/09,911,919,906,909,813400,909
2014/10/10,895,912,892,903,1317400,903
2014/10/14,888,897,875,880,843700,880
2014/10/15,881,885,872,882,956000,882
2014/10/16,861,874,852,859,1234700,859
2014/10/17,855,860,841,851,996900,851
2014/10/20,872,906,871,904,901900,904
2014/10/21,902,904,861,865,965600,865
2014/10/22,875,891,868,888,698200,888
2014/10/23,881,890,874,886,435900,886
2014/10/24,895,898,877,882,388100,882
2014/10/27,892,902,880,884,340300,884
2014/10/28,880,889,880,887,286200,887
2014/10/29,900,919,900,915,634500,915
2014/10/30,912,937,909,931,617200,931
2014/10/31,941,976,941,965,1364600,965
2014/11/04,1010,1015,990,1004,1272700,1004
2014/11/05,1004,1005,992,1002,801000,1002
2014/11/06,1008,1020,998,1007,717700,1007
2014/11/07,1018,1022,1000,1006,772300,1006
2014/11/10,1000,1005,994,996,620900,996
2014/11/11,999,1012,992,1002,1059500,1002
2014/11/12,1013,1032,1013,1019,1066200,1019
2014/11/13,1020,1029,1001,1016,862900,1016
2014/11/14,1076,1173,1062,1167,5306100,1167
2014/11/17,1158,1160,1083,1090,3047000,1090
2014/11/18,1088,1101,1040,1050,3214200,1050
2014/11/19,1090,1144,1082,1103,4315100,1103
2014/11/20,1120,1129,1069,1074,1787100,1074
2014/11/21,1098,1098,1064,1077,1621700,1077
2014/11/25,1097,1120,1081,1111,1856000,1111
2014/11/26,1108,1125,1102,1111,1325100,1111
2014/11/27,1136,1142,1108,1117,830800,1117
2014/11/28,1112,1127,1101,1124,925300,1124
2014/12/01,1120,1144,1110,1138,824900,1138
2014/12/02,1150,1179,1140,1174,1562400,1174
2014/12/03,1187,1190,1148,1156,1246700,1156
2014/12/04,1166,1174,1155,1159,854900,1159
2014/12/05,1154,1165,1149,1161,578100,1161
2014/12/08,1165,1229,1163,1215,1610600,1215
2014/12/09,1230,1245,1196,1201,950600,1201
2014/12/10,1184,1209,1159,1179,1549600,1179
2014/12/11,1172,1182,1131,1155,1685200,1155
2014/12/12,1141,1181,1141,1166,1160300,1166
2014/12/15,1121,1172,1120,1163,737200,1163
2014/12/16,1193,1198,1163,1178,1900600,1178
2014/12/17,1169,1178,1150,1153,1139600,1153
2014/12/18,1176,1199,1162,1168,1548300,1168
2014/12/19,1175,1178,1128,1152,2165300,1152
2014/12/22,1152,1180,1151,1170,653500,1170
2014/12/24,1170,1176,1148,1160,834000,1160
2014/12/25,1153,1172,1141,1154,370400,1154
2014/12/26,1138,1158,1132,1150,407300,1150
2014/12/29,1154,1155,1126,1138,575200,1138
2014/12/30,1140,1145,1124,1125,439200,1125
2015/01/05,1110,1118,1101,1105,1099300,1105
2015/01/06,1088,1103,1080,1085,822800,1085
2015/01/07,1075,1089,1063,1068,1097000,1068
2015/01/08,1081,1128,1081,1121,1333500,1121
2015/01/09,1125,1149,1111,1117,1144700,1117
2015/01/13,1108,1119,1099,1114,906800,1114
2015/01/14,1124,1137,1088,1092,818600,1092
2015/01/15,1122,1150,1109,1121,1155800,1121
2015/01/16,1089,1104,1070,1093,842400,1093
2015/01/19,1100,1108,1083,1093,784100,1093
2015/01/20,1081,1112,1076,1107,737000,1107
2015/01/21,1099,1136,1092,1133,1306400,1133
2015/01/22,1132,1136,1106,1128,1031700,1128
2015/01/23,1141,1156,1134,1145,776300,1145
2015/01/26,1146,1182,1143,1152,998900,1152
2015/01/27,1162,1169,1151,1161,605500,1161
2015/01/28,1161,1177,1149,1175,1310800,1175
2015/01/29,1161,1182,1155,1159,579700,1159
2015/01/30,1185,1194,1162,1164,737800,1164
2015/02/02,1166,1174,1153,1161,491300,1161
2015/02/03,1161,1166,1107,1110,1142300,1110
2015/02/04,1121,1150,1118,1125,1476800,1125
2015/02/05,1125,1158,1125,1152,1282500,1152
2015/02/06,1169,1191,1152,1159,1003900,1159
2015/02/09,1189,1213,1173,1194,1291700,1194
2015/02/10,1193,1204,1167,1203,937300,1203
2015/02/12,1219,1231,1197,1224,1802800,1224
2015/02/13,1134,1163,1021,1067,3473500,1067
2015/02/16,1086,1086,1060,1070,1517900,1070
2015/02/17,1070,1101,1070,1097,1503600,1097
2015/02/18,1108,1124,1097,1113,1943500,1113
2015/02/19,1094,1106,1077,1102,1416900,1102
2015/02/20,1115,1120,1099,1109,835100,1109
2015/02/23,1134,1142,1110,1123,1576200,1123
2015/02/24,1115,1130,1102,1106,1434100,1106
2015/02/25,1109,1132,1103,1129,918600,1129
2015/02/26,1133,1141,1112,1129,715200,1129
2015/02/27,1210,1245,1190,1238,3085500,1238
2015/03/02,1239,1240,1205,1208,2571700,1208
2015/03/03,1213,1235,1209,1223,1507800,1223
2015/03/04,1210,1229,1194,1225,1309800,1225
2015/03/05,1227,1229,1204,1211,1341100,1211
2015/03/06,1219,1236,1207,1212,1816000,1212
2015/03/09,1192,1210,1172,1177,1560300,1177
2015/03/10,1179,1183,1136,1151,2358000,1151
2015/03/11,1143,1172,1143,1152,1605800,1152
2015/03/12,1169,1170,1156,1164,1406300,1164
2015/03/13,1188,1197,1172,1188,2401200,1188
2015/03/16,1188,1200,1179,1184,1108400,1184
2015/03/17,1189,1206,1185,1195,1013100,1195
2015/03/18,1211,1211,1194,1198,1004200,1198
2015/03/19,1198,1217,1184,1190,992700,1190
2015/03/20,1280,1286,1217,1247,2597100,1247
2015/03/23,1251,1275,1245,1257,1379500,1257
2015/03/24,1256,1291,1253,1262,1890300,1262
2015/03/25,1241,1265,1241,1260,1158800,1260
2015/03/26,1260,1278,1242,1243,1272600,1243
2015/03/27,1225,1242,1203,1219,1376100,1219
2015/03/30,1216,1248,1216,1240,1299200,1240
2015/03/31,1267,1310,1256,1280,2506600,1280
2015/04/01,1276,1309,1270,1286,2444800,1286
2015/04/02,1274,1296,1252,1256,1905900,1256
2015/04/03,1259,1273,1242,1255,1416500,1255
2015/04/06,1268,1281,1263,1272,1021500,1272
2015/04/07,1298,1320,1276,1310,1633100,1310
2015/04/08,1323,1341,1318,1318,1195600,1318
2015/04/09,1340,1403,1334,1382,2546100,1382
2015/04/10,1383,1432,1380,1430,2451400,1430
2015/04/13,1448,1509,1448,1503,2611900,1503
2015/04/14,1623,1651,1581,1651,4890300,1651
2015/04/15,1617,1627,1584,1618,2819500,1618
2015/04/16,1616,1702,1607,1679,4218500,1679
2015/04/17,1645,1673,1630,1640,2865800,1640
2015/04/20,1608,1640,1587,1632,2042800,1632
2015/04/21,1670,1695,1659,1679,1935900,1679
2015/04/22,1641,1660,1608,1642,2002900,1642
2015/04/23,1626,1645,1622,1630,1079000,1630
2015/04/24,1627,1675,1616,1641,1762300,1641
2015/04/27,1617,1653,1590,1631,1604800,1631
2015/04/28,1607,1637,1585,1609,1673100,1609
2015/04/30,1594,1608,1516,1523,2787800,1523
2015/05/01,1523,1549,1522,1538,1285800,1538
2015/05/07,1537,1543,1490,1530,2197100,1530
2015/05/08,1529,1567,1511,1550,1330900,1550
2015/05/11,1566,1598,1545,1594,974300,1594
2015/05/12,1596,1600,1575,1598,2035900,1598
2015/05/13,1592,1622,1581,1622,2006100,1622
2015/05/14,1582,1605,1525,1547,1953300,1547
2015/05/15,1600,1679,1520,1677,3403800,1677
2015/05/18,1677,1727,1660,1672,1876400,1672
2015/05/19,1712,1724,1698,1704,1467800,1704
2015/05/20,1700,1725,1667,1706,1557800,1706
2015/05/21,1734,1749,1703,1709,1592500,1709
2015/05/22,1746,1748,1717,1744,1444100,1744
2015/05/25,1705,1719,1677,1684,1952000,1684
2015/05/26,1668,1687,1647,1682,843100,1682
2015/05/27,1697,1705,1661,1663,1009800,1663
2015/05/28,1703,1711,1677,1701,2261000,1701
2015/05/29,1691,1705,1658,1673,2769900,1673
2015/06/01,1652,1705,1642,1702,898300,1702
2015/06/02,1675,1727,1675,1710,1459500,1710
2015/06/03,1722,1739,1709,1725,1507300,1725
2015/06/04,1655,1762,1655,1757,2651900,1757
2015/06/05,1749,1800,1742,1744,1951800,1744
2015/06/08,1739,1757,1695,1699,1475200,1699
2015/06/09,1682,1683,1628,1634,1866700,1634
2015/06/10,1607,1630,1572,1598,2623400,1598
2015/06/11,1638,1691,1609,1686,1842900,1686
2015/06/12,1678,1711,1665,1691,1665200,1691
2015/06/15,1670,1693,1651,1670,1179600,1670
2015/06/16,1666,1687,1656,1678,1712600,1678
2015/06/17,1662,1694,1640,1679,1267700,1679
2015/06/18,1705,1726,1695,1695,1825300,1695
2015/06/19,1780,1796,1762,1776,2488100,1776
2015/06/22,1786,1797,1757,1768,878700,1768
2015/06/23,1794,1799,1762,1798,1107900,1798
2015/06/24,1799,1799,1772,1785,885000,1785
2015/06/25,1760,1812,1754,1782,1065800,1782
2015/06/26,1799,1806,1753,1787,728800,1787
2015/06/29,1730,1730,1696,1697,1049300,1697
2015/06/30,1688,1695,1660,1684,1223600,1684
2015/07/01,1700,1742,1674,1738,924200,1738
