2012/12/12,2230,2680,2160,2613,865301,871
2012/12/19,2637,2667,2480,2481,272400,827
2013/01/08,2244,2405,2233,2397,147900,799
2013/01/18,2520,2538,2480,2499,34900,833
2013/01/22,3055,3180,2788,2826,320500,942
2013/01/28,3900,3910,3670,3765,209200,1255
2013/02/01,3200,3280,3090,3090,112200,1030
2013/02/12,2750,2790,2630,2664,97900,888
2013/02/18,2633,2710,2620,2625,18300,875
2013/02/20,2675,2691,2633,2664,24400,888
2013/02/27,3100,3230,3075,3105,80100,1035
2013/03/01,3190,3285,3185,3240,62300,1080
2013/03/05,3100,3200,3050,3060,41800,1020
2013/03/08,3220,3230,3040,3105,38100,1035
2013/03/11,3085,3130,2951,3000,45700,1000
2013/03/14,3090,3090,3040,3045,27400,1015
2013/03/22,3100,3145,3070,3075,25200,1025
2013/03/26,3010,3070,2990,3000,22200,1000
2013/04/03,2640,2660,2580,2637,8900,879
2013/04/05,2601,2615,2530,2571,16800,857
2013/04/08,2571,2750,2571,2715,17900,905
2013/04/10,2725,2725,2670,2682,7800,894
2013/04/11,2692,2700,2640,2688,8600,896
2013/04/16,2702,2740,2676,2712,9100,904
2013/04/24,3080,3095,2990,3045,35100,1015
2013/04/25,3090,3095,2999,3000,23800,1000
2013/05/08,3865,3960,3350,3540,169000,1180
2013/05/09,3750,3750,3490,3600,71200,1200
2013/05/13,3640,3930,3565,3930,82100,1310
2013/05/17,2848,2982,2707,2850,84300,950
2013/05/21,3135,3155,2910,2940,55200,980
2013/05/24,2560,2649,2390,2637,45700,879
2013/05/30,2620,2644,2520,2604,14400,868
2013/06/06,2377,2416,2035,2100,50000,700
2013/06/14,2150,2195,2100,2145,7900,715
2013/06/17,2100,2140,2085,2133,4900,711
2013/06/20,2081,2130,2081,2124,5200,708
2013/06/25,1975,1995,1885,1914,32900,638
2013/06/26,1922,1925,1770,1794,48000,598
2013/06/28,1850,1970,1850,1923,16900,641
2013/07/02,1970,1998,1926,1959,14900,653
2013/07/10,2360,2360,2210,2235,25300,745
2013/07/11,2220,2271,2165,2238,7400,746
2013/07/12,2258,2258,2226,2235,3100,745
2013/07/17,2250,2250,2150,2238,5300,746
2013/07/18,2239,2300,2230,2274,7900,758
2013/07/22,2260,2260,2155,2199,4700,733
2013/07/23,2200,2200,2170,2199,3800,733
2013/08/01,2115,2160,2062,2130,6200,710
2013/08/02,2101,2138,2072,2103,5500,701
2013/08/06,2142,2233,2111,2217,11800,739
2013/08/07,2264,2264,2140,2157,4900,719
2013/08/12,2081,2138,2041,2049,6700,683
2013/08/13,2049,2080,2020,2055,4600,685
2013/08/16,2059,2080,2014,2064,2400,688
2013/08/19,2084,2179,2084,2100,12000,700
2013/08/23,2070,2070,2025,2025,7000,675
2013/08/28,2000,2019,1920,1920,12100,640
2013/08/29,1945,1959,1930,1959,5100,653
2013/09/03,1965,2035,1965,2019,7700,673
2013/09/04,2025,2025,2000,2010,2600,670
2013/09/06,2015,2020,1998,2001,1800,667
2013/09/09,2040,2052,2008,2040,4400,680
2013/09/10,2040,2050,2010,2037,4400,679
2013/09/25,2199,2220,2156,2211,12000,737
2013/09/26,2161,2180,2120,2151,8200,717
2013/10/18,2530,2533,2390,2424,34600,808
2013/10/22,2510,2550,2488,2526,14100,842
2013/10/23,2546,2546,2330,2490,15300,830
2013/10/29,2338,2370,2318,2370,3500,790
2013/10/31,2290,2367,2289,2325,6300,775
2013/11/08,2086,2105,2086,2100,2600,700
2013/11/18,2184,2205,2184,2184,5600,728
2013/12/02,2800,2821,2740,2775,15400,925
2013/12/05,2703,2840,2640,2760,22500,920
2013/12/12,3450,3525,3200,3345,141700,1115
2013/12/17,2701,2769,2662,2769,27400,923
2013/12/18,2799,2832,2750,2796,16100,932
2013/12/20,2880,2897,2845,2850,13700,950
2013/12/24,2910,2910,2830,2856,15100,952
2013/12/27,2896,2940,2896,2940,5300,980
2014/01/08,3215,3215,3165,3195,6000,1065
2014/01/10,3595,3840,3535,3765,77800,1255
2014/01/17,4780,5710,4680,4815,134200,1605
2014/01/21,4960,5150,4795,4935,51100,1645
2014/01/22,1652,1800,1610,1664,111100,1664
2014/01/23,1600,1600,1420,1460,207300,1460
2014/01/24,1408,1576,1391,1485,171400,1485
2014/01/27,1390,1440,1365,1404,99900,1404
2014/01/28,1404,1480,1310,1315,120500,1315
2014/01/29,1435,1440,1335,1354,41000,1354
2014/01/30,1294,1310,1222,1278,82700,1278
2014/01/31,1260,1312,1120,1190,145000,1190
2014/02/03,1199,1200,1112,1113,105900,1113
2014/02/04,1001,1048,964,1001,135400,1001
2014/02/05,1071,1090,990,1024,57100,1024
2014/02/06,1033,1135,1033,1135,44800,1135
2014/02/07,1105,1165,1092,1134,38300,1134
2014/02/10,1137,1215,1133,1198,30600,1198
2014/02/12,1232,1239,1180,1200,36800,1200
2014/02/13,1180,1200,1140,1155,19700,1155
2014/02/14,1150,1174,1080,1100,26500,1100
2014/02/17,1095,1120,1061,1096,16900,1096
2014/02/18,1087,1119,1060,1092,33800,1092
2014/02/19,1147,1210,1104,1145,64400,1145
2014/02/20,1145,1145,1075,1105,29100,1105
2014/02/21,1135,1136,1105,1126,15400,1126
2014/02/24,1097,1150,1097,1112,19400,1112
2014/02/25,1172,1187,1121,1135,31200,1135
2014/02/26,1135,1148,1100,1116,22300,1116
2014/02/27,1106,1170,1105,1111,41300,1111
2014/02/28,1126,1188,1126,1170,46200,1170
2014/03/03,1163,1313,1156,1242,219300,1242
2014/03/04,1212,1229,1080,1221,113400,1221
2014/03/05,1251,1258,1227,1240,31200,1240
2014/03/06,1246,1281,1235,1264,36100,1264
2014/03/07,1283,1283,1220,1230,34800,1230
2014/03/10,1243,1265,1235,1260,23700,1260
2014/03/11,1267,1308,1248,1308,49200,1308
2014/03/12,1307,1500,1294,1420,204200,1420
2014/03/13,1449,1449,1330,1333,102100,1333
2014/03/14,1243,1295,1160,1211,104800,1211
2014/03/17,1220,1250,1154,1160,70600,1160
2014/03/18,1220,1220,1137,1186,26800,1186
2014/03/19,1175,1190,1099,1160,40600,1160
2014/03/20,1150,1156,1081,1114,35800,1114
2014/03/24,1106,1160,1106,1146,17500,1146
2014/03/25,1200,1200,1145,1145,36000,1145
2014/03/26,1175,1175,1152,1175,18400,1175
2014/03/27,1144,1144,1098,1123,27100,1123
2014/03/28,1123,1155,1117,1140,12600,1140
2014/03/31,1150,1180,1135,1150,14000,1150
2014/04/01,1144,1144,1120,1130,10200,1130
2014/04/02,1134,1150,1134,1139,18700,1139
2014/04/03,1133,1147,1129,1139,10100,1139
2014/04/04,1139,1145,1125,1129,7900,1129
2014/04/07,1101,1110,1095,1098,16200,1098
2014/04/08,1074,1090,1050,1058,10000,1058
2014/04/09,1038,1093,1027,1080,26600,1080
2014/04/10,1111,1116,1051,1055,17300,1055
2014/04/11,1026,1027,970,997,48400,997
2014/04/14,997,1026,978,979,13000,979
2014/04/15,1020,1020,975,992,13400,992
2014/04/16,993,1012,993,1000,11300,1000
2014/04/17,1021,1126,1011,1126,55000,1126
2014/04/18,1115,1115,1031,1097,28900,1097
2014/04/21,1100,1120,1080,1106,14800,1106
2014/04/22,1104,1107,1051,1057,9300,1057
2014/04/23,1057,1180,1050,1073,43600,1073
2014/04/24,1068,1068,1030,1041,14300,1041
2014/04/25,1051,1090,1032,1077,12200,1077
2014/04/28,1060,1061,1045,1052,4800,1052
2014/04/30,1052,1052,1021,1031,7400,1031
2014/05/01,1020,1045,1010,1028,5900,1028
2014/05/02,1029,1045,1010,1015,6200,1015
2014/05/07,1010,1010,1000,1000,6000,1000
2014/05/08,1004,1013,1004,1008,2200,1008
2014/05/09,1015,1015,1002,1003,7200,1003
2014/05/12,1003,1039,1003,1030,13500,1030
2014/05/13,1030,1030,1010,1010,6400,1010
2014/05/14,1010,1025,1000,1001,9500,1001
2014/05/15,1055,1136,1042,1098,54400,1098
2014/05/16,1100,1116,1062,1084,19500,1084
2014/05/19,1084,1084,1000,1019,17300,1019
2014/05/20,1019,1030,1010,1016,6000,1016
2014/05/21,1011,1037,1011,1035,5800,1035
2014/05/22,1065,1081,1043,1067,13300,1067
2014/05/23,1080,1098,1061,1098,14800,1098
2014/05/26,1100,1108,1080,1088,10100,1088
2014/05/27,1070,1125,1070,1094,26900,1094
2014/05/28,1083,1100,1083,1098,6600,1098
2014/05/29,1101,1109,1072,1100,6700,1100
2014/05/30,1095,1099,1070,1091,13300,1091
2014/06/02,1099,1104,1072,1099,12000,1099
2014/06/03,1109,1131,1080,1125,13900,1125
2014/06/04,1139,1225,1139,1213,88200,1213
2014/06/05,1240,1250,1184,1198,54100,1198
2014/06/06,1198,1243,1192,1243,22500,1243
2014/06/09,1290,1314,1237,1242,76700,1242
2014/06/10,1256,1258,1190,1209,37700,1209
2014/06/11,1180,1255,1180,1249,31000,1249
2014/06/12,1236,1271,1224,1260,14400,1260
2014/06/13,1260,1272,1225,1250,14800,1250
2014/06/16,1271,1305,1261,1265,53700,1265
2014/06/17,1290,1293,1250,1250,11600,1250
2014/06/18,1253,1284,1240,1250,19300,1250
2014/06/19,1231,1256,1199,1223,34700,1223
2014/06/20,1227,1239,1200,1207,13600,1207
2014/06/23,1201,1224,1184,1205,17900,1205
2014/06/24,1203,1203,1183,1191,6800,1191
2014/06/25,1199,1216,1182,1200,20400,1200
2014/06/26,1199,1248,1199,1248,19700,1248
2014/06/27,1245,1245,1180,1190,16100,1190
2014/06/30,1178,1210,1178,1202,9900,1202
2014/07/01,1202,1214,1185,1199,13400,1199
2014/07/02,1206,1244,1206,1232,25700,1232
2014/07/03,1233,1238,1215,1220,11300,1220
2014/07/04,1221,1234,1200,1205,11600,1205
2014/07/07,1223,1234,1210,1228,19400,1228
2014/07/08,1228,1230,1201,1208,14100,1208
2014/07/09,1206,1206,1145,1162,35500,1162
2014/07/10,1185,1197,1171,1175,16500,1175
2014/07/11,1170,1175,1150,1165,9600,1165
2014/07/14,1170,1185,1164,1185,7400,1185
2014/07/15,1191,1208,1188,1200,12200,1200
2014/07/16,1202,1211,1178,1181,12700,1181
2014/07/17,1172,1184,1165,1165,8700,1165
2014/07/18,1150,1154,1129,1138,16200,1138
2014/07/22,1130,1174,1130,1169,17000,1169
2014/07/23,1160,1171,1150,1152,14400,1152
2014/07/24,1153,1170,1153,1170,3500,1170
2014/07/25,1170,1175,1167,1170,4900,1170
2014/07/28,1170,1198,1170,1170,10400,1170
2014/07/29,1171,1198,1164,1164,11000,1164
2014/07/30,1164,1170,1158,1159,8900,1159
2014/07/31,1160,1185,1160,1166,17600,1166
2014/08/01,1142,1155,1090,1104,65200,1104
2014/08/04,1130,1212,1124,1180,70000,1180
2014/08/05,1200,1260,1195,1246,78800,1246
2014/08/06,1259,1267,1200,1214,28800,1214
2014/08/07,1204,1206,1138,1168,33600,1168
2014/08/08,1148,1160,1107,1115,22300,1115
2014/08/11,1149,1174,1138,1163,11900,1163
2014/08/12,1178,1178,1146,1147,9900,1147
2014/08/13,1146,1146,1115,1117,18600,1117
2014/08/14,1147,1147,1116,1120,12600,1120
2014/08/15,1125,1131,1112,1128,26600,1128
2014/08/18,1128,1140,1125,1130,12000,1130
2014/08/19,1131,1152,1130,1150,20100,1150
2014/08/20,1165,1165,1136,1143,8600,1143
2014/08/21,1145,1150,1130,1146,14100,1146
2014/08/22,1146,1150,1133,1136,9200,1136
2014/08/25,1155,1156,1120,1130,57200,1130
2014/08/26,1131,1146,1120,1121,30600,1121
2014/08/27,1135,1176,1128,1176,33500,1176
2014/08/28,1188,1211,1160,1185,48000,1185
2014/08/29,1195,1290,1170,1265,146000,1265
2014/09/01,1285,1285,1225,1231,68800,1231
2014/09/02,1239,1239,1174,1195,46200,1195
2014/09/03,1193,1219,1184,1210,17500,1210
2014/09/04,1206,1249,1204,1208,34700,1208
2014/09/05,1212,1278,1211,1275,94600,1275
2014/09/08,1305,1421,1289,1380,236400,1380
2014/09/09,1390,1390,1313,1331,86800,1331
2014/09/10,1301,1341,1285,1313,79000,1313
2014/09/11,1322,1550,1309,1493,176000,1493
2014/09/12,1469,1494,1397,1420,127900,1420
2014/09/16,1405,1431,1358,1400,100600,1400
2014/09/17,1400,1500,1381,1467,103800,1467
2014/09/18,1499,1521,1461,1509,78300,1509
2014/09/19,1524,1525,1473,1487,64200,1487
2014/09/22,1570,1629,1550,1588,93300,1588
2014/09/24,1568,1575,1480,1516,58700,1516
2014/09/25,1513,1539,1450,1454,77700,1454
2014/09/26,1448,1545,1420,1540,65000,1540
2014/09/29,1560,1577,1470,1501,43400,1501
2014/09/30,1485,1485,1401,1439,41300,1439
2014/10/01,1426,1497,1370,1370,73100,1370
2014/10/02,1280,1347,1278,1299,57400,1299
2014/10/03,1299,1340,1299,1333,18000,1333
2014/10/06,1367,1384,1330,1384,28500,1384
2014/10/07,1431,1448,1390,1396,53800,1396
2014/10/08,1350,1382,1317,1370,22200,1370
2014/10/09,1400,1400,1289,1308,34600,1308
2014/10/10,1252,1286,1230,1281,28900,1281
2014/10/14,1221,1266,1220,1231,20600,1231
2014/10/15,1242,1260,1209,1255,20700,1255
2014/10/16,1202,1253,1202,1235,18300,1235
2014/10/17,1235,1269,1222,1223,20500,1223
2014/10/20,1251,1265,1251,1258,12700,1258
2014/10/21,1280,1290,1241,1260,12700,1260
2014/10/22,1256,1303,1256,1288,24500,1288
2014/10/23,1300,1310,1285,1294,12700,1294
2014/10/24,1300,1320,1260,1290,19300,1290
2014/10/27,1080,1142,1067,1100,114500,1100
2014/10/28,1112,1175,1090,1120,43400,1120
2014/10/29,1140,1148,1100,1135,27300,1135
2014/10/30,1129,1133,1097,1133,18100,1133
2014/10/31,1110,1116,1090,1090,24300,1090
2014/11/04,1095,1120,1090,1117,20600,1117
2014/11/05,1139,1139,1082,1082,29700,1082
2014/11/06,1087,1093,1061,1077,37700,1077
2014/11/07,1083,1083,1069,1069,11000,1069
2014/11/10,1069,1079,1055,1063,14800,1063
2014/11/11,1074,1093,1074,1085,9000,1085
2014/11/12,1113,1125,1082,1082,22500,1082
2014/11/13,1100,1100,1082,1083,5100,1083
2014/11/14,1090,1094,1069,1069,10900,1069
2014/11/17,1068,1075,1030,1037,14600,1037
2014/11/18,1044,1062,1028,1040,16800,1040
2014/11/19,1035,1060,1035,1055,9500,1055
2014/11/20,1048,1050,1034,1034,16500,1034
2014/11/21,1064,1120,1055,1107,24200,1107
2014/11/25,1110,1110,1089,1090,12300,1090
2014/11/26,1098,1111,1090,1104,15500,1104
2014/11/27,1104,1107,1083,1092,9400,1092
2014/11/28,1098,1098,1050,1084,14400,1084
2014/12/01,1079,1081,1064,1075,12900,1075
2014/12/02,1061,1076,1051,1051,12300,1051
2014/12/03,1066,1072,1060,1063,14300,1063
2014/12/04,1072,1072,1056,1068,10300,1068
2014/12/05,1070,1175,1067,1151,88700,1151
2014/12/08,1160,1161,1126,1140,26800,1140
2014/12/09,1140,1140,1111,1114,7800,1114
2014/12/10,1094,1123,1094,1115,10800,1115
2014/12/11,1093,1112,1093,1111,6100,1111
2014/12/12,1101,1107,1066,1067,30400,1067
2014/12/15,1067,1089,1050,1061,7300,1061
2014/12/16,1050,1056,1023,1034,13300,1034
2014/12/17,1032,1040,970,998,62600,998
2014/12/18,1028,1030,1000,1014,41100,1014
2014/12/19,1025,1032,1015,1023,8000,1023
2014/12/22,1029,1029,1019,1023,51200,1023
2014/12/24,1020,1030,1005,1019,15900,1019
2014/12/25,1019,1027,1005,1011,23900,1011
2014/12/26,1005,1039,1005,1034,9500,1034
2014/12/29,1040,1044,1029,1043,4300,1043
2014/12/30,1042,1050,1033,1035,5300,1035
2015/01/05,1036,1100,1036,1070,7000,1070
2015/01/06,1060,1060,1040,1048,3000,1048
2015/01/07,1048,1051,1023,1032,7300,1032
2015/01/08,1035,1036,1025,1034,7200,1034
2015/01/09,1060,1064,1027,1034,9000,1034
2015/01/13,1004,1015,1004,1009,14400,1009
2015/01/14,1009,1024,1000,1013,12800,1013
2015/01/15,1005,1010,990,1000,10000,1000
2015/01/16,995,1004,994,997,9600,997
2015/01/19,1002,1007,999,1001,3800,1001
2015/01/20,1005,1012,999,1009,6500,1009
2015/01/21,1005,1008,1003,1003,5400,1003
2015/01/22,1010,1010,1000,1006,2400,1006
2015/01/23,1015,1018,981,991,18300,991
2015/01/26,1000,1000,993,995,5600,995
2015/01/27,995,997,981,997,9900,997
2015/01/28,995,1147,994,1147,320000,1147
2015/01/29,1117,1370,1103,1180,408600,1180
2015/01/30,1180,1260,1180,1215,98200,1215
2015/02/02,1245,1500,1196,1259,524700,1259
2015/02/03,1300,1350,1211,1240,222300,1240
2015/02/04,1260,1274,1203,1229,47300,1229
2015/02/05,1207,1320,1207,1283,60300,1283
2015/02/06,1290,1326,1260,1318,61200,1318
2015/02/09,1344,1510,1338,1419,268900,1419
2015/02/10,1474,1474,1380,1402,84800,1402
2015/02/12,1462,1498,1420,1427,100900,1427
2015/02/13,1367,1395,1323,1370,90200,1370
2015/02/16,1370,1370,1331,1351,29000,1351
2015/02/17,1333,1344,1294,1294,60700,1294
2015/02/18,1299,1313,1283,1296,26100,1296
2015/02/19,1283,1312,1283,1302,31700,1302
2015/02/20,1306,1340,1293,1329,27500,1329
2015/02/23,1332,1344,1328,1336,20700,1336
2015/02/24,1342,1383,1342,1350,17300,1350
2015/02/25,1370,1371,1351,1364,17500,1364
2015/02/26,1357,1370,1307,1321,52500,1321
2015/02/27,1313,1332,1313,1329,9400,1329
2015/03/02,1329,1353,1315,1336,30800,1336
2015/03/03,1323,1345,1314,1326,24500,1326
2015/03/04,1325,1325,1309,1317,12000,1317
2015/03/05,1315,1345,1315,1332,13400,1332
2015/03/06,1332,1342,1321,1323,10100,1323
2015/03/09,1339,1339,1325,1329,13300,1329
2015/03/10,1329,1350,1321,1328,19400,1328
2015/03/11,1323,1328,1311,1328,13100,1328
2015/03/12,1322,1328,1317,1318,12800,1318
2015/03/13,1320,1335,1305,1321,18500,1321
2015/03/16,1335,1377,1334,1363,31800,1363
2015/03/17,1365,1375,1357,1365,14800,1365
2015/03/18,1379,1388,1365,1388,16300,1388
2015/03/19,1390,1400,1350,1373,24600,1373
2015/03/20,1375,1380,1355,1373,13900,1373
2015/03/23,1390,1390,1371,1374,16600,1374
2015/03/24,1384,1384,1360,1375,29000,1375
2015/03/25,1395,1430,1390,1430,127300,1430
2015/03/26,1411,1424,1370,1370,66200,1370
2015/03/27,1340,1349,1250,1283,86200,1283
2015/03/30,1281,1281,1230,1235,36500,1235
2015/03/31,1232,1316,1223,1287,63700,1287
2015/04/01,1295,1296,1255,1271,19100,1271
2015/04/02,1255,1295,1251,1270,17700,1270
2015/04/03,1263,1296,1263,1280,11600,1280
2015/04/06,1270,1290,1270,1286,8400,1286
2015/04/07,1296,1303,1285,1294,17900,1294
2015/04/08,1300,1313,1291,1295,17700,1295
2015/04/09,1310,1310,1288,1297,6800,1297
2015/04/10,1293,1293,1255,1266,24000,1266
2015/04/13,1255,1266,1253,1264,5600,1264
2015/04/14,1269,1269,1257,1267,7700,1267
2015/04/15,1265,1265,1248,1248,10100,1248
2015/04/16,1275,1296,1266,1290,19200,1290
2015/04/17,1300,1305,1277,1279,11600,1279
2015/04/20,1262,1320,1262,1290,25900,1290
2015/04/21,1590,1590,1590,1590,18900,1590
2015/04/22,1990,1990,1990,1990,37400,1990
2015/04/23,2180,2390,2107,2390,909100,2390
2015/04/24,2500,2550,2170,2419,1964900,2419
2015/04/27,2400,2919,2393,2919,1053600,2919
2015/04/28,2998,3375,2738,3290,2506800,3290
2015/04/30,3300,3415,3000,3205,982300,3205
2015/05/01,3135,3165,2506,2530,669900,2530
2015/05/07,2434,3030,2431,3030,689200,3030
2015/05/08,3240,3640,3045,3200,807300,3200
2015/05/11,3200,3330,2936,3000,269200,3000
2015/05/12,3100,3220,2855,2932,201300,2932
2015/05/13,2960,3000,2744,2770,142200,2770
2015/05/14,2780,3110,2772,2990,357900,2990
2015/05/15,3030,3100,2630,2685,288300,2685
2015/05/18,2785,2844,2645,2715,128600,2715
2015/05/19,2635,2740,2606,2740,104900,2740
2015/05/20,2691,2987,2670,2978,253500,2978
2015/05/21,3000,3135,2875,2901,195800,2901
2015/05/22,2910,2913,2822,2870,63200,2870
2015/05/25,2865,3045,2825,3000,158800,3000
2015/05/26,3000,3055,2826,2858,99700,2858
2015/05/27,2908,2950,2870,2900,98800,2900
2015/05/28,2905,3000,2830,2868,117100,2868
2015/05/29,2831,3000,2830,3000,136300,3000
2015/06/01,3050,3290,2983,3285,355100,3285
2015/06/02,3350,3985,3310,3845,1518400,3845
2015/06/03,3705,3845,3545,3645,351300,3645
2015/06/04,3715,3755,3415,3635,185700,3635
2015/06/05,3590,3670,3280,3320,236200,3320
2015/06/08,3280,3320,3185,3225,85900,3225
2015/06/09,3260,3260,2981,3010,163500,3010
2015/06/10,3000,3000,2830,2863,180300,2863
2015/06/11,2875,2979,2851,2900,116600,2900
2015/06/12,2960,3035,2835,2871,164800,2871
2015/06/15,2852,2906,2750,2888,98200,2888
2015/06/16,2892,2985,2828,2834,107900,2834
2015/06/17,2811,2860,2695,2740,106400,2740
2015/06/18,2709,2730,2510,2617,148600,2617
2015/06/19,2645,2662,2500,2545,115900,2545
2015/06/22,2570,2599,2506,2562,77800,2562
2015/06/23,3065,3065,3015,3065,254300,3065
2015/06/24,3010,3200,2762,2927,517000,2927
2015/06/25,2833,2941,2775,2917,118900,2917
2015/06/26,2900,2917,2826,2831,63600,2831
2015/06/29,2600,2787,2600,2641,116100,2641
2015/06/30,2603,2720,2603,2693,54500,2693
2015/07/01,2673,2870,2673,2836,85100,2836
