2013/03/13,5510,5650,4570,4800,909800,4800
2013/03/14,4520,5250,4330,4405,1000400,4405
2013/03/15,4460,4680,4200,4220,298800,4220
2013/03/18,4270,4585,4090,4230,132200,4230
2013/03/19,4300,4595,4275,4595,121100,4595
2013/03/21,4550,4550,4050,4350,84300,4350
2013/03/22,4280,4280,4050,4050,45500,4050
2013/03/25,4080,4110,3815,3815,30600,3815
2013/03/26,3730,3990,3620,3845,36500,3845
2013/03/27,3900,4050,3875,3885,25900,3885
2013/03/28,3985,4040,3880,3900,18800,3900
2013/03/29,4075,4095,3925,4090,37400,4090
2013/04/01,4135,4150,3700,3760,24000,3760
2013/04/02,3720,3800,3480,3630,15700,3630
2013/04/03,3710,3750,3620,3650,7100,3650
2013/04/04,3585,3625,3465,3560,14900,3560
2013/04/05,3475,3480,3360,3360,32200,3360
2013/04/08,3405,3420,3175,3255,27200,3255
2013/04/09,3200,3315,3170,3260,21100,3260
2013/04/10,3260,3500,3260,3500,23100,3500
2013/04/11,3550,3960,3550,3770,85300,3770
2013/04/12,3840,3840,3600,3690,29900,3690
2013/04/15,3750,3750,3615,3650,14100,3650
2013/04/16,3520,3620,3500,3520,12000,3520
2013/04/17,3535,3860,3520,3860,23600,3860
2013/04/18,3860,4190,3800,3980,51500,3980
2013/04/19,4135,4135,3950,3950,18900,3950
2013/04/22,4020,4150,3990,3990,13300,3990
2013/04/23,3990,3990,3850,3895,17200,3895
2013/04/24,3920,3920,3860,3900,16600,3900
2013/04/25,3960,3960,3805,3850,21900,3850
2013/04/26,3805,3845,3770,3810,13500,3810
2013/04/30,3810,3950,3810,3915,22800,3915
2013/05/01,3950,4570,3895,4480,119700,4480
2013/05/02,4340,4600,4160,4450,95400,4450
2013/05/07,4700,5150,4590,5090,273300,5090
2013/05/08,5800,5970,5100,5440,311100,5440
2013/05/09,5440,5500,4800,5000,80100,5000
2013/05/10,5060,5500,4880,5400,88200,5400
2013/05/13,5100,6390,4960,6390,251900,6390
2013/05/14,6190,6960,5530,6240,415300,6240
2013/05/15,6300,7200,5250,5770,373600,5770
2013/05/16,5470,5500,4770,5310,115800,5310
2013/05/17,5400,5610,4880,5400,49100,5400
2013/05/20,5500,6100,5470,5540,113600,5540
2013/05/21,5640,5700,5140,5300,32600,5300
2013/05/22,5100,5200,4910,4920,38200,4920
2013/05/23,4880,5190,4220,4275,60900,4275
2013/05/24,4440,4710,4000,4510,44200,4510
2013/05/27,4420,4505,4215,4385,14300,4385
2013/05/28,4260,4850,4260,4650,38900,4650
2013/05/29,4790,4820,4550,4660,27900,4660
2013/05/30,4555,4620,4220,4320,25600,4320
2013/05/31,4390,4500,4310,4370,12400,4370
2013/06/03,4295,4295,4015,4040,18200,4040
2013/06/04,3950,4170,3915,4085,15400,4085
2013/06/05,4000,4340,4000,4190,24200,4190
2013/06/06,4010,4150,3665,3675,42400,3675
2013/06/07,3500,3595,3005,3440,31400,3440
2013/06/10,3750,3990,3750,3960,11500,3960
2013/06/11,3915,4050,3810,4040,10700,4040
2013/06/12,3740,4000,3700,3950,7800,3950
2013/06/13,3755,3835,3700,3730,12000,3730
2013/06/14,3805,3920,3710,3905,11100,3905
2013/06/17,3915,4300,3915,4290,16500,4290
2013/06/18,4320,4370,4040,4200,14600,4200
2013/06/19,4150,4355,4150,4150,6000,4150
2013/06/20,4120,4120,3990,4025,4800,4025
2013/06/21,3990,4090,3770,4090,9200,4090
2013/06/24,4255,4255,3750,3845,8100,3845
2013/06/25,3845,3845,3625,3665,8000,3665
2013/06/26,3665,3735,3400,3400,10600,3400
2013/06/27,3400,3595,3195,3420,9700,3420
2013/06/28,3480,3720,3480,3705,9100,3705
2013/07/01,3890,3910,3700,3790,6300,3790
2013/07/02,3910,3910,3740,3750,8700,3750
2013/07/03,3770,3845,3700,3845,6000,3845
2013/07/04,3845,3900,3810,3900,5600,3900
2013/07/05,3995,4000,3910,3950,7300,3950
2013/07/08,4035,4035,3955,3990,6800,3990
2013/07/09,4010,4050,3945,3990,9700,3990
2013/07/10,3985,4155,3985,4095,12500,4095
2013/07/11,4095,4175,4055,4175,7400,4175
2013/07/12,4200,4360,4200,4360,18700,4360
2013/07/16,4400,4410,4175,4250,16400,4250
2013/07/17,4170,4220,4070,4095,6300,4095
2013/07/18,4055,4330,3990,4325,15200,4325
2013/07/19,4350,4380,3990,4105,18200,4105
2013/07/22,4210,4330,4150,4300,9800,4300
2013/07/23,4300,4400,4230,4385,18700,4385
2013/07/24,4430,4750,4420,4615,47900,4615
2013/07/25,4740,4740,4415,4490,24300,4490
2013/07/26,4420,4420,4240,4260,15300,4260
2013/07/29,4160,4180,4000,4010,20300,4010
2013/07/30,3990,4100,3800,4060,8600,4060
2013/07/31,4000,4000,3910,3910,5900,3910
2013/08/01,3890,3975,3720,3900,9200,3900
2013/08/02,3925,4095,3925,4085,8400,4085
2013/08/05,4085,4110,4025,4090,6600,4090
2013/08/06,4100,4100,4010,4095,6100,4095
2013/08/07,4025,4050,3950,4000,4600,4000
2013/08/08,3950,4000,3765,3885,5800,3885
2013/08/09,3840,3900,3805,3820,3900,3820
2013/08/12,3690,3690,3460,3460,16100,3460
2013/08/13,3460,3595,3410,3525,9800,3525
2013/08/14,3560,3630,3550,3555,6000,3555
2013/08/15,3495,3555,3450,3555,6900,3555
2013/08/16,3580,3730,3570,3630,5400,3630
2013/08/19,3735,3735,3670,3730,4000,3730
2013/08/20,3635,3650,3605,3610,5300,3610
2013/08/21,3680,3680,3580,3580,2400,3580
2013/08/22,3580,3700,3580,3615,4200,3615
2013/08/23,3630,3660,3520,3520,4700,3520
2013/08/26,3515,3515,3450,3450,5200,3450
2013/08/27,3450,3460,3400,3445,3300,3445
2013/08/28,3350,3400,3350,3350,3300,3350
2013/08/29,3390,3390,3310,3350,1700,3350
2013/08/30,3370,3460,3360,3450,3700,3450
2013/09/02,3450,3460,3365,3365,1100,3365
2013/09/03,3360,3400,3330,3345,8700,3345
2013/09/04,3345,3365,3250,3280,12400,3280
2013/09/05,3315,3315,3235,3235,10700,3235
2013/09/06,3265,3265,3180,3225,10300,3225
2013/09/09,3230,3255,3220,3230,5900,3230
2013/09/10,3240,3265,3225,3235,5900,3235
2013/09/11,3240,3240,3160,3220,6700,3220
2013/09/12,3250,3250,3205,3235,7300,3235
2013/09/13,3290,3365,3210,3365,15800,3365
2013/09/17,3490,3675,3425,3450,21000,3450
2013/09/18,3650,3650,3550,3550,8900,3550
2013/09/19,3620,3715,3600,3715,12400,3715
2013/09/20,3715,3715,3580,3655,10400,3655
2013/09/24,3655,3655,3605,3645,4000,3645
2013/09/25,3645,3650,3520,3580,5600,3580
2013/09/26,3585,3620,3510,3595,4400,3595
2013/09/27,3580,3590,3510,3560,6000,3560
2013/09/30,3430,3490,3425,3465,7700,3465
2013/10/01,3455,3550,3455,3500,5800,3500
2013/10/02,3530,3550,3480,3545,5300,3545
2013/10/03,3555,3590,3535,3560,5200,3560
2013/10/04,3465,3570,3465,3510,4300,3510
2013/10/07,3530,3600,3495,3500,8000,3500
2013/10/08,3470,3495,3420,3470,3900,3470
2013/10/09,3440,3455,3380,3450,7700,3450
2013/10/10,3455,3480,3400,3445,5100,3445
2013/10/11,3465,3550,3465,3525,6700,3525
2013/10/15,3520,3540,3480,3525,4400,3525
2013/10/16,3550,3580,3500,3535,6600,3535
2013/10/17,3540,3560,3490,3515,4400,3515
2013/10/18,3520,3680,3500,3680,14100,3680
2013/10/21,3800,4095,3800,4095,33600,4095
2013/10/22,4120,4160,3900,3910,21600,3910
2013/10/23,3920,4000,3750,3835,17900,3835
2013/10/24,3790,3960,3790,3960,6200,3960
2013/10/25,4000,4010,3855,3900,7300,3900
2013/10/28,3875,3880,3720,3780,4300,3780
2013/10/29,3800,3800,3545,3555,21800,3555
2013/10/30,3610,3630,3500,3505,14500,3505
2013/10/31,3540,3555,3475,3540,4700,3540
2013/11/01,3540,3550,3400,3440,11800,3440
2013/11/05,3405,3450,3380,3440,9700,3440
2013/11/06,3410,3510,3400,3450,8200,3450
2013/11/07,3480,3510,3450,3490,3800,3490
2013/11/08,3420,3490,3405,3490,6800,3490
2013/11/11,2930,3030,2930,3000,36600,3000
2013/11/12,3030,3130,2990,3020,14900,3020
2013/11/13,3085,3085,3000,3035,4900,3035
2013/11/14,3000,3140,3000,3125,5200,3125
2013/11/15,3150,3150,3060,3110,7200,3110
2013/11/18,3170,3170,3090,3105,4200,3105
2013/11/19,3120,3120,3055,3060,4100,3060
2013/11/20,3060,3060,3020,3025,4300,3025
2013/11/21,3030,3075,3030,3050,4100,3050
2013/11/22,3050,3130,3045,3095,5600,3095
2013/11/25,3115,3125,3100,3110,3700,3110
2013/11/26,3130,3130,3085,3090,4100,3090
2013/11/27,3100,3120,3085,3085,2200,3085
2013/11/28,3140,3140,3080,3080,2200,3080
2013/11/29,3030,3065,3030,3040,5300,3040
2013/12/02,3020,3040,2998,3040,6300,3040
2013/12/03,3040,3045,3010,3025,3100,3025
2013/12/04,3020,3035,3000,3005,3600,3005
2013/12/05,3015,3050,3000,3005,4800,3005
2013/12/06,3000,3060,3000,3010,7500,3010
2013/12/09,3060,3060,3010,3035,3500,3035
2013/12/10,3035,3065,3010,3015,6000,3015
2013/12/11,3015,3045,3010,3025,5400,3025
2013/12/12,3025,3035,3010,3010,2600,3010
2013/12/13,3000,3130,3000,3130,7200,3130
2013/12/16,3100,3120,3005,3005,5300,3005
2013/12/17,3005,3020,2992,2992,6400,2992
2013/12/18,2986,3010,2951,2960,9700,2960
2013/12/19,2975,2978,2940,2946,10100,2946
2013/12/20,2930,2933,2899,2905,11900,2905
2013/12/24,2882,2882,2799,2803,16800,2803
2013/12/25,2810,2849,2802,2802,14900,2802
2013/12/26,2830,2901,2830,2901,4200,2901
2013/12/27,2920,2936,2890,2919,2900,2919
2013/12/30,2937,3025,2937,3000,3300,3000
2014/01/06,3035,3035,2950,2960,3000,2960
2014/01/07,2951,2951,2831,2911,5900,2911
2014/01/08,2940,2951,2931,2951,2300,2951
2014/01/09,2951,3030,2895,2950,3200,2950
2014/01/10,2970,2970,2921,2930,300,2930
2014/01/14,2930,2983,2910,2949,1700,2949
2014/01/15,2998,3000,2970,2980,1600,2980
2014/01/16,2980,3020,2980,2980,1200,2980
2014/01/17,2930,2950,2855,2930,4100,2930
2014/01/20,2975,2975,2940,2950,1700,2950
2014/01/21,2950,2980,2950,2955,1900,2955
2014/01/22,2988,2990,2963,2983,3000,2983
2014/01/23,3000,3040,3000,3000,8000,3000
2014/01/24,2951,2990,2950,2989,3400,2989
2014/01/27,2910,2921,2901,2907,2400,2907
2014/01/28,2900,2960,2880,2915,3200,2915
2014/01/29,2910,2950,2890,2916,1900,2916
2014/01/30,2960,2960,2865,2865,2000,2865
2014/01/31,2865,2900,2802,2802,2700,2802
2014/02/03,2760,2798,2620,2673,4400,2673
2014/02/04,2580,2580,2390,2441,10300,2441
2014/02/05,2441,2481,2430,2430,4800,2430
2014/02/06,2401,2487,2401,2487,3200,2487
2014/02/07,2560,2590,2409,2540,3700,2540
2014/02/10,2578,2639,2544,2560,1300,2560
2014/02/12,2610,2610,2561,2609,2100,2609
2014/02/13,2659,2890,2650,2849,6900,2849
2014/02/14,2792,2840,2600,2770,4700,2770
2014/02/17,2570,2597,2500,2500,6100,2500
2014/02/18,2524,2536,2480,2520,3500,2520
2014/02/19,2570,2570,2530,2552,1200,2552
2014/02/20,2570,2655,2569,2600,10300,2600
2014/02/21,2720,2720,2624,2690,2800,2690
2014/02/24,2790,2790,2710,2755,2100,2755
2014/02/25,2800,2830,2750,2750,1400,2750
2014/02/26,2650,2760,2641,2673,3500,2673
2014/02/27,2723,2723,2603,2628,1900,2628
2014/02/28,2621,2650,2610,2620,2100,2620
2014/03/03,2610,2610,2500,2502,2200,2502
2014/03/04,2500,2574,2500,2571,1600,2571
2014/03/05,2595,2595,2595,2595,100,2595
2014/03/06,2590,2600,2570,2600,500,2600
2014/03/07,2600,2600,2550,2560,1700,2560
2014/03/10,2540,2540,2502,2507,3100,2507
2014/03/11,2501,2526,2471,2500,3500,2500
2014/03/12,2470,2494,2470,2473,1000,2473
2014/03/13,2450,2476,2445,2445,3000,2445
2014/03/14,2440,2440,2380,2424,3700,2424
2014/03/17,2410,2422,2362,2371,3600,2371
2014/03/18,2420,2420,2371,2400,1500,2400
2014/03/19,2400,2400,2371,2384,1400,2384
2014/03/20,2370,2380,2300,2344,2600,2344
2014/03/24,2310,2321,2270,2321,3900,2321
2014/03/25,2280,2296,2262,2271,900,2271
2014/03/26,2258,2305,2258,2262,3700,2262
2014/03/27,2181,2206,2151,2195,2900,2195
2014/03/28,2295,2295,2208,2265,600,2265
2014/03/31,2265,2300,2265,2300,1300,2300
2014/04/01,2306,2310,2266,2310,1100,2310
2014/04/02,2305,2449,2305,2449,2700,2449
2014/04/03,2458,2458,2383,2434,1300,2434
2014/04/04,2384,2390,2384,2390,500,2390
2014/04/07,2386,2386,2260,2271,3200,2271
2014/04/08,2250,2250,2210,2210,3600,2210
2014/04/09,2205,2235,2205,2224,2700,2224
2014/04/10,2227,2247,2226,2243,2100,2243
2014/04/11,2206,2235,2206,2235,1100,2235
2014/04/14,2185,2229,2185,2226,700,2226
2014/04/15,2280,2280,2226,2226,3100,2226
2014/04/16,2220,2251,2220,2251,1400,2251
2014/04/17,2253,2330,2253,2260,4500,2260
2014/04/18,2240,2290,2240,2290,600,2290
2014/04/21,2255,2260,2242,2242,800,2242
2014/04/22,2246,2295,2210,2210,2000,2210
2014/04/23,2210,2210,2180,2200,1400,2200
2014/04/24,2155,2170,2155,2170,400,2170
2014/04/25,2220,2220,2170,2175,1100,2175
2014/04/28,2125,2175,2125,2152,800,2152
2014/04/30,2120,2150,2120,2135,2700,2135
2014/05/01,2135,2170,2120,2170,1100,2170
2014/05/02,2135,2190,2135,2155,800,2155
2014/05/07,2140,2151,2105,2150,700,2150
2014/05/08,2112,2156,2106,2106,2100,2106
2014/05/09,2056,2060,2018,2050,4500,2050
2014/05/12,2150,2400,2150,2167,8200,2167
2014/05/13,2152,2152,2035,2080,3800,2080
2014/05/14,2031,2200,2031,2175,2900,2175
2014/05/15,2130,2189,2101,2128,1800,2128
2014/05/16,2160,2160,2060,2089,1700,2089
2014/05/19,2091,2118,2060,2060,3100,2060
2014/05/20,2050,2090,2000,2060,1900,2060
2014/05/21,2010,2014,2000,2000,2600,2000
2014/05/22,1985,2038,1980,2030,3000,2030
2014/05/23,2032,2077,2001,2077,1300,2077
2014/05/26,2125,2125,2060,2101,1600,2101
2014/05/27,2110,2240,2110,2220,2000,2220
2014/05/28,2220,2238,2200,2215,2200,2215
2014/05/29,2235,2235,2191,2228,1400,2228
2014/05/30,2218,2280,2218,2250,2400,2250
2014/06/02,2210,2300,2210,2280,1800,2280
2014/06/03,2280,2330,2250,2299,3500,2299
2014/06/04,2279,2281,2250,2281,4400,2281
2014/06/05,2280,2280,2250,2250,1100,2250
2014/06/06,2260,2279,2235,2279,900,2279
2014/06/09,2280,2305,2255,2255,1100,2255
2014/06/10,2350,2400,2349,2380,7700,2380
2014/06/11,2419,2419,2345,2380,2900,2380
2014/06/12,2414,2415,2385,2415,2000,2415
2014/06/13,2385,2417,2385,2417,1000,2417
2014/06/16,2499,2528,2455,2480,4400,2480
2014/06/17,2440,2560,2440,2560,1500,2560
2014/06/18,2810,3060,2771,3060,20400,3060
2014/06/19,3550,3550,3160,3220,129900,3220
2014/06/20,3240,3280,2920,2947,23800,2947
2014/06/23,2900,2901,2780,2836,19200,2836
2014/06/24,2836,3020,2778,2962,17100,2962
2014/06/25,2960,2960,2820,2860,6200,2860
2014/06/26,2950,3040,2801,2811,9900,2811
2014/06/27,2850,2850,2650,2670,10300,2670
2014/06/30,2670,2800,2610,2748,2900,2748
2014/07/01,2798,2840,2753,2840,5100,2840
2014/07/02,2870,2990,2870,2945,6000,2945
2014/07/03,2975,2975,2781,2810,5000,2810
2014/07/04,2900,2900,2850,2850,1900,2850
2014/07/07,2920,2920,2810,2810,4300,2810
2014/07/08,2810,2810,2760,2770,1500,2770
2014/07/09,2721,2722,2704,2707,1900,2707
2014/07/10,2704,2720,2651,2651,2200,2651
2014/07/11,2601,2620,2601,2620,2600,2620
2014/07/14,2670,2670,2590,2590,2200,2590
2014/07/15,2690,2690,2619,2670,1600,2670
2014/07/16,2690,2690,2590,2599,2700,2599
2014/07/17,2599,2599,2570,2580,2700,2580
2014/07/18,2560,2571,2550,2570,1600,2570
2014/07/22,2617,2716,2617,2700,2200,2700
2014/07/23,2770,2775,2750,2775,2700,2775
2014/07/24,2790,2800,2778,2778,2100,2778
2014/07/25,2781,2810,2781,2810,2100,2810
2014/07/28,2811,2811,2792,2797,2300,2797
2014/07/29,2808,2808,2792,2795,2000,2795
2014/07/30,2802,2830,2800,2801,2500,2801
2014/07/31,2801,2801,2793,2800,2000,2800
2014/08/01,2765,2765,2680,2730,4500,2730
2014/08/04,2720,2750,2670,2730,2600,2730
2014/08/05,2680,2695,2631,2631,2400,2631
2014/08/06,2551,2570,2469,2550,8500,2550
2014/08/07,2550,2550,2460,2500,1800,2500
2014/08/08,2450,2450,2400,2401,2600,2401
2014/08/11,2301,2349,2180,2300,11000,2300
2014/08/12,2350,2400,2324,2400,1400,2400
2014/08/13,2350,2450,2322,2410,2300,2410
2014/08/14,2410,2410,2341,2341,2000,2341
2014/08/15,2391,2391,2384,2384,300,2384
2014/08/18,2400,2450,2400,2447,1200,2447
2014/08/19,2494,2494,2476,2494,1700,2494
2014/08/20,2490,2500,2415,2490,1100,2490
2014/08/21,2440,2467,2430,2435,600,2435
2014/08/22,2425,2450,2422,2422,500,2422
2014/08/25,2421,2421,2420,2421,400,2421
2014/08/26,2421,2469,2401,2412,2600,2412
2014/08/27,2412,2446,2412,2419,900,2419
2014/08/28,2419,2420,2415,2420,500,2420
2014/08/29,2403,2428,2402,2428,400,2428
2014/09/01,2424,2470,2424,2470,1400,2470
2014/09/02,2470,2470,2402,2448,3500,2448
2014/09/03,2410,2410,2410,2410,300,2410
2014/09/04,2410,2411,2390,2390,1800,2390
2014/09/05,2390,2390,2320,2375,4700,2375
2014/09/08,2397,2397,2340,2341,600,2341
2014/09/09,2340,2386,2340,2386,400,2386
2014/09/10,2360,2380,2360,2380,1200,2380
2014/09/11,2351,2351,2336,2336,1000,2336
2014/09/12,2365,2365,2330,2364,1500,2364
2014/09/16,2360,2360,2301,2339,1500,2339
2014/09/17,2337,2337,2323,2330,400,2330
2014/09/18,2334,2369,2334,2366,1300,2366
2014/09/19,2368,2386,2367,2370,1600,2370
2014/09/22,2375,2378,2370,2370,1000,2370
2014/09/24,2370,2370,2350,2353,800,2353
2014/09/25,2361,2446,2361,2446,2400,2446
2014/09/26,2450,2550,2445,2451,2600,2451
2014/09/29,2361,2400,2361,2370,2300,2370
2014/09/30,2400,2400,2350,2352,600,2352
2014/10/01,2354,2354,2353,2353,1400,2353
2014/10/02,2348,2348,2280,2285,1400,2285
2014/10/03,2300,2300,2280,2280,2300,2280
2014/10/06,2290,2300,2290,2300,900,2300
2014/10/07,2300,2327,2290,2327,300,2327
2014/10/08,2300,2300,2253,2278,1100,2278
2014/10/09,2280,2300,2253,2253,1300,2253
2014/10/10,2250,2250,2225,2225,1000,2225
2014/10/14,2225,2225,2190,2204,1300,2204
2014/10/15,2255,2255,2161,2199,3000,2199
2014/10/16,2120,2187,2113,2125,1900,2125
2014/10/17,2125,2133,2102,2106,1000,2106
2014/10/20,2136,2160,2116,2160,700,2160
2014/10/21,2140,2140,2140,2140,200,2140
2014/10/22,2120,2150,2117,2117,2700,2117
2014/10/23,2113,2116,2082,2083,4500,2083
2014/10/24,2095,2114,2001,2039,6600,2039
2014/10/27,2030,2059,2030,2058,1600,2058
2014/10/28,2061,2068,2051,2067,1000,2067
2014/10/29,2070,2071,2055,2056,1300,2056
2014/10/30,2056,2100,2056,2100,1200,2100
2014/10/31,2110,2154,2101,2102,1500,2102
2014/11/04,2252,2252,2141,2180,3800,2180
2014/11/05,2195,2195,2131,2180,2900,2180
2014/11/06,2162,2188,2150,2162,700,2162
2014/11/07,2162,2166,2150,2150,1800,2150
2014/11/10,2072,2080,2063,2063,4100,2063
2014/11/11,2050,2079,2030,2050,2800,2050
2014/11/12,2088,2088,2030,2051,4000,2051
2014/11/13,2088,2088,2058,2060,1600,2060
2014/11/14,2055,2055,2043,2043,1200,2043
2014/11/17,2040,2041,2031,2031,1900,2031
2014/11/18,2032,2036,2030,2033,1400,2033
2014/11/19,2030,2100,2030,2040,2900,2040
2014/11/20,2041,2089,2038,2038,1200,2038
2014/11/21,2073,2073,2030,2030,4100,2030
2014/11/25,2032,2045,2010,2013,2600,2013
2014/11/26,2014,2045,2013,2030,3200,2030
2014/11/27,2040,2040,2021,2021,400,2021
2014/11/28,2023,2050,2023,2026,1600,2026
2014/12/01,2056,2059,2022,2025,1000,2025
2014/12/02,2025,2058,2025,2025,1700,2025
2014/12/03,2026,2042,2025,2030,1900,2030
2014/12/04,2031,2036,2022,2022,2600,2022
2014/12/05,2020,2029,2020,2029,3400,2029
2014/12/08,2028,2034,2022,2034,3800,2034
2014/12/09,2028,2034,2023,2024,1500,2024
2014/12/10,2011,2020,2010,2013,3000,2013
2014/12/11,2010,2020,2005,2020,3300,2020
2014/12/12,2020,2020,2010,2010,3000,2010
2014/12/15,2021,2035,2000,2000,5400,2000
2014/12/16,2000,2009,1950,1950,4000,1950
2014/12/17,2005,2005,1942,1942,9500,1942
2014/12/18,1928,1953,1912,1922,4700,1922
2014/12/19,1900,2008,1895,1900,9900,1900
2014/12/22,1861,1881,1851,1851,4700,1851
2014/12/24,1825,1835,1798,1805,12200,1805
2014/12/25,1788,1789,1700,1760,17900,1760
2014/12/26,1724,1800,1724,1800,900,1800
2014/12/29,1900,1900,1850,1850,2400,1850
2014/12/30,1895,1930,1890,1924,4100,1924
2015/01/05,1999,2005,1941,1970,3700,1970
2015/01/06,2004,2004,1900,1960,1100,1960
2015/01/07,1955,1955,1880,1880,1000,1880
2015/01/08,1890,1910,1890,1900,1100,1900
2015/01/09,1901,1901,1880,1880,700,1880
2015/01/13,1851,1872,1828,1828,1900,1828
2015/01/14,1788,1870,1770,1770,1100,1770
2015/01/15,1840,1840,1780,1813,1400,1813
2015/01/16,1775,1842,1770,1842,1400,1842
2015/01/19,1890,1890,1885,1885,700,1885
2015/01/20,1885,1885,1805,1805,600,1805
2015/01/21,1830,1850,1800,1800,500,1800
2015/01/22,1800,1800,1797,1797,200,1797
2015/01/23,1781,1815,1781,1815,800,1815
2015/01/26,1895,1895,1850,1850,600,1850
2015/01/27,1810,1815,1810,1815,200,1815
2015/01/28,1815,1815,1800,1805,1000,1805
2015/01/29,1810,1810,1806,1806,700,1806
2015/01/30,1801,1801,1797,1800,1300,1800
2015/02/02,1800,1800,1760,1780,300,1780
2015/02/03,1762,1762,1760,1760,200,1760
2015/02/04,1760,1780,1760,1777,900,1777
2015/02/05,1800,1800,1779,1779,700,1779
2015/02/06,1770,1770,1745,1745,1400,1745
2015/02/09,1812,1820,1790,1800,1300,1800
2015/02/12,1780,1781,1770,1770,500,1770
2015/02/13,1775,1775,1763,1763,1100,1763
2015/02/16,1761,1770,1758,1758,1100,1758
2015/02/17,1743,1755,1705,1710,2400,1710
2015/02/18,1703,1770,1703,1730,2900,1730
2015/02/19,1730,1747,1712,1715,1800,1715
2015/02/20,1715,1750,1715,1722,1200,1722
2015/02/23,1730,1743,1730,1743,600,1743
2015/02/24,1745,1900,1743,1870,2700,1870
2015/02/25,1940,1950,1801,1822,7500,1822
2015/02/26,1823,1836,1801,1802,1300,1802
2015/02/27,1802,1810,1802,1810,1900,1810
2015/03/02,1812,1851,1800,1800,1400,1800
2015/03/03,1800,1869,1765,1869,2800,1869
2015/03/04,1780,1869,1780,1868,4900,1868
2015/03/05,1828,1870,1828,1832,1200,1832
2015/03/06,1803,1852,1801,1830,2000,1830
2015/03/09,1830,1860,1780,1805,3200,1805
2015/03/10,1806,1806,1802,1803,1500,1803
2015/03/11,1803,1855,1803,1833,5000,1833
2015/03/12,1863,1863,1837,1858,4400,1858
2015/03/13,1870,1948,1859,1940,4800,1940
2015/03/16,1950,2099,1950,2013,8100,2013
2015/03/17,2013,2013,1999,2002,1900,2002
2015/03/18,1990,1990,1903,1919,2000,1919
2015/03/19,1959,1959,1919,1919,2000,1919
2015/03/20,1921,1940,1920,1921,2000,1921
2015/03/23,1988,2010,1957,1997,3200,1997
2015/03/24,2015,2015,1986,1996,2200,1996
2015/03/25,1996,1996,1941,1941,2900,1941
2015/03/26,1941,1968,1932,1963,2200,1963
2015/03/27,1994,1994,1963,1963,1100,1963
2015/03/30,1966,1973,1950,1960,1200,1960
2015/03/31,1950,1999,1950,1999,1200,1999
2015/04/01,2020,2020,1970,2008,4600,2008
2015/04/02,2015,2076,2015,2050,6200,2050
2015/04/03,2079,2079,2040,2040,1300,2040
2015/04/06,2040,2043,2005,2005,2300,2005
2015/04/07,2021,2071,2020,2059,2100,2059
2015/04/08,2069,2069,2051,2055,1900,2055
2015/04/09,2055,2055,2040,2050,800,2050
2015/04/10,2050,2080,2010,2080,2500,2080
2015/04/13,2080,2087,2052,2075,1800,2075
2015/04/14,2060,2076,2060,2076,1400,2076
2015/04/15,2070,2070,2050,2065,2600,2065
2015/04/16,2065,2066,2060,2061,2200,2061
2015/04/17,2044,2069,2011,2011,2200,2011
2015/04/20,2015,2016,2015,2015,600,2015
2015/04/21,2001,2046,2001,2015,1100,2015
2015/04/22,1967,2010,1967,2000,2700,2000
2015/04/23,1954,2024,1950,1975,2800,1975
2015/04/24,1975,1975,1975,1975,900,1975
2015/04/27,2016,2016,1990,1990,800,1990
2015/04/28,1991,1991,1981,1981,1900,1981
2015/04/30,1991,1991,1955,1956,3200,1956
2015/05/01,1977,1990,1970,1971,2300,1971
2015/05/07,1971,1980,1971,1980,1000,1980
2015/05/08,2000,2000,1981,1990,1300,1990
2015/05/11,2000,2018,1995,2016,2000,2016
2015/05/12,2003,2006,2000,2000,1800,2000
2015/05/13,2000,2010,1972,1976,2000,1976
2015/05/14,2000,2000,1980,1980,800,1980
2015/05/15,1960,1970,1948,1948,4000,1948
2015/05/18,1951,1952,1923,1923,2300,1923
2015/05/19,1949,1949,1921,1923,1900,1923
2015/05/20,1923,1940,1820,1907,4300,1907
2015/05/21,1910,1910,1900,1900,500,1900
2015/05/22,1967,1967,1945,1945,600,1945
2015/05/25,1905,1926,1885,1926,1300,1926
2015/05/26,1926,1942,1926,1942,700,1942
2015/05/27,1902,1915,1900,1902,1800,1902
2015/05/28,1901,1904,1880,1880,1700,1880
2015/05/29,1920,1920,1885,1894,1300,1894
2015/06/01,1934,2100,1933,2016,14100,2016
2015/06/02,2100,2106,2022,2022,9300,2022
2015/06/03,1975,2005,1975,1976,3700,1976
2015/06/04,2000,2016,1976,1988,1500,1988
2015/06/05,2028,2028,1976,1976,1200,1976
2015/06/08,1980,1996,1974,1996,1800,1996
2015/06/09,2001,2016,1970,2016,2900,2016
2015/06/10,1990,1990,1969,1969,1700,1969
2015/06/11,1980,1982,1965,1970,1100,1970
2015/06/12,1961,1970,1961,1962,2400,1962
2015/06/15,2052,2052,1985,1990,4900,1990
2015/06/16,1983,1986,1968,1971,900,1971
2015/06/17,1961,1994,1961,1966,1600,1966
2015/06/18,2005,2005,1962,1962,2500,1962
2015/06/19,1963,1970,1963,1966,600,1966
2015/06/22,1966,1980,1956,1956,1800,1956
2015/06/23,1960,1970,1960,1966,6300,1966
2015/06/24,2006,2026,1995,1995,2900,1995
2015/06/25,1995,2010,1992,2000,1500,2000
2015/06/26,2000,2010,1990,2010,3300,2010
2015/06/29,1960,1995,1951,1958,5300,1958
2015/06/30,1960,1986,1960,1986,1700,1986
2015/07/01,1986,2000,1969,2000,900,2000
