2014/10/22,2890,3390,2638,2706,4942700,1353
2014/10/28,2200,2475,2180,2416,1088100,1208
2014/10/30,2565,2830,2450,2490,2082100,1245
2014/10/31,2340,2374,2202,2230,407100,1115
2014/11/04,2218,2290,2117,2250,267300,1125
2014/11/05,2350,2388,2266,2292,302600,1146
2014/11/06,2313,2345,2207,2218,226300,1109
2014/11/10,2275,2410,2263,2348,265200,1174
2014/11/11,2370,2643,2288,2556,794700,1278
2014/11/13,2495,2670,2396,2460,340000,1230
2014/11/14,2560,2560,2300,2310,120500,1155
2014/11/17,2360,2436,2305,2310,94300,1155
2014/11/18,2380,2396,2335,2384,75300,1192
2014/11/19,2884,2884,2520,2570,1286600,1285
2014/11/20,2535,2541,2401,2442,179300,1221
2014/11/21,2492,2492,2360,2420,123500,1210
2014/11/26,2512,2520,2420,2430,91400,1215
2014/11/28,2371,2400,2356,2400,43100,1200
2014/12/01,2400,2400,2355,2362,30500,1181
2014/12/03,2300,2300,2150,2178,133300,1089
2014/12/04,2390,2410,2271,2286,256000,1143
2014/12/05,2290,2298,2200,2218,67500,1109
2014/12/09,2187,2197,2130,2130,62100,1065
2014/12/12,2078,2078,2041,2058,22100,1029
2014/12/15,2059,2233,2059,2150,62700,1075
2014/12/17,2062,2199,2059,2068,56500,1034
2014/12/22,2125,2268,2087,2200,89000,1100
2014/12/24,2247,2247,2072,2074,98700,1037
2014/12/26,1039,1069,1034,1061,49200,1061
2014/12/29,1061,1070,1035,1048,34500,1048
2014/12/30,1037,1039,1005,1022,47500,1022
2015/01/05,1033,1056,1023,1046,49200,1046
2015/01/06,1039,1041,1010,1015,49600,1015
2015/01/07,1028,1034,1016,1029,35900,1029
2015/01/08,1040,1096,1031,1067,96900,1067
2015/01/09,1038,1065,1015,1017,68000,1017
2015/01/13,1017,1020,1000,1014,34800,1014
2015/01/14,1001,1014,1001,1005,28400,1005
2015/01/15,1001,1010,970,976,69000,976
2015/01/16,962,976,944,956,83800,956
2015/01/19,955,1023,955,1022,58500,1022
2015/01/20,1030,1049,1001,1030,47900,1030
2015/01/21,1031,1040,1010,1037,24400,1037
2015/01/22,1037,1037,988,1003,35700,1003
2015/01/23,1010,1113,1010,1024,288000,1024
2015/01/26,1031,1040,980,984,101500,984
2015/01/27,984,984,940,954,93000,954
2015/01/28,944,962,940,952,42900,952
2015/01/29,958,969,942,943,36000,943
2015/01/30,950,958,944,946,22300,946
2015/02/02,944,944,900,901,64700,901
2015/02/03,899,910,831,850,101400,850
2015/02/04,860,860,812,830,83600,830
2015/02/05,826,880,821,842,47900,842
2015/02/06,852,870,825,828,23100,828
2015/02/09,823,851,801,834,49400,834
2015/02/10,850,877,848,872,33500,872
2015/02/12,869,915,869,901,84000,901
2015/02/13,918,928,892,920,77900,920
2015/02/16,793,806,770,775,332700,775
2015/02/17,787,788,771,778,68700,778
2015/02/18,782,785,771,779,73900,779
2015/02/19,774,780,770,776,42800,776
2015/02/20,770,783,767,778,78800,778
2015/02/23,775,785,770,785,51000,785
2015/02/24,785,788,772,784,29000,784
2015/02/25,784,901,774,860,434400,860
2015/02/26,901,978,878,894,372100,894
2015/02/27,875,945,870,918,247900,918
2015/03/02,930,940,896,914,125600,914
2015/03/03,900,920,877,897,56100,897
2015/03/04,898,907,891,891,31200,891
2015/03/05,891,899,873,896,38600,896
2015/03/06,905,905,877,890,39900,890
2015/03/09,890,900,880,894,23300,894
2015/03/10,900,900,877,890,31600,890
2015/03/11,880,899,871,896,48300,896
2015/03/12,883,900,883,890,18400,890
2015/03/13,900,928,900,925,115600,925
2015/03/16,945,963,937,953,73000,953
2015/03/17,968,968,942,956,60900,956
2015/03/18,960,960,942,953,33900,953
2015/03/19,965,965,950,952,22700,952
2015/03/20,955,960,942,960,21300,960
2015/03/23,952,960,951,958,20800,958
2015/03/24,960,960,945,960,15100,960
2015/03/25,960,960,946,955,20500,955
2015/03/26,940,960,920,960,46800,960
2015/03/27,960,960,945,955,15600,955
2015/03/30,925,950,925,938,15800,938
2015/03/31,937,937,920,929,13400,929
2015/04/01,934,943,924,927,10600,927
2015/04/02,924,939,898,930,36300,930
2015/04/03,939,939,917,930,10000,930
2015/04/06,936,940,911,931,13000,931
2015/04/07,932,937,926,932,69500,932
2015/04/08,932,940,915,931,18600,931
2015/04/09,939,947,931,931,9700,931
2015/04/10,938,938,930,930,3700,930
2015/04/13,934,934,915,927,23300,927
2015/04/14,925,928,918,924,20300,924
2015/04/15,917,926,911,921,17600,921
2015/04/16,929,929,908,910,13300,910
2015/04/17,910,919,906,915,14600,915
2015/04/20,915,919,902,916,10100,916
2015/04/21,920,920,862,892,54800,892
2015/04/22,892,904,871,891,68700,891
2015/04/23,862,890,860,890,37700,890
2015/04/24,863,888,860,870,20000,870
2015/04/27,864,869,849,850,21800,850
2015/04/28,853,888,836,876,48300,876
2015/04/30,861,880,854,872,38300,872
2015/05/01,872,876,853,866,27900,866
2015/05/07,858,886,858,883,20300,883
2015/05/08,883,898,883,898,19400,898
2015/05/11,920,1048,886,886,630700,886
2015/05/12,886,925,881,924,57800,924
2015/05/13,923,998,892,935,124300,935
2015/05/14,935,950,912,935,32200,935
2015/05/15,931,935,845,896,85200,896
2015/05/18,852,882,838,841,62400,841
2015/05/19,826,870,826,834,60200,834
2015/05/20,835,836,823,826,20800,826
2015/05/21,824,833,821,827,14900,827
2015/05/22,830,831,816,825,17700,825
2015/05/25,802,826,802,825,37100,825
2015/05/26,812,829,812,825,19000,825
2015/05/27,820,847,819,842,25100,842
2015/05/28,837,845,832,837,34200,837
2015/05/29,837,837,806,833,21500,833
2015/06/01,821,835,821,830,22800,830
2015/06/02,825,861,825,861,39900,861
2015/06/03,872,888,872,885,27400,885
2015/06/04,898,917,897,914,51700,914
2015/06/05,917,929,917,922,38100,922
2015/06/08,937,939,922,926,48000,926
2015/06/09,921,939,905,913,35900,913
2015/06/10,901,938,901,930,69600,930
2015/06/11,926,942,926,932,38000,932
2015/06/12,943,943,921,937,83900,937
2015/06/15,925,938,912,930,49500,930
2015/06/16,930,930,890,901,31000,901
2015/06/17,903,903,871,876,28000,876
2015/06/18,891,891,868,875,26300,875
2015/06/19,877,878,861,861,18900,861
2015/06/22,876,884,850,865,41300,865
2015/06/23,869,877,840,865,63400,865
2015/06/24,870,871,853,855,39900,855
2015/06/25,855,869,850,860,26000,860
2015/06/26,860,900,860,870,35900,870
2015/06/29,840,861,830,858,42500,858
2015/06/30,843,879,842,873,17200,873
2015/07/01,875,880,866,880,28300,880
