2011/01/04,2370,2380,2320,2370,316,237
2011/01/06,2380,2383,2345,2360,315,236
2011/01/18,2400,2405,2345,2380,625,238
2011/01/24,2360,2360,2332,2350,226,235
2011/01/26,2390,2430,2360,2430,336,243
2011/01/28,2398,2398,2380,2380,144,238
2011/02/07,2365,2448,2350,2430,1179,243
2011/02/09,2384,2415,2380,2380,674,238
2011/02/15,1940,1990,1938,1980,3102,198
2011/02/16,1990,2045,1981,2000,2288,200
2011/02/17,2016,2149,2016,2110,2380,211
2011/02/23,2010,2035,2003,2010,1242,201
2011/03/07,2030,2044,2017,2040,239,204
2011/03/08,2030,2040,2018,2040,413,204
2011/03/14,1505,1970,1505,1700,2031,170
2011/03/15,1670,1800,1300,1300,4339,130
2011/03/16,1330,1550,1330,1550,2292,155
2011/03/18,1488,1750,1488,1620,658,162
2011/03/24,1860,1870,1750,1800,926,180
2011/03/25,1800,1850,1780,1790,297,179
2011/03/28,1782,1800,1750,1800,754,180
2011/04/05,1652,1676,1652,1670,432,167
2011/04/11,1662,1662,1600,1640,397,164
2011/04/12,1662,1720,1625,1720,453,172
2011/04/15,1661,1689,1653,1670,44,167
2011/04/18,1670,1677,1600,1600,857,160
2011/04/20,1602,1630,1592,1620,93,162
2011/04/21,1600,1630,1580,1620,140,162
2011/05/09,1571,1596,1568,1590,207,159
2011/05/10,1596,1597,1566,1580,487,158
2011/05/18,1550,1550,1523,1550,320,155
2011/05/31,1559,1559,1525,1550,56,155
2011/06/06,1549,1549,1500,1520,220,152
2011/06/20,1519,1524,1510,1510,310,151
2011/06/22,1513,1516,1500,1510,330,151
2011/06/24,1506,1508,1500,1500,439,150
2011/07/01,1762,1790,1640,1640,1547,164
2011/07/07,1690,1690,1650,1670,686,167
2011/07/08,1665,1694,1660,1670,173,167
2011/07/13,1661,1661,1578,1650,781,165
2011/07/26,1606,1640,1600,1640,244,164
2011/07/27,1639,1849,1638,1730,3191,173
2011/08/04,1637,1680,1630,1680,364,168
2011/08/08,1602,1610,1520,1520,310,152
2011/08/09,1515,1515,1340,1510,1016,151
2011/08/15,1571,1620,1500,1620,667,162
2011/08/16,1600,1630,1600,1630,500,163
2011/08/17,1633,1650,1610,1650,354,165
2011/08/19,1580,1650,1580,1620,503,162
2011/08/22,1598,1600,1530,1530,892,153
2011/08/26,1579,1579,1541,1570,136,157
2011/08/30,1580,1580,1520,1550,198,155
2011/09/02,1529,1546,1528,1530,229,153
2011/09/05,1536,1540,1522,1540,137,154
2011/09/09,1520,1520,1515,1520,118,152
2011/09/13,1516,1535,1490,1510,203,151
2011/09/29,1342,1375,1337,1340,388,134
2011/09/30,1351,1380,1340,1340,450,134
2011/10/05,1341,1341,1320,1320,273,132
2011/10/07,1313,1329,1313,1320,66,132
2011/10/12,1323,1351,1323,1330,273,133
2011/10/24,1353,1357,1335,1340,196,134
2011/11/10,1325,1330,1306,1330,116,133
2011/11/17,1318,1327,1310,1310,121,131
2011/11/21,1293,1307,1280,1300,101,130
2011/11/30,1264,1390,1264,1350,845,135
2011/12/01,1320,1350,1293,1310,122,131
2011/12/09,1300,1312,1300,1310,90,131
2011/12/12,1310,1320,1300,1300,167,130
2011/12/14,1313,1313,1250,1300,639,130
2011/12/16,1294,1294,1260,1260,353,126
2011/12/22,1292,1300,1290,1300,120,130
2011/12/30,1258,1278,1258,1270,268,127
2012/01/05,1269,1285,1258,1270,373,127
2012/01/06,1270,1271,1260,1260,113,126
2012/01/10,1263,1271,1259,1270,205,127
2012/01/30,1365,1385,1330,1360,770,136
2012/02/01,1375,1385,1330,1370,212,137
2012/02/06,1364,1450,1364,1450,360,145
2012/02/17,1454,1480,1421,1480,664,148
2012/02/20,1475,1600,1470,1550,1871,155
2012/02/21,1530,1545,1502,1530,324,153
2012/02/22,1530,1540,1492,1530,533,153
2012/02/23,1530,1544,1498,1540,628,154
2012/02/24,1542,1575,1512,1560,1440,156
2012/02/27,1530,1615,1530,1570,860,157
2012/02/28,1570,1620,1560,1620,724,162
2012/03/02,1586,1628,1500,1500,894,150
2012/03/05,1470,1530,1470,1500,597,150
2012/03/12,1463,1490,1458,1490,431,149
2012/03/15,1480,1540,1450,1490,609,149
2012/03/19,1500,1501,1471,1500,122,150
2012/03/21,1500,1500,1476,1480,318,148
2012/04/02,1447,1447,1420,1430,141,143
2012/04/03,1420,1430,1412,1430,146,143
2012/04/12,1510,1510,1420,1430,881,143
2012/04/13,1425,1455,1390,1450,279,145
2012/04/26,1414,1414,1370,1370,365,137
2012/04/27,1398,1430,1390,1390,580,139
2012/05/01,1390,1401,1390,1390,485,139
2012/05/09,1353,1360,1350,1350,156,135
2012/05/15,1164,1300,1157,1300,1287,130
2012/05/17,1278,1285,1268,1280,91,128
2012/05/28,1260,1280,1260,1280,111,128
2012/06/05,1163,1187,1120,1160,89,116
2012/06/11,1166,1188,1155,1160,134,116
2012/06/26,1215,1223,1193,1200,287,120
2012/07/09,1200,1210,1199,1210,283,121
2012/07/10,1200,1235,1198,1230,376,123
2012/07/20,1182,1196,1180,1180,34,118
2012/07/24,1170,1189,1170,1170,202,117
2012/07/25,1170,1180,1140,1160,357,116
2012/07/26,1167,1170,1150,1150,313,115
2012/07/30,1170,1178,1170,1170,95,117
2012/08/02,1155,1160,1150,1160,195,116
2012/08/07,1168,1199,1168,1170,312,117
2012/08/20,1168,1168,1158,1160,366,116
2012/08/29,1166,1166,1133,1160,308,116
2012/08/30,1130,1177,1130,1130,495,113
2012/09/04,1154,1154,1135,1140,117,114
2012/09/05,1137,1137,1130,1130,226,113
2012/09/14,1129,1137,1125,1130,285,113
2012/09/20,1140,1140,1130,1130,324,113
2012/09/28,1131,1131,1121,1130,45,113
2012/10/04,1125,1125,1086,1100,721,110
2012/10/11,1114,1120,1100,1120,146,112
2012/10/12,1114,1119,1100,1100,171,110
2012/10/18,1102,1105,1088,1100,200,110
2012/11/12,1000,1018,1000,1010,906,101
2012/11/13,1017,1018,1000,1000,608,100
2012/12/11,1012,1020,1009,1020,333,102
2012/12/12,1018,1026,1010,1020,589,102
2012/12/14,1015,1020,1013,1020,245,102
2012/12/17,1015,1050,1015,1050,738,105
2012/12/18,1110,1350,1104,1350,7088,135
2012/12/19,1500,1640,1200,1220,18923,122
2012/12/20,1300,1520,1260,1520,6537,152
2012/12/21,1720,1920,1700,1920,19765,192
2012/12/25,2250,2320,2105,2320,13893,232
2012/12/27,1778,1790,1610,1610,18144,161
2013/01/07,1560,1561,1450,1450,8490,145
2013/01/08,1465,1515,1440,1460,4426,146
2013/01/16,1485,1485,1420,1420,3375,142
2013/01/17,1447,1720,1424,1720,29433,172
2013/01/18,1640,1680,1500,1500,16301,150
2013/01/21,1530,1590,1501,1550,5758,155
2013/01/30,1549,1580,1510,1530,1522,153
2013/02/04,1550,1600,1530,1530,1541,153
2013/02/07,1569,1569,1511,1530,509,153
2013/02/12,1479,1512,1455,1490,584,149
2013/02/13,1498,1508,1440,1460,675,146
2013/02/27,1419,1429,1395,1410,540,141
2013/03/04,1450,1580,1430,1520,4477,152
2013/03/07,1475,1505,1470,1500,335,150
2013/03/11,1512,1512,1450,1450,1236,145
2013/03/12,1452,1481,1450,1450,528,145
2013/03/13,1444,1490,1430,1490,676,149
2013/03/22,1550,1551,1500,1520,1399,152
2013/03/27,146,154,144,154,10000,154
2013/03/28,150,154,146,147,8000,147
2013/03/29,149,155,149,154,8000,154
2013/04/01,154,204,154,204,110900,204
2013/04/02,265,265,176,183,448300,183
2013/04/03,183,184,168,176,92200,176
2013/04/04,174,175,161,165,63000,165
2013/04/05,172,178,164,166,42100,166
2013/04/08,167,167,158,165,46500,165
2013/04/09,166,171,165,170,11400,170
2013/04/10,167,174,165,173,19700,173
2013/04/11,175,187,167,176,17900,176
2013/04/12,180,226,180,194,309300,194
2013/04/15,179,186,176,180,55400,180
2013/04/16,179,179,170,178,15400,178
2013/04/17,178,184,173,180,10100,180
2013/04/18,180,180,172,177,8500,177
2013/04/19,177,178,175,178,4000,178
2013/04/22,175,177,173,177,10700,177
2013/04/23,178,178,176,176,2900,176
2013/04/24,178,181,176,176,7700,176
2013/04/25,179,222,175,181,163400,181
2013/04/26,186,192,180,182,32200,182
2013/04/30,182,185,181,182,13900,182
2013/05/01,185,194,185,190,15700,190
2013/05/02,195,201,186,191,24800,191
2013/05/07,196,203,196,203,23700,203
2013/05/08,200,222,199,217,56700,217
2013/05/09,203,212,203,207,22300,207
2013/05/10,210,216,205,213,16600,213
2013/05/13,217,226,217,223,30100,223
2013/05/14,224,224,207,207,28200,207
2013/05/15,206,206,173,184,25600,184
2013/05/16,187,193,180,184,14900,184
2013/05/17,184,193,184,190,14300,190
2013/05/20,199,202,191,194,9100,194
2013/05/21,190,195,185,190,10500,190
2013/05/22,187,187,182,185,8500,185
2013/05/23,182,187,180,182,9100,182
2013/05/24,181,182,175,175,10400,175
2013/05/27,190,190,180,180,5100,180
2013/05/28,185,185,177,178,2500,178
2013/05/29,183,183,177,181,2700,181
2013/05/30,182,182,164,167,14200,167
2013/05/31,168,180,168,175,60500,175
2013/06/03,168,173,160,173,34700,173
2013/06/04,163,167,161,163,3500,163
2013/06/05,161,176,161,171,8100,171
2013/06/06,180,180,160,161,17400,161
2013/06/07,159,159,152,157,4200,157
2013/06/10,157,162,157,161,3700,161
2013/06/11,158,163,158,162,4200,162
2013/06/12,159,163,157,162,2400,162
2013/06/13,162,163,158,158,1700,158
2013/06/14,158,158,152,157,2700,157
2013/06/17,153,161,153,160,2900,160
2013/06/18,160,163,155,159,3500,159
2013/06/19,159,161,159,159,3300,159
2013/06/20,164,164,159,163,4200,163
2013/06/21,158,213,155,213,113500,213
2013/06/24,197,203,175,175,163400,175
2013/06/25,176,181,164,165,51000,165
2013/06/26,165,170,155,156,25600,156
2013/06/27,156,162,150,152,19400,152
2013/06/28,152,161,152,160,15100,160
2013/07/01,169,169,156,159,5800,159
2013/07/02,164,166,160,161,5600,161
2013/07/03,160,170,160,164,17300,164
2013/07/04,165,166,161,166,8200,166
2013/07/05,167,174,166,168,7800,168
2013/07/08,170,172,166,169,5200,169
2013/07/09,169,171,164,165,4400,165
2013/07/10,165,165,162,163,2500,163
2013/07/11,163,163,162,163,2800,163
2013/07/12,171,171,164,165,4700,165
2013/07/16,165,165,158,165,7200,165
2013/07/17,164,167,162,163,2300,163
2013/07/18,164,165,161,162,5600,162
2013/07/19,162,163,159,159,11200,159
2013/07/22,159,163,159,161,2500,161
2013/07/23,162,164,161,161,600,161
2013/07/24,163,165,161,163,8500,163
2013/07/25,164,168,164,165,2600,165
2013/07/26,168,168,163,167,1800,167
2013/07/29,162,163,154,155,16100,155
2013/07/30,155,161,155,157,1600,157
2013/07/31,155,161,155,155,3300,155
2013/08/01,155,160,155,156,3200,156
2013/08/02,156,162,156,158,2500,158
2013/08/05,160,164,158,164,1800,164
2013/08/06,166,177,161,176,18700,176
2013/08/07,166,176,163,165,12500,165
2013/08/08,165,165,163,163,1900,163
2013/08/09,165,167,160,160,2100,160
2013/08/12,161,161,158,160,2100,160
2013/08/13,160,162,148,158,11300,158
2013/08/14,158,158,148,152,11800,152
2013/08/15,154,154,152,154,1200,154
2013/08/16,154,155,152,152,2800,152
2013/08/19,153,153,152,152,1100,152
2013/08/20,152,158,152,153,3100,153
2013/08/21,156,156,153,154,2300,154
2013/08/22,154,154,150,151,1900,151
2013/08/23,150,155,150,155,600,155
2013/08/26,155,155,153,155,2000,155
2013/08/27,157,160,155,160,2100,160
2013/08/28,159,159,155,156,3300,156
2013/08/29,160,160,158,158,900,158
2013/08/30,161,161,151,158,6500,158
2013/09/02,158,161,155,158,1900,158
2013/09/03,161,205,160,166,59100,166
2013/09/04,168,177,164,169,24500,169
2013/09/05,165,168,163,163,700,163
2013/09/06,173,175,162,162,6000,162
2013/09/09,164,168,162,164,3600,164
2013/09/10,164,167,160,167,4300,167
2013/09/11,165,170,157,163,4900,163
2013/09/12,163,163,162,162,1400,162
2013/09/13,167,168,155,160,6000,160
2013/09/17,173,173,163,168,6800,168
2013/09/18,173,173,164,167,5700,167
2013/09/19,168,168,165,165,3400,165
2013/09/20,166,168,162,163,7700,163
2013/09/24,161,163,160,163,5300,163
2013/09/25,164,170,161,170,11600,170
2013/09/26,160,164,158,162,11600,162
2013/09/27,162,163,161,161,1700,161
2013/09/30,161,163,160,162,4700,162
2013/10/01,159,162,159,160,4600,160
2013/10/02,161,161,158,159,5000,159
2013/10/03,158,159,158,159,500,159
2013/10/04,158,158,157,157,1200,157
2013/10/07,156,161,155,161,5700,161
2013/10/09,161,161,156,157,3800,157
2013/10/10,156,161,156,159,2200,159
2013/10/11,159,159,153,156,9000,156
2013/10/15,157,158,156,156,1500,156
2013/10/16,156,156,154,154,1500,154
2013/10/17,155,158,155,158,3200,158
2013/10/18,156,158,156,156,1900,156
2013/10/21,160,161,158,160,7500,160
2013/10/22,162,198,162,170,121500,170
2013/10/23,167,178,167,171,37200,171
2013/10/24,172,175,167,169,4500,169
2013/10/25,170,178,170,176,15300,176
2013/10/28,178,180,165,170,9000,170
2013/10/29,171,183,170,175,14400,175
2013/10/30,173,180,171,174,7700,174
2013/10/31,173,173,165,167,7000,167
2013/11/01,167,167,162,163,3900,163
2013/11/05,163,167,161,166,8000,166
2013/11/06,166,168,165,166,2500,166
2013/11/07,168,168,167,167,600,167
2013/11/08,167,167,161,164,5600,164
2013/11/11,164,170,164,165,8400,165
2013/11/12,166,166,162,162,5600,162
2013/11/13,167,167,162,162,1600,162
2013/11/14,163,169,158,158,12400,158
2013/11/15,160,164,155,162,15400,162
2013/11/18,161,164,156,160,17400,160
2013/11/19,160,162,155,155,33800,155
2013/11/20,157,157,151,155,24400,155
2013/11/21,155,158,152,157,6600,157
2013/11/22,158,160,155,160,6500,160
2013/11/25,162,162,157,158,4000,158
2013/11/26,157,162,157,159,5300,159
2013/11/27,159,159,158,158,3200,158
2013/11/28,158,159,156,158,6900,158
2013/11/29,159,159,158,158,4800,158
2013/12/02,158,159,156,158,8500,158
2013/12/03,157,160,156,160,7300,160
2013/12/04,160,161,157,157,6200,157
2013/12/05,157,157,156,156,4700,156
2013/12/06,156,157,155,155,3500,155
2013/12/09,158,160,155,157,9000,157
2013/12/10,157,168,156,162,32800,162
2013/12/11,161,162,157,162,6000,162
2013/12/12,160,160,154,157,23900,157
2013/12/13,157,157,156,156,1600,156
2013/12/16,156,156,152,156,31600,156
2013/12/17,156,156,153,153,4600,153
2013/12/18,153,154,150,153,19200,153
2013/12/19,151,153,150,150,19000,150
2013/12/20,151,153,150,151,12500,151
2013/12/24,151,152,133,144,42200,144
2013/12/25,139,143,139,141,17300,141
2013/12/26,141,147,141,142,8700,142
2013/12/27,146,149,144,144,7200,144
2013/12/30,149,150,143,149,13300,149
2014/01/06,149,149,141,143,13900,143
2014/01/07,149,152,145,148,4600,148
2014/01/08,153,154,149,153,8500,153
2014/01/09,155,155,151,153,4300,153
2014/01/10,151,151,151,151,1400,151
2014/01/14,153,153,150,150,4200,150
2014/01/15,149,154,149,153,3200,153
2014/01/16,154,157,148,153,34400,153
2014/01/17,154,154,151,151,1400,151
2014/01/20,152,160,152,156,10400,156
2014/01/21,157,165,157,163,16100,163
2014/01/22,164,164,158,160,3700,160
2014/01/23,160,162,157,158,3600,158
2014/01/24,158,158,153,153,3000,153
2014/01/27,152,156,150,151,4200,151
2014/01/28,156,156,151,154,2100,154
2014/01/29,155,160,153,156,5200,156
2014/01/30,155,161,153,153,4100,153
2014/01/31,158,158,150,152,9300,152
2014/02/03,152,187,140,143,116100,143
2014/02/04,143,143,133,134,27700,134
2014/02/05,134,144,132,132,11700,132
2014/02/06,142,142,127,134,61200,134
2014/02/07,141,141,132,136,9700,136
2014/02/10,138,141,138,140,4400,140
2014/02/12,142,142,137,139,7600,139
2014/02/13,141,141,138,139,3900,139
2014/02/14,139,141,136,136,5400,136
2014/02/17,135,139,134,136,7000,136
2014/02/18,139,139,135,139,3600,139
2014/02/19,140,140,138,139,4100,139
2014/02/20,139,139,137,138,1200,138
2014/02/21,140,140,139,140,2100,140
2014/02/24,139,141,136,140,4400,140
2014/02/25,141,142,140,140,1900,140
2014/02/26,140,143,137,138,9000,138
2014/02/27,140,140,137,137,2200,137
2014/02/28,138,138,133,136,3700,136
2014/03/03,136,136,133,134,1900,134
2014/03/04,137,137,134,136,1800,136
2014/03/05,137,138,136,136,800,136
2014/03/06,137,140,137,138,4000,138
2014/03/07,139,146,138,143,11800,143
2014/03/10,145,145,140,140,9300,140
2014/03/11,141,141,141,141,2500,141
2014/03/12,141,143,140,141,1200,141
2014/03/13,142,143,141,142,700,142
2014/03/14,140,140,136,137,5000,137
2014/03/17,137,141,133,136,4700,136
2014/03/18,141,141,136,137,9900,137
2014/03/19,136,138,133,138,1200,138
2014/03/20,135,135,133,133,2500,133
2014/03/24,138,138,133,134,14400,134
2014/03/25,164,172,146,157,216800,157
2014/03/26,149,155,147,150,37400,150
2014/03/27,155,160,149,149,26400,149
2014/03/28,154,154,143,153,6400,153
2014/03/31,150,154,147,150,8900,150
2014/04/01,152,152,144,151,18600,151
2014/04/02,154,154,147,148,10000,148
2014/04/03,153,153,148,150,12900,150
2014/04/04,152,174,150,159,53600,159
2014/04/07,169,190,163,171,134400,171
2014/04/08,167,174,165,168,27200,168
2014/04/09,170,170,159,160,29900,160
2014/04/10,156,160,152,152,32100,152
2014/04/11,155,172,150,156,30500,156
2014/04/14,156,158,150,154,5600,154
2014/04/15,150,153,149,149,13900,149
2014/04/16,149,150,146,148,9100,148
2014/04/17,149,158,149,158,21000,158
2014/04/18,156,157,150,155,6900,155
2014/04/21,155,161,155,156,13500,156
2014/04/22,159,159,154,158,11800,158
2014/04/23,158,160,155,160,5600,160
2014/04/24,160,160,155,159,1300,159
2014/04/25,157,164,156,161,11700,161
2014/04/28,161,170,160,164,6900,164
2014/04/30,165,166,162,163,4300,163
2014/05/01,163,164,155,162,7100,162
2014/05/02,167,173,162,167,27100,167
2014/05/07,166,170,161,169,10100,169
2014/05/08,169,169,160,164,12400,164
2014/05/09,164,164,159,163,10000,163
2014/05/12,170,178,159,165,55200,165
2014/05/13,165,165,158,160,17700,160
2014/05/14,159,162,159,162,1600,162
2014/05/15,165,165,160,160,7400,160
2014/05/16,160,160,158,159,1900,159
2014/05/19,158,159,151,159,8600,159
2014/05/20,158,158,154,154,700,154
2014/05/21,154,155,149,155,10400,155
2014/05/22,140,153,134,153,53600,153
2014/05/23,147,150,145,148,12700,148
2014/05/26,149,152,147,150,7900,150
2014/05/27,147,150,147,150,4800,150
2014/05/28,150,150,143,145,21900,145
2014/05/29,150,150,147,147,4900,147
2014/05/30,147,148,146,146,7300,146
2014/06/02,149,154,147,150,11700,150
2014/06/03,153,156,152,152,10600,152
2014/06/04,151,154,151,153,2800,153
2014/06/05,151,154,150,154,2700,154
2014/06/06,154,154,152,154,6800,154
2014/06/09,155,157,153,156,1800,156
2014/06/10,157,157,154,154,500,154
2014/06/11,155,157,151,156,13300,156
2014/06/12,156,158,154,158,6500,158
2014/06/13,154,157,153,154,5200,154
2014/06/16,154,157,154,154,1900,154
2014/06/17,155,157,155,157,500,157
2014/06/18,157,157,156,157,2800,157
2014/06/19,158,165,158,161,45900,161
2014/06/20,162,162,154,156,19200,156
2014/06/23,155,159,152,159,5400,159
2014/06/24,158,160,154,158,4400,158
2014/06/25,158,161,157,157,6200,157
2014/06/26,159,160,158,159,4800,159
2014/06/27,160,160,157,157,9400,157
2014/06/30,156,158,156,158,6300,158
2014/07/01,158,160,157,158,4200,158
2014/07/02,159,160,158,160,7800,160
2014/07/03,160,160,158,158,6500,158
2014/07/04,160,160,157,158,7100,158
2014/07/07,161,162,158,160,12000,160
2014/07/08,160,160,157,159,2200,159
2014/07/09,158,160,158,159,2500,159
2014/07/10,160,160,158,159,900,159
2014/07/11,157,160,157,157,3700,157
2014/07/14,157,159,157,158,1500,158
2014/07/15,159,160,157,160,10100,160
2014/07/16,161,161,156,159,13900,159
2014/07/17,157,160,157,159,2900,159
2014/07/18,157,158,155,155,6900,155
2014/07/22,156,161,156,160,11100,160
2014/07/23,159,160,158,160,7900,160
2014/07/24,159,160,158,159,3000,159
2014/07/25,159,160,158,160,2600,160
2014/07/28,158,161,156,160,5900,160
2014/07/29,160,160,157,160,15400,160
2014/07/30,157,160,157,158,8200,158
2014/07/31,159,159,158,158,2000,158
2014/08/01,157,158,157,158,7600,158
2014/08/04,158,158,158,158,5000,158
2014/08/05,157,158,157,158,7000,158
2014/08/06,156,157,156,156,4500,156
2014/08/07,157,158,153,157,7700,157
2014/08/08,158,158,156,157,4400,157
2014/08/11,158,160,154,154,14200,154
2014/08/12,155,157,151,153,12500,153
2014/08/13,153,154,152,152,4100,152
2014/08/14,153,155,152,155,9600,155
2014/08/15,151,155,151,153,6900,153
2014/08/18,157,157,154,156,9200,156
2014/08/19,158,158,154,154,2700,154
2014/08/20,154,154,154,154,2900,154
2014/08/21,154,155,153,155,1200,155
2014/08/22,153,155,153,155,4100,155
2014/08/25,156,158,156,157,17900,157
2014/08/26,157,158,154,157,3200,157
2014/08/27,158,159,157,158,4300,158
2014/08/28,158,158,157,158,2100,158
2014/08/29,208,208,208,208,53800,208
2014/09/01,288,288,288,288,156400,288
2014/09/02,368,368,365,368,552300,368
2014/09/03,448,448,448,448,70400,448
2014/09/04,496,497,368,371,1544500,371
2014/09/05,355,360,304,309,683600,309
2014/09/08,315,340,311,318,491300,318
2014/09/09,316,317,283,291,310200,291
2014/09/10,290,302,278,279,145600,279
2014/09/11,285,290,274,279,119200,279
2014/09/12,278,288,274,288,107700,288
2014/09/16,285,287,270,278,102900,278
2014/09/17,273,273,262,263,92500,263
2014/09/18,271,286,264,268,217500,268
2014/09/19,261,266,258,260,70700,260
2014/09/22,265,272,258,258,95900,258
2014/09/24,264,264,255,259,68800,259
2014/09/25,256,258,240,241,136300,241
2014/09/26,233,240,230,233,83300,233
2014/09/29,239,256,234,235,97700,235
2014/09/30,235,236,226,229,44500,229
2014/10/01,231,231,219,219,48600,219
2014/10/02,216,220,212,218,30800,218
2014/10/03,219,230,215,225,24900,225
2014/10/06,220,237,219,234,51500,234
2014/10/07,226,231,224,224,44700,224
2014/10/08,220,224,215,217,15900,217
2014/10/09,219,229,218,223,32100,223
2014/10/10,223,223,211,212,27700,212
2014/10/14,212,219,210,215,16600,215
2014/10/15,213,225,211,213,50100,213
2014/10/16,211,231,210,223,90100,223
2014/10/17,223,229,221,228,28100,228
2014/10/20,236,237,225,228,55900,228
2014/10/21,227,227,217,222,24600,222
2014/10/22,223,233,222,225,22300,225
2014/10/23,231,231,225,227,14800,227
2014/10/24,230,235,222,226,36100,226
2014/10/27,227,232,227,228,3600,228
2014/10/28,228,229,225,226,5900,226
2014/10/29,231,231,226,231,8300,231
2014/10/30,232,234,230,231,14400,231
2014/10/31,231,232,227,231,16500,231
2014/11/04,235,238,230,230,26800,230
2014/11/05,232,242,231,241,30700,241
2014/11/06,241,270,241,266,168700,266
2014/11/07,272,273,251,263,111700,263
2014/11/10,335,343,325,343,300500,343
2014/11/11,375,387,300,325,1180000,325
2014/11/12,300,318,287,291,253100,291
2014/11/13,289,289,267,284,107400,284
2014/11/14,275,276,255,261,114500,261
2014/11/17,260,261,252,259,56500,259
2014/11/18,267,275,261,261,72300,261
2014/11/19,259,275,256,275,41700,275
2014/11/20,267,275,267,274,30500,274
2014/11/21,270,274,265,268,27600,268
2014/11/25,265,269,260,265,23400,265
2014/11/26,268,271,265,267,12100,267
2014/11/27,270,273,266,267,17700,267
2014/11/28,270,289,268,289,79300,289
2014/12/01,283,307,274,307,169400,307
2014/12/02,314,316,291,292,124400,292
2014/12/03,318,366,305,340,776500,340
2014/12/04,325,329,307,310,155800,310
2014/12/05,305,310,293,306,106200,306
2014/12/08,300,304,286,291,58000,291
2014/12/09,290,295,277,279,96400,279
2014/12/10,279,329,272,304,196800,304
2014/12/11,299,299,288,293,52900,293
2014/12/12,293,308,292,296,30900,296
2014/12/15,300,300,284,285,45800,285
2014/12/16,279,288,275,280,40300,280
2014/12/17,276,281,250,257,70200,257
2014/12/18,259,266,258,265,27800,265
2014/12/19,265,267,263,265,14000,265
2014/12/22,267,270,258,261,26500,261
2014/12/24,261,264,254,254,29100,254
2014/12/25,251,258,247,247,41700,247
2014/12/26,249,258,249,257,25300,257
2014/12/29,260,266,258,264,23300,264
2014/12/30,262,267,260,266,15500,266
2015/01/05,268,278,267,275,27400,275
2015/01/06,275,275,270,271,10700,271
2015/01/07,275,275,267,269,14300,269
2015/01/08,272,276,271,275,9600,275
2015/01/09,279,290,275,285,35900,285
2015/01/13,278,293,278,286,28700,286
2015/01/14,288,288,280,285,16800,285
2015/01/15,286,286,273,274,18900,274
2015/01/16,276,279,269,271,12900,271
2015/01/19,278,284,273,280,15200,280
2015/01/20,284,286,280,282,7300,282
2015/01/21,282,307,281,300,86700,300
2015/01/22,292,305,291,295,44500,295
2015/01/23,302,302,289,291,30700,291
2015/01/26,339,344,308,324,220500,324
2015/01/27,325,325,307,310,102200,310
2015/01/28,302,314,302,314,43600,314
2015/01/29,317,340,310,325,80100,325
2015/01/30,327,365,327,365,240400,365
2015/02/02,380,395,364,385,233200,385
2015/02/03,393,425,386,419,346800,419
2015/02/04,371,404,361,378,268900,378
2015/02/05,400,407,371,371,84800,371
2015/02/06,375,378,345,361,72600,361
2015/02/09,353,380,353,380,45200,380
2015/02/10,345,350,330,337,99800,337
2015/02/12,345,349,337,337,28200,337
2015/02/13,336,337,303,321,58600,321
2015/02/16,319,335,305,322,57300,322
2015/02/17,316,333,316,331,14500,331
2015/02/18,326,338,326,330,20500,330
2015/02/19,328,331,322,324,7700,324
2015/02/20,321,331,316,320,21000,320
2015/02/23,400,400,360,361,445200,361
2015/02/24,365,366,352,359,47300,359
2015/02/25,360,362,350,359,27900,359
2015/02/26,362,363,349,353,45100,353
2015/02/27,352,354,342,353,39600,353
2015/03/02,358,358,352,352,16300,352
2015/03/03,358,358,347,347,27200,347
2015/03/04,346,352,345,352,14200,352
2015/03/05,352,356,350,356,12700,356
2015/03/06,355,359,351,354,16600,354
2015/03/09,354,354,347,349,19800,349
2015/03/10,346,351,346,349,13300,349
2015/03/11,349,349,345,346,20100,346
2015/03/12,347,348,344,348,16400,348
2015/03/13,347,347,345,347,14500,347
2015/03/16,345,350,344,350,30000,350
2015/03/17,350,350,344,349,18300,349
2015/03/18,349,356,348,355,31100,355
2015/03/19,355,355,348,350,18500,350
2015/03/20,347,350,345,347,15100,347
2015/03/23,347,347,342,343,24400,343
2015/03/24,343,345,334,334,37000,334
2015/03/25,334,338,332,337,20300,337
2015/03/26,340,347,335,344,31700,344
2015/03/27,312,322,307,314,62800,314
2015/03/30,315,318,305,314,14700,314
2015/03/31,316,316,313,315,8400,315
2015/04/01,310,314,308,313,6800,313
2015/04/02,313,313,308,310,9600,310
2015/04/03,313,314,310,310,7200,310
2015/04/06,315,316,310,316,9000,316
2015/04/07,319,320,316,319,12600,319
2015/04/08,319,322,318,320,9200,320
2015/04/09,320,330,319,330,13600,330
2015/04/10,330,330,320,325,11600,325
2015/04/13,325,331,324,331,10200,331
2015/04/14,331,332,324,329,11400,329
2015/04/15,334,334,327,332,6900,332
2015/04/16,332,335,330,332,6600,332
2015/04/17,330,333,328,328,4800,328
2015/04/20,328,329,324,329,7700,329
2015/04/21,329,330,325,326,2400,326
2015/04/22,326,326,320,323,8800,323
2015/04/23,316,320,316,316,9400,316
2015/04/24,319,321,300,312,28200,312
2015/04/27,307,314,304,305,20600,305
2015/04/28,308,308,304,305,23500,305
2015/04/30,303,304,300,300,18000,300
2015/05/01,300,300,294,296,18600,296
2015/05/07,296,296,277,281,48500,281
2015/05/08,285,293,285,290,39700,290
2015/05/11,290,318,290,306,34700,306
2015/05/12,288,300,286,296,16200,296
2015/05/13,296,299,290,298,7800,298
2015/05/14,300,300,297,297,3300,297
2015/05/15,296,301,295,299,5400,299
2015/05/18,297,300,297,300,2900,300
2015/05/19,297,303,297,300,8200,300
2015/05/20,301,308,301,302,4800,302
2015/05/21,326,328,306,307,46700,307
2015/05/22,307,311,304,310,5400,310
2015/05/25,309,310,306,307,7700,307
2015/05/26,311,311,305,306,4400,306
2015/05/27,314,314,309,310,5800,310
2015/05/28,313,313,304,308,7500,308
2015/05/29,313,313,305,308,3900,308
2015/06/01,309,310,306,306,4800,306
2015/06/02,306,306,295,301,17000,301
2015/06/03,298,306,298,306,12400,306
2015/06/04,312,312,300,300,9100,300
2015/06/05,300,304,300,304,2800,304
2015/06/08,305,307,305,306,5700,306
2015/06/09,306,308,306,307,3200,307
2015/06/10,307,308,305,306,2300,306
2015/06/11,306,307,306,306,3700,306
2015/06/12,306,306,299,306,25500,306
2015/06/15,300,304,297,298,18600,298
2015/06/16,299,300,298,299,2400,299
2015/06/17,300,301,298,298,23200,298
2015/06/18,298,299,291,295,12700,295
2015/06/19,295,299,294,297,8600,297
2015/06/22,304,304,295,297,12600,297
2015/06/23,300,301,283,286,61500,286
2015/06/24,288,293,287,290,15300,290
2015/06/25,290,291,289,289,9200,289
2015/06/26,289,295,289,291,9300,291
2015/06/29,291,291,289,290,12800,290
2015/06/30,289,292,289,290,10400,290
2015/07/01,286,290,286,289,15000,289
