2011/01/07,151998,153498,147000,149400,604,249
2011/01/13,148698,153702,143502,150000,906,250
2011/01/24,125898,136398,123798,129000,791,215
2011/01/28,145098,147300,136098,138000,1587,230
2011/02/17,161400,168000,157002,160800,2619,268
2011/02/22,220002,239802,202002,222000,5642,370
2011/02/25,195000,200298,187002,192000,3689,320
2011/02/28,196002,211398,189000,207600,5002,346
2011/03/16,101502,116502,93498,103200,5341,172
2011/03/24,146100,151902,140400,144000,1024,240
2011/03/29,125598,134502,120000,132000,1094,220
2011/04/08,125802,132198,121200,130200,619,217
2011/04/13,127500,132900,127200,130800,457,218
2011/04/22,151500,152898,147000,147000,558,245
2011/04/26,152898,156498,151998,154200,537,257
2011/05/10,156498,163998,155802,161400,866,269
2011/05/12,180000,184998,175098,177600,1906,296
2011/05/16,154998,158898,151200,151200,662,252
2011/05/25,142998,145500,139800,139800,218,233
2011/06/07,139098,142098,132798,141600,447,236
2011/06/08,141498,142398,139200,140400,140,234
2011/06/17,154998,165102,142698,142800,4758,238
2011/06/20,139800,140100,136002,136800,585,228
2011/06/29,138498,139302,138000,139200,124,232
2011/07/28,157500,160698,157098,159000,331,265
2011/08/19,131202,135000,131202,131400,226,219
2011/08/31,132498,133998,130998,132000,138,220
2011/09/06,123498,125898,120300,120600,164,201
2011/09/14,118998,119100,111000,111000,204,185
2011/10/25,118002,118002,113100,114600,87,191
2011/11/17,98100,99900,97998,99600,173,166
2011/12/07,103998,105900,103098,105000,67,175
2011/12/09,104598,106002,103698,105000,81,175
2011/12/14,103200,103200,100200,100800,128,168
2011/12/15,100800,101100,99000,99000,81,165
2011/12/16,97998,99600,97998,98400,50,164
2011/12/19,99000,99300,97698,97800,47,163
2011/12/20,97998,102498,97998,102000,90,170
2012/01/20,100302,100998,100098,100800,54,168
2012/01/23,103602,103602,101502,102000,145,170
2012/01/30,110100,113502,109998,112800,92,188
2012/01/31,113100,113502,111000,112800,130,188
2012/02/08,130002,132498,126900,129000,431,215
2012/03/06,147102,148902,140598,144000,701,240
2012/03/07,141000,147600,139002,147600,422,246
2012/03/13,141498,152700,141498,151800,507,253
2012/03/14,154998,160002,150000,152400,712,254
2012/03/27,147702,148002,145698,145800,170,243
2012/03/28,47300,48400,46600,48000,241,240
2012/04/02,48650,49650,48650,49000,429,245
2012/04/17,45100,46000,45000,45000,159,225
2012/04/20,47500,47850,46350,47200,246,236
2012/04/23,47500,47550,46500,47200,194,236
2012/04/25,46100,46450,45800,46200,103,231
2012/04/26,45800,45900,45200,45200,179,226
2012/05/02,43600,44500,43550,44000,172,220
2012/05/08,41000,42000,40500,41600,172,208
2012/05/10,40000,41500,39900,41400,109,207
2012/05/11,41400,41400,38800,40000,223,200
2012/05/15,40100,47000,36600,43600,1913,218
2012/05/16,44200,47100,44200,45600,1312,228
2012/05/17,44900,48000,44100,47200,1085,236
2012/05/18,45500,46500,44700,45000,370,225
2012/05/21,45000,45200,44000,44200,255,221
2012/05/25,41950,42350,41600,41600,239,208
2012/05/29,41700,41750,40800,41200,304,206
2012/05/30,41300,42000,41000,41000,137,205
2012/06/01,41000,41150,40050,40200,155,201
2012/06/05,38450,39500,38400,39200,283,196
2012/06/06,39100,40300,38600,40000,197,200
2012/06/08,41450,41450,39000,40200,262,201
2012/06/13,40000,40150,39400,39400,165,197
2012/06/15,39000,39950,38900,39000,174,195
2012/06/19,42000,44300,42000,43000,1048,215
2012/06/20,43500,44100,42600,43800,327,219
2012/06/21,43800,44000,42800,44000,201,220
2012/07/03,44000,45000,44000,44000,153,220
2012/07/06,43650,43650,43000,43000,146,215
2012/07/10,43700,43850,42750,42800,163,214
2012/07/11,42600,43000,42000,42000,211,210
2012/07/12,42100,42400,40800,42400,444,212
2012/07/18,41300,42600,40400,40400,158,202
2012/07/25,39200,40000,38800,39000,162,195
2012/08/03,40100,40400,39450,40400,68,202
2012/08/10,39150,41200,39150,41200,280,206
2012/08/14,42500,42500,40500,41600,187,208
2012/08/17,46550,47000,44200,46000,1960,230
2012/08/22,46350,46600,44250,44800,665,224
2012/08/24,44350,44400,43600,43800,239,219
2012/08/30,47500,50400,46400,50400,1698,252
2012/08/31,50400,53500,49500,51400,3908,257
2012/09/05,53100,57500,52500,56400,4380,282
2012/09/06,56000,57200,52100,52800,3226,264
2012/09/07,53200,53700,50800,52000,1648,260
2012/09/14,58000,60400,57000,57600,2479,288
2012/09/19,56300,57200,55800,56000,1190,280
2012/09/20,55700,55700,53100,53600,1356,268
2012/09/24,58100,59200,57000,58400,2742,292
2012/10/01,59900,60000,58100,58800,1415,294
2012/10/02,58300,63600,58100,63600,3331,318
2012/10/03,63500,65900,61600,61800,4922,309
2012/10/10,69900,70300,67400,68000,2964,340
2012/10/15,68000,68300,65500,65800,1553,329
2012/10/16,65800,68000,64200,67000,1546,335
2012/10/18,64800,66600,64200,65600,1192,328
2012/10/19,67000,71000,66700,71000,5105,355
2012/10/22,69800,72600,67600,69200,4180,346
2012/10/23,69200,71200,68000,69200,2194,346
2012/10/25,69200,70500,68500,68800,805,344
2012/11/01,70100,70800,69400,69800,1176,349
2012/11/02,70000,71000,69400,70600,1480,353
2012/11/07,65400,68400,65400,68000,1804,340
2012/11/08,70000,72900,68300,71000,5731,355
2012/11/13,63100,65400,59200,61000,2713,305
2012/11/16,61500,63700,61500,63000,1126,315
2012/11/21,60400,65800,60400,64000,3659,320
2012/11/22,65700,65700,62600,64000,1724,320
2012/11/27,61700,63500,61500,62800,594,314
2012/11/30,67500,67800,66200,67000,1675,335
2012/12/04,64000,65600,63400,64800,739,324
2012/12/06,67900,68300,67000,67600,1426,338
2012/12/10,65500,66900,63200,64000,1240,320
2012/12/11,64000,64400,63300,63600,392,318
2012/12/12,64600,64700,63500,63600,276,318
2012/12/17,63500,64300,61200,61600,1121,308
2012/12/19,62000,62100,60500,61400,1353,307
2012/12/21,61000,63500,60700,62400,988,312
2012/12/26,62000,62000,60200,61400,896,307
2012/12/27,61900,62600,61200,62000,612,310
2012/12/28,62900,62900,62100,62200,503,311
2013/01/07,68700,69800,67700,69400,2449,347
2013/01/08,69700,69900,67000,67000,1250,335
2013/01/10,68300,68300,66900,67200,869,336
2013/01/11,67000,67500,66000,66600,907,333
2013/01/15,67300,71700,67000,71400,5002,357
2013/01/16,72800,76000,71500,75400,6455,377
2013/01/18,73000,74200,72200,73600,1471,368
2013/01/21,74100,79900,73700,79800,5040,399
2013/01/22,79100,79500,75500,77400,2508,387
2013/01/24,77500,83000,77500,82200,4291,411
2013/01/29,91500,93000,86100,87600,5530,438
2013/02/06,87500,92000,87000,91400,2453,457
2013/02/07,90800,98000,89000,96800,6034,484
2013/02/12,93200,96500,88800,89000,5888,445
2013/02/13,87500,93500,87500,90800,2463,454
2013/02/14,90200,96700,90200,96000,2971,480
2013/02/19,93500,97900,92000,95800,1887,479
2013/02/25,107000,114900,104900,112600,5892,563
2013/02/26,107900,112500,106500,108800,2971,544
2013/02/27,113500,119700,110500,111600,4251,558
2013/03/04,112200,113500,108100,111000,1738,555
2013/03/05,115000,116000,111000,111200,2345,556
2013/03/08,107900,109600,107700,109600,1413,548
2013/03/12,105500,106400,100500,104600,1694,523
2013/03/13,103000,109400,102100,108000,1653,540
2013/03/14,107100,112100,106200,112000,1722,560
2013/03/15,112400,112400,108300,110000,994,550
2013/03/19,108300,108400,105100,106400,1045,532
2013/03/21,106400,108700,105400,107000,960,535
2013/03/22,107000,107600,102800,102800,1437,514
2013/03/26,113300,113800,107800,110000,2808,550
2013/03/28,109200,110900,105200,109000,991,545
2013/03/29,109000,110000,106000,106800,771,534
2013/04/05,98600,99200,95300,96600,1107,483
2013/04/11,102700,107000,101100,107000,3139,535
2013/04/12,106000,106000,102000,104000,1791,520
2013/04/15,102800,103500,99800,101600,892,508
2013/04/17,101700,107300,101700,106600,1896,533
2013/04/19,108000,109700,105000,106600,829,533
2013/04/22,108900,109900,106900,108800,1030,544
2013/04/24,108400,109500,106700,108400,1340,542
2013/04/25,110400,112900,107300,112000,2505,560
2013/04/30,109200,114000,108500,113600,1754,568
2013/05/01,115000,140000,115000,122400,13056,612
2013/05/02,119400,134800,118200,133600,5953,668
2013/05/08,149000,166500,140000,151000,10175,755
2013/05/09,129000,133500,116000,119800,18181,599
2013/05/10,123000,124500,116300,120000,7053,600
2013/05/13,118600,120500,114800,115600,5779,578
2013/05/14,112000,119200,112000,115800,5216,579
2013/05/15,119200,123900,105000,109000,7850,545
2013/05/16,113200,113500,95000,104600,5087,523
2013/05/20,109500,114400,107100,109200,2681,546
2013/05/24,91300,96500,86400,92600,2154,463
2013/05/29,91500,99000,90800,92400,2882,462
2013/06/03,88000,90700,85000,86400,1620,432
2013/06/04,86800,88500,83600,84800,1231,424
2013/06/05,84800,91200,83200,83200,1749,416
2013/06/06,80800,82000,69000,73000,3252,365
2013/06/07,76000,76500,69600,74000,2676,370
2013/06/10,81500,81500,77900,80000,1328,400
2013/06/11,77800,81400,76200,77800,1199,389
2013/06/12,75000,80800,72200,79800,911,399
2013/06/13,76500,78000,74500,75400,771,377
2013/06/14,78200,78500,75300,76200,461,381
2013/06/20,77000,77600,75000,75800,602,379
2013/06/21,72600,74500,70600,73600,569,368
2013/06/24,74600,75800,72000,72200,424,361
2013/06/26,70100,70100,62000,62000,1184,310
2013/06/28,66500,71900,66300,71400,785,357
2013/07/01,70000,74300,69900,74000,721,370
2013/07/02,75000,76400,72500,75200,973,376
2013/07/04,77100,80800,77100,79000,922,395
2013/07/05,81000,91900,80900,88800,3557,444
2013/07/09,87200,88000,81600,86200,905,431
2013/07/12,88000,88200,85000,85400,363,427
2013/07/16,85600,88800,85000,85600,637,428
2013/07/19,94200,94200,88000,92000,1676,460
2013/07/22,93400,93400,88000,90400,700,452
2013/07/23,88000,89900,87600,88000,488,440
2013/07/24,88000,91000,88000,90000,661,450
2013/07/31,80100,84500,78800,79000,449,395
2013/08/06,82600,82600,79800,80600,273,403
2013/08/09,68800,70800,67400,70800,2224,354
2013/08/15,66400,67900,66000,67000,469,335
2013/08/20,66700,67500,66500,66600,304,333
2013/08/21,66700,67300,65600,65600,284,328
2013/08/26,66900,66900,65200,65200,210,326
2013/08/28,64800,65000,64000,64400,285,322
2013/08/30,65300,65800,64400,64600,205,323
2013/09/04,67900,70800,67500,70800,544,354
2013/09/05,71000,71500,69300,69600,505,348
2013/09/09,68700,70000,67700,69800,250,349
2013/09/13,69000,70000,68000,69000,236,345
2013/09/17,68700,72500,68100,72000,768,360
2013/09/20,77800,78400,76600,77400,501,387
2013/09/25,76700,77000,74300,74400,307,372
2013/09/26,375,386,375,386,39100,386
2013/09/27,387,389,383,386,53800,386
2013/09/30,384,384,368,371,58700,371
2013/10/01,369,378,369,372,56900,372
2013/10/02,376,379,368,373,62500,373
2013/10/03,368,372,360,372,47200,372
2013/10/04,368,369,351,358,64500,358
2013/10/07,368,368,338,343,42200,343
2013/10/08,334,343,325,339,34700,339
2013/10/09,335,353,333,351,24100,351
2013/10/10,356,360,345,354,28000,354
2013/10/11,359,360,352,356,20700,356
2013/10/15,357,357,345,347,36400,347
2013/10/16,347,350,340,346,26400,346
2013/10/17,355,357,350,350,31700,350
2013/10/18,350,354,345,353,52800,353
2013/10/21,415,433,410,433,1362900,433
2013/10/22,435,435,397,424,1014700,424
2013/10/23,418,420,402,402,220900,402
2013/10/24,403,442,403,427,520600,427
2013/10/25,435,453,416,435,818200,435
2013/10/28,457,515,450,490,3073300,490
2013/10/29,466,486,458,470,643100,470
2013/10/30,465,495,435,449,544200,449
2013/10/31,437,448,430,430,222400,430
2013/11/01,428,428,399,411,254600,411
2013/11/05,412,420,407,409,90500,409
2013/11/06,425,460,421,435,801100,435
2013/11/07,426,431,412,412,187700,412
2013/11/08,403,407,388,392,396300,392
2013/11/11,399,402,387,396,160100,396
2013/11/12,389,412,388,397,201400,397
2013/11/13,395,407,388,405,164600,405
2013/11/14,401,410,401,405,116300,405
2013/11/15,405,410,402,405,112500,405
2013/11/18,412,427,407,427,195300,427
2013/11/19,465,469,443,445,785800,445
2013/11/20,452,454,433,437,189200,437
2013/11/21,445,449,439,439,130100,439
2013/11/22,449,453,434,440,225900,440
2013/11/25,445,447,434,444,133100,444
2013/11/26,445,453,434,453,234000,453
2013/11/27,455,460,444,456,235200,456
2013/11/28,456,483,454,483,720800,483
2013/11/29,485,492,470,487,569500,487
2013/12/02,487,496,481,487,228800,487
2013/12/03,488,490,471,471,175700,471
2013/12/04,460,475,455,471,238400,471
2013/12/05,465,469,458,459,150900,459
2013/12/06,459,460,440,456,110100,456
2013/12/09,464,465,445,459,99500,459
2013/12/10,462,478,454,477,224300,477
2013/12/11,471,477,465,466,109400,466
2013/12/12,466,470,456,469,86900,469
2013/12/13,468,473,464,466,110500,466
2013/12/16,468,468,432,433,179200,433
2013/12/17,437,455,437,449,91400,449
2013/12/18,454,458,449,454,68400,454
2013/12/19,457,463,454,459,78300,459
2013/12/20,453,458,448,450,101400,450
2013/12/24,447,448,425,428,155700,428
2013/12/25,430,441,428,434,153200,434
2013/12/26,442,454,435,452,85800,452
2013/12/27,462,462,439,446,94000,446
2013/12/30,445,472,445,465,157400,465
2014/01/06,472,472,457,465,95900,465
2014/01/07,465,468,462,463,58200,463
2014/01/08,468,493,468,490,287300,490
2014/01/09,490,490,479,484,140500,484
2014/01/10,478,488,475,485,106000,485
2014/01/14,475,477,465,474,91400,474
2014/01/15,485,498,485,497,238000,497
2014/01/16,498,503,476,484,235900,484
2014/01/17,480,488,475,483,66800,483
2014/01/20,475,479,470,475,91700,475
2014/01/21,477,485,476,478,82200,478
2014/01/22,476,482,468,480,70500,480
2014/01/23,480,481,474,475,77200,475
2014/01/24,470,470,462,466,100500,466
2014/01/27,443,458,435,447,153300,447
2014/01/28,439,452,437,440,84400,440
2014/01/29,445,454,445,448,30400,448
2014/01/30,447,447,430,440,77200,440
2014/01/31,435,443,425,427,76400,427
2014/02/03,415,421,407,408,110100,408
2014/02/04,379,397,355,362,205200,362
2014/02/05,372,398,371,371,166800,371
2014/02/06,377,422,375,405,106800,405
2014/02/07,404,409,386,386,146300,386
2014/02/10,399,403,388,400,68900,400
2014/02/12,402,410,400,407,43300,407
2014/02/13,407,407,392,398,58100,398
2014/02/14,394,403,389,392,48400,392
2014/02/17,398,400,390,396,45200,396
2014/02/18,400,406,391,404,49800,404
2014/02/19,409,409,400,401,18800,401
2014/02/20,400,403,391,393,27800,393
2014/02/21,392,399,391,394,50500,394
2014/02/24,392,399,390,397,30700,397
2014/02/25,392,415,392,408,98000,408
2014/02/26,415,415,400,400,46400,400
2014/02/27,402,408,400,404,23400,404
2014/02/28,400,410,398,400,38300,400
2014/03/03,400,400,373,384,88600,384
2014/03/04,381,390,381,390,22500,390
2014/03/05,398,399,391,393,18400,393
2014/03/06,397,398,391,397,20700,397
2014/03/07,395,399,395,396,27600,396
2014/03/10,401,412,401,411,67900,411
2014/03/11,410,430,410,427,104700,427
2014/03/12,430,435,415,419,64000,419
2014/03/13,418,419,414,416,25600,416
2014/03/14,411,412,400,405,69700,405
2014/03/17,417,417,390,393,28000,393
2014/03/18,401,406,396,403,23100,403
2014/03/19,405,409,396,401,24000,401
2014/03/20,409,410,384,386,78900,386
2014/03/24,387,396,381,386,48600,386
2014/03/25,390,390,381,384,29400,384
2014/03/26,398,398,380,388,45600,388
2014/03/27,390,394,378,391,78900,391
2014/03/28,397,397,378,394,52800,394
2014/03/31,405,405,379,400,77500,400
2014/04/01,402,402,386,400,65200,400
2014/04/02,400,411,393,406,92300,406
2014/04/03,412,413,407,410,47700,410
2014/04/04,412,428,412,425,219200,425
2014/04/07,425,429,415,417,74900,417
2014/04/08,417,417,395,397,71300,397
2014/04/09,395,399,388,390,42900,390
2014/04/10,400,400,386,388,40100,388
2014/04/11,380,383,368,370,104200,370
2014/04/14,376,376,368,368,60100,368
2014/04/15,375,378,373,375,25700,375
2014/04/16,380,387,376,387,64100,387
2014/04/17,395,397,386,390,51000,390
2014/04/18,393,393,384,390,22400,390
2014/04/21,392,395,385,386,28300,386
2014/04/22,391,391,380,380,19300,380
2014/04/23,385,385,375,377,48600,377
2014/04/24,375,378,364,368,100400,368
2014/04/25,362,368,361,362,93600,362
2014/04/28,365,365,352,353,174100,353
2014/04/30,354,358,343,350,83400,350
2014/05/01,359,364,353,363,52300,363
2014/05/02,364,380,363,380,78700,380
2014/05/07,382,382,370,370,70000,370
2014/05/08,373,380,372,374,51100,374
2014/05/09,382,390,379,390,118500,390
2014/05/12,392,400,391,394,100800,394
2014/05/13,396,398,388,391,61500,391
2014/05/14,392,392,380,386,21900,386
2014/05/15,381,391,375,380,31400,380
2014/05/16,374,380,371,373,35100,373
2014/05/19,378,378,351,355,47400,355
2014/05/20,360,366,353,354,40300,354
2014/05/21,355,360,346,359,62400,359
2014/05/22,364,367,360,366,74800,366
2014/05/23,369,373,364,373,40800,373
2014/05/26,376,385,368,382,65700,382
2014/05/27,383,387,379,379,43600,379
2014/05/28,377,383,375,381,43800,381
2014/05/29,381,384,379,379,23000,379
2014/05/30,380,383,378,380,16600,380
2014/06/02,383,405,382,405,143000,405
2014/06/03,410,412,394,399,106100,399
2014/06/04,401,404,393,397,45200,397
2014/06/05,400,404,397,403,97600,403
2014/06/06,404,408,400,408,75600,408
2014/06/09,410,415,408,413,109000,413
2014/06/10,410,414,404,408,87200,408
2014/06/11,408,416,405,409,63300,409
2014/06/12,403,415,403,412,34500,412
2014/06/13,412,427,411,422,123300,422
2014/06/16,426,440,426,439,221200,439
2014/06/17,445,445,435,438,149200,438
2014/06/18,443,443,431,436,71500,436
2014/06/19,501,516,495,516,631600,516
2014/06/20,616,616,557,558,3630400,558
2014/06/23,616,658,616,658,5227500,658
2014/06/24,658,669,605,625,4025100,625
2014/06/25,615,619,570,585,1247500,585
2014/06/26,585,616,560,587,1657400,587
2014/06/27,567,574,530,547,847700,547
2014/06/30,555,589,550,557,825300,557
2014/07/01,560,565,550,553,408300,553
2014/07/02,556,568,546,549,279200,549
2014/07/03,541,544,520,530,478000,530
2014/07/04,532,537,524,534,252300,534
2014/07/07,544,552,536,548,355300,548
2014/07/08,543,555,537,554,323100,554
2014/07/09,543,550,528,536,232400,536
2014/07/10,537,542,518,520,227600,520
2014/07/11,512,530,510,517,154100,517
2014/07/14,517,536,517,527,156800,527
2014/07/15,534,536,529,532,144000,532
2014/07/16,537,541,527,527,158500,527
2014/07/17,533,533,520,520,183100,520
2014/07/18,517,525,514,519,133200,519
2014/07/22,527,535,521,531,135100,531
2014/07/23,534,534,516,521,128200,521
2014/07/24,526,527,516,519,74100,519
2014/07/25,521,614,515,564,2924700,564
2014/07/28,567,567,544,556,313200,556
2014/07/29,550,553,536,546,168900,546
2014/07/30,543,543,532,532,109600,532
2014/07/31,532,535,523,526,128600,526
2014/08/01,522,572,521,552,509000,552
2014/08/04,550,566,542,558,186400,558
2014/08/05,562,568,554,560,212500,560
2014/08/06,550,558,528,546,245900,546
2014/08/07,555,555,524,531,252200,531
2014/08/08,541,560,508,519,935000,519
2014/08/11,535,584,526,569,749000,569
2014/08/12,569,582,554,554,285100,554
2014/08/13,549,570,542,568,202700,568
2014/08/14,566,594,566,590,601300,590
2014/08/15,595,599,579,593,398300,593
2014/08/18,598,601,577,584,379600,584
2014/08/19,591,591,572,580,208400,580
2014/08/20,577,583,570,574,158300,574
2014/08/21,574,635,569,633,2770300,633
2014/08/22,640,702,604,618,4874200,618
2014/08/25,628,718,617,718,3704400,718
2014/08/26,763,845,691,708,4155800,708
2014/08/27,704,742,695,717,1007600,717
2014/08/28,708,734,666,681,886400,681
2014/08/29,675,682,653,674,480200,674
2014/09/01,680,715,673,694,465500,694
2014/09/02,720,758,696,699,1432700,699
2014/09/03,706,743,706,737,775300,737
2014/09/04,762,794,712,721,1680300,721
2014/09/05,727,749,705,717,477900,717
2014/09/08,728,728,705,708,295300,708
2014/09/09,708,832,690,720,3401000,720
2014/09/10,704,709,680,689,695900,689
2014/09/11,695,695,672,674,313800,674
2014/09/12,670,688,666,669,260900,669
2014/09/16,670,670,651,655,295400,655
2014/09/17,660,675,656,665,161200,665
2014/09/18,665,673,665,667,148200,667
2014/09/19,677,677,658,663,213200,663
2014/09/22,663,680,661,676,159000,676
2014/09/24,666,676,658,664,170600,664
2014/09/25,666,671,652,655,198300,655
2014/09/26,650,665,646,662,124400,662
2014/09/29,682,718,670,703,772100,703
2014/09/30,692,703,661,671,273800,671
2014/10/01,680,685,646,648,314900,648
2014/10/02,630,630,610,612,325300,612
2014/10/03,626,646,621,644,198200,644
2014/10/06,649,658,640,649,140000,649
2014/10/07,639,646,620,620,147700,620
2014/10/08,610,629,605,621,125500,621
2014/10/09,627,630,603,604,109200,604
2014/10/10,600,614,595,598,190100,598
2014/10/14,592,615,584,597,135300,597
2014/10/15,600,605,589,594,103700,594
2014/10/16,580,613,580,604,166500,604
2014/10/17,609,615,592,592,120000,592
2014/10/20,610,638,610,631,177300,631
2014/10/21,628,631,614,620,51000,620
2014/10/22,622,645,622,636,131900,636
2014/10/23,635,654,625,639,183600,639
2014/10/24,646,669,646,662,238800,662
2014/10/27,667,707,667,682,418600,682
2014/10/28,707,710,690,699,404600,699
2014/10/29,701,720,697,700,341000,700
2014/10/30,690,708,681,700,245300,700
2014/10/31,695,699,678,691,224100,691
2014/11/04,718,722,695,700,364600,700
2014/11/05,704,715,676,700,282100,700
2014/11/06,698,707,685,690,168600,690
2014/11/07,693,693,658,670,298000,670
2014/11/10,663,666,645,650,180900,650
2014/11/11,652,685,652,671,211500,671
2014/11/12,671,681,657,661,192200,661
2014/11/13,661,664,649,652,147400,652
2014/11/14,658,659,640,643,166600,643
2014/11/17,638,639,620,622,155100,622
2014/11/18,622,638,622,634,140200,634
2014/11/19,642,642,627,627,105600,627
2014/11/20,631,631,623,623,74100,623
2014/11/21,621,641,618,635,152300,635
2014/11/25,637,689,636,681,435900,681
2014/11/26,678,707,660,707,619600,707
2014/11/27,720,735,707,712,561200,712
2014/11/28,720,776,712,718,1875500,718
2014/12/01,705,717,685,714,403300,714
2014/12/02,705,706,686,693,191800,693
2014/12/03,701,701,682,685,184500,685
2014/12/04,689,700,685,698,173800,698
2014/12/05,697,707,690,706,200700,706
2014/12/08,712,713,688,692,160600,692
2014/12/09,680,688,665,666,258300,666
2014/12/10,656,670,649,654,275000,654
2014/12/11,650,666,642,663,132900,663
2014/12/12,663,685,663,677,137600,677
2014/12/15,667,680,658,659,110800,659
2014/12/16,653,680,651,662,154200,662
2014/12/17,662,693,662,691,279100,691
2014/12/18,706,708,690,699,277400,699
2014/12/19,708,710,685,689,150600,689
2014/12/22,691,691,668,671,180900,671
2014/12/24,677,677,660,662,207300,662
2014/12/25,660,663,642,661,422800,661
2014/12/26,671,698,665,691,300700,691
2014/12/29,703,708,677,697,371100,697
2014/12/30,699,712,690,691,378700,691
2015/01/05,690,724,690,723,452000,723
2015/01/06,710,739,706,713,462500,713
2015/01/07,705,720,693,699,275500,699
2015/01/08,703,708,695,697,168200,697
2015/01/09,695,702,677,680,311400,680
2015/01/13,676,710,676,693,280500,693
2015/01/14,692,703,678,681,233600,681
2015/01/15,683,690,677,684,113100,684
2015/01/16,687,687,657,669,242000,669
2015/01/19,672,678,662,665,90100,665
2015/01/20,674,683,667,678,143000,678
2015/01/21,681,681,669,679,92200,679
2015/01/22,680,680,664,668,70400,668
2015/01/23,677,680,665,673,141200,673
2015/01/26,675,688,672,684,121300,684
2015/01/27,688,713,686,712,466500,712
2015/01/28,708,724,703,722,334100,722
2015/01/29,722,729,699,708,334700,708
2015/01/30,716,742,716,739,594300,739
2015/02/02,742,758,720,752,437600,752
2015/02/03,757,757,699,713,593700,713
2015/02/04,720,724,710,715,191900,715
2015/02/05,716,716,696,709,225200,709
2015/02/06,604,646,580,614,2005900,614
2015/02/09,611,614,596,601,786200,601
2015/02/10,600,610,599,608,278600,608
2015/02/12,615,617,605,606,231900,606
2015/02/13,610,614,602,604,206200,604
2015/02/16,603,610,601,605,157800,605
2015/02/17,607,607,601,606,146200,606
2015/02/18,608,609,604,607,149100,607
2015/02/19,608,634,606,620,412500,620
2015/02/20,625,629,616,623,198600,623
2015/02/23,625,627,617,624,291200,624
2015/02/24,625,645,619,639,493200,639
2015/02/25,638,640,632,636,220100,636
2015/02/26,630,651,630,647,291500,647
2015/02/27,646,652,638,641,247500,641
2015/03/02,649,654,643,645,144200,645
2015/03/03,649,649,629,631,208800,631
2015/03/04,623,628,615,623,153400,623
2015/03/05,624,635,620,632,115200,632
2015/03/06,639,639,627,629,125200,629
2015/03/09,623,634,623,633,68400,633
2015/03/10,630,633,620,620,140500,620
2015/03/11,620,630,620,626,122600,626
2015/03/12,626,634,626,633,76300,633
2015/03/13,638,646,629,632,234000,632
2015/03/16,651,656,641,650,301200,650
2015/03/17,656,656,643,648,204000,648
2015/03/18,647,650,629,635,242100,635
2015/03/19,631,634,624,628,146100,628
2015/03/20,630,640,629,634,113700,634
2015/03/23,637,645,631,635,147400,635
2015/03/24,633,639,631,634,81100,634
2015/03/25,635,638,625,627,153400,627
2015/03/26,622,628,611,620,178700,620
2015/03/27,615,624,608,613,142300,613
2015/03/30,611,618,610,615,95200,615
2015/03/31,619,632,619,625,164800,625
2015/04/01,625,625,612,613,113200,613
2015/04/02,616,621,612,619,74100,619
2015/04/03,615,624,615,619,56000,619
2015/04/06,620,631,620,621,84300,621
2015/04/07,622,628,616,623,126000,623
2015/04/08,624,632,623,628,98100,628
2015/04/09,628,631,619,621,97800,621
2015/04/10,620,621,616,616,106500,616
2015/04/13,618,621,616,618,90500,618
2015/04/14,620,622,616,618,76000,618
2015/04/15,619,623,617,621,93400,621
2015/04/16,624,629,618,624,75600,624
2015/04/17,624,624,614,616,140100,616
2015/04/20,610,618,609,613,127700,613
2015/04/21,615,617,609,611,70400,611
2015/04/22,611,616,608,610,100900,610
2015/04/23,610,624,610,614,115700,614
2015/04/24,615,620,613,618,49400,618
2015/04/27,619,626,618,626,104600,626
2015/04/28,630,634,627,633,199800,633
2015/04/30,632,632,624,626,157200,626
2015/05/01,625,625,610,617,160700,617
2015/05/07,617,636,617,635,247000,635
2015/05/08,640,650,633,648,503700,648
2015/05/11,630,640,610,624,513200,624
2015/05/12,634,639,623,626,212500,626
2015/05/13,627,654,627,652,519300,652
2015/05/14,642,644,635,641,177100,641
2015/05/15,649,652,632,645,210500,645
2015/05/18,650,650,639,644,123600,644
2015/05/19,645,654,642,651,214500,651
2015/05/20,654,687,654,671,865800,671
2015/05/21,690,690,664,667,508500,667
2015/05/22,671,676,656,666,175100,666
2015/05/25,670,682,667,678,191700,678
2015/05/26,680,684,670,671,182400,671
2015/05/27,666,669,644,650,304600,650
2015/05/28,646,655,634,636,275300,636
2015/05/29,632,650,632,643,217700,643
2015/06/01,643,651,639,647,126700,647
2015/06/02,652,652,643,645,94600,645
2015/06/03,645,647,637,642,101000,642
2015/06/04,645,665,643,657,237500,657
2015/06/05,668,672,659,661,227600,661
2015/06/08,664,675,659,666,183900,666
2015/06/09,669,669,648,648,195700,648
2015/06/10,648,662,646,646,109900,646
2015/06/11,654,657,646,651,100100,651
2015/06/12,651,662,651,658,155400,658
2015/06/15,660,670,655,669,159000,669
2015/06/16,671,671,655,656,116800,656
2015/06/17,659,670,654,658,164500,658
2015/06/18,656,657,640,641,189800,641
2015/06/19,644,654,638,650,164200,650
2015/06/22,650,662,650,660,102000,660
2015/06/23,664,673,661,669,211900,669
2015/06/24,670,671,663,666,149900,666
2015/06/25,663,663,654,654,106300,654
2015/06/26,652,661,649,653,91900,653
2015/06/29,633,644,622,622,249700,622
2015/06/30,623,635,623,625,129300,625
2015/07/01,630,640,627,637,93100,637
