2011/01/17,286000,293000,278100,280000,903,28
2011/02/25,235500,243900,231100,240000,217,24
2011/03/04,251900,252800,249000,250000,217,25
2011/03/15,160000,160000,145000,150000,1241,15
2011/04/12,241600,241700,230000,230000,119,23
2011/06/02,221000,221800,218000,220000,109,22
2011/06/09,213200,213700,208500,210000,154,21
2011/07/21,208000,224100,207800,220000,706,22
2011/07/25,214100,215500,207500,210000,119,21
2011/09/05,244100,260000,243900,260000,823,26
2011/09/26,194000,195000,180000,180000,304,18
2011/10/13,205500,215500,204900,210000,303,21
2011/12/05,205600,212000,204000,210000,254,21
2011/12/12,206600,214400,205500,210000,484,21
2011/12/26,181500,181900,179100,180000,159,18
2012/02/08,175000,183300,175000,180000,306,18
2012/07/09,180300,180300,177900,180000,58,18
2012/07/13,180700,181800,178400,180000,55,18
2012/08/06,195000,203000,193500,200000,435,20
2012/08/07,204000,204000,198100,200000,314,20
2012/08/10,196000,197300,188900,190000,391,19
2012/09/28,312000,320000,306000,320000,1358,32
2012/10/04,368000,401500,367000,400000,4108,40
2012/11/09,431000,482500,429500,470000,8923,47
2012/11/12,487000,540000,485000,540000,9678,54
2012/11/15,621000,669000,583000,600000,10133,60
2012/11/28,580000,627000,577000,620000,3894,62
2012/11/29,615000,642000,604000,620000,3692,62
2012/12/03,615000,619000,590000,600000,1845,60
2012/12/27,859000,893000,844000,890000,2193,89
2013/01/09,817000,840000,804000,820000,1444,82
2013/01/16,1141000,1223000,1110000,1190000,6069,119
2013/01/17,1165000,1181000,1110000,1130000,2990,113
2013/01/18,1129000,1290000,1128000,1280000,7320,128
2013/01/31,1555000,1605000,1426000,1470000,5494,147
2013/02/04,1451000,1471000,1254000,1310000,7293,131
2013/02/12,1439000,1547000,1430000,1540000,5937,154
2013/02/19,2324000,2825000,2280000,2600000,12587,260
2013/02/27,2652000,2707000,2612000,2650000,1899,265
2013/03/01,2867000,3290000,2811000,3290000,9655,329
2013/03/05,3315000,3885000,3270000,3760000,7421,376
2013/03/08,4280000,4840000,3505000,3910000,8111,391
2013/03/11,4180000,4370000,3665000,4090000,5627,409
2013/03/13,3600000,3960000,3560000,3690000,4117,369
2013/03/15,4070000,4200000,3905000,4000000,3428,400
2013/03/19,4025000,4075000,3955000,4050000,1664,405
2013/03/21,4110000,4690000,4085000,4690000,7378,469
2013/03/22,4760000,4830000,4450000,4620000,4284,462
2013/03/25,4720000,4720000,4255000,4350000,3793,435
2013/03/26,4290000,4380000,3945000,4150000,5458,415
2013/03/27,429000,434000,372500,390000,44696,390
2013/03/28,376500,408500,365000,402000,38118,402
2013/04/01,390500,393500,351500,365000,26454,365
2013/04/03,391500,392000,371000,372000,18214,372
2013/04/04,367000,392000,365000,384000,24760,384
2013/04/05,380500,383500,367500,368000,17261,368
2013/04/11,389000,400500,376000,380000,32669,380
2013/04/12,390000,396500,380000,388000,16660,388
2013/04/15,393500,412000,386500,412000,26960,412
2013/04/16,405000,461000,401000,451000,103166,451
2013/04/17,480000,521000,473500,521000,104584,521
2013/04/18,541000,619000,532000,570000,163780,570
2013/04/19,581000,595000,544000,557000,64656,557
2013/04/22,583000,588000,562000,579000,31745,579
2013/04/23,573000,679000,566000,679000,144831,679
2013/04/24,709000,779000,692000,779000,146071,779
2013/04/25,860000,929000,829000,929000,131185,929
2013/04/26,869000,997000,820000,887000,138761,887
2013/04/30,916000,934000,887000,922000,64399,922
2013/05/01,903000,916000,805000,805000,58314,805
2013/05/02,779000,906000,725000,895000,114145,895
2013/05/07,932000,945000,891000,900000,61296,900
2013/05/08,895000,948000,852000,947000,56731,947
2013/05/09,929000,947000,891000,892000,42493,892
2013/05/10,1042000,1042000,1018000,1042000,38506,1042
2013/05/13,1342000,1342000,1260000,1342000,27200,1342
2013/05/14,1346000,1633000,1346000,1550000,95805,1550
2013/05/15,1580000,1596000,1300000,1420000,61738,1420
2013/05/16,1400000,1489000,1121000,1314000,86726,1314
2013/05/17,1225000,1342000,1180000,1260000,45650,1260
2013/05/20,1340000,1340000,1243000,1261000,27520,1261
2013/05/21,1201000,1216000,1020000,1034000,50175,1034
2013/05/22,974000,1238000,908000,1100000,118155,1100
2013/05/23,1040000,1145000,900000,930000,62130,930
2013/05/24,1050000,1080000,934000,1080000,69736,1080
2013/05/27,1050000,1193000,1000000,1100000,83652,1100
2013/05/28,1130000,1260000,1116000,1260000,79092,1260
2013/05/29,1290000,1300000,1185000,1198000,49493,1198
2013/05/30,1140000,1179000,1051000,1135000,41372,1135
2013/05/31,1190000,1300000,1150000,1300000,77275,1300
2013/06/03,1223000,1293000,1213000,1259000,40940,1259
2013/06/04,1255000,1285000,1190000,1228000,25474,1228
2013/06/05,1240000,1262000,1161000,1195000,24233,1195
2013/06/06,1135000,1173000,953000,1058000,46039,1058
2013/06/07,968000,1050000,870000,970000,68191,970
2013/06/10,1100000,1120000,1082000,1120000,18783,1120
2013/06/11,1200000,1320000,1177000,1250000,102326,1250
2013/06/12,1220000,1277000,1157000,1262000,65150,1262
2013/06/13,1230000,1265000,1205000,1232000,44883,1232
2013/06/14,1280000,1339000,1202000,1202000,81667,1202
2013/06/17,1238000,1268000,1191000,1236000,36552,1236
2013/06/18,1260000,1274000,1243000,1250000,24212,1250
2013/06/19,1270000,1274000,1192000,1205000,30544,1205
2013/06/20,1193000,1245000,1190000,1226000,17029,1226
2013/06/21,1200000,1235000,1193000,1226000,20229,1226
2013/06/24,1246000,1250000,1221000,1225000,11906,1225
2013/06/25,1230000,1232000,1169000,1200000,16223,1200
2013/06/26,118000,121000,91500,93500,457218,935
2013/06/27,98000,103300,87500,97000,424457,970
2013/06/28,99900,109300,97200,108000,290320,1080
2013/07/01,115000,129000,113100,124900,509754,1249
2013/07/02,127900,128600,122100,123400,307700,1234
2013/07/03,122000,123000,119000,119500,163367,1195
2013/07/04,115000,118700,110000,114800,245477,1148
2013/07/05,117000,121800,115500,117600,227301,1176
2013/07/08,118800,119800,112000,112400,171066,1124
2013/07/09,110000,111500,101200,102000,304004,1020
2013/07/10,96000,108100,95500,104000,442920,1040
2013/07/11,103800,104500,100200,102000,142286,1020
2013/07/12,102900,107600,101000,102000,224459,1020
2013/07/16,103400,104300,100000,100000,113968,1000
2013/07/17,98500,99000,93100,93700,280120,937
2013/07/18,93000,103200,92900,102000,366633,1020
2013/07/19,103100,103500,96500,98900,179495,989
2013/07/22,99500,101800,97400,98200,112076,982
2013/07/23,98500,100400,97500,97600,92514,976
2013/07/24,98400,98900,95600,96600,118115,966
2013/07/25,96400,99500,95800,97100,125818,971
2013/07/26,96300,99000,96000,98000,117837,980
2013/07/29,105000,112900,100200,106000,662301,1060
2013/07/30,95500,98800,89900,91800,573618,918
2013/07/31,94000,95900,77800,80000,584449,800
2013/08/01,75500,81200,67100,76600,1071449,766
2013/08/02,79000,82900,76600,80400,549895,804
2013/08/05,77400,81900,77100,77200,309741,772
2013/08/06,73200,74600,69000,69000,528579,690
2013/08/07,65000,69700,61300,61500,944150,615
2013/08/08,62300,69400,62300,63800,782203,638
2013/08/09,68800,71600,65300,71400,598091,714
2013/08/12,68900,70100,63200,63400,491867,634
2013/08/13,66400,67800,64300,65200,309817,652
2013/08/14,66500,67500,63900,65900,217595,659
2013/08/15,64900,65500,64100,64600,126267,646
2013/08/16,63900,67200,63300,65400,202121,654
2013/08/19,66400,67600,64500,67200,187107,672
2013/08/20,66900,68300,65600,66300,226776,663
2013/08/21,66000,66800,63800,63800,153350,638
2013/08/22,63000,63100,57600,58000,325993,580
2013/08/23,59700,60500,52200,52500,480005,525
2013/08/26,50900,55900,50400,55800,498269,558
2013/08/27,55200,65400,53500,64000,1025457,640
2013/08/28,62800,69600,58800,60000,1180737,600
2013/08/29,63000,65500,61300,64200,635630,642
2013/08/30,67200,68600,64200,66900,434072,669
2013/09/02,67900,69000,65600,66600,289174,666
2013/09/03,67500,74000,65200,70300,1006581,703
2013/09/04,68800,73000,68400,70400,611673,704
2013/09/05,71800,79800,71400,79000,1134611,790
2013/09/06,82500,84800,75700,76500,1152809,765
2013/09/09,79600,80800,74600,76200,321569,762
2013/09/10,75500,76000,69800,70200,397220,702
2013/09/11,68700,75600,67200,73900,510071,739
2013/09/12,74400,77200,72200,74600,396070,746
2013/09/13,74400,75200,72100,73000,193492,730
2013/09/17,73600,76500,72400,76000,343825,760
2013/09/18,77400,85000,77100,84800,746018,848
2013/09/19,85500,85600,79800,80500,708339,805
2013/09/20,81000,83400,80300,81200,324788,812
2013/09/24,80600,82000,78500,78500,179938,785
2013/09/25,77400,77900,73000,73600,270240,736
2013/09/26,72100,77100,72000,74500,326001,745
2013/09/27,74000,78800,73600,78000,346207,780
2013/09/30,78200,78600,75300,76300,186067,763
2013/10/01,77100,78500,74000,74700,217424,747
2013/10/02,74500,75500,72000,72900,173612,729
2013/10/03,72500,72800,70300,70400,176705,704
2013/10/04,70000,75500,70000,73500,382998,735
2013/10/07,74700,75300,69300,69400,230173,694
2013/10/08,67400,69300,65600,68400,194935,684
2013/10/09,68200,72800,66500,70200,283379,702
2013/10/10,71200,72100,70200,70800,127594,708
2013/10/11,72800,73900,71300,72100,227048,721
2013/10/15,71800,72200,70200,70900,94907,709
2013/10/16,85900,85900,80300,81900,1105631,819
2013/10/17,83400,84500,77700,78400,530595,784
2013/10/18,79300,82100,78500,81100,358324,811
2013/10/21,81200,82200,79400,80200,265044,802
2013/10/22,81000,81800,79100,80400,201021,804
2013/10/23,81200,81400,79900,80000,133114,800
2013/10/24,79800,80500,79600,80400,84546,804
2013/10/25,80100,80200,78600,79100,87083,791
2013/10/28,79800,82200,79200,80800,175341,808
2013/10/29,81200,82900,79200,79700,265033,797
2013/10/30,66200,66500,64700,64700,441243,647
2013/10/31,61700,64000,58800,61600,902584,616
2013/11/01,63600,63800,59600,60400,306741,604
2013/11/05,59400,60800,57100,58500,247636,585
2013/11/06,57500,59700,56500,56500,219450,565
2013/11/07,58500,59200,56900,57900,189839,579
2013/11/08,57600,58900,56500,57200,121961,572
2013/11/11,57300,57400,55100,55900,111660,559
2013/11/12,55000,57900,54700,56900,199085,569
2013/11/13,57300,60500,56300,60200,307481,602
2013/11/14,60400,63600,60200,62100,392484,621
2013/11/15,63200,63600,62000,62600,173267,626
2013/11/18,63200,64500,62900,64100,211690,641
2013/11/19,64700,65800,64300,65300,238672,653
2013/11/20,65800,65800,64500,64600,110848,646
2013/11/21,64000,64300,63100,63400,81879,634
2013/11/22,63700,64200,62800,63300,80055,633
2013/11/25,63000,63000,61200,61400,71416,614
2013/11/26,60300,64500,60200,64100,145866,641
2013/11/27,64000,67900,64000,65000,344355,650
2013/11/28,67000,67000,64800,66200,183259,662
2013/11/29,66500,67700,66300,67100,151922,671
2013/12/02,68700,72200,68400,71600,399035,716
2013/12/03,72400,76700,71200,74500,484144,745
2013/12/04,73500,75400,72100,74900,306678,749
2013/12/05,76000,77900,75000,75900,380748,759
2013/12/06,76000,76200,73100,75500,175129,755
2013/12/09,76600,77600,75500,76200,250308,762
2013/12/10,76500,76600,75000,75000,120138,750
2013/12/11,73500,74400,71200,71200,211559,712
2013/12/12,69700,75200,68700,73000,356418,730
2013/12/13,72500,73000,70100,70100,137807,701
2013/12/16,69700,71500,65700,66300,160163,663
2013/12/17,68800,69300,67600,68300,112421,683
2013/12/18,68100,68900,67300,67900,76136,679
2013/12/19,69100,70400,67100,67100,191010,671
2013/12/20,67400,67600,66100,66200,84622,662
2013/12/24,66200,66400,63800,63900,159322,639
2013/12/25,64400,66200,64200,65100,205689,651
2013/12/26,669,751,657,751,65841300,751
2013/12/27,785,789,739,741,74126000,741
2013/12/30,750,774,730,757,39834800,757
2014/01/06,754,763,732,734,23909400,734
2014/01/07,728,736,712,714,13566200,714
2014/01/08,728,739,720,728,16439200,728
2014/01/09,728,766,728,749,28829800,749
2014/01/10,752,752,721,725,16415700,725
2014/01/14,710,719,705,706,11502000,706
2014/01/15,720,720,705,705,7820800,705
2014/01/16,707,710,692,696,9044100,696
2014/01/17,694,702,686,694,6889100,694
2014/01/20,695,698,683,686,6181100,686
2014/01/21,690,719,687,702,15238100,702
2014/01/22,709,716,701,713,9455700,713
2014/01/23,713,713,694,696,6991800,696
2014/01/24,683,690,680,683,7907800,683
2014/01/27,651,659,630,631,14474300,631
2014/01/28,635,649,617,620,8388300,620
2014/01/29,650,688,647,673,32599900,673
2014/01/30,648,654,633,649,10158500,649
2014/01/31,664,667,627,648,8607800,648
2014/02/03,638,642,610,610,6638200,610
2014/02/04,630,669,611,623,53716600,623
2014/02/05,663,667,586,611,28687000,611
2014/02/06,625,675,622,650,26862200,650
2014/02/07,675,678,653,666,14559000,666
2014/02/10,666,687,660,676,15695700,676
2014/02/12,685,686,666,669,8118900,669
2014/02/13,669,670,642,647,9400400,647
2014/02/14,647,650,614,626,8889600,626
2014/02/17,624,626,600,616,8402900,616
2014/02/18,622,660,618,660,12664800,660
2014/02/19,653,671,649,660,10716200,660
2014/02/20,656,674,625,633,18666400,633
2014/02/21,648,654,624,633,11441800,633
2014/02/24,628,639,624,629,4952400,629
2014/02/25,632,688,626,666,44921800,666
2014/02/26,656,660,647,650,11378300,650
2014/02/27,645,647,631,633,7678500,633
2014/02/28,635,640,621,627,7775900,627
2014/03/03,620,622,605,617,6461000,617
2014/03/04,607,642,606,628,13131500,628
2014/03/05,638,640,624,627,6546000,627
2014/03/06,630,659,628,645,21957100,645
2014/03/07,647,654,643,651,6671400,651
2014/03/10,656,664,652,659,6730100,659
2014/03/11,657,659,637,638,6521800,638
2014/03/12,630,632,614,615,7790500,615
2014/03/13,623,646,620,625,10126100,625
2014/03/14,610,625,610,618,7007800,618
2014/03/17,620,623,600,602,5957300,602
2014/03/18,614,615,603,605,4369900,605
2014/03/19,605,608,599,604,4400600,604
2014/03/20,599,604,588,594,7150500,594
2014/03/24,589,606,568,578,9662100,578
2014/03/25,560,562,520,533,14621400,533
2014/03/26,538,574,535,565,9969100,565
2014/03/27,545,559,522,554,12496700,554
2014/03/28,544,569,544,563,5284000,563
2014/03/31,565,573,558,563,3865300,563
2014/04/01,565,566,555,562,2937600,562
2014/04/02,564,576,563,574,6708400,574
2014/04/03,578,583,570,575,4156200,575
2014/04/04,572,579,570,575,2760100,575
2014/04/07,571,572,560,563,3401900,563
2014/04/08,553,555,538,542,4132700,542
2014/04/09,531,559,530,556,5539800,556
2014/04/10,559,560,534,544,4766600,544
2014/04/11,520,525,512,520,4915500,520
2014/04/14,511,538,511,521,3757300,521
2014/04/15,529,546,517,518,6327500,518
2014/04/16,515,542,514,533,7857800,533
2014/04/17,570,633,567,609,76700300,609
2014/04/18,599,608,585,590,14881400,590
2014/04/21,595,604,573,578,6316200,578
2014/04/22,584,584,553,555,4396300,555
2014/04/23,563,564,553,558,4480600,558
2014/04/24,564,578,558,559,3977200,559
2014/04/25,555,564,550,552,3492200,552
2014/04/28,553,573,550,567,7547600,567
2014/04/30,627,630,577,583,29700500,583
2014/05/01,589,589,564,578,7990100,578
2014/05/02,583,593,575,580,5272800,580
2014/05/07,570,573,556,556,4415300,556
2014/05/08,557,561,538,540,5083700,540
2014/05/09,538,544,528,531,4912600,531
2014/05/12,528,532,512,513,4902400,513
2014/05/13,522,526,513,518,4202500,518
2014/05/14,518,525,514,524,3493500,524
2014/05/15,519,538,517,532,6725700,532
2014/05/16,520,539,518,528,6382200,528
2014/05/19,530,535,495,500,6884500,500
2014/05/20,504,512,501,506,4244500,506
2014/05/21,523,550,513,546,15920700,546
2014/05/22,551,578,534,562,14887600,562
2014/05/23,561,575,559,565,6757700,565
2014/05/26,571,589,569,573,6877100,573
2014/05/27,579,587,572,573,4912600,573
2014/05/28,578,623,577,604,29201800,604
2014/05/29,602,671,597,654,46901200,654
2014/05/30,665,694,648,671,48267300,671
2014/06/02,688,691,671,672,17711600,672
2014/06/03,669,676,653,665,14691200,665
2014/06/04,659,718,647,699,56211300,699
2014/06/05,705,717,682,685,25857700,685
2014/06/06,695,738,688,722,47469700,722
2014/06/09,745,767,740,757,50630100,757
2014/06/10,764,770,733,739,23700600,739
2014/06/11,736,768,724,766,34500000,766
2014/06/12,749,763,747,757,19447400,757
2014/06/13,752,759,744,752,12111100,752
2014/06/16,747,755,723,728,12829000,728
2014/06/17,722,746,713,732,16184300,732
2014/06/18,739,743,717,718,13397100,718
2014/06/19,721,726,675,690,25133800,690
2014/06/20,692,693,672,676,9345700,676
2014/06/23,679,699,676,689,9637500,689
2014/06/24,685,692,675,678,7909900,678
2014/06/25,674,677,656,656,8058600,656
2014/06/26,656,673,650,659,8360000,659
2014/06/27,657,676,646,654,9218600,654
2014/06/30,655,662,647,654,5687800,654
2014/07/01,662,666,655,656,5481100,656
2014/07/02,663,689,662,686,17101100,686
2014/07/03,693,694,669,670,10998700,670
2014/07/04,676,678,667,671,6245000,671
2014/07/07,666,674,662,665,5391100,665
2014/07/08,660,662,646,655,8646900,655
2014/07/09,643,645,624,629,8133200,629
2014/07/10,631,642,612,616,8083800,616
2014/07/11,604,632,601,628,7095000,628
2014/07/14,638,639,626,629,5406100,629
2014/07/15,641,660,634,650,10199600,650
2014/07/16,652,652,620,623,9619200,623
2014/07/17,625,633,617,623,5076700,623
2014/07/18,608,622,607,619,3369000,619
2014/07/22,627,631,620,625,7568400,625
2014/07/23,635,642,621,625,13177500,625
2014/07/24,626,631,622,623,4160600,623
2014/07/25,622,623,618,622,3098900,622
2014/07/28,620,623,618,619,3609600,619
2014/07/29,619,620,591,605,18490200,605
2014/07/30,600,613,593,599,12125800,599
2014/07/31,602,603,585,586,10811500,586
2014/08/01,573,576,566,569,8889500,569
2014/08/04,569,596,568,582,9628600,582
2014/08/05,587,590,560,561,6417600,561
2014/08/06,557,560,540,542,8777000,542
2014/08/07,540,557,528,542,10767900,542
2014/08/08,533,541,521,531,7561300,531
2014/08/11,545,549,536,537,6258400,537
2014/08/12,545,637,541,579,59675500,579
2014/08/13,576,584,560,564,12307000,564
2014/08/14,573,573,552,559,6013500,559
2014/08/15,556,565,552,560,4285700,560
2014/08/18,560,562,551,551,4015200,551
2014/08/19,554,563,551,553,4709700,553
2014/08/20,556,560,553,555,3095100,555
2014/08/21,560,583,556,572,11750900,572
2014/08/22,587,609,576,580,22327200,580
2014/08/25,587,589,571,579,4695600,579
2014/08/26,576,577,567,567,4688900,567
2014/08/27,569,577,565,568,3427200,568
2014/08/28,567,568,557,560,2843800,560
2014/08/29,557,566,555,556,4238800,556
2014/09/01,557,560,551,553,2976700,553
2014/09/02,553,554,548,552,3883900,552
2014/09/03,553,562,550,552,4148200,552
2014/09/04,551,552,535,537,6664000,537
2014/09/05,535,538,525,525,7713000,525
2014/09/08,530,538,527,528,4407300,528
2014/09/09,535,557,532,546,7963900,546
2014/09/10,547,548,528,535,4915400,535
2014/09/11,536,546,533,543,3985100,543
2014/09/12,539,543,532,535,3733000,535
2014/09/16,538,539,533,534,2926300,534
2014/09/17,535,542,533,536,3011500,536
2014/09/18,537,564,537,549,10486200,549
2014/09/19,555,561,548,560,5833000,560
2014/09/22,570,571,551,551,4739600,551
2014/09/24,545,545,532,538,4085600,538
2014/09/25,542,544,534,538,3572900,538
2014/09/26,532,536,530,534,3529000,534
2014/09/29,535,537,531,531,2063600,531
2014/09/30,531,532,522,523,3816600,523
2014/10/01,521,522,511,511,4253500,511
2014/10/02,500,508,498,504,4536000,504
2014/10/03,509,520,503,516,2806000,516
2014/10/06,518,519,511,513,2346700,513
2014/10/07,510,513,502,503,2295200,503
2014/10/08,500,503,495,499,4118200,499
2014/10/09,501,506,484,484,5658200,484
2014/10/10,471,477,452,455,11302600,455
2014/10/14,440,443,415,417,17922400,417
2014/10/15,425,436,418,431,15835300,431
2014/10/16,414,425,403,404,14082500,404
2014/10/17,411,418,404,406,10436200,406
2014/10/20,421,432,416,419,10340000,419
2014/10/21,417,428,412,414,7265100,414
2014/10/22,422,455,421,449,15103300,449
2014/10/23,446,462,441,451,9081300,451
2014/10/24,461,464,447,455,6412600,455
2014/10/27,471,480,453,467,16464000,467
2014/10/28,471,474,463,470,5875200,470
2014/10/29,478,502,477,488,22157300,488
2014/10/30,456,462,441,445,18412500,445
2014/10/31,446,447,427,439,11303100,439
2014/11/04,452,453,439,444,6572800,444
2014/11/05,442,453,440,451,5294800,451
2014/11/06,453,460,445,449,6131200,449
2014/11/07,450,452,444,449,2817800,449
2014/11/10,446,453,445,451,3329100,451
2014/11/11,453,465,450,457,6629300,457
2014/11/12,457,458,451,452,4024800,452
2014/11/13,452,453,446,450,2971700,450
2014/11/14,455,459,447,451,3377000,451
2014/11/17,457,463,445,447,4265000,447
2014/11/18,450,456,448,456,3683200,456
2014/11/19,459,462,453,458,3562600,458
2014/11/20,461,462,446,446,5190600,446
2014/11/21,448,450,443,450,2525800,450
2014/11/25,455,459,452,458,4156000,458
2014/11/26,460,461,456,457,3049100,457
2014/11/27,460,460,445,445,3690400,445
2014/11/28,445,448,444,448,2404100,448
2014/12/01,448,449,444,446,2305500,446
2014/12/02,444,447,441,444,2930100,444
2014/12/03,445,446,441,446,3282400,446
2014/12/04,443,445,442,442,2865100,442
2014/12/05,440,522,436,522,107342900,522
2014/12/08,548,566,489,490,127112700,490
2014/12/09,493,549,486,528,127421100,528
2014/12/10,523,541,506,530,77954200,530
2014/12/11,491,506,474,481,49839600,481
2014/12/12,485,487,466,467,14888000,467
2014/12/15,460,467,445,446,12825900,446
2014/12/16,446,453,440,450,11725500,450
2014/12/17,449,484,446,472,27853400,472
2014/12/18,472,479,449,452,13316600,452
2014/12/19,458,463,454,458,8182400,458
2014/12/22,450,457,446,450,8206300,450
2014/12/24,450,452,440,442,8889100,442
2014/12/25,441,451,435,436,8988500,436
2014/12/26,439,457,438,450,7681000,450
2014/12/29,445,450,439,441,5723500,441
2014/12/30,441,446,437,441,5871500,441
2015/01/05,446,460,443,454,7496000,454
2015/01/06,449,452,443,445,5702500,445
2015/01/07,447,474,442,459,22214700,459
2015/01/08,480,520,467,478,93319700,478
2015/01/09,480,481,450,451,17990800,451
2015/01/13,446,455,443,447,7583900,447
2015/01/14,445,450,438,440,7474300,440
2015/01/15,442,443,429,437,7443500,437
2015/01/16,430,433,411,417,10846600,417
2015/01/19,419,421,401,401,15703800,401
2015/01/20,415,418,402,406,15356700,406
2015/01/21,406,411,405,405,4937800,405
2015/01/22,406,410,404,406,3913600,406
2015/01/23,405,408,401,405,5406500,405
2015/01/26,405,405,398,403,6588400,403
2015/01/27,403,406,398,403,5309800,403
2015/01/28,401,403,399,400,5724000,400
2015/01/29,399,425,398,406,19009000,406
2015/01/30,406,411,405,407,4158300,407
2015/02/02,407,409,403,407,3777600,407
2015/02/03,409,414,405,408,8096100,408
2015/02/04,402,404,388,393,29730900,393
2015/02/05,393,403,392,395,9105300,395
2015/02/06,399,404,398,402,6831200,402
2015/02/09,403,417,402,414,9385200,414
2015/02/10,414,422,409,417,9983500,417
2015/02/12,420,427,418,422,9726100,422
2015/02/13,422,427,416,427,7545200,427
2015/02/16,432,436,428,432,5767500,432
2015/02/17,435,436,421,429,5702400,429
2015/02/18,430,430,423,426,3796600,426
2015/02/19,424,426,420,420,2958000,420
2015/02/20,420,424,417,421,3103200,421
2015/02/23,421,423,415,415,3457800,415
2015/02/24,415,422,412,413,5378400,413
2015/02/25,414,418,414,417,2180800,417
2015/02/26,415,417,412,413,4068500,413
2015/02/27,414,415,410,411,4420200,411
2015/03/02,411,413,407,409,3349700,409
2015/03/03,411,416,401,404,7023500,404
2015/03/04,404,408,400,404,5415900,404
2015/03/05,404,412,403,412,3885400,412
2015/03/06,410,412,406,409,2665700,409
2015/03/09,408,412,405,408,2839600,408
2015/03/10,408,411,404,411,3920700,411
2015/03/11,408,410,405,407,2081700,407
2015/03/12,407,411,405,406,2221700,406
2015/03/13,406,409,405,406,2570900,406
2015/03/16,405,406,402,402,2377600,402
2015/03/17,402,408,401,408,2997300,408
2015/03/18,408,412,402,408,8352300,408
2015/03/19,406,409,404,409,2298200,409
2015/03/20,407,421,405,419,9444600,419
2015/03/23,420,427,414,417,6944300,417
2015/03/24,414,421,414,420,3651600,420
2015/03/25,423,434,420,430,9504500,430
2015/03/26,430,438,424,430,9301900,430
2015/03/27,427,437,427,435,5637400,435
2015/03/30,443,452,438,448,11377300,448
2015/03/31,451,479,449,470,27629100,470
2015/04/01,473,476,449,464,13985200,464
2015/04/02,458,466,453,454,5985600,454
2015/04/03,448,453,438,439,5909600,439
2015/04/06,437,441,431,436,3935700,436
2015/04/07,440,444,437,440,3528900,440
2015/04/08,445,457,443,456,7396100,456
2015/04/09,432,438,427,437,20831600,437
2015/04/10,439,443,433,439,4776000,439
2015/04/13,442,445,438,444,2392200,444
2015/04/14,448,462,445,455,8562100,455
2015/04/15,457,461,450,457,4925100,457
2015/04/16,458,468,454,468,8497200,468
2015/04/17,468,469,454,455,4805400,455
2015/04/20,449,464,446,455,5569000,455
2015/04/21,459,463,457,462,2789900,462
2015/04/22,462,465,460,464,3655900,464
2015/04/23,464,468,460,463,3879500,463
2015/04/24,461,465,459,460,2925400,460
2015/04/27,455,459,454,455,2813000,455
2015/04/28,455,459,450,451,3014500,451
2015/04/30,481,507,474,492,70978300,492
2015/05/01,490,498,457,458,22130800,458
2015/05/07,466,478,459,475,9260800,475
2015/05/08,473,477,467,474,4194400,474
2015/05/11,480,488,477,481,8038200,481
2015/05/12,487,493,470,470,8257100,470
2015/05/13,470,481,467,479,5647800,479
2015/05/14,485,486,474,480,4776400,480
2015/05/15,480,480,472,475,2303500,475
2015/05/18,476,476,471,474,1640100,474
2015/05/19,474,474,463,466,5256500,466
2015/05/20,468,474,467,470,2912000,470
2015/05/21,476,480,468,473,4608900,473
2015/05/22,474,475,470,471,1775400,471
2015/05/25,470,470,462,463,3401700,463
2015/05/26,460,461,452,455,3610400,455
2015/05/27,451,456,450,451,4471200,451
2015/05/28,453,457,447,447,3066700,447
2015/05/29,451,457,448,457,6147300,457
2015/06/01,455,455,450,452,3154500,452
2015/06/02,457,464,453,457,4554800,457
2015/06/03,454,464,453,460,4713100,460
2015/06/04,488,494,477,487,31360300,487
2015/06/05,485,505,481,504,19699100,504
2015/06/08,495,509,480,483,24517400,483
2015/06/09,477,482,473,479,8807900,479
2015/06/10,485,487,466,470,9848200,470
2015/06/11,469,483,468,480,7919500,480
2015/06/12,477,478,470,472,5977000,472
2015/06/15,471,475,467,475,3740400,475
2015/06/16,473,475,469,473,3411600,473
2015/06/17,470,474,469,474,3172800,474
2015/06/18,474,479,470,476,4560900,476
2015/06/19,479,481,470,470,4483200,470
2015/06/22,474,488,473,482,9942900,482
2015/06/23,484,492,482,492,7416100,492
2015/06/24,492,504,488,500,18001800,500
2015/06/25,501,506,489,493,8305000,493
2015/06/26,490,491,481,485,4039900,485
2015/06/29,469,481,468,475,5735300,475
2015/06/30,474,477,471,476,3994000,476
2015/07/01,479,484,476,481,3299000,481
