2011/01/04,888,905,888,905,500,905
2011/01/05,907,925,894,925,900,925
2011/01/06,900,900,895,895,1500,895
2011/01/07,895,895,895,895,800,895
2011/01/11,905,905,895,900,1300,900
2011/01/12,897,906,897,906,1600,906
2011/01/13,900,915,900,915,1500,915
2011/01/14,910,924,910,924,1300,924
2011/01/17,923,924,915,924,1400,924
2011/01/18,933,933,924,924,900,924
2011/01/19,924,934,915,919,1400,919
2011/01/20,910,924,910,924,1400,924
2011/01/21,913,928,910,910,2200,910
2011/01/24,905,905,905,905,300,905
2011/01/25,905,915,905,915,400,915
2011/01/26,915,919,915,915,1700,915
2011/01/27,916,937,916,921,2300,921
2011/01/28,922,935,921,935,800,935
2011/01/31,930,930,878,930,5400,930
2011/02/01,903,924,903,924,1200,924
2011/02/02,927,927,909,924,1300,924
2011/02/04,907,908,905,905,1800,905
2011/02/07,905,915,900,915,2400,915
2011/02/08,915,915,884,884,1300,884
2011/02/09,899,899,869,888,1000,888
2011/02/10,900,915,900,915,1200,915
2011/02/14,917,932,914,920,3100,920
2011/02/15,930,930,911,911,700,911
2011/02/16,920,920,920,920,100,920
2011/02/17,930,930,930,930,1100,930
2011/02/18,925,925,921,925,700,925
2011/02/21,927,930,927,930,3200,930
2011/02/22,933,933,915,915,1600,915
2011/02/23,910,910,910,910,300,910
2011/02/25,915,919,915,919,200,919
2011/02/28,919,920,919,920,1700,920
2011/03/01,920,928,920,927,1000,927
2011/03/02,927,935,920,921,4500,921
2011/03/03,921,929,921,929,300,929
2011/03/04,929,938,929,938,600,938
2011/03/07,934,941,934,941,1200,941
2011/03/08,935,950,930,950,1300,950
2011/03/09,951,953,947,947,3100,947
2011/03/10,938,938,933,933,1000,933
2011/03/11,930,930,928,928,800,928
2011/03/14,860,860,835,850,4700,850
2011/03/15,850,850,749,805,3800,805
2011/03/16,775,820,775,810,1600,810
2011/03/17,780,829,780,829,2900,829
2011/03/18,805,859,805,850,1600,850
2011/03/22,885,890,851,873,2800,873
2011/03/23,880,885,873,885,1600,885
2011/03/24,879,910,879,910,2100,910
2011/03/25,910,910,880,910,2000,910
2011/03/28,910,910,886,900,2800,900
2011/03/29,811,830,804,816,1500,816
2011/03/30,822,850,822,850,1100,850
2011/04/01,818,818,818,818,200,818
2011/04/04,817,847,816,816,800,816
2011/04/05,819,820,810,820,1700,820
2011/04/06,810,810,810,810,400,810
2011/04/07,795,795,795,795,200,795
2011/04/08,780,789,770,789,700,789
2011/04/11,785,794,782,794,1100,794
2011/04/12,790,790,788,788,600,788
2011/04/13,790,790,790,790,500,790
2011/04/14,820,820,820,820,100,820
2011/04/15,805,805,805,805,100,805
2011/04/18,801,801,801,801,800,801
2011/04/19,801,801,800,800,1000,800
2011/04/20,791,791,791,791,500,791
2011/04/21,792,792,792,792,600,792
2011/04/22,792,792,792,792,400,792
2011/04/25,802,803,802,803,300,803
2011/04/26,818,818,818,818,300,818
2011/04/27,818,818,818,818,1300,818
2011/04/28,818,818,803,803,1700,803
2011/05/02,803,803,803,803,200,803
2011/05/06,810,810,803,804,1300,804
2011/05/09,810,810,804,804,700,804
2011/05/10,804,807,801,807,1300,807
2011/05/11,807,807,807,807,100,807
2011/05/12,810,810,800,800,400,800
2011/05/16,810,830,810,830,1400,830
2011/05/17,820,820,820,820,100,820
2011/05/19,830,830,830,830,300,830
2011/05/23,830,830,815,815,400,815
2011/05/24,792,807,792,807,1300,807
2011/05/25,807,807,807,807,3100,807
2011/05/26,820,820,818,818,300,818
2011/05/27,827,827,827,827,100,827
2011/05/30,829,831,829,831,400,831
2011/05/31,840,840,840,840,500,840
2011/06/01,840,840,840,840,1400,840
2011/06/03,816,824,816,824,1700,824
2011/06/06,825,825,816,816,300,816
2011/06/07,824,830,824,830,1400,830
2011/06/08,819,819,819,819,100,819
2011/06/09,830,834,830,834,600,834
2011/06/10,830,860,830,860,1100,860
2011/06/13,890,899,880,880,7800,880
2011/06/14,881,887,881,882,1400,882
2011/06/15,882,899,882,890,1000,890
2011/06/16,882,885,860,860,2300,860
2011/06/17,861,870,861,870,1500,870
2011/06/20,870,870,865,870,1000,870
2011/06/21,870,880,870,880,1900,880
2011/06/22,890,896,890,896,900,896
2011/06/24,885,898,861,867,4200,867
2011/06/27,880,890,880,890,200,890
2011/06/28,900,900,893,893,1100,893
2011/06/29,893,905,893,905,1600,905
2011/06/30,906,910,905,910,4000,910
2011/07/01,915,925,910,910,3800,910
2011/07/04,923,930,923,930,2100,930
2011/07/05,930,945,930,945,3000,945
2011/07/06,945,965,945,955,2000,955
2011/07/07,965,965,960,960,2400,960
2011/07/08,968,990,960,960,1900,960
2011/07/11,960,990,949,990,1900,990
2011/07/12,970,970,960,960,500,960
2011/07/13,940,975,940,975,700,975
2011/07/14,940,940,940,940,700,940
2011/07/15,975,975,940,940,700,940
2011/07/19,931,950,931,950,1300,950
2011/07/20,955,955,950,950,600,950
2011/07/21,930,930,930,930,1000,930
2011/07/22,940,979,940,979,1100,979
2011/07/25,979,990,979,990,1400,990
2011/07/26,990,990,990,990,7600,990
2011/07/27,976,976,967,967,500,967
2011/07/28,967,967,943,943,1100,943
2011/07/29,942,942,935,935,600,935
2011/08/01,937,985,937,985,1000,985
2011/08/02,942,942,939,939,1000,939
2011/08/03,939,939,936,936,700,936
2011/08/04,949,949,949,949,100,949
2011/08/05,937,937,900,900,2500,900
2011/08/08,901,902,888,900,1000,900
2011/08/09,900,900,900,900,5000,900
2011/08/10,945,945,945,945,100,945
2011/08/11,911,920,911,915,400,915
2011/08/12,915,915,915,915,200,915
2011/08/15,930,930,930,930,300,930
2011/08/16,900,900,900,900,500,900
2011/08/19,930,930,930,930,500,930
2011/08/22,891,891,891,891,300,891
2011/08/23,860,865,860,865,1000,865
2011/08/25,873,885,873,885,200,885
2011/08/26,886,886,886,886,200,886
2011/08/29,890,900,890,900,600,900
2011/08/30,905,916,905,916,300,916
2011/08/31,916,920,916,920,2200,920
2011/09/01,930,930,930,930,600,930
2011/09/02,910,910,910,910,100,910
2011/09/05,910,910,910,910,100,910
2011/09/06,900,900,900,900,300,900
2011/09/07,897,897,897,897,200,897
2011/09/08,882,882,882,882,500,882
2011/09/09,887,889,887,887,800,887
2011/09/12,887,889,865,872,900,872
2011/09/15,866,866,866,866,500,866
2011/09/16,863,870,863,870,900,870
2011/09/20,872,873,872,873,200,873
2011/09/21,873,873,871,871,1900,871
2011/09/22,871,871,871,871,100,871
2011/09/26,871,871,871,871,1300,871
2011/09/27,871,871,871,871,200,871
2011/09/28,871,871,868,868,1100,868
2011/09/29,868,868,868,868,300,868
2011/10/05,868,868,868,868,100,868
2011/10/07,854,854,854,854,500,854
2011/10/13,860,860,860,860,100,860
2011/10/14,871,871,870,870,200,870
2011/10/17,881,890,881,890,300,890
2011/10/18,889,889,877,885,600,885
2011/10/19,885,900,862,885,900,885
2011/10/24,885,890,885,890,300,890
2011/10/25,895,895,890,890,1500,890
2011/10/28,890,900,890,900,1700,900
2011/11/04,890,890,890,890,900,890
2011/11/07,893,893,890,890,500,890
2011/11/08,891,891,890,890,300,890
2011/11/09,890,890,890,890,2400,890
2011/11/10,890,900,851,865,1700,865
2011/11/11,880,885,880,885,600,885
2011/11/14,895,895,895,895,200,895
2011/11/15,888,898,888,898,300,898
2011/11/16,890,890,890,890,500,890
2011/11/17,860,878,860,878,3100,878
2011/11/18,856,860,855,860,1300,860
2011/11/22,860,860,860,860,100,860
2011/11/24,861,861,861,861,100,861
2011/11/25,861,862,861,862,500,862
2011/11/28,865,880,865,880,400,880
2011/11/29,880,880,866,866,1700,866
2011/11/30,877,877,877,877,100,877
2011/12/01,885,888,885,888,200,888
2011/12/02,880,880,871,871,400,871
2011/12/05,874,887,871,887,1200,887
2011/12/06,888,895,887,887,2200,887
2011/12/07,889,889,889,889,100,889
2011/12/08,890,890,890,890,200,890
2011/12/09,890,890,888,888,2900,888
2011/12/12,900,900,900,900,900,900
2011/12/13,910,913,910,910,1800,910
2011/12/14,902,902,902,902,200,902
2011/12/15,901,901,901,901,100,901
2011/12/16,902,902,902,902,200,902
2011/12/19,910,910,900,910,1700,910
2011/12/20,912,917,895,898,1500,898
2011/12/21,900,900,900,900,100,900
2011/12/22,910,910,900,902,900,902
2011/12/26,905,912,905,912,1400,912
2011/12/27,912,912,912,912,1400,912
2011/12/28,912,915,912,915,600,915
2011/12/29,924,924,924,924,100,924
2011/12/30,924,930,924,930,400,930
2012/01/04,950,950,919,919,2900,919
2012/01/05,913,935,913,935,800,935
2012/01/06,925,925,925,925,100,925
2012/01/10,940,940,930,930,300,930
2012/01/11,930,930,930,930,500,930
2012/01/12,920,930,920,930,500,930
2012/01/13,930,930,930,930,600,930
2012/01/16,921,970,921,925,5400,925
2012/01/17,925,925,925,925,900,925
2012/01/18,930,935,930,935,1800,935
2012/01/19,935,935,935,935,1600,935
2012/01/20,935,940,935,940,600,940
2012/01/23,950,950,950,950,200,950
2012/01/24,955,955,950,950,500,950
2012/01/25,951,959,951,959,500,959
2012/01/26,960,960,959,959,3500,959
2012/01/27,940,955,940,955,500,955
2012/01/30,960,960,950,950,3000,950
2012/01/31,951,970,951,970,1300,970
2012/02/01,952,960,950,950,2200,950
2012/02/02,940,942,940,942,1400,942
2012/02/03,943,950,943,950,400,950
2012/02/06,952,956,950,953,700,953
2012/02/07,957,958,957,958,300,958
2012/02/08,960,966,960,966,600,966
2012/02/09,980,985,973,973,2100,973
2012/02/10,973,988,973,980,1200,980
2012/02/13,980,980,980,980,800,980
2012/02/14,990,990,990,990,200,990
2012/02/15,989,997,988,988,2700,988
2012/02/16,988,988,985,985,1600,985
2012/02/17,995,1000,995,1000,1100,1000
2012/02/20,1000,1035,998,1035,5000,1035
2012/02/21,1045,1050,1040,1040,700,1040
2012/02/22,1015,1020,1015,1020,200,1020
2012/02/23,1060,1080,1050,1080,3500,1080
2012/02/24,1086,1086,1041,1050,2200,1050
2012/02/27,1059,1059,1056,1059,3000,1059
2012/02/28,1059,1085,1059,1065,1500,1065
2012/02/29,1070,1083,1070,1070,2900,1070
2012/03/01,1086,1086,1086,1086,800,1086
2012/03/02,1090,1090,1086,1086,2100,1086
2012/03/05,1086,1086,1050,1050,3500,1050
2012/03/06,1080,1100,1062,1062,4400,1062
2012/03/07,1032,1047,1015,1047,2600,1047
2012/03/08,1045,1050,1045,1050,300,1050
2012/03/09,1099,1100,1065,1071,3700,1071
2012/03/12,1077,1086,1077,1079,1700,1079
2012/03/13,1111,1120,1101,1101,3700,1101
2012/03/14,1120,1120,1100,1120,1700,1120
2012/03/15,1125,1127,1120,1121,2000,1121
2012/03/16,1139,1140,1106,1140,5600,1140
2012/03/19,1131,1170,1131,1170,3900,1170
2012/03/21,1160,1185,1160,1180,4200,1180
2012/03/22,1170,1200,1170,1190,5100,1190
2012/03/23,1180,1180,1151,1175,3600,1175
2012/03/26,1170,1174,1167,1174,4400,1174
2012/03/27,1170,1170,1140,1160,1200,1160
2012/03/28,1110,1110,1065,1080,4900,1080
2012/03/29,1066,1085,1055,1085,1200,1085
2012/03/30,1079,1079,1047,1047,1700,1047
2012/04/02,1027,1028,1023,1027,3000,1027
2012/04/03,1025,1025,1000,1005,2800,1005
2012/04/04,1000,1000,970,973,2200,973
2012/04/05,988,1005,988,1005,1900,1005
2012/04/06,1010,1020,995,995,400,995
2012/04/09,995,1000,995,1000,300,1000
2012/04/10,1000,1015,1000,1015,600,1015
2012/04/11,997,997,997,997,1500,997
2012/04/12,1027,1027,1001,1001,500,1001
2012/04/16,990,990,990,990,200,990
2012/04/18,1010,1010,985,991,500,991
2012/04/19,1018,1018,1001,1001,300,1001
2012/04/20,999,999,999,999,800,999
2012/04/23,1001,1001,1001,1001,400,1001
2012/04/24,1002,1002,1001,1001,300,1001
2012/04/25,1003,1003,1001,1001,300,1001
2012/04/26,1001,1001,991,991,1600,991
2012/05/01,1017,1017,1017,1017,100,1017
2012/05/02,1017,1017,1017,1017,800,1017
2012/05/07,1000,1000,992,992,400,992
2012/05/08,990,990,990,990,100,990
2012/05/09,991,991,991,991,500,991
2012/05/10,986,986,986,986,1200,986
2012/05/11,986,1000,986,1000,500,1000
2012/05/14,1000,1010,987,987,1800,987
2012/05/15,940,940,921,940,500,940
2012/05/16,940,940,930,930,800,930
2012/05/17,932,945,932,945,500,945
2012/05/21,924,924,924,924,200,924
2012/05/22,950,955,950,955,200,955
2012/05/23,958,958,958,958,100,958
2012/05/24,943,943,925,935,1000,935
2012/05/25,936,940,936,940,300,940
2012/05/28,940,940,940,940,1800,940
2012/05/30,951,951,940,940,1700,940
2012/06/01,945,945,930,930,1000,930
2012/06/04,925,925,897,897,1400,897
2012/06/05,933,933,933,933,100,933
2012/06/06,938,938,938,938,100,938
2012/06/07,935,935,935,935,100,935
2012/06/08,920,935,920,935,500,935
2012/06/11,937,937,912,925,1900,925
2012/06/12,925,925,925,925,100,925
2012/06/14,910,910,910,910,1600,910
2012/06/15,920,930,920,930,300,930
2012/06/18,950,1000,950,1000,1500,1000
2012/06/19,996,996,996,996,100,996
2012/06/21,980,980,980,980,200,980
2012/06/22,980,980,972,972,800,972
2012/06/25,975,989,975,989,300,989
2012/06/26,989,989,989,989,100,989
2012/06/27,990,1000,990,1000,1300,1000
2012/06/28,1020,1030,1020,1020,1000,1020
2012/06/29,1020,1030,1020,1030,1600,1030
2012/07/02,1040,1050,1040,1050,1400,1050
2012/07/03,1051,1075,1051,1060,2000,1060
2012/07/04,1061,1074,1060,1074,1900,1074
2012/07/05,1074,1074,1074,1074,9500,1074
2012/07/06,1031,1032,1031,1031,600,1031
2012/07/09,1031,1031,1029,1029,200,1029
2012/07/10,1040,1040,1040,1040,300,1040
2012/07/11,1040,1040,1040,1040,2400,1040
2012/07/12,1040,1040,1040,1040,400,1040
2012/07/17,1010,1010,1010,1010,200,1010
2012/07/23,1011,1011,1010,1010,400,1010
2012/07/24,1010,1010,1010,1010,100,1010
2012/07/25,1010,1010,990,990,1200,990
2012/07/26,1000,1000,1000,1000,500,1000
2012/07/30,1000,1000,1000,1000,600,1000
2012/07/31,1000,1000,1000,1000,200,1000
2012/08/02,1000,1000,981,981,900,981
2012/08/03,972,972,971,971,500,971
2012/08/06,1000,1000,1000,1000,100,1000
2012/08/07,990,990,950,968,2900,968
2012/08/08,975,975,945,945,1100,945
2012/08/09,954,954,954,954,300,954
2012/08/10,960,960,960,960,200,960
2012/08/13,953,953,953,953,200,953
2012/08/15,985,985,985,985,100,985
2012/08/16,975,985,975,985,500,985
2012/08/17,973,973,972,972,400,972
2012/08/21,980,980,950,950,5600,950
2012/08/22,953,953,953,953,1000,953
2012/08/23,965,965,965,965,100,965
2012/08/24,965,965,950,950,2800,950
2012/08/27,959,961,959,960,900,960
2012/08/28,961,972,961,969,1100,969
2012/08/29,969,969,969,969,1700,969
2012/08/30,970,970,963,970,1100,970
2012/08/31,967,979,963,979,700,979
2012/09/05,967,978,967,967,300,967
2012/09/10,964,965,964,965,500,965
2012/09/11,965,966,965,966,1300,966
2012/09/12,963,963,963,963,100,963
2012/09/13,966,966,966,966,100,966
2012/09/14,966,966,961,963,500,963
2012/09/18,975,985,971,985,600,985
2012/09/19,985,985,985,985,200,985
2012/09/20,1000,1000,986,986,400,986
2012/09/21,992,992,992,992,100,992
2012/09/24,991,1055,990,1040,2200,1040
2012/09/25,1040,1045,1040,1045,1700,1045
2012/09/26,973,999,973,990,2700,990
2012/09/27,981,997,981,997,1500,997
2012/09/28,997,997,997,997,1500,997
2012/10/01,1000,1000,1000,1000,300,1000
2012/10/02,1000,1017,1000,1017,800,1017
2012/10/03,1025,1025,1025,1025,1000,1025
2012/10/04,1011,1011,1010,1010,400,1010
2012/10/09,1016,1030,1016,1030,300,1030
2012/10/10,1018,1018,1018,1018,500,1018
2012/10/11,1005,1005,1005,1005,100,1005
2012/10/12,1020,1025,1020,1025,200,1025
2012/10/15,1002,1002,1002,1002,300,1002
2012/10/17,1020,1020,1020,1020,200,1020
2012/10/18,1020,1020,1020,1020,100,1020
2012/10/19,1006,1006,1006,1006,100,1006
2012/10/24,1033,1035,1020,1020,1100,1020
2012/10/25,1045,1045,1030,1030,500,1030
2012/10/26,1055,1060,1035,1035,2700,1035
2012/10/29,1036,1036,1036,1036,500,1036
2012/10/30,1085,1085,1085,1085,1300,1085
2012/10/31,1100,1100,1066,1066,3300,1066
2012/11/01,1070,1070,1065,1065,800,1065
2012/11/02,1057,1068,1057,1068,1500,1068
2012/11/05,1068,1068,1046,1046,2200,1046
2012/11/07,1046,1046,1041,1041,300,1041
2012/11/08,1030,1064,1027,1064,1000,1064
2012/11/12,1030,1030,1030,1030,500,1030
2012/11/13,1026,1026,1022,1022,300,1022
2012/11/15,1049,1049,1049,1049,100,1049
2012/11/16,1049,1052,1049,1050,700,1050
2012/11/19,1065,1065,1050,1064,500,1064
2012/11/20,1034,1034,1026,1026,700,1026
2012/11/21,1026,1026,1026,1026,200,1026
2012/11/22,1048,1048,1048,1048,100,1048
2012/11/26,1048,1059,1048,1048,900,1048
2012/11/28,1049,1049,1048,1048,900,1048
2012/11/29,1051,1051,1048,1048,2800,1048
2012/11/30,1048,1048,1048,1048,200,1048
2012/12/03,1057,1057,1057,1057,100,1057
2012/12/04,1051,1051,1038,1038,1300,1038
2012/12/05,1038,1040,1037,1037,1500,1037
2012/12/06,1040,1047,1040,1047,500,1047
2012/12/07,1040,1040,1040,1040,100,1040
2012/12/10,1058,1058,1058,1058,400,1058
2012/12/11,1077,1077,1070,1070,900,1070
2012/12/12,1071,1076,1070,1075,1700,1075
2012/12/13,1075,1090,1056,1058,3900,1058
2012/12/14,1052,1090,1052,1089,500,1089
2012/12/17,1089,1090,1057,1060,2500,1060
2012/12/19,1060,1086,1060,1086,500,1086
2012/12/20,1084,1084,1067,1072,800,1072
2012/12/21,1080,1080,1068,1079,1100,1079
2012/12/25,1085,1090,1081,1081,1500,1081
2012/12/27,1086,1123,1086,1090,3300,1090
2012/12/28,1098,1110,1098,1110,2400,1110
2013/01/04,1120,1150,1120,1125,1800,1125
2013/01/07,1160,1180,1130,1178,4100,1178
2013/01/08,1155,1156,1150,1155,4900,1155
2013/01/09,1148,1160,1140,1160,1300,1160
2013/01/10,1160,1169,1160,1169,1700,1169
2013/01/11,1178,1178,1160,1161,1100,1161
2013/01/15,1162,1165,1155,1165,3400,1165
2013/01/16,1165,1174,1165,1171,600,1171
2013/01/17,1170,1180,1154,1157,18100,1157
2013/01/18,1179,1179,1171,1178,2100,1178
2013/01/21,1166,1178,1166,1178,3400,1178
2013/01/22,1175,1179,1175,1175,1700,1175
2013/01/23,1176,1179,1176,1179,300,1179
2013/01/24,1178,1179,1178,1179,500,1179
2013/01/25,1181,1200,1181,1200,2100,1200
2013/01/28,1210,1239,1210,1239,2200,1239
2013/01/29,1250,1365,1250,1290,6000,1290
2013/01/30,1347,1347,1293,1302,3900,1302
2013/01/31,1305,1305,1258,1300,7300,1300
2013/02/01,1290,1330,1274,1290,2500,1290
2013/02/04,1300,1338,1286,1320,3300,1320
2013/02/05,1310,1310,1299,1299,600,1299
2013/02/06,1310,1360,1300,1360,3400,1360
2013/02/07,1350,1350,1306,1340,4500,1340
2013/02/08,1320,1329,1300,1300,3900,1300
2013/02/12,1293,1320,1292,1301,1200,1301
2013/02/13,1271,1271,1260,1270,3000,1270
2013/02/14,1270,1270,1270,1270,500,1270
2013/02/15,1263,1263,1250,1250,2600,1250
2013/02/18,1250,1270,1250,1270,3700,1270
2013/02/19,1274,1275,1237,1265,2300,1265
2013/02/20,1275,1290,1255,1289,2200,1289
2013/02/21,1270,1320,1270,1299,3700,1299
2013/02/22,1300,1300,1300,1300,1600,1300
2013/02/25,1300,1318,1282,1318,3700,1318
2013/02/26,1318,1318,1290,1318,3200,1318
2013/02/27,1340,1348,1315,1315,2200,1315
2013/02/28,1315,1344,1315,1334,6400,1334
2013/03/01,1330,1339,1305,1331,4700,1331
2013/03/04,1343,1360,1342,1360,3800,1360
2013/03/05,1365,1370,1365,1365,1300,1365
2013/03/06,1360,1360,1321,1358,3600,1358
2013/03/07,1358,1358,1350,1351,1400,1351
2013/03/08,1351,1351,1295,1313,17300,1313
2013/03/11,1313,1339,1313,1313,5200,1313
2013/03/12,1329,1334,1320,1330,1300,1330
2013/03/13,1309,1325,1303,1310,1800,1310
2013/03/14,1330,1330,1313,1320,2000,1320
2013/03/15,1320,1330,1320,1324,900,1324
2013/03/18,1328,1328,1320,1327,3300,1327
2013/03/19,1334,1350,1321,1325,3800,1325
2013/03/21,1323,1350,1323,1350,6200,1350
2013/03/22,1350,1350,1323,1330,3400,1330
2013/03/25,1335,1375,1335,1345,2300,1345
2013/03/26,1345,1365,1341,1341,3500,1341
2013/03/27,1250,1300,1250,1282,5600,1282
2013/03/28,1282,1290,1280,1280,2600,1280
2013/03/29,1275,1275,1236,1236,3000,1236
2013/04/01,1238,1250,1150,1171,6200,1171
2013/04/02,1147,1190,1134,1166,5600,1166
2013/04/03,1196,1200,1171,1188,2800,1188
2013/04/04,1200,1234,1188,1234,2800,1234
2013/04/05,1268,1268,1242,1242,3700,1242
2013/04/08,1235,1235,1220,1235,2100,1235
2013/04/09,1235,1235,1143,1200,3500,1200
2013/04/10,1210,1250,1210,1235,2200,1235
2013/04/11,1230,1230,1211,1225,3000,1225
2013/04/12,1223,1230,1212,1223,3200,1223
2013/04/15,1200,1219,1200,1214,4300,1214
2013/04/16,1182,1205,1175,1200,4000,1200
2013/04/17,1218,1225,1202,1225,2200,1225
2013/04/18,1228,1228,1204,1228,2900,1228
2013/04/19,1228,1265,1225,1265,1500,1265
2013/04/22,1299,1300,1257,1263,7400,1263
2013/04/23,1268,1275,1265,1265,2300,1265
2013/04/24,1285,1285,1266,1266,2700,1266
2013/04/25,1275,1282,1266,1266,1600,1266
2013/04/26,1293,1293,1282,1282,4700,1282
2013/04/30,1282,1293,1282,1285,6900,1285
2013/05/01,1293,1299,1270,1295,7100,1295
2013/05/02,1280,1300,1280,1290,1500,1290
2013/05/07,1295,1305,1293,1298,5800,1298
2013/05/08,1305,1322,1303,1315,9500,1315
2013/05/09,1350,1420,1325,1350,17000,1350
2013/05/10,1379,1420,1375,1400,8800,1400
2013/05/13,1640,1700,1550,1700,54900,1700
2013/05/14,1630,1650,1601,1607,28300,1607
2013/05/15,1645,1650,1502,1549,21000,1549
2013/05/16,1515,1560,1505,1530,11700,1530
2013/05/17,1530,1595,1530,1571,3000,1571
2013/05/20,1595,1645,1594,1640,13800,1640
2013/05/21,1640,1644,1630,1633,5800,1633
2013/05/22,1640,1640,1620,1620,2800,1620
2013/05/23,1632,1632,1531,1531,10100,1531
2013/05/24,1505,1531,1505,1531,5500,1531
2013/05/27,1550,1550,1431,1491,5000,1491
2013/05/28,1491,1520,1491,1518,2100,1518
2013/05/29,1525,1550,1510,1527,3800,1527
2013/05/30,1527,1530,1500,1500,2800,1500
2013/05/31,1503,1515,1495,1501,4200,1501
2013/06/03,1502,1669,1502,1669,22300,1669
2013/06/04,1610,1640,1540,1640,12500,1640
2013/06/05,1639,1639,1581,1583,1200,1583
2013/06/06,1591,1597,1570,1570,5600,1570
2013/06/07,1481,1481,1350,1392,10000,1392
2013/06/10,1496,1500,1450,1485,6300,1485
2013/06/11,1520,1520,1420,1433,6600,1433
2013/06/12,1395,1465,1395,1425,1800,1425
2013/06/13,1406,1460,1400,1460,2300,1460
2013/06/14,1500,1500,1465,1485,2500,1485
2013/06/17,1500,1565,1500,1551,2900,1551
2013/06/18,1585,1630,1580,1582,6400,1582
2013/06/19,1619,1619,1580,1580,5700,1580
2013/06/20,1579,1599,1570,1599,800,1599
2013/06/21,1565,1578,1540,1575,4700,1575
2013/06/24,1565,1565,1511,1511,6000,1511
2013/06/25,1512,1519,1498,1519,3500,1519
2013/06/26,1510,1530,1470,1470,1900,1470
2013/06/27,1470,1470,1400,1410,5900,1410
2013/06/28,1435,1475,1435,1475,7100,1475
2013/07/01,1475,1550,1475,1550,4500,1550
2013/07/02,1556,1580,1556,1565,3000,1565
2013/07/03,1576,1576,1558,1558,3700,1558
2013/07/04,1558,1568,1549,1568,1400,1568
2013/07/05,1576,1610,1576,1600,4600,1600
2013/07/08,1620,1685,1620,1650,13200,1650
2013/07/09,1670,1688,1620,1686,11200,1686
2013/07/10,1685,1685,1641,1641,1200,1641
2013/07/11,1641,1641,1626,1626,700,1626
2013/07/12,1656,1656,1641,1642,500,1642
2013/07/16,1642,1686,1627,1681,1800,1681
2013/07/17,1683,1683,1669,1683,1900,1683
2013/07/18,1685,1685,1651,1685,7100,1685
2013/07/19,1686,1686,1610,1612,3000,1612
2013/07/22,1640,1640,1609,1609,2300,1609
2013/07/23,1612,1612,1611,1611,1300,1611
2013/07/24,1630,1630,1611,1611,700,1611
2013/07/25,1630,1640,1617,1626,2300,1626
2013/07/26,1639,1639,1626,1626,5600,1626
2013/07/29,1632,1632,1612,1612,2700,1612
2013/07/30,1610,1615,1605,1610,1200,1610
2013/07/31,1556,1560,1430,1490,4800,1490
2013/08/01,1440,1500,1440,1500,2100,1500
2013/08/02,1540,1540,1500,1504,1000,1504
2013/08/05,1515,1540,1515,1530,400,1530
2013/08/06,1530,1530,1530,1530,100,1530
2013/08/07,1500,1515,1492,1510,5700,1510
2013/08/08,1565,1565,1530,1545,900,1545
2013/08/09,1518,1530,1518,1520,700,1520
2013/08/12,1520,1520,1485,1485,600,1485
2013/08/13,1505,1515,1505,1505,700,1505
2013/08/14,1510,1510,1510,1510,300,1510
2013/08/15,1505,1510,1500,1510,1900,1510
2013/08/16,1510,1510,1500,1500,400,1500
2013/08/19,1500,1500,1480,1500,1400,1500
2013/08/20,1500,1500,1480,1480,800,1480
2013/08/21,1470,1470,1425,1441,5400,1441
2013/08/22,1441,1441,1400,1417,3100,1417
2013/08/23,1477,1477,1400,1400,1400,1400
2013/08/26,1415,1420,1400,1420,1400,1420
2013/08/27,1420,1444,1420,1444,1600,1444
2013/08/28,1440,1440,1400,1410,2400,1410
2013/08/29,1440,1464,1400,1464,2700,1464
2013/08/30,1459,1459,1459,1459,100,1459
2013/09/02,1462,1463,1462,1463,400,1463
2013/09/03,1451,1451,1451,1451,200,1451
2013/09/04,1469,1470,1451,1451,1400,1451
2013/09/05,1479,1500,1434,1434,1800,1434
2013/09/06,1430,1430,1420,1430,400,1430
2013/09/09,1430,1430,1402,1402,1600,1402
2013/09/10,1410,1421,1410,1421,300,1421
2013/09/11,1451,1451,1423,1423,500,1423
2013/09/12,1430,1430,1425,1425,900,1425
2013/09/13,1448,1490,1448,1490,800,1490
2013/09/17,1500,1550,1500,1550,2700,1550
2013/09/18,1570,1595,1570,1594,5000,1594
2013/09/19,1596,1610,1573,1599,7100,1599
2013/09/20,1599,1599,1590,1590,6200,1590
2013/09/24,1635,1635,1551,1551,2300,1551
2013/09/25,1571,1572,1571,1571,600,1571
2013/09/26,1571,1571,1571,1571,400,1571
2013/09/27,1576,1576,1576,1576,100,1576
2013/09/30,1576,1595,1576,1578,4300,1578
2013/10/01,1578,1578,1551,1552,1000,1552
2013/10/02,1543,1545,1530,1540,2900,1540
2013/10/03,1530,1530,1530,1530,100,1530
2013/10/07,1505,1511,1450,1450,3700,1450
2013/10/08,1450,1452,1450,1452,700,1452
2013/10/09,1451,1456,1451,1455,1200,1455
2013/10/10,1479,1520,1479,1500,2400,1500
2013/10/11,1520,1550,1520,1540,7600,1540
2013/10/15,1560,1615,1560,1590,6100,1590
2013/10/16,1575,1590,1564,1564,1700,1564
2013/10/17,1590,1600,1550,1561,3200,1561
2013/10/18,1561,1615,1561,1576,5600,1576
2013/10/21,1586,1632,1586,1630,8800,1630
2013/10/22,1625,1631,1620,1620,3200,1620
2013/10/23,1600,1610,1563,1563,10700,1563
2013/10/24,1570,1600,1570,1583,700,1583
2013/10/25,1583,1583,1580,1580,1700,1580
2013/10/28,1585,1720,1585,1715,21300,1715
2013/10/29,1690,1740,1660,1720,15400,1720
2013/10/30,1700,1700,1600,1609,13500,1609
2013/10/31,1649,1680,1610,1610,5800,1610
2013/11/01,1585,1609,1501,1565,11600,1565
2013/11/05,1503,1549,1503,1519,3800,1519
2013/11/06,1530,1560,1530,1550,2600,1550
2013/11/07,1530,1550,1530,1550,3900,1550
2013/11/08,1530,1547,1491,1505,11900,1505
2013/11/11,1520,1530,1461,1484,6100,1484
2013/11/12,1501,1573,1499,1525,3200,1525
2013/11/13,1530,1533,1500,1505,2000,1505
2013/11/14,1506,1530,1495,1506,4000,1506
2013/11/15,1506,1524,1506,1524,2000,1524
2013/11/18,1533,1565,1530,1559,9200,1559
2013/11/19,1559,1559,1540,1540,600,1540
2013/11/20,1535,1560,1524,1550,4400,1550
2013/11/21,1550,1550,1545,1547,1000,1547
2013/11/22,1550,1580,1550,1569,5400,1569
2013/11/25,1569,1600,1569,1588,8300,1588
2013/11/26,1601,1640,1592,1640,6700,1640
2013/11/27,1661,1684,1600,1600,19200,1600
2013/11/28,1630,1630,1605,1610,4100,1610
2013/11/29,1620,1629,1592,1605,10200,1605
2013/12/02,1618,1638,1618,1638,800,1638
2013/12/03,1645,1686,1645,1679,11700,1679
2013/12/04,1665,1670,1650,1660,12600,1660
2013/12/05,1690,1690,1640,1640,3400,1640
2013/12/06,1631,1649,1625,1649,900,1649
2013/12/09,1649,1670,1649,1664,6000,1664
2013/12/10,1630,1701,1630,1661,15000,1661
2013/12/11,1633,1641,1633,1635,1800,1635
2013/12/12,1635,1645,1630,1644,1300,1644
2013/12/13,1643,1645,1630,1636,900,1636
2013/12/16,1632,1660,1632,1632,4200,1632
2013/12/17,1620,1620,1555,1580,4100,1580
2013/12/18,1596,1625,1595,1625,6500,1625
2013/12/19,1629,1629,1600,1601,2700,1601
2013/12/20,1620,1620,1593,1595,2200,1595
2013/12/24,1595,1610,1590,1608,6900,1608
2013/12/25,1608,1640,1580,1615,8800,1615
2013/12/26,1638,1662,1624,1637,6700,1637
2013/12/27,1635,1660,1630,1650,2700,1650
2013/12/30,1650,1670,1646,1660,5900,1660
2014/01/06,1670,1820,1665,1820,19900,1820
2014/01/07,1820,1820,1765,1815,7400,1815
2014/01/08,1849,1885,1822,1849,4600,1849
2014/01/09,1845,1870,1820,1829,3700,1829
2014/01/10,1791,1858,1780,1858,3600,1858
2014/01/14,1850,1950,1850,1950,19300,1950
2014/01/15,1995,2000,1920,1920,7400,1920
2014/01/16,1910,2180,1910,2180,20800,2180
2014/01/17,2180,2180,2055,2118,5100,2118
2014/01/20,2228,2300,2151,2190,15000,2190
2014/01/21,2197,2197,2101,2190,7800,2190
2014/01/22,2102,2159,2061,2148,8700,2148
2014/01/23,2098,2099,2038,2038,3200,2038
2014/01/24,1948,2000,1946,1980,3700,1980
2014/01/27,1905,1910,1880,1910,5400,1910
2014/01/28,1910,1970,1910,1965,1900,1965
2014/01/29,1999,2010,1975,1979,3800,1979
2014/01/30,1920,1923,1898,1898,900,1898
2014/01/31,1894,1910,1853,1853,2800,1853
2014/02/03,1852,1852,1750,1752,3600,1752
2014/02/04,1700,1700,1599,1649,12000,1649
2014/02/05,1690,1690,1605,1645,4000,1645
2014/02/06,1658,1694,1650,1694,2700,1694
2014/02/07,1734,1780,1695,1750,4500,1750
2014/02/10,1790,1798,1770,1774,2200,1774
2014/02/12,1800,1819,1776,1819,1900,1819
2014/02/13,1820,1820,1750,1750,3900,1750
2014/02/14,1750,1788,1705,1729,5800,1729
2014/02/17,1765,1765,1721,1725,700,1725
2014/02/18,1720,1745,1706,1745,700,1745
2014/02/19,1780,1780,1750,1750,1200,1750
2014/02/20,1757,1757,1745,1745,400,1745
2014/02/21,1745,1745,1710,1729,1700,1729
2014/02/24,1750,1760,1735,1750,800,1750
2014/02/25,1772,1774,1772,1773,400,1773
2014/02/26,1773,1800,1773,1784,1900,1784
2014/02/27,1784,1784,1770,1771,4100,1771
2014/02/28,1771,1771,1750,1770,2300,1770
2014/03/03,1740,1740,1711,1731,1100,1731
2014/03/04,1770,1799,1719,1730,1200,1730
2014/03/05,1760,1760,1754,1755,300,1755
2014/03/06,1737,1756,1737,1755,1800,1755
2014/03/07,1770,1770,1740,1740,200,1740
2014/03/10,1734,1740,1734,1735,900,1735
2014/03/11,1769,1769,1738,1738,200,1738
2014/03/12,1738,1738,1738,1738,200,1738
2014/03/13,1740,1740,1738,1738,400,1738
2014/03/14,1730,1730,1662,1691,2600,1691
2014/03/17,1691,1748,1660,1714,3800,1714
2014/03/18,1794,1794,1724,1730,1100,1730
2014/03/19,1733,1733,1731,1731,200,1731
2014/03/20,1731,1731,1691,1691,1200,1691
2014/03/24,1691,1714,1691,1714,800,1714
2014/03/25,1725,1770,1725,1751,1500,1751
2014/03/26,1751,1752,1751,1751,1200,1751
2014/03/27,1661,1671,1601,1670,4400,1670
2014/03/28,1696,1720,1670,1681,14500,1681
2014/03/31,1700,1700,1700,1700,100,1700
2014/04/01,1681,1704,1681,1704,2500,1704
2014/04/02,1710,1745,1710,1745,1100,1745
2014/04/03,1740,1740,1720,1720,300,1720
2014/04/08,1715,1715,1715,1715,300,1715
2014/04/09,1699,1699,1647,1650,1500,1650
2014/04/10,1661,1700,1661,1663,1300,1663
2014/04/11,1620,1630,1610,1630,800,1630
2014/04/14,1616,1640,1616,1624,1700,1624
2014/04/15,1627,1629,1615,1615,600,1615
2014/04/16,1655,1655,1604,1650,1000,1650
2014/04/17,1650,1660,1610,1610,700,1610
2014/04/18,1650,1650,1620,1620,300,1620
2014/04/21,1620,1620,1603,1620,1300,1620
2014/04/22,1612,1612,1608,1608,1800,1608
2014/04/24,1606,1610,1606,1610,400,1610
2014/04/25,1610,1649,1610,1623,11800,1623
2014/04/28,1623,1624,1608,1608,1900,1608
2014/04/30,1608,1608,1606,1607,600,1607
2014/05/01,1605,1605,1605,1605,400,1605
2014/05/02,1602,1602,1602,1602,300,1602
2014/05/07,1601,1602,1601,1602,300,1602
2014/05/08,1602,1620,1602,1602,700,1602
2014/05/09,1620,1626,1619,1625,2200,1625
2014/05/12,1643,1643,1626,1626,2100,1626
2014/05/13,1632,1636,1626,1627,900,1627
2014/05/14,1664,1664,1625,1625,500,1625
2014/05/15,1621,1621,1575,1599,4300,1599
2014/05/16,1571,1571,1560,1560,1600,1560
2014/05/19,1560,1562,1550,1560,6400,1560
2014/05/20,1560,1560,1560,1560,400,1560
2014/05/21,1560,1560,1560,1560,200,1560
2014/05/22,1579,1579,1570,1575,13900,1575
2014/05/23,1575,1579,1575,1579,1300,1579
2014/05/26,1579,1615,1579,1615,2400,1615
2014/05/27,1613,1613,1599,1613,1200,1613
2014/05/28,1613,1613,1613,1613,500,1613
2014/05/29,1605,1605,1604,1604,1500,1604
2014/05/30,1609,1625,1575,1600,2000,1600
2014/06/02,1600,1620,1600,1605,2500,1605
2014/06/03,1620,1620,1619,1619,500,1619
2014/06/04,1620,1622,1610,1620,1500,1620
2014/06/05,1620,1628,1620,1626,900,1626
2014/06/06,1626,1626,1626,1626,100,1626
2014/06/09,1627,1660,1626,1659,2600,1659
2014/06/10,1650,1650,1631,1635,2300,1635
2014/06/11,1620,1634,1620,1634,900,1634
2014/06/12,1659,1659,1659,1659,400,1659
2014/06/13,1645,1669,1645,1669,3200,1669
2014/06/16,1692,1746,1692,1708,7300,1708
2014/06/17,1700,1760,1700,1715,3200,1715
2014/06/18,1745,1759,1745,1745,1100,1745
2014/06/19,1780,1978,1760,1960,29800,1960
2014/06/20,1950,1950,1850,1851,5500,1851
2014/06/23,1891,1891,1801,1801,2600,1801
2014/06/24,1801,1870,1801,1851,4600,1851
2014/06/25,1850,1850,1850,1850,600,1850
2014/06/26,1850,1850,1818,1818,500,1818
2014/06/27,1813,1813,1752,1762,2500,1762
2014/06/30,1762,1788,1762,1788,900,1788
2014/07/01,1800,1838,1800,1835,1300,1835
2014/07/02,1835,1835,1780,1780,10300,1780
2014/07/03,1780,1780,1772,1772,200,1772
2014/07/04,1800,1805,1774,1780,1700,1780
2014/07/07,1800,1800,1760,1760,1000,1760
2014/07/08,1755,1800,1755,1790,1300,1790
2014/07/09,1757,1757,1755,1755,14300,1755
2014/07/10,1762,1765,1762,1765,400,1765
2014/07/11,1765,1765,1743,1744,1500,1744
2014/07/14,1743,1743,1741,1743,800,1743
2014/07/15,1759,1765,1739,1739,3200,1739
2014/07/16,1760,1760,1751,1751,300,1751
2014/07/17,1770,1770,1760,1760,800,1760
2014/07/18,1760,1770,1750,1750,600,1750
2014/07/22,1752,1781,1750,1781,1900,1781
2014/07/23,1795,1830,1795,1829,9700,1829
2014/07/24,1825,1830,1820,1830,1300,1830
2014/07/25,1830,1837,1825,1837,2800,1837
2014/07/28,1837,1850,1802,1810,2100,1810
2014/07/29,1810,1870,1810,1870,3000,1870
2014/07/30,1860,1870,1842,1870,1700,1870
2014/07/31,1900,1935,1871,1880,16100,1880
2014/08/01,1852,1852,1850,1850,2000,1850
2014/08/04,1822,1826,1822,1826,900,1826
2014/08/05,1847,1850,1825,1850,1900,1850
2014/08/06,1827,1830,1801,1801,3600,1801
2014/08/07,1805,1805,1805,1805,100,1805
2014/08/08,1805,1805,1798,1799,9500,1799
2014/08/11,1798,1798,1750,1778,2500,1778
2014/08/13,1778,1780,1778,1780,200,1780
2014/08/15,1891,1891,1891,1891,1000,1891
2014/08/18,1815,1840,1815,1840,600,1840
2014/08/22,1840,1840,1830,1834,9100,1834
2014/08/25,1834,1836,1834,1834,700,1834
2014/08/26,1824,1824,1824,1824,400,1824
2014/08/27,1824,1824,1824,1824,400,1824
2014/08/28,1850,1850,1824,1828,1400,1828
2014/08/29,1832,1832,1828,1829,500,1829
2014/09/01,1830,1900,1830,1853,800,1853
2014/09/02,1873,1873,1853,1853,400,1853
2014/09/03,1865,1878,1865,1878,1800,1878
2014/09/04,1842,1842,1842,1842,200,1842
2014/09/05,1850,1851,1850,1850,700,1850
2014/09/08,1848,1848,1830,1835,9600,1835
2014/09/09,1832,1840,1831,1840,400,1840
2014/09/10,1865,1865,1831,1831,300,1831
2014/09/11,1816,1816,1816,1816,600,1816
2014/09/12,1856,1865,1856,1860,1600,1860
2014/09/16,1880,1918,1880,1918,2800,1918
2014/09/17,1990,1999,1927,1948,5400,1948
2014/09/18,1948,1948,1948,1948,800,1948
2014/09/19,1948,1948,1941,1944,700,1944
2014/09/22,1940,1950,1940,1950,10200,1950
2014/09/24,1912,1940,1912,1939,600,1939
2014/09/25,1940,1941,1899,1899,1100,1899
2014/09/26,1880,1899,1880,1899,300,1899
2014/09/29,1925,1925,1899,1900,1500,1900
2014/09/30,1901,1901,1901,1901,200,1901
2014/10/01,1901,1901,1900,1900,600,1900
2014/10/02,1900,1900,1885,1885,900,1885
2014/10/03,1880,1880,1860,1861,1400,1861
2014/10/06,1865,1865,1865,1865,100,1865
2014/10/07,1861,1861,1861,1861,100,1861
2014/10/08,1861,1861,1860,1860,9400,1860
2014/10/09,1856,1879,1856,1870,1100,1870
2014/10/10,1845,1845,1825,1825,3700,1825
2014/10/14,1800,1819,1800,1810,1200,1810
2014/10/15,1811,1811,1810,1810,200,1810
2014/10/16,1801,1802,1785,1788,12200,1788
2014/10/17,1790,1790,1788,1788,700,1788
2014/10/20,1800,1800,1800,1800,400,1800
2014/10/21,1803,1856,1803,1810,1700,1810
2014/10/22,1830,1830,1805,1805,800,1805
2014/10/23,1810,1810,1810,1810,500,1810
2014/10/24,1830,1848,1822,1831,500,1831
2014/10/27,1858,1882,1843,1843,2400,1843
2014/10/28,1843,1843,1843,1843,1000,1843
2014/10/29,1827,1827,1827,1827,200,1827
2014/10/30,1829,1829,1829,1829,900,1829
2014/10/31,1850,1941,1842,1941,5800,1941
2014/11/04,1950,1950,1940,1940,3700,1940
2014/11/05,1900,1900,1874,1876,5700,1876
2014/11/06,1876,1901,1876,1876,3000,1876
2014/11/07,1900,1900,1860,1860,10200,1860
2014/11/10,1860,1890,1860,1890,1100,1890
2014/11/11,1890,1890,1852,1852,400,1852
2014/11/12,1861,1868,1861,1868,1100,1868
2014/11/13,1888,1888,1888,1888,200,1888
2014/11/14,1886,1886,1880,1882,10200,1882
2014/11/17,1882,1883,1865,1865,1700,1865
2014/11/18,1865,1865,1853,1853,1100,1853
2014/11/19,1828,1840,1828,1835,800,1835
2014/11/20,1850,1850,1850,1850,1100,1850
2014/11/25,1870,1870,1870,1870,300,1870
2014/11/26,1873,1876,1873,1875,500,1875
2014/11/27,1886,1890,1885,1889,1800,1889
2014/11/28,1889,1900,1889,1889,1300,1889
2014/12/01,1895,1899,1894,1894,1700,1894
2014/12/02,1894,1894,1879,1880,2500,1880
2014/12/03,1844,1870,1840,1858,8400,1858
2014/12/04,1855,1865,1840,1865,1400,1865
2014/12/05,1865,1893,1865,1893,14000,1893
2014/12/08,1900,1901,1892,1892,4000,1892
2014/12/09,1890,1890,1868,1868,1400,1868
2014/12/10,1868,1869,1852,1852,2500,1852
2014/12/11,1855,1855,1855,1855,500,1855
2014/12/12,1866,1866,1864,1866,11000,1866
2014/12/15,1873,1875,1870,1875,1000,1875
2014/12/16,1893,1893,1871,1871,400,1871
2014/12/17,1870,1870,1866,1866,800,1866
2014/12/18,1870,1870,1870,1870,300,1870
2014/12/19,1880,1883,1853,1882,4000,1882
2014/12/22,1881,1925,1881,1916,4200,1916
2014/12/24,1965,1965,1922,1935,1100,1935
2014/12/25,1935,1960,1935,1960,2200,1960
2014/12/26,1960,1960,1957,1960,700,1960
2014/12/29,1960,2000,1960,1998,3100,1998
2014/12/30,2055,2055,2039,2039,900,2039
2015/01/05,2039,2049,1999,2049,29600,2049
2015/01/06,2038,2038,2005,2008,1700,2008
2015/01/07,2000,2000,1990,1990,1900,1990
2015/01/08,2010,2020,2000,2011,1700,2011
2015/01/09,2011,2011,2011,2011,200,2011
2015/01/13,1980,1980,1980,1980,400,1980
2015/01/14,1950,1980,1950,1950,1700,1950
2015/01/15,1950,1950,1950,1950,200,1950
2015/01/16,1931,1931,1910,1910,1500,1910
2015/01/19,1908,1908,1908,1908,500,1908
2015/01/20,1900,1901,1900,1901,1100,1901
2015/01/21,1905,1920,1905,1910,700,1910
2015/01/22,1915,1915,1915,1915,100,1915
2015/01/23,1950,1950,1925,1930,600,1930
2015/01/26,1950,1950,1950,1950,300,1950
2015/01/27,1956,1985,1956,1985,2200,1985
2015/01/28,1984,1984,1955,1955,1700,1955
2015/01/29,1980,2045,1980,2000,15000,2000
2015/01/30,2020,2040,2010,2018,2300,2018
2015/02/02,2000,2000,1990,1990,800,1990
2015/02/03,1999,1999,1915,1915,4500,1915
2015/02/04,1931,1940,1931,1940,800,1940
2015/02/05,2020,2020,2019,2019,14600,2019
2015/02/06,2000,2000,1980,1980,1300,1980
2015/02/09,1980,1980,1975,1980,1300,1980
2015/02/10,1985,1985,1975,1981,800,1981
2015/02/12,1985,1986,1985,1986,300,1986
2015/02/13,2005,2005,2005,2005,100,2005
2015/02/16,2011,2011,2005,2005,1300,2005
2015/02/17,2005,2010,2000,2005,800,2005
2015/02/18,1980,1995,1980,1995,400,1995
2015/02/19,1996,2000,1996,2000,200,2000
2015/02/20,2020,2020,2000,2005,800,2005
2015/02/23,2018,2029,2000,2000,1300,2000
2015/02/24,2000,2015,2000,2009,1500,2009
2015/02/25,2020,2045,2020,2045,1100,2045
2015/02/26,2045,2083,2045,2080,4200,2080
2015/02/27,2100,2105,2100,2104,16100,2104
2015/03/02,2108,2112,2108,2112,2500,2112
2015/03/03,2112,2113,2090,2111,2800,2111
2015/03/04,2090,2100,2070,2071,1000,2071
2015/03/05,2070,2100,2065,2100,3100,2100
2015/03/06,2110,2110,2110,2110,100,2110
2015/03/09,2080,2102,2075,2100,900,2100
2015/03/10,2085,2093,2083,2083,1400,2083
2015/03/11,2046,2080,2046,2070,600,2070
2015/03/12,2020,2070,2010,2069,10600,2069
2015/03/13,2075,2090,2075,2090,1800,2090
2015/03/16,2140,2185,2126,2141,7700,2141
2015/03/17,2200,2250,2185,2248,3400,2248
2015/03/18,2248,2248,2190,2190,2900,2190
2015/03/19,2190,2190,2151,2189,1300,2189
2015/03/20,2180,2181,2180,2181,200,2181
2015/03/23,2183,2268,2183,2219,3700,2219
2015/03/24,2250,2250,2121,2153,4000,2153
2015/03/25,2153,2160,2153,2154,1000,2154
2015/03/26,2154,2154,2122,2122,2000,2122
2015/03/27,2100,2149,2050,2099,8200,2099
2015/03/30,2049,2073,2049,2073,1600,2073
2015/03/31,2123,2123,2076,2076,800,2076
2015/04/01,2051,2051,2042,2042,500,2042
2015/04/02,2040,2059,2026,2059,1700,2059
2015/04/03,2093,2099,2055,2096,800,2096
2015/04/06,2070,2079,2065,2079,900,2079
2015/04/07,2084,2110,2084,2090,700,2090
2015/04/08,2100,2109,2075,2109,3100,2109
2015/04/09,2109,2145,2109,2139,1100,2139
2015/04/10,2146,2150,2093,2100,2400,2100
2015/04/13,2105,2110,2103,2103,1400,2103
2015/04/14,2088,2100,2088,2100,200,2100
2015/04/15,2100,2143,2100,2130,1100,2130
2015/04/16,2120,2142,2120,2130,3400,2130
2015/04/17,2140,2168,2140,2165,3500,2165
2015/04/20,2164,2164,2125,2125,1300,2125
2015/04/21,2150,2152,2150,2152,1000,2152
2015/04/22,2155,2185,2155,2185,2000,2185
2015/04/23,2150,2150,2135,2135,800,2135
2015/04/24,2140,2140,2126,2126,2500,2126
2015/04/27,2127,2140,2126,2126,8000,2126
2015/04/28,2126,2164,2126,2164,300,2164
2015/04/30,2164,2172,2114,2114,1000,2114
2015/05/01,2114,2114,2071,2071,1200,2071
2015/05/07,2170,2170,2070,2100,1400,2100
2015/05/08,2100,2100,2100,2100,700,2100
2015/05/11,2130,2158,2130,2158,2300,2158
2015/05/12,2279,2332,2265,2290,26100,2290
2015/05/13,2277,2290,2255,2290,4700,2290
2015/05/14,2289,2289,2252,2263,1500,2263
2015/05/15,2290,2290,2251,2265,2200,2265
2015/05/18,2340,2427,2340,2427,21600,2427
2015/05/19,2548,2650,2441,2547,25800,2547
2015/05/20,2558,2558,2475,2506,7200,2506
2015/05/21,2491,2504,2415,2441,5200,2441
2015/05/22,2442,2481,2419,2480,1000,2480
2015/05/25,2501,2501,2480,2499,4500,2499
2015/05/26,2505,2505,2425,2425,6200,2425
2015/05/27,2393,2400,2350,2389,8900,2389
2015/05/28,2400,2460,2392,2453,5100,2453
2015/05/29,2457,2502,2457,2466,2100,2466
2015/06/01,2466,2550,2466,2500,7900,2500
2015/06/02,2550,2565,2481,2481,5000,2481
2015/06/03,2458,2524,2458,2524,1500,2524
2015/06/04,2524,2597,2493,2520,7200,2520
2015/06/05,2493,2493,2486,2486,400,2486
2015/06/08,2492,2543,2491,2499,1700,2499
2015/06/09,2499,2499,2470,2470,1600,2470
2015/06/10,2470,2480,2440,2440,3600,2440
2015/06/11,2448,2458,2426,2440,3700,2440
2015/06/12,2440,2449,2429,2431,1700,2431
2015/06/15,2477,2538,2438,2529,5600,2529
2015/06/16,2548,2552,2541,2552,2100,2552
2015/06/17,2552,2552,2520,2530,600,2530
2015/06/18,2500,2500,2480,2485,3700,2485
2015/06/19,2489,2560,2463,2541,6100,2541
2015/06/22,2516,2629,2516,2593,2800,2593
2015/06/23,2660,2753,2660,2753,10900,2753
2015/06/24,2850,2899,2773,2815,12500,2815
2015/06/25,2765,2813,2761,2761,8600,2761
2015/06/26,2737,2737,2685,2705,3400,2705
2015/06/29,2655,2705,2605,2705,7000,2705
2015/06/30,2705,2735,2705,2733,1200,2733
2015/07/01,2737,2800,2737,2756,4200,2756
