2011/01/04,125000,132700,124100,130000,175,1300
2011/01/05,127500,132400,125000,126100,137,1261
2011/01/06,128500,129800,126000,126000,50,1260
2011/01/07,124800,125000,120000,125000,64,1250
2011/01/11,128000,129700,125100,125400,70,1254
2011/01/12,125600,126000,121100,123000,49,1230
2011/01/13,125900,131100,124100,130100,145,1301
2011/01/14,128000,131000,125000,126000,85,1260
2011/01/17,125200,128000,124100,126100,76,1261
2011/01/18,127800,127800,120000,121900,105,1219
2011/01/19,121300,123000,121000,121400,46,1214
2011/01/20,121100,121100,113300,114000,143,1140
2011/01/21,112700,112700,105500,108000,143,1080
2011/01/24,106900,108100,100000,106400,77,1064
2011/01/25,106500,114000,106500,112900,45,1129
2011/01/26,112900,115300,112500,115300,37,1153
2011/01/27,112600,116900,112600,114900,44,1149
2011/01/28,114800,114800,108500,113800,55,1138
2011/01/31,109300,109300,104800,106500,74,1065
2011/02/01,107100,108800,106800,108800,14,1088
2011/02/02,109800,109900,107200,109600,15,1096
2011/02/03,107100,109000,107000,108000,16,1080
2011/02/04,108000,109000,106000,109000,35,1090
2011/02/07,109000,113800,107000,107200,61,1072
2011/02/08,110000,110000,108000,108900,23,1089
2011/02/09,109300,112800,106000,106300,67,1063
2011/02/10,106300,110000,104000,104500,65,1045
2011/02/14,105200,106900,104000,106400,113,1064
2011/02/15,105300,107500,104600,106500,26,1065
2011/02/16,104300,105000,104100,104200,25,1042
2011/02/17,104200,105000,104000,105000,20,1050
2011/02/18,105000,105000,103500,103500,50,1035
2011/02/21,104000,114700,103600,111900,117,1119
2011/02/22,114200,118000,110000,112000,154,1120
2011/02/23,108000,113900,105300,111500,108,1115
2011/02/24,111000,111000,107000,107500,37,1075
2011/02/25,109900,111000,107000,110000,35,1100
2011/02/28,113000,118200,112800,117100,128,1171
2011/03/01,119900,126900,118100,124800,296,1248
2011/03/02,122300,124500,118900,120900,156,1209
2011/03/03,123900,128000,121200,124000,124,1240
2011/03/04,126000,127000,122400,124000,76,1240
2011/03/07,124000,124000,114000,115000,103,1150
2011/03/08,115000,118000,113700,114000,42,1140
2011/03/09,117000,119500,115000,117700,105,1177
2011/03/10,117100,117200,112000,115800,73,1158
2011/03/11,112800,118000,110100,116500,61,1165
2011/03/14,86500,90000,86500,86800,356,868
2011/03/15,71800,73400,71800,71800,154,718
2011/03/16,66800,77000,66000,69200,553,692
2011/03/17,67200,75900,67200,74500,124,745
2011/03/18,75600,82600,75600,81000,167,810
2011/03/22,87000,89700,82900,88000,202,880
2011/03/23,87200,87900,84100,84100,132,841
2011/03/24,84000,84000,81500,82200,27,822
2011/03/25,82600,83500,79000,79000,36,790
2011/03/28,78000,78100,75000,75000,59,750
2011/03/29,76000,81000,75500,81000,35,810
2011/03/30,82000,87000,82000,87000,58,870
2011/03/31,85500,87000,85200,85200,26,852
2011/04/01,84200,85400,84000,85400,20,854
2011/04/04,84100,85800,83800,85800,15,858
2011/04/05,83800,83800,82300,82300,28,823
2011/04/06,82300,82500,78000,81500,25,815
2011/04/07,80000,82300,79100,82300,10,823
2011/04/08,79300,82300,79300,82300,14,823
2011/04/11,83200,83200,80500,82900,18,829
2011/04/12,82000,82000,80100,80200,10,802
2011/04/13,81700,82500,81700,82500,3,825
2011/04/14,81900,81900,80900,80900,2,809
2011/04/15,80900,81500,80800,81500,15,815
2011/04/18,81800,81800,80800,80900,9,809
2011/04/19,80000,80400,79000,80200,10,802
2011/04/20,80900,82200,80900,82200,10,822
2011/04/21,82300,82500,81500,82500,21,825
2011/04/22,81500,81500,81200,81200,7,812
2011/04/25,80700,80700,78600,80000,16,800
2011/04/26,79200,79500,78700,79400,14,794
2011/04/27,79600,82500,79600,82500,29,825
2011/04/28,84000,85000,82500,83000,36,830
2011/05/02,84500,90000,83100,90000,70,900
2011/05/06,85500,87000,85000,86000,38,860
2011/05/09,86000,86800,86000,86000,5,860
2011/05/10,85900,85900,84600,84600,12,846
2011/05/11,84700,88000,84700,88000,22,880
2011/05/12,87000,87000,86000,87000,5,870
2011/05/13,84100,84100,80600,82900,57,829
2011/05/16,80200,80200,79000,79000,26,790
2011/05/17,79000,79000,78100,79000,9,790
2011/05/18,80500,81000,79800,81000,21,810
2011/05/19,81000,81000,80000,80000,5,800
2011/05/20,83000,83000,82000,82000,2,820
2011/05/23,79000,79000,77000,77000,19,770
2011/05/24,76000,79300,76000,78900,5,789
2011/05/25,76500,78500,76500,77900,24,779
2011/05/26,78000,80500,78000,78900,34,789
2011/05/27,81900,81900,79700,79700,13,797
2011/05/30,78200,79700,78100,79700,5,797
2011/05/31,79900,80000,79000,79200,11,792
2011/06/01,79200,83000,79200,83000,22,830
2011/06/02,81500,82900,80100,80200,23,802
2011/06/03,81700,81700,79500,79600,15,796
2011/06/06,79600,80600,79600,80600,17,806
2011/06/07,79100,79500,77200,77200,22,772
2011/06/08,77200,78000,75000,77200,74,772
2011/06/09,75700,78000,75700,76100,21,761
2011/06/10,76200,76200,75100,75900,32,759
2011/06/13,75300,75800,74000,74000,18,740
2011/06/14,75000,77600,75000,76600,12,766
2011/06/15,78100,79700,77500,78500,32,785
2011/06/16,77000,77600,75100,77600,18,776
2011/06/17,77000,79000,76100,76100,21,761
2011/06/20,76400,79000,76000,76000,28,760
2011/06/21,75300,76800,74700,75000,28,750
2011/06/22,75100,77000,75100,75500,13,755
2011/06/23,76000,76000,75300,75300,5,753
2011/06/24,76300,77000,75800,77000,38,770
2011/06/27,76000,79000,74000,79000,23,790
2011/06/28,77500,80500,77500,78600,30,786
2011/06/29,78700,78700,78000,78000,13,780
2011/06/30,79500,82900,79500,82000,46,820
2011/07/01,83000,83000,78000,80300,26,803
2011/07/04,80500,81800,79800,81800,29,818
2011/07/05,81900,82000,79000,80600,13,806
2011/07/07,80900,80900,79100,80000,15,800
2011/07/08,78500,79900,75000,78000,123,780
2011/07/11,78000,78000,75300,77000,55,770
2011/07/12,77100,78000,77000,77000,41,770
2011/07/13,76500,78900,75500,78900,44,789
2011/07/14,78800,79300,77000,77000,28,770
2011/07/15,76400,77500,76400,77500,5,775
2011/07/19,77500,77500,75000,75200,41,752
2011/07/20,76700,77500,76000,77000,28,770
2011/07/21,78500,78500,77000,77000,21,770
2011/07/22,76400,76400,74300,74300,105,743
2011/07/25,75700,75700,73800,75000,39,750
2011/07/26,73600,75000,73600,74500,21,745
2011/07/27,73900,73900,73700,73800,3,738
2011/07/28,73600,73900,71700,71700,43,717
2011/07/29,71700,72400,70300,72200,29,722
2011/08/01,71100,73800,71100,72200,15,722
2011/08/02,72100,72100,70400,70400,33,704
2011/08/03,70500,70500,69500,70000,20,700
2011/08/04,69700,71200,69700,71200,17,712
2011/08/05,68800,69000,66100,68000,66,680
2011/08/08,70000,72900,68000,68000,40,680
2011/08/09,65000,66900,62400,65900,85,659
2011/08/10,67100,69000,67100,68500,31,685
2011/08/11,65500,67000,65500,66300,32,663
2011/08/12,67100,67200,65500,65900,15,659
2011/08/15,66400,66900,65700,66200,10,662
2011/08/16,67200,72400,67200,68400,44,684
2011/08/17,68400,68900,66300,68900,19,689
2011/08/18,68500,68500,68300,68300,18,683
2011/08/19,68000,69700,67000,68100,20,681
2011/08/22,68000,68000,65000,68000,27,680
2011/08/23,66600,66700,65100,66600,19,666
2011/08/24,66400,66800,66100,66100,10,661
2011/08/25,66100,67100,66100,67100,4,671
2011/08/26,65300,66600,65200,65300,25,653
2011/08/29,65900,65900,64800,65800,6,658
2011/08/30,66300,66300,65100,65100,10,651
2011/08/31,65600,66200,65500,65600,11,656
2011/09/01,66600,66600,66000,66000,4,660
2011/09/02,65100,67700,64800,67700,21,677
2011/09/05,66700,66700,66500,66700,6,667
2011/09/06,67000,68000,66500,66500,43,665
2011/09/07,65500,65700,65100,65500,10,655
2011/09/08,66500,66500,65800,65800,3,658
2011/09/09,65500,66500,64000,64000,20,640
2011/09/12,63200,63400,63200,63400,9,634
2011/09/13,63400,63500,63000,63000,13,630
2011/09/14,63000,63100,62000,62000,20,620
2011/09/15,62000,62000,61500,62000,12,620
2011/09/16,62500,62500,61600,62500,5,625
2011/09/20,61500,62000,60000,60100,28,601
2011/09/21,60800,60800,57000,60000,45,600
2011/09/22,58000,58000,56700,56700,18,567
2011/09/26,57000,57000,50000,50000,19,500
2011/09/27,50800,51000,49000,50000,17,500
2011/09/28,49100,51400,49100,49100,49,491
2011/09/29,48400,49000,46900,49000,49,490
2011/10/03,49250,51000,49000,51000,22,510
2011/10/04,50000,53500,49000,53500,36,535
2011/10/05,54500,58000,50700,50700,46,507
2011/10/06,50900,52100,50900,51000,5,510
2011/10/07,51500,54500,51500,54500,11,545
2011/10/11,55000,57400,55000,57400,11,574
2011/10/12,56400,56400,55500,56400,9,564
2011/10/13,57800,57800,56800,57800,3,578
2011/10/14,56800,56800,56000,56000,2,560
2011/10/17,56100,58000,55300,57100,21,571
2011/10/18,55500,56900,55300,55900,7,559
2011/10/19,56000,56500,55500,56400,20,564
2011/10/20,56000,57000,53800,54000,19,540
2011/10/21,53000,53100,51100,52800,23,528
2011/10/24,51800,52000,51800,51800,6,518
2011/10/25,52500,52500,51600,51600,7,516
2011/10/26,51100,51200,50500,50600,10,506
2011/10/27,51900,52000,51300,51300,8,513
2011/10/28,52000,54000,50700,51100,28,511
2011/10/31,50800,51100,50300,50400,26,504
2011/11/01,50100,50100,49100,49500,13,495
2011/11/02,50000,50400,49000,49600,15,496
2011/11/04,50000,50000,50000,50000,8,500
2011/11/07,50000,50000,49950,50000,5,500
2011/11/08,50100,58000,50000,52000,57,520
2011/11/09,52500,62000,52500,62000,95,620
2011/11/10,64000,72000,61000,66000,729,660
2011/11/11,67000,69400,60600,63800,156,638
2011/11/14,64000,64800,60000,61100,74,611
2011/11/15,60100,62700,60000,60400,25,604
2011/11/16,59800,60900,57800,60900,39,609
2011/11/17,58900,58900,58000,58700,29,587
2011/11/18,58900,58900,57700,58000,11,580
2011/11/21,56100,57000,56100,56200,20,562
2011/11/22,53200,56300,53200,56200,10,562
2011/11/24,54200,54200,52500,52600,24,526
2011/11/25,51600,55000,51600,54600,36,546
2011/11/28,55000,55000,53700,54600,25,546
2011/11/29,55600,60700,55600,58800,38,588
2011/11/30,57300,57600,56200,57200,13,572
2011/12/01,58300,58500,57000,57000,24,570
2011/12/02,57000,58000,57000,58000,4,580
2011/12/05,59700,59700,56500,59000,20,590
2011/12/06,59600,60000,57000,57100,32,571
2011/12/07,57100,58800,57100,58800,19,588
2011/12/08,58800,58800,57000,57400,22,574
2011/12/09,57400,58400,57400,58000,11,580
2011/12/12,61000,68000,61000,68000,111,680
2011/12/13,67700,75000,67000,69500,305,695
2011/12/14,69500,69500,66000,69400,88,694
2011/12/15,68700,69700,65000,67000,67,670
2011/12/16,66400,67900,61800,61800,39,618
2011/12/19,62200,64000,61400,61400,21,614
2011/12/20,60500,62500,60500,62500,11,625
2011/12/21,64500,64500,60800,60800,22,608
2011/12/22,60800,60800,60400,60400,11,604
2011/12/26,60800,62000,60400,60800,67,608
2011/12/27,60500,60500,60000,60100,14,601
2011/12/28,61100,61900,60100,61900,14,619
2011/12/29,60600,61000,60600,60700,4,607
2011/12/30,61000,65500,61000,65500,20,655
2012/01/04,67400,69000,65000,65000,59,650
2012/01/05,65200,65200,64500,64500,5,645
2012/01/06,64700,65000,64500,64500,9,645
2012/01/10,63000,63100,61800,61800,23,618
2012/01/11,62100,64500,62100,63500,28,635
2012/01/12,63000,63600,62600,62900,15,629
2012/01/13,62900,63600,61800,63600,14,636
2012/01/16,62600,63000,62200,63000,10,630
2012/01/17,64000,68000,63900,64100,34,641
2012/01/18,64100,65000,62900,62900,20,629
2012/01/19,63500,63500,61900,62500,26,625
2012/01/20,61900,64500,61900,64500,27,645
2012/01/23,64900,64900,64500,64600,11,646
2012/01/24,65000,65000,63000,63900,27,639
2012/01/25,64000,65400,64000,64800,10,648
2012/01/26,63800,66000,63800,65000,13,650
2012/01/27,65000,65000,62900,64400,38,644
2012/01/30,63200,64500,63000,63000,24,630
2012/01/31,63000,64500,62200,64500,33,645
2012/02/01,63500,74500,63500,70400,283,704
2012/02/02,70000,70900,69500,70900,34,709
2012/02/03,71000,74500,71000,72500,60,725
2012/02/06,73500,75000,72800,73000,38,730
2012/02/07,73100,75000,72500,73000,46,730
2012/02/08,73100,75000,65100,68800,88,688
2012/02/09,67100,67100,64800,67000,71,670
2012/02/10,65100,66900,63500,64900,62,649
2012/02/13,65000,65000,63600,64900,12,649
2012/02/14,63600,64900,63600,64900,33,649
2012/02/15,64200,65100,64000,64000,23,640
2012/02/16,64500,64500,64100,64100,6,641
2012/02/17,64100,66100,64100,64300,19,643
2012/02/20,64000,64000,62600,63000,42,630
2012/02/21,62800,63500,62800,63000,12,630
2012/02/22,63100,68300,63100,67900,79,679
2012/02/23,68900,68900,68400,68400,9,684
2012/02/24,67900,67900,65900,65900,3,659
2012/02/27,66100,70000,66100,68000,37,680
2012/02/28,66000,67000,65000,66500,40,665
2012/02/29,66900,67000,65500,65500,14,655
2012/03/01,65400,65400,64000,64000,16,640
2012/03/02,64000,65500,63800,65500,13,655
2012/03/05,67000,67000,67000,67000,3,670
2012/03/06,66100,66100,66100,66100,1,661
2012/03/07,67000,67500,66600,66900,14,669
2012/03/08,68000,68000,68000,68000,3,680
2012/03/09,68000,68000,66500,66600,15,666
2012/03/12,65600,66500,65500,66500,3,665
2012/03/13,66500,67300,66500,66500,14,665
2012/03/14,65700,66400,64000,66400,30,664
2012/03/15,65400,66500,65000,66400,18,664
2012/03/16,66700,66700,66700,66700,2,667
2012/03/19,66900,66900,65100,65100,7,651
2012/03/21,65300,65400,64500,64800,13,648
2012/03/22,65600,67500,64900,67500,32,675
2012/03/23,67400,67400,65600,67100,10,671
2012/03/26,66500,67300,66500,67200,9,672
2012/03/27,65200,65500,65000,65000,10,650
2012/03/28,65000,65100,64300,64300,8,643
2012/03/29,64500,64600,64300,64300,11,643
2012/03/30,64300,66400,64300,66400,6,664
2012/04/02,66900,66900,64900,65000,28,650
2012/04/03,65200,65800,64200,65800,34,658
2012/04/04,66200,66400,64200,64200,9,642
2012/04/05,64200,64300,64200,64300,9,643
2012/04/06,64800,65400,64800,65400,3,654
2012/04/09,64800,64800,64400,64400,3,644
2012/04/10,64200,64300,64200,64300,11,643
2012/04/11,63000,63200,61500,61800,30,618
2012/04/12,61800,61800,61500,61500,6,615
2012/04/13,61500,61900,61200,61400,21,614
2012/04/16,61100,63000,61100,63000,81,630
2012/04/17,62100,62100,61600,61600,11,616
2012/04/18,62000,63500,62000,63500,10,635
2012/04/19,63500,65000,63500,64500,9,645
2012/04/20,64500,65000,63000,63900,7,639
2012/04/23,64500,64500,63400,64500,5,645
2012/04/24,64000,64000,64000,64000,1,640
2012/04/25,62900,63000,62100,63000,6,630
2012/04/26,63000,63000,62900,63000,28,630
2012/04/27,63000,63000,63000,63000,6,630
2012/05/01,62500,64000,62200,62900,20,629
2012/05/02,63900,64000,63000,63000,4,630
2012/05/07,63200,63200,61500,61500,26,615
2012/05/08,61000,63000,60500,61000,15,610
2012/05/09,61000,61000,59100,60000,46,600
2012/05/10,58000,58800,58000,58800,7,588
2012/05/11,59000,60000,58000,60000,28,600
2012/05/14,57500,57500,57000,57000,38,570
2012/05/15,57000,57000,51000,55000,69,550
2012/05/16,56000,65000,56000,65000,73,650
2012/05/17,70600,72000,63000,65000,221,650
2012/05/18,65900,65900,61000,63800,28,638
2012/05/21,61100,62900,61100,62200,8,622
2012/05/22,63200,63200,60200,61500,13,615
2012/05/23,60600,60600,58100,58100,30,581
2012/05/24,58200,61500,58200,61500,12,615
2012/05/25,62000,62000,62000,62000,12,620
2012/05/28,60500,60500,59000,59000,14,590
2012/05/29,61000,69000,61000,65800,176,658
2012/05/30,65800,65800,64000,65200,43,652
2012/05/31,63700,64200,63700,63800,4,638
2012/06/01,64000,64000,62600,62600,9,626
2012/06/04,60200,60500,56500,59500,91,595
2012/06/05,59400,60000,58200,60000,10,600
2012/06/06,61200,63500,61200,63500,17,635
2012/06/07,62500,64000,62500,64000,5,640
2012/06/08,62500,63500,61800,63500,4,635
2012/06/11,64500,65000,64500,64800,24,648
2012/06/12,63300,65000,63000,65000,25,650
2012/06/13,64000,72500,64000,65500,134,655
2012/06/14,63500,65100,63500,65100,8,651
2012/06/15,67000,67600,65600,67100,23,671
2012/06/18,70100,70100,67100,70000,34,700
2012/06/19,70000,70000,67300,67300,18,673
2012/06/20,68300,69300,67000,67000,12,670
2012/06/21,68000,68000,66500,66500,20,665
2012/06/22,64600,66000,63600,64500,45,645
2012/06/25,65900,68000,65900,67500,23,675
2012/06/26,65500,66500,65300,65500,6,655
2012/06/27,66000,66500,65700,66000,11,660
2012/06/28,66100,68200,66100,68200,17,682
2012/06/29,68000,69000,68000,68000,8,680
2012/07/02,68000,69000,68000,69000,6,690
2012/07/03,69000,69400,68300,68400,10,684
2012/07/04,68400,68400,67500,67500,9,675
2012/07/05,67000,67500,66500,67500,6,675
2012/07/06,67000,67200,65000,65000,41,650
2012/07/09,65500,67000,65500,65500,9,655
2012/07/10,65300,65300,65000,65000,4,650
2012/07/11,64000,64000,63800,63900,9,639
2012/07/13,65900,65900,65000,65000,6,650
2012/07/17,67000,67000,67000,67000,1,670
2012/07/18,65000,65000,65000,65000,1,650
2012/07/19,63500,64800,63500,64800,11,648
2012/07/20,63800,63800,63500,63500,3,635
2012/07/23,62500,62500,62500,62500,1,625
2012/07/24,64500,67000,62700,62900,18,629
2012/07/25,62600,62600,60000,60000,28,600
2012/07/26,59500,59800,58600,59600,15,596
2012/07/27,59500,59500,59500,59500,1,595
2012/07/30,61100,61100,58400,58400,11,584
2012/07/31,58000,60000,56000,60000,28,600
2012/08/01,58100,58100,56000,56500,43,565
2012/08/02,57000,59000,57000,59000,8,590
2012/08/03,58000,61600,56200,61600,30,616
2012/08/06,61200,61800,60100,60100,5,601
2012/08/07,60000,67000,59000,63100,53,631
2012/08/08,66400,66400,64100,64200,22,642
2012/08/09,63200,63200,61600,62600,17,626
2012/08/10,64900,64900,62800,62800,4,628
2012/08/13,63800,64500,63800,64500,5,645
2012/08/14,64700,64700,64700,64700,2,647
2012/08/15,66000,66300,65000,65000,15,650
2012/08/16,64400,66300,64400,66300,26,663
2012/08/17,68300,68300,67000,67500,81,675
2012/08/20,67000,69500,67000,68000,25,680
2012/08/21,67900,67900,66500,66500,6,665
2012/08/22,66500,67000,63200,63200,18,632
2012/08/23,64200,64200,64200,64200,3,642
2012/08/27,64000,64300,63900,64100,6,641
2012/08/28,63500,63500,63500,63500,4,635
2012/08/29,63500,66500,63500,66500,6,665
2012/08/30,64200,64200,63800,63800,14,638
2012/08/31,63500,63500,62200,62300,28,623
2012/09/03,62300,62300,61100,61100,24,611
2012/09/04,62900,63000,61600,61700,76,617
2012/09/05,62700,62700,61100,61100,20,611
2012/09/06,59900,60600,59900,60600,85,606
2012/09/07,61000,61500,60200,61500,10,615
2012/09/10,60500,63000,60500,61100,18,611
2012/09/11,61200,61500,61100,61500,18,615
2012/09/12,61100,61100,60900,61000,10,610
2012/09/13,61100,61100,60600,60600,20,606
2012/09/14,60700,61000,60700,60800,8,608
2012/09/18,60600,60600,59500,59500,24,595
2012/09/19,60300,62000,60300,62000,40,620
2012/09/20,61000,61000,60000,60000,11,600
2012/09/21,59700,59700,59700,59700,2,597
2012/09/24,59700,61500,59700,61500,2,615
2012/09/25,61000,61000,60000,60000,11,600
2012/09/26,61200,63800,61200,62500,20,625
2012/09/27,60900,61000,60800,60900,10,609
2012/09/28,60000,60900,60000,60900,15,609
2012/10/01,60000,60000,59800,59800,7,598
2012/10/02,60100,60100,59000,59100,22,591
2012/10/03,59100,59400,59100,59200,9,592
2012/10/04,59200,60200,59200,60200,6,602
2012/10/05,60200,61000,60200,61000,4,610
2012/10/09,61000,61900,61000,61900,15,619
2012/10/10,60100,61500,59000,61500,41,615
2012/10/11,61500,61500,60100,61500,10,615
2012/10/12,61000,61000,60000,60000,22,600
2012/10/15,60000,60700,59900,60700,3,607
2012/10/16,60000,60800,59800,60000,30,600
2012/10/17,60800,63000,60800,63000,34,630
2012/10/18,65000,65100,63300,63300,133,633
2012/10/19,64000,65000,64000,65000,25,650
2012/10/22,64000,65900,62500,64500,21,645
2012/10/23,65500,65500,64000,64000,47,640
2012/10/24,65000,72000,65000,67800,164,678
2012/10/25,66800,71100,66100,71100,91,711
2012/10/26,72000,72000,69100,70800,60,708
2012/10/29,70800,71000,68800,70000,54,700
2012/10/30,71000,73000,71000,72600,113,726
2012/10/31,72600,87600,72600,87600,335,876
2012/11/01,85900,92000,81500,85600,502,856
2012/11/02,84100,84100,76000,78300,453,783
2012/11/05,77500,82500,76100,80500,183,805
2012/11/06,80500,86600,79100,86400,270,864
2012/11/07,86000,86200,78700,80700,224,807
2012/11/08,79900,79900,73400,74200,132,742
2012/11/09,73000,73300,69300,73300,142,733
2012/11/12,71800,71800,66200,66200,114,662
2012/11/13,66500,69400,66500,67200,79,672
2012/11/14,66200,66400,64500,65400,71,654
2012/11/15,65000,68500,62600,68000,42,680
2012/11/16,68000,68800,67000,67100,31,671
2012/11/19,67100,68000,66600,68000,35,680
2012/11/20,69300,75200,68000,72800,156,728
2012/11/21,70800,71800,70000,70100,34,701
2012/11/22,71500,75000,70000,71500,54,715
2012/11/26,72100,72100,71000,72000,43,720
2012/11/27,70100,72800,70100,72000,23,720
2012/11/28,73000,73000,71000,71500,9,715
2012/11/29,71600,73000,71000,72000,29,720
2012/11/30,70800,73000,70800,72000,9,720
2012/12/03,72000,73000,71000,73000,20,730
2012/12/04,73500,74000,71500,72300,59,723
2012/12/05,72400,73000,72000,73000,14,730
2012/12/06,73000,73500,72300,73000,23,730
2012/12/07,73800,74000,73500,73900,19,739
2012/12/10,73800,74000,70000,71500,40,715
2012/12/11,71000,71600,70000,70900,44,709
2012/12/12,71500,73000,70200,71000,41,710
2012/12/13,71000,72500,71000,72000,39,720
2012/12/14,72300,79500,72300,79200,182,792
2012/12/17,80700,86500,77000,78000,224,780
2012/12/18,79500,79500,75100,79000,64,790
2012/12/19,79700,82500,79700,80500,94,805
2012/12/20,81400,81400,76700,76700,65,767
2012/12/21,78000,79500,76100,76300,33,763
2012/12/25,77000,81400,77000,80100,205,801
2012/12/26,81000,81800,78000,80000,67,800
2012/12/27,80000,80000,76300,78900,56,789
2012/12/28,80200,80400,76500,77000,58,770
2013/01/04,77500,84000,77500,82500,107,825
2013/01/07,82600,82600,80000,81200,59,812
2013/01/08,81300,83000,81300,81400,57,814
2013/01/09,81400,82000,80600,80800,24,808
2013/01/10,80100,81500,80000,81500,42,815
2013/01/11,82000,82000,80700,81800,40,818
2013/01/15,82500,91700,82500,91000,276,910
2013/01/16,92100,92200,86000,89500,145,895
2013/01/17,88000,91000,85200,91000,131,910
2013/01/18,91000,91200,88100,90000,81,900
2013/01/21,93000,105000,93000,105000,300,1050
2013/01/22,114000,134700,105000,117700,1596,1177
2013/01/23,117700,123000,110500,116000,382,1160
2013/01/24,113000,131400,108000,117500,519,1175
2013/01/25,129000,129000,115000,119000,282,1190
2013/01/28,123300,123300,112800,113700,268,1137
2013/01/29,112200,119600,112100,113000,178,1130
2013/01/30,112600,118000,111500,117000,140,1170
2013/01/31,118000,129000,115900,125900,392,1259
2013/02/01,130500,130500,120500,121300,285,1213
2013/02/04,122000,123900,108000,120000,203,1200
2013/02/05,112500,117000,110100,113000,166,1130
2013/02/06,115000,118000,113000,117200,100,1172
2013/02/07,117200,126900,111100,111700,314,1117
2013/02/08,110000,117500,106000,106500,225,1065
2013/02/12,106500,109000,105000,105000,93,1050
2013/02/13,103900,103900,91400,93000,179,930
2013/02/14,94500,98000,93500,98000,42,980
2013/02/15,96700,97000,83000,87400,250,874
2013/02/18,90400,92200,89900,90200,61,902
2013/02/19,91000,101500,91000,100000,223,1000
2013/02/20,102000,105000,98500,99000,200,990
2013/02/21,99000,101300,97600,97600,40,976
2013/02/22,97600,98000,92100,98000,129,980
2013/02/25,102500,103900,98000,98500,115,985
2013/02/26,94000,104500,94000,101600,108,1016
2013/02/27,100200,105000,98000,98600,111,986
2013/02/28,102700,102700,99000,99000,48,990
2013/03/01,98800,99500,96500,99500,90,995
2013/03/04,101800,102500,97100,102000,81,1020
2013/03/05,103500,132000,103500,127000,2017,1270
2013/03/06,122100,127000,116500,122000,457,1220
2013/03/07,122100,128400,115000,121500,349,1215
2013/03/08,121500,124800,110000,122000,492,1220
2013/03/11,152000,152000,141000,152000,1046,1520
2013/03/12,168000,185000,150000,151400,1681,1514
2013/03/13,170000,191400,170000,191400,879,1914
2013/03/14,231400,231400,215000,231400,1774,2314
2013/03/15,240000,281300,222000,222000,3086,2220
2013/03/18,252000,272000,245500,272000,748,2720
2013/03/19,315000,320000,283500,303000,2682,3030
2013/03/21,285000,299000,270100,272400,1217,2724
2013/03/22,257400,268000,225000,231500,1620,2315
2013/03/25,226500,278000,224500,250100,1843,2501
2013/03/26,235100,239800,225100,229900,737,2299
2013/03/27,232000,248900,219600,233000,554,2330
2013/03/28,225000,231800,219100,222000,484,2220
2013/03/29,244500,244800,226000,236000,676,2360
2013/04/01,226000,234700,202300,205000,386,2050
2013/04/02,200000,223000,187000,217100,653,2171
2013/04/03,215000,235000,210500,215500,383,2155
2013/04/04,210500,223900,206300,209600,294,2096
2013/04/05,213700,218100,201000,208500,295,2085
2013/04/08,215000,220000,205800,220000,340,2200
2013/04/09,228400,228900,214600,222400,383,2224
2013/04/10,241000,272400,236100,272400,1213,2724
2013/04/11,283500,308000,244000,250000,1678,2500
2013/04/12,240000,247400,230000,244500,659,2445
2013/04/15,259500,277000,244900,261600,815,2616
2013/04/16,246600,260000,241000,255000,411,2550
2013/04/17,260000,272000,255000,259200,340,2592
2013/04/18,259200,267000,247100,250000,291,2500
2013/04/19,262000,262000,249000,253200,316,2532
2013/04/22,258200,289400,254500,279900,777,2799
2013/04/23,299000,299100,268300,277500,838,2775
2013/04/24,292500,327500,279300,327500,2435,3275
2013/04/25,340000,354500,311000,337000,2311,3370
2013/04/26,339500,339500,296100,300000,1124,3000
2013/04/30,300000,320000,286100,314500,621,3145
2013/05/01,318000,324000,300000,304000,759,3040
2013/05/02,300000,315000,295500,304500,430,3045
2013/05/07,322500,350000,315000,330000,1210,3300
2013/05/08,340000,390000,315000,350000,1970,3500
2013/05/09,370000,370000,337500,345000,804,3450
2013/05/10,353000,358000,337000,339500,443,3395
2013/05/13,340000,356000,339000,339000,377,3390
2013/05/14,342500,352500,269000,269000,381,2690
2013/05/15,294000,294600,219500,226200,2159,2262
2013/05/16,231200,236900,191500,223200,1043,2232
2013/05/17,216000,250000,216000,240000,769,2400
2013/05/20,237000,244000,230000,236300,467,2363
2013/05/21,227100,235800,217100,218000,540,2180
2013/05/22,218000,224800,203600,216000,353,2160
2013/05/23,219300,219300,180000,183500,647,1835
2013/05/24,194500,203800,183500,194000,591,1940
2013/05/27,185000,197000,185000,192800,176,1928
2013/05/28,192700,217900,191700,210100,562,2101
2013/05/29,200100,218000,200100,214000,439,2140
2013/05/30,195200,205000,191000,195300,374,1953
2013/05/31,200000,202000,192700,192700,218,1927
2013/06/03,190000,200000,185100,191400,169,1914
2013/06/04,191400,195000,180900,185000,244,1850
2013/06/05,185000,198700,185000,185100,272,1851
2013/06/06,173100,174500,145100,145100,786,1451
2013/06/07,142100,144900,126700,130100,706,1301
2013/06/10,148100,152000,142000,150000,319,1500
2013/06/11,151000,153000,141800,143000,228,1430
2013/06/12,135000,173000,135000,173000,570,1730
2013/06/13,161000,166300,156100,161500,344,1615
2013/06/14,160000,172900,150000,150000,279,1500
2013/06/17,158000,164600,151200,153400,113,1534
2013/06/18,165000,165000,152000,163000,184,1630
2013/06/19,165400,174900,160000,162600,351,1626
2013/06/20,160400,168700,158500,160100,93,1601
2013/06/21,154100,158300,145000,150000,192,1500
2013/06/24,157700,157700,151000,151300,94,1513
2013/06/25,147300,150000,134100,138800,220,1388
2013/06/26,138000,142000,119000,119000,259,1190
2013/06/27,130000,130000,116100,125000,185,1250
2013/06/28,125200,139900,123000,136500,139,1365
2013/07/01,150000,152900,144000,150000,175,1500
2013/07/02,146000,152900,146000,148200,183,1482
2013/07/03,151000,152900,148500,151700,153,1517
2013/07/04,163000,177000,163000,168800,978,1688
2013/07/05,173000,173800,163000,168900,205,1689
2013/07/08,175000,185000,169000,173900,427,1739
2013/07/09,172100,176100,163000,170900,146,1709
2013/07/10,170000,170000,162000,164000,109,1640
2013/07/11,159100,167000,157000,163000,76,1630
2013/07/12,187000,203000,185000,203000,779,2030
2013/07/16,218000,234800,191100,197500,1587,1975
2013/07/17,198000,198000,185000,185200,283,1852
2013/07/18,185500,190400,185000,186500,147,1865
2013/07/19,183000,183000,173000,178200,197,1782
2013/07/22,181000,189000,175000,178000,99,1780
2013/07/23,174900,177500,173000,176000,37,1760
2013/07/24,176000,181500,175000,176200,107,1762
2013/07/25,177000,204700,177000,183400,449,1834
2013/07/26,189000,193500,178000,178500,141,1785
2013/07/29,177000,177000,160300,162000,241,1620
2013/07/30,162500,173900,162500,170000,95,1700
2013/07/31,164100,167000,162200,162600,79,1626
2013/08/01,166600,166600,144000,154500,236,1545
2013/08/02,163900,166800,155700,166000,84,1660
2013/08/05,169500,172000,161100,169700,83,1697
2013/08/06,166000,170000,165600,166000,72,1660
2013/08/07,165000,169000,158500,159200,108,1592
2013/08/08,157900,157900,144800,147200,165,1472
2013/08/09,146500,150000,142000,144900,65,1449
2013/08/12,138900,141600,136100,137000,87,1370
2013/08/13,135100,142000,135100,142000,92,1420
2013/08/14,143000,146000,137000,139700,81,1397
2013/08/15,142700,142700,139300,141000,33,1410
2013/08/16,138500,142000,138000,139000,31,1390
2013/08/19,142000,144600,141600,141600,27,1416
2013/08/20,143600,143600,138300,138300,14,1383
2013/08/21,138200,140500,138200,139000,17,1390
2013/08/22,139500,139500,135200,138400,29,1384
2013/08/23,139000,139600,136000,138400,23,1384
2013/08/26,138000,140000,136800,139800,10,1398
2013/08/27,139800,141300,138800,138800,16,1388
2013/08/28,135000,137000,129900,131700,64,1317
2013/08/29,129800,131000,128000,128000,30,1280
2013/08/30,133000,133000,125100,127000,22,1270
2013/09/02,125000,130000,125000,125800,17,1258
2013/09/03,126100,138800,126100,138800,52,1388
2013/09/04,140000,142900,135000,141800,61,1418
2013/09/05,143000,144000,138000,141900,29,1419
2013/09/06,141900,141900,126100,126100,54,1261
2013/09/09,132200,157200,132100,157200,288,1572
2013/09/10,163600,164900,148100,150000,234,1500
2013/09/11,150500,163700,148000,155200,150,1552
2013/09/12,155000,159900,151000,151700,102,1517
2013/09/13,151700,153900,150000,153000,43,1530
2013/09/17,155000,168000,155000,166000,185,1660
2013/09/18,165500,166000,158000,159500,126,1595
2013/09/19,165000,166900,160900,164400,87,1644
2013/09/20,162200,165000,162200,163000,93,1630
2013/09/24,164000,164000,157200,158600,50,1586
2013/09/25,167000,167000,157500,161600,123,1616
2013/09/26,1576,1600,1550,1579,3500,1579
2013/09/27,1552,1592,1552,1585,2300,1585
2013/09/30,1650,1650,1567,1640,9200,1640
2013/10/01,1633,1640,1581,1592,7200,1592
2013/10/02,1620,1620,1560,1579,4700,1579
2013/10/03,1570,1570,1550,1550,3100,1550
2013/10/04,1518,1550,1451,1485,2800,1485
2013/10/07,1515,1515,1420,1514,3000,1514
2013/10/08,1554,1554,1429,1459,4200,1459
2013/10/09,1450,1501,1450,1477,1500,1477
2013/10/10,1545,1577,1467,1512,3900,1512
2013/10/11,1533,1580,1522,1552,2300,1552
2013/10/15,1560,1560,1540,1560,1500,1560
2013/10/16,1560,1560,1510,1510,2400,1510
2013/10/17,1530,1549,1510,1517,3800,1517
2013/10/18,1523,1524,1510,1510,2400,1510
2013/10/21,1550,1550,1510,1529,4400,1529
2013/10/22,1569,1609,1522,1536,13400,1536
2013/10/23,1575,1575,1521,1529,6300,1529
2013/10/24,1510,1538,1510,1538,1600,1538
2013/10/25,1520,1600,1520,1546,4500,1546
2013/10/28,1580,1580,1534,1534,2900,1534
2013/10/29,1531,1558,1520,1520,4300,1520
2013/10/30,1521,1579,1440,1440,13400,1440
2013/10/31,1429,1429,1390,1392,5900,1392
2013/11/01,1393,1482,1349,1360,5000,1360
2013/11/05,1420,1420,1331,1384,2100,1384
2013/11/06,1384,1384,1300,1350,6700,1350
2013/11/07,1378,1378,1235,1270,18400,1270
2013/11/08,1150,1215,1092,1192,43000,1192
2013/11/11,1102,1123,1052,1100,24300,1100
2013/11/12,1100,1154,1094,1125,6600,1125
2013/11/13,1125,1168,1101,1125,7600,1125
2013/11/14,1127,1160,1127,1141,7600,1141
2013/11/15,1141,1160,1139,1160,6700,1160
2013/11/18,1164,1230,1160,1172,11200,1172
2013/11/19,1230,1472,1188,1331,82400,1331
2013/11/20,1301,1318,1270,1275,14400,1275
2013/11/21,1273,1289,1250,1250,6900,1250
2013/11/22,1250,1300,1250,1260,4900,1260
2013/11/25,1272,1295,1220,1229,4300,1229
2013/11/26,1257,1284,1250,1278,2500,1278
2013/11/27,1260,1260,1236,1237,3400,1237
2013/11/28,1237,1240,1202,1240,5600,1240
2013/11/29,1213,1239,1213,1225,4200,1225
2013/12/02,1225,1300,1225,1275,11500,1275
2013/12/03,1270,1285,1265,1265,3700,1265
2013/12/04,1257,1269,1217,1241,3700,1241
2013/12/05,1238,1260,1238,1244,4200,1244
2013/12/06,1246,1260,1220,1221,10300,1221
2013/12/09,1202,1264,1202,1249,7100,1249
2013/12/10,1253,1320,1250,1255,15100,1255
2013/12/11,1248,1295,1234,1240,8200,1240
2013/12/12,1220,1248,1220,1220,5600,1220
2013/12/13,1230,1230,1205,1210,5300,1210
2013/12/16,1201,1210,1150,1153,7700,1153
2013/12/17,1160,1198,1111,1141,5400,1141
2013/12/18,1171,1179,1086,1145,18500,1145
2013/12/19,1190,1190,1051,1080,17500,1080
2013/12/20,1080,1080,1053,1070,7600,1070
2013/12/24,1050,1054,1011,1022,15400,1022
2013/12/25,1022,1022,1003,1010,15200,1010
2013/12/26,1040,1070,1040,1055,9600,1055
2013/12/27,1070,1099,1070,1089,8800,1089
2013/12/30,1099,1114,1080,1085,10000,1085
2014/01/06,1127,1127,1093,1099,6000,1099
2014/01/07,1084,1089,1061,1080,6100,1080
2014/01/08,1080,1142,1080,1119,10600,1119
2014/01/09,1113,1180,1100,1108,11400,1108
2014/01/10,1121,1153,1121,1138,2700,1138
2014/01/14,1111,1119,1102,1110,5900,1110
2014/01/15,1110,1115,1104,1104,5000,1104
2014/01/16,1106,1111,1104,1104,5700,1104
2014/01/17,1108,1150,1108,1111,7200,1111
2014/01/20,1120,1140,1108,1140,6300,1140
2014/01/21,1125,1143,1111,1113,5100,1113
2014/01/22,1145,1149,1130,1145,2800,1145
2014/01/23,1150,1152,1113,1118,2100,1118
2014/01/24,1104,1110,1100,1102,3600,1102
2014/01/27,1100,1100,1051,1060,9700,1060
2014/01/28,1060,1073,1040,1064,7300,1064
2014/01/29,1070,1084,1069,1070,900,1070
2014/01/30,1042,1043,1010,1030,6600,1030
2014/01/31,1030,1047,1000,1002,10000,1002
2014/02/03,1002,1030,968,968,7200,968
2014/02/04,908,911,850,908,10800,908
2014/02/05,910,1044,910,965,6700,965
2014/02/06,920,974,911,944,9200,944
2014/02/07,931,953,915,920,3500,920
2014/02/10,925,970,924,969,2600,969
2014/02/12,983,990,951,989,3600,989
2014/02/13,990,990,945,970,800,970
2014/02/14,955,955,916,916,3800,916
2014/02/17,923,968,923,941,1400,941
2014/02/18,930,930,916,930,2800,930
2014/02/19,922,927,909,911,5800,911
2014/02/20,919,920,910,910,1000,910
2014/02/24,909,914,908,914,900,914
2014/02/25,914,990,914,941,8400,941
2014/02/26,928,940,919,921,2400,921
2014/02/27,920,920,912,912,700,912
2014/02/28,913,935,913,923,2400,923
2014/03/03,911,926,910,910,3000,910
2014/03/04,905,921,904,915,1500,915
2014/03/05,922,935,916,922,1900,922
2014/03/06,912,950,912,950,2000,950
2014/03/07,988,989,932,936,1900,936
2014/03/10,947,977,947,962,2200,962
2014/03/11,980,980,961,980,2700,980
2014/03/12,971,980,970,980,1800,980
2014/03/13,980,980,935,935,3800,935
2014/03/14,930,930,900,900,2900,900
2014/03/17,905,910,892,893,3500,893
2014/03/18,917,917,896,899,1300,899
2014/03/19,895,905,881,890,2100,890
2014/03/20,875,876,843,853,2700,853
2014/03/24,853,889,853,878,1900,878
2014/03/25,848,852,847,852,2200,852
2014/03/26,860,875,831,847,3400,847
2014/03/27,849,849,805,822,3800,822
2014/03/28,799,819,799,819,5100,819
2014/03/31,830,835,810,835,3400,835
2014/04/01,888,919,871,878,11400,878
2014/04/02,851,863,841,863,8100,863
2014/04/03,925,990,898,960,26700,960
2014/04/04,956,960,915,918,6400,918
2014/04/07,933,953,895,906,7700,906
2014/04/08,876,925,870,910,6300,910
2014/04/09,900,900,871,871,700,871
2014/04/10,869,885,845,845,2200,845
2014/04/11,802,865,802,812,3400,812
2014/04/14,806,813,806,813,1100,813
2014/04/15,842,842,818,821,600,821
2014/04/16,834,852,834,852,600,852
2014/04/17,838,847,827,828,1400,828
2014/04/18,813,826,810,812,5300,812
2014/04/21,815,832,815,823,3300,823
2014/04/22,820,822,818,818,600,818
2014/04/23,814,820,810,810,2000,810
2014/04/24,815,815,815,815,100,815
2014/04/25,830,836,817,817,1300,817
2014/04/28,810,812,810,810,900,810
2014/04/30,821,823,806,810,2700,810
2014/05/01,810,810,800,808,2500,808
2014/05/02,819,819,810,810,2000,810
2014/05/07,814,814,801,804,1300,804
2014/05/08,801,820,801,801,4400,801
2014/05/09,801,818,799,801,5400,801
2014/05/12,810,817,793,815,6400,815
2014/05/13,800,813,794,812,2500,812
2014/05/14,812,812,801,801,600,801
2014/05/15,820,820,802,807,1600,807
2014/05/16,800,825,792,825,3100,825
2014/05/19,795,814,781,781,4000,781
2014/05/20,781,785,770,785,1200,785
2014/05/21,770,770,759,759,1700,759
2014/05/22,780,795,779,795,800,795
2014/05/23,795,799,792,792,400,792
2014/05/26,781,800,781,797,2400,797
2014/05/27,800,804,796,796,2800,796
2014/05/28,796,815,796,815,1400,815
2014/05/29,815,840,815,816,7300,816
2014/05/30,831,878,831,842,4400,842
2014/06/02,917,917,900,909,5600,909
2014/06/03,917,922,910,911,4100,911
2014/06/04,913,940,913,920,5000,920
2014/06/05,949,1070,948,1070,72400,1070
2014/06/06,1082,1300,1082,1163,105100,1163
2014/06/09,1103,1169,1071,1100,24200,1100
2014/06/10,1099,1120,1061,1062,14400,1062
2014/06/11,1033,1085,1005,1085,5900,1085
2014/06/12,1025,1070,1020,1037,6000,1037
2014/06/13,1062,1080,1032,1060,9100,1060
2014/06/16,1050,1111,1050,1052,7900,1052
2014/06/17,1080,1352,1079,1352,230000,1352
2014/06/18,1300,1400,1221,1318,96000,1318
2014/06/19,1285,1350,1222,1242,25100,1242
2014/06/20,1246,1289,1223,1249,15700,1249
2014/06/23,1299,1299,1229,1234,9000,1234
2014/06/24,1279,1279,1200,1226,8400,1226
2014/06/25,1247,1247,1163,1191,5800,1191
2014/06/26,1180,1199,1142,1187,10200,1187
2014/06/27,1180,1180,1080,1107,15800,1107
2014/06/30,1100,1135,1095,1126,2200,1126
2014/07/01,1156,1198,1121,1182,3400,1182
2014/07/02,1155,1176,1144,1167,6100,1167
2014/07/03,1195,1195,1140,1150,2300,1150
2014/07/04,1140,1209,1140,1175,11100,1175
2014/07/07,1228,1266,1180,1260,13200,1260
2014/07/08,1277,1277,1182,1234,3900,1234
2014/07/09,1204,1229,1191,1202,2700,1202
2014/07/10,1200,1247,1190,1200,3500,1200
2014/07/11,1192,1192,1154,1190,3100,1190
2014/07/14,1221,1221,1169,1208,2300,1208
2014/07/15,1208,1208,1166,1174,1600,1174
2014/07/16,1171,1172,1114,1138,4200,1138
2014/07/17,1111,1137,1079,1112,14400,1112
2014/07/18,1082,1097,1076,1080,2500,1080
2014/07/22,1090,1100,1086,1089,1700,1089
2014/07/23,1089,1118,1081,1105,3900,1105
2014/07/24,1086,1112,1086,1112,1600,1112
2014/07/25,1089,1114,1089,1110,1200,1110
2014/07/28,1113,1144,1112,1132,3500,1132
2014/07/29,1122,1184,1122,1162,2700,1162
2014/07/30,1222,1255,1163,1177,4800,1177
2014/07/31,1197,1227,1167,1190,2900,1190
2014/08/01,1219,1219,1175,1180,3800,1180
2014/08/04,1182,1218,1179,1196,1600,1196
2014/08/05,1207,1207,1177,1177,1500,1177
2014/08/06,1087,1140,1055,1076,7600,1076
2014/08/07,1074,1100,1020,1057,6300,1057
2014/08/08,1027,1028,990,1025,3400,1025
2014/08/11,1003,1050,992,1021,4800,1021
2014/08/12,1007,1059,1007,1059,1300,1059
2014/08/13,1029,1029,1006,1019,2700,1019
2014/08/14,1013,1059,1008,1022,2000,1022
2014/08/15,1023,1048,1015,1048,2200,1048
2014/08/18,1110,1111,1080,1084,3700,1084
2014/08/19,1084,1113,1056,1060,2400,1060
2014/08/20,1071,1120,1071,1120,5100,1120
2014/08/21,1180,1190,1151,1157,3200,1157
2014/08/22,1159,1258,1159,1234,11700,1234
2014/08/25,1230,1267,1188,1242,13000,1242
2014/08/26,1232,1542,1232,1542,121800,1542
2014/08/27,1700,1749,1406,1450,125200,1450
2014/08/28,1480,1490,1350,1351,31900,1351
2014/08/29,1305,1345,1281,1315,14100,1315
2014/09/01,1285,1305,1260,1300,14300,1300
2014/09/02,1287,1375,1272,1300,9500,1300
2014/09/03,1350,1350,1284,1298,6900,1298
2014/09/04,1286,1331,1280,1280,5500,1280
2014/09/05,1280,1310,1265,1310,6900,1310
2014/09/08,1310,1334,1287,1295,2300,1295
2014/09/09,1324,1324,1285,1290,3800,1290
2014/09/10,1320,1320,1260,1260,6700,1260
2014/09/11,1252,1279,1240,1250,5100,1250
2014/09/12,1250,1250,1210,1234,3500,1234
2014/09/16,1234,1234,1201,1229,800,1229
2014/09/17,1199,1235,1199,1235,1700,1235
2014/09/18,1235,1248,1217,1220,3600,1220
2014/09/19,1224,1245,1215,1245,4700,1245
2014/09/22,1220,1275,1218,1267,2900,1267
2014/09/24,1279,1279,1250,1264,1800,1264
2014/09/25,1234,1280,1193,1193,5600,1193
2014/09/26,1190,1220,1190,1209,1100,1209
2014/09/29,1210,1210,1199,1199,300,1199
2014/09/30,1199,1199,1130,1140,4500,1140
2014/10/01,1137,1168,1102,1125,3700,1125
2014/10/02,1049,1090,1049,1055,8300,1055
2014/10/03,1055,1098,1055,1098,1700,1098
2014/10/06,1040,1140,1040,1115,2400,1115
2014/10/07,1140,1140,1140,1140,100,1140
2014/10/08,1080,1103,1074,1083,5700,1083
2014/10/09,1091,1095,1000,1019,22100,1019
2014/10/10,1019,1050,1000,1040,2200,1040
2014/10/14,965,1010,965,985,3400,985
2014/10/15,1008,1014,990,1014,2600,1014
2014/10/16,1000,1017,971,971,5000,971
2014/10/17,971,990,971,989,1200,989
2014/10/20,1002,1139,1002,1139,4900,1139
2014/10/21,1289,1438,1151,1188,97700,1188
2014/10/22,1210,1380,1099,1368,47000,1368
2014/10/23,1368,1382,1300,1341,19400,1341
2014/10/24,1370,1370,1265,1294,9600,1294
2014/10/27,1282,1282,1245,1246,4000,1246
2014/10/28,1245,1245,1153,1158,4000,1158
2014/10/29,1217,1217,1163,1190,4200,1190
2014/10/30,1192,1212,1190,1192,3800,1192
2014/10/31,1191,1191,1150,1165,1400,1165
2014/11/04,1141,1255,1141,1213,9100,1213
2014/11/05,1183,1249,1168,1210,7700,1210
2014/11/06,1240,1269,1181,1196,7000,1196
2014/11/07,1214,1215,1198,1203,4000,1203
2014/11/10,1200,1248,1200,1239,7000,1239
2014/11/11,1210,1210,1120,1160,9300,1160
2014/11/12,1160,1160,1130,1131,17100,1131
2014/11/13,1125,1137,1070,1081,9200,1081
2014/11/14,1137,1145,1106,1106,3600,1106
2014/11/17,1074,1090,1056,1090,4300,1090
2014/11/18,1118,1119,1071,1072,3500,1072
2014/11/19,1102,1120,1072,1109,3000,1109
2014/11/20,1100,1100,1070,1080,2900,1080
2014/11/21,1100,1119,1090,1118,2200,1118
2014/11/25,1134,1135,1115,1123,1700,1123
2014/11/26,1117,1139,1117,1139,3900,1139
2014/11/27,1151,1156,1145,1146,2300,1146
2014/11/28,1146,1146,1100,1100,3100,1100
2014/12/01,1100,1100,1040,1070,5700,1070
2014/12/02,1070,1080,1061,1080,3500,1080
2014/12/03,1064,1092,1052,1058,3400,1058
2014/12/04,1051,1051,1040,1040,2000,1040
2014/12/05,1060,1065,1040,1065,3000,1065
2014/12/08,1042,1059,1020,1036,5500,1036
2014/12/09,1012,1030,1006,1006,4300,1006
2014/12/10,1030,1050,1012,1023,3000,1023
2014/12/11,1011,1011,1000,1005,1100,1005
2014/12/12,1012,1025,1005,1025,2400,1025
2014/12/15,1008,1012,1005,1005,1700,1005
2014/12/16,1035,1035,986,988,4300,988
2014/12/17,1138,1138,1138,1138,8700,1138
2014/12/18,1438,1438,1438,1438,12100,1438
2014/12/19,1738,1738,1738,1738,20500,1738
2014/12/22,1978,2198,1470,1800,749000,1800
2014/12/24,2050,2089,1513,1525,374400,1525
2014/12/25,1460,1596,1374,1420,218800,1420
2014/12/26,1404,1487,1390,1406,87700,1406
2014/12/29,1436,1475,1349,1355,62400,1355
2014/12/30,1350,1363,1262,1300,73100,1300
2015/01/05,1330,1394,1306,1319,48100,1319
2015/01/06,1290,1293,1257,1278,31500,1278
2015/01/07,1277,1392,1260,1320,47400,1320
2015/01/08,1320,1330,1281,1286,29800,1286
2015/01/09,1278,1278,1226,1259,23300,1259
2015/01/13,1230,1258,1206,1219,15200,1219
2015/01/14,1210,1319,1210,1265,31400,1265
2015/01/15,1275,1309,1265,1276,16100,1276
2015/01/16,1246,1276,1223,1244,8200,1244
2015/01/19,1244,1244,1200,1206,12700,1206
2015/01/20,1210,1368,1210,1354,51100,1354
2015/01/21,1397,1450,1304,1352,68900,1352
2015/01/22,1350,1360,1216,1298,38200,1298
2015/01/23,1268,1268,1230,1235,16200,1235
2015/01/26,1241,1285,1230,1241,13200,1241
2015/01/27,1250,1250,1228,1247,7400,1247
2015/01/28,1235,1275,1235,1269,7100,1269
2015/01/29,1270,1270,1240,1240,10500,1240
2015/01/30,1242,1242,1177,1211,18400,1211
2015/02/02,1197,1197,1152,1169,11000,1169
2015/02/03,1152,1153,1084,1088,24800,1088
2015/02/04,1118,1388,1101,1388,30800,1388
2015/02/05,1688,1688,1688,1688,16900,1688
2015/02/06,2088,2088,2065,2088,303400,2088
2015/02/09,2001,2588,1906,2463,1515200,2463
2015/02/10,2542,2963,2150,2963,954600,2963
2015/02/12,2960,3195,2666,2812,691400,2812
2015/02/13,2700,2970,2312,2312,478800,2312
2015/02/16,2312,2546,2266,2400,245600,2400
2015/02/17,2674,2800,2040,2057,260100,2057
2015/02/18,2000,2230,1995,2222,157900,2222
2015/02/19,2089,2102,1950,1986,120700,1986
2015/02/20,1958,2000,1926,1970,34100,1970
2015/02/23,2013,2066,1906,1978,65800,1978
2015/02/24,1978,1978,1880,1909,47900,1909
2015/02/25,1932,1987,1913,1957,44100,1957
2015/02/26,1970,2197,1921,2064,109800,2064
2015/02/27,2023,2140,1998,2120,59100,2120
2015/03/02,2070,2088,2040,2040,30700,2040
2015/03/03,2078,2180,1952,1956,39900,1956
2015/03/04,1970,1982,1931,1941,15900,1941
2015/03/05,1948,1979,1901,1935,15900,1935
2015/03/06,1935,1970,1761,1820,56200,1820
2015/03/09,1770,1800,1668,1710,58200,1710
2015/03/10,1722,1757,1676,1697,18700,1697
2015/03/11,1725,1810,1719,1756,30500,1756
2015/03/12,1775,1790,1735,1760,20600,1760
2015/03/13,1747,1760,1708,1731,7600,1731
2015/03/16,1720,1720,1590,1627,51500,1627
2015/03/17,1661,1705,1658,1671,11700,1671
2015/03/18,1641,1685,1637,1641,11500,1641
2015/03/19,1642,1696,1641,1696,6100,1696
2015/03/20,1730,1730,1701,1705,7700,1705
2015/03/23,1706,1715,1665,1680,9300,1680
2015/03/24,1695,1714,1680,1682,8300,1682
2015/03/25,1710,1710,1680,1689,6000,1689
2015/03/26,1706,1706,1670,1670,5100,1670
2015/03/27,1706,1710,1666,1669,6900,1669
2015/03/30,1671,1671,1600,1629,7500,1629
2015/03/31,1612,1633,1592,1631,9000,1631
2015/04/01,1605,1630,1600,1600,5100,1600
2015/04/02,1620,1648,1620,1644,4500,1644
2015/04/03,1640,1645,1600,1615,8800,1615
2015/04/06,1615,1644,1615,1643,9300,1643
2015/04/07,1644,1920,1625,1810,70300,1810
2015/04/08,1847,1975,1840,1911,65600,1911
2015/04/09,1951,2100,1950,2008,66900,2008
2015/04/10,1993,2040,1950,1972,16000,1972
2015/04/13,1993,1997,1870,1929,17900,1929
2015/04/14,1876,1917,1862,1862,12700,1862
2015/04/15,1900,1910,1872,1908,7100,1908
2015/04/16,1945,2137,1910,2100,77300,2100
2015/04/17,2190,2348,2000,2100,115600,2100
2015/04/20,2200,2495,1966,1999,247400,1999
2015/04/21,1919,1940,1840,1860,95800,1860
2015/04/22,1859,1955,1852,1896,38800,1896
2015/04/23,1926,1950,1903,1929,14600,1929
2015/04/24,1925,1925,1856,1889,20200,1889
2015/04/27,1889,1935,1878,1885,14300,1885
2015/04/28,1900,1910,1835,1848,11000,1848
2015/04/30,1856,2248,1828,1916,203500,1916
2015/05/01,1950,1967,1860,1870,26400,1870
2015/05/07,1870,1910,1790,1800,35600,1800
2015/05/08,1774,1820,1713,1716,34200,1716
2015/05/11,1736,1749,1692,1730,15800,1730
2015/05/12,1713,1783,1635,1635,58300,1635
2015/05/13,1665,1696,1553,1555,66200,1555
2015/05/14,1556,1645,1556,1617,23600,1617
2015/05/15,1657,1657,1581,1594,12900,1594
2015/05/18,1595,1636,1595,1600,12800,1600
2015/05/19,1612,1631,1579,1631,17200,1631
2015/05/20,1631,1693,1626,1670,20300,1670
2015/05/21,1650,1723,1620,1620,27500,1620
2015/05/22,1635,1651,1625,1631,7200,1631
2015/05/25,1650,1689,1641,1644,8800,1644
2015/05/26,1670,1681,1621,1621,11900,1621
2015/05/27,1611,1644,1611,1632,7900,1632
2015/05/28,1648,1654,1621,1631,4700,1631
2015/05/29,1620,1655,1610,1652,9200,1652
2015/06/01,1652,1661,1630,1660,5100,1660
2015/06/02,1660,1663,1647,1654,3300,1654
2015/06/03,1654,1654,1630,1648,6200,1648
2015/06/04,1659,1739,1652,1684,22500,1684
2015/06/05,1723,1730,1681,1682,13300,1682
2015/06/08,1685,1701,1674,1697,8800,1697
2015/06/09,1717,1718,1675,1697,10200,1697
2015/06/10,1680,1690,1652,1664,11500,1664
2015/06/11,1651,1700,1644,1673,7700,1673
2015/06/12,1695,1760,1682,1730,38800,1730
2015/06/15,1710,1711,1681,1701,14300,1701
2015/06/16,1709,1721,1661,1674,13100,1674
2015/06/17,1676,1698,1656,1665,8100,1665
2015/06/18,1658,1680,1651,1673,8800,1673
2015/06/19,1674,1697,1646,1654,11700,1654
2015/06/22,1691,1691,1656,1659,4400,1659
2015/06/23,1686,1686,1656,1664,7600,1664
2015/06/24,1658,1677,1645,1652,7500,1652
2015/06/25,1650,1652,1621,1648,10500,1648
2015/06/26,1631,1633,1607,1612,10900,1612
2015/06/29,1522,1581,1522,1556,13100,1556
2015/06/30,1550,1580,1525,1574,7400,1574
2015/07/01,1574,1637,1572,1629,6300,1629
