2011/01/04,73500,75700,73300,73300,309,733
2011/01/05,74400,74900,73400,74900,197,749
2011/01/06,77400,77500,76100,76900,319,769
2011/01/07,75400,77100,75400,75800,173,758
2011/01/11,76500,79200,76000,78000,308,780
2011/01/12,78500,81000,78500,79100,377,791
2011/01/13,80600,81700,79000,80600,403,806
2011/01/14,80600,81000,79500,79500,297,795
2011/01/17,80500,81500,80000,80500,249,805
2011/01/18,80100,81500,80100,80400,240,804
2011/01/19,80700,81000,79200,79700,186,797
2011/01/20,78500,79500,76700,76900,348,769
2011/01/21,76900,77500,72500,73000,481,730
2011/01/24,73000,74800,73000,74300,68,743
2011/01/25,75800,76700,75000,76600,112,766
2011/01/26,76900,76900,74500,76000,67,760
2011/01/27,75300,77000,75300,76300,122,763
2011/01/28,75600,77500,75100,76500,122,765
2011/01/31,74700,76500,74700,75000,205,750
2011/02/01,74500,78000,74500,77600,239,776
2011/02/02,77700,82900,77700,82000,572,820
2011/02/03,81900,82000,78000,79400,377,794
2011/02/04,79100,81500,79100,80000,97,800
2011/02/07,81200,81500,79300,81400,304,814
2011/02/08,80700,81500,76400,77700,583,777
2011/02/09,75700,78000,74700,77000,553,770
2011/02/10,76000,77300,75600,75800,146,758
2011/02/14,76600,76700,74600,74900,349,749
2011/02/15,75200,76200,74600,75800,172,758
2011/02/16,76000,76000,75300,75300,99,753
2011/02/17,75900,76900,75400,76100,215,761
2011/02/18,76500,77800,76200,77300,160,773
2011/02/21,78900,84500,78500,84500,949,845
2011/02/22,86600,87700,81100,81300,802,813
2011/02/23,79800,87500,79500,83600,939,836
2011/02/24,83000,84000,80000,80000,448,800
2011/02/25,81000,81900,78100,81400,201,814
2011/02/28,82000,83700,81500,83700,210,837
2011/03/01,84600,86400,83600,85300,342,853
2011/03/02,84000,84900,82700,83000,182,830
2011/03/03,82800,84400,82800,83500,187,835
2011/03/04,84000,88900,83600,88900,550,889
2011/03/07,90100,95000,89500,94200,1637,942
2011/03/08,92700,93700,90700,91500,529,915
2011/03/09,91800,92800,85300,87700,568,877
2011/03/10,86500,89000,82300,88000,582,880
2011/03/11,85000,89900,85000,85500,347,855
2011/03/14,70500,74800,70500,70500,1297,705
2011/03/15,56000,56000,55500,55500,887,555
2011/03/16,54500,64500,52600,59600,1556,596
2011/03/17,54600,61000,54000,60200,552,602
2011/03/18,61200,65000,60200,63500,1313,635
2011/03/22,69500,70400,68000,70400,687,704
2011/03/23,69500,73300,68100,71200,580,712
2011/03/24,71200,73900,69000,73000,521,730
2011/03/25,74100,74100,69300,69300,272,693
2011/03/28,68300,68900,65200,67800,323,678
2011/03/29,67000,68700,66000,68700,130,687
2011/03/30,70200,71900,69600,69900,129,699
2011/03/31,70900,72000,70400,71100,123,711
2011/04/01,71300,71800,70700,70700,108,707
2011/04/04,71400,72500,70800,70800,133,708
2011/04/05,72000,72000,68000,68000,230,680
2011/04/06,68000,71200,68000,69900,222,699
2011/04/07,71400,71600,69700,70800,180,708
2011/04/08,70200,73700,69700,73300,294,733
2011/04/11,74800,77600,73800,77500,470,775
2011/04/12,78000,78800,76100,77000,458,770
2011/04/13,77100,79500,75500,77900,347,779
2011/04/14,78400,78900,77100,78800,175,788
2011/04/15,78800,81900,78700,81200,324,812
2011/04/18,82700,83400,80100,80700,420,807
2011/04/19,79500,81700,78300,81700,638,817
2011/04/20,81800,84700,81400,82300,345,823
2011/04/21,83600,83800,80000,81500,180,815
2011/04/22,80200,81800,79800,81500,194,815
2011/04/25,81100,83700,81100,81900,169,819
2011/04/26,82500,85100,81500,83200,236,832
2011/04/27,84500,84500,82000,83900,244,839
2011/04/28,83700,84000,82700,84000,103,840
2011/05/02,84000,85500,82600,83500,397,835
2011/05/06,82600,88500,82000,88200,710,882
2011/05/09,87000,89100,85900,86000,268,860
2011/05/10,86100,86100,81500,83100,414,831
2011/05/11,83000,83200,77700,80900,677,809
2011/05/12,78200,79700,77800,77800,253,778
2011/05/13,77000,77000,71500,73300,504,733
2011/05/16,71800,72000,70100,71300,302,713
2011/05/17,72000,74800,71300,73000,306,730
2011/05/18,73000,74400,72600,74400,112,744
2011/05/19,74800,75200,73500,73500,135,735
2011/05/20,74000,74400,72500,74400,77,744
2011/05/23,73200,73900,72000,72000,148,720
2011/05/24,71200,72600,71000,72600,128,726
2011/05/25,72500,72500,65000,68900,469,689
2011/05/26,69100,71500,69000,71500,118,715
2011/05/27,71600,71600,70200,70600,88,706
2011/05/30,71600,72500,68800,72300,166,723
2011/05/31,72300,73400,72100,73300,124,733
2011/06/01,73800,73900,71800,73000,266,730
2011/06/02,72100,74000,71500,73800,78,738
2011/06/03,73800,74000,71500,71500,140,715
2011/06/06,71000,71000,70300,70400,133,704
2011/06/07,70000,72100,70000,71800,98,718
2011/06/08,72100,74800,71200,74800,357,748
2011/06/09,76700,77600,74600,75700,467,757
2011/06/10,75300,76300,72000,72800,302,728
2011/06/13,72100,73000,71600,72100,72,721
2011/06/14,72200,73900,72000,73500,215,735
2011/06/15,73500,74400,72200,72700,119,727
2011/06/16,72400,73300,72000,72500,100,725
2011/06/17,73000,73300,71500,71500,71,715
2011/06/20,71500,71800,71400,71700,34,717
2011/06/21,72200,72900,71500,72900,90,729
2011/06/22,73400,74000,72400,73900,146,739
2011/06/23,73100,73300,72100,72300,136,723
2011/06/24,72300,73000,71900,73000,100,730
2011/06/27,72500,74000,72500,72700,777,727
2011/06/28,73800,76000,73300,75900,667,759
2011/06/29,76700,79800,75000,76200,762,762
2011/06/30,75900,76200,75300,75600,265,756
2011/07/01,76400,77000,75800,76300,159,763
2011/07/04,77800,78000,77000,77900,158,779
2011/07/05,78000,78000,76300,77500,186,775
2011/07/06,77600,79000,77100,78900,143,789
2011/07/07,78100,79300,78000,79300,242,793
2011/07/08,79500,81500,79300,80400,348,804
2011/07/11,81400,81500,79900,80700,298,807
2011/07/12,79600,79800,76500,76700,300,767
2011/07/13,76500,77800,75000,77800,125,778
2011/07/14,78200,78300,76400,76400,125,764
2011/07/15,77500,77500,75700,76700,143,767
2011/07/19,76200,76400,75200,75600,86,756
2011/07/20,76100,76800,75500,76000,149,760
2011/07/21,75500,76000,75000,75400,122,754
2011/07/22,75400,75800,72000,72400,712,724
2011/07/25,72000,72800,71900,72400,251,724
2011/07/26,71900,73300,71700,72700,138,727
2011/07/27,72200,72900,72100,72200,61,722
2011/07/28,71900,71900,71100,71500,124,715
2011/07/29,71800,71800,70300,70300,228,703
2011/08/01,70000,71500,68800,71300,235,713
2011/08/02,70900,70900,69900,70600,94,706
2011/08/03,69600,71000,69100,70300,78,703
2011/08/04,71000,71900,70100,70700,113,707
2011/08/05,68200,69900,67500,68200,281,682
2011/08/08,67300,69000,65200,65500,265,655
2011/08/09,63000,64300,56100,64200,899,642
2011/08/10,65500,67500,65400,66600,217,666
2011/08/11,64600,67500,64100,67500,129,675
2011/08/12,69300,69300,66700,67900,129,679
2011/08/15,68900,69500,68700,69500,76,695
2011/08/16,69800,70000,68600,68800,72,688
2011/08/17,67800,68000,67000,67900,57,679
2011/08/18,67400,68300,67400,68200,30,682
2011/08/19,67000,67000,66200,66300,67,663
2011/08/22,65600,65600,62900,62900,147,629
2011/08/23,63200,63500,61700,62100,55,621
2011/08/24,63800,63800,61200,61200,111,612
2011/08/25,61900,62700,60500,62500,92,625
2011/08/26,62100,63700,62100,63700,34,637
2011/08/29,63800,65800,63700,65800,160,658
2011/08/30,66200,67700,66200,67600,141,676
2011/08/31,68300,68400,67300,68400,98,684
2011/09/01,68500,69400,68300,69100,128,691
2011/09/02,69200,69600,68900,68900,267,689
2011/09/05,68900,69100,68800,68900,83,689
2011/09/06,69300,69300,66800,67600,216,676
2011/09/07,67700,67700,65300,66900,185,669
2011/09/08,66900,68100,66500,68100,94,681
2011/09/09,68100,68200,68000,68100,89,681
2011/09/12,67100,68000,67000,68000,76,680
2011/09/13,68100,68100,66600,67400,74,674
2011/09/14,67000,67100,65600,66500,237,665
2011/09/15,66300,66300,64500,65100,143,651
2011/09/16,65300,66700,64900,66600,26,666
2011/09/20,65800,66600,65300,65400,45,654
2011/09/21,65500,65500,62000,62100,108,621
2011/09/22,62400,63300,60500,61500,121,615
2011/09/26,60500,64100,60500,63500,330,635
2011/09/27,65200,65500,62800,63500,92,635
2011/09/28,64200,65500,64000,64600,51,646
2011/09/29,64700,68100,64300,68000,221,680
2011/09/30,68500,69800,68000,69800,244,698
2011/10/03,69500,70400,66200,70400,170,704
2011/10/04,68900,69100,67500,67500,87,675
2011/10/05,68400,70000,67000,69500,229,695
2011/10/06,71000,73700,71000,71100,581,711
2011/10/07,71500,71700,69800,70000,212,700
2011/10/11,71800,72800,71500,72800,240,728
2011/10/12,72700,73000,70800,72600,167,726
2011/10/13,72500,72500,71300,72000,54,720
2011/10/14,71500,71700,70800,71000,83,710
2011/10/17,71000,71600,69900,70500,188,705
2011/10/18,69200,70000,68600,68600,85,686
2011/10/19,68900,69200,66600,67000,223,670
2011/10/20,67200,69300,67000,68600,106,686
2011/10/21,68800,69500,68800,69100,24,691
2011/10/24,70100,70200,69000,69700,79,697
2011/10/25,70200,70200,68600,69400,74,694
2011/10/26,68700,69000,67400,69000,92,690
2011/10/27,69800,70000,68000,69000,54,690
2011/10/28,69700,70400,69500,69700,104,697
2011/10/31,70700,71700,70100,71700,163,717
2011/11/01,70800,71200,70000,70500,75,705
2011/11/02,69300,69300,68400,69000,48,690
2011/11/04,69000,69600,68000,68300,187,683
2011/11/07,69200,69200,67500,67900,140,679
2011/11/08,67500,68200,66500,67600,179,676
2011/11/09,57700,58600,57600,57600,1108,576
2011/11/10,56600,56600,54200,55500,905,555
2011/11/11,56300,56700,52800,54000,554,540
2011/11/14,56500,59100,55900,58600,429,586
2011/11/15,59400,60000,57900,58000,253,580
2011/11/16,57800,58100,56700,57000,148,570
2011/11/17,55500,56000,54300,55000,162,550
2011/11/18,54400,55400,54200,55000,64,550
2011/11/21,54500,54800,53300,53300,138,533
2011/11/22,51100,52500,51000,51800,286,518
2011/11/24,51200,54400,51100,53000,150,530
2011/11/25,53100,56000,53100,55800,123,558
2011/11/28,57400,57900,55700,57900,75,579
2011/11/29,58700,59000,57500,58000,78,580
2011/11/30,57500,57700,56700,57300,31,573
2011/12/01,57000,59700,56900,57900,178,579
2011/12/02,58800,59200,58000,58600,150,586
2011/12/05,58800,59500,58600,59500,164,595
2011/12/06,59600,59600,58100,59000,105,590
2011/12/07,58500,58900,58200,58300,132,583
2011/12/08,58100,58100,57400,57600,84,576
2011/12/09,57000,57200,56200,56500,629,565
2011/12/12,56400,57200,56400,57000,212,570
2011/12/13,56900,58500,56800,57500,209,575
2011/12/14,57600,58100,56200,56400,349,564
2011/12/15,56300,56700,55000,55000,183,550
2011/12/16,55000,55900,54600,54900,84,549
2011/12/19,54500,54600,53700,54500,199,545
2011/12/20,53500,54600,53400,54200,77,542
2011/12/21,55200,55800,54800,55800,89,558
2011/12/22,56000,57300,55300,55300,129,553
2011/12/26,56500,56800,56000,56800,202,568
2011/12/27,57000,58400,57000,58400,1009,584
2011/12/28,55400,56000,55400,55400,364,554
2011/12/29,54800,54800,54000,54400,62,544
2011/12/30,54600,54600,53500,54500,48,545
2012/01/04,54500,54900,54200,54900,98,549
2012/01/05,54500,54500,52000,53700,178,537
2012/01/06,53500,53600,52500,52500,46,525
2012/01/10,52400,53000,52200,52200,137,522
2012/01/11,52100,52700,52100,52500,33,525
2012/01/12,52200,52400,51500,51800,103,518
2012/01/13,51800,52400,51400,52000,40,520
2012/01/16,52000,52400,51300,52400,90,524
2012/01/17,52200,52200,51400,51400,55,514
2012/01/18,51500,51800,50100,51700,215,517
2012/01/19,51200,51800,50700,50700,154,507
2012/01/20,50300,51300,50300,51000,94,510
2012/01/23,51400,51500,49800,50400,775,504
2012/01/24,51000,51000,49600,50000,284,500
2012/01/25,50500,50600,49900,50500,179,505
2012/01/26,51200,51200,50000,50400,333,504
2012/01/27,50600,50600,49850,49900,241,499
2012/01/31,50000,50200,49600,49900,144,499
2012/02/01,50000,51100,50000,51000,222,510
2012/02/02,50900,51700,50600,50700,153,507
2012/02/03,51100,51400,50400,50900,158,509
2012/02/06,51800,52700,51100,51500,234,515
2012/02/07,51800,53000,51800,52300,247,523
2012/02/08,53000,54400,52500,54400,291,544
2012/02/09,51100,51800,50100,51000,822,510
2012/02/10,51000,51400,50100,50900,310,509
2012/02/13,51000,51300,50300,50300,132,503
2012/02/14,50500,50500,49900,50300,220,503
2012/02/15,50300,50400,50000,50300,223,503
2012/02/16,50500,51700,50400,51700,348,517
2012/02/17,51900,52700,51600,52300,191,523
2012/02/20,52700,52800,52000,52000,140,520
2012/02/21,52000,52900,52000,52400,102,524
2012/02/22,52900,53500,52800,53500,186,535
2012/02/23,53900,54200,53300,54100,289,541
2012/02/24,54800,55900,54500,55400,419,554
2012/02/27,55700,57500,55700,57400,325,574
2012/02/28,57000,57000,56100,56100,198,561
2012/02/29,56000,56300,55200,56000,124,560
2012/03/01,55200,55500,52500,52500,306,525
2012/03/02,53100,53900,52700,53800,81,538
2012/03/05,53500,54000,52900,53700,174,537
2012/03/06,54000,54300,53300,53700,165,537
2012/03/07,53000,53000,52700,52800,142,528
2012/03/08,53400,53500,52600,53200,71,532
2012/03/09,53400,53400,52900,53400,70,534
2012/03/12,53500,53600,53000,53100,70,531
2012/03/13,53600,54000,53300,54000,197,540
2012/03/14,54300,54900,54000,54400,257,544
2012/03/15,54600,54800,52500,53100,272,531
2012/03/16,53200,53300,52800,53300,60,533
2012/03/19,53300,53700,52700,53300,158,533
2012/03/21,53300,53700,53100,53700,121,537
2012/03/22,53700,53700,53000,53400,167,534
2012/03/23,53300,53300,52600,52600,97,526
2012/03/26,52600,53000,52400,52400,121,524
2012/03/27,52400,52800,52300,52300,62,523
2012/03/28,52300,52600,52200,52300,52,523
2012/03/29,52000,52900,52000,52100,217,521
2012/03/30,52000,53000,52000,52900,121,529
2012/04/02,53200,53500,53100,53500,106,535
2012/04/03,52900,53300,52800,53000,177,530
2012/04/04,53200,53900,52300,52800,188,528
2012/04/05,52900,53200,52800,53000,73,530
2012/04/06,52800,52800,52300,52700,110,527
2012/04/09,52600,52600,52000,52400,58,524
2012/04/10,52400,52400,51700,51800,142,518
2012/04/11,51500,51500,51100,51400,107,514
2012/04/12,51200,51400,50500,50500,176,505
2012/04/13,51000,51400,50700,50900,36,509
2012/04/16,50700,51400,50600,51400,53,514
2012/04/17,51100,51500,50700,51200,78,512
2012/04/18,51500,52000,51500,51900,53,519
2012/04/19,51500,52100,51500,52100,73,521
2012/04/20,51900,51900,51500,51700,55,517
2012/04/23,51000,51700,51000,51200,130,512
2012/04/24,51000,51100,50600,50700,72,507
2012/04/25,50700,51000,50500,50500,164,505
2012/04/27,49900,50400,49900,50100,132,501
2012/05/01,49600,49600,48800,49200,233,492
2012/05/02,49500,49500,48500,48700,281,487
2012/05/07,48000,48050,45000,46000,403,460
2012/05/08,46700,47700,45800,46700,198,467
2012/05/09,46100,46600,45200,46000,141,460
2012/05/10,45200,46000,45200,46000,82,460
2012/05/11,46200,46500,44900,45500,104,455
2012/05/15,42000,42000,39600,39700,518,397
2012/05/16,39500,40500,39500,39700,73,397
2012/05/18,42250,42250,40500,40600,125,406
2012/05/22,41200,42800,41200,42600,110,426
2012/05/24,43300,43300,42400,43000,63,430
2012/05/25,43400,48400,43400,44000,213,440
2012/05/28,44150,44700,43000,43900,127,439
2012/05/30,44600,45000,43000,43900,79,439
2012/05/31,43000,43200,42000,42800,80,428
2012/06/01,42350,42600,41500,41500,103,415
2012/06/04,40500,40800,39900,40000,117,400
2012/06/07,41550,42200,40400,42200,264,422
2012/06/08,42300,42350,41350,41500,83,415
2012/06/11,42000,42050,41300,41500,62,415
2012/06/12,41300,41500,41000,41300,95,413
2012/06/18,42150,43350,42150,43000,325,430
2012/06/19,43000,43050,42600,43000,74,430
2012/06/22,42850,43800,42850,43800,162,438
2012/06/26,45100,48000,45100,46800,1940,468
2012/06/28,44650,46000,43850,46000,239,460
2012/07/02,47950,48600,47600,48500,296,485
2012/07/04,48550,48550,47000,47600,137,476
2012/07/05,47200,47500,46300,46500,238,465
2012/07/11,45250,45250,44300,44800,86,448
2012/07/13,44300,45950,44100,45800,139,458
2012/07/17,46100,46100,44200,44200,80,442
2012/07/18,44800,44800,43800,43800,50,438
2012/07/19,44000,44400,43700,44200,31,442
2012/07/20,44500,44500,44000,44000,64,440
2012/07/24,47750,48950,45100,45300,879,453
2012/07/27,45650,46000,44500,44500,114,445
2012/07/31,44950,45600,44800,44800,95,448
2012/08/01,44900,44900,44500,44700,45,447
2012/08/06,45000,45800,44900,45800,86,458
2012/08/07,45200,45200,44850,45000,49,450
2012/08/08,45200,45500,44700,44800,156,448
2012/08/13,45250,45250,44950,45000,20,450
2012/08/15,44800,46300,44800,45500,202,455
2012/08/20,48400,48850,47700,48500,229,485
2012/08/22,49400,49800,48600,48600,262,486
2012/08/24,47150,48250,47100,47700,146,477
2012/08/27,48250,48250,47350,47800,111,478
2012/08/28,47900,48100,47600,47600,96,476
2012/08/31,46400,46800,45200,46100,167,461
2012/09/04,46850,47050,46650,46700,85,467
2012/09/10,47700,47800,47150,47400,172,474
2012/09/12,47200,48000,47150,47800,252,478
2012/09/13,48200,48500,47900,48100,204,481
2012/09/14,48250,48950,47900,48900,163,489
2012/09/19,48050,48300,47700,47900,117,479
2012/09/20,48200,48600,47900,48100,122,481
2012/09/21,48300,48350,48150,48200,108,482
2012/09/26,47950,48450,47700,48100,107,481
2012/09/27,47750,48200,47750,47800,87,478
2012/09/28,48200,51500,48200,50300,755,503
2012/10/01,50000,50300,48600,49500,176,495
2012/10/02,50900,51800,50200,51600,549,516
2012/10/03,52000,53100,51500,52900,615,529
2012/10/04,52800,52800,50800,52700,377,527
2012/10/05,52500,55000,52400,54900,695,549
2012/10/09,55000,55800,53500,54100,444,541
2012/10/10,53500,53500,51800,52300,209,523
2012/10/11,51700,54100,51700,52300,193,523
2012/10/12,52700,52700,52100,52100,114,521
2012/10/15,52100,52500,51000,51000,182,510
2012/10/16,52000,58500,51400,57300,571,573
2012/10/17,56900,57300,55700,56300,340,563
2012/10/18,56000,56400,55200,55500,150,555
2012/10/19,55000,56000,54700,56000,140,560
2012/10/22,55600,57900,55200,57500,332,575
2012/10/23,58300,61200,57500,60700,684,607
2012/10/24,60700,64000,58000,59200,678,592
2012/10/25,61000,62000,59500,61200,391,612
2012/10/26,61000,61300,59000,59400,196,594
2012/10/29,59800,61500,59800,61000,187,610
2012/10/30,62000,62700,61700,61800,325,618
2012/10/31,62900,64800,62700,63000,802,630
2012/11/01,62700,63000,60700,61800,299,618
2012/11/02,62700,64300,62300,62600,286,626
2012/11/05,62500,62800,58900,59800,751,598
2012/11/06,60300,60300,56800,57600,679,576
2012/11/07,57800,58500,56900,57200,329,572
2012/11/08,56400,58500,55600,58100,568,581
2012/11/09,58000,60100,57200,60100,603,601
2012/11/12,60300,60300,58500,58800,190,588
2012/11/13,59200,60200,57800,57900,436,579
2012/11/14,56400,57400,56200,57400,263,574
2012/11/15,57100,58500,56500,58000,145,580
2012/11/16,57600,60400,57200,60400,215,604
2012/11/19,61000,61600,59300,60500,226,605
2012/11/20,60300,61400,59900,61200,142,612
2012/11/21,61300,61500,60200,60300,142,603
2012/11/22,60700,62200,57000,61900,521,619
2012/11/26,62900,63700,62000,63100,392,631
2012/11/27,63400,64100,62700,63700,479,637
2012/11/28,64200,72200,64200,71700,1632,717
2012/11/29,71000,71300,68600,70200,519,702
2012/11/30,72900,76800,70000,70000,1651,700
2012/12/03,71500,71800,66500,68000,867,680
2012/12/04,67500,72500,67000,72400,614,724
2012/12/05,72300,76200,71000,73900,821,739
2012/12/06,73600,74500,71600,72100,436,721
2012/12/07,72200,74500,72200,74400,328,744
2012/12/10,73700,74100,71500,72000,472,720
2012/12/11,73100,73100,71000,71200,462,712
2012/12/12,71500,72400,71000,71800,309,718
2012/12/13,72100,72300,71000,71900,265,719
2012/12/14,71900,71900,69800,70900,469,709
2012/12/17,70000,70500,68400,69400,637,694
2012/12/18,67500,69500,67300,69000,591,690
2012/12/19,69000,69500,67200,68500,451,685
2012/12/20,68000,69300,67900,68900,263,689
2012/12/21,69000,70500,69000,70500,347,705
2012/12/25,70400,72000,69400,72000,2209,720
2012/12/26,69100,70200,68100,68500,778,685
2012/12/27,69400,70000,68000,69400,528,694
2012/12/28,69600,70200,68600,69700,424,697
2013/01/04,70700,71000,69800,70100,323,701
2013/01/07,70200,74300,69700,73500,1384,735
2013/01/08,73800,76900,72500,75700,1099,757
2013/01/09,75200,75900,72700,75000,518,750
2013/01/10,74800,76000,73300,74400,376,744
2013/01/11,75000,79500,73800,78000,865,780
2013/01/15,79500,80000,77200,78500,560,785
2013/01/16,79500,79500,75100,76400,655,764
2013/01/17,76300,77800,73900,74500,382,745
2013/01/18,75000,78500,74700,77500,785,775
2013/01/21,77600,77700,75200,75200,430,752
2013/01/22,76700,76700,74000,74500,305,745
2013/01/23,73500,75900,72900,74400,240,744
2013/01/24,74400,76200,73800,76200,200,762
2013/01/25,77000,77500,75600,77100,289,771
2013/01/28,77700,80900,77100,79800,850,798
2013/01/29,79200,79600,75800,76700,412,767
2013/01/30,77100,79000,77100,77600,364,776
2013/01/31,78500,80000,76600,78400,395,784
2013/02/01,78800,79600,78000,78800,184,788
2013/02/04,79500,79600,78700,78900,172,789
2013/02/05,78900,78900,76600,78800,158,788
2013/02/06,77700,79400,77700,79000,253,790
2013/02/07,74700,75200,73500,74800,973,748
2013/02/08,73300,73800,70100,71500,670,715
2013/02/12,70700,72800,70500,71100,310,711
2013/02/13,71000,71000,66300,67300,599,673
2013/02/14,66700,68400,66700,68300,194,683
2013/02/15,67500,68200,63300,65900,460,659
2013/02/18,65900,67100,65100,66800,207,668
2013/02/19,67300,70000,67300,69900,251,699
2013/02/20,69900,72000,68000,69300,521,693
2013/02/21,69900,71000,67400,68800,447,688
2013/02/22,67700,68200,66600,67000,466,670
2013/02/25,68600,72000,68000,72000,595,720
2013/02/26,70500,71800,70300,71700,373,717
2013/02/27,72000,72600,69100,70000,468,700
2013/02/28,74000,83200,72100,79000,2869,790
2013/03/01,81800,82000,79100,80800,1258,808
2013/03/04,82000,86000,80500,81800,1868,818
2013/03/05,82900,94700,82900,91400,3175,914
2013/03/06,98000,106400,94500,106400,5998,1064
2013/03/07,109400,110900,95800,99400,4137,994
2013/03/08,98700,103500,95000,96700,2541,967
2013/03/11,96600,98700,87100,92500,1905,925
2013/03/12,92500,93200,88800,89500,909,895
2013/03/13,88300,92500,88000,90300,758,903
2013/03/14,91200,101000,91200,95100,1913,951
2013/03/15,96000,102500,93800,101000,2342,1010
2013/03/18,106500,110000,100000,101300,2557,1013
2013/03/19,101500,103000,98900,101200,862,1012
2013/03/21,105500,117000,102600,111600,3662,1116
2013/03/22,111200,111200,106200,107000,1378,1070
2013/03/25,107400,135700,107200,128000,8968,1280
2013/03/26,125000,136300,121000,126900,4680,1269
2013/03/27,123900,128000,123000,124600,1621,1246
2013/03/28,124500,134000,122100,128900,2372,1289
2013/03/29,128000,129500,121300,123100,1475,1231
2013/04/01,123000,123000,103300,107500,2901,1075
2013/04/02,103300,118700,100500,116900,2860,1169
2013/04/03,131900,133400,119200,119400,3083,1194
2013/04/04,114000,124900,113500,120000,1269,1200
2013/04/05,124000,124500,116900,117300,1291,1173
2013/04/08,120300,122200,119000,122000,1012,1220
2013/04/09,123100,123400,117900,119900,930,1199
2013/04/10,119500,119600,114100,115500,984,1155
2013/04/11,118000,119900,115000,117100,948,1171
2013/04/12,116100,116400,112200,115000,865,1150
2013/04/15,114200,125200,114100,125200,2153,1252
2013/04/16,120400,127900,119000,127900,1584,1279
2013/04/17,136900,145400,134300,141400,6060,1414
2013/04/18,141400,151300,136000,137000,4525,1370
2013/04/19,139200,143800,136500,141700,1871,1417
2013/04/22,154700,155000,145000,148500,2857,1485
2013/04/23,146000,148000,140400,143500,2128,1435
2013/04/24,144000,148500,139500,141200,1490,1412
2013/04/25,142000,143100,133200,138000,1537,1380
2013/04/26,136800,137100,131700,131700,1049,1317
2013/04/30,133700,146800,133700,145400,2667,1454
2013/05/01,146500,146500,140000,142100,2024,1421
2013/05/02,139100,147800,138500,145300,1437,1453
2013/05/07,148700,162900,146200,160900,5070,1609
2013/05/08,148000,155000,147500,152900,3781,1529
2013/05/09,158000,187900,156100,174500,10827,1745
2013/05/10,182500,184100,170300,176000,5588,1760
2013/05/13,175200,182500,170600,174900,3036,1749
2013/05/14,176600,208000,176000,204100,11259,2041
2013/05/15,199000,202400,180000,185400,6093,1854
2013/05/16,181400,183600,155000,170100,4711,1701
2013/05/17,167900,184700,163400,178300,2542,1783
2013/05/20,185100,193500,181500,183500,2619,1835
2013/05/21,182100,182500,167500,168100,3160,1681
2013/05/22,169100,178000,161500,168500,1997,1685
2013/05/23,165000,170400,140000,142400,3154,1424
2013/05/24,150000,160000,136600,157000,2973,1570
2013/05/27,150000,155800,139000,147200,2099,1472
2013/05/28,144200,153800,143900,151000,1945,1510
2013/05/29,155000,155500,148100,151500,1253,1515
2013/05/30,145600,150500,142400,142800,1057,1428
2013/05/31,144600,148000,140000,144000,976,1440
2013/06/03,141000,153600,141000,142500,1516,1425
2013/06/04,140800,144900,134500,142000,1121,1420
2013/06/05,145000,153500,140000,140000,1449,1400
2013/06/06,135800,138000,114200,118900,1984,1189
2013/06/07,112900,119900,99900,114000,2603,1140
2013/06/10,127900,132600,121000,132000,1522,1320
2013/06/11,132800,139300,127000,130600,1250,1306
2013/06/12,124000,135800,123200,133200,992,1332
2013/06/13,129000,133400,126800,127100,901,1271
2013/06/14,132000,132900,125000,128000,921,1280
2013/06/17,128600,132400,126500,131500,585,1315
2013/06/18,137000,137000,133200,136000,679,1360
2013/06/19,140100,140900,131000,132100,1095,1321
2013/06/20,135100,137000,133000,133700,463,1337
2013/06/21,125400,131000,124200,129300,1134,1293
2013/06/24,130000,131700,125000,125000,1212,1250
2013/06/25,125200,128000,118600,120000,2619,1200
2013/06/26,121300,122800,103000,112500,1303,1125
2013/06/27,113200,117800,101100,116300,940,1163
2013/06/28,115500,123800,115100,123400,571,1234
2013/07/01,123000,126500,122300,124800,645,1248
2013/07/02,127500,128900,125000,127300,703,1273
2013/07/03,127000,128500,123100,125500,874,1255
2013/07/04,126000,126600,123600,125200,708,1252
2013/07/05,127000,139800,127000,139000,2898,1390
2013/07/08,141000,145000,137000,138000,1810,1380
2013/07/09,140900,141600,131000,136900,777,1369
2013/07/10,134600,136700,127000,128100,1114,1281
2013/07/11,127300,133100,127200,131500,643,1315
2013/07/12,134500,134600,128700,130400,482,1304
2013/07/16,131100,133000,129000,131100,561,1311
2013/07/17,131000,138000,128700,133700,989,1337
2013/07/18,134700,138800,134000,135700,1082,1357
2013/07/19,135900,137000,127700,129100,1297,1291
2013/07/22,128000,129100,122200,122800,1036,1228
2013/07/23,122000,124000,120600,122600,816,1226
2013/07/24,120600,122900,117900,122900,884,1229
2013/07/25,123200,125200,121900,123700,472,1237
2013/07/26,124700,137000,121100,125000,3353,1250
2013/07/29,125100,125400,112500,114900,1369,1149
2013/07/30,116000,123400,116000,122900,656,1229
2013/07/31,124900,124900,117500,117600,752,1176
2013/08/01,117500,118600,106800,110200,963,1102
2013/08/02,111000,116600,110500,115900,506,1159
2013/08/05,111000,120000,111000,118900,563,1189
2013/08/06,119100,120000,112100,115400,660,1154
2013/08/07,113000,114500,112400,112600,280,1126
2013/08/08,112300,115500,110100,110300,413,1103
2013/08/09,110300,112100,108400,110000,562,1100
2013/08/12,107100,108900,99900,100300,1207,1003
2013/08/13,100400,105400,100300,105400,665,1054
2013/08/14,105400,108000,103500,107400,350,1074
2013/08/15,104900,106600,104500,105200,167,1052
2013/08/16,103300,109000,103000,109000,259,1090
2013/08/19,110700,113500,109000,112700,289,1127
2013/08/20,113000,114000,109500,112300,415,1123
2013/08/21,109900,112000,106000,110000,306,1100
2013/08/22,108000,108200,106000,106800,281,1068
2013/08/23,108800,109800,105800,106300,249,1063
2013/08/26,109000,109000,105900,106400,134,1064
2013/08/27,107700,108000,106000,106400,99,1064
2013/08/28,103000,103800,102100,102600,226,1026
2013/08/29,102600,103700,100000,100100,326,1001
2013/08/30,100400,101800,100000,100500,296,1005
2013/09/02,100400,101500,100100,100600,187,1006
2013/09/03,100800,106400,100800,106200,452,1062
2013/09/04,104000,108200,104000,108000,321,1080
2013/09/05,109500,109500,105100,107900,274,1079
2013/09/06,108000,108000,103000,103800,251,1038
2013/09/09,107000,107000,104000,105500,227,1055
2013/09/10,114000,131200,112000,118700,3673,1187
2013/09/11,120600,126000,114100,119600,1317,1196
2013/09/12,119700,119900,115400,118300,558,1183
2013/09/13,119300,127000,117000,121000,1112,1210
2013/09/17,122000,129600,122000,126900,964,1269
2013/09/18,130000,132300,128000,129600,1454,1296
2013/09/19,132300,134500,128000,128400,1073,1284
2013/09/20,128200,129500,123900,124800,584,1248
2013/09/24,124000,124000,119700,121100,614,1211
2013/09/25,120000,121000,117300,118300,475,1183
2013/09/26,118500,122400,115500,121000,462,1210
2013/09/27,122300,124700,120300,122000,371,1220
2013/09/30,121400,123500,118200,122000,300,1220
2013/10/01,120600,121800,118400,118500,358,1185
2013/10/02,118000,119400,116500,117000,267,1170
2013/10/03,118000,125000,116900,125000,1154,1250
2013/10/04,124600,124600,120000,124500,634,1245
2013/10/07,122200,123900,119000,119600,385,1196
2013/10/08,117900,121400,117200,121400,309,1214
2013/10/09,120000,123400,117700,123000,485,1230
2013/10/10,123100,126500,123100,124500,653,1245
2013/10/11,126500,128000,123200,124500,572,1245
2013/10/15,125500,127100,124500,124500,337,1245
2013/10/16,124000,127900,123500,125000,422,1250
2013/10/17,127000,127800,125000,125000,291,1250
2013/10/18,126000,133700,125100,131500,1963,1315
2013/10/21,134500,135900,131500,132600,1090,1326
2013/10/22,133600,133800,129700,131400,549,1314
2013/10/23,132000,132900,127600,128500,905,1285
2013/10/24,128500,133500,127000,131300,658,1313
2013/10/25,130200,134000,130200,132500,618,1325
2013/10/28,132500,134500,131700,132200,417,1322
2013/10/29,131100,132000,130100,130700,316,1307
2013/10/30,130200,131000,121200,123700,959,1237
2013/10/31,117700,118000,111600,114500,1909,1145
2013/11/01,114800,117800,109200,111700,1091,1117
2013/11/05,112300,112800,110000,111800,382,1118
2013/11/06,110800,112100,110800,111100,234,1111
2013/11/07,112300,113600,110500,112100,301,1121
2013/11/08,111000,111600,109500,109900,437,1099
2013/11/11,109200,110100,105700,106500,405,1065
2013/11/12,105800,109000,105800,108300,291,1083
2013/11/13,108400,109600,108000,109500,147,1095
2013/11/14,108800,112200,108500,110400,387,1104
2013/11/15,111400,112800,110400,110600,425,1106
2013/11/18,112800,118300,112000,115800,739,1158
2013/11/19,115800,116300,112800,114500,544,1145
2013/11/20,115400,115500,113200,114900,247,1149
2013/11/21,114000,114500,113000,113100,399,1131
2013/11/22,114700,116300,113200,113300,461,1133
2013/11/25,114500,114600,111400,112700,405,1127
2013/11/26,112900,112900,111600,112700,171,1127
2013/11/27,112800,112900,111300,111300,256,1113
2013/11/28,112000,112600,111300,112100,190,1121
2013/11/29,111800,114900,111800,112300,343,1123
2013/12/02,112900,114500,112300,114300,423,1143
2013/12/03,116400,117000,114300,115100,703,1151
2013/12/04,116000,116300,114100,115800,340,1158
2013/12/05,116100,118500,114800,117200,1161,1172
2013/12/06,116900,118000,113900,114900,519,1149
2013/12/09,116800,119100,116400,119100,748,1191
2013/12/10,120000,121000,117200,118600,855,1186
2013/12/11,118000,118800,116100,116400,478,1164
2013/12/12,115000,116400,113100,114800,643,1148
2013/12/13,115600,115800,114000,114300,283,1143
2013/12/16,114500,115500,110200,111000,616,1110
2013/12/17,111500,112200,110000,112100,383,1121
2013/12/18,112300,115000,111500,114200,493,1142
2013/12/19,114500,116400,114300,114500,1011,1145
2013/12/20,114500,115400,113000,114700,443,1147
2013/12/24,114100,114900,112000,112200,878,1122
2013/12/25,114000,115100,113500,115000,2307,1150
2013/12/26,112900,116400,112900,115700,633,1157
2013/12/27,115800,116000,113400,114600,447,1146
2013/12/30,114600,116800,113800,116400,596,1164
2014/01/06,115900,117000,115100,116400,483,1164
2014/01/07,116800,121500,115600,120100,1074,1201
2014/01/08,122500,127600,120900,127600,1571,1276
2014/01/09,128400,129800,125100,127500,1015,1275
2014/01/10,128000,128500,124100,127900,877,1279
2014/01/14,127000,128300,120200,125900,967,1259
2014/01/15,128800,134800,128500,131700,2280,1317
2014/01/16,137000,140000,133100,136600,2291,1366
2014/01/17,135000,135000,129000,132000,1339,1320
2014/01/20,133000,134700,130700,132500,771,1325
2014/01/21,133500,133500,129000,131000,694,1310
2014/01/22,132500,154000,131000,154000,4658,1540
2014/01/23,137000,140000,131400,132900,6770,1329
2014/01/24,129900,131500,126500,126900,1813,1269
2014/01/27,123500,123900,120500,121200,1411,1212
2014/01/28,120200,124700,118800,118900,1139,1189
2014/01/29,120000,123800,120000,122200,599,1222
2014/01/30,120000,121800,116500,117000,692,1170
2014/01/31,117900,118700,113000,115900,710,1159
2014/02/03,112400,113700,108100,108400,687,1084
2014/02/04,93400,101800,93400,98100,1612,981
2014/02/05,103300,105900,97100,102000,699,1020
2014/02/06,104800,106600,102000,105900,427,1059
2014/02/07,102900,105400,100200,100900,946,1009
2014/02/10,102600,103800,101400,102300,329,1023
2014/02/12,104000,106700,103700,103900,526,1039
2014/02/13,104500,105700,101200,101600,480,1016
2014/02/14,101400,102600,97100,100000,751,1000
2014/02/17,100000,102000,98000,100600,338,1006
2014/02/18,101200,103000,98400,102500,469,1025
2014/02/19,103500,104700,102500,103200,251,1032
2014/02/20,103000,103200,99500,100100,298,1001
2014/02/21,100600,103400,100600,103200,224,1032
2014/02/24,103300,104800,101000,101500,274,1015
2014/02/25,102400,103900,102000,103000,244,1030
2014/02/26,103100,103500,102000,102100,262,1021
2014/02/27,102100,102200,100500,101200,223,1012
2014/02/28,100700,101200,99700,100100,321,1001
2014/03/03,100000,100000,98100,99000,316,990
2014/03/04,98000,100700,97300,99500,218,995
2014/03/05,100700,101600,99800,100700,214,1007
2014/03/06,100000,103500,100000,102200,416,1022
2014/03/07,103500,104500,102600,104500,371,1045
2014/03/10,104700,106400,103200,104000,342,1040
2014/03/11,103800,103800,102100,102800,229,1028
2014/03/12,102500,102900,101100,101200,143,1012
2014/03/13,101500,102400,101200,101300,66,1013
2014/03/14,100100,100600,99100,99400,285,994
2014/03/17,99600,100000,98100,98200,220,982
2014/03/18,100700,101000,99400,99700,154,997
2014/03/19,100900,101000,99000,99500,260,995
2014/03/20,99500,99800,95600,96500,416,965
2014/03/24,96100,98300,96100,98300,207,983
2014/03/25,97200,98100,96200,96200,108,962
2014/03/26,97000,97100,95000,95000,170,950
2014/03/27,935,953,928,952,19200,952
2014/03/28,958,983,958,980,11600,980
2014/03/31,995,995,984,985,9400,985
2014/04/01,995,1002,990,998,12000,998
2014/04/02,999,1013,999,1008,16000,1008
2014/04/03,1010,1013,1001,1004,7900,1004
2014/04/04,1010,1010,999,1003,11200,1003
2014/04/07,999,999,985,989,10400,989
2014/04/08,989,989,976,982,5300,982
2014/04/09,976,979,947,952,23600,952
2014/04/10,961,966,932,934,17100,934
2014/04/11,920,946,914,921,21900,921
2014/04/14,906,932,905,929,11800,929
2014/04/15,941,944,921,927,10800,927
2014/04/16,925,957,925,951,23000,951
2014/04/17,966,974,948,953,11100,953
2014/04/18,953,960,948,948,5600,948
2014/04/21,948,963,946,952,4900,952
2014/04/22,950,960,950,960,10800,960
2014/04/23,960,960,951,957,5800,957
2014/04/24,960,963,958,958,5200,958
2014/04/25,964,964,950,953,4000,953
2014/04/28,941,950,931,938,8300,938
2014/04/30,938,948,935,945,5400,945
2014/05/01,954,976,954,972,13900,972
2014/05/02,1020,1020,993,1006,38400,1006
2014/05/07,1001,1001,981,985,15000,985
2014/05/08,988,994,985,985,8000,985
2014/05/09,985,989,966,970,7500,970
2014/05/12,960,972,936,938,18800,938
2014/05/13,936,954,936,939,7300,939
2014/05/14,930,946,928,930,14200,930
2014/05/15,930,931,925,927,10900,927
2014/05/16,930,930,916,924,10000,924
2014/05/19,915,920,897,898,19700,898
2014/05/20,900,919,899,907,10400,907
2014/05/21,913,913,897,903,8000,903
2014/05/22,906,920,903,920,10100,920
2014/05/23,932,945,926,939,14100,939
2014/05/26,950,954,945,953,12400,953
2014/05/27,957,969,953,953,11400,953
2014/05/28,953,974,945,974,8800,974
2014/05/29,979,979,962,972,9900,972
2014/05/30,970,988,963,965,21800,965
2014/06/02,979,995,979,992,16500,992
2014/06/03,1000,1005,995,1001,19800,1001
2014/06/04,1015,1043,1000,1039,55300,1039
2014/06/05,1021,1039,985,999,34600,999
2014/06/06,1005,1020,989,1020,19600,1020
2014/06/09,1040,1042,1028,1033,15300,1033
2014/06/10,1040,1040,1000,1003,17700,1003
2014/06/11,1001,1018,1000,1016,11700,1016
2014/06/12,990,1022,988,1015,16100,1015
2014/06/13,1011,1033,1000,1029,20800,1029
2014/06/16,1029,1033,1020,1021,15600,1021
2014/06/17,1021,1021,1010,1018,13900,1018
2014/06/18,1012,1020,1007,1015,9800,1015
2014/06/19,1023,1050,1020,1050,42400,1050
2014/06/20,1075,1167,1057,1088,169000,1088
2014/06/23,1110,1110,1082,1093,39900,1093
2014/06/24,1100,1105,1070,1075,38000,1075
2014/06/25,1060,1074,1050,1050,204900,1050
2014/06/26,1054,1089,1052,1086,49500,1086
2014/06/27,1085,1085,1049,1056,31500,1056
2014/06/30,1065,1074,1051,1068,16900,1068
2014/07/01,1068,1075,1057,1070,14700,1070
2014/07/02,1073,1079,1068,1069,8600,1069
2014/07/03,1065,1070,1031,1057,19000,1057
2014/07/04,1060,1065,1040,1048,12500,1048
2014/07/07,1042,1063,1042,1055,11100,1055
2014/07/08,1047,1060,1047,1056,6500,1056
2014/07/09,1051,1051,1037,1042,9400,1042
2014/07/10,1042,1050,1020,1022,20400,1022
2014/07/11,1010,1015,1002,1014,15400,1014
2014/07/14,1014,1022,1004,1013,12100,1013
2014/07/15,1015,1032,1015,1025,13900,1025
2014/07/16,1032,1033,1010,1013,18400,1013
2014/07/17,1013,1016,1004,1009,11200,1009
2014/07/18,1000,1018,991,1017,19300,1017
2014/07/22,1020,1059,1020,1040,34800,1040
2014/07/23,1040,1047,1032,1043,10900,1043
2014/07/24,1036,1049,1035,1037,6000,1037
2014/07/25,1030,1062,1030,1062,19200,1062
2014/07/28,1060,1060,1042,1052,12200,1052
2014/07/29,1060,1065,1053,1062,15700,1062
2014/07/30,1066,1066,1046,1050,8100,1050
2014/07/31,1044,1052,1029,1040,15500,1040
2014/08/01,1009,1020,1006,1011,16800,1011
2014/08/04,1035,1039,993,1031,28000,1031
2014/08/05,1034,1034,1012,1014,8200,1014
2014/08/06,996,1011,993,1007,25000,1007
2014/08/07,1007,1018,995,1005,9100,1005
2014/08/08,992,998,984,985,34600,985
2014/08/11,1005,1008,1000,1008,11300,1008
2014/08/12,1008,1008,998,1006,11800,1006
2014/08/13,990,1004,990,998,10200,998
2014/08/14,998,1012,991,995,19700,995
2014/08/15,1005,1005,992,995,17300,995
2014/08/18,992,998,991,995,9000,995
2014/08/19,1000,1003,997,997,9500,997
2014/08/20,1000,1013,1000,1004,10700,1004
2014/08/21,1004,1015,998,1006,24500,1006
2014/08/22,1009,1009,995,996,19300,996
2014/08/25,996,1012,996,1000,13300,1000
2014/08/26,1000,1015,999,1003,14400,1003
2014/08/27,1012,1024,1007,1022,25100,1022
2014/08/28,1043,1043,1015,1020,21000,1020
2014/08/29,1017,1027,1002,1023,8000,1023
2014/09/01,1025,1046,1025,1032,12500,1032
2014/09/02,1039,1040,1002,1006,29500,1006
2014/09/03,1007,1028,1007,1016,14500,1016
2014/09/04,1008,1018,1005,1008,9600,1008
2014/09/05,1011,1025,1011,1017,9100,1017
2014/09/08,1024,1027,1021,1026,7000,1026
2014/09/09,1028,1036,1022,1035,20800,1035
2014/09/10,1036,1036,1012,1015,11100,1015
2014/09/11,1013,1031,1008,1031,35700,1031
2014/09/12,1031,1035,1014,1030,15800,1030
2014/09/16,1030,1030,1005,1005,26900,1005
2014/09/17,1001,1013,997,1002,35900,1002
2014/09/18,1002,1015,1000,1011,16000,1011
2014/09/19,1004,1015,1004,1015,20100,1015
2014/09/22,1017,1030,1012,1015,19100,1015
2014/09/24,1011,1028,1011,1023,9200,1023
2014/09/25,1030,1047,1025,1038,28600,1038
2014/09/26,1038,1039,1032,1035,12700,1035
2014/09/29,1038,1060,1038,1059,29400,1059
2014/09/30,1060,1085,1030,1044,65600,1044
2014/10/01,1040,1040,1011,1033,37700,1033
2014/10/02,1005,1015,999,1010,24600,1010
2014/10/03,1000,1019,1000,1007,12600,1007
2014/10/06,1015,1035,1010,1030,31400,1030
2014/10/07,1027,1035,1018,1018,7600,1018
2014/10/08,1009,1009,1000,1006,11600,1006
2014/10/09,1009,1014,1000,1005,14900,1005
2014/10/10,983,1000,983,995,18200,995
2014/10/14,980,986,965,978,20100,978
2014/10/15,984,995,973,989,10300,989
2014/10/16,964,969,942,947,19300,947
2014/10/17,1080,1080,1011,1018,153200,1018
2014/10/20,1048,1059,1035,1046,51400,1046
2014/10/21,1046,1070,1040,1053,33000,1053
2014/10/22,1066,1104,1066,1103,65800,1103
2014/10/23,1111,1120,1087,1115,69100,1115
2014/10/24,1124,1135,1067,1097,58700,1097
2014/10/27,1103,1103,1070,1097,26000,1097
2014/10/28,1108,1125,1101,1119,39000,1119
2014/10/29,1131,1134,1108,1118,22100,1118
2014/10/30,1129,1129,1078,1082,36900,1082
2014/10/31,1100,1113,1088,1100,34200,1100
2014/11/04,1101,1102,1072,1085,57800,1085
2014/11/05,1095,1095,1074,1080,17100,1080
2014/11/06,1080,1082,1063,1071,27400,1071
2014/11/07,1079,1082,1050,1071,24400,1071
2014/11/10,1078,1085,1073,1085,11900,1085
2014/11/11,1088,1088,1055,1077,36200,1077
2014/11/12,1088,1089,1076,1085,42200,1085
2014/11/13,1088,1106,1077,1104,61900,1104
2014/11/14,1108,1139,1108,1130,83300,1130
2014/11/17,1140,1142,1112,1119,41600,1119
2014/11/18,1131,1146,1129,1141,44400,1141
2014/11/19,1148,1165,1145,1159,40600,1159
2014/11/20,1170,1187,1160,1180,64800,1180
2014/11/21,1196,1196,1177,1182,41100,1182
2014/11/25,1190,1194,1156,1166,51900,1166
2014/11/26,1168,1238,1168,1197,131200,1197
2014/11/27,1180,1276,1179,1276,244800,1276
2014/11/28,1265,1298,1254,1254,93300,1254
2014/12/01,1230,1247,1220,1228,38400,1228
2014/12/02,1216,1234,1202,1223,39200,1223
2014/12/03,1228,1228,1202,1204,26800,1204
2014/12/04,1201,1204,1181,1188,44500,1188
2014/12/05,1172,1183,1172,1176,22800,1176
2014/12/08,1192,1192,1165,1165,18100,1165
2014/12/09,1156,1165,1135,1137,27900,1137
2014/12/10,1110,1145,1110,1123,21300,1123
2014/12/11,1130,1147,1120,1141,22400,1141
2014/12/12,1148,1172,1148,1150,34000,1150
2014/12/15,1153,1157,1135,1135,11900,1135
2014/12/16,1121,1121,1082,1087,33800,1087
2014/12/17,1080,1083,1041,1047,61000,1047
2014/12/18,1061,1070,1046,1049,62700,1049
2014/12/19,1058,1070,1050,1065,34800,1065
2014/12/22,1065,1065,1052,1054,61000,1054
2014/12/24,1053,1057,1042,1044,56900,1044
2014/12/25,1050,1078,1044,1078,225100,1078
2014/12/26,1058,1063,1046,1050,65200,1050
2014/12/29,1056,1056,1028,1039,38700,1039
2014/12/30,1036,1045,1023,1024,20000,1024
2015/01/05,1022,1038,1022,1035,12400,1035
2015/01/06,1026,1035,1011,1015,21600,1015
2015/01/07,1002,1016,1002,1006,16100,1006
2015/01/08,1007,1012,1005,1006,16300,1006
2015/01/09,1013,1026,1006,1015,16100,1015
2015/01/13,1005,1023,1000,1019,23200,1019
2015/01/14,1013,1018,1001,1006,9700,1006
2015/01/15,1007,1010,1000,1009,13100,1009
2015/01/16,999,1001,990,1001,20000,1001
2015/01/19,1009,1020,1000,1006,11200,1006
2015/01/20,1025,1034,1015,1034,15700,1034
2015/01/21,1034,1034,1011,1015,12500,1015
2015/01/22,1028,1028,1007,1022,12700,1022
2015/01/23,1025,1025,1013,1015,9500,1015
2015/01/26,1006,1015,1001,1013,15600,1013
2015/01/27,1013,1014,994,1009,22400,1009
2015/01/28,1000,1012,998,1002,28400,1002
2015/01/29,998,1007,994,995,11400,995
2015/01/30,993,1010,990,998,18500,998
2015/02/02,998,1005,995,997,13100,997
2015/02/03,1000,1000,972,974,25700,974
2015/02/04,984,994,984,994,9700,994
2015/02/05,994,1007,991,995,20900,995
2015/02/06,845,878,845,867,410900,867
2015/02/09,880,890,863,880,95700,880
2015/02/10,884,888,870,876,45400,876
2015/02/12,887,887,870,870,44800,870
2015/02/13,870,880,870,873,29100,873
2015/02/16,880,883,872,875,31900,875
2015/02/17,872,879,866,872,38400,872
2015/02/18,871,878,869,876,32500,876
2015/02/19,876,884,874,881,26700,881
2015/02/20,890,890,878,884,29200,884
2015/02/23,887,889,880,880,25800,880
2015/02/24,882,885,874,881,26200,881
2015/02/25,884,887,878,882,11700,882
2015/02/26,887,887,881,881,15900,881
2015/02/27,887,887,881,885,25400,885
2015/03/02,888,895,888,892,19800,892
2015/03/03,886,893,883,885,28100,885
2015/03/04,891,891,875,886,30600,886
2015/03/05,882,893,875,883,24100,883
2015/03/06,885,895,883,888,29500,888
2015/03/09,893,893,875,885,21600,885
2015/03/10,885,915,872,880,57400,880
2015/03/11,880,885,876,879,19100,879
2015/03/12,883,891,881,885,16700,885
2015/03/13,890,892,886,889,21600,889
2015/03/16,894,903,887,890,38700,890
2015/03/17,897,913,895,907,32700,907
2015/03/18,907,924,905,924,21600,924
2015/03/19,930,930,907,927,32300,927
2015/03/20,930,950,921,940,35800,940
2015/03/23,950,960,927,936,33600,936
2015/03/24,935,937,916,923,27600,923
2015/03/25,925,928,901,914,19500,914
2015/03/26,905,906,880,886,36100,886
2015/03/27,880,890,880,883,27300,883
2015/03/30,872,895,872,887,22700,887
2015/03/31,884,910,884,910,19100,910
2015/04/01,903,903,888,888,17200,888
2015/04/02,904,919,904,911,27100,911
2015/04/03,917,921,910,919,15800,919
2015/04/06,920,940,911,936,24400,936
2015/04/07,937,948,935,947,37700,947
2015/04/08,947,960,943,945,30000,945
2015/04/09,945,958,940,947,21400,947
2015/04/10,956,956,935,941,12500,941
2015/04/13,945,951,935,939,11200,939
2015/04/14,935,942,912,937,17900,937
2015/04/15,933,935,921,930,17000,930
2015/04/16,930,930,918,929,13700,929
2015/04/17,926,938,924,927,12200,927
2015/04/20,920,927,918,924,10100,924
2015/04/21,924,936,920,935,10700,935
2015/04/22,935,935,921,925,15000,925
2015/04/23,936,936,923,923,16500,923
2015/04/24,932,932,921,922,7100,922
2015/04/27,930,930,911,917,17900,917
2015/04/28,916,920,901,903,61300,903
2015/04/30,906,909,896,901,23900,901
2015/05/01,880,894,880,894,36400,894
2015/05/07,894,905,890,894,18300,894
2015/05/08,888,909,888,903,16800,903
2015/05/11,905,908,902,903,11400,903
2015/05/12,902,905,897,904,8700,904
2015/05/13,907,915,902,912,14200,912
2015/05/14,915,917,902,902,15600,902
2015/05/15,901,908,895,904,15900,904
2015/05/18,910,910,899,907,27100,907
2015/05/19,908,910,901,908,19100,908
2015/05/20,908,913,900,905,12900,905
2015/05/21,909,912,902,902,12200,902
2015/05/22,903,905,902,904,4900,904
2015/05/25,903,906,900,900,15300,900
2015/05/26,906,906,897,899,11900,899
2015/05/27,900,905,899,903,11900,903
2015/05/28,905,907,902,905,6200,905
2015/05/29,905,905,898,904,15600,904
2015/06/01,900,904,898,903,9200,903
2015/06/02,906,914,902,906,13400,906
2015/06/03,908,913,904,912,10100,912
2015/06/04,912,914,906,908,14500,908
2015/06/05,907,931,907,926,31800,926
2015/06/08,931,944,931,939,33900,939
2015/06/09,924,925,909,911,47200,911
2015/06/10,915,923,915,918,18300,918
2015/06/11,922,928,916,923,11800,923
2015/06/12,932,938,923,934,34700,934
2015/06/15,945,1014,935,1014,160800,1014
2015/06/16,1034,1039,991,1004,138600,1004
2015/06/17,1002,1003,979,979,42800,979
2015/06/18,976,979,957,960,32400,960
2015/06/19,960,984,960,971,27400,971
2015/06/22,1000,1000,975,981,35600,981
2015/06/23,983,990,970,983,43300,983
2015/06/24,976,986,972,975,34300,975
2015/06/25,972,994,972,982,214400,982
2015/06/26,988,988,975,977,62800,977
2015/06/29,962,962,932,944,33600,944
2015/06/30,940,959,940,957,25200,957
2015/07/01,953,973,953,972,17000,972
