2010/01/04,80000,80000,80000,80000,5,800
2010/01/14,73500,77500,73500,77500,5,775
2010/01/18,72500,77500,72500,77500,6,775
2010/01/19,79000,79500,79000,79500,6,795
2010/01/28,75000,79400,75000,79400,5,794
2010/02/05,78000,79300,78000,79300,2,793
2010/02/09,76300,79300,76300,79300,6,793
2010/02/15,78000,79000,78000,79000,3,790
2010/02/24,76000,78500,76000,78500,6,785
2010/03/01,76000,77800,76000,77800,3,778
2010/03/02,76000,77800,76000,77800,4,778
2010/03/09,76300,77800,76300,77800,9,778
2010/03/23,76300,77800,76300,77800,4,778
2010/03/24,77700,77800,76300,77300,6,773
2010/04/01,77100,77300,75800,77300,7,773
2010/04/05,77800,77800,77800,77800,3,778
2010/04/07,76300,77600,76300,77600,2,776
2010/04/08,77000,77800,77000,77800,4,778
2010/04/09,76300,77800,76300,77800,3,778
2010/04/12,75000,77500,75000,77300,17,773
2010/04/19,77000,77500,77000,77500,8,775
2010/04/22,74500,77400,73200,77400,24,774
2010/04/23,76000,77400,76000,77400,6,774
2010/04/26,77400,77400,77400,77400,3,774
2010/04/28,76100,77400,75900,77300,32,773
2010/05/06,75800,76800,75800,76800,4,768
2010/05/07,76400,76400,76400,76400,1,764
2010/05/17,73500,76200,73500,76200,10,762
2010/05/19,73600,76100,73600,76100,8,761
2010/05/20,74600,76000,74600,76000,3,760
2010/05/21,75000,76200,75000,76200,6,762
2010/05/24,74700,76100,74000,76100,16,761
2010/05/25,79900,85000,77700,83500,10,835
2010/05/26,82000,90000,82000,90000,9,900
2010/05/28,88000,88000,88000,88000,4,880
2010/06/21,90000,90000,83000,86000,3,860
2010/06/25,80000,85500,80000,85500,5,855
2010/07/14,80100,85000,80100,85000,3,850
2010/07/15,82000,85000,82000,85000,3,850
2010/07/23,83000,85000,83000,85000,3,850
2010/07/28,83500,83500,80500,82600,6,826
2010/07/29,81100,82600,81100,82600,2,826
2010/08/09,79500,80900,79500,80900,2,809
2010/08/10,79400,81000,79400,80900,4,809
2010/08/17,80900,84900,80900,84900,3,849
2010/08/19,80400,83400,80400,83400,2,834
2010/08/20,80400,83400,80400,83400,3,834
2010/08/23,80700,83600,80700,83600,2,836
2010/08/24,80700,82200,80700,82200,2,822
2010/08/25,80700,82200,80700,81200,3,812
2010/08/26,84200,84200,81300,81300,2,813
2010/08/27,80000,83000,80000,83000,5,830
2010/09/21,80500,80500,80500,80500,1,805
2010/09/22,82000,82000,82000,82000,1,820
2010/09/24,80600,80600,80500,80500,2,805
2010/10/12,76800,80000,76800,80000,3,800
2010/10/14,79500,79500,78000,78000,5,780
2010/10/15,79500,79500,79500,79500,2,795
2010/10/19,76500,78900,76500,78900,2,789
2010/10/21,75900,78800,75900,78800,2,788
2010/10/22,76500,76500,76500,76500,3,765
2010/10/25,78500,78500,78500,78500,2,785
2010/10/26,74000,81500,74000,81500,4,815
2010/10/29,76000,79000,76000,79000,2,790
2010/11/01,83500,83500,83500,83500,1,835
2010/11/09,77500,79000,77500,79000,4,790
2010/11/26,78900,78900,78900,78900,1,789
2010/11/29,83500,83500,83500,83500,2,835
2010/12/02,80000,80000,80000,80000,2,800
2010/12/03,79000,82000,79000,82000,3,820
2010/12/06,77500,79800,77500,79800,8,798
2010/12/13,76800,79800,76800,79800,2,798
2010/12/14,77500,79000,77500,79000,3,790
2010/12/17,78000,78000,78000,78000,5,780
2010/12/20,78000,84000,78000,84000,4,840
2010/12/22,81000,81000,79500,80600,5,806
2011/01/05,78200,84000,78200,84000,3,840
2011/01/14,79000,80500,79000,80500,2,805
2011/01/17,79000,79000,77700,77700,6,777
2011/01/18,76200,78500,76200,78500,2,785
2011/01/19,80200,80200,80200,80200,2,802
2011/01/25,77200,79900,77200,79900,3,799
2011/02/02,78400,79700,78400,79700,2,797
2011/02/03,78200,79000,78200,79000,2,790
2011/02/07,79000,79100,77600,79100,17,791
2011/03/09,80000,80000,80000,80000,2,800
2011/03/11,75600,79500,75500,79500,4,795
2011/04/18,71900,77000,70000,77000,22,770
2011/04/19,72500,76000,72500,76000,9,760
2011/04/21,71500,76000,70000,76000,12,760
2011/04/25,72000,75000,72000,75000,5,750
2011/05/06,72100,74000,72100,74000,7,740
2011/05/09,71600,74000,71600,74000,6,740
2011/05/10,73500,81900,73500,81900,15,819
2011/05/11,75000,75900,75000,75900,2,759
2011/05/16,78900,78900,78900,78900,2,789
2011/05/20,76500,77500,76500,77500,2,775
2011/05/24,80000,80000,80000,80000,3,800
2011/05/25,75300,76900,72500,76900,8,769
2011/05/27,73900,76900,73900,76900,4,769
2011/06/01,72900,75500,72500,75500,11,755
2011/06/02,76000,76000,76000,76000,3,760
2011/06/07,79000,82000,79000,82000,4,820
2011/07/01,75600,78600,75600,78600,2,786
2011/07/04,78000,80000,78000,80000,3,800
2011/08/05,73500,78000,73500,78000,3,780
2011/08/09,73500,77900,73500,77900,5,779
2011/08/11,75000,75000,74000,75000,4,750
2011/08/15,79500,80000,79500,80000,6,800
2011/08/16,75500,79900,75500,79900,4,799
2011/08/17,79700,79700,79700,79700,1,797
2011/08/25,75200,78000,75200,78000,7,780
2011/08/31,75800,77700,75700,77700,5,777
2011/09/01,74800,74800,74600,74600,3,746
2011/09/02,77000,78000,77000,78000,3,780
2011/09/05,76500,78000,76500,78000,2,780
2011/09/06,75900,78400,75900,78400,3,784
2011/09/08,76500,78400,76500,78400,2,784
2011/09/20,76200,77700,76200,77700,2,777
2011/09/27,74700,79200,74700,79200,11,792
2011/09/28,76200,79200,76200,79200,2,792
2011/10/03,76200,76200,76200,76200,1,762
2011/10/04,77700,77700,77700,77700,1,777
2011/10/06,76300,77800,76300,77800,2,778
2011/10/18,75200,76100,75200,76100,6,761
2011/10/28,78400,78400,78400,78400,4,784
2011/11/04,76000,78900,76000,78900,6,789
2011/12/08,78900,78900,75900,78900,3,789
2011/12/12,76000,79000,76000,79000,2,790
2011/12/27,76000,78900,76000,78900,2,789
2011/12/28,76100,78500,76100,78500,3,785
2011/12/29,77000,78200,76200,78200,5,782
2012/01/13,76000,77500,76000,77500,3,775
2012/02/02,74800,76500,74100,76500,4,765
2012/02/09,74000,75800,74000,75800,4,758
2012/02/27,76300,80000,76300,80000,5,800
2012/03/02,74000,80000,74000,80000,3,800
2012/03/05,80000,80000,80000,80000,2,800
2012/03/06,76200,80500,76200,80500,2,805
2012/03/13,76000,79000,76000,79000,8,790
2012/03/19,76900,76900,76900,76900,1,769
2012/03/28,85000,85000,77500,77500,5,775
2012/03/30,79000,79000,79000,79000,1,790
2012/04/06,76700,79400,76700,79400,4,794
2012/04/09,79400,79400,79400,79400,1,794
2012/04/10,82900,82900,82900,82900,1,829
2012/05/02,79000,80500,74600,80500,10,805
2012/05/07,82000,83000,82000,83000,2,830
2012/05/10,76700,82000,76700,82000,2,820
2012/05/14,77500,80700,76200,80700,4,807
2012/05/15,77700,80700,77700,80700,2,807
2012/05/25,81400,81400,76900,81400,4,814
2012/06/04,76900,81300,76900,81300,2,813
2012/06/12,79000,79000,79000,79000,1,790
2012/06/20,79900,79900,77800,79500,4,795
2012/06/29,75000,76500,75000,76500,9,765
2012/07/02,77500,79800,75500,76000,10,760
2012/07/03,74500,74900,73000,74900,9,749
2012/07/04,73400,79400,71000,79400,17,794
2012/07/05,75100,76600,73600,76600,5,766
2012/07/06,78100,81100,78100,81100,10,811
2012/07/09,76600,79200,74400,79200,6,792
2012/07/17,76200,77700,76200,77700,2,777
2012/07/20,78800,78800,78800,78800,1,788
2012/08/01,75200,78100,75100,78100,4,781
2012/08/07,75100,75100,75100,75100,4,751
2012/08/08,75100,77000,75100,77000,2,770
2012/08/10,79100,79100,79100,79100,3,791
2012/08/14,76100,78400,76100,78400,4,784
2012/08/15,76000,76800,75700,76800,5,768
2012/08/20,75300,75300,75300,75300,3,753
2012/08/21,76500,76500,76500,76500,1,765
2012/08/22,75000,76200,75000,76200,2,762
2012/09/05,70000,76000,70000,76000,8,760
2012/09/10,71500,74700,71500,74700,8,747
2012/09/11,70200,73500,70200,73500,9,735
2012/09/14,70600,76000,70600,76000,24,760
2012/09/24,76000,82000,76000,82000,2,820
2012/09/28,72300,76000,72100,76000,7,760
2012/10/10,73500,76000,73500,76000,3,760
2012/10/15,74500,75900,74500,75900,2,759
2012/10/18,74400,76000,74400,76000,3,760
2012/10/19,74500,76000,74500,76000,4,760
2012/10/24,74500,74500,74500,74500,1,745
2012/10/26,76000,81000,76000,81000,7,810
2012/11/05,76500,80900,76500,80900,2,809
2012/11/30,72900,80800,72900,80800,18,808
2012/12/04,76000,76000,76000,76000,1,760
2012/12/07,77900,78000,77900,78000,3,780
2012/12/12,74000,74000,74000,74000,10,740
2012/12/13,71100,74000,71100,74000,14,740
2012/12/14,75700,75700,75700,75700,5,757
2012/12/17,73000,74500,73000,74500,3,745
2012/12/20,76800,76800,76800,76800,20,768
2012/12/21,76700,78000,76700,78000,21,780
2012/12/28,79500,82500,79500,82500,7,825
2013/01/07,77200,78700,77200,78700,6,787
2013/01/10,75500,78500,75500,78500,4,785
2013/01/11,76000,76500,75500,76500,5,765
2013/01/25,75000,76000,75000,76000,3,760
2013/01/28,74500,76000,74500,76000,2,760
2013/01/29,74500,74500,74500,74500,1,745
2013/01/30,75700,75700,74200,75700,5,757
2013/01/31,74200,75700,74200,75700,4,757
2013/02/05,74200,75900,74200,75900,3,759
2013/02/06,74500,74500,74500,74500,1,745
2013/02/07,75900,75900,75900,75900,1,759
2013/02/08,74900,76400,74600,76400,8,764
2013/02/14,75100,75100,75100,75100,1,751
2013/02/25,75100,75400,72100,75300,15,753
2013/02/27,74000,75300,74000,75300,5,753
2013/03/01,73800,75100,72600,75100,6,751
2013/03/04,75000,75000,75000,75000,3,750
2013/03/05,73900,75000,73900,75000,4,750
2013/03/07,73700,75000,73700,75000,11,750
2013/03/12,74000,75300,74000,75300,4,753
2013/03/13,74200,74200,74200,74200,1,742
2013/03/14,75500,75500,75500,75500,1,755
2013/03/15,74500,75100,74300,75100,4,751
2013/03/18,73700,75200,73700,75200,6,752
2013/03/19,76700,76700,76700,76700,1,767
2013/03/21,76700,76700,75200,75200,27,752
2013/03/22,76700,76700,72500,74900,46,749
2013/03/28,76400,76400,76400,76400,1,764
2013/04/12,74900,75000,74900,75000,2,750
2013/04/17,73200,75000,73200,75000,5,750
2013/04/19,74800,75900,74800,75900,66,759
2013/04/23,74400,75700,74400,75700,3,757
2013/05/02,75700,75700,75700,75700,32,757
2013/05/07,75700,75700,75700,75700,14,757
2013/05/08,74200,75500,73600,75500,3,755
2013/05/09,75700,75700,75700,75700,3,757
2013/05/13,75500,75500,75500,75500,4,755
2013/05/14,75000,75500,75000,75500,9,755
2013/05/16,74100,75400,73600,75300,12,753
2013/05/17,75300,75300,75300,75300,1,753
2013/05/20,74200,75500,73500,75400,28,754
2013/05/21,73900,75200,73000,74900,22,749
2013/05/22,74500,74500,73500,74500,6,745
2013/05/23,75000,75400,73000,73000,15,730
2013/05/24,74000,79400,74000,79400,37,794
2013/05/27,79000,79000,76500,78900,15,789
2013/05/29,75700,78900,75700,78900,7,789
2013/06/04,74400,78500,74400,78500,2,785
2013/06/07,75500,78300,75500,78300,2,783
2013/06/11,75800,78100,75800,78100,4,781
2013/06/12,76600,77400,76100,77400,6,774
2013/06/19,76800,76800,73500,76000,8,760
2013/06/20,76000,77100,74700,76500,28,765
2013/07/12,73500,75000,70700,75000,25,750
2013/07/16,74900,75900,74900,75900,5,759
2013/07/18,74400,74800,73000,74800,5,748
2013/07/19,73400,74700,72000,74700,16,747
2013/07/25,73200,78000,73000,78000,18,780
2013/07/26,75000,78000,75000,78000,17,780
2013/07/30,78000,79500,78000,79500,12,795
2013/07/31,78000,78000,78000,78000,1,780
2013/08/06,76500,77800,76500,77800,2,778
2013/08/08,74900,77700,74100,77700,6,777
2013/08/19,73800,75600,73400,75600,18,756
2013/08/20,74100,74100,74100,74100,1,741
2013/08/21,75100,75100,75000,75000,5,750
2013/08/22,73900,75100,72800,75100,10,751
2013/08/23,73900,75000,73000,75000,38,750
2013/08/26,75300,76800,75300,76700,7,767
2013/09/03,74100,76300,73000,75000,30,750
2013/09/10,73500,74900,73500,74900,6,749
2013/09/12,74800,74800,73100,74200,21,742
2013/09/17,74100,74500,72100,74000,30,740
2013/09/18,74700,74700,73800,74400,6,744
2013/09/20,73500,74200,72600,74200,11,742
2013/09/24,74700,74700,72600,74400,26,744
2013/09/25,75900,77400,72900,74400,125,744
2013/09/26,749,749,749,749,100,749
2013/09/27,748,748,735,747,800,747
2013/10/02,732,746,720,746,1900,746
2013/10/03,740,743,725,743,2300,743
2013/10/07,744,744,744,744,1300,744
2013/10/10,739,739,716,733,2800,733
2013/10/15,733,741,733,741,200,741
2013/10/16,740,740,733,733,300,733
2013/10/17,731,749,731,749,2200,749
2013/10/21,738,739,738,739,300,739
2013/10/22,754,754,734,749,1200,749
2013/10/24,763,763,735,742,900,742
2013/10/29,743,743,743,743,1100,743
2013/10/30,735,735,735,735,100,735
2013/11/01,743,743,734,734,200,734
2013/11/05,725,755,725,755,200,755
2013/11/11,730,740,727,740,400,740
2013/11/13,725,725,725,725,400,725
2013/11/14,725,740,725,740,3300,740
2013/11/15,740,760,740,760,1700,760
2013/11/18,727,735,721,728,2200,728
2013/11/19,732,732,722,729,1100,729
2013/11/26,721,730,721,730,200,730
2013/11/27,732,732,732,732,100,732
2013/11/29,737,737,737,737,100,737
2013/12/02,729,737,729,729,600,729
2013/12/03,737,739,737,739,200,739
2013/12/04,769,769,727,727,5800,727
2013/12/05,739,826,739,750,15700,750
2013/12/06,855,900,855,900,15000,900
2013/12/09,840,1050,833,1050,51200,1050
2013/12/10,1301,1350,1250,1350,69800,1350
2013/12/11,1334,1334,1050,1087,95800,1087
2013/12/12,1027,1028,921,946,50500,946
2013/12/13,946,946,884,900,25600,900
2013/12/16,882,883,810,810,16900,810
2013/12/17,803,849,788,821,8100,821
2013/12/18,820,821,780,807,9200,807
2013/12/19,792,802,750,770,12100,770
2013/12/20,763,769,745,769,6300,769
2013/12/24,768,771,748,766,3000,766
2013/12/25,766,770,752,769,7900,769
2013/12/26,769,772,756,757,3500,757
2013/12/27,764,770,760,769,2300,769
2013/12/30,754,765,726,765,8000,765
2014/01/06,767,767,746,765,5700,765
2014/01/07,750,768,750,759,5100,759
2014/01/08,729,755,720,755,15400,755
2014/01/09,754,754,741,742,2800,742
2014/01/10,740,754,735,745,2900,745
2014/01/14,741,745,710,719,7200,719
2014/01/15,725,729,723,729,2500,729
2014/01/16,729,735,721,735,2200,735
2014/01/17,731,740,731,740,1500,740
2014/01/20,742,750,742,750,1800,750
2014/01/21,747,747,735,735,2400,735
2014/01/22,735,735,726,731,4500,731
2014/01/23,734,743,734,740,1300,740
2014/01/24,730,733,723,723,3300,723
2014/01/27,720,721,701,721,4800,721
2014/01/28,711,721,700,711,3400,711
2014/01/29,707,721,707,721,1700,721
2014/01/30,710,721,710,721,500,721
2014/01/31,710,727,705,705,1300,705
2014/02/03,720,720,701,709,1600,709
2014/02/04,614,631,590,631,3700,631
2014/02/05,631,640,620,640,1600,640
2014/02/06,620,645,620,620,900,620
2014/02/07,621,641,621,641,200,641
2014/02/10,631,648,631,648,300,648
2014/02/12,640,648,636,640,1400,640
2014/02/13,650,659,638,638,900,638
2014/02/14,648,648,648,648,100,648
2014/02/17,650,655,635,635,500,635
2014/02/18,635,699,635,685,5600,685
2014/02/19,685,685,661,669,1000,669
2014/02/20,684,684,664,684,600,684
2014/02/21,684,684,680,680,200,680
2014/02/24,680,680,656,676,500,676
2014/02/25,661,670,661,662,300,662
2014/02/26,662,662,653,653,800,653
2014/02/27,653,663,653,663,200,663
2014/02/28,653,653,653,653,100,653
2014/03/03,653,661,651,661,700,661
2014/03/04,651,651,650,650,500,650
2014/03/05,660,660,660,660,100,660
2014/03/07,650,679,645,668,1700,668
2014/03/10,668,700,668,671,1600,671
2014/03/12,661,661,636,636,2100,636
2014/03/13,638,736,636,736,9100,736
2014/03/14,691,708,656,656,9600,656
2014/03/17,756,756,756,756,2800,756
2014/03/18,886,906,802,870,83900,870
2014/03/19,780,850,725,726,53100,726
2014/03/20,711,711,656,656,9700,656
2014/03/24,650,656,598,622,14100,622
2014/03/25,640,640,604,613,2600,613
2014/03/26,613,628,590,600,3900,600
2014/03/27,599,616,594,610,2000,610
2014/03/28,613,617,613,614,700,614
2014/03/31,616,650,616,650,1600,650
2014/04/01,627,649,627,642,800,642
2014/04/03,652,652,632,640,2300,640
2014/04/04,640,666,640,665,1300,665
2014/04/07,659,660,642,642,700,642
2014/04/08,635,641,631,637,400,637
2014/04/09,633,633,632,632,500,632
2014/04/10,652,652,652,652,100,652
2014/04/11,639,639,639,639,700,639
2014/04/14,629,629,624,624,200,624
2014/04/15,630,639,627,627,300,627
2014/04/16,630,630,630,630,200,630
2014/04/18,639,639,639,639,100,639
2014/04/22,629,629,629,629,800,629
2014/04/24,633,633,633,633,100,633
2014/04/25,635,673,635,663,1600,663
2014/04/28,650,650,627,627,600,627
2014/04/30,646,646,646,646,100,646
2014/05/01,656,666,656,666,300,666
2014/05/02,640,640,605,630,3400,630
2014/05/07,622,632,621,621,600,621
2014/05/08,620,630,611,611,500,611
2014/05/09,608,610,600,610,1900,610
2014/05/12,610,615,610,615,300,615
2014/05/13,615,615,602,602,500,602
2014/05/15,592,620,590,620,1600,620
2014/05/16,623,623,623,623,300,623
2014/05/19,630,646,630,641,700,641
2014/05/21,600,620,600,620,400,620
2014/05/22,624,624,624,624,100,624
2014/05/26,609,628,609,628,400,628
2014/05/30,630,630,630,630,300,630
2014/06/02,630,635,630,635,400,635
2014/06/03,630,630,630,630,100,630
2014/06/04,619,629,619,629,200,629
2014/06/05,623,629,619,619,300,619
2014/06/06,619,629,619,629,300,629
2014/06/09,626,670,626,664,1600,664
2014/06/10,654,654,633,633,1000,633
2014/06/11,630,640,620,640,800,640
2014/06/12,640,640,640,640,100,640
2014/06/13,640,640,635,640,1300,640
2014/06/16,650,667,646,667,700,667
2014/06/17,660,695,660,675,3000,675
2014/06/18,685,738,678,685,4100,685
2014/06/19,684,685,680,685,2200,685
2014/06/20,670,670,670,670,200,670
2014/06/24,651,669,651,669,800,669
2014/06/25,659,659,659,659,100,659
2014/06/27,651,651,651,651,300,651
2014/06/30,651,651,650,650,1500,650
2014/07/01,658,677,658,677,500,677
2014/07/02,660,660,660,660,100,660
2014/07/03,666,667,666,667,500,667
2014/07/04,660,660,645,645,3700,645
2014/07/07,664,668,656,656,1600,656
2014/07/09,654,654,645,645,3300,645
2014/07/10,645,645,645,645,400,645
2014/07/11,648,648,648,648,100,648
2014/07/14,648,658,645,648,1000,648
2014/07/16,643,643,643,643,100,643
2014/07/17,643,643,641,641,1700,641
2014/07/18,640,651,640,651,200,651
2014/07/22,671,671,655,655,2900,655
2014/07/23,650,650,650,650,100,650
2014/07/24,650,651,645,645,3700,645
2014/07/25,645,646,645,646,200,646
2014/07/29,643,643,643,643,300,643
2014/07/30,643,643,643,643,100,643
2014/07/31,645,647,639,647,2300,647
2014/08/04,637,637,637,637,100,637
2014/08/05,647,647,647,647,100,647
2014/08/06,657,657,641,641,400,641
2014/08/08,640,640,629,629,700,629
2014/08/11,625,625,619,619,3500,619
2014/08/13,619,620,619,620,400,620
2014/08/14,635,635,635,635,100,635
2014/08/22,640,649,640,649,200,649
2014/08/25,629,640,629,640,400,640
2014/08/26,635,636,635,635,300,635
2014/08/27,650,658,650,658,1000,658
2014/08/28,657,657,650,655,900,655
2014/08/29,645,645,635,640,1800,640
2014/09/01,650,655,645,645,400,645
2014/09/02,645,646,635,635,1500,635
2014/09/03,635,658,635,658,1000,658
2014/09/04,658,658,650,650,6900,650
2014/09/05,652,658,650,650,3500,650
2014/09/08,652,652,652,652,500,652
2014/09/09,652,652,652,652,300,652
2014/09/11,650,660,650,658,400,658
2014/09/12,659,659,650,657,1000,657
2014/09/17,640,640,635,635,1100,635
2014/09/18,658,660,655,655,6100,655
2014/09/19,665,665,657,657,300,657
2014/09/22,650,650,640,640,700,640
2014/09/24,640,650,640,650,2800,650
2014/09/25,640,640,626,635,7500,635
2014/09/26,630,636,630,636,200,636
2014/09/30,636,650,632,650,600,650
2014/10/01,645,645,644,644,200,644
2014/10/02,625,626,615,615,1100,615
2014/10/03,611,611,603,603,900,603
2014/10/06,623,623,623,623,100,623
2014/10/07,623,624,623,623,2000,623
2014/10/09,622,622,622,622,1000,622
2014/10/10,601,601,580,581,2600,581
2014/10/14,583,596,583,584,700,584
2014/10/15,604,619,604,619,700,619
2014/10/17,619,619,619,619,300,619
2014/10/21,609,609,609,609,100,609
2014/10/22,629,629,619,619,200,619
2014/10/23,620,620,619,619,300,619
2014/10/27,616,616,616,616,100,616
2014/10/28,630,635,630,635,400,635
2014/10/29,635,635,635,635,300,635
2014/11/04,630,630,615,629,900,629
2014/11/06,637,637,630,630,700,630
2014/11/07,622,634,622,634,200,634
2014/11/10,644,654,625,625,3800,625
2014/11/11,641,641,625,641,2500,641
2014/11/12,651,654,650,654,1200,654
2014/11/13,653,666,653,663,7700,663
2014/11/14,620,667,620,666,10300,666
2014/11/17,640,640,632,633,2000,633
2014/11/18,630,630,625,625,1200,625
2014/11/19,620,620,620,620,200,620
2014/11/20,624,624,624,624,500,624
2014/11/21,624,626,624,624,500,624
2014/11/25,625,636,625,636,900,636
2014/11/26,624,624,624,624,600,624
2014/11/28,625,625,625,625,1000,625
2014/12/01,620,620,620,620,100,620
2014/12/02,620,625,620,625,600,625
2014/12/03,630,648,630,648,900,648
2014/12/04,631,631,630,630,200,630
2014/12/05,621,640,621,640,1400,640
2014/12/08,630,630,620,624,1900,624
2014/12/09,608,611,600,600,3700,600
2014/12/10,591,591,571,580,4000,580
2014/12/11,573,573,543,566,5900,566
2014/12/12,575,582,553,553,3700,553
2014/12/15,554,557,553,557,1900,557
2014/12/16,553,553,549,549,2100,549
2014/12/17,546,546,542,542,500,542
2014/12/18,536,555,536,553,6600,553
2014/12/19,553,553,540,541,1400,541
2014/12/22,540,545,530,531,1600,531
2014/12/24,531,531,502,530,5200,530
2014/12/25,503,513,503,511,5000,511
2014/12/26,508,513,508,513,700,513
2014/12/29,512,522,503,520,3500,520
2014/12/30,529,529,508,510,2600,510
2015/01/05,510,510,503,503,500,503
2015/01/06,516,516,516,516,100,516
2015/01/07,516,520,516,516,700,516
2015/01/08,526,527,526,527,400,527
2015/01/09,528,528,528,528,100,528
2015/01/13,530,530,529,529,1000,529
2015/01/14,530,534,530,534,200,534
2015/01/16,534,539,530,539,1300,539
2015/01/20,549,549,529,531,1900,531
2015/01/22,534,534,534,534,500,534
2015/01/23,520,525,520,525,300,525
2015/01/26,534,534,534,534,100,534
2015/01/27,518,520,511,517,1200,517
2015/01/28,515,515,515,515,200,515
2015/01/29,511,517,511,517,400,517
2015/01/30,515,515,515,515,200,515
2015/02/02,521,521,521,521,100,521
2015/02/04,511,511,507,507,500,507
2015/02/05,506,516,506,516,200,516
2015/02/09,507,512,502,511,800,511
2015/02/10,504,531,503,531,600,531
2015/02/12,525,525,525,525,200,525
2015/02/13,511,525,505,517,2400,517
2015/02/16,517,517,516,517,400,517
2015/02/17,517,517,517,517,500,517
2015/02/18,527,527,527,527,100,527
2015/02/19,527,527,527,527,300,527
2015/02/20,537,538,535,535,700,535
2015/02/23,522,522,522,522,100,522
2015/02/24,521,521,521,521,100,521
2015/02/25,533,533,520,528,1200,528
2015/02/26,520,520,520,520,200,520
2015/02/27,518,519,518,519,400,519
2015/03/02,520,619,520,619,15300,619
2015/03/03,629,693,534,537,51000,537
2015/03/04,550,624,537,574,36300,574
2015/03/05,554,562,548,550,5600,550
2015/03/06,547,547,537,540,2600,540
2015/03/09,554,554,542,542,900,542
2015/03/10,540,540,535,535,4400,535
2015/03/11,542,542,530,531,1800,531
2015/03/12,531,539,525,525,1000,525
2015/03/13,534,534,534,534,100,534
2015/03/16,539,539,539,539,300,539
2015/03/17,529,536,526,536,700,536
2015/03/18,526,526,526,526,300,526
2015/03/19,525,525,525,525,200,525
2015/03/20,526,530,523,523,1400,523
2015/03/23,524,528,524,528,1100,528
2015/03/26,524,524,519,519,400,519
2015/03/27,520,520,490,502,2000,502
2015/03/30,492,510,492,507,800,507
2015/03/31,510,510,510,510,200,510
2015/04/01,501,507,497,507,1100,507
2015/04/03,507,507,507,507,100,507
2015/04/06,503,509,503,509,300,509
2015/04/07,510,515,510,515,200,515
2015/04/08,515,515,515,515,100,515
2015/04/09,516,534,516,532,700,532
2015/04/10,522,528,518,518,800,518
2015/04/13,521,521,521,521,500,521
2015/04/15,515,530,515,530,500,530
2015/04/16,531,531,531,531,100,531
2015/04/17,523,531,523,531,200,531
2015/04/20,533,533,524,524,300,524
2015/04/21,530,530,530,530,300,530
2015/04/22,530,553,530,545,2900,545
2015/04/23,549,549,545,545,200,545
2015/04/24,532,533,529,529,700,529
2015/04/28,522,522,515,522,1500,522
2015/04/30,520,522,517,522,300,522
2015/05/01,514,514,509,509,600,509
2015/05/07,517,517,517,517,100,517
2015/05/11,527,529,527,529,400,529
2015/05/12,530,530,530,530,100,530
2015/05/13,530,530,515,515,1400,515
2015/05/14,515,515,513,513,200,513
2015/05/15,510,515,510,515,400,515
2015/05/18,515,515,515,515,500,515
2015/05/19,515,515,515,515,100,515
2015/05/21,515,515,506,512,1000,512
2015/05/25,514,514,506,510,600,510
2015/05/26,510,510,503,503,400,503
2015/05/27,505,505,505,505,200,505
2015/05/28,505,505,505,505,100,505
2015/06/02,500,500,500,500,100,500
2015/06/03,498,500,498,500,600,500
2015/06/05,499,499,499,499,100,499
2015/06/08,491,500,490,500,2600,500
2015/06/09,500,500,494,494,3300,494
2015/06/10,498,574,498,574,56100,574
2015/06/11,584,674,582,582,127300,582
2015/06/12,552,560,528,537,46700,537
2015/06/15,537,537,520,521,9200,521
2015/06/16,518,590,517,525,33700,525
2015/06/17,525,525,510,511,7000,511
2015/06/18,508,515,507,510,3900,510
2015/06/19,509,521,507,509,2800,509
2015/06/22,509,512,509,511,1000,511
2015/06/23,508,508,506,506,800,506
2015/06/24,506,507,506,507,1500,507
2015/06/25,512,515,510,510,800,510
2015/06/26,509,516,509,510,700,510
2015/06/29,516,516,495,497,5600,497
2015/06/30,495,496,495,496,500,496
2015/07/01,496,505,496,497,400,497
2015/07/02,500,500,497,497,400,497
2015/07/03,505,505,496,496,200,496
2015/07/06,504,504,504,504,200,504
2015/07/07,504,505,504,504,700,504
2015/07/08,504,514,502,502,1000,502
2015/07/09,496,496,475,479,2400,479
2015/07/10,477,477,456,463,1000,463
2015/07/13,465,466,465,466,400,466
2015/07/14,474,474,472,473,400,473
2015/07/15,478,478,471,476,1000,476
2015/07/16,476,490,476,476,2100,476
2015/07/17,484,484,476,483,300,483
2015/07/22,476,485,474,485,1000,485
2015/07/23,485,485,485,485,1100,485
2015/07/24,493,493,493,493,400,493
2015/07/27,494,494,489,489,400,489
2015/07/28,484,485,484,485,400,485
2015/07/29,493,493,493,493,100,493
2015/07/30,493,493,485,493,800,493
2015/08/03,499,499,495,495,300,495
2015/08/04,487,502,487,502,300,502
2015/08/05,492,492,486,486,300,486
2015/08/06,478,481,477,481,1500,481
2015/08/07,479,494,479,494,2600,494
2015/08/10,480,491,480,491,1100,491
2015/08/11,482,486,480,482,1600,482
2015/08/12,493,493,480,480,1100,480
2015/08/13,482,482,478,479,700,479
2015/08/14,479,481,477,481,400,481
2015/08/17,480,480,477,477,200,477
2015/08/18,480,480,480,480,100,480
2015/08/19,478,479,475,475,400,475
2015/08/20,473,473,472,472,200,472
2015/08/21,462,462,460,460,1000,460
2015/08/24,450,450,420,420,1100,420
2015/08/25,428,428,396,420,1400,420
2015/08/26,430,430,430,430,100,430
2015/08/27,430,455,430,452,800,452
2015/08/28,459,459,452,452,200,452
2015/08/31,436,443,436,443,200,443
2015/09/01,451,451,451,451,300,451
2015/09/02,431,447,431,439,2700,439
2015/09/03,434,434,434,434,400,434
2015/09/04,442,442,430,430,300,430
2015/09/08,414,414,414,414,100,414
2015/09/09,434,434,418,418,1000,418
2015/09/10,415,415,415,415,100,415
2015/09/11,416,417,414,417,800,417
2015/09/14,421,429,421,429,300,429
2015/09/15,421,421,415,415,1600,415
2015/09/16,420,420,420,420,100,420
2015/09/17,416,416,414,414,1000,414
2015/09/18,420,420,414,414,400,414
2015/09/24,406,406,406,406,200,406
2015/09/25,404,427,404,427,1200,427
2015/09/29,419,419,419,419,200,419
2015/10/01,433,433,433,433,100,433
2015/10/05,439,439,431,431,400,431
2015/10/06,431,431,431,431,100,431
2015/10/07,431,431,415,415,600,415
2015/10/13,420,420,420,420,100,420
2015/10/14,420,425,419,419,300,419
2015/10/15,427,436,427,430,1000,430
