2010/01/04,60300,60800,60100,60500,30,605
2010/01/05,62500,62500,62400,62500,39,625
2010/01/06,61600,62600,61200,62600,22,626
2010/01/07,61800,61800,61600,61600,8,616
2010/01/08,62000,62600,61500,61500,43,615
2010/01/12,61500,63000,61500,62100,31,621
2010/01/13,62900,63000,62000,62100,94,621
2010/01/14,62900,62900,61000,61800,37,618
2010/01/15,61700,62000,61100,61900,57,619
2010/01/18,62000,62000,61800,61900,78,619
2010/01/19,62000,62500,61600,61600,117,616
2010/01/20,62000,62000,61900,61900,70,619
2010/01/21,62300,63300,61700,62000,248,620
2010/01/22,61000,61100,60700,61000,152,610
2010/01/25,60700,61000,60600,61000,45,610
2010/01/26,61800,61800,60300,61000,208,610
2010/01/27,61900,62000,61100,61900,73,619
2010/01/28,62300,62500,61500,62000,185,620
2010/01/29,61500,72000,61100,71800,1261,718
2010/02/01,71700,71700,68800,70300,461,703
2010/02/02,71800,84500,71000,80000,1163,800
2010/02/03,80500,80800,77700,80200,323,802
2010/02/04,77200,80500,77200,80500,276,805
2010/02/05,78300,80000,78000,78500,80,785
2010/02/08,76000,77000,74000,75000,119,750
2010/02/09,78000,78000,64100,64100,444,641
2010/02/10,69000,71900,68600,70000,270,700
2010/02/12,70000,70300,68400,70000,68,700
2010/02/15,71500,72000,69300,69300,72,693
2010/02/16,70000,71000,69300,69300,123,693
2010/02/17,70800,71700,70200,70600,61,706
2010/02/18,71000,75000,70700,73100,233,731
2010/02/19,72100,73400,69500,69500,343,695
2010/02/22,70500,71900,68500,69300,183,693
2010/02/23,69500,71800,69000,71800,145,718
2010/02/24,70000,71800,69500,70100,167,701
2010/02/25,71200,73900,70500,73800,175,738
2010/02/26,74400,75400,72600,73200,234,732
2010/03/01,73200,74000,70000,72100,238,721
2010/03/02,72900,73400,71100,73400,215,734
2010/03/03,72300,72400,71100,72100,168,721
2010/03/04,72500,73600,71100,71100,171,711
2010/03/05,72000,73200,71500,72000,56,720
2010/03/08,72100,73600,71000,72000,137,720
2010/03/09,72100,72800,71600,72800,46,728
2010/03/10,72100,72400,71200,71900,92,719
2010/03/11,71000,72600,70700,71100,92,711
2010/03/12,70600,71200,70600,70900,66,709
2010/03/15,71200,71600,69000,69400,157,694
2010/03/16,69400,71400,69400,69700,117,697
2010/03/17,69600,70900,69400,70000,155,700
2010/03/18,70000,71000,70000,70600,62,706
2010/03/19,71600,71900,70300,71000,92,710
2010/03/23,72400,74800,72100,74000,304,740
2010/03/24,75500,75600,73700,73800,177,738
2010/03/25,74500,75000,74000,74500,82,745
2010/03/26,75500,75800,74900,75100,262,751
2010/03/29,74300,74300,72000,72600,164,726
2010/03/30,72700,76000,72700,74000,94,740
2010/03/31,74800,74800,73000,73000,71,730
2010/04/01,72700,74200,72700,74000,159,740
2010/04/02,74500,74500,72500,72800,215,728
2010/04/05,72800,73000,72100,72300,212,723
2010/04/06,72500,73300,72200,72800,121,728
2010/04/07,73200,74200,72200,73700,183,737
2010/04/08,73500,73500,72500,73400,82,734
2010/04/09,73100,73400,72700,73000,59,730
2010/04/12,73000,74000,72600,73000,260,730
2010/04/13,73400,73400,72700,73300,165,733
2010/04/14,73800,74000,72900,73400,162,734
2010/04/15,74300,78000,74300,77900,722,779
2010/04/16,78300,83500,78200,82000,1263,820
2010/04/19,80000,82000,77100,79900,484,799
2010/04/20,79300,80500,78000,78300,238,783
2010/04/21,79500,79500,77400,79000,93,790
2010/04/22,79500,81200,78600,81100,405,811
2010/04/23,81900,84200,81700,82800,610,828
2010/04/26,84100,84500,82500,83500,646,835
2010/04/27,83500,83700,82600,83000,284,830
2010/04/28,82200,83000,80800,82800,331,828
2010/04/30,79800,80000,73400,79200,1944,792
2010/05/06,75000,78800,74300,75900,579,759
2010/05/07,73900,75400,71300,72200,561,722
2010/05/10,71100,71600,69800,71200,1282,712
2010/05/11,71300,73100,70100,70500,537,705
2010/05/12,70700,71600,68000,68100,758,681
2010/05/13,68500,69600,65600,66000,924,660
2010/05/14,67000,67000,63300,64400,1308,644
2010/05/17,64400,65300,58900,60600,1530,606
2010/05/18,60600,61200,58300,58500,945,585
2010/05/19,58000,61000,56000,60900,2085,609
2010/05/20,60200,64400,60200,64000,802,640
2010/05/21,63000,63800,59800,63400,784,634
2010/05/24,64400,67000,63900,65800,1050,658
2010/05/25,65000,65100,61000,62000,715,620
2010/05/26,62500,63900,61500,63100,509,631
2010/05/27,64100,66800,63000,65500,528,655
2010/05/28,66800,68800,66600,68300,509,683
2010/05/31,68100,69300,68000,68500,388,685
2010/06/01,67600,69500,66800,67000,297,670
2010/06/02,68000,69200,67500,68200,236,682
2010/06/03,69100,70000,68800,69500,276,695
2010/06/04,69500,70200,69500,69800,224,698
2010/06/07,69000,70000,68000,69100,239,691
2010/06/08,69900,72400,69500,72400,414,724
2010/06/09,72500,72500,69600,69800,235,698
2010/06/10,70000,70500,69700,70100,91,701
2010/06/11,71000,71700,70800,71500,101,715
2010/06/14,72000,72900,71000,71000,288,710
2010/06/15,71800,71800,69100,69900,223,699
2010/06/16,70100,71200,70100,70500,148,705
2010/06/17,73500,73600,71300,72500,617,725
2010/06/18,72500,73000,71000,71000,323,710
2010/06/21,72500,72700,71600,72500,141,725
2010/06/22,73000,73000,72100,72500,111,725
2010/06/23,71100,73800,69200,73700,576,737
2010/06/24,72200,72600,70200,71600,452,716
2010/06/25,71000,71000,69500,69600,218,696
2010/06/28,68600,69000,68000,68000,143,680
2010/06/29,68700,68800,65900,67800,116,678
2010/06/30,65800,68000,65700,67100,198,671
2010/07/01,67500,67500,65000,66000,124,660
2010/07/02,67000,67200,66200,67100,95,671
2010/07/05,66200,67300,66200,66400,102,664
2010/07/06,66000,67200,64300,67200,117,672
2010/07/07,67300,67600,65800,67300,120,673
2010/07/08,70300,71700,69400,71700,616,717
2010/07/09,70500,71100,70500,70900,357,709
2010/07/12,71600,72500,70800,70800,283,708
2010/07/13,69300,71800,69300,70200,329,702
2010/07/14,71300,72300,71000,71300,401,713
2010/07/15,71900,72900,71900,72900,720,729
2010/07/16,72100,75500,72000,74200,907,742
2010/07/20,74800,76200,74100,76000,540,760
2010/07/21,76000,76000,73100,75400,242,754
2010/07/22,74600,75600,72300,75000,146,750
2010/07/23,73500,74900,73300,74000,139,740
2010/07/26,75000,75000,73500,74600,101,746
2010/07/27,74900,75000,73600,73600,64,736
2010/07/28,75100,76500,74600,76300,467,763
2010/07/29,76300,77500,76300,77000,257,770
2010/07/30,77000,77900,76000,77900,135,779
2010/08/02,77700,77700,76700,77300,39,773
2010/08/03,77000,77100,75500,75700,118,757
2010/08/04,74900,75300,73100,74300,105,743
2010/08/05,75500,76300,75000,76300,78,763
2010/08/06,75500,76500,75000,76500,85,765
2010/08/09,76100,76400,75100,76100,37,761
2010/08/10,76500,76500,75100,75100,63,751
2010/08/11,75100,76200,75000,76100,162,761
2010/08/12,74800,75900,74700,75900,160,759
2010/08/13,76000,79500,75300,79200,494,792
2010/08/16,79200,79500,78100,78400,82,784
2010/08/17,77300,79500,77300,79500,82,795
2010/08/18,79800,81000,79000,80900,334,809
2010/08/19,80900,80900,79500,79900,76,799
2010/08/20,79000,79700,77900,78000,128,780
2010/08/23,78100,78500,77000,77300,84,773
2010/08/24,76500,77300,75100,75800,435,758
2010/08/25,75800,75800,73600,73900,310,739
2010/08/26,73800,74400,73700,73900,391,739
2010/08/27,74400,75300,74000,74000,74,740
2010/08/30,75000,77400,74500,77400,127,774
2010/08/31,77400,79500,77300,78900,195,789
2010/09/01,79500,79800,78200,79600,126,796
2010/09/02,79900,79900,78000,79400,55,794
2010/09/03,78000,81100,78000,80800,206,808
2010/09/06,80800,81600,78400,81400,179,814
2010/09/07,81500,81500,79500,80500,133,805
2010/09/08,79300,80800,79100,80500,48,805
2010/09/09,80500,81100,80000,80600,151,806
2010/09/10,80800,82000,79300,81200,149,812
2010/09/13,81200,83100,80200,82200,167,822
2010/09/14,82200,83600,80900,83000,404,830
2010/09/15,81500,83100,81500,82700,254,827
2010/09/16,82500,85400,82000,84400,739,844
2010/09/17,82900,84800,82000,82600,119,826
2010/09/21,83000,83000,81600,81800,127,818
2010/09/22,81800,84200,81800,84200,195,842
2010/09/24,82800,83800,82200,83300,114,833
2010/09/27,82900,84000,82000,82500,48,825
2010/09/28,81000,83000,81000,82500,55,825
2010/09/29,82500,82500,81000,82300,71,823
2010/09/30,82000,84000,82000,84000,157,840
2010/10/01,83200,83900,82500,82500,54,825
2010/10/04,83100,83100,82500,82700,53,827
2010/10/05,82700,84100,82200,83500,154,835
2010/10/06,82800,82800,80600,81000,79,810
2010/10/07,80600,81000,80500,80800,60,808
2010/10/08,80200,80800,80000,80500,94,805
2010/10/12,80100,80100,78900,79000,323,790
2010/10/13,78600,79400,78600,79000,336,790
2010/10/14,78700,79200,77700,77700,602,777
2010/10/15,77000,77600,76300,76300,249,763
2010/10/18,75800,78500,75000,76100,33,761
2010/10/19,75500,78000,75500,75800,38,758
2010/10/20,75600,75600,74500,75500,45,755
2010/10/21,75100,76000,72900,75900,187,759
2010/10/22,75400,76900,74000,74000,40,740
2010/10/25,74000,76200,73800,76200,37,762
2010/10/26,77700,77700,76200,77700,40,777
2010/10/27,79800,80000,78200,79500,119,795
2010/10/28,80500,81300,80000,80800,147,808
2010/10/29,80900,82900,78400,82900,180,829
2010/11/01,83000,83000,78200,79700,83,797
2010/11/02,81200,82000,79000,79000,90,790
2010/11/04,78000,80400,78000,80400,98,804
2010/11/05,80200,81300,80200,80800,117,808
2010/11/08,81000,82300,80000,81300,85,813
2010/11/09,82000,83700,82000,82300,241,823
2010/11/10,82400,84000,82400,84000,123,840
2010/11/11,83600,84300,82500,82500,105,825
2010/11/12,82900,83100,82800,82900,36,829
2010/11/15,82500,82900,80000,82300,138,823
2010/11/16,82000,82800,81500,81500,68,815
2010/11/17,81500,81500,81400,81400,3,814
2010/11/18,81200,83300,81200,83300,105,833
2010/11/19,82300,83500,81800,83300,147,833
2010/11/22,81800,82000,80000,80000,232,800
2010/11/24,80000,81000,79900,81000,125,810
2010/11/25,80400,81100,80000,80600,493,806
2010/11/26,79800,80500,79600,80400,201,804
2010/11/29,80400,81300,80100,80600,232,806
2010/11/30,80000,80500,79900,80400,147,804
2010/12/01,80000,81400,80000,81400,52,814
2010/12/02,81100,81700,80800,81000,56,810
2010/12/03,81500,81800,81000,81500,39,815
2010/12/06,81300,82500,81000,82500,109,825
2010/12/07,81800,83200,81400,82300,117,823
2010/12/08,83000,83800,82700,83800,122,838
2010/12/09,83800,85500,83300,85500,404,855
2010/12/10,85800,86000,83000,83600,426,836
2010/12/13,82100,82700,80700,82000,300,820
2010/12/14,82800,84000,82500,84000,191,840
2010/12/15,84100,85400,82800,85000,95,850
2010/12/16,85500,87900,84500,87900,195,879
2010/12/17,92000,96000,89000,92400,948,924
2010/12/20,92800,96500,92200,94700,762,947
2010/12/21,95000,102000,94000,96800,879,968
2010/12/22,98000,99800,92100,93000,154,930
2010/12/24,93700,94500,91100,91200,248,912
2010/12/27,91200,94000,90400,93000,137,930
2010/12/28,93000,99700,92000,97700,378,977
2010/12/29,97700,97700,94300,96200,323,962
2010/12/30,95700,97000,94400,95000,243,950
2011/01/04,95300,98000,94500,96300,89,963
2011/01/05,98300,100400,96700,100300,371,1003
2011/01/06,100300,100500,97000,98000,262,980
2011/01/07,100000,100100,97900,100000,263,1000
2011/01/11,100000,100200,98900,99100,283,991
2011/01/12,100300,101400,99400,100000,270,1000
2011/01/13,100000,100900,99100,100800,142,1008
2011/01/14,100000,100800,97700,97700,208,977
2011/01/17,97500,98000,94200,96500,396,965
2011/01/18,95000,95900,94500,94700,103,947
2011/01/19,95800,99900,95200,98800,518,988
2011/01/20,100000,105400,99900,103700,766,1037
2011/01/21,102100,103800,99100,99400,367,994
2011/01/24,100000,109700,99600,106900,917,1069
2011/01/25,107000,109000,105000,106200,461,1062
2011/01/26,107000,108900,104900,108900,508,1089
2011/01/27,109800,109800,104500,106000,768,1060
2011/01/28,106500,107000,101200,101500,799,1015
2011/01/31,101800,110900,99400,108600,869,1086
2011/02/01,110200,113300,108000,108000,469,1080
2011/02/02,113400,117500,113400,116500,1416,1165
2011/02/03,120000,121300,118000,120100,1113,1201
2011/02/04,118400,122300,117500,121200,750,1212
2011/02/07,121500,123000,119200,120000,399,1200
2011/02/08,121000,125000,117800,124900,744,1249
2011/02/09,125000,128000,123500,126500,624,1265
2011/02/10,126100,127400,124300,126000,347,1260
2011/02/14,128000,130000,126200,128600,472,1286
2011/02/15,130000,130000,126700,126700,257,1267
2011/02/16,128000,128000,124000,124100,437,1241
2011/02/17,126100,126100,120200,122700,709,1227
2011/02/18,121000,124500,120400,123900,251,1239
2011/02/21,125900,125900,123000,123300,391,1233
2011/02/22,123300,128000,123000,125700,295,1257
2011/02/23,127500,132000,124600,130900,1101,1309
2011/02/24,128600,129900,122000,124400,504,1244
2011/02/25,126100,127600,123100,125900,247,1259
2011/02/28,128600,128800,125200,128100,111,1281
2011/03/01,128600,129800,127600,129200,258,1292
2011/03/02,128500,128800,125100,127500,316,1275
2011/03/03,127500,127600,126600,127300,125,1273
2011/03/04,129000,129800,127300,129600,196,1296
2011/03/07,130000,134900,130000,134800,808,1348
2011/03/08,132500,134400,131600,131600,351,1316
2011/03/09,130500,131600,123500,128400,704,1284
2011/03/10,127800,127900,121000,123000,313,1230
2011/03/11,120000,123000,115100,123000,226,1230
2011/03/14,102000,113400,100200,104800,794,1048
2011/03/15,104000,104800,85900,98800,1765,988
2011/03/16,97300,106000,97300,103700,656,1037
2011/03/17,99000,113000,99000,107200,308,1072
2011/03/18,108500,122900,102200,120000,1200,1200
2011/03/22,117000,122000,117000,118300,502,1183
2011/03/23,122000,122000,113100,114000,199,1140
2011/03/24,117000,118800,113000,116200,219,1162
2011/03/25,119800,119800,110500,111100,132,1111
2011/03/28,111200,115000,110700,115000,129,1150
2011/03/29,111000,112000,107600,109900,164,1099
2011/03/30,109900,113500,106700,113100,194,1131
2011/03/31,113900,113900,108100,113000,100,1130
2011/04/01,110500,112000,105000,109600,94,1096
2011/04/04,108100,109000,104800,106700,274,1067
2011/04/05,106000,106000,102000,103800,301,1038
2011/04/06,100800,104700,100800,103000,216,1030
2011/04/07,103500,108900,102300,105500,308,1055
2011/04/08,104400,107600,101400,106900,557,1069
2011/04/11,103900,108800,102000,102300,397,1023
2011/04/12,103900,106500,102800,106300,247,1063
2011/04/13,108500,116300,105600,116000,411,1160
2011/04/14,115500,119000,111500,116200,490,1162
2011/04/15,116300,116500,110700,112200,533,1122
2011/04/18,115200,120700,113200,120700,549,1207
2011/04/19,117700,118100,115200,115900,254,1159
2011/04/20,118800,119800,115800,118200,210,1182
2011/04/21,118000,118200,114000,115800,133,1158
2011/04/22,116400,116400,111100,114000,126,1140
2011/04/25,116100,118200,114000,118200,234,1182
2011/04/26,118200,121000,116500,120800,438,1208
2011/04/27,115000,118700,110300,111500,1139,1115
2011/04/28,113400,116900,112200,116900,416,1169
2011/05/02,118300,118400,116500,116500,303,1165
2011/05/06,115200,116800,112400,116800,321,1168
2011/05/09,115100,115400,114000,114000,142,1140
2011/05/10,114500,114600,102600,111000,1238,1110
2011/05/11,110500,111100,106700,107000,673,1070
2011/05/12,108400,108500,106500,107100,302,1071
2011/05/13,107200,108500,105500,106400,211,1064
2011/05/16,103400,105500,103100,105500,226,1055
2011/05/17,107700,107800,101200,104200,175,1042
2011/05/18,104800,107400,104800,105900,190,1059
2011/05/19,106100,106900,105000,106700,108,1067
2011/05/20,105400,106600,104100,105400,85,1054
2011/05/23,104700,104700,103300,103600,67,1036
2011/05/24,103600,105500,103300,105400,91,1054
2011/05/25,105700,106000,105000,105200,74,1052
2011/05/26,105900,106100,104600,105000,156,1050
2011/05/27,106200,106200,104100,104900,98,1049
2011/05/30,103400,105100,103400,104000,58,1040
2011/05/31,103200,104700,102700,104700,99,1047
2011/06/01,104700,105500,103000,104500,151,1045
2011/06/02,102000,104000,101500,102800,114,1028
2011/06/03,103500,104500,102800,103800,179,1038
2011/06/06,102800,103200,102800,102900,34,1029
2011/06/07,102900,104000,102500,103900,58,1039
2011/06/08,103000,108900,103000,107500,330,1075
2011/06/09,106500,109600,106200,109600,446,1096
2011/06/10,110000,111300,108800,110900,358,1109
2011/06/13,108700,110500,107300,108200,127,1082
2011/06/14,109600,109600,107300,108300,70,1083
2011/06/15,109500,109500,107700,108500,130,1085
2011/06/16,107500,109500,107000,107600,113,1076
2011/06/17,110000,110000,105900,106100,172,1061
2011/06/20,104700,106000,102800,103900,216,1039
2011/06/21,104500,105700,103700,105000,116,1050
2011/06/22,104500,105800,104500,105500,160,1055
2011/06/23,104100,105000,104100,104300,137,1043
2011/06/24,105700,105700,104700,105400,92,1054
2011/06/27,106000,106000,104200,106000,31,1060
2011/06/28,105000,106100,103400,104000,258,1040
2011/06/29,104200,105300,103200,105300,149,1053
2011/06/30,105300,105400,104200,104900,63,1049
2011/07/01,104900,105500,104400,104900,213,1049
2011/07/04,106500,106500,104500,105100,199,1051
2011/07/05,104300,106600,104000,105600,322,1056
2011/07/06,105600,108600,105600,106700,365,1067
2011/07/07,107000,108000,105800,107000,128,1070
2011/07/08,108400,109500,107100,107600,235,1076
2011/07/11,107500,108800,106800,108400,155,1084
2011/07/12,108100,108100,106400,107900,208,1079
2011/07/13,107300,107400,105000,107400,171,1074
2011/07/14,106500,107500,105800,107100,188,1071
2011/07/15,105700,108000,105200,107700,314,1077
2011/07/19,105400,106400,105100,105600,235,1056
2011/07/20,105600,106800,105600,106300,221,1063
2011/07/21,106000,106700,105800,106000,71,1060
2011/07/22,105800,108800,105500,107000,310,1070
2011/07/25,107000,107700,106600,107700,170,1077
2011/07/26,110000,110000,107600,109700,343,1097
2011/07/27,111800,112000,106000,107200,714,1072
2011/07/28,107000,108100,106200,107300,339,1073
2011/07/29,106800,108000,106700,108000,226,1080
2011/08/01,107000,109600,107000,108000,649,1080
2011/08/02,107900,109000,106400,107000,313,1070
2011/08/03,106800,107900,105800,107000,262,1070
2011/08/04,107000,107800,106500,106800,257,1068
2011/08/05,101600,111000,101500,108300,1716,1083
2011/08/08,105600,108300,104600,104900,182,1049
2011/08/09,102000,104000,97500,101500,1071,1015
2011/08/10,104100,105500,102200,104300,106,1043
2011/08/11,102100,106000,102100,105500,350,1055
2011/08/12,105500,106000,103100,103900,90,1039
2011/08/15,104000,104300,101500,102700,87,1027
2011/08/16,102100,104000,100800,100800,126,1008
2011/08/17,100500,101600,99800,100400,170,1004
2011/08/18,100400,102500,100000,101500,811,1015
2011/08/19,98500,100000,98300,99200,110,992
2011/08/22,98000,98100,91700,93700,371,937
2011/08/23,93000,93300,89300,91100,866,911
2011/08/24,91200,92300,89000,91000,657,910
2011/08/25,91000,94800,90900,94800,428,948
2011/08/26,94800,94900,91000,92200,321,922
2011/08/29,91900,94100,91700,93000,214,930
2011/08/30,95100,96300,92700,95700,412,957
2011/08/31,95000,97000,94500,97000,241,970
2011/09/01,97000,102100,97000,102100,380,1021
2011/09/02,101900,101900,98900,99300,126,993
2011/09/05,98900,100000,96100,97000,148,970
2011/09/06,98500,98500,95200,95400,167,954
2011/09/07,96100,99700,96000,97900,352,979
2011/09/08,97600,98000,95500,96000,131,960
2011/09/09,94500,95500,93000,94200,507,942
2011/09/12,93300,93300,91000,91200,91,912
2011/09/13,92000,92900,88500,89000,651,890
2011/09/14,90000,95500,90000,95500,1857,955
2011/09/15,95300,96400,92000,93800,245,938
2011/09/16,94000,96400,93700,94000,190,940
2011/09/20,94000,94300,91500,93400,118,934
2011/09/21,92200,93400,90400,92100,52,921
2011/09/22,89200,90900,89000,90600,196,906
2011/09/26,89100,90000,86300,86500,210,865
2011/09/27,87000,88400,86800,88000,149,880
2011/09/28,88000,88000,87000,88000,61,880
2011/09/29,86500,88400,86500,88400,116,884
2011/09/30,88000,90600,87800,89500,353,895
2011/10/03,89900,89900,87400,87500,100,875
2011/10/04,87400,88900,86000,87000,156,870
2011/10/05,86600,88000,86500,87000,178,870
2011/10/06,88300,89300,86800,89300,122,893
2011/10/07,88400,91800,88400,90000,127,900
2011/10/11,91500,91500,87600,88200,172,882
2011/10/12,89000,89300,88800,89000,46,890
2011/10/13,89400,91100,89400,91000,104,910
2011/10/14,91000,92800,90000,92700,164,927
2011/10/17,93600,95700,93100,95500,330,955
2011/10/18,94900,95300,92100,94000,63,940
2011/10/19,95500,96400,93200,96000,214,960
2011/10/20,95300,95400,94200,94200,43,942
2011/10/21,93500,94900,93000,93900,103,939
2011/10/24,94300,95000,92500,93800,71,938
2011/10/25,93900,95500,93000,94400,208,944
2011/10/26,92900,93600,91200,92800,236,928
2011/10/27,94000,95500,92800,92900,116,929
2011/10/28,93800,94000,92900,93000,92,930
2011/10/31,93100,93300,92000,92000,29,920
2011/11/01,95000,95000,91000,91100,468,911
2011/11/02,90900,91000,89800,90600,118,906
2011/11/04,90000,92200,90000,92200,141,922
2011/11/07,92200,95500,92200,94200,285,942
2011/11/08,93400,93600,90200,91700,131,917
2011/11/09,90900,94200,90700,93200,194,932
2011/11/10,90500,92100,90000,91300,164,913
2011/11/11,90900,92000,88800,90600,150,906
2011/11/14,90600,92100,90000,91300,101,913
2011/11/15,91300,92000,90600,91800,61,918
2011/11/16,92400,93500,91900,92900,148,929
2011/11/17,91400,92400,91400,92100,85,921
2011/11/18,90600,92000,90500,91000,136,910
2011/11/21,90600,90600,90200,90300,66,903
2011/11/22,90000,91400,89700,90800,123,908
2011/11/24,90600,90700,90000,90000,49,900
2011/11/25,92000,92000,90100,90100,210,901
2011/11/28,90000,90900,90000,90100,13,901
2011/11/29,90000,90100,87700,89000,227,890
2011/11/30,88700,90100,86700,90100,346,901
2011/12/01,90100,90600,88900,90100,112,901
2011/12/02,90600,90600,88500,88600,83,886
2011/12/05,89800,90100,88600,90000,96,900
2011/12/06,89700,90000,88500,88500,46,885
2011/12/07,88600,89200,87200,87800,223,878
2011/12/08,88000,88000,82500,85800,598,858
2011/12/09,84800,86400,83600,85900,218,859
2011/12/12,86400,87800,86400,87700,294,877
2011/12/13,87500,88700,86800,88500,145,885
2011/12/14,89600,89600,84900,85800,311,858
2011/12/15,85100,86800,85100,85800,246,858
2011/12/16,85500,86700,85300,86700,136,867
2011/12/19,87200,87300,85800,86800,137,868
2011/12/20,85900,88000,85300,86000,199,860
2011/12/21,86800,86800,85200,85800,136,858
2011/12/22,85500,85500,84300,85100,87,851
2011/12/26,85100,85100,83500,84000,115,840
2011/12/27,83600,84000,82800,83100,134,831
2011/12/28,83000,84400,83000,84300,59,843
2011/12/29,84300,84300,84200,84300,17,843
2011/12/30,84800,85300,84500,85300,119,853
2012/01/04,85300,85600,84900,85100,109,851
2012/01/05,85800,86400,85300,86000,146,860
2012/01/06,86000,87200,85800,86600,383,866
2012/01/10,87500,89500,87000,88600,294,886
2012/01/11,90100,91300,89600,90600,481,906
2012/01/12,91300,91500,90100,91000,276,910
2012/01/13,90900,92500,90900,91500,213,915
2012/01/16,90800,91600,90500,91300,94,913
2012/01/17,90700,91600,90700,91500,118,915
2012/01/18,91500,92300,91000,92300,111,923
2012/01/19,92500,92500,91600,92100,178,921
2012/01/20,92100,92200,90500,90500,85,905
2012/01/23,89500,89900,88300,88700,268,887
2012/01/24,88800,89500,88600,89400,250,894
2012/01/25,89600,90100,88600,90100,403,901
2012/01/26,91600,91600,88900,89300,332,893
2012/01/27,89800,94600,89500,94000,546,940
2012/01/30,92500,93000,92000,92500,220,925
2012/01/31,92500,93200,92200,93200,179,932
2012/02/01,92500,93500,92500,93400,131,934
2012/02/02,94300,95000,93000,94800,207,948
2012/02/03,93900,94400,93000,93000,128,930
2012/02/06,93000,95400,93000,94300,165,943
2012/02/07,94200,94200,92500,93600,89,936
2012/02/08,93600,95000,92600,94000,127,940
2012/02/09,93900,94100,92000,93400,251,934
2012/02/10,92900,94000,92600,93200,179,932
2012/02/13,92200,92600,92000,92400,45,924
2012/02/14,91300,91900,90500,91000,123,910
2012/02/15,90500,91100,90500,90500,153,905
2012/02/16,90800,91000,89000,90100,286,901
2012/02/17,89900,90700,88900,89500,484,895
2012/02/20,90000,90000,88600,88600,428,886
2012/02/21,88800,91300,88800,90200,306,902
2012/02/22,91500,91700,90600,91700,302,917
2012/02/23,91800,91900,91100,91700,141,917
2012/02/24,91700,92600,91500,92100,350,921
2012/02/27,91800,92500,91600,92100,122,921
2012/02/28,93000,93300,92000,93100,119,931
2012/02/29,94000,94700,93600,93800,385,938
2012/03/01,93500,93800,92500,92900,371,929
2012/03/02,93300,94000,92500,93200,103,932
2012/03/05,92500,92500,91500,91900,71,919
2012/03/06,91300,92500,91300,92000,128,920
2012/03/07,90500,92000,90400,91300,103,913
2012/03/08,91200,91900,91100,91900,85,919
2012/03/09,91700,92500,90800,91500,417,915
2012/03/12,91000,91400,90500,90800,392,908
2012/03/13,90800,91900,90500,91900,233,919
2012/03/14,92400,92400,91000,92300,484,923
2012/03/15,91000,92300,88900,90000,1698,900
2012/03/16,91200,93000,90800,92800,268,928
2012/03/19,92800,93400,91500,92600,178,926
2012/03/21,93200,93400,91200,92600,684,926
2012/03/22,91800,93700,91600,92800,282,928
2012/03/23,91800,94000,91800,94000,348,940
2012/03/26,93000,94400,92800,93600,139,936
2012/03/27,92800,94500,92600,93900,259,939
2012/03/28,93000,93400,92100,92500,196,925
2012/03/29,92500,94000,91800,93400,231,934
2012/03/30,92300,94800,92000,94800,317,948
2012/04/02,93500,94200,92800,93300,125,933
2012/04/03,92600,93500,91100,92700,149,927
2012/04/04,91900,91900,91200,91200,41,912
2012/04/05,90300,91600,89000,91500,253,915
2012/04/06,91200,92700,91200,92600,281,926
2012/04/09,92400,92600,90300,92500,176,925
2012/04/10,92000,94000,92000,94000,371,940
2012/04/11,93000,93000,92000,92300,85,923
2012/04/12,91700,93200,91500,93200,184,932
2012/04/13,93200,93600,92700,93600,103,936
2012/04/16,92900,94100,92800,94000,92,940
2012/04/17,92500,94100,92500,93700,39,937
2012/04/18,94000,95300,93100,95300,220,953
2012/04/19,96000,99300,96000,99000,383,990
2012/04/20,98200,109100,98100,104500,607,1045
2012/04/23,103000,103300,100000,101200,87,1012
2012/04/24,101200,102800,99500,100500,68,1005
2012/04/25,100000,104000,100000,101700,173,1017
2012/04/26,104700,108500,103000,108400,892,1084
2012/04/27,108400,110600,107200,108500,336,1085
2012/05/01,105600,110500,105600,109000,262,1090
2012/05/02,110000,111200,107000,111000,313,1110
2012/05/07,111000,112000,109500,109700,465,1097
2012/05/08,108800,111000,108800,110100,181,1101
2012/05/09,110000,112900,110000,112900,410,1129
2012/05/10,113500,116000,112000,112900,344,1129
2012/05/11,112900,113800,106600,108500,265,1085
2012/05/14,108500,110800,104300,106000,99,1060
2012/05/15,102900,106700,99500,104800,471,1048
2012/05/16,106500,111900,105100,110100,351,1101
2012/05/17,107100,111500,107100,111300,272,1113
2012/05/18,108500,110900,106400,108100,161,1081
2012/05/21,108000,111000,108000,110700,118,1107
2012/05/22,111200,113300,111200,113300,212,1133
2012/05/23,121600,122400,114000,114500,588,1145
2012/05/24,115000,115000,106900,108600,304,1086
2012/05/25,111600,111600,105600,109100,118,1091
2012/05/28,108000,108000,105200,105200,94,1052
2012/05/29,103000,106500,101000,105700,151,1057
2012/05/30,105700,107200,104400,105500,22,1055
2012/05/31,103400,109300,102300,105500,323,1055
2012/06/01,104800,108000,104000,105000,61,1050
2012/06/04,105000,105000,101000,102000,136,1020
2012/06/05,101100,103100,101100,102700,135,1027
2012/06/06,103100,105500,103100,104300,195,1043
2012/06/07,104100,108000,104100,106700,142,1067
2012/06/08,104200,107200,104200,104300,216,1043
2012/06/11,103400,106500,103400,106000,83,1060
2012/06/12,103000,104800,101600,103400,263,1034
2012/06/13,103700,106000,103700,105000,62,1050
2012/06/14,103300,105000,103000,105000,156,1050
2012/06/15,104700,107900,104700,107000,68,1070
2012/06/18,105900,108900,105900,108900,142,1089
2012/06/19,110000,110000,107200,109000,182,1090
2012/06/20,109000,111000,108500,110900,186,1109
2012/06/21,110900,110900,108000,108600,214,1086
2012/06/22,109000,109400,107600,108500,85,1085
2012/06/25,108500,110300,108500,110300,36,1103
2012/06/26,110700,111900,110000,110500,44,1105
2012/06/27,107500,112000,107500,112000,99,1120
2012/06/28,111400,114000,110900,111600,75,1116
2012/06/29,111600,114000,111200,112500,118,1125
2012/07/02,112300,112500,112100,112300,56,1123
2012/07/03,112200,113000,112000,112700,43,1127
2012/07/04,112500,114400,112500,114000,91,1140
2012/07/05,114000,115700,113400,114500,65,1145
2012/07/06,111500,113400,111500,113400,241,1134
2012/07/09,113500,113500,112300,112700,104,1127
2012/07/10,111100,115000,111100,113800,104,1138
2012/07/11,112900,113800,112000,112900,61,1129
2012/07/12,112900,115100,112900,114000,99,1140
2012/07/13,114800,115200,114000,115100,88,1151
2012/07/17,112100,115000,112100,114100,147,1141
2012/07/18,115000,118800,115000,116800,187,1168
2012/07/19,116200,117300,115900,116100,241,1161
2012/07/20,116500,120000,116500,116500,259,1165
2012/07/23,116000,118100,115200,116500,177,1165
2012/07/24,115400,120200,115400,117300,156,1173
2012/07/25,116700,119300,113500,116500,461,1165
2012/07/26,119600,121100,116500,120000,375,1200
2012/07/27,120000,122000,118500,118600,86,1186
2012/07/30,120000,127000,120000,125000,393,1250
2012/07/31,123300,127000,123300,124000,225,1240
2012/08/01,123500,127000,121300,125100,220,1251
2012/08/02,127400,131500,127400,131500,372,1315
2012/08/03,128500,132100,127500,128300,269,1283
2012/08/06,128800,129900,124700,124700,250,1247
2012/08/07,124400,126800,122000,125000,191,1250
2012/08/08,122100,124500,119100,121500,257,1215
2012/08/09,120100,120100,115700,117500,405,1175
2012/08/10,120500,121900,117000,118200,115,1182
2012/08/13,120000,120900,116100,120000,155,1200
2012/08/14,118000,120500,118000,119100,110,1191
2012/08/15,118300,120200,118300,118800,101,1188
2012/08/16,118200,121500,118200,121500,73,1215
2012/08/17,120000,126000,120000,124100,324,1241
2012/08/20,127900,130000,127900,129100,286,1291
2012/08/21,129100,131000,129100,130000,134,1300
2012/08/22,128000,129400,126100,127500,438,1275
2012/08/23,129100,129100,127600,127600,46,1276
2012/08/24,125900,130100,121000,129700,247,1297
2012/08/27,130000,137900,130000,133900,586,1339
2012/08/28,133500,135100,129100,134900,623,1349
2012/08/29,135500,138800,133800,138800,285,1388
2012/08/30,138700,138800,134500,134600,206,1346
2012/08/31,134600,138000,133300,136700,158,1367
2012/09/03,136800,137500,134100,134100,143,1341
2012/09/04,135000,135000,131700,133700,42,1337
2012/09/05,131800,137500,131800,136600,88,1366
2012/09/06,135100,139600,135100,139600,262,1396
2012/09/07,140100,140100,137500,140000,151,1400
2012/09/10,140000,144400,139900,144300,214,1443
2012/09/11,142100,142100,140000,142000,118,1420
2012/09/12,140100,140500,136000,138000,246,1380
2012/09/13,136000,140400,132500,139500,336,1395
2012/09/14,140000,141000,136500,137200,161,1372
2012/09/18,134300,135000,133000,133200,304,1332
2012/09/19,132700,134600,129000,130500,261,1305
2012/09/20,129300,131500,127500,129400,420,1294
2012/09/21,127500,134600,127500,134600,162,1346
2012/09/24,136000,138900,136000,137900,82,1379
2012/09/25,137600,139000,137500,138000,112,1380
2012/09/26,139000,140000,135000,135900,182,1359
2012/09/27,135800,138000,132000,137900,213,1379
2012/09/28,138500,139800,136900,139800,157,1398
2012/10/01,140000,140000,137700,138900,85,1389
2012/10/02,140000,140000,135800,135900,95,1359
2012/10/03,136000,138800,136000,138800,70,1388
2012/10/04,137700,139500,135500,138000,101,1380
2012/10/05,139600,139800,137000,139500,132,1395
2012/10/09,140000,142000,138400,140600,255,1406
2012/10/10,140700,140700,138500,138900,218,1389
2012/10/11,137200,138900,136000,137500,249,1375
2012/10/12,137800,138000,135400,137500,249,1375
2012/10/15,136000,139800,135800,139500,205,1395
2012/10/16,139500,139500,132000,133000,326,1330
2012/10/17,134700,134700,128300,131300,681,1313
2012/10/18,129400,132700,127000,131700,750,1317
2012/10/19,130200,135600,130200,135500,325,1355
2012/10/22,134200,136500,133000,136500,145,1365
2012/10/23,136500,137300,134600,137300,214,1373
2012/10/24,137000,141000,136900,139800,288,1398
2012/10/25,139800,139800,135700,138700,288,1387
2012/10/26,137700,138500,136200,137800,148,1378
2012/10/29,125800,129800,122200,124000,1201,1240
2012/10/30,122200,124300,122200,122600,526,1226
2012/10/31,122400,124000,122400,123900,1261,1239
2012/11/01,123000,125700,123000,124600,474,1246
2012/11/02,126000,128000,126000,127900,133,1279
2012/11/05,127900,130000,127700,130000,222,1300
2012/11/06,130000,130100,127500,129900,210,1299
2012/11/07,132900,133500,131100,133500,253,1335
2012/11/08,130500,132600,130000,131000,165,1310
2012/11/09,131600,133900,131600,132700,58,1327
2012/11/12,132500,132500,130000,132400,91,1324
2012/11/13,132400,134500,129100,134500,275,1345
2012/11/14,135000,135200,132700,133900,122,1339
2012/11/15,133500,137300,130500,135600,379,1356
2012/11/16,135600,137000,132200,134000,117,1340
2012/11/19,133900,134800,130800,134200,172,1342
2012/11/20,131200,132500,129600,131000,263,1310
2012/11/21,132500,132500,129500,131000,276,1310
2012/11/22,131000,132300,127500,131500,372,1315
2012/11/26,132500,133000,131400,132500,339,1325
2012/11/27,131800,132700,130200,132700,313,1327
2012/11/28,129800,132000,129800,132000,214,1320
2012/11/29,132000,132800,130000,132800,191,1328
2012/11/30,131500,132700,130100,132700,768,1327
2012/12/03,131400,132100,130100,131900,502,1319
2012/12/04,131900,131900,128900,131000,221,1310
2012/12/05,132200,132200,131000,131300,152,1313
2012/12/06,131400,132000,129800,132000,464,1320
2012/12/07,130600,132000,130600,131900,182,1319
2012/12/10,132500,134200,132000,133900,442,1339
2012/12/11,134500,135000,133400,133900,188,1339
2012/12/12,134000,134900,133100,133900,137,1339
2012/12/13,133400,135400,133000,135000,355,1350
2012/12/14,135000,135000,134200,134400,136,1344
2012/12/17,132000,134000,130200,131000,450,1310
2012/12/18,131100,131700,130300,130600,61,1306
2012/12/19,134300,136300,133500,135500,1010,1355
2012/12/20,135800,137000,134800,135000,290,1350
2012/12/21,134400,138000,134400,138000,240,1380
2012/12/25,137900,137900,134700,135300,135,1353
2012/12/26,136000,137100,135700,137100,69,1371
2012/12/27,138000,138500,135700,138500,196,1385
2012/12/28,137800,137800,134300,135100,166,1351
2013/01/04,138100,139800,136600,139300,239,1393
2013/01/07,140000,142900,138900,141400,192,1414
2013/01/08,139100,141500,139100,139600,79,1396
2013/01/09,139600,140000,136800,138100,50,1381
2013/01/10,138100,142100,138100,141400,138,1414
2013/01/11,142500,143000,139100,143000,165,1430
2013/01/15,143000,146000,141900,143000,237,1430
2013/01/16,145300,145300,142300,143200,94,1432
2013/01/17,143000,145400,143000,144700,271,1447
2013/01/18,149900,150500,145200,149500,464,1495
2013/01/21,150000,158500,150000,151500,394,1515
2013/01/22,155500,158000,153400,157400,193,1574
2013/01/23,156000,156000,152300,152500,157,1525
2013/01/24,154400,154400,150200,152000,392,1520
2013/01/25,153300,153300,148500,151000,453,1510
2013/01/28,151000,153600,150900,152700,192,1527
2013/01/29,150500,150700,149200,149200,267,1492
2013/01/30,149500,149600,146500,147200,225,1472
2013/01/31,148000,157000,147400,151500,353,1515
2013/02/01,152300,154000,150300,151100,594,1511
2013/02/04,150000,151800,148100,150000,553,1500
2013/02/05,149900,149900,147100,148000,397,1480
2013/02/06,149000,164300,148600,164300,931,1643
2013/02/07,156300,158000,155100,156700,156,1567
2013/02/08,155000,155000,151500,152600,165,1526
2013/02/12,152200,152800,150000,150400,152,1504
2013/02/13,150000,150400,149000,149000,201,1490
2013/02/14,149000,151500,148100,149700,247,1497
2013/02/15,149000,149000,142600,145200,112,1452
2013/02/18,148000,148000,144700,145400,79,1454
2013/02/19,145400,145800,142000,143300,247,1433
2013/02/20,141500,143600,141300,143500,197,1435
2013/02/21,143000,146700,141900,144200,140,1442
2013/02/22,144100,145500,142600,144100,126,1441
2013/02/25,143800,148000,143800,147900,163,1479
2013/02/26,147800,147900,146000,147900,92,1479
2013/02/27,147900,147900,145500,145600,64,1456
2013/02/28,147700,149500,147000,148300,265,1483
2013/03/01,148800,149600,148100,149000,130,1490
2013/03/04,150000,151300,149100,151000,454,1510
2013/03/05,151100,151800,149600,151000,237,1510
2013/03/06,151000,151000,149600,150500,139,1505
2013/03/07,150000,151600,149300,151400,122,1514
2013/03/08,149500,152100,148800,151000,336,1510
2013/03/11,151000,155000,151000,154900,248,1549
2013/03/12,154900,155000,152700,155000,121,1550
2013/03/13,154800,154800,153300,154800,149,1548
2013/03/14,154500,155000,153600,154500,199,1545
2013/03/15,155500,158000,155300,157400,397,1574
2013/03/18,158000,159000,156000,156800,167,1568
2013/03/19,156600,158000,153000,153000,318,1530
2013/03/21,153500,155700,153500,155700,275,1557
2013/03/22,155000,156500,146000,151000,228,1510
2013/03/25,152200,156500,152200,156500,165,1565
2013/03/26,157000,157000,153000,155100,183,1551
2013/03/27,155900,155900,153700,155200,122,1552
2013/03/28,155200,155200,152700,153800,123,1538
2013/03/29,149800,154600,149500,152700,389,1527
2013/04/01,152700,153000,145700,148900,264,1489
2013/04/02,148800,149400,146200,149400,123,1494
2013/04/03,150000,151500,149800,150000,150,1500
2013/04/04,150000,151900,149600,151900,159,1519
2013/04/05,153000,154100,149000,150900,287,1509
2013/04/08,150700,150900,148900,150900,175,1509
2013/04/09,150000,150000,146900,149100,298,1491
2013/04/10,147800,150000,146900,149900,287,1499
2013/04/11,150900,150900,148100,148300,236,1483
2013/04/12,148800,151000,148500,151000,211,1510
2013/04/15,151000,155000,151000,154000,313,1540
2013/04/16,154600,155000,151800,152900,261,1529
2013/04/17,152900,157000,152600,155700,332,1557
2013/04/18,157500,157500,155000,155100,138,1551
2013/04/19,155200,156800,155200,156200,171,1562
2013/04/22,157200,161500,157200,158000,461,1580
2013/04/23,157500,161500,157500,161300,256,1613
2013/04/24,161500,162900,159200,162500,527,1625
2013/04/25,162500,163100,157800,157800,761,1578
2013/04/26,155000,155900,153400,154500,1567,1545
2013/04/30,153400,153700,149000,153000,417,1530
2013/05/01,154000,157400,153400,157000,320,1570
2013/05/02,160000,160300,155900,156500,311,1565
2013/05/07,156000,159600,155000,157700,414,1577
2013/05/08,160000,161000,159000,159600,371,1596
2013/05/09,161800,161800,159000,160000,572,1600
2013/05/10,160000,160000,156000,156600,354,1566
2013/05/13,156100,157400,153400,153800,382,1538
2013/05/14,153800,155000,152100,152100,318,1521
2013/05/15,153800,154900,151100,154500,343,1545
2013/05/16,155000,155000,149500,150500,546,1505
2013/05/17,150500,153800,150000,152300,370,1523
2013/05/20,159400,159400,151800,152500,467,1525
2013/05/21,154800,154800,151500,151500,165,1515
2013/05/22,153500,153500,150100,150600,149,1506
2013/05/23,150000,153000,140000,140300,790,1403
2013/05/24,143000,144400,132000,133500,642,1335
2013/05/27,134000,134500,131600,133400,330,1334
2013/05/28,132000,133500,129800,133500,372,1335
2013/05/29,138100,140000,136900,140000,242,1400
2013/05/30,138700,138800,134800,137700,146,1377
2013/05/31,139000,139900,136100,136100,178,1361
2013/06/03,135500,138000,133000,133100,79,1331
2013/06/04,132000,133000,130000,131400,236,1314
2013/06/05,131000,133800,130200,132900,120,1329
2013/06/06,130800,131700,129000,131300,247,1313
2013/06/07,128000,131800,122000,125500,574,1255
2013/06/10,128000,129300,127000,128300,176,1283
2013/06/11,127600,133500,127000,132000,377,1320
2013/06/12,129000,130000,126400,128500,254,1285
2013/06/13,128500,131100,126700,126700,145,1267
2013/06/14,129000,129000,126300,126500,95,1265
2013/06/17,124600,126400,121300,124200,342,1242
2013/06/18,122300,124500,122200,122700,337,1227
2013/06/19,124100,124100,119300,122100,504,1221
2013/06/20,120000,120000,115500,116300,879,1163
2013/06/21,116300,116300,113000,115500,467,1155
2013/06/24,116500,118200,115200,116400,280,1164
2013/06/25,116000,116800,114700,116100,229,1161
2013/06/26,116000,116500,108000,112300,327,1123
2013/06/27,112400,113800,109600,111700,353,1117
2013/06/28,112000,114500,112000,114400,152,1144
2013/07/01,114400,116600,113100,114500,160,1145
2013/07/02,118500,122300,116400,121400,335,1214
2013/07/03,122000,122200,119000,120800,269,1208
2013/07/04,120200,121700,119000,119500,81,1195
2013/07/05,120000,120900,119100,120200,88,1202
2013/07/08,121000,121800,120300,120300,107,1203
2013/07/09,120300,121900,120300,120600,145,1206
2013/07/10,122000,122900,121100,122100,156,1221
2013/07/11,120600,122100,120600,121900,119,1219
2013/07/12,120500,122800,120400,122800,248,1228
2013/07/16,123800,125900,122500,124700,194,1247
2013/07/17,124200,126300,124000,126000,124,1260
2013/07/18,125800,128000,125000,127700,187,1277
2013/07/19,127500,127700,126100,126400,203,1264
2013/07/22,127700,127900,126600,126700,188,1267
2013/07/23,126800,128500,126800,127300,102,1273
2013/07/24,130000,130000,127300,129800,197,1298
2013/07/25,120800,125000,119100,120000,1111,1200
2013/07/26,123000,123000,120000,120200,320,1202
2013/07/29,119200,119200,116200,116400,208,1164
2013/07/30,114900,116200,113900,114200,375,1142
2013/07/31,114400,114800,110300,110800,339,1108
2013/08/01,113800,114000,110000,110700,629,1107
2013/08/02,112400,114200,110700,113100,213,1131
2013/08/05,114700,116700,114100,115600,253,1156
2013/08/06,114700,121000,114600,116600,225,1166
2013/08/07,116000,116600,114000,116500,85,1165
2013/08/08,114500,116500,114100,114100,76,1141
2013/08/09,113200,114000,112000,112800,243,1128
2013/08/12,110300,115100,110300,114400,120,1144
2013/08/13,112000,113700,111500,113700,130,1137
2013/08/14,113100,114000,113100,113600,35,1136
2013/08/15,114000,114000,112100,113800,91,1138
2013/08/16,113800,114100,112600,113100,60,1131
2013/08/19,114300,114300,113500,113800,37,1138
2013/08/20,114300,114300,112800,113500,53,1135
2013/08/21,113400,114000,113000,113300,87,1133
2013/08/22,113700,113900,112200,113100,94,1131
2013/08/23,112500,114000,112200,113400,128,1134
2013/08/26,113900,113900,111600,111600,128,1116
2013/08/27,111800,113200,111600,112900,86,1129
2013/08/28,111400,113400,111400,113100,161,1131
2013/08/29,112000,112600,110000,110000,115,1100
2013/08/30,112000,112000,109900,110500,181,1105
2013/09/02,110500,111500,108900,108900,91,1089
2013/09/03,111100,111100,109500,111000,142,1110
2013/09/04,112000,115200,112000,114700,170,1147
2013/09/05,114600,117400,114600,117400,172,1174
2013/09/06,116500,117800,116100,117000,88,1170
2013/09/09,119900,122100,118200,122000,320,1220
2013/09/10,121000,122000,120000,120000,37,1200
2013/09/11,120000,120000,114400,119300,45,1193
2013/09/12,116500,120600,116500,118500,56,1185
2013/09/13,120000,121000,118000,119500,83,1195
2013/09/17,119500,121500,117800,121300,88,1213
2013/09/18,119200,121000,119200,119800,33,1198
2013/09/19,119400,122000,118900,121300,155,1213
2013/09/20,121500,123900,121100,123700,178,1237
2013/09/24,123100,124400,122200,124400,166,1244
2013/09/25,123200,126100,122500,126100,159,1261
2013/09/26,1260,1260,1202,1260,8200,1260
2013/09/27,1236,1236,1216,1218,2400,1218
2013/09/30,1188,1200,1184,1190,6500,1190
2013/10/01,1194,1210,1193,1200,4700,1200
2013/10/02,1199,1221,1199,1220,12700,1220
2013/10/03,1201,1225,1201,1220,6200,1220
2013/10/04,1191,1242,1191,1205,9600,1205
2013/10/07,1209,1228,1209,1212,5600,1212
2013/10/08,1192,1205,1192,1199,10900,1199
2013/10/09,1199,1237,1199,1234,7700,1234
2013/10/10,1235,1260,1235,1259,9300,1259
2013/10/11,1265,1286,1247,1282,23600,1282
2013/10/15,1285,1314,1285,1305,18200,1305
2013/10/16,1286,1311,1255,1279,12300,1279
2013/10/17,1289,1303,1289,1300,4100,1300
2013/10/18,1310,1320,1277,1315,13700,1315
2013/10/21,1320,1328,1315,1320,12600,1320
2013/10/22,1320,1321,1285,1318,8200,1318
2013/10/23,1310,1320,1301,1320,12900,1320
2013/10/24,1308,1324,1308,1319,8300,1319
2013/10/25,1330,1334,1320,1332,10100,1332
2013/10/28,1302,1330,1287,1330,19100,1330
2013/10/29,1330,1333,1329,1333,4300,1333
2013/10/30,1311,1311,1291,1300,9300,1300
2013/10/31,1293,1295,1280,1280,13300,1280
2013/11/01,1252,1265,1252,1261,8500,1261
2013/11/05,1244,1278,1244,1269,8500,1269
2013/11/06,1239,1263,1239,1257,6900,1257
2013/11/07,1247,1260,1247,1250,9600,1250
2013/11/08,1234,1234,1210,1218,8000,1218
2013/11/11,1220,1220,1209,1209,1400,1209
2013/11/12,1203,1218,1201,1210,3400,1210
2013/11/13,1206,1215,1206,1208,3000,1208
2013/11/14,1208,1230,1208,1230,3300,1230
2013/11/15,1226,1260,1224,1228,6200,1228
2013/11/18,1230,1231,1230,1231,1600,1231
2013/11/19,1231,1240,1230,1236,5500,1236
2013/11/20,1236,1240,1230,1238,6000,1238
2013/11/21,1236,1248,1231,1247,4800,1247
2013/11/22,1247,1250,1241,1246,9900,1246
2013/11/25,1246,1248,1241,1241,5800,1241
2013/11/26,1250,1250,1220,1243,26000,1243
2013/11/27,1220,1243,1212,1225,18100,1225
2013/11/28,1221,1223,1203,1211,6800,1211
2013/11/29,1207,1218,1203,1204,12000,1204
2013/12/02,1210,1230,1206,1229,9800,1229
2013/12/03,1230,1239,1230,1233,16800,1233
2013/12/04,1240,1244,1205,1235,13000,1235
2013/12/05,1233,1233,1208,1211,12000,1211
2013/12/06,1205,1228,1205,1227,9400,1227
2013/12/09,1227,1230,1220,1225,5000,1225
2013/12/10,1250,1250,1220,1230,12200,1230
2013/12/11,1231,1234,1231,1234,2500,1234
2013/12/12,1218,1222,1206,1211,14300,1211
2013/12/13,1211,1215,1208,1209,3800,1209
2013/12/16,1207,1209,1207,1209,5300,1209
2013/12/17,1207,1213,1203,1210,8300,1210
2013/12/18,1201,1211,1192,1196,15100,1196
2013/12/19,1198,1208,1190,1191,17000,1191
2013/12/20,1190,1190,1180,1182,12800,1182
2013/12/24,1170,1177,1160,1172,27700,1172
2013/12/25,1155,1171,1155,1158,26400,1158
2013/12/26,1170,1173,1164,1173,5300,1173
2013/12/27,1179,1195,1177,1183,9200,1183
2013/12/30,1195,1210,1191,1209,5400,1209
2014/01/06,1206,1214,1204,1214,4900,1214
2014/01/07,1214,1218,1210,1215,4000,1215
2014/01/08,1215,1225,1215,1224,6800,1224
2014/01/09,1250,1250,1215,1219,8800,1219
2014/01/10,1211,1219,1211,1215,5500,1215
2014/01/14,1213,1220,1210,1215,8800,1215
2014/01/15,1220,1234,1220,1233,6100,1233
2014/01/16,1236,1285,1236,1265,17600,1265
2014/01/17,1265,1265,1246,1255,4200,1255
2014/01/20,1295,1295,1247,1247,14500,1247
2014/01/21,1277,1389,1275,1319,96300,1319
2014/01/22,1328,1330,1300,1320,34800,1320
2014/01/23,1314,1359,1314,1333,17500,1333
2014/01/24,1360,1360,1329,1333,14700,1333
2014/01/27,1325,1335,1255,1289,31900,1289
2014/01/28,1280,1305,1280,1300,11900,1300
2014/01/29,1300,1335,1300,1335,13600,1335
2014/01/30,1301,1311,1295,1300,5400,1300
2014/01/31,1330,1330,1302,1316,19800,1316
2014/02/03,1286,1300,1286,1299,10800,1299
2014/02/04,1269,1274,1250,1251,10700,1251
2014/02/05,1258,1265,1221,1265,5500,1265
2014/02/06,1259,1286,1259,1286,2500,1286
2014/02/07,1287,1300,1287,1290,1800,1290
2014/02/10,1291,1300,1285,1289,5800,1289
2014/02/12,1300,1305,1297,1305,6400,1305
2014/02/13,1299,1305,1299,1299,3200,1299
2014/02/14,1299,1306,1290,1299,9100,1299
2014/02/17,1299,1299,1295,1297,2600,1297
2014/02/18,1299,1303,1271,1298,6200,1298
2014/02/19,1299,1305,1291,1298,4900,1298
2014/02/20,1299,1307,1278,1297,11300,1297
2014/02/21,1293,1300,1291,1299,4700,1299
2014/02/24,1295,1295,1285,1285,3700,1285
2014/02/25,1286,1287,1270,1278,12900,1278
2014/02/26,1273,1283,1271,1273,3700,1273
2014/02/27,1275,1283,1273,1283,2700,1283
2014/02/28,1282,1320,1271,1320,6300,1320
2014/03/03,1290,1312,1285,1312,2300,1312
2014/03/04,1291,1291,1265,1270,10700,1270
2014/03/05,1271,1272,1251,1264,6800,1264
2014/03/06,1255,1269,1255,1269,1200,1269
2014/03/07,1270,1276,1262,1276,2200,1276
2014/03/10,1258,1260,1256,1260,6100,1260
2014/03/11,1280,1280,1255,1259,3400,1259
2014/03/12,1257,1258,1220,1220,16400,1220
2014/03/13,1229,1231,1223,1223,1600,1223
2014/03/14,1211,1215,1200,1201,12100,1201
2014/03/17,1201,1202,1199,1200,4500,1200
2014/03/18,1200,1214,1200,1201,5300,1201
2014/03/19,1201,1219,1198,1200,3200,1200
2014/03/20,1195,1215,1190,1190,9000,1190
2014/03/24,1190,1190,1165,1172,8700,1172
2014/03/25,1174,1179,1162,1168,6300,1168
2014/03/26,1171,1174,1156,1157,12600,1157
2014/03/27,1146,1149,1116,1137,6400,1137
2014/03/28,1143,1180,1138,1155,10100,1155
2014/03/31,1165,1185,1155,1159,6700,1159
2014/04/01,1160,1160,1141,1152,11600,1152
2014/04/02,1165,1170,1152,1152,6200,1152
2014/04/03,1153,1170,1153,1158,18900,1158
2014/04/04,1158,1180,1146,1157,11700,1157
2014/04/07,1160,1160,1153,1154,3500,1154
2014/04/08,1150,1160,1150,1150,3700,1150
2014/04/09,1156,1165,1135,1144,14900,1144
2014/04/10,1178,1444,1170,1444,491800,1444
2014/04/11,1333,1415,1316,1368,116700,1368
2014/04/14,1355,1465,1336,1460,169200,1460
2014/04/15,1453,1549,1429,1455,84500,1455
2014/04/16,1448,1520,1437,1476,72100,1476
2014/04/17,1461,1476,1435,1442,38900,1442
2014/04/18,1442,1467,1438,1453,38300,1453
2014/04/21,1445,1457,1434,1445,14900,1445
2014/04/22,1442,1468,1436,1443,14700,1443
2014/04/23,1451,1470,1435,1454,25700,1454
2014/04/24,1455,1495,1454,1471,40900,1471
2014/04/25,1485,1485,1447,1454,23900,1454
2014/04/28,1444,1460,1417,1419,16200,1419
2014/04/30,1424,1450,1410,1445,12100,1445
2014/05/01,1421,1434,1413,1418,21400,1418
2014/05/02,1418,1419,1415,1417,6900,1417
2014/05/07,1411,1411,1391,1392,27100,1392
2014/05/08,1396,1415,1380,1380,19200,1380
2014/05/09,1394,1419,1394,1419,12000,1419
2014/05/12,1419,1443,1385,1409,6800,1409
2014/05/13,1410,1426,1397,1406,10700,1406
2014/05/14,1401,1421,1394,1408,9100,1408
2014/05/15,1408,1468,1403,1434,7100,1434
2014/05/16,1414,1456,1413,1446,35300,1446
2014/05/19,1439,1459,1410,1459,14800,1459
2014/05/20,1437,1443,1415,1420,13100,1420
2014/05/21,1420,1444,1417,1433,7500,1433
2014/05/22,1458,1460,1420,1451,13400,1451
2014/05/23,1442,1460,1442,1446,8000,1446
2014/05/26,1450,1450,1431,1442,3800,1442
2014/05/27,1430,1451,1430,1433,5700,1433
2014/05/28,1436,1451,1435,1436,15500,1436
2014/05/29,1428,1455,1423,1437,24300,1437
2014/05/30,1437,1438,1425,1430,27600,1430
2014/06/02,1426,1460,1426,1455,51300,1455
2014/06/03,1470,1501,1464,1501,37200,1501
2014/06/04,1498,1530,1433,1500,41700,1500
2014/06/05,1504,1510,1477,1505,26100,1505
2014/06/06,1508,1508,1490,1503,8600,1503
2014/06/09,1495,1500,1482,1483,8500,1483
2014/06/10,1499,1499,1463,1463,12600,1463
2014/06/11,1487,1487,1445,1465,18500,1465
2014/06/12,1460,1464,1441,1449,17100,1449
2014/06/13,1455,1480,1442,1474,30300,1474
2014/06/16,1495,1508,1475,1476,17300,1476
2014/06/17,1476,1510,1471,1483,29200,1483
2014/06/18,1502,1529,1502,1527,29900,1527
2014/06/19,1543,1543,1502,1520,25900,1520
2014/06/20,1503,1509,1489,1490,6400,1490
2014/06/23,1490,1497,1477,1479,7700,1479
2014/06/24,1476,1500,1474,1479,12700,1479
2014/06/25,1470,1480,1461,1466,17800,1466
2014/06/26,1496,1496,1461,1464,10500,1464
2014/06/27,1465,1480,1453,1457,12400,1457
2014/06/30,1477,1538,1476,1516,37000,1516
2014/07/01,1505,1527,1501,1509,17900,1509
2014/07/02,1505,1536,1483,1532,26800,1532
2014/07/03,1506,1540,1506,1532,15200,1532
2014/07/04,1545,1546,1523,1539,10600,1539
2014/07/07,1527,1545,1527,1532,7500,1532
2014/07/08,1540,1666,1540,1643,49400,1643
2014/07/09,1563,1640,1556,1640,30900,1640
2014/07/10,1610,1627,1583,1589,4800,1589
2014/07/11,1570,1590,1551,1583,9900,1583
2014/07/14,1580,1610,1580,1583,5000,1583
2014/07/15,1582,1605,1582,1594,6500,1594
2014/07/16,1600,1620,1584,1590,9200,1590
2014/07/17,1614,1620,1590,1600,10600,1600
2014/07/18,1587,1625,1577,1622,7900,1622
2014/07/22,1603,1610,1570,1584,7900,1584
2014/07/23,1593,1593,1577,1583,3900,1583
2014/07/24,1581,1597,1570,1592,7000,1592
2014/07/25,1608,1620,1568,1576,13200,1576
2014/07/28,1599,1614,1573,1586,8100,1586
2014/07/29,1561,1618,1540,1597,17600,1597
2014/07/30,1600,1620,1587,1614,21100,1614
2014/07/31,1615,1617,1597,1617,14700,1617
2014/08/01,1577,1634,1574,1634,12900,1634
2014/08/04,1633,1633,1578,1588,15200,1588
2014/08/05,1588,1590,1560,1565,17700,1565
2014/08/06,1565,1565,1505,1533,21200,1533
2014/08/07,1549,1551,1522,1550,5500,1550
2014/08/08,1510,1521,1490,1517,27900,1517
2014/08/11,1516,1540,1506,1523,4400,1523
2014/08/12,1522,1540,1515,1520,5200,1520
2014/08/13,1530,1548,1516,1528,6200,1528
2014/08/14,1544,1544,1510,1513,1400,1513
2014/08/15,1530,1550,1500,1506,6400,1506
2014/08/18,1500,1515,1500,1508,2400,1508
2014/08/19,1505,1530,1503,1507,6200,1507
2014/08/20,1508,1508,1450,1501,17200,1501
2014/08/21,1501,1509,1501,1509,600,1509
2014/08/22,1501,1502,1488,1500,8800,1500
2014/08/25,1494,1544,1494,1535,3400,1535
2014/08/26,1550,1550,1500,1500,8800,1500
2014/08/27,1524,1535,1489,1495,5800,1495
2014/08/28,1525,1525,1490,1497,5500,1497
2014/08/29,1515,1540,1495,1511,4200,1511
2014/09/01,1511,1512,1500,1500,1000,1500
2014/09/02,1510,1540,1510,1520,3200,1520
2014/09/03,1515,1538,1510,1510,2500,1510
2014/09/04,1545,1545,1500,1500,9000,1500
2014/09/05,1512,1512,1489,1489,8900,1489
2014/09/08,1492,1496,1492,1492,3500,1492
2014/09/09,1491,1515,1491,1500,3100,1500
2014/09/10,1490,1490,1481,1482,17800,1482
2014/09/11,1484,1500,1480,1483,18800,1483
2014/09/12,1483,1494,1483,1485,5700,1485
2014/09/16,1485,1525,1485,1495,2500,1495
2014/09/17,1491,1522,1490,1491,4300,1491
2014/09/18,1491,1519,1488,1488,2400,1488
2014/09/19,1509,1510,1495,1510,3800,1510
2014/09/22,1501,1520,1492,1498,3500,1498
2014/09/24,1509,1520,1505,1505,7000,1505
2014/09/25,1505,1505,1477,1480,29900,1480
2014/09/26,1475,1475,1458,1465,146400,1465
2014/09/29,1457,1495,1456,1465,11400,1465
2014/09/30,1454,1485,1454,1468,28000,1468
2014/10/01,1480,1486,1468,1469,4100,1469
2014/10/02,1485,1485,1456,1460,4500,1460
2014/10/03,1488,1488,1452,1453,74100,1453
2014/10/06,1465,1466,1465,1466,6700,1466
2014/10/07,1471,1500,1460,1488,4700,1488
2014/10/08,1503,1503,1470,1492,23400,1492
2014/10/09,1492,1500,1479,1483,5600,1483
2014/10/10,1460,1464,1421,1426,23800,1426
2014/10/14,1411,1441,1400,1400,12700,1400
2014/10/15,1370,1400,1370,1390,7200,1390
2014/10/16,1400,1400,1360,1368,45000,1368
2014/10/17,1380,1383,1379,1383,4600,1383
2014/10/20,1385,1430,1385,1421,5200,1421
2014/10/21,1433,1460,1425,1445,24700,1445
2014/10/22,1415,1480,1415,1457,17200,1457
2014/10/23,1453,1471,1453,1471,4400,1471
2014/10/24,1490,1505,1490,1501,9600,1501
2014/10/27,1505,1525,1505,1525,13200,1525
2014/10/28,1525,1532,1513,1527,6900,1527
2014/10/29,1487,1487,1413,1418,45400,1418
2014/10/30,1412,1419,1363,1385,21600,1385
2014/10/31,1355,1364,1319,1339,33400,1339
2014/11/04,1347,1350,1281,1288,101200,1288
2014/11/05,1307,1310,1260,1268,60900,1268
2014/11/06,1268,1268,1234,1248,173800,1248
2014/11/07,1253,1270,1253,1270,60700,1270
2014/11/10,1276,1308,1276,1307,25600,1307
2014/11/11,1307,1308,1291,1292,17100,1292
2014/11/12,1308,1311,1301,1311,21100,1311
2014/11/13,1315,1349,1301,1338,26500,1338
2014/11/14,1323,1345,1315,1323,6200,1323
2014/11/17,1323,1323,1278,1281,12300,1281
2014/11/18,1288,1314,1288,1304,34100,1304
2014/11/19,1313,1313,1296,1308,8600,1308
2014/11/20,1305,1329,1299,1301,83600,1301
2014/11/21,1295,1310,1294,1305,23700,1305
2014/11/25,1305,1318,1305,1312,6800,1312
2014/11/26,1315,1328,1311,1327,11200,1327
2014/11/27,1353,1359,1336,1336,29900,1336
2014/11/28,1348,1358,1330,1353,15800,1353
2014/12/01,1357,1369,1340,1355,18600,1355
2014/12/02,1385,1385,1345,1375,53100,1375
2014/12/03,1375,1385,1356,1376,10900,1376
2014/12/04,1384,1384,1363,1381,18000,1381
2014/12/05,1374,1382,1366,1375,33200,1375
2014/12/08,1381,1381,1363,1378,4600,1378
2014/12/09,1365,1379,1350,1375,8400,1375
2014/12/10,1369,1374,1335,1374,44000,1374
2014/12/11,1365,1365,1348,1354,2400,1354
2014/12/12,1354,1354,1277,1344,8700,1344
2014/12/15,1344,1351,1339,1348,5600,1348
2014/12/16,1340,1350,1330,1350,10700,1350
2014/12/17,1320,1348,1320,1345,6600,1345
2014/12/18,1350,1355,1335,1355,8000,1355
2014/12/19,1356,1356,1330,1330,6800,1330
2014/12/22,1342,1343,1315,1324,7800,1324
2014/12/24,1307,1330,1303,1303,9200,1303
2014/12/25,1304,1309,1295,1306,7100,1306
2014/12/26,1309,1313,1301,1313,4300,1313
2014/12/29,1320,1320,1306,1306,3300,1306
2014/12/30,1312,1331,1312,1326,8600,1326
2015/01/05,1349,1349,1319,1327,3700,1327
2015/01/06,1327,1327,1301,1309,5300,1309
2015/01/07,1303,1323,1300,1309,8900,1309
2015/01/08,1311,1328,1300,1312,11000,1312
2015/01/09,1319,1329,1304,1320,14200,1320
2015/01/13,1307,1326,1304,1323,4900,1323
2015/01/14,1315,1333,1314,1328,2900,1328
2015/01/15,1312,1325,1309,1322,2400,1322
2015/01/16,1312,1338,1309,1336,36200,1336
2015/01/19,1318,1365,1318,1342,13100,1342
2015/01/20,1337,1337,1327,1330,3700,1330
2015/01/21,1324,1338,1302,1328,16400,1328
2015/01/22,1324,1337,1315,1332,17600,1332
2015/01/23,1343,1354,1328,1351,28200,1351
2015/01/26,1368,1380,1347,1360,24000,1360
2015/01/27,1352,1370,1347,1347,11900,1347
2015/01/28,1311,1325,1311,1320,17500,1320
2015/01/29,1315,1327,1303,1325,44400,1325
2015/01/30,1320,1320,1302,1315,9300,1315
2015/02/02,1301,1305,1286,1299,18200,1299
2015/02/03,1296,1296,1280,1287,21900,1287
2015/02/04,1280,1290,1257,1266,15500,1266
2015/02/05,1266,1267,1254,1266,10300,1266
2015/02/06,1258,1277,1256,1274,10100,1274
2015/02/09,1272,1279,1268,1270,6800,1270
2015/02/10,1268,1298,1268,1286,9300,1286
2015/02/12,1300,1350,1296,1300,41000,1300
2015/02/13,1296,1376,1296,1342,65500,1342
2015/02/16,1327,1346,1323,1323,11800,1323
2015/02/17,1312,1320,1305,1305,8600,1305
2015/02/18,1307,1321,1307,1320,14700,1320
2015/02/19,1314,1320,1303,1304,9800,1304
2015/02/20,1304,1310,1295,1295,21300,1295
2015/02/23,1296,1301,1295,1295,8400,1295
2015/02/24,1296,1310,1296,1305,6200,1305
2015/02/25,1305,1323,1305,1311,4800,1311
2015/02/26,1319,1319,1309,1310,5000,1310
2015/02/27,1310,1336,1303,1336,14600,1336
2015/03/02,1336,1360,1336,1359,18100,1359
2015/03/03,1365,1370,1328,1328,12900,1328
2015/03/04,1328,1356,1327,1349,2100,1349
2015/03/05,1360,1362,1334,1334,8900,1334
2015/03/06,1350,1359,1332,1346,4400,1346
2015/03/09,1339,1347,1336,1344,1700,1344
2015/03/10,1352,1359,1343,1347,2800,1347
2015/03/11,1347,1371,1347,1358,12800,1358
2015/03/12,1371,1371,1358,1359,2700,1359
2015/03/13,1380,1380,1355,1357,43500,1357
2015/03/16,1377,1386,1363,1386,12800,1386
2015/03/17,1387,1400,1387,1399,13500,1399
2015/03/18,1400,1408,1395,1408,5200,1408
2015/03/19,1429,1429,1399,1402,12400,1402
2015/03/20,1427,1427,1402,1417,4800,1417
2015/03/23,1418,1418,1395,1401,4200,1401
2015/03/24,1396,1413,1387,1413,9800,1413
2015/03/25,1413,1413,1380,1411,43200,1411
2015/03/26,1411,1411,1395,1399,14800,1399
2015/03/27,1357,1391,1351,1375,9900,1375
2015/03/30,1375,1400,1375,1395,10000,1395
2015/03/31,1370,1385,1361,1361,14400,1361
2015/04/01,1361,1365,1357,1362,6000,1362
2015/04/02,1370,1410,1342,1345,19900,1345
2015/04/03,1343,1396,1343,1395,15200,1395
2015/04/06,1395,1398,1380,1396,2600,1396
2015/04/07,1391,1400,1391,1398,6800,1398
2015/04/08,1394,1414,1392,1400,5300,1400
2015/04/09,1400,1414,1400,1414,2900,1414
2015/04/10,1418,1424,1408,1419,9300,1419
2015/04/13,1420,1455,1420,1454,25800,1454
2015/04/14,1455,1470,1441,1464,14100,1464
2015/04/15,1460,1491,1452,1486,11800,1486
2015/04/16,1495,1500,1455,1480,17000,1480
2015/04/17,1467,1506,1467,1484,25100,1484
2015/04/20,1484,1515,1471,1509,16000,1509
2015/04/21,1509,1545,1509,1511,20300,1511
2015/04/22,1542,1547,1519,1530,10200,1530
2015/04/23,1531,1578,1530,1575,29300,1575
2015/04/24,1600,1628,1580,1617,33900,1617
2015/04/27,1619,1620,1581,1600,23900,1600
2015/04/28,1602,1603,1581,1581,13600,1581
2015/04/30,1580,1580,1522,1531,15000,1531
2015/05/01,1401,1449,1350,1400,54900,1400
2015/05/07,1390,1402,1376,1400,26800,1400
2015/05/08,1413,1415,1392,1400,7000,1400
2015/05/11,1400,1408,1393,1401,17300,1401
2015/05/12,1403,1403,1378,1390,37100,1390
2015/05/13,1390,1400,1360,1390,17200,1390
2015/05/14,1400,1400,1380,1400,8200,1400
2015/05/15,1399,1410,1390,1394,2900,1394
2015/05/18,1390,1400,1367,1371,19800,1371
2015/05/19,1399,1400,1379,1395,4800,1395
2015/05/20,1395,1400,1380,1398,11600,1398
2015/05/21,1384,1406,1380,1398,9700,1398
2015/05/22,1420,1420,1400,1400,8900,1400
2015/05/25,1420,1449,1407,1429,11600,1429
2015/05/26,1430,1480,1405,1450,36100,1450
2015/05/27,1436,1450,1405,1435,23100,1435
2015/05/28,1435,1435,1409,1425,50600,1425
2015/05/29,1413,1419,1391,1391,16700,1391
2015/06/01,1399,1414,1398,1398,3200,1398
2015/06/02,1401,1420,1390,1393,6300,1393
2015/06/03,1393,1418,1393,1409,3200,1409
2015/06/04,1414,1418,1408,1418,1800,1418
2015/06/05,1418,1418,1390,1405,6100,1405
2015/06/08,1419,1420,1405,1411,2900,1411
2015/06/09,1400,1409,1393,1397,5800,1397
2015/06/10,1395,1417,1393,1417,5200,1417
2015/06/11,1411,1418,1395,1418,3400,1418
2015/06/12,1418,1419,1383,1401,6600,1401
2015/06/15,1400,1400,1389,1400,3800,1400
2015/06/16,1393,1403,1387,1400,2200,1400
2015/06/17,1391,1407,1391,1400,3400,1400
2015/06/18,1419,1419,1402,1415,5900,1415
2015/06/19,1412,1500,1381,1500,25900,1500
2015/06/22,1500,1500,1424,1468,11300,1468
2015/06/23,1450,1480,1446,1480,10000,1480
2015/06/24,1482,1543,1464,1543,12600,1543
2015/06/25,1542,1542,1491,1509,8900,1509
2015/06/26,1541,1541,1504,1519,2800,1519
2015/06/29,1447,1509,1432,1496,7100,1496
2015/06/30,1513,1513,1481,1482,5000,1482
2015/07/01,1511,1511,1466,1495,6000,1495
2015/07/02,1495,1495,1466,1485,1200,1485
2015/07/03,1457,1491,1457,1484,2000,1484
2015/07/06,1484,1484,1454,1455,1600,1455
2015/07/07,1455,1485,1455,1481,1700,1481
2015/07/08,1479,1479,1417,1436,3500,1436
2015/07/09,1414,1435,1400,1420,5900,1420
2015/07/10,1435,1445,1421,1441,1700,1441
2015/07/13,1438,1438,1437,1438,700,1438
2015/07/14,1439,1477,1437,1467,6700,1467
2015/07/15,1466,1466,1438,1447,4600,1447
2015/07/16,1468,1468,1423,1423,4000,1423
2015/07/17,1423,1448,1416,1432,4200,1432
2015/07/21,1433,1460,1413,1415,6500,1415
2015/07/22,1415,1415,1401,1407,5700,1407
2015/07/23,1407,1407,1383,1383,14300,1383
2015/07/24,1413,1418,1380,1413,10300,1413
2015/07/27,1437,1447,1415,1447,8400,1447
2015/07/28,1401,1440,1399,1440,10200,1440
2015/07/29,1438,1440,1414,1421,5900,1421
2015/07/30,1421,1421,1391,1397,7700,1397
2015/07/31,1397,1409,1387,1409,1400,1409
2015/08/03,1409,1409,1353,1399,3300,1399
2015/08/04,1419,1419,1355,1369,8200,1369
2015/08/05,1357,1370,1351,1351,9900,1351
2015/08/06,1351,1371,1340,1350,7500,1350
2015/08/07,1341,1353,1339,1339,6700,1339
2015/08/10,1332,1339,1306,1306,14000,1306
2015/08/11,1307,1315,1301,1301,8700,1301
2015/08/12,1301,1301,1295,1296,8200,1296
2015/08/13,1292,1308,1292,1308,4400,1308
2015/08/14,1338,1338,1307,1309,3200,1309
2015/08/17,1310,1338,1300,1309,2400,1309
2015/08/18,1301,1329,1295,1329,1800,1329
2015/08/19,1329,1329,1300,1304,3000,1304
2015/08/20,1293,1298,1291,1291,5400,1291
2015/08/21,1316,1316,1280,1280,5100,1280
2015/08/24,1265,1299,1255,1262,7100,1262
2015/08/25,1148,1247,1140,1230,9100,1230
2015/08/26,1289,1289,1225,1230,4800,1230
2015/08/27,1245,1262,1211,1241,5200,1241
2015/08/28,1250,1320,1235,1320,5100,1320
2015/08/31,1298,1384,1270,1384,4800,1384
2015/09/01,1354,1359,1298,1319,4500,1319
2015/09/02,1347,1347,1287,1320,5100,1320
2015/09/03,1290,1308,1280,1289,2500,1289
2015/09/04,1310,1310,1272,1290,900,1290
2015/09/07,1275,1284,1256,1256,900,1256
2015/09/08,1290,1345,1280,1290,65200,1290
2015/09/09,1271,1310,1271,1271,5100,1271
2015/09/10,1290,1304,1289,1290,3000,1290
2015/09/11,1272,1289,1272,1278,1000,1278
2015/09/14,1297,1298,1293,1298,1400,1298
2015/09/15,1290,1290,1279,1279,800,1279
2015/09/16,1272,1289,1272,1289,300,1289
2015/09/17,1321,1321,1280,1305,38200,1305
2015/09/18,1282,1298,1280,1280,4300,1280
2015/09/24,1278,1305,1269,1288,2500,1288
2015/09/25,1307,1310,1264,1305,16100,1305
2015/09/28,1270,1270,1220,1268,1800,1268
2015/09/29,1230,1230,1170,1197,4200,1197
2015/09/30,1206,1222,1195,1195,2700,1195
2015/10/01,1185,1209,1172,1209,4900,1209
2015/10/02,1239,1239,1183,1204,2300,1204
2015/10/05,1202,1218,1200,1200,2400,1200
2015/10/06,1203,1219,1178,1178,5300,1178
2015/10/07,1178,1219,1178,1200,2700,1200
2015/10/08,1200,1200,1185,1200,4700,1200
2015/10/09,1188,1200,1185,1185,4800,1185
2015/10/13,1186,1206,1174,1206,12400,1206
2015/10/14,1180,1182,1175,1176,2000,1176
2015/10/15,1158,1189,1155,1155,19500,1155
2015/10/16,1155,1158,1136,1139,18500,1139
