2010/01/04,1405,1405,1405,1405,300,1405
2010/01/05,1350,1350,1350,1350,100,1350
2010/01/07,1340,1340,1340,1340,100,1340
2010/01/21,1409,1409,1409,1409,100,1409
2010/01/22,1380,1380,1380,1380,200,1380
2010/01/25,1366,1409,1366,1409,500,1409
2010/01/26,1410,1410,1361,1361,1100,1361
2010/02/01,1400,1400,1400,1400,300,1400
2010/02/08,1380,1380,1380,1380,200,1380
2010/02/15,1350,1350,1350,1350,100,1350
2010/02/22,1350,1350,1350,1350,100,1350
2010/02/25,1390,1392,1390,1392,200,1392
2010/02/26,1419,1419,1419,1419,1000,1419
2010/03/01,1418,1418,1418,1418,300,1418
2010/03/02,1370,1370,1370,1370,100,1370
2010/03/09,1362,1362,1362,1362,100,1362
2010/03/19,1382,1382,1382,1382,100,1382
2010/03/23,1400,1404,1370,1404,900,1404
2010/03/24,1420,1420,1380,1399,1500,1399
2010/03/25,1410,1410,1400,1400,400,1400
2010/03/26,1381,1381,1381,1381,1100,1381
2010/03/30,1400,1400,1400,1400,100,1400
2010/04/01,1400,1400,1400,1400,300,1400
2010/04/02,1350,1350,1350,1350,100,1350
2010/04/07,1331,1331,1331,1331,100,1331
2010/04/08,1331,1331,1331,1331,100,1331
2010/04/09,1330,1330,1330,1330,100,1330
2010/04/12,1330,1330,1330,1330,100,1330
2010/04/14,1300,1315,1300,1315,200,1315
2010/04/15,1315,1315,1315,1315,100,1315
2010/04/23,1315,1320,1315,1320,400,1320
2010/04/26,1320,1320,1312,1312,1200,1312
2010/04/27,1315,1315,1315,1315,300,1315
2010/04/28,1302,1302,1302,1302,100,1302
2010/04/30,1303,1303,1303,1303,100,1303
2010/05/06,1320,1320,1320,1320,400,1320
2010/05/07,1300,1355,1300,1355,600,1355
2010/05/14,1224,1224,1210,1210,900,1210
2010/05/19,1120,1150,1120,1150,400,1150
2010/05/21,1120,1199,1120,1199,200,1199
2010/05/26,1220,1220,1220,1220,1200,1220
2010/06/01,1250,1250,1250,1250,300,1250
2010/06/03,1135,1135,1135,1135,200,1135
2010/06/21,1150,1150,1150,1150,100,1150
2010/06/24,1188,1188,1188,1188,100,1188
2010/06/25,1187,1187,1173,1173,400,1173
2010/06/28,1173,1173,1173,1173,1200,1173
2010/06/29,1237,1238,1237,1238,200,1238
2010/06/30,1229,1230,1229,1230,300,1230
2010/07/01,1266,1266,1266,1266,3300,1266
2010/07/02,1303,1303,1303,1303,100,1303
2010/07/05,1342,1342,1342,1342,900,1342
2010/07/12,1382,1382,1382,1382,500,1382
2010/07/13,1423,1423,1423,1423,800,1423
2010/07/26,1333,1333,1333,1333,1000,1333
2010/07/28,1185,1185,1185,1185,500,1185
2010/08/02,1199,1199,1140,1175,1000,1175
2010/08/09,1160,1210,1160,1210,200,1210
2010/08/12,1170,1200,1170,1200,200,1200
2010/08/25,1235,1235,1235,1235,100,1235
2010/08/26,1272,1272,1272,1272,1200,1272
2010/08/30,1255,1255,1255,1255,100,1255
2010/09/01,1292,1292,1210,1210,500,1210
2010/09/03,1210,1210,1210,1210,100,1210
2010/09/06,1180,1180,1180,1180,100,1180
2010/09/24,1280,1280,1280,1280,100,1280
2010/09/27,1318,1318,1318,1318,700,1318
2010/09/28,1318,1318,1228,1228,400,1228
2010/09/29,1211,1211,1211,1211,200,1211
2010/09/30,1270,1270,1270,1270,100,1270
2010/10/01,1270,1270,1270,1270,300,1270
2010/10/05,1250,1250,1250,1250,100,1250
2010/10/21,1250,1250,1250,1250,500,1250
2010/10/25,1350,1350,1350,1350,400,1350
2010/10/26,1320,1320,1300,1300,1000,1300
2010/11/01,1339,1339,1339,1339,200,1339
2010/11/02,1350,1350,1350,1350,100,1350
2010/11/05,1330,1330,1305,1305,400,1305
2010/11/08,1305,1305,1305,1305,200,1305
2010/11/15,1305,1305,1305,1305,100,1305
2010/11/19,1306,1306,1306,1306,100,1306
2010/11/22,1335,1335,1335,1335,100,1335
2010/11/24,1316,1330,1315,1330,300,1330
2010/11/25,1350,1350,1350,1350,400,1350
2010/11/26,1380,1380,1327,1327,1100,1327
2010/11/30,1360,1360,1360,1360,100,1360
2010/12/01,1360,1360,1360,1360,200,1360
2010/12/02,1320,1320,1320,1320,100,1320
2010/12/06,1320,1320,1320,1320,100,1320
2010/12/09,1350,1433,1350,1433,400,1433
2010/12/13,1429,1429,1429,1429,1200,1429
2010/12/20,1380,1380,1380,1380,200,1380
2010/12/21,1371,1371,1371,1371,200,1371
2010/12/24,1420,1420,1420,1420,200,1420
2010/12/27,1330,1330,1330,1330,1000,1330
2011/01/04,1369,1369,1369,1369,200,1369
2011/01/06,1319,1319,1319,1319,100,1319
2011/01/07,1378,1378,1378,1378,100,1378
2011/01/11,1429,1429,1429,1429,100,1429
2011/01/21,1450,1450,1361,1361,2100,1361
2011/01/24,1379,1379,1379,1379,100,1379
2011/01/25,1399,1399,1399,1399,200,1399
2011/01/26,1339,1339,1339,1339,1100,1339
2011/02/01,1369,1369,1369,1369,300,1369
2011/02/03,1339,1339,1339,1339,100,1339
2011/02/04,1330,1330,1320,1320,200,1320
2011/02/09,1349,1349,1349,1349,100,1349
2011/02/14,1349,1349,1349,1349,100,1349
2011/02/16,1328,1328,1300,1300,400,1300
2011/02/17,1302,1302,1302,1302,100,1302
2011/02/24,1290,1290,1290,1290,200,1290
2011/02/28,1320,1320,1320,1320,1100,1320
2011/03/01,1333,1333,1333,1333,200,1333
2011/03/09,1303,1303,1303,1303,300,1303
2011/03/10,1330,1330,1330,1330,100,1330
2011/03/14,1300,1300,1300,1300,100,1300
2011/03/16,1030,1030,1000,1000,300,1000
2011/03/22,1090,1120,1090,1120,1400,1120
2011/03/23,1180,1180,1180,1180,100,1180
2011/03/25,1260,1260,1260,1260,200,1260
2011/03/28,1297,1297,1297,1297,1000,1297
2011/03/30,1210,1210,1210,1210,100,1210
2011/03/31,1260,1260,1260,1260,100,1260
2011/04/01,1260,1260,1260,1260,300,1260
2011/04/19,1141,1171,1141,1170,2200,1170
2011/04/20,1170,1170,1170,1170,200,1170
2011/04/21,1190,1190,1190,1190,100,1190
2011/04/25,1190,1190,1190,1190,500,1190
2011/04/26,1190,1210,1190,1210,1200,1210
2011/04/28,1210,1210,1210,1210,200,1210
2011/05/02,1240,1240,1240,1240,200,1240
2011/05/16,1200,1200,1200,1200,100,1200
2011/05/18,1151,1151,1151,1151,200,1151
2011/05/19,1198,1198,1168,1168,200,1168
2011/05/20,1170,1170,1170,1170,100,1170
2011/05/25,1189,1189,1189,1189,100,1189
2011/05/26,1189,1189,1189,1189,1000,1189
2011/05/30,1170,1195,1170,1195,500,1195
2011/05/31,1195,1200,1195,1200,200,1200
2011/06/01,1219,1219,1200,1200,500,1200
2011/06/02,1190,1190,1190,1190,100,1190
2011/06/03,1180,1180,1180,1180,100,1180
2011/06/10,1180,1181,1180,1181,200,1181
2011/06/14,1181,1181,1181,1181,100,1181
2011/06/17,1199,1200,1190,1190,600,1190
2011/06/22,1234,1235,1234,1235,200,1235
2011/06/23,1207,1266,1207,1250,600,1250
2011/06/24,1310,1310,1310,1310,100,1310
2011/06/27,1340,1340,1340,1340,1000,1340
2011/06/29,1359,1359,1359,1359,200,1359
2011/06/30,1400,1445,1400,1445,2700,1445
2011/07/01,1488,1488,1488,1488,3800,1488
2011/07/11,1515,1515,1515,1515,1200,1515
2011/07/25,1510,1510,1510,1510,100,1510
2011/07/26,1489,1489,1489,1489,800,1489
2011/07/28,1429,1429,1429,1429,200,1429
2011/07/29,1379,1379,1370,1370,200,1370
2011/08/01,1411,1411,1411,1411,200,1411
2011/08/08,1439,1439,1439,1439,100,1439
2011/08/10,1430,1430,1430,1430,100,1430
2011/08/18,1330,1330,1330,1330,100,1330
2011/08/22,1350,1360,1350,1360,200,1360
2011/08/24,1395,1395,1395,1395,100,1395
2011/08/25,1386,1400,1386,1400,500,1400
2011/08/26,1310,1340,1310,1340,1300,1340
2011/08/29,1250,1300,1250,1300,400,1300
2011/09/01,1338,1338,1338,1338,500,1338
2011/09/26,1333,1333,1333,1333,900,1333
2011/10/03,1372,1372,1372,1372,400,1372
2011/10/04,1355,1355,1355,1355,100,1355
2011/10/05,1332,1332,1332,1332,100,1332
2011/10/14,1332,1332,1332,1332,300,1332
2011/10/20,1350,1350,1350,1350,100,1350
2011/10/26,1260,1261,1260,1260,2000,1260
2011/10/28,1260,1260,1260,1260,100,1260
2011/10/31,1230,1230,1230,1230,300,1230
2011/11/01,1250,1250,1250,1250,500,1250
2011/11/04,1230,1230,1230,1230,200,1230
2011/11/25,1250,1250,1250,1250,200,1250
2011/11/28,1287,1287,1287,1287,1000,1287
2011/12/01,1325,1325,1325,1325,600,1325
2011/12/08,1300,1300,1300,1300,100,1300
2011/12/09,1340,1345,1340,1345,200,1345
2011/12/12,1385,1385,1385,1385,1400,1385
2011/12/13,1385,1385,1385,1385,100,1385
2011/12/21,1380,1380,1380,1380,100,1380
2011/12/22,1368,1368,1366,1366,200,1366
2011/12/26,1361,1361,1361,1361,900,1361
2011/12/27,1360,1360,1335,1335,200,1335
2011/12/30,1275,1305,1275,1305,900,1305
2012/01/04,1334,1334,1334,1334,500,1334
2012/01/13,1300,1300,1300,1300,200,1300
2012/01/19,1302,1302,1302,1302,100,1302
2012/01/23,1350,1350,1350,1350,100,1350
2012/01/24,1340,1340,1340,1340,100,1340
2012/01/26,1380,1380,1380,1380,800,1380
2012/02/01,1384,1384,1384,1384,400,1384
2012/02/06,1300,1300,1300,1300,1100,1300
2012/02/07,1320,1320,1320,1320,100,1320
2012/02/10,1305,1305,1303,1303,200,1303
2012/02/15,1300,1300,1300,1300,100,1300
2012/02/20,1325,1325,1325,1325,200,1325
2012/02/23,1340,1340,1340,1340,200,1340
2012/02/24,1349,1349,1349,1349,100,1349
2012/02/27,1389,1389,1389,1389,900,1389
2012/03/01,1385,1385,1385,1385,300,1385
2012/03/02,1390,1390,1390,1390,100,1390
2012/03/15,1360,1360,1360,1360,100,1360
2012/03/16,1360,1360,1360,1360,200,1360
2012/03/21,1390,1392,1390,1392,1200,1392
2012/03/22,1400,1400,1400,1400,300,1400
2012/03/23,1410,1410,1410,1410,100,1410
2012/03/26,1415,1415,1415,1415,1000,1415
2012/03/28,1380,1380,1380,1380,100,1380
2012/04/02,1415,1420,1410,1410,900,1410
2012/04/05,1400,1400,1400,1400,300,1400
2012/04/06,1391,1391,1391,1391,100,1391
2012/04/16,1350,1370,1350,1370,500,1370
2012/04/25,1420,1420,1420,1420,500,1420
2012/04/26,1360,1370,1351,1351,1300,1351
2012/04/27,1360,1360,1360,1360,100,1360
2012/05/01,1390,1390,1390,1390,300,1390
2012/05/11,1361,1361,1358,1360,500,1360
2012/05/15,1380,1380,1360,1360,600,1360
2012/05/21,1390,1390,1390,1390,100,1390
2012/05/23,1404,1405,1404,1405,300,1405
2012/05/24,1415,1420,1400,1400,1000,1400
2012/05/25,1421,1425,1421,1425,1100,1425
2012/05/28,1467,1467,1467,1467,800,1467
2012/06/01,1487,1487,1487,1487,300,1487
2012/06/20,1450,1450,1450,1450,500,1450
2012/06/25,1470,1480,1470,1480,400,1480
2012/06/26,1477,1477,1477,1477,900,1477
2012/06/27,1466,1466,1466,1466,200,1466
2012/06/28,1490,1520,1481,1520,1000,1520
2012/06/29,1565,1565,1565,1565,3700,1565
2012/07/02,1610,1610,1610,1610,200,1610
2012/07/06,1505,1505,1501,1501,400,1501
2012/07/09,1500,1500,1500,1500,100,1500
2012/07/11,1545,1545,1545,1545,1100,1545
2012/07/13,1505,1505,1505,1505,200,1505
2012/07/18,1501,1501,1501,1501,100,1501
2012/07/25,1550,1550,1550,1550,100,1550
2012/07/26,1575,1575,1575,1575,600,1575
2012/07/30,1550,1550,1550,1550,100,1550
2012/08/01,1548,1548,1548,1548,200,1548
2012/08/09,1411,1440,1411,1440,300,1440
2012/08/13,1540,1540,1540,1540,100,1540
2012/08/21,1540,1540,1540,1540,100,1540
2012/08/27,1460,1477,1460,1463,1500,1463
2012/09/03,1500,1500,1500,1500,300,1500
2012/09/26,1545,1545,1545,1545,800,1545
2012/09/27,1500,1500,1500,1500,100,1500
2012/10/01,1501,1501,1501,1501,500,1501
2012/10/09,1500,1500,1500,1500,100,1500
2012/10/17,1500,1500,1500,1500,100,1500
2012/10/19,1530,1530,1530,1530,100,1530
2012/10/25,1540,1540,1540,1540,100,1540
2012/10/26,1540,1540,1540,1540,600,1540
2012/10/29,1510,1510,1510,1510,100,1510
2012/11/01,1537,1537,1537,1537,300,1537
2012/11/07,1540,1550,1540,1550,400,1550
2012/11/09,1517,1517,1500,1500,200,1500
2012/11/20,1502,1502,1502,1502,100,1502
2012/11/22,1560,1560,1560,1560,700,1560
2012/11/26,1553,1553,1520,1520,900,1520
2012/11/27,1520,1520,1520,1520,100,1520
2012/12/03,1540,1540,1540,1540,200,1540
2012/12/05,1521,1521,1521,1521,100,1521
2012/12/07,1550,1550,1550,1550,300,1550
2012/12/11,1596,1596,1596,1596,1000,1596
2012/12/12,1600,1600,1600,1600,300,1600
2012/12/13,1600,1600,1600,1600,300,1600
2012/12/14,1571,1571,1571,1571,200,1571
2012/12/17,1571,1571,1571,1571,100,1571
2012/12/21,1561,1561,1561,1561,100,1561
2012/12/25,1600,1600,1600,1600,100,1600
2012/12/26,1601,1601,1601,1601,600,1601
2013/01/04,1630,1700,1630,1700,1300,1700
2013/01/09,1600,1600,1600,1600,600,1600
2013/01/15,1600,1600,1600,1600,200,1600
2013/01/16,1600,1600,1600,1600,500,1600
2013/01/18,1670,1670,1670,1670,100,1670
2013/01/22,1600,1600,1600,1600,100,1600
2013/01/24,1610,1610,1610,1610,200,1610
2013/01/25,1613,1630,1613,1630,200,1630
2013/01/28,1626,1626,1626,1626,900,1626
2013/01/29,1618,1618,1618,1618,100,1618
2013/01/30,1614,1614,1601,1601,1000,1601
2013/01/31,1611,1611,1611,1611,300,1611
2013/02/01,1633,1633,1633,1633,300,1633
2013/02/05,1632,1632,1632,1632,100,1632
2013/02/06,1617,1617,1617,1617,100,1617
2013/02/08,1634,1634,1634,1634,100,1634
2013/02/13,1605,1606,1605,1606,200,1606
2013/02/15,1604,1604,1602,1602,200,1602
2013/02/18,1568,1580,1568,1580,300,1580
2013/02/19,1637,1637,1637,1637,100,1637
2013/02/25,1657,1657,1627,1627,300,1627
2013/02/26,1597,1611,1597,1611,1600,1611
2013/02/27,1620,1620,1620,1620,200,1620
2013/03/01,1649,1649,1649,1649,200,1649
2013/03/04,1655,1655,1655,1655,100,1655
2013/03/07,1690,1690,1690,1690,500,1690
2013/03/08,1690,1690,1660,1660,200,1660
2013/03/11,1780,1780,1700,1779,2000,1779
2013/03/12,1779,1779,1779,1779,100,1779
2013/03/13,1750,1750,1750,1750,200,1750
2013/03/15,1750,1750,1750,1750,100,1750
2013/03/18,1780,1780,1779,1779,1400,1779
2013/03/19,1780,1795,1780,1795,1100,1795
2013/03/21,1815,1815,1812,1815,1500,1815
2013/03/22,1815,1815,1800,1800,1000,1800
2013/03/25,1810,1810,1810,1810,500,1810
2013/03/26,1815,1815,1810,1815,1600,1815
2013/03/27,1800,1800,1700,1731,900,1731
2013/03/28,1692,1800,1692,1800,1500,1800
2013/04/01,1800,1800,1712,1712,300,1712
2013/04/04,1700,1700,1700,1700,200,1700
2013/04/08,1740,1740,1740,1740,100,1740
2013/04/09,1701,1701,1701,1701,100,1701
2013/04/10,1701,1701,1701,1701,100,1701
2013/04/12,1681,1681,1680,1680,200,1680
2013/04/15,1680,1680,1670,1670,200,1670
2013/04/17,1700,1700,1700,1700,1000,1700
2013/04/18,1700,1700,1700,1700,100,1700
2013/04/19,1750,1750,1750,1750,200,1750
2013/04/22,1711,1790,1710,1790,300,1790
2013/04/23,1715,1715,1710,1710,500,1710
2013/04/24,1710,1710,1706,1706,600,1706
2013/04/25,1711,1768,1711,1768,300,1768
2013/04/26,1809,1809,1809,1809,800,1809
2013/04/30,1820,1820,1820,1820,600,1820
2013/05/01,1850,1850,1825,1825,700,1825
2013/05/02,1825,1850,1825,1830,900,1830
2013/05/07,1830,1950,1830,1950,2200,1950
2013/05/08,1900,1900,1900,1900,200,1900
2013/05/27,1900,1900,1900,1900,500,1900
2013/05/30,1800,1800,1733,1733,400,1733
2013/05/31,1845,1845,1650,1689,2400,1689
2013/06/03,1719,1719,1719,1719,200,1719
2013/06/05,1690,1697,1690,1697,200,1697
2013/06/06,1680,1680,1650,1650,600,1650
2013/06/07,1610,1610,1610,1610,100,1610
2013/06/10,1650,1650,1650,1650,100,1650
2013/06/11,1650,1690,1650,1690,700,1690
2013/06/17,1740,1740,1740,1740,100,1740
2013/06/19,1750,1750,1750,1750,300,1750
2013/06/21,1750,1750,1750,1750,100,1750
2013/06/25,1725,1725,1725,1725,100,1725
2013/06/26,1777,1900,1777,1900,2400,1900
2013/06/27,1893,1893,1755,1755,4800,1755
2013/06/28,1734,1750,1734,1750,600,1750
2013/07/01,1741,1795,1741,1795,500,1795
2013/07/10,1780,1780,1780,1780,100,1780
2013/07/11,1833,1833,1833,1833,1200,1833
2013/07/22,1833,1833,1750,1750,1000,1750
2013/07/24,1750,1750,1750,1750,100,1750
2013/07/25,1750,1750,1750,1750,400,1750
2013/07/26,1741,1741,1741,1741,600,1741
2013/08/01,1793,1793,1793,1793,200,1793
2013/08/14,1735,1750,1735,1750,500,1750
2013/08/15,1721,1721,1721,1721,100,1721
2013/08/26,1681,1681,1681,1681,900,1681
2013/08/28,1671,1671,1671,1671,100,1671
2013/08/30,1700,1751,1700,1750,1300,1750
2013/09/02,1790,1790,1790,1790,200,1790
2013/09/10,1780,1780,1780,1780,300,1780
2013/09/11,1780,1780,1780,1780,600,1780
2013/09/18,1740,1740,1740,1740,200,1740
2013/09/20,1780,1800,1780,1800,400,1800
2013/09/24,1790,1790,1701,1730,3500,1730
2013/09/26,1730,1730,1730,1730,800,1730
2013/10/01,1770,1770,1770,1770,400,1770
2013/10/02,1730,1730,1721,1721,200,1721
2013/10/10,1715,1715,1715,1715,100,1715
2013/10/11,1759,1759,1759,1759,600,1759
2013/10/15,1719,1719,1719,1719,200,1719
2013/10/18,1750,1756,1750,1756,300,1756
2013/10/21,1732,1732,1732,1732,100,1732
2013/10/25,1790,1790,1790,1790,500,1790
2013/10/28,1797,1800,1797,1800,1600,1800
2013/10/30,1737,1738,1737,1738,1000,1738
2013/11/01,1790,1790,1790,1790,200,1790
2013/11/22,1800,1800,1800,1800,500,1800
2013/11/25,1800,1840,1800,1800,500,1800
2013/11/26,1800,1800,1800,1800,1000,1800
2013/11/27,1800,1800,1780,1800,500,1800
2013/12/02,1800,1800,1800,1800,200,1800
2013/12/03,1770,1770,1770,1770,100,1770
2013/12/04,1780,1780,1780,1780,1000,1780
2013/12/09,1800,1800,1765,1765,600,1765
2013/12/10,1765,1765,1763,1763,200,1763
2013/12/11,1800,1800,1754,1800,1200,1800
2013/12/16,1743,1743,1743,1743,100,1743
2013/12/20,1748,1748,1748,1748,100,1748
2013/12/25,1746,1777,1746,1777,700,1777
2013/12/26,1777,1799,1759,1799,1200,1799
2013/12/30,1800,1800,1800,1800,200,1800
2014/01/06,1800,1800,1800,1800,200,1800
2014/01/14,1800,1800,1750,1750,400,1750
2014/01/15,1750,1750,1750,1750,400,1750
2014/01/17,1799,1800,1799,1800,600,1800
2014/01/20,1800,1800,1799,1800,500,1800
2014/01/23,1810,1850,1803,1850,700,1850
2014/01/24,1850,1850,1850,1850,100,1850
2014/01/27,1834,1834,1810,1810,1300,1810
2014/01/28,1820,1820,1820,1820,800,1820
2014/01/30,1810,1810,1810,1810,200,1810
2014/01/31,1810,1810,1810,1810,300,1810
2014/02/03,1850,1860,1850,1860,2200,1860
2014/02/04,1810,1815,1802,1815,700,1815
2014/02/13,1800,1800,1800,1800,100,1800
2014/02/18,1800,1800,1800,1800,1000,1800
2014/02/20,1850,1850,1850,1850,100,1850
2014/02/21,1802,1802,1802,1802,100,1802
2014/02/25,1840,1840,1830,1830,200,1830
2014/02/26,1830,1830,1830,1830,500,1830
2014/02/27,1850,1850,1850,1850,100,1850
2014/03/03,1839,1839,1839,1839,300,1839
2014/03/06,1849,1849,1849,1849,500,1849
2014/03/12,1819,1819,1819,1819,300,1819
2014/03/14,1820,1820,1820,1820,100,1820
2014/03/18,1835,1835,1768,1768,300,1768
2014/03/20,1778,1778,1778,1778,100,1778
2014/03/25,1780,1780,1780,1780,500,1780
2014/03/26,1819,1837,1800,1837,1200,1837
2014/03/28,1820,1820,1820,1820,100,1820
2014/04/01,1843,1843,1840,1840,1700,1840
2014/04/03,1838,1838,1838,1838,100,1838
2014/04/07,1800,1800,1800,1800,100,1800
2014/04/09,1770,1770,1751,1751,200,1751
2014/04/11,1751,1790,1751,1790,900,1790
2014/04/28,1779,1779,1779,1779,600,1779
2014/05/01,1780,1780,1780,1780,200,1780
2014/05/07,1718,1718,1714,1714,400,1714
2014/05/08,1750,1750,1750,1750,100,1750
2014/05/13,1721,1721,1721,1721,100,1721
2014/05/15,1780,1780,1780,1780,500,1780
2014/05/16,1850,1850,1850,1850,1000,1850
2014/05/19,1850,1851,1850,1850,1700,1850
2014/05/21,1830,1830,1821,1821,400,1821
2014/05/26,1861,1861,1840,1850,800,1850
2014/05/28,1841,1841,1831,1831,200,1831
2014/06/02,1869,1869,1869,1869,300,1869
2014/06/03,1850,1870,1850,1870,700,1870
2014/06/04,1821,1870,1821,1841,900,1841
2014/06/05,1841,1841,1841,1841,100,1841
2014/06/06,1870,1870,1823,1823,900,1823
2014/06/09,1850,1850,1850,1850,100,1850
2014/06/12,1841,1849,1841,1849,400,1849
2014/06/13,1855,1870,1855,1870,1200,1870
2014/06/16,1855,1860,1855,1860,600,1860
2014/06/17,1850,1850,1850,1850,200,1850
2014/06/18,1851,1854,1850,1851,1300,1851
2014/06/20,1873,1873,1873,1873,200,1873
2014/06/23,1887,1887,1875,1876,800,1876
2014/06/25,1880,1880,1875,1880,500,1880
2014/06/26,1808,1828,1808,1828,5100,1828
2014/06/30,1825,1825,1825,1825,100,1825
2014/07/01,1862,1862,1832,1832,300,1832
2014/07/02,1832,1832,1832,1832,100,1832
2014/07/04,1863,1863,1863,1863,100,1863
2014/07/09,1870,1870,1870,1870,100,1870
2014/07/10,1870,1870,1870,1870,300,1870
2014/07/11,1870,1870,1870,1870,1200,1870
2014/07/15,1840,1840,1840,1840,200,1840
2014/07/22,1885,1885,1885,1885,300,1885
2014/07/28,1935,1935,1875,1875,800,1875
2014/07/30,1870,1870,1870,1870,100,1870
2014/07/31,1850,1850,1850,1850,100,1850
2014/08/01,1865,1865,1820,1820,1600,1820
2014/08/05,1800,1800,1800,1800,200,1800
2014/08/15,1790,1790,1790,1790,100,1790
2014/08/18,1840,1840,1840,1840,100,1840
2014/08/22,1850,1850,1850,1850,400,1850
2014/08/26,1870,1870,1870,1870,600,1870
2014/09/01,1910,1910,1828,1831,1700,1831
2014/09/02,1860,1871,1860,1860,1500,1860
2014/09/10,1860,1860,1849,1849,300,1849
2014/09/11,1870,1870,1870,1870,200,1870
2014/09/16,1900,1910,1899,1900,1700,1900
2014/09/18,1939,1939,1875,1890,1300,1890
2014/09/19,1890,1890,1890,1890,200,1890
2014/09/22,1929,1929,1929,1929,100,1929
2014/09/26,1871,1871,1871,1871,700,1871
2014/09/29,1900,1900,1900,1900,300,1900
2014/09/30,1901,1901,1901,1901,100,1901
2014/10/01,1919,1919,1919,1919,100,1919
2014/10/03,1902,1902,1902,1902,100,1902
2014/10/14,1890,1890,1885,1885,200,1885
2014/10/16,1890,1890,1890,1890,200,1890
2014/10/20,1900,1900,1900,1900,200,1900
2014/10/22,1890,1890,1881,1881,500,1881
2014/10/27,1911,1911,1893,1893,600,1893
2014/10/28,1893,1893,1893,1893,100,1893
2014/11/04,1893,1893,1893,1893,500,1893
2014/11/05,1888,1888,1860,1873,300,1873
2014/11/10,1845,1845,1845,1845,100,1845
2014/11/11,1845,1850,1845,1850,200,1850
2014/11/12,1850,1850,1850,1850,100,1850
2014/11/13,1846,1846,1841,1841,200,1841
2014/11/14,1850,1850,1850,1850,200,1850
2014/11/17,1889,1889,1889,1889,100,1889
2014/11/20,1889,1889,1889,1889,100,1889
2014/11/25,1860,1860,1860,1860,400,1860
2014/11/26,1856,1856,1856,1856,600,1856
2014/11/27,1870,1870,1870,1870,100,1870
2014/12/01,1900,1900,1900,1900,200,1900
2014/12/05,1925,1925,1925,1925,200,1925
2014/12/08,1930,1930,1925,1925,600,1925
2014/12/10,1900,1900,1900,1900,100,1900
2014/12/11,1930,1930,1930,1930,1000,1930
2014/12/19,1900,1930,1900,1930,200,1930
2014/12/25,1930,1930,1930,1930,200,1930
2014/12/26,1930,1930,1930,1930,600,1930
2014/12/30,1913,1967,1913,1967,200,1967
2015/01/05,1967,1967,1967,1967,200,1967
2015/01/06,1927,1927,1920,1920,500,1920
2015/01/08,1960,1960,1930,1960,500,1960
2015/01/09,1960,1960,1920,1920,200,1920
2015/01/14,1920,1940,1920,1940,200,1940
2015/01/16,1940,1940,1940,1940,200,1940
2015/01/20,1920,1920,1920,1920,100,1920
2015/01/23,1950,1950,1919,1919,1100,1919
2015/01/26,1924,1924,1924,1924,900,1924
2015/01/27,1925,1930,1925,1930,300,1930
2015/02/02,1930,1930,1920,1920,200,1920
2015/02/06,1910,1910,1910,1910,100,1910
2015/02/09,1910,1911,1910,1910,500,1910
2015/02/12,1910,1910,1908,1910,1500,1910
2015/02/13,1907,1907,1821,1876,2700,1876
2015/02/16,1892,1892,1891,1891,200,1891
2015/02/24,1899,1908,1880,1908,600,1908
2015/02/25,1901,1901,1900,1900,700,1900
2015/02/26,1900,1900,1881,1881,1600,1881
2015/02/27,1904,1904,1904,1904,100,1904
2015/03/02,1900,1900,1895,1895,500,1895
2015/03/05,1900,1900,1900,1900,200,1900
2015/03/09,1900,1950,1900,1950,1100,1950
2015/03/11,1950,1950,1950,1950,100,1950
2015/03/13,1950,1950,1900,1900,600,1900
2015/03/16,1900,1900,1900,1900,200,1900
2015/03/17,1920,1920,1920,1920,100,1920
2015/03/19,1881,1910,1881,1910,900,1910
2015/03/20,1890,1900,1864,1900,700,1900
2015/03/23,1900,1900,1900,1900,400,1900
2015/03/24,1910,1937,1910,1937,1800,1937
2015/03/25,1940,1940,1920,1920,700,1920
2015/03/26,1949,1949,1949,1949,700,1949
2015/03/27,1851,1851,1851,1851,300,1851
2015/03/30,1860,1861,1860,1861,200,1861
2015/04/01,1901,1901,1901,1901,200,1901
2015/04/02,1865,1865,1854,1854,400,1854
2015/04/03,1854,1854,1854,1854,100,1854
2015/04/07,1854,1854,1850,1850,900,1850
2015/04/08,1850,1850,1850,1850,200,1850
2015/04/14,1857,1857,1850,1850,200,1850
2015/04/15,1859,1859,1859,1859,100,1859
2015/04/16,1855,1855,1852,1852,300,1852
2015/04/20,1849,1849,1849,1849,500,1849
2015/04/22,1869,1869,1869,1869,100,1869
2015/04/23,1909,1909,1909,1909,300,1909
2015/04/24,1873,1873,1873,1873,100,1873
2015/04/27,1900,1900,1900,1900,500,1900
2015/04/28,1900,1900,1900,1900,400,1900
2015/04/30,1889,1889,1889,1889,100,1889
2015/05/01,1898,1898,1898,1898,200,1898
2015/05/08,1879,1879,1879,1879,300,1879
2015/05/13,1880,1880,1880,1880,100,1880
2015/05/15,1871,1871,1871,1871,200,1871
2015/05/19,1894,1894,1873,1873,400,1873
2015/05/21,1873,1873,1873,1873,100,1873
2015/05/22,1880,1893,1880,1893,200,1893
2015/05/26,1894,1894,1894,1894,500,1894
2015/05/27,1894,1894,1894,1894,100,1894
2015/06/01,1900,1900,1890,1890,300,1890
2015/06/02,1877,1877,1877,1877,100,1877
2015/06/08,1900,1900,1890,1890,1100,1890
2015/06/12,1873,1900,1873,1900,200,1900
2015/06/15,1899,1899,1899,1899,100,1899
2015/06/17,1890,1900,1873,1873,1400,1873
2015/06/18,1900,1900,1900,1900,500,1900
2015/06/19,1900,1900,1900,1900,500,1900
2015/06/22,1907,2000,1907,2000,200,2000
2015/06/23,1950,1950,1950,1950,100,1950
2015/06/24,1935,1974,1935,1974,800,1974
2015/06/25,1992,1992,1988,1991,800,1991
2015/06/26,2050,2065,2000,2050,5100,2050
2015/06/29,2040,2040,1940,1940,400,1940
2015/07/01,1998,2035,1998,2035,300,2035
2015/07/06,2005,2015,2005,2015,400,2015
2015/07/07,2015,2015,2014,2014,800,2014
2015/07/08,2005,2005,2001,2001,500,2001
2015/07/09,1992,1992,1965,1965,500,1965
2015/07/10,1966,2058,1966,2058,1200,2058
2015/07/13,2060,2061,2050,2060,2000,2060
2015/07/14,2060,2060,2060,2060,300,2060
2015/07/15,1990,1990,1965,1968,2200,1968
2015/07/16,2058,2058,2058,2058,100,2058
2015/07/21,2058,2058,2058,2058,100,2058
2015/07/24,2053,2053,2000,2000,300,2000
2015/07/27,2040,2040,2040,2040,500,2040
2015/08/03,2040,2040,2040,2040,200,2040
2015/08/10,1965,1965,1903,1903,400,1903
2015/08/11,1900,1900,1860,1900,1200,1900
2015/08/12,1860,1860,1810,1845,2100,1845
2015/08/13,1887,1925,1887,1925,200,1925
2015/08/14,1898,1919,1898,1919,200,1919
2015/08/17,1910,1910,1910,1910,100,1910
2015/08/19,1910,1910,1910,1910,100,1910
2015/08/24,1901,1901,1895,1895,300,1895
2015/08/25,1823,1823,1823,1823,100,1823
2015/08/26,1877,1877,1877,1877,500,1877
2015/08/31,1917,1917,1917,1917,100,1917
2015/09/01,1917,1917,1917,1917,200,1917
2015/09/03,1957,1957,1957,1957,100,1957
2015/09/11,1835,1843,1835,1843,200,1843
2015/09/14,1843,1870,1843,1870,200,1870
2015/09/17,1870,1870,1870,1870,100,1870
2015/09/18,1860,1860,1860,1860,100,1860
2015/09/25,1900,1900,1900,1900,200,1900
2015/09/28,1900,1900,1900,1900,500,1900
2015/10/01,1930,1930,1890,1890,300,1890
2015/10/09,1890,1890,1890,1890,100,1890
