2010/01/05,905,905,890,900,500,225
2010/01/15,880,880,880,880,100,220
2010/01/22,917,920,914,920,900,230
2010/02/04,924,924,924,924,200,231
2010/02/05,880,880,880,880,200,220
2010/02/08,860,860,860,860,400,215
2010/02/10,900,908,900,908,700,227
2010/02/26,936,936,912,912,500,228
2010/03/05,900,900,900,900,200,225
2010/03/23,926,968,926,968,2200,242
2010/03/24,969,980,950,960,3900,240
2010/03/31,961,961,936,936,400,234
2010/04/12,925,960,925,940,2500,235
2010/04/14,946,947,940,940,700,235
2010/04/16,975,988,970,988,1400,247
2010/04/19,972,972,960,960,1000,240
2010/04/20,979,1110,970,1040,9900,260
2010/04/21,1099,1100,1081,1100,2400,275
2010/04/22,1120,1120,1030,1084,2600,271
2010/04/27,1125,1125,1100,1120,1400,280
2010/05/07,923,948,923,948,1200,237
2010/05/10,933,980,933,980,1400,245
2010/05/11,974,974,960,960,300,240
2010/05/13,934,934,924,924,600,231
2010/05/14,938,939,924,924,600,231
2010/05/19,903,910,900,904,1100,226
2010/06/01,813,813,808,808,600,202
2010/06/21,873,900,873,900,900,225
2010/06/25,912,912,912,912,2800,228
2010/07/01,896,896,896,896,300,224
2010/07/09,977,1100,977,1000,18600,250
2010/07/22,982,982,980,980,300,245
2010/07/26,982,982,980,980,500,245
2010/08/12,860,860,860,860,100,215
2010/08/26,860,860,860,860,100,215
2010/09/01,848,848,848,848,100,212
2010/09/03,806,820,806,820,2100,205
2010/09/08,828,828,828,828,100,207
2010/09/14,827,828,827,828,200,207
2010/09/15,829,840,825,840,1600,210
2010/09/16,844,848,844,848,200,212
2010/09/30,863,863,840,840,600,210
2010/10/01,840,840,840,840,900,210
2010/10/05,841,848,840,840,600,210
2010/10/20,796,796,796,796,100,199
2010/10/28,762,769,760,760,3000,190
2010/10/29,774,774,750,752,1200,188
2010/11/01,710,768,710,768,1600,192
2010/11/09,750,750,748,748,200,187
2010/11/12,748,748,748,748,400,187
2010/11/30,787,787,748,748,1100,187
2010/12/02,752,760,752,760,600,190
2010/12/07,772,780,772,780,1500,195
2010/12/10,780,780,780,780,6500,195
2010/12/13,780,800,780,800,2000,200
2010/12/22,783,800,783,800,800,200
2010/12/27,770,780,755,780,1000,195
2011/01/13,900,900,880,880,800,220
2011/01/20,859,859,844,844,400,211
2011/01/24,823,823,808,808,1400,202
2011/01/26,820,820,820,820,100,205
2011/01/27,805,805,796,804,400,201
2011/01/28,804,804,800,800,200,200
2011/02/02,804,804,804,804,100,201
2011/02/07,810,860,810,860,1800,215
2011/02/10,828,828,828,828,100,207
2011/02/14,816,825,814,820,2600,205
2011/02/15,812,812,812,812,100,203
2011/02/22,822,832,822,832,2000,208
2011/02/23,831,833,827,828,900,207
2011/03/01,855,855,840,840,600,210
2011/03/14,701,720,700,720,3400,180
2011/03/15,698,698,570,572,3300,143
2011/03/17,638,638,590,600,1300,150
2011/03/23,715,720,715,720,300,180
2011/03/25,728,728,728,728,1800,182
2011/03/30,695,700,685,700,400,175
2011/04/01,685,700,685,700,400,175
2011/04/05,685,685,680,680,600,170
2011/04/07,700,700,700,700,100,175
2011/04/08,700,700,700,700,200,175
2011/04/28,821,821,802,820,900,205
2011/05/13,741,741,721,740,1200,185
2011/05/16,740,740,713,720,1300,180
2011/05/17,720,720,720,720,300,180
2011/05/19,728,728,728,728,100,182
2011/05/25,744,744,744,744,1500,186
2011/05/27,730,768,730,768,200,192
2011/06/13,740,740,740,740,1000,185
2011/06/14,739,740,739,740,200,185
2011/06/21,760,761,745,760,700,190
2011/06/27,771,772,770,772,300,193
2011/06/28,780,780,780,780,200,195
2011/06/29,750,788,750,788,1300,197
2011/06/30,788,788,788,788,100,197
2011/07/01,780,780,780,780,200,195
2011/07/15,821,821,820,820,200,205
2011/07/21,820,820,820,820,100,205
2011/07/25,876,876,876,876,1300,219
2011/08/01,820,820,820,820,100,205
2011/08/03,832,832,820,820,1700,205
2011/08/04,805,820,805,820,400,205
2011/08/16,772,780,772,780,400,195
2011/08/17,780,780,780,780,400,195
2011/09/16,752,752,752,752,100,188
2011/09/22,736,740,736,740,2300,185
2011/09/28,740,740,740,740,100,185
2011/10/18,756,756,756,756,400,189
2011/10/19,756,756,756,756,100,189
2011/10/24,752,755,752,752,500,188
2011/10/28,752,752,752,752,100,188
2011/10/31,775,775,760,760,900,190
2011/11/02,740,740,740,740,200,185
2011/11/25,730,730,720,720,1600,180
2011/11/28,748,748,720,720,600,180
2011/11/30,748,748,748,748,200,187
2011/12/06,758,760,758,760,1300,190
2011/12/07,767,767,760,760,300,190
2011/12/09,752,752,752,752,4200,188
2011/12/12,752,752,752,752,200,188
2011/12/13,745,752,745,752,1000,188
2011/12/16,780,780,752,752,200,188
2011/12/29,747,780,747,780,800,195
2011/12/30,780,780,780,780,300,195
2012/02/07,761,780,760,780,1400,195
2012/02/09,780,780,780,780,500,195
2012/02/20,763,780,763,780,900,195
2012/03/05,800,800,800,800,100,200
2012/03/13,812,812,812,812,100,203
2012/03/23,917,920,915,920,1700,230
2012/04/04,896,896,896,896,200,224
2012/04/05,896,896,896,896,300,224
2012/04/06,884,884,884,884,100,221
2012/04/16,840,840,840,840,100,210
2012/04/26,879,879,855,860,400,215
2012/04/27,860,860,860,860,200,215
2012/05/08,822,822,820,820,300,205
2012/05/10,832,832,832,832,200,208
2012/05/15,806,806,800,804,500,201
2012/05/16,804,804,804,804,200,201
2012/05/18,800,800,800,800,200,200
2012/05/21,800,804,800,804,700,201
2012/05/25,760,800,760,800,2700,200
2012/05/28,814,814,800,800,200,200
2012/05/31,800,800,800,800,300,200
2012/06/04,790,790,780,780,200,195
2012/06/07,800,800,800,800,100,200
2012/06/08,810,810,800,800,300,200
2012/07/03,859,880,859,880,400,220
2012/07/04,883,884,883,884,500,221
2012/07/05,888,900,888,900,2000,225
2012/07/09,913,913,899,912,1000,228
2012/07/17,915,915,872,872,1400,218
2012/07/20,872,872,872,872,100,218
2012/08/01,820,820,820,820,200,205
2012/08/20,835,840,835,840,500,210
2012/08/27,811,860,811,860,2200,215
2012/09/07,820,820,820,820,100,205
2012/09/13,820,820,800,820,1200,205
2012/09/19,820,820,820,820,500,205
2012/09/20,820,836,806,836,800,209
2012/09/27,838,840,838,840,200,210
2012/09/28,840,840,840,840,200,210
2012/10/04,825,840,825,840,400,210
2012/10/05,830,840,830,840,200,210
2012/10/10,815,840,815,840,300,210
2012/10/15,840,840,840,840,300,210
2012/10/17,825,840,825,840,700,210
2012/10/26,965,999,950,980,1100,245
2012/10/29,981,981,970,980,1000,245
2012/10/31,955,955,910,920,900,230
2012/11/05,897,964,895,964,1100,241
2012/11/07,975,976,932,976,1300,244
2012/11/09,935,972,935,972,500,243
2012/11/13,941,941,940,940,200,235
2012/11/14,930,940,928,940,300,235
2012/11/16,915,920,895,920,1500,230
2012/11/21,932,940,932,940,1100,235
2012/11/29,945,960,945,960,1100,240
2012/11/30,968,968,955,960,1000,240
2012/12/07,980,980,975,980,1100,245
2012/12/11,954,960,946,960,600,240
2012/12/12,941,956,940,956,500,239
2013/01/09,964,964,964,964,200,241
2013/01/15,989,1010,989,1000,3200,250
2013/01/16,1010,1020,990,1000,1800,250
2013/01/18,970,988,970,988,2200,247
2013/01/28,1010,1024,1010,1024,1700,256
2013/01/29,1025,1025,1016,1016,800,254
2013/01/30,1014,1020,1014,1020,900,255
2013/02/05,1160,1160,1070,1120,7000,280
2013/02/06,1120,1150,1115,1140,2300,285
2013/02/07,1150,1216,1140,1216,5700,304
2013/02/19,1125,1160,1095,1160,5900,290
2013/03/04,1449,1540,1449,1540,8400,385
2013/03/07,1430,1440,1411,1440,1900,360
2013/03/14,1415,1415,1355,1400,1800,350
2013/03/18,1450,1535,1450,1500,9500,375
2013/03/19,1620,1620,1540,1580,7800,395
2013/03/22,1624,1624,1560,1560,3500,390
2013/03/25,1525,1540,1490,1540,6600,385
2013/04/01,1501,1505,1351,1360,5400,340
2013/04/09,1450,1470,1430,1440,2500,360
2013/04/10,1440,1440,1440,1440,500,360
2013/04/11,1440,1450,1395,1440,3900,360
2013/04/16,1460,1560,1460,1540,5100,385
2013/04/19,1700,1720,1645,1660,6400,415
2013/04/23,1740,1780,1627,1688,10100,422
2013/04/25,1720,1720,1695,1712,9900,428
2013/04/26,1709,1709,1583,1620,3900,405
2013/04/30,1610,1620,1580,1620,1900,405
2013/05/07,1730,1915,1720,1860,14200,465
2013/05/08,1965,2200,1860,2200,17400,550
2013/05/14,2245,2245,2160,2160,8200,540
2013/05/23,1894,1894,1750,1752,6000,438
2013/05/27,1700,1749,1680,1740,6000,435
2013/05/31,1774,1788,1751,1780,800,445
2013/06/05,1700,1740,1689,1740,1300,435
2013/06/06,1680,1690,1620,1660,900,415
2013/06/07,1615,1615,1405,1480,6100,370
2013/06/13,1450,1450,1416,1432,1600,358
2013/06/19,1536,1536,1500,1500,700,375
2013/06/20,1500,1520,1492,1520,600,380
2013/06/21,1500,1500,1490,1500,300,375
2013/06/24,1472,1505,1472,1500,1600,375
2013/06/25,1500,1500,1441,1492,1800,373
2013/07/01,1435,1490,1435,1440,1000,360
2013/07/02,1465,1540,1465,1540,1300,385
2013/07/10,1840,1840,1747,1760,6600,440
2013/07/11,1760,1760,1700,1700,700,425
2013/07/16,1670,1710,1666,1700,2000,425
2013/07/18,1660,1680,1650,1680,1400,420
2013/07/19,1680,1680,1560,1620,2300,405
2013/07/22,1630,1708,1630,1700,1900,425
2013/07/25,1700,1700,1630,1700,800,425
2013/07/30,1650,1700,1650,1700,2000,425
2013/07/31,1700,1710,1660,1708,500,427
2013/08/07,1710,1735,1680,1680,400,420
2013/08/12,1530,1610,1520,1520,2000,380
2013/08/19,1598,1600,1578,1600,1000,400
2013/08/28,1457,1470,1423,1424,1600,356
2013/09/02,1420,1420,1420,1420,200,355
2013/09/06,1453,1476,1415,1476,900,369
2013/09/10,1465,1496,1465,1496,400,374
2013/09/12,1500,1500,1475,1500,300,375
2013/09/19,1558,1558,1540,1540,200,385
2013/09/25,1541,1550,1520,1540,1600,385
2013/09/26,1540,1540,1540,1540,100,385
2013/10/03,1515,1520,1515,1520,1100,380
2013/10/09,1466,1500,1466,1500,200,375
2013/10/10,1471,1500,1471,1500,400,375
2013/10/11,1502,1520,1486,1520,1400,380
2013/10/15,1530,1560,1530,1560,2800,390
2013/10/16,1588,1603,1560,1560,1000,390
2013/10/18,1610,1616,1605,1616,700,404
2013/10/21,1610,1625,1581,1600,1500,400
2013/10/31,1622,1625,1600,1600,1200,400
2013/11/08,1500,1501,1500,1500,1800,375
2013/11/11,1505,1505,1480,1480,1600,370
2013/11/21,1550,1600,1550,1600,3200,400
2013/11/22,1695,2000,1690,2000,85900,500
2013/12/04,1730,1730,1715,1720,6900,430
2013/12/10,1654,1732,1650,1708,8100,427
2013/12/11,1746,1760,1715,1724,7000,431
2013/12/26,1600,1639,1600,1616,3100,404
2014/01/09,1638,1668,1638,1668,1200,417
2014/01/14,1715,1750,1680,1720,5600,430
2014/01/15,1739,1740,1690,1720,5500,430
2014/02/06,1510,1520,1510,1520,300,380
2014/02/18,1520,1540,1520,1540,800,385
2014/02/21,1553,1569,1550,1564,1500,391
2014/02/26,1575,1600,1575,1600,700,400
2014/02/28,1575,1580,1560,1560,800,390
2014/03/05,1660,1704,1660,1704,1900,426
2014/03/10,1695,1709,1694,1704,900,426
2014/03/13,1689,1689,1630,1672,2700,418
2014/03/14,1633,1656,1622,1632,1600,408
2014/03/19,1668,1670,1621,1648,1800,412
2014/03/27,783,798,783,798,600,399
2014/03/28,788,815,788,810,900,405
2014/03/31,809,810,809,810,1100,405
2014/04/03,820,830,812,830,2400,415
2014/04/04,815,827,812,826,1700,413
2014/04/09,821,829,792,792,2000,396
2014/04/10,800,810,800,810,1200,405
2014/04/11,804,804,795,804,900,402
2014/04/14,790,800,790,800,1500,400
2014/04/15,785,800,785,800,600,400
2014/04/17,803,803,800,800,2200,400
2014/04/18,802,802,802,802,400,401
2014/04/21,801,801,790,790,3100,395
2014/04/22,785,792,783,792,500,396
2014/04/23,794,794,782,782,500,391
2014/04/30,791,797,770,776,4000,388
2014/05/02,801,801,775,798,1300,399
2014/05/09,776,776,760,776,600,388
2014/05/12,777,777,742,742,3100,371
2014/05/19,730,735,700,734,11100,367
2014/05/22,719,719,705,710,1900,355
2014/05/23,720,720,702,702,3200,351
2014/05/27,716,716,716,716,500,358
2014/05/28,710,711,705,710,800,355
2014/05/30,723,724,694,714,9900,357
2014/06/03,715,717,705,710,8300,355
2014/06/06,735,750,734,740,6500,370
2014/06/10,755,755,750,750,1700,375
2014/06/11,760,760,737,740,3900,370
2014/06/13,759,760,759,760,500,380
2014/06/17,803,840,780,804,33400,402
2014/06/23,803,806,800,800,2400,400
2014/06/24,806,808,800,800,2900,400
2014/06/25,808,808,795,806,3500,403
2014/06/30,810,810,800,808,4700,404
2014/07/04,813,822,813,822,2900,411
2014/07/07,820,820,808,810,7100,405
2014/07/08,800,820,800,820,4500,410
2014/07/09,816,816,808,810,2800,405
2014/07/11,814,814,810,810,900,405
2014/07/16,809,810,809,810,1200,405
2014/07/18,800,812,800,812,2300,406
2014/07/24,805,808,800,808,1000,404
2014/07/29,814,815,804,804,700,402
2014/08/04,810,810,810,810,200,405
2014/08/06,800,809,765,800,3200,400
2014/08/13,811,811,802,802,2300,401
2014/08/15,795,805,795,802,1900,401
2014/08/18,802,802,802,802,200,401
2014/08/25,850,851,839,842,19600,421
2014/09/01,835,839,829,830,4700,415
2014/09/02,830,850,830,840,9100,420
2014/09/04,830,835,824,824,4300,412
2014/09/05,835,835,831,834,1300,417
2014/09/08,838,846,838,844,2000,422
2014/09/09,840,842,838,838,4600,419
2014/09/10,844,844,832,840,1100,420
2014/09/11,841,843,830,832,900,416
2014/09/12,841,841,826,826,1900,413
2014/09/16,840,976,840,976,199000,488
2014/09/17,1126,1126,1126,1126,53700,563
2014/09/18,981,1078,942,946,272500,473
2014/09/19,1000,1096,990,1096,76300,548
2014/09/22,1355,1396,1264,1396,582300,698
2014/09/24,1456,1696,1451,1696,439000,848
2014/09/29,2369,2490,2107,2230,1371700,1115
2014/09/30,2180,2225,1828,1906,616600,953
2014/10/03,1710,1945,1680,1790,165100,895
2014/10/08,1531,1549,1474,1548,61700,774
2014/10/14,1366,1366,1280,1320,25600,660
2014/10/16,1229,1229,1180,1180,28900,590
2014/10/17,1260,1267,1200,1200,27500,600
2014/10/21,1193,1497,1190,1190,120800,595
2014/10/23,1375,1400,1334,1380,81500,690
2014/10/29,1220,1234,1188,1192,23800,596
2014/10/31,1171,1185,1106,1148,26500,574
2014/11/04,1200,1214,1127,1190,23300,595
2014/11/05,1200,1369,1200,1310,56300,655
2014/11/07,1269,1274,1208,1208,20700,604
2014/11/10,1220,1240,1156,1184,12700,592
2014/11/13,1183,1183,1140,1150,11400,575
2014/11/14,1175,1175,1129,1130,9700,565
2014/11/17,1100,1130,1090,1090,14600,545
2014/11/18,1099,1150,1099,1150,12500,575
2014/11/20,1271,1330,1160,1300,168000,650
2014/11/21,1358,1418,1302,1330,115900,665
2014/11/26,1310,1310,1252,1290,17400,645
2014/11/27,1288,1289,1231,1250,12300,625
2014/11/28,1251,1265,1230,1234,10500,617
2014/12/01,1234,1240,1217,1224,21600,612
2014/12/02,1223,1244,1220,1244,10400,622
2014/12/03,1244,1258,1201,1202,10400,601
2014/12/04,1230,1230,1205,1216,6500,608
2014/12/05,1220,1220,1188,1188,9200,594
2014/12/08,1194,1207,1180,1180,5600,590
2014/12/10,1155,1168,1144,1166,9900,583
2014/12/11,1141,1164,1123,1164,7500,582
2014/12/15,1150,1199,1121,1130,11300,565
2014/12/16,1130,1130,1086,1090,9800,545
2014/12/18,1055,1074,1040,1064,16300,532
2014/12/22,1103,1103,1050,1060,10800,530
2014/12/24,1060,1065,1039,1042,21500,521
2014/12/25,1020,1050,1020,1040,15600,520
2014/12/30,1100,1100,1075,1080,4500,540
2015/01/05,1120,1120,1080,1080,1300,540
2015/01/06,1075,1075,1067,1068,3100,534
2015/01/09,1076,1076,1050,1052,2000,526
2015/01/15,1049,1060,1043,1060,4400,530
2015/01/16,1060,1060,1026,1030,11300,515
2015/01/19,1030,1031,1003,1008,3200,504
2015/01/20,1010,1020,1006,1020,2400,510
2015/01/23,1020,1032,1006,1024,3700,512
2015/01/29,1023,1090,1004,1054,17200,527
2015/01/30,1084,1084,1040,1044,6300,522
2015/02/03,1250,1256,1100,1140,56900,570
2015/02/06,1035,1057,1028,1040,4000,520
2015/02/10,1073,1130,1073,1090,11000,545
2015/02/12,1135,1135,1093,1100,13800,550
2015/02/16,1099,1117,1090,1100,4800,550
2015/02/20,1120,1165,1112,1138,16000,569
2015/02/24,1150,1150,1131,1132,6000,566
2015/02/25,1132,1132,1105,1132,8800,566
2015/02/27,1133,1139,1112,1130,4500,565
2015/03/03,1137,1137,1110,1110,3000,555
2015/03/05,1065,1095,1058,1064,11500,532
2015/03/06,1070,1078,1064,1074,3700,537
2015/03/10,1080,1080,1070,1070,1200,535
2015/03/11,1056,1069,1055,1060,2900,530
2015/03/13,1079,1128,1079,1122,16300,561
2015/03/16,1130,1224,1130,1200,48700,600
2015/03/17,1220,1270,1145,1182,26400,591
2015/03/19,1170,1170,1124,1160,5400,580
2015/03/24,1106,1121,1094,1104,9000,552
2015/03/25,1110,1110,1084,1094,9000,547
2015/03/30,1035,1050,1032,1040,6300,520
2015/03/31,1041,1060,1041,1050,4900,525
2015/04/08,1069,1075,1056,1070,3900,535
2015/04/09,1077,1078,1066,1078,2100,539
2015/04/13,1112,1137,1100,1120,17500,560
2015/04/14,1111,1130,1106,1128,7300,564
2015/04/15,1147,1157,1121,1122,11400,561
2015/04/16,1143,1146,1115,1124,12400,562
2015/04/17,1130,1132,1118,1128,7900,564
2015/04/22,1121,1121,1092,1110,5900,555
2015/04/24,1112,1125,1112,1118,3300,559
2015/04/27,1113,1118,1110,1112,1600,556
2015/04/28,1116,1120,1116,1120,2100,560
2015/05/08,1107,1120,1101,1108,5200,554
2015/05/11,1119,1130,1111,1128,10000,564
2015/05/15,1112,1112,1107,1108,2500,554
2015/05/19,1131,1139,1125,1138,10500,569
2015/05/21,1164,1165,1150,1150,12200,575
2015/05/25,1160,1160,1150,1154,3800,577
2015/05/27,1140,1140,1123,1130,3200,565
2015/06/03,1119,1122,1112,1116,1300,558
2015/06/05,1122,1130,1120,1120,4900,560
2015/06/08,1134,1135,1120,1126,7000,563
2015/06/09,1120,1122,1116,1116,3100,558
2015/06/10,1113,1130,1112,1120,6500,560
2015/06/15,1118,1125,1118,1120,2500,560
2015/06/16,1128,1128,1120,1120,10600,560
2015/06/17,1121,1121,1118,1118,4100,559
2015/06/18,1119,1136,1117,1134,12900,567
2015/06/22,1126,1130,1125,1128,2700,564
2015/06/23,1137,1144,1131,1138,3600,569
2015/06/25,1154,1154,1140,1146,5500,573
2015/06/26,1146,1152,1137,1146,2800,573
2015/06/30,1111,1111,1085,1110,7300,555
2015/07/01,1110,1118,1101,1118,1900,559
2015/07/02,1124,1133,1114,1130,5500,565
2015/07/06,1120,1120,1082,1110,9300,555
2015/07/07,1113,1113,1099,1106,6400,553
2015/07/08,1110,1110,1040,1050,26100,525
2015/07/10,1049,1049,1020,1020,11400,510
2015/07/13,1050,1050,1021,1026,800,513
2015/07/14,1068,1068,1044,1044,5000,522
2015/07/17,1068,1068,1052,1064,4200,532
2015/07/22,1071,1071,1044,1060,3800,530
2015/07/23,1060,1074,1050,1074,4000,537
2015/07/24,1065,1085,1062,1062,3700,531
2015/07/27,1069,1069,1050,1052,2100,526
2015/07/29,1085,1085,1036,1036,3900,518
2015/07/30,1040,1050,1020,1040,9500,520
2015/07/31,1026,1034,1001,1002,11800,501
2015/08/03,1005,1023,1005,1020,2200,510
2015/08/05,1177,1277,1106,1118,179500,559
2015/08/06,1145,1145,1087,1120,25300,560
2015/08/07,1120,1120,1100,1118,6500,559
2015/08/10,1120,1127,1100,1102,11600,551
2015/08/12,1097,1097,1067,1080,6900,540
2015/08/13,1100,1100,1081,1092,3400,546
2015/08/14,1062,1110,1060,1110,10300,555
2015/08/20,1080,1115,1075,1078,3400,539
2015/08/21,1033,1060,1033,1058,5300,529
2015/08/24,1030,1030,990,992,12500,496
2015/08/25,930,991,921,950,17500,475
2015/08/27,486,500,486,495,5000,495
2015/08/28,501,507,490,497,12200,497
2015/08/31,505,505,485,487,14700,487
2015/09/01,492,492,467,467,14400,467
2015/09/02,455,460,453,458,3800,458
2015/09/03,459,468,459,461,2700,461
2015/09/04,462,480,450,451,7400,451
2015/09/07,447,447,440,441,2800,441
2015/09/08,441,443,417,417,18000,417
2015/09/09,430,443,430,440,4800,440
2015/09/10,440,445,432,444,3100,444
2015/09/11,457,462,449,460,4500,460
2015/09/14,457,458,447,455,1500,455
2015/09/15,447,451,438,444,3900,444
2015/09/16,444,448,438,438,3200,438
2015/09/17,431,441,431,441,3600,441
2015/09/18,441,441,440,441,2300,441
2015/09/24,445,445,435,437,8400,437
2015/09/25,450,450,422,425,10800,425
2015/09/28,426,437,426,436,4700,436
2015/09/29,433,433,420,420,4600,420
2015/09/30,433,433,427,427,2400,427
2015/10/01,423,436,423,429,4500,429
2015/10/02,426,430,426,430,1200,430
2015/10/05,427,438,420,424,13700,424
2015/10/06,424,426,421,422,13100,422
2015/10/07,425,434,422,427,4700,427
2015/10/08,427,437,425,431,2300,431
2015/10/09,431,511,431,511,42200,511
2015/10/13,515,527,478,497,82500,497
2015/10/14,474,478,469,473,8300,473
2015/10/15,465,473,465,468,4700,468
2015/10/16,470,477,460,460,8900,460
