2010/03/10,425,425,425,425,2000,425
2010/03/11,428,444,428,444,6000,444
2010/03/12,429,430,427,427,8000,427
2010/03/15,435,463,435,454,20000,454
2010/03/16,460,485,460,485,47000,485
2010/03/17,490,527,490,515,41000,515
2010/03/18,520,525,485,496,36000,496
2010/03/19,505,515,500,515,17000,515
2010/03/23,520,535,520,535,25000,535
2010/03/24,545,545,515,520,18000,520
2010/03/25,530,534,515,515,14000,515
2010/03/26,515,530,515,530,26000,530
2010/03/29,511,519,510,519,24000,519
2010/03/30,510,510,501,501,5000,501
2010/03/31,501,502,500,502,5000,502
2010/04/01,505,524,505,524,7000,524
2010/04/02,520,530,518,530,16000,530
2010/04/05,524,524,515,515,8000,515
2010/04/06,507,507,506,506,3000,506
2010/04/07,505,505,498,505,8000,505
2010/04/08,498,499,490,499,11000,499
2010/04/09,499,499,496,496,6000,496
2010/04/12,495,495,485,492,15000,492
2010/04/13,490,490,486,486,5000,486
2010/04/14,486,486,484,484,2000,484
2010/04/15,486,509,479,509,49000,509
2010/04/16,513,513,497,499,11000,499
2010/04/19,507,507,492,492,14000,492
2010/04/20,506,506,505,505,2000,505
2010/04/21,505,510,500,500,22000,500
2010/04/22,501,505,501,505,5000,505
2010/04/23,512,519,512,519,14000,519
2010/04/26,539,540,530,535,16000,535
2010/04/27,538,563,535,563,17000,563
2010/04/28,555,560,532,560,28000,560
2010/04/30,565,575,565,575,21000,575
2010/05/06,565,570,551,570,26000,570
2010/05/07,530,547,530,541,31000,541
2010/05/10,521,527,500,527,43000,527
2010/05/11,535,535,516,516,23000,516
2010/05/12,515,515,494,496,29000,496
2010/05/13,499,506,499,506,8000,506
2010/05/14,416,416,406,406,55000,406
2010/05/17,383,400,383,389,59000,389
2010/05/18,402,404,399,399,17000,399
2010/05/19,390,390,386,390,12000,390
2010/05/20,393,393,386,386,10000,386
2010/05/21,381,381,352,358,28000,358
2010/05/24,378,378,371,371,9000,371
2010/05/25,374,374,371,371,10000,371
2010/05/26,370,371,365,365,5000,365
2010/05/27,373,373,373,373,1000,373
2010/05/28,403,403,386,386,8000,386
2010/05/31,401,401,379,379,4000,379
2010/06/01,378,378,378,378,1000,378
2010/06/02,378,378,378,378,1000,378
2010/06/03,372,380,369,380,7000,380
2010/06/04,390,390,375,383,4000,383
2010/06/07,380,380,380,380,2000,380
2010/06/08,372,372,366,366,6000,366
2010/06/09,366,368,366,366,11000,366
2010/06/10,368,368,365,368,7000,368
2010/06/11,369,369,369,369,1000,369
2010/06/14,372,372,371,372,4000,372
2010/06/16,371,371,370,370,10000,370
2010/06/17,370,370,365,365,2000,365
2010/06/18,365,365,361,362,7000,362
2010/06/21,362,362,360,360,4000,360
2010/06/22,361,361,360,360,8000,360
2010/06/23,360,360,354,355,4000,355
2010/06/24,355,355,350,351,7000,351
2010/06/25,350,350,345,350,10000,350
2010/06/28,365,365,364,364,3000,364
2010/06/29,356,356,356,356,1000,356
2010/06/30,355,355,350,350,3000,350
2010/07/02,382,382,372,372,8000,372
2010/07/05,372,372,360,360,7000,360
2010/07/06,355,355,355,355,2000,355
2010/07/09,360,360,360,360,1000,360
2010/07/12,360,367,360,367,3000,367
2010/07/14,359,359,359,359,1000,359
2010/07/15,363,363,363,363,1000,363
2010/07/22,355,355,355,355,1000,355
2010/07/23,355,360,355,355,4000,355
2010/07/26,355,355,355,355,2000,355
2010/07/27,357,362,357,362,2000,362
2010/07/28,378,378,378,378,11000,378
2010/08/04,375,375,375,375,1000,375
2010/08/05,375,380,375,379,6000,379
2010/08/06,355,355,339,339,11000,339
2010/08/09,340,340,340,340,3000,340
2010/08/10,343,343,340,340,2000,340
2010/08/11,340,340,340,340,1000,340
2010/08/12,339,339,334,334,4000,334
2010/08/16,335,335,334,334,6000,334
2010/08/17,334,334,332,332,3000,332
2010/08/18,329,329,329,329,1000,329
2010/08/19,329,329,325,325,3000,325
2010/08/20,325,325,325,325,1000,325
2010/08/23,325,325,325,325,1000,325
2010/08/24,325,325,322,322,2000,322
2010/08/25,323,323,321,322,3000,322
2010/08/26,323,323,323,323,1000,323
2010/08/27,325,325,325,325,2000,325
2010/08/31,318,318,318,318,1000,318
2010/09/01,318,318,312,312,4000,312
2010/09/03,313,313,312,312,3000,312
2010/09/06,312,316,312,316,3000,316
2010/09/09,316,316,315,315,2000,315
2010/09/10,316,316,316,316,2000,316
2010/09/13,300,306,300,305,10000,305
2010/09/14,305,305,305,305,2000,305
2010/09/15,306,306,306,306,2000,306
2010/09/16,306,306,302,302,2000,302
2010/09/17,302,302,302,302,3000,302
2010/09/21,303,303,303,303,3000,303
2010/09/22,305,305,302,302,2000,302
2010/09/24,302,303,302,303,8000,303
2010/09/27,303,305,303,305,2000,305
2010/09/28,328,328,324,324,4000,324
2010/09/29,312,312,312,312,1000,312
2010/10/04,312,312,312,312,1000,312
2010/10/05,312,312,310,310,7000,310
2010/10/07,310,310,310,310,1000,310
2010/10/08,310,310,310,310,6000,310
2010/10/12,310,310,310,310,4000,310
2010/10/13,308,308,308,308,5000,308
2010/10/14,310,310,310,310,1000,310
2010/10/28,352,352,350,350,2000,350
2010/11/02,311,311,311,311,2000,311
2010/11/04,310,310,310,310,1000,310
2010/11/05,305,305,305,305,5000,305
2010/11/08,315,315,315,315,3000,315
2010/11/15,316,316,316,316,1000,316
2010/11/16,308,308,308,308,2000,308
2010/11/19,315,315,315,315,1000,315
2010/11/25,325,325,325,325,1000,325
2010/11/26,325,325,325,325,1000,325
2010/12/01,325,325,325,325,1000,325
2010/12/02,349,349,349,349,3000,349
2010/12/03,373,375,373,375,9000,375
2010/12/13,340,340,338,338,3000,338
2010/12/14,330,333,325,327,7000,327
2010/12/17,322,322,321,321,4000,321
2010/12/20,324,324,324,324,1000,324
2010/12/21,320,320,319,319,2000,319
2010/12/22,320,320,320,320,2000,320
2010/12/24,320,326,320,326,4000,326
2010/12/27,325,325,325,325,1000,325
2010/12/28,323,323,323,323,2000,323
2010/12/29,320,320,320,320,1000,320
2011/01/04,328,328,328,328,1000,328
2011/01/05,331,331,331,331,2000,331
2011/01/07,325,325,325,325,1000,325
2011/01/11,321,321,320,320,2000,320
2011/01/12,323,323,321,321,2000,321
2011/01/13,323,323,321,323,8000,323
2011/01/14,323,344,323,344,19000,344
2011/01/17,329,329,329,329,2000,329
2011/01/18,337,337,337,337,1000,337
2011/01/19,339,339,337,338,7000,338
2011/01/21,333,339,333,333,6000,333
2011/01/26,329,329,329,329,2000,329
2011/01/28,329,329,328,328,3000,328
2011/01/31,325,325,325,325,1000,325
2011/02/01,325,330,325,330,5000,330
2011/02/03,325,325,325,325,1000,325
2011/02/04,325,330,324,324,8000,324
2011/02/07,317,317,298,300,23000,300
2011/02/08,306,310,300,310,22000,310
2011/02/09,317,317,317,317,1000,317
2011/02/16,318,318,305,307,4000,307
2011/02/17,311,320,311,320,8000,320
2011/02/18,318,318,318,318,1000,318
2011/02/21,323,336,323,336,9000,336
2011/02/22,329,329,327,327,5000,327
2011/02/23,326,326,326,326,3000,326
2011/02/25,325,325,325,325,1000,325
2011/02/28,325,325,325,325,2000,325
2011/03/01,327,327,321,321,10000,321
2011/03/02,317,318,315,317,10000,317
2011/03/04,317,317,316,316,2000,316
2011/03/07,315,315,315,315,1000,315
2011/03/08,312,312,312,312,2000,312
2011/03/10,304,310,303,310,11000,310
2011/03/14,299,307,294,305,13000,305
2011/03/15,297,300,282,298,30000,298
2011/03/16,298,303,298,303,4000,303
2011/03/17,297,308,297,308,4000,308
2011/03/18,313,313,308,310,13000,310
2011/03/22,312,316,310,316,3000,316
2011/03/23,315,315,313,313,4000,313
2011/03/25,315,316,315,316,2000,316
2011/03/28,317,317,317,317,5000,317
2011/03/29,301,301,301,301,1000,301
2011/03/30,310,310,310,310,3000,310
2011/03/31,310,310,310,310,2000,310
2011/04/01,310,310,310,310,1000,310
2011/04/04,310,310,310,310,2000,310
2011/04/05,315,315,306,306,5000,306
2011/04/06,304,304,304,304,1000,304
2011/04/11,307,307,307,307,1000,307
2011/04/12,309,309,309,309,1000,309
2011/04/13,309,309,309,309,2000,309
2011/04/15,309,309,309,309,2000,309
2011/04/21,309,309,308,309,4000,309
2011/04/22,310,310,310,310,3000,310
2011/04/25,310,310,310,310,1000,310
2011/04/27,312,314,312,314,3000,314
2011/04/28,318,318,318,318,2000,318
2011/05/02,318,318,318,318,1000,318
2011/05/09,310,310,310,310,4000,310
2011/05/16,307,310,307,310,7000,310
2011/05/17,310,310,310,310,6000,310
2011/05/18,287,287,287,287,1000,287
2011/05/19,300,300,300,300,4000,300
2011/05/24,299,300,290,300,8000,300
2011/05/25,300,300,300,300,1000,300
2011/05/27,300,300,300,300,3000,300
2011/05/30,300,300,300,300,4000,300
2011/05/31,300,300,300,300,2000,300
2011/06/01,300,300,300,300,3000,300
2011/06/03,305,305,305,305,2000,305
2011/06/07,291,305,291,305,3000,305
2011/06/09,305,305,305,305,1000,305
2011/06/10,304,305,304,305,4000,305
2011/06/13,308,308,308,308,1000,308
2011/06/20,305,305,305,305,2000,305
2011/06/21,303,305,303,305,6000,305
2011/06/27,306,306,306,306,1000,306
2011/06/28,306,306,306,306,1000,306
2011/06/30,306,306,305,305,2000,305
2011/07/01,310,310,310,310,17000,310
2011/07/04,310,310,310,310,2000,310
2011/07/05,308,308,308,308,2000,308
2011/07/07,310,310,310,310,1000,310
2011/07/08,305,310,305,310,3000,310
2011/07/13,310,310,310,310,1000,310
2011/07/14,302,302,302,302,1000,302
2011/07/15,310,310,310,310,1000,310
2011/07/20,302,302,301,301,3000,301
2011/07/21,304,304,304,304,1000,304
2011/07/27,305,306,301,301,4000,301
2011/07/28,298,304,295,295,17000,295
2011/07/29,296,298,296,298,4000,298
2011/08/01,300,305,300,305,3000,305
2011/08/05,305,305,305,305,2000,305
2011/08/09,295,304,295,304,3000,304
2011/08/10,304,304,304,304,1000,304
2011/08/11,303,304,303,304,2000,304
2011/08/12,296,296,296,296,1000,296
2011/08/15,298,298,297,297,2000,297
2011/08/17,303,303,303,303,3000,303
2011/08/18,298,298,298,298,1000,298
2011/08/19,297,303,297,303,4000,303
2011/08/23,303,303,303,303,2000,303
2011/08/25,307,307,307,307,2000,307
2011/08/26,300,300,299,299,5000,299
2011/08/29,307,307,307,307,1000,307
2011/08/30,307,307,307,307,1000,307
2011/08/31,300,300,300,300,2000,300
2011/09/05,300,303,300,303,4000,303
2011/09/09,299,299,299,299,1000,299
2011/09/12,299,300,299,300,2000,300
2011/09/13,300,300,300,300,1000,300
2011/09/15,296,296,296,296,1000,296
2011/09/22,288,295,284,295,11000,295
2011/09/28,319,319,319,319,3000,319
2011/09/29,297,297,297,297,1000,297
2011/10/03,273,289,273,289,4000,289
2011/10/04,291,291,291,291,3000,291
2011/10/05,299,299,299,299,2000,299
2011/10/13,295,295,292,292,4000,292
2011/10/18,293,294,287,287,5000,287
2011/10/24,291,291,291,291,1000,291
2011/10/28,291,291,291,291,1000,291
2011/10/31,286,286,286,286,1000,286
2011/11/04,295,295,295,295,2000,295
2011/11/08,292,292,292,292,1000,292
2011/11/11,285,290,285,290,2000,290
2011/11/14,295,295,295,295,4000,295
2011/11/16,295,295,295,295,3000,295
2011/11/25,289,289,289,289,1000,289
2011/11/28,300,300,300,300,3000,300
2011/11/30,300,300,300,300,2000,300
2011/12/01,304,304,304,304,3000,304
2011/12/02,309,309,309,309,6000,309
2011/12/05,309,309,309,309,2000,309
2011/12/06,297,305,297,305,6000,305
2011/12/07,302,302,302,302,1000,302
2011/12/19,297,297,297,297,1000,297
2011/12/22,281,286,281,286,2000,286
2011/12/26,294,294,294,294,1000,294
2011/12/27,293,293,285,285,3000,285
2011/12/28,293,293,293,293,3000,293
2012/01/04,294,294,294,294,1000,294
2012/01/05,299,299,299,299,3000,299
2012/01/17,293,293,293,293,1000,293
2012/01/19,293,293,293,293,2000,293
2012/01/23,290,298,290,298,3000,298
2012/01/24,297,297,297,297,1000,297
2012/01/26,299,299,299,299,1000,299
2012/01/27,304,304,304,304,1000,304
2012/02/02,299,299,299,299,1000,299
2012/02/03,299,299,299,299,2000,299
2012/02/07,299,300,299,300,10000,300
2012/02/17,300,300,300,300,15000,300
2012/02/20,300,300,300,300,8000,300
2012/02/24,301,301,301,301,1000,301
2012/02/28,307,307,303,303,4000,303
2012/03/05,310,310,310,310,2000,310
2012/03/07,310,310,310,310,1000,310
2012/03/19,310,310,306,306,2000,306
2012/03/22,314,314,314,314,1000,314
2012/03/23,314,314,314,314,1000,314
2012/03/28,320,320,320,320,2000,320
2012/04/02,318,318,318,318,1000,318
2012/04/04,322,322,320,320,2000,320
2012/04/05,320,320,320,320,3000,320
2012/04/27,324,324,324,324,2000,324
2012/05/02,329,329,329,329,2000,329
2012/05/11,306,307,306,307,2000,307
2012/05/14,306,306,306,306,1000,306
2012/05/18,306,306,305,305,20000,305
2012/05/28,327,327,327,327,2000,327
2012/06/05,327,327,327,327,2000,327
2012/06/18,333,333,333,333,5000,333
2012/06/21,336,336,336,336,2000,336
2012/06/22,336,336,336,336,1000,336
2012/06/28,344,344,344,344,2000,344
2012/06/29,339,339,331,331,2000,331
2012/07/05,339,339,339,339,1000,339
2012/07/06,372,372,349,349,14000,349
2012/07/09,333,333,333,333,1000,333
2012/07/12,335,335,335,335,2000,335
2012/07/25,330,330,330,330,1000,330
2012/07/26,335,335,335,335,1000,335
2012/07/27,351,351,327,327,3000,327
2012/07/31,312,312,312,312,9000,312
2012/08/03,343,343,343,343,2000,343
2012/08/27,335,335,335,335,1000,335
2012/08/28,335,335,335,335,2000,335
2012/09/05,334,334,334,334,2000,334
2012/09/19,334,334,334,334,2000,334
2012/09/20,330,330,330,330,3000,330
2012/09/26,330,330,330,330,1000,330
2012/09/28,340,340,340,340,2000,340
2012/10/03,342,342,342,342,2000,342
2012/10/04,350,350,350,350,1000,350
2012/10/05,350,350,350,350,1000,350
2012/10/11,340,350,340,350,6000,350
2012/10/26,350,350,350,350,3000,350
2012/10/30,350,350,350,350,1000,350
2012/10/31,350,350,327,334,6000,334
2012/11/01,330,330,330,330,1000,330
2012/11/05,337,337,337,337,2000,337
2012/11/07,338,343,338,343,3000,343
2012/11/09,330,330,330,330,1000,330
2012/11/19,338,338,338,338,1000,338
2012/11/28,367,367,367,367,2000,367
2012/11/29,351,351,350,350,5000,350
2012/12/04,350,350,350,350,1000,350
2012/12/05,357,357,350,350,2000,350
2012/12/07,364,364,364,364,6000,364
2012/12/10,350,350,350,350,1000,350
2012/12/12,343,343,343,343,1000,343
2012/12/13,351,352,351,352,4000,352
2012/12/18,346,350,346,350,11000,350
2012/12/19,350,350,350,350,1000,350
2012/12/20,348,348,348,348,1000,348
2012/12/27,350,355,350,355,3000,355
2012/12/28,369,369,360,360,4000,360
2013/01/04,370,370,370,370,2000,370
2013/01/07,379,379,379,379,1000,379
2013/01/10,365,365,365,365,1000,365
2013/01/11,367,367,363,363,2000,363
2013/01/15,370,370,370,370,1000,370
2013/01/17,356,356,356,356,2000,356
2013/01/21,361,361,359,359,3000,359
2013/01/22,360,360,360,360,2000,360
2013/01/23,360,360,360,360,1000,360
2013/01/25,362,362,362,362,1000,362
2013/01/28,362,362,362,362,2000,362
2013/01/29,362,362,359,359,4000,359
2013/01/30,362,363,362,363,3000,363
2013/01/31,363,363,363,363,1000,363
2013/02/01,372,372,372,372,2000,372
2013/02/04,380,380,379,380,7000,380
2013/02/05,389,398,385,397,20000,397
2013/02/06,397,406,397,400,11000,400
2013/02/07,402,410,401,410,7000,410
2013/02/08,410,415,410,415,8000,415
2013/02/12,418,418,414,414,3000,414
2013/02/13,414,414,413,413,2000,413
2013/02/14,417,417,400,400,6000,400
2013/02/15,400,418,400,418,7000,418
2013/02/21,412,412,412,412,3000,412
2013/02/22,400,400,396,396,3000,396
2013/02/25,412,412,412,412,2000,412
2013/02/27,407,407,407,407,1000,407
2013/02/28,410,410,410,410,2000,410
2013/03/05,413,414,413,414,3000,414
2013/03/06,421,421,416,416,2000,416
2013/03/07,419,420,419,420,2000,420
2013/03/08,424,430,424,430,4000,430
2013/03/15,422,423,422,423,6000,423
2013/03/18,448,453,445,445,8000,445
2013/03/19,444,467,444,450,16000,450
2013/03/21,451,455,451,454,5000,454
2013/03/22,457,464,451,464,11000,464
2013/03/25,466,466,460,460,4000,460
2013/03/28,465,465,465,465,1000,465
2013/04/01,441,441,441,441,1000,441
2013/04/02,403,420,403,420,6000,420
2013/04/03,428,428,428,428,1000,428
2013/04/04,425,427,425,426,5000,426
2013/04/05,449,458,440,440,10000,440
2013/04/08,496,498,477,495,24000,495
2013/04/09,487,487,474,474,19000,474
2013/04/10,481,481,481,481,1000,481
2013/04/11,478,478,478,478,1000,478
2013/04/12,474,477,472,476,4000,476
2013/04/15,476,495,476,490,9000,490
2013/04/16,490,490,478,478,18000,478
2013/04/17,476,476,476,476,2000,476
2013/04/18,476,476,476,476,2000,476
2013/04/19,480,481,480,481,3000,481
2013/04/22,484,494,484,494,2000,494
2013/04/23,492,493,484,490,5000,490
2013/04/24,491,497,490,490,6000,490
2013/04/25,490,500,482,500,21000,500
2013/04/26,500,500,491,498,7000,498
2013/04/30,495,500,495,500,6000,500
2013/05/01,500,500,493,495,7000,495
2013/05/02,497,497,485,485,3000,485
2013/05/07,510,520,500,503,38000,503
2013/05/08,503,512,494,500,17000,500
2013/05/09,500,512,500,512,13000,512
2013/05/10,513,513,501,505,9000,505
2013/05/13,505,510,503,510,7000,510
2013/05/14,477,477,463,473,32000,473
2013/05/15,468,468,438,438,31000,438
2013/05/16,425,425,413,413,10000,413
2013/05/17,411,418,408,417,8000,417
2013/05/20,440,449,432,440,20000,440
2013/05/21,446,448,443,445,11000,445
2013/05/22,447,448,445,445,12000,445
2013/05/23,440,440,436,436,15000,436
2013/05/24,436,436,412,413,7000,413
2013/05/27,418,418,405,407,15000,407
2013/05/28,400,415,400,415,13000,415
2013/05/29,416,416,407,413,11000,413
2013/05/30,405,405,398,400,6000,400
2013/05/31,400,402,400,402,2000,402
2013/06/03,404,409,404,404,5000,404
2013/06/04,399,400,399,400,2000,400
2013/06/05,399,399,390,390,8000,390
2013/06/06,386,386,380,381,6000,381
2013/06/07,380,380,370,370,6000,370
2013/06/10,370,370,362,363,8000,363
2013/06/11,363,363,363,363,2000,363
2013/06/12,360,360,347,347,2000,347
2013/06/13,351,357,351,357,4000,357
2013/06/14,358,358,351,352,4000,352
2013/06/17,341,350,341,350,7000,350
2013/06/19,360,360,360,360,1000,360
2013/06/20,352,352,352,352,1000,352
2013/06/24,352,352,352,352,2000,352
2013/06/25,356,356,356,356,1000,356
2013/06/27,356,356,356,356,3000,356
2013/06/28,371,371,371,371,3000,371
2013/07/02,373,375,373,375,3000,375
2013/07/03,373,375,373,375,3000,375
2013/07/04,380,381,380,381,2000,381
2013/07/05,381,381,381,381,12000,381
2013/07/08,373,373,369,369,2000,369
2013/07/09,369,369,369,369,1000,369
2013/07/10,365,365,361,361,4000,361
2013/07/12,361,361,361,361,2000,361
2013/07/16,365,365,365,365,2000,365
2013/07/18,364,364,358,358,2000,358
2013/07/19,365,365,365,365,2000,365
2013/07/22,370,375,370,375,3000,375
2013/07/24,370,375,370,375,4000,375
2013/07/26,381,385,377,377,4000,377
2013/07/29,375,375,375,375,4000,375
2013/07/30,371,371,370,370,2000,370
2013/08/02,377,377,377,377,1000,377
2013/08/05,377,377,377,377,3000,377
2013/08/08,373,373,373,373,1000,373
2013/08/12,380,380,380,380,2000,380
2013/08/13,372,372,372,372,1000,372
2013/08/22,375,375,375,375,2000,375
2013/08/23,375,375,375,375,6000,375
2013/08/28,375,375,370,370,3000,370
2013/09/03,362,362,362,362,4000,362
2013/09/05,369,370,369,369,3000,369
2013/09/13,368,370,368,370,6000,370
2013/09/17,369,369,369,369,1000,369
2013/09/19,370,370,370,370,2000,370
2013/09/20,370,370,363,363,4000,363
2013/09/24,365,365,365,365,1000,365
2013/09/26,372,372,372,372,2000,372
2013/09/27,379,379,379,379,2000,379
2013/09/30,370,370,370,370,5000,370
2013/10/02,368,368,368,368,1000,368
2013/10/03,370,370,370,370,1000,370
2013/10/04,370,370,370,370,2000,370
2013/10/07,362,362,362,362,1000,362
2013/10/08,365,365,365,365,1000,365
2013/10/09,361,363,361,363,3000,363
2013/10/11,369,369,369,369,1000,369
2013/10/15,368,368,368,368,1000,368
2013/10/16,365,365,365,365,2000,365
2013/10/18,365,370,365,370,2000,370
2013/10/21,368,370,368,370,3000,370
2013/10/22,370,370,370,370,3000,370
2013/10/23,370,370,370,370,4000,370
2013/10/25,370,371,370,371,2000,371
2013/10/28,373,374,371,371,4000,371
2013/10/30,377,385,377,385,11000,385
2013/10/31,393,455,392,439,67000,439
2013/11/01,439,440,409,409,21000,409
2013/11/05,440,449,431,431,14000,431
2013/11/06,440,440,423,435,7000,435
2013/11/07,439,440,414,427,11000,427
2013/11/08,412,412,411,411,3000,411
2013/11/11,424,424,416,416,3000,416
2013/11/13,423,425,420,425,8000,425
2013/11/14,419,420,419,420,2000,420
2013/11/15,428,428,427,428,3000,428
2013/11/18,426,426,425,425,5000,425
2013/11/19,417,419,417,419,3000,419
2013/11/20,425,440,425,440,8000,440
2013/11/21,435,435,422,430,325000,430
2013/11/26,428,428,427,427,3000,427
2013/11/28,427,427,427,427,3000,427
2013/11/29,417,417,411,411,16000,411
2013/12/02,410,410,410,410,1000,410
2013/12/03,406,408,406,408,3000,408
2013/12/04,416,417,416,417,2000,417
2013/12/05,416,416,411,411,4000,411
2013/12/06,419,419,417,417,6000,417
2013/12/09,417,417,417,417,1000,417
2013/12/10,411,411,410,410,2000,410
2013/12/12,410,410,410,410,7000,410
2013/12/13,408,408,408,408,1000,408
2013/12/16,412,412,406,406,3000,406
2013/12/17,406,406,405,405,2000,405
2013/12/18,405,405,405,405,1000,405
2013/12/19,405,405,405,405,2000,405
2013/12/20,405,405,405,405,1000,405
2013/12/24,412,412,405,405,3000,405
2013/12/25,405,405,400,400,6000,400
2013/12/26,399,404,399,404,2000,404
2013/12/27,409,409,409,409,2000,409
2013/12/30,439,440,417,425,9000,425
2014/01/06,425,428,425,428,2000,428
2014/01/07,443,446,430,440,4000,440
2014/01/08,446,446,440,440,2000,440
2014/01/14,425,425,425,425,1000,425
2014/01/15,419,419,419,419,1000,419
2014/01/16,427,427,427,427,1000,427
2014/01/17,429,437,429,437,2000,437
2014/01/20,437,437,437,437,1000,437
2014/01/22,430,430,429,429,3000,429
2014/01/23,435,437,430,430,3000,430
2014/01/24,426,430,426,430,2000,430
2014/01/27,428,428,415,415,9000,415
2014/01/28,427,427,426,426,3000,426
2014/01/31,430,435,430,435,5000,435
2014/02/03,430,436,430,436,3600,436
2014/02/04,425,425,407,411,8600,411
2014/02/05,425,425,416,420,3800,420
2014/02/07,410,410,408,408,2000,408
2014/02/10,405,415,405,410,3000,410
2014/02/12,410,410,410,410,600,410
2014/02/13,410,410,406,410,3100,410
2014/02/17,415,415,415,415,200,415
2014/02/18,414,414,395,400,3400,400
2014/02/19,397,397,397,397,100,397
2014/02/20,391,391,385,386,5400,386
2014/02/21,398,405,398,405,500,405
2014/02/24,393,403,393,397,1400,397
2014/02/25,403,405,399,399,3300,399
2014/02/26,399,399,399,399,100,399
2014/02/27,407,407,399,399,900,399
2014/02/28,407,407,400,400,2200,400
2014/03/03,398,403,395,403,1200,403
2014/03/04,407,407,407,407,300,407
2014/03/05,412,412,400,400,2000,400
2014/03/06,397,403,375,400,10100,400
2014/03/07,408,412,407,409,1500,409
2014/03/12,414,414,414,414,200,414
2014/03/13,410,414,405,405,1600,405
2014/03/14,407,407,402,407,2900,407
2014/03/18,407,407,407,407,800,407
2014/03/20,408,408,408,408,200,408
2014/03/24,406,406,402,402,600,402
2014/03/26,405,426,405,410,1900,410
2014/03/27,384,385,384,384,2000,384
2014/03/28,418,418,417,418,2000,418
2014/04/03,412,412,412,412,400,412
2014/04/04,416,416,412,412,1400,412
2014/04/07,404,404,404,404,400,404
2014/04/08,404,417,404,416,800,416
2014/04/09,416,416,396,397,1500,397
2014/04/10,398,398,398,398,700,398
2014/04/11,399,399,384,388,3100,388
2014/04/15,393,394,393,393,1500,393
2014/04/17,394,394,394,394,1100,394
2014/04/18,394,395,394,394,2200,394
2014/04/21,388,388,388,388,2500,388
2014/04/23,392,392,392,392,100,392
2014/04/24,400,400,400,400,300,400
2014/04/25,400,404,400,404,200,404
2014/04/28,403,403,403,403,1900,403
2014/04/30,405,405,405,405,100,405
2014/05/01,409,409,400,400,900,400
2014/05/02,401,415,401,414,3700,414
2014/05/07,416,416,415,415,300,415
2014/05/08,407,407,396,396,2200,396
2014/05/13,397,408,397,407,500,407
2014/05/14,407,410,401,407,900,407
2014/05/15,401,401,401,401,500,401
2014/05/16,396,396,394,394,1200,394
2014/05/19,397,397,396,396,400,396
2014/05/20,395,395,383,395,4400,395
2014/05/21,390,390,390,390,100,390
2014/05/22,387,392,387,392,1100,392
2014/05/23,390,390,390,390,800,390
2014/05/26,390,393,387,390,4800,390
2014/05/27,391,393,389,390,3000,390
2014/05/28,390,390,389,389,2300,389
2014/05/29,395,395,395,395,1000,395
2014/06/02,390,398,390,397,1500,397
2014/06/03,397,397,390,390,2800,390
2014/06/04,392,392,390,390,3800,390
2014/06/05,392,393,391,393,3600,393
2014/06/06,397,397,393,395,2900,395
2014/06/09,398,405,395,405,8700,405
2014/06/10,408,413,408,413,2600,413
2014/06/11,407,407,400,402,900,402
2014/06/12,415,415,407,407,1600,407
2014/06/13,406,406,406,406,400,406
2014/06/16,416,416,407,407,9000,407
2014/06/17,407,413,407,407,1600,407
2014/06/18,413,413,407,407,5800,407
2014/06/19,407,408,407,408,2500,408
2014/06/20,412,415,410,415,2900,415
2014/06/23,415,417,411,417,2600,417
2014/06/24,417,417,410,412,3600,412
2014/06/25,410,412,410,410,1300,410
2014/06/26,410,415,410,415,800,415
2014/06/27,415,415,410,414,4600,414
2014/06/30,414,415,414,415,5600,415
2014/07/01,415,421,414,421,4700,421
2014/07/02,423,429,420,421,4900,421
2014/07/03,425,430,425,430,1200,430
2014/07/04,440,440,426,426,12500,426
2014/07/07,425,426,424,424,7800,424
2014/07/08,423,425,423,425,900,425
2014/07/09,425,425,425,425,2000,425
2014/07/10,425,425,423,424,1800,424
2014/07/11,424,424,415,423,2400,423
2014/07/14,417,417,417,417,800,417
2014/07/15,419,419,418,418,200,418
2014/07/16,412,416,410,416,3300,416
2014/07/17,420,420,418,420,1300,420
2014/07/18,412,413,412,413,200,413
2014/07/22,419,419,415,415,2300,415
2014/07/23,417,417,417,417,2100,417
2014/07/24,420,460,420,435,38900,435
2014/07/25,432,449,432,437,12700,437
2014/07/28,437,439,431,439,4400,439
2014/07/29,439,439,430,431,5800,431
2014/07/30,429,435,428,428,2100,428
2014/07/31,436,437,429,430,4800,430
2014/08/01,428,432,428,431,1500,431
2014/08/04,432,432,431,432,2600,432
2014/08/05,426,429,425,425,5800,425
2014/08/06,427,428,423,427,3900,427
2014/08/07,423,423,422,423,700,423
2014/08/08,423,428,422,422,1400,422
2014/08/11,421,422,421,421,1200,421
2014/08/12,422,422,421,421,1000,421
2014/08/13,422,422,422,422,2500,422
2014/08/14,422,422,421,422,4900,422
2014/08/15,420,423,420,422,5000,422
2014/08/18,422,422,421,421,3600,421
2014/08/19,423,425,423,425,3800,425
2014/08/20,425,425,423,423,3200,423
2014/08/21,425,425,423,423,1400,423
2014/08/22,422,425,420,420,2800,420
2014/08/25,422,424,422,424,1100,424
2014/08/26,422,424,418,418,11000,418
2014/08/27,424,424,419,424,3100,424
2014/08/28,424,424,421,421,7500,421
2014/08/29,423,425,421,422,3700,422
2014/09/01,426,426,414,419,4400,419
2014/09/02,419,426,419,424,1400,424
2014/09/03,424,426,424,426,500,426
2014/09/04,425,430,425,430,5600,430
2014/09/05,430,430,423,429,3400,429
2014/09/08,428,430,425,427,6000,427
2014/09/09,424,428,424,427,1500,427
2014/09/10,427,428,398,411,44200,411
2014/09/11,413,427,413,427,2400,427
2014/09/12,427,427,417,425,1600,425
2014/09/16,425,425,417,424,3000,424
2014/09/17,420,420,415,420,1700,420
2014/09/18,420,420,415,415,1900,415
2014/09/19,415,420,414,416,2400,416
2014/09/22,416,422,416,420,7100,420
2014/09/24,420,420,419,419,5500,419
2014/09/25,420,422,413,419,6500,419
2014/09/26,423,424,417,424,5900,424
2014/09/29,421,424,416,422,4000,422
2014/09/30,429,429,420,425,3900,425
2014/10/01,427,427,423,423,400,423
2014/10/02,416,420,411,420,5100,420
2014/10/03,422,422,402,416,5600,416
2014/10/06,418,418,411,417,1700,417
2014/10/07,418,423,418,423,2400,423
2014/10/08,419,419,413,413,300,413
2014/10/09,421,421,419,419,200,419
2014/10/10,411,412,406,412,4500,412
2014/10/14,404,411,404,410,5900,410
2014/10/15,415,415,405,405,3200,405
2014/10/16,412,422,407,408,4900,408
2014/10/17,422,422,411,412,3500,412
2014/10/20,423,425,413,415,5200,415
2014/10/21,419,419,412,412,700,412
2014/10/22,412,419,412,419,900,419
2014/10/23,419,419,419,419,1000,419
2014/10/24,420,427,420,427,5200,427
2014/10/27,419,419,411,418,2200,418
2014/10/28,421,423,416,423,2700,423
2014/10/29,407,408,400,406,15700,406
2014/10/30,406,406,397,399,11400,399
2014/10/31,400,405,395,398,3000,398
2014/11/04,393,400,393,397,8900,397
2014/11/05,400,400,397,400,3400,400
2014/11/06,401,401,392,394,3800,394
2014/11/07,400,417,396,417,17200,417
2014/11/10,419,419,408,408,2500,408
2014/11/11,409,409,407,408,2000,408
2014/11/12,408,410,408,410,300,410
2014/11/13,410,410,410,410,300,410
2014/11/14,407,409,407,408,400,408
2014/11/17,406,408,406,408,2300,408
2014/11/18,408,408,407,407,300,407
2014/11/19,406,409,406,408,1000,408
2014/11/20,405,409,405,405,800,405
2014/11/21,405,405,404,405,2400,405
2014/11/25,405,406,405,405,1100,405
2014/11/26,405,408,405,408,900,408
2014/11/27,405,407,404,407,900,407
2014/11/28,407,407,401,403,4100,403
2014/12/01,402,405,402,405,2100,405
2014/12/02,404,404,398,400,8500,400
2014/12/03,400,400,398,398,8700,398
2014/12/04,398,400,397,400,5500,400
2014/12/05,405,405,400,400,11800,400
2014/12/08,400,401,397,400,7900,400
2014/12/09,397,398,397,398,1200,398
2014/12/10,399,399,398,399,1200,399
2014/12/11,399,399,396,399,2200,399
2014/12/12,399,400,399,400,1100,400
2014/12/15,398,398,391,391,8800,391
2014/12/16,392,393,391,391,1500,391
2014/12/17,392,395,392,395,1900,395
2014/12/18,395,395,390,395,4500,395
2014/12/19,394,398,394,397,1500,397
2014/12/22,397,397,392,395,14000,395
2014/12/24,395,399,395,399,9900,399
2014/12/25,399,400,394,399,8700,399
2014/12/26,400,400,390,390,4900,390
2014/12/29,395,401,395,400,3300,400
2014/12/30,400,401,395,400,1400,400
2015/01/05,400,409,400,406,5300,406
2015/01/06,401,405,401,402,1300,402
2015/01/07,402,405,401,401,400,401
2015/01/08,403,422,403,420,20700,420
2015/01/09,412,417,412,413,1900,413
2015/01/13,415,417,413,414,500,414
2015/01/14,410,414,408,414,1500,414
2015/01/15,411,415,411,415,1200,415
2015/01/16,412,418,411,417,1000,417
2015/01/19,420,420,406,415,6300,415
2015/01/20,415,420,409,412,3600,412
2015/01/21,415,415,414,415,2200,415
2015/01/22,415,417,412,412,600,412
2015/01/23,412,418,412,416,1200,416
2015/01/26,418,422,404,410,5800,410
2015/01/27,407,412,406,411,2300,411
2015/01/28,420,422,419,420,4200,420
2015/01/29,412,414,412,414,1300,414
2015/01/30,411,413,411,413,500,413
2015/02/02,414,417,410,411,1300,411
2015/02/03,408,411,408,410,4900,410
2015/02/04,415,418,410,413,2400,413
2015/02/05,408,412,408,412,3800,412
2015/02/06,411,413,411,413,800,413
2015/02/09,411,411,411,411,1000,411
2015/02/10,413,413,405,405,7000,405
2015/02/12,414,414,410,410,700,410
2015/02/16,418,418,407,410,2000,410
2015/02/17,410,410,410,410,200,410
2015/02/18,411,415,411,415,1600,415
2015/02/19,414,414,405,408,2800,408
2015/02/20,408,410,407,410,2700,410
2015/02/23,410,417,408,417,1800,417
2015/02/24,413,413,407,407,500,407
2015/02/25,409,414,409,412,600,412
2015/02/26,411,414,410,414,1300,414
2015/02/27,415,415,414,414,2700,414
2015/03/02,416,419,415,419,4000,419
2015/03/03,421,423,421,422,2900,422
2015/03/04,424,430,422,426,8000,426
2015/03/05,434,435,427,435,5800,435
2015/03/06,435,436,430,435,3400,435
2015/03/09,435,435,429,435,2800,435
2015/03/10,438,438,435,435,2400,435
2015/03/11,430,430,423,423,4300,423
2015/03/12,434,434,422,422,2700,422
2015/03/13,422,424,420,424,3000,424
2015/03/16,427,427,412,419,3100,419
2015/03/17,424,425,420,422,1400,422
2015/03/18,424,428,423,428,64500,428
2015/03/19,428,433,425,426,4600,426
2015/03/20,426,434,426,434,1900,434
2015/03/23,434,437,432,436,2700,436
2015/03/24,436,436,425,430,6100,430
2015/03/25,436,436,425,425,2300,425
2015/03/26,435,435,428,435,5200,435
2015/03/27,433,434,427,428,3300,428
2015/03/30,424,424,420,422,3300,422
2015/03/31,420,424,416,424,7400,424
2015/04/01,420,425,417,419,3200,419
2015/04/02,419,419,416,419,1900,419
2015/04/03,420,420,420,420,1400,420
2015/04/06,423,423,419,421,1800,421
2015/04/07,421,425,421,425,1200,425
2015/04/08,424,424,414,415,13100,415
2015/04/09,415,416,415,416,1800,416
2015/04/10,415,417,413,416,3900,416
2015/04/13,419,425,418,419,6200,419
2015/04/14,423,423,418,418,2300,418
2015/04/16,417,417,416,416,2200,416
2015/04/17,419,419,418,418,400,418
2015/04/20,418,428,418,428,4100,428
2015/04/21,425,425,425,425,200,425
2015/04/22,422,430,422,430,1200,430
2015/04/23,429,429,425,425,800,425
2015/04/24,423,426,423,424,800,424
2015/04/27,430,430,423,427,1000,427
2015/04/28,433,433,425,425,3000,425
2015/04/30,425,425,417,418,2800,418
2015/05/01,429,430,425,428,3200,428
2015/05/07,431,431,420,430,2200,430
2015/05/08,429,429,413,427,3200,427
2015/05/11,423,429,423,428,1000,428
2015/05/12,420,423,417,423,1100,423
2015/05/13,429,429,421,423,10800,423
2015/05/14,421,421,420,420,1100,420
2015/05/15,416,423,416,420,4200,420
2015/05/18,428,428,425,425,1000,425
2015/05/19,429,429,425,425,4600,425
2015/05/20,425,427,425,425,3500,425
2015/05/21,426,438,421,426,37800,426
2015/05/22,432,434,432,433,1800,433
2015/05/25,435,450,434,450,16400,450
2015/05/26,450,530,445,463,476300,463
2015/05/27,470,470,455,459,46400,459
2015/05/28,454,463,452,456,18300,456
2015/05/29,457,457,444,452,8300,452
2015/06/01,452,461,447,455,4500,455
2015/06/02,456,465,456,463,15000,463
2015/06/03,463,464,456,464,11300,464
2015/06/04,464,484,458,480,26400,480
2015/06/05,487,513,482,495,52700,495
2015/06/08,503,503,491,499,16700,499
2015/06/09,500,500,468,470,24600,470
2015/06/10,475,495,475,490,27700,490
2015/06/11,491,492,486,486,22700,486
2015/06/12,496,566,490,534,411500,534
2015/06/15,604,634,604,634,376400,634
2015/06/16,594,618,554,594,418200,594
2015/06/17,594,594,558,577,138200,577
2015/06/18,586,611,550,556,100700,556
2015/06/19,557,565,525,535,84500,535
2015/06/22,534,576,534,575,74900,575
2015/06/23,579,579,555,555,31800,555
2015/06/24,562,562,531,540,32500,540
2015/06/25,537,538,524,527,23200,527
2015/06/26,535,570,530,550,35700,550
2015/06/29,530,539,518,520,43200,520
2015/06/30,520,533,519,529,19500,529
2015/07/01,529,538,527,534,9300,534
2015/07/02,531,569,531,544,60300,544
2015/07/03,550,567,539,557,39700,557
2015/07/06,555,568,544,545,18800,545
2015/07/07,550,555,540,544,9400,544
2015/07/08,551,551,506,512,64900,512
2015/07/09,495,510,460,509,41900,509
2015/07/10,509,514,498,505,5800,505
2015/07/13,504,509,483,500,9400,500
2015/07/14,512,517,506,517,12300,517
2015/07/15,524,524,518,522,9000,522
2015/07/16,525,525,513,522,3700,522
2015/07/17,520,523,511,518,8700,518
2015/07/21,523,545,515,545,29800,545
2015/07/22,549,570,546,550,64700,550
2015/07/23,552,552,510,546,34800,546
2015/07/24,555,555,527,529,15900,529
2015/07/27,543,543,514,518,24200,518
2015/07/28,515,518,504,518,12300,518
2015/07/29,518,538,517,518,13300,518
2015/07/30,522,522,513,514,4300,514
2015/07/31,514,517,511,517,6800,517
2015/08/03,532,550,530,531,41500,531
2015/08/04,600,600,555,564,138800,564
2015/08/05,565,565,549,549,38600,549
2015/08/06,565,565,544,545,6600,545
2015/08/07,550,550,542,548,8300,548
2015/08/10,543,545,538,542,16300,542
2015/08/11,542,558,540,552,5400,552
2015/08/12,551,551,518,544,38100,544
2015/08/13,545,565,545,557,6400,557
2015/08/14,565,565,550,559,11100,559
2015/08/17,551,552,545,548,8800,548
2015/08/18,558,563,553,558,12400,558
2015/08/19,568,568,559,561,10800,561
2015/08/20,566,566,552,553,4800,553
2015/08/21,543,551,538,540,19900,540
2015/08/24,530,530,510,513,19100,513
2015/08/25,500,524,483,510,18600,510
2015/08/26,510,520,509,520,7800,520
2015/08/27,528,530,528,528,2500,528
2015/08/28,540,543,530,530,9900,530
2015/08/31,550,550,522,522,13000,522
2015/09/01,522,524,510,510,4600,510
2015/09/02,502,514,502,513,2800,513
2015/09/03,521,528,511,517,3700,517
2015/09/04,525,525,492,494,4400,494
2015/09/07,490,500,490,499,16100,499
2015/09/08,500,500,490,497,8100,497
2015/09/09,505,520,505,512,5100,512
2015/09/10,510,510,498,500,5200,500
2015/09/11,502,510,498,508,5200,508
2015/09/14,515,517,510,512,2200,512
2015/09/15,512,512,500,500,1800,500
2015/09/16,501,506,501,502,1800,502
2015/09/17,505,510,502,504,3100,504
2015/09/18,501,508,499,506,5800,506
2015/09/24,508,509,506,508,2100,508
2015/09/25,518,519,513,517,2400,517
2015/09/28,522,526,518,518,2400,518
2015/09/29,521,521,510,510,2800,510
2015/09/30,508,518,508,510,700,510
2015/10/01,518,518,500,507,4800,507
2015/10/02,513,513,505,513,2300,513
2015/10/05,523,523,514,514,3200,514
2015/10/06,518,519,508,517,1800,517
2015/10/07,520,529,516,528,2400,528
2015/10/08,519,527,519,520,1000,520
2015/10/09,520,524,519,520,1600,520
2015/10/13,520,530,518,530,5600,530
2015/10/14,535,545,528,528,5600,528
2015/10/15,530,574,528,557,28900,557
2015/10/16,553,589,553,577,27900,577
