2010/03/10,347,350,335,350,1300,350
2010/03/11,341,341,341,341,200,341
2010/03/12,335,335,335,335,500,335
2010/03/15,337,338,337,338,700,338
2010/03/16,336,336,336,336,300,336
2010/03/17,336,336,336,336,1000,336
2010/03/18,335,337,335,337,1200,337
2010/03/23,350,350,340,340,600,340
2010/03/25,347,349,342,349,1800,349
2010/03/26,350,350,345,345,1100,345
2010/03/29,340,354,340,354,500,354
2010/03/30,354,354,354,354,100,354
2010/03/31,354,354,350,350,200,350
2010/04/01,338,338,338,338,100,338
2010/04/02,353,353,342,342,700,342
2010/04/05,330,354,330,354,1100,354
2010/04/07,345,346,345,345,600,345
2010/04/08,348,348,348,348,100,348
2010/04/09,348,348,345,348,1000,348
2010/04/12,350,360,350,360,1200,360
2010/04/13,358,358,358,358,100,358
2010/04/14,356,356,356,356,300,356
2010/04/15,355,355,355,355,100,355
2010/04/16,356,356,356,356,100,356
2010/04/19,352,352,342,342,1200,342
2010/04/21,350,350,345,345,300,345
2010/04/22,342,350,342,350,900,350
2010/04/23,345,345,345,345,2600,345
2010/04/26,355,360,350,360,2200,360
2010/04/27,352,352,352,352,100,352
2010/04/28,350,351,345,345,600,345
2010/04/30,351,351,351,351,600,351
2010/05/06,368,368,351,351,1000,351
2010/05/07,361,361,345,350,1600,350
2010/05/10,359,359,350,350,200,350
2010/05/11,350,350,350,350,700,350
2010/05/13,345,345,344,344,600,344
2010/05/14,359,359,359,359,1000,359
2010/05/17,350,350,350,350,100,350
2010/05/19,340,341,336,336,1400,336
2010/05/24,347,347,347,347,200,347
2010/05/25,359,359,331,331,1200,331
2010/05/26,359,359,335,335,1200,335
2010/05/27,326,326,326,326,1400,326
2010/05/28,345,345,345,345,100,345
2010/06/02,350,350,334,334,500,334
2010/06/03,335,335,335,335,100,335
2010/06/07,335,335,335,335,800,335
2010/06/10,335,335,331,331,500,331
2010/06/11,331,331,325,326,1200,326
2010/06/14,345,345,345,345,100,345
2010/06/16,337,338,337,337,1100,337
2010/06/17,334,334,334,334,200,334
2010/06/18,333,335,333,335,700,335
2010/06/21,339,340,339,340,200,340
2010/06/22,341,345,341,345,500,345
2010/06/23,340,340,340,340,100,340
2010/06/24,349,350,349,349,1000,349
2010/06/25,349,349,349,349,900,349
2010/06/28,350,350,340,340,1500,340
2010/06/29,342,342,342,342,100,342
2010/06/30,340,348,340,348,600,348
2010/07/01,344,345,342,342,400,342
2010/07/02,390,390,350,350,4300,350
2010/07/05,388,388,360,360,2600,360
2010/07/06,362,388,360,380,1900,380
2010/07/07,370,370,360,360,600,360
2010/07/08,360,360,360,360,200,360
2010/07/09,356,360,350,350,1600,350
2010/07/13,350,350,348,348,800,348
2010/07/15,348,368,348,368,300,368
2010/07/16,349,355,349,355,400,355
2010/07/20,348,348,348,348,100,348
2010/07/21,348,348,348,348,200,348
2010/07/22,347,355,337,337,900,337
2010/07/23,360,360,360,360,1700,360
2010/07/26,360,360,360,360,1500,360
2010/07/27,344,352,344,352,600,352
2010/07/30,350,350,350,350,100,350
2010/08/02,345,345,343,343,500,343
2010/08/03,346,346,346,346,400,346
2010/08/04,345,345,345,345,100,345
2010/08/05,350,350,345,345,500,345
2010/08/06,347,347,347,347,200,347
2010/08/09,350,350,350,350,500,350
2010/08/10,355,355,355,355,600,355
2010/08/11,350,357,350,350,700,350
2010/08/13,349,349,349,349,100,349
2010/08/16,350,350,350,350,100,350
2010/08/17,350,350,350,350,400,350
2010/08/18,348,360,348,360,1000,360
2010/08/19,360,361,339,358,800,358
2010/08/23,344,344,343,343,200,343
2010/08/24,357,357,357,357,100,357
2010/08/25,357,357,352,355,1500,355
2010/08/26,361,361,357,357,1900,357
2010/08/30,350,350,350,350,700,350
2010/08/31,350,350,348,348,1100,348
2010/09/01,350,350,349,349,300,349
2010/09/02,355,355,353,353,500,353
2010/09/03,360,360,360,360,500,360
2010/09/06,365,365,365,365,100,365
2010/09/07,363,363,363,363,100,363
2010/09/10,352,352,352,352,100,352
2010/09/13,360,360,360,360,100,360
2010/09/14,360,362,360,362,600,362
2010/09/15,355,355,355,355,100,355
2010/09/17,355,355,355,355,700,355
2010/09/21,355,360,355,360,500,360
2010/09/22,357,357,357,357,800,357
2010/09/24,355,360,355,360,3700,360
2010/09/27,364,364,363,364,2100,364
2010/09/28,335,349,335,349,1700,349
2010/09/29,341,341,334,334,1800,334
2010/09/30,345,350,342,350,400,350
2010/10/01,344,344,344,344,100,344
2010/10/04,358,358,319,319,1300,319
2010/10/05,321,346,321,346,300,346
2010/10/06,345,345,345,345,400,345
2010/10/07,330,332,330,332,700,332
2010/10/08,321,333,321,324,1000,324
2010/10/12,326,334,326,334,500,334
2010/10/13,330,335,330,335,200,335
2010/10/14,327,328,327,328,400,328
2010/10/15,327,328,327,328,200,328
2010/10/18,330,330,330,330,200,330
2010/10/19,330,330,318,318,500,318
2010/10/20,326,326,326,326,100,326
2010/10/21,330,335,330,335,200,335
2010/10/22,335,335,331,331,300,331
2010/10/25,340,340,325,325,1100,325
2010/10/26,345,345,315,321,5000,321
2010/10/27,318,321,318,319,700,319
2010/10/28,316,316,316,316,1800,316
2010/10/29,318,318,317,317,500,317
2010/11/01,316,322,316,322,400,322
2010/11/02,320,320,318,318,400,318
2010/11/04,318,323,312,323,1200,323
2010/11/05,320,320,320,320,500,320
2010/11/08,320,320,319,319,400,319
2010/11/09,320,320,319,320,400,320
2010/11/10,322,322,321,321,200,321
2010/11/11,322,322,304,320,800,320
2010/11/12,324,325,324,325,500,325
2010/11/17,318,320,318,319,1500,319
2010/11/18,305,316,305,316,4300,316
2010/11/19,310,311,308,309,3300,309
2010/11/22,308,310,308,310,3100,310
2010/11/24,310,315,306,308,2400,308
2010/11/25,315,315,315,315,1000,315
2010/11/26,329,329,329,329,1300,329
2010/11/29,330,330,330,330,100,330
2010/11/30,330,330,320,320,600,320
2010/12/01,322,322,320,321,900,321
2010/12/02,329,330,329,330,1100,330
2010/12/03,324,325,324,325,600,325
2010/12/06,324,324,324,324,100,324
2010/12/07,325,325,325,325,100,325
2010/12/08,328,328,328,328,400,328
2010/12/09,325,325,325,325,600,325
2010/12/10,339,339,339,339,2700,339
2010/12/13,355,355,355,355,2700,355
2010/12/14,350,350,349,350,500,350
2010/12/15,350,350,350,350,600,350
2010/12/16,335,340,330,330,1900,330
2010/12/17,340,340,340,340,500,340
2010/12/20,340,340,340,340,100,340
2010/12/21,340,353,340,353,200,353
2010/12/22,353,353,353,353,300,353
2010/12/24,355,355,353,353,2800,353
2010/12/27,369,369,350,350,2700,350
2010/12/28,348,348,347,348,1400,348
2010/12/29,348,348,348,348,100,348
2011/01/04,347,347,346,346,400,346
2011/01/05,345,345,345,345,200,345
2011/01/06,345,345,338,338,2300,338
2011/01/07,335,340,335,340,1000,340
2011/01/11,337,337,337,337,1100,337
2011/01/12,337,337,337,337,100,337
2011/01/13,337,343,337,343,500,343
2011/01/14,343,350,343,345,2100,345
2011/01/17,340,359,340,359,1500,359
2011/01/19,359,359,349,349,400,349
2011/01/20,353,353,352,352,200,352
2011/01/21,347,351,347,351,200,351
2011/01/24,352,353,352,353,700,353
2011/01/25,360,360,345,353,2000,353
2011/01/26,359,359,351,351,1700,351
2011/01/27,356,356,356,356,300,356
2011/01/31,358,358,358,358,900,358
2011/02/01,348,355,348,355,400,355
2011/02/02,359,359,351,351,600,351
2011/02/03,351,351,351,351,200,351
2011/02/04,352,353,352,353,200,353
2011/02/07,352,352,335,335,1400,335
2011/02/08,341,353,341,353,1700,353
2011/02/09,345,346,345,346,1600,346
2011/02/10,349,353,349,353,2300,353
2011/02/14,355,355,330,332,17600,332
2011/02/15,331,333,330,331,13000,331
2011/02/16,331,331,330,331,8100,331
2011/02/17,331,331,328,330,14200,330
2011/02/18,330,330,329,330,8700,330
2011/02/21,330,330,329,329,11400,329
2011/02/22,329,330,328,329,10200,329
2011/02/23,329,330,329,330,5200,330
2011/02/24,330,331,330,330,4600,330
2011/02/25,330,330,329,329,3100,329
2011/02/28,330,330,328,330,2300,330
2011/03/01,329,330,329,330,3900,330
2011/03/02,330,330,329,329,1300,329
2011/03/03,330,330,329,329,4300,329
2011/03/04,329,330,329,329,2900,329
2011/03/07,329,329,329,329,3400,329
2011/03/08,329,330,329,329,5500,329
2011/03/09,329,329,329,329,5500,329
2011/03/10,329,329,328,329,1500,329
2011/03/11,328,328,326,328,700,328
2011/03/14,316,325,308,324,4500,324
2011/03/15,324,324,270,270,4100,270
2011/03/16,270,300,270,300,3800,300
2011/03/17,298,315,298,315,900,315
2011/03/18,300,318,300,315,2900,315
2011/03/22,315,315,303,313,1500,313
2011/03/23,313,315,313,315,200,315
2011/03/24,318,318,301,305,3900,305
2011/03/25,308,308,303,303,3500,303
2011/03/28,311,311,290,290,1600,290
2011/03/29,309,309,309,309,200,309
2011/03/30,324,324,304,304,600,304
2011/04/01,316,316,316,316,100,316
2011/04/04,316,316,308,308,500,308
2011/04/05,310,310,310,310,100,310
2011/04/07,305,305,305,305,100,305
2011/04/08,304,309,304,309,500,309
2011/04/14,301,301,301,301,200,301
2011/04/15,300,307,300,300,500,300
2011/04/18,300,300,300,300,100,300
2011/04/19,313,313,310,310,300,310
2011/04/20,314,314,314,314,400,314
2011/04/21,314,314,308,308,200,308
2011/04/22,314,315,307,307,2700,307
2011/04/25,316,316,316,316,900,316
2011/04/26,323,323,323,323,1000,323
2011/04/27,323,323,323,323,500,323
2011/04/28,323,323,308,323,700,323
2011/05/02,323,323,323,323,100,323
2011/05/06,311,311,311,311,500,311
2011/05/09,310,310,310,310,400,310
2011/05/10,311,315,311,315,200,315
2011/05/11,311,311,311,311,200,311
2011/05/12,312,312,312,312,100,312
2011/05/13,310,310,310,310,500,310
2011/05/16,310,310,310,310,200,310
2011/05/17,310,310,310,310,900,310
2011/05/19,309,313,309,313,700,313
2011/05/23,302,302,301,301,1400,301
2011/05/24,306,312,306,312,300,312
2011/05/25,312,312,305,310,1300,310
2011/05/26,319,319,300,308,3000,308
2011/05/31,306,306,306,306,100,306
2011/06/01,314,314,314,314,200,314
2011/06/02,315,315,296,298,1400,298
2011/06/03,298,303,298,303,400,303
2011/06/06,302,302,300,300,1800,300
2011/06/07,293,293,292,292,1000,292
2011/06/08,292,292,288,288,1900,288
2011/06/09,288,288,287,287,800,287
2011/06/13,289,289,287,287,400,287
2011/06/15,288,290,288,290,1800,290
2011/06/16,286,290,286,290,1000,290
2011/06/17,295,295,295,295,300,295
2011/06/20,291,291,291,291,100,291
2011/06/21,300,300,300,300,200,300
2011/06/22,300,300,296,296,800,296
2011/06/23,292,300,292,300,1100,300
2011/06/24,300,300,296,300,1400,300
2011/06/27,308,308,308,308,1000,308
2011/06/28,302,302,301,302,300,302
2011/06/29,300,301,300,301,200,301
2011/06/30,302,304,302,304,1000,304
2011/07/01,300,304,300,304,1300,304
2011/07/04,308,308,303,308,4300,308
2011/07/05,319,319,305,305,3900,305
2011/07/06,305,305,305,305,100,305
2011/07/07,305,305,295,298,6700,298
2011/07/08,299,300,297,300,2600,300
2011/07/11,300,300,300,300,300,300
2011/07/12,304,304,304,304,100,304
2011/07/13,303,303,303,303,200,303
2011/07/14,295,298,295,297,1800,297
2011/07/19,300,302,300,302,600,302
2011/07/20,298,298,298,298,600,298
2011/07/21,299,299,299,299,200,299
2011/07/22,303,303,303,303,300,303
2011/07/25,303,303,296,298,2100,298
2011/07/26,304,304,295,298,1900,298
2011/07/28,303,303,303,303,300,303
2011/07/29,300,300,300,300,100,300
2011/08/01,303,304,300,301,1000,301
2011/08/02,304,304,301,304,800,304
2011/08/03,302,302,300,300,1000,300
2011/08/04,303,303,303,303,600,303
2011/08/05,302,302,302,302,500,302
2011/08/08,300,300,300,300,800,300
2011/08/09,295,300,293,293,800,293
2011/08/10,294,294,291,292,800,292
2011/08/12,300,300,298,298,200,298
2011/08/15,292,292,292,292,500,292
2011/08/16,296,296,296,296,500,296
2011/08/19,296,296,293,293,800,293
2011/08/22,303,303,303,303,100,303
2011/08/23,303,303,303,303,100,303
2011/08/24,303,303,293,295,1000,295
2011/08/25,303,303,303,303,1300,303
2011/08/26,307,307,295,295,1700,295
2011/08/30,303,303,303,303,100,303
2011/08/31,304,304,304,304,300,304
2011/09/01,304,304,304,304,100,304
2011/09/02,304,304,300,300,500,300
2011/09/05,300,300,300,300,700,300
2011/09/06,299,299,299,299,600,299
2011/09/07,299,299,299,299,100,299
2011/09/08,299,299,299,299,100,299
2011/09/09,298,298,298,298,500,298
2011/09/12,300,300,295,296,1700,296
2011/09/13,300,300,300,300,200,300
2011/09/14,296,296,295,296,1800,296
2011/09/15,293,293,293,293,1600,293
2011/09/16,289,292,289,290,1800,290
2011/09/20,298,298,298,298,500,298
2011/09/21,292,300,292,300,1200,300
2011/09/22,304,308,302,302,1800,302
2011/09/26,308,308,302,302,1500,302
2011/09/27,300,300,299,299,1700,299
2011/10/04,297,297,297,297,800,297
2011/10/05,290,290,285,285,400,285
2011/10/06,297,297,297,297,100,297
2011/10/12,285,285,285,285,100,285
2011/10/13,285,285,267,278,1500,278
2011/10/18,276,276,271,271,2600,271
2011/10/21,275,276,275,276,200,276
2011/10/25,299,299,299,299,1100,299
2011/10/26,299,299,299,299,1100,299
2011/10/27,270,278,270,278,3000,278
2011/11/01,270,270,270,270,1000,270
2011/11/02,277,278,270,270,1300,270
2011/11/04,264,264,264,264,1000,264
2011/11/07,271,274,271,274,1000,274
2011/11/08,274,274,270,270,200,270
2011/11/14,270,270,263,264,1800,264
2011/11/15,272,275,258,258,1600,258
2011/11/16,264,264,264,264,100,264
2011/11/22,265,265,265,265,100,265
2011/11/24,270,273,270,273,400,273
2011/11/25,273,273,273,273,2100,273
2011/11/28,281,281,273,273,1300,273
2011/11/29,273,273,273,273,300,273
2011/12/01,268,269,268,268,5500,268
2011/12/02,268,268,263,268,2800,268
2011/12/05,265,267,264,267,500,267
2011/12/06,268,268,268,268,100,268
2011/12/07,268,268,263,264,800,264
2011/12/08,265,265,265,265,300,265
2011/12/09,273,273,265,265,3500,265
2011/12/12,290,290,285,290,3700,290
2011/12/13,274,274,274,274,100,274
2011/12/14,280,280,280,280,100,280
2011/12/16,275,275,275,275,800,275
2011/12/20,270,273,263,263,1100,263
2011/12/21,265,265,261,265,1500,265
2011/12/22,271,273,271,273,2700,273
2011/12/26,288,288,265,265,1700,265
2011/12/27,266,287,266,287,200,287
2011/12/28,271,271,271,271,100,271
2011/12/30,269,269,266,266,300,266
2012/01/05,282,282,266,271,1000,271
2012/01/06,269,269,269,269,100,269
2012/01/10,263,265,263,265,1100,265
2012/01/11,268,268,268,268,200,268
2012/01/12,264,265,263,263,3000,263
2012/01/13,263,266,263,266,200,266
2012/01/16,267,270,267,270,200,270
2012/01/17,263,263,263,263,100,263
2012/01/18,263,263,263,263,1200,263
2012/01/19,264,264,264,264,100,264
2012/01/20,267,267,263,264,1100,264
2012/01/23,268,268,268,268,500,268
2012/01/24,268,269,268,269,1300,269
2012/01/25,268,268,261,263,4800,263
2012/01/26,263,265,261,262,2200,262
2012/01/27,265,265,264,265,1900,265
2012/01/30,262,263,262,263,1200,263
2012/01/31,269,269,269,269,200,269
2012/02/01,265,267,265,267,800,267
2012/02/02,270,270,269,269,500,269
2012/02/03,266,266,265,265,800,265
2012/02/06,265,268,262,265,3500,265
2012/02/07,265,265,262,263,1100,263
2012/02/08,264,268,264,268,300,268
2012/02/09,264,264,264,264,1600,264
2012/02/10,266,267,266,267,1300,267
2012/02/13,266,266,265,265,600,265
2012/02/14,265,265,263,264,2100,264
2012/02/15,264,265,262,263,5300,263
2012/02/16,266,266,262,262,2100,262
2012/02/17,262,263,261,261,3700,261
2012/02/20,266,266,261,262,600,262
2012/02/21,262,264,262,264,900,264
2012/02/22,262,266,262,266,1600,266
2012/02/23,266,269,266,269,300,269
2012/02/24,269,269,268,269,2300,269
2012/02/27,269,270,269,270,3700,270
2012/02/28,268,270,267,267,900,267
2012/02/29,269,270,269,270,400,270
2012/03/01,269,269,268,268,600,268
2012/03/02,270,270,265,267,1900,267
2012/03/05,267,268,265,268,2600,268
2012/03/06,265,269,265,269,1000,269
2012/03/07,265,269,265,267,2100,267
2012/03/08,267,267,267,267,400,267
2012/03/09,267,267,267,267,800,267
2012/03/12,267,270,267,267,4900,267
2012/03/13,266,266,265,265,200,265
2012/03/15,271,271,271,271,500,271
2012/03/16,271,274,268,272,3500,272
2012/03/19,273,274,268,274,7600,274
2012/03/21,273,273,273,273,100,273
2012/03/22,274,279,274,279,2200,279
2012/03/23,283,287,281,287,5600,287
2012/03/26,288,288,272,275,2600,275
2012/03/27,277,277,276,276,200,276
2012/03/28,271,276,271,276,1800,276
2012/03/29,271,271,270,271,600,271
2012/03/30,268,268,268,268,1000,268
2012/04/02,268,273,268,273,300,273
2012/04/03,275,275,270,270,600,270
2012/04/04,270,270,270,270,400,270
2012/04/05,269,269,269,269,500,269
2012/04/06,268,268,268,268,100,268
2012/04/09,268,268,268,268,700,268
2012/04/10,268,268,268,268,200,268
2012/04/12,269,276,269,276,500,276
2012/04/13,275,275,275,275,200,275
2012/04/16,270,270,270,270,100,270
2012/04/17,280,280,273,273,1100,273
2012/04/18,275,275,271,271,3200,271
2012/04/19,271,280,271,280,1900,280
2012/04/20,277,277,276,276,500,276
2012/04/23,275,276,274,274,1300,274
2012/04/24,274,274,272,272,2300,272
2012/04/25,282,289,275,288,7300,288
2012/04/26,288,288,288,288,1100,288
2012/04/27,280,287,279,279,600,279
2012/05/01,286,300,275,277,6300,277
2012/05/02,285,285,281,281,500,281
2012/05/07,276,285,272,285,1500,285
2012/05/08,275,280,275,275,1200,275
2012/05/09,277,286,274,275,700,275
2012/05/10,277,277,277,277,300,277
2012/05/11,276,276,267,275,3100,275
2012/05/14,275,275,263,263,1000,263
2012/05/15,263,263,260,260,900,260
2012/05/16,252,254,252,253,1900,253
2012/05/17,253,257,253,257,1000,257
2012/05/18,257,257,257,257,100,257
2012/05/21,255,256,255,256,800,256
2012/05/22,259,259,257,258,1300,258
2012/05/23,261,261,261,261,200,261
2012/05/24,264,266,264,265,800,265
2012/05/25,268,268,265,265,1600,265
2012/05/28,278,278,266,266,1200,266
2012/05/29,265,265,264,265,600,265
2012/05/30,260,260,260,260,500,260
2012/05/31,260,264,260,260,800,260
2012/06/01,257,257,257,257,1100,257
2012/06/04,260,260,257,257,1000,257
2012/06/05,257,257,257,257,100,257
2012/06/07,260,260,260,260,100,260
2012/06/08,264,265,264,265,500,265
2012/06/11,265,265,257,257,1700,257
2012/06/14,261,265,261,265,800,265
2012/06/15,268,268,268,268,100,268
2012/06/18,265,265,264,264,500,264
2012/06/19,259,264,259,264,2700,264
2012/06/20,264,275,264,275,600,275
2012/06/21,264,267,264,267,300,267
2012/06/22,262,270,262,270,1000,270
2012/06/25,278,279,270,279,2600,279
2012/06/26,275,275,265,266,1800,266
2012/06/27,269,269,266,266,500,266
2012/06/28,270,270,270,270,100,270
2012/06/29,270,271,270,271,1200,271
2012/07/02,271,278,271,274,1800,274
2012/07/03,273,274,273,274,2500,274
2012/07/04,275,275,273,273,1100,273
2012/07/05,272,272,271,271,200,271
2012/07/06,289,289,274,275,5200,275
2012/07/09,294,294,273,273,3900,273
2012/07/10,272,272,271,271,1200,271
2012/07/11,271,271,270,270,1200,270
2012/07/12,270,270,268,270,1600,270
2012/07/13,270,270,270,270,1000,270
2012/07/17,270,270,265,265,1000,265
2012/07/19,265,265,259,259,2200,259
2012/07/20,265,270,265,270,500,270
2012/07/23,270,270,270,270,300,270
2012/07/25,270,270,266,270,1400,270
2012/07/26,277,277,277,277,1100,277
2012/07/27,270,270,265,265,300,265
2012/07/30,258,262,258,262,1100,262
2012/07/31,266,266,266,266,100,266
2012/08/01,270,270,270,270,600,270
2012/08/02,276,276,270,270,300,270
2012/08/03,255,264,255,262,3400,262
2012/08/08,263,264,263,263,300,263
2012/08/10,265,265,265,265,200,265
2012/08/14,262,262,262,262,100,262
2012/08/15,266,267,266,267,600,267
2012/08/16,268,268,262,263,2000,263
2012/08/17,270,270,264,270,2100,270
2012/08/20,270,270,270,270,300,270
2012/08/21,270,270,265,265,1400,265
2012/08/22,266,266,266,266,100,266
2012/08/23,266,271,266,270,600,270
2012/08/24,274,274,273,274,1500,274
2012/08/27,274,274,274,274,1100,274
2012/08/28,266,266,266,266,200,266
2012/08/29,265,266,265,265,500,265
2012/09/03,273,273,273,273,200,273
2012/09/04,274,274,274,274,200,274
2012/09/05,266,267,266,267,700,267
2012/09/07,273,273,267,267,1100,267
2012/09/10,272,273,266,273,1900,273
2012/09/11,265,265,265,265,800,265
2012/09/13,265,275,265,275,1200,275
2012/09/14,267,268,267,268,600,268
2012/09/18,270,270,270,270,500,270
2012/09/19,275,279,275,279,1100,279
2012/09/20,270,270,270,270,1100,270
2012/09/21,278,280,268,280,2100,280
2012/09/24,280,280,279,280,3300,280
2012/09/25,279,280,276,278,5600,278
2012/09/26,258,264,258,263,3800,263
2012/09/27,264,265,262,264,2800,264
2012/09/28,262,262,262,262,100,262
2012/10/01,260,261,260,260,1100,260
2012/10/02,261,261,261,261,1000,261
2012/10/03,258,258,258,258,100,258
2012/10/04,258,258,258,258,500,258
2012/10/05,257,257,257,257,100,257
2012/10/09,259,259,259,259,100,259
2012/10/10,262,262,262,262,1000,262
2012/10/11,262,262,255,255,1100,255
2012/10/12,257,257,257,257,100,257
2012/10/16,258,258,258,258,100,258
2012/10/17,262,262,262,262,200,262
2012/10/18,258,258,258,258,200,258
2012/10/19,257,257,257,257,300,257
2012/10/22,256,257,256,256,800,256
2012/10/23,256,256,255,256,800,256
2012/10/24,259,260,259,259,1400,259
2012/10/25,267,267,260,260,1200,260
2012/10/26,265,265,257,257,1800,257
2012/10/29,260,260,258,258,200,258
2012/10/30,260,260,260,260,100,260
2012/10/31,268,268,268,268,900,268
2012/11/01,258,259,258,258,700,258
2012/11/02,265,265,265,265,300,265
2012/11/05,257,266,257,266,1500,266
2012/11/06,264,265,264,265,1100,265
2012/11/07,258,267,258,259,1000,259
2012/11/08,259,259,256,256,3700,256
2012/11/12,256,256,255,255,1500,255
2012/11/13,255,255,253,253,2700,253
2012/11/14,253,257,251,251,400,251
2012/11/15,251,251,251,251,800,251
2012/11/16,251,251,251,251,200,251
2012/11/19,254,260,254,260,2100,260
2012/11/20,257,261,257,260,1100,260
2012/11/21,258,262,258,262,800,262
2012/11/22,264,264,254,264,3200,264
2012/11/26,267,267,267,267,1100,267
2012/11/28,260,260,260,260,300,260
2012/11/29,261,261,260,260,200,260
2012/11/30,266,266,266,266,100,266
2012/12/03,266,266,266,266,600,266
2012/12/04,268,273,266,267,3300,267
2012/12/05,268,268,268,268,500,268
2012/12/06,271,274,270,274,2500,274
2012/12/07,274,275,265,275,4100,275
2012/12/10,275,275,266,266,4900,266
2012/12/11,266,274,266,274,300,274
2012/12/12,268,274,268,274,500,274
2012/12/13,275,275,270,270,200,270
2012/12/14,275,275,270,275,1300,275
2012/12/17,268,271,267,268,2300,268
2012/12/18,268,270,268,270,900,270
2012/12/19,267,269,267,267,1100,267
2012/12/20,267,270,267,270,2900,270
2012/12/21,272,275,269,275,1500,275
2012/12/25,271,271,266,267,4800,267
2012/12/26,266,272,263,272,1900,272
2012/12/27,270,275,270,275,2400,275
2012/12/28,273,306,273,276,4600,276
2013/01/04,277,277,276,276,2600,276
2013/01/07,279,286,278,286,1000,286
2013/01/08,273,286,273,286,2100,286
2013/01/09,286,296,278,278,400,278
2013/01/10,295,295,295,295,100,295
2013/01/11,294,294,286,286,1200,286
2013/01/15,278,280,278,280,1100,280
2013/01/17,287,295,286,295,2100,295
2013/01/18,290,292,281,292,1200,292
2013/01/21,286,293,286,293,300,293
2013/01/22,296,296,296,296,200,296
2013/01/23,288,297,288,297,400,297
2013/01/24,296,296,282,293,4700,293
2013/01/25,292,294,281,294,5900,294
2013/01/28,298,298,285,286,4900,286
2013/01/29,285,291,279,291,3900,291
2013/01/30,285,285,278,283,3400,283
2013/01/31,278,289,278,289,2000,289
2013/02/01,282,282,280,280,3000,280
2013/02/04,282,284,280,284,2800,284
2013/02/05,283,283,280,280,2300,280
2013/02/06,284,285,280,280,1900,280
2013/02/07,284,288,284,288,2700,288
2013/02/08,286,286,282,282,1200,282
2013/02/12,286,286,281,281,900,281
2013/02/13,280,281,280,281,2300,281
2013/02/14,279,286,279,286,2400,286
2013/02/15,285,285,285,285,100,285
2013/02/18,280,280,280,280,100,280
2013/02/19,285,285,285,285,300,285
2013/02/20,280,280,279,279,4200,279
2013/02/21,273,281,272,281,1400,281
2013/02/22,283,284,283,284,1500,284
2013/02/25,284,285,284,285,1400,285
2013/02/26,285,285,280,284,2700,284
2013/02/27,283,283,283,283,100,283
2013/02/28,278,283,278,283,3600,283
2013/03/01,283,284,283,284,2300,284
2013/03/04,284,285,282,282,3900,282
2013/03/05,282,285,282,284,3200,284
2013/03/06,284,286,280,280,5700,280
2013/03/07,280,281,280,280,4100,280
2013/03/08,281,285,279,279,12800,279
2013/03/11,280,285,277,285,6400,285
2013/03/12,280,286,279,285,3100,285
2013/03/13,282,289,282,284,1500,284
2013/03/14,285,285,280,284,3800,284
2013/03/15,276,281,276,278,5700,278
2013/03/18,278,285,278,281,12900,281
2013/03/19,281,285,281,281,1400,281
2013/03/21,285,285,281,281,800,281
2013/03/22,281,283,281,283,1500,283
2013/03/25,284,290,283,290,3500,290
2013/03/26,295,295,291,295,1300,295
2013/03/27,287,295,287,295,1000,295
2013/03/28,285,289,283,289,1100,289
2013/03/29,282,290,282,290,1100,290
2013/04/01,290,290,279,279,1900,279
2013/04/02,279,284,278,284,600,284
2013/04/03,277,279,277,278,2200,278
2013/04/04,277,277,276,276,900,276
2013/04/05,277,284,277,279,1300,279
2013/04/08,280,280,277,280,3600,280
2013/04/09,286,286,286,286,1100,286
2013/04/10,287,291,284,284,1800,284
2013/04/11,285,291,285,287,2000,287
2013/04/12,287,291,286,287,1500,287
2013/04/15,285,285,284,285,700,285
2013/04/16,284,292,282,291,3400,291
2013/04/17,285,289,285,289,1000,289
2013/04/18,286,286,286,286,100,286
2013/04/19,290,290,288,290,900,290
2013/04/22,290,290,286,289,1600,289
2013/04/23,291,291,288,288,600,288
2013/04/24,288,288,286,286,800,286
2013/04/25,292,292,281,285,5000,285
2013/04/26,292,292,287,287,4200,287
2013/04/30,287,290,287,290,2300,290
2013/05/01,289,290,287,287,2000,287
2013/05/02,289,290,289,290,1000,290
2013/05/07,292,294,289,289,4100,289
2013/05/08,290,297,290,291,3900,291
2013/05/09,297,297,292,292,3600,292
2013/05/10,293,298,287,290,8000,290
2013/05/13,290,297,290,297,5200,297
2013/05/14,291,295,291,292,500,292
2013/05/15,295,300,293,293,4500,293
2013/05/16,295,295,287,287,3700,287
2013/05/17,287,294,287,293,2200,293
2013/05/20,293,293,292,292,1200,292
2013/05/21,295,295,293,293,1200,293
2013/05/22,293,297,288,291,11500,291
2013/05/23,291,292,288,288,3600,288
2013/05/24,296,296,283,289,7000,289
2013/05/27,298,298,284,284,2100,284
2013/05/28,284,286,281,286,4600,286
2013/05/29,284,290,284,290,900,290
2013/05/30,287,290,285,285,1400,285
2013/05/31,280,286,275,279,5300,279
2013/06/03,286,286,279,279,1800,279
2013/06/04,286,286,272,272,1200,272
2013/06/05,271,272,270,272,5800,272
2013/06/06,279,279,269,270,1900,270
2013/06/07,261,263,260,263,11200,263
2013/06/10,263,269,263,265,1400,265
2013/06/11,264,266,264,266,1000,266
2013/06/12,266,266,266,266,100,266
2013/06/13,266,270,266,270,800,270
2013/06/14,271,271,271,271,600,271
2013/06/17,285,285,275,285,1600,285
2013/06/18,280,283,272,283,2300,283
2013/06/19,285,285,285,285,1000,285
2013/06/20,280,280,280,280,200,280
2013/06/21,282,285,281,281,800,281
2013/06/24,281,285,278,278,2800,278
2013/06/25,282,282,277,277,1200,277
2013/06/26,284,284,278,278,1200,278
2013/06/27,277,284,277,284,200,284
2013/06/28,278,285,278,284,2000,284
2013/07/01,285,286,284,286,1900,286
2013/07/02,287,287,283,283,1100,283
2013/07/03,284,288,284,288,500,288
2013/07/04,286,290,286,290,1400,290
2013/07/05,291,291,288,291,6500,291
2013/07/08,292,292,286,286,5300,286
2013/07/09,285,286,285,286,1200,286
2013/07/10,285,293,285,292,1300,292
2013/07/11,290,291,282,285,1800,285
2013/07/12,284,287,284,287,600,287
2013/07/16,303,303,288,288,3900,288
2013/07/17,288,288,288,288,300,288
2013/07/18,288,293,288,293,900,293
2013/07/19,289,294,289,290,1100,290
2013/07/22,295,295,290,295,1900,295
2013/07/23,296,299,289,289,4000,289
2013/07/24,297,298,289,294,2900,294
2013/07/25,294,294,293,293,1000,293
2013/07/26,294,294,294,294,2200,294
2013/07/30,285,287,285,287,700,287
2013/07/31,287,287,286,286,600,286
2013/08/01,286,286,286,286,100,286
2013/08/02,293,293,287,287,900,287
2013/08/05,290,290,288,288,2000,288
2013/08/06,285,287,285,286,1600,286
2013/08/07,287,287,285,287,1200,287
2013/08/08,285,290,284,284,3200,284
2013/08/09,284,290,280,290,4200,290
2013/08/12,282,282,282,282,300,282
2013/08/13,282,282,282,282,2200,282
2013/08/14,290,290,290,290,800,290
2013/08/19,288,293,288,293,3100,293
2013/08/20,291,291,291,291,2000,291
2013/08/21,285,290,285,290,700,290
2013/08/22,288,288,287,287,500,287
2013/08/23,293,293,291,291,1200,291
2013/08/26,292,292,292,292,1400,292
2013/08/27,292,292,286,286,1500,286
2013/08/28,286,286,286,286,1000,286
2013/08/29,290,292,286,292,1600,292
2013/08/30,297,297,295,295,1500,295
2013/09/02,305,305,287,304,3700,304
2013/09/03,308,315,295,300,4900,300
2013/09/04,292,294,292,292,1200,292
2013/09/05,295,297,295,297,2200,297
2013/09/06,297,297,297,297,300,297
2013/09/09,298,298,281,285,9300,285
2013/09/10,285,305,285,286,9000,286
2013/09/12,288,295,288,292,1900,292
2013/09/13,293,293,289,289,2100,289
2013/09/17,291,292,290,292,1100,292
2013/09/18,300,300,292,292,3800,292
2013/09/19,298,299,297,298,3000,298
2013/09/20,298,299,298,298,1700,298
2013/09/24,303,304,299,304,10200,304
2013/09/25,302,305,302,305,11000,305
2013/09/26,280,290,280,290,14000,290
2013/09/27,290,295,283,289,5200,289
2013/09/30,282,287,282,286,2700,286
2013/10/01,289,289,282,282,3600,282
2013/10/02,290,290,282,283,3200,283
2013/10/03,283,286,283,283,3100,283
2013/10/04,283,283,281,282,1300,282
2013/10/07,280,280,262,278,4500,278
2013/10/08,275,275,266,271,1300,271
2013/10/09,279,284,271,284,2700,284
2013/10/10,284,286,278,278,4000,278
2013/10/11,278,288,278,284,4600,284
2013/10/15,280,284,280,284,1600,284
2013/10/16,281,283,280,280,2900,280
2013/10/17,287,287,280,280,4900,280
2013/10/18,282,286,280,281,3600,281
2013/10/21,281,284,280,284,2100,284
2013/10/22,282,282,282,282,3300,282
2013/10/23,283,284,282,282,2400,282
2013/10/24,285,285,280,282,3800,282
2013/10/25,285,286,283,285,3500,285
2013/10/28,288,288,284,288,1700,288
2013/10/29,281,286,281,282,4800,282
2013/10/30,286,310,280,281,30500,281
2013/10/31,282,310,280,281,30200,281
2013/11/01,283,286,276,277,8600,277
2013/11/05,286,286,277,278,3000,278
2013/11/06,278,281,277,277,3100,277
2013/11/07,278,279,277,279,2300,279
2013/11/08,277,278,276,276,3400,276
2013/11/11,278,278,275,276,2400,276
2013/11/12,276,276,273,275,1200,275
2013/11/13,273,276,273,274,1000,274
2013/11/14,274,276,273,276,3100,276
2013/11/15,273,276,273,276,2800,276
2013/11/18,279,279,275,278,2300,278
2013/11/19,278,279,276,279,1900,279
2013/11/20,279,280,279,280,4200,280
2013/11/21,278,281,276,276,8200,276
2013/11/22,278,278,276,277,1800,277
2013/11/25,277,277,276,277,3200,277
2013/11/26,280,280,277,277,3800,277
2013/11/27,279,280,277,280,8900,280
2013/11/28,283,283,280,280,1500,280
2013/11/29,280,280,279,279,1300,279
2013/12/02,279,280,277,279,3200,279
2013/12/03,280,289,279,281,2900,281
2013/12/04,282,284,281,281,2000,281
2013/12/05,281,285,280,282,1700,282
2013/12/06,285,285,278,278,7000,278
2013/12/09,280,283,278,278,5100,278
2013/12/10,278,280,276,278,3000,278
2013/12/11,278,280,276,280,2200,280
2013/12/12,280,280,272,276,7000,276
2013/12/13,275,280,271,275,4700,275
2013/12/16,274,274,272,272,800,272
2013/12/17,273,274,265,271,8400,271
2013/12/18,271,271,268,270,15300,270
2013/12/19,267,269,264,267,8000,267
2013/12/20,268,268,265,267,4000,267
2013/12/24,268,268,262,263,16200,263
2013/12/25,263,264,262,262,20400,262
2013/12/26,267,271,265,271,4200,271
2013/12/27,269,269,266,268,1600,268
2013/12/30,269,273,269,272,5100,272
2014/01/06,272,276,270,272,2700,272
2014/01/07,276,276,270,270,6900,270
2014/01/08,270,275,270,271,6200,271
2014/01/09,274,275,271,275,2600,275
2014/01/10,274,274,273,274,1500,274
2014/01/14,274,277,272,277,4100,277
2014/01/15,276,280,274,277,7000,277
2014/01/16,277,282,276,276,3400,276
2014/01/17,280,284,278,278,5200,278
2014/01/20,280,287,279,280,2500,280
2014/01/21,288,289,281,281,7300,281
2014/01/22,281,292,281,284,11100,284
2014/01/23,284,284,278,281,3100,281
2014/01/24,281,284,281,284,3100,284
2014/01/27,282,282,274,274,6700,274
2014/01/28,274,274,271,274,2900,274
2014/01/29,274,284,274,284,2300,284
2014/01/30,275,281,272,272,4100,272
2014/01/31,277,280,277,280,900,280
2014/02/03,277,277,272,276,700,276
2014/02/04,275,275,263,265,9900,265
2014/02/05,266,270,266,270,1700,270
2014/02/06,267,267,267,267,1200,267
2014/02/07,271,271,271,271,200,271
2014/02/12,270,270,270,270,4100,270
2014/02/13,271,273,271,271,500,271
2014/02/14,269,269,265,265,1600,265
2014/02/17,267,267,266,266,900,266
2014/02/18,267,267,267,267,100,267
2014/02/19,266,268,266,268,400,268
2014/02/20,267,267,266,266,3200,266
2014/02/21,267,273,265,269,900,269
2014/02/24,269,273,269,273,400,273
2014/02/25,275,276,272,275,1500,275
2014/02/26,282,282,274,274,2800,274
2014/02/27,276,276,276,276,100,276
2014/02/28,270,277,270,277,300,277
2014/03/03,271,277,271,275,500,275
2014/03/04,278,280,272,272,1700,272
2014/03/05,272,272,272,272,200,272
2014/03/06,272,274,272,274,300,274
2014/03/07,274,274,274,274,100,274
2014/03/10,275,275,275,275,800,275
2014/03/11,274,274,273,273,1300,273
2014/03/12,275,275,273,273,400,273
2014/03/13,273,273,272,272,2700,272
2014/03/14,275,275,272,272,500,272
2014/03/17,270,274,270,273,2500,273
2014/03/18,270,278,270,273,1800,273
2014/03/19,275,275,273,273,2600,273
2014/03/20,274,274,272,272,2300,272
2014/03/24,270,282,266,280,4300,280
2014/03/25,278,278,265,269,5500,269
2014/03/26,274,276,268,276,3100,276
2014/03/27,271,273,265,271,1900,271
2014/03/28,271,271,271,271,500,271
2014/03/31,270,276,270,276,1500,276
2014/04/01,269,274,269,270,1500,270
2014/04/02,272,273,270,272,1700,272
2014/04/03,272,272,272,272,1000,272
2014/04/04,272,272,271,271,1500,271
2014/04/07,272,272,271,272,1800,272
2014/04/08,270,271,270,271,700,271
2014/04/09,269,272,268,268,3400,268
2014/04/10,270,270,268,268,400,268
2014/04/11,268,270,268,268,1100,268
2014/04/14,271,272,271,272,600,272
2014/04/15,269,269,269,269,200,269
2014/04/16,272,272,272,272,1300,272
2014/04/17,270,270,268,269,1100,269
2014/04/18,267,272,267,272,3600,272
2014/04/21,270,271,268,268,1400,268
2014/04/22,268,272,268,272,1200,272
2014/04/23,270,270,270,270,200,270
2014/04/24,272,272,272,272,600,272
2014/04/25,270,270,265,265,6900,265
2014/04/28,270,270,267,267,1300,267
2014/04/30,266,268,266,268,400,268
2014/05/01,267,275,267,273,2700,273
2014/05/02,276,276,270,270,2000,270
2014/05/07,264,268,264,268,5700,268
2014/05/08,268,272,266,266,1800,266
2014/05/09,266,266,266,266,300,266
2014/05/12,266,274,266,267,3500,267
2014/05/13,273,273,268,268,500,268
2014/05/14,275,275,267,268,4100,268
2014/05/15,272,272,272,272,100,272
2014/05/16,270,270,266,267,1200,267
2014/05/19,268,268,264,264,3800,264
2014/05/20,263,265,263,265,300,265
2014/05/21,265,266,264,266,1500,266
2014/05/22,270,270,258,261,16500,261
2014/05/23,264,267,263,267,2000,267
2014/05/26,269,270,269,270,1900,270
2014/05/28,270,280,270,280,5100,280
2014/05/30,271,271,271,271,100,271
2014/06/02,271,275,269,269,2400,269
2014/06/03,274,280,268,279,5000,279
2014/06/04,271,272,269,270,2300,270
2014/06/05,270,271,270,271,1700,271
2014/06/06,270,271,265,270,9400,270
2014/06/09,272,272,268,269,2300,269
2014/06/11,268,269,268,269,700,269
2014/06/12,269,273,268,268,900,268
2014/06/13,271,271,271,271,400,271
2014/06/16,270,271,270,271,800,271
2014/06/17,273,273,272,272,2400,272
2014/06/18,270,271,270,271,300,271
2014/06/19,267,270,267,270,3000,270
2014/06/20,269,270,269,270,800,270
2014/06/23,275,275,273,273,1800,273
2014/06/24,275,275,273,273,1700,273
2014/06/25,274,275,273,273,1600,273
2014/06/26,273,275,273,273,2300,273
2014/06/27,275,277,274,274,1200,274
2014/06/30,277,280,274,275,2300,275
2014/07/01,276,279,276,278,4900,278
2014/07/02,279,279,278,278,2000,278
2014/07/03,278,278,277,278,1000,278
2014/07/04,279,279,275,278,5100,278
2014/07/07,283,283,278,280,4700,280
2014/07/08,279,285,279,279,3800,279
2014/07/09,281,285,277,277,3700,277
2014/07/10,281,281,279,279,2200,279
2014/07/11,278,278,274,274,2100,274
2014/07/14,275,283,275,283,1700,283
2014/07/15,284,284,278,282,1500,282
2014/07/16,284,284,283,283,200,283
2014/07/17,284,284,281,281,900,281
2014/07/18,284,284,281,281,700,281
2014/07/22,281,284,281,284,3600,284
2014/07/23,281,281,278,280,2800,280
2014/07/24,283,285,283,285,1300,285
2014/07/25,286,286,282,285,1600,285
2014/07/28,290,290,281,285,5500,285
2014/07/29,281,284,280,284,2400,284
2014/07/30,284,285,280,280,3000,280
2014/07/31,284,284,284,284,2000,284
2014/08/01,281,284,281,284,1000,284
2014/08/04,284,284,281,281,1000,281
2014/08/05,281,281,278,279,2000,279
2014/08/06,281,282,276,276,4700,276
2014/08/07,277,281,272,272,5600,272
2014/08/08,275,283,275,283,700,283
2014/08/11,283,285,274,274,4700,274
2014/08/12,275,277,275,275,1100,275
2014/08/13,284,284,284,284,1200,284
2014/08/14,278,278,278,278,200,278
2014/08/15,279,284,279,284,700,284
2014/08/18,284,284,283,283,2300,283
2014/08/19,281,284,281,284,200,284
2014/08/20,284,284,279,282,1900,282
2014/08/21,283,290,283,283,4600,283
2014/08/22,288,289,283,288,3900,288
2014/08/25,289,289,280,287,4900,287
2014/08/26,288,288,283,283,2900,283
2014/08/27,287,289,284,289,3100,289
2014/08/28,289,289,285,289,1400,289
2014/08/29,285,285,285,285,500,285
2014/09/01,290,290,287,290,3300,290
2014/09/02,290,298,288,289,4200,289
2014/09/03,288,290,288,290,2200,290
2014/09/04,289,289,286,286,2700,286
2014/09/05,291,291,284,286,4700,286
2014/09/08,286,288,286,288,600,288
2014/09/09,289,290,288,290,2600,290
2014/09/10,291,292,288,289,7800,289
2014/09/11,290,291,290,291,4000,291
2014/09/12,291,293,291,293,2100,293
2014/09/16,294,297,293,294,5700,294
2014/09/17,295,297,293,296,7900,296
2014/09/18,295,295,290,295,7200,295
2014/09/19,295,295,291,293,6300,293
2014/09/22,291,295,290,292,9800,292
2014/09/24,294,296,293,296,6000,296
2014/09/25,297,300,293,300,18500,300
2014/09/26,275,283,271,275,27300,275
2014/09/29,277,282,276,282,8400,282
2014/09/30,279,279,276,277,3200,277
2014/10/01,277,280,274,278,3800,278
2014/10/02,277,277,269,271,6400,271
2014/10/03,267,275,267,271,2900,271
2014/10/06,273,273,272,272,500,272
2014/10/07,273,274,268,270,1500,270
2014/10/08,273,273,268,269,3700,269
2014/10/09,270,270,270,270,700,270
2014/10/10,268,268,266,267,4100,267
2014/10/14,262,267,262,263,7700,263
2014/10/15,267,267,263,263,2400,263
2014/10/16,263,263,260,260,5200,260
2014/10/17,259,264,257,257,2800,257
2014/10/20,261,264,261,261,1400,261
2014/10/21,264,264,257,257,6200,257
2014/10/22,263,263,258,258,5800,258
2014/10/23,259,260,258,258,3700,258
2014/10/24,262,262,258,262,6400,262
2014/10/27,262,264,262,264,2700,264
2014/10/28,265,265,260,261,1500,261
2014/10/29,265,268,260,268,5800,268
2014/10/30,261,266,261,264,2600,264
2014/10/31,265,266,261,262,1600,262
2014/11/04,268,268,266,266,4400,266
2014/11/05,268,268,263,263,3300,263
2014/11/06,264,265,263,263,1400,263
2014/11/07,263,264,261,261,6100,261
2014/11/10,264,264,263,263,900,263
2014/11/11,263,264,263,264,1700,264
2014/11/12,264,265,262,264,4200,264
2014/11/13,265,265,265,265,1700,265
2014/11/14,266,269,264,264,4700,264
2014/11/17,265,265,264,264,5600,264
2014/11/18,263,263,262,263,3600,263
2014/11/19,263,265,263,263,3700,263
2014/11/20,263,264,263,264,1100,264
2014/11/21,264,267,264,266,1500,266
2014/11/25,266,267,264,267,2300,267
2014/11/26,267,267,265,265,2800,265
2014/11/27,265,266,265,265,1600,265
2014/11/28,266,270,265,270,9600,270
2014/12/01,269,270,268,270,2900,270
2014/12/02,270,272,269,269,8000,269
2014/12/03,269,270,269,270,700,270
2014/12/04,270,270,269,270,3900,270
2014/12/05,278,350,278,335,695100,335
2014/12/08,320,326,296,320,144600,320
2014/12/09,310,312,300,305,35700,305
2014/12/10,295,296,283,295,37800,295
2014/12/11,285,295,280,289,25400,289
2014/12/12,282,284,277,280,10100,280
2014/12/15,280,285,272,276,10400,276
2014/12/16,278,280,274,275,7300,275
2014/12/17,275,275,274,275,6900,275
2014/12/18,276,278,270,278,10000,278
2014/12/19,274,285,268,268,23400,268
2014/12/22,270,275,270,272,15500,272
2014/12/24,272,274,268,274,10400,274
2014/12/25,272,272,267,271,10400,271
2014/12/26,275,275,253,269,38800,269
2014/12/29,269,271,266,271,13600,271
2014/12/30,272,274,269,272,11400,272
2015/01/05,272,273,271,272,1600,272
2015/01/06,273,274,271,273,2700,273
2015/01/07,271,273,269,272,6700,272
2015/01/08,272,272,269,272,4800,272
2015/01/09,270,273,270,270,4500,270
2015/01/13,270,270,268,268,5500,268
2015/01/14,271,271,268,271,6300,271
2015/01/15,265,269,265,266,6300,266
2015/01/16,267,270,267,269,5900,269
2015/01/19,269,269,268,269,4900,269
2015/01/20,269,269,267,267,1100,267
2015/01/21,267,268,267,267,2800,267
2015/01/22,267,270,266,269,1800,269
2015/01/23,272,273,267,273,5700,273
2015/01/26,273,273,268,269,2500,269
2015/01/27,275,275,269,273,2900,273
2015/01/28,273,280,273,280,11000,280
2015/01/29,270,280,261,267,23700,267
2015/01/30,267,269,265,266,5700,266
2015/02/02,267,269,267,269,4500,269
2015/02/03,268,268,267,267,2400,267
2015/02/04,267,269,267,269,1400,269
2015/02/05,269,269,266,268,3600,268
2015/02/06,270,270,268,268,1200,268
2015/02/09,269,273,267,269,2900,269
2015/02/10,267,267,267,267,600,267
2015/02/12,267,269,267,268,2200,268
2015/02/13,269,269,269,269,400,269
2015/02/16,270,270,270,270,900,270
2015/02/17,270,270,269,270,1700,270
2015/02/18,270,280,269,277,7700,277
2015/02/19,275,276,275,276,3200,276
2015/02/20,276,279,275,278,3700,278
2015/02/23,278,280,277,278,2700,278
2015/02/24,280,283,280,280,6200,280
2015/02/25,278,278,272,277,5600,277
2015/02/26,277,281,273,277,5400,277
2015/02/27,276,357,276,357,638200,357
2015/03/02,357,360,314,321,334500,321
2015/03/03,321,333,291,304,93800,304
2015/03/04,298,299,277,287,94500,287
2015/03/05,295,353,295,303,347400,303
2015/03/06,300,301,288,292,53900,292
2015/03/09,293,303,291,296,35000,296
2015/03/10,297,301,291,291,19000,291
2015/03/11,292,335,292,312,78500,312
2015/03/12,318,319,302,310,19300,310
2015/03/13,306,310,298,298,16700,298
2015/03/16,300,305,294,295,14100,295
2015/03/17,299,303,297,297,8300,297
2015/03/18,297,297,290,291,14500,291
2015/03/19,289,296,287,292,17000,292
2015/03/20,289,292,285,285,17100,285
2015/03/23,288,293,284,288,12700,288
2015/03/24,285,290,285,287,9800,287
2015/03/25,288,295,287,291,12100,291
2015/03/26,291,293,288,290,7700,290
2015/03/27,288,290,286,288,7300,288
2015/03/30,284,288,283,286,8700,286
2015/03/31,285,286,283,286,5300,286
2015/04/01,285,294,282,283,13300,283
2015/04/02,284,286,284,286,5100,286
2015/04/03,286,286,284,285,2400,285
2015/04/06,285,287,282,284,2900,284
2015/04/07,284,289,283,288,3700,288
2015/04/08,288,290,287,287,2100,287
2015/04/09,298,299,290,292,18600,292
2015/04/10,291,293,290,290,3000,290
2015/04/13,290,292,288,292,3000,292
2015/04/14,292,293,290,291,4500,291
2015/04/15,292,293,291,293,2300,293
2015/04/16,293,293,289,292,5800,292
2015/04/17,292,292,288,288,3900,288
2015/04/20,288,290,283,284,13000,284
2015/04/21,285,289,285,285,3600,285
2015/04/22,286,288,286,286,3500,286
2015/04/23,285,288,285,285,4200,285
2015/04/24,288,288,284,284,4400,284
2015/04/27,285,286,284,284,2700,284
2015/04/28,284,287,284,287,8000,287
2015/04/30,285,287,282,283,3800,283
2015/05/01,282,283,282,282,5200,282
2015/05/07,293,295,283,286,19500,286
2015/05/08,288,288,285,286,2900,286
2015/05/11,286,289,286,289,4400,289
2015/05/12,285,285,283,283,8700,283
2015/05/13,283,285,282,283,2700,283
2015/05/14,285,289,285,285,3400,285
2015/05/15,288,288,284,284,3400,284
2015/05/18,286,292,283,292,7100,292
2015/05/19,290,290,287,289,2900,289
2015/05/20,288,289,287,289,900,289
2015/05/21,288,291,287,287,2600,287
2015/05/22,291,292,285,290,5100,290
2015/05/25,291,292,289,289,5400,289
2015/05/26,297,346,291,293,270600,293
2015/05/27,298,300,293,296,23000,296
2015/05/28,295,298,291,297,21200,297
2015/05/29,305,305,294,296,18200,296
2015/06/01,298,298,293,296,11400,296
2015/06/02,295,299,294,299,7300,299
2015/06/03,297,298,293,297,8600,297
2015/06/04,297,299,297,297,2800,297
2015/06/05,297,298,295,296,2300,296
2015/06/08,296,299,294,295,4700,295
2015/06/09,299,301,298,298,9400,298
2015/06/10,299,303,297,301,7500,301
2015/06/11,303,304,300,303,3900,303
2015/06/12,303,303,298,300,8300,300
2015/06/15,301,312,300,308,12600,308
2015/06/16,305,311,305,308,10900,308
2015/06/17,305,310,302,303,8000,303
2015/06/18,303,309,301,304,15200,304
2015/06/19,304,304,302,303,3000,303
2015/06/22,303,305,303,305,10300,305
2015/06/23,307,309,306,308,6000,308
2015/06/24,315,316,308,314,11900,314
2015/06/25,308,315,308,314,9300,314
2015/06/26,314,315,307,310,8700,310
2015/06/29,305,305,295,298,20400,298
2015/06/30,298,302,298,302,2500,302
2015/07/01,304,308,302,306,4600,306
2015/07/02,307,309,304,309,2700,309
2015/07/03,308,308,306,307,3400,307
2015/07/06,303,305,295,300,8300,300
2015/07/07,301,306,301,305,1800,305
2015/07/08,303,303,292,292,10400,292
2015/07/09,290,290,286,290,20700,290
2015/07/10,292,292,280,283,25400,283
2015/07/13,287,289,285,289,2200,289
2015/07/14,290,294,290,294,3000,294
2015/07/15,297,298,293,297,2900,297
2015/07/16,297,297,290,292,13000,292
2015/07/17,291,294,291,294,1200,294
2015/07/21,294,298,294,296,9900,296
2015/07/22,297,298,295,298,3800,298
2015/07/23,298,302,298,301,5500,301
2015/07/24,301,308,298,302,10600,302
2015/07/27,307,309,306,308,5400,308
2015/07/28,309,310,302,308,4800,308
2015/07/29,310,310,302,308,5700,308
2015/07/30,308,310,305,305,2600,305
2015/07/31,305,305,302,303,1900,303
2015/08/03,300,303,300,301,2600,301
2015/08/04,301,302,301,301,2400,301
2015/08/05,300,300,299,299,400,299
2015/08/06,299,300,299,299,2700,299
2015/08/07,298,298,296,297,3700,297
2015/08/10,296,300,296,297,3800,297
2015/08/11,297,299,297,297,1500,297
2015/08/12,297,300,297,297,2800,297
2015/08/13,297,297,295,295,1500,295
2015/08/14,300,300,294,294,1500,294
2015/08/17,298,298,293,293,4700,293
2015/08/18,296,300,295,300,3500,300
2015/08/19,299,304,296,300,10800,300
2015/08/20,298,300,296,297,5600,297
2015/08/21,297,297,293,293,7800,293
2015/08/24,277,288,267,267,42400,267
2015/08/25,261,282,258,272,23200,272
2015/08/26,282,282,273,273,4300,273
2015/08/27,276,286,276,283,1500,283
2015/08/28,285,291,285,290,1600,290
2015/08/31,294,294,287,287,2300,287
2015/09/01,297,297,290,294,2000,294
2015/09/02,291,291,289,291,1100,291
2015/09/03,291,292,290,290,1600,290
2015/09/04,290,290,283,283,6400,283
2015/09/07,288,290,287,290,2900,290
2015/09/08,287,288,282,282,3700,282
2015/09/09,287,287,280,280,7600,280
2015/09/10,280,280,274,274,6300,274
2015/09/11,276,285,276,281,3700,281
2015/09/14,281,284,277,277,5300,277
2015/09/15,279,280,274,275,6300,275
2015/09/16,276,277,276,277,3100,277
2015/09/17,279,279,277,279,4800,279
2015/09/18,280,285,280,285,5000,285
2015/09/24,293,310,287,291,15000,291
2015/09/25,295,307,295,305,13800,305
2015/09/28,280,286,280,280,17300,280
2015/09/29,281,283,274,274,7800,274
2015/09/30,273,277,270,271,4100,271
2015/10/01,271,286,271,276,6700,276
2015/10/02,278,278,274,276,1800,276
2015/10/05,274,276,274,276,2700,276
2015/10/06,276,279,273,274,3500,274
2015/10/07,277,277,273,277,4600,277
2015/10/08,275,280,275,280,2800,280
2015/10/09,278,278,276,276,1000,276
2015/10/13,280,285,280,284,4000,284
2015/10/14,284,284,279,279,3600,279
2015/10/15,279,279,279,279,200,279
