2010/03/10,212,213,212,212,5000,212
2010/03/11,213,213,206,212,9000,212
2010/03/12,220,249,220,237,31000,237
2010/03/15,236,236,222,227,16000,227
2010/03/16,227,230,226,227,6000,227
2010/03/17,230,230,230,230,4000,230
2010/03/18,236,236,231,231,6000,231
2010/03/19,234,234,229,229,4000,229
2010/03/23,221,221,221,221,1000,221
2010/03/24,220,220,216,220,10000,220
2010/03/25,220,220,216,216,6000,216
2010/03/26,217,217,216,216,7000,216
2010/03/29,216,217,215,216,7000,216
2010/03/30,220,220,220,220,2000,220
2010/03/31,219,219,218,218,6000,218
2010/04/01,219,220,219,220,6000,220
2010/04/02,220,220,220,220,6000,220
2010/04/05,216,216,211,214,9000,214
2010/04/06,219,225,219,225,22000,225
2010/04/07,230,231,225,227,5000,227
2010/04/08,227,231,227,230,5000,230
2010/04/09,238,238,238,238,2000,238
2010/04/12,238,238,230,230,7000,230
2010/04/13,231,231,230,230,4000,230
2010/04/14,232,232,230,230,11000,230
2010/04/15,231,231,230,230,4000,230
2010/04/16,231,231,231,231,6000,231
2010/04/19,233,233,231,231,7000,231
2010/04/21,236,239,236,239,8000,239
2010/04/22,235,235,235,235,5000,235
2010/04/23,240,242,240,242,8000,242
2010/04/26,245,247,245,247,7000,247
2010/04/28,245,245,245,245,4000,245
2010/04/30,247,247,240,240,6000,240
2010/05/07,232,234,210,215,16000,215
2010/05/10,216,218,216,218,2000,218
2010/05/11,221,221,221,221,2000,221
2010/05/13,220,220,220,220,1000,220
2010/05/17,220,220,215,215,2000,215
2010/05/18,207,207,207,207,1000,207
2010/05/19,214,214,214,214,1000,214
2010/05/21,208,210,208,210,2000,210
2010/05/25,218,218,218,218,1000,218
2010/05/26,218,218,203,210,4000,210
2010/05/27,204,204,204,204,3000,204
2010/05/28,218,218,218,218,1000,218
2010/05/31,218,218,213,213,5000,213
2010/06/01,212,212,212,212,3000,212
2010/06/09,213,222,213,222,3000,222
2010/06/11,222,230,222,225,8000,225
2010/06/14,217,224,215,215,9000,215
2010/06/15,216,217,215,216,5000,216
2010/06/16,215,215,215,215,2000,215
2010/06/17,212,220,212,220,2000,220
2010/06/18,219,219,219,219,1000,219
2010/06/21,220,220,220,220,1000,220
2010/06/22,218,218,215,215,2000,215
2010/06/24,207,207,207,207,1000,207
2010/06/28,207,207,207,207,4000,207
2010/06/30,197,197,197,197,4000,197
2010/07/01,199,208,199,205,8000,205
2010/07/02,210,210,210,210,1000,210
2010/07/06,202,202,202,202,1000,202
2010/07/07,204,205,202,205,34000,205
2010/07/08,207,210,207,210,4000,210
2010/07/09,204,204,201,201,10000,201
2010/07/12,201,201,201,201,11000,201
2010/07/13,201,204,200,200,3000,200
2010/07/14,200,200,200,200,1000,200
2010/07/15,203,204,203,204,2000,204
2010/07/16,201,201,201,201,4000,201
2010/07/22,195,195,190,190,6000,190
2010/07/26,200,208,195,195,7000,195
2010/07/28,197,200,197,200,2000,200
2010/07/29,208,208,201,201,4000,201
2010/07/30,201,201,201,201,2000,201
2010/08/02,208,208,208,208,4000,208
2010/08/10,216,216,216,216,2000,216
2010/08/11,206,206,205,205,5000,205
2010/08/16,203,203,203,203,1000,203
2010/08/20,190,190,190,190,1000,190
2010/08/23,192,192,192,192,1000,192
2010/08/24,195,195,195,195,2000,195
2010/08/27,195,204,195,204,10000,204
2010/08/30,204,204,204,204,20000,204
2010/08/31,204,204,204,204,2000,204
2010/09/01,197,197,197,197,1000,197
2010/09/03,197,197,197,197,1000,197
2010/09/09,195,195,195,195,4000,195
2010/09/10,195,204,195,204,4000,204
2010/09/13,191,194,191,194,6000,194
2010/09/14,195,195,195,195,2000,195
2010/09/17,190,190,190,190,4000,190
2010/09/21,190,191,185,191,5000,191
2010/09/22,191,191,191,191,1000,191
2010/09/24,190,196,190,196,4000,196
2010/09/28,195,195,195,195,4000,195
2010/09/30,185,190,185,190,4000,190
2010/10/01,190,190,190,190,1000,190
2010/10/07,188,188,188,188,1000,188
2010/10/14,183,183,183,183,2000,183
2010/10/15,179,179,179,179,1000,179
2010/10/22,174,174,170,170,3000,170
2010/10/25,170,180,170,180,6000,180
2010/10/26,175,180,175,180,9000,180
2010/10/27,178,180,178,180,4000,180
2010/10/28,180,180,175,175,6000,175
2010/10/29,175,175,175,175,2000,175
2010/11/01,175,175,175,175,1000,175
2010/11/04,170,170,170,170,2000,170
2010/11/05,171,180,171,180,4000,180
2010/11/10,180,180,175,175,5000,175
2010/11/11,176,176,172,175,8000,175
2010/11/16,173,173,173,173,1000,173
2010/11/18,170,170,169,169,3000,169
2010/11/19,170,184,170,184,13000,184
2010/11/22,178,178,176,176,4000,176
2010/11/24,178,178,175,175,3000,175
2010/11/25,177,177,171,176,5000,176
2010/11/26,176,179,176,179,12000,179
2010/11/29,175,175,175,175,5000,175
2010/11/30,174,174,174,174,4000,174
2010/12/01,174,174,174,174,6000,174
2010/12/02,176,185,176,185,10000,185
2010/12/03,178,179,178,179,10000,179
2010/12/06,184,188,181,182,41000,182
2010/12/07,186,187,183,187,18000,187
2010/12/08,186,187,186,187,7000,187
2010/12/09,184,184,184,184,2000,184
2010/12/10,185,185,184,184,3000,184
2010/12/13,185,188,185,188,19000,188
2010/12/14,188,189,188,189,17000,189
2010/12/15,187,189,187,188,7000,188
2010/12/16,185,188,185,188,10000,188
2010/12/17,188,188,185,185,12000,185
2010/12/20,186,187,186,187,18000,187
2010/12/21,186,187,184,185,13000,185
2010/12/22,183,185,180,180,16000,180
2010/12/24,180,181,178,180,11000,180
2010/12/27,180,181,178,178,4000,178
2010/12/28,181,181,181,181,1000,181
2010/12/29,183,185,183,185,2000,185
2010/12/30,185,185,185,185,5000,185
2011/01/04,188,188,188,188,1000,188
2011/01/05,190,190,190,190,1000,190
2011/01/06,190,193,190,193,11000,193
2011/01/07,188,193,188,193,3000,193
2011/01/11,193,209,193,209,8000,209
2011/01/12,205,205,197,205,10000,205
2011/01/13,205,208,205,208,5000,208
2011/01/14,200,200,200,200,1000,200
2011/01/17,200,200,200,200,3000,200
2011/01/18,197,200,197,200,3000,200
2011/01/19,210,210,205,205,8000,205
2011/01/20,205,205,205,205,1000,205
2011/01/21,203,203,195,195,6000,195
2011/01/24,196,196,189,189,3000,189
2011/01/25,199,199,198,198,3000,198
2011/01/27,199,205,199,205,7000,205
2011/01/28,205,205,205,205,4000,205
2011/02/01,206,206,206,206,2000,206
2011/02/03,206,210,200,205,8000,205
2011/02/04,201,201,201,201,1000,201
2011/02/07,201,201,200,200,2000,200
2011/02/08,203,205,203,203,11000,203
2011/02/09,202,202,201,201,4000,201
2011/02/14,206,206,206,206,2000,206
2011/02/15,202,202,202,202,1000,202
2011/02/16,202,210,202,210,3000,210
2011/02/17,204,204,204,204,5000,204
2011/02/21,204,212,204,212,5000,212
2011/02/22,207,207,206,206,2000,206
2011/02/23,203,203,200,200,9000,200
2011/02/24,199,199,199,199,1000,199
2011/02/25,200,200,195,200,18000,200
2011/02/28,199,199,195,199,17000,199
2011/03/01,200,202,200,201,11000,201
2011/03/02,200,200,199,200,6000,200
2011/03/03,201,201,201,201,2000,201
2011/03/04,201,202,201,202,4000,202
2011/03/07,204,204,200,203,7000,203
2011/03/08,200,200,200,200,6000,200
2011/03/09,200,203,200,203,15000,203
2011/03/10,204,204,203,203,11000,203
2011/03/11,202,204,202,204,8000,204
2011/03/14,181,190,156,172,69000,172
2011/03/15,169,169,149,150,27000,150
2011/03/16,165,168,151,160,8000,160
2011/03/17,165,175,162,162,6000,162
2011/03/18,172,174,170,173,12000,173
2011/03/22,184,190,181,190,28000,190
2011/03/23,193,194,190,194,17000,194
2011/03/24,199,213,197,213,40000,213
2011/03/25,217,230,217,230,35000,230
2011/03/28,235,245,235,245,16000,245
2011/03/29,246,246,238,240,15000,240
2011/03/30,246,246,237,238,18000,238
2011/03/31,238,240,238,240,22000,240
2011/04/01,239,239,238,238,3000,238
2011/04/04,232,232,220,220,7000,220
2011/04/05,223,224,223,223,6000,223
2011/04/06,223,223,217,217,8000,217
2011/04/08,217,217,217,217,1000,217
2011/04/11,221,221,221,221,1000,221
2011/04/12,220,236,220,231,9000,231
2011/04/13,237,239,231,239,16000,239
2011/04/14,246,259,242,259,35000,259
2011/04/15,251,251,245,245,7000,245
2011/04/18,241,249,237,249,5000,249
2011/04/19,250,262,250,260,21000,260
2011/04/20,261,265,261,264,5000,264
2011/04/21,264,267,251,260,12000,260
2011/04/22,269,269,269,269,6000,269
2011/04/25,265,270,265,270,4000,270
2011/04/26,260,260,252,259,19000,259
2011/04/27,259,259,250,250,4000,250
2011/04/28,250,250,240,246,8000,246
2011/05/02,242,242,242,242,1000,242
2011/05/06,230,238,230,238,2000,238
2011/05/10,249,250,242,242,3000,242
2011/05/11,244,248,243,248,3000,248
2011/05/13,243,243,240,240,5000,240
2011/05/16,237,237,237,237,1000,237
2011/05/18,233,237,232,233,8000,233
2011/05/19,230,232,230,232,2000,232
2011/05/20,233,233,233,233,1000,233
2011/05/23,230,236,230,236,3000,236
2011/05/24,234,234,234,234,1000,234
2011/05/25,234,234,234,234,2000,234
2011/05/26,226,229,222,229,5000,229
2011/05/27,229,230,229,230,2000,230
2011/05/30,230,230,225,225,8000,225
2011/06/01,218,218,218,218,1000,218
2011/06/02,220,220,220,220,1000,220
2011/06/03,228,232,228,232,4000,232
2011/06/06,230,230,226,230,7000,230
2011/06/07,230,230,230,230,1000,230
2011/06/09,217,222,217,222,4000,222
2011/06/10,230,234,230,234,5000,234
2011/06/13,242,245,238,242,5000,242
2011/06/14,242,242,242,242,6000,242
2011/06/15,240,240,233,233,3000,233
2011/06/16,231,233,231,233,13000,233
2011/06/17,230,233,230,233,2000,233
2011/06/20,230,231,230,231,2000,231
2011/06/21,233,234,233,234,4000,234
2011/06/22,233,233,231,231,8000,231
2011/06/23,232,232,231,231,3000,231
2011/06/24,231,231,231,231,1000,231
2011/06/27,231,231,231,231,3000,231
2011/06/28,231,232,231,231,5000,231
2011/06/29,231,234,231,234,4000,234
2011/07/01,237,237,237,237,2000,237
2011/07/04,237,238,237,238,2000,238
2011/07/05,236,236,236,236,1000,236
2011/07/06,236,236,236,236,2000,236
2011/07/07,234,236,234,236,2000,236
2011/07/08,236,236,234,235,6000,235
2011/07/11,235,237,235,237,5000,237
2011/07/12,237,238,237,238,2000,238
2011/07/13,238,246,238,246,8000,246
2011/07/14,278,278,240,246,27000,246
2011/07/15,249,249,249,249,1000,249
2011/07/19,246,246,246,246,1000,246
2011/07/20,252,252,252,252,2000,252
2011/07/21,252,252,252,252,3000,252
2011/07/22,253,253,252,252,4000,252
2011/07/25,250,258,249,258,8000,258
2011/07/26,260,261,260,261,4000,261
2011/07/27,261,261,250,260,9000,260
2011/07/28,260,260,258,259,6000,259
2011/08/01,260,260,260,260,1000,260
2011/08/02,253,255,253,255,3000,255
2011/08/03,248,250,246,246,9000,246
2011/08/04,258,259,258,259,6000,259
2011/08/05,238,240,238,240,4000,240
2011/08/08,235,235,220,225,16000,225
2011/08/09,220,222,220,222,6000,222
2011/08/10,230,230,230,230,2000,230
2011/08/11,238,238,238,238,1000,238
2011/08/12,238,246,238,246,2000,246
2011/08/15,246,246,246,246,1000,246
2011/08/25,234,234,234,234,1000,234
2011/08/26,237,251,237,250,11000,250
2011/08/29,250,255,250,255,18000,255
2011/08/30,255,255,255,255,19000,255
2011/09/01,239,239,239,239,2000,239
2011/09/02,239,239,239,239,1000,239
2011/09/06,240,240,240,240,1000,240
2011/09/08,232,238,230,238,3000,238
2011/09/09,238,238,238,238,3000,238
2011/09/12,230,233,225,233,4000,233
2011/09/13,225,225,225,225,2000,225
2011/09/20,225,225,225,225,1000,225
2011/09/27,230,234,230,234,2000,234
2011/09/28,234,234,234,234,4000,234
2011/09/29,226,235,226,235,5000,235
2011/09/30,230,230,230,230,6000,230
2011/10/05,225,225,225,225,1000,225
2011/10/07,245,245,245,245,1000,245
2011/10/13,226,226,225,225,5000,225
2011/10/14,225,225,225,225,3000,225
2011/10/17,233,233,233,233,2000,233
2011/10/18,233,233,230,230,5000,230
2011/10/20,225,225,225,225,1000,225
2011/10/28,225,231,225,231,6000,231
2011/11/01,226,234,226,234,2000,234
2011/11/02,234,234,234,234,1000,234
2011/11/07,226,226,226,226,1000,226
2011/11/08,220,221,220,221,6000,221
2011/11/09,220,220,210,218,9000,218
2011/11/21,210,213,205,213,6000,213
2011/11/28,213,222,213,222,8000,222
2011/11/29,228,230,225,225,3000,225
2011/11/30,227,245,226,245,3000,245
2011/12/01,250,250,250,250,1000,250
2011/12/02,245,245,245,245,1000,245
2011/12/05,242,242,242,242,1000,242
2011/12/06,235,235,235,235,3000,235
2011/12/08,227,234,227,234,2000,234
2011/12/12,235,235,235,235,2000,235
2011/12/13,236,245,236,245,6000,245
2011/12/14,245,250,245,250,12000,250
2011/12/15,234,238,234,236,5000,236
2011/12/16,235,249,235,249,6000,249
2011/12/21,236,236,236,236,3000,236
2011/12/22,240,240,240,240,1000,240
2011/12/28,240,240,240,240,4000,240
2011/12/29,240,240,240,240,2000,240
2012/01/04,246,246,246,246,1000,246
2012/01/05,240,240,240,240,2000,240
2012/01/06,240,240,240,240,3000,240
2012/01/11,240,246,239,244,14000,244
2012/01/13,236,236,236,236,1000,236
2012/01/16,239,239,239,239,1000,239
2012/01/18,239,242,239,242,2000,242
2012/01/20,245,245,245,245,10000,245
2012/01/23,245,245,245,245,5000,245
2012/01/25,245,245,245,245,2000,245
2012/01/26,237,245,237,245,3000,245
2012/01/27,245,257,245,253,8000,253
2012/01/30,256,265,255,255,16000,255
2012/01/31,257,259,255,255,5000,255
2012/02/01,255,265,253,259,20000,259
2012/02/02,260,268,259,261,23000,261
2012/02/07,258,258,258,258,5000,258
2012/02/09,259,259,258,258,2000,258
2012/02/10,260,266,260,266,13000,266
2012/02/13,266,291,266,285,29000,285
2012/02/14,286,293,286,291,4000,291
2012/02/15,280,280,276,280,11000,280
2012/02/20,280,280,274,274,12000,274
2012/02/21,280,280,280,280,3000,280
2012/02/23,280,288,280,288,18000,288
2012/02/24,282,287,282,287,5000,287
2012/02/27,282,287,281,287,11000,287
2012/02/28,290,291,287,290,17000,290
2012/02/29,291,305,290,305,6000,305
2012/03/01,309,310,301,308,12000,308
2012/03/02,304,308,303,303,12000,303
2012/03/05,300,305,300,305,6000,305
2012/03/06,303,306,303,306,2000,306
2012/03/07,301,306,301,306,18000,306
2012/03/08,310,312,303,312,11000,312
2012/03/09,317,321,315,321,12000,321
2012/03/12,315,315,300,310,17000,310
2012/03/13,305,307,305,307,6000,307
2012/03/14,308,330,308,326,8000,326
2012/03/15,325,325,301,305,12000,305
2012/03/16,310,327,310,327,17000,327
2012/03/19,325,325,314,317,10000,317
2012/03/21,311,318,310,312,10000,312
2012/03/22,305,308,301,308,6000,308
2012/03/23,307,307,307,307,1000,307
2012/03/26,304,305,300,305,14000,305
2012/03/27,301,306,301,306,2000,306
2012/03/28,306,313,306,308,6000,308
2012/03/29,308,308,308,308,1000,308
2012/03/30,305,310,305,310,3000,310
2012/04/02,311,312,310,310,7000,310
2012/04/03,308,308,300,302,14000,302
2012/04/04,300,300,296,296,3000,296
2012/04/05,287,307,287,307,11000,307
2012/04/09,299,300,299,300,2000,300
2012/04/10,298,302,297,298,9000,298
2012/04/11,296,296,288,288,7000,288
2012/04/12,289,289,289,289,1000,289
2012/04/13,290,290,288,288,4000,288
2012/04/17,296,296,296,296,1000,296
2012/04/18,300,302,300,302,4000,302
2012/04/19,300,307,300,307,2000,307
2012/04/20,303,312,303,312,3000,312
2012/04/23,318,320,318,320,5000,320
2012/04/24,312,312,305,312,11000,312
2012/04/25,306,309,298,309,6000,309
2012/04/27,309,309,309,309,5000,309
2012/05/01,302,302,301,301,2000,301
2012/05/07,297,297,295,295,5000,295
2012/05/08,291,292,280,292,6000,292
2012/05/14,280,290,280,290,3000,290
2012/05/15,268,268,248,255,23000,255
2012/05/17,246,254,245,254,4000,254
2012/05/22,262,262,262,262,1000,262
2012/05/23,251,267,251,254,5000,254
2012/05/28,262,262,262,262,3000,262
2012/05/29,262,262,262,262,1000,262
2012/05/31,254,254,249,249,2000,249
2012/06/01,246,246,246,246,2000,246
2012/06/06,231,231,217,217,2000,217
2012/06/08,221,221,215,215,6000,215
2012/06/11,229,230,229,230,5000,230
2012/06/13,216,220,216,220,5000,220
2012/06/14,217,217,216,216,2000,216
2012/06/15,210,210,205,205,6000,205
2012/06/18,205,205,199,205,5000,205
2012/06/19,211,211,211,211,1000,211
2012/06/20,206,215,206,215,5000,215
2012/06/21,210,218,210,218,10000,218
2012/06/22,219,219,211,211,4000,211
2012/06/26,212,212,212,212,1000,212
2012/06/27,218,218,218,218,1000,218
2012/06/28,225,225,225,225,3000,225
2012/06/29,225,226,225,226,4000,226
2012/07/03,226,226,225,225,3000,225
2012/07/04,227,230,225,225,5000,225
2012/07/06,221,221,221,221,2000,221
2012/07/09,219,219,219,219,1000,219
2012/07/10,218,218,210,215,3000,215
2012/07/11,215,215,215,215,5000,215
2012/07/12,221,221,221,221,1000,221
2012/07/13,221,221,221,221,4000,221
2012/07/17,219,219,219,219,1000,219
2012/07/18,221,221,221,221,3000,221
2012/07/19,220,220,220,220,1000,220
2012/07/23,210,210,210,210,1000,210
2012/07/24,218,218,218,218,1000,218
2012/07/25,205,205,205,205,1000,205
2012/07/26,205,205,205,205,3000,205
2012/07/27,206,206,206,206,1000,206
2012/07/30,209,209,208,208,2000,208
2012/07/31,208,208,208,208,1000,208
2012/08/01,216,216,211,211,4000,211
2012/08/06,208,208,207,207,2000,207
2012/08/07,210,210,210,210,2000,210
2012/08/08,210,210,210,210,3000,210
2012/08/09,212,218,212,217,3000,217
2012/08/10,213,213,213,213,1000,213
2012/08/13,213,213,213,213,1000,213
2012/08/15,213,213,213,213,1000,213
2012/08/16,217,217,217,217,3000,217
2012/08/17,217,217,217,217,1000,217
2012/08/20,220,220,220,220,2000,220
2012/08/22,220,220,220,220,1000,220
2012/08/23,224,235,224,235,8000,235
2012/08/24,235,235,233,235,6000,235
2012/08/27,235,237,231,237,10000,237
2012/08/28,237,238,230,230,48000,230
2012/08/29,230,230,230,230,1000,230
2012/08/30,220,220,220,220,1000,220
2012/09/03,206,206,206,206,1000,206
2012/09/04,211,228,210,228,16000,228
2012/09/05,227,227,214,214,7000,214
2012/09/10,212,212,212,212,1000,212
2012/09/14,213,216,213,216,2000,216
2012/09/18,214,214,212,212,5000,212
2012/09/19,214,214,214,214,1000,214
2012/09/20,215,215,215,215,5000,215
2012/09/24,211,211,205,205,2000,205
2012/09/25,205,205,192,197,9000,197
2012/09/28,197,197,195,195,10000,195
2012/10/01,195,198,195,198,2000,198
2012/10/02,197,197,197,197,1000,197
2012/10/03,196,196,195,195,6000,195
2012/10/04,197,198,197,198,4000,198
2012/10/05,197,200,197,200,3000,200
2012/10/09,198,198,198,198,1000,198
2012/10/11,197,197,196,196,2000,196
2012/10/12,195,195,195,195,5000,195
2012/10/15,196,196,195,195,6000,195
2012/10/18,193,200,193,200,4000,200
2012/10/19,199,199,199,199,1000,199
2012/10/23,189,194,189,194,3000,194
2012/10/24,203,203,203,203,2000,203
2012/10/26,203,203,195,196,12000,196
2012/11/01,199,200,199,200,2000,200
2012/11/08,193,193,193,193,5000,193
2012/11/13,203,203,203,203,1000,203
2012/11/14,196,196,195,195,4000,195
2012/11/16,195,195,195,195,3000,195
2012/11/19,200,200,200,200,1000,200
2012/11/20,197,197,197,197,1000,197
2012/11/21,198,198,198,198,2000,198
2012/11/22,203,203,203,203,4000,203
2012/11/26,209,209,207,207,4000,207
2012/11/27,215,215,215,215,1000,215
2012/11/28,216,227,216,226,8000,226
2012/11/29,240,244,227,240,35000,240
2012/11/30,239,239,227,236,10000,236
2012/12/03,229,247,229,247,4000,247
2012/12/04,247,247,227,227,7000,227
2012/12/06,225,229,225,229,4000,229
2012/12/07,229,229,223,223,17000,223
2012/12/10,238,238,238,238,1000,238
2012/12/11,239,240,238,238,13000,238
2012/12/12,226,229,226,229,3000,229
2012/12/13,240,244,238,244,11000,244
2012/12/14,240,240,240,240,7000,240
2012/12/17,236,236,236,236,1000,236
2012/12/18,238,238,235,235,6000,235
2012/12/19,240,240,234,234,5000,234
2012/12/20,227,227,226,227,7000,227
2012/12/21,227,227,226,226,4000,226
2012/12/25,227,227,225,225,13000,225
2012/12/26,226,226,226,226,1000,226
2012/12/27,228,255,228,255,10000,255
2012/12/28,260,260,255,260,19000,260
2013/01/04,244,245,244,245,4000,245
2013/01/07,246,249,245,249,4000,249
2013/01/08,249,249,245,245,2000,245
2013/01/09,238,238,238,238,2000,238
2013/01/10,241,241,241,241,2000,241
2013/01/11,248,258,248,258,4000,258
2013/01/15,257,258,250,250,4000,250
2013/01/16,250,250,245,245,6000,245
2013/01/17,237,239,233,237,7000,237
2013/01/18,237,237,237,237,1000,237
2013/01/21,245,245,244,244,4000,244
2013/01/22,244,244,243,243,2000,243
2013/01/23,238,238,238,238,2000,238
2013/01/24,237,238,237,238,2000,238
2013/01/25,241,241,241,241,5000,241
2013/01/28,241,253,241,253,7000,253
2013/01/29,253,253,241,241,19000,241
2013/01/30,243,243,241,241,6000,241
2013/01/31,242,242,235,237,12000,237
2013/02/01,241,241,233,234,7000,234
2013/02/04,244,244,243,243,4000,243
2013/02/05,249,250,245,245,12000,245
2013/02/06,240,244,240,244,11000,244
2013/02/07,248,248,242,246,8000,246
2013/02/08,244,244,243,243,7000,243
2013/02/12,244,246,244,244,16000,244
2013/02/13,242,242,242,242,13000,242
2013/02/14,245,245,239,239,16000,239
2013/02/15,237,239,231,231,23000,231
2013/02/18,233,233,233,233,1000,233
2013/02/19,241,265,241,265,2000,265
2013/02/20,251,256,251,256,18000,256
2013/02/21,252,256,252,252,7000,252
2013/02/22,250,253,250,253,3000,253
2013/02/25,254,258,254,258,3000,258
2013/02/26,259,263,259,260,7000,260
2013/02/27,261,261,258,258,4000,258
2013/02/28,258,258,255,255,6000,255
2013/03/01,252,256,251,251,8000,251
2013/03/04,269,269,269,269,6000,269
2013/03/05,269,280,263,280,22000,280
2013/03/06,280,288,280,284,22000,284
2013/03/07,281,281,261,266,31000,266
2013/03/08,263,269,263,269,15000,269
2013/03/11,266,273,266,273,13000,273
2013/03/12,270,273,265,265,9000,265
2013/03/13,265,265,265,265,2000,265
2013/03/14,267,267,267,267,2000,267
2013/03/15,265,265,257,260,15000,260
2013/03/18,265,279,261,261,14000,261
2013/03/19,263,265,262,262,7000,262
2013/03/21,262,268,262,268,10000,268
2013/03/22,272,272,267,270,8000,270
2013/03/25,271,273,271,273,4000,273
2013/03/26,275,279,275,279,5000,279
2013/03/27,281,299,280,291,19000,291
2013/03/28,291,291,280,288,17000,288
2013/03/29,288,288,288,288,2000,288
2013/04/01,285,285,275,275,6000,275
2013/04/02,262,266,262,266,5000,266
2013/04/04,269,269,254,264,38000,264
2013/04/05,273,273,256,261,15000,261
2013/04/08,265,286,265,272,11000,272
2013/04/09,275,277,273,273,9000,273
2013/04/10,273,273,273,273,5000,273
2013/04/11,275,283,275,278,13000,278
2013/04/12,277,284,277,284,10000,284
2013/04/15,284,288,280,288,11000,288
2013/04/16,288,288,280,285,5000,285
2013/04/17,280,288,280,285,17000,285
2013/04/18,287,287,279,284,8000,284
2013/04/19,281,285,281,285,2000,285
2013/04/22,288,288,285,285,11000,285
2013/04/23,284,288,283,285,15000,285
2013/04/24,287,287,282,283,8000,283
2013/04/25,279,283,278,280,20000,280
2013/04/26,280,280,280,280,8000,280
2013/04/30,276,276,269,269,12000,269
2013/05/01,270,275,268,268,8000,268
2013/05/02,270,270,270,270,4000,270
2013/05/07,274,274,270,270,11000,270
2013/05/08,275,279,275,279,5000,279
2013/05/09,279,279,275,275,5000,275
2013/05/10,272,272,270,272,12000,272
2013/05/13,278,280,278,278,7000,278
2013/05/14,280,280,274,279,9000,279
2013/05/16,274,274,265,274,5000,274
2013/05/17,276,276,275,275,2000,275
2013/05/20,277,279,277,278,10000,278
2013/05/21,278,285,278,280,24000,280
2013/05/22,281,288,281,283,30000,283
2013/05/23,281,281,279,279,3000,279
2013/05/24,272,275,270,270,12000,270
2013/05/27,266,266,260,260,8000,260
2013/05/28,260,265,260,265,2000,265
2013/05/29,270,270,267,267,6000,267
2013/05/30,267,267,265,265,6000,265
2013/06/03,265,265,265,265,4000,265
2013/06/04,267,267,266,266,5000,266
2013/06/06,260,260,253,253,4000,253
2013/06/07,253,254,217,217,12000,217
2013/06/10,232,256,231,256,5000,256
2013/06/11,256,270,256,270,8000,270
2013/06/12,277,293,261,293,23000,293
2013/06/13,299,299,268,285,62000,285
2013/06/14,289,289,283,283,3000,283
2013/06/21,260,260,250,250,15000,250
2013/06/24,259,259,251,258,28000,258
2013/06/25,257,257,240,240,22000,240
2013/06/26,255,255,249,249,5000,249
2013/06/27,247,247,247,247,1000,247
2013/06/28,247,248,247,248,7000,248
2013/07/01,250,264,249,249,10000,249
2013/07/02,252,255,252,254,7000,254
2013/07/03,251,251,251,251,1000,251
2013/07/05,254,261,254,261,5000,261
2013/07/08,260,260,260,260,1000,260
2013/07/09,256,256,255,255,3000,255
2013/07/10,259,259,258,259,8000,259
2013/07/11,259,259,259,259,4000,259
2013/07/12,264,265,260,260,3000,260
2013/07/16,268,270,268,269,7000,269
2013/07/17,273,278,273,278,9000,278
2013/07/18,278,278,272,274,10000,274
2013/07/19,272,272,265,265,11000,265
2013/07/23,264,264,264,264,5000,264
2013/07/24,272,272,264,264,2000,264
2013/07/25,256,260,256,260,8000,260
2013/07/26,261,272,261,272,14000,272
2013/07/29,273,273,262,262,28000,262
2013/07/30,270,270,270,270,1000,270
2013/07/31,274,274,274,274,2000,274
2013/08/01,270,275,270,275,2000,275
2013/08/05,264,264,262,262,8000,262
2013/08/06,270,270,265,265,7000,265
2013/08/07,257,265,257,265,3000,265
2013/08/12,264,264,255,255,11000,255
2013/08/14,260,260,260,260,6000,260
2013/08/16,260,260,260,260,2000,260
2013/08/19,260,260,260,260,6000,260
2013/08/22,260,261,260,261,3000,261
2013/08/23,262,270,262,270,3000,270
2013/08/26,277,278,277,278,5000,278
2013/08/27,272,272,272,272,1000,272
2013/08/28,274,280,274,280,18000,280
2013/08/29,282,284,280,283,21000,283
2013/08/30,283,283,283,283,14000,283
2013/09/02,297,300,272,278,23000,278
2013/09/03,270,270,270,270,1000,270
2013/09/05,281,281,281,281,3000,281
2013/09/06,297,298,275,275,7000,275
2013/09/09,291,297,291,297,3000,297
2013/09/10,296,314,296,306,27000,306
2013/09/11,314,333,310,333,40000,333
2013/09/12,285,296,280,294,97000,294
2013/09/13,294,294,291,292,8000,292
2013/09/17,292,299,291,292,13000,292
2013/09/18,292,293,292,292,3000,292
2013/09/19,292,295,292,295,3000,295
2013/09/20,295,295,286,290,6000,290
2013/09/24,285,285,285,285,3000,285
2013/09/25,287,287,282,285,8000,285
2013/09/26,282,282,282,282,3000,282
2013/09/27,294,294,294,294,3000,294
2013/09/30,294,298,294,298,10000,298
2013/10/01,288,288,288,288,1000,288
2013/10/02,295,295,282,282,5000,282
2013/10/03,284,286,284,286,16000,286
2013/10/04,282,283,282,283,3000,283
2013/10/07,283,283,280,280,10000,280
2013/10/08,272,272,265,268,10000,268
2013/10/09,268,268,268,268,2000,268
2013/10/10,276,276,276,276,1000,276
2013/10/11,284,284,284,284,1000,284
2013/10/15,284,284,284,284,1000,284
2013/10/17,284,284,283,284,3000,284
2013/10/22,276,276,276,276,2000,276
2013/10/23,276,276,276,276,1000,276
2013/10/24,276,276,276,276,2000,276
2013/10/25,276,281,276,281,2000,281
2013/10/28,281,283,281,283,7000,283
2013/10/29,285,285,285,285,4000,285
2013/10/31,285,285,285,285,1000,285
2013/11/01,276,276,276,276,1000,276
2013/11/05,274,274,274,274,1000,274
2013/11/06,271,272,271,272,2000,272
2013/11/07,272,272,271,271,6000,271
2013/11/11,270,270,268,268,4000,268
2013/11/12,269,270,269,270,3000,270
2013/11/13,269,269,269,269,3000,269
2013/11/14,270,270,270,270,2000,270
2013/11/15,270,271,270,271,2000,271
2013/11/18,274,277,273,273,5000,273
2013/11/20,266,270,265,270,12000,270
2013/11/21,271,271,271,271,5000,271
2013/11/22,275,275,275,275,2000,275
2013/11/25,271,271,270,271,7000,271
2013/11/26,269,270,266,270,15000,270
2013/11/27,268,268,268,268,1000,268
2013/11/28,268,269,268,269,4000,269
2013/11/29,269,269,267,267,4000,267
2013/12/02,270,271,268,268,4000,268
2013/12/03,266,269,266,269,7000,269
2013/12/04,270,270,270,270,2000,270
2013/12/05,302,310,283,285,137000,285
2013/12/06,287,289,280,281,52000,281
2013/12/09,282,283,281,281,19000,281
2013/12/10,281,283,280,283,11000,283
2013/12/11,283,286,282,286,24000,286
2013/12/12,282,282,280,280,20000,280
2013/12/13,280,280,280,280,6000,280
2013/12/16,278,278,275,275,20000,275
2013/12/17,274,274,273,273,11000,273
2013/12/18,272,272,271,271,2000,271
2013/12/19,274,274,266,266,14000,266
2013/12/20,266,267,266,267,3000,267
2013/12/24,271,276,265,265,27000,265
2013/12/25,267,300,266,275,97000,275
2013/12/26,270,277,268,273,21000,273
2013/12/27,275,275,275,275,8000,275
2013/12/30,295,339,285,298,126000,298
2014/01/06,298,378,285,378,158000,378
2014/01/07,458,458,458,458,236000,458
2014/01/08,466,538,402,449,1060000,449
2014/01/09,433,498,411,464,379000,464
2014/01/10,448,449,427,429,119000,429
2014/01/14,397,411,394,398,90000,398
2014/01/15,401,417,378,395,87000,395
2014/01/16,395,405,395,400,27000,400
2014/01/17,395,396,385,389,30000,389
2014/01/20,387,387,373,376,27000,376
2014/01/21,374,380,370,370,25000,370
2014/01/22,371,400,371,395,30000,395
2014/01/23,395,395,381,381,26000,381
2014/01/24,372,374,365,365,15000,365
2014/01/27,342,347,341,347,30000,347
2014/01/28,349,355,348,354,22000,354
2014/01/29,355,363,355,359,17000,359
2014/01/30,358,358,336,338,23000,338
2014/01/31,325,330,312,316,74000,316
2014/02/03,328,328,315,315,17000,315
2014/02/04,296,301,282,291,33000,291
2014/02/05,300,315,300,308,14000,308
2014/02/06,316,323,315,322,13000,322
2014/02/07,322,324,317,321,14000,321
2014/02/10,324,337,324,332,12000,332
2014/02/12,333,333,328,330,7000,330
2014/02/13,328,328,319,321,19000,321
2014/02/14,325,329,303,306,55000,306
2014/02/17,305,344,305,335,42000,335
2014/02/18,327,399,327,369,81000,369
2014/02/19,359,369,342,369,49000,369
2014/02/20,369,369,338,344,28000,344
2014/02/21,350,350,338,342,13000,342
2014/02/24,350,367,342,363,24000,363
2014/02/25,360,360,340,340,44000,340
2014/02/26,345,360,339,344,47000,344
2014/02/27,352,355,346,346,21000,346
2014/02/28,346,346,332,338,27000,338
2014/03/03,332,358,318,357,38000,357
2014/03/04,353,355,347,350,13000,350
2014/03/05,357,430,355,430,246000,430
2014/03/06,402,422,378,403,336000,403
2014/03/07,395,411,395,408,52000,408
2014/03/10,408,430,408,416,60000,416
2014/03/11,418,418,390,410,84000,410
2014/03/12,410,490,410,470,455000,470
2014/03/13,445,445,401,407,237000,407
2014/03/14,391,404,388,396,50000,396
2014/03/17,388,406,385,388,36000,388
2014/03/18,392,410,391,410,47000,410
2014/03/19,414,489,414,450,225000,450
2014/03/20,450,488,423,488,99000,488
2014/03/24,488,488,440,452,90000,452
2014/03/25,450,450,405,439,127000,439
2014/03/26,418,438,412,416,55000,416
2014/03/27,416,416,400,407,20000,407
2014/03/28,409,413,400,412,33000,412
2014/03/31,411,448,410,447,32000,447
2014/04/01,443,474,443,444,59000,444
2014/04/02,445,445,423,434,33000,434
2014/04/03,431,432,424,429,16000,429
2014/04/04,429,441,427,435,34000,435
2014/04/07,427,443,427,435,18000,435
2014/04/08,427,446,419,431,43000,431
2014/04/09,431,431,393,400,41000,400
2014/04/10,411,420,410,413,43000,413
2014/04/11,400,403,387,398,33000,398
2014/04/14,398,398,392,392,2000,392
2014/04/15,408,409,393,393,22000,393
2014/04/16,398,403,395,403,8000,403
2014/04/17,409,418,408,418,20000,418
2014/04/18,425,426,420,422,10000,422
2014/04/21,422,445,412,445,11000,445
2014/04/22,440,440,415,415,25000,415
2014/04/23,421,421,420,420,3000,420
2014/04/24,415,415,405,406,19000,406
2014/04/25,401,403,395,395,18000,395
2014/04/28,395,395,391,392,14000,392
2014/04/30,392,392,387,387,9000,387
2014/05/01,390,394,388,392,15000,392
2014/05/07,388,388,385,385,6000,385
2014/05/08,390,393,382,382,21000,382
2014/05/09,384,388,380,380,23000,380
2014/05/12,380,404,380,380,73000,380
2014/05/13,383,383,370,373,32000,373
2014/05/14,371,379,363,379,11000,379
2014/05/15,387,387,374,377,11000,377
2014/05/16,377,377,370,371,5000,371
2014/05/19,370,375,357,357,30000,357
2014/05/20,358,366,353,362,42000,362
2014/05/22,360,361,353,354,20000,354
2014/05/23,354,360,340,354,20000,354
2014/05/26,354,355,350,352,8000,352
2014/05/27,368,368,355,356,48000,356
2014/05/28,361,385,361,374,53000,374
2014/05/29,389,389,381,381,17000,381
2014/05/30,387,387,382,382,5000,382
2014/06/02,388,388,380,384,20000,384
2014/06/03,388,405,388,396,14000,396
2014/06/04,396,410,396,407,16000,407
2014/06/05,401,401,390,390,16000,390
2014/06/06,386,392,384,391,21000,391
2014/06/09,396,396,390,393,9000,393
2014/06/10,395,412,395,412,23000,412
2014/06/11,420,440,413,433,72000,433
2014/06/12,385,399,385,388,124000,388
2014/06/13,389,397,369,375,74000,375
2014/06/16,379,383,375,383,28000,383
2014/06/17,382,382,377,380,7000,380
2014/06/18,381,387,380,383,26000,383
2014/06/19,382,382,366,373,30000,373
2014/06/20,373,374,370,370,15000,370
2014/06/23,370,370,370,370,5000,370
2014/06/24,370,370,368,370,9000,370
2014/06/25,369,369,369,369,1000,369
2014/06/26,369,371,369,370,5000,370
2014/06/27,370,372,368,368,9000,368
2014/06/30,374,380,365,380,18000,380
2014/07/01,373,380,373,373,9000,373
2014/07/02,375,380,372,380,15000,380
2014/07/03,373,373,366,368,17000,368
2014/07/04,369,369,363,364,16000,364
2014/07/07,365,370,365,368,13000,368
2014/07/08,363,369,359,366,29000,366
2014/07/09,365,370,360,370,21000,370
2014/07/10,365,369,365,365,7000,365
2014/07/11,365,371,362,371,18000,371
2014/07/14,363,371,363,371,10000,371
2014/07/15,370,375,369,369,6000,369
2014/07/16,368,368,365,365,10000,365
2014/07/17,362,362,360,360,8000,360
2014/07/18,359,360,353,357,8000,357
2014/07/22,357,361,357,361,2000,361
2014/07/23,356,356,355,355,3000,355
2014/07/24,359,359,359,359,1000,359
2014/07/25,359,361,359,361,11000,361
2014/07/28,361,361,357,357,6000,357
2014/07/29,365,369,356,360,30000,360
2014/07/30,362,363,359,363,6000,363
2014/08/01,359,360,358,360,26000,360
2014/08/04,360,440,360,440,50000,440
2014/08/05,435,483,393,454,258000,454
2014/08/06,462,465,420,458,84000,458
2014/08/07,443,448,438,446,28000,446
2014/08/08,448,448,400,417,21000,417
2014/08/11,417,445,400,445,27000,445
2014/08/12,421,421,421,421,2000,421
2014/08/13,408,408,393,393,30000,393
2014/08/14,393,397,363,381,95000,381
2014/08/15,383,383,368,375,37000,375
2014/08/18,377,404,377,404,44000,404
2014/08/19,405,423,400,406,31000,406
2014/08/20,398,404,396,396,9000,396
2014/08/21,404,420,397,414,25000,414
2014/08/22,426,426,406,406,12000,406
2014/08/25,430,486,430,486,159000,486
2014/08/26,507,566,502,540,499000,540
2014/08/27,525,526,474,520,204000,520
2014/08/28,530,620,527,620,445000,620
2014/08/29,630,665,542,580,241000,580
2014/09/01,580,680,580,680,328000,680
2014/09/02,715,780,701,780,498000,780
2014/09/03,930,930,661,699,1384000,699
2014/09/04,673,673,599,599,641000,599
2014/09/05,589,614,571,594,359000,594
2014/09/08,594,603,571,577,123000,577
2014/09/09,577,577,541,547,155000,547
2014/09/10,543,543,521,523,157000,523
2014/09/11,553,612,545,548,567000,548
2014/09/12,539,558,526,555,99000,555
2014/09/16,545,577,545,577,100000,577
2014/09/17,570,575,551,564,80000,564
2014/09/18,564,582,564,571,50000,571
2014/09/19,574,574,550,571,45000,571
2014/09/22,570,570,555,560,37000,560
2014/09/24,556,556,528,533,93000,533
2014/09/25,527,536,525,527,46000,527
2014/09/26,523,525,508,514,64000,514
2014/09/29,515,531,513,519,50000,519
2014/09/30,515,527,493,518,105000,518
2014/10/01,508,510,487,494,65000,494
2014/10/02,486,493,477,477,56000,477
2014/10/03,485,495,477,495,32000,495
2014/10/06,496,508,496,502,28000,502
2014/10/07,495,500,494,497,28000,497
2014/10/08,495,506,494,506,22000,506
2014/10/09,506,506,478,501,41000,501
2014/10/10,491,516,485,516,80000,516
2014/10/14,513,616,487,616,434000,616
2014/10/15,636,636,526,551,378000,551
2014/10/16,515,651,505,602,353000,602
2014/10/17,662,702,622,702,358000,702
2014/10/20,645,760,616,702,790000,702
2014/10/21,717,850,701,779,1382000,779
2014/10/22,779,849,713,781,790000,781
2014/10/23,796,917,689,700,1323000,700
2014/10/24,684,709,592,609,763000,609
2014/10/27,615,641,586,609,359000,609
2014/10/28,606,660,600,638,259000,638
2014/10/29,639,738,639,691,640000,691
2014/10/30,728,757,695,706,576000,706
2014/10/31,681,720,662,705,239000,705
2014/11/04,690,690,624,677,298000,677
2014/11/05,687,755,680,701,390000,701
2014/11/06,707,710,668,681,159000,681
2014/11/07,680,699,660,676,117000,676
2014/11/10,650,662,638,655,155000,655
2014/11/11,658,718,658,690,140000,690
2014/11/12,694,752,682,695,295000,695
2014/11/13,720,767,715,755,423000,755
2014/11/14,780,782,682,708,298000,708
2014/11/17,698,710,671,688,160000,688
2014/11/18,700,733,700,729,114000,729
2014/11/19,740,744,732,734,103000,734
2014/11/20,728,729,703,706,58000,706
2014/11/21,710,743,705,743,95000,743
2014/11/25,737,799,716,798,193000,798
2014/11/26,800,822,760,771,192000,771
2014/11/27,771,789,752,768,62000,768
2014/11/28,798,798,756,777,103000,777
2014/12/01,800,860,782,819,260000,819
2014/12/02,805,810,777,781,97000,781
2014/12/03,772,773,726,757,146000,757
2014/12/04,786,796,734,756,228000,756
2014/12/05,759,760,737,747,74000,747
2014/12/08,750,757,700,700,176000,700
2014/12/09,688,699,671,671,127000,671
2014/12/10,665,704,655,696,80000,696
2014/12/11,666,679,652,664,112000,664
2014/12/12,659,667,651,651,57000,651
2014/12/15,640,648,615,620,101000,620
2014/12/16,622,622,581,602,115000,602
2014/12/17,602,608,584,594,56000,594
2014/12/18,620,629,614,629,47000,629
2014/12/19,638,639,607,607,31000,607
2014/12/22,617,617,588,600,57000,600
2014/12/24,595,599,587,593,25000,593
2014/12/25,586,589,570,572,44000,572
2014/12/26,587,610,583,591,42000,591
2014/12/29,594,627,594,620,43000,620
2014/12/30,620,620,602,605,20000,605
2015/01/05,608,618,580,605,41000,605
2015/01/06,603,603,582,587,25000,587
2015/01/07,583,593,582,587,38000,587
2015/01/08,589,592,580,592,26000,592
2015/01/09,602,602,582,585,10000,585
2015/01/13,591,610,589,599,38000,599
2015/01/14,608,608,598,605,6000,605
2015/01/15,599,599,581,586,30000,586
2015/01/16,586,586,532,560,56000,560
2015/01/19,558,559,542,550,54000,550
2015/01/20,560,580,550,580,16000,580
2015/01/21,580,580,555,559,16000,559
2015/01/22,569,569,550,554,15000,554
2015/01/23,554,563,554,563,6000,563
2015/01/26,560,560,552,557,18000,557
2015/01/27,556,556,547,547,13000,547
2015/01/28,547,547,535,541,20000,541
2015/01/29,544,555,535,555,22000,555
2015/01/30,568,576,548,548,19000,548
2015/02/02,541,549,535,549,18000,549
2015/02/03,559,565,505,516,75000,516
2015/02/04,525,543,525,543,21000,543
2015/02/05,553,555,546,549,18000,549
2015/02/06,550,553,548,548,8000,548
2015/02/09,548,554,545,546,8000,546
2015/02/10,554,560,554,559,8000,559
2015/02/12,570,618,569,595,95000,595
2015/02/13,585,585,570,570,49000,570
2015/02/16,571,588,571,581,25000,581
2015/02/17,574,574,535,559,33000,559
2015/02/18,564,565,558,560,10000,560
2015/02/19,567,599,554,556,44000,556
2015/02/20,560,560,546,555,16000,555
2015/02/23,561,561,552,553,9000,553
2015/02/24,552,560,551,551,11000,551
2015/02/25,555,555,546,550,9000,550
2015/02/26,547,553,546,553,7000,553
2015/02/27,553,558,549,551,10000,551
2015/03/02,547,572,547,550,19000,550
2015/03/03,550,554,540,543,30000,543
2015/03/04,544,552,538,542,38000,542
2015/03/05,543,543,540,542,11000,542
2015/03/06,541,544,540,542,11000,542
2015/03/09,562,573,545,545,48000,545
2015/03/10,551,580,548,554,39000,554
2015/03/11,560,578,560,576,34000,576
2015/03/12,616,616,587,602,89000,602
2015/03/13,609,611,576,595,45000,595
2015/03/16,595,598,572,578,16000,578
2015/03/17,578,584,574,580,12000,580
2015/03/18,588,588,579,587,13000,587
2015/03/19,607,610,591,592,16000,592
2015/03/20,597,597,587,597,8000,597
2015/03/23,597,601,588,594,21000,594
2015/03/24,591,591,585,587,4000,587
2015/03/25,587,587,572,577,15000,577
2015/03/26,580,580,568,575,12000,575
2015/03/27,575,590,575,586,12000,586
2015/03/30,620,626,595,599,66000,599
2015/03/31,602,602,595,595,16000,595
2015/04/01,592,595,590,590,15000,590
2015/04/02,595,595,589,594,9000,594
2015/04/03,594,598,594,595,5000,595
2015/04/06,595,597,594,595,10000,595
2015/04/07,596,596,591,595,11000,595
2015/04/08,593,597,591,593,6000,593
2015/04/09,591,592,588,589,11000,589
2015/04/10,590,594,585,585,20000,585
2015/04/13,590,590,582,582,11000,582
2015/04/14,584,584,577,580,19000,580
2015/04/15,580,583,580,583,4000,583
2015/04/16,583,587,583,585,8000,585
2015/04/17,587,587,582,583,9000,583
2015/04/20,580,580,570,570,19000,570
2015/04/21,577,580,577,578,17000,578
2015/04/22,578,580,577,577,21000,577
2015/04/23,576,576,571,575,19000,575
2015/04/24,571,578,569,577,29000,577
2015/04/27,572,574,568,568,18000,568
2015/04/28,568,568,560,562,21000,562
2015/04/30,562,564,553,554,27000,554
2015/05/01,563,563,539,539,23000,539
2015/05/07,541,541,532,535,12000,535
2015/05/08,545,545,530,540,11000,540
2015/05/11,535,535,531,531,11000,531
2015/05/12,532,532,528,530,11000,530
2015/05/13,532,532,527,530,13000,530
2015/05/14,525,525,520,520,22000,520
2015/05/15,522,522,516,521,14000,521
2015/05/18,520,524,520,520,11000,520
2015/05/19,530,530,522,523,10000,523
2015/05/20,524,531,523,531,5000,531
2015/05/21,531,540,531,533,10000,533
2015/05/22,532,535,530,531,7000,531
2015/05/25,537,537,532,534,5000,534
2015/05/26,534,534,523,525,11000,525
2015/05/27,526,526,520,525,13000,525
2015/05/28,525,526,523,523,9000,523
2015/05/29,525,540,521,540,20000,540
2015/06/01,539,560,533,556,33000,556
2015/06/02,599,599,570,575,123000,575
2015/06/03,571,575,563,563,34000,563
2015/06/04,563,563,557,557,12000,557
2015/06/05,562,580,558,580,60000,580
2015/06/08,572,582,572,574,43000,574
2015/06/09,566,575,566,569,12000,569
2015/06/10,570,588,570,575,52000,575
2015/06/11,675,675,675,675,60000,675
2015/06/12,665,672,627,633,400000,633
2015/06/15,635,639,612,633,61000,633
2015/06/16,625,625,610,610,27000,610
2015/06/17,620,620,615,620,16000,620
2015/06/18,620,620,611,611,23000,611
2015/06/19,619,621,615,621,18000,621
2015/06/22,621,631,621,629,13000,629
2015/06/23,634,634,628,634,17000,634
2015/06/24,634,634,625,629,9000,629
2015/06/25,624,627,622,627,18000,627
2015/06/26,617,619,612,612,7000,612
2015/06/29,593,601,577,580,42000,580
2015/06/30,590,594,583,592,15000,592
2015/07/01,592,619,592,619,21000,619
2015/07/02,622,625,620,625,7000,625
2015/07/03,608,620,607,620,15000,620
2015/07/06,620,625,605,616,17000,616
2015/07/07,607,610,600,610,13000,610
2015/07/08,600,600,586,586,17000,586
2015/07/09,580,604,551,604,36000,604
2015/07/10,595,595,581,584,11000,584
2015/07/13,580,587,579,579,19000,579
2015/07/14,587,592,580,587,18000,587
2015/07/15,597,597,587,591,10000,591
2015/07/16,592,597,588,592,35000,592
2015/07/17,600,600,595,595,5000,595
2015/07/21,596,604,595,595,14000,595
2015/07/22,595,595,595,595,1000,595
2015/07/23,588,589,583,588,12000,588
2015/07/24,600,600,600,600,4000,600
2015/07/27,583,586,580,586,9000,586
2015/07/28,576,582,576,582,9000,582
2015/07/29,577,587,577,583,8000,583
2015/07/30,579,587,579,587,3000,587
2015/07/31,589,589,570,570,18000,570
2015/08/03,569,572,563,568,7500,568
2015/08/04,564,576,557,567,8500,567
2015/08/05,569,572,565,572,4800,572
2015/08/06,574,575,567,575,5800,575
2015/08/07,578,578,568,569,6700,569
2015/08/10,565,566,540,560,31200,560
2015/08/11,550,563,535,538,29000,538
2015/08/12,540,547,535,536,17000,536
2015/08/13,536,550,536,550,11200,550
2015/08/14,551,565,543,562,12300,562
2015/08/17,557,557,535,538,37200,538
2015/08/18,543,544,530,544,12100,544
2015/08/19,544,545,532,545,10200,545
2015/08/20,545,545,533,533,7000,533
2015/08/21,526,543,520,540,14900,540
2015/08/24,515,515,460,466,57400,466
2015/08/25,410,495,406,441,42000,441
2015/08/26,445,474,442,472,16300,472
2015/08/27,472,487,472,481,13700,481
2015/08/28,498,519,496,508,19300,508
2015/08/31,518,524,508,523,18200,523
2015/09/01,523,534,508,508,30900,508
2015/09/02,509,529,492,522,11700,522
2015/09/03,522,526,505,512,4500,512
2015/09/04,512,512,481,491,7000,491
2015/09/07,475,510,470,510,4800,510
2015/09/08,525,525,503,510,9500,510
2015/09/09,520,530,517,530,12600,530
2015/09/10,528,560,515,555,27000,555
2015/09/11,515,535,500,529,80100,529
2015/09/14,527,528,500,506,20700,506
2015/09/15,502,504,490,493,23800,493
2015/09/16,505,505,490,492,10600,492
2015/09/17,500,500,486,488,12900,488
2015/09/18,480,498,479,492,26500,492
2015/09/24,476,485,475,478,20000,478
2015/09/25,480,485,470,482,20900,482
2015/09/28,483,489,470,478,20100,478
2015/09/29,480,480,457,465,36500,465
2015/09/30,460,465,448,448,34700,448
2015/10/01,451,477,451,458,11100,458
2015/10/02,465,469,457,468,8000,468
2015/10/05,462,483,461,471,5900,471
2015/10/06,473,494,473,481,10900,481
2015/10/07,482,490,476,480,11700,480
2015/10/08,480,494,479,490,5400,490
2015/10/09,500,504,496,500,5400,500
2015/10/13,499,515,499,501,7600,501
2015/10/14,495,515,491,509,21500,509
2015/10/15,496,503,491,501,13600,501
2015/10/16,496,499,485,495,10000,495
