2010/03/10,225,225,224,224,18000,224
2010/03/12,228,231,228,231,74000,231
2010/03/16,232,232,232,232,1000,232
2010/03/17,235,235,235,235,3000,235
2010/03/18,231,231,230,230,2000,230
2010/03/19,230,230,230,230,2000,230
2010/03/23,234,234,234,234,2000,234
2010/03/24,231,235,231,235,7000,235
2010/03/25,236,240,233,240,20000,240
2010/03/26,234,236,234,236,19000,236
2010/03/30,241,243,241,243,7000,243
2010/03/31,243,243,239,239,16000,239
2010/04/01,237,244,236,242,16000,242
2010/04/02,242,242,241,241,7000,241
2010/04/05,246,247,245,247,17000,247
2010/04/06,248,248,242,242,15000,242
2010/04/07,242,243,242,243,15000,243
2010/04/08,243,243,240,240,12000,240
2010/04/09,240,247,240,241,12000,241
2010/04/12,244,244,241,241,8000,241
2010/04/14,241,241,241,241,21000,241
2010/04/15,234,234,234,234,1000,234
2010/04/16,234,234,230,233,6000,233
2010/04/19,229,229,226,226,7000,226
2010/04/20,226,228,226,228,2000,228
2010/04/21,233,233,233,233,15000,233
2010/04/22,231,232,231,232,4000,232
2010/04/23,235,235,232,232,4000,232
2010/04/26,236,236,236,236,10000,236
2010/04/27,236,236,235,235,2000,235
2010/04/28,233,237,231,231,8000,231
2010/04/30,233,237,233,237,3000,237
2010/05/06,235,235,231,231,10000,231
2010/05/07,223,223,221,221,7000,221
2010/05/10,221,223,221,223,3000,223
2010/05/11,255,255,240,240,12000,240
2010/05/12,241,241,241,241,4000,241
2010/05/13,243,250,243,250,10000,250
2010/05/14,247,249,247,248,11000,248
2010/05/17,250,254,249,249,14000,249
2010/05/18,246,246,246,246,1000,246
2010/05/19,239,239,239,239,7000,239
2010/05/20,239,240,237,237,3000,237
2010/05/21,237,237,230,230,26000,230
2010/05/24,230,230,230,230,10000,230
2010/05/25,227,227,224,224,12000,224
2010/05/26,224,226,224,226,18000,226
2010/05/27,223,223,222,222,11000,222
2010/05/28,226,226,226,226,3000,226
2010/05/31,228,230,228,230,14000,230
2010/06/01,230,230,230,230,3000,230
2010/06/02,227,230,227,230,5000,230
2010/06/03,230,230,230,230,1000,230
2010/06/04,234,237,234,237,3000,237
2010/06/07,229,229,229,229,1000,229
2010/06/08,225,225,225,225,1000,225
2010/06/09,225,226,225,226,2000,226
2010/06/10,227,227,227,227,1000,227
2010/06/11,235,235,231,231,88000,231
2010/06/15,234,234,234,234,1000,234
2010/06/16,235,237,235,237,2000,237
2010/06/17,236,236,236,236,1000,236
2010/06/18,232,232,232,232,5000,232
2010/06/21,234,234,234,234,2000,234
2010/06/22,234,234,234,234,1000,234
2010/06/23,234,234,234,234,2000,234
2010/06/24,234,234,233,233,4000,233
2010/06/25,231,233,231,233,5000,233
2010/06/28,232,232,232,232,1000,232
2010/06/29,237,237,230,231,5000,231
2010/06/30,224,225,224,225,3000,225
2010/07/01,223,223,218,218,4000,218
2010/07/02,218,220,218,220,4000,220
2010/07/05,220,221,220,221,5000,221
2010/07/06,221,224,221,224,5000,224
2010/07/07,223,223,222,222,3000,222
2010/07/08,223,226,223,225,4000,225
2010/07/09,233,233,231,233,4000,233
2010/07/12,231,232,231,231,4000,231
2010/07/13,233,233,229,229,12000,229
2010/07/14,232,234,232,233,4000,233
2010/07/15,227,229,227,227,8000,227
2010/07/16,227,227,223,224,8000,224
2010/07/20,224,224,224,224,1000,224
2010/07/21,227,227,223,223,6000,223
2010/07/22,221,224,221,221,3000,221
2010/07/26,229,229,229,229,1000,229
2010/07/28,232,232,232,232,2000,232
2010/07/29,229,229,227,227,7000,227
2010/07/30,226,226,222,222,10000,222
2010/08/03,230,230,230,230,2000,230
2010/08/04,225,225,225,225,2000,225
2010/08/06,230,231,230,231,2000,231
2010/08/09,237,238,237,238,5000,238
2010/08/10,232,232,227,228,5000,228
2010/08/11,223,223,223,223,1000,223
2010/08/12,224,224,223,223,2000,223
2010/08/13,223,223,221,221,6000,221
2010/08/16,219,219,219,219,1000,219
2010/08/17,222,224,222,224,5000,224
2010/08/18,226,226,226,226,3000,226
2010/08/19,228,230,228,230,4000,230
2010/08/20,226,227,226,227,4000,227
2010/08/23,227,227,227,227,1000,227
2010/08/24,224,228,224,228,8000,228
2010/08/25,230,230,230,230,1000,230
2010/08/26,223,229,223,229,9000,229
2010/08/27,228,235,228,235,6000,235
2010/08/30,237,237,236,236,8000,236
2010/08/31,230,230,230,230,2000,230
2010/09/01,227,227,225,227,6000,227
2010/09/02,226,226,226,226,1000,226
2010/09/03,229,229,229,229,3000,229
2010/09/06,230,230,230,230,1000,230
2010/09/09,230,230,230,230,2000,230
2010/09/10,227,229,227,227,104000,227
2010/09/13,227,227,227,227,4000,227
2010/09/15,234,234,234,234,2000,234
2010/09/16,233,233,233,233,1000,233
2010/09/17,230,235,230,232,9000,232
2010/09/21,235,235,232,232,5000,232
2010/09/24,234,234,232,232,2000,232
2010/09/27,240,240,237,240,10000,240
2010/09/28,239,239,238,238,2000,238
2010/09/29,242,243,234,242,20000,242
2010/09/30,243,243,237,239,3000,239
2010/10/01,233,233,233,233,2000,233
2010/10/04,234,234,234,234,2000,234
2010/10/05,234,241,234,241,4000,241
2010/10/06,241,241,241,241,1000,241
2010/10/07,242,242,242,242,2000,242
2010/10/08,242,242,238,238,3000,238
2010/10/12,233,233,227,227,3000,227
2010/10/13,225,225,225,225,4000,225
2010/10/14,226,226,226,226,4000,226
2010/10/15,226,228,226,228,4000,228
2010/10/19,228,228,228,228,1000,228
2010/10/20,226,226,226,226,1000,226
2010/10/21,228,228,226,226,2000,226
2010/10/22,227,227,227,227,1000,227
2010/10/25,224,224,221,221,4000,221
2010/10/26,223,223,223,223,1000,223
2010/10/28,216,216,214,214,11000,214
2010/10/29,210,210,209,209,4000,209
2010/11/02,211,211,209,209,2000,209
2010/11/05,219,219,219,219,1000,219
2010/11/08,220,220,220,220,1000,220
2010/11/09,222,222,222,222,4000,222
2010/11/10,225,227,225,226,5000,226
2010/11/11,226,227,226,227,4000,227
2010/11/12,225,225,225,225,2000,225
2010/11/15,222,222,222,222,1000,222
2010/11/17,219,219,219,219,1000,219
2010/11/18,224,224,224,224,1000,224
2010/11/19,226,226,222,222,5000,222
2010/11/22,224,224,224,224,1000,224
2010/11/24,224,224,224,224,2000,224
2010/11/25,225,225,225,225,5000,225
2010/11/29,231,231,231,231,1000,231
2010/11/30,234,238,232,233,16000,233
2010/12/02,236,236,236,236,2000,236
2010/12/03,239,239,239,239,2000,239
2010/12/06,232,236,232,236,4000,236
2010/12/07,236,239,236,239,13000,239
2010/12/08,240,240,240,240,15000,240
2010/12/09,241,241,241,241,2000,241
2010/12/10,239,242,239,240,123000,240
2010/12/13,242,242,242,242,8000,242
2010/12/14,241,241,241,241,8000,241
2010/12/15,241,241,241,241,3000,241
2010/12/16,242,244,242,244,2000,244
2010/12/17,245,245,243,243,13000,243
2010/12/20,245,248,245,248,8000,248
2010/12/21,251,251,247,247,13000,247
2010/12/22,245,245,245,245,10000,245
2010/12/24,245,245,245,245,2000,245
2010/12/28,249,249,249,249,3000,249
2010/12/29,249,249,244,247,7000,247
2011/01/04,245,249,245,249,4000,249
2011/01/05,251,251,250,250,6000,250
2011/01/06,251,251,251,251,3000,251
2011/01/07,253,253,250,250,3000,250
2011/01/11,251,251,251,251,1000,251
2011/01/12,255,260,255,260,10000,260
2011/01/13,260,263,260,261,5000,261
2011/01/14,263,266,263,263,15000,263
2011/01/17,264,264,264,264,2000,264
2011/01/18,277,277,276,276,4000,276
2011/01/19,276,276,276,276,4000,276
2011/01/20,277,277,277,277,1000,277
2011/01/21,282,282,266,266,5000,266
2011/01/24,267,267,267,267,2000,267
2011/01/25,268,268,268,268,6000,268
2011/01/26,267,267,267,267,3000,267
2011/01/27,266,270,266,270,3000,270
2011/01/28,270,270,266,266,11000,266
2011/01/31,260,261,260,261,3000,261
2011/02/01,259,259,259,259,1000,259
2011/02/02,264,264,263,263,6000,263
2011/02/03,266,266,266,266,1000,266
2011/02/04,270,270,270,270,2000,270
2011/02/07,275,276,275,276,5000,276
2011/02/08,275,275,275,275,1000,275
2011/02/09,272,277,272,277,4000,277
2011/02/10,284,287,284,287,10000,287
2011/02/14,287,290,287,287,3000,287
2011/02/15,289,289,289,289,1000,289
2011/02/17,290,292,290,292,6000,292
2011/02/18,294,299,294,296,5000,296
2011/02/21,296,297,296,297,3000,297
2011/02/22,296,296,294,294,5000,294
2011/02/23,294,294,288,288,7000,288
2011/02/24,285,286,284,284,5000,284
2011/02/25,281,281,280,280,2000,280
2011/02/28,280,280,280,280,1000,280
2011/03/01,298,303,298,298,8000,298
2011/03/02,292,294,289,289,7000,289
2011/03/04,291,291,291,291,1000,291
2011/03/07,287,288,282,282,17000,282
2011/03/08,283,283,283,283,4000,283
2011/03/09,285,288,284,284,5000,284
2011/03/10,279,279,278,278,6000,278
2011/03/11,277,277,273,273,161000,273
2011/03/14,217,235,217,235,10000,235
2011/03/15,227,227,200,209,18000,209
2011/03/16,217,232,211,232,20000,232
2011/03/17,224,229,209,229,16000,229
2011/03/18,231,242,231,242,27000,242
2011/03/22,250,256,240,255,15000,255
2011/03/23,266,266,261,261,4000,261
2011/03/24,258,258,258,258,16000,258
2011/03/25,264,265,261,261,25000,261
2011/03/28,266,267,264,266,11000,266
2011/03/29,268,273,266,273,19000,273
2011/03/30,278,283,278,283,8000,283
2011/03/31,289,289,281,282,7000,282
2011/04/01,282,282,279,279,5000,279
2011/04/04,278,278,278,278,2000,278
2011/04/05,270,270,267,267,4000,267
2011/04/06,267,267,265,265,7000,265
2011/04/07,263,263,258,258,3000,258
2011/04/08,254,261,254,261,9000,261
2011/04/11,264,268,264,268,8000,268
2011/04/12,261,262,260,260,6000,260
2011/04/14,261,265,261,265,8000,265
2011/04/15,263,263,263,263,2000,263
2011/04/18,263,263,263,263,2000,263
2011/04/19,266,266,266,266,2000,266
2011/04/20,265,265,265,265,3000,265
2011/04/21,264,264,263,263,4000,263
2011/04/26,260,260,260,260,3000,260
2011/04/27,260,260,260,260,1000,260
2011/04/28,262,262,262,262,1000,262
2011/05/02,265,265,265,265,1000,265
2011/05/06,265,265,265,265,1000,265
2011/05/09,267,267,267,267,3000,267
2011/05/10,274,274,274,274,1000,274
2011/05/13,267,267,260,262,9000,262
2011/05/16,267,273,267,272,11000,272
2011/05/17,265,267,265,267,2000,267
2011/05/18,267,267,267,267,2000,267
2011/05/19,266,266,266,266,1000,266
2011/05/20,264,264,264,264,3000,264
2011/05/23,264,264,264,264,1000,264
2011/05/24,262,262,262,262,1000,262
2011/05/25,260,260,256,256,4000,256
2011/05/26,258,258,258,258,4000,258
2011/05/27,261,261,258,258,2000,258
2011/05/30,258,258,258,258,1000,258
2011/06/01,261,261,261,261,1000,261
2011/06/02,258,258,258,258,3000,258
2011/06/03,260,260,253,253,3000,253
2011/06/06,253,253,251,251,5000,251
2011/06/07,250,252,250,252,2000,252
2011/06/08,271,273,271,273,2000,273
2011/06/09,273,273,273,273,2000,273
2011/06/10,278,278,278,278,82000,278
2011/06/13,273,273,273,273,1000,273
2011/06/14,288,288,285,285,4000,285
2011/06/16,280,280,280,280,3000,280
2011/06/17,280,280,280,280,2000,280
2011/06/20,281,281,281,281,1000,281
2011/06/21,279,282,279,282,3000,282
2011/06/22,283,287,283,287,5000,287
2011/06/23,290,290,288,290,6000,290
2011/06/24,298,298,298,298,1000,298
2011/06/27,292,295,291,293,18000,293
2011/06/28,294,294,294,294,1000,294
2011/06/29,293,293,293,293,1000,293
2011/06/30,293,293,290,292,13000,292
2011/07/01,286,290,286,290,13000,290
2011/07/04,290,290,290,290,2000,290
2011/07/05,290,290,288,288,7000,288
2011/07/06,288,288,288,288,9000,288
2011/07/07,288,288,285,288,7000,288
2011/07/08,288,288,286,286,5000,286
2011/07/11,286,286,286,286,3000,286
2011/07/12,286,286,283,283,8000,283
2011/07/13,284,284,282,282,3000,282
2011/07/14,286,286,286,286,2000,286
2011/07/15,286,286,286,286,2000,286
2011/07/19,287,292,287,292,7000,292
2011/07/20,294,294,294,294,1000,294
2011/07/21,300,304,300,304,9000,304
2011/07/22,309,309,306,306,8000,306
2011/07/25,308,308,303,303,8000,303
2011/07/26,304,305,304,305,2000,305
2011/07/27,305,316,305,316,10000,316
2011/07/28,308,323,308,321,16000,321
2011/07/29,321,321,315,315,6000,315
2011/08/01,319,322,319,320,12000,320
2011/08/02,324,326,324,325,9000,325
2011/08/03,309,313,309,311,8000,311
2011/08/04,306,310,306,310,6000,310
2011/08/05,302,308,302,308,11000,308
2011/08/08,300,300,296,296,7000,296
2011/08/09,291,291,259,290,18000,290
2011/08/10,290,297,290,297,2000,297
2011/08/11,297,297,297,297,2000,297
2011/08/12,275,275,275,275,1000,275
2011/08/15,275,275,275,275,1000,275
2011/08/16,275,275,275,275,1000,275
2011/08/17,276,276,276,276,3000,276
2011/08/18,276,276,276,276,1000,276
2011/08/19,270,270,270,270,1000,270
2011/08/22,267,267,261,261,5000,261
2011/08/23,261,262,261,262,3000,262
2011/08/24,258,258,258,258,1000,258
2011/08/25,258,264,258,262,12000,262
2011/08/26,263,263,263,263,2000,263
2011/08/29,270,270,270,270,6000,270
2011/08/30,275,275,275,275,3000,275
2011/08/31,273,273,273,273,4000,273
2011/09/01,279,279,279,279,2000,279
2011/09/02,279,279,277,277,5000,277
2011/09/05,272,272,272,272,1000,272
2011/09/06,273,273,268,268,10000,268
2011/09/08,265,265,265,265,1000,265
2011/09/09,268,268,268,268,75000,268
2011/09/13,255,255,255,255,3000,255
2011/09/14,256,256,256,256,2000,256
2011/09/15,255,255,250,250,4000,250
2011/09/16,256,268,256,268,7000,268
2011/09/20,264,264,264,264,5000,264
2011/09/22,250,250,250,250,3000,250
2011/09/26,248,248,236,239,9000,239
2011/09/27,243,247,239,247,24000,247
2011/09/28,244,254,244,249,21000,249
2011/09/29,254,259,251,259,12000,259
2011/09/30,259,259,258,258,4000,258
2011/10/03,254,254,250,250,6000,250
2011/10/04,250,250,250,250,2000,250
2011/10/05,249,249,248,248,2000,248
2011/10/06,247,247,241,241,3000,241
2011/10/07,252,252,252,252,1000,252
2011/10/12,255,255,255,255,4000,255
2011/10/13,258,258,258,258,1000,258
2011/10/14,259,259,255,255,7000,255
2011/10/17,262,262,260,260,7000,260
2011/10/18,256,256,256,256,3000,256
2011/10/19,257,257,257,257,2000,257
2011/10/20,253,253,253,253,5000,253
2011/10/21,259,260,259,260,4000,260
2011/10/24,263,264,263,264,3000,264
2011/10/27,263,263,263,263,2000,263
2011/10/28,264,264,262,262,12000,262
2011/10/31,262,267,262,263,11000,263
2011/11/01,263,263,263,263,2000,263
2011/11/02,263,263,263,263,6000,263
2011/11/04,260,260,260,260,3000,260
2011/11/07,255,255,255,255,1000,255
2011/11/08,250,250,242,242,7000,242
2011/11/09,246,247,246,247,5000,247
2011/11/10,245,245,245,245,3000,245
2011/11/11,245,245,245,245,1000,245
2011/11/16,244,244,244,244,1000,244
2011/11/17,240,240,240,240,1000,240
2011/11/18,241,242,239,239,7000,239
2011/11/21,243,243,243,243,1000,243
2011/11/24,239,245,239,245,10000,245
2011/11/25,237,239,237,239,6000,239
2011/11/28,239,239,238,238,3000,238
2011/11/29,248,248,248,248,3000,248
2011/11/30,251,251,249,249,2000,249
2011/12/02,259,259,259,259,1000,259
2011/12/05,265,265,264,264,5000,264
2011/12/06,261,263,261,263,6000,263
2011/12/07,255,255,255,255,2000,255
2011/12/08,254,254,248,248,4000,248
2011/12/09,244,245,244,245,89000,245
2011/12/13,247,247,247,247,1000,247
2011/12/14,250,250,246,246,5000,246
2011/12/15,246,246,246,246,1000,246
2011/12/16,245,245,245,245,1000,245
2011/12/19,240,240,239,239,8000,239
2011/12/20,241,241,241,241,1000,241
2011/12/22,240,240,240,240,1000,240
2011/12/26,238,238,238,238,2000,238
2011/12/27,237,237,237,237,1000,237
2011/12/29,239,239,239,239,1000,239
2011/12/30,240,240,240,240,2000,240
2012/01/04,242,243,242,243,9000,243
2012/01/05,243,243,240,240,4000,240
2012/01/06,242,242,242,242,3000,242
2012/01/10,245,245,245,245,1000,245
2012/01/11,241,241,241,241,1000,241
2012/01/13,242,242,241,241,3000,241
2012/01/16,241,241,241,241,3000,241
2012/01/17,240,240,240,240,1000,240
2012/01/18,242,244,242,244,6000,244
2012/01/19,242,244,242,244,6000,244
2012/01/20,250,250,250,250,2000,250
2012/01/23,249,252,249,252,2000,252
2012/01/25,255,255,255,255,1000,255
2012/01/26,256,256,254,254,3000,254
2012/01/27,250,250,250,250,3000,250
2012/01/30,252,252,252,252,4000,252
2012/01/31,256,256,256,256,4000,256
2012/02/01,255,255,253,253,3000,253
2012/02/02,250,251,250,251,4000,251
2012/02/03,254,254,252,252,5000,252
2012/02/06,257,257,257,257,1000,257
2012/02/07,255,255,255,255,5000,255
2012/02/08,255,260,255,260,14000,260
2012/02/09,259,259,258,258,6000,258
2012/02/10,257,257,254,254,13000,254
2012/02/13,256,256,256,256,1000,256
2012/02/14,256,257,255,257,4000,257
2012/02/15,255,257,255,257,8000,257
2012/02/16,257,257,257,257,3000,257
2012/02/17,258,258,253,253,18000,253
2012/02/21,254,254,254,254,2000,254
2012/02/22,258,264,258,262,7000,262
2012/02/23,265,265,263,263,6000,263
2012/02/24,265,265,264,264,8000,264
2012/02/27,265,265,262,262,8000,262
2012/02/28,263,265,262,262,9000,262
2012/02/29,263,263,262,262,5000,262
2012/03/01,257,257,257,257,5000,257
2012/03/02,258,258,257,257,5000,257
2012/03/05,262,262,258,258,4000,258
2012/03/06,263,263,261,261,12000,261
2012/03/07,263,263,263,263,7000,263
2012/03/08,264,264,262,262,6000,262
2012/03/09,264,264,262,262,83000,262
2012/03/12,266,266,261,261,5000,261
2012/03/13,262,262,260,260,3000,260
2012/03/14,262,262,260,260,9000,260
2012/03/15,261,263,261,263,5000,263
2012/03/16,266,268,265,268,9000,268
2012/03/19,268,270,268,268,4000,268
2012/03/21,274,275,267,267,15000,267
2012/03/22,269,273,269,273,4000,273
2012/03/23,272,276,272,276,5000,276
2012/03/26,274,274,270,270,15000,270
2012/03/27,272,276,272,276,13000,276
2012/03/28,270,270,270,270,5000,270
2012/03/29,267,273,267,271,9000,271
2012/03/30,271,271,265,265,4000,265
2012/04/02,268,272,266,266,13000,266
2012/04/03,270,270,270,270,1000,270
2012/04/04,255,255,255,255,2000,255
2012/04/05,258,258,254,254,2000,254
2012/04/06,255,255,253,253,17000,253
2012/04/09,250,251,250,250,13000,250
2012/04/11,247,247,247,247,5000,247
2012/04/12,248,248,244,244,10000,244
2012/04/13,247,247,246,246,5000,246
2012/04/16,245,249,245,249,14000,249
2012/04/17,245,245,245,245,1000,245
2012/04/18,249,249,249,249,4000,249
2012/04/19,249,249,246,246,4000,246
2012/04/20,247,247,243,243,9000,243
2012/04/23,245,245,245,245,1000,245
2012/04/24,244,244,236,236,6000,236
2012/04/25,237,237,237,237,1000,237
2012/04/26,238,238,238,238,1000,238
2012/04/27,239,239,239,239,7000,239
2012/05/01,239,239,239,239,1000,239
2012/05/02,237,237,237,237,1000,237
2012/05/07,235,235,230,235,16000,235
2012/05/08,236,241,236,241,3000,241
2012/05/09,237,239,237,239,11000,239
2012/05/10,235,235,235,235,1000,235
2012/05/11,234,234,232,232,10000,232
2012/05/14,230,230,226,227,9000,227
2012/05/15,221,227,221,221,12000,221
2012/05/16,221,221,221,221,7000,221
2012/05/17,221,227,221,227,4000,227
2012/05/18,221,221,219,219,10000,219
2012/05/21,222,222,220,222,6000,222
2012/05/22,221,221,221,221,2000,221
2012/05/23,219,219,218,218,17000,218
2012/05/24,217,217,217,217,5000,217
2012/05/25,216,216,216,216,2000,216
2012/05/28,212,212,212,212,2000,212
2012/05/29,205,212,205,209,7000,209
2012/05/30,209,209,209,209,6000,209
2012/05/31,211,212,211,212,4000,212
2012/06/01,209,212,209,212,9000,212
2012/06/04,203,206,203,206,4000,206
2012/06/06,208,218,208,218,8000,218
2012/06/07,220,220,220,220,5000,220
2012/06/08,223,223,217,221,70000,221
2012/06/11,220,220,217,217,6000,217
2012/06/12,221,221,221,221,9000,221
2012/06/14,219,219,219,219,1000,219
2012/06/15,223,223,222,222,3000,222
2012/06/18,220,220,220,220,2000,220
2012/06/19,220,220,220,220,1000,220
2012/06/21,225,227,225,227,5000,227
2012/06/22,228,228,228,228,1000,228
2012/06/25,232,234,232,234,2000,234
2012/06/26,236,236,230,230,11000,230
2012/06/27,234,239,234,239,11000,239
2012/06/28,238,238,238,238,1000,238
2012/06/29,242,242,242,242,3000,242
2012/07/02,241,241,241,241,3000,241
2012/07/03,239,242,239,242,4000,242
2012/07/04,245,245,245,245,3000,245
2012/07/05,241,241,241,241,2000,241
2012/07/06,243,243,242,242,4000,242
2012/07/09,239,239,238,239,5000,239
2012/07/10,242,242,242,242,3000,242
2012/07/11,242,242,242,242,1000,242
2012/07/12,244,244,244,244,1000,244
2012/07/13,242,242,242,242,4000,242
2012/07/17,240,240,240,240,2000,240
2012/07/19,233,233,231,231,5000,231
2012/07/20,234,234,229,229,2000,229
2012/07/23,233,233,224,224,15000,224
2012/07/24,224,225,224,225,4000,225
2012/07/25,218,218,218,218,1000,218
2012/07/26,220,220,220,220,5000,220
2012/07/27,224,224,224,224,2000,224
2012/07/30,228,228,228,228,5000,228
2012/07/31,223,225,223,225,5000,225
2012/08/01,224,226,224,226,2000,226
2012/08/02,224,224,224,224,11000,224
2012/08/03,226,226,226,226,2000,226
2012/08/06,223,225,223,225,6000,225
2012/08/07,222,226,222,226,4000,226
2012/08/08,227,229,227,229,4000,229
2012/08/09,229,229,229,229,9000,229
2012/08/13,226,226,226,226,2000,226
2012/08/14,227,227,227,227,2000,227
2012/08/15,224,224,224,224,3000,224
2012/08/16,227,227,227,227,3000,227
2012/08/17,227,227,226,226,6000,226
2012/08/20,224,225,224,225,4000,225
2012/08/21,225,225,225,225,1000,225
2012/08/22,223,223,223,223,2000,223
2012/08/23,223,223,223,223,3000,223
2012/08/28,216,216,215,215,5000,215
2012/08/29,215,215,215,215,1000,215
2012/08/30,218,218,213,213,3000,213
2012/08/31,212,212,212,212,1000,212
2012/09/03,210,218,210,215,6000,215
2012/09/04,210,210,208,208,5000,208
2012/09/05,209,213,209,213,6000,213
2012/09/06,209,209,209,209,1000,209
2012/09/07,209,209,209,209,2000,209
2012/09/10,208,208,208,208,1000,208
2012/09/11,204,207,204,207,4000,207
2012/09/13,206,206,206,206,1000,206
2012/09/14,207,210,207,210,60000,210
2012/09/18,212,216,212,216,3000,216
2012/09/19,218,220,217,220,6000,220
2012/09/20,218,218,218,218,2000,218
2012/09/24,215,217,215,217,6000,217
2012/09/25,217,220,217,220,12000,220
2012/09/26,219,219,219,219,4000,219
2012/09/27,217,217,217,217,2000,217
2012/09/28,215,215,215,215,3000,215
2012/10/01,216,216,216,216,3000,216
2012/10/02,214,214,211,211,3000,211
2012/10/03,211,211,211,211,1000,211
2012/10/04,207,212,207,212,2000,212
2012/10/05,209,209,209,209,1000,209
2012/10/09,204,204,204,204,1000,204
2012/10/11,201,201,200,200,2000,200
2012/10/12,200,205,197,197,4000,197
2012/10/16,202,203,202,203,4000,203
2012/10/17,207,208,207,208,3000,208
2012/10/18,210,210,210,210,4000,210
2012/10/19,218,218,212,216,9000,216
2012/10/22,212,216,212,216,6000,216
2012/10/23,217,217,217,217,1000,217
2012/10/24,216,216,216,216,2000,216
2012/10/25,223,223,223,223,4000,223
2012/10/26,215,222,215,222,5000,222
2012/10/29,221,222,221,222,3000,222
2012/10/30,219,219,219,219,3000,219
2012/10/31,213,221,213,218,7000,218
2012/11/01,221,221,221,221,1000,221
2012/11/02,222,222,216,216,5000,216
2012/11/05,219,222,219,222,2000,222
2012/11/06,220,220,220,220,1000,220
2012/11/07,222,222,216,218,8000,218
2012/11/08,215,215,214,214,3000,214
2012/11/09,213,218,213,218,2000,218
2012/11/12,213,213,208,208,8000,208
2012/11/13,208,208,207,207,8000,207
2012/11/14,207,207,207,207,4000,207
2012/11/15,208,211,208,211,3000,211
2012/11/16,207,215,207,215,5000,215
2012/11/19,216,218,213,216,7000,216
2012/11/20,218,218,216,216,10000,216
2012/11/21,218,218,218,218,3000,218
2012/11/22,221,223,221,222,8000,222
2012/11/26,223,227,223,224,10000,224
2012/11/27,226,226,223,226,15000,226
2012/11/28,226,226,223,223,4000,223
2012/11/29,220,220,220,220,6000,220
2012/11/30,221,221,219,219,8000,219
2012/12/03,219,222,219,222,5000,222
2012/12/04,223,223,223,223,2000,223
2012/12/05,224,225,222,223,12000,223
2012/12/06,228,229,228,229,9000,229
2012/12/07,225,225,225,225,2000,225
2012/12/10,226,226,226,226,2000,226
2012/12/11,228,228,225,225,4000,225
2012/12/12,224,224,223,223,3000,223
2012/12/13,226,236,226,226,11000,226
2012/12/14,226,229,226,226,89000,226
2012/12/17,227,227,227,227,4000,227
2012/12/18,227,227,227,227,2000,227
2012/12/19,230,233,230,233,10000,233
2012/12/20,236,240,233,233,11000,233
2012/12/21,233,234,233,234,10000,234
2012/12/25,233,233,233,233,8000,233
2012/12/26,233,234,231,231,15000,231
2012/12/27,233,238,233,233,28000,233
2012/12/28,235,235,234,234,9000,234
2013/01/04,258,258,243,245,34000,245
2013/01/07,251,251,248,248,20000,248
2013/01/08,246,246,244,244,5000,244
2013/01/09,245,247,244,244,12000,244
2013/01/10,244,249,244,249,9000,249
2013/01/11,250,251,247,247,8000,247
2013/01/15,252,252,249,249,4000,249
2013/01/16,251,251,241,243,17000,243
2013/01/17,267,298,255,271,131000,271
2013/01/18,275,283,269,270,56000,270
2013/01/21,270,275,267,273,14000,273
2013/01/22,269,269,267,269,4000,269
2013/01/23,265,265,260,260,8000,260
2013/01/24,260,262,260,262,6000,262
2013/01/25,266,266,266,266,2000,266
2013/01/28,263,263,263,263,16000,263
2013/01/29,263,263,263,263,3000,263
2013/01/30,263,263,263,263,7000,263
2013/01/31,264,268,264,268,22000,268
2013/02/01,270,270,270,270,10000,270
2013/02/04,273,273,271,271,3000,271
2013/02/05,271,271,264,264,4000,264
2013/02/06,267,267,263,263,9000,263
2013/02/07,262,262,260,260,13000,260
2013/02/08,262,262,258,259,28000,259
2013/02/12,260,260,255,255,7000,255
2013/02/13,255,262,251,254,18000,254
2013/02/14,257,262,255,256,9000,256
2013/02/15,253,253,248,250,15000,250
2013/02/18,254,257,254,254,11000,254
2013/02/19,259,259,258,258,10000,258
2013/02/20,261,266,261,265,8000,265
2013/02/21,268,268,267,267,8000,267
2013/02/22,269,269,269,269,10000,269
2013/02/25,268,268,268,268,7000,268
2013/02/26,266,272,266,267,6000,267
2013/02/27,259,265,259,265,11000,265
2013/02/28,265,270,265,270,8000,270
2013/03/01,270,270,270,270,5000,270
2013/03/04,270,270,270,270,2000,270
2013/03/05,275,275,268,268,5000,268
2013/03/06,275,275,275,275,2000,275
2013/03/07,286,286,286,286,2000,286
2013/03/08,284,289,282,286,173000,286
2013/03/11,286,286,286,286,11000,286
2013/03/12,286,286,281,281,21000,281
2013/03/13,282,282,281,281,8000,281
2013/03/14,283,283,283,283,5000,283
2013/03/15,283,291,283,291,9000,291
2013/03/18,295,297,295,295,12000,295
2013/03/19,295,295,293,293,15000,293
2013/03/21,294,302,294,301,20000,301
2013/03/22,300,300,292,292,30000,292
2013/03/25,292,294,291,291,27000,291
2013/03/26,299,299,285,286,22000,286
2013/03/27,283,286,283,286,15000,286
2013/03/28,289,291,289,291,7000,291
2013/03/29,290,290,287,287,16000,287
2013/04/01,280,280,266,266,10000,266
2013/04/02,270,270,267,267,8000,267
2013/04/03,267,276,267,276,12000,276
2013/04/05,292,299,272,280,42000,280
2013/04/08,284,289,279,281,42000,281
2013/04/09,285,286,284,284,19000,284
2013/04/10,290,290,289,289,12000,289
2013/04/11,288,288,288,288,7000,288
2013/04/12,287,288,286,286,20000,286
2013/04/15,285,285,281,281,3000,281
2013/04/16,277,282,277,282,14000,282
2013/04/17,282,289,282,287,13000,287
2013/04/18,287,287,284,284,7000,284
2013/04/19,284,284,282,283,5000,283
2013/04/22,284,284,282,283,9000,283
2013/04/23,283,285,283,285,6000,285
2013/04/24,288,296,281,290,22000,290
2013/04/25,291,291,291,291,10000,291
2013/04/26,291,291,288,288,6000,288
2013/04/30,282,289,282,287,7000,287
2013/05/01,283,291,283,291,5000,291
2013/05/02,298,302,298,302,8000,302
2013/05/07,310,315,309,315,13000,315
2013/05/08,316,316,312,314,38000,314
2013/05/09,315,315,309,309,3000,309
2013/05/10,311,314,311,313,24000,313
2013/05/13,307,307,306,306,5000,306
2013/05/14,303,303,301,301,10000,301
2013/05/15,301,302,300,300,15000,300
2013/05/16,300,300,294,296,12000,296
2013/05/17,301,309,301,309,9000,309
2013/05/20,316,317,313,313,10000,313
2013/05/21,310,313,310,313,6000,313
2013/05/22,305,312,305,312,13000,312
2013/05/23,313,313,297,297,22000,297
2013/05/24,296,304,294,294,43000,294
2013/05/27,283,283,282,282,8000,282
2013/05/28,282,282,281,281,14000,281
2013/05/29,283,289,283,286,14000,286
2013/05/30,284,284,277,277,22000,277
2013/05/31,279,279,279,279,4000,279
2013/06/03,279,279,279,279,6000,279
2013/06/04,271,280,269,280,19000,280
2013/06/05,297,297,292,292,4000,292
2013/06/06,285,285,271,271,30000,271
2013/06/07,270,272,266,270,23000,270
2013/06/10,271,288,271,286,15000,286
2013/06/11,291,291,286,286,14000,286
2013/06/12,285,285,284,284,7000,284
2013/06/13,279,279,276,279,8000,279
2013/06/14,278,280,274,274,171000,274
2013/06/17,275,287,275,287,8000,287
2013/06/18,285,285,285,285,2000,285
2013/06/19,282,285,282,285,4000,285
2013/06/20,287,287,286,286,13000,286
2013/06/21,285,285,282,284,7000,284
2013/06/24,292,294,286,286,4000,286
2013/06/25,284,284,283,283,7000,283
2013/06/26,278,278,278,278,1000,278
2013/06/27,278,286,278,286,8000,286
2013/06/28,289,291,289,291,12000,291
2013/07/01,291,291,288,291,14000,291
2013/07/02,293,293,289,292,8000,292
2013/07/03,290,290,290,290,8000,290
2013/07/04,289,289,286,288,5000,288
2013/07/05,293,293,293,293,5000,293
2013/07/08,295,300,294,294,9000,294
2013/07/09,297,297,296,297,11000,297
2013/07/10,297,298,296,298,23000,298
2013/07/11,299,302,299,302,6000,302
2013/07/12,301,301,300,300,19000,300
2013/07/16,303,306,300,300,100000,300
2013/07/17,301,316,282,310,892000,310
2013/07/18,316,316,311,311,308000,311
2013/07/19,312,313,302,306,237000,306
2013/07/22,305,305,295,300,123000,300
2013/07/23,300,302,296,302,139000,302
2013/07/24,300,301,300,301,28000,301
2013/07/25,303,303,299,300,45000,300
2013/07/26,297,300,292,293,95000,293
2013/07/29,290,290,280,282,127000,282
2013/07/30,282,288,282,285,63000,285
2013/07/31,283,284,281,281,83000,281
2013/08/01,283,288,283,288,65000,288
2013/08/02,294,294,289,293,96000,293
2013/08/05,294,294,288,293,49000,293
2013/08/06,293,298,289,298,64000,298
2013/08/07,295,296,291,291,77000,291
2013/08/08,292,295,287,287,102000,287
2013/08/09,290,294,290,292,109000,292
2013/08/12,291,296,290,294,117000,294
2013/08/13,292,299,292,296,115000,296
2013/08/14,299,300,296,298,73000,298
2013/08/15,297,297,293,293,48000,293
2013/08/16,292,293,290,290,62000,290
2013/08/19,290,292,285,290,36000,290
2013/08/20,288,289,283,283,66000,283
2013/08/21,286,286,278,279,79000,279
2013/08/22,279,285,279,283,67000,283
2013/08/23,285,285,282,285,32000,285
2013/08/26,285,286,282,282,26000,282
2013/08/27,289,294,288,291,197000,291
2013/08/28,290,294,285,291,121000,291
2013/08/29,292,293,288,289,81000,289
2013/08/30,291,291,284,284,103000,284
2013/09/02,282,287,282,284,44000,284
2013/09/03,288,288,283,284,171000,284
2013/09/04,285,288,285,288,81000,288
2013/09/05,288,288,286,287,84000,287
2013/09/06,286,286,282,284,74000,284
2013/09/09,287,288,285,287,81000,287
2013/09/10,287,292,287,292,143000,292
2013/09/11,292,295,291,294,74000,294
2013/09/12,295,297,294,296,107000,296
2013/09/13,293,300,293,299,202000,299
2013/09/17,300,303,298,300,103000,300
2013/09/18,300,303,298,301,98000,301
2013/09/19,303,305,301,305,89000,305
2013/09/20,306,306,304,306,77000,306
2013/09/24,307,316,307,315,227000,315
2013/09/25,314,315,305,306,123000,306
2013/09/26,305,311,299,311,89000,311
2013/09/27,312,313,307,310,81000,310
2013/09/30,309,309,304,306,67000,306
2013/10/01,306,309,303,306,96000,306
2013/10/02,308,308,292,296,122000,296
2013/10/03,299,300,296,298,90000,298
2013/10/04,298,298,291,296,108000,296
2013/10/07,294,298,293,293,65000,293
2013/10/08,292,293,290,291,66000,291
2013/10/09,290,298,290,298,114000,298
2013/10/10,298,299,297,299,41000,299
2013/10/11,300,304,300,302,87000,302
2013/10/15,303,303,301,302,81000,302
2013/10/16,301,304,299,303,79000,303
2013/10/17,304,305,302,304,76000,304
2013/10/18,304,304,300,304,77000,304
2013/10/21,305,308,303,304,107000,304
2013/10/22,304,306,304,306,47000,306
2013/10/23,306,307,301,301,101000,301
2013/10/24,303,305,301,305,76000,305
2013/10/25,306,306,302,302,49000,302
2013/10/28,301,302,296,297,125000,297
2013/10/29,297,298,295,296,81000,296
2013/10/30,299,303,298,301,123000,301
2013/10/31,300,300,297,298,48000,298
2013/11/01,298,298,292,294,103000,294
2013/11/05,299,299,292,293,93000,293
2013/11/06,295,296,293,294,68000,294
2013/11/07,297,297,290,292,150000,292
2013/11/08,290,297,290,295,115000,295
2013/11/11,294,294,289,291,140000,291
2013/11/12,292,298,291,296,147000,296
2013/11/13,298,299,292,298,141000,298
2013/11/14,299,300,298,299,112000,299
2013/11/15,301,303,298,303,174000,303
2013/11/18,302,303,299,300,142000,300
2013/11/19,300,301,299,299,83000,299
2013/11/20,301,301,298,299,70000,299
2013/11/21,300,301,299,301,123000,301
2013/11/22,301,302,297,299,141000,299
2013/11/25,300,301,299,301,83000,301
2013/11/26,300,301,299,300,64000,300
2013/11/27,298,301,297,300,130000,300
2013/11/28,300,302,300,302,70000,302
2013/11/29,302,302,300,300,59000,300
2013/12/02,301,303,300,300,88000,300
2013/12/03,302,302,299,300,127000,300
2013/12/04,299,299,293,295,166000,295
2013/12/05,297,297,293,293,106000,293
2013/12/06,298,305,296,304,302000,304
2013/12/09,310,314,308,311,368000,311
2013/12/10,330,339,325,337,2275000,337
2013/12/11,334,336,325,326,891000,326
2013/12/12,324,324,316,319,493000,319
2013/12/13,324,331,318,330,889000,330
2013/12/16,326,338,326,333,780000,333
2013/12/17,335,335,327,330,318000,330
2013/12/18,331,340,331,340,652000,340
2013/12/19,348,349,334,337,716000,337
2013/12/20,340,340,334,338,352000,338
2013/12/24,334,339,333,335,315000,335
2013/12/25,335,337,333,336,329000,336
2013/12/26,337,344,336,342,243000,342
2013/12/27,345,347,339,346,230000,346
2013/12/30,343,356,343,354,319000,354
2014/01/06,359,364,351,360,349000,360
2014/01/07,360,366,352,358,300000,358
2014/01/08,358,383,357,375,748000,375
2014/01/09,372,381,369,380,412000,380
2014/01/10,377,381,371,377,318000,377
2014/01/14,367,369,362,363,326000,363
2014/01/15,361,369,361,368,247000,368
2014/01/16,367,376,367,371,423000,371
2014/01/17,371,390,370,389,425000,389
2014/01/20,388,398,382,392,434000,392
2014/01/21,393,401,393,395,442000,395
2014/01/22,396,398,389,391,307000,391
2014/01/23,392,395,380,380,224000,380
2014/01/24,372,379,371,376,307000,376
2014/01/27,363,371,363,366,316000,366
2014/01/28,365,375,364,364,248000,364
2014/01/29,368,385,368,385,232000,385
2014/01/30,375,382,372,380,288000,380
2014/01/31,381,387,366,368,209000,368
2014/02/03,361,365,359,360,208000,360
2014/02/04,350,350,332,333,391000,333
2014/02/05,340,348,335,337,226000,337
2014/02/06,343,350,338,340,176000,340
2014/02/07,349,356,344,351,146000,351
2014/02/10,350,354,346,351,150000,351
2014/02/12,357,357,351,356,96000,356
2014/02/13,355,355,350,350,81000,350
2014/02/14,351,351,334,343,154000,343
2014/02/17,344,350,336,349,120000,349
2014/02/18,347,352,345,350,137000,350
2014/02/19,350,350,345,346,51000,346
2014/02/20,345,345,332,336,129000,336
2014/02/21,343,349,338,346,124000,346
2014/02/24,342,349,336,338,113000,338
2014/02/25,343,350,338,347,128000,347
2014/02/26,343,348,343,343,88000,343
2014/02/27,342,343,340,341,66000,341
2014/02/28,342,342,337,341,96000,341
2014/03/03,338,338,321,331,185000,331
2014/03/04,328,339,328,338,150000,338
2014/03/05,341,348,341,343,154000,343
2014/03/06,341,348,341,347,105000,347
2014/03/07,349,352,346,348,115000,348
2014/03/10,345,348,345,346,55000,346
2014/03/11,348,349,347,349,76000,349
2014/03/12,347,347,342,343,64000,343
2014/03/13,342,342,337,339,101000,339
2014/03/14,336,340,332,332,265000,332
2014/03/17,332,333,327,329,91000,329
2014/03/18,332,337,328,335,117000,335
2014/03/19,334,339,330,334,85000,334
2014/03/20,340,340,329,331,184000,331
2014/03/24,331,344,331,340,106000,340
2014/03/25,343,343,338,342,79000,342
2014/03/26,343,349,343,348,141000,348
2014/03/27,348,351,345,347,161000,347
2014/03/28,341,349,335,347,150000,347
2014/03/31,352,366,352,365,253000,365
2014/04/01,365,365,359,364,131000,364
2014/04/02,366,368,362,362,150000,362
2014/04/03,363,367,359,362,105000,362
2014/04/04,361,362,360,361,66000,361
2014/04/07,356,356,348,350,99000,350
2014/04/08,350,351,345,345,97000,345
2014/04/09,343,344,334,337,128000,337
2014/04/10,345,350,342,342,166000,342
2014/04/11,338,338,331,335,72000,335
2014/04/14,334,338,331,332,40000,332
2014/04/15,335,338,335,335,63000,335
2014/04/16,337,344,336,343,50000,343
2014/04/17,344,345,343,343,45000,343
2014/04/18,342,346,341,346,57000,346
2014/04/21,346,346,326,346,80000,346
2014/04/22,345,345,340,340,29000,340
2014/04/23,348,354,343,350,95000,350
2014/04/24,346,348,344,346,35000,346
2014/04/25,344,347,338,346,65000,346
2014/04/28,346,346,338,342,44000,342
2014/04/30,341,341,336,339,57000,339
2014/05/01,342,345,338,343,86000,343
2014/05/02,345,345,341,344,48000,344
2014/05/07,341,341,332,333,105000,333
2014/05/08,336,338,334,336,61000,336
2014/05/09,333,340,333,335,33000,335
2014/05/12,340,340,330,331,72000,331
2014/05/13,336,338,334,336,49000,336
2014/05/14,335,337,332,335,60000,335
2014/05/15,331,331,326,328,81000,328
2014/05/16,323,324,319,321,106000,321
2014/05/19,319,322,314,314,42000,314
2014/05/20,317,324,317,317,44000,317
2014/05/21,318,318,314,317,42000,317
2014/05/22,320,332,320,332,114000,332
2014/05/23,336,336,330,335,59000,335
2014/05/26,340,352,340,352,244000,352
2014/05/27,347,355,347,348,57000,348
2014/05/28,348,356,344,348,127000,348
2014/05/29,345,346,342,342,59000,342
2014/05/30,344,349,341,345,83000,345
2014/06/02,345,350,344,345,78000,345
2014/06/03,347,352,341,349,170000,349
2014/06/04,348,351,348,348,43000,348
2014/06/05,351,353,347,347,51000,347
2014/06/06,349,357,348,356,135000,356
2014/06/09,359,362,359,360,173000,360
2014/06/10,360,363,358,361,97000,361
2014/06/11,358,367,356,366,133000,366
2014/06/12,377,377,365,366,226000,366
2014/06/13,367,376,367,376,290000,376
2014/06/16,376,376,368,370,111000,370
2014/06/17,374,374,371,372,63000,372
2014/06/18,374,377,371,377,80000,377
2014/06/19,376,377,372,375,128000,375
2014/06/20,376,376,369,370,103000,370
2014/06/23,372,375,371,372,85000,372
2014/06/24,372,372,369,372,46000,372
2014/06/25,370,372,369,370,58000,370
2014/06/26,372,372,366,368,70000,368
2014/06/27,366,366,362,364,95000,364
2014/06/30,364,373,364,371,37000,371
2014/07/01,369,375,369,373,89000,373
2014/07/02,372,380,370,375,104000,375
2014/07/03,377,379,372,378,79000,378
2014/07/04,377,380,377,377,69000,377
2014/07/07,368,373,360,361,436000,361
2014/07/08,363,368,355,366,212000,366
2014/07/09,363,363,361,363,67000,363
2014/07/10,364,365,356,356,51000,356
2014/07/11,353,357,353,357,103000,357
2014/07/14,359,365,356,358,80000,358
2014/07/15,359,363,357,360,64000,360
2014/07/16,359,360,351,354,138000,354
2014/07/17,356,356,334,341,481000,341
2014/07/18,339,342,336,339,123000,339
2014/07/22,341,343,338,339,154000,339
2014/07/23,341,341,336,337,234000,337
2014/07/24,338,343,337,343,206000,343
2014/07/25,345,351,345,350,144000,350
2014/07/28,354,356,351,355,159000,355
2014/07/29,356,357,354,355,81000,355
2014/07/30,353,355,352,353,67000,353
2014/07/31,354,354,349,351,93000,351
2014/08/01,346,348,345,345,46000,345
2014/08/04,345,345,343,344,47000,344
2014/08/05,348,348,341,341,67000,341
2014/08/06,340,340,332,333,110000,333
2014/08/07,334,342,334,341,118000,341
2014/08/08,339,341,332,332,86000,332
2014/08/11,333,342,332,341,88000,341
2014/08/12,341,350,341,345,90000,345
2014/08/13,340,345,340,343,23000,343
2014/08/14,345,349,345,347,55000,347
2014/08/15,347,347,335,345,39000,345
2014/08/18,345,345,343,343,43000,343
2014/08/19,347,348,343,346,48000,346
2014/08/20,346,346,343,344,59000,344
2014/08/21,347,347,342,344,132000,344
2014/08/22,344,344,339,341,66000,341
2014/08/25,342,342,338,338,28000,338
2014/08/26,338,339,336,338,76000,338
2014/08/27,337,339,337,339,45000,339
2014/08/28,340,340,336,337,49000,337
2014/08/29,336,342,335,340,84000,340
2014/09/01,339,347,339,345,106000,345
2014/09/02,351,357,350,355,219000,355
2014/09/03,355,356,351,352,156000,352
2014/09/04,352,353,348,348,128000,348
2014/09/05,353,353,349,352,58000,352
2014/09/08,354,354,352,354,66000,354
2014/09/09,354,354,351,352,42000,352
2014/09/10,351,353,350,353,63000,353
2014/09/11,354,355,353,353,72000,353
2014/09/12,352,354,351,353,154000,353
2014/09/16,350,353,350,351,55000,351
2014/09/17,350,351,347,347,87000,347
2014/09/18,346,350,346,349,105000,349
2014/09/19,349,351,347,349,111000,349
2014/09/22,353,356,350,354,123000,354
2014/09/24,354,354,351,353,34000,353
2014/09/25,357,362,357,362,218000,362
2014/09/26,358,363,356,360,124000,360
2014/09/29,367,367,360,365,125000,365
2014/09/30,365,369,359,359,199000,359
2014/10/01,361,361,358,359,104000,359
2014/10/02,357,358,346,346,146000,346
2014/10/03,345,356,345,352,115000,352
2014/10/06,355,358,355,356,92000,356
2014/10/07,353,360,353,355,162000,355
2014/10/08,352,352,347,347,58000,347
2014/10/09,349,349,340,340,95000,340
2014/10/10,332,338,331,335,109000,335
2014/10/14,330,335,328,332,172000,332
2014/10/15,330,342,328,341,211000,341
2014/10/16,333,348,329,331,369000,331
2014/10/17,332,333,323,326,199000,326
2014/10/20,332,343,332,342,118000,342
2014/10/21,340,340,330,330,100000,330
2014/10/22,340,342,338,340,83000,340
2014/10/23,340,343,338,339,49000,339
2014/10/24,344,344,341,341,30000,341
2014/10/27,345,348,344,344,71000,344
2014/10/28,346,347,344,344,72000,344
2014/10/29,345,352,345,350,71000,350
2014/10/30,350,356,349,353,126000,353
2014/10/31,356,362,353,361,292000,361
2014/11/04,363,366,356,359,230000,359
2014/11/05,361,362,356,360,153000,360
2014/11/06,362,363,355,356,119000,356
2014/11/07,357,361,352,361,86000,361
2014/11/10,365,365,360,363,178000,363
2014/11/11,363,372,362,368,291000,368
2014/11/12,366,372,365,365,148000,365
2014/11/13,364,370,362,366,122000,366
2014/11/14,370,370,363,364,216000,364
2014/11/17,364,367,356,356,135000,356
2014/11/18,355,365,354,365,156000,365
2014/11/19,368,369,363,365,104000,365
2014/11/20,369,369,366,367,50000,367
2014/11/21,370,370,363,367,87000,367
2014/11/25,369,370,367,370,69000,370
2014/11/26,369,378,367,374,194000,374
2014/11/27,371,372,370,371,78000,371
2014/11/28,370,377,370,377,80000,377
2014/12/01,375,381,375,379,159000,379
2014/12/02,378,388,377,388,149000,388
2014/12/03,386,390,385,387,110000,387
2014/12/04,390,393,389,392,153000,392
2014/12/05,390,393,390,393,84000,393
2014/12/08,395,395,391,393,62000,393
2014/12/09,390,395,387,391,146000,391
2014/12/10,387,387,382,384,102000,384
2014/12/11,380,380,377,378,64000,378
2014/12/12,382,384,379,379,183000,379
2014/12/15,373,379,373,373,83000,373
2014/12/16,367,368,361,363,88000,363
2014/12/17,364,368,357,357,274000,357
2014/12/18,365,375,365,374,158000,374
2014/12/19,379,383,375,379,142000,379
2014/12/22,385,385,380,383,124000,383
2014/12/24,385,389,383,387,123000,387
2014/12/25,387,390,386,388,114000,388
2014/12/26,388,393,387,391,68000,391
2014/12/29,392,393,391,393,68000,393
2014/12/30,395,395,389,389,98000,389
2015/01/05,388,390,378,387,158000,387
2015/01/06,384,384,376,376,114000,376
2015/01/07,374,379,374,378,91000,378
2015/01/08,378,386,378,384,77000,384
2015/01/09,384,389,381,389,134000,389
2015/01/13,386,388,381,387,100000,387
2015/01/14,383,391,383,391,149000,391
2015/01/15,391,398,390,391,280000,391
2015/01/16,391,394,385,388,144000,388
2015/01/19,389,396,389,394,134000,394
2015/01/20,392,396,392,396,96000,396
2015/01/21,393,397,390,393,126000,393
2015/01/22,397,408,395,408,364000,408
2015/01/23,414,423,412,423,383000,423
2015/01/26,431,442,423,425,526000,425
2015/01/27,431,436,430,435,224000,435
2015/01/28,436,440,436,438,185000,438
2015/01/29,440,445,436,438,254000,438
2015/01/30,438,442,426,441,255000,441
2015/02/02,434,439,433,439,94000,439
2015/02/03,444,448,426,432,240000,432
2015/02/04,429,432,428,429,158000,429
2015/02/05,425,433,425,432,140000,432
2015/02/06,431,432,420,420,231000,420
2015/02/09,423,435,423,433,125000,433
2015/02/10,435,438,431,437,99000,437
2015/02/12,438,445,437,443,177000,443
2015/02/13,445,445,440,443,122000,443
2015/02/16,445,445,441,442,73000,442
2015/02/17,443,445,439,445,79000,445
2015/02/18,445,447,443,444,137000,444
2015/02/19,446,449,445,449,95000,449
2015/02/20,449,449,444,447,93000,447
2015/02/23,448,448,436,439,147000,439
2015/02/24,445,445,438,442,154000,442
2015/02/25,444,444,438,440,93000,440
2015/02/26,442,443,437,440,108000,440
2015/02/27,440,440,435,436,86000,436
2015/03/02,435,438,428,432,263000,432
2015/03/03,431,434,419,420,322000,420
2015/03/04,420,425,417,420,189000,420
2015/03/05,422,425,417,424,128000,424
2015/03/06,424,424,414,416,172000,416
2015/03/09,416,417,413,417,87000,417
2015/03/10,426,428,413,414,215000,414
2015/03/11,413,414,411,412,116000,412
2015/03/12,414,415,412,414,124000,414
2015/03/13,414,417,414,416,331000,416
2015/03/16,419,422,417,418,97000,418
2015/03/17,424,427,421,424,159000,424
2015/03/18,426,426,422,425,95000,425
2015/03/19,426,426,420,421,111000,421
2015/03/20,422,425,418,425,137000,425
2015/03/23,427,432,427,431,124000,431
2015/03/24,430,431,427,428,200000,428
2015/03/25,433,433,428,430,136000,430
2015/03/26,425,426,420,420,123000,420
2015/03/27,416,422,407,410,165000,410
2015/03/30,411,420,411,417,118000,417
2015/03/31,422,423,419,420,124000,420
2015/04/01,421,424,417,423,196000,423
2015/04/02,423,434,421,432,323000,432
2015/04/03,434,437,430,432,153000,432
2015/04/06,424,429,424,427,60000,427
2015/04/07,429,432,424,429,120000,429
2015/04/08,431,431,425,425,108000,425
2015/04/09,426,428,421,422,144000,422
2015/04/10,422,424,417,423,112000,423
2015/04/13,424,424,419,421,76000,421
2015/04/14,419,425,418,424,74000,424
2015/04/15,424,424,421,422,71000,422
2015/04/16,420,427,420,427,98000,427
2015/04/17,423,429,423,426,97000,426
2015/04/20,426,426,420,422,117000,422
2015/04/21,420,422,418,420,110000,420
2015/04/22,420,421,419,420,106000,420
2015/04/23,420,423,419,422,169000,422
2015/04/24,421,424,420,422,107000,422
2015/04/27,424,427,422,426,118000,426
2015/04/28,426,426,423,426,80000,426
2015/04/30,426,426,420,420,119000,420
2015/05/01,420,422,415,419,112000,419
2015/05/07,417,422,417,418,71000,418
2015/05/08,419,433,419,427,169000,427
2015/05/11,433,440,432,433,280000,433
2015/05/12,434,435,427,432,111000,432
2015/05/13,434,436,431,432,138000,432
2015/05/14,433,433,425,426,144000,426
2015/05/15,426,428,421,422,57000,422
2015/05/18,425,430,424,430,78000,430
2015/05/19,430,431,427,431,68000,431
2015/05/20,431,433,429,433,81000,433
2015/05/21,431,434,429,434,98000,434
2015/05/22,434,434,430,431,44000,431
2015/05/25,433,433,431,432,56000,432
2015/05/26,432,432,429,430,65000,430
2015/05/27,431,431,428,431,55000,431
2015/05/28,431,431,423,424,145000,424
2015/05/29,426,427,420,422,152000,422
2015/06/01,420,421,411,414,387000,414
2015/06/02,415,416,411,414,265000,414
2015/06/03,412,415,410,414,206000,414
2015/06/04,417,417,414,415,121000,415
2015/06/05,415,418,415,416,281000,416
2015/06/08,420,420,417,419,156000,419
2015/06/09,421,424,420,422,179000,422
2015/06/10,425,428,423,425,226000,425
2015/06/11,432,435,418,428,396000,428
2015/06/12,433,434,427,433,318000,433
2015/06/15,429,435,426,434,166000,434
2015/06/16,435,435,429,433,151000,433
2015/06/17,434,439,434,438,274000,438
2015/06/18,438,438,433,433,108000,433
2015/06/19,436,448,436,448,380000,448
2015/06/22,447,455,446,454,349000,454
2015/06/23,457,466,456,464,535000,464
2015/06/24,465,469,462,463,329000,463
2015/06/25,467,474,460,466,330000,466
2015/06/26,464,465,457,458,253000,458
2015/06/29,448,449,444,445,269000,445
2015/06/30,447,448,440,442,353000,442
2015/07/01,445,454,443,453,276000,453
2015/07/02,457,459,454,456,169000,456
2015/07/03,456,460,453,457,200000,457
2015/07/06,452,455,447,447,128000,447
2015/07/07,454,459,453,456,124000,456
2015/07/08,456,456,445,446,291000,446
2015/07/09,440,446,424,444,310000,444
2015/07/10,442,444,424,425,342000,425
2015/07/13,429,436,429,435,129000,435
2015/07/14,442,444,439,441,113000,441
2015/07/15,449,450,442,450,182000,450
2015/07/16,448,455,446,452,324000,452
2015/07/17,454,454,446,448,107000,448
2015/07/21,456,465,451,463,244000,463
2015/07/22,463,463,457,458,163000,458
2015/07/23,465,470,461,469,225000,469
2015/07/24,473,473,466,469,212000,469
2015/07/27,469,470,463,463,118000,463
2015/07/28,461,463,453,461,167000,461
2015/07/29,462,463,456,456,75000,456
2015/07/30,457,466,456,465,149000,465
2015/07/31,461,473,460,472,185000,472
2015/08/03,470,472,466,471,155000,471
2015/08/04,471,476,470,472,253000,472
2015/08/05,472,481,464,481,322000,481
2015/08/06,479,479,470,473,195000,473
2015/08/07,468,474,468,474,132000,474
2015/08/10,463,471,452,470,466000,470
2015/08/11,471,474,468,469,151000,469
2015/08/12,469,469,461,465,110000,465
2015/08/13,464,464,457,460,211000,460
2015/08/14,456,460,452,454,153000,454
2015/08/17,455,467,455,465,120000,465
2015/08/18,462,468,462,465,169000,465
2015/08/19,463,463,452,453,121000,453
2015/08/20,452,453,446,447,193000,447
2015/08/21,444,444,428,429,333000,429
2015/08/24,413,428,405,405,375000,405
2015/08/25,400,419,387,405,619000,405
2015/08/26,407,412,407,409,276000,409
2015/08/27,424,427,414,415,367000,415
2015/08/28,430,430,422,423,296000,423
2015/08/31,424,424,418,422,376000,422
2015/09/01,420,422,406,407,211000,407
2015/09/02,400,409,397,398,296000,398
2015/09/03,410,410,397,399,315000,399
2015/09/04,396,398,388,389,136000,389
2015/09/07,387,387,378,381,237000,381
2015/09/08,383,384,375,375,101000,375
2015/09/09,389,395,387,395,103000,395
2015/09/10,383,393,383,390,227000,390
2015/09/11,387,398,387,396,181000,396
2015/09/14,399,400,395,395,130000,395
2015/09/15,400,403,396,399,269000,399
2015/09/16,402,403,397,401,156000,401
2015/09/17,403,410,398,409,199000,409
2015/09/18,408,408,399,404,146000,404
2015/09/24,396,401,396,399,134000,399
2015/09/25,399,409,396,409,277000,409
2015/09/28,413,416,400,415,176000,415
2015/09/29,408,414,401,402,181000,402
2015/09/30,405,411,405,410,105000,410
2015/10/01,411,414,409,413,74000,413
2015/10/02,413,413,406,410,82000,410
2015/10/05,415,418,410,414,206000,414
2015/10/06,416,418,411,411,122000,411
2015/10/07,414,415,411,415,123000,415
2015/10/08,415,416,413,416,161000,416
2015/10/09,418,421,414,421,139000,421
2015/10/13,420,421,419,420,56000,420
2015/10/14,422,422,416,420,128000,420
2015/10/15,417,420,415,419,105000,419
2015/10/16,420,421,418,420,135000,420
