2010/03/10,492,494,490,492,28000,492
2010/03/11,493,498,493,496,42000,496
2010/03/12,496,515,489,499,100000,499
2010/03/15,497,500,495,498,40000,498
2010/03/16,495,498,494,496,15000,496
2010/03/17,501,505,500,505,54000,505
2010/03/18,500,505,499,502,53000,502
2010/03/19,504,505,497,505,30000,505
2010/03/23,506,512,505,505,37000,505
2010/03/24,510,513,509,509,35000,509
2010/03/25,511,518,511,511,36000,511
2010/03/26,517,521,511,521,107000,521
2010/03/29,516,522,514,522,32000,522
2010/03/30,521,522,517,522,44000,522
2010/03/31,522,534,521,521,48000,521
2010/04/01,521,532,516,532,48000,532
2010/04/02,532,532,521,523,41000,523
2010/04/05,524,524,517,523,76000,523
2010/04/06,522,523,518,519,39000,519
2010/04/07,522,528,520,525,29000,525
2010/04/08,525,541,525,534,86000,534
2010/04/09,535,545,535,543,42000,543
2010/04/12,543,553,543,543,47000,543
2010/04/13,543,547,543,547,93000,547
2010/04/14,548,552,548,550,42000,550
2010/04/15,553,553,550,550,24000,550
2010/04/16,550,550,536,548,33000,548
2010/04/19,538,538,525,531,61000,531
2010/04/20,538,538,526,530,22000,530
2010/04/21,531,536,529,532,42000,532
2010/04/22,532,533,527,532,25000,532
2010/04/23,531,533,525,533,42000,533
2010/04/26,537,548,534,548,53000,548
2010/04/27,548,552,548,551,56000,551
2010/04/28,532,545,528,543,97000,543
2010/04/30,547,547,525,532,103000,532
2010/05/06,530,530,510,521,75000,521
2010/05/07,522,522,502,513,109000,513
2010/05/10,512,524,506,518,47000,518
2010/05/11,521,530,503,511,56000,511
2010/05/12,511,514,505,509,46000,509
2010/05/13,519,524,513,516,52000,516
2010/05/14,517,524,516,518,38000,518
2010/05/17,508,517,507,515,40000,515
2010/05/18,525,528,503,508,44000,508
2010/05/19,509,509,503,504,15000,504
2010/05/20,510,511,503,506,20000,506
2010/05/21,494,495,492,493,44000,493
2010/05/24,497,499,481,487,59000,487
2010/05/25,479,484,464,470,60000,470
2010/05/26,471,471,457,459,35000,459
2010/05/27,453,459,432,455,73000,455
2010/05/28,465,466,460,461,50000,461
2010/05/31,461,476,461,467,36000,467
2010/06/01,467,473,467,473,19000,473
2010/06/02,472,473,462,471,10000,471
2010/06/03,470,480,470,475,33000,475
2010/06/04,476,477,470,472,29000,472
2010/06/07,460,464,453,456,26000,456
2010/06/08,450,458,450,457,7000,457
2010/06/09,454,459,451,456,15000,456
2010/06/10,458,465,453,463,18000,463
2010/06/11,479,480,470,471,66000,471
2010/06/14,468,477,466,477,27000,477
2010/06/15,479,479,471,473,13000,473
2010/06/16,480,480,468,472,30000,472
2010/06/17,473,475,469,470,24000,470
2010/06/18,478,482,467,468,59000,468
2010/06/21,476,490,476,488,24000,488
2010/06/22,488,492,487,492,39000,492
2010/06/23,490,490,486,488,25000,488
2010/06/24,487,488,486,488,13000,488
2010/06/25,481,481,473,476,22000,476
2010/06/28,473,479,469,469,9000,469
2010/06/29,470,480,470,471,11000,471
2010/06/30,455,467,455,466,9000,466
2010/07/01,461,461,456,456,11000,456
2010/07/02,459,459,446,451,24000,451
2010/07/05,447,455,447,452,14000,452
2010/07/06,445,465,445,465,10000,465
2010/07/07,457,461,452,461,11000,461
2010/07/08,467,467,458,463,29000,463
2010/07/09,459,466,459,464,18000,464
2010/07/12,462,470,462,470,18000,470
2010/07/13,471,471,459,461,34000,461
2010/07/14,462,475,462,467,20000,467
2010/07/15,466,471,463,467,27000,467
2010/07/16,465,471,464,471,32000,471
2010/07/20,470,486,468,469,81000,469
2010/07/21,470,475,469,470,22000,470
2010/07/22,470,470,459,459,32000,459
2010/07/23,474,482,470,471,89000,471
2010/07/26,478,478,472,474,15000,474
2010/07/27,472,475,462,474,18000,474
2010/07/28,474,481,474,481,27000,481
2010/07/29,476,479,471,471,31000,471
2010/07/30,471,471,457,460,33000,460
2010/08/02,459,472,454,460,17000,460
2010/08/03,466,471,451,454,50000,454
2010/08/04,452,452,438,440,24000,440
2010/08/05,448,457,448,453,32000,453
2010/08/06,457,469,454,468,35000,468
2010/08/09,472,486,472,476,39000,476
2010/08/10,476,476,462,463,9000,463
2010/08/11,462,467,460,466,55000,466
2010/08/12,457,467,457,465,46000,465
2010/08/13,467,473,467,470,15000,470
2010/08/16,469,474,468,474,6000,474
2010/08/17,477,477,470,476,36000,476
2010/08/18,476,476,468,472,45000,472
2010/08/19,475,484,473,484,29000,484
2010/08/20,482,484,478,483,29000,483
2010/08/23,482,484,474,474,23000,474
2010/08/24,469,476,466,466,27000,466
2010/08/25,460,463,457,463,28000,463
2010/08/26,456,468,455,468,23000,468
2010/08/27,468,472,467,472,34000,472
2010/08/30,478,480,475,480,26000,480
2010/08/31,472,474,464,468,20000,468
2010/09/01,469,470,459,467,18000,467
2010/09/02,475,475,469,472,16000,472
2010/09/03,472,476,471,473,14000,473
2010/09/06,471,471,471,471,1000,471
2010/09/07,471,472,466,472,17000,472
2010/09/08,465,471,465,471,4000,471
2010/09/09,471,472,464,472,10000,472
2010/09/10,464,481,464,478,64000,478
2010/09/13,474,480,469,479,37000,479
2010/09/14,477,477,474,475,10000,475
2010/09/15,475,481,467,478,18000,478
2010/09/16,482,482,476,479,13000,479
2010/09/17,475,484,475,483,28000,483
2010/09/21,491,500,483,496,45000,496
2010/09/22,498,498,494,494,21000,494
2010/09/24,494,499,490,491,45000,491
2010/09/27,498,504,495,499,36000,499
2010/09/28,492,498,491,498,26000,498
2010/09/29,497,500,493,499,18000,499
2010/09/30,500,503,490,491,18000,491
2010/10/01,492,494,486,494,30000,494
2010/10/04,495,497,486,490,11000,490
2010/10/05,483,496,483,496,19000,496
2010/10/06,496,500,496,496,8000,496
2010/10/07,494,498,494,497,9000,497
2010/10/08,490,496,486,487,31000,487
2010/10/12,486,486,472,472,11000,472
2010/10/13,473,473,467,467,23000,467
2010/10/14,468,485,468,482,23000,482
2010/10/15,475,479,473,479,21000,479
2010/10/18,484,487,482,483,37000,483
2010/10/19,475,481,465,479,29000,479
2010/10/20,471,472,465,472,36000,472
2010/10/21,472,472,459,469,29000,469
2010/10/22,467,472,467,470,14000,470
2010/10/25,478,479,472,478,33000,478
2010/10/26,481,481,477,479,11000,479
2010/10/27,473,481,473,479,49000,479
2010/10/28,456,457,437,437,135000,437
2010/10/29,438,443,422,442,57000,442
2010/11/01,435,435,417,426,44000,426
2010/11/02,422,431,406,429,40000,429
2010/11/04,430,439,430,439,18000,439
2010/11/05,439,446,439,445,18000,445
2010/11/08,445,456,444,445,19000,445
2010/11/09,440,445,440,440,17000,440
2010/11/10,435,449,435,449,16000,449
2010/11/11,442,447,442,446,17000,446
2010/11/12,441,444,438,438,18000,438
2010/11/15,438,439,438,439,7000,439
2010/11/16,439,441,439,441,14000,441
2010/11/17,437,447,437,446,31000,446
2010/11/18,446,455,446,454,47000,454
2010/11/19,454,454,450,452,18000,452
2010/11/22,452,457,449,456,21000,456
2010/11/24,456,456,440,448,55000,448
2010/11/25,454,454,449,452,21000,452
2010/11/26,456,457,450,454,12000,454
2010/11/29,458,459,453,454,17000,454
2010/11/30,450,451,448,451,23000,451
2010/12/01,451,451,435,440,40000,440
2010/12/02,442,445,442,443,29000,443
2010/12/03,444,448,442,445,36000,445
2010/12/06,453,453,446,447,12000,447
2010/12/07,444,450,443,450,21000,450
2010/12/08,450,454,448,454,38000,454
2010/12/09,454,454,451,452,28000,452
2010/12/10,453,455,448,455,86000,455
2010/12/13,459,464,458,463,36000,463
2010/12/14,458,466,458,464,48000,464
2010/12/15,468,472,467,472,29000,472
2010/12/16,472,479,469,478,32000,478
2010/12/17,479,482,478,482,73000,482
2010/12/20,490,496,489,493,174000,493
2010/12/21,487,498,487,492,49000,492
2010/12/22,492,493,487,488,31000,488
2010/12/24,492,495,489,492,63000,492
2010/12/27,492,496,479,479,52000,479
2010/12/28,471,485,468,482,44000,482
2010/12/29,482,486,481,486,16000,486
2010/12/30,479,488,470,488,39000,488
2011/01/04,488,493,488,491,22000,491
2011/01/05,491,496,485,493,19000,493
2011/01/06,493,495,492,495,17000,495
2011/01/07,497,499,493,494,34000,494
2011/01/11,486,496,486,492,17000,492
2011/01/12,489,494,489,491,19000,491
2011/01/13,490,491,485,486,21000,486
2011/01/14,483,490,483,484,39000,484
2011/01/17,487,494,487,494,18000,494
2011/01/18,495,497,492,496,37000,496
2011/01/19,494,494,492,493,25000,493
2011/01/20,493,493,484,485,25000,485
2011/01/21,486,486,477,477,44000,477
2011/01/24,480,488,469,473,60000,473
2011/01/25,475,489,475,489,44000,489
2011/01/26,488,491,474,475,52000,475
2011/01/27,479,488,476,484,63000,484
2011/01/28,484,485,482,484,27000,484
2011/01/31,480,485,473,483,49000,483
2011/02/01,483,489,483,489,28000,489
2011/02/02,493,495,490,494,57000,494
2011/02/03,495,498,494,495,38000,495
2011/02/04,496,515,496,503,37000,503
2011/02/07,503,508,503,506,23000,506
2011/02/08,507,507,500,502,39000,502
2011/02/09,502,505,499,501,24000,501
2011/02/10,496,506,496,506,24000,506
2011/02/14,506,506,502,502,4000,502
2011/02/15,503,503,497,501,17000,501
2011/02/16,506,509,505,506,20000,506
2011/02/17,511,514,507,509,56000,509
2011/02/18,510,513,510,511,45000,511
2011/02/21,511,525,511,525,28000,525
2011/02/22,523,524,513,514,42000,514
2011/02/23,505,525,505,521,80000,521
2011/02/24,515,519,507,510,54000,510
2011/02/25,509,510,496,509,35000,509
2011/02/28,507,507,493,500,45000,500
2011/03/01,499,511,499,509,52000,509
2011/03/02,508,508,496,496,30000,496
2011/03/03,504,504,495,499,16000,499
2011/03/04,509,511,505,510,37000,510
2011/03/07,509,510,506,509,37000,509
2011/03/08,508,509,504,507,38000,507
2011/03/09,509,517,509,514,45000,514
2011/03/10,515,529,511,527,73000,527
2011/03/11,531,531,520,520,122000,520
2011/03/14,452,468,439,462,54000,462
2011/03/15,446,450,382,394,76000,394
2011/03/16,402,437,400,437,82000,437
2011/03/17,415,440,408,439,70000,439
2011/03/18,479,487,466,475,95000,475
2011/03/22,483,524,477,519,99000,519
2011/03/23,522,522,502,504,48000,504
2011/03/24,497,515,492,497,38000,497
2011/03/25,505,510,505,507,33000,507
2011/03/28,507,507,505,507,60000,507
2011/03/29,504,506,493,503,44000,503
2011/03/30,504,517,497,517,38000,517
2011/03/31,518,518,505,512,22000,512
2011/04/01,513,519,511,517,24000,517
2011/04/04,524,524,514,523,26000,523
2011/04/05,513,513,500,502,16000,502
2011/04/06,502,502,491,495,20000,495
2011/04/07,489,501,489,495,13000,495
2011/04/08,495,500,489,491,23000,491
2011/04/11,483,491,480,489,18000,489
2011/04/12,481,490,481,486,13000,486
2011/04/13,480,486,479,486,5000,486
2011/04/14,486,498,481,495,21000,495
2011/04/15,491,498,491,498,16000,498
2011/04/18,490,505,490,503,65000,503
2011/04/19,501,511,499,505,25000,505
2011/04/20,510,511,508,508,35000,508
2011/04/21,507,510,507,507,11000,507
2011/04/22,497,505,489,505,21000,505
2011/04/25,508,511,502,508,23000,508
2011/04/26,502,502,496,499,15000,499
2011/04/27,493,498,490,490,19000,490
2011/04/28,490,490,486,488,32000,488
2011/05/02,490,498,490,497,13000,497
2011/05/06,496,496,496,496,2000,496
2011/05/09,489,489,487,487,13000,487
2011/05/10,492,492,490,490,12000,490
2011/05/11,488,488,487,488,9000,488
2011/05/12,480,488,479,479,20000,479
2011/05/13,476,476,466,466,38000,466
2011/05/16,461,470,461,467,26000,467
2011/05/17,470,475,466,475,35000,475
2011/05/18,479,485,474,481,38000,481
2011/05/19,480,480,466,467,14000,467
2011/05/20,469,469,465,466,17000,466
2011/05/23,468,470,466,466,16000,466
2011/05/24,465,465,465,465,8000,465
2011/05/25,459,459,455,458,14000,458
2011/05/26,456,456,453,456,21000,456
2011/05/27,450,454,450,454,13000,454
2011/05/30,449,455,447,450,13000,450
2011/05/31,454,455,449,454,10000,454
2011/06/01,455,456,450,450,12000,450
2011/06/02,449,449,441,443,27000,443
2011/06/03,440,442,439,440,16000,440
2011/06/06,439,439,439,439,4000,439
2011/06/07,435,438,435,435,9000,435
2011/06/08,434,434,433,433,9000,433
2011/06/09,433,434,433,433,4000,433
2011/06/10,434,436,433,434,46000,434
2011/06/13,438,448,438,446,54000,446
2011/06/14,446,453,446,452,28000,452
2011/06/15,452,452,450,450,22000,450
2011/06/16,451,457,450,455,48000,455
2011/06/17,453,459,453,458,33000,458
2011/06/20,464,473,464,469,47000,469
2011/06/21,469,470,469,469,26000,469
2011/06/22,467,468,462,464,57000,464
2011/06/23,464,466,457,462,38000,462
2011/06/24,462,462,449,452,56000,452
2011/06/27,452,452,446,448,18000,448
2011/06/28,448,448,440,444,34000,444
2011/06/29,448,451,447,449,19000,449
2011/06/30,451,460,450,460,14000,460
2011/07/01,463,464,455,460,14000,460
2011/07/04,467,472,465,472,21000,472
2011/07/05,465,468,460,463,19000,463
2011/07/06,463,466,461,466,9000,466
2011/07/07,461,463,461,463,9000,463
2011/07/08,469,470,465,468,9000,468
2011/07/11,471,471,456,469,15000,469
2011/07/12,468,475,459,474,26000,474
2011/07/13,472,475,472,475,16000,475
2011/07/14,475,479,473,479,20000,479
2011/07/15,482,488,482,488,32000,488
2011/07/19,496,512,471,479,143000,479
2011/07/20,479,481,463,464,53000,464
2011/07/21,464,466,462,466,13000,466
2011/07/22,467,477,467,475,27000,475
2011/07/25,483,488,473,473,38000,473
2011/07/26,468,471,467,471,10000,471
2011/07/27,464,483,464,479,32000,479
2011/07/28,478,478,466,471,16000,471
2011/07/29,469,470,465,466,15000,466
2011/08/01,463,467,461,465,17000,465
2011/08/02,457,457,449,451,29000,451
2011/08/03,450,450,442,442,22000,442
2011/08/04,443,445,441,444,14000,444
2011/08/05,425,435,421,435,32000,435
2011/08/08,427,429,425,426,20000,426
2011/08/09,423,423,408,416,21000,416
2011/08/10,419,426,414,415,46000,415
2011/08/11,407,416,407,416,16000,416
2011/08/12,420,420,413,414,13000,414
2011/08/15,420,420,419,419,9000,419
2011/08/16,427,432,423,432,27000,432
2011/08/17,435,448,435,448,34000,448
2011/08/18,450,453,446,446,44000,446
2011/08/19,445,445,440,444,16000,444
2011/08/22,440,440,436,436,17000,436
2011/08/23,444,447,440,442,35000,442
2011/08/24,446,446,431,433,18000,433
2011/08/25,437,439,430,430,27000,430
2011/08/26,430,430,430,430,12000,430
2011/08/29,430,432,426,428,16000,428
2011/08/30,430,434,430,430,11000,430
2011/08/31,434,455,434,450,27000,450
2011/09/01,457,458,428,429,47000,429
2011/09/02,432,436,432,432,14000,432
2011/09/05,427,432,427,432,7000,432
2011/09/06,432,433,415,421,18000,421
2011/09/07,424,432,424,429,6000,429
2011/09/08,434,434,425,428,9000,428
2011/09/09,429,430,427,427,40000,427
2011/09/12,419,426,418,418,11000,418
2011/09/13,418,432,418,432,21000,432
2011/09/14,436,436,429,429,12000,429
2011/09/15,437,438,432,433,12000,433
2011/09/16,435,453,434,448,55000,448
2011/09/20,455,456,444,445,49000,445
2011/09/21,446,446,440,440,18000,440
2011/09/22,435,440,433,440,29000,440
2011/09/26,443,450,427,427,43000,427
2011/09/27,428,444,426,444,21000,444
2011/09/28,440,461,437,461,43000,461
2011/09/29,455,466,452,466,45000,466
2011/09/30,466,466,444,460,18000,460
2011/10/03,456,456,440,453,13000,453
2011/10/04,449,449,438,439,7000,439
2011/10/05,439,439,422,423,12000,423
2011/10/06,429,438,426,438,13000,438
2011/10/07,440,453,440,446,11000,446
2011/10/11,451,456,443,444,11000,444
2011/10/12,439,447,439,441,12000,441
2011/10/13,443,444,440,442,7000,442
2011/10/14,441,444,440,443,7000,443
2011/10/17,447,460,447,453,25000,453
2011/10/18,453,455,451,451,34000,451
2011/10/19,455,459,455,456,6000,456
2011/10/20,456,456,452,455,10000,455
2011/10/21,447,448,443,443,15000,443
2011/10/24,449,456,449,450,20000,450
2011/10/25,456,458,426,431,26000,431
2011/10/26,431,431,424,428,6000,428
2011/10/27,425,432,423,432,17000,432
2011/10/28,432,451,432,451,18000,451
2011/10/31,452,454,443,443,24000,443
2011/11/01,439,439,435,435,11000,435
2011/11/02,433,433,430,430,6000,430
2011/11/04,433,434,429,430,9000,430
2011/11/07,430,430,429,430,7000,430
2011/11/08,429,431,428,428,8000,428
2011/11/09,428,432,427,432,9000,432
2011/11/10,424,427,424,427,10000,427
2011/11/11,420,427,417,425,18000,425
2011/11/14,424,427,422,422,4000,422
2011/11/15,421,421,419,419,3000,419
2011/11/16,420,421,419,419,7000,419
2011/11/17,419,426,419,426,23000,426
2011/11/18,427,430,421,421,43000,421
2011/11/21,416,417,416,417,5000,417
2011/11/22,412,420,412,420,16000,420
2011/11/24,419,420,414,420,25000,420
2011/11/25,416,419,413,413,14000,413
2011/11/28,409,413,409,411,8000,411
2011/11/29,416,416,392,409,44000,409
2011/11/30,409,413,404,407,25000,407
2011/12/01,417,417,409,409,10000,409
2011/12/02,409,415,408,409,8000,409
2011/12/05,410,414,409,414,12000,414
2011/12/06,409,410,408,409,14000,409
2011/12/07,412,412,408,408,12000,408
2011/12/08,409,410,404,410,28000,410
2011/12/09,410,414,410,414,44000,414
2011/12/12,417,418,410,412,38000,412
2011/12/13,410,411,410,411,6000,411
2011/12/14,414,415,412,412,15000,412
2011/12/15,410,417,410,416,25000,416
2011/12/16,419,423,418,423,47000,423
2011/12/19,420,425,414,414,87000,414
2011/12/20,418,418,418,418,3000,418
2011/12/21,418,419,418,419,6000,419
2011/12/22,419,420,417,420,13000,420
2011/12/26,428,428,419,420,37000,420
2011/12/27,419,419,410,411,12000,411
2011/12/28,411,411,409,409,6000,409
2011/12/29,409,414,406,414,6000,414
2011/12/30,417,417,411,411,8000,411
2012/01/04,419,423,419,423,13000,423
2012/01/05,420,423,420,420,9000,420
2012/01/06,414,420,414,419,8000,419
2012/01/10,420,420,416,416,6000,416
2012/01/11,416,420,416,420,11000,420
2012/01/12,418,420,415,416,20000,416
2012/01/13,416,419,415,419,19000,419
2012/01/16,419,419,415,415,13000,415
2012/01/17,418,421,418,421,17000,421
2012/01/18,421,422,420,422,43000,422
2012/01/19,420,422,420,420,11000,420
2012/01/20,420,424,418,422,31000,422
2012/01/23,425,427,425,426,20000,426
2012/01/24,428,431,427,431,18000,431
2012/01/25,431,440,431,440,25000,440
2012/01/26,436,440,436,440,21000,440
2012/01/27,435,435,426,426,37000,426
2012/01/30,423,427,423,424,13000,424
2012/01/31,425,427,422,427,25000,427
2012/02/01,428,428,427,427,5000,427
2012/02/02,427,431,425,428,17000,428
2012/02/03,426,426,423,423,20000,423
2012/02/06,425,427,421,424,16000,424
2012/02/07,425,425,421,421,9000,421
2012/02/08,425,429,424,429,22000,429
2012/02/09,429,430,425,430,14000,430
2012/02/10,430,430,427,429,13000,429
2012/02/13,428,429,426,429,13000,429
2012/02/14,426,429,426,429,21000,429
2012/02/15,429,433,429,433,57000,433
2012/02/16,429,431,428,430,32000,430
2012/02/17,432,434,431,431,37000,431
2012/02/20,434,437,434,437,48000,437
2012/02/21,436,443,436,443,32000,443
2012/02/22,443,459,443,458,43000,458
2012/02/23,460,467,454,467,38000,467
2012/02/24,464,470,460,470,42000,470
2012/02/27,469,479,461,479,18000,479
2012/02/28,473,481,468,481,39000,481
2012/02/29,482,490,482,489,22000,489
2012/03/01,490,492,476,487,17000,487
2012/03/02,492,494,491,491,29000,491
2012/03/05,491,492,485,485,8000,485
2012/03/06,485,489,477,489,19000,489
2012/03/07,481,487,481,486,15000,486
2012/03/08,486,486,479,481,18000,481
2012/03/09,491,497,490,497,66000,497
2012/03/12,500,500,490,490,11000,490
2012/03/13,497,499,496,496,21000,496
2012/03/14,499,505,492,500,64000,500
2012/03/15,501,508,501,504,30000,504
2012/03/16,508,524,505,524,54000,524
2012/03/19,514,523,504,504,89000,504
2012/03/21,507,508,496,496,31000,496
2012/03/22,497,497,486,491,64000,491
2012/03/23,486,490,486,490,39000,490
2012/03/26,485,488,475,475,45000,475
2012/03/27,474,497,474,494,123000,494
2012/03/28,487,499,487,487,49000,487
2012/03/29,495,500,485,492,37000,492
2012/03/30,490,496,489,489,30000,489
2012/04/02,486,486,472,476,37000,476
2012/04/03,476,476,466,466,29000,466
2012/04/04,466,472,463,472,35000,472
2012/04/05,472,477,470,477,11000,477
2012/04/06,478,483,478,483,23000,483
2012/04/09,480,480,471,471,13000,471
2012/04/10,471,479,471,472,19000,472
2012/04/11,470,471,468,468,6000,468
2012/04/12,469,471,467,467,7000,467
2012/04/13,474,474,473,473,8000,473
2012/04/16,475,478,475,475,16000,475
2012/04/17,481,483,476,483,28000,483
2012/04/18,483,485,477,479,44000,479
2012/04/19,474,483,472,472,24000,472
2012/04/20,476,481,474,481,14000,481
2012/04/23,473,481,472,472,27000,472
2012/04/24,467,472,464,472,21000,472
2012/04/25,468,469,465,465,29000,465
2012/04/26,469,480,466,480,19000,480
2012/04/27,475,475,444,449,52000,449
2012/05/01,449,460,445,445,13000,445
2012/05/02,450,455,448,455,9000,455
2012/05/07,447,448,445,445,11000,445
2012/05/08,445,460,443,460,7000,460
2012/05/09,452,452,436,436,22000,436
2012/05/10,440,440,436,436,4000,436
2012/05/11,435,438,429,438,11000,438
2012/05/14,430,430,425,425,6000,425
2012/05/15,420,420,411,420,21000,420
2012/05/16,420,420,412,420,28000,420
2012/05/17,417,429,417,429,25000,429
2012/05/18,429,429,421,427,48000,427
2012/05/21,419,423,417,422,12000,422
2012/05/22,423,425,418,425,21000,425
2012/05/23,425,425,418,420,27000,420
2012/05/24,422,425,422,424,12000,424
2012/05/25,432,435,428,428,12000,428
2012/05/28,428,428,412,420,13000,420
2012/05/29,420,432,420,430,20000,430
2012/05/30,427,427,419,426,6000,426
2012/05/31,420,433,420,433,23000,433
2012/06/01,423,427,416,427,11000,427
2012/06/04,419,419,413,413,12000,413
2012/06/05,413,419,412,419,13000,419
2012/06/06,416,417,415,417,4000,417
2012/06/07,425,432,421,432,18000,432
2012/06/08,434,440,430,440,37000,440
2012/06/11,443,449,439,439,43000,439
2012/06/12,434,444,434,444,11000,444
2012/06/13,440,440,434,437,7000,437
2012/06/14,445,445,435,435,12000,435
2012/06/15,433,444,433,443,14000,443
2012/06/18,450,451,439,439,40000,439
2012/06/19,440,440,434,438,3000,438
2012/06/20,431,437,431,436,10000,436
2012/06/21,433,439,433,439,6000,439
2012/06/22,438,455,436,455,21000,455
2012/06/25,461,465,455,465,29000,465
2012/06/26,457,459,453,454,17000,454
2012/06/27,457,457,453,454,7000,454
2012/06/28,454,457,452,457,12000,457
2012/06/29,457,460,456,456,9000,456
2012/07/02,462,462,457,457,4000,457
2012/07/03,462,463,462,462,8000,462
2012/07/04,462,463,450,453,9000,453
2012/07/05,461,461,451,451,7000,451
2012/07/06,445,457,445,457,12000,457
2012/07/09,456,459,449,459,9000,459
2012/07/10,458,458,451,457,6000,457
2012/07/11,456,456,444,444,16000,444
2012/07/12,443,446,441,441,16000,441
2012/07/13,441,442,441,442,22000,442
2012/07/17,440,445,436,439,35000,439
2012/07/18,437,457,430,432,90000,432
2012/07/19,435,444,432,438,28000,438
2012/07/20,436,436,430,434,18000,434
2012/07/23,437,444,433,433,44000,433
2012/07/24,433,441,433,441,18000,441
2012/07/25,425,428,406,406,39000,406
2012/07/26,406,413,406,413,8000,413
2012/07/27,419,425,419,419,19000,419
2012/07/30,419,434,419,434,14000,434
2012/07/31,432,433,426,427,6000,427
2012/08/01,426,433,426,433,2000,433
2012/08/02,435,439,432,436,20000,436
2012/08/03,436,440,433,440,12000,440
2012/08/06,440,445,434,440,8000,440
2012/08/07,444,444,423,430,16000,430
2012/08/08,437,443,432,440,11000,440
2012/08/09,437,454,437,454,13000,454
2012/08/10,458,465,454,464,21000,464
2012/08/13,464,464,461,464,9000,464
2012/08/14,462,465,454,460,8000,460
2012/08/15,466,469,466,469,18000,469
2012/08/16,470,481,470,481,29000,481
2012/08/17,482,486,478,486,26000,486
2012/08/20,490,494,486,486,35000,486
2012/08/21,480,485,480,484,16000,484
2012/08/22,483,489,483,489,18000,489
2012/08/23,486,486,476,478,34000,478
2012/08/24,472,479,472,479,10000,479
2012/08/27,480,488,480,484,14000,484
2012/08/28,484,484,471,471,11000,471
2012/08/29,479,481,473,481,5000,481
2012/08/30,481,481,473,473,5000,473
2012/08/31,473,473,471,471,7000,471
2012/09/03,471,471,463,463,10000,463
2012/09/04,460,460,449,449,13000,449
2012/09/05,445,445,437,437,6000,437
2012/09/06,439,439,422,438,26000,438
2012/09/07,439,440,438,438,12000,438
2012/09/10,438,441,434,441,7000,441
2012/09/11,441,449,441,449,6000,449
2012/09/12,457,464,455,462,14000,462
2012/09/13,466,477,458,462,31000,462
2012/09/14,469,485,469,485,32000,485
2012/09/18,490,496,477,485,45000,485
2012/09/19,484,484,475,482,16000,482
2012/09/20,482,484,478,484,14000,484
2012/09/21,484,488,479,485,23000,485
2012/09/24,487,490,487,490,25000,490
2012/09/25,491,496,489,494,33000,494
2012/09/26,481,494,481,494,18000,494
2012/09/27,487,487,475,477,17000,477
2012/09/28,472,477,471,472,17000,472
2012/10/01,464,466,448,466,25000,466
2012/10/02,460,460,450,454,12000,454
2012/10/03,446,448,434,434,25000,434
2012/10/04,441,441,436,438,13000,438
2012/10/05,446,446,434,436,16000,436
2012/10/09,441,441,427,430,15000,430
2012/10/10,425,425,420,420,16000,420
2012/10/11,420,425,417,419,17000,419
2012/10/12,420,422,420,421,6000,421
2012/10/15,425,432,425,432,19000,432
2012/10/16,440,447,435,435,24000,435
2012/10/17,443,452,443,452,20000,452
2012/10/18,453,463,451,458,53000,458
2012/10/19,458,458,454,455,12000,455
2012/10/22,449,459,449,459,9000,459
2012/10/23,465,469,462,465,25000,465
2012/10/24,457,460,455,460,12000,460
2012/10/25,460,461,440,446,34000,446
2012/10/26,447,447,434,440,22000,440
2012/10/29,432,433,426,428,51000,428
2012/10/30,425,433,420,421,55000,421
2012/10/31,423,433,423,433,27000,433
2012/11/01,429,430,426,426,23000,426
2012/11/02,428,432,428,430,30000,430
2012/11/05,430,430,424,424,13000,424
2012/11/06,423,424,420,422,36000,422
2012/11/07,427,430,427,430,23000,430
2012/11/08,430,430,422,423,28000,423
2012/11/09,423,423,420,421,31000,421
2012/11/12,422,422,416,418,29000,418
2012/11/13,419,421,416,417,54000,417
2012/11/14,422,422,416,417,39000,417
2012/11/15,417,417,403,404,173000,404
2012/11/16,408,414,407,411,128000,411
2012/11/19,426,426,416,417,86000,417
2012/11/20,418,427,418,419,64000,419
2012/11/21,419,427,419,426,14000,426
2012/11/22,427,434,427,432,54000,432
2012/11/26,440,441,434,438,79000,438
2012/11/27,431,447,430,445,85000,445
2012/11/28,446,446,435,435,37000,435
2012/11/29,435,441,434,436,56000,436
2012/11/30,441,446,419,420,260000,420
2012/12/03,428,449,427,445,148000,445
2012/12/04,451,460,447,460,147000,460
2012/12/05,457,469,452,467,57000,467
2012/12/06,470,477,469,477,50000,477
2012/12/07,471,477,471,476,33000,476
2012/12/10,472,475,472,475,26000,475
2012/12/11,476,480,475,480,62000,480
2012/12/12,480,483,479,482,40000,482
2012/12/13,483,483,482,483,30000,483
2012/12/14,483,484,482,482,58000,482
2012/12/17,484,493,484,492,47000,492
2012/12/18,495,497,485,485,91000,485
2012/12/19,492,494,489,489,36000,489
2012/12/20,490,496,485,495,47000,495
2012/12/21,491,494,487,491,61000,491
2012/12/25,500,509,500,505,65000,505
2012/12/26,500,502,499,499,20000,499
2012/12/27,495,496,491,494,24000,494
2012/12/28,494,494,491,494,15000,494
2013/01/04,503,515,503,506,36000,506
2013/01/07,516,522,516,516,41000,516
2013/01/08,520,524,509,521,47000,521
2013/01/09,519,521,515,517,27000,517
2013/01/10,520,522,516,521,28000,521
2013/01/11,527,529,523,527,35000,527
2013/01/15,532,538,531,535,31000,535
2013/01/16,540,543,531,540,35000,540
2013/01/17,545,545,531,536,42000,536
2013/01/18,534,542,525,542,69000,542
2013/01/21,543,543,537,537,31000,537
2013/01/22,537,543,537,540,37000,540
2013/01/23,540,543,535,542,49000,542
2013/01/24,541,542,528,542,33000,542
2013/01/25,542,558,542,552,95000,552
2013/01/28,552,558,551,555,21000,555
2013/01/29,556,569,555,568,33000,568
2013/01/30,588,598,588,596,101000,596
2013/01/31,600,624,600,620,246000,620
2013/02/01,624,624,614,620,72000,620
2013/02/04,621,629,621,623,57000,623
2013/02/05,623,626,620,622,115000,622
2013/02/06,622,627,620,625,40000,625
2013/02/07,627,628,622,622,20000,622
2013/02/08,623,625,617,621,50000,621
2013/02/12,621,629,617,621,32000,621
2013/02/13,617,620,612,615,39000,615
2013/02/14,615,618,614,616,22000,616
2013/02/15,616,617,603,615,60000,615
2013/02/18,621,638,621,634,83000,634
2013/02/19,634,635,625,635,19000,635
2013/02/20,630,638,626,632,45000,632
2013/02/21,623,632,623,630,26000,630
2013/02/22,630,635,628,632,20000,632
2013/02/25,636,640,631,638,53000,638
2013/02/26,650,650,628,644,139000,644
2013/02/27,644,644,629,629,35000,629
2013/02/28,627,633,625,633,33000,633
2013/03/01,633,644,633,641,54000,641
2013/03/04,641,645,638,644,34000,644
2013/03/05,640,648,638,639,48000,639
2013/03/06,636,639,632,636,25000,636
2013/03/07,628,633,627,627,47000,627
2013/03/08,621,647,620,641,115000,641
2013/03/11,641,659,641,656,134000,656
2013/03/12,650,651,639,646,82000,646
2013/03/13,644,649,641,644,80000,644
2013/03/14,643,654,642,652,94000,652
2013/03/15,654,654,644,648,63000,648
2013/03/18,640,650,639,648,56000,648
2013/03/19,654,665,645,653,74000,653
2013/03/21,643,648,637,637,61000,637
2013/03/22,646,646,625,627,55000,627
2013/03/25,640,640,617,619,53000,619
2013/03/26,619,623,610,622,107000,622
2013/03/27,617,617,609,613,25000,613
2013/03/28,613,613,608,612,21000,612
2013/03/29,612,612,606,607,24000,607
2013/04/01,587,599,559,562,35000,562
2013/04/02,570,585,555,580,44000,580
2013/04/03,570,574,556,572,40000,572
2013/04/04,582,598,568,598,27000,598
2013/04/05,599,619,599,605,44000,605
2013/04/08,611,624,610,621,54000,621
2013/04/09,627,629,619,629,44000,629
2013/04/10,633,635,621,633,41000,633
2013/04/11,635,635,621,632,33000,632
2013/04/12,631,639,621,634,36000,634
2013/04/15,640,640,632,632,34000,632
2013/04/16,633,643,623,641,54000,641
2013/04/17,648,650,644,645,42000,645
2013/04/18,650,650,631,640,70000,640
2013/04/19,645,649,640,646,35000,646
2013/04/22,666,675,665,674,145000,674
2013/04/23,677,679,676,677,98000,677
2013/04/24,677,700,677,700,137000,700
2013/04/25,715,730,673,689,178000,689
2013/04/26,702,705,689,689,165000,689
2013/04/30,702,717,694,716,113000,716
2013/05/01,716,716,700,701,71000,701
2013/05/02,699,707,699,702,20000,702
2013/05/07,702,713,701,706,43000,706
2013/05/08,710,712,701,707,46000,707
2013/05/09,708,708,700,700,19000,700
2013/05/10,706,708,698,708,70000,708
2013/05/13,708,715,708,708,53000,708
2013/05/14,698,708,698,704,48000,704
2013/05/15,709,710,701,704,34000,704
2013/05/16,705,705,675,680,65000,680
2013/05/17,683,701,680,701,45000,701
2013/05/20,709,712,701,703,51000,703
2013/05/21,703,704,696,704,48000,704
2013/05/22,705,705,698,698,35000,698
2013/05/23,694,699,649,649,98000,649
2013/05/24,649,657,635,644,68000,644
2013/05/27,645,645,629,630,34000,630
2013/05/28,626,636,620,628,40000,628
2013/05/29,630,646,630,635,29000,635
2013/05/30,635,635,618,620,60000,620
2013/05/31,614,629,607,621,55000,621
2013/06/03,621,621,614,614,8000,614
2013/06/04,614,614,583,601,106000,601
2013/06/05,600,626,600,619,54000,619
2013/06/06,619,619,598,598,53000,598
2013/06/07,587,639,587,639,85000,639
2013/06/10,640,653,628,653,65000,653
2013/06/11,655,656,644,645,40000,645
2013/06/12,644,644,623,638,22000,638
2013/06/13,624,646,624,636,44000,636
2013/06/14,640,642,624,628,94000,628
2013/06/17,631,681,631,681,83000,681
2013/06/18,691,699,679,694,128000,694
2013/06/19,692,692,677,683,41000,683
2013/06/20,692,700,681,700,142000,700
2013/06/21,695,700,679,693,280000,693
2013/06/24,700,700,681,681,96000,681
2013/06/25,691,691,664,667,57000,667
2013/06/26,668,671,664,665,20000,665
2013/06/27,679,679,659,662,14000,662
2013/06/28,663,679,663,670,51000,670
2013/07/01,679,688,669,678,49000,678
2013/07/02,687,687,677,681,29000,681
2013/07/03,682,682,673,680,21000,680
2013/07/04,684,698,684,690,61000,690
2013/07/05,696,698,695,698,34000,698
2013/07/08,699,700,690,693,27000,693
2013/07/09,693,694,687,690,43000,690
2013/07/10,690,695,689,695,28000,695
2013/07/11,688,688,666,676,43000,676
2013/07/12,676,681,670,677,30000,677
2013/07/16,695,695,682,687,35000,687
2013/07/17,691,698,690,696,50000,696
2013/07/18,700,705,693,704,209000,704
2013/07/19,699,701,687,691,35000,691
2013/07/22,699,700,692,700,45000,700
2013/07/23,702,710,701,705,91000,705
2013/07/24,694,700,694,699,10000,699
2013/07/25,700,700,691,692,27000,692
2013/07/26,692,695,685,688,36000,688
2013/07/29,700,708,688,703,435000,703
2013/07/30,708,761,708,754,379000,754
2013/07/31,741,751,729,748,188000,748
2013/08/01,750,780,742,769,200000,769
2013/08/02,760,772,752,755,177000,755
2013/08/05,744,749,735,744,93000,744
2013/08/06,741,788,741,786,275000,786
2013/08/07,785,785,770,778,143000,778
2013/08/08,770,793,765,766,163000,766
2013/08/09,776,778,752,759,90000,759
2013/08/12,744,751,732,744,45000,744
2013/08/13,741,779,741,777,62000,777
2013/08/14,777,778,769,778,26000,778
2013/08/15,779,780,759,761,85000,761
2013/08/16,759,773,759,768,46000,768
2013/08/19,774,779,766,766,31000,766
2013/08/20,765,770,748,748,36000,748
2013/08/21,748,769,748,749,40000,749
2013/08/22,764,764,748,748,67000,748
2013/08/23,752,761,748,760,58000,760
2013/08/26,766,769,761,764,25000,764
2013/08/27,762,793,762,792,91000,792
2013/08/28,776,790,776,785,75000,785
2013/08/29,786,789,778,785,52000,785
2013/08/30,788,788,765,772,88000,772
2013/09/02,742,752,737,749,100000,749
2013/09/03,764,799,764,771,169000,771
2013/09/04,765,797,764,796,124000,796
2013/09/05,796,803,781,788,191000,788
2013/09/06,792,795,780,785,144000,785
2013/09/09,796,798,785,792,41000,792
2013/09/10,788,799,787,797,64000,797
2013/09/11,797,810,796,809,81000,809
2013/09/12,811,817,810,816,44000,816
2013/09/13,819,834,819,822,111000,822
2013/09/17,811,838,811,836,91000,836
2013/09/18,851,857,845,855,99000,855
2013/09/19,855,866,855,865,114000,865
2013/09/20,866,885,866,885,85000,885
2013/09/24,890,895,863,872,100000,872
2013/09/25,872,872,839,845,46000,845
2013/09/26,824,849,824,849,44000,849
2013/09/27,850,851,828,832,73000,832
2013/09/30,834,838,824,829,59000,829
2013/10/01,834,850,825,827,64000,827
2013/10/02,833,834,794,796,93000,796
2013/10/03,790,832,788,825,107000,825
2013/10/04,812,813,792,796,69000,796
2013/10/07,800,805,776,789,66000,789
2013/10/08,776,786,772,780,55000,780
2013/10/09,784,796,777,791,33000,791
2013/10/10,792,814,792,807,60000,807
2013/10/11,809,810,793,802,66000,802
2013/10/15,800,802,795,796,20000,796
2013/10/16,792,797,791,791,28000,791
2013/10/17,796,808,796,807,34000,807
2013/10/18,812,814,797,797,51000,797
2013/10/21,804,807,795,797,24000,797
2013/10/22,798,803,798,803,24000,803
2013/10/23,799,799,783,784,58000,784
2013/10/24,784,784,777,781,38000,781
2013/10/25,792,793,772,781,50000,781
2013/10/28,783,788,778,780,39000,780
2013/10/29,778,787,778,782,30000,782
2013/10/30,773,776,738,741,136000,741
2013/10/31,733,740,714,715,90000,715
2013/11/01,717,725,713,720,74000,720
2013/11/05,720,731,714,720,83000,720
2013/11/06,720,733,720,729,43000,729
2013/11/07,740,748,734,740,27000,740
2013/11/08,742,790,740,772,187000,772
2013/11/11,757,776,746,755,56000,755
2013/11/12,770,780,767,778,64000,778
2013/11/13,773,780,755,766,58000,766
2013/11/14,765,771,753,765,63000,765
2013/11/15,771,782,766,774,47000,774
2013/11/18,785,788,774,778,39000,778
2013/11/19,778,778,753,759,58000,759
2013/11/20,757,765,755,759,27000,759
2013/11/21,770,775,761,774,38000,774
2013/11/22,784,800,784,792,107000,792
2013/11/25,792,805,783,788,48000,788
2013/11/26,776,807,765,807,455000,807
2013/11/27,800,800,777,796,98000,796
2013/11/28,794,798,794,797,36000,797
2013/11/29,798,806,796,806,52000,806
2013/12/02,807,810,790,801,77000,801
2013/12/03,806,812,797,802,107000,802
2013/12/04,788,790,780,781,54000,781
2013/12/05,771,786,767,777,39000,777
2013/12/06,771,785,771,776,36000,776
2013/12/09,776,785,776,783,40000,783
2013/12/10,780,787,778,787,50000,787
2013/12/11,783,785,771,774,38000,774
2013/12/12,768,768,756,758,40000,758
2013/12/13,751,758,749,753,107000,753
2013/12/16,754,755,747,749,25000,749
2013/12/17,757,766,752,765,64000,765
2013/12/18,751,772,751,770,129000,770
2013/12/19,764,777,761,776,129000,776
2013/12/20,777,785,775,784,186000,784
2013/12/24,785,790,777,780,95000,780
2013/12/25,776,781,763,775,71000,775
2013/12/26,776,796,776,789,55000,789
2013/12/27,782,799,782,799,24000,799
2013/12/30,800,805,794,797,50000,797
2014/01/06,801,805,797,805,33000,805
2014/01/07,804,805,790,799,26000,799
2014/01/08,795,810,795,810,60000,810
2014/01/09,809,814,806,810,30000,810
2014/01/10,809,809,802,809,38000,809
2014/01/14,804,808,791,792,40000,792
2014/01/15,790,795,790,791,55000,791
2014/01/16,798,812,798,809,37000,809
2014/01/17,804,820,804,816,42000,816
2014/01/20,819,827,800,815,70000,815
2014/01/21,810,811,810,811,4000,811
2014/01/22,811,813,809,812,22000,812
2014/01/23,805,811,799,807,36000,807
2014/01/24,800,800,782,788,48000,788
2014/01/27,780,785,758,758,50000,758
2014/01/28,759,771,750,752,89000,752
2014/01/29,759,794,759,789,73000,789
2014/01/30,782,792,770,773,69000,773
2014/01/31,773,786,773,786,53000,786
2014/02/03,760,775,760,771,29000,771
2014/02/04,759,759,715,715,89000,715
2014/02/05,728,744,715,716,55000,716
2014/02/06,729,749,724,736,59000,736
2014/02/07,744,778,744,753,91000,753
2014/02/10,770,770,752,752,20000,752
2014/02/12,752,763,752,758,23000,758
2014/02/13,765,770,743,746,49000,746
2014/02/14,746,746,732,737,55000,737
2014/02/17,750,755,738,746,51000,746
2014/02/18,741,760,735,756,55000,756
2014/02/19,746,756,746,752,25000,752
2014/02/20,737,739,734,736,28000,736
2014/02/21,745,749,742,746,26000,746
2014/02/24,750,765,737,748,43000,748
2014/02/25,760,762,754,754,30000,754
2014/02/26,741,760,741,756,19000,756
2014/02/27,760,760,745,753,29000,753
2014/02/28,761,763,746,758,51000,758
2014/03/03,758,758,738,741,19000,741
2014/03/04,740,765,740,755,29000,755
2014/03/05,760,770,745,751,34000,751
2014/03/06,751,766,750,766,25000,766
2014/03/07,771,777,746,776,70000,776
2014/03/10,775,775,754,763,22000,763
2014/03/11,755,770,755,770,35000,770
2014/03/12,759,766,759,763,16000,763
2014/03/13,768,774,753,758,47000,758
2014/03/14,758,768,743,746,108000,746
2014/03/17,761,761,736,740,44000,740
2014/03/18,752,755,743,750,48000,750
2014/03/19,755,758,748,754,27000,754
2014/03/20,754,757,737,743,104000,743
2014/03/24,758,766,743,746,48000,746
2014/03/25,756,778,754,767,58000,767
2014/03/26,780,780,751,760,106000,760
2014/03/27,746,746,731,737,40000,737
2014/03/28,737,754,736,745,39000,745
2014/03/31,760,770,744,744,40000,744
2014/04/01,749,749,736,739,27000,739
2014/04/02,739,763,739,746,108000,746
2014/04/03,743,766,743,756,51000,756
2014/04/04,751,761,751,753,20000,753
2014/04/07,741,764,736,756,57000,756
2014/04/08,745,749,741,741,47000,741
2014/04/09,736,741,734,735,46000,735
2014/04/10,740,741,718,727,58000,727
2014/04/11,718,718,708,708,22000,708
2014/04/14,702,712,702,706,19000,706
2014/04/15,710,718,706,710,47000,710
2014/04/16,720,722,715,722,22000,722
2014/04/17,726,738,724,733,41000,733
2014/04/18,729,730,723,727,48000,727
2014/04/21,725,734,712,712,57000,712
2014/04/22,711,711,695,696,74000,696
2014/04/23,698,705,698,701,41000,701
2014/04/24,701,707,699,700,25000,700
2014/04/25,697,709,697,708,35000,708
2014/04/28,701,701,697,701,12000,701
2014/04/30,702,703,695,700,29000,700
2014/05/01,709,709,695,708,73000,708
2014/05/02,699,700,697,699,55000,699
2014/05/07,694,694,662,664,88000,664
2014/05/08,665,675,661,661,69000,661
2014/05/09,661,668,661,663,38000,663
2014/05/12,668,670,660,660,41000,660
2014/05/13,661,667,658,663,34000,663
2014/05/14,673,673,663,667,35000,667
2014/05/15,667,667,660,665,29000,665
2014/05/16,665,665,654,657,52000,657
2014/05/19,656,667,655,656,34000,656
2014/05/20,656,667,654,656,33000,656
2014/05/21,651,662,651,657,12000,657
2014/05/22,667,668,662,667,37000,667
2014/05/23,667,680,667,677,41000,677
2014/05/26,677,680,673,677,19000,677
2014/05/27,680,690,680,688,11000,688
2014/05/28,688,688,684,688,17000,688
2014/05/29,682,688,681,684,24000,684
2014/05/30,690,690,684,686,14000,686
2014/06/02,696,704,693,700,41000,700
2014/06/03,705,706,701,702,26000,702
2014/06/04,708,730,707,713,34000,713
2014/06/05,727,730,703,729,57000,729
2014/06/06,735,744,733,736,59000,736
2014/06/09,736,751,730,745,41000,745
2014/06/10,750,752,738,746,36000,746
2014/06/11,745,755,745,748,51000,748
2014/06/12,748,754,737,743,43000,743
2014/06/13,735,749,735,746,66000,746
2014/06/16,746,750,746,748,22000,748
2014/06/17,749,760,748,754,84000,754
2014/06/18,765,790,765,790,141000,790
2014/06/19,786,792,775,779,58000,779
2014/06/20,767,775,753,756,86000,756
2014/06/23,771,771,756,767,36000,767
2014/06/24,759,775,759,769,36000,769
2014/06/25,773,775,763,767,33000,767
2014/06/26,763,773,761,772,28000,772
2014/06/27,777,777,756,759,26000,759
2014/06/30,772,788,761,782,26000,782
2014/07/01,783,787,760,779,34000,779
2014/07/02,788,790,780,788,64000,788
2014/07/03,782,784,771,776,31000,776
2014/07/04,777,792,777,786,68000,786
2014/07/07,787,794,785,794,47000,794
2014/07/08,794,798,788,794,31000,794
2014/07/09,784,787,781,787,25000,787
2014/07/10,789,789,774,774,32000,774
2014/07/11,762,779,761,765,51000,765
2014/07/14,767,770,767,767,13000,767
2014/07/15,782,782,769,778,32000,778
2014/07/16,778,778,771,777,31000,777
2014/07/17,778,785,771,781,63000,781
2014/07/18,760,784,760,760,70000,760
2014/07/22,760,770,760,770,37000,770
2014/07/23,762,769,750,750,48000,750
2014/07/24,748,759,746,750,64000,750
2014/07/25,759,761,751,760,30000,760
2014/07/28,745,755,745,751,83000,751
2014/07/29,751,755,724,734,67000,734
2014/07/30,725,725,712,713,124000,713
2014/07/31,717,721,704,707,68000,707
2014/08/01,700,701,695,696,51000,696
2014/08/04,699,716,698,710,49000,710
2014/08/05,710,732,710,717,66000,717
2014/08/06,729,729,704,704,23000,704
2014/08/07,701,702,690,695,67000,695
2014/08/08,697,697,675,676,53000,676
2014/08/11,683,690,683,687,40000,687
2014/08/12,690,693,689,691,12000,691
2014/08/13,698,715,696,702,36000,702
2014/08/14,718,720,713,715,22000,715
2014/08/15,721,722,717,722,22000,722
2014/08/18,732,733,724,725,36000,725
2014/08/19,720,726,713,720,51000,720
2014/08/20,717,720,711,719,47000,719
2014/08/21,719,728,718,726,26000,726
2014/08/22,728,729,723,723,26000,723
2014/08/25,728,731,723,723,26000,723
2014/08/26,723,724,716,719,39000,719
2014/08/27,719,720,719,719,8000,719
2014/08/28,719,727,717,723,32000,723
2014/08/29,719,728,714,723,18000,723
2014/09/01,723,732,723,732,17000,732
2014/09/02,747,766,740,763,70000,763
2014/09/03,758,763,749,750,26000,750
2014/09/04,750,750,733,745,29000,745
2014/09/05,745,745,737,737,5000,737
2014/09/08,746,746,735,742,21000,742
2014/09/09,737,743,735,743,12000,743
2014/09/10,733,743,727,742,25000,742
2014/09/11,739,739,725,734,62000,734
2014/09/12,748,750,738,748,75000,748
2014/09/16,748,759,744,749,27000,749
2014/09/17,746,750,740,742,19000,742
2014/09/18,742,755,733,741,36000,741
2014/09/19,741,763,737,763,71000,763
2014/09/22,758,758,736,742,48000,742
2014/09/24,752,758,736,748,46000,748
2014/09/25,748,763,740,763,65000,763
2014/09/26,742,763,742,754,29000,754
2014/09/29,760,761,751,755,25000,755
2014/09/30,749,759,749,750,18000,750
2014/10/01,758,766,746,764,32000,764
2014/10/02,758,760,751,755,46000,755
2014/10/03,749,761,749,753,23000,753
2014/10/06,760,760,751,756,15000,756
2014/10/07,759,760,752,756,30000,756
2014/10/08,751,752,744,750,19000,750
2014/10/09,750,754,746,750,18000,750
2014/10/10,735,750,735,746,47000,746
2014/10/14,735,739,730,733,32000,733
2014/10/15,740,746,729,746,14000,746
2014/10/16,744,745,738,741,31000,741
2014/10/17,740,746,731,736,30000,736
2014/10/20,760,767,745,764,41000,764
2014/10/21,756,759,749,751,31000,751
2014/10/22,751,755,742,755,56000,755
2014/10/23,745,755,741,743,22000,743
2014/10/24,741,744,725,738,38000,738
2014/10/27,753,757,746,756,24000,756
2014/10/28,758,758,745,746,15000,746
2014/10/29,761,767,750,767,58000,767
2014/10/30,767,767,750,755,44000,755
2014/10/31,755,770,755,770,56000,770
2014/11/04,779,788,763,784,98000,784
2014/11/05,784,793,776,793,82000,793
2014/11/06,791,793,780,780,21000,780
2014/11/07,790,791,780,791,31000,791
2014/11/10,783,794,782,790,28000,790
2014/11/11,790,796,781,784,51000,784
2014/11/12,782,787,776,779,28000,779
2014/11/13,784,785,776,785,20000,785
2014/11/14,795,795,785,788,31000,788
2014/11/17,788,788,768,776,15000,776
2014/11/18,779,790,777,783,63000,783
2014/11/19,776,778,774,775,32000,775
2014/11/20,775,776,764,773,21000,773
2014/11/21,768,787,768,782,24000,782
2014/11/25,797,799,791,794,43000,794
2014/11/26,784,791,784,786,30000,786
2014/11/27,783,789,777,777,30000,777
2014/11/28,778,797,771,793,58000,793
2014/12/01,793,795,785,791,24000,791
2014/12/02,791,800,777,797,103000,797
2014/12/03,798,799,766,799,56000,799
2014/12/04,799,802,795,800,88000,800
2014/12/05,799,801,792,800,50000,800
2014/12/08,801,802,795,802,37000,802
2014/12/09,793,808,793,806,50000,806
2014/12/10,798,799,782,782,44000,782
2014/12/11,787,807,786,804,51000,804
2014/12/12,797,809,797,801,66000,801
2014/12/15,801,808,799,801,22000,801
2014/12/16,801,801,796,798,28000,798
2014/12/17,800,803,796,802,104000,802
2014/12/18,806,813,806,812,133000,812
2014/12/19,819,839,812,834,120000,834
2014/12/22,835,838,828,830,116000,830
2014/12/24,843,843,831,835,43000,835
2014/12/25,837,838,831,834,82000,834
2014/12/26,824,831,820,827,59000,827
2014/12/29,827,834,827,833,20000,833
2014/12/30,836,836,810,824,13000,824
2015/01/05,829,832,817,826,20000,826
2015/01/06,825,825,802,805,46000,805
2015/01/07,805,815,804,808,32000,808
2015/01/08,823,833,816,816,43000,816
2015/01/09,811,812,794,811,79000,811
2015/01/13,800,808,777,807,52000,807
2015/01/14,814,814,806,806,11000,806
2015/01/15,809,812,802,812,17000,812
2015/01/16,810,810,800,800,13000,800
2015/01/19,823,828,817,817,39000,817
2015/01/20,825,829,819,829,32000,829
2015/01/21,829,835,828,829,45000,829
2015/01/22,829,834,829,833,22000,833
2015/01/23,840,845,837,844,32000,844
2015/01/26,846,855,846,850,23000,850
2015/01/27,875,882,867,881,82000,881
2015/01/28,881,905,876,905,70000,905
2015/01/29,905,905,892,899,20000,899
2015/01/30,895,918,894,918,52000,918
2015/02/02,920,925,905,915,89000,915
2015/02/03,930,947,916,916,99000,916
2015/02/04,919,947,919,941,61000,941
2015/02/05,941,950,940,949,74000,949
2015/02/06,951,953,945,949,80000,949
2015/02/09,954,967,951,964,39000,964
2015/02/10,965,992,965,986,45000,986
2015/02/12,999,1001,975,991,89000,991
2015/02/13,1000,1000,991,995,67000,995
2015/02/16,996,1007,995,997,60000,997
2015/02/17,1003,1010,1002,1006,111000,1006
2015/02/18,1010,1030,969,1021,120000,1021
2015/02/19,1021,1041,1021,1039,41000,1039
2015/02/20,1039,1040,1026,1039,89000,1039
2015/02/23,1044,1055,1034,1040,79000,1040
2015/02/24,1028,1034,986,995,106000,995
2015/02/25,985,997,979,991,88000,991
2015/02/26,981,997,981,997,42000,997
2015/02/27,998,1013,995,1000,76000,1000
2015/03/02,1014,1020,1014,1020,24000,1020
2015/03/03,1022,1029,1019,1019,24000,1019
2015/03/04,1008,1025,1004,1021,33000,1021
2015/03/05,1018,1025,1012,1024,42000,1024
2015/03/06,1024,1030,1024,1028,73000,1028
2015/03/09,1027,1029,1027,1029,19000,1029
2015/03/10,1040,1043,1030,1041,65000,1041
2015/03/11,1036,1058,1036,1050,61000,1050
2015/03/12,1080,1080,1059,1075,43000,1075
2015/03/13,1074,1079,1055,1075,100000,1075
2015/03/16,1072,1075,1067,1072,25000,1072
2015/03/17,1070,1075,1012,1046,115000,1046
2015/03/18,1040,1051,1028,1050,69000,1050
2015/03/19,1036,1039,1025,1025,35000,1025
2015/03/20,1010,1029,1006,1025,66000,1025
2015/03/23,1017,1025,1005,1006,47000,1006
2015/03/24,1001,1013,992,1001,52000,1001
2015/03/25,1000,1000,992,996,26000,996
2015/03/26,994,994,975,977,63000,977
2015/03/27,976,980,945,956,69000,956
2015/03/30,950,967,944,958,59000,958
2015/03/31,958,978,955,961,56000,961
2015/04/01,955,955,940,940,49000,940
2015/04/02,952,961,939,959,65000,959
2015/04/03,959,969,959,966,26000,966
2015/04/06,966,970,949,967,40000,967
2015/04/07,968,975,961,973,45000,973
2015/04/08,976,989,976,981,41000,981
2015/04/09,991,1007,991,1007,49000,1007
2015/04/10,1015,1015,1004,1007,50000,1007
2015/04/13,1007,1009,1001,1006,29000,1006
2015/04/14,1010,1013,1007,1010,29000,1010
2015/04/15,1014,1030,1012,1018,51000,1018
2015/04/16,1029,1029,1019,1028,51000,1028
2015/04/17,1031,1040,1027,1035,31000,1035
2015/04/20,1040,1048,1000,1012,53000,1012
2015/04/21,1016,1030,1016,1030,31000,1030
2015/04/22,1045,1045,1032,1041,54000,1041
2015/04/23,1049,1049,1036,1036,28000,1036
2015/04/24,1020,1026,1020,1021,12000,1021
2015/04/27,1030,1030,1014,1014,19000,1014
2015/04/28,1021,1039,1014,1016,52000,1016
2015/04/30,1030,1050,1019,1050,40000,1050
2015/05/01,1040,1050,1033,1047,54000,1047
2015/05/07,1050,1080,1050,1080,87000,1080
2015/05/08,1062,1073,1054,1058,48000,1058
2015/05/11,1083,1083,1066,1082,40000,1082
2015/05/12,1082,1083,1064,1077,53000,1077
2015/05/13,1062,1074,1062,1073,16000,1073
2015/05/14,1073,1076,1069,1070,22000,1070
2015/05/15,1080,1087,1073,1087,32000,1087
2015/05/18,1100,1100,1090,1097,67000,1097
2015/05/19,1097,1097,1047,1089,85000,1089
2015/05/20,1081,1090,1045,1068,77000,1068
2015/05/21,1068,1080,1068,1077,20000,1077
2015/05/22,1084,1085,1070,1078,28000,1078
2015/05/25,1093,1093,1065,1074,27000,1074
2015/05/26,1070,1083,1069,1083,30000,1083
2015/05/27,1078,1088,1074,1083,26000,1083
2015/05/28,1081,1083,1070,1080,30000,1080
2015/05/29,1083,1089,1075,1087,101000,1087
2015/06/01,1095,1097,1073,1094,58000,1094
2015/06/02,1098,1098,1055,1081,95000,1081
2015/06/03,1072,1085,1067,1073,22000,1073
2015/06/04,1073,1074,1060,1070,76000,1070
2015/06/05,1077,1077,1051,1057,16000,1057
2015/06/08,1060,1060,1046,1050,5000,1050
2015/06/09,1046,1057,1033,1039,44000,1039
2015/06/10,1045,1045,1021,1033,55000,1033
2015/06/11,1044,1044,1024,1035,42000,1035
2015/06/12,1040,1044,1040,1042,67000,1042
2015/06/15,1042,1059,1041,1051,37000,1051
2015/06/16,1057,1057,1045,1047,32000,1047
2015/06/17,1049,1053,1044,1050,41000,1050
2015/06/18,1050,1059,1040,1041,91000,1041
2015/06/19,1041,1063,1035,1035,85000,1035
2015/06/22,1022,1049,1022,1044,64000,1044
2015/06/23,1074,1074,1049,1070,51000,1070
2015/06/24,1068,1079,1055,1071,48000,1071
2015/06/25,1070,1071,1060,1067,13000,1067
2015/06/26,1054,1075,1054,1071,32000,1071
2015/06/29,1059,1077,1040,1056,41000,1056
2015/06/30,1049,1066,1044,1054,43000,1054
2015/07/01,1070,1073,1043,1046,25000,1046
2015/07/02,1070,1070,1042,1054,19000,1054
2015/07/03,1032,1039,1026,1027,19000,1027
2015/07/06,997,997,984,984,59000,984
2015/07/07,987,998,978,978,57000,978
2015/07/08,971,974,942,942,46000,942
2015/07/09,927,944,924,927,48000,927
2015/07/10,931,959,929,943,33000,943
2015/07/13,948,958,947,950,29000,950
2015/07/14,970,979,963,974,22000,974
2015/07/15,974,979,974,979,15000,979
2015/07/16,980,989,980,985,23000,985
2015/07/17,987,989,981,984,26000,984
2015/07/21,994,998,986,992,43000,992
2015/07/22,981,983,973,981,22000,981
2015/07/23,991,991,977,989,18000,989
2015/07/24,985,985,985,985,8000,985
2015/07/27,993,999,990,993,33000,993
2015/07/28,986,995,977,980,51000,980
2015/07/29,998,1036,998,1028,40000,1028
2015/07/30,1028,1053,1028,1043,55000,1043
2015/07/31,1057,1115,1056,1082,98000,1082
2015/08/03,1081,1082,1056,1074,38000,1074
2015/08/04,1062,1086,1062,1080,47000,1080
2015/08/05,1075,1079,1052,1062,50000,1062
2015/08/06,1065,1065,1025,1025,42000,1025
2015/08/07,1009,1035,1009,1031,35000,1031
2015/08/10,1031,1060,1030,1052,20000,1052
2015/08/11,1041,1052,1017,1017,55000,1017
2015/08/12,1028,1028,1003,1022,13000,1022
2015/08/13,1007,1021,1007,1019,17000,1019
2015/08/14,1026,1035,1026,1026,19000,1026
2015/08/17,1056,1109,1055,1100,56000,1100
2015/08/18,1122,1164,1122,1135,150000,1135
2015/08/19,1135,1135,1106,1110,30000,1110
2015/08/20,1080,1098,1063,1063,62000,1063
2015/08/21,1028,1044,1028,1033,38000,1033
2015/08/24,1022,1022,957,960,72000,960
2015/08/25,930,964,913,945,82000,945
2015/08/26,950,985,950,979,31000,979
2015/08/27,994,998,974,983,46000,983
2015/08/28,1007,1016,989,1006,27000,1006
2015/08/31,1006,1015,992,1013,49000,1013
2015/09/01,1010,1010,990,990,66000,990
2015/09/02,989,1011,982,990,35000,990
2015/09/03,993,1038,993,1004,77000,1004
2015/09/04,1009,1010,989,1007,40000,1007
2015/09/07,993,1038,993,1025,32000,1025
2015/09/08,1025,1030,1011,1015,55000,1015
2015/09/09,1032,1090,1032,1077,129000,1077
2015/09/10,1074,1085,1051,1053,31000,1053
2015/09/11,1026,1053,1026,1032,110000,1032
2015/09/14,1032,1032,1006,1025,33000,1025
2015/09/15,1026,1039,1026,1036,35000,1036
2015/09/16,1040,1054,1040,1054,64000,1054
2015/09/17,1059,1059,1050,1056,14000,1056
2015/09/18,1054,1054,1016,1016,54000,1016
2015/09/24,1010,1010,983,983,34000,983
2015/09/25,983,995,975,994,59000,994
2015/09/28,987,995,969,988,19000,988
2015/09/29,975,1000,974,983,35000,983
2015/09/30,983,1011,983,1008,17000,1008
2015/10/01,1008,1015,997,1014,18000,1014
2015/10/02,1014,1020,1009,1013,9000,1013
2015/10/05,1008,1008,997,1005,9000,1005
2015/10/06,1011,1015,1009,1009,19000,1009
2015/10/07,992,1000,992,999,22000,999
2015/10/08,995,1009,995,1001,11000,1001
2015/10/09,1015,1037,1004,1009,15000,1009
2015/10/13,1009,1014,1005,1007,11000,1007
2015/10/14,1013,1013,999,1001,22000,1001
2015/10/15,990,1009,990,1009,18000,1009
2015/10/16,1010,1019,1002,1010,35000,1010
