2010/03/10,972,972,963,964,70700,964
2010/03/11,964,974,958,968,77900,968
2010/03/12,975,979,962,973,176900,973
2010/03/15,977,983,971,973,58000,973
2010/03/16,967,985,967,977,69600,977
2010/03/17,986,988,979,986,59600,986
2010/03/18,987,991,983,989,61700,989
2010/03/19,990,999,987,998,120500,998
2010/03/23,988,1000,988,998,63700,998
2010/03/24,1000,1015,981,994,252900,994
2010/03/25,995,1003,987,996,162800,996
2010/03/26,1000,1000,987,995,144100,995
2010/03/29,990,991,981,987,48200,987
2010/03/30,992,996,973,996,126000,996
2010/03/31,1002,1049,994,1042,228000,1042
2010/04/01,1027,1027,998,1018,131000,1018
2010/04/02,1040,1040,1013,1017,96200,1017
2010/04/05,1019,1024,1011,1024,72100,1024
2010/04/06,1025,1025,997,1005,107500,1005
2010/04/07,1017,1034,1002,1018,144400,1018
2010/04/08,1001,1012,996,1006,65800,1006
2010/04/09,995,1009,993,999,88100,999
2010/04/12,1010,1011,998,1007,98400,1007
2010/04/13,999,1008,986,993,159800,993
2010/04/14,992,1006,986,998,98400,998
2010/04/15,1000,1005,991,1002,91500,1002
2010/04/16,1002,1003,993,1000,149100,1000
2010/04/19,978,993,975,991,108100,991
2010/04/20,991,992,980,987,107000,987
2010/04/21,987,1002,982,998,94200,998
2010/04/22,989,996,975,993,107100,993
2010/04/23,982,991,976,989,103400,989
2010/04/26,1000,1005,994,1000,72000,1000
2010/04/27,986,990,978,986,74600,986
2010/04/28,977,985,972,978,130800,978
2010/04/30,989,995,980,983,116400,983
2010/05/06,998,1030,984,1021,438300,1021
2010/05/07,991,1014,990,1005,207600,1005
2010/05/10,1019,1042,1018,1031,374100,1031
2010/05/11,1032,1069,1023,1044,412100,1044
2010/05/12,1045,1072,1033,1045,271800,1045
2010/05/13,1053,1054,1037,1048,112000,1048
2010/05/14,1037,1042,1026,1035,147400,1035
2010/05/17,1025,1025,1000,1005,175000,1005
2010/05/18,997,1012,990,993,109000,993
2010/05/19,989,999,968,981,188300,981
2010/05/20,982,1011,973,1001,221600,1001
2010/05/21,971,985,955,968,158000,968
2010/05/24,958,975,957,967,133100,967
2010/05/25,961,975,953,960,120200,960
2010/05/26,955,967,934,940,183700,940
2010/05/27,927,948,927,942,177800,942
2010/05/28,957,970,935,957,262300,957
2010/05/31,957,970,945,964,183400,964
2010/06/01,977,978,954,964,131500,964
2010/06/02,965,982,955,960,93000,960
2010/06/03,975,985,968,977,129000,977
2010/06/04,977,977,966,967,45200,967
2010/06/07,945,952,933,945,126900,945
2010/06/08,933,944,931,941,60000,941
2010/06/09,932,953,931,947,172700,947
2010/06/10,947,962,945,959,93800,959
2010/06/11,974,974,954,963,121300,963
2010/06/14,970,987,966,982,69900,982
2010/06/15,973,977,957,962,82700,962
2010/06/16,964,965,954,962,137100,962
2010/06/17,956,966,955,964,70700,964
2010/06/18,965,968,945,968,100700,968
2010/06/21,979,982,969,972,66800,972
2010/06/22,971,971,961,968,106800,968
2010/06/23,958,958,946,950,64600,950
2010/06/24,940,956,933,943,122500,943
2010/06/25,944,944,925,934,108800,934
2010/06/28,927,937,920,927,53300,927
2010/06/29,925,936,925,929,57200,929
2010/06/30,915,943,911,943,143800,943
2010/07/01,935,952,933,937,155900,937
2010/07/02,945,959,941,953,116700,953
2010/07/05,949,967,939,965,93400,965
2010/07/06,966,974,952,968,93200,968
2010/07/07,961,961,942,947,134700,947
2010/07/08,940,965,935,955,167800,955
2010/07/09,954,957,941,954,128200,954
2010/07/12,956,973,953,961,90300,961
2010/07/13,968,970,956,958,152200,958
2010/07/14,970,974,960,967,128600,967
2010/07/15,974,989,969,979,139900,979
2010/07/16,980,988,974,978,123400,978
2010/07/20,998,1000,967,971,210200,971
2010/07/21,975,977,969,970,67000,970
2010/07/22,965,980,962,966,92700,966
2010/07/23,979,996,978,986,118300,986
2010/07/26,998,1000,969,981,162000,981
2010/07/27,985,993,976,990,86900,990
2010/07/28,995,997,990,995,95100,995
2010/07/29,995,995,988,993,70700,993
2010/07/30,987,990,975,988,163400,988
2010/08/02,988,1000,987,989,152000,989
2010/08/03,998,1000,973,983,95100,983
2010/08/04,975,975,955,957,94600,957
2010/08/05,964,977,955,966,82500,966
2010/08/06,960,986,960,982,80200,982
2010/08/09,983,994,976,994,107200,994
2010/08/10,994,994,971,973,78400,973
2010/08/11,961,962,942,953,69900,953
2010/08/12,938,952,934,949,55900,949
2010/08/13,949,965,944,964,59700,964
2010/08/16,953,958,945,954,33600,954
2010/08/17,944,960,937,954,36600,954
2010/08/18,964,967,943,961,57300,961
2010/08/19,959,978,959,976,80300,976
2010/08/20,965,965,948,952,77300,952
2010/08/23,953,954,940,941,34700,941
2010/08/24,932,939,931,933,31700,933
2010/08/25,933,955,933,941,42200,941
2010/08/26,935,941,930,938,70300,938
2010/08/27,929,958,929,955,54600,955
2010/08/30,965,993,963,968,64600,968
2010/08/31,953,963,937,940,72300,940
2010/09/01,940,941,912,919,155100,919
2010/09/02,925,946,925,941,94800,941
2010/09/03,942,958,940,949,33600,949
2010/09/06,958,962,947,961,43600,961
2010/09/07,948,972,947,966,39400,966
2010/09/08,951,951,936,944,54800,944
2010/09/09,942,971,942,962,70700,962
2010/09/10,977,984,967,972,120900,972
2010/09/13,973,973,943,947,106600,947
2010/09/14,947,953,925,936,114000,936
2010/09/15,937,959,933,950,65600,950
2010/09/16,950,954,930,939,150100,939
2010/09/17,959,978,953,972,136600,972
2010/09/21,973,981,962,974,74800,974
2010/09/22,976,980,959,962,78500,962
2010/09/24,951,975,949,954,75100,954
2010/09/27,952,980,951,979,69300,979
2010/09/28,968,976,961,969,50100,969
2010/09/29,970,981,968,976,85100,976
2010/09/30,972,980,952,952,87500,952
2010/10/01,954,970,943,947,106200,947
2010/10/04,947,953,942,943,66600,943
2010/10/05,940,965,931,955,140000,955
2010/10/06,969,999,964,993,191900,993
2010/10/07,998,1008,992,999,110200,999
2010/10/08,1000,1043,996,1030,296100,1030
2010/10/12,1031,1031,989,991,126200,991
2010/10/13,992,998,982,985,153300,985
2010/10/14,985,1024,984,1001,136000,1001
2010/10/15,985,1005,980,987,93600,987
2010/10/18,1002,1010,971,988,156800,988
2010/10/19,990,1010,982,991,132100,991
2010/10/20,992,992,967,983,122000,983
2010/10/21,981,981,959,970,160600,970
2010/10/22,963,969,956,957,148900,957
2010/10/25,957,964,950,953,154300,953
2010/10/26,954,963,940,942,184100,942
2010/10/27,943,956,933,939,186700,939
2010/10/28,935,935,912,913,435600,913
2010/10/29,904,917,895,904,223200,904
2010/11/01,907,976,907,969,274700,969
2010/11/02,975,982,949,960,122000,960
2010/11/04,963,977,963,973,124100,973
2010/11/05,977,996,974,975,144000,975
2010/11/08,971,992,971,991,73700,991
2010/11/09,979,984,965,971,146300,971
2010/11/10,964,986,959,969,144400,969
2010/11/11,962,963,943,949,167300,949
2010/11/12,948,953,927,932,172100,932
2010/11/15,936,953,929,944,66500,944
2010/11/16,941,943,924,928,119800,928
2010/11/17,928,939,926,938,75000,938
2010/11/18,943,959,942,956,163500,956
2010/11/19,965,969,949,957,129200,957
2010/11/22,959,963,955,959,59600,959
2010/11/24,948,960,941,949,89000,949
2010/11/25,949,963,945,956,85800,956
2010/11/26,965,965,943,944,104200,944
2010/11/29,942,952,940,944,93200,944
2010/11/30,940,947,933,935,153900,935
2010/12/01,939,955,935,953,92500,953
2010/12/02,962,963,947,951,91200,951
2010/12/03,955,959,948,953,57200,953
2010/12/06,950,965,950,960,74200,960
2010/12/07,953,962,953,958,102800,958
2010/12/08,957,971,957,965,136700,965
2010/12/09,960,963,944,949,200500,949
2010/12/10,952,952,941,947,247200,947
2010/12/13,945,954,935,952,179300,952
2010/12/14,949,959,948,959,98000,959
2010/12/15,960,964,951,962,108700,962
2010/12/16,956,962,953,961,108100,961
2010/12/17,961,961,947,952,227200,952
2010/12/20,948,958,946,951,200100,951
2010/12/21,948,961,948,957,124700,957
2010/12/22,953,960,945,947,120500,947
2010/12/24,952,955,943,946,77400,946
2010/12/27,943,951,943,947,47700,947
2010/12/28,946,952,945,950,61200,950
2010/12/29,945,958,945,957,158300,957
2010/12/30,953,962,944,955,203800,955
2011/01/04,970,984,970,975,154300,975
2011/01/05,986,1003,984,996,229700,996
2011/01/06,992,996,980,985,116300,985
2011/01/07,990,997,980,985,135100,985
2011/01/11,985,988,979,984,80000,984
2011/01/12,988,996,983,985,118600,985
2011/01/13,986,1009,984,1001,235600,1001
2011/01/14,1003,1003,995,999,94300,999
2011/01/17,1005,1008,996,999,82400,999
2011/01/18,1000,1008,996,1006,115500,1006
2011/01/19,1015,1017,1003,1009,108200,1009
2011/01/20,1001,1011,997,1005,109600,1005
2011/01/21,1006,1008,983,985,104100,985
2011/01/24,980,1000,976,998,89300,998
2011/01/25,998,1018,990,1013,137300,1013
2011/01/26,1000,1011,998,1002,98100,1002
2011/01/27,1002,1016,1001,1013,96600,1013
2011/01/28,1013,1014,998,1003,112400,1003
2011/01/31,987,1002,978,993,94500,993
2011/02/01,1007,1026,1002,1010,177400,1010
2011/02/02,1010,1030,1009,1016,124300,1016
2011/02/03,1002,1014,997,1004,140500,1004
2011/02/04,1028,1040,1026,1036,196300,1036
2011/02/07,1040,1059,1038,1054,171500,1054
2011/02/08,1056,1076,1055,1056,158900,1056
2011/02/09,1062,1066,1042,1055,107300,1055
2011/02/10,1042,1047,1034,1035,201500,1035
2011/02/14,1041,1044,1031,1038,176800,1038
2011/02/15,1040,1044,1034,1039,157400,1039
2011/02/16,1040,1044,1034,1034,95000,1034
2011/02/17,1042,1042,1033,1039,193000,1039
2011/02/18,1042,1042,1030,1036,194300,1036
2011/02/21,1039,1057,1031,1038,243200,1038
2011/02/22,1035,1046,1030,1033,265600,1033
2011/02/23,1025,1041,1022,1036,253500,1036
2011/02/24,1067,1096,1046,1052,385700,1052
2011/02/25,1063,1110,1061,1093,415800,1093
2011/02/28,1110,1124,1088,1112,345400,1112
2011/03/01,1131,1146,1122,1133,294400,1133
2011/03/02,1115,1121,1095,1106,246100,1106
2011/03/03,1106,1118,1106,1114,144900,1114
2011/03/04,1116,1119,1102,1105,152000,1105
2011/03/07,1100,1104,1082,1090,131400,1090
2011/03/08,1092,1110,1088,1090,145700,1090
2011/03/09,1091,1107,1091,1095,117500,1095
2011/03/10,1087,1093,1078,1082,98500,1082
2011/03/11,1070,1078,1066,1067,219900,1067
2011/03/14,1016,1044,963,1026,266800,1026
2011/03/15,994,994,895,939,386100,939
2011/03/16,977,1053,977,1053,367000,1053
2011/03/17,999,1049,989,1032,266000,1032
2011/03/18,1062,1072,1029,1045,269600,1045
2011/03/22,1075,1082,1057,1077,188400,1077
2011/03/23,1079,1097,1065,1071,169600,1071
2011/03/24,1067,1076,1058,1065,172400,1065
2011/03/25,1075,1082,1040,1048,210500,1048
2011/03/28,1094,1094,1058,1070,247100,1070
2011/03/29,1050,1078,1040,1067,194800,1067
2011/03/30,1067,1085,1062,1082,145400,1082
2011/03/31,1087,1090,1068,1090,148100,1090
2011/04/01,1060,1082,1052,1052,180700,1052
2011/04/04,1045,1057,1044,1047,123600,1047
2011/04/05,1047,1049,1028,1034,195900,1034
2011/04/06,1031,1051,1027,1040,225900,1040
2011/04/07,1045,1058,1034,1040,198800,1040
2011/04/08,1031,1059,1026,1050,205500,1050
2011/04/11,1050,1061,1033,1052,166500,1052
2011/04/12,1038,1048,1036,1039,139400,1039
2011/04/13,1039,1058,1037,1052,125400,1052
2011/04/14,1055,1080,1053,1074,212000,1074
2011/04/15,1078,1085,1071,1071,105000,1071
2011/04/18,1079,1083,1064,1067,121200,1067
2011/04/19,1056,1063,1051,1060,106900,1060
2011/04/20,1067,1073,1061,1061,136300,1061
2011/04/21,1071,1071,1046,1055,111700,1055
2011/04/22,1051,1061,1041,1050,124700,1050
2011/04/25,1050,1057,1038,1042,68900,1042
2011/04/26,1042,1050,1035,1043,88400,1043
2011/04/27,1047,1070,1047,1055,125300,1055
2011/04/28,1053,1068,1045,1065,145600,1065
2011/05/02,1089,1092,1071,1074,196000,1074
2011/05/06,1060,1072,1053,1070,107500,1070
2011/05/09,1077,1079,1068,1075,114600,1075
2011/05/10,1079,1089,1079,1083,111000,1083
2011/05/11,1088,1090,1075,1079,131600,1079
2011/05/12,1072,1082,1058,1063,86500,1063
2011/05/13,1063,1065,1043,1061,200800,1061
2011/05/16,1047,1060,1042,1043,100200,1043
2011/05/17,1049,1062,1044,1059,113600,1059
2011/05/18,1055,1073,1054,1068,73900,1068
2011/05/19,1074,1095,1066,1094,215600,1094
2011/05/20,1110,1115,1086,1087,173000,1087
2011/05/23,1078,1085,1062,1074,116300,1074
2011/05/24,1076,1088,1076,1088,130400,1088
2011/05/25,1089,1097,1081,1097,120000,1097
2011/05/26,1099,1105,1095,1099,321400,1099
2011/05/27,1092,1106,1080,1097,165000,1097
2011/05/30,1096,1096,1062,1064,280200,1064
2011/05/31,1068,1086,1058,1078,266900,1078
2011/06/01,1076,1080,1063,1079,90100,1079
2011/06/02,1053,1076,1051,1071,85800,1071
2011/06/03,1062,1073,1059,1060,100500,1060
2011/06/06,1059,1072,1059,1066,84300,1066
2011/06/07,1060,1084,1059,1075,95900,1075
2011/06/08,1076,1084,1068,1079,59800,1079
2011/06/09,1078,1087,1071,1082,86800,1082
2011/06/10,1091,1107,1086,1089,189200,1089
2011/06/13,1090,1099,1090,1097,145100,1097
2011/06/14,1098,1116,1093,1110,184700,1110
2011/06/15,1113,1115,1110,1111,113700,1111
2011/06/16,1095,1105,1092,1092,64100,1092
2011/06/17,1105,1105,1083,1086,168700,1086
2011/06/20,1094,1104,1089,1089,113700,1089
2011/06/21,1093,1098,1085,1091,171300,1091
2011/06/22,1093,1113,1091,1109,141100,1109
2011/06/23,1102,1113,1096,1106,89900,1106
2011/06/24,1100,1104,1097,1098,121200,1098
2011/06/27,1089,1091,1067,1069,145100,1069
2011/06/28,1070,1087,1068,1076,99100,1076
2011/06/29,1093,1094,1077,1082,101400,1082
2011/06/30,1089,1099,1087,1099,108900,1099
2011/07/01,1105,1112,1094,1098,75800,1098
2011/07/04,1112,1116,1105,1108,116500,1108
2011/07/05,1109,1119,1104,1105,59200,1105
2011/07/06,1103,1110,1096,1110,62500,1110
2011/07/07,1105,1110,1099,1103,117500,1103
2011/07/08,1108,1116,1102,1105,58700,1105
2011/07/11,1100,1110,1099,1107,43200,1107
2011/07/12,1093,1102,1093,1096,62800,1096
2011/07/13,1091,1106,1091,1101,42300,1101
2011/07/14,1099,1101,1094,1096,59200,1096
2011/07/15,1098,1105,1097,1102,51400,1102
2011/07/19,1104,1118,1104,1113,91100,1113
2011/07/20,1119,1124,1109,1111,94800,1111
2011/07/21,1116,1116,1106,1108,60200,1108
2011/07/22,1115,1115,1106,1108,62100,1108
2011/07/25,1111,1115,1108,1112,63800,1112
2011/07/26,1112,1130,1112,1120,95900,1120
2011/07/27,1116,1123,1103,1117,135000,1117
2011/07/28,1115,1116,1096,1103,113700,1103
2011/07/29,1083,1104,1083,1092,132000,1092
2011/08/01,1089,1101,1086,1094,83400,1094
2011/08/02,1093,1093,1084,1091,85000,1091
2011/08/03,1078,1081,1067,1080,140200,1080
2011/08/04,1078,1095,1074,1088,133300,1088
2011/08/05,1034,1074,1030,1074,163100,1074
2011/08/08,1060,1068,1060,1065,132800,1065
2011/08/09,1035,1043,1010,1039,162200,1039
2011/08/10,1059,1059,1020,1032,231700,1032
2011/08/11,1015,1032,1008,1032,110100,1032
2011/08/12,1048,1076,1025,1034,64100,1034
2011/08/15,1057,1068,1053,1064,110400,1064
2011/08/16,1063,1074,1060,1066,65500,1066
2011/08/17,1071,1076,1060,1071,59300,1071
2011/08/18,1076,1076,1058,1067,134400,1067
2011/08/19,1040,1056,1039,1047,144300,1047
2011/08/22,1041,1055,1040,1040,96400,1040
2011/08/23,1051,1066,1041,1052,110000,1052
2011/08/24,1053,1060,1032,1037,120400,1037
2011/08/25,1048,1064,1041,1048,90600,1048
2011/08/26,1048,1067,1048,1058,83400,1058
2011/08/29,1058,1070,1047,1059,77800,1059
2011/08/30,1063,1077,1061,1072,61100,1072
2011/08/31,1063,1063,1039,1056,170800,1056
2011/09/01,1065,1071,1062,1069,73400,1069
2011/09/02,1068,1088,1063,1082,117500,1082
2011/09/05,1071,1082,1059,1061,56700,1061
2011/09/06,1058,1066,1047,1049,68800,1049
2011/09/07,1068,1068,1048,1060,88700,1060
2011/09/08,1067,1067,1048,1059,149200,1059
2011/09/09,1037,1061,1030,1051,218100,1051
2011/09/12,1036,1038,1026,1030,92500,1030
2011/09/13,1033,1042,1029,1037,87300,1037
2011/09/14,1035,1049,1020,1023,65700,1023
2011/09/15,1040,1047,1020,1027,100700,1027
2011/09/16,1033,1051,1028,1051,94600,1051
2011/09/20,1041,1041,1028,1037,152700,1037
2011/09/21,1032,1036,1019,1019,121900,1019
2011/09/22,1007,1015,997,1013,105100,1013
2011/09/26,1011,1020,998,1013,89800,1013
2011/09/27,1022,1048,1019,1048,130300,1048
2011/09/28,1051,1079,1050,1078,150000,1078
2011/09/29,1078,1099,1077,1099,160900,1099
2011/09/30,1107,1119,1096,1117,233600,1117
2011/10/03,1116,1116,1087,1106,123900,1106
2011/10/04,1105,1105,1082,1088,115400,1088
2011/10/05,1081,1081,1053,1055,172500,1055
2011/10/06,1061,1078,1059,1069,141800,1069
2011/10/07,1076,1080,1048,1053,130700,1053
2011/10/11,1082,1094,1079,1088,145300,1088
2011/10/12,1084,1108,1082,1091,189700,1091
2011/10/13,1100,1100,1065,1074,156800,1074
2011/10/14,1062,1071,1059,1066,108700,1066
2011/10/17,1074,1084,1070,1080,92500,1080
2011/10/18,1079,1086,1076,1079,94200,1079
2011/10/19,1095,1095,1078,1086,82500,1086
2011/10/20,1079,1079,1054,1057,114200,1057
2011/10/21,1054,1064,1054,1056,48400,1056
2011/10/24,1061,1085,1061,1082,71900,1082
2011/10/25,1077,1078,1054,1055,176000,1055
2011/10/26,1051,1083,1031,1057,213200,1057
2011/10/27,1062,1088,1057,1081,141100,1081
2011/10/28,1100,1106,1074,1081,344700,1081
2011/10/31,1075,1099,1052,1070,166100,1070
2011/11/01,1070,1078,1055,1068,128100,1068
2011/11/02,1065,1075,1054,1075,195100,1075
2011/11/04,1095,1098,1088,1096,260200,1096
2011/11/07,1088,1089,1074,1083,77200,1083
2011/11/08,1072,1079,1063,1072,130800,1072
2011/11/09,1075,1090,1072,1089,86500,1089
2011/11/10,1059,1076,1045,1061,148900,1061
2011/11/11,1061,1070,1054,1062,75500,1062
2011/11/14,1064,1071,1050,1060,64500,1060
2011/11/15,1058,1061,1050,1055,61800,1055
2011/11/16,1055,1056,1040,1044,50200,1044
2011/11/17,1047,1063,1036,1061,115700,1061
2011/11/18,1061,1065,1046,1063,99600,1063
2011/11/21,1055,1067,1055,1065,53200,1065
2011/11/22,1044,1070,1044,1057,74200,1057
2011/11/24,1044,1063,1041,1048,85100,1048
2011/11/25,1048,1053,1036,1037,80600,1037
2011/11/28,1038,1047,1032,1034,92800,1034
2011/11/29,1034,1043,1011,1042,163100,1042
2011/11/30,1029,1038,1019,1038,93000,1038
2011/12/01,1049,1056,1034,1042,149900,1042
2011/12/02,1054,1073,1054,1072,98900,1072
2011/12/05,1067,1068,1046,1054,119500,1054
2011/12/06,1050,1052,1030,1032,98500,1032
2011/12/07,1038,1056,1034,1054,60100,1054
2011/12/08,1054,1055,1044,1050,45100,1050
2011/12/09,1030,1043,1030,1037,144200,1037
2011/12/12,1043,1055,1042,1048,62400,1048
2011/12/13,1040,1050,1037,1049,60300,1049
2011/12/14,1038,1046,1037,1039,68700,1039
2011/12/15,1039,1042,1033,1038,87300,1038
2011/12/16,1047,1047,1025,1026,84300,1026
2011/12/19,1020,1025,1001,1024,133700,1024
2011/12/20,1035,1035,1014,1016,137200,1016
2011/12/21,1024,1028,1014,1016,81500,1016
2011/12/22,1016,1037,1009,1030,116900,1030
2011/12/26,1032,1033,1024,1028,29200,1028
2011/12/27,1018,1024,1010,1020,56900,1020
2011/12/28,1019,1025,1018,1025,46000,1025
2011/12/29,1025,1027,1016,1027,91300,1027
2011/12/30,1028,1041,1028,1041,43300,1041
2012/01/04,1053,1081,1043,1072,155000,1072
2012/01/05,1062,1070,1054,1055,80400,1055
2012/01/06,1058,1058,1042,1051,62100,1051
2012/01/10,1058,1069,1053,1053,59500,1053
2012/01/11,1054,1061,1054,1055,41800,1055
2012/01/12,1053,1053,1036,1043,67200,1043
2012/01/13,1052,1064,1049,1056,61700,1056
2012/01/16,1047,1053,1041,1053,36900,1053
2012/01/17,1053,1070,1049,1067,49700,1067
2012/01/18,1069,1080,1062,1062,108900,1062
2012/01/19,1077,1079,1066,1078,148500,1078
2012/01/20,1083,1083,1070,1075,109300,1075
2012/01/23,1079,1079,1066,1071,91300,1071
2012/01/24,1078,1078,1059,1068,58300,1068
2012/01/25,1069,1081,1057,1077,127900,1077
2012/01/26,1082,1092,1078,1085,95400,1085
2012/01/27,1077,1093,1074,1088,79300,1088
2012/01/30,1083,1112,1070,1097,187500,1097
2012/01/31,1087,1095,1061,1066,188500,1066
2012/02/01,1094,1130,1090,1125,251000,1125
2012/02/02,1119,1130,1112,1120,129800,1120
2012/02/03,1116,1119,1098,1115,133100,1115
2012/02/06,1122,1128,1105,1116,158700,1116
2012/02/07,1115,1123,1114,1118,71100,1118
2012/02/08,1121,1124,1113,1119,75400,1119
2012/02/09,1123,1127,1116,1121,75000,1121
2012/02/10,1119,1128,1112,1118,88800,1118
2012/02/13,1118,1120,1105,1116,76700,1116
2012/02/14,1117,1136,1112,1128,120300,1128
2012/02/15,1128,1134,1115,1129,88700,1129
2012/02/16,1130,1134,1119,1129,126800,1129
2012/02/17,1134,1149,1134,1140,104500,1140
2012/02/20,1160,1174,1145,1149,163100,1149
2012/02/21,1148,1156,1135,1150,83000,1150
2012/02/22,1165,1170,1152,1165,106900,1165
2012/02/23,1164,1165,1147,1160,113100,1160
2012/02/24,1162,1162,1144,1155,143500,1155
2012/02/27,1156,1156,1140,1151,84600,1151
2012/02/28,1142,1157,1140,1154,142700,1154
2012/02/29,1154,1155,1126,1128,188100,1128
2012/03/01,1142,1152,1131,1139,120400,1139
2012/03/02,1154,1157,1146,1154,115100,1154
2012/03/05,1156,1163,1149,1151,106600,1151
2012/03/06,1150,1154,1143,1147,92900,1147
2012/03/07,1144,1153,1143,1152,91300,1152
2012/03/08,1157,1161,1149,1150,115800,1150
2012/03/09,1157,1162,1151,1160,144100,1160
2012/03/12,1160,1161,1151,1152,68400,1152
2012/03/13,1158,1172,1153,1160,182300,1160
2012/03/14,1169,1173,1162,1163,122200,1163
2012/03/15,1168,1168,1156,1160,107200,1160
2012/03/16,1165,1177,1156,1165,126800,1165
2012/03/19,1179,1189,1178,1181,112200,1181
2012/03/21,1186,1200,1186,1194,210200,1194
2012/03/22,1198,1203,1190,1192,158200,1192
2012/03/23,1193,1198,1186,1190,148000,1190
2012/03/26,1199,1203,1188,1190,220100,1190
2012/03/27,1202,1209,1193,1202,203600,1202
2012/03/28,1193,1193,1166,1179,145800,1179
2012/03/29,1177,1188,1177,1188,89600,1188
2012/03/30,1192,1197,1184,1188,176800,1188
2012/04/02,1197,1197,1170,1174,121500,1174
2012/04/03,1175,1204,1170,1190,201400,1190
2012/04/04,1191,1196,1164,1172,144400,1172
2012/04/05,1160,1163,1145,1152,140300,1152
2012/04/06,1152,1156,1144,1153,119500,1153
2012/04/09,1144,1153,1132,1140,118200,1140
2012/04/10,1136,1149,1132,1135,73700,1135
2012/04/11,1119,1131,1114,1124,97000,1124
2012/04/12,1132,1152,1127,1149,139000,1149
2012/04/13,1155,1158,1145,1150,121800,1150
2012/04/16,1128,1152,1126,1142,60500,1142
2012/04/17,1143,1162,1141,1161,124700,1161
2012/04/18,1175,1185,1161,1183,123900,1183
2012/04/19,1186,1196,1182,1186,171800,1186
2012/04/20,1193,1196,1184,1191,198200,1191
2012/04/23,1193,1196,1189,1194,202200,1194
2012/04/24,1193,1195,1180,1188,175600,1188
2012/04/25,1198,1198,1192,1194,196300,1194
2012/04/26,1196,1199,1185,1185,75600,1185
2012/04/27,1185,1188,1163,1174,107100,1174
2012/05/01,1187,1227,1187,1209,339700,1209
2012/05/02,1214,1216,1203,1215,105000,1215
2012/05/07,1175,1196,1175,1190,61200,1190
2012/05/08,1200,1203,1189,1197,79700,1197
2012/05/09,1193,1195,1178,1180,132200,1180
2012/05/10,1175,1197,1175,1192,74900,1192
2012/05/11,1210,1214,1202,1207,207300,1207
2012/05/14,1180,1194,1163,1176,134100,1176
2012/05/15,1176,1177,1147,1166,137000,1166
2012/05/16,1167,1167,1143,1151,93400,1151
2012/05/17,1143,1159,1135,1151,134600,1151
2012/05/18,1122,1142,1120,1135,125300,1135
2012/05/21,1128,1155,1122,1134,90800,1134
2012/05/22,1130,1143,1130,1133,78900,1133
2012/05/23,1131,1137,1115,1123,120800,1123
2012/05/24,1118,1135,1116,1121,105900,1121
2012/05/25,1121,1146,1115,1122,151300,1122
2012/05/28,1120,1130,1108,1113,64800,1113
2012/05/29,1113,1131,1112,1131,105200,1131
2012/05/30,1126,1130,1108,1117,94600,1117
2012/05/31,1111,1122,1105,1117,110100,1117
2012/06/01,1100,1107,1093,1102,99300,1102
2012/06/04,1078,1103,1077,1094,117000,1094
2012/06/05,1094,1108,1088,1106,118700,1106
2012/06/06,1113,1123,1109,1116,110600,1116
2012/06/07,1117,1130,1105,1130,83600,1130
2012/06/08,1130,1130,1109,1119,200600,1119
2012/06/11,1137,1142,1125,1135,154700,1135
2012/06/12,1118,1135,1107,1129,119900,1129
2012/06/13,1127,1141,1123,1133,112200,1133
2012/06/14,1140,1157,1129,1139,138700,1139
2012/06/15,1140,1145,1121,1123,159900,1123
2012/06/18,1142,1155,1131,1144,95300,1144
2012/06/19,1144,1156,1137,1137,78900,1137
2012/06/20,1139,1152,1134,1146,88300,1146
2012/06/21,1137,1157,1135,1154,97400,1154
2012/06/22,1146,1161,1143,1145,81900,1145
2012/06/25,1164,1168,1146,1146,134400,1146
2012/06/26,1146,1169,1128,1138,118700,1138
2012/06/27,1140,1156,1134,1152,73600,1152
2012/06/28,1163,1175,1160,1170,114000,1170
2012/06/29,1168,1202,1160,1196,130700,1196
2012/07/02,1200,1209,1182,1184,66500,1184
2012/07/03,1184,1200,1180,1200,95300,1200
2012/07/04,1209,1219,1203,1211,166700,1211
2012/07/05,1195,1215,1195,1208,76800,1208
2012/07/06,1208,1221,1200,1207,86600,1207
2012/07/09,1192,1205,1189,1205,62700,1205
2012/07/10,1205,1215,1196,1198,65000,1198
2012/07/11,1194,1201,1186,1196,40500,1196
2012/07/12,1196,1204,1181,1197,86300,1197
2012/07/13,1198,1217,1193,1211,122400,1211
2012/07/17,1203,1211,1192,1196,110600,1196
2012/07/18,1211,1214,1199,1202,66600,1202
2012/07/19,1215,1219,1202,1215,113600,1215
2012/07/20,1213,1213,1190,1196,133300,1196
2012/07/23,1197,1200,1184,1186,108200,1186
2012/07/24,1185,1190,1171,1177,89900,1177
2012/07/25,1177,1204,1170,1189,122400,1189
2012/07/26,1197,1205,1184,1203,92900,1203
2012/07/27,1212,1213,1201,1207,66200,1207
2012/07/30,1213,1224,1211,1217,161300,1217
2012/07/31,1218,1220,1207,1214,77200,1214
2012/08/01,1209,1222,1203,1217,140200,1217
2012/08/02,1219,1232,1215,1225,310300,1225
2012/08/03,1222,1256,1217,1250,326400,1250
2012/08/06,1250,1265,1245,1255,220900,1255
2012/08/07,1258,1264,1250,1254,168500,1254
2012/08/08,1262,1266,1252,1260,116600,1260
2012/08/09,1261,1267,1255,1260,141900,1260
2012/08/10,1254,1258,1232,1244,172100,1244
2012/08/13,1235,1244,1230,1239,91400,1239
2012/08/14,1250,1263,1248,1258,153600,1258
2012/08/15,1258,1262,1249,1257,106100,1257
2012/08/16,1260,1264,1254,1256,102600,1256
2012/08/17,1259,1261,1251,1260,104600,1260
2012/08/20,1251,1262,1248,1253,108100,1253
2012/08/21,1253,1257,1243,1253,102100,1253
2012/08/22,1253,1256,1240,1251,88500,1251
2012/08/23,1250,1259,1245,1255,54300,1255
2012/08/24,1255,1261,1244,1258,124200,1258
2012/08/27,1260,1263,1242,1246,168400,1246
2012/08/28,1247,1249,1225,1234,232600,1234
2012/08/29,1241,1254,1238,1251,122200,1251
2012/08/30,1271,1280,1258,1278,175400,1278
2012/08/31,1295,1303,1256,1257,173400,1257
2012/09/03,1264,1296,1264,1280,197500,1280
2012/09/04,1294,1328,1283,1325,364400,1325
2012/09/05,1318,1321,1305,1317,173200,1317
2012/09/06,1325,1350,1320,1348,331300,1348
2012/09/07,1350,1374,1348,1354,315700,1354
2012/09/10,1355,1375,1340,1350,276600,1350
2012/09/11,1348,1351,1328,1329,226900,1329
2012/09/12,1329,1349,1328,1338,146800,1338
2012/09/13,1341,1345,1333,1334,99200,1334
2012/09/14,1339,1363,1334,1359,324700,1359
2012/09/18,1363,1379,1355,1359,156100,1359
2012/09/19,1362,1365,1335,1342,230500,1342
2012/09/20,1330,1341,1316,1325,270600,1325
2012/09/21,1315,1331,1310,1320,258800,1320
2012/09/24,1320,1340,1320,1339,207100,1339
2012/09/25,1342,1348,1321,1339,276300,1339
2012/09/26,1302,1331,1302,1321,176400,1321
2012/09/27,1325,1347,1318,1340,178400,1340
2012/09/28,1351,1359,1324,1335,190600,1335
2012/10/01,1330,1338,1307,1322,202500,1322
2012/10/02,1321,1331,1313,1314,100500,1314
2012/10/03,1309,1318,1304,1305,178800,1305
2012/10/04,1321,1341,1317,1339,221800,1339
2012/10/05,1349,1352,1331,1347,190300,1347
2012/10/09,1348,1362,1345,1355,167400,1355
2012/10/10,1347,1347,1321,1328,198400,1328
2012/10/11,1328,1353,1328,1342,220600,1342
2012/10/12,1348,1361,1348,1353,205300,1353
2012/10/15,1348,1351,1321,1328,377000,1328
2012/10/16,1344,1379,1339,1372,329400,1372
2012/10/17,1388,1398,1375,1377,300500,1377
2012/10/18,1389,1398,1385,1394,195200,1394
2012/10/19,1384,1384,1367,1374,226100,1374
2012/10/22,1367,1394,1363,1380,153800,1380
2012/10/23,1382,1389,1364,1378,136500,1378
2012/10/24,1360,1378,1356,1364,167100,1364
2012/10/25,1360,1389,1360,1389,170300,1389
2012/10/26,1390,1395,1373,1377,153700,1377
2012/10/29,1371,1393,1370,1387,235400,1387
2012/10/30,1388,1391,1357,1358,297000,1358
2012/10/31,1350,1358,1329,1351,355300,1351
2012/11/01,1363,1391,1361,1387,303500,1387
2012/11/02,1399,1432,1386,1425,428500,1425
2012/11/05,1422,1432,1410,1422,204000,1422
2012/11/06,1421,1425,1408,1422,147800,1422
2012/11/07,1429,1429,1400,1402,134300,1402
2012/11/08,1400,1409,1395,1405,135400,1405
2012/11/09,1400,1406,1388,1389,152200,1389
2012/11/12,1390,1405,1387,1389,114100,1389
2012/11/13,1395,1416,1388,1412,247400,1412
2012/11/14,1417,1421,1396,1410,220500,1410
2012/11/15,1416,1416,1390,1401,177000,1401
2012/11/16,1399,1404,1381,1404,254700,1404
2012/11/19,1418,1422,1390,1394,220500,1394
2012/11/20,1406,1453,1404,1440,616000,1440
2012/11/21,1450,1473,1444,1458,430000,1458
2012/11/22,1470,1473,1447,1462,186700,1462
2012/11/26,1470,1470,1431,1433,266800,1433
2012/11/27,1433,1447,1418,1445,259500,1445
2012/11/28,1435,1439,1415,1425,304200,1425
2012/11/29,1439,1444,1421,1429,207800,1429
2012/11/30,1432,1436,1416,1416,181700,1416
2012/12/03,1419,1431,1411,1420,218900,1420
2012/12/04,1412,1436,1397,1433,239200,1433
2012/12/05,1433,1454,1430,1435,267500,1435
2012/12/06,1444,1444,1414,1419,253200,1419
2012/12/07,1419,1436,1407,1424,227200,1424
2012/12/10,1440,1440,1421,1432,306400,1432
2012/12/11,1432,1433,1401,1408,267400,1408
2012/12/12,1414,1416,1401,1405,184600,1405
2012/12/13,1418,1418,1389,1403,382000,1403
2012/12/14,1373,1407,1373,1388,342100,1388
2012/12/17,1402,1402,1371,1377,238300,1377
2012/12/18,1380,1407,1379,1392,538300,1392
2012/12/19,1404,1429,1400,1427,375700,1427
2012/12/20,1430,1439,1420,1426,367200,1426
2012/12/21,1428,1428,1387,1390,354800,1390
2012/12/25,1419,1427,1389,1390,138900,1390
2012/12/26,1393,1397,1378,1396,114900,1396
2012/12/27,1407,1410,1386,1390,269700,1390
2012/12/28,1390,1396,1375,1392,149400,1392
2013/01/04,1438,1438,1398,1424,344200,1424
2013/01/07,1434,1436,1412,1424,264300,1424
2013/01/08,1422,1434,1418,1420,117100,1420
2013/01/09,1420,1443,1419,1439,275800,1439
2013/01/10,1446,1446,1433,1438,183700,1438
2013/01/11,1448,1448,1427,1440,274600,1440
2013/01/15,1449,1452,1441,1450,436800,1450
2013/01/16,1452,1452,1438,1447,213000,1447
2013/01/17,1452,1472,1448,1464,699800,1464
2013/01/18,1475,1475,1461,1469,421000,1469
2013/01/21,1474,1474,1455,1468,223800,1468
2013/01/22,1471,1501,1462,1479,498000,1479
2013/01/23,1479,1493,1472,1486,447900,1486
2013/01/24,1500,1563,1491,1529,713500,1529
2013/01/25,1550,1555,1534,1546,466900,1546
2013/01/28,1556,1565,1536,1539,252600,1539
2013/01/29,1535,1540,1522,1525,157000,1525
2013/01/30,1531,1540,1520,1522,193400,1522
2013/01/31,1520,1526,1501,1518,248600,1518
2013/02/01,1557,1582,1523,1554,490300,1554
2013/02/04,1563,1570,1518,1522,246100,1522
2013/02/05,1523,1528,1502,1502,240000,1502
2013/02/06,1527,1536,1503,1506,231400,1506
2013/02/07,1502,1518,1500,1514,216400,1514
2013/02/08,1514,1545,1508,1521,265700,1521
2013/02/12,1542,1545,1523,1537,248400,1537
2013/02/13,1522,1545,1520,1526,190100,1526
2013/02/14,1515,1515,1493,1505,209100,1505
2013/02/15,1502,1507,1489,1506,154900,1506
2013/02/18,1507,1550,1506,1550,248300,1550
2013/02/19,1538,1561,1535,1559,174000,1559
2013/02/20,1554,1554,1524,1546,150400,1546
2013/02/21,1545,1564,1539,1541,170600,1541
2013/02/22,1530,1549,1530,1536,208300,1536
2013/02/25,1558,1560,1541,1549,119000,1549
2013/02/26,1536,1542,1527,1535,182500,1535
2013/02/27,1543,1549,1529,1537,160500,1537
2013/02/28,1548,1555,1532,1543,202300,1543
2013/03/01,1545,1588,1537,1585,270500,1585
2013/03/04,1600,1602,1575,1580,217500,1580
2013/03/05,1586,1591,1580,1585,147000,1585
2013/03/06,1585,1591,1576,1589,128400,1589
2013/03/07,1600,1621,1593,1608,551000,1608
2013/03/08,1615,1627,1609,1625,641100,1625
2013/03/11,1640,1651,1632,1647,624700,1647
2013/03/12,1651,1699,1638,1684,597400,1684
2013/03/13,1691,1782,1690,1774,805000,1774
2013/03/14,1770,1784,1746,1777,409400,1777
2013/03/15,1798,1806,1778,1802,328600,1802
2013/03/18,1783,1795,1776,1779,109400,1779
2013/03/19,1800,1800,1764,1770,251700,1770
2013/03/21,1770,1787,1760,1782,258400,1782
2013/03/22,1773,1779,1740,1740,229600,1740
2013/03/25,1740,1761,1735,1735,166100,1735
2013/03/26,1695,1741,1695,1727,144500,1727
2013/03/27,1715,1736,1704,1715,148400,1715
2013/03/28,1716,1730,1703,1724,86600,1724
2013/03/29,1736,1746,1721,1738,138300,1738
2013/04/01,1729,1731,1673,1674,134700,1674
2013/04/02,1627,1651,1607,1626,270100,1626
2013/04/03,1626,1700,1626,1690,169900,1690
2013/04/04,1685,1720,1649,1720,196000,1720
2013/04/05,1720,1796,1720,1781,449800,1781
2013/04/08,1800,1843,1781,1830,330600,1830
2013/04/09,1822,1826,1787,1800,220300,1800
2013/04/10,1800,1810,1775,1788,222400,1788
2013/04/11,1785,1795,1761,1785,248900,1785
2013/04/12,1789,1793,1773,1778,193400,1778
2013/04/15,1770,1785,1760,1775,224600,1775
2013/04/16,1755,1780,1745,1754,340000,1754
2013/04/17,1761,1783,1761,1775,163800,1775
2013/04/18,1770,1781,1752,1767,240300,1767
2013/04/19,1773,1824,1760,1814,248800,1814
2013/04/22,1830,1880,1827,1872,281600,1872
2013/04/23,1879,1921,1833,1910,381500,1910
2013/04/24,1931,1952,1900,1942,353500,1942
2013/04/25,1940,1967,1939,1959,263200,1959
2013/04/26,1957,1963,1925,1946,267700,1946
2013/04/30,1966,1995,1957,1964,330000,1964
2013/05/01,2000,2000,1962,1984,258400,1984
2013/05/02,1995,2040,1976,2026,364500,2026
2013/05/07,2076,2247,2065,2198,994200,2198
2013/05/08,2163,2195,2100,2105,418000,2105
2013/05/09,2117,2121,2065,2068,230300,2068
2013/05/10,2100,2150,2100,2129,285400,2129
2013/05/13,2120,2132,2068,2083,281200,2083
2013/05/14,2084,2133,2084,2104,229200,2104
2013/05/15,2118,2130,2078,2091,159100,2091
2013/05/16,2109,2109,2051,2084,210200,2084
2013/05/17,2056,2118,2051,2110,176500,2110
2013/05/20,2124,2129,2098,2099,192100,2099
2013/05/21,2094,2099,2071,2094,108400,2094
2013/05/22,2100,2163,2097,2142,369900,2142
2013/05/23,2142,2145,1991,1991,471500,1991
2013/05/24,1991,2023,1950,2009,316400,2009
2013/05/27,1977,2043,1954,2016,366800,2016
2013/05/28,1967,2010,1945,1978,224300,1978
2013/05/29,2013,2021,1976,2001,219800,2001
2013/05/30,1956,1971,1882,1897,230000,1897
2013/05/31,1909,1954,1874,1899,308900,1899
2013/06/03,1861,1940,1840,1893,296700,1893
2013/06/04,1860,1904,1820,1901,402200,1901
2013/06/05,1897,1944,1886,1888,282900,1888
2013/06/06,1852,1899,1824,1839,253300,1839
2013/06/07,1792,1835,1778,1807,294200,1807
2013/06/10,1874,1950,1850,1943,309700,1943
2013/06/11,1949,2000,1898,1947,344600,1947
2013/06/12,1902,1964,1876,1951,252600,1951
2013/06/13,1885,1929,1842,1844,167100,1844
2013/06/14,1862,1888,1840,1850,282800,1850
2013/06/17,1845,1900,1845,1900,220300,1900
2013/06/18,1922,1949,1888,1929,235800,1929
2013/06/19,1950,1972,1922,1948,157400,1948
2013/06/20,1947,1947,1890,1901,115300,1901
2013/06/21,1848,1924,1840,1909,194600,1909
2013/06/24,1925,1936,1896,1900,80400,1900
2013/06/25,1900,1917,1866,1895,129200,1895
2013/06/26,1900,1917,1862,1877,78700,1877
2013/06/27,1902,1932,1865,1930,177700,1930
2013/06/28,1939,2000,1935,1990,163800,1990
2013/07/01,1990,2000,1967,1997,153400,1997
2013/07/02,2000,2036,2000,2021,201200,2021
2013/07/03,2022,2022,1958,1966,296500,1966
2013/07/04,1967,1976,1928,1942,387700,1942
2013/07/05,1968,1983,1952,1971,125600,1971
2013/07/08,2002,2005,1968,1968,147100,1968
2013/07/09,1989,2004,1969,1996,153200,1996
2013/07/10,2000,2036,1992,2017,180000,2017
2013/07/11,2005,2010,1976,1993,92800,1993
2013/07/12,2001,2024,1978,1992,153600,1992
2013/07/16,1997,2016,1986,1995,96100,1995
2013/07/17,1991,1993,1967,1981,130000,1981
2013/07/18,1990,2043,1985,2036,225400,2036
2013/07/19,2068,2100,2031,2038,453600,2038
2013/07/22,2037,2054,2015,2029,73500,2029
2013/07/23,2015,2044,2008,2037,66600,2037
2013/07/24,2044,2065,2004,2045,110300,2045
2013/07/25,2046,2058,2026,2036,114300,2036
2013/07/26,2009,2024,1995,2008,148500,2008
2013/07/29,1992,1992,1938,1941,96600,1941
2013/07/30,1922,1943,1900,1939,144500,1939
2013/07/31,1922,1926,1883,1893,168300,1893
2013/08/01,1847,1931,1847,1930,156700,1930
2013/08/02,1935,1991,1922,1989,73700,1989
2013/08/05,1942,1958,1903,1921,147300,1921
2013/08/06,1910,1926,1871,1926,149000,1926
2013/08/07,1900,1900,1851,1851,200900,1851
2013/08/08,1845,1862,1818,1818,182100,1818
2013/08/09,1815,1832,1784,1803,226200,1803
2013/08/12,1789,1818,1770,1814,178300,1814
2013/08/13,1823,1850,1818,1849,167600,1849
2013/08/14,1857,1888,1836,1883,184700,1883
2013/08/15,1869,1890,1855,1864,277200,1864
2013/08/16,1840,1846,1809,1840,279200,1840
2013/08/19,1844,1879,1842,1879,158200,1879
2013/08/20,1871,1878,1847,1851,197700,1851
2013/08/21,1852,1855,1813,1832,216200,1832
2013/08/22,1817,1870,1817,1839,194700,1839
2013/08/23,1851,1859,1829,1847,168300,1847
2013/08/26,1848,1869,1842,1852,118500,1852
2013/08/27,1850,1853,1822,1841,166700,1841
2013/08/28,1826,1826,1791,1811,133800,1811
2013/08/29,1833,1833,1794,1823,187800,1823
2013/08/30,1827,1827,1777,1784,235900,1784
2013/09/02,1792,1808,1784,1801,183200,1801
2013/09/03,1823,1838,1818,1835,165900,1835
2013/09/04,1817,1835,1807,1830,107200,1830
2013/09/05,1832,1835,1811,1828,129600,1828
2013/09/06,1826,1834,1800,1814,228300,1814
2013/09/09,1854,1885,1854,1879,136200,1879
2013/09/10,1904,1932,1901,1931,168600,1931
2013/09/11,1951,1968,1931,1947,271200,1947
2013/09/12,1938,1938,1899,1916,201400,1916
2013/09/13,1905,1928,1895,1912,296800,1912
2013/09/17,1904,1904,1860,1887,365400,1887
2013/09/18,1887,1915,1852,1902,142000,1902
2013/09/19,1918,1938,1901,1937,120400,1937
2013/09/20,1945,1950,1925,1937,131100,1937
2013/09/24,1917,1929,1899,1913,199000,1913
2013/09/25,1905,1941,1895,1939,214700,1939
2013/09/26,1925,1971,1905,1970,175400,1970
2013/09/27,1985,1985,1950,1975,160100,1975
2013/09/30,1950,1971,1939,1955,85300,1955
2013/10/01,1966,1995,1964,1991,237400,1991
2013/10/02,1998,2045,1981,2037,440600,2037
2013/10/03,2046,2047,2001,2006,193700,2006
2013/10/04,2007,2013,1986,1994,162400,1994
2013/10/07,2002,2003,1960,1971,154900,1971
2013/10/08,1950,1983,1944,1979,127500,1979
2013/10/09,1961,1976,1941,1976,189600,1976
2013/10/10,1984,1998,1976,1995,150800,1995
2013/10/11,2013,2027,1997,2007,264300,2007
2013/10/15,2007,2030,1986,2001,261500,2001
2013/10/16,2001,2015,1976,1986,151700,1986
2013/10/17,2003,2030,2002,2019,113000,2019
2013/10/18,2014,2014,1976,1990,153600,1990
2013/10/21,1984,2000,1975,1993,133000,1993
2013/10/22,1998,1998,1973,1988,159400,1988
2013/10/23,1989,1999,1950,1950,179400,1950
2013/10/24,1941,1978,1937,1971,135300,1971
2013/10/25,1971,1971,1913,1914,190900,1914
2013/10/28,1925,1974,1925,1973,128100,1973
2013/10/29,1950,1961,1927,1957,165400,1957
2013/10/30,1975,1995,1940,1982,205300,1982
2013/10/31,1980,2026,1976,2008,279100,2008
2013/11/01,1988,2019,1981,2015,213000,2015
2013/11/05,2020,2024,1991,2000,147700,2000
2013/11/06,2000,2040,1986,2028,178200,2028
2013/11/07,2029,2064,2025,2053,271500,2053
2013/11/08,2037,2037,2002,2028,194800,2028
2013/11/11,2055,2055,2020,2035,117900,2035
2013/11/12,2035,2059,2019,2050,159200,2050
2013/11/13,2054,2059,2020,2039,133300,2039
2013/11/14,2047,2053,2014,2028,234100,2028
2013/11/15,2048,2084,2045,2079,296100,2079
2013/11/18,2100,2156,2100,2135,402000,2135
2013/11/19,2118,2129,2093,2101,256600,2101
2013/11/20,2100,2125,2093,2106,214600,2106
2013/11/21,2112,2138,2103,2129,141400,2129
2013/11/22,2130,2149,2113,2126,240300,2126
2013/11/25,2137,2156,2125,2148,177200,2148
2013/11/26,2150,2160,2137,2147,150300,2147
2013/11/27,2141,2149,2121,2130,123700,2130
2013/11/28,2137,2137,2112,2128,86700,2128
2013/11/29,2115,2121,2088,2113,158800,2113
2013/12/02,2095,2116,2093,2105,182100,2105
2013/12/03,2105,2111,2074,2075,233900,2075
2013/12/04,2066,2087,2054,2066,182100,2066
2013/12/05,2056,2060,2032,2034,142800,2034
2013/12/06,2020,2031,2010,2030,153500,2030
2013/12/09,2050,2050,2032,2040,137300,2040
2013/12/10,2032,2042,2025,2027,116800,2027
2013/12/11,2021,2041,2014,2021,124300,2021
2013/12/12,2010,2033,2006,2019,145600,2019
2013/12/13,1988,2012,1970,1970,429900,1970
2013/12/16,1972,1995,1969,1977,174400,1977
2013/12/17,1974,2009,1974,1994,164800,1994
2013/12/18,1987,1999,1970,1982,255600,1982
2013/12/19,1999,2014,1986,1992,217500,1992
2013/12/20,1990,2002,1979,1993,228900,1993
2013/12/24,1991,2008,1967,1973,240200,1973
2013/12/25,1976,1988,1960,1975,207000,1975
2013/12/26,2000,2008,1966,1984,237700,1984
2013/12/27,1989,2049,1989,2045,224700,2045
2013/12/30,2050,2087,2032,2079,157800,2079
2014/01/06,2098,2111,2070,2095,227700,2095
2014/01/07,2081,2152,2077,2133,491800,2133
2014/01/08,2138,2150,2120,2150,178000,2150
2014/01/09,2138,2149,2124,2142,106000,2142
2014/01/10,2143,2166,2112,2166,201500,2166
2014/01/14,2136,2136,2103,2108,184100,2108
2014/01/15,2147,2156,2111,2156,127700,2156
2014/01/16,2170,2172,2134,2145,120000,2145
2014/01/17,2154,2154,2124,2146,112900,2146
2014/01/20,2156,2158,2136,2144,125000,2144
2014/01/21,2155,2162,2137,2146,124000,2146
2014/01/22,2140,2156,2125,2151,84400,2151
2014/01/23,2161,2171,2130,2130,99500,2130
2014/01/24,2122,2131,2086,2096,188200,2096
2014/01/27,2020,2070,2020,2031,148300,2031
2014/01/28,2025,2050,2023,2024,179000,2024
2014/01/29,2037,2071,2034,2071,85200,2071
2014/01/30,2020,2038,2002,2012,152700,2012
2014/01/31,1962,1999,1843,1896,650200,1896
2014/02/03,1971,1994,1901,1975,417500,1975
2014/02/04,1942,1948,1899,1899,414800,1899
2014/02/05,1915,1970,1901,1939,202100,1939
2014/02/06,1942,1985,1923,1963,282800,1963
2014/02/07,1982,1995,1972,1990,126300,1990
2014/02/10,2013,2018,1985,2000,127400,2000
2014/02/12,2028,2059,2026,2043,158500,2043
2014/02/13,2070,2119,2060,2099,300700,2099
2014/02/14,2094,2095,2035,2066,210900,2066
2014/02/17,2071,2120,2056,2118,176000,2118
2014/02/18,2116,2162,2097,2155,264000,2155
2014/02/19,2159,2168,2107,2139,141600,2139
2014/02/20,2140,2140,2086,2099,183400,2099
2014/02/21,2106,2154,2096,2129,130300,2129
2014/02/24,2128,2150,2103,2133,82300,2133
2014/02/25,2140,2154,2123,2145,112900,2145
2014/02/26,2107,2127,2105,2110,80000,2110
2014/02/27,2103,2133,2056,2107,84600,2107
2014/02/28,2090,2102,2022,2091,318400,2091
2014/03/03,2092,2108,2071,2101,121700,2101
2014/03/04,2080,2133,2074,2128,132800,2128
2014/03/05,2143,2150,2110,2120,67600,2120
2014/03/06,2110,2120,2093,2112,120400,2112
2014/03/07,2144,2154,2125,2149,186600,2149
2014/03/10,2150,2193,2142,2146,117900,2146
2014/03/11,2146,2178,2131,2164,135100,2164
2014/03/12,2136,2166,2123,2158,212100,2158
2014/03/13,2158,2166,2127,2138,87700,2138
2014/03/14,2116,2128,2073,2082,344400,2082
2014/03/17,2056,2083,2039,2063,130100,2063
2014/03/18,2094,2125,2074,2111,81100,2111
2014/03/19,2141,2141,2088,2104,82300,2104
2014/03/20,2119,2126,2060,2080,161800,2080
2014/03/24,2123,2223,2088,2176,377200,2176
2014/03/25,2192,2263,2185,2190,353400,2190
2014/03/26,2192,2239,2143,2154,428800,2154
2014/03/27,2185,2260,2141,2250,370200,2250
2014/03/28,2250,2279,2219,2248,268400,2248
2014/03/31,2278,2342,2278,2299,385200,2299
2014/04/01,2311,2328,2276,2302,273100,2302
2014/04/02,2340,2371,2312,2313,312700,2313
2014/04/03,2314,2346,2284,2327,242000,2327
2014/04/04,2306,2351,2306,2318,199200,2318
2014/04/07,2260,2275,2224,2239,355100,2239
2014/04/08,2220,2245,2203,2203,170500,2203
2014/04/09,2180,2195,2152,2176,205700,2176
2014/04/10,2181,2204,2145,2160,216200,2160
2014/04/11,2133,2192,2109,2181,283400,2181
2014/04/14,2160,2186,2134,2170,99700,2170
2014/04/15,2171,2188,2151,2161,214600,2161
2014/04/16,2186,2216,2165,2214,127800,2214
2014/04/17,2223,2223,2185,2206,144000,2206
2014/04/18,2200,2200,2158,2199,136700,2199
2014/04/21,2210,2229,2186,2202,141200,2202
2014/04/22,2200,2200,2182,2184,72800,2184
2014/04/23,2191,2207,2182,2200,84500,2200
2014/04/24,2200,2210,2166,2182,55700,2182
2014/04/25,2182,2200,2173,2192,56000,2192
2014/04/28,2167,2192,2156,2172,65400,2172
2014/04/30,2150,2170,2100,2135,281700,2135
2014/05/01,2132,2270,2124,2202,319400,2202
2014/05/02,2175,2198,2160,2195,150200,2195
2014/05/07,2177,2181,2136,2148,218900,2148
2014/05/08,2140,2156,2098,2108,245600,2108
2014/05/09,2084,2123,2082,2109,244100,2109
2014/05/12,2101,2111,2051,2059,157200,2059
2014/05/13,2085,2111,2072,2098,151200,2098
2014/05/14,2087,2100,2070,2089,108500,2089
2014/05/15,2080,2104,2065,2103,146400,2103
2014/05/16,2059,2070,2040,2063,162500,2063
2014/05/19,2088,2105,2059,2060,98100,2060
2014/05/20,2085,2098,2065,2066,108300,2066
2014/05/21,2049,2065,2045,2055,77500,2055
2014/05/22,2066,2094,2062,2088,81800,2088
2014/05/23,2100,2132,2099,2120,99400,2120
2014/05/26,2128,2156,2115,2155,104100,2155
2014/05/27,2155,2167,2143,2149,90900,2149
2014/05/28,2169,2181,2148,2171,146600,2171
2014/05/29,2175,2207,2165,2196,143700,2196
2014/05/30,2195,2232,2173,2212,222000,2212
2014/06/02,2226,2228,2173,2208,260400,2208
2014/06/03,2219,2222,2181,2218,198400,2218
2014/06/04,2218,2218,2183,2203,152100,2203
2014/06/05,2203,2205,2173,2198,109100,2198
2014/06/06,2212,2217,2186,2191,97100,2191
2014/06/09,2200,2200,2171,2175,55000,2175
2014/06/10,2190,2200,2154,2163,120800,2163
2014/06/11,2163,2182,2116,2141,284600,2141
2014/06/12,2111,2125,2082,2093,335200,2093
2014/06/13,2070,2097,2052,2096,361900,2096
2014/06/16,2122,2141,2081,2104,360200,2104
2014/06/17,2118,2131,2110,2124,267500,2124
2014/06/18,2126,2135,2118,2121,108700,2121
2014/06/19,2134,2148,2122,2142,269400,2142
2014/06/20,2142,2147,2110,2121,212100,2121
2014/06/23,2130,2132,2116,2124,81100,2124
2014/06/24,2133,2155,2126,2150,96300,2150
2014/06/25,2155,2159,2141,2142,117300,2142
2014/06/26,2165,2184,2148,2165,159400,2165
2014/06/27,2173,2180,2114,2160,148200,2160
2014/06/30,2160,2169,2139,2164,197700,2164
2014/07/01,2164,2169,2146,2159,246000,2159
2014/07/02,2162,2178,2149,2164,142900,2164
2014/07/03,2163,2181,2155,2177,198100,2177
2014/07/04,2200,2213,2180,2190,123200,2190
2014/07/07,2196,2198,2176,2177,71400,2177
2014/07/08,2188,2188,2158,2180,110600,2180
2014/07/09,2180,2185,2157,2178,101900,2178
2014/07/10,2188,2195,2161,2162,118600,2162
2014/07/11,2150,2188,2143,2186,181400,2186
2014/07/14,2195,2210,2193,2206,103700,2206
2014/07/15,2230,2231,2218,2226,128600,2226
2014/07/16,2235,2250,2227,2241,156300,2241
2014/07/17,2243,2262,2243,2260,139800,2260
2014/07/18,2218,2226,2190,2215,253800,2215
2014/07/22,2216,2243,2216,2238,138100,2238
2014/07/23,2239,2254,2206,2213,169900,2213
2014/07/24,2218,2241,2207,2221,141100,2221
2014/07/25,2235,2241,2202,2222,111200,2222
2014/07/28,2224,2230,2209,2224,89200,2224
2014/07/29,2224,2251,2219,2249,86100,2249
2014/07/30,2235,2250,2235,2243,80900,2243
2014/07/31,2254,2260,2203,2240,118500,2240
2014/08/01,2200,2238,2200,2216,83200,2216
2014/08/04,2260,2341,2256,2326,346500,2326
2014/08/05,2331,2339,2277,2283,272700,2283
2014/08/06,2275,2288,2260,2263,112400,2263
2014/08/07,2263,2275,2248,2274,89900,2274
2014/08/08,2268,2282,2211,2211,123500,2211
2014/08/11,2261,2290,2243,2284,129500,2284
2014/08/12,2290,2318,2272,2314,124800,2314
2014/08/13,2304,2322,2294,2312,131400,2312
2014/08/14,2313,2350,2307,2341,115100,2341
2014/08/15,2335,2343,2324,2328,61300,2328
2014/08/18,2340,2340,2310,2337,51800,2337
2014/08/19,2350,2427,2348,2423,265600,2423
2014/08/20,2444,2455,2427,2437,217700,2437
2014/08/21,2475,2530,2472,2508,319100,2508
2014/08/22,2529,2529,2408,2466,241500,2466
2014/08/25,2490,2502,2462,2489,131100,2489
2014/08/26,2483,2494,2464,2483,94700,2483
2014/08/27,2495,2526,2485,2510,119100,2510
2014/08/28,2491,2510,2482,2504,120100,2504
2014/08/29,2482,2496,2464,2486,126700,2486
2014/09/01,2481,2535,2476,2531,114200,2531
2014/09/02,2523,2562,2512,2546,101200,2546
2014/09/03,2560,2565,2536,2554,209400,2554
2014/09/04,2554,2554,2491,2511,194400,2511
2014/09/05,2509,2511,2432,2455,288200,2455
2014/09/08,2476,2481,2452,2460,152300,2460
2014/09/09,2477,2481,2450,2460,116900,2460
2014/09/10,2455,2494,2455,2467,176000,2467
2014/09/11,2469,2479,2446,2456,133400,2456
2014/09/12,2474,2477,2446,2461,185400,2461
2014/09/16,2451,2479,2427,2465,162200,2465
2014/09/17,2450,2452,2413,2413,146500,2413
2014/09/18,2424,2445,2402,2411,178400,2411
2014/09/19,2428,2459,2418,2450,259100,2450
2014/09/22,2438,2440,2382,2421,254100,2421
2014/09/24,2396,2411,2381,2392,182800,2392
2014/09/25,2408,2420,2365,2385,317600,2385
2014/09/26,2335,2352,2300,2349,262600,2349
2014/09/29,2354,2363,2326,2351,196200,2351
2014/09/30,2350,2354,2315,2332,154100,2332
2014/10/01,2326,2356,2302,2306,173800,2306
2014/10/02,2279,2287,2243,2243,199400,2243
2014/10/03,2247,2301,2247,2276,213800,2276
2014/10/06,2318,2330,2298,2298,109300,2298
2014/10/07,2307,2325,2277,2282,120600,2282
2014/10/08,2245,2261,2222,2240,145100,2240
2014/10/09,2242,2250,2210,2213,83100,2213
2014/10/10,2165,2184,2140,2166,120300,2166
2014/10/14,2108,2153,2108,2113,128100,2113
2014/10/15,2115,2146,2112,2136,112600,2136
2014/10/16,2097,2119,2080,2087,144900,2087
2014/10/17,2095,2120,2045,2049,155300,2049
2014/10/20,2110,2129,2093,2123,132400,2123
2014/10/21,2107,2122,2081,2082,115100,2082
2014/10/22,2107,2149,2107,2144,104000,2144
2014/10/23,2122,2167,2116,2147,164700,2147
2014/10/24,2189,2202,2162,2172,124600,2172
2014/10/27,2194,2205,2170,2190,96800,2190
2014/10/28,2191,2219,2180,2210,171800,2210
2014/10/29,2226,2241,2202,2217,117000,2217
2014/10/30,2237,2248,2191,2226,359600,2226
2014/10/31,2250,2309,2229,2298,233600,2298
2014/11/04,2403,2410,2348,2373,413600,2373
2014/11/05,2371,2397,2315,2356,330100,2356
2014/11/06,2351,2351,2274,2289,242700,2289
2014/11/07,2294,2294,2243,2263,297900,2263
2014/11/10,2259,2268,2221,2232,209500,2232
2014/11/11,2236,2280,2232,2273,165200,2273
2014/11/12,2320,2325,2292,2302,311300,2302
2014/11/13,2300,2323,2281,2308,283800,2308
2014/11/14,2342,2344,2303,2332,196800,2332
2014/11/17,2300,2304,2259,2275,194800,2275
2014/11/18,2290,2367,2288,2366,211800,2366
2014/11/19,2366,2380,2347,2361,139800,2361
2014/11/20,2360,2385,2343,2368,277000,2368
2014/11/21,2368,2385,2338,2380,413400,2380
2014/11/25,2400,2434,2377,2411,855800,2411
2014/11/26,2412,2445,2404,2415,335600,2415
2014/11/27,2408,2422,2378,2407,243100,2407
2014/11/28,2428,2452,2399,2428,458200,2428
2014/12/01,2449,2476,2432,2463,662100,2463
2014/12/02,2476,2570,2473,2555,1267100,2555
2014/12/03,2556,2585,2528,2548,365000,2548
2014/12/04,2552,2552,2494,2506,783300,2506
2014/12/05,2518,2526,2481,2502,843200,2502
2014/12/08,2528,2528,2486,2495,498000,2495
2014/12/09,2455,2496,2451,2467,388500,2467
2014/12/10,2456,2487,2445,2479,675200,2479
2014/12/11,2450,2499,2447,2460,455600,2460
2014/12/12,2437,2469,2423,2430,686400,2430
2014/12/15,2385,2469,2385,2445,284900,2445
2014/12/16,2395,2441,2395,2415,313700,2415
2014/12/17,2419,2498,2419,2444,222500,2444
2014/12/18,2499,2499,2462,2470,169300,2470
2014/12/19,2520,2524,2483,2496,210700,2496
2014/12/22,2495,2495,2459,2468,151300,2468
2014/12/24,2498,2520,2486,2513,108000,2513
2014/12/25,2513,2513,2486,2493,56100,2493
2014/12/26,2486,2500,2486,2496,152100,2496
2014/12/29,2527,2547,2493,2521,91900,2521
2014/12/30,2543,2543,2495,2501,70200,2501
2015/01/05,2500,2556,2495,2536,156000,2536
2015/01/06,2489,2489,2447,2449,188900,2449
2015/01/07,2421,2468,2421,2438,98500,2438
2015/01/08,2455,2489,2449,2472,141200,2472
2015/01/09,2484,2498,2464,2479,136700,2479
2015/01/13,2457,2500,2456,2499,118200,2499
2015/01/14,2474,2500,2454,2457,89800,2457
2015/01/15,2473,2540,2473,2534,123500,2534
2015/01/16,2478,2520,2459,2515,153800,2515
2015/01/19,2515,2533,2486,2529,132900,2529
2015/01/20,2550,2624,2520,2620,290700,2620
2015/01/21,2642,2679,2624,2678,386000,2678
2015/01/22,2670,2690,2607,2620,190800,2620
2015/01/23,2647,2647,2581,2595,127700,2595
2015/01/26,2569,2630,2569,2626,109800,2626
2015/01/27,2667,2707,2652,2704,211200,2704
2015/01/28,2704,2715,2658,2705,184600,2705
2015/01/29,2694,2704,2666,2680,101600,2680
2015/01/30,2654,2684,2617,2635,147800,2635
2015/02/02,2620,2753,2618,2735,319600,2735
2015/02/03,2598,2615,2507,2516,308400,2516
2015/02/04,2566,2576,2526,2556,318100,2556
2015/02/05,2519,2551,2439,2462,425400,2462
2015/02/06,2521,2550,2492,2546,202700,2546
2015/02/09,2595,2597,2539,2555,182500,2555
2015/02/10,2570,2589,2542,2569,164500,2569
2015/02/12,2590,2601,2535,2562,306800,2562
2015/02/13,2535,2580,2481,2564,218500,2564
2015/02/16,2580,2605,2552,2600,160300,2600
2015/02/17,2614,2685,2593,2656,262900,2656
2015/02/18,2700,2747,2676,2694,246300,2694
2015/02/19,2700,2725,2671,2704,148500,2704
2015/02/20,2732,2755,2704,2731,146000,2731
2015/02/23,2714,2729,2671,2714,165900,2714
2015/02/24,2678,2698,2646,2692,179000,2692
2015/02/25,2692,2720,2672,2699,87000,2699
2015/02/26,2697,2750,2688,2743,129500,2743
2015/02/27,2757,2855,2753,2810,255300,2810
2015/03/02,2810,2847,2723,2728,254100,2728
2015/03/03,2707,2712,2671,2689,301500,2689
2015/03/04,2670,2681,2622,2650,197700,2650
2015/03/05,2616,2655,2614,2648,151000,2648
2015/03/06,2646,2657,2620,2648,142600,2648
2015/03/09,2648,2665,2619,2642,119700,2642
2015/03/10,2640,2680,2640,2653,116900,2653
2015/03/11,2642,2677,2632,2654,79100,2654
2015/03/12,2674,2697,2647,2689,102000,2689
2015/03/13,2696,2697,2653,2686,315100,2686
2015/03/16,2664,2723,2664,2709,102800,2709
2015/03/17,2742,2745,2716,2736,84900,2736
2015/03/18,2735,2750,2707,2731,77700,2731
2015/03/19,2720,2745,2693,2709,79700,2709
2015/03/20,2708,2747,2697,2732,191200,2732
2015/03/23,2750,2750,2705,2731,132300,2731
2015/03/24,2753,2793,2753,2781,188500,2781
2015/03/25,2793,2821,2777,2812,124600,2812
2015/03/26,2794,2796,2752,2764,97700,2764
2015/03/27,2753,2813,2714,2733,167500,2733
2015/03/30,2740,2798,2740,2786,155200,2786
2015/03/31,2850,2850,2792,2800,213700,2800
2015/04/01,2766,2773,2713,2716,209700,2716
2015/04/02,2753,2807,2741,2786,200900,2786
2015/04/03,2818,2835,2804,2835,196000,2835
2015/04/06,2804,2804,2741,2759,132900,2759
2015/04/07,2760,2764,2724,2750,170600,2750
2015/04/08,2764,2791,2753,2764,128900,2764
2015/04/09,2744,2751,2704,2727,244400,2727
2015/04/10,2717,2743,2687,2728,235600,2728
2015/04/13,2750,2771,2725,2748,114000,2748
2015/04/14,2746,2778,2746,2769,88700,2769
2015/04/15,2746,2794,2746,2777,139200,2777
2015/04/16,2776,2778,2732,2768,102300,2768
2015/04/17,2741,2743,2674,2710,169000,2710
2015/04/20,2690,2717,2663,2693,103800,2693
2015/04/21,2695,2757,2695,2738,188000,2738
2015/04/22,2756,2766,2739,2759,81100,2759
2015/04/23,2749,2749,2717,2727,97200,2727
2015/04/24,2728,2774,2727,2759,142200,2759
2015/04/27,2759,2766,2726,2753,78500,2753
2015/04/28,2757,2766,2729,2764,144400,2764
2015/04/30,2764,2783,2700,2751,185900,2751
2015/05/01,2716,2730,2640,2649,177800,2649
2015/05/07,2649,2649,2583,2614,295500,2614
2015/05/08,2615,2658,2589,2648,251000,2648
2015/05/11,2700,2732,2684,2697,176700,2697
2015/05/12,2676,2696,2662,2674,117500,2674
2015/05/13,2647,2705,2647,2694,107800,2694
2015/05/14,2675,2727,2669,2694,169000,2694
2015/05/15,2701,2736,2695,2718,70900,2718
2015/05/18,2740,2744,2702,2712,111300,2712
2015/05/19,2714,2738,2688,2716,193300,2716
2015/05/20,2712,2738,2702,2719,166400,2719
2015/05/21,2730,2749,2712,2726,119000,2726
2015/05/22,2735,2756,2712,2753,135900,2753
2015/05/25,2779,2793,2742,2757,197200,2757
2015/05/26,2759,2776,2726,2731,149800,2731
2015/05/27,2736,2779,2720,2767,187900,2767
2015/05/28,2768,2768,2713,2720,267500,2720
2015/05/29,2740,2820,2739,2787,371000,2787
2015/06/01,2787,2815,2746,2750,199700,2750
2015/06/02,2777,2789,2717,2722,316100,2722
2015/06/03,2721,2769,2666,2674,213300,2674
2015/06/04,2696,2714,2675,2703,254400,2703
2015/06/05,2690,2714,2679,2695,203900,2695
2015/06/08,2714,2743,2685,2733,172200,2733
2015/06/09,2707,2718,2658,2660,205800,2660
2015/06/10,2660,2671,2633,2651,197200,2651
2015/06/11,2687,2723,2679,2700,195100,2700
2015/06/12,2713,2713,2661,2675,229000,2675
2015/06/15,2655,2677,2653,2671,107100,2671
2015/06/16,2674,2695,2649,2649,135600,2649
2015/06/17,2659,2670,2610,2645,210600,2645
2015/06/18,2641,2684,2641,2646,211300,2646
2015/06/19,2671,2763,2657,2744,844500,2744
2015/06/22,2711,2727,2692,2723,188700,2723
2015/06/23,2745,2791,2741,2772,175300,2772
2015/06/24,2792,2842,2792,2835,268000,2835
2015/06/25,2839,2846,2793,2805,244200,2805
2015/06/26,2811,2827,2782,2797,109000,2797
2015/06/29,2754,2769,2724,2752,136700,2752
2015/06/30,2775,2845,2771,2844,299100,2844
2015/07/01,2843,2843,2781,2807,171800,2807
2015/07/02,2839,2855,2800,2829,137700,2829
2015/07/03,2823,2826,2799,2811,128700,2811
2015/07/06,2775,2798,2757,2760,148200,2760
2015/07/07,2801,2831,2795,2816,102000,2816
2015/07/08,2784,2793,2716,2720,185900,2720
2015/07/09,2682,2718,2652,2714,247900,2714
2015/07/10,2710,2750,2674,2680,212000,2680
2015/07/13,2720,2748,2700,2736,108300,2736
2015/07/14,2773,2774,2751,2761,81100,2761
2015/07/15,2774,2788,2748,2761,92500,2761
2015/07/16,2793,2834,2777,2831,250500,2831
2015/07/17,2830,2859,2800,2827,213700,2827
2015/07/21,2835,2853,2818,2843,198100,2843
2015/07/22,2799,2800,2752,2775,208300,2775
2015/07/23,2790,2796,2770,2794,104900,2794
2015/07/24,2782,2782,2757,2774,109200,2774
2015/07/27,2774,2774,2705,2711,142200,2711
2015/07/28,2711,2735,2701,2720,142300,2720
2015/07/29,2735,2760,2724,2743,106900,2743
2015/07/30,2745,2746,2719,2729,223900,2729
2015/07/31,2760,2778,2742,2763,160200,2763
2015/08/03,2750,2810,2725,2802,188100,2802
2015/08/04,2820,2845,2785,2815,171300,2815
2015/08/05,2826,2899,2801,2892,268000,2892
2015/08/06,2903,2935,2890,2891,143900,2891
2015/08/07,2877,2899,2857,2885,136900,2885
2015/08/10,2885,2941,2880,2939,117700,2939
2015/08/11,2946,2946,2896,2916,104300,2916
2015/08/12,2887,2915,2860,2891,99000,2891
2015/08/13,2860,2898,2835,2866,157600,2866
2015/08/14,2850,2861,2830,2856,100600,2856
2015/08/17,2859,2924,2850,2923,121800,2923
2015/08/18,2928,2940,2908,2917,104300,2917
2015/08/19,2895,2895,2841,2861,161800,2861
2015/08/20,2861,2892,2846,2852,125900,2852
2015/08/21,2786,2804,2755,2756,130000,2756
2015/08/24,2695,2729,2602,2607,256900,2607
2015/08/25,2457,2556,2389,2397,419700,2397
2015/08/26,2411,2471,2372,2435,322100,2435
2015/08/27,2479,2587,2450,2529,294300,2529
2015/08/28,2579,2612,2570,2606,266600,2606
2015/08/31,2606,2606,2555,2585,135300,2585
2015/09/01,2574,2585,2497,2497,192400,2497
2015/09/02,2447,2516,2424,2453,167200,2453
2015/09/03,2456,2514,2441,2451,136900,2451
2015/09/04,2473,2473,2343,2357,291700,2357
2015/09/07,2321,2348,2280,2301,351900,2301
2015/09/08,2304,2378,2304,2311,290400,2311
2015/09/09,2378,2397,2341,2397,288400,2397
2015/09/10,2329,2406,2329,2397,166000,2397
2015/09/11,2380,2432,2377,2411,214600,2411
2015/09/14,2436,2446,2407,2419,146400,2419
2015/09/15,2447,2515,2419,2460,255300,2460
2015/09/16,2492,2492,2430,2464,120300,2464
2015/09/17,2481,2498,2468,2493,92900,2493
2015/09/18,2481,2481,2412,2444,122800,2444
2015/09/24,2359,2416,2353,2353,173700,2353
2015/09/25,2364,2396,2349,2396,140800,2396
2015/09/28,2400,2433,2354,2395,138800,2395
2015/09/29,2370,2386,2309,2310,169300,2310
2015/09/30,2338,2411,2338,2387,151800,2387
2015/10/01,2408,2419,2360,2404,98500,2404
2015/10/02,2393,2411,2336,2363,147500,2363
2015/10/05,2398,2400,2350,2389,86800,2389
2015/10/06,2420,2489,2420,2441,219300,2441
2015/10/07,2441,2441,2384,2424,121100,2424
2015/10/08,2424,2433,2393,2407,87000,2407
2015/10/09,2431,2456,2408,2456,105100,2456
2015/10/13,2437,2463,2434,2439,87300,2439
2015/10/14,2401,2423,2353,2372,182100,2372
2015/10/15,2374,2444,2374,2434,116200,2434
2015/10/16,2448,2472,2397,2403,143200,2403
