2010/03/10,1930,1930,1904,1913,279300,1913
2010/03/11,1911,1920,1892,1911,405100,1911
2010/03/12,1909,1926,1896,1915,489700,1915
2010/03/15,1927,1928,1897,1910,273500,1910
2010/03/16,1930,1962,1911,1948,894300,1948
2010/03/17,1945,1961,1936,1953,572900,1953
2010/03/18,1953,1970,1936,1942,449600,1942
2010/03/19,1944,1965,1942,1959,671500,1959
2010/03/23,1940,1974,1940,1960,688000,1960
2010/03/24,1980,1996,1954,1978,886500,1978
2010/03/25,1975,1978,1950,1955,674700,1955
2010/03/26,1965,1994,1961,1994,580300,1994
2010/03/29,1967,1995,1967,1993,443200,1993
2010/03/30,1997,2034,1993,2032,492000,2032
2010/03/31,2040,2057,2012,2020,484100,2020
2010/04/01,2013,2037,2010,2031,507900,2031
2010/04/02,2046,2054,2033,2047,295000,2047
2010/04/05,2060,2079,2056,2079,477300,2079
2010/04/06,2091,2097,2037,2047,529000,2047
2010/04/07,2056,2060,2036,2038,368700,2038
2010/04/08,2015,2041,2014,2021,322100,2021
2010/04/09,2020,2024,2000,2023,435400,2023
2010/04/12,2048,2054,2026,2026,272700,2026
2010/04/13,2012,2020,1980,1992,536600,1992
2010/04/14,2005,2018,1985,1989,414200,1989
2010/04/15,2001,2039,2000,2023,595200,2023
2010/04/16,2030,2033,1967,1973,718200,1973
2010/04/19,1950,1968,1944,1944,828300,1944
2010/04/20,1959,1970,1925,1938,541500,1938
2010/04/21,1978,2025,1972,2017,995800,2017
2010/04/22,2005,2033,1990,2032,752000,2032
2010/04/23,2040,2052,2022,2039,896300,2039
2010/04/26,2059,2087,2055,2087,682300,2087
2010/04/27,2080,2097,2061,2090,819000,2090
2010/04/28,2001,2043,1981,2028,1477800,2028
2010/04/30,2017,2048,2016,2047,1242600,2047
2010/05/06,2005,2014,1964,1966,1080100,1966
2010/05/07,1916,1946,1901,1920,700800,1920
2010/05/10,1909,1973,1908,1969,588400,1969
2010/05/11,2000,2009,1945,1952,1007300,1952
2010/05/12,1965,1975,1942,1959,759300,1959
2010/05/13,1999,2004,1982,2001,606900,2001
2010/05/14,1998,2003,1964,1990,591600,1990
2010/05/17,1961,1973,1923,1948,698800,1948
2010/05/18,1949,1955,1922,1937,713400,1937
2010/05/19,1913,1928,1881,1922,742700,1922
2010/05/20,1923,1931,1880,1888,663000,1888
2010/05/21,1848,1859,1827,1848,732600,1848
2010/05/24,1831,1872,1821,1855,812000,1855
2010/05/25,1856,1856,1766,1781,753300,1781
2010/05/26,1776,1785,1727,1743,1294300,1743
2010/05/27,1716,1783,1714,1779,996900,1779
2010/05/28,1802,1806,1760,1780,971800,1780
2010/05/31,1760,1794,1755,1778,675600,1778
2010/06/01,1780,1799,1765,1785,640600,1785
2010/06/02,1761,1792,1740,1749,1071900,1749
2010/06/03,1785,1808,1771,1804,663000,1804
2010/06/04,1808,1821,1790,1799,469900,1799
2010/06/07,1769,1769,1731,1735,496600,1735
2010/06/08,1732,1778,1730,1748,473000,1748
2010/06/09,1731,1741,1692,1703,747500,1703
2010/06/10,1702,1730,1702,1726,513100,1726
2010/06/11,1769,1769,1745,1757,528300,1757
2010/06/14,1772,1815,1771,1814,504600,1814
2010/06/15,1814,1835,1798,1828,653000,1828
2010/06/16,1855,1871,1854,1856,538500,1856
2010/06/17,1867,1875,1844,1852,641300,1852
2010/06/18,1849,1870,1840,1861,451800,1861
2010/06/21,1876,1889,1866,1887,412400,1887
2010/06/22,1884,1890,1854,1861,575200,1861
2010/06/23,1849,1863,1833,1842,494000,1842
2010/06/24,1845,1860,1827,1827,263000,1827
2010/06/25,1791,1800,1753,1765,799100,1765
2010/06/28,1766,1769,1697,1706,1073500,1706
2010/06/29,1710,1738,1690,1695,678100,1695
2010/06/30,1660,1666,1638,1664,824300,1664
2010/07/01,1635,1650,1616,1629,496000,1629
2010/07/02,1625,1644,1620,1644,570000,1644
2010/07/05,1684,1685,1648,1653,624800,1653
2010/07/06,1623,1674,1610,1674,450600,1674
2010/07/07,1665,1671,1655,1664,440100,1664
2010/07/08,1700,1710,1685,1699,398300,1699
2010/07/09,1690,1712,1666,1698,764500,1698
2010/07/12,1701,1748,1694,1713,521200,1713
2010/07/13,1715,1731,1685,1693,386800,1693
2010/07/14,1726,1746,1713,1739,402200,1739
2010/07/15,1731,1733,1708,1715,270500,1715
2010/07/16,1712,1723,1667,1672,465500,1672
2010/07/20,1652,1675,1650,1659,408300,1659
2010/07/21,1678,1679,1636,1651,391900,1651
2010/07/22,1640,1644,1621,1627,238300,1627
2010/07/23,1658,1706,1652,1687,492000,1687
2010/07/26,1706,1718,1706,1709,315600,1709
2010/07/27,1705,1708,1684,1685,286900,1685
2010/07/28,1710,1720,1697,1707,665800,1707
2010/07/29,1708,1810,1704,1784,1321600,1784
2010/07/30,1784,1784,1720,1722,783400,1722
2010/08/02,1737,1755,1712,1713,318100,1713
2010/08/03,1751,1755,1700,1719,439100,1719
2010/08/04,1745,1745,1700,1717,713200,1717
2010/08/05,1738,1741,1706,1723,413600,1723
2010/08/06,1708,1722,1701,1720,367600,1720
2010/08/09,1696,1696,1670,1687,376400,1687
2010/08/10,1700,1703,1662,1672,339500,1672
2010/08/11,1641,1643,1612,1619,501800,1619
2010/08/12,1570,1570,1516,1545,1540500,1545
2010/08/13,1550,1559,1528,1555,668200,1555
2010/08/16,1547,1584,1536,1576,1136400,1576
2010/08/17,1544,1559,1544,1551,427500,1551
2010/08/18,1565,1571,1546,1561,413900,1561
2010/08/19,1564,1589,1561,1589,362600,1589
2010/08/20,1557,1558,1512,1515,1009500,1515
2010/08/23,1510,1510,1465,1478,762800,1478
2010/08/24,1457,1470,1447,1450,662000,1450
2010/08/25,1430,1456,1426,1438,463300,1438
2010/08/26,1438,1456,1423,1442,633800,1442
2010/08/27,1415,1488,1411,1485,732600,1485
2010/08/30,1515,1531,1497,1500,565800,1500
2010/08/31,1471,1474,1445,1457,666200,1457
2010/09/01,1442,1455,1413,1438,926900,1438
2010/09/02,1473,1481,1450,1474,640100,1474
2010/09/03,1495,1524,1490,1505,1067300,1505
2010/09/06,1528,1563,1519,1562,662000,1562
2010/09/07,1557,1578,1545,1566,708900,1566
2010/09/08,1535,1543,1514,1532,707000,1532
2010/09/09,1559,1560,1518,1534,421100,1534
2010/09/10,1561,1579,1556,1572,548800,1572
2010/09/13,1594,1594,1564,1579,454600,1579
2010/09/14,1581,1592,1568,1576,447400,1576
2010/09/15,1570,1616,1550,1603,489600,1603
2010/09/16,1617,1620,1580,1588,449300,1588
2010/09/17,1602,1636,1602,1627,505100,1627
2010/09/21,1650,1659,1607,1614,519500,1614
2010/09/22,1596,1616,1594,1603,220500,1603
2010/09/24,1577,1596,1565,1568,420100,1568
2010/09/27,1593,1594,1577,1594,364600,1594
2010/09/28,1578,1589,1563,1569,259500,1569
2010/09/29,1576,1606,1570,1592,382400,1592
2010/09/30,1585,1590,1558,1558,629400,1558
2010/10/01,1540,1540,1487,1511,952700,1511
2010/10/04,1498,1500,1473,1486,792500,1486
2010/10/05,1469,1508,1458,1501,882800,1501
2010/10/06,1504,1524,1500,1524,811500,1524
2010/10/07,1517,1530,1508,1518,556800,1518
2010/10/08,1499,1509,1470,1472,988000,1472
2010/10/12,1489,1495,1457,1462,685500,1462
2010/10/13,1470,1499,1469,1479,669300,1479
2010/10/14,1495,1509,1485,1504,537100,1504
2010/10/15,1505,1507,1476,1497,548800,1497
2010/10/18,1490,1519,1487,1508,722600,1508
2010/10/19,1502,1525,1502,1509,589000,1509
2010/10/20,1484,1497,1464,1493,563300,1493
2010/10/21,1495,1498,1468,1498,789500,1498
2010/10/22,1511,1538,1511,1532,1025100,1532
2010/10/25,1524,1565,1515,1561,1002400,1561
2010/10/26,1535,1551,1526,1538,918900,1538
2010/10/27,1545,1553,1517,1527,551000,1527
2010/10/28,1518,1523,1498,1499,685000,1499
2010/10/29,1487,1502,1474,1495,625900,1495
2010/11/01,1400,1403,1335,1368,2946400,1368
2010/11/02,1394,1416,1377,1397,1569400,1397
2010/11/04,1439,1474,1439,1474,2247100,1474
2010/11/05,1500,1559,1496,1546,1792800,1546
2010/11/08,1552,1558,1533,1544,611500,1544
2010/11/09,1547,1573,1547,1567,901700,1567
2010/11/10,1556,1556,1517,1526,1262000,1526
2010/11/11,1553,1566,1537,1553,662500,1553
2010/11/12,1538,1546,1520,1523,467800,1523
2010/11/15,1538,1543,1524,1536,462400,1536
2010/11/16,1553,1582,1535,1558,1060600,1558
2010/11/17,1538,1586,1531,1582,871000,1582
2010/11/18,1566,1605,1561,1593,1126000,1593
2010/11/19,1603,1605,1582,1593,670500,1593
2010/11/22,1596,1618,1595,1611,545300,1611
2010/11/24,1590,1609,1567,1599,952400,1599
2010/11/25,1611,1613,1590,1590,626300,1590
2010/11/26,1590,1595,1557,1565,1041300,1565
2010/11/29,1559,1593,1555,1591,628400,1591
2010/11/30,1594,1594,1551,1551,1027200,1551
2010/12/01,1552,1573,1543,1572,794700,1572
2010/12/02,1599,1603,1588,1592,872000,1592
2010/12/03,1618,1655,1616,1628,877300,1628
2010/12/06,1638,1664,1636,1648,836000,1648
2010/12/07,1640,1680,1633,1666,1146600,1666
2010/12/08,1666,1688,1656,1681,1120100,1681
2010/12/09,1681,1704,1681,1696,903000,1696
2010/12/10,1695,1699,1660,1686,806000,1686
2010/12/13,1692,1725,1690,1722,924300,1722
2010/12/14,1730,1744,1697,1706,1149000,1706
2010/12/15,1701,1706,1685,1692,1003100,1692
2010/12/16,1682,1728,1680,1722,868700,1722
2010/12/17,1715,1727,1703,1703,503100,1703
2010/12/20,1697,1706,1673,1684,660600,1684
2010/12/21,1685,1705,1681,1702,586500,1702
2010/12/22,1706,1720,1686,1690,536700,1690
2010/12/24,1685,1691,1669,1676,426700,1676
2010/12/27,1677,1691,1674,1686,365100,1686
2010/12/28,1694,1699,1687,1694,271300,1694
2010/12/29,1693,1698,1680,1698,278800,1698
2010/12/30,1698,1700,1674,1681,329700,1681
2011/01/04,1714,1718,1702,1718,488300,1718
2011/01/05,1730,1738,1726,1737,932500,1737
2011/01/06,1742,1779,1742,1774,787000,1774
2011/01/07,1776,1786,1763,1774,650400,1774
2011/01/11,1774,1774,1752,1764,618400,1764
2011/01/12,1764,1782,1706,1738,1271800,1738
2011/01/13,1745,1747,1721,1728,936500,1728
2011/01/14,1736,1737,1711,1711,565600,1711
2011/01/17,1746,1793,1735,1773,1173800,1773
2011/01/18,1762,1772,1751,1767,714900,1767
2011/01/19,1771,1790,1761,1770,858200,1770
2011/01/20,1751,1755,1719,1720,792700,1720
2011/01/21,1760,1772,1708,1716,1354100,1716
2011/01/24,1729,1747,1711,1740,837800,1740
2011/01/25,1740,1777,1722,1777,920200,1777
2011/01/26,1775,1775,1734,1736,1088400,1736
2011/01/27,1809,1868,1783,1864,3393400,1864
2011/01/28,1845,1871,1837,1862,1586900,1862
2011/01/31,1857,1884,1831,1862,1274500,1862
2011/02/01,1841,1865,1829,1859,673600,1859
2011/02/02,1849,1879,1846,1865,920400,1865
2011/02/03,1866,1867,1846,1861,493300,1861
2011/02/04,1868,1896,1867,1881,564000,1881
2011/02/07,1893,1914,1891,1902,586600,1902
2011/02/08,1930,1931,1901,1905,533600,1905
2011/02/09,1901,1917,1891,1898,410400,1898
2011/02/10,1902,1914,1884,1898,619600,1898
2011/02/14,1920,1921,1893,1916,676000,1916
2011/02/15,1920,1963,1919,1955,855200,1955
2011/02/16,1977,1990,1955,1959,1192200,1959
2011/02/17,1998,1998,1959,1976,753800,1976
2011/02/18,1998,1998,1974,1986,872600,1986
2011/02/21,1980,1998,1973,1993,1170600,1993
2011/02/22,1963,1985,1917,1927,1108100,1927
2011/02/23,1893,1927,1890,1892,758100,1892
2011/02/24,1867,1877,1840,1843,829800,1843
2011/02/25,1837,1863,1834,1849,761100,1849
2011/02/28,1870,1895,1855,1894,424300,1894
2011/03/01,1918,1930,1903,1924,581700,1924
2011/03/02,1908,1908,1867,1872,483900,1872
2011/03/03,1878,1887,1871,1885,258400,1885
2011/03/04,1920,1925,1874,1885,368300,1885
2011/03/07,1867,1868,1831,1837,404700,1837
2011/03/08,1838,1859,1814,1823,491800,1823
2011/03/09,1825,1839,1809,1816,448000,1816
2011/03/10,1810,1818,1769,1783,708900,1783
2011/03/11,1766,1774,1750,1750,619300,1750
2011/03/14,1470,1600,1460,1566,1058000,1566
2011/03/15,1493,1504,1340,1434,1475800,1434
2011/03/16,1503,1595,1502,1574,1124800,1574
2011/03/17,1479,1639,1465,1590,1416000,1590
2011/03/18,1600,1650,1598,1617,1094700,1617
2011/03/22,1657,1707,1655,1699,784700,1699
2011/03/23,1690,1690,1650,1659,840100,1659
2011/03/24,1642,1643,1556,1556,1962700,1556
2011/03/25,1565,1626,1563,1591,1898200,1591
2011/03/28,1563,1612,1558,1588,1289700,1588
2011/03/29,1528,1554,1512,1548,1195600,1548
2011/03/30,1588,1625,1586,1620,1364500,1620
2011/03/31,1660,1694,1644,1691,1946100,1691
2011/04/01,1690,1690,1626,1627,1250800,1627
2011/04/04,1621,1650,1605,1605,800300,1605
2011/04/05,1645,1658,1555,1576,1350500,1576
2011/04/06,1588,1596,1546,1556,930800,1556
2011/04/07,1578,1578,1540,1545,442500,1545
2011/04/08,1523,1576,1514,1564,693200,1564
2011/04/11,1550,1578,1550,1557,411600,1557
2011/04/12,1524,1526,1480,1497,1085200,1497
2011/04/13,1501,1538,1489,1532,654500,1532
2011/04/14,1532,1539,1508,1539,741300,1539
2011/04/15,1540,1548,1523,1529,378800,1529
2011/04/18,1530,1535,1511,1511,383700,1511
2011/04/19,1477,1489,1460,1476,628700,1476
2011/04/20,1477,1493,1474,1480,820500,1480
2011/04/21,1499,1508,1477,1505,627700,1505
2011/04/22,1505,1538,1492,1534,699600,1534
2011/04/25,1531,1547,1528,1540,598300,1540
2011/04/26,1545,1545,1517,1531,526600,1531
2011/04/27,1540,1568,1536,1565,748300,1565
2011/04/28,1601,1662,1590,1662,2342000,1662
2011/05/02,1668,1689,1653,1688,967300,1688
2011/05/06,1680,1687,1654,1672,1293400,1672
2011/05/09,1661,1670,1642,1649,401600,1649
2011/05/10,1657,1677,1648,1660,422700,1660
2011/05/11,1678,1697,1652,1661,851800,1661
2011/05/12,1647,1650,1627,1635,624500,1635
2011/05/13,1624,1626,1579,1601,781500,1601
2011/05/16,1580,1596,1575,1577,416000,1577
2011/05/17,1569,1575,1553,1572,673800,1572
2011/05/18,1564,1608,1557,1605,465200,1605
2011/05/19,1629,1650,1603,1608,873500,1608
2011/05/20,1595,1608,1590,1595,334000,1595
2011/05/23,1569,1569,1546,1552,536400,1552
2011/05/24,1524,1559,1519,1553,482000,1553
2011/05/25,1561,1561,1538,1543,397300,1543
2011/05/26,1555,1582,1552,1572,581100,1572
2011/05/27,1573,1603,1550,1585,697100,1585
2011/05/30,1594,1604,1568,1593,418900,1593
2011/05/31,1579,1646,1577,1645,1069200,1645
2011/06/01,1635,1662,1618,1654,813500,1654
2011/06/02,1627,1649,1624,1645,715500,1645
2011/06/03,1640,1649,1612,1619,526200,1619
2011/06/06,1609,1626,1602,1617,501800,1617
2011/06/07,1610,1620,1594,1616,654400,1616
2011/06/08,1614,1666,1603,1665,950600,1665
2011/06/09,1645,1659,1637,1658,1004500,1658
2011/06/10,1654,1665,1623,1634,854600,1634
2011/06/13,1607,1634,1597,1628,353300,1628
2011/06/14,1610,1633,1605,1628,614700,1628
2011/06/15,1630,1634,1608,1627,505100,1627
2011/06/16,1609,1630,1607,1608,253000,1608
2011/06/17,1611,1619,1574,1582,362800,1582
2011/06/20,1594,1604,1581,1581,607400,1581
2011/06/21,1598,1598,1572,1590,324400,1590
2011/06/22,1591,1616,1591,1599,726600,1599
2011/06/23,1595,1600,1578,1578,538100,1578
2011/06/24,1566,1566,1545,1560,1158600,1560
2011/06/27,1563,1580,1542,1549,801300,1549
2011/06/28,1554,1565,1546,1551,436600,1551
2011/06/29,1572,1578,1557,1565,756000,1565
2011/06/30,1572,1595,1568,1591,641000,1591
2011/07/01,1612,1620,1601,1610,583300,1610
2011/07/04,1644,1647,1632,1642,784200,1642
2011/07/05,1643,1650,1625,1638,1062500,1638
2011/07/06,1635,1673,1631,1673,630500,1673
2011/07/07,1661,1665,1644,1650,545700,1650
2011/07/08,1650,1669,1647,1654,399900,1654
2011/07/11,1630,1642,1627,1638,308300,1638
2011/07/12,1602,1621,1591,1610,656800,1610
2011/07/13,1585,1596,1580,1596,608500,1596
2011/07/14,1586,1604,1578,1592,693800,1592
2011/07/15,1583,1596,1576,1583,437000,1583
2011/07/19,1583,1595,1575,1588,331000,1588
2011/07/20,1592,1614,1591,1597,477700,1597
2011/07/21,1604,1605,1584,1588,353800,1588
2011/07/22,1590,1596,1585,1591,507400,1591
2011/07/25,1594,1601,1577,1591,680400,1591
2011/07/26,1600,1616,1590,1609,464200,1609
2011/07/27,1603,1603,1579,1598,395600,1598
2011/07/28,1589,1610,1582,1591,715200,1591
2011/07/29,1580,1586,1532,1534,1162400,1534
2011/08/01,1540,1563,1535,1554,610700,1554
2011/08/02,1535,1537,1519,1528,719300,1528
2011/08/03,1489,1504,1482,1498,484900,1498
2011/08/04,1528,1537,1495,1501,779500,1501
2011/08/05,1444,1445,1424,1442,745000,1442
2011/08/08,1419,1435,1404,1409,568300,1409
2011/08/09,1367,1388,1320,1388,887200,1388
2011/08/10,1420,1420,1385,1388,686800,1388
2011/08/11,1350,1356,1334,1352,688700,1352
2011/08/12,1380,1382,1347,1356,524800,1356
2011/08/15,1386,1389,1372,1388,683900,1388
2011/08/16,1390,1395,1384,1392,675000,1392
2011/08/17,1384,1388,1361,1368,436900,1368
2011/08/18,1360,1360,1292,1306,1159300,1306
2011/08/19,1276,1292,1269,1274,539500,1274
2011/08/22,1273,1289,1248,1252,597100,1252
2011/08/23,1253,1257,1212,1230,1266400,1230
2011/08/24,1250,1270,1229,1233,817900,1233
2011/08/25,1263,1309,1259,1287,880900,1287
2011/08/26,1274,1306,1273,1303,568100,1303
2011/08/29,1300,1325,1287,1308,493000,1308
2011/08/30,1335,1344,1324,1328,569100,1328
2011/08/31,1328,1332,1312,1321,602400,1321
2011/09/01,1337,1352,1326,1339,617300,1339
2011/09/02,1315,1322,1302,1309,587100,1309
2011/09/05,1286,1293,1268,1273,809100,1273
2011/09/06,1265,1268,1228,1233,746800,1233
2011/09/07,1282,1304,1274,1302,848900,1302
2011/09/08,1305,1318,1287,1292,509100,1292
2011/09/09,1276,1291,1274,1278,428700,1278
2011/09/12,1240,1281,1240,1279,677300,1279
2011/09/13,1309,1326,1290,1321,662300,1321
2011/09/14,1309,1327,1281,1296,703700,1296
2011/09/15,1324,1339,1309,1326,517200,1326
2011/09/16,1343,1393,1339,1389,666700,1389
2011/09/20,1372,1372,1341,1345,433500,1345
2011/09/21,1341,1357,1334,1350,383500,1350
2011/09/22,1340,1341,1303,1306,429200,1306
2011/09/26,1295,1295,1250,1263,417700,1263
2011/09/27,1286,1297,1272,1288,470900,1288
2011/09/28,1291,1318,1285,1295,466300,1295
2011/09/29,1278,1305,1275,1305,453900,1305
2011/09/30,1310,1326,1275,1287,734700,1287
2011/10/03,1248,1248,1205,1227,935900,1227
2011/10/04,1200,1219,1190,1216,663600,1216
2011/10/05,1223,1223,1174,1182,696800,1182
2011/10/06,1223,1245,1219,1239,719000,1239
2011/10/07,1250,1309,1248,1287,848300,1287
2011/10/11,1321,1368,1321,1352,914000,1352
2011/10/12,1341,1386,1327,1367,763800,1367
2011/10/13,1367,1377,1360,1365,449600,1365
2011/10/14,1359,1360,1328,1330,535000,1330
2011/10/17,1372,1394,1365,1391,462000,1391
2011/10/18,1365,1385,1358,1380,564900,1380
2011/10/19,1396,1398,1365,1372,390900,1372
2011/10/20,1370,1376,1342,1348,822900,1348
2011/10/21,1353,1391,1353,1391,582700,1391
2011/10/24,1391,1409,1374,1403,743200,1403
2011/10/25,1420,1425,1376,1386,1147900,1386
2011/10/26,1359,1404,1325,1392,1500100,1392
2011/10/27,1409,1457,1380,1440,1240200,1440
2011/10/28,1491,1493,1422,1439,983600,1439
2011/10/31,1428,1458,1419,1425,996100,1425
2011/11/01,1408,1408,1377,1385,699500,1385
2011/11/02,1365,1382,1352,1365,908800,1365
2011/11/04,1390,1418,1381,1414,950900,1414
2011/11/07,1437,1437,1400,1420,918000,1420
2011/11/08,1403,1418,1390,1403,607900,1403
2011/11/09,1410,1428,1403,1423,650700,1423
2011/11/10,1383,1383,1344,1361,535000,1361
2011/11/11,1361,1381,1350,1365,347000,1365
2011/11/14,1375,1391,1366,1376,323400,1376
2011/11/15,1375,1375,1350,1353,244300,1353
2011/11/16,1350,1350,1328,1329,518700,1329
2011/11/17,1320,1363,1313,1362,380300,1362
2011/11/18,1334,1345,1312,1340,736400,1340
2011/11/21,1340,1347,1322,1335,255000,1335
2011/11/22,1340,1371,1335,1363,618900,1363
2011/11/24,1361,1371,1338,1350,426300,1350
2011/11/25,1376,1403,1375,1392,850000,1392
2011/11/28,1422,1427,1404,1420,1038200,1420
2011/11/29,1431,1475,1414,1468,845600,1468
2011/11/30,1469,1469,1427,1457,1140900,1457
2011/12/01,1500,1515,1486,1507,622100,1507
2011/12/02,1510,1516,1486,1510,628000,1510
2011/12/05,1520,1520,1495,1496,527800,1496
2011/12/06,1470,1473,1447,1452,904800,1452
2011/12/07,1448,1459,1426,1454,1077300,1454
2011/12/08,1464,1466,1443,1451,567100,1451
2011/12/09,1422,1443,1420,1426,651500,1426
2011/12/12,1470,1472,1453,1457,474900,1457
2011/12/13,1424,1432,1415,1424,500600,1424
2011/12/14,1412,1426,1399,1400,489500,1400
2011/12/15,1377,1392,1367,1375,692700,1375
2011/12/16,1366,1388,1355,1371,776300,1371
2011/12/19,1358,1364,1332,1341,341300,1341
2011/12/20,1334,1350,1318,1342,638200,1342
2011/12/21,1364,1375,1347,1351,666000,1351
2011/12/22,1343,1343,1322,1334,562000,1334
2011/12/26,1363,1363,1342,1354,257200,1354
2011/12/27,1351,1352,1334,1340,209300,1340
2011/12/28,1340,1351,1334,1335,260900,1335
2011/12/29,1326,1326,1311,1322,411600,1322
2011/12/30,1331,1360,1330,1356,489700,1356
2012/01/04,1372,1405,1365,1402,611600,1402
2012/01/05,1403,1403,1362,1365,652800,1365
2012/01/06,1360,1362,1332,1343,720800,1343
2012/01/10,1340,1343,1313,1330,810500,1330
2012/01/11,1352,1363,1350,1360,559200,1360
2012/01/12,1359,1360,1335,1336,454700,1336
2012/01/13,1345,1353,1328,1332,442600,1332
2012/01/16,1329,1343,1316,1329,533200,1329
2012/01/17,1328,1328,1303,1314,1302200,1314
2012/01/18,1313,1348,1294,1326,1056400,1326
2012/01/19,1400,1401,1356,1383,1269800,1383
2012/01/20,1400,1428,1396,1420,1012700,1420
2012/01/23,1425,1440,1406,1411,1270900,1411
2012/01/24,1410,1410,1370,1378,1256100,1378
2012/01/25,1370,1426,1338,1419,2334000,1419
2012/01/26,1408,1436,1383,1401,2027500,1401
2012/01/27,1364,1374,1354,1364,1282000,1364
2012/01/30,1365,1386,1348,1361,1154100,1361
2012/01/31,1352,1353,1334,1342,1095900,1342
2012/02/01,1342,1363,1339,1358,812200,1358
2012/02/02,1378,1410,1363,1370,1071600,1370
2012/02/03,1371,1377,1349,1372,770100,1372
2012/02/06,1379,1390,1363,1374,868700,1374
2012/02/07,1365,1396,1365,1396,532800,1396
2012/02/08,1404,1427,1397,1423,692200,1423
2012/02/09,1435,1461,1422,1452,1239900,1452
2012/02/10,1470,1476,1430,1435,826400,1435
2012/02/13,1426,1454,1422,1442,657700,1442
2012/02/14,1454,1463,1443,1461,819600,1461
2012/02/15,1478,1494,1461,1481,663200,1481
2012/02/16,1484,1496,1465,1486,768200,1486
2012/02/17,1523,1549,1510,1510,777100,1510
2012/02/20,1535,1554,1508,1512,617000,1512
2012/02/21,1510,1525,1499,1505,433000,1505
2012/02/22,1510,1530,1499,1526,395900,1526
2012/02/23,1504,1530,1497,1522,688800,1522
2012/02/24,1529,1535,1519,1529,470900,1529
2012/02/27,1551,1560,1528,1529,567300,1529
2012/02/28,1510,1528,1477,1524,844100,1524
2012/02/29,1527,1549,1496,1501,809700,1501
2012/03/01,1501,1528,1485,1496,629900,1496
2012/03/02,1520,1529,1498,1509,453800,1509
2012/03/05,1510,1510,1478,1483,661500,1483
2012/03/06,1477,1479,1437,1443,970600,1443
2012/03/07,1420,1448,1419,1445,971800,1445
2012/03/08,1465,1465,1445,1456,801700,1456
2012/03/09,1486,1522,1477,1512,1699500,1512
2012/03/12,1520,1539,1518,1528,1119800,1528
2012/03/13,1529,1540,1513,1526,927200,1526
2012/03/14,1550,1563,1544,1547,816200,1547
2012/03/15,1548,1552,1530,1541,513800,1541
2012/03/16,1555,1584,1550,1583,879900,1583
2012/03/19,1590,1610,1577,1582,686200,1582
2012/03/21,1561,1573,1552,1555,850400,1555
2012/03/22,1534,1566,1529,1539,837500,1539
2012/03/23,1524,1533,1516,1524,596000,1524
2012/03/26,1542,1564,1533,1535,502200,1535
2012/03/27,1570,1585,1551,1565,549100,1565
2012/03/28,1516,1545,1514,1542,687400,1542
2012/03/29,1543,1552,1524,1534,740100,1534
2012/03/30,1532,1532,1484,1490,1388000,1490
2012/04/02,1510,1512,1464,1471,1453600,1471
2012/04/03,1475,1481,1464,1477,813600,1477
2012/04/04,1471,1482,1442,1452,755900,1452
2012/04/05,1443,1464,1430,1458,865500,1458
2012/04/06,1438,1455,1431,1447,742400,1447
2012/04/09,1422,1450,1422,1440,721200,1440
2012/04/10,1450,1460,1421,1430,990900,1430
2012/04/11,1401,1420,1396,1414,604000,1414
2012/04/12,1419,1437,1407,1429,574700,1429
2012/04/13,1441,1456,1433,1437,757400,1437
2012/04/16,1423,1453,1418,1433,802100,1433
2012/04/17,1430,1448,1422,1427,610200,1427
2012/04/18,1454,1497,1446,1493,999600,1493
2012/04/19,1470,1479,1453,1470,1241300,1470
2012/04/20,1473,1473,1447,1464,518000,1464
2012/04/23,1465,1485,1460,1476,492400,1476
2012/04/24,1461,1469,1441,1449,739700,1449
2012/04/25,1462,1465,1385,1419,1337400,1419
2012/04/26,1509,1528,1470,1514,2330900,1514
2012/04/27,1480,1528,1470,1491,1490800,1491
2012/05/01,1492,1511,1471,1474,927700,1474
2012/05/02,1470,1483,1448,1473,1058600,1473
2012/05/07,1441,1449,1407,1411,837800,1411
2012/05/08,1422,1426,1403,1416,816600,1416
2012/05/09,1405,1408,1374,1382,823900,1382
2012/05/10,1392,1415,1392,1407,743600,1407
2012/05/11,1411,1414,1385,1391,841900,1391
2012/05/14,1382,1386,1354,1361,688400,1361
2012/05/15,1336,1345,1313,1336,643200,1336
2012/05/16,1334,1355,1307,1314,462200,1314
2012/05/17,1305,1337,1302,1333,405000,1333
2012/05/18,1303,1311,1282,1289,453500,1289
2012/05/21,1288,1294,1276,1284,362400,1284
2012/05/22,1303,1314,1299,1308,466500,1308
2012/05/23,1311,1313,1271,1278,504100,1278
2012/05/24,1278,1285,1254,1273,364400,1273
2012/05/25,1264,1269,1231,1237,472000,1237
2012/05/28,1230,1238,1214,1229,456800,1229
2012/05/29,1214,1240,1204,1237,636000,1237
2012/05/30,1241,1245,1207,1227,547900,1227
2012/05/31,1205,1255,1202,1241,952600,1241
2012/06/01,1211,1218,1191,1195,427000,1195
2012/06/04,1170,1189,1155,1173,562900,1173
2012/06/05,1187,1211,1167,1210,540400,1210
2012/06/06,1210,1244,1198,1240,644300,1240
2012/06/07,1254,1260,1240,1253,406500,1253
2012/06/08,1254,1256,1209,1216,614000,1216
2012/06/11,1246,1261,1241,1248,313400,1248
2012/06/12,1227,1239,1214,1231,226700,1231
2012/06/13,1235,1247,1225,1229,309600,1229
2012/06/14,1210,1226,1210,1224,217700,1224
2012/06/15,1229,1236,1216,1226,270600,1226
2012/06/18,1259,1269,1254,1265,410100,1265
2012/06/19,1256,1269,1238,1241,258600,1241
2012/06/20,1256,1266,1246,1262,199600,1262
2012/06/21,1266,1283,1256,1269,533300,1269
2012/06/22,1250,1269,1247,1265,298100,1265
2012/06/25,1270,1276,1248,1251,385500,1251
2012/06/26,1239,1260,1229,1244,584900,1244
2012/06/27,1250,1250,1211,1224,484700,1224
2012/06/28,1233,1245,1223,1233,590800,1233
2012/06/29,1222,1252,1212,1244,721000,1244
2012/07/02,1262,1270,1247,1247,534400,1247
2012/07/03,1248,1263,1248,1260,423000,1260
2012/07/04,1272,1278,1244,1255,793600,1255
2012/07/05,1245,1262,1235,1256,1024300,1256
2012/07/06,1274,1275,1258,1262,384400,1262
2012/07/09,1251,1254,1234,1236,332500,1236
2012/07/10,1237,1255,1231,1232,406400,1232
2012/07/11,1231,1232,1201,1210,497500,1210
2012/07/12,1200,1200,1156,1163,1203300,1163
2012/07/13,1153,1177,1152,1165,687200,1165
2012/07/17,1165,1166,1138,1143,730600,1143
2012/07/18,1153,1159,1135,1140,454500,1140
2012/07/19,1147,1167,1138,1162,709300,1162
2012/07/20,1169,1180,1158,1170,864900,1170
2012/07/23,1151,1151,1128,1129,562500,1129
2012/07/24,1130,1143,1120,1140,583400,1140
2012/07/25,1133,1134,1106,1117,655700,1117
2012/07/26,1117,1118,1083,1097,968600,1097
2012/07/27,1157,1196,1146,1195,1863000,1195
2012/07/30,1204,1207,1158,1195,1315000,1195
2012/07/31,1184,1215,1174,1199,699600,1199
2012/08/01,1200,1211,1178,1189,706700,1189
2012/08/02,1206,1223,1202,1209,599800,1209
2012/08/03,1206,1206,1183,1193,488800,1193
2012/08/06,1221,1227,1213,1222,371300,1222
2012/08/07,1225,1241,1211,1239,352700,1239
2012/08/08,1249,1262,1225,1237,848800,1237
2012/08/09,1227,1246,1224,1240,511700,1240
2012/08/10,1233,1247,1212,1224,391200,1224
2012/08/13,1224,1228,1217,1221,123100,1221
2012/08/14,1223,1229,1214,1224,495700,1224
2012/08/15,1224,1236,1201,1218,409400,1218
2012/08/16,1217,1233,1215,1230,481700,1230
2012/08/17,1217,1246,1217,1239,514000,1239
2012/08/20,1248,1253,1221,1228,322600,1228
2012/08/21,1228,1229,1213,1220,225400,1220
2012/08/22,1215,1218,1195,1211,380300,1211
2012/08/23,1200,1208,1186,1205,550600,1205
2012/08/24,1196,1196,1176,1183,292200,1183
2012/08/27,1199,1200,1167,1170,438700,1170
2012/08/28,1176,1184,1143,1151,554200,1151
2012/08/29,1145,1171,1145,1157,538400,1157
2012/08/30,1153,1162,1146,1151,364000,1151
2012/08/31,1134,1141,1117,1120,450000,1120
2012/09/03,1120,1122,1106,1109,353000,1109
2012/09/04,1102,1125,1095,1120,457700,1120
2012/09/05,1119,1119,1095,1098,406300,1098
2012/09/06,1099,1102,1088,1093,469900,1093
2012/09/07,1122,1138,1113,1138,417100,1138
2012/09/10,1134,1136,1119,1126,305700,1126
2012/09/11,1120,1126,1106,1113,355400,1113
2012/09/12,1113,1136,1113,1133,294300,1133
2012/09/13,1132,1143,1125,1134,289000,1134
2012/09/14,1150,1158,1143,1152,346500,1152
2012/09/18,1154,1179,1146,1162,642400,1162
2012/09/19,1162,1175,1148,1166,351000,1166
2012/09/20,1154,1157,1116,1121,729300,1121
2012/09/21,1122,1131,1116,1122,657700,1122
2012/09/24,1123,1123,1099,1100,871500,1100
2012/09/25,1095,1109,1087,1108,983700,1108
2012/09/26,1089,1101,1055,1060,1156700,1060
2012/09/27,1048,1077,1035,1075,1136800,1075
2012/09/28,1080,1086,1047,1055,887100,1055
2012/10/01,1043,1044,1019,1028,992900,1028
2012/10/02,1020,1032,1000,1004,1103200,1004
2012/10/03,999,1012,992,1000,815400,1000
2012/10/04,1006,1044,997,1030,1288800,1030
2012/10/05,1042,1055,1034,1044,1327100,1044
2012/10/09,1061,1061,1020,1024,1247700,1024
2012/10/10,1007,1032,1007,1028,1204900,1028
2012/10/11,1004,1031,1002,1006,1168400,1006
2012/10/12,1011,1026,999,1009,1030600,1009
2012/10/15,998,1036,996,1024,615900,1024
2012/10/16,1040,1054,1029,1052,782600,1052
2012/10/17,1057,1067,1037,1053,1390100,1053
2012/10/18,1053,1070,1047,1067,589200,1067
2012/10/19,1070,1082,1062,1082,547200,1082
2012/10/22,1052,1080,1048,1074,716700,1074
2012/10/23,1083,1089,1067,1076,568700,1076
2012/10/24,1061,1085,1060,1069,908700,1069
2012/10/25,1070,1113,1070,1098,1264500,1098
2012/10/26,1105,1110,1077,1091,1169200,1091
2012/10/29,1097,1103,1084,1087,713500,1087
2012/10/30,1057,1147,1057,1116,1720200,1116
2012/10/31,1130,1130,1118,1125,2029500,1125
2012/11/01,1130,1136,1121,1136,1011200,1136
2012/11/02,1143,1145,1117,1145,1304600,1145
2012/11/05,1147,1155,1128,1133,632500,1133
2012/11/06,1120,1134,1107,1126,928000,1126
2012/11/07,1115,1124,1096,1105,1135400,1105
2012/11/08,1087,1098,1077,1082,761300,1082
2012/11/09,1049,1064,1047,1057,972000,1057
2012/11/12,1057,1057,1038,1043,624400,1043
2012/11/13,1042,1048,1032,1048,578200,1048
2012/11/14,1049,1049,1037,1044,411400,1044
2012/11/15,1054,1085,1041,1080,691100,1080
2012/11/16,1095,1128,1085,1121,969500,1121
2012/11/19,1143,1154,1131,1136,766600,1136
2012/11/20,1151,1151,1129,1132,434000,1132
2012/11/21,1146,1151,1130,1144,578400,1144
2012/11/22,1164,1180,1160,1172,746600,1172
2012/11/26,1195,1212,1192,1192,586100,1192
2012/11/27,1190,1198,1169,1191,643900,1191
2012/11/28,1191,1191,1156,1157,512700,1157
2012/11/29,1159,1176,1159,1171,415600,1171
2012/11/30,1181,1191,1166,1178,522700,1178
2012/12/03,1181,1192,1171,1175,399500,1175
2012/12/04,1175,1182,1171,1178,329900,1178
2012/12/05,1171,1185,1166,1167,450700,1167
2012/12/06,1185,1190,1180,1185,377000,1185
2012/12/07,1190,1199,1179,1179,336000,1179
2012/12/10,1188,1192,1163,1172,427600,1172
2012/12/11,1169,1170,1157,1162,487900,1162
2012/12/12,1171,1179,1170,1170,387800,1170
2012/12/13,1190,1221,1189,1207,782600,1207
2012/12/14,1177,1210,1177,1206,854900,1206
2012/12/17,1216,1218,1176,1179,608600,1179
2012/12/18,1179,1188,1170,1170,588200,1170
2012/12/19,1180,1193,1173,1190,762600,1190
2012/12/20,1199,1230,1197,1220,1228200,1220
2012/12/21,1235,1243,1202,1204,975900,1204
2012/12/25,1213,1229,1189,1190,454100,1190
2012/12/26,1194,1236,1194,1233,508500,1233
2012/12/27,1256,1271,1239,1263,1045500,1263
2012/12/28,1275,1296,1274,1292,759800,1292
2013/01/04,1376,1377,1321,1327,1023600,1327
2013/01/07,1341,1346,1307,1312,353200,1312
2013/01/08,1301,1307,1278,1291,592000,1291
2013/01/09,1291,1322,1289,1306,654400,1306
2013/01/10,1313,1335,1309,1332,759800,1332
2013/01/11,1346,1353,1333,1343,599100,1343
2013/01/15,1355,1355,1318,1331,1013100,1331
2013/01/16,1331,1331,1292,1300,967100,1300
2013/01/17,1308,1325,1268,1296,1270600,1296
2013/01/18,1332,1363,1330,1346,1337400,1346
2013/01/21,1354,1365,1343,1359,611400,1359
2013/01/22,1349,1353,1300,1327,1147300,1327
2013/01/23,1303,1317,1288,1295,801900,1295
2013/01/24,1296,1304,1277,1296,638100,1296
2013/01/25,1308,1319,1303,1315,938300,1315
2013/01/28,1314,1324,1255,1266,1443600,1266
2013/01/29,1215,1266,1212,1259,2094500,1259
2013/01/30,1250,1265,1238,1264,1539100,1264
2013/01/31,1265,1287,1258,1287,1191200,1287
2013/02/01,1290,1293,1262,1264,993300,1264
2013/02/04,1268,1273,1252,1264,921800,1264
2013/02/05,1265,1297,1260,1284,1320800,1284
2013/02/06,1329,1349,1313,1343,1927200,1343
2013/02/07,1345,1352,1339,1347,1199600,1347
2013/02/08,1326,1331,1309,1328,995200,1328
2013/02/12,1341,1346,1312,1313,1207300,1313
2013/02/13,1299,1306,1274,1278,886300,1278
2013/02/14,1286,1330,1285,1322,1144700,1322
2013/02/15,1305,1308,1282,1298,904900,1298
2013/02/18,1294,1316,1284,1304,877100,1304
2013/02/19,1291,1319,1290,1311,716700,1311
2013/02/20,1329,1339,1322,1333,658400,1333
2013/02/21,1322,1322,1300,1301,652200,1301
2013/02/22,1286,1299,1279,1296,626800,1296
2013/02/25,1310,1321,1301,1303,537800,1303
2013/02/26,1293,1315,1283,1292,563000,1292
2013/02/27,1290,1294,1271,1271,753200,1271
2013/02/28,1280,1282,1264,1271,1029000,1271
2013/03/01,1264,1277,1257,1263,1062300,1263
2013/03/04,1271,1280,1254,1258,1078600,1258
2013/03/05,1266,1268,1247,1249,1023300,1249
2013/03/06,1257,1308,1252,1306,1252300,1306
2013/03/07,1315,1324,1300,1314,1202000,1314
2013/03/08,1332,1365,1326,1362,1653200,1362
2013/03/11,1375,1386,1369,1380,832300,1380
2013/03/12,1387,1394,1376,1388,750300,1388
2013/03/13,1389,1405,1382,1398,775500,1398
2013/03/14,1406,1441,1398,1439,1166800,1439
2013/03/15,1446,1469,1431,1466,1173000,1466
2013/03/18,1460,1468,1442,1453,1025300,1453
2013/03/19,1466,1501,1459,1492,1058400,1492
2013/03/21,1491,1496,1472,1478,953700,1478
2013/03/22,1465,1477,1454,1456,500700,1456
2013/03/25,1475,1490,1459,1461,553200,1461
2013/03/26,1456,1469,1450,1459,284100,1459
2013/03/27,1457,1474,1456,1467,357200,1467
2013/03/28,1467,1467,1429,1434,618200,1434
2013/03/29,1438,1440,1416,1426,818700,1426
2013/04/01,1428,1428,1384,1385,689200,1385
2013/04/02,1366,1367,1337,1339,830800,1339
2013/04/03,1351,1359,1336,1344,838700,1344
2013/04/04,1324,1368,1313,1368,651700,1368
2013/04/05,1427,1427,1393,1394,1144800,1394
2013/04/08,1443,1472,1420,1429,926000,1429
2013/04/09,1432,1468,1432,1447,973000,1447
2013/04/10,1445,1474,1438,1459,1177900,1459
2013/04/11,1475,1487,1460,1483,647400,1483
2013/04/12,1471,1481,1445,1453,645600,1453
2013/04/15,1445,1455,1439,1447,447700,1447
2013/04/16,1436,1437,1408,1421,603300,1421
2013/04/17,1423,1470,1422,1467,572400,1467
2013/04/18,1465,1465,1435,1435,512000,1435
2013/04/19,1441,1460,1425,1458,533500,1458
2013/04/22,1500,1554,1495,1533,1431800,1533
2013/04/23,1536,1554,1533,1543,716300,1543
2013/04/24,1554,1592,1548,1589,669400,1589
2013/04/25,1596,1643,1587,1641,884300,1641
2013/04/26,1601,1609,1523,1565,1810000,1565
2013/04/30,1563,1570,1524,1525,1206000,1525
2013/05/01,1538,1555,1523,1526,1057300,1526
2013/05/02,1526,1544,1513,1527,491700,1527
2013/05/07,1567,1609,1559,1603,743000,1603
2013/05/08,1604,1605,1573,1577,624500,1577
2013/05/09,1598,1607,1572,1575,741900,1575
2013/05/10,1612,1628,1603,1626,896900,1626
2013/05/13,1626,1647,1621,1628,586200,1628
2013/05/14,1649,1707,1644,1673,1093500,1673
2013/05/15,1707,1739,1671,1674,928600,1674
2013/05/16,1714,1729,1680,1700,765600,1700
2013/05/17,1720,1745,1691,1741,665100,1741
2013/05/20,1757,1760,1729,1752,416700,1752
2013/05/21,1760,1799,1750,1778,650000,1778
2013/05/22,1797,1809,1741,1798,1181700,1798
2013/05/23,1781,1801,1679,1680,802100,1680
2013/05/24,1680,1733,1632,1705,974000,1705
2013/05/27,1650,1656,1623,1629,466400,1629
2013/05/28,1589,1650,1583,1644,493600,1644
2013/05/29,1680,1693,1640,1670,680500,1670
2013/05/30,1640,1657,1600,1612,708000,1612
2013/05/31,1615,1633,1584,1610,740500,1610
2013/06/03,1611,1644,1573,1601,775600,1601
2013/06/04,1568,1592,1523,1586,1105400,1586
2013/06/05,1564,1642,1564,1582,784000,1582
2013/06/06,1547,1599,1541,1575,711700,1575
2013/06/07,1535,1539,1477,1500,859400,1500
2013/06/10,1544,1591,1542,1591,338100,1591
2013/06/11,1586,1618,1550,1550,609200,1550
2013/06/12,1504,1512,1481,1503,774000,1503
2013/06/13,1470,1486,1441,1443,563800,1443
2013/06/14,1471,1497,1434,1434,884000,1434
2013/06/17,1413,1479,1412,1477,597600,1477
2013/06/18,1471,1475,1446,1457,759800,1457
2013/06/19,1487,1503,1461,1484,542800,1484
2013/06/20,1477,1500,1457,1464,375800,1464
2013/06/21,1444,1487,1428,1478,793800,1478
2013/06/24,1492,1512,1480,1486,293000,1486
2013/06/25,1486,1495,1443,1462,419500,1462
2013/06/26,1492,1527,1485,1491,770500,1491
2013/06/27,1504,1527,1486,1526,499500,1526
2013/06/28,1536,1577,1530,1553,761400,1553
2013/07/01,1582,1582,1543,1571,603800,1571
2013/07/02,1600,1600,1564,1584,449700,1584
2013/07/03,1588,1600,1572,1592,660400,1592
2013/07/04,1578,1614,1575,1606,730200,1606
2013/07/05,1636,1655,1623,1636,543100,1636
2013/07/08,1647,1658,1615,1617,300300,1617
2013/07/09,1644,1655,1632,1642,460100,1642
2013/07/10,1648,1663,1634,1647,339600,1647
2013/07/11,1629,1654,1624,1647,468700,1647
2013/07/12,1651,1672,1642,1656,291000,1656
2013/07/16,1658,1665,1629,1661,437100,1661
2013/07/17,1657,1683,1647,1682,436600,1682
2013/07/18,1685,1692,1671,1690,267400,1690
2013/07/19,1699,1700,1653,1659,497700,1659
2013/07/22,1678,1682,1642,1648,375100,1648
2013/07/23,1638,1681,1624,1675,439600,1675
2013/07/24,1673,1699,1618,1630,802400,1630
2013/07/25,1690,1730,1683,1713,1247400,1713
2013/07/26,1713,1713,1683,1688,593800,1688
2013/07/29,1677,1680,1625,1632,632500,1632
2013/07/30,1639,1681,1633,1673,355400,1673
2013/07/31,1679,1684,1641,1651,604200,1651
2013/08/01,1665,1698,1654,1698,412300,1698
2013/08/02,1715,1767,1710,1767,706000,1767
2013/08/05,1768,1768,1720,1742,442600,1742
2013/08/06,1742,1779,1730,1779,344100,1779
2013/08/07,1751,1770,1731,1736,432200,1736
2013/08/08,1736,1765,1723,1730,521200,1730
2013/08/09,1732,1743,1704,1719,340500,1719
2013/08/12,1713,1734,1700,1706,457100,1706
2013/08/13,1711,1745,1709,1742,367000,1742
2013/08/14,1743,1754,1734,1752,241600,1752
2013/08/15,1725,1730,1681,1695,459400,1695
2013/08/16,1671,1717,1669,1701,462600,1701
2013/08/19,1689,1705,1675,1705,217600,1705
2013/08/20,1698,1710,1681,1693,480200,1693
2013/08/21,1653,1675,1630,1661,620300,1661
2013/08/22,1647,1669,1641,1656,293800,1656
2013/08/23,1666,1682,1654,1661,551600,1661
2013/08/26,1660,1660,1622,1632,595700,1632
2013/08/27,1639,1687,1632,1667,604700,1667
2013/08/28,1628,1675,1618,1667,723700,1667
2013/08/29,1662,1662,1631,1653,550200,1653
2013/08/30,1669,1673,1621,1624,393800,1624
2013/09/02,1626,1634,1611,1620,243900,1620
2013/09/03,1639,1665,1638,1665,299800,1665
2013/09/04,1672,1710,1668,1710,620500,1710
2013/09/05,1718,1718,1682,1698,433700,1698
2013/09/06,1700,1712,1670,1674,245700,1674
2013/09/09,1710,1720,1662,1674,521200,1674
2013/09/10,1679,1685,1662,1669,324800,1669
2013/09/11,1685,1685,1667,1671,250700,1671
2013/09/12,1676,1683,1667,1681,257100,1681
2013/09/13,1672,1697,1666,1687,502800,1687
2013/09/17,1704,1706,1671,1679,232900,1679
2013/09/18,1673,1685,1646,1658,900900,1658
2013/09/19,1666,1680,1656,1680,608500,1680
2013/09/20,1680,1685,1663,1678,478300,1678
2013/09/24,1667,1679,1640,1648,781100,1648
2013/09/25,1645,1661,1643,1657,497300,1657
2013/09/26,1640,1655,1617,1647,690000,1647
2013/09/27,1659,1687,1655,1679,567200,1679
2013/09/30,1640,1640,1550,1579,2081900,1579
2013/10/01,1578,1580,1557,1558,1205800,1558
2013/10/02,1558,1566,1498,1508,1299500,1508
2013/10/03,1510,1526,1505,1514,614000,1514
2013/10/04,1513,1525,1494,1509,541200,1509
2013/10/07,1499,1500,1449,1453,687400,1453
2013/10/08,1450,1457,1432,1455,654100,1455
2013/10/09,1456,1491,1450,1482,855700,1482
2013/10/10,1477,1508,1468,1508,692200,1508
2013/10/11,1528,1529,1506,1517,539400,1517
2013/10/15,1526,1527,1489,1489,647500,1489
2013/10/16,1487,1501,1482,1490,395600,1490
2013/10/17,1503,1505,1480,1497,664900,1497
2013/10/18,1497,1507,1475,1481,577200,1481
2013/10/21,1482,1498,1465,1475,710000,1475
2013/10/22,1479,1482,1472,1476,567600,1476
2013/10/23,1480,1500,1471,1473,967400,1473
2013/10/24,1479,1529,1476,1525,975700,1525
2013/10/25,1529,1529,1493,1503,616200,1503
2013/10/28,1505,1506,1465,1504,1097800,1504
2013/10/29,1480,1490,1466,1467,1085300,1467
2013/10/30,1471,1491,1471,1477,985900,1477
2013/10/31,1478,1518,1478,1503,1171800,1503
2013/11/01,1485,1493,1474,1491,1125500,1491
2013/11/05,1512,1516,1465,1470,1005000,1470
2013/11/06,1465,1500,1459,1493,848400,1493
2013/11/07,1487,1498,1478,1488,448400,1488
2013/11/08,1467,1488,1462,1486,501100,1486
2013/11/11,1502,1507,1488,1505,679500,1505
2013/11/12,1505,1518,1499,1514,434500,1514
2013/11/13,1503,1515,1497,1507,662100,1507
2013/11/14,1530,1557,1519,1544,1299800,1544
2013/11/15,1559,1566,1542,1554,1152800,1554
2013/11/18,1562,1563,1549,1555,417500,1555
2013/11/19,1560,1560,1540,1542,508500,1542
2013/11/20,1548,1563,1542,1547,306800,1547
2013/11/21,1555,1561,1542,1554,410700,1554
2013/11/22,1566,1578,1561,1567,663900,1567
2013/11/25,1580,1584,1563,1574,422000,1574
2013/11/26,1571,1579,1559,1563,498000,1563
2013/11/27,1554,1568,1551,1557,372300,1557
2013/11/28,1570,1573,1555,1566,309800,1566
2013/11/29,1557,1569,1542,1560,515000,1560
2013/12/02,1571,1575,1558,1564,365500,1564
2013/12/03,1573,1587,1564,1581,581100,1581
2013/12/04,1563,1572,1548,1556,540700,1556
2013/12/05,1571,1597,1560,1582,1503900,1582
2013/12/06,1580,1595,1568,1591,654400,1591
2013/12/09,1612,1614,1599,1611,583400,1611
2013/12/10,1614,1643,1608,1630,878300,1630
2013/12/11,1620,1638,1608,1635,575800,1635
2013/12/12,1630,1630,1610,1623,582600,1623
2013/12/13,1617,1620,1595,1602,731100,1602
2013/12/16,1610,1623,1588,1606,598700,1606
2013/12/17,1624,1627,1604,1624,680800,1624
2013/12/18,1628,1660,1625,1650,932600,1650
2013/12/19,1660,1679,1660,1671,857300,1671
2013/12/20,1655,1669,1652,1667,435300,1667
2013/12/24,1671,1686,1666,1673,545400,1673
2013/12/25,1666,1673,1644,1661,556900,1661
2013/12/26,1655,1670,1636,1656,1781000,1656
2013/12/27,1665,1665,1631,1646,1278100,1646
2013/12/30,1709,1712,1657,1677,1253200,1677
2014/01/06,1670,1684,1639,1647,985800,1647
2014/01/07,1635,1635,1614,1620,932800,1620
2014/01/08,1647,1647,1618,1622,789900,1622
2014/01/09,1623,1630,1612,1622,689700,1622
2014/01/10,1610,1619,1592,1612,792700,1612
2014/01/14,1585,1595,1566,1584,605700,1584
2014/01/15,1589,1600,1583,1598,678400,1598
2014/01/16,1615,1641,1613,1625,624700,1625
2014/01/17,1631,1645,1618,1624,611000,1624
2014/01/20,1633,1655,1620,1644,941100,1644
2014/01/21,1655,1665,1641,1644,790600,1644
2014/01/22,1653,1663,1647,1661,673500,1661
2014/01/23,1670,1670,1612,1614,1296600,1614
2014/01/24,1596,1608,1573,1578,979200,1578
2014/01/27,1550,1562,1536,1538,910900,1538
2014/01/28,1460,1497,1456,1490,1832000,1490
2014/01/29,1477,1521,1477,1520,925700,1520
2014/01/30,1495,1507,1476,1493,1107200,1493
2014/01/31,1505,1516,1474,1484,733100,1484
2014/02/03,1473,1484,1459,1476,728900,1476
2014/02/04,1446,1455,1403,1403,900800,1403
2014/02/05,1426,1426,1385,1397,1052700,1397
2014/02/06,1357,1370,1348,1360,1886400,1360
2014/02/07,1367,1405,1367,1390,1396900,1390
2014/02/10,1420,1426,1401,1403,683400,1403
2014/02/12,1425,1437,1418,1428,812800,1428
2014/02/13,1433,1442,1411,1415,601200,1415
2014/02/14,1400,1414,1374,1389,804000,1389
2014/02/17,1389,1404,1375,1400,386700,1400
2014/02/18,1400,1421,1394,1420,413600,1420
2014/02/19,1421,1439,1412,1434,803700,1434
2014/02/20,1430,1434,1407,1412,859000,1412
2014/02/21,1432,1459,1426,1456,839800,1456
2014/02/24,1456,1478,1437,1453,620400,1453
2014/02/25,1474,1479,1456,1462,603300,1462
2014/02/26,1456,1469,1438,1443,948100,1443
2014/02/27,1439,1443,1421,1430,649300,1430
2014/02/28,1430,1437,1412,1420,520900,1420
2014/03/03,1408,1415,1390,1410,644500,1410
2014/03/04,1402,1444,1399,1435,617200,1435
2014/03/05,1462,1466,1445,1449,503800,1449
2014/03/06,1440,1459,1432,1454,423500,1454
2014/03/07,1463,1466,1439,1451,393100,1451
2014/03/10,1457,1463,1444,1453,437600,1453
2014/03/11,1452,1470,1450,1460,338600,1460
2014/03/12,1435,1441,1423,1428,668800,1428
2014/03/13,1426,1447,1425,1433,303600,1433
2014/03/14,1404,1408,1386,1386,800000,1386
2014/03/17,1385,1392,1370,1377,324000,1377
2014/03/18,1392,1400,1385,1388,278300,1388
2014/03/19,1399,1407,1380,1388,316700,1388
2014/03/20,1388,1399,1360,1360,486300,1360
2014/03/24,1363,1401,1359,1364,815600,1364
2014/03/25,1360,1369,1340,1360,835100,1360
2014/03/26,1362,1374,1354,1373,654300,1373
2014/03/27,1352,1384,1352,1383,817200,1383
2014/03/28,1375,1385,1355,1378,442500,1378
2014/03/31,1381,1408,1370,1405,620300,1405
2014/04/01,1432,1473,1430,1451,1669000,1451
2014/04/02,1451,1467,1439,1449,772700,1449
2014/04/03,1458,1469,1449,1458,663100,1458
2014/04/04,1468,1507,1459,1482,979800,1482
2014/04/07,1465,1470,1446,1452,376100,1452
2014/04/08,1449,1458,1440,1447,484800,1447
2014/04/09,1424,1439,1414,1433,622400,1433
2014/04/10,1451,1455,1414,1423,534000,1423
2014/04/11,1387,1409,1374,1400,579700,1400
2014/04/14,1382,1408,1380,1390,510700,1390
2014/04/15,1400,1413,1394,1405,432800,1405
2014/04/16,1418,1427,1405,1424,559700,1424
2014/04/17,1424,1434,1417,1428,295000,1428
2014/04/18,1434,1440,1423,1438,263600,1438
2014/04/21,1448,1468,1447,1455,425900,1455
2014/04/22,1456,1464,1449,1452,404100,1452
2014/04/23,1445,1452,1429,1438,638700,1438
2014/04/24,1434,1439,1408,1411,942000,1411
2014/04/25,1471,1524,1466,1524,2854800,1524
2014/04/28,1501,1528,1498,1505,1240000,1505
2014/04/30,1526,1526,1488,1503,1204800,1503
2014/05/01,1515,1519,1492,1513,786900,1513
2014/05/02,1515,1515,1494,1509,850300,1509
2014/05/07,1549,1563,1521,1525,1969100,1525
2014/05/08,1533,1547,1531,1535,748900,1535
2014/05/09,1539,1580,1537,1570,1298100,1570
2014/05/12,1565,1565,1540,1551,1004500,1551
2014/05/13,1582,1590,1553,1566,1325300,1566
2014/05/14,1590,1590,1559,1587,995500,1587
2014/05/15,1579,1579,1552,1574,802100,1574
2014/05/16,1560,1560,1525,1548,849900,1548
2014/05/19,1555,1555,1538,1541,717500,1541
2014/05/20,1537,1547,1520,1532,907200,1532
2014/05/21,1509,1510,1488,1507,961700,1507
2014/05/22,1518,1557,1510,1551,1015400,1551
2014/05/23,1552,1556,1541,1548,488300,1548
2014/05/26,1566,1567,1542,1556,572800,1556
2014/05/27,1549,1569,1548,1562,428100,1562
2014/05/28,1572,1595,1568,1591,932600,1591
2014/05/29,1596,1596,1566,1569,426400,1569
2014/05/30,1566,1579,1547,1579,643900,1579
2014/06/02,1589,1598,1569,1574,628900,1574
2014/06/03,1599,1603,1576,1586,727000,1586
2014/06/04,1599,1615,1592,1615,1073700,1615
2014/06/05,1622,1632,1597,1605,1035900,1605
2014/06/06,1615,1623,1589,1596,598700,1596
2014/06/09,1611,1613,1549,1557,1043500,1557
2014/06/10,1570,1575,1558,1560,570100,1560
2014/06/11,1572,1575,1552,1562,400900,1562
2014/06/12,1558,1571,1554,1564,657800,1564
2014/06/13,1548,1569,1547,1566,694700,1566
2014/06/16,1557,1557,1528,1546,603500,1546
2014/06/17,1565,1582,1560,1575,668000,1575
2014/06/18,1595,1619,1593,1615,1037500,1615
2014/06/19,1629,1660,1628,1651,1272400,1651
2014/06/20,1652,1660,1636,1644,1005100,1644
2014/06/23,1656,1661,1641,1661,771600,1661
2014/06/24,1662,1684,1651,1669,1357400,1669
2014/06/25,1676,1692,1654,1660,888600,1660
2014/06/26,1664,1667,1647,1656,403400,1656
2014/06/27,1656,1658,1628,1641,421900,1641
2014/06/30,1653,1679,1649,1676,748100,1676
2014/07/01,1680,1700,1678,1693,565900,1693
2014/07/02,1697,1697,1681,1691,625700,1691
2014/07/03,1696,1698,1663,1691,889600,1691
2014/07/04,1700,1700,1662,1696,826700,1696
2014/07/07,1695,1695,1675,1682,593100,1682
2014/07/08,1656,1680,1642,1667,721300,1667
2014/07/09,1659,1670,1647,1655,534600,1655
2014/07/10,1668,1694,1656,1659,733800,1659
2014/07/11,1632,1642,1615,1626,1085100,1626
2014/07/14,1642,1671,1635,1667,581400,1667
2014/07/15,1700,1700,1687,1688,575100,1688
2014/07/16,1698,1700,1684,1686,316800,1686
2014/07/17,1698,1700,1674,1680,647300,1680
2014/07/18,1656,1661,1650,1655,561300,1655
2014/07/22,1660,1678,1658,1670,585200,1670
2014/07/23,1688,1708,1682,1700,814800,1700
2014/07/24,1700,1703,1687,1694,412200,1694
2014/07/25,1694,1702,1681,1699,706600,1699
2014/07/28,1901,1911,1856,1860,3916400,1860
2014/07/29,1832,1875,1819,1864,2628500,1864
2014/07/30,1849,1874,1803,1813,1890500,1813
2014/07/31,1813,1826,1803,1823,1114800,1823
2014/08/01,1786,1807,1771,1777,1482400,1777
2014/08/04,1745,1798,1744,1788,1115000,1788
2014/08/05,1818,1848,1796,1796,1557300,1796
2014/08/06,1827,1846,1795,1805,1463300,1805
2014/08/07,1803,1812,1793,1806,630900,1806
2014/08/08,1788,1807,1768,1774,951000,1774
2014/08/11,1806,1846,1799,1842,1294500,1842
2014/08/12,1831,1844,1820,1837,1019900,1837
2014/08/13,1877,1880,1842,1853,1510400,1853
2014/08/14,1848,1848,1817,1825,1146700,1825
2014/08/15,1829,1830,1807,1812,945600,1812
2014/08/18,1812,1816,1805,1812,375800,1812
2014/08/19,1826,1828,1815,1826,332800,1826
2014/08/20,1826,1840,1820,1830,434900,1830
2014/08/21,1841,1858,1831,1850,620900,1850
2014/08/22,1844,1844,1824,1834,656600,1834
2014/08/25,1854,1867,1833,1858,717000,1858
2014/08/26,1845,1866,1844,1860,575800,1860
2014/08/27,1860,1869,1850,1869,701500,1869
2014/08/28,1866,1922,1860,1907,1356100,1907
2014/08/29,1918,1947,1909,1936,1380900,1936
2014/09/01,1950,1954,1916,1943,785300,1943
2014/09/02,1953,1988,1953,1974,1303000,1974
2014/09/03,1998,2019,1983,1990,1300500,1990
2014/09/04,1986,1988,1956,1960,571200,1960
2014/09/05,1970,1970,1920,1931,1114500,1931
2014/09/08,1931,1939,1914,1926,597100,1926
2014/09/09,1944,1960,1929,1931,379500,1931
2014/09/10,1917,1942,1891,1942,545900,1942
2014/09/11,1958,1964,1938,1947,769500,1947
2014/09/12,1951,1967,1946,1957,518900,1957
2014/09/16,1967,1999,1956,1989,742000,1989
2014/09/17,1973,1984,1965,1968,708900,1968
2014/09/18,1995,2012,1983,2002,605500,2002
2014/09/19,2005,2045,2005,2036,738300,2036
2014/09/22,2037,2044,2016,2035,361600,2035
2014/09/24,1993,2003,1976,1993,1172400,1993
2014/09/25,1997,2000,1964,2000,1098400,2000
2014/09/26,1956,1988,1956,1985,719200,1985
2014/09/29,1996,1999,1964,1974,592200,1974
2014/09/30,1972,1974,1938,1950,612100,1950
2014/10/01,1944,1955,1926,1926,588500,1926
2014/10/02,1887,1895,1859,1867,1026400,1867
2014/10/03,1867,1903,1865,1901,804500,1901
2014/10/06,1921,1946,1911,1916,487600,1916
2014/10/07,1906,1920,1900,1903,437300,1903
2014/10/08,1865,1898,1865,1888,535800,1888
2014/10/09,1898,1907,1842,1843,656700,1843
2014/10/10,1815,1834,1765,1773,1362300,1773
2014/10/14,1742,1781,1730,1754,1248000,1754
2014/10/15,1767,1775,1756,1770,628800,1770
2014/10/16,1720,1738,1712,1726,648000,1726
2014/10/17,1733,1777,1726,1750,1567200,1750
2014/10/20,1792,1799,1775,1799,634400,1799
2014/10/21,1794,1800,1743,1746,496600,1746
2014/10/22,1780,1799,1775,1797,571500,1797
2014/10/23,1783,1796,1769,1783,626700,1783
2014/10/24,1823,1834,1799,1819,847100,1819
2014/10/27,1824,1855,1807,1849,837300,1849
2014/10/28,1760,1852,1758,1840,1561900,1840
2014/10/29,1848,1859,1826,1848,724000,1848
2014/10/30,1858,1877,1849,1876,1295800,1876
2014/10/31,1905,1948,1890,1938,924900,1938
2014/11/04,2016,2036,1988,2023,1548200,2023
2014/11/05,2027,2057,2018,2056,1092400,2056
2014/11/06,2064,2079,2046,2067,844800,2067
2014/11/07,2064,2094,2063,2074,722000,2074
2014/11/10,2073,2127,2071,2118,1170800,2118
2014/11/11,2114,2121,2087,2104,706200,2104
2014/11/12,2132,2148,2093,2098,788400,2098
2014/11/13,2104,2117,2084,2115,428800,2115
2014/11/14,2135,2135,2104,2124,872300,2124
2014/11/17,2115,2116,2067,2074,817500,2074
2014/11/18,2103,2122,2095,2120,734900,2120
2014/11/19,2138,2169,2132,2135,472200,2135
2014/11/20,2160,2168,2125,2134,584900,2134
2014/11/21,2135,2190,2119,2187,911900,2187
2014/11/25,2231,2244,2173,2185,847600,2185
2014/11/26,2172,2192,2160,2181,746600,2181
2014/11/27,2174,2180,2157,2168,426700,2168
2014/11/28,2179,2203,2170,2197,615600,2197
2014/12/01,2203,2224,2196,2220,471500,2220
2014/12/02,2200,2233,2200,2228,541300,2228
2014/12/03,2236,2250,2225,2227,606500,2227
2014/12/04,2250,2267,2250,2264,470200,2264
2014/12/05,2270,2275,2237,2275,461600,2275
2014/12/08,2296,2303,2286,2293,337800,2293
2014/12/09,2283,2300,2273,2279,513100,2279
2014/12/10,2244,2278,2185,2199,604700,2199
2014/12/11,2164,2205,2150,2196,717000,2196
2014/12/12,2199,2260,2196,2240,1014200,2240
2014/12/15,2190,2220,2138,2143,496000,2143
2014/12/16,2100,2158,2075,2129,1226400,2129
2014/12/17,2066,2115,2061,2087,892800,2087
2014/12/18,2139,2160,2121,2149,805000,2149
2014/12/19,2200,2201,2153,2191,706400,2191
2014/12/22,2190,2220,2142,2151,977300,2151
2014/12/24,2181,2203,2165,2181,496600,2181
2014/12/25,2182,2190,2162,2169,355500,2169
2014/12/26,2167,2187,2163,2182,189000,2182
2014/12/29,2179,2183,2142,2169,547400,2169
2014/12/30,2169,2169,2138,2144,341300,2144
2015/01/05,2133,2147,2105,2133,491000,2133
2015/01/06,2090,2099,2053,2057,841400,2057
2015/01/07,2040,2097,2036,2088,655200,2088
2015/01/08,2114,2177,2095,2101,1011000,2101
2015/01/09,2134,2159,2114,2127,866000,2127
2015/01/13,2107,2142,2089,2140,662300,2140
2015/01/14,2118,2141,2092,2102,508500,2102
2015/01/15,2108,2147,2093,2134,539100,2134
2015/01/16,2091,2097,2050,2094,593400,2094
2015/01/19,2114,2141,2094,2138,371200,2138
2015/01/20,2139,2143,2114,2143,385100,2143
2015/01/21,2137,2137,2102,2118,434700,2118
2015/01/22,2100,2100,2052,2065,948700,2065
2015/01/23,2114,2190,2101,2171,930100,2171
2015/01/26,2148,2191,2124,2189,919500,2189
2015/01/27,2209,2250,2209,2245,850800,2245
2015/01/28,2233,2283,2230,2266,869200,2266
2015/01/29,2252,2288,2185,2199,847100,2199
2015/01/30,2358,2430,2320,2389,1733300,2389
2015/02/02,2375,2389,2330,2344,1277000,2344
2015/02/03,2391,2444,2338,2351,1865000,2351
2015/02/04,2447,2462,2393,2457,1837500,2457
2015/02/05,2445,2460,2411,2427,1061600,2427
2015/02/06,2444,2449,2387,2398,770700,2398
2015/02/09,2440,2490,2437,2469,1057200,2469
2015/02/10,2422,2478,2398,2424,1214400,2424
2015/02/12,2470,2524,2451,2507,1295100,2507
2015/02/13,2484,2500,2423,2427,1067700,2427
2015/02/16,2475,2527,2474,2500,1261200,2500
2015/02/17,2466,2468,2423,2429,792000,2429
2015/02/18,2443,2451,2412,2424,1076200,2424
2015/02/19,2469,2500,2432,2500,1102200,2500
2015/02/20,2509,2529,2474,2482,695900,2482
2015/02/23,2500,2513,2483,2492,441600,2492
2015/02/24,2510,2516,2482,2504,664800,2504
2015/02/25,2525,2599,2523,2587,1160700,2587
2015/02/26,2600,2640,2593,2627,948800,2627
2015/02/27,2673,2715,2636,2641,1119600,2641
2015/03/02,2693,2707,2665,2678,706000,2678
2015/03/03,2695,2695,2661,2675,444100,2675
2015/03/04,2665,2672,2633,2641,401900,2641
2015/03/05,2611,2644,2603,2626,461100,2626
2015/03/06,2653,2671,2633,2669,525800,2669
2015/03/09,2668,2671,2628,2659,353100,2659
2015/03/10,2675,2677,2611,2624,421900,2624
2015/03/11,2600,2631,2591,2612,467800,2612
2015/03/12,2652,2736,2634,2735,1066400,2735
2015/03/13,2735,2755,2689,2741,987000,2741
2015/03/16,2726,2743,2704,2710,368500,2710
2015/03/17,2735,2735,2697,2704,508800,2704
2015/03/18,2705,2732,2705,2719,399700,2719
2015/03/19,2696,2710,2665,2687,693200,2687
2015/03/20,2665,2673,2623,2667,572400,2667
2015/03/23,2687,2722,2670,2699,582500,2699
2015/03/24,2681,2691,2628,2632,581400,2632
2015/03/25,2629,2654,2612,2647,445600,2647
2015/03/26,2606,2614,2532,2554,831900,2554
2015/03/27,2571,2605,2532,2552,610500,2552
2015/03/30,2555,2578,2547,2562,421100,2562
2015/03/31,2619,2626,2565,2572,551400,2572
2015/04/01,2545,2547,2473,2479,1114100,2479
2015/04/02,2480,2562,2460,2540,910800,2540
2015/04/03,2572,2587,2544,2585,609600,2585
2015/04/06,2535,2565,2510,2552,468800,2552
2015/04/07,2576,2596,2552,2562,480600,2562
2015/04/08,2584,2606,2574,2584,909600,2584
2015/04/09,2580,2581,2553,2575,608900,2575
2015/04/10,2559,2572,2537,2557,572300,2557
2015/04/13,2540,2546,2503,2527,702400,2527
2015/04/14,2554,2577,2509,2571,775700,2571
2015/04/15,2545,2605,2545,2568,662400,2568
2015/04/16,2569,2594,2544,2594,674600,2594
2015/04/17,2590,2595,2535,2538,627300,2538
2015/04/20,2488,2498,2453,2483,750600,2483
2015/04/21,2505,2551,2505,2545,883300,2545
2015/04/22,2538,2557,2518,2531,756200,2531
2015/04/23,2513,2530,2454,2463,1291500,2463
2015/04/24,2479,2517,2476,2511,674900,2511
2015/04/27,2523,2533,2459,2472,843600,2472
2015/04/28,2497,2630,2444,2465,2621000,2465
2015/04/30,2357,2392,2300,2325,2474400,2325
2015/05/01,2333,2339,2275,2295,1371400,2295
2015/05/07,2300,2314,2251,2254,1409000,2254
2015/05/08,2267,2344,2260,2335,1727800,2335
2015/05/11,2360,2370,2322,2325,1196700,2325
2015/05/12,2326,2342,2308,2323,710400,2323
2015/05/13,2311,2319,2279,2310,898300,2310
2015/05/14,2281,2323,2275,2314,728700,2314
2015/05/15,2321,2353,2315,2332,516800,2332
2015/05/18,2358,2375,2334,2367,806600,2367
2015/05/19,2400,2476,2393,2468,1918300,2468
2015/05/20,2468,2526,2468,2515,1920500,2515
2015/05/21,2505,2522,2490,2496,1023100,2496
2015/05/22,2485,2491,2436,2443,1541700,2443
2015/05/25,2452,2466,2435,2447,849400,2447
2015/05/26,2438,2444,2416,2433,1205200,2433
2015/05/27,2414,2425,2380,2399,1538600,2399
2015/05/28,2475,2544,2456,2475,1661300,2475
2015/05/29,2452,2469,2442,2463,1298800,2463
2015/06/01,2450,2460,2427,2460,1082000,2460
2015/06/02,2431,2445,2431,2434,1115500,2434
2015/06/03,2455,2498,2453,2487,1378700,2487
2015/06/04,2510,2560,2501,2546,1528900,2546
2015/06/05,2528,2538,2508,2535,1144600,2535
2015/06/08,2535,2558,2511,2542,749900,2542
2015/06/09,2523,2527,2472,2473,852900,2473
2015/06/10,2451,2472,2432,2439,834200,2439
2015/06/11,2468,2490,2449,2459,835800,2459
2015/06/12,2459,2478,2438,2456,1081100,2456
2015/06/15,2431,2449,2407,2419,836000,2419
2015/06/16,2390,2425,2375,2375,1159400,2375
2015/06/17,2361,2362,2309,2338,1619500,2338
2015/06/18,2322,2322,2272,2272,1770100,2272
2015/06/19,2310,2331,2300,2305,1888500,2305
2015/06/22,2312,2331,2301,2320,760600,2320
2015/06/23,2349,2350,2323,2341,1032600,2341
2015/06/24,2349,2349,2316,2320,1064400,2320
2015/06/25,2316,2317,2235,2241,1907700,2241
2015/06/26,2264,2315,2264,2300,1962700,2300
2015/06/29,2200,2227,2190,2204,1939000,2204
2015/06/30,2200,2213,2190,2208,902300,2208
2015/07/01,2216,2223,2196,2215,809900,2215
2015/07/02,2250,2254,2215,2220,870600,2220
2015/07/03,2235,2247,2201,2212,777500,2212
2015/07/06,2192,2211,2156,2161,742600,2161
2015/07/07,2185,2209,2185,2194,855200,2194
2015/07/08,2205,2236,2110,2110,1213500,2110
2015/07/09,2050,2098,2015,2098,979000,2098
2015/07/10,2101,2113,2080,2092,653800,2092
2015/07/13,2114,2126,2104,2110,557400,2110
2015/07/14,2160,2197,2141,2175,1309800,2175
2015/07/15,2200,2210,2171,2176,1036100,2176
2015/07/16,2195,2208,2189,2206,860000,2206
2015/07/17,2211,2222,2182,2187,643000,2187
2015/07/21,2209,2218,2184,2202,654600,2202
2015/07/22,2178,2187,2153,2155,599200,2155
2015/07/23,2168,2184,2140,2163,495300,2163
2015/07/24,2143,2167,2133,2149,793700,2149
2015/07/27,2131,2155,2115,2146,908400,2146
2015/07/28,2126,2150,2107,2127,1180800,2127
2015/07/29,2150,2155,2117,2132,796500,2132
2015/07/30,2170,2226,2141,2185,2172400,2185
2015/07/31,2175,2206,2152,2195,1187700,2195
2015/08/03,2232,2233,2196,2212,1829000,2212
2015/08/04,2219,2248,2196,2205,2018400,2205
2015/08/05,2202,2247,2173,2230,1953300,2230
2015/08/06,2249,2276,2224,2266,1283200,2266
2015/08/07,2256,2273,2225,2236,914100,2236
2015/08/10,2215,2233,2197,2232,658400,2232
2015/08/11,2224,2234,2192,2222,987400,2222
2015/08/12,2196,2207,2138,2152,891600,2152
2015/08/13,2145,2163,2131,2154,720600,2154
2015/08/14,2158,2168,2145,2150,488300,2150
2015/08/17,2153,2177,2149,2161,423300,2161
2015/08/18,2172,2182,2149,2151,534000,2151
2015/08/19,2121,2125,2071,2074,1141200,2074
2015/08/20,2055,2060,2040,2042,679900,2042
2015/08/21,1977,1992,1951,1952,1248600,1952
2015/08/24,1883,1898,1812,1812,1415100,1812
2015/08/25,1730,1825,1705,1747,1998100,1747
2015/08/26,1744,1827,1728,1810,1436400,1810
2015/08/27,1855,1866,1815,1816,1029000,1816
2015/08/28,1886,1927,1872,1907,1233500,1907
2015/08/31,1884,1900,1854,1866,1063100,1866
2015/09/01,1850,1854,1789,1789,657500,1789
2015/09/02,1742,1795,1732,1753,898600,1753
2015/09/03,1764,1797,1746,1749,1073100,1749
2015/09/04,1745,1753,1682,1710,1309400,1710
2015/09/07,1680,1738,1669,1715,893700,1715
2015/09/08,1719,1775,1712,1716,900000,1716
2015/09/09,1787,1850,1780,1849,1335100,1849
2015/09/10,1809,1840,1796,1824,1287000,1824
2015/09/11,1784,1829,1778,1801,939200,1801
2015/09/14,1814,1821,1767,1780,672600,1780
2015/09/15,1784,1804,1752,1766,629300,1766
2015/09/16,1782,1798,1760,1766,727800,1766
2015/09/17,1790,1832,1786,1809,721200,1809
2015/09/18,1780,1792,1755,1761,690200,1761
2015/09/24,1740,1754,1715,1715,964900,1715
2015/09/25,1715,1720,1658,1686,1358700,1686
2015/09/28,1685,1694,1660,1668,1036900,1668
2015/09/29,1640,1641,1595,1600,959600,1600
2015/09/30,1632,1673,1623,1641,1068200,1641
2015/10/01,1639,1699,1621,1682,998600,1682
2015/10/02,1655,1703,1631,1691,786100,1691
2015/10/05,1718,1765,1714,1759,1271900,1759
2015/10/06,1800,1824,1772,1776,759900,1776
2015/10/07,1793,1850,1792,1842,973100,1842
2015/10/08,1847,1908,1844,1870,1658500,1870
2015/10/09,1899,1929,1885,1919,648900,1919
2015/10/13,1903,1915,1883,1899,643100,1899
2015/10/14,1870,1879,1842,1845,489400,1845
2015/10/15,1829,1870,1820,1855,507400,1855
2015/10/16,1875,1921,1874,1898,618600,1898
