2010/01/04,56,57,56,56,13000,56
2010/01/05,55,57,55,56,37000,56
2010/01/06,56,56,55,56,19000,56
2010/01/07,56,56,55,55,21000,55
2010/01/08,56,59,56,58,38000,58
2010/01/12,58,59,58,58,14000,58
2010/01/13,58,59,57,58,18000,58
2010/01/14,58,58,57,58,20000,58
2010/01/15,58,61,58,60,78000,60
2010/01/18,61,61,59,60,69000,60
2010/01/19,58,59,57,58,81000,58
2010/01/20,58,58,54,56,46000,56
2010/01/21,54,55,53,54,73000,54
2010/01/22,52,53,52,53,81000,53
2010/01/25,52,55,51,55,75000,55
2010/01/26,55,56,54,55,57000,55
2010/01/27,53,53,53,53,2000,53
2010/01/28,54,55,54,55,19000,55
2010/01/29,54,58,54,56,84000,56
2010/02/01,57,60,57,59,58000,59
2010/02/02,58,59,56,59,27000,59
2010/02/03,59,59,56,56,46000,56
2010/02/04,57,57,56,57,7000,57
2010/02/05,54,55,54,55,31000,55
2010/02/08,54,54,52,54,35000,54
2010/02/09,54,55,53,55,16000,55
2010/02/10,55,56,54,54,5000,54
2010/02/12,55,55,55,55,1000,55
2010/02/15,54,54,49,53,77000,53
2010/02/16,51,52,51,52,56000,52
2010/02/17,52,52,52,52,3000,52
2010/02/18,52,53,52,53,52000,53
2010/02/19,53,53,52,52,44000,52
2010/02/22,53,53,52,52,4000,52
2010/02/23,53,53,51,51,20000,51
2010/02/24,50,51,50,51,45000,51
2010/02/25,51,53,50,51,92000,51
2010/02/26,50,51,50,51,11000,51
2010/03/01,50,51,49,51,84000,51
2010/03/02,50,51,50,50,26000,50
2010/03/03,50,53,50,53,35000,53
2010/03/04,50,51,50,51,48000,51
2010/03/05,52,53,52,53,33000,53
2010/03/08,52,54,52,52,29000,52
2010/03/09,51,51,50,51,82000,51
2010/03/10,51,51,50,51,29000,51
2010/03/11,51,54,51,53,34000,53
2010/03/12,52,53,52,52,27000,52
2010/03/15,53,53,51,52,38000,52
2010/03/16,52,52,50,50,56000,50
2010/03/17,51,53,51,51,51000,51
2010/03/18,52,52,52,52,17000,52
2010/03/19,52,55,51,52,108000,52
2010/03/23,52,53,52,53,17000,53
2010/03/24,53,53,50,51,146000,51
2010/03/25,51,52,50,51,118000,51
2010/03/26,52,55,51,53,170000,53
2010/03/29,54,55,52,55,87000,55
2010/03/30,56,59,56,57,199000,57
2010/03/31,58,60,57,59,176000,59
2010/04/01,60,60,57,58,80000,58
2010/04/02,58,58,56,57,73000,57
2010/04/05,58,58,56,57,45000,57
2010/04/06,57,61,57,58,260000,58
2010/04/07,60,60,55,59,181000,59
2010/04/08,57,59,57,59,59000,59
2010/04/09,59,59,57,58,124000,58
2010/04/12,60,65,60,65,411000,65
2010/04/13,69,69,64,68,222000,68
2010/04/14,68,68,66,68,155000,68
2010/04/15,69,69,67,68,79000,68
2010/04/16,68,68,65,66,56000,66
2010/04/19,65,65,63,64,45000,64
2010/04/20,63,64,62,63,43000,63
2010/04/21,63,64,63,63,19000,63
2010/04/22,64,65,61,63,88000,63
2010/04/23,64,65,62,63,69000,63
2010/04/26,64,66,63,65,79000,65
2010/04/27,66,66,63,64,109000,64
2010/04/28,63,63,62,63,42000,63
2010/04/30,64,64,60,61,216000,61
2010/05/06,60,60,57,59,86000,59
2010/05/07,54,56,53,55,210000,55
2010/05/10,54,57,54,56,87000,56
2010/05/11,57,57,55,56,56000,56
2010/05/12,56,57,55,56,46000,56
2010/05/13,55,57,55,57,55000,57
2010/05/14,56,57,56,57,29000,57
2010/05/17,56,56,52,53,122000,53
2010/05/18,53,53,52,52,75000,52
2010/05/19,51,53,51,53,43000,53
2010/05/20,52,52,51,52,28000,52
2010/05/21,50,51,49,51,66000,51
2010/05/24,52,52,50,51,52000,51
2010/05/25,51,51,50,50,25000,50
2010/05/26,51,51,49,51,28000,51
2010/05/27,50,52,50,52,34000,52
2010/05/28,52,52,52,52,20000,52
2010/05/31,52,53,52,53,29000,53
2010/06/01,53,54,53,54,10000,54
2010/06/02,53,53,53,53,12000,53
2010/06/03,54,54,52,53,75000,53
2010/06/04,54,55,53,53,22000,53
2010/06/07,52,52,50,50,54000,50
2010/06/08,50,52,50,52,12000,52
2010/06/09,52,53,52,52,18000,52
2010/06/10,51,52,51,52,22000,52
2010/06/11,52,52,51,52,73000,52
2010/06/14,52,54,51,53,61000,53
2010/06/15,54,55,53,54,48000,54
2010/06/16,55,57,55,56,56000,56
2010/06/17,56,56,54,54,63000,54
2010/06/18,54,54,53,54,17000,54
2010/06/21,54,54,53,54,15000,54
2010/06/22,56,56,54,55,65000,55
2010/06/23,54,54,53,54,29000,54
2010/06/24,54,55,53,55,21000,55
2010/06/25,54,54,53,53,42000,53
2010/06/28,51,53,50,50,61000,50
2010/06/29,50,51,50,51,14000,51
2010/06/30,50,50,47,49,82000,49
2010/07/01,48,48,47,47,31000,47
2010/07/02,48,49,48,49,14000,49
2010/07/05,49,51,48,51,28000,51
2010/07/06,50,50,49,49,47000,49
2010/07/07,50,50,49,50,21000,50
2010/07/08,50,50,49,49,28000,49
2010/07/09,49,50,49,50,22000,50
2010/07/12,49,50,49,49,12000,49
2010/07/13,50,50,49,49,23000,49
2010/07/14,49,50,49,50,23000,50
2010/07/15,50,51,50,51,5000,51
2010/07/16,49,51,49,49,15000,49
2010/07/20,49,49,48,49,25000,49
2010/07/21,48,49,48,48,11000,48
2010/07/22,47,47,47,47,36000,47
2010/07/23,47,49,47,49,16000,49
2010/07/26,50,50,49,49,14000,49
2010/07/27,50,50,48,49,13000,49
2010/07/28,49,49,48,49,17000,49
2010/07/29,49,50,49,49,15000,49
2010/07/30,50,50,49,49,22000,49
2010/08/02,48,50,48,49,41000,49
2010/08/03,50,50,49,49,17000,49
2010/08/04,49,49,47,48,13000,48
2010/08/05,49,49,48,48,11000,48
2010/08/06,49,50,49,50,11000,50
2010/08/09,49,50,49,50,22000,50
2010/08/10,50,50,50,50,11000,50
2010/08/11,50,50,48,49,34000,49
2010/08/12,49,49,48,48,23000,48
2010/08/13,48,49,48,48,24000,48
2010/08/16,48,48,46,48,21000,48
2010/08/17,47,48,47,47,19000,47
2010/08/18,49,49,48,49,50000,49
2010/08/19,50,50,48,49,10000,49
2010/08/20,48,48,48,48,2000,48
2010/08/23,48,49,47,49,26000,49
2010/08/24,47,49,47,49,14000,49
2010/08/25,48,48,47,47,18000,47
2010/08/26,48,48,48,48,7000,48
2010/08/27,46,48,46,48,22000,48
2010/08/30,47,49,47,49,31000,49
2010/08/31,49,49,48,48,100000,48
2010/09/01,49,49,48,48,21000,48
2010/09/02,48,48,48,48,13000,48
2010/09/03,48,48,47,47,9000,47
2010/09/06,48,49,48,49,7000,49
2010/09/07,48,48,47,48,14000,48
2010/09/08,47,49,46,49,36000,49
2010/09/09,47,48,47,48,22000,48
2010/09/10,47,50,47,49,32000,49
2010/09/13,49,50,49,50,33000,50
2010/09/14,50,50,48,49,8000,49
2010/09/15,48,50,48,50,52000,50
2010/09/16,50,50,49,49,46000,49
2010/09/17,49,50,48,48,8000,48
2010/09/21,49,49,49,49,38000,49
2010/09/22,49,49,49,49,9000,49
2010/09/24,49,50,48,49,49000,49
2010/09/27,50,50,48,48,34000,48
2010/09/28,48,49,48,49,12000,49
2010/09/29,49,49,48,49,32000,49
2010/09/30,48,48,47,48,29000,48
2010/10/01,47,47,47,47,21000,47
2010/10/04,47,47,45,46,70000,46
2010/10/05,46,46,46,46,20000,46
2010/10/06,46,47,46,47,11000,47
2010/10/07,47,47,46,46,30000,46
2010/10/08,46,47,46,47,9000,47
2010/10/12,46,47,45,45,27000,45
2010/10/13,45,46,45,46,33000,46
2010/10/14,46,48,45,48,23000,48
2010/10/15,47,47,46,47,34000,47
2010/10/18,46,46,46,46,8000,46
2010/10/19,45,46,45,45,8000,45
2010/10/20,45,45,45,45,8000,45
2010/10/21,46,46,45,45,10000,45
2010/10/22,46,46,45,46,15000,46
2010/10/25,47,47,45,45,30000,45
2010/10/26,45,45,45,45,16000,45
2010/10/27,45,46,45,46,9000,46
2010/10/28,46,47,45,46,46000,46
2010/10/29,45,45,44,45,28000,45
2010/11/01,46,46,44,44,15000,44
2010/11/02,45,46,45,45,9000,45
2010/11/04,44,44,44,44,19000,44
2010/11/05,45,45,43,43,16000,43
2010/11/08,44,45,44,45,38000,45
2010/11/09,45,45,44,45,36000,45
2010/11/10,43,45,43,45,37000,45
2010/11/11,45,45,44,45,7000,45
2010/11/12,45,45,44,45,20000,45
2010/11/15,45,45,44,45,23000,45
2010/11/16,44,46,44,46,65000,46
2010/11/17,44,46,44,46,35000,46
2010/11/18,46,46,46,46,7000,46
2010/11/19,46,47,45,47,77000,47
2010/11/22,48,49,47,49,36000,49
2010/11/24,49,49,47,48,10000,48
2010/11/25,47,48,47,48,35000,48
2010/11/26,49,49,47,48,39000,48
2010/11/29,48,49,48,49,39000,49
2010/11/30,49,49,48,48,32000,48
2010/12/01,48,48,47,48,9000,48
2010/12/02,48,49,48,48,17000,48
2010/12/03,49,49,48,49,16000,49
2010/12/06,49,49,47,49,78000,49
2010/12/07,49,51,49,50,71000,50
2010/12/08,51,53,51,53,47000,53
2010/12/09,53,53,51,53,86000,53
2010/12/10,53,53,50,51,70000,51
2010/12/13,52,52,50,52,38000,52
2010/12/14,52,53,51,53,42000,53
2010/12/15,53,53,50,51,90000,51
2010/12/16,51,52,51,51,29000,51
2010/12/17,52,53,52,53,57000,53
2010/12/20,61,61,57,59,835000,59
2010/12/21,58,58,56,56,134000,56
2010/12/22,56,57,56,57,88000,57
2010/12/24,58,58,55,55,93000,55
2010/12/27,55,55,54,54,54000,54
2010/12/28,54,55,54,54,51000,54
2010/12/29,54,55,54,54,26000,54
2010/12/30,54,57,54,57,56000,57
2011/01/04,57,57,55,57,83000,57
2011/01/05,57,57,56,57,67000,57
2011/01/06,56,58,55,58,119000,58
2011/01/07,58,60,57,60,144000,60
2011/01/11,60,61,59,61,135000,61
2011/01/12,62,64,61,64,317000,64
2011/01/13,65,65,61,63,223000,63
2011/01/14,63,63,62,63,89000,63
2011/01/17,63,64,62,64,71000,64
2011/01/18,64,64,62,64,51000,64
2011/01/19,64,64,63,63,57000,63
2011/01/20,63,63,62,63,112000,63
2011/01/21,62,63,56,60,132000,60
2011/01/24,60,60,60,60,15000,60
2011/01/25,59,61,59,61,43000,61
2011/01/26,61,62,60,62,17000,62
2011/01/27,60,62,60,62,24000,62
2011/01/28,62,62,60,61,18000,61
2011/01/31,59,59,58,59,42000,59
2011/02/01,59,59,58,59,21000,59
2011/02/02,59,60,59,59,27000,59
2011/02/03,60,60,59,60,31000,60
2011/02/04,60,61,60,61,40000,61
2011/02/07,61,63,60,63,149000,63
2011/02/08,63,64,63,64,83000,64
2011/02/09,63,63,62,62,80000,62
2011/02/10,62,63,62,63,34000,63
2011/02/14,62,62,61,62,69000,62
2011/02/15,62,62,60,62,62000,62
2011/02/16,60,62,60,62,50000,62
2011/02/17,61,62,60,62,44000,62
2011/02/18,61,62,60,61,42000,61
2011/02/21,62,67,61,66,224000,66
2011/02/22,66,70,66,68,385000,68
2011/02/23,65,68,65,67,250000,67
2011/02/24,67,67,63,64,206000,64
2011/02/25,64,64,62,64,101000,64
2011/02/28,64,65,64,65,78000,65
2011/03/01,66,66,64,66,72000,66
2011/03/02,64,65,64,64,51000,64
2011/03/03,65,65,65,65,33000,65
2011/03/04,66,69,66,69,267000,69
2011/03/07,70,72,69,71,200000,71
2011/03/08,72,75,72,73,367000,73
2011/03/09,75,75,70,71,284000,71
2011/03/10,70,71,67,68,147000,68
2011/03/11,65,72,64,64,242000,64
2011/03/14,44,55,44,50,301000,50
2011/03/15,50,50,37,41,359000,41
2011/03/16,43,49,43,49,160000,49
2011/03/17,45,54,45,51,89000,51
2011/03/18,52,56,52,56,126000,56
2011/03/22,60,61,57,59,152000,59
2011/03/23,59,63,58,62,86000,62
2011/03/24,60,62,58,62,100000,62
2011/03/25,62,63,60,60,85000,60
2011/03/28,59,71,59,71,1284000,71
2011/03/29,69,85,67,80,2708000,80
2011/03/30,78,82,77,82,798000,82
2011/03/31,84,103,82,86,4779000,86
2011/04/01,95,100,90,92,1745000,92
2011/04/04,96,96,92,96,698000,96
2011/04/05,98,98,87,93,544000,93
2011/04/06,89,90,76,76,865000,76
2011/04/07,80,83,77,80,287000,80
2011/04/08,76,81,73,78,401000,78
2011/04/11,79,80,77,80,268000,80
2011/04/12,77,78,76,76,237000,76
2011/04/13,74,78,73,77,167000,77
2011/04/14,78,92,78,89,1077000,89
2011/04/15,88,95,86,90,805000,90
2011/04/18,90,92,88,90,182000,90
2011/04/19,90,90,86,88,278000,88
2011/04/20,86,90,84,88,272000,88
2011/04/21,88,88,85,86,91000,86
2011/04/22,85,86,84,86,114000,86
2011/04/25,88,88,82,82,146000,82
2011/04/26,82,84,80,82,162000,82
2011/04/27,84,84,79,79,159000,79
2011/04/28,80,80,77,78,106000,78
2011/05/02,79,80,77,79,74000,79
2011/05/06,79,79,77,79,42000,79
2011/05/09,79,80,78,79,43000,79
2011/05/10,79,79,75,79,139000,79
2011/05/11,79,85,79,83,135000,83
2011/05/12,83,87,82,86,190000,86
2011/05/13,86,86,81,84,204000,84
2011/05/16,76,80,76,79,101000,79
2011/05/17,78,78,68,72,439000,72
2011/05/18,73,74,71,72,132000,72
2011/05/19,72,75,72,74,84000,74
2011/05/20,73,75,71,72,155000,72
2011/05/23,71,71,67,68,146000,68
2011/05/24,67,67,64,66,166000,66
2011/05/25,66,67,63,64,151000,64
2011/05/26,63,67,63,64,111000,64
2011/05/27,64,69,64,66,141000,66
2011/05/30,71,73,68,73,200000,73
2011/05/31,73,78,71,78,235000,78
2011/06/01,75,78,74,76,122000,76
2011/06/02,74,75,72,73,94000,73
2011/06/03,74,74,73,74,26000,74
2011/06/06,72,73,69,69,68000,69
2011/06/07,67,70,67,70,89000,70
2011/06/08,70,72,68,71,58000,71
2011/06/09,71,71,70,70,27000,70
2011/06/10,67,71,67,70,74000,70
2011/06/13,68,70,68,68,39000,68
2011/06/14,69,71,68,71,42000,71
2011/06/15,73,74,70,73,112000,73
2011/06/16,73,79,72,79,317000,79
2011/06/17,79,82,75,79,394000,79
2011/06/20,76,77,74,74,337000,74
2011/06/21,74,76,74,75,58000,75
2011/06/22,75,75,74,74,71000,74
2011/06/23,74,74,60,70,427000,70
2011/06/24,71,76,70,76,502000,76
2011/06/27,76,79,76,78,609000,78
2011/06/28,78,78,75,77,495000,77
2011/06/29,78,79,77,77,161000,77
2011/06/30,77,84,77,82,1633000,82
2011/07/01,82,84,81,84,611000,84
2011/07/04,86,87,80,80,1154000,80
2011/07/05,81,84,80,82,304000,82
2011/07/06,82,82,79,79,328000,79
2011/07/07,80,80,78,78,124000,78
2011/07/08,80,80,78,79,105000,79
2011/07/11,79,80,79,79,55000,79
2011/07/12,79,79,75,79,246000,79
2011/07/13,77,79,77,79,66000,79
2011/07/14,79,79,77,77,58000,77
2011/07/15,79,79,77,77,67000,77
2011/07/19,76,77,76,77,69000,77
2011/07/20,78,78,76,76,78000,76
2011/07/21,76,76,75,76,74000,76
2011/07/22,76,76,75,75,47000,75
2011/07/25,75,76,72,73,158000,73
2011/07/26,74,74,73,74,42000,74
2011/07/27,75,76,74,76,63000,76
2011/07/28,74,75,73,75,83000,75
2011/07/29,74,74,70,71,189000,71
2011/08/01,72,73,71,73,58000,73
2011/08/02,72,72,71,72,44000,72
2011/08/03,71,71,68,71,208000,71
2011/08/04,70,71,70,71,36000,71
2011/08/05,66,68,65,68,102000,68
2011/08/08,67,67,65,65,91000,65
2011/08/09,59,62,57,62,192000,62
2011/08/10,65,65,62,62,75000,62
2011/08/11,61,68,60,68,56000,68
2011/08/12,68,72,68,69,93000,69
2011/08/15,68,70,68,68,26000,68
2011/08/16,68,68,65,66,34000,66
2011/08/17,66,66,64,66,24000,66
2011/08/18,65,66,64,64,39000,64
2011/08/19,62,63,62,63,32000,63
2011/08/22,62,62,58,59,52000,59
2011/08/23,60,61,58,61,54000,61
2011/08/24,61,61,58,59,73000,59
2011/08/25,59,60,58,59,59000,59
2011/08/26,59,59,58,59,37000,59
2011/08/29,60,62,60,61,48000,61
2011/08/30,62,62,60,60,50000,60
2011/08/31,61,63,61,63,41000,63
2011/09/01,64,65,64,64,43000,64
2011/09/02,64,64,62,62,29000,62
2011/09/05,61,61,58,61,113000,61
2011/09/06,60,60,58,58,62000,58
2011/09/07,59,60,59,60,28000,60
2011/09/08,60,61,59,60,20000,60
2011/09/09,59,59,58,59,46000,59
2011/09/12,58,58,58,58,25000,58
2011/09/13,57,57,57,57,18000,57
2011/09/14,57,57,56,56,43000,56
2011/09/15,57,58,56,57,56000,57
2011/09/16,56,58,56,57,61000,57
2011/09/20,56,56,54,54,64000,54
2011/09/21,55,56,53,54,93000,54
2011/09/22,54,54,52,52,30000,52
2011/09/26,51,51,46,47,189000,47
2011/09/27,48,49,47,48,136000,48
2011/09/28,48,50,48,50,66000,50
2011/09/29,49,50,49,50,51000,50
2011/09/30,51,52,50,51,59000,51
2011/10/03,50,51,50,50,38000,50
2011/10/04,50,50,50,50,3000,50
2011/10/05,50,50,47,47,99000,47
2011/10/06,48,49,47,47,45000,47
2011/10/07,48,50,48,48,64000,48
2011/10/11,50,51,49,50,45000,50
2011/10/12,50,50,50,50,6000,50
2011/10/13,51,52,50,52,88000,52
2011/10/14,52,52,51,51,17000,51
2011/10/17,51,52,50,50,49000,50
2011/10/18,50,50,50,50,11000,50
2011/10/19,49,50,49,49,24000,49
2011/10/20,49,50,48,50,45000,50
2011/10/21,50,50,48,50,64000,50
2011/10/24,50,50,48,48,85000,48
2011/10/25,48,48,47,47,79000,47
2011/10/26,47,48,47,48,9000,48
2011/10/27,47,47,46,47,83000,47
2011/10/28,48,49,47,48,49000,48
2011/10/31,49,50,49,49,29000,49
2011/11/01,49,49,49,49,14000,49
2011/11/02,48,48,46,47,74000,47
2011/11/04,47,48,46,46,66000,46
2011/11/07,47,47,46,46,30000,46
2011/11/08,46,46,44,45,50000,45
2011/11/09,45,45,44,44,30000,44
2011/11/10,43,43,41,43,101000,43
2011/11/11,43,43,42,43,34000,43
2011/11/14,43,45,43,44,33000,44
2011/11/15,44,44,42,44,114000,44
2011/11/16,43,43,42,42,39000,42
2011/11/17,42,43,41,43,65000,43
2011/11/18,43,43,42,43,28000,43
2011/11/21,43,44,42,43,36000,43
2011/11/22,42,44,41,44,37000,44
2011/11/24,43,44,43,43,21000,43
2011/11/25,44,45,43,43,17000,43
2011/11/28,44,44,42,43,19000,43
2011/11/29,43,44,40,43,147000,43
2011/11/30,43,52,43,48,569000,48
2011/12/01,53,54,50,51,349000,51
2011/12/02,52,53,51,53,99000,53
2011/12/05,57,59,54,56,232000,56
2011/12/06,55,55,52,54,105000,54
2011/12/07,56,56,54,55,50000,55
2011/12/08,54,54,52,52,26000,52
2011/12/09,52,52,52,52,9000,52
2011/12/12,52,55,52,55,47000,55
2011/12/13,55,55,52,53,87000,53
2011/12/14,53,54,53,54,30000,54
2011/12/15,53,53,52,52,31000,52
2011/12/16,51,52,50,51,41000,51
2011/12/19,52,52,48,50,31000,50
2011/12/20,50,53,48,49,63000,49
2011/12/21,50,50,49,50,43000,50
2011/12/22,49,50,47,48,65000,48
2011/12/26,48,48,46,46,53000,46
2011/12/27,46,46,45,46,31000,46
2011/12/28,46,49,46,47,27000,47
2011/12/29,47,49,46,48,44000,48
2011/12/30,49,50,49,49,56000,49
2012/01/04,50,57,50,56,477000,56
2012/01/05,56,56,55,56,144000,56
2012/01/06,56,58,56,56,149000,56
2012/01/10,56,58,55,58,172000,58
2012/01/11,58,63,58,61,472000,61
2012/01/12,60,64,60,63,372000,63
2012/01/13,63,66,62,66,500000,66
2012/01/16,65,65,58,60,601000,60
2012/01/17,61,63,60,62,218000,62
2012/01/18,65,66,63,65,411000,65
2012/01/19,65,74,65,68,827000,68
2012/01/20,69,69,65,66,160000,66
2012/01/23,67,71,66,69,230000,69
2012/01/24,71,72,67,69,254000,69
2012/01/25,71,71,69,69,69000,69
2012/01/26,70,71,68,69,129000,69
2012/01/27,69,69,68,68,25000,68
2012/01/30,68,68,66,67,48000,67
2012/01/31,67,67,66,66,11000,66
2012/02/01,69,69,67,67,70000,67
2012/02/02,67,67,66,66,21000,66
2012/02/03,66,66,64,65,56000,65
2012/02/06,65,68,63,66,136000,66
2012/02/07,68,69,67,67,68000,67
2012/02/08,68,69,68,68,81000,68
2012/02/09,68,71,68,70,185000,70
2012/02/10,65,65,61,63,375000,63
2012/02/13,63,64,63,64,80000,64
2012/02/14,64,65,63,63,65000,63
2012/02/15,62,62,61,61,137000,61
2012/02/16,61,62,61,62,38000,62
2012/02/17,62,63,62,63,33000,63
2012/02/20,63,63,62,63,53000,63
2012/02/21,62,64,62,64,164000,64
2012/02/22,65,70,63,70,990000,70
2012/02/23,78,84,69,73,2278000,73
2012/02/24,72,73,68,70,481000,70
2012/02/27,70,72,70,70,173000,70
2012/02/28,69,77,69,76,950000,76
2012/02/29,80,82,76,82,1238000,82
2012/03/01,89,107,77,78,13764000,78
2012/03/02,83,93,78,82,2615000,82
2012/03/05,83,83,76,77,726000,77
2012/03/06,77,79,75,75,373000,75
2012/03/07,73,76,72,75,250000,75
2012/03/08,75,75,73,75,241000,75
2012/03/09,75,76,74,75,188000,75
2012/03/12,76,76,75,75,100000,75
2012/03/13,74,74,73,73,173000,73
2012/03/14,75,75,73,74,147000,74
2012/03/15,75,75,73,73,92000,73
2012/03/16,73,73,70,72,211000,72
2012/03/19,72,72,71,71,95000,71
2012/03/21,70,70,69,70,163000,70
2012/03/22,70,70,69,69,49000,69
2012/03/23,69,70,67,70,102000,70
2012/03/26,70,70,68,68,68000,68
2012/03/27,68,71,68,69,92000,69
2012/03/28,70,70,68,70,51000,70
2012/03/29,69,70,69,70,49000,70
2012/03/30,69,70,68,69,172000,69
2012/04/02,70,72,70,72,150000,72
2012/04/03,72,77,70,77,356000,77
2012/04/04,77,77,71,72,292000,72
2012/04/05,71,72,70,72,118000,72
2012/04/06,72,73,70,71,83000,71
2012/04/09,72,72,70,71,69000,71
2012/04/10,71,71,68,70,65000,70
2012/04/11,67,68,67,68,69000,68
2012/04/12,69,69,67,68,112000,68
2012/04/13,69,69,68,68,36000,68
2012/04/16,68,73,68,73,241000,73
2012/04/17,77,86,70,71,2087000,71
2012/04/18,71,72,70,72,132000,72
2012/04/19,71,71,70,71,91000,71
2012/04/20,72,72,70,71,63000,71
2012/04/23,71,72,70,71,67000,71
2012/04/24,71,71,70,71,108000,71
2012/04/25,71,71,70,70,17000,70
2012/04/26,71,71,68,68,124000,68
2012/04/27,68,69,68,68,16000,68
2012/05/01,69,70,68,69,32000,69
2012/05/02,69,69,68,68,66000,68
2012/05/07,66,66,63,64,154000,64
2012/05/08,65,66,64,66,24000,66
2012/05/09,65,67,63,65,93000,65
2012/05/10,65,66,64,66,25000,66
2012/05/11,65,66,63,64,53000,64
2012/05/14,62,63,58,59,155000,59
2012/05/15,58,58,52,55,200000,55
2012/05/16,56,58,55,57,60000,57
2012/05/17,59,60,53,58,116000,58
2012/05/18,56,57,56,57,23000,57
2012/05/21,57,60,57,58,26000,58
2012/05/22,60,61,58,61,79000,61
2012/05/23,61,61,59,61,27000,61
2012/05/24,60,60,58,58,64000,58
2012/05/25,59,60,59,60,13000,60
2012/05/28,60,60,58,58,24000,58
2012/05/29,57,58,57,58,33000,58
2012/05/30,58,59,58,58,17000,58
2012/05/31,56,58,56,58,4000,58
2012/06/01,58,58,56,56,40000,56
2012/06/04,54,55,53,54,30000,54
2012/06/05,55,56,54,54,19000,54
2012/06/06,55,56,55,55,24000,55
2012/06/07,56,57,56,57,72000,57
2012/06/08,57,57,55,55,30000,55
2012/06/11,56,58,56,56,100000,56
2012/06/12,56,57,56,57,17000,57
2012/06/13,57,59,57,58,67000,58
2012/06/14,58,58,57,57,34000,57
2012/06/15,57,61,57,58,105000,58
2012/06/18,61,63,61,63,180000,63
2012/06/19,62,64,62,63,97000,63
2012/06/20,63,67,63,66,160000,66
2012/06/21,66,68,65,65,111000,65
2012/06/22,65,67,64,65,66000,65
2012/06/25,68,68,66,66,53000,66
2012/06/26,66,66,64,65,24000,65
2012/06/27,66,67,64,65,60000,65
2012/06/28,66,66,64,64,32000,64
2012/06/29,64,65,63,65,92000,65
2012/07/02,67,67,66,66,46000,66
2012/07/03,67,67,65,65,25000,65
2012/07/04,67,68,66,68,40000,68
2012/07/05,68,68,65,66,111000,66
2012/07/06,66,67,64,65,23000,65
2012/07/09,65,66,64,64,47000,64
2012/07/10,64,65,64,64,10000,64
2012/07/11,63,63,62,63,35000,63
2012/07/12,63,63,61,61,69000,61
2012/07/13,61,63,61,63,17000,63
2012/07/17,62,63,62,62,20000,62
2012/07/18,61,62,61,61,17000,61
2012/07/19,62,62,61,61,3000,61
2012/07/20,60,60,59,59,47000,59
2012/07/23,57,58,55,55,59000,55
2012/07/24,53,54,52,54,164000,54
2012/07/25,52,53,51,52,134000,52
2012/07/26,54,54,53,54,40000,54
2012/07/27,54,56,54,56,25000,56
2012/07/30,56,57,55,56,30000,56
2012/07/31,56,58,55,58,27000,58
2012/08/01,56,57,56,56,13000,56
2012/08/02,56,56,55,56,34000,56
2012/08/03,56,56,55,56,17000,56
2012/08/06,57,57,56,56,23000,56
2012/08/07,57,58,56,58,26000,58
2012/08/08,58,60,57,60,50000,60
2012/08/09,59,59,58,58,19000,58
2012/08/10,58,58,57,57,17000,57
2012/08/13,54,57,54,57,59000,57
2012/08/14,57,57,56,57,29000,57
2012/08/15,56,58,56,58,69000,58
2012/08/16,58,59,58,58,28000,58
2012/08/17,59,59,58,59,20000,59
2012/08/20,59,61,58,59,82000,59
2012/08/21,59,59,59,59,27000,59
2012/08/22,59,59,58,58,42000,58
2012/08/23,57,58,56,58,54000,58
2012/08/24,56,57,55,55,43000,55
2012/08/27,56,57,54,54,139000,54
2012/08/28,55,55,53,54,125000,54
2012/08/29,54,55,54,55,24000,55
2012/08/30,55,56,54,56,90000,56
2012/08/31,54,55,54,54,104000,54
2012/09/03,55,56,54,56,82000,56
2012/09/04,56,56,55,55,35000,55
2012/09/05,54,54,53,53,113000,53
2012/09/06,52,54,52,53,41000,53
2012/09/07,54,54,53,54,37000,54
2012/09/10,53,54,53,54,36000,54
2012/09/11,54,55,52,53,79000,53
2012/09/12,52,53,52,53,42000,53
2012/09/13,53,53,52,53,43000,53
2012/09/14,53,55,53,55,71000,55
2012/09/18,55,57,55,56,54000,56
2012/09/19,56,57,55,57,37000,57
2012/09/20,56,56,54,55,91000,55
2012/09/21,55,55,55,55,8000,55
2012/09/24,55,55,54,54,40000,54
2012/09/25,53,54,53,53,10000,53
2012/09/26,53,54,53,54,51000,54
2012/09/27,53,54,53,54,7000,54
2012/09/28,54,54,53,54,3000,54
2012/10/01,54,54,52,54,64000,54
2012/10/02,53,53,52,53,44000,53
2012/10/03,53,53,52,53,13000,53
2012/10/04,53,53,52,53,32000,53
2012/10/05,53,54,53,54,36000,54
2012/10/09,54,54,53,54,35000,54
2012/10/10,53,53,51,51,91000,51
2012/10/11,51,53,51,52,93000,52
2012/10/12,52,52,52,52,14000,52
2012/10/15,51,52,51,52,19000,52
2012/10/16,52,52,51,52,163000,52
2012/10/17,52,53,52,53,18000,53
2012/10/18,53,54,52,53,46000,53
2012/10/19,53,54,53,53,37000,53
2012/10/22,53,53,52,52,28000,52
2012/10/23,53,53,52,52,18000,52
2012/10/24,52,52,52,52,36000,52
2012/10/25,53,53,53,53,36000,53
2012/10/26,54,54,52,53,56000,53
2012/10/29,54,56,54,55,85000,55
2012/10/30,55,57,55,55,129000,55
2012/10/31,56,59,55,58,244000,58
2012/11/01,58,60,57,59,158000,59
2012/11/02,60,61,59,59,285000,59
2012/11/05,60,62,60,62,197000,62
2012/11/06,62,63,60,60,143000,60
2012/11/07,59,60,58,60,97000,60
2012/11/08,59,60,58,60,47000,60
2012/11/09,58,59,58,58,79000,58
2012/11/12,57,57,56,57,97000,57
2012/11/13,57,58,56,57,40000,57
2012/11/14,57,59,55,55,180000,55
2012/11/15,55,57,55,57,32000,57
2012/11/16,58,58,57,57,44000,57
2012/11/19,58,58,57,57,45000,57
2012/11/20,58,58,58,58,50000,58
2012/11/21,59,60,58,59,113000,59
2012/11/22,59,60,58,59,58000,59
2012/11/26,60,60,58,60,130000,60
2012/11/27,60,60,58,59,73000,59
2012/11/28,58,59,57,58,104000,58
2012/11/29,57,59,57,59,90000,59
2012/11/30,60,60,58,59,71000,59
2012/12/03,60,60,59,60,60000,60
2012/12/04,59,67,59,64,690000,64
2012/12/05,66,67,64,64,519000,64
2012/12/06,65,66,62,63,118000,63
2012/12/07,63,64,62,64,62000,64
2012/12/10,65,65,63,63,57000,63
2012/12/11,63,63,62,63,53000,63
2012/12/12,63,64,62,64,97000,64
2012/12/13,64,65,63,63,87000,63
2012/12/14,64,64,63,63,62000,63
2012/12/17,64,65,63,63,97000,63
2012/12/18,63,64,63,64,120000,64
2012/12/19,65,65,63,63,98000,63
2012/12/20,63,64,63,64,123000,64
2012/12/21,64,64,63,64,169000,64
2012/12/25,64,65,63,65,195000,65
2012/12/26,65,65,64,64,93000,64
2012/12/27,66,68,65,67,289000,67
2012/12/28,68,71,68,68,333000,68
2013/01/04,70,72,70,71,196000,71
2013/01/07,72,74,71,71,202000,71
2013/01/08,73,73,69,69,179000,69
2013/01/09,68,71,67,70,261000,70
2013/01/10,71,73,71,73,228000,73
2013/01/11,73,77,73,74,418000,74
2013/01/15,76,78,75,76,304000,76
2013/01/16,77,77,72,74,266000,74
2013/01/17,72,74,71,71,140000,71
2013/01/18,73,74,73,74,86000,74
2013/01/21,74,75,71,73,206000,73
2013/01/22,74,76,70,73,348000,73
2013/01/23,73,77,70,70,525000,70
2013/01/24,71,73,71,73,183000,73
2013/01/25,74,75,74,75,261000,75
2013/01/28,76,78,75,76,199000,76
2013/01/29,75,76,74,74,128000,74
2013/01/30,73,78,71,77,808000,77
2013/01/31,78,87,76,84,2504000,84
2013/02/01,86,88,82,85,976000,85
2013/02/04,87,90,84,90,819000,90
2013/02/05,88,91,86,89,497000,89
2013/02/06,89,90,83,86,1167000,86
2013/02/07,86,86,84,86,174000,86
2013/02/08,86,86,83,84,239000,84
2013/02/12,85,85,82,83,166000,83
2013/02/13,79,80,72,76,633000,76
2013/02/14,76,76,73,76,162000,76
2013/02/15,75,75,68,72,265000,72
2013/02/18,73,74,71,73,114000,73
2013/02/19,74,76,73,76,55000,76
2013/02/20,76,76,74,76,44000,76
2013/02/21,75,76,74,76,54000,76
2013/02/22,74,76,74,76,73000,76
2013/02/25,77,77,75,77,194000,77
2013/02/26,73,76,73,75,144000,75
2013/02/27,75,76,74,75,84000,75
2013/02/28,76,76,75,76,98000,76
2013/03/01,76,76,74,76,122000,76
2013/03/04,76,76,75,76,120000,76
2013/03/05,76,77,75,77,75000,77
2013/03/06,76,77,75,76,107000,76
2013/03/07,76,77,75,77,128000,77
2013/03/08,77,77,76,76,96000,76
2013/03/11,76,79,76,78,240000,78
2013/03/12,79,82,78,81,592000,81
2013/03/13,78,81,78,80,186000,80
2013/03/14,79,82,78,81,273000,81
2013/03/15,82,82,79,80,176000,80
2013/03/18,79,79,74,76,441000,76
2013/03/19,76,78,76,78,192000,78
2013/03/21,78,79,77,78,121000,78
2013/03/22,79,83,78,80,542000,80
2013/03/25,80,85,79,85,811000,85
2013/03/26,85,87,84,87,1327000,87
2013/03/27,88,91,86,89,1600000,89
2013/03/28,88,88,82,83,841000,83
2013/03/29,84,84,82,83,174000,83
2013/04/01,90,90,85,86,978000,86
2013/04/02,83,110,80,101,7460000,101
2013/04/03,99,103,96,99,1402000,99
2013/04/04,98,105,96,98,1514000,98
2013/04/05,100,103,94,95,962000,95
2013/04/08,96,97,92,94,558000,94
2013/04/09,95,95,91,92,667000,92
2013/04/10,90,98,90,97,667000,97
2013/04/11,96,98,91,94,524000,94
2013/04/12,94,94,91,92,231000,92
2013/04/15,91,92,88,92,309000,92
2013/04/16,90,94,88,94,336000,94
2013/04/17,93,97,92,94,295000,94
2013/04/18,94,94,91,94,247000,94
2013/04/19,93,95,93,95,156000,95
2013/04/22,95,99,94,98,545000,98
2013/04/23,98,98,96,97,174000,97
2013/04/24,98,104,97,103,877000,103
2013/04/25,101,104,98,101,598000,101
2013/04/26,101,104,98,98,529000,98
2013/04/30,96,97,95,97,207000,97
2013/05/01,97,98,97,98,131000,98
2013/05/02,96,97,96,97,167000,97
2013/05/07,99,102,97,102,403000,102
2013/05/08,106,109,103,104,1120000,104
2013/05/09,104,106,103,104,335000,104
2013/05/10,104,106,102,104,358000,104
2013/05/13,104,108,103,106,504000,106
2013/05/14,106,108,104,108,454000,108
2013/05/15,108,110,101,104,851000,104
2013/05/16,106,108,98,101,810000,101
2013/05/17,101,109,100,108,1538000,108
2013/05/20,109,110,108,109,789000,109
2013/05/21,107,116,106,116,1990000,116
2013/05/22,118,129,111,127,4896000,127
2013/05/23,124,126,105,109,2155000,109
2013/05/24,113,117,96,107,1189000,107
2013/05/27,112,112,106,108,369000,108
2013/05/28,106,108,105,107,210000,107
2013/05/29,108,109,106,108,166000,108
2013/05/30,105,106,101,101,187000,101
2013/05/31,104,105,101,103,95000,103
2013/06/03,103,103,99,99,113000,99
2013/06/04,96,99,94,99,205000,99
2013/06/05,100,102,95,95,289000,95
2013/06/06,91,94,83,85,670000,85
2013/06/07,84,84,73,81,487000,81
2013/06/10,83,86,83,86,196000,86
2013/06/11,86,89,85,86,132000,86
2013/06/12,84,87,81,86,173000,86
2013/06/13,84,85,81,82,199000,82
2013/06/14,86,88,84,85,89000,85
2013/06/17,84,87,84,87,123000,87
2013/06/18,87,89,87,88,128000,88
2013/06/19,90,92,87,92,226000,92
2013/06/20,90,93,89,92,139000,92
2013/06/21,88,92,87,91,152000,91
2013/06/24,91,93,91,92,154000,92
2013/06/25,92,93,89,90,271000,90
2013/06/26,91,91,85,85,205000,85
2013/06/27,86,87,83,87,71000,87
2013/06/28,89,92,89,92,99000,92
2013/07/01,92,93,91,93,72000,93
2013/07/02,93,94,91,93,119000,93
2013/07/03,92,92,89,91,126000,91
2013/07/04,90,93,90,92,174000,92
2013/07/05,92,94,92,94,139000,94
2013/07/08,95,96,92,93,240000,93
2013/07/09,94,95,93,95,86000,95
2013/07/10,95,95,94,94,77000,94
2013/07/11,92,94,92,92,67000,92
2013/07/12,94,96,94,96,62000,96
2013/07/16,96,96,94,95,43000,95
2013/07/17,94,95,94,95,37000,95
2013/07/18,95,103,95,101,403000,101
2013/07/19,102,104,98,99,412000,99
2013/07/22,99,99,98,99,77000,99
2013/07/23,99,99,97,98,84000,98
2013/07/24,97,99,96,99,75000,99
2013/07/25,100,101,99,99,74000,99
2013/07/26,99,99,96,96,50000,96
2013/07/29,95,95,89,91,148000,91
2013/07/30,89,92,87,91,142000,91
2013/07/31,90,91,89,89,41000,89
2013/08/01,89,91,87,91,91000,91
2013/08/02,93,95,92,95,249000,95
2013/08/05,95,98,95,97,78000,97
2013/08/06,97,97,95,97,59000,97
2013/08/07,96,97,94,97,95000,97
2013/08/08,96,97,94,95,118000,95
2013/08/09,95,98,95,96,114000,96
2013/08/12,95,95,91,91,93000,91
2013/08/13,92,94,91,94,48000,94
2013/08/14,94,94,91,93,129000,93
2013/08/15,92,92,90,92,84000,92
2013/08/16,90,92,90,92,34000,92
2013/08/19,92,93,91,93,21000,93
2013/08/20,92,93,91,91,37000,91
2013/08/21,91,91,89,89,58000,89
2013/08/22,89,89,86,89,99000,89
2013/08/23,89,91,89,91,94000,91
2013/08/26,90,91,89,89,17000,89
2013/08/27,88,89,88,88,118000,88
2013/08/28,85,86,82,83,260000,83
2013/08/29,84,85,82,82,143000,82
2013/08/30,83,83,82,82,23000,82
2013/09/02,82,84,82,84,73000,84
2013/09/03,84,86,84,86,184000,86
2013/09/04,86,86,85,86,85000,86
2013/09/05,86,87,85,86,70000,86
2013/09/06,87,87,84,85,89000,85
2013/09/09,87,87,85,86,63000,86
2013/09/10,86,92,86,92,308000,92
2013/09/11,92,93,90,92,291000,92
2013/09/12,93,93,91,92,35000,92
2013/09/13,92,92,91,92,64000,92
2013/09/17,93,96,92,95,327000,95
2013/09/18,96,97,92,96,261000,96
2013/09/19,96,96,94,96,159000,96
2013/09/20,95,96,94,96,129000,96
2013/09/24,96,111,94,109,1382000,109
2013/09/25,104,106,97,97,994000,97
2013/09/26,97,103,93,103,362000,103
2013/09/27,103,116,98,105,2890000,105
2013/09/30,103,107,101,106,433000,106
2013/10/01,105,107,102,106,313000,106
2013/10/02,105,107,102,103,130000,103
2013/10/03,102,103,99,103,215000,103
2013/10/04,100,101,98,99,198000,99
2013/10/07,98,98,95,96,99000,96
2013/10/08,93,98,93,98,126000,98
2013/10/09,96,100,96,100,51000,100
2013/10/10,100,100,98,99,86000,99
2013/10/11,99,101,99,99,158000,99
2013/10/15,99,99,97,98,89000,98
2013/10/16,96,98,96,98,59000,98
2013/10/17,101,102,99,100,140000,100
2013/10/18,100,100,99,100,55000,100
2013/10/21,101,101,99,100,152000,100
2013/10/22,101,102,100,101,172000,101
2013/10/23,101,103,100,102,319000,102
2013/10/24,100,102,99,102,187000,102
2013/10/25,102,102,100,102,153000,102
2013/10/28,102,102,101,102,97000,102
2013/10/29,102,104,102,104,199000,104
2013/10/30,104,109,103,108,770000,108
2013/10/31,109,110,103,104,470000,104
2013/11/01,106,106,98,101,354000,101
2013/11/05,102,106,101,104,476000,104
2013/11/06,104,107,103,106,220000,106
2013/11/07,108,108,104,107,430000,107
2013/11/08,105,108,103,108,221000,108
2013/11/11,108,109,105,107,491000,107
2013/11/12,106,106,101,102,701000,102
2013/11/13,88,92,88,90,1786000,90
2013/11/14,91,92,91,91,437000,91
2013/11/15,92,92,91,92,287000,92
2013/11/18,93,93,92,93,268000,93
2013/11/19,93,93,91,92,174000,92
2013/11/20,92,92,91,91,159000,91
2013/11/21,92,92,91,91,266000,91
2013/11/22,91,91,90,91,270000,91
2013/11/25,91,92,89,92,262000,92
2013/11/26,91,92,90,92,90000,92
2013/11/27,92,92,91,91,82000,91
2013/11/28,92,93,91,92,125000,92
2013/11/29,92,92,91,92,112000,92
2013/12/02,92,93,92,92,66000,92
2013/12/03,93,94,92,94,169000,94
2013/12/04,93,94,92,93,281000,93
2013/12/05,93,93,91,92,137000,92
2013/12/06,92,93,91,91,77000,91
2013/12/09,92,92,91,92,105000,92
2013/12/10,92,93,92,92,60000,92
2013/12/11,92,93,91,93,47000,93
2013/12/12,92,92,91,92,127000,92
2013/12/13,91,92,90,90,156000,90
2013/12/16,90,91,89,90,96000,90
2013/12/17,90,90,89,89,122000,89
2013/12/18,88,89,88,88,147000,88
2013/12/19,89,90,88,88,235000,88
2013/12/20,88,89,87,88,73000,88
2013/12/24,88,88,85,85,611000,85
2013/12/25,84,88,84,87,461000,87
2013/12/26,87,89,87,89,61000,89
2013/12/27,89,90,89,89,100000,89
2013/12/30,90,92,90,91,74000,91
2014/01/06,92,92,91,92,134000,92
2014/01/07,93,93,91,91,322000,91
2014/01/08,91,95,91,94,370000,94
2014/01/09,95,97,95,95,300000,95
2014/01/10,97,101,97,100,759000,100
2014/01/14,99,99,96,98,420000,98
2014/01/15,98,101,97,100,386000,100
2014/01/16,101,102,99,100,401000,100
2014/01/17,100,100,98,100,64000,100
2014/01/20,100,102,99,102,327000,102
2014/01/21,103,103,101,101,212000,101
2014/01/22,101,101,99,100,231000,100
2014/01/23,100,101,97,97,186000,97
2014/01/24,98,98,97,97,80000,97
2014/01/27,93,93,90,91,474000,91
2014/01/28,91,93,91,92,67000,92
2014/01/29,93,96,93,96,106000,96
2014/01/30,94,94,88,89,412000,89
2014/01/31,91,91,88,89,168000,89
2014/02/03,88,88,85,85,154000,85
2014/02/04,76,80,75,77,473000,77
2014/02/05,82,83,80,81,91000,81
2014/02/06,79,83,79,83,176000,83
2014/02/07,84,93,84,87,318000,87
2014/02/10,91,91,88,90,72000,90
2014/02/12,91,91,88,88,79000,88
2014/02/13,87,88,86,87,65000,87
2014/02/14,85,85,82,82,214000,82
2014/02/17,82,83,81,83,61000,83
2014/02/18,83,85,83,85,44000,85
2014/02/19,85,85,84,84,47000,84
2014/02/20,84,84,82,82,37000,82
2014/02/21,82,84,82,84,76000,84
2014/02/24,84,85,84,84,20000,84
2014/02/25,85,86,84,84,20000,84
2014/02/26,85,86,84,85,34000,85
2014/02/27,86,86,84,86,21000,86
2014/02/28,86,86,83,84,16000,84
2014/03/03,82,84,82,83,51000,83
2014/03/04,81,84,81,84,30000,84
2014/03/05,85,85,84,85,16000,85
2014/03/06,84,85,83,85,40000,85
2014/03/07,86,86,84,84,36000,84
2014/03/10,85,86,83,83,64000,83
2014/03/11,83,85,83,84,157000,84
2014/03/12,84,86,83,86,39000,86
2014/03/13,86,87,83,83,66000,83
2014/03/14,84,94,84,90,1164000,90
2014/03/17,89,90,86,86,232000,86
2014/03/18,87,89,87,87,87000,87
2014/03/19,88,88,84,84,125000,84
2014/03/20,85,85,81,82,186000,82
2014/03/24,82,82,81,81,132000,81
2014/03/25,82,82,81,82,38000,82
2014/03/26,81,81,78,78,232000,78
2014/03/27,77,80,77,80,74000,80
2014/03/28,80,82,80,82,40000,82
2014/03/31,82,83,81,83,53000,83
2014/04/01,82,82,81,82,25000,82
2014/04/02,83,83,82,83,79000,83
2014/04/03,84,85,83,83,30000,83
2014/04/04,84,85,82,83,54000,83
2014/04/07,82,82,80,80,38000,80
2014/04/08,80,82,80,82,42000,82
2014/04/09,81,81,79,79,99000,79
2014/04/10,80,81,78,78,111000,78
2014/04/11,77,80,76,80,77000,80
2014/04/14,79,80,77,79,38000,79
2014/04/15,80,80,80,80,8000,80
2014/04/16,80,80,79,80,21000,80
2014/04/17,80,81,79,81,9000,81
2014/04/18,81,81,80,81,28000,81
2014/04/21,80,81,80,80,25000,80
2014/04/22,80,80,79,79,32000,79
2014/04/23,78,79,78,78,25000,78
2014/04/24,79,79,78,78,44000,78
2014/04/25,78,79,78,78,10000,78
2014/04/28,77,78,77,78,70000,78
2014/04/30,78,78,77,77,34000,77
2014/05/01,77,79,77,78,17000,78
2014/05/02,78,79,77,79,12000,79
2014/05/07,78,78,77,77,40000,77
2014/05/08,77,77,76,77,55000,77
2014/05/09,77,77,77,77,18000,77
2014/05/12,78,78,77,77,40000,77
2014/05/13,76,76,76,76,36000,76
2014/05/14,76,79,76,78,95000,78
2014/05/15,78,78,78,78,45000,78
2014/05/16,77,78,77,77,28000,77
2014/05/19,77,78,72,73,130000,73
2014/05/20,71,71,69,71,106000,71
2014/05/21,70,71,69,71,111000,71
2014/05/22,72,75,72,73,31000,73
2014/05/23,74,75,74,75,4000,75
2014/05/26,75,75,74,75,21000,75
2014/05/27,75,76,74,75,32000,75
2014/05/28,75,76,74,76,98000,76
2014/05/29,76,77,76,77,6000,77
2014/05/30,77,77,76,76,38000,76
2014/06/02,77,77,76,77,22000,77
2014/06/03,78,79,78,78,20000,78
2014/06/04,78,78,78,78,12000,78
2014/06/05,78,78,77,78,28000,78
2014/06/06,78,78,78,78,18000,78
2014/06/09,79,80,77,79,55000,79
2014/06/10,79,82,78,79,90000,79
2014/06/11,79,81,78,81,39000,81
2014/06/12,81,82,79,81,113000,81
2014/06/13,80,81,79,81,44000,81
2014/06/16,82,83,80,81,86000,81
2014/06/17,81,81,79,80,59000,80
2014/06/18,79,81,79,81,38000,81
2014/06/19,81,83,81,82,58000,82
2014/06/20,81,82,81,82,281000,82
2014/06/23,83,83,81,81,92000,81
2014/06/24,81,81,80,81,32000,81
2014/06/25,82,82,81,81,32000,81
2014/06/26,82,85,81,84,155000,84
2014/06/27,84,84,81,81,133000,81
2014/06/30,82,83,82,82,23000,82
2014/07/01,83,84,82,84,42000,84
2014/07/02,84,86,83,86,192000,86
2014/07/03,86,87,86,86,71000,86
2014/07/04,86,87,85,86,91000,86
2014/07/07,87,91,87,91,247000,91
2014/07/08,91,93,88,93,382000,93
2014/07/09,91,92,89,92,124000,92
2014/07/10,92,96,91,94,270000,94
2014/07/11,91,93,90,91,147000,91
2014/07/14,91,93,91,92,109000,92
2014/07/15,93,94,92,92,91000,92
2014/07/16,93,93,92,93,53000,93
2014/07/17,93,93,89,90,159000,90
2014/07/18,88,88,84,85,267000,85
2014/07/22,86,88,86,88,71000,88
2014/07/23,88,90,88,90,43000,90
2014/07/24,90,92,89,92,94000,92
2014/07/25,92,93,91,93,67000,93
2014/07/28,93,93,91,93,65000,93
2014/07/29,93,93,90,91,138000,91
2014/07/30,91,91,89,90,80000,90
2014/07/31,90,92,90,91,58000,91
2014/08/01,90,90,89,90,34000,90
2014/08/04,90,90,88,89,26000,89
2014/08/05,88,89,87,89,70000,89
2014/08/06,88,88,86,87,65000,87
2014/08/07,86,86,85,86,78000,86
2014/08/08,86,86,83,84,124000,84
2014/08/11,86,87,86,87,21000,87
2014/08/12,88,93,88,88,169000,88
2014/08/13,88,89,88,89,43000,89
2014/08/14,89,90,89,90,28000,90
2014/08/15,90,90,89,89,51000,89
2014/08/18,89,93,89,91,92000,91
2014/08/19,90,91,87,91,181000,91
2014/08/20,90,91,89,91,35000,91
2014/08/21,89,91,89,91,39000,91
2014/08/22,90,92,89,91,70000,91
2014/08/25,90,90,89,90,35000,90
2014/08/26,90,91,89,89,80000,89
2014/08/27,90,90,88,89,25000,89
2014/08/28,89,90,88,88,33000,88
2014/08/29,89,89,88,89,21000,89
2014/09/01,88,91,88,91,127000,91
2014/09/02,91,92,91,91,81000,91
2014/09/03,92,92,91,91,18000,91
2014/09/04,91,92,90,91,26000,91
2014/09/05,91,91,90,90,54000,90
2014/09/08,90,90,89,90,46000,90
2014/09/09,90,92,90,91,70000,91
2014/09/10,90,92,89,91,76000,91
2014/09/11,92,92,91,91,73000,91
2014/09/12,91,91,89,90,130000,90
2014/09/16,90,91,90,90,32000,90
2014/09/17,90,91,90,91,56000,91
2014/09/18,91,91,90,90,86000,90
2014/09/19,90,90,89,90,53000,90
2014/09/22,91,91,89,90,74000,90
2014/09/24,90,90,90,90,15000,90
2014/09/25,90,90,89,90,32000,90
2014/09/26,90,90,89,90,53000,90
2014/09/29,91,91,90,90,33000,90
2014/09/30,91,91,90,90,24000,90
2014/10/01,89,90,88,90,91000,90
2014/10/02,88,89,87,87,146000,87
2014/10/03,86,89,86,89,43000,89
2014/10/06,88,90,88,90,20000,90
2014/10/07,90,90,88,88,47000,88
2014/10/08,87,87,87,87,12000,87
2014/10/09,88,88,85,85,52000,85
2014/10/10,84,85,81,85,93000,85
2014/10/14,81,84,81,83,36000,83
2014/10/15,82,84,81,81,34000,81
2014/10/16,80,81,79,80,35000,80
2014/10/17,80,82,80,80,40000,80
2014/10/20,81,83,81,83,43000,83
2014/10/21,82,83,80,80,43000,80
2014/10/22,81,83,80,83,19000,83
2014/10/23,82,82,81,81,19000,81
2014/10/24,82,82,82,82,11000,82
2014/10/27,83,83,82,83,27000,83
2014/10/28,83,83,83,83,4000,83
2014/10/29,84,84,84,84,7000,84
2014/10/30,84,84,84,84,10000,84
2014/10/31,83,85,82,85,38000,85
2014/11/04,87,87,85,86,97000,86
2014/11/05,86,86,85,85,16000,85
2014/11/06,85,86,84,86,60000,86
2014/11/07,85,86,85,86,13000,86
2014/11/10,85,86,84,86,8000,86
2014/11/11,86,86,85,86,49000,86
2014/11/12,86,86,85,85,20000,85
2014/11/13,86,88,84,87,60000,87
2014/11/14,83,83,81,82,186000,82
2014/11/17,82,83,82,82,29000,82
2014/11/18,82,86,81,84,28000,84
2014/11/19,85,86,83,85,40000,85
2014/11/20,84,84,82,83,43000,83
2014/11/21,83,83,83,83,19000,83
2014/11/25,83,84,81,81,79000,81
2014/11/26,82,83,82,83,79000,83
2014/11/27,82,84,82,83,99000,83
2014/11/28,83,86,83,86,129000,86
2014/12/01,85,87,85,87,48000,87
2014/12/02,86,87,85,86,41000,86
2014/12/03,86,86,86,86,33000,86
2014/12/04,85,88,85,86,64000,86
2014/12/05,86,87,85,87,17000,87
2014/12/08,86,89,86,89,122000,89
2014/12/09,87,89,87,87,47000,87
2014/12/10,86,86,83,84,120000,84
2014/12/11,82,84,82,84,40000,84
2014/12/12,84,84,83,84,25000,84
2014/12/15,83,83,82,83,10000,83
2014/12/16,82,82,80,80,92000,80
2014/12/17,81,81,80,81,24000,81
2014/12/18,82,82,80,81,287000,81
2014/12/19,81,82,81,82,26000,82
2014/12/22,81,82,81,82,40000,82
2014/12/24,81,81,80,80,74000,80
2014/12/25,80,81,77,77,250000,77
2014/12/26,78,80,78,80,25000,80
2014/12/29,81,81,80,80,79000,80
2014/12/30,81,81,81,81,35000,81
2015/01/05,81,82,81,82,71000,82
2015/01/06,81,82,80,81,52000,81
2015/01/07,80,80,79,80,45000,80
2015/01/08,79,81,79,80,106000,80
2015/01/09,81,81,79,79,54000,79
2015/01/13,79,79,78,79,17000,79
2015/01/14,78,80,78,80,45000,80
2015/01/15,78,79,78,79,14000,79
2015/01/16,79,81,78,80,31000,80
2015/01/19,80,80,79,80,3000,80
2015/01/20,79,80,79,80,10000,80
2015/01/21,79,79,78,79,9000,79
2015/01/22,79,82,78,82,96000,82
2015/01/23,81,82,80,82,68000,82
2015/01/26,81,81,80,80,68000,80
2015/01/27,80,82,80,81,72000,81
2015/01/28,80,82,80,82,26000,82
2015/01/29,81,82,80,80,36000,80
2015/01/30,80,81,80,81,24000,81
2015/02/02,80,80,79,79,17000,79
2015/02/03,79,79,78,79,24000,79
2015/02/04,79,80,79,80,7000,80
2015/02/05,80,80,79,80,37000,80
2015/02/06,79,80,79,80,35000,80
2015/02/09,80,80,79,80,14000,80
2015/02/10,79,80,79,79,20000,79
2015/02/12,80,80,79,80,74000,80
2015/02/13,79,80,78,80,76000,80
2015/02/16,79,79,78,79,34000,79
2015/02/17,79,79,78,79,16000,79
2015/02/18,79,79,78,79,107000,79
2015/02/19,79,79,78,79,31000,79
2015/02/20,79,79,79,79,12000,79
2015/02/23,80,80,79,79,116000,79
2015/02/24,79,80,79,79,24000,79
2015/02/25,79,85,79,83,727000,83
2015/02/26,84,84,81,82,79000,82
2015/02/27,82,82,81,81,68000,81
2015/03/02,80,87,80,87,752000,87
2015/03/03,85,105,84,94,12741000,94
2015/03/04,91,92,84,85,2170000,85
2015/03/05,86,106,85,100,10389000,100
2015/03/06,93,97,85,86,2391000,86
2015/03/09,86,87,83,84,1176000,84
2015/03/10,85,87,83,85,696000,85
2015/03/11,85,89,83,85,1065000,85
2015/03/12,85,87,84,84,606000,84
2015/03/13,86,86,84,84,412000,84
2015/03/16,85,85,82,84,469000,84
2015/03/17,84,85,83,84,220000,84
2015/03/18,84,84,81,82,200000,82
2015/03/19,81,84,81,82,308000,82
2015/03/20,81,83,81,82,136000,82
2015/03/23,84,85,82,84,172000,84
2015/03/24,84,84,82,82,155000,82
2015/03/25,83,85,83,83,145000,83
2015/03/26,83,83,81,82,146000,82
2015/03/27,82,82,81,81,71000,81
2015/03/30,81,81,80,80,35000,80
2015/03/31,81,82,80,82,51000,82
2015/04/01,81,82,80,80,111000,80
2015/04/02,81,82,80,81,69000,81
2015/04/03,83,85,82,83,239000,83
2015/04/06,85,85,82,82,60000,82
2015/04/07,82,89,82,84,902000,84
2015/04/08,85,87,84,84,231000,84
2015/04/09,84,85,84,84,76000,84
2015/04/10,84,86,84,85,152000,85
2015/04/13,85,87,85,87,192000,87
2015/04/14,86,90,86,90,468000,90
2015/04/15,90,91,86,87,675000,87
2015/04/16,87,88,85,85,137000,85
2015/04/17,86,86,84,84,55000,84
2015/04/20,84,85,83,85,136000,85
2015/04/21,85,85,84,85,59000,85
2015/04/22,84,85,84,84,58000,84
2015/04/23,85,85,84,85,109000,85
2015/04/24,85,85,84,84,51000,84
2015/04/27,84,84,83,83,176000,83
2015/04/28,83,83,82,83,160000,83
2015/04/30,83,83,82,82,98000,82
2015/05/01,82,82,82,82,45000,82
2015/05/07,81,82,81,82,50000,82
2015/05/08,83,85,83,83,86000,83
2015/05/11,84,85,83,85,32000,85
2015/05/12,84,85,83,85,55000,85
2015/05/13,84,85,84,85,34000,85
2015/05/14,85,85,83,84,64000,84
2015/05/15,84,84,83,83,64000,83
2015/05/18,82,83,82,83,30000,83
2015/05/19,82,84,82,84,31000,84
2015/05/20,84,84,83,84,64000,84
2015/05/21,84,85,82,82,64000,82
2015/05/22,83,88,82,88,861000,88
2015/05/25,89,106,89,102,11676000,102
2015/05/26,103,104,95,100,2103000,100
2015/05/27,97,98,92,96,1220000,96
2015/05/28,100,100,89,93,1462000,93
2015/05/29,93,94,91,92,413000,92
2015/06/01,92,94,92,93,160000,93
2015/06/02,93,96,90,96,783000,96
2015/06/03,93,97,92,96,817000,96
2015/06/04,95,98,93,97,828000,97
2015/06/05,95,98,95,97,276000,97
2015/06/08,97,98,96,98,312000,98
2015/06/09,97,99,93,98,1079000,98
2015/06/10,97,100,96,97,468000,97
2015/06/11,96,98,95,97,247000,97
2015/06/12,96,97,95,96,109000,96
2015/06/15,95,95,93,94,147000,94
2015/06/16,94,95,90,90,637000,90
2015/06/17,91,94,90,92,333000,92
2015/06/18,92,92,91,91,86000,91
2015/06/19,92,92,91,91,47000,91
2015/06/22,91,92,91,92,36000,92
2015/06/23,91,94,89,92,359000,92
2015/06/24,91,102,91,94,2248000,94
2015/06/25,93,96,93,94,313000,94
2015/06/26,94,94,92,92,285000,92
2015/06/29,89,90,87,88,447000,88
2015/06/30,89,89,87,87,147000,87
2015/07/01,88,90,87,90,66000,90
2015/07/02,91,91,88,89,101000,89
2015/07/03,88,89,87,88,44000,88
2015/07/06,87,87,86,87,40000,87
2015/07/07,88,89,88,89,72000,89
2015/07/08,90,90,86,86,210000,86
2015/07/09,84,85,79,84,302000,84
2015/07/10,85,86,84,84,39000,84
2015/07/13,84,86,84,85,52000,85
2015/07/14,87,88,85,87,135000,87
2015/07/15,87,91,86,91,123000,91
2015/07/16,91,92,88,89,251000,89
2015/07/17,89,89,86,87,285000,87
2015/07/21,88,89,87,88,90000,88
2015/07/22,88,90,87,90,124000,90
2015/07/23,90,92,89,92,320000,92
2015/07/24,92,100,92,94,1255000,94
2015/07/27,93,93,91,92,242000,92
2015/07/28,90,92,89,90,208000,90
2015/07/29,90,90,88,89,113000,89
2015/07/30,89,94,88,92,707000,92
2015/07/31,93,106,92,92,6089000,92
2015/08/03,94,94,89,90,794000,90
2015/08/04,90,95,90,92,418000,92
2015/08/05,92,94,91,93,155000,93
2015/08/06,95,97,93,93,394000,93
2015/08/07,93,95,92,92,153000,92
2015/08/10,93,97,93,93,369000,93
2015/08/11,94,95,92,94,229000,94
2015/08/12,94,96,90,91,478000,91
2015/08/13,88,88,85,87,568000,87
2015/08/14,87,88,85,85,423000,85
2015/08/17,85,86,84,84,229000,84
2015/08/18,85,86,84,86,108000,86
2015/08/19,87,87,85,86,133000,86
2015/08/20,86,86,84,84,211000,84
2015/08/21,83,83,80,81,365000,81
2015/08/24,81,82,74,80,461000,80
2015/08/25,70,80,69,72,462000,72
2015/08/26,73,76,72,76,205000,76
2015/08/27,78,80,76,78,237000,78
2015/08/28,80,84,80,83,166000,83
2015/08/31,84,84,82,84,120000,84
2015/09/01,84,84,82,83,97000,83
2015/09/02,80,82,80,81,115000,81
2015/09/03,85,87,83,85,360000,85
2015/09/04,86,86,77,80,308000,80
2015/09/07,78,80,77,79,48000,79
2015/09/08,83,83,80,80,38000,80
2015/09/09,83,83,80,82,96000,82
2015/09/10,82,83,81,81,36000,81
2015/09/11,82,83,81,81,61000,81
2015/09/14,83,83,80,81,63000,81
2015/09/15,82,82,81,82,11000,82
2015/09/16,83,83,81,83,45000,83
2015/09/17,83,83,79,80,357000,80
2015/09/18,80,80,78,78,39000,78
2015/09/24,78,78,77,77,48000,77
2015/09/25,77,79,77,78,52000,78
2015/09/28,80,80,78,79,14000,79
2015/09/29,78,78,76,76,33000,76
2015/09/30,78,78,77,78,11000,78
2015/10/01,79,79,77,79,42000,79
2015/10/02,79,80,78,80,27000,80
2015/10/05,80,81,80,81,43000,81
2015/10/06,82,84,81,82,70000,82
2015/10/07,82,83,81,83,53000,83
2015/10/08,83,87,82,84,133000,84
2015/10/09,83,84,82,84,40000,84
2015/10/13,85,85,84,85,34000,85
2015/10/14,85,85,83,84,16000,84
2015/10/15,85,85,84,84,16000,84
2015/10/16,84,84,82,84,96000,84
