2010/01/04,10600,11200,10000,11100,110,111
2010/01/06,10350,11000,10350,11000,47,110
2010/01/13,10890,10890,10310,10600,10,106
2010/01/14,10500,10900,10500,10900,33,109
2010/01/15,11000,11150,10410,11100,53,111
2010/01/18,11110,11110,10580,10900,25,109
2010/01/20,10640,11200,10400,10400,72,104
2010/01/22,10060,10400,10000,10300,154,103
2010/01/26,10020,10500,9900,10500,179,105
2010/02/08,10230,10700,10160,10700,80,107
2010/02/09,10360,10360,10150,10200,49,102
2010/02/16,10200,10200,10020,10200,25,102
2010/02/22,10640,10640,10260,10600,31,106
2010/02/23,10570,10570,10490,10500,28,105
2010/02/24,10490,10500,9800,10500,60,105
2010/02/25,10400,10540,10400,10500,13,105
2010/03/12,10430,10600,10210,10600,52,106
2010/03/15,10350,10800,10350,10800,66,108
2010/03/16,10890,10980,10600,10900,22,109
2010/04/02,11640,11960,11600,11600,39,116
2010/04/05,11330,12490,11310,12400,145,124
2010/04/06,12400,12630,12200,12300,272,123
2010/04/08,12420,13300,12400,12900,229,129
2010/04/13,13170,13500,13030,13500,69,135
2010/04/16,13460,14300,13400,14100,335,141
2010/04/19,13500,14320,12900,14200,183,142
2010/04/21,14010,14010,13320,13400,88,134
2010/04/23,14000,14000,13550,14000,185,140
2010/04/28,15800,16990,15160,16300,440,163
2010/04/30,15800,15800,15300,15600,126,156
2010/05/06,15000,15000,14100,14400,199,144
2010/05/07,14500,14500,12400,13500,152,135
2010/05/10,13380,14000,13380,13700,135,137
2010/05/13,14000,14000,12860,13800,32,138
2010/05/14,13350,13800,13000,13800,24,138
2010/05/19,10620,13430,10620,13000,1028,130
2010/05/20,12400,12980,11000,12400,299,124
2010/05/24,10800,11000,9900,10400,778,104
2010/05/27,10000,10590,9990,10000,139,100
2010/05/28,10270,10800,9910,10000,260,100
2010/06/01,10820,11400,10820,11200,196,112
2010/06/02,11190,11190,10020,10800,120,108
2010/06/04,10300,11330,10300,10600,158,106
2010/06/08,10130,10900,10050,10700,203,107
2010/06/09,10550,10630,10500,10500,129,105
2010/06/22,11130,11800,11110,11800,95,118
2010/06/23,11790,11790,10820,11500,153,115
2010/07/02,11000,11000,10790,10800,10,108
2010/07/08,10800,10800,10540,10800,25,108
2010/07/14,10800,11100,10800,11000,51,110
2010/07/15,11240,11400,10550,10900,41,109
2010/07/21,10430,10500,10300,10500,20,105
2010/07/28,10370,10400,10350,10400,18,104
2010/07/29,10590,10650,10490,10600,19,106
2010/08/04,10240,10480,10200,10200,13,102
2010/08/10,10800,13000,10790,12000,529,120
2010/08/20,10710,10940,10600,10700,48,107
2010/08/27,10000,10490,9990,10400,117,104
2010/08/30,10500,10500,10200,10400,47,104
2010/08/31,10020,10500,9990,10500,75,105
2010/09/02,10450,11500,10450,11400,54,114
2010/09/07,10410,10700,10410,10700,21,107
2010/09/09,10270,10790,10260,10700,48,107
2010/09/10,10700,11500,10670,11000,129,110
2010/09/14,11020,11080,10850,10900,26,109
2010/09/15,11000,11300,10710,11300,36,113
2010/09/28,11000,11300,11000,11300,14,113
2010/09/29,11500,11500,11020,11300,9,113
2010/10/01,11010,11400,11010,11100,40,111
2010/10/04,11100,11500,11010,11300,88,113
2010/10/05,11000,11000,10700,11000,282,110
2010/10/06,11100,11200,10860,11000,28,110
2010/10/07,11160,11160,10700,11100,58,111
2010/10/08,10850,11100,10850,11100,8,111
2010/10/13,10990,11050,10810,11000,47,110
2010/10/20,10650,10650,10300,10400,34,104
2010/10/27,10750,11200,10750,11200,113,112
2010/10/28,10900,11100,10900,11100,12,111
2010/10/29,11100,11100,10900,11100,73,111
2010/11/01,10900,11000,10860,11000,28,110
2010/11/08,10990,11800,10990,11700,80,117
2010/11/10,11600,11700,11160,11700,36,117
2010/11/11,11680,12600,11500,12500,162,125
2010/11/12,12450,12500,12200,12500,77,125
2010/11/18,12280,12630,11920,12500,40,125
2010/11/19,12800,12800,12110,12600,75,126
2010/11/24,12000,12320,11900,12000,121,120
2010/11/25,11800,12450,11800,11900,58,119
2010/11/26,11900,12200,11900,12200,26,122
2010/11/29,12000,12100,12000,12100,14,121
2010/11/30,12000,12000,11550,11700,66,117
2010/12/02,11700,12000,11620,11800,37,118
2010/12/10,31300,31300,31300,31300,967,313
2010/12/13,38300,38300,38000,38300,1937,383
2010/12/20,53500,53500,53500,53500,195,535
2010/12/21,57000,63500,48450,53900,18321,539
2010/12/22,53000,63000,52500,63000,10143,630
2010/12/24,65500,67400,59000,61200,9508,612
2010/12/27,59200,62200,53500,56000,5244,560
2010/12/28,54000,57500,53800,55600,3112,556
2010/12/29,54600,54900,49950,51500,4252,515
2011/01/04,52000,55100,51300,55100,4584,551
2011/01/05,57100,58300,52000,52500,7379,525
2011/01/06,52000,53300,48700,50600,2877,506
2011/01/07,48900,49950,48100,49200,1994,492
2011/01/11,47850,48000,46450,46500,1918,465
2011/01/12,48500,53500,47550,48800,10474,488
2011/01/13,47400,52000,46650,48500,3032,485
2011/01/14,47800,51000,47800,48000,1625,480
2011/01/17,49000,50100,48000,50000,988,500
2011/01/19,48500,49000,47000,47500,1049,475
2011/01/24,42150,44200,41900,43000,727,430
2011/01/25,42050,47400,42050,44700,1366,447
2011/01/28,45900,47500,42000,43000,1482,430
2011/01/31,42000,44000,42000,43000,385,430
2011/02/01,43000,44650,42900,42900,409,429
2011/02/02,42900,46800,42100,46300,937,463
2011/02/04,52800,52800,47750,48000,5748,480
2011/02/07,47800,47800,45350,45900,1168,459
2011/02/09,46000,46400,44000,45000,669,450
2011/02/10,41500,42500,40100,41200,1927,412
2011/02/14,42600,42600,40500,42000,782,420
2011/02/15,41050,41850,40650,41100,478,411
2011/02/18,44000,44000,42000,42400,519,424
2011/02/21,41000,42100,40800,42000,524,420
2011/02/22,41350,41750,39700,39700,687,397
2011/02/24,37200,37900,35100,35100,1362,351
2011/02/25,35100,38600,35100,37400,868,374
2011/02/28,36750,39700,36500,38800,739,388
2011/03/02,37800,38650,37050,37100,349,371
2011/03/03,37400,38000,37100,38000,260,380
2011/03/04,39400,39500,37100,37100,482,371
2011/03/07,36700,39100,36700,38900,596,389
2011/03/09,39950,40800,38850,39000,440,390
2011/03/11,34950,37100,34450,34600,243,346
2011/03/14,27600,27600,27600,27600,99,276
2011/03/15,22600,22600,22600,22600,45,226
2011/03/17,18000,20540,17600,19500,1640,195
2011/03/18,23500,23500,23500,23500,221,235
2011/03/22,28500,28500,28500,28500,123,285
2011/03/23,30000,33500,29100,32000,4217,320
2011/03/24,30600,32650,29000,30000,1744,300
2011/03/25,30100,30800,28230,28900,502,289
2011/03/28,28500,28500,26080,26200,559,262
2011/03/30,26700,30650,26700,28800,485,288
2011/04/01,28550,29200,28500,28700,175,287
2011/04/04,28500,28790,28000,28000,244,280
2011/04/05,27500,27600,25000,26000,401,260
2011/04/06,25800,26500,25000,25700,91,257
2011/04/07,25200,27000,25200,25200,109,252
2011/04/08,25480,26100,25000,26100,84,261
2011/04/11,25750,28100,25550,27000,191,270
2011/04/12,26000,26600,25610,26300,186,263
2011/04/18,29030,29340,28180,29000,185,290
2011/04/20,27700,28670,27700,28500,182,285
2011/04/21,29000,29210,28000,29000,161,290
2011/04/26,27930,28660,27600,27700,182,277
2011/04/27,27500,27860,26500,27200,197,272
2011/05/02,27790,29000,27550,28600,180,286
2011/05/06,27900,28450,27300,28300,256,283
2011/05/10,30000,34800,29950,34800,4218,348
2011/05/12,34950,35000,33750,34100,422,341
2011/05/13,34000,34000,30800,30900,501,309
2011/05/16,27500,29500,27500,28000,478,280
2011/05/17,28100,28500,27050,28000,224,280
2011/05/19,28100,29300,28000,28400,183,284
2011/05/23,26900,27400,25010,26500,504,265
2011/05/26,25210,27600,25210,26500,220,265
2011/05/30,25440,25690,25100,25600,292,256
2011/06/01,25800,26000,25460,25500,160,255
2011/06/02,25210,25460,25140,25300,130,253
2011/06/03,25800,25800,25140,25300,180,253
2011/06/08,24050,24200,23400,24100,100,241
2011/06/09,24000,24220,23680,24000,99,240
2011/06/10,24100,24250,23800,24000,74,240
2011/06/14,23550,24000,23230,24000,64,240
2011/06/16,24000,24000,23500,23600,99,236
2011/07/04,29400,32300,29000,29100,2807,291
2011/07/06,28050,28050,26100,27000,175,270
2011/07/08,26700,27850,26500,26600,167,266
2011/07/11,26900,27500,26300,27000,69,270
2011/07/12,26520,27500,26300,27500,147,275
2011/07/15,27000,27500,26900,27500,95,275
2011/07/22,27030,27450,27000,27400,58,274
2011/07/25,27040,27100,26900,27100,40,271
2011/07/28,26690,27000,25600,26700,181,267
2011/07/29,26850,26850,24960,26000,212,260
2011/08/02,25100,25480,25000,25000,57,250
2011/08/03,24500,24650,23000,24000,354,240
2011/08/04,24000,26490,24000,25600,163,256
2011/08/05,23040,24000,22600,24000,256,240
2011/08/08,23300,23500,22200,22400,87,224
2011/08/09,20010,22900,20000,22900,253,229
2011/08/10,23000,23600,22600,23500,85,235
2011/08/11,22650,23900,22300,23200,86,232
2011/08/12,24600,25100,22600,23700,242,237
2011/08/19,24800,24900,24040,24700,202,247
2011/08/22,23810,24300,23800,23800,136,238
2011/08/23,23900,23900,22500,23800,215,238
2011/08/24,24800,24900,23500,24000,141,240
2011/08/26,23120,24000,23120,23800,40,238
2011/08/29,24100,24500,23950,24200,42,242
2011/09/02,24350,25000,24000,24400,133,244
2011/09/07,23150,24400,23150,23800,125,238
2011/09/08,23910,24250,23000,23500,96,235
2011/09/09,23010,23500,23000,23200,65,232
2011/09/12,22200,22700,21500,22000,242,220
2011/09/13,22000,22600,21500,21800,56,218
2011/09/15,22300,23340,21510,22300,240,223
2011/09/22,20960,20960,19610,20400,415,204
2011/09/26,20500,20500,18370,18600,289,186
2011/09/28,19000,20500,19000,19500,60,195
2011/09/29,19200,19600,19000,19500,60,195
2011/10/03,20000,20000,19020,19700,29,197
2011/10/05,20390,20390,19000,19000,48,190
2011/10/06,19050,19450,17600,18100,310,181
2011/10/07,18900,18900,18000,18200,170,182
2011/10/12,19000,20250,18810,19900,159,199
2011/10/14,20000,20430,19700,20000,81,200
2011/10/18,19700,19760,19200,19600,58,196
2011/10/20,19390,19650,19180,19200,26,192
2011/10/21,19200,19950,18800,19300,105,193
2011/10/25,20550,23990,20300,22600,770,226
2011/10/27,21510,22000,21170,21600,97,216
2011/10/28,21650,21800,21400,21800,45,218
2011/11/02,23130,23790,22600,23500,302,235
2011/11/04,23500,24500,23040,24400,262,244
2011/11/14,20800,20800,20150,20500,47,205
2011/11/18,20140,20900,19800,20900,61,209
2011/11/21,20500,20900,20020,20900,58,209
2011/11/25,19700,20260,19700,20100,30,201
2011/11/28,20380,21000,20380,20900,64,209
2011/12/02,20450,21600,20450,21400,88,214
2011/12/06,21990,22410,21850,21900,97,219
2011/12/13,25590,26200,24010,25700,413,257
2011/12/14,25850,25850,23600,24200,237,242
2011/12/16,23540,24300,22900,23600,76,236
2011/12/19,23500,23500,22000,22900,168,229
2011/12/20,23250,24100,22800,24100,103,241
2011/12/27,24500,24500,23800,24400,32,244
2011/12/30,24490,25000,24150,24700,111,247
2012/01/06,26400,27480,24600,26400,287,264
2012/01/11,26150,26500,25600,25600,103,256
2012/01/12,26000,26400,25760,25800,119,258
2012/01/13,25900,26000,25120,25800,114,258
2012/01/16,26380,26380,25050,25800,153,258
2012/01/17,25800,26180,25520,26000,49,260
2012/01/18,26000,26300,25900,26300,160,263
2012/01/19,26500,28000,26150,28000,437,280
2012/01/20,27990,27990,26900,27800,643,278
2012/01/23,27800,28050,27010,27300,213,273
2012/01/25,27500,28980,27220,28100,245,281
2012/01/26,28700,28700,27500,28200,180,282
2012/01/27,28300,28300,27500,27500,156,275
2012/01/30,28000,32400,27900,30900,1572,309
2012/02/01,35250,36900,33500,33600,992,336
2012/02/02,33000,35000,32400,34500,704,345
2012/02/03,35000,41150,35000,37300,3116,373
2012/02/06,41500,43950,39000,39000,3443,390
2012/02/07,38200,38450,36050,36600,1069,366
2012/02/08,35200,36750,34300,35100,944,351
2012/02/14,35000,35750,34100,34400,602,344
2012/02/16,34400,34400,33000,33400,341,334
2012/02/20,33500,33950,32500,32900,339,329
2012/02/22,31700,36900,31700,36500,1563,365
2012/02/27,34550,35350,34300,34800,271,348
2012/02/29,35800,35800,34600,35300,240,353
2012/03/01,35350,35800,34400,35100,161,351
2012/03/02,35550,35550,33900,35000,193,350
2012/03/05,34600,36300,34600,35800,647,358
2012/03/06,35950,36000,34950,35900,185,359
2012/03/07,34750,35450,34700,34900,110,349
2012/03/08,35000,35500,34950,35300,42,353
2012/03/09,35300,35750,35100,35600,119,356
2012/03/12,36200,36300,35200,35800,171,358
2012/03/14,36000,36150,35500,35600,385,356
2012/03/15,35750,36100,35050,35800,266,358
2012/03/21,39200,39350,37150,38900,534,389
2012/03/26,37500,37500,36000,36100,221,361
2012/03/27,36100,37300,36100,36800,64,368
2012/03/28,36950,36950,36250,36300,103,363
2012/03/29,36350,36950,36000,36300,151,363
2012/04/02,37850,39900,37350,38800,436,388
2012/04/03,39000,39500,38800,39000,261,390
2012/04/04,39000,39100,37550,38100,225,381
2012/04/05,37500,38500,37300,38500,198,385
2012/04/06,38500,41800,38500,41000,969,410
2012/04/09,42200,42400,40800,41500,535,415
2012/04/10,41100,41500,40200,41100,251,411
2012/04/11,40000,45200,39200,45200,1329,452
2012/04/13,46000,46000,44100,45400,553,454
2012/04/19,46300,47100,45650,46900,357,469
2012/04/20,47400,47800,45900,45900,377,459
2012/04/23,46000,46300,43200,44400,483,444
2012/04/24,43900,44850,43000,44600,252,446
2012/04/25,45000,47050,44600,47000,313,470
2012/04/26,48100,48150,46200,48000,401,480
2012/04/27,47900,47900,46250,46600,261,466
2012/05/07,46100,47300,45750,46400,113,464
2012/05/08,47000,47650,45900,47200,226,472
2012/05/09,46100,46500,41250,45000,454,450
2012/05/10,44000,44900,43000,43400,155,434
2012/05/15,29690,37000,29650,35400,1394,354
2012/05/16,33300,34650,30100,30300,433,303
2012/05/17,33000,33000,31100,32200,377,322
2012/05/18,31000,32000,30050,30400,315,304
2012/05/21,30450,32400,30450,32400,129,324
2012/05/24,31150,31450,30100,30700,208,307
2012/05/25,30200,32950,30200,32000,150,320
2012/05/28,32550,32550,31300,31400,64,314
2012/05/29,31400,31650,30800,31400,56,314
2012/05/30,31700,32600,31400,32600,86,326
2012/06/04,29800,30000,29010,29100,148,291
2012/06/06,30500,32500,30500,32400,182,324
2012/06/07,33050,33050,31500,32200,138,322
2012/06/08,31600,32900,31350,31800,84,318
2012/06/11,31350,32250,31350,32200,48,322
2012/06/12,31500,32400,31500,31700,18,317
2012/06/13,31550,32300,31550,32300,40,323
2012/06/14,31600,32700,31600,32300,102,323
2012/06/15,32300,34700,32300,33200,383,332
2012/06/18,33200,33300,32400,33200,140,332
2012/06/19,33150,33150,32350,32800,45,328
2012/06/25,38300,39000,36950,37000,279,370
2012/06/26,37950,38000,36600,36600,114,366
2012/07/03,37600,38750,37050,38200,316,382
2012/07/05,37750,38350,37500,38000,91,380
2012/07/09,38000,39300,35300,38900,262,389
2012/07/11,37850,38000,36500,37800,97,378
2012/07/12,38000,38000,36700,37100,107,371
2012/07/13,36600,37300,36600,37300,44,373
2012/07/17,37200,37300,36100,37300,59,373
2012/07/19,36950,37450,36300,36500,53,365
2012/07/23,37000,37000,34000,34000,87,340
2012/07/24,31900,34500,31900,34400,152,344
2012/07/26,32650,34400,32650,34400,26,344
2012/07/27,34000,34400,33300,34000,43,340
2012/07/30,34500,35500,34100,34100,41,341
2012/08/01,33450,34900,33450,34700,18,347
2012/08/02,34200,34350,33500,33600,59,336
2012/08/03,33400,33650,32800,33500,32,335
2012/08/06,34100,34300,33500,34300,68,343
2012/08/08,35050,35200,34000,35000,107,350
2012/08/09,34650,37000,34650,37000,182,370
2012/08/10,37000,37000,35600,37000,96,370
2012/08/16,36800,37200,36400,37000,113,370
2012/08/17,37100,37400,36700,36800,78,368
2012/08/20,36450,36900,35900,36900,28,369
2012/08/21,36700,37000,35850,37000,23,370
2012/08/22,36400,37000,36100,37000,68,370
2012/08/23,36500,38500,36500,36800,274,368
2012/08/24,36700,37600,36000,36300,176,363
2012/08/29,34800,35400,34500,35300,80,353
2012/08/31,35450,36800,35450,36400,149,364
2012/09/03,36850,36900,35300,36000,78,360
2012/09/04,36000,36000,35200,35200,47,352
2012/09/06,33900,34600,32100,34600,328,346
2012/09/07,34800,36800,34700,35900,228,359
2012/09/10,35200,35800,33850,35800,126,358
2012/09/19,36050,36200,34100,35800,127,358
2012/09/20,35100,35600,34500,35500,87,355
2012/09/21,34700,35000,33950,34400,175,344
2012/09/25,34000,34350,33950,34200,36,342
2012/09/26,34000,35000,33700,34800,30,348
2012/09/27,34550,35100,34350,35100,62,351
2012/10/01,34250,35000,34250,35000,81,350
2012/10/02,35000,35400,34500,35200,105,352
2012/10/04,35850,35900,35500,35800,26,358
2012/10/05,35900,36450,35500,36200,116,362
2012/10/10,35550,36650,35500,36000,131,360
2012/10/12,35200,35500,34500,35500,108,355
2012/10/15,35000,35150,34700,34700,34,347
2012/10/16,35000,36250,34950,36100,165,361
2012/10/22,35500,35800,34650,35000,77,350
2012/10/23,34650,35300,34450,35300,102,353
2012/10/26,35250,35250,34600,35000,49,350
2012/10/30,34900,35500,34550,34800,71,348
2012/11/01,34600,35100,34500,35100,40,351
2012/11/02,34500,35150,34500,34900,95,349
2012/11/05,34600,35500,34500,35100,128,351
2012/11/06,34500,35100,34500,35000,135,350
2012/11/07,35000,35700,34650,35000,196,350
2012/11/08,34650,34700,33600,34000,181,340
2012/11/12,33950,34400,33300,34400,94,344
2012/11/13,34300,34900,33600,34900,115,349
2012/11/15,33050,33150,32000,33000,200,330
2012/11/20,31000,31500,29800,30000,220,300
2012/11/22,30000,31300,29900,29900,305,299
2012/11/26,29500,32000,29300,30200,234,302
2012/11/27,30200,30400,29620,30200,130,302
2012/11/30,30700,30750,29500,29600,267,296
2012/12/07,30150,30150,29700,30100,96,301
2012/12/12,29580,29990,29300,29800,83,298
2012/12/18,29500,29600,29000,29100,158,291
2012/12/19,29250,29490,28930,29000,206,290
2012/12/20,28950,29380,28670,28800,150,288
2012/12/21,28810,29300,28700,29000,76,290
2012/12/26,28500,30900,28500,29500,252,295
2012/12/28,29490,30000,29020,30000,79,300
2013/01/10,30650,30650,30200,30600,130,306
2013/01/11,30700,31150,30500,31000,228,310
2013/01/15,31600,32200,30750,31900,517,319
2013/01/16,32150,33100,31000,31700,763,317
2013/01/17,31300,32000,30200,31200,265,312
2013/01/18,31350,32050,30700,31800,103,318
2013/01/21,31550,31950,31400,31900,58,319
2013/01/23,32000,32500,31050,32000,197,320
2013/01/24,31500,32000,31350,31600,125,316
2013/01/25,32000,32200,31500,32000,88,320
2013/01/28,32350,34900,31850,34900,611,349
2013/01/29,34600,36500,33550,34200,780,342
2013/01/30,34200,35000,34150,34900,277,349
2013/01/31,35200,35300,34150,34900,201,349
2013/02/05,34850,34900,33150,33900,205,339
2013/02/06,33150,33700,33100,33600,76,336
2013/02/07,33750,33750,32600,32600,150,326
2013/02/08,31200,31950,31150,31500,198,315
2013/02/12,32600,32600,29100,29300,476,293
2013/02/13,28700,28700,26500,27000,688,270
2013/02/14,26110,27150,25020,25100,379,251
2013/02/20,26100,26380,25700,26200,119,262
2013/02/25,26000,26440,25550,26000,158,260
2013/02/27,26210,27400,26210,27000,221,270
2013/03/01,27410,29350,27410,28700,403,287
2013/03/04,30200,30300,28700,30000,546,300
2013/03/05,29600,30450,29500,30000,277,300
2013/03/06,30000,30050,28000,28800,433,288
2013/03/12,26950,27000,26010,26100,322,261
2013/03/13,26960,27000,26600,26800,94,268
2013/03/18,27500,27500,26990,27000,85,270
2013/03/25,27200,27800,27050,27600,256,276
2013/04/04,27850,27850,27000,27300,92,273
2013/04/05,28000,28000,27100,27300,116,273
2013/04/15,29700,34250,29700,32000,1907,320
2013/04/16,33900,39000,33300,36900,3828,369
2013/04/17,37600,37800,33850,35100,1824,351
2013/04/22,34050,35500,34000,34700,568,347
2013/04/23,35000,35100,33700,35100,405,351
2013/04/26,35800,36000,34500,35000,170,350
2013/04/30,35300,35500,34150,35200,237,352
2013/05/02,34950,35500,34200,35500,119,355
2013/05/08,35800,35900,34700,35700,610,357
2013/05/09,35500,42700,35500,40000,1602,400
2013/05/14,40800,40800,39100,39800,302,398
2013/05/16,33400,34950,30200,33500,566,335
2013/05/17,32800,34900,32700,34000,419,340
2013/05/21,34800,35450,33700,34500,318,345
2013/05/22,34500,34800,33500,34100,199,341
2013/05/23,33900,34800,30500,31200,460,312
2013/05/24,32350,33500,29600,31000,315,310
2013/05/27,32000,33050,31100,32200,106,322
2013/05/28,32950,34900,32300,34300,267,343
2013/05/29,34800,35550,34000,35500,320,355
2013/05/30,34500,34900,34100,34700,200,347
2013/05/31,34900,35300,34300,34900,221,349
2013/06/03,34500,34900,33350,34300,181,343
2013/06/04,33350,34500,33350,33700,111,337
2013/06/06,33600,34250,32000,34000,362,340
2013/06/07,32000,33000,29210,33000,341,330
2013/06/14,34150,34800,33500,34500,61,345
2013/06/17,34300,34400,33450,34400,42,344
2013/06/18,34500,35800,34300,35400,106,354
2013/06/19,35500,38600,35400,36900,803,369
2013/06/20,37400,38800,35600,36300,895,363
2013/06/24,35000,35350,34100,34500,299,345
2013/06/25,34000,41500,34000,41500,7618,415
2013/06/26,44300,48500,42000,48500,8011,485
2013/06/27,51000,55500,43800,50900,9707,509
2013/06/28,50000,51600,42050,45200,5105,452
2013/07/01,50100,52200,48000,52200,2244,522
2013/07/02,62200,62200,61100,62200,3439,622
2013/07/03,72200,72200,69900,72200,2646,722
2013/07/04,87200,87200,65600,79500,16170,795
2013/07/05,76000,94500,76000,88800,17557,888
2013/07/08,100100,103800,100100,103800,2645,1038
2013/07/09,121800,133800,107000,133800,21217,1338
2013/07/10,163800,163800,160200,163800,6081,1638
2013/07/11,180100,202000,138000,143600,35941,1436
2013/07/12,140600,173600,124500,173600,48003,1736
2013/07/16,185600,208500,162600,167000,43868,1670
2013/07/17,159000,174000,142000,144500,16359,1445
2013/07/18,138700,156500,127500,137300,19781,1373
2013/07/19,131400,136800,116300,117500,9497,1175
2013/07/22,123300,124200,106900,107000,6966,1070
2013/07/23,107000,133700,107000,121300,26254,1213
2013/07/24,115300,117300,102700,106200,12266,1062
2013/07/25,108000,120000,101500,105600,7800,1056
2013/07/26,103100,112900,101600,104600,4139,1046
2013/07/29,116600,119500,97400,100800,7431,1008
2013/07/30,100100,120000,97600,118000,6050,1180
2013/07/31,109000,123400,106300,119000,10180,1190
2013/08/01,133000,149000,112100,145300,21678,1453
2013/08/02,144000,169000,135000,140000,32842,1400
2013/08/05,138600,158300,135200,145000,16952,1450
2013/08/06,142100,153000,135000,139700,5611,1397
2013/08/07,138000,138400,120000,123000,5915,1230
2013/08/08,123000,134500,105300,113000,10360,1130
2013/08/09,111900,118900,103300,107600,4924,1076
2013/08/12,102200,102300,88300,90000,6061,900
2013/08/13,96000,97700,88800,91700,4700,917
2013/08/14,91100,105700,90900,104100,8836,1041
2013/08/15,98100,118000,97000,109100,13333,1091
2013/08/16,105000,110500,101000,102600,4161,1026
2013/08/19,104000,109900,104000,107500,2211,1075
2013/08/20,110000,121000,107500,112900,6786,1129
2013/08/21,111500,115000,107100,108100,2316,1081
2013/08/22,106100,106100,100000,100000,1759,1000
2013/08/23,103500,108800,99500,100500,3050,1005
2013/08/26,100600,103000,95000,101400,2327,1014
2013/08/27,102400,116500,98000,109900,6950,1099
2013/08/28,105600,111600,98000,100000,3272,1000
2013/08/29,104400,104400,95800,96700,2728,967
2013/08/30,96200,97400,91000,91800,2325,918
2013/09/02,89800,90000,82900,83600,3037,836
2013/09/03,85100,89200,83100,83500,2686,835
2013/09/04,85000,93600,84700,88500,4083,885
2013/09/05,89200,98500,89200,90700,5414,907
2013/09/06,91000,92000,85100,86500,2140,865
2013/09/09,85000,87900,80000,82000,2151,820
2013/09/10,80500,81200,77100,78400,1871,784
2013/09/11,76900,84000,76100,78100,2405,781
2013/09/12,81100,82000,77000,77600,1677,776
2013/09/13,75000,78400,74600,76500,1792,765
2013/09/17,77600,77900,74000,74700,1475,747
2013/09/18,75200,79400,74600,77800,2110,778
2013/09/19,77800,86800,77000,82100,2849,821
2013/09/20,81000,82000,79400,79700,1657,797
2013/09/24,82700,94700,82200,94700,5366,947
2013/09/25,93200,104700,88700,92900,8649,929
2013/09/26,900,966,885,899,193200,899
2013/09/27,915,995,875,960,371600,960
2013/09/30,951,1110,950,1110,882800,1110
2013/10/01,1170,1188,1040,1050,590900,1050
2013/10/02,1040,1044,942,966,372400,966
2013/10/03,966,984,932,945,175600,945
2013/10/04,930,935,900,915,135900,915
2013/10/07,900,916,829,840,158200,840
2013/10/08,820,862,810,846,114500,846
2013/10/09,831,951,816,939,262200,939
2013/10/10,924,931,877,878,178900,878
2013/10/11,905,911,886,897,81200,897
2013/10/15,1020,1025,912,925,414600,925
2013/10/16,900,948,898,903,153500,903
2013/10/17,951,951,913,931,88000,931
2013/10/18,921,933,901,915,94500,915
2013/10/21,911,914,892,910,82000,910
2013/10/22,925,965,907,910,234400,910
2013/10/23,910,926,891,906,100900,906
2013/10/24,894,914,881,909,74500,909
2013/10/25,912,912,883,887,61200,887
2013/10/28,900,902,887,887,52600,887
2013/10/29,887,887,837,853,76000,853
2013/10/30,845,860,804,827,116400,827
2013/10/31,810,820,790,793,89100,793
2013/11/01,790,838,770,791,84800,791
2013/11/05,783,810,782,804,46100,804
2013/11/06,790,799,777,777,63900,777
2013/11/07,778,807,771,805,63600,805
2013/11/08,800,800,730,746,121000,746
2013/11/11,744,744,655,672,161700,672
2013/11/12,673,718,672,700,76800,700
2013/11/13,685,749,685,743,83900,743
2013/11/14,688,741,688,720,143900,720
2013/11/15,723,787,720,752,88800,752
2013/11/18,767,780,743,751,61400,751
2013/11/19,751,755,717,720,50900,720
2013/11/20,705,740,705,714,57100,714
2013/11/21,729,729,707,712,39900,712
2013/11/22,716,720,691,696,73500,696
2013/11/25,692,696,668,672,84500,672
2013/11/26,668,689,661,684,64000,684
2013/11/27,693,693,670,671,42400,671
2013/11/28,670,678,666,671,30000,671
2013/11/29,675,713,675,696,79300,696
2013/12/02,702,729,691,727,75100,727
2013/12/03,731,830,712,812,385800,812
2013/12/04,790,795,760,775,156000,775
2013/12/05,770,787,720,740,164500,740
2013/12/06,744,745,701,710,92600,710
2013/12/09,710,741,707,741,55400,741
2013/12/10,744,748,710,710,57300,710
2013/12/11,720,720,702,708,27500,708
2013/12/12,708,710,701,704,26200,704
2013/12/13,701,718,700,715,31300,715
2013/12/16,720,722,686,691,48000,691
2013/12/17,685,700,674,686,33600,686
2013/12/18,698,698,666,677,51300,677
2013/12/19,689,689,670,674,38400,674
2013/12/20,654,660,641,643,113000,643
2013/12/24,641,657,615,615,110200,615
2013/12/25,607,640,603,621,95900,621
2013/12/26,621,665,621,665,42600,665
2013/12/27,660,670,650,656,32600,656
2013/12/30,660,683,660,677,44900,677
2014/01/06,694,769,691,752,232600,752
2014/01/07,738,751,709,723,96600,723
2014/01/08,723,753,723,737,71000,737
2014/01/09,750,787,734,783,108500,783
2014/01/10,827,879,785,819,560700,819
2014/01/14,804,835,771,808,109300,808
2014/01/15,835,835,770,784,93000,784
2014/01/16,773,790,741,746,89000,746
2014/01/17,721,766,721,766,45100,766
2014/01/20,763,796,762,789,37600,789
2014/01/21,797,846,768,780,138800,780
2014/01/22,780,800,778,783,45000,783
2014/01/23,798,809,780,787,42000,787
2014/01/24,780,780,759,762,51000,762
2014/01/27,720,757,715,734,52500,734
2014/01/28,725,757,724,747,39200,747
2014/01/29,760,805,753,788,85900,788
2014/01/30,800,800,700,749,83000,749
2014/01/31,727,747,702,708,75400,708
2014/02/03,687,687,630,632,107300,632
2014/02/04,532,565,532,532,203600,532
2014/02/05,550,569,511,537,99800,537
2014/02/06,535,586,530,573,62400,573
2014/02/07,600,673,600,673,326200,673
2014/02/10,683,709,628,644,209800,644
2014/02/12,651,674,650,652,45100,652
2014/02/13,552,572,552,552,238100,552
2014/02/14,545,563,518,537,102200,537
2014/02/17,550,550,530,536,41500,536
2014/02/18,550,553,530,553,33800,553
2014/02/19,569,608,557,565,120000,565
2014/02/20,555,565,538,538,58200,538
2014/02/21,541,569,535,560,38700,560
2014/02/24,540,564,540,548,60400,548
2014/02/25,568,571,551,553,42200,553
2014/02/26,545,556,541,546,24700,546
2014/02/27,546,547,532,532,39400,532
2014/02/28,532,560,522,543,87800,543
2014/03/03,537,537,515,528,41300,528
2014/03/04,517,529,515,527,34000,527
2014/03/05,535,543,527,529,29300,529
2014/03/06,529,539,524,538,30500,538
2014/03/07,542,556,536,550,37000,550
2014/03/10,558,580,548,558,92700,558
2014/03/11,575,580,563,575,46000,575
2014/03/12,565,570,548,555,57400,555
2014/03/13,546,597,530,530,85100,530
2014/03/14,510,546,507,545,64100,545
2014/03/17,535,552,520,522,56300,522
2014/03/18,533,548,522,544,18600,544
2014/03/19,540,544,495,514,64000,514
2014/03/20,504,509,473,475,62600,475
2014/03/24,483,501,474,490,54600,490
2014/03/25,498,498,475,486,18600,486
2014/03/26,481,495,471,474,20700,474
2014/03/27,462,485,444,485,26700,485
2014/03/28,477,503,472,495,27200,495
2014/03/31,490,522,490,508,37500,508
2014/04/01,504,527,504,522,26000,522
2014/04/02,528,595,524,578,134000,578
2014/04/03,563,575,542,542,56600,542
2014/04/04,542,557,542,557,16300,557
2014/04/07,547,547,526,536,17800,536
2014/04/08,523,530,517,524,17800,524
2014/04/09,524,533,491,504,29000,504
2014/04/10,527,527,491,495,15500,495
2014/04/11,480,490,438,477,38800,477
2014/04/14,475,510,475,498,22300,498
2014/04/15,495,510,484,487,19100,487
2014/04/16,496,525,496,522,17800,522
2014/04/17,540,559,528,546,28900,546
2014/04/18,536,545,521,545,13400,545
2014/04/21,532,540,519,519,22900,519
2014/04/22,519,521,495,495,12300,495
2014/04/23,500,505,490,505,18800,505
2014/04/24,510,510,482,484,18500,484
2014/04/25,486,499,483,483,8600,483
2014/04/28,480,497,480,490,12300,490
2014/04/30,510,510,490,502,16100,502
2014/05/01,520,602,508,602,312600,602
2014/05/02,622,702,593,701,943600,701
2014/05/07,686,758,654,655,274700,655
2014/05/08,650,719,633,671,168200,671
2014/05/09,701,771,680,771,280600,771
2014/05/12,885,914,780,780,987400,780
2014/05/13,765,930,715,878,1524600,878
2014/05/14,851,959,785,834,1314800,834
2014/05/15,714,745,684,684,709600,684
2014/05/16,677,718,650,656,514800,656
2014/05/19,650,672,584,584,287000,584
2014/05/20,594,601,566,597,136200,597
2014/05/21,577,593,570,579,111800,579
2014/05/22,578,619,576,587,168000,587
2014/05/23,577,618,573,587,170600,587
2014/05/26,577,647,577,631,213600,631
2014/05/27,621,632,601,603,185800,603
2014/05/28,615,615,589,591,117500,591
2014/05/29,581,599,580,588,71300,588
2014/05/30,618,625,589,600,114200,600
2014/06/02,611,685,605,671,379800,671
2014/06/03,669,680,645,665,157300,665
2014/06/04,655,670,623,649,104700,649
2014/06/05,647,717,647,700,394700,700
2014/06/06,730,733,688,701,216000,701
2014/06/09,729,758,709,732,217500,732
2014/06/10,726,787,705,706,314000,706
2014/06/11,706,835,706,810,492100,810
2014/06/12,870,890,800,820,579800,820
2014/06/13,809,860,790,829,361000,829
2014/06/16,841,850,800,818,155700,818
2014/06/17,822,830,782,800,94600,800
2014/06/18,815,950,815,950,668500,950
2014/06/19,1050,1088,940,949,1025400,949
2014/06/20,953,973,880,907,334800,907
2014/06/23,884,1057,882,1057,1231400,1057
2014/06/24,1050,1146,992,1001,1392000,1001
2014/06/25,1005,1077,942,998,488700,998
2014/06/26,998,1020,880,898,454900,898
2014/06/27,905,905,837,843,367000,843
2014/06/30,844,900,837,858,245300,858
2014/07/01,861,928,850,898,224700,898
2014/07/02,886,900,866,880,130700,880
2014/07/03,871,890,852,883,119300,883
2014/07/04,913,931,870,871,167600,871
2014/07/07,865,895,857,875,76600,875
2014/07/08,888,888,857,864,38900,864
2014/07/09,849,851,792,807,139300,807
2014/07/10,802,830,767,772,93300,772
2014/07/11,742,773,742,748,77300,748
2014/07/14,760,774,745,755,35200,755
2014/07/15,763,829,763,817,157100,817
2014/07/16,811,813,776,781,85800,781
2014/07/17,805,805,770,774,57900,774
2014/07/18,750,767,745,758,37400,758
2014/07/22,764,776,733,757,35200,757
2014/07/23,760,775,758,769,26300,769
2014/07/24,778,789,756,759,34800,759
2014/07/25,762,768,745,757,25200,757
2014/07/28,742,766,738,754,39300,754
2014/07/29,760,789,752,761,87700,761
2014/07/30,764,781,759,761,44400,761
2014/07/31,756,765,743,743,38000,743
2014/08/01,713,740,713,724,37900,724
2014/08/04,717,727,705,720,54200,720
2014/08/05,730,730,698,698,38000,698
2014/08/06,678,692,669,669,56500,669
2014/08/07,665,689,660,675,29100,675
2014/08/08,670,675,623,639,61500,639
2014/08/11,643,739,643,739,221700,739
2014/08/12,654,701,654,662,229800,662
2014/08/13,650,665,635,655,58800,655
2014/08/14,655,666,640,649,56400,649
2014/08/15,655,749,653,749,250700,749
2014/08/18,884,884,810,830,531900,830
2014/08/19,815,855,795,839,145800,839
2014/08/20,842,945,824,839,539000,839
2014/08/21,824,852,816,818,151300,818
2014/08/22,835,907,822,890,183200,890
2014/08/25,980,1024,940,961,636900,961
2014/08/26,956,957,912,934,191100,934
2014/08/27,919,942,863,915,201300,915
2014/08/28,910,948,880,894,156000,894
2014/08/29,881,932,869,920,146000,920
2014/09/01,905,911,851,852,148900,852
2014/09/02,846,868,846,864,75900,864
2014/09/03,860,876,845,855,35000,855
2014/09/04,860,879,845,847,69100,847
2014/09/05,846,854,800,820,84900,820
2014/09/08,821,844,812,821,37900,821
2014/09/09,839,870,825,865,63800,865
2014/09/10,851,860,829,829,48600,829
2014/09/11,823,835,822,829,24600,829
2014/09/12,829,835,813,824,44900,824
2014/09/16,854,928,841,908,254500,908
2014/09/17,930,947,865,890,165700,890
2014/09/18,905,921,890,915,75600,915
2014/09/19,925,928,896,913,47800,913
2014/09/22,900,907,871,877,60700,877
2014/09/24,851,882,842,842,66200,842
2014/09/25,842,852,836,843,38500,843
2014/09/26,832,843,821,832,49300,832
2014/09/29,830,883,827,869,53600,869
2014/09/30,870,880,813,839,80500,839
2014/10/01,839,839,786,786,97500,786
2014/10/02,749,818,749,777,69700,777
2014/10/03,780,797,755,778,39600,778
2014/10/06,793,803,779,794,34600,794
2014/10/07,809,809,760,776,32900,776
2014/10/08,755,766,752,755,29000,755
2014/10/09,760,768,703,703,65500,703
2014/10/10,680,703,675,687,76700,687
2014/10/14,660,700,651,661,54300,661
2014/10/15,659,686,659,684,34100,684
2014/10/16,654,665,650,665,41700,665
2014/10/17,666,682,640,647,40700,647
2014/10/20,679,686,665,677,26400,677
2014/10/21,680,680,653,666,22900,666
2014/10/22,671,685,663,679,26800,679
2014/10/23,675,679,650,650,31400,650
2014/10/24,660,671,647,650,19600,650
2014/10/27,645,672,633,639,26300,639
2014/10/28,631,647,630,646,18400,646
2014/10/29,647,660,643,647,20900,647
2014/10/30,645,747,645,669,303900,669
2014/10/31,681,702,655,659,101000,659
2014/11/04,685,698,673,689,47600,689
2014/11/05,680,726,680,715,72600,715
2014/11/06,715,738,693,695,45300,695
2014/11/07,696,735,685,735,40500,735
2014/11/10,736,749,718,729,34700,729
2014/11/11,726,737,714,716,50300,716
2014/11/12,712,723,692,693,49600,693
2014/11/13,700,707,667,693,43200,693
2014/11/14,663,683,654,665,65200,665
2014/11/17,675,675,661,674,24400,674
2014/11/18,680,774,674,744,199300,744
2014/11/19,743,809,743,756,123000,756
2014/11/20,762,845,762,826,219800,826
2014/11/21,847,847,749,794,147700,794
2014/11/25,780,820,780,810,63700,810
2014/11/26,795,812,781,781,39000,781
2014/11/27,782,792,763,763,49200,763
2014/11/28,764,786,758,773,38000,773
2014/12/01,798,798,771,771,18600,771
2014/12/02,768,782,761,775,23000,775
2014/12/03,775,787,760,775,36400,775
2014/12/04,778,783,731,752,68700,752
2014/12/05,737,760,727,752,38800,752
2014/12/08,737,773,737,760,57900,760
2014/12/09,771,771,720,720,52400,720
2014/12/10,710,727,710,712,19700,712
2014/12/11,693,710,690,710,50000,710
2014/12/12,700,738,698,717,31000,717
2014/12/15,702,708,683,685,52400,685
2014/12/16,666,695,660,686,40600,686
2014/12/17,676,702,675,695,36700,695
2014/12/18,698,718,689,691,65900,691
2014/12/19,700,719,692,692,33900,692
2014/12/22,692,692,670,670,25400,670
2014/12/24,660,695,655,663,82600,663
2014/12/25,660,686,656,674,56100,674
2014/12/26,688,718,688,717,66100,717
2014/12/29,718,718,699,699,26600,699
2014/12/30,694,704,685,704,26500,704
2015/01/05,705,720,705,711,22800,711
2015/01/06,705,710,681,690,45200,690
2015/01/07,700,700,685,686,11200,686
2015/01/08,705,720,700,718,43900,718
2015/01/09,720,724,694,700,39700,700
2015/01/13,645,689,644,688,49300,688
2015/01/14,674,700,674,674,25500,674
2015/01/15,680,765,676,735,98000,735
2015/01/16,720,725,700,719,33200,719
2015/01/19,718,720,693,700,38800,700
2015/01/20,715,730,697,730,27200,730
2015/01/21,730,730,700,714,15300,714
2015/01/22,719,724,698,705,24800,705
2015/01/23,718,720,698,699,20100,699
2015/01/26,709,713,699,699,19100,699
2015/01/27,706,719,705,710,12700,710
2015/01/28,714,719,705,716,13000,716
2015/01/29,709,714,700,706,11300,706
2015/01/30,718,723,693,700,32500,700
2015/02/02,693,699,674,680,36600,680
2015/02/03,677,679,655,655,34400,655
2015/02/04,650,687,650,684,22700,684
2015/02/05,681,681,665,677,17900,677
2015/02/06,683,687,667,667,14700,667
2015/02/09,677,680,665,675,7800,675
2015/02/10,670,719,670,705,55100,705
2015/02/12,715,720,706,720,29700,720
2015/02/13,718,718,683,695,35200,695
2015/02/16,695,704,688,692,14000,692
2015/02/17,698,698,683,693,16200,693
2015/02/18,689,692,683,684,21400,684
2015/02/19,680,696,680,686,12400,686
2015/02/20,680,686,678,686,20200,686
2015/02/23,685,686,680,680,15200,680
2015/02/24,678,686,675,677,12800,677
2015/02/25,677,680,663,677,29800,677
2015/02/26,667,674,665,670,28700,670
2015/02/27,665,672,664,669,15100,669
2015/03/02,665,669,660,663,14500,663
2015/03/03,669,672,655,659,16800,659
2015/03/04,653,688,646,680,49800,680
2015/03/05,680,692,670,678,23100,678
2015/03/06,688,688,676,682,9800,682
2015/03/09,674,680,663,670,13600,670
2015/03/10,675,675,664,665,10000,665
2015/03/11,661,670,660,668,10600,668
2015/03/12,668,675,665,675,11600,675
2015/03/13,675,675,655,661,22900,661
2015/03/16,656,678,656,677,25400,677
2015/03/17,671,677,659,671,24300,671
2015/03/18,671,671,656,656,14500,656
2015/03/19,653,664,653,656,13900,656
2015/03/20,650,662,650,655,20300,655
2015/03/23,660,660,645,646,17700,646
2015/03/24,646,653,640,640,14700,640
2015/03/25,648,648,634,634,20000,634
2015/03/26,632,640,611,623,19800,623
2015/03/27,615,650,610,630,20300,630
2015/03/30,625,634,606,607,17700,607
2015/03/31,611,615,603,608,14300,608
2015/04/01,627,627,605,609,7000,609
2015/04/02,606,625,606,610,9900,610
2015/04/03,610,627,610,621,11000,621
2015/04/06,614,640,614,627,12400,627
2015/04/07,630,646,630,634,7300,634
2015/04/08,640,654,636,651,12800,651
2015/04/09,654,665,641,650,17900,650
2015/04/10,645,656,644,652,12200,652
2015/04/13,651,660,648,650,10600,650
2015/04/14,650,658,646,658,7800,658
2015/04/15,651,666,651,664,13700,664
2015/04/16,664,678,664,678,43400,678
2015/04/17,680,778,679,739,628800,739
2015/04/20,707,719,693,710,124400,710
2015/04/21,696,705,691,703,37800,703
2015/04/22,710,788,710,755,179500,755
2015/04/23,753,765,735,738,49300,738
2015/04/24,738,744,710,732,39000,732
2015/04/27,723,734,705,706,38500,706
2015/04/28,707,719,707,719,31700,719
2015/04/30,710,714,693,695,49200,695
2015/05/01,692,698,680,682,30200,682
2015/05/07,672,700,672,698,29500,698
2015/05/08,708,708,690,700,15400,700
2015/05/11,701,717,695,717,18800,717
2015/05/12,712,720,700,700,12600,700
2015/05/13,700,708,695,700,15700,700
2015/05/14,705,735,705,715,45100,715
2015/05/15,685,685,620,620,177500,620
2015/05/18,604,605,564,564,141700,564
2015/05/19,560,585,549,580,84100,580
2015/05/20,589,590,574,583,18700,583
2015/05/21,581,599,581,589,14400,589
2015/05/22,596,596,588,594,10700,594
2015/05/25,585,597,583,597,18100,597
2015/05/26,596,600,585,586,19700,586
2015/05/27,585,594,582,588,17200,588
2015/05/28,584,605,583,595,11200,595
2015/05/29,594,595,579,579,26300,579
2015/06/01,571,580,571,580,12600,580
2015/06/02,576,594,576,586,23600,586
2015/06/03,579,586,579,585,7100,585
2015/06/04,584,588,578,588,12900,588
2015/06/05,585,592,567,568,41000,568
2015/06/08,576,586,570,580,15000,580
2015/06/09,573,582,569,569,11300,569
2015/06/10,570,584,570,580,7400,580
2015/06/11,578,582,575,578,9100,578
2015/06/12,583,584,576,576,10100,576
2015/06/15,596,600,581,597,16800,597
2015/06/16,592,599,582,582,10700,582
2015/06/17,584,593,579,593,9800,593
2015/06/18,600,624,591,600,45900,600
2015/06/19,591,600,591,593,13100,593
2015/06/22,587,599,587,595,13800,595
2015/06/23,600,603,594,601,8800,601
2015/06/24,598,606,598,605,10900,605
2015/06/25,608,620,600,614,24000,614
2015/06/26,605,615,601,605,18800,605
2015/06/29,591,602,580,594,13900,594
2015/06/30,594,605,589,595,12900,595
2015/07/01,606,607,597,606,10200,606
2015/07/02,606,610,602,607,8000,607
2015/07/03,606,608,600,606,3800,606
2015/07/06,597,606,585,602,23400,602
2015/07/07,592,639,590,638,48300,638
2015/07/08,630,648,604,612,34100,612
2015/07/09,597,600,570,597,26700,597
2015/07/10,600,605,587,600,24400,600
2015/07/13,605,636,605,630,15500,630
2015/07/14,634,640,625,639,33400,639
2015/07/15,639,655,630,650,38000,650
2015/07/16,638,650,633,650,16800,650
2015/07/17,650,660,645,660,20200,660
2015/07/21,685,695,671,686,68700,686
2015/07/22,676,690,676,683,15300,683
2015/07/23,679,689,678,678,13600,678
2015/07/24,678,681,675,678,17200,678
2015/07/27,674,681,661,661,13600,661
2015/07/28,649,667,649,667,10500,667
2015/07/29,679,679,658,679,14700,679
2015/07/30,679,679,654,655,21800,655
2015/07/31,653,676,652,676,12300,676
2015/08/03,668,675,656,661,7400,661
2015/08/04,658,671,657,657,16800,657
2015/08/05,655,672,654,661,15300,661
2015/08/06,661,670,658,661,5200,661
2015/08/07,655,674,655,659,5600,659
2015/08/10,655,660,643,655,13900,655
2015/08/11,651,653,604,619,29300,619
2015/08/12,631,695,628,630,62000,630
2015/08/13,620,636,620,625,6100,625
2015/08/14,623,634,619,634,8700,634
2015/08/17,627,635,614,623,11700,623
2015/08/18,619,623,613,620,8100,620
2015/08/19,620,628,605,605,15500,605
2015/08/20,600,600,580,588,19700,588
2015/08/21,580,580,540,570,60000,570
2015/08/24,530,553,493,499,53300,499
2015/08/25,427,505,427,451,93700,451
2015/08/26,459,475,445,460,73500,460
2015/08/27,527,527,481,496,42100,496
2015/08/28,505,529,500,509,15000,509
2015/08/31,512,550,510,517,16700,517
2015/09/01,514,526,504,526,9000,526
2015/09/02,501,524,499,502,24000,502
2015/09/03,516,522,510,513,5800,513
2015/09/04,506,516,500,507,12300,507
2015/09/07,498,509,486,500,12100,500
2015/09/08,500,510,499,499,10100,499
2015/09/09,506,518,506,517,6000,517
2015/09/10,519,520,511,518,3700,518
2015/09/11,512,527,512,527,5700,527
2015/09/14,520,526,520,526,1400,526
2015/09/15,519,526,519,522,7600,522
2015/09/16,519,525,514,519,6100,519
2015/09/17,513,519,512,519,6000,519
2015/09/18,519,519,511,512,3300,512
2015/09/24,502,520,502,515,3000,515
2015/09/25,510,520,508,518,3100,518
2015/09/28,525,526,519,526,4100,526
2015/09/29,520,527,513,524,4600,524
2015/09/30,522,526,520,525,7000,525
2015/10/01,520,527,508,527,10500,527
2015/10/02,526,530,513,529,5500,529
2015/10/05,519,535,519,534,10900,534
2015/10/06,540,548,532,545,9000,545
2015/10/07,535,546,535,537,6400,537
2015/10/08,527,545,527,545,9300,545
2015/10/09,535,547,533,539,7000,539
2015/10/13,530,566,527,566,30500,566
2015/10/14,566,593,564,570,26900,570
2015/10/15,550,572,550,563,16600,563
2015/10/16,586,586,565,565,13500,565
