2010/01/14,440,440,432,432,1300,360
2010/01/21,432,432,432,432,4200,360
2010/01/25,426,426,426,426,100,355
2010/01/28,455,455,450,450,600,375
2010/02/15,367,367,366,366,500,305
2010/02/24,370,371,366,366,1900,305
2010/02/25,370,372,365,372,600,310
2010/03/18,405,420,405,420,1400,350
2010/03/25,454,454,450,450,1200,375
2010/03/26,450,456,449,456,5900,380
2010/03/31,444,450,438,450,3000,375
2010/04/16,466,490,463,480,4500,400
2010/05/07,485,488,477,480,13200,400
2010/05/11,510,520,510,510,1300,425
2010/05/28,481,481,480,480,1200,400
2010/05/31,480,510,480,510,2700,425
2010/06/02,490,490,486,486,1100,405
2010/06/10,473,480,473,480,700,400
2010/07/07,458,460,456,456,900,380
2010/07/12,480,480,480,480,700,400
2010/07/22,470,475,462,462,2700,385
2010/07/23,466,474,466,474,1300,395
2010/07/27,480,480,480,480,200,400
2010/08/13,395,395,360,360,4500,300
2010/08/17,391,391,375,378,2200,315
2010/08/19,375,375,372,372,1000,310
2010/08/20,387,387,384,384,600,320
2010/09/07,370,375,366,372,1400,310
2010/09/10,372,372,372,372,500,310
2010/09/22,370,370,360,360,4800,300
2010/10/07,342,345,342,342,1600,285
2010/10/13,327,336,327,336,400,280
2010/10/20,330,330,318,318,600,265
2010/11/01,300,300,298,300,2200,250
2010/11/05,305,313,305,306,700,255
2010/11/08,312,312,312,312,200,260
2010/11/11,330,330,330,330,200,275
2010/12/10,381,384,381,384,1100,320
2010/12/15,360,360,360,360,1600,300
2010/12/20,385,385,370,372,800,310
2010/12/28,371,372,371,372,500,310
2011/01/07,361,384,361,384,7100,320
2011/01/11,384,384,384,384,300,320
2011/01/14,372,372,372,372,200,310
2011/01/20,376,376,372,372,1000,310
2011/01/31,378,380,378,378,7000,315
2011/02/09,380,390,378,390,2300,325
2011/03/02,399,410,390,390,8300,325
2011/03/10,384,385,383,384,4200,320
2011/03/14,309,320,309,318,4900,265
2011/03/23,320,321,318,318,4800,265
2011/04/04,300,300,290,300,6100,250
2011/04/08,295,295,288,288,900,240
2011/04/11,290,300,290,300,2800,250
2011/04/19,300,300,300,300,2600,250
2011/04/27,300,300,300,300,2100,250
2011/04/28,300,300,295,300,4700,250
2011/05/06,300,342,295,330,3500,275
2011/05/09,339,339,330,330,2200,275
2011/05/16,300,300,300,300,100,250
2011/06/02,294,295,294,294,2700,245
2011/06/08,320,379,300,300,24100,250
2011/06/13,300,300,299,300,2400,250
2011/06/14,300,300,297,300,2200,250
2011/07/04,312,315,312,312,1000,260
2011/07/05,314,316,311,312,3900,260
2011/07/07,304,305,300,300,3600,250
2011/08/22,276,276,276,276,100,230
2011/09/02,263,271,263,270,1300,225
2011/09/06,266,270,264,264,600,220
2011/09/16,262,264,262,264,200,220
2011/09/20,270,270,270,270,500,225
2011/10/03,240,240,240,240,1000,200
2011/10/07,237,240,237,240,800,200
2011/10/18,243,243,239,240,1500,200
2011/10/19,242,242,240,240,1400,200
2011/10/20,240,240,239,240,3500,200
2011/10/24,240,240,240,240,100,200
2011/10/28,240,240,240,240,5800,200
2011/10/31,238,240,238,240,4500,200
2011/11/17,161,162,158,162,21000,135
2011/11/21,152,152,150,150,9000,125
2011/11/22,148,157,148,150,11700,125
2011/11/28,163,163,156,156,1400,130
2011/12/05,163,163,159,162,4500,135
2011/12/16,147,150,145,150,6600,125
2011/12/21,150,153,150,150,700,125
2012/02/07,143,143,138,138,2300,115
2012/02/08,139,139,138,138,1000,115
2012/02/16,176,216,171,216,213600,180
2012/03/13,200,204,197,204,5900,170
2012/04/02,208,210,208,210,5500,175
2012/04/18,216,219,210,216,10000,180
2012/04/19,211,211,208,210,10900,175
2012/05/08,203,210,202,210,700,175
2012/05/09,201,205,201,204,4100,170
2012/05/10,204,204,203,204,4800,170
2012/05/14,208,211,198,198,7000,165
2012/05/18,199,200,174,180,5400,150
2012/05/30,170,170,161,168,2200,140
2012/06/18,160,164,160,162,1000,135
2012/06/20,167,167,157,162,800,135
2012/06/21,163,163,162,162,200,135
2012/07/04,168,173,163,168,6500,140
2012/07/05,173,175,173,174,2100,145
2012/07/11,170,176,170,174,1400,145
2012/07/12,167,168,163,168,1700,140
2012/08/31,180,182,175,180,7900,150
2012/09/03,178,188,174,180,15700,150
2012/09/04,180,180,174,174,2500,145
2012/09/05,175,180,175,180,2800,150
2012/09/07,171,180,171,180,3500,150
2012/09/11,180,180,175,180,1100,150
2012/09/12,180,181,179,180,6500,150
2012/09/21,185,193,185,186,3600,155
2012/10/01,225,225,197,204,33800,170
2012/10/03,215,216,203,216,5600,180
2012/10/04,217,223,210,216,7300,180
2012/10/09,219,220,209,210,1500,175
2012/10/16,210,217,210,216,1900,180
2012/10/19,221,221,216,216,500,180
2012/11/01,225,234,225,234,5900,195
2012/11/09,245,252,235,252,10400,210
2012/11/13,240,328,229,288,246300,240
2012/11/14,272,275,255,258,77100,215
2012/11/15,259,265,238,252,16900,210
2012/11/30,291,315,286,300,24800,250
2012/12/10,277,282,275,282,1300,235
2012/12/11,284,295,282,282,3500,235
2012/12/21,284,284,266,270,7900,225
2012/12/25,270,271,264,270,15300,225
2013/01/07,274,295,274,276,6300,230
2013/01/10,283,288,275,282,5500,235
2013/01/16,299,299,282,282,7700,235
2013/01/24,273,280,273,276,2400,230
2013/01/25,279,282,277,282,3900,235
2013/01/30,280,294,275,294,5000,245
2013/02/14,398,421,380,390,180200,325
2013/02/19,407,420,381,390,25900,325
2013/02/27,387,399,381,384,13400,320
2013/03/04,387,391,383,390,9500,325
2013/03/27,332,355,318,340,16200,340
2013/03/28,342,351,338,347,2200,347
2013/03/29,347,347,330,335,6700,335
2013/04/01,343,343,306,310,14100,310
2013/04/02,305,310,300,310,6600,310
2013/04/03,307,315,307,315,2200,315
2013/04/04,315,315,310,310,1300,310
2013/04/05,294,311,294,304,8200,304
2013/04/08,324,326,308,315,7400,315
2013/04/09,315,324,315,318,3500,318
2013/04/10,312,318,312,318,3600,318
2013/04/11,328,329,315,322,6700,322
2013/04/12,330,337,327,337,6700,337
2013/04/15,339,339,318,324,5100,324
2013/04/16,319,323,314,323,1800,323
2013/04/17,329,330,327,329,700,329
2013/04/18,325,325,320,320,3400,320
2013/04/19,326,326,313,313,4100,313
2013/04/22,325,326,313,320,20500,320
2013/04/23,320,325,317,321,6100,321
2013/04/24,323,325,318,318,7000,318
2013/04/25,320,320,313,316,13900,316
2013/04/26,314,324,314,322,4800,322
2013/04/30,326,347,323,345,24400,345
2013/05/01,340,360,340,345,20100,345
2013/05/02,345,370,345,365,14100,365
2013/05/07,365,378,363,375,10300,375
2013/05/08,375,392,375,390,17900,390
2013/05/09,385,389,377,378,8200,378
2013/05/10,379,399,379,399,12000,399
2013/05/13,419,439,402,423,23600,423
2013/05/14,415,437,400,437,8500,437
2013/05/15,429,441,357,378,89300,378
2013/05/16,345,350,298,323,65900,323
2013/05/17,325,350,318,347,20900,347
2013/05/20,341,349,336,347,8400,347
2013/05/21,342,370,341,352,8700,352
2013/05/22,366,366,316,339,32200,339
2013/05/23,329,335,313,313,16900,313
2013/05/24,324,324,303,322,14500,322
2013/05/27,311,328,311,327,5300,327
2013/05/28,334,334,325,325,3700,325
2013/05/29,317,339,317,339,9300,339
2013/05/30,335,335,322,329,4100,329
2013/05/31,313,320,313,320,5400,320
2013/06/03,310,310,303,305,3900,305
2013/06/04,305,314,300,314,5600,314
2013/06/05,315,315,312,315,600,315
2013/06/06,291,307,283,299,9000,299
2013/06/07,300,300,220,298,31500,298
2013/06/10,300,300,281,300,3700,300
2013/06/11,300,300,291,291,1300,291
2013/06/12,278,291,277,291,3800,291
2013/06/13,295,325,295,325,19200,325
2013/06/14,341,342,303,306,12700,306
2013/06/17,290,295,278,283,4100,283
2013/06/18,285,290,285,290,21400,290
2013/06/19,290,299,290,290,6100,290
2013/06/20,290,290,281,282,4700,282
2013/06/21,281,285,275,280,6700,280
2013/06/24,282,288,282,283,800,283
2013/06/25,282,282,267,267,6800,267
2013/06/26,291,291,252,256,12700,256
2013/06/27,256,261,256,260,7100,260
2013/06/28,271,271,259,267,4600,267
2013/07/01,274,280,274,280,7700,280
2013/07/02,272,288,272,286,1300,286
2013/07/03,290,290,280,281,6100,281
2013/07/04,281,283,281,283,300,283
2013/07/05,299,300,292,292,9700,292
2013/07/08,309,310,307,307,5200,307
2013/07/09,310,310,300,302,4800,302
2013/07/10,302,302,302,302,200,302
2013/07/11,302,303,292,303,900,303
2013/07/12,303,307,303,307,200,307
2013/07/16,311,313,310,313,4300,313
2013/07/17,313,328,313,320,3500,320
2013/07/18,327,334,326,330,2700,330
2013/07/19,339,339,324,324,3700,324
2013/07/22,331,339,331,335,1400,335
2013/07/23,343,343,335,335,3500,335
2013/07/24,335,335,330,335,3100,335
2013/07/25,335,344,328,344,2300,344
2013/07/26,344,347,333,333,7600,333
2013/07/29,340,340,325,325,1300,325
2013/07/30,317,323,317,323,900,323
2013/07/31,344,344,336,336,14200,336
2013/08/01,312,345,312,345,7300,345
2013/08/02,329,340,327,340,4100,340
2013/08/05,342,342,336,336,1300,336
2013/08/06,338,338,336,336,500,336
2013/08/07,328,367,328,360,27200,360
2013/08/08,360,363,350,350,18500,350
2013/08/09,350,350,349,349,300,349
2013/08/12,335,350,335,337,900,337
2013/08/13,331,340,329,330,1000,330
2013/08/14,330,333,329,333,6400,333
2013/08/15,334,334,334,334,400,334
2013/08/16,322,323,316,323,1500,323
2013/08/19,323,323,320,320,200,320
2013/08/20,328,335,328,335,900,335
2013/08/21,338,342,338,342,2100,342
2013/08/22,334,338,334,338,700,338
2013/08/23,345,350,345,350,2500,350
2013/08/26,350,361,340,361,2900,361
2013/08/27,360,360,330,352,2000,352
2013/08/28,344,344,336,340,300,340
2013/08/29,338,338,329,338,10900,338
2013/08/30,338,343,335,343,2000,343
2013/09/02,337,337,337,337,200,337
2013/09/03,335,335,330,332,2200,332
2013/09/04,331,331,330,330,1400,330
2013/09/05,341,342,336,340,2500,340
2013/09/06,340,341,340,340,1100,340
2013/09/09,335,337,335,337,1900,337
2013/09/10,337,337,335,335,1200,335
2013/09/11,333,335,330,330,4200,330
2013/09/12,332,335,330,335,6300,335
2013/09/13,335,344,335,344,1200,344
2013/09/17,344,344,335,340,13000,340
2013/09/18,340,354,340,345,8000,345
2013/09/19,352,352,345,349,17500,349
2013/09/20,349,357,349,354,2100,354
2013/09/24,358,360,354,354,3500,354
2013/09/25,354,360,340,360,5000,360
2013/09/26,352,352,344,346,800,346
2013/09/27,352,366,352,366,8200,366
2013/09/30,446,446,438,446,63600,446
2013/10/01,526,526,526,526,46600,526
2013/10/02,626,626,626,626,44600,626
2013/10/03,566,726,526,550,1102700,550
2013/10/04,600,650,580,650,297300,650
2013/10/07,580,618,550,550,572500,550
2013/10/08,530,530,457,498,220800,498
2013/10/09,490,498,463,468,135100,468
2013/10/10,473,483,446,453,109700,453
2013/10/11,461,525,458,480,208400,480
2013/10/15,470,505,460,476,70000,476
2013/10/16,480,550,480,506,257500,506
2013/10/17,526,606,501,606,666400,606
2013/10/18,636,639,549,564,393000,564
2013/10/21,600,664,556,664,294800,664
2013/10/22,660,748,581,643,507900,643
2013/10/23,645,687,621,647,173700,647
2013/10/24,627,747,606,747,323300,747
2013/10/25,795,864,704,759,420800,759
2013/10/28,690,732,670,680,169800,680
2013/10/29,684,685,638,647,71900,647
2013/10/30,654,670,593,605,129900,605
2013/10/31,640,644,606,607,56700,607
2013/11/01,613,670,604,662,86300,662
2013/11/05,622,670,621,663,82700,663
2013/11/06,680,695,651,690,72700,690
2013/11/07,704,720,652,673,104000,673
2013/11/08,655,718,573,573,277200,573
2013/11/11,565,573,500,500,212300,500
2013/11/12,510,518,483,491,89700,491
2013/11/13,499,514,491,492,79600,492
2013/11/14,507,569,502,505,139000,505
2013/11/15,495,502,482,490,85100,490
2013/11/18,512,512,490,492,39400,492
2013/11/19,483,491,470,473,70800,473
2013/11/20,468,496,468,491,37600,491
2013/11/21,476,490,476,482,32100,482
2013/11/22,485,550,478,482,144200,482
2013/11/25,496,503,484,503,51400,503
2013/11/26,490,499,486,489,31700,489
2013/11/27,489,496,489,495,19700,495
2013/11/28,489,493,486,486,21600,486
2013/11/29,488,495,486,492,25800,492
2013/12/02,499,512,487,500,35500,500
2013/12/03,499,500,488,490,26400,490
2013/12/04,505,510,494,505,63200,505
2013/12/05,515,520,494,507,63100,507
2013/12/06,508,607,505,607,313800,607
2013/12/09,707,707,707,707,21900,707
2013/12/10,857,857,857,857,175700,857
2013/12/11,771,877,720,802,585500,802
2013/12/12,767,952,741,831,799400,831
2013/12/13,771,819,730,759,301700,759
2013/12/16,759,759,650,705,144400,705
2013/12/17,714,732,625,649,200800,649
2013/12/18,669,669,623,636,154400,636
2013/12/19,644,695,609,651,175200,651
2013/12/20,631,675,619,626,90700,626
2013/12/24,635,726,635,726,294900,726
2013/12/25,690,746,658,683,208800,683
2013/12/26,683,719,677,708,74300,708
2013/12/27,717,717,680,681,39700,681
2013/12/30,672,705,656,695,67100,695
2014/01/06,694,694,660,671,23700,671
2014/01/07,672,685,653,658,37300,658
2014/01/08,660,666,640,666,29600,666
2014/01/09,666,718,656,677,63700,677
2014/01/10,690,719,680,699,40500,699
2014/01/14,680,694,664,681,37500,681
2014/01/15,695,734,694,724,74600,724
2014/01/16,720,720,665,675,87100,675
2014/01/17,657,705,657,705,47800,705
2014/01/20,700,700,681,695,26300,695
2014/01/21,685,688,673,678,13200,678
2014/01/22,678,690,670,675,22700,675
2014/01/23,680,682,662,664,17800,664
2014/01/24,640,645,621,638,34600,638
2014/01/27,601,610,572,598,55800,598
2014/01/28,618,630,593,595,33500,595
2014/01/29,600,611,592,608,10600,608
2014/01/30,568,589,553,556,53400,556
2014/01/31,580,580,533,564,30500,564
2014/02/03,535,535,501,528,42400,528
2014/02/04,458,486,450,467,50500,467
2014/02/05,499,499,450,453,40100,453
2014/02/06,500,508,482,485,22600,485
2014/02/07,501,565,501,565,50200,565
2014/02/10,555,571,522,536,42100,536
2014/02/12,556,556,537,542,14200,542
2014/02/13,537,538,508,520,11000,520
2014/02/14,512,520,500,510,5200,510
2014/02/17,512,549,510,549,13000,549
2014/02/18,529,545,522,530,8900,530
2014/02/19,545,549,538,538,2500,538
2014/02/20,538,540,520,520,5900,520
2014/02/21,535,535,515,515,2500,515
2014/02/24,545,550,525,545,8900,545
2014/02/25,540,545,538,540,6000,540
2014/02/26,548,555,530,551,8700,551
2014/02/27,551,553,519,529,7300,529
2014/02/28,529,529,512,515,10200,515
2014/03/03,505,516,498,510,13500,510
2014/03/04,515,525,510,510,4600,510
2014/03/05,540,549,530,540,2300,540
2014/03/06,540,542,522,522,2600,522
2014/03/07,525,533,525,531,1900,531
2014/03/10,540,540,506,515,9800,515
2014/03/11,515,517,491,497,15400,497
2014/03/12,500,509,498,504,5200,504
2014/03/13,499,502,492,498,7600,498
2014/03/14,485,493,479,489,20600,489
2014/03/17,484,500,481,490,6000,490
2014/03/18,490,500,490,495,4000,495
2014/03/19,495,499,486,491,5400,491
2014/03/20,480,481,457,468,14900,468
2014/03/24,468,488,465,465,3700,465
2014/03/25,473,491,471,471,26300,471
2014/03/26,471,475,440,458,8100,458
2014/03/27,466,469,450,453,5700,453
2014/03/28,457,460,451,460,3100,460
2014/03/31,465,485,465,482,2600,482
2014/04/01,485,498,478,493,2100,493
2014/04/02,495,504,495,504,6200,504
2014/04/03,494,520,493,520,7100,520
2014/04/04,530,550,530,550,18600,550
2014/04/07,500,548,500,532,23300,532
2014/04/08,531,541,501,518,4400,518
2014/04/09,518,532,509,520,3800,520
2014/04/10,520,525,492,497,7800,497
2014/04/11,485,494,485,491,2800,491
2014/04/14,486,492,480,482,2400,482
2014/04/15,482,489,480,483,1400,483
2014/04/16,478,504,470,504,6700,504
2014/04/17,500,500,492,500,1800,500
2014/04/18,509,510,505,510,1500,510
2014/04/21,508,508,498,498,800,498
2014/04/22,490,492,485,486,4900,486
2014/04/23,490,490,486,486,1300,486
2014/04/24,494,495,494,495,600,495
2014/04/25,487,494,487,489,2800,489
2014/04/28,481,495,481,495,1700,495
2014/04/30,503,503,482,486,9400,486
2014/05/01,486,497,486,497,3200,497
2014/05/02,491,525,490,516,4800,516
2014/05/07,517,519,503,503,3600,503
2014/05/08,516,530,507,530,6900,530
2014/05/09,540,540,516,530,8200,530
2014/05/12,510,525,494,494,7700,494
2014/05/13,498,507,462,479,12400,479
2014/05/14,461,470,460,463,6700,463
2014/05/15,460,465,450,452,9500,452
2014/05/16,452,462,449,456,5700,456
2014/05/19,460,460,440,440,6800,440
2014/05/20,441,478,441,454,9600,454
2014/05/21,454,466,449,459,1700,459
2014/05/22,460,470,456,460,9300,460
2014/05/23,453,469,453,469,2500,469
2014/05/26,474,474,463,472,3000,472
2014/05/27,475,479,469,472,4300,472
2014/05/28,479,480,475,475,1700,475
2014/05/29,475,487,475,485,3900,485
2014/05/30,480,495,476,488,6300,488
2014/06/02,492,568,485,550,151600,550
2014/06/03,540,540,513,518,49500,518
2014/06/04,516,528,506,507,15000,507
2014/06/05,512,525,491,499,10500,499
2014/06/06,518,518,500,504,7900,504
2014/06/09,504,517,500,502,17300,502
2014/06/10,502,506,477,484,32000,484
2014/06/11,481,486,479,481,13600,481
2014/06/12,481,486,480,482,6300,482
2014/06/13,480,500,480,500,12300,500
2014/06/16,510,510,500,502,9400,502
2014/06/17,506,510,502,508,8800,508
2014/06/18,505,513,503,509,4000,509
2014/06/19,502,507,498,507,13900,507
2014/06/20,502,502,494,499,11500,499
2014/06/23,493,503,493,501,10100,501
2014/06/24,494,502,494,502,11400,502
2014/06/25,492,501,492,493,5900,493
2014/06/26,488,504,483,504,12300,504
2014/06/27,507,515,490,511,10500,511
2014/06/30,506,530,506,530,10200,530
2014/07/01,525,550,522,550,18800,550
2014/07/02,551,558,532,546,17200,546
2014/07/03,532,544,522,533,15800,533
2014/07/04,546,594,532,556,70300,556
2014/07/07,560,630,538,617,108100,617
2014/07/08,610,619,581,610,41300,610
2014/07/09,590,599,570,589,21900,589
2014/07/10,575,597,560,580,16400,580
2014/07/11,560,576,547,547,22600,547
2014/07/14,537,560,537,555,14600,555
2014/07/15,565,585,553,572,16300,572
2014/07/16,572,579,564,569,9000,569
2014/07/17,579,579,566,566,9000,566
2014/07/18,546,559,541,541,15400,541
2014/07/22,561,563,547,547,5600,547
2014/07/23,543,555,540,545,2600,545
2014/07/24,542,555,542,555,2900,555
2014/07/25,550,557,546,551,6500,551
2014/07/28,547,562,545,560,5300,560
2014/07/29,560,560,547,555,5900,555
2014/07/30,555,560,548,556,7200,556
2014/07/31,556,577,550,565,11200,565
2014/08/01,544,556,535,549,19300,549
2014/08/04,540,549,535,548,7200,548
2014/08/05,536,539,517,517,10600,517
2014/08/06,515,529,505,505,8700,505
2014/08/07,501,502,473,480,23400,480
2014/08/08,477,488,446,453,28100,453
2014/08/11,460,480,460,469,16500,469
2014/08/12,480,490,469,484,5600,484
2014/08/13,483,485,478,481,24200,481
2014/08/14,485,490,485,490,2300,490
2014/08/15,475,490,475,490,3200,490
2014/08/18,489,503,485,503,6600,503
2014/08/19,501,508,500,506,9700,506
2014/08/20,501,508,499,506,3600,506
2014/08/21,506,507,501,505,5800,505
2014/08/22,506,506,500,506,2300,506
2014/08/25,566,606,551,606,95300,606
2014/08/26,706,706,670,706,197000,706
2014/08/27,686,687,610,615,222500,615
2014/08/28,715,715,715,715,28300,715
2014/08/29,865,865,826,865,293800,865
2014/09/01,1015,1015,1015,1015,24300,1015
2014/09/02,1315,1315,1315,1315,29300,1315
2014/09/03,1287,1444,1015,1144,1141100,1144
2014/09/04,1150,1175,915,930,569200,930
2014/09/05,920,1080,886,920,1197600,920
2014/09/08,949,989,887,939,488100,939
2014/09/09,960,1046,900,904,644200,904
2014/09/10,875,887,813,863,178100,863
2014/09/11,834,849,811,821,103200,821
2014/09/12,816,819,781,797,90600,797
2014/09/16,784,797,770,785,71700,785
2014/09/17,785,880,779,851,206300,851
2014/09/18,834,850,801,801,74500,801
2014/09/19,804,829,792,825,43300,825
2014/09/22,838,888,828,860,65000,860
2014/09/24,849,861,835,842,48100,842
2014/09/25,858,859,810,838,54800,838
2014/09/26,808,829,800,818,56800,818
2014/09/29,821,834,807,825,22600,825
2014/09/30,825,825,734,800,68800,800
2014/10/01,809,809,752,767,22800,767
2014/10/02,730,762,723,728,33700,728
2014/10/03,718,748,701,722,25200,722
2014/10/06,750,794,730,789,33600,789
2014/10/07,772,795,768,773,11100,773
2014/10/08,743,757,730,745,6800,745
2014/10/09,770,770,715,721,20300,721
2014/10/10,692,702,685,700,30800,700
2014/10/14,669,670,650,650,16000,650
2014/10/15,659,682,651,659,13100,659
2014/10/16,657,721,640,651,27800,651
2014/10/17,662,684,650,680,8700,680
2014/10/20,700,710,682,710,21200,710
2014/10/21,698,720,665,694,14600,694
2014/10/22,690,700,676,680,13600,680
2014/10/23,670,681,666,670,6500,670
2014/10/24,670,770,661,770,36200,770
2014/10/27,785,797,717,750,59500,750
2014/10/28,741,745,720,723,13400,723
2014/10/29,726,739,706,728,12200,728
2014/10/30,720,750,705,738,13300,738
2014/10/31,740,740,711,728,6200,728
2014/11/04,740,755,735,746,34400,746
2014/11/05,746,770,743,760,18000,760
2014/11/06,766,812,762,812,42500,812
2014/11/07,827,844,794,802,34600,802
2014/11/10,800,847,795,816,31800,816
2014/11/11,822,830,816,823,22000,823
2014/11/12,820,973,710,910,443900,910
2014/11/13,900,900,818,880,89600,880
2014/11/14,871,878,836,875,39600,875
2014/11/17,866,866,820,820,19500,820
2014/11/18,835,859,820,836,19700,836
2014/11/19,844,953,843,880,75300,880
2014/11/20,940,945,860,897,86600,897
2014/11/21,871,905,866,880,38800,880
2014/11/25,881,903,871,880,13700,880
2014/11/26,894,897,880,892,8400,892
2014/11/27,892,901,881,900,12800,900
2014/11/28,891,920,880,886,24700,886
2014/12/01,884,884,800,843,52600,843
2014/12/02,850,859,828,854,10000,854
2014/12/03,847,850,830,833,13000,833
2014/12/04,832,832,790,800,28500,800
2014/12/05,800,829,800,825,9200,825
2014/12/08,832,833,795,803,12300,803
2014/12/09,784,796,780,780,14500,780
2014/12/10,777,781,770,777,3400,777
2014/12/11,762,778,757,778,3500,778
2014/12/12,788,819,785,804,10900,804
2014/12/15,818,818,785,785,12900,785
2014/12/16,770,771,753,756,8700,756
2014/12/17,754,774,752,756,6600,756
2014/12/18,761,777,761,772,5600,772
2014/12/19,765,770,750,758,6900,758
2014/12/22,758,768,758,768,7700,768
2014/12/24,766,797,766,776,5700,776
2014/12/25,768,772,750,750,8500,750
2014/12/26,750,782,750,755,5600,755
2014/12/29,757,768,757,764,6400,764
2014/12/30,763,790,763,780,4100,780
2015/01/05,795,820,795,800,8300,800
2015/01/06,800,800,752,772,10100,772
2015/01/07,768,790,768,779,5300,779
2015/01/08,780,797,770,770,18400,770
2015/01/09,779,860,779,795,60600,795
2015/01/13,765,830,765,782,22900,782
2015/01/14,797,797,755,760,14300,760
2015/01/15,758,760,740,745,12700,745
2015/01/16,738,780,723,780,26200,780
2015/01/19,795,799,785,789,6000,789
2015/01/20,791,808,789,805,12200,805
2015/01/21,814,843,795,802,30700,802
2015/01/22,799,820,791,797,7500,797
2015/01/23,810,819,795,800,19500,800
2015/01/26,810,814,802,802,2400,802
2015/01/27,802,805,798,799,3000,799
2015/01/28,796,809,793,804,4900,804
2015/01/29,794,800,791,795,4000,795
2015/01/30,795,797,782,796,5000,796
2015/02/02,781,820,781,817,8600,817
2015/02/03,827,827,786,786,10800,786
2015/02/04,786,799,780,797,5100,797
2015/02/05,791,797,782,793,4000,793
2015/02/06,796,943,796,817,231300,817
2015/02/09,802,810,795,800,22000,800
2015/02/10,797,856,790,798,28100,798
2015/02/12,795,795,780,795,10600,795
2015/02/13,798,798,778,778,7800,778
2015/02/16,780,780,771,771,3900,771
2015/02/17,769,769,756,758,10300,758
2015/02/18,750,768,750,764,15700,764
2015/02/19,760,846,760,782,42800,782
2015/02/20,780,795,775,775,4700,775
2015/02/23,777,777,773,773,2200,773
2015/02/24,775,775,771,773,900,773
2015/02/25,771,771,766,766,1900,766
2015/02/26,766,849,765,804,74300,804
2015/02/27,848,848,820,820,19600,820
2015/03/02,810,819,800,811,14600,811
2015/03/03,811,825,807,815,9100,815
2015/03/04,824,835,819,835,10900,835
2015/03/05,840,846,831,834,9200,834
2015/03/06,839,840,815,816,9200,816
2015/03/09,815,825,792,793,16000,793
2015/03/10,803,803,785,790,8700,790
2015/03/11,795,818,784,818,3900,818
2015/03/12,815,815,802,802,3000,802
2015/03/13,810,810,796,800,3100,800
2015/03/16,800,815,800,815,8200,815
2015/03/17,815,815,795,795,8900,795
2015/03/18,796,796,790,794,3600,794
2015/03/19,794,807,790,806,6100,806
2015/03/20,810,814,809,810,105000,810
2015/03/23,830,842,813,835,13900,835
2015/03/24,828,828,816,816,1700,816
2015/03/25,816,820,810,813,3100,813
2015/03/26,813,813,811,811,71400,811
2015/03/27,807,830,790,790,9700,790
2015/03/30,785,794,774,794,8200,794
2015/03/31,795,795,776,790,6200,790
2015/04/01,775,776,773,773,1900,773
2015/04/02,773,789,772,789,2200,789
2015/04/03,788,788,775,775,2300,775
2015/04/06,773,780,772,778,2800,778
2015/04/07,788,788,778,780,500,780
2015/04/08,780,780,772,772,6100,772
2015/04/09,772,782,771,776,3500,776
2015/04/10,781,781,769,771,3900,771
2015/04/13,772,775,772,772,800,772
2015/04/14,771,780,771,773,800,773
2015/04/15,775,782,775,782,5100,782
2015/04/16,784,785,780,783,2900,783
2015/04/17,787,790,779,779,4100,779
2015/04/20,778,781,773,777,3500,777
2015/04/21,780,797,778,797,2500,797
2015/04/22,799,820,791,809,4700,809
2015/04/23,809,809,788,800,5500,800
2015/04/24,800,806,789,804,1600,804
2015/04/27,806,807,806,806,1200,806
2015/04/28,806,807,792,797,1500,797
2015/04/30,797,797,786,790,2300,790
2015/05/01,780,785,766,770,5300,770
2015/05/07,779,780,771,775,1400,775
2015/05/08,790,810,790,809,5100,809
2015/05/11,796,959,795,959,64500,959
2015/05/12,1109,1109,1109,1109,19900,1109
2015/05/13,1398,1409,1370,1409,318200,1409
2015/05/14,1399,1589,1200,1418,1517100,1418
2015/05/15,1458,1500,1201,1201,529400,1201
2015/05/18,1231,1246,1069,1149,325900,1149
2015/05/19,1090,1139,1080,1100,172100,1100
2015/05/20,1080,1120,1033,1100,201900,1100
2015/05/21,1119,1165,1006,1030,239500,1030
2015/05/22,1017,1180,1004,1035,465800,1035
2015/05/25,1027,1055,1023,1029,47500,1029
2015/05/26,1048,1098,1025,1062,61300,1062
2015/05/27,1080,1120,1065,1077,80900,1077
2015/05/28,1107,1176,1040,1060,212500,1060
2015/05/29,1052,1070,1042,1042,40100,1042
2015/06/01,1058,1061,1041,1048,24600,1048
2015/06/02,1055,1150,1049,1150,90100,1150
2015/06/03,1170,1239,1132,1158,137700,1158
2015/06/04,1166,1315,1166,1234,126800,1234
2015/06/05,1180,1234,1170,1186,36300,1186
2015/06/08,1210,1227,1180,1181,36900,1181
2015/06/09,1165,1193,1105,1120,51300,1120
2015/06/10,1148,1148,1100,1109,17400,1109
2015/06/11,1139,1142,1100,1136,10900,1136
2015/06/12,1136,1140,1034,1059,92000,1059
2015/06/15,1068,1068,1034,1044,23600,1044
2015/06/16,1051,1051,1010,1012,26500,1012
2015/06/17,1042,1042,1012,1025,11700,1025
2015/06/18,1025,1086,1022,1086,16400,1086
2015/06/19,1086,1092,1057,1057,20300,1057
2015/06/22,1060,1060,1035,1042,4200,1042
2015/06/23,1040,1059,1031,1052,9300,1052
2015/06/24,1052,1119,1049,1060,13200,1060
2015/06/25,1060,1091,1060,1080,9100,1080
2015/06/26,1060,1105,1060,1098,7900,1098
2015/06/29,1038,1063,1021,1029,18500,1029
2015/06/30,1015,1069,1015,1046,9600,1046
2015/07/01,1069,1069,1046,1056,4600,1056
2015/07/02,1079,1079,1040,1040,4300,1040
2015/07/03,1068,1068,1034,1040,6300,1040
2015/07/06,1020,1027,999,1000,27300,1000
2015/07/07,1003,1027,1003,1026,6800,1026
2015/07/08,1025,1030,976,993,20900,993
2015/07/09,963,998,909,992,19900,992
2015/07/10,985,1020,975,983,9300,983
2015/07/13,982,1006,982,983,4300,983
2015/07/14,1016,1035,1013,1027,8200,1027
2015/07/15,997,1042,997,1042,6300,1042
2015/07/16,1042,1050,1024,1050,9300,1050
2015/07/17,1039,1050,1039,1047,1700,1047
2015/07/21,1050,1100,1050,1085,8100,1085
2015/07/22,1085,1085,1061,1067,2200,1067
2015/07/23,1067,1067,1045,1050,5200,1050
2015/07/24,1080,1080,1044,1044,2900,1044
2015/07/27,1090,1090,1047,1066,4600,1066
2015/07/28,1052,1092,1052,1090,5700,1090
2015/07/29,1100,1105,1097,1100,8200,1100
2015/07/30,1110,1133,1096,1130,15900,1130
2015/07/31,1122,1150,1098,1125,14200,1125
2015/08/03,1125,1149,1102,1139,7900,1139
2015/08/04,1139,1160,1130,1135,10700,1135
2015/08/05,1136,1170,1136,1160,13800,1160
2015/08/06,1162,1340,1162,1217,55800,1217
2015/08/07,1215,1315,1111,1111,44800,1111
2015/08/10,1200,1200,1121,1150,13700,1150
2015/08/11,1160,1160,1110,1139,4400,1139
2015/08/12,1090,1125,1090,1111,5300,1111
2015/08/13,1099,1100,1070,1075,5700,1075
2015/08/14,1075,1134,1062,1134,6100,1134
2015/08/17,1070,1100,1062,1070,6200,1070
2015/08/18,1073,1075,1060,1063,2800,1063
2015/08/19,1071,1154,1060,1082,9700,1082
2015/08/20,1080,1080,1057,1078,2100,1078
2015/08/21,1050,1066,1020,1037,4300,1037
2015/08/24,1000,1006,890,920,22900,920
2015/08/25,860,980,835,900,17900,900
2015/08/26,902,989,900,950,5500,950
2015/08/27,965,1010,965,982,6500,982
2015/08/28,999,1015,992,993,4100,993
2015/08/31,1008,1015,1006,1013,2600,1013
2015/09/01,971,1002,971,1001,700,1001
2015/09/02,980,1037,980,992,2300,992
2015/09/03,1000,1037,999,1027,3300,1027
2015/09/04,1000,1030,980,1005,7100,1005
2015/09/07,975,995,960,992,3400,992
2015/09/08,976,997,974,974,2100,974
2015/09/09,974,1029,974,1018,3500,1018
2015/09/10,1008,1017,987,1017,1500,1017
2015/09/11,1020,1034,1020,1033,57700,1033
2015/09/14,1017,1035,1017,1035,55600,1035
2015/09/15,1034,1056,1024,1053,2700,1053
2015/09/16,1068,1098,1050,1075,5900,1075
2015/09/17,1052,1093,1052,1093,3500,1093
2015/09/18,1104,1109,1090,1097,67000,1097
2015/09/24,1100,1100,1045,1063,4500,1063
2015/09/25,1089,1089,1050,1065,2800,1065
2015/09/28,1080,1080,1048,1048,3200,1048
2015/09/29,1078,1078,1035,1045,1900,1045
2015/09/30,1049,1065,1035,1048,3600,1048
2015/10/01,1051,1070,1051,1057,2600,1057
2015/10/02,1079,1079,1017,1049,4700,1049
2015/10/05,1055,1063,1033,1056,1100,1056
2015/10/06,1050,1050,1027,1027,2300,1027
2015/10/07,1030,1040,1030,1040,900,1040
2015/10/08,1063,1063,1063,1063,100,1063
2015/10/09,1062,1062,1032,1056,1300,1056
2015/10/13,1046,1046,1045,1046,1400,1046
2015/10/14,1045,1046,1020,1033,600,1033
2015/10/15,1013,1024,1013,1024,1300,1024
2015/10/16,1024,1024,1020,1020,1100,1020
