2010/01/04,91,92,90,91,9700,91
2010/01/05,91,92,91,92,2300,92
2010/01/06,91,93,91,93,1500,93
2010/01/07,92,92,91,92,4500,92
2010/01/08,91,93,91,93,2000,93
2010/01/12,93,93,90,90,22100,90
2010/01/13,90,91,89,90,23200,90
2010/01/14,88,90,88,89,12600,89
2010/01/15,89,90,89,90,4100,90
2010/01/18,90,90,89,90,3200,90
2010/01/19,90,90,90,90,6100,90
2010/01/20,101,120,99,107,2012800,107
2010/01/21,107,108,94,96,900900,96
2010/01/22,95,95,93,94,209200,94
2010/01/25,93,94,92,93,35000,93
2010/01/26,93,93,91,92,68300,92
2010/01/27,93,108,92,94,1062500,94
2010/01/28,95,99,91,93,428900,93
2010/01/29,95,101,92,93,234000,93
2010/02/01,95,95,93,94,47100,94
2010/02/02,94,94,92,93,45700,93
2010/02/03,93,93,91,91,26400,91
2010/02/04,91,91,90,90,36900,90
2010/02/05,89,91,88,91,22200,91
2010/02/08,90,91,88,89,46000,89
2010/02/09,89,89,88,88,30700,88
2010/02/10,88,89,87,88,4800,88
2010/02/12,88,88,87,88,35300,88
2010/02/15,87,87,86,86,19900,86
2010/02/16,86,92,86,92,81600,92
2010/02/17,112,118,97,99,1451600,99
2010/02/18,100,104,96,96,232900,96
2010/02/19,97,100,95,97,144400,97
2010/02/22,95,103,95,97,186700,97
2010/02/23,97,100,96,97,56600,97
2010/02/24,97,98,96,97,20700,97
2010/02/25,97,97,94,95,17300,95
2010/02/26,97,97,94,96,10500,96
2010/03/01,95,95,93,93,22400,93
2010/03/02,93,93,92,93,23400,93
2010/03/03,93,96,93,94,40700,94
2010/03/04,93,97,93,95,28600,95
2010/03/05,95,98,95,97,29100,97
2010/03/08,97,97,95,95,38100,95
2010/03/09,95,96,95,95,20200,95
2010/03/10,96,99,96,96,43000,96
2010/03/11,96,97,96,96,7400,96
2010/03/12,96,96,94,95,18100,95
2010/03/15,95,96,94,95,44300,95
2010/03/16,95,101,94,100,100500,100
2010/03/17,100,103,98,100,81700,100
2010/03/18,104,104,100,100,24000,100
2010/03/19,100,100,99,100,51000,100
2010/03/23,100,100,98,98,13700,98
2010/03/24,100,100,99,100,20100,100
2010/03/25,100,101,99,101,13300,101
2010/03/26,101,101,99,99,10200,99
2010/03/29,100,105,99,104,53200,104
2010/03/30,103,103,102,103,22700,103
2010/03/31,103,107,103,105,61500,105
2010/04/01,108,108,104,106,36500,106
2010/04/02,107,110,106,110,78600,110
2010/04/05,110,112,106,110,85600,110
2010/04/06,111,111,108,108,40800,108
2010/04/07,108,109,107,107,22100,107
2010/04/08,117,136,112,112,1671900,112
2010/04/09,115,117,112,115,178700,115
2010/04/12,116,117,113,115,125200,115
2010/04/13,114,116,113,115,39000,115
2010/04/14,115,122,114,119,138900,119
2010/04/15,122,122,116,121,121700,121
2010/04/16,126,130,117,118,298900,118
2010/04/19,119,119,115,117,45200,117
2010/04/20,116,116,110,114,125800,114
2010/04/21,113,116,113,116,42300,116
2010/04/22,116,116,114,115,44700,115
2010/04/23,115,123,115,123,188000,123
2010/04/26,122,129,121,125,369800,125
2010/04/27,126,126,124,126,58500,126
2010/04/28,125,125,120,121,93200,121
2010/04/30,123,123,122,123,52300,123
2010/05/06,119,119,116,116,82300,116
2010/05/07,115,116,111,114,109900,114
2010/05/10,111,117,111,116,11600,116
2010/05/11,118,118,117,117,21800,117
2010/05/12,116,117,116,117,11600,117
2010/05/13,117,117,115,117,9200,117
2010/05/14,114,116,114,114,17400,114
2010/05/17,114,115,107,110,31700,110
2010/05/18,110,111,105,108,11300,108
2010/05/19,106,109,101,107,39400,107
2010/05/20,107,109,105,108,5200,108
2010/05/21,102,104,100,104,18500,104
2010/05/24,104,106,103,105,3200,105
2010/05/25,105,105,101,101,14600,101
2010/05/26,102,102,99,99,6600,99
2010/05/27,110,110,103,107,22300,107
2010/05/28,106,107,105,107,13500,107
2010/05/31,107,108,106,106,8800,106
2010/06/01,107,107,106,107,2800,107
2010/06/02,108,110,106,106,10100,106
2010/06/03,108,109,107,109,2700,109
2010/06/04,109,110,108,110,8100,110
2010/06/07,110,110,107,108,3500,108
2010/06/08,107,108,107,108,2600,108
2010/06/09,109,109,107,107,2400,107
2010/06/10,107,108,106,108,4700,108
2010/06/11,109,109,108,108,800,108
2010/06/14,106,107,106,107,7000,107
2010/06/15,108,109,107,107,2700,107
2010/06/16,108,109,107,107,4500,107
2010/06/17,108,108,107,108,4400,108
2010/06/18,108,109,107,109,6900,109
2010/06/21,107,108,107,108,7000,108
2010/06/22,112,115,110,112,51300,112
2010/06/23,111,111,109,110,8000,110
2010/06/24,109,112,109,112,5200,112
2010/06/25,112,112,110,111,20600,111
2010/06/28,110,110,102,104,29100,104
2010/06/29,103,104,101,101,15300,101
2010/06/30,99,101,98,101,6400,101
2010/07/01,100,100,99,99,3500,99
2010/07/02,100,103,100,103,6800,103
2010/07/05,102,103,100,103,4700,103
2010/07/06,102,103,101,103,2300,103
2010/07/07,103,104,102,103,4200,103
2010/07/08,104,109,104,108,24700,108
2010/07/09,123,127,111,112,775400,112
2010/07/12,112,113,109,110,54600,110
2010/07/13,111,111,108,108,37900,108
2010/07/14,107,112,107,112,25300,112
2010/07/15,110,111,108,109,13700,109
2010/07/16,109,109,106,106,11500,106
2010/07/20,107,107,103,104,30600,104
2010/07/21,103,103,101,102,10900,102
2010/07/22,102,102,98,99,41300,99
2010/07/23,100,102,100,102,16200,102
2010/07/26,102,103,102,103,4300,103
2010/07/27,103,103,103,103,4500,103
2010/07/28,103,103,102,102,700,102
2010/07/29,103,104,102,104,13000,104
2010/07/30,104,104,102,102,7400,102
2010/08/02,103,103,103,103,4200,103
2010/08/03,103,103,102,103,3200,103
2010/08/04,103,103,102,102,4800,102
2010/08/05,102,103,101,102,9400,102
2010/08/06,102,102,101,101,9100,101
2010/08/09,102,102,101,102,4700,102
2010/08/10,102,102,101,102,6000,102
2010/08/11,102,103,101,101,8700,101
2010/08/12,100,100,98,100,13800,100
2010/08/13,100,101,100,100,1200,100
2010/08/16,100,100,98,100,10700,100
2010/08/17,98,99,98,99,3100,99
2010/08/18,98,98,97,98,2000,98
2010/08/19,98,100,98,99,1600,99
2010/08/20,98,99,96,99,9000,99
2010/08/23,97,98,97,97,2200,97
2010/08/24,96,97,96,97,6800,97
2010/08/25,97,97,96,97,2000,97
2010/08/26,97,98,96,97,4000,97
2010/08/27,98,98,97,97,5600,97
2010/08/30,97,99,97,99,7200,99
2010/08/31,98,115,97,99,169600,99
2010/09/01,99,100,98,98,16500,98
2010/09/02,100,101,98,98,4700,98
2010/09/03,99,100,98,99,3000,99
2010/09/06,99,100,98,99,5600,99
2010/09/07,99,102,99,102,18100,102
2010/09/08,100,111,100,104,103900,104
2010/09/09,104,108,103,104,24700,104
2010/09/10,104,106,102,105,21300,105
2010/09/13,105,110,104,105,32300,105
2010/09/14,106,122,101,104,907100,104
2010/09/15,104,106,103,103,43400,103
2010/09/16,104,105,103,105,19000,105
2010/09/17,105,105,103,103,14300,103
2010/09/21,105,105,104,104,14600,104
2010/09/22,105,106,104,106,22600,106
2010/09/24,106,115,104,104,253600,104
2010/09/27,106,107,104,105,61800,105
2010/09/28,106,109,105,107,43500,107
2010/09/29,108,112,108,109,50400,109
2010/09/30,111,112,108,109,34100,109
2010/10/01,110,114,107,113,69100,113
2010/10/04,113,163,112,138,4400900,138
2010/10/05,148,155,127,135,1293800,135
2010/10/06,140,140,124,133,448200,133
2010/10/07,143,150,127,134,1114000,134
2010/10/08,130,132,125,126,193100,126
2010/10/12,128,128,121,125,176500,125
2010/10/13,121,127,117,120,165400,120
2010/10/14,125,133,117,121,451400,121
2010/10/15,120,120,116,117,116100,117
2010/10/18,117,132,116,118,673600,118
2010/10/19,123,124,119,119,97500,119
2010/10/20,120,123,119,121,55000,121
2010/10/21,121,123,119,119,57900,119
2010/10/22,121,139,120,128,732900,128
2010/10/25,126,132,123,127,184000,127
2010/10/26,130,130,123,123,150200,123
2010/10/27,124,127,123,124,35300,124
2010/10/28,122,124,121,124,65900,124
2010/10/29,123,123,119,119,65200,119
2010/11/01,118,118,112,113,116700,113
2010/11/02,113,115,110,113,32500,113
2010/11/04,115,115,112,113,15100,113
2010/11/05,114,118,114,116,28500,116
2010/11/08,116,116,115,115,13900,115
2010/11/09,115,117,115,117,12200,117
2010/11/10,115,117,115,117,24500,117
2010/11/11,117,124,116,121,95200,121
2010/11/12,120,123,119,123,44900,123
2010/11/15,124,124,121,121,15500,121
2010/11/16,121,127,120,127,75200,127
2010/11/17,124,131,124,129,124400,129
2010/11/18,130,130,127,128,40500,128
2010/11/19,128,128,124,124,25100,124
2010/11/22,124,125,120,125,62300,125
2010/11/24,122,123,119,123,32800,123
2010/11/25,123,123,120,121,28000,121
2010/11/26,124,126,123,124,55600,124
2010/11/29,126,128,124,127,28100,127
2010/11/30,126,126,121,122,41400,122
2010/12/01,122,123,121,122,7400,122
2010/12/02,122,123,120,121,50800,121
2010/12/03,122,136,122,124,567200,124
2010/12/06,128,130,125,126,113700,126
2010/12/07,126,127,124,126,28100,126
2010/12/08,124,128,124,125,32800,125
2010/12/09,125,127,125,127,15000,127
2010/12/10,124,127,124,125,13400,125
2010/12/13,126,129,125,127,110500,127
2010/12/14,128,128,126,128,32600,128
2010/12/15,128,133,128,133,152100,133
2010/12/16,133,136,133,135,96700,135
2010/12/17,135,137,133,135,54200,135
2010/12/20,137,137,133,135,38100,135
2010/12/21,135,136,133,134,37000,134
2010/12/22,134,134,132,134,21800,134
2010/12/24,134,134,132,133,35000,133
2010/12/27,133,133,131,131,23200,131
2010/12/28,132,138,132,135,83300,135
2010/12/29,135,135,131,133,30900,133
2010/12/30,133,134,132,133,11300,133
2011/01/04,134,140,134,138,108700,138
2011/01/05,137,144,137,143,134900,143
2011/01/06,143,145,142,144,43900,144
2011/01/07,143,143,141,142,45000,142
2011/01/11,142,154,141,150,468200,150
2011/01/12,158,169,152,165,892200,165
2011/01/13,214,214,183,192,1970000,192
2011/01/14,182,188,178,180,417800,180
2011/01/17,185,205,181,205,743600,205
2011/01/18,199,203,191,192,368900,192
2011/01/19,191,195,187,191,109300,191
2011/01/20,194,194,189,192,78700,192
2011/01/21,192,192,180,184,140100,184
2011/01/24,184,185,177,179,69700,179
2011/01/25,178,190,178,186,72200,186
2011/01/26,184,192,184,191,56300,191
2011/01/27,191,197,190,190,65800,190
2011/01/28,191,194,187,193,41600,193
2011/01/31,195,221,193,207,482500,207
2011/02/01,202,211,198,206,188200,206
2011/02/02,211,213,203,207,93400,207
2011/02/03,210,228,205,210,406000,210
2011/02/04,213,217,208,210,119000,210
2011/02/07,210,212,208,209,72500,209
2011/02/08,206,215,204,215,113500,215
2011/02/09,220,225,214,219,277600,219
2011/02/10,225,249,223,241,819500,241
2011/02/14,239,248,229,243,284000,243
2011/02/15,237,250,236,246,289700,246
2011/02/16,248,253,240,251,222500,251
2011/02/17,249,250,243,245,189800,245
2011/02/18,290,314,270,284,2606500,284
2011/02/21,286,302,280,283,889600,283
2011/02/22,285,285,273,280,232800,280
2011/02/23,278,283,261,261,240700,261
2011/02/24,261,261,247,247,171100,247
2011/02/25,246,246,233,243,136700,243
2011/02/28,251,259,246,251,118500,251
2011/03/01,246,256,246,255,58400,255
2011/03/02,251,255,247,248,63600,248
2011/03/03,246,253,240,253,57400,253
2011/03/04,256,268,252,266,172100,266
2011/03/07,267,278,265,269,117600,269
2011/03/08,273,274,265,266,73100,266
2011/03/09,263,265,250,251,82800,251
2011/03/10,258,258,249,253,36800,253
2011/03/11,246,260,241,253,45600,253
2011/03/14,173,195,173,173,313000,173
2011/03/15,138,140,123,123,451700,123
2011/03/16,128,146,123,141,197100,141
2011/03/17,140,154,127,154,141900,154
2011/03/18,160,174,159,171,167000,171
2011/03/22,190,216,190,205,195000,205
2011/03/23,211,211,197,200,113100,200
2011/03/24,200,200,187,190,97700,190
2011/03/25,192,194,182,183,46100,183
2011/03/28,183,184,176,181,50400,181
2011/03/29,181,181,171,174,40900,174
2011/03/30,174,180,173,178,35000,178
2011/03/31,184,193,183,193,50600,193
2011/04/01,198,203,187,188,72100,188
2011/04/04,193,193,183,184,34300,184
2011/04/05,185,186,180,182,38100,182
2011/04/06,182,182,178,179,28400,179
2011/04/07,179,200,177,195,140700,195
2011/04/08,192,198,187,198,51200,198
2011/04/11,197,209,196,209,128100,209
2011/04/12,205,209,203,204,62100,204
2011/04/13,202,207,197,199,65900,199
2011/04/14,201,214,196,212,132200,212
2011/04/15,220,239,215,229,350100,229
2011/04/18,162,179,158,174,1253700,174
2011/04/19,176,188,168,169,469400,169
2011/04/20,170,170,163,165,125200,165
2011/04/21,165,165,152,160,217600,160
2011/04/22,157,157,149,153,144100,153
2011/04/25,153,155,150,153,70800,153
2011/04/26,153,153,149,149,71200,149
2011/04/27,149,155,145,151,113400,151
2011/04/28,156,158,151,152,96500,152
2011/05/02,152,154,148,153,56400,153
2011/05/06,149,151,147,148,40100,148
2011/05/09,150,156,148,155,99800,155
2011/05/10,157,164,157,163,315100,163
2011/05/11,166,166,159,162,122300,162
2011/05/12,158,161,158,159,43200,159
2011/05/13,157,157,150,151,50700,151
2011/05/16,142,148,142,144,51100,144
2011/05/17,148,156,146,152,63000,152
2011/05/18,158,164,158,163,165300,163
2011/05/19,166,166,159,159,66200,159
2011/05/20,159,160,155,159,46800,159
2011/05/23,159,159,145,148,106600,148
2011/05/24,148,153,146,150,56200,150
2011/05/25,150,153,145,146,38000,146
2011/05/26,146,147,144,147,31100,147
2011/05/27,149,150,146,146,34000,146
2011/05/30,145,146,142,144,41300,144
2011/05/31,143,145,142,143,41400,143
2011/06/01,145,153,145,152,91000,152
2011/06/02,149,149,144,148,32900,148
2011/06/03,149,149,146,146,13400,146
2011/06/06,146,146,140,143,41500,143
2011/06/07,142,142,135,140,63100,140
2011/06/08,140,140,135,135,37300,135
2011/06/09,136,185,135,157,2825400,157
2011/06/10,152,152,139,142,688500,142
2011/06/13,142,142,139,141,142600,141
2011/06/14,140,142,139,141,40600,141
2011/06/15,141,142,139,140,42600,140
2011/06/16,138,142,137,139,60400,139
2011/06/17,139,139,137,137,44900,137
2011/06/20,137,140,136,139,44300,139
2011/06/21,139,147,139,143,87400,143
2011/06/22,145,147,143,145,42100,145
2011/06/23,144,144,141,141,14900,141
2011/06/24,141,143,140,142,16600,142
2011/06/27,144,144,140,140,40800,140
2011/06/28,142,142,140,140,15100,140
2011/06/29,141,143,141,142,12600,142
2011/06/30,142,143,141,143,10600,143
2011/07/01,143,143,141,142,12400,142
2011/07/04,143,145,142,143,22600,143
2011/07/05,149,157,144,145,188500,145
2011/07/06,147,148,144,147,25800,147
2011/07/07,147,150,144,149,34300,149
2011/07/08,149,150,148,148,18100,148
2011/07/11,149,150,143,146,42700,146
2011/07/12,145,145,142,142,17800,142
2011/07/13,142,146,142,144,13700,144
2011/07/14,143,146,143,143,10200,143
2011/07/15,144,146,142,142,22400,142
2011/07/19,144,146,144,145,8400,145
2011/07/20,145,149,144,146,33200,146
2011/07/21,148,148,146,147,24200,147
2011/07/22,148,149,141,142,41500,142
2011/07/25,143,144,142,142,22300,142
2011/07/26,143,143,142,143,9600,143
2011/07/27,143,143,139,139,22400,139
2011/07/28,139,140,136,137,52600,137
2011/07/29,141,141,138,138,22300,138
2011/08/01,138,142,138,141,12700,141
2011/08/02,141,141,139,139,6700,139
2011/08/03,139,139,136,138,7300,138
2011/08/04,138,138,136,136,17600,136
2011/08/05,134,134,128,129,67800,129
2011/08/08,130,132,128,129,20400,129
2011/08/09,125,126,119,126,39500,126
2011/08/10,130,132,128,130,22500,130
2011/08/11,129,131,126,131,9700,131
2011/08/12,136,136,130,131,19300,131
2011/08/15,134,136,131,136,15100,136
2011/08/16,137,138,134,134,27900,134
2011/08/17,135,135,134,134,5500,134
2011/08/18,133,134,133,134,12000,134
2011/08/19,132,133,130,130,23500,130
2011/08/22,133,133,129,129,10100,129
2011/08/23,127,129,125,129,10900,129
2011/08/24,130,130,123,123,11600,123
2011/08/25,124,128,124,126,13000,126
2011/08/26,128,128,123,126,13600,126
2011/08/29,126,132,126,128,5500,128
2011/08/30,130,131,130,131,12200,131
2011/08/31,130,132,130,131,3800,131
2011/09/01,132,137,132,135,12900,135
2011/09/02,132,134,132,132,7700,132
2011/09/05,130,132,130,131,15000,131
2011/09/06,129,129,126,126,27100,126
2011/09/07,131,134,128,132,12500,132
2011/09/08,133,136,129,129,18400,129
2011/09/09,129,131,129,130,11800,130
2011/09/12,130,146,130,134,244900,134
2011/09/13,132,139,131,138,58300,138
2011/09/14,138,139,134,135,33800,135
2011/09/15,136,140,132,133,39600,133
2011/09/16,135,141,134,138,29900,138
2011/09/20,138,144,137,138,88600,138
2011/09/21,137,145,136,138,157800,138
2011/09/22,146,163,139,143,1711000,143
2011/09/26,141,142,137,138,82600,138
2011/09/27,141,142,136,136,73300,136
2011/09/28,137,138,135,138,36900,138
2011/09/29,137,141,137,140,38100,140
2011/09/30,141,143,139,141,32900,141
2011/10/03,143,150,142,146,86900,146
2011/10/04,144,152,144,151,75600,151
2011/10/05,151,151,143,143,75100,143
2011/10/06,153,159,135,139,1092000,139
2011/10/07,137,139,131,134,170000,134
2011/10/11,131,133,127,130,115100,130
2011/10/12,129,132,129,129,49500,129
2011/10/13,131,134,130,130,34400,130
2011/10/14,132,133,129,131,47400,131
2011/10/17,131,131,129,130,22500,130
2011/10/18,128,130,126,127,24400,127
2011/10/19,127,127,125,126,25200,126
2011/10/20,125,126,124,124,19000,124
2011/10/21,124,127,122,125,36300,125
2011/10/24,125,127,124,127,8100,127
2011/10/25,125,127,124,124,17800,124
2011/10/26,125,127,123,124,13600,124
2011/10/27,124,125,122,123,35900,123
2011/10/28,124,126,123,125,17100,125
2011/10/31,125,127,124,127,5100,127
2011/11/01,127,127,119,122,27900,122
2011/11/02,122,123,121,123,8600,123
2011/11/04,123,123,120,121,18400,121
2011/11/07,121,122,120,122,12000,122
2011/11/08,121,121,119,120,13000,120
2011/11/09,119,121,119,119,7800,119
2011/11/10,119,119,112,113,63500,113
2011/11/11,115,116,113,114,12700,114
2011/11/14,113,117,113,117,8300,117
2011/11/15,114,117,114,115,8600,115
2011/11/16,114,115,113,113,3500,113
2011/11/17,113,115,112,114,9200,114
2011/11/18,113,114,112,113,5800,113
2011/11/21,111,113,108,111,31900,111
2011/11/22,108,108,106,108,27500,108
2011/11/24,108,108,100,101,34800,101
2011/11/25,107,108,101,102,44700,102
2011/11/28,103,105,102,105,12200,105
2011/11/29,105,112,105,108,32700,108
2011/11/30,107,110,106,107,13400,107
2011/12/01,109,111,108,109,18800,109
2011/12/02,110,113,110,112,14900,112
2011/12/05,111,120,111,118,53300,118
2011/12/06,118,119,115,118,13500,118
2011/12/07,115,118,115,115,5900,115
2011/12/08,116,122,115,118,21900,118
2011/12/09,118,119,115,119,21700,119
2011/12/12,120,123,120,123,21300,123
2011/12/13,121,123,117,118,46900,118
2011/12/14,117,118,116,118,9100,118
2011/12/15,118,118,117,118,2500,118
2011/12/16,120,120,118,119,4200,119
2011/12/19,118,118,112,117,17100,117
2011/12/20,115,117,115,116,7900,116
2011/12/21,115,116,114,116,4700,116
2011/12/22,115,116,114,115,1900,115
2011/12/26,115,116,113,116,15800,116
2011/12/27,117,117,114,115,5100,115
2011/12/28,114,114,113,114,6700,114
2011/12/29,115,116,112,114,13700,114
2011/12/30,115,118,114,115,14700,115
2012/01/04,115,118,115,118,9700,118
2012/01/05,118,128,118,120,109000,120
2012/01/06,122,125,121,125,18600,125
2012/01/10,125,127,122,125,27000,125
2012/01/11,123,125,120,121,10800,121
2012/01/12,121,122,116,116,43000,116
2012/01/13,116,124,116,117,46000,117
2012/01/16,117,121,117,117,11800,117
2012/01/17,119,125,118,120,19300,120
2012/01/18,120,120,119,120,9000,120
2012/01/19,121,124,121,124,18500,124
2012/01/20,125,125,121,121,25600,121
2012/01/23,121,123,120,122,12000,122
2012/01/24,121,123,120,121,16700,121
2012/01/25,122,124,122,123,4000,123
2012/01/26,123,123,120,123,8200,123
2012/01/27,123,124,121,121,19600,121
2012/01/30,122,122,120,122,38000,122
2012/01/31,122,122,119,122,17100,122
2012/02/01,122,125,122,125,18900,125
2012/02/02,125,136,125,133,192100,133
2012/02/03,132,132,129,130,38200,130
2012/02/06,131,133,130,133,12300,133
2012/02/07,135,145,135,142,110400,142
2012/02/08,150,155,146,149,175700,149
2012/02/09,150,150,147,149,45900,149
2012/02/10,148,150,144,147,38200,147
2012/02/13,149,165,144,150,238600,150
2012/02/14,147,152,146,152,43900,152
2012/02/15,155,159,154,154,92300,154
2012/02/16,155,159,155,158,28900,158
2012/02/17,161,170,160,168,141900,168
2012/02/20,165,165,159,161,39000,161
2012/02/21,211,211,211,211,52300,211
2012/02/22,255,285,226,228,2578600,228
2012/02/23,226,256,217,230,910900,230
2012/02/24,226,233,222,226,237500,226
2012/02/27,229,242,218,238,343800,238
2012/02/28,240,248,224,232,377100,232
2012/02/29,229,229,217,222,176900,222
2012/03/01,222,222,207,208,130600,208
2012/03/02,214,214,202,207,62900,207
2012/03/05,220,221,212,212,81000,212
2012/03/06,213,219,210,215,55200,215
2012/03/07,211,218,210,217,26000,217
2012/03/08,218,228,217,225,82800,225
2012/03/09,229,234,224,232,165900,232
2012/03/12,237,238,231,234,116400,234
2012/03/13,235,236,230,233,57400,233
2012/03/14,232,235,223,231,57300,231
2012/03/15,226,227,223,223,28000,223
2012/03/16,224,224,214,218,41100,218
2012/03/19,219,221,214,221,36000,221
2012/03/21,221,228,221,224,38000,224
2012/03/22,224,225,219,220,30900,220
2012/03/23,220,222,216,220,34200,220
2012/03/26,223,225,220,220,31300,220
2012/03/27,223,225,221,222,25400,222
2012/03/28,222,225,221,224,9600,224
2012/03/29,224,230,224,227,44900,227
2012/03/30,226,235,226,235,73600,235
2012/04/02,236,260,236,260,480600,260
2012/04/03,252,258,235,240,296100,240
2012/04/04,241,244,231,237,101900,237
2012/04/05,236,238,227,235,70900,235
2012/04/06,235,240,232,239,52000,239
2012/04/09,238,239,231,234,53000,234
2012/04/10,231,236,223,223,85200,223
2012/04/11,220,225,217,224,61700,224
2012/04/12,222,228,212,216,67600,216
2012/04/13,217,236,217,225,104100,225
2012/04/16,183,188,178,184,600600,184
2012/04/17,184,184,169,170,296200,170
2012/04/18,172,175,165,173,166200,173
2012/04/19,175,175,170,173,51400,173
2012/04/20,173,174,170,170,49400,170
2012/04/23,169,169,166,168,46500,168
2012/04/24,165,173,165,167,117600,167
2012/04/25,169,170,160,164,95200,164
2012/04/26,166,172,164,169,41600,169
2012/04/27,166,170,164,164,45600,164
2012/05/01,165,168,156,159,46300,159
2012/05/02,159,165,159,163,34100,163
2012/05/07,160,163,152,155,48800,155
2012/05/08,151,155,150,154,25300,154
2012/05/09,152,155,146,155,31900,155
2012/05/10,151,156,151,156,10700,156
2012/05/11,157,157,147,155,31200,155
2012/05/14,150,153,137,140,59500,140
2012/05/15,136,138,127,136,35400,136
2012/05/16,136,142,136,139,11900,139
2012/05/17,140,142,139,142,2800,142
2012/05/18,141,144,136,137,20400,137
2012/05/21,140,141,135,140,9600,140
2012/05/22,141,145,140,143,14900,143
2012/05/23,146,148,144,147,15400,147
2012/05/24,147,150,146,149,17400,149
2012/05/25,153,154,151,154,31500,154
2012/05/28,155,156,146,155,27600,155
2012/05/29,155,157,154,157,14400,157
2012/05/30,160,161,157,161,16800,161
2012/05/31,158,164,158,163,21900,163
2012/06/01,164,175,162,175,107300,175
2012/06/04,175,178,165,172,94700,172
2012/06/05,175,179,171,179,62800,179
2012/06/06,180,188,175,188,103700,188
2012/06/07,191,196,185,196,107000,196
2012/06/08,196,196,180,189,146700,189
2012/06/11,194,195,187,193,68600,193
2012/06/12,190,190,173,173,75100,173
2012/06/13,173,174,165,165,40300,165
2012/06/14,169,170,165,169,16300,169
2012/06/15,165,170,164,165,20700,165
2012/06/18,168,173,165,170,21900,170
2012/06/19,170,170,166,166,14600,166
2012/06/20,170,174,162,172,41000,172
2012/06/21,172,175,167,175,50500,175
2012/06/22,176,177,173,175,18200,175
2012/06/25,175,178,173,177,10600,177
2012/06/26,170,177,170,175,33600,175
2012/06/27,181,181,173,174,29800,174
2012/06/28,177,177,171,177,13300,177
2012/06/29,174,176,171,175,10000,175
2012/07/02,175,178,170,175,14300,175
2012/07/03,177,178,175,178,25500,178
2012/07/04,175,179,175,179,18300,179
2012/07/05,178,179,177,179,6100,179
2012/07/06,179,179,176,179,8100,179
2012/07/09,178,179,170,176,14600,176
2012/07/10,177,177,170,176,18600,176
2012/07/11,176,184,176,184,45100,184
2012/07/12,234,234,197,199,2705800,199
2012/07/13,196,196,186,187,405000,187
2012/07/17,190,226,187,211,1334500,211
2012/07/18,203,212,195,198,293800,198
2012/07/19,200,202,193,198,98400,198
2012/07/20,201,217,196,209,561600,209
2012/07/23,215,216,196,201,164000,201
2012/07/24,197,203,196,200,76700,200
2012/07/25,198,203,192,193,126300,193
2012/07/26,193,198,193,196,30200,196
2012/07/27,199,203,198,201,15700,201
2012/07/30,203,204,198,199,26100,199
2012/07/31,200,203,197,201,25200,201
2012/08/01,199,202,198,200,16800,200
2012/08/02,201,207,200,203,46100,203
2012/08/03,204,205,199,203,36800,203
2012/08/06,206,217,203,217,175000,217
2012/08/07,214,217,211,215,58200,215
2012/08/08,216,216,208,214,34700,214
2012/08/09,214,215,211,213,14700,213
2012/08/10,213,221,212,217,126700,217
2012/08/13,216,224,215,216,155700,216
2012/08/14,216,220,214,219,69700,219
2012/08/15,221,228,220,225,164200,225
2012/08/16,226,238,225,238,187400,238
2012/08/17,234,237,227,232,157300,232
2012/08/20,235,240,233,234,96800,234
2012/08/21,233,237,231,233,40100,233
2012/08/22,231,234,230,234,35200,234
2012/08/23,232,243,231,243,117900,243
2012/08/24,238,249,238,247,94300,247
2012/08/27,249,255,247,251,112500,251
2012/08/28,248,252,244,248,41200,248
2012/08/29,245,249,243,246,39900,246
2012/08/30,250,251,228,235,203300,235
2012/08/31,231,239,228,238,60100,238
2012/09/03,243,248,240,243,38100,243
2012/09/04,243,245,238,241,38400,241
2012/09/05,240,240,235,240,23000,240
2012/09/06,236,239,235,239,24000,239
2012/09/07,240,242,239,242,16300,242
2012/09/10,242,248,241,248,43300,248
2012/09/11,247,248,245,248,23600,248
2012/09/12,249,257,249,257,129700,257
2012/09/13,258,264,253,263,89800,263
2012/09/14,259,265,250,255,132800,255
2012/09/18,252,259,252,259,62600,259
2012/09/19,259,265,259,265,65200,265
2012/09/20,268,269,259,262,77500,262
2012/09/21,262,264,258,263,40300,263
2012/09/24,263,264,258,260,37900,260
2012/09/25,260,260,250,258,65000,258
2012/09/26,253,261,253,260,40400,260
2012/09/27,258,261,250,254,86500,254
2012/09/28,255,258,253,258,50800,258
2012/10/01,259,262,255,260,64400,260
2012/10/02,260,263,259,262,50500,262
2012/10/03,263,265,258,264,55900,264
2012/10/04,224,236,206,206,1246000,206
2012/10/05,211,212,202,206,382300,206
2012/10/09,210,210,207,208,91600,208
2012/10/10,208,209,204,207,58200,207
2012/10/11,207,211,205,210,86500,210
2012/10/12,205,208,199,205,133400,205
2012/10/15,202,204,200,204,26500,204
2012/10/16,204,205,201,203,26100,203
2012/10/17,204,204,202,204,33700,204
2012/10/18,204,207,203,205,32000,205
2012/10/19,205,208,204,206,84700,206
2012/10/22,205,207,204,206,37200,206
2012/10/23,206,207,204,206,30500,206
2012/10/24,202,207,202,207,31800,207
2012/10/25,206,206,204,205,47900,205
2012/10/26,206,206,202,204,59800,204
2012/10/29,203,205,202,202,17000,202
2012/10/30,205,208,204,207,41700,207
2012/10/31,208,216,207,212,143600,212
2012/11/01,218,226,214,220,192300,220
2012/11/02,222,225,219,221,53200,221
2012/11/05,220,230,220,223,78200,223
2012/11/06,225,228,223,227,58800,227
2012/11/07,228,232,228,230,39800,230
2012/11/08,224,228,221,225,33300,225
2012/11/09,223,228,223,228,24000,228
2012/11/12,226,226,222,223,19500,223
2012/11/13,224,225,220,220,34400,220
2012/11/14,219,222,214,221,14400,221
2012/11/15,216,222,215,221,26100,221
2012/11/16,221,225,219,222,31400,222
2012/11/19,221,223,220,221,7400,221
2012/11/20,221,223,219,223,36500,223
2012/11/21,223,228,221,227,14900,227
2012/11/22,225,227,224,226,10600,226
2012/11/26,227,228,224,227,26500,227
2012/11/27,228,228,224,227,30400,227
2012/11/28,224,226,221,225,29100,225
2012/11/29,222,228,222,228,33600,228
2012/11/30,226,231,226,229,25200,229
2012/12/03,229,229,224,227,42200,227
2012/12/04,228,228,225,226,9500,226
2012/12/05,227,228,217,227,37200,227
2012/12/06,227,231,227,230,51500,230
2012/12/07,228,238,228,237,83800,237
2012/12/10,240,246,238,246,47100,246
2012/12/11,246,250,243,247,41000,247
2012/12/12,245,249,241,246,39700,246
2012/12/13,243,247,243,246,12700,246
2012/12/14,244,247,242,244,35100,244
2012/12/17,242,248,236,239,37700,239
2012/12/18,235,244,235,242,37700,242
2012/12/19,240,244,233,236,31800,236
2012/12/20,232,239,228,232,41000,232
2012/12/21,234,238,230,234,33400,234
2012/12/25,235,237,229,234,30700,234
2012/12/26,234,237,230,236,35000,236
2012/12/27,234,243,234,243,38200,243
2012/12/28,241,245,240,245,17700,245
2013/01/04,247,249,243,247,40700,247
2013/01/07,246,251,245,250,49800,250
2013/01/08,250,251,247,251,26600,251
2013/01/09,246,250,242,248,30800,248
2013/01/10,242,246,237,240,82200,240
2013/01/11,245,247,239,242,140500,242
2013/01/15,246,253,241,250,99600,250
2013/01/16,249,251,246,248,34700,248
2013/01/17,249,249,245,247,34000,247
2013/01/18,248,249,244,245,46900,245
2013/01/21,244,249,244,245,25100,245
2013/01/22,248,252,245,248,61000,248
2013/01/23,248,250,245,249,29300,249
2013/01/24,249,250,244,248,48600,248
2013/01/25,248,249,244,247,22500,247
2013/01/28,247,248,244,246,24700,246
2013/01/29,244,246,241,244,13300,244
2013/01/30,242,245,239,244,35700,244
2013/01/31,245,245,243,244,16200,244
2013/02/01,245,247,243,247,24800,247
2013/02/04,247,249,245,248,49900,248
2013/02/05,245,249,245,248,19800,248
2013/02/06,248,253,245,253,97100,253
2013/02/07,254,260,252,260,60000,260
2013/02/08,260,263,256,259,49400,259
2013/02/12,260,263,257,257,45800,257
2013/02/13,254,256,247,248,65300,248
2013/02/14,249,255,245,254,72000,254
2013/02/15,255,257,247,250,138400,250
2013/02/18,251,255,247,255,79000,255
2013/02/19,249,254,249,254,63000,254
2013/02/20,251,252,234,242,258100,242
2013/02/21,236,239,235,238,75000,238
2013/02/22,234,237,230,235,66000,235
2013/02/25,229,234,223,233,139800,233
2013/02/26,226,230,222,229,31700,229
2013/02/27,230,230,205,213,216800,213
2013/02/28,218,224,214,224,77000,224
2013/03/01,223,226,220,223,23500,223
2013/03/04,226,227,223,224,27500,224
2013/03/05,222,225,220,222,37600,222
2013/03/06,223,226,222,222,26200,222
2013/03/07,225,225,222,224,25600,224
2013/03/08,224,226,223,226,15100,226
2013/03/11,231,231,226,228,37100,228
2013/03/12,228,228,223,223,40900,223
2013/03/13,223,224,218,220,40300,220
2013/03/14,220,223,213,221,54300,221
2013/03/15,222,223,219,220,27800,220
2013/03/18,221,222,217,219,69400,219
2013/03/19,219,222,219,221,21500,221
2013/03/21,221,230,221,229,102300,229
2013/03/22,228,232,226,228,38500,228
2013/03/25,227,231,227,231,45600,231
2013/03/26,231,237,231,237,65000,237
2013/03/27,240,241,238,240,46800,240
2013/03/28,240,244,238,240,76400,240
2013/03/29,240,240,237,240,35200,240
2013/04/01,238,240,220,227,76600,227
2013/04/02,214,229,211,222,94000,222
2013/04/03,224,229,222,229,24300,229
2013/04/04,230,233,223,231,107000,231
2013/04/05,233,236,231,236,64200,236
2013/04/08,222,230,214,229,415400,229
2013/04/09,230,231,224,226,64800,226
2013/04/10,228,228,221,223,62800,223
2013/04/11,225,226,220,222,102000,222
2013/04/12,220,228,220,226,198700,226
2013/04/15,202,211,199,211,346600,211
2013/04/16,206,213,206,213,65700,213
2013/04/17,211,214,211,213,50600,213
2013/04/18,211,215,211,213,93000,213
2013/04/19,214,238,212,236,430700,236
2013/04/22,245,247,223,229,545400,229
2013/04/23,224,227,222,223,178400,223
2013/04/24,224,226,221,224,62000,224
2013/04/25,224,227,223,224,51800,224
2013/04/26,225,227,223,225,45200,225
2013/04/30,240,242,231,239,271300,239
2013/05/01,244,244,233,235,164100,235
2013/05/02,237,239,234,236,55300,236
2013/05/07,241,243,238,241,92100,241
2013/05/08,243,243,236,239,131500,239
2013/05/09,238,241,234,238,97600,238
2013/05/10,240,241,234,236,84400,236
2013/05/13,235,238,231,234,92100,234
2013/05/14,234,240,233,238,78800,238
2013/05/15,240,241,236,238,145800,238
2013/05/16,240,240,224,234,125400,234
2013/05/17,234,237,229,237,23500,237
2013/05/20,238,245,237,244,122700,244
2013/05/21,242,244,240,242,34100,242
2013/05/22,241,244,240,244,107100,244
2013/05/23,245,274,239,250,748200,250
2013/05/24,258,264,231,238,261200,238
2013/05/27,240,243,229,241,125500,241
2013/05/28,239,246,239,242,73000,242
2013/05/29,238,244,234,240,69800,240
2013/05/30,240,240,228,232,62100,232
2013/05/31,229,235,227,233,38100,233
2013/06/03,228,233,227,228,28100,228
2013/06/04,229,233,226,230,36700,230
2013/06/05,230,237,227,234,79500,234
2013/06/06,233,234,215,225,114700,225
2013/06/07,215,223,208,217,74100,217
2013/06/10,220,223,215,220,46300,220
2013/06/11,222,223,220,223,36200,223
2013/06/12,219,226,219,226,23000,226
2013/06/13,221,223,215,220,44000,220
2013/06/14,220,226,220,224,31500,224
2013/06/17,216,221,200,210,364300,210
2013/06/18,210,211,205,211,36600,211
2013/06/19,211,214,209,212,18600,212
2013/06/20,212,213,205,207,19900,207
2013/06/21,205,207,203,205,25400,205
2013/06/24,210,211,207,209,23900,209
2013/06/25,206,208,203,207,34200,207
2013/06/26,205,206,200,205,43500,205
2013/06/27,207,207,199,207,69300,207
2013/06/28,208,208,205,207,8000,207
2013/07/01,208,216,207,215,42500,215
2013/07/02,217,220,215,218,22600,218
2013/07/03,220,223,219,223,23000,223
2013/07/04,215,223,215,222,18200,222
2013/07/05,223,223,219,221,16200,221
2013/07/08,221,224,220,223,42900,223
2013/07/09,223,228,223,226,23800,226
2013/07/10,225,226,222,226,33800,226
2013/07/11,194,204,194,204,283600,204
2013/07/12,201,205,198,202,97600,202
2013/07/16,203,203,199,202,31100,202
2013/07/17,201,203,198,202,46000,202
2013/07/18,202,203,199,203,21000,203
2013/07/19,201,206,200,203,51900,203
2013/07/22,201,204,200,202,17000,202
2013/07/23,202,203,199,201,25200,201
2013/07/24,200,202,199,202,56300,202
2013/07/25,202,202,199,201,19100,201
2013/07/26,201,201,195,197,80900,197
2013/07/29,195,199,189,198,35100,198
2013/07/30,193,198,192,198,21900,198
2013/07/31,198,198,195,195,7900,195
2013/08/01,195,197,190,196,42800,196
2013/08/02,194,197,194,197,13500,197
2013/08/05,194,197,193,196,11400,196
2013/08/06,196,196,193,196,10900,196
2013/08/07,194,195,192,194,17100,194
2013/08/08,193,195,190,190,17500,190
2013/08/09,190,193,188,192,51800,192
2013/08/12,191,191,186,191,23700,191
2013/08/13,190,191,188,190,15900,190
2013/08/14,188,190,183,188,40000,188
2013/08/15,185,188,184,188,25100,188
2013/08/16,186,187,181,187,57600,187
2013/08/19,185,187,184,187,16800,187
2013/08/20,186,189,185,189,9300,189
2013/08/21,186,189,185,189,33000,189
2013/08/22,186,189,184,186,40600,186
2013/08/23,186,187,183,186,32000,186
2013/08/26,185,186,184,186,6500,186
2013/08/27,188,188,185,186,9600,186
2013/08/28,184,187,183,187,13500,187
2013/08/29,187,190,185,190,12800,190
2013/08/30,188,189,186,189,6700,189
2013/09/02,189,189,186,189,5100,189
2013/09/03,190,198,190,198,37300,198
2013/09/04,200,200,194,200,37500,200
2013/09/05,198,199,196,197,15700,197
2013/09/06,197,198,192,194,27300,194
2013/09/09,202,205,196,200,64000,200
2013/09/10,200,207,198,205,77400,205
2013/09/11,206,207,200,202,28100,202
2013/09/12,200,204,199,204,17300,204
2013/09/13,204,204,200,204,11400,204
2013/09/17,204,204,200,203,13600,203
2013/09/18,202,204,200,203,12700,203
2013/09/19,203,203,198,201,17900,201
2013/09/20,201,202,197,200,17500,200
2013/09/24,204,208,202,208,53600,208
2013/09/25,208,208,201,207,36600,207
2013/09/26,203,206,201,205,11300,205
2013/09/27,205,205,203,204,13800,204
2013/09/30,201,206,199,205,20900,205
2013/10/01,205,206,202,205,5900,205
2013/10/02,204,205,202,204,14200,204
2013/10/03,200,203,199,203,16900,203
2013/10/04,203,203,198,201,15800,201
2013/10/07,197,202,196,199,18600,199
2013/10/08,196,198,196,196,3700,196
2013/10/09,196,197,193,197,7100,197
2013/10/10,196,203,195,203,15900,203
2013/10/11,195,200,193,200,40300,200
2013/10/15,198,200,197,199,5500,199
2013/10/16,197,199,196,199,9000,199
2013/10/17,197,199,195,197,27600,197
2013/10/18,197,197,195,197,6000,197
2013/10/21,196,198,194,198,14600,198
2013/10/22,197,199,197,198,7600,198
2013/10/23,196,198,196,198,21200,198
2013/10/24,197,198,196,198,12400,198
2013/10/25,199,199,195,196,14300,196
2013/10/28,195,198,195,196,13600,196
2013/10/29,197,198,196,198,10900,198
2013/10/30,198,199,195,195,19300,195
2013/10/31,197,197,195,195,12000,195
2013/11/01,195,196,192,192,13300,192
2013/11/05,192,193,190,192,15800,192
2013/11/06,191,192,190,191,7000,191
2013/11/07,192,192,191,191,600,191
2013/11/08,191,194,191,191,4800,191
2013/11/11,193,193,189,190,13500,190
2013/11/12,190,190,189,189,6500,189
2013/11/13,189,190,188,189,9200,189
2013/11/14,188,192,188,192,14800,192
2013/11/15,190,192,189,191,11500,191
2013/11/18,192,192,190,190,20400,190
2013/11/19,191,191,189,190,9100,190
2013/11/20,190,191,189,191,6800,191
2013/11/21,190,191,190,191,8000,191
2013/11/22,191,192,190,192,16800,192
2013/11/25,192,192,190,191,10500,191
2013/11/26,191,192,190,192,17900,192
2013/11/27,194,194,192,193,28200,193
2013/11/28,194,195,192,193,16300,193
2013/11/29,195,195,193,195,7000,195
2013/12/02,195,198,195,198,31700,198
2013/12/03,199,208,197,204,61800,204
2013/12/04,203,203,198,203,30300,203
2013/12/05,201,202,198,200,15100,200
2013/12/06,200,200,195,195,28900,195
2013/12/09,198,199,198,198,4300,198
2013/12/10,198,199,193,199,34100,199
2013/12/11,199,199,193,194,36800,194
2013/12/12,195,196,194,194,9100,194
2013/12/13,194,195,193,194,8900,194
2013/12/16,195,198,193,195,42800,195
2013/12/17,194,195,193,195,17800,195
2013/12/18,195,196,195,195,32900,195
2013/12/19,196,196,193,195,21900,195
2013/12/20,194,194,192,194,15300,194
2013/12/24,192,193,190,190,16200,190
2013/12/25,192,193,190,191,31100,191
2013/12/26,196,200,192,198,25700,198
2013/12/27,198,205,197,199,49300,199
2013/12/30,200,202,200,202,11400,202
2014/01/06,202,203,200,202,8300,202
2014/01/07,202,203,201,201,14000,201
2014/01/08,202,203,202,202,9400,202
2014/01/09,202,202,201,202,16800,202
2014/01/10,200,209,200,204,81600,204
2014/01/14,206,214,201,213,106600,213
2014/01/15,217,218,214,217,30800,217
2014/01/16,218,218,212,212,26400,212
2014/01/17,212,220,212,220,31900,220
2014/01/20,219,225,219,223,26800,223
2014/01/21,223,227,221,227,30100,227
2014/01/22,226,227,220,225,27800,225
2014/01/23,223,225,223,225,11200,225
2014/01/24,222,224,218,223,38800,223
2014/01/27,220,220,212,213,32500,213
2014/01/28,213,218,213,218,44400,218
2014/01/29,218,221,218,221,10600,221
2014/01/30,221,221,216,216,8400,216
2014/01/31,217,218,211,213,25800,213
2014/02/03,212,212,203,207,21000,207
2014/02/04,201,201,191,196,51100,196
2014/02/05,194,197,193,193,27500,193
2014/02/06,193,196,193,195,5400,195
2014/02/07,197,201,197,200,20800,200
2014/02/10,202,208,202,208,17500,208
2014/02/12,209,209,207,209,19100,209
2014/02/13,208,208,207,207,2300,207
2014/02/14,207,208,204,206,11700,206
2014/02/17,205,206,205,205,3300,205
2014/02/18,206,207,205,207,8800,207
2014/02/19,207,210,206,209,13300,209
2014/02/20,208,209,206,208,6700,208
2014/02/21,208,209,198,201,43400,201
2014/02/24,202,205,202,205,6500,205
2014/02/25,205,205,201,203,8300,203
2014/02/26,201,204,199,199,12600,199
2014/02/27,201,201,197,197,6700,197
2014/02/28,202,202,199,199,9900,199
2014/03/03,198,198,193,195,10800,195
2014/03/04,194,194,194,194,3400,194
2014/03/05,196,196,195,196,20000,196
2014/03/06,196,198,196,198,3300,198
2014/03/07,198,200,197,200,4800,200
2014/03/10,200,200,198,200,1900,200
2014/03/11,200,200,198,200,6700,200
2014/03/12,200,200,199,200,5300,200
2014/03/14,199,199,198,198,3400,198
2014/03/17,196,197,195,195,1800,195
2014/03/18,195,198,195,198,2500,198
2014/03/19,198,198,195,195,4000,195
2014/03/20,196,196,192,192,4300,192
2014/03/24,193,193,192,193,3000,193
2014/03/25,193,194,193,194,1600,194
2014/03/26,194,197,194,197,2300,197
2014/03/27,198,198,196,198,2900,198
2014/03/28,197,198,197,198,1000,198
2014/03/31,193,195,193,195,28400,195
2014/04/01,195,197,193,195,16300,195
2014/04/02,194,196,194,196,2600,196
2014/04/03,196,199,196,198,4400,198
2014/04/04,198,198,196,198,900,198
2014/04/07,198,198,196,196,2700,196
2014/04/08,196,196,195,196,2200,196
2014/04/09,201,207,192,197,282000,197
2014/04/10,200,201,196,199,42900,199
2014/04/11,195,195,191,194,37900,194
2014/04/14,194,194,191,192,10000,192
2014/04/15,193,197,192,197,20000,197
2014/04/16,191,194,188,191,54400,191
2014/04/17,190,195,190,191,17200,191
2014/04/18,191,192,188,189,18900,189
2014/04/21,189,190,188,189,10900,189
2014/04/22,189,190,188,190,10900,190
2014/04/23,188,191,188,191,11700,191
2014/04/24,192,193,190,191,10500,191
2014/04/25,190,191,190,190,7100,190
2014/04/28,191,191,189,189,12600,189
2014/04/30,189,190,189,189,1400,189
2014/05/01,190,190,189,189,2900,189
2014/05/02,190,190,188,189,10600,189
2014/05/07,190,190,189,189,4200,189
2014/05/08,190,190,189,190,3100,190
2014/05/09,189,189,189,189,3200,189
2014/05/12,190,190,188,188,15800,188
2014/05/13,189,190,189,189,4900,189
2014/05/14,189,189,188,189,2300,189
2014/05/15,187,188,187,187,9300,187
2014/05/16,187,187,184,186,6400,186
2014/05/19,187,187,184,185,19600,185
2014/05/20,184,186,180,183,13200,183
2014/05/21,182,185,182,185,4500,185
2014/05/22,184,186,183,185,8700,185
2014/05/23,186,186,185,186,9000,186
2014/05/26,186,189,186,188,17900,188
2014/05/27,191,196,190,195,48500,195
2014/05/28,196,196,193,195,13700,195
2014/05/29,195,200,194,197,71200,197
2014/05/30,199,200,197,200,5900,200
2014/06/02,200,205,200,205,31000,205
2014/06/03,205,207,204,206,12700,206
2014/06/04,206,208,203,208,22700,208
2014/06/05,208,209,202,206,22100,206
2014/06/06,203,205,199,204,39100,204
2014/06/09,204,206,204,206,6000,206
2014/06/10,206,206,201,203,34000,203
2014/06/11,203,203,200,202,25800,202
2014/06/12,202,203,200,202,3500,202
2014/06/13,202,203,200,202,9500,202
2014/06/16,203,206,202,205,25500,205
2014/06/17,205,207,204,206,10300,206
2014/06/18,205,206,203,206,12800,206
2014/06/19,206,207,204,206,5600,206
2014/06/20,205,206,202,205,23800,205
2014/06/23,205,206,203,205,8800,205
2014/06/24,205,206,203,206,3700,206
2014/06/25,205,206,203,205,7400,205
2014/06/26,205,205,203,204,3600,204
2014/06/27,207,207,202,203,18600,203
2014/06/30,207,207,203,205,16100,205
2014/07/01,206,209,205,209,14700,209
2014/07/02,209,210,208,209,11200,209
2014/07/03,209,209,208,209,3900,209
2014/07/04,209,209,208,209,1900,209
2014/07/07,209,209,207,209,2700,209
2014/07/08,208,208,207,208,10700,208
2014/07/09,207,209,206,208,5300,208
2014/07/10,207,211,206,211,20600,211
2014/07/11,235,257,216,222,1574800,222
2014/07/14,218,220,212,214,162800,214
2014/07/15,219,219,212,215,80600,215
2014/07/16,216,216,212,213,33400,213
2014/07/17,213,215,211,212,28500,212
2014/07/18,210,210,206,209,57600,209
2014/07/22,212,212,209,209,9700,209
2014/07/23,208,209,204,205,39600,205
2014/07/24,207,209,205,207,23000,207
2014/07/25,210,213,209,210,23300,210
2014/07/28,213,220,213,218,95700,218
2014/07/29,218,218,214,218,31200,218
2014/07/30,216,216,214,214,12900,214
2014/07/31,214,215,212,213,27600,213
2014/08/01,210,212,210,212,34900,212
2014/08/04,212,212,210,210,12500,210
2014/08/05,210,214,210,211,30700,211
2014/08/06,211,213,210,212,18200,212
2014/08/07,211,216,211,215,11500,215
2014/08/08,211,213,208,211,43400,211
2014/08/11,210,211,210,210,13600,210
2014/08/12,213,214,212,213,27000,213
2014/08/13,213,213,211,211,2900,211
2014/08/14,211,217,211,217,16900,217
2014/08/15,215,220,215,218,56000,218
2014/08/18,218,226,216,226,78100,226
2014/08/19,223,225,222,224,30000,224
2014/08/20,225,225,219,219,22400,219
2014/08/21,219,221,214,220,29900,220
2014/08/22,220,220,216,220,14400,220
2014/08/25,221,221,219,220,4300,220
2014/08/26,218,221,218,219,4500,219
2014/08/27,220,220,215,220,15400,220
2014/08/28,218,222,218,221,9100,221
2014/08/29,221,224,221,224,20900,224
2014/09/01,224,231,223,229,55300,229
2014/09/02,228,229,225,225,21700,225
2014/09/03,226,229,226,226,18600,226
2014/09/04,227,230,226,228,19000,228
2014/09/05,229,232,226,227,19500,227
2014/09/08,229,236,229,234,41400,234
2014/09/09,235,245,235,243,59900,243
2014/09/10,240,240,237,239,34200,239
2014/09/11,241,241,231,234,50800,234
2014/09/12,233,235,232,233,24700,233
2014/09/16,234,234,227,233,20500,233
2014/09/17,230,235,229,234,14500,234
2014/09/18,231,234,231,232,11100,232
2014/09/19,230,233,230,231,11100,231
2014/09/22,232,239,232,236,32500,236
2014/09/24,236,241,235,239,27300,239
2014/09/25,239,240,235,237,22900,237
2014/09/26,239,239,236,237,13500,237
2014/09/29,238,242,236,240,53000,240
2014/09/30,240,241,238,238,14900,238
2014/10/01,239,239,235,235,29500,235
2014/10/02,229,233,225,225,33100,225
2014/10/03,227,269,227,252,939900,252
2014/10/06,228,229,218,219,451900,219
2014/10/07,218,219,209,214,216600,214
2014/10/08,211,212,205,209,70600,209
2014/10/09,209,210,203,203,43600,203
2014/10/10,202,203,198,201,54300,201
2014/10/14,197,199,195,197,32200,197
2014/10/15,198,200,196,198,20700,198
2014/10/16,193,202,193,196,60800,196
2014/10/17,197,198,196,197,24700,197
2014/10/20,200,205,199,205,11700,205
2014/10/21,206,206,198,200,25400,200
2014/10/22,203,205,202,205,5700,205
2014/10/23,202,204,200,202,14400,202
2014/10/24,205,205,203,204,13500,204
2014/10/27,205,211,205,208,36100,208
2014/10/28,206,208,205,205,4200,205
2014/10/29,209,209,205,205,4200,205
2014/10/30,205,206,204,205,8400,205
2014/10/31,204,208,202,205,33900,205
2014/11/04,205,209,204,206,21600,206
2014/11/05,205,208,205,208,7700,208
2014/11/06,208,209,205,206,10800,206
2014/11/07,206,207,204,204,8800,204
2014/11/10,205,207,205,206,4200,206
2014/11/11,208,208,206,207,7000,207
2014/11/12,209,212,206,207,37000,207
2014/11/13,206,208,204,204,17900,204
2014/11/14,206,207,203,206,10900,206
2014/11/17,207,208,201,201,12900,201
2014/11/18,203,205,203,205,4300,205
2014/11/19,205,207,203,203,12200,203
2014/11/20,204,207,204,207,8100,207
2014/11/21,206,207,205,205,2300,205
2014/11/25,206,207,204,207,17400,207
2014/11/26,207,210,205,210,20500,210
2014/11/27,213,213,207,210,29000,210
2014/11/28,210,216,210,216,20700,216
2014/12/01,214,214,211,214,6700,214
2014/12/02,213,218,212,217,16600,217
2014/12/03,219,219,216,217,40800,217
2014/12/04,218,218,211,213,25900,213
2014/12/05,213,214,212,212,19700,212
2014/12/08,213,215,211,211,15700,211
2014/12/09,211,211,206,206,12500,206
2014/12/10,207,214,205,206,31900,206
2014/12/11,207,209,203,209,11800,209
2014/12/12,209,210,208,209,8900,209
2014/12/15,212,212,206,206,4200,206
2014/12/16,205,207,202,202,25700,202
2014/12/17,201,204,200,201,19700,201
2014/12/18,205,205,198,200,16100,200
2014/12/19,201,207,201,206,12700,206
2014/12/22,204,209,204,208,10300,208
2014/12/24,208,208,203,203,15700,203
2014/12/25,204,205,201,201,15500,201
2014/12/26,205,205,201,204,5200,204
2014/12/29,204,209,203,207,12700,207
2014/12/30,208,208,203,205,8300,205
2015/01/05,205,207,204,204,10400,204
2015/01/06,205,206,204,204,4600,204
2015/01/07,203,210,200,206,39100,206
2015/01/08,205,206,200,205,71000,205
2015/01/09,206,207,203,206,26700,206
2015/01/13,202,204,196,204,48000,204
2015/01/14,204,205,200,200,21700,200
2015/01/15,200,202,197,198,30800,198
2015/01/16,198,200,198,200,11500,200
2015/01/19,205,268,205,227,3161800,227
2015/01/20,221,227,210,219,415900,219
2015/01/21,217,219,212,218,123000,218
2015/01/22,220,232,217,222,221700,222
2015/01/23,230,230,215,217,169800,217
2015/01/26,217,217,213,217,48600,217
2015/01/27,215,219,213,217,43600,217
2015/01/28,219,219,196,210,117000,210
2015/01/29,208,221,205,216,99200,216
2015/01/30,215,217,213,214,32200,214
2015/02/02,213,214,209,209,29900,209
2015/02/03,213,213,207,207,37700,207
2015/02/04,209,213,209,212,16000,212
2015/02/05,212,216,212,216,15700,216
2015/02/06,226,226,216,218,61600,218
2015/02/09,221,221,216,217,21500,217
2015/02/10,216,223,216,218,36100,218
2015/02/12,221,223,219,220,23000,220
2015/02/13,221,226,220,226,43400,226
2015/02/16,228,306,223,286,4989400,286
2015/02/17,326,359,266,284,6916800,284
2015/02/18,291,334,272,316,4796700,316
2015/02/19,326,369,308,333,4480800,333
2015/02/20,341,341,301,301,1398000,301
2015/02/23,317,320,262,280,2833500,280
2015/02/24,272,283,266,271,1060200,271
2015/02/25,269,269,252,262,626100,262
2015/02/26,272,277,262,263,1198500,263
2015/02/27,263,265,254,254,292200,254
2015/03/02,260,271,259,271,650600,271
2015/03/03,274,275,257,260,547500,260
2015/03/04,258,261,250,253,215700,253
2015/03/05,251,251,244,246,161900,246
2015/03/06,246,252,244,246,119400,246
2015/03/09,246,246,233,233,191100,233
2015/03/10,233,240,232,232,133900,232
2015/03/11,232,235,229,232,81800,232
2015/03/12,232,241,232,234,210000,234
2015/03/13,237,241,235,238,107000,238
2015/03/16,235,236,225,231,197400,231
2015/03/17,230,230,227,227,72100,227
2015/03/18,227,231,226,229,75500,229
2015/03/19,227,229,225,228,82000,228
2015/03/20,229,238,228,231,144400,231
2015/03/23,233,241,232,237,161300,237
2015/03/24,239,239,233,233,53100,233
2015/03/25,234,235,228,229,73200,229
2015/03/26,230,233,227,227,61000,227
2015/03/27,229,233,227,228,54600,228
2015/03/30,227,228,222,223,67000,223
2015/03/31,223,230,223,226,43300,226
2015/04/01,228,244,226,232,340400,232
2015/04/02,230,235,226,227,132300,227
2015/04/03,229,234,228,231,55400,231
2015/04/06,233,240,229,239,176700,239
2015/04/07,238,239,232,237,78200,237
2015/04/08,236,237,232,235,138400,235
2015/04/09,235,235,229,230,83200,230
2015/04/10,230,233,228,232,57700,232
2015/04/13,231,231,227,230,52200,230
2015/04/14,230,234,229,233,56500,233
2015/04/15,232,235,230,235,56500,235
2015/04/16,233,239,231,235,128000,235
2015/04/17,237,238,232,236,126500,236
2015/04/20,227,227,221,221,259200,221
2015/04/21,224,224,221,223,67200,223
2015/04/22,223,224,220,223,90700,223
2015/04/23,223,224,220,222,53700,222
2015/04/24,223,224,221,221,29200,221
2015/04/27,223,226,222,223,62700,223
2015/04/28,226,229,224,225,77500,225
2015/04/30,225,227,222,222,49400,222
2015/05/01,222,223,220,220,39300,220
2015/05/07,222,222,219,220,18400,220
2015/05/08,221,227,221,224,70600,224
2015/05/11,225,225,223,224,22900,224
2015/05/12,224,224,221,221,27300,221
2015/05/13,221,222,219,219,41600,219
2015/05/14,220,220,217,217,50500,217
2015/05/15,218,223,217,222,48300,222
2015/05/18,224,224,218,220,27000,220
2015/05/19,221,222,218,219,41600,219
2015/05/20,221,222,219,219,21500,219
2015/05/21,219,221,218,219,27700,219
2015/05/22,220,223,219,223,33800,223
2015/05/25,223,224,220,222,36800,222
2015/05/26,222,226,220,224,55900,224
2015/05/27,226,226,223,225,57500,225
2015/05/28,225,228,224,225,61700,225
2015/05/29,225,227,224,225,27000,225
2015/06/01,223,225,223,224,20100,224
2015/06/02,225,226,224,225,23800,225
2015/06/03,225,226,224,224,33500,224
2015/06/04,225,231,224,231,180800,231
2015/06/05,230,234,228,229,76100,229
2015/06/08,230,231,228,229,34500,229
2015/06/09,228,229,224,224,72700,224
2015/06/10,225,227,224,227,16800,227
2015/06/11,226,228,225,225,19500,225
2015/06/12,226,227,223,223,31500,223
2015/06/15,224,226,222,224,34000,224
2015/06/16,224,224,222,223,19200,223
2015/06/17,223,226,222,223,33500,223
2015/06/18,223,224,221,223,26500,223
2015/06/19,222,223,221,223,32700,223
2015/06/22,223,223,219,221,55400,221
2015/06/23,221,223,220,223,60200,223
2015/06/24,221,224,221,223,27400,223
2015/06/25,223,227,223,226,59200,226
2015/06/26,226,226,222,223,46500,223
2015/06/29,220,220,213,216,87000,216
2015/06/30,216,217,215,217,18900,217
2015/07/01,219,234,219,227,508600,227
2015/07/02,233,233,227,227,108600,227
2015/07/03,227,228,225,226,29200,226
2015/07/06,226,226,221,222,37000,222
2015/07/07,222,224,222,223,28800,223
2015/07/08,224,224,213,216,85800,216
2015/07/09,210,210,196,209,123300,209
2015/07/10,207,213,206,210,38400,210
2015/07/13,208,210,202,208,69000,208
2015/07/14,212,213,210,213,47900,213
2015/07/15,214,214,212,212,23900,212
2015/07/16,214,216,213,214,25200,214
2015/07/17,215,217,215,216,21100,216
2015/07/21,216,217,213,214,40300,214
2015/07/22,215,215,213,214,6800,214
2015/07/23,216,218,215,216,17400,216
2015/07/24,216,217,215,216,18200,216
2015/07/27,215,216,213,213,16900,213
2015/07/28,213,215,211,214,10900,214
2015/07/29,214,217,210,213,41200,213
2015/07/30,214,214,209,210,25000,210
2015/07/31,211,213,210,213,23800,213
2015/08/03,212,213,208,211,22600,211
2015/08/04,211,212,209,211,17700,211
2015/08/05,210,211,210,211,6100,211
2015/08/06,211,212,210,211,16800,211
2015/08/07,213,234,213,215,1050700,215
2015/08/10,220,223,216,217,126900,217
2015/08/11,219,220,217,219,24900,219
2015/08/12,218,218,211,214,115800,214
2015/08/13,212,215,211,214,15700,214
2015/08/14,214,214,210,210,41600,210
2015/08/17,211,212,208,209,82400,209
2015/08/18,209,210,208,208,21800,208
2015/08/19,207,208,205,206,86000,206
2015/08/20,205,207,204,205,32300,205
2015/08/21,202,203,200,200,51900,200
2015/08/24,194,198,173,174,168700,174
2015/08/25,160,180,159,165,136200,165
2015/08/26,167,179,167,178,96800,178
2015/08/27,185,187,180,183,87600,183
2015/08/28,185,195,185,187,80400,187
2015/08/31,188,189,184,185,29000,185
2015/09/01,186,186,177,178,50100,178
2015/09/02,175,179,170,176,52000,176
2015/09/03,179,180,176,176,10800,176
2015/09/04,175,178,171,173,43100,173
2015/09/07,172,173,169,172,13800,172
2015/09/08,174,174,172,172,6500,172
2015/09/09,174,180,174,180,39100,180
2015/09/10,177,179,176,178,14800,178
2015/09/11,179,183,179,182,15600,182
2015/09/14,184,186,180,183,20300,183
2015/09/15,185,187,182,185,21600,185
2015/09/16,187,190,185,186,19100,186
2015/09/17,188,191,186,190,31000,190
2015/09/18,190,190,186,188,17600,188
2015/09/24,188,188,183,184,25500,184
2015/09/25,187,187,183,184,11900,184
2015/09/28,184,187,183,186,18300,186
2015/09/29,186,186,182,186,17300,186
2015/09/30,186,192,186,189,16400,189
2015/10/01,189,195,189,193,17500,193
2015/10/02,195,196,192,194,18700,194
2015/10/05,194,196,193,195,13400,195
2015/10/06,195,200,195,198,34600,198
2015/10/07,243,248,239,248,785700,248
2015/10/08,278,317,272,297,17093500,297
2015/10/09,284,293,263,268,2605600,268
2015/10/13,292,325,272,276,8890100,276
2015/10/14,292,309,276,283,2277700,283
2015/10/15,299,318,289,315,2661500,315
2015/10/16,296,297,277,278,1229600,278
