2010/01/04,769,769,760,760,300,760
2010/01/05,748,750,746,746,3600,746
2010/01/06,766,766,766,766,100,766
2010/01/07,755,768,755,768,200,768
2010/01/08,753,769,753,769,400,769
2010/01/12,756,773,756,773,900,773
2010/01/13,758,760,750,760,400,760
2010/01/14,750,772,750,772,1500,772
2010/01/15,785,785,759,769,6000,769
2010/01/18,739,750,665,700,24100,700
2010/01/19,684,696,681,693,5600,693
2010/01/20,700,700,690,691,1900,691
2010/01/21,687,696,680,687,6300,687
2010/01/22,677,678,676,677,2100,677
2010/01/25,680,680,670,675,2500,675
2010/01/26,675,675,660,669,5300,669
2010/01/27,660,670,660,660,2000,660
2010/01/28,661,667,655,667,1500,667
2010/01/29,657,657,650,657,3800,657
2010/02/01,653,656,642,656,2500,656
2010/02/02,656,656,648,648,400,648
2010/02/03,650,650,650,650,2200,650
2010/02/04,656,656,656,656,200,656
2010/02/05,656,656,650,656,300,656
2010/02/08,656,661,651,659,1700,659
2010/02/09,650,650,640,649,1200,649
2010/02/10,639,650,639,650,600,650
2010/02/15,639,644,639,644,1500,644
2010/02/17,643,643,643,643,100,643
2010/02/18,643,643,625,639,2600,639
2010/02/19,630,639,630,639,200,639
2010/02/22,639,639,632,638,300,638
2010/02/23,632,638,631,638,1000,638
2010/02/24,630,630,628,630,700,630
2010/02/25,632,659,632,659,2100,659
2010/02/26,657,657,657,657,3900,657
2010/03/01,647,659,647,659,400,659
2010/03/02,667,669,661,666,2400,666
2010/03/03,665,665,663,665,1300,665
2010/03/04,660,669,659,668,600,668
2010/03/05,658,668,658,668,300,668
2010/03/08,661,678,660,667,13700,667
2010/03/09,658,668,658,666,2500,666
2010/03/10,656,666,650,658,4700,658
2010/03/11,650,650,636,641,5300,641
2010/03/12,637,640,635,638,22100,638
2010/03/15,639,640,624,635,10400,635
2010/03/16,635,644,634,644,1800,644
2010/03/17,640,640,626,629,9400,629
2010/03/18,627,635,627,632,3400,632
2010/03/19,632,651,630,651,2100,651
2010/03/23,640,650,640,650,3600,650
2010/03/24,650,657,644,655,3000,655
2010/03/25,658,660,653,656,4400,656
2010/03/26,652,656,631,649,8200,649
2010/03/29,644,648,635,635,5200,635
2010/03/30,640,640,633,634,600,634
2010/03/31,628,634,628,633,2300,633
2010/04/01,631,631,611,625,3300,625
2010/04/02,626,629,621,621,2300,621
2010/04/05,613,645,613,645,3800,645
2010/04/06,641,641,640,640,10200,640
2010/04/07,640,640,622,623,6800,623
2010/04/08,629,631,623,630,1900,630
2010/04/09,625,626,624,624,3500,624
2010/04/12,624,624,615,616,8200,616
2010/04/13,620,620,618,620,1300,620
2010/04/14,616,619,615,615,10000,615
2010/04/15,619,620,615,620,2000,620
2010/04/16,625,630,625,630,3800,630
2010/04/19,625,625,624,625,5400,625
2010/04/20,625,626,625,625,5400,625
2010/04/21,627,634,627,634,1000,634
2010/04/22,640,640,625,634,3800,634
2010/04/23,635,641,635,638,6000,638
2010/04/26,638,644,638,639,4200,639
2010/04/27,642,643,642,643,1300,643
2010/04/28,643,644,638,642,3800,642
2010/04/30,649,649,632,637,4600,637
2010/05/06,627,633,627,631,400,631
2010/05/07,621,621,580,621,2400,621
2010/05/10,602,630,602,630,1600,630
2010/05/11,630,640,630,640,2200,640
2010/05/12,644,644,640,640,500,640
2010/05/13,635,643,623,636,5500,636
2010/05/14,635,639,635,639,700,639
2010/05/17,639,641,630,630,2500,630
2010/05/18,621,630,620,625,1500,625
2010/05/19,621,631,616,628,700,628
2010/05/20,638,640,620,640,3200,640
2010/05/21,620,635,615,634,1400,634
2010/05/24,625,625,625,625,500,625
2010/05/25,625,634,615,625,1600,625
2010/05/26,628,638,618,620,5500,620
2010/05/31,618,635,617,620,700,620
2010/06/01,620,620,618,618,700,618
2010/06/02,615,615,615,615,500,615
2010/06/03,625,651,625,646,11400,646
2010/06/04,646,655,640,640,23300,640
2010/06/07,625,625,621,621,300,621
2010/06/08,611,626,611,626,900,626
2010/06/09,635,635,625,625,200,625
2010/06/14,620,621,620,621,4200,621
2010/06/15,624,624,623,623,600,623
2010/06/16,626,626,626,626,600,626
2010/06/17,618,618,610,610,800,610
2010/06/18,630,630,630,630,100,630
2010/06/21,623,623,616,623,1300,623
2010/06/22,620,624,620,624,800,624
2010/06/23,623,623,622,622,400,622
2010/06/24,632,632,621,631,800,631
2010/06/25,632,643,632,643,1400,643
2010/06/28,643,655,635,645,4800,645
2010/06/30,625,625,620,620,600,620
2010/07/01,611,611,611,611,300,611
2010/07/02,611,621,610,621,1400,621
2010/07/05,624,624,611,611,500,611
2010/07/06,621,625,605,613,10700,613
2010/07/07,610,615,610,615,400,615
2010/07/09,606,606,606,606,400,606
2010/07/12,606,616,606,616,200,616
2010/07/14,615,615,610,610,400,610
2010/07/15,620,620,620,620,100,620
2010/07/21,607,615,605,615,900,615
2010/07/22,605,610,603,603,1300,603
2010/07/23,623,641,623,640,1600,640
2010/07/26,640,640,640,640,3700,640
2010/07/27,639,639,639,639,100,639
2010/07/28,639,645,626,626,1200,626
2010/07/29,606,606,580,598,17500,598
2010/07/30,596,600,595,600,700,600
2010/08/02,600,609,596,600,2300,600
2010/08/03,600,600,600,600,200,600
2010/08/04,610,610,600,600,500,600
2010/08/05,610,610,610,610,100,610
2010/08/06,596,605,595,605,800,605
2010/08/09,593,593,593,593,100,593
2010/08/10,580,580,578,578,4400,578
2010/08/11,572,580,572,580,400,580
2010/08/12,560,575,560,575,800,575
2010/08/13,572,578,565,578,600,578
2010/08/16,577,577,577,577,100,577
2010/08/17,578,578,578,578,100,578
2010/08/18,577,577,577,577,400,577
2010/08/20,577,577,567,567,300,567
2010/08/23,570,579,565,575,1500,575
2010/08/24,579,579,579,579,200,579
2010/08/25,580,580,579,579,900,579
2010/08/26,579,580,570,580,4400,580
2010/08/27,560,560,556,556,2600,556
2010/08/30,552,560,552,559,1200,559
2010/08/31,560,560,560,560,100,560
2010/09/01,570,572,570,572,300,572
2010/09/02,562,565,562,565,500,565
2010/09/03,559,559,555,555,400,555
2010/09/06,550,566,540,566,800,566
2010/09/07,566,576,566,576,500,576
2010/09/08,560,570,560,570,200,570
2010/09/10,552,577,552,577,600,577
2010/09/14,559,559,550,557,1300,557
2010/09/15,549,557,549,557,600,557
2010/09/16,551,557,551,557,400,557
2010/09/17,560,570,560,570,700,570
2010/09/21,567,567,566,566,200,566
2010/09/22,563,592,560,592,4200,592
2010/09/24,582,608,574,598,1200,598
2010/09/27,598,608,571,571,4600,571
2010/09/28,562,577,560,575,1100,575
2010/09/30,565,575,565,575,400,575
2010/10/04,565,585,565,585,400,585
2010/10/07,565,585,565,578,1200,578
2010/10/08,568,578,567,570,500,570
2010/10/12,570,570,561,565,1100,565
2010/10/13,560,575,560,574,700,574
2010/10/14,574,574,574,574,100,574
2010/10/15,560,573,556,573,1200,573
2010/10/21,560,569,560,569,1400,569
2010/10/22,560,569,555,562,2700,562
2010/10/25,562,587,562,587,1700,587
2010/10/26,577,587,577,577,4800,577
2010/10/27,567,577,567,577,200,577
2010/10/28,562,567,562,567,800,567
2010/10/29,565,565,565,565,100,565
2010/11/01,545,556,545,556,500,556
2010/11/02,550,559,550,559,700,559
2010/11/04,560,577,560,560,400,560
2010/11/05,560,566,556,566,1100,566
2010/11/10,558,558,550,550,3800,550
2010/11/11,555,555,555,555,400,555
2010/11/12,550,550,550,550,100,550
2010/11/15,555,555,555,555,600,555
2010/11/16,556,560,556,560,500,560
2010/11/17,550,555,550,555,1000,555
2010/11/18,555,563,555,563,800,563
2010/11/19,558,560,555,560,3300,560
2010/11/22,558,560,558,560,1100,560
2010/11/24,550,569,550,569,1800,569
2010/11/25,568,568,556,566,3300,566
2010/11/26,566,569,566,569,6800,569
2010/11/29,575,588,565,588,2200,588
2010/11/30,571,580,571,571,1000,571
2010/12/01,571,571,571,571,200,571
2010/12/02,567,577,567,570,800,570
2010/12/03,566,577,566,569,4500,569
2010/12/06,574,605,574,594,2300,594
2010/12/07,594,594,577,580,13400,580
2010/12/08,581,585,580,585,1600,585
2010/12/09,585,588,581,581,1500,581
2010/12/10,579,579,579,579,300,579
2010/12/13,589,610,589,608,1700,608
2010/12/14,603,608,600,605,700,605
2010/12/15,603,610,603,609,1900,609
2010/12/16,609,612,605,612,2000,612
2010/12/17,614,615,612,615,2400,615
2010/12/20,620,625,620,625,400,625
2010/12/21,618,618,618,618,500,618
2010/12/22,620,635,620,635,2600,635
2010/12/24,615,634,615,634,1600,634
2010/12/27,634,640,626,634,6100,634
2010/12/28,630,633,630,633,1100,633
2010/12/29,623,633,623,633,1000,633
2010/12/30,634,634,634,634,100,634
2011/01/04,630,634,625,634,2100,634
2011/01/06,634,634,614,628,8100,628
2011/01/07,620,624,616,624,900,624
2011/01/11,629,632,620,625,1300,625
2011/01/12,621,628,618,628,1500,628
2011/01/13,629,629,617,629,2500,629
2011/01/14,621,628,621,628,200,628
2011/01/17,629,629,629,629,400,629
2011/01/18,621,628,606,622,5000,622
2011/01/19,615,629,613,629,2200,629
2011/01/20,630,630,617,627,700,627
2011/01/21,618,627,611,624,1500,624
2011/01/24,632,632,630,630,1200,630
2011/01/25,634,634,632,632,800,632
2011/01/26,632,632,632,632,3900,632
2011/01/27,632,632,631,631,700,631
2011/01/28,632,632,620,629,800,629
2011/01/31,619,619,607,618,2900,618
2011/02/01,628,628,628,628,100,628
2011/02/02,627,627,627,627,100,627
2011/02/04,622,628,622,628,300,628
2011/02/07,608,615,602,610,9000,610
2011/02/08,607,607,602,604,1700,604
2011/02/09,601,607,601,607,1000,607
2011/02/10,600,607,600,607,3500,607
2011/02/14,600,604,595,604,3200,604
2011/02/15,604,604,599,599,300,599
2011/02/16,600,604,600,604,2700,604
2011/02/17,604,605,604,605,2100,605
2011/02/18,599,605,598,605,2100,605
2011/02/21,605,605,601,601,300,601
2011/02/22,600,605,600,602,600,602
2011/02/23,601,602,601,602,600,602
2011/02/24,602,603,595,598,4600,598
2011/02/25,600,603,600,603,600,603
2011/02/28,603,605,603,605,4800,605
2011/03/01,605,605,601,604,2200,604
2011/03/02,605,605,605,605,100,605
2011/03/03,600,603,600,603,600,603
2011/03/04,605,606,595,601,1100,601
2011/03/07,603,604,602,604,700,604
2011/03/08,604,605,601,601,400,601
2011/03/09,604,604,604,604,300,604
2011/03/10,604,604,600,602,1000,602
2011/03/11,605,605,595,605,400,605
2011/03/14,560,594,534,564,2800,564
2011/03/15,560,560,464,464,8400,464
2011/03/16,494,506,475,506,2100,506
2011/03/17,472,490,465,490,3500,490
2011/03/18,526,526,502,505,1700,505
2011/03/22,535,538,525,538,2100,538
2011/03/23,538,565,538,545,2800,545
2011/03/24,542,572,542,572,900,572
2011/03/25,560,560,552,552,1100,552
2011/03/28,553,568,553,567,2900,567
2011/03/29,562,562,535,541,4500,541
2011/03/30,541,541,541,541,100,541
2011/03/31,551,551,551,551,100,551
2011/04/01,543,543,543,543,100,543
2011/04/04,540,540,540,540,600,540
2011/04/05,515,515,513,513,1700,513
2011/04/06,511,511,511,511,400,511
2011/04/08,502,522,502,522,300,522
2011/04/11,522,522,522,522,300,522
2011/04/12,515,515,504,504,400,504
2011/04/13,505,514,505,514,200,514
2011/04/14,518,518,518,518,100,518
2011/04/18,518,518,515,515,3000,515
2011/04/19,529,529,529,529,100,529
2011/04/20,519,524,519,524,200,524
2011/04/21,523,526,523,526,400,526
2011/04/22,516,522,516,522,1000,522
2011/04/25,523,546,523,546,2200,546
2011/04/26,546,546,516,523,4700,523
2011/04/28,523,523,523,523,100,523
2011/05/02,523,523,523,523,100,523
2011/05/09,525,526,525,526,300,526
2011/05/10,520,530,520,522,1700,522
2011/05/11,515,539,510,539,2200,539
2011/05/12,543,543,541,542,1700,542
2011/05/13,539,539,535,535,500,535
2011/05/16,520,530,520,523,1000,523
2011/05/17,522,522,522,522,400,522
2011/05/18,521,521,521,521,800,521
2011/05/19,521,531,521,531,400,531
2011/05/20,528,528,527,527,200,527
2011/05/23,532,532,532,532,100,532
2011/05/24,531,535,530,535,1100,535
2011/05/25,545,555,545,555,1100,555
2011/05/26,555,560,555,557,2100,557
2011/05/27,558,569,558,569,1300,569
2011/05/30,573,586,569,586,5500,586
2011/05/31,580,586,580,586,2000,586
2011/06/01,586,590,586,590,1800,590
2011/06/02,593,649,593,647,16100,647
2011/06/03,644,644,600,600,22600,600
2011/06/06,619,619,600,600,200,600
2011/06/07,600,606,570,606,800,606
2011/06/08,614,614,614,614,100,614
2011/06/10,594,594,594,594,100,594
2011/06/13,582,583,582,583,400,583
2011/06/14,583,583,572,572,400,572
2011/06/15,572,589,572,589,200,589
2011/06/21,583,583,583,583,100,583
2011/06/22,570,570,569,570,2700,570
2011/06/24,560,598,560,598,4200,598
2011/06/27,597,597,590,590,4700,590
2011/06/28,589,589,571,589,700,589
2011/06/29,584,584,582,584,300,584
2011/06/30,577,577,574,576,1700,576
2011/07/01,576,576,576,576,1500,576
2011/07/04,580,590,580,590,2100,590
2011/07/05,590,596,576,596,6000,596
2011/07/06,596,596,596,596,8500,596
2011/07/07,586,590,586,590,200,590
2011/07/08,581,581,578,580,800,580
2011/07/11,580,580,570,570,300,570
2011/07/12,570,571,570,570,400,570
2011/07/13,570,580,570,571,1700,571
2011/07/14,571,573,571,571,500,571
2011/07/15,571,571,571,571,300,571
2011/07/19,572,575,565,575,600,575
2011/07/20,567,569,567,567,600,567
2011/07/21,572,580,570,575,1700,575
2011/07/22,570,600,570,600,2000,600
2011/07/25,598,600,572,594,2100,594
2011/07/26,594,594,578,594,4300,594
2011/07/27,594,594,594,594,300,594
2011/07/28,584,584,584,584,100,584
2011/07/29,580,580,578,578,300,578
2011/08/01,568,569,568,568,600,568
2011/08/02,568,568,556,566,900,566
2011/08/03,560,562,560,561,800,561
2011/08/04,560,564,560,560,1000,560
2011/08/05,559,559,553,556,700,556
2011/08/08,553,555,553,553,900,553
2011/08/09,541,541,506,525,800,525
2011/08/10,535,550,535,550,200,550
2011/08/12,570,570,535,535,700,535
2011/08/15,540,560,540,560,300,560
2011/08/16,540,559,540,559,700,559
2011/08/17,558,558,558,558,1100,558
2011/08/18,548,557,548,557,200,557
2011/08/19,542,560,542,560,300,560
2011/08/22,551,552,551,552,300,552
2011/08/24,552,555,552,555,300,555
2011/08/25,560,569,560,569,1400,569
2011/08/26,569,570,569,569,5000,569
2011/08/29,560,565,560,565,900,565
2011/08/30,565,565,565,565,200,565
2011/08/31,560,560,550,560,500,560
2011/09/06,559,559,549,559,500,559
2011/09/07,559,559,559,559,100,559
2011/09/09,559,559,559,559,100,559
2011/09/13,549,549,549,549,100,549
2011/09/14,543,544,542,542,400,542
2011/09/15,540,565,540,565,1500,565
2011/09/16,566,566,566,566,100,566
2011/09/20,567,567,547,548,2000,548
2011/09/21,551,551,546,550,900,550
2011/09/22,545,553,541,553,3000,553
2011/09/26,553,556,536,536,4600,536
2011/09/27,526,526,510,510,3000,510
2011/09/28,511,515,511,515,300,515
2011/09/29,530,530,530,530,400,530
2011/09/30,520,530,520,530,800,530
2011/10/04,520,520,520,520,100,520
2011/10/06,512,515,512,513,1100,513
2011/10/07,523,523,511,511,500,511
2011/10/11,520,521,520,520,900,520
2011/10/14,520,520,520,520,100,520
2011/10/17,518,518,518,518,100,518
2011/10/18,508,514,508,514,1200,514
2011/10/19,521,521,520,520,300,520
2011/10/20,517,517,500,510,2800,510
2011/10/21,500,503,498,500,3000,500
2011/10/24,500,505,500,503,2800,503
2011/10/25,504,504,491,498,5600,498
2011/10/26,491,498,486,498,6500,498
2011/10/27,493,494,493,494,300,494
2011/10/28,494,497,494,497,500,497
2011/10/31,492,499,488,499,3400,499
2011/11/02,493,499,493,499,1100,499
2011/11/04,495,495,495,495,100,495
2011/11/08,496,496,493,493,300,493
2011/11/09,494,494,494,494,100,494
2011/11/10,493,493,490,491,1100,491
2011/11/14,493,493,493,493,200,493
2011/11/16,493,495,493,495,500,495
2011/11/17,497,511,490,511,4500,511
2011/11/18,501,510,490,510,900,510
2011/11/21,500,501,500,500,700,500
2011/11/22,501,501,499,499,300,499
2011/11/24,499,503,495,503,900,503
2011/11/25,498,509,497,509,2000,509
2011/11/28,503,503,497,497,4400,497
2011/11/29,500,511,491,511,2000,511
2011/11/30,510,512,504,506,1200,506
2011/12/01,510,521,510,521,1100,521
2011/12/02,512,535,512,535,2900,535
2011/12/05,525,532,520,530,2700,530
2011/12/06,531,553,530,553,8000,553
2011/12/07,553,553,553,553,5600,553
2011/12/08,543,544,522,534,1300,534
2011/12/15,526,526,515,516,1600,516
2011/12/16,517,539,517,539,1600,539
2011/12/19,529,540,529,540,800,540
2011/12/21,538,538,538,538,200,538
2011/12/22,535,541,535,540,1600,540
2011/12/26,540,541,540,541,1400,541
2011/12/27,542,542,542,542,1000,542
2011/12/28,542,542,542,542,3600,542
2011/12/29,542,542,530,530,400,530
2011/12/30,529,529,527,527,600,527
2012/01/05,540,540,540,540,1000,540
2012/01/06,540,541,540,541,300,541
2012/01/10,540,544,534,540,6300,540
2012/01/11,535,545,535,545,3900,545
2012/01/12,540,540,540,540,1600,540
2012/01/13,542,545,542,545,200,545
2012/01/16,543,545,543,545,600,545
2012/01/17,540,540,540,540,600,540
2012/01/18,550,550,540,541,1600,541
2012/01/19,547,550,547,548,400,548
2012/01/20,549,558,538,546,3800,546
2012/01/23,554,555,554,555,400,555
2012/01/25,555,556,546,556,2400,556
2012/01/26,556,557,556,556,5000,556
2012/01/27,546,553,546,553,700,553
2012/01/30,551,554,551,554,600,554
2012/01/31,552,552,552,552,100,552
2012/02/01,553,553,553,553,100,553
2012/02/02,554,554,554,554,200,554
2012/02/03,558,558,553,553,1300,553
2012/02/06,558,572,558,572,2000,572
2012/02/07,568,568,568,568,600,568
2012/02/08,565,572,565,572,1500,572
2012/02/09,572,572,572,572,500,572
2012/02/10,568,568,565,565,300,565
2012/02/13,565,565,550,551,5000,551
2012/02/14,555,571,555,571,900,571
2012/02/15,570,570,570,570,300,570
2012/02/16,570,570,570,570,1100,570
2012/02/17,570,570,555,555,3800,555
2012/02/20,556,569,556,569,1000,569
2012/02/22,568,571,568,571,300,571
2012/02/23,574,589,574,589,500,589
2012/02/24,575,597,575,597,1900,597
2012/02/27,597,597,573,585,7100,585
2012/02/28,575,589,575,589,700,589
2012/02/29,586,587,585,585,300,585
2012/03/01,582,582,572,574,2200,574
2012/03/02,576,576,574,574,500,574
2012/03/05,577,587,577,587,900,587
2012/03/06,571,574,571,574,2500,574
2012/03/07,575,595,575,595,1100,595
2012/03/08,595,597,587,587,1700,587
2012/03/09,581,598,580,598,2900,598
2012/03/12,593,593,593,593,200,593
2012/03/13,593,603,593,603,1100,603
2012/03/14,605,615,605,615,900,615
2012/03/15,618,619,618,618,300,618
2012/03/16,615,620,615,615,1200,615
2012/03/19,620,620,615,615,1300,615
2012/03/21,618,624,618,620,1600,620
2012/03/22,616,616,596,610,5300,610
2012/03/23,614,625,610,625,2000,625
2012/03/26,620,620,610,610,4700,610
2012/03/27,615,620,610,620,1000,620
2012/03/28,596,598,596,597,600,597
2012/03/29,597,600,596,600,600,600
2012/03/30,600,605,600,600,900,600
2012/04/02,600,600,600,600,400,600
2012/04/03,600,603,589,603,3500,603
2012/04/04,600,600,590,590,900,590
2012/04/05,588,600,588,600,900,600
2012/04/06,590,595,585,595,1100,595
2012/04/10,586,590,586,587,400,587
2012/04/11,588,588,585,585,500,585
2012/04/12,590,590,590,590,100,590
2012/04/13,595,595,595,595,100,595
2012/04/16,604,605,593,593,800,593
2012/04/17,593,594,593,594,200,594
2012/04/18,600,614,600,614,2500,614
2012/04/19,611,611,611,611,500,611
2012/04/23,601,603,601,603,1200,603
2012/04/24,603,603,603,603,100,603
2012/04/25,611,614,608,614,700,614
2012/04/26,614,614,614,614,3600,614
2012/04/27,607,614,604,614,900,614
2012/05/02,607,607,602,602,600,602
2012/05/07,600,600,593,596,1100,596
2012/05/08,596,605,596,605,1100,605
2012/05/09,600,609,591,609,600,609
2012/05/10,590,608,590,608,1000,608
2012/05/15,600,605,595,605,600,605
2012/05/16,590,590,590,590,200,590
2012/05/17,590,590,590,590,100,590
2012/05/18,587,590,587,590,1600,590
2012/05/21,587,590,587,590,1600,590
2012/05/22,585,585,585,585,200,585
2012/05/23,585,589,585,589,1200,589
2012/05/24,585,590,585,590,1500,590
2012/05/25,588,589,582,589,1800,589
2012/05/28,587,587,572,572,6500,572
2012/05/29,573,573,572,572,1300,572
2012/05/30,570,578,570,578,2300,578
2012/05/31,578,605,575,605,8000,605
2012/06/01,596,605,596,605,4200,605
2012/06/04,590,600,590,590,1100,590
2012/06/05,580,585,575,585,1600,585
2012/06/06,575,590,575,590,1900,590
2012/06/07,590,590,560,565,50900,565
2012/06/08,560,560,550,556,1700,556
2012/06/11,546,550,541,547,2600,547
2012/06/12,541,555,540,555,3300,555
2012/06/13,555,555,554,554,600,554
2012/06/14,549,549,549,549,500,549
2012/06/15,545,545,545,545,1900,545
2012/06/18,541,547,540,547,500,547
2012/06/19,548,548,548,548,300,548
2012/06/20,550,550,550,550,300,550
2012/06/21,554,554,549,549,1400,549
2012/06/22,554,555,554,555,1200,555
2012/06/25,556,565,556,565,600,565
2012/06/26,565,575,565,570,4400,570
2012/06/27,560,560,560,560,300,560
2012/06/28,570,570,570,570,100,570
2012/06/29,570,585,569,585,2300,585
2012/07/02,590,590,590,590,1000,590
2012/07/04,589,590,589,590,800,590
2012/07/05,589,590,589,590,600,590
2012/07/06,580,580,580,580,8700,580
2012/07/09,578,578,578,578,100,578
2012/07/10,568,580,568,580,1900,580
2012/07/18,562,572,562,572,1100,572
2012/07/19,582,585,582,585,1000,585
2012/07/20,575,575,566,566,300,566
2012/07/23,574,574,574,574,400,574
2012/07/24,567,567,567,567,200,567
2012/07/25,567,571,567,571,500,571
2012/07/26,561,561,551,556,4100,556
2012/07/30,550,550,550,550,200,550
2012/07/31,545,545,545,545,200,545
2012/08/02,548,550,548,550,200,550
2012/08/07,550,560,550,560,700,560
2012/08/08,565,569,565,569,200,569
2012/08/13,560,560,560,560,1400,560
2012/08/14,560,560,550,550,900,550
2012/08/15,553,553,553,553,100,553
2012/08/16,559,560,550,550,1400,550
2012/08/20,550,550,550,550,500,550
2012/08/21,560,560,560,560,200,560
2012/08/24,564,568,561,561,500,561
2012/08/27,561,562,561,562,1000,562
2012/08/28,569,589,569,589,1700,589
2012/08/29,584,584,584,584,2800,584
2012/09/04,571,580,570,570,2000,570
2012/09/05,568,568,568,568,100,568
2012/09/06,564,564,564,564,1000,564
2012/09/13,574,574,574,574,900,574
2012/09/19,574,574,574,574,100,574
2012/09/20,571,575,571,575,500,575
2012/09/21,570,570,570,570,500,570
2012/09/24,570,570,567,567,600,567
2012/09/25,567,570,567,569,700,569
2012/09/26,569,569,569,569,3900,569
2012/09/27,560,560,560,560,500,560
2012/10/02,558,558,558,558,300,558
2012/10/03,562,570,558,558,1000,558
2012/10/05,558,560,548,560,2300,560
2012/10/10,552,552,552,552,100,552
2012/10/17,552,552,552,552,100,552
2012/10/18,550,550,550,550,1800,550
2012/10/22,553,554,553,553,300,553
2012/10/23,555,555,555,555,700,555
2012/10/24,556,556,556,556,600,556
2012/10/25,560,570,560,570,2300,570
2012/10/26,569,569,569,569,3700,569
2012/10/29,555,560,555,560,1700,560
2012/10/30,561,561,561,561,100,561
2012/10/31,551,551,551,551,1800,551
2012/11/01,552,558,544,556,1600,556
2012/11/02,550,550,550,550,300,550
2012/11/05,558,558,558,558,100,558
2012/11/06,559,559,559,559,100,559
2012/11/09,550,550,550,550,1700,550
2012/11/12,543,544,543,544,200,544
2012/11/13,545,545,545,545,200,545
2012/11/14,544,544,542,542,300,542
2012/11/15,543,543,543,543,600,543
2012/11/16,533,550,533,545,5400,545
2012/11/19,556,556,551,551,400,551
2012/11/20,550,550,550,550,2000,550
2012/11/21,551,560,551,560,1000,560
2012/11/22,554,560,554,560,800,560
2012/11/26,561,570,561,570,3100,570
2012/11/27,570,570,570,570,3600,570
2012/11/28,563,570,563,570,900,570
2012/11/29,563,563,563,563,200,563
2012/11/30,560,560,560,560,700,560
2012/12/03,570,570,570,570,1700,570
2012/12/04,570,570,570,570,1000,570
2012/12/05,570,574,570,574,5700,574
2012/12/06,575,582,575,582,7700,582
2012/12/07,572,572,566,567,9300,567
2012/12/10,567,567,567,567,300,567
2012/12/12,575,575,575,575,500,575
2012/12/13,576,576,575,575,400,575
2012/12/17,574,575,565,565,1000,565
2012/12/18,563,566,563,566,2100,566
2012/12/19,572,572,572,572,500,572
2012/12/20,570,571,570,571,300,571
2012/12/21,572,572,572,572,100,572
2012/12/25,572,572,572,572,2900,572
2012/12/26,570,570,570,570,5400,570
2012/12/27,570,573,570,573,2700,573
2012/12/28,574,574,570,570,1600,570
2013/01/04,575,587,575,587,600,587
2013/01/07,589,640,589,600,5500,600
2013/01/08,600,640,598,640,4000,640
2013/01/09,600,609,598,609,7500,609
2013/01/10,610,610,610,610,500,610
2013/01/15,620,620,619,620,2400,620
2013/01/16,625,625,602,603,1100,603
2013/01/17,620,620,612,615,700,615
2013/01/18,617,619,617,619,1200,619
2013/01/21,620,625,620,625,1900,625
2013/01/22,621,621,621,621,100,621
2013/01/23,620,620,620,620,400,620
2013/01/24,620,620,620,620,600,620
2013/01/25,617,630,617,630,1600,630
2013/01/28,630,630,629,629,5400,629
2013/01/29,630,630,629,629,1800,629
2013/01/30,629,630,629,630,500,630
2013/01/31,630,630,630,630,1100,630
2013/02/01,630,640,630,640,1300,640
2013/02/04,630,644,630,644,4300,644
2013/02/05,644,645,644,645,1500,645
2013/02/06,646,648,645,648,1100,648
2013/02/07,660,672,660,671,2800,671
2013/02/08,665,665,665,665,300,665
2013/02/12,650,650,650,650,400,650
2013/02/13,660,660,651,655,1300,655
2013/02/14,660,660,610,630,1800,630
2013/02/15,633,633,632,633,1000,633
2013/02/18,635,635,635,635,300,635
2013/02/19,636,660,636,660,1100,660
2013/02/20,658,665,658,665,1000,665
2013/02/21,661,661,660,660,300,660
2013/02/22,656,663,656,663,500,663
2013/02/25,665,679,665,679,2600,679
2013/02/26,679,688,675,686,6100,686
2013/02/27,686,686,676,676,600,676
2013/02/28,675,675,645,665,2400,665
2013/03/01,664,669,664,669,400,669
2013/03/04,665,700,665,670,5900,670
2013/03/05,689,689,682,689,5800,689
2013/03/06,695,698,694,694,3400,694
2013/03/07,695,699,695,697,3100,697
2013/03/08,694,697,683,697,2800,697
2013/03/11,698,700,695,695,4500,695
2013/03/12,696,696,680,685,2300,685
2013/03/13,681,681,680,681,2800,681
2013/03/14,685,687,681,687,2200,687
2013/03/15,696,700,696,699,2200,699
2013/03/18,699,700,699,700,200,700
2013/03/19,715,715,700,714,1800,714
2013/03/21,714,714,714,714,700,714
2013/03/22,714,718,701,706,3300,706
2013/03/25,704,720,704,716,1500,716
2013/03/26,720,722,720,722,5800,722
2013/03/27,720,720,675,675,3500,675
2013/03/28,685,685,644,655,7400,655
2013/03/29,655,655,645,645,1700,645
2013/04/01,635,635,620,620,4200,620
2013/04/02,620,620,612,612,3700,612
2013/04/03,622,635,622,630,3200,630
2013/04/04,624,624,624,624,300,624
2013/04/05,638,650,630,635,3800,635
2013/04/08,655,655,655,655,100,655
2013/04/09,650,652,649,652,2700,652
2013/04/10,655,669,655,669,1900,669
2013/04/11,670,670,669,670,1900,670
2013/04/12,677,677,676,677,400,677
2013/04/15,677,680,677,680,1000,680
2013/04/16,670,670,670,670,400,670
2013/04/18,650,670,650,650,1700,650
2013/04/19,650,650,650,650,1000,650
2013/04/22,650,650,645,650,3100,650
2013/04/23,651,670,651,670,3300,670
2013/04/24,670,670,661,665,1600,665
2013/04/25,670,670,666,670,3300,670
2013/04/26,670,670,666,666,4800,666
2013/04/30,680,680,644,666,6500,666
2013/05/02,666,670,665,665,2600,665
2013/05/07,670,675,665,675,7200,675
2013/05/08,675,680,675,676,7900,676
2013/05/09,682,690,675,680,4900,680
2013/05/10,676,676,670,672,4000,672
2013/05/13,680,685,672,673,19200,673
2013/05/14,675,675,672,675,10300,675
2013/05/15,686,695,674,678,7800,678
2013/05/16,671,671,656,656,6900,656
2013/05/17,659,670,659,670,1500,670
2013/05/20,690,690,669,670,17000,670
2013/05/21,671,675,669,670,20200,670
2013/05/22,671,678,671,672,3900,672
2013/05/23,676,680,655,655,6900,655
2013/05/24,655,660,644,650,3800,650
2013/05/27,650,650,639,648,5000,648
2013/05/28,648,650,648,650,1300,650
2013/05/29,660,660,655,655,2800,655
2013/05/30,655,655,645,645,1300,645
2013/05/31,647,655,647,650,1000,650
2013/06/03,655,660,655,655,2200,655
2013/06/04,656,658,650,655,5300,655
2013/06/05,655,660,655,660,5600,660
2013/06/06,655,655,635,650,4900,650
2013/06/07,650,650,622,645,25600,645
2013/06/10,640,640,634,640,2100,640
2013/06/11,640,640,640,640,100,640
2013/06/13,630,630,623,625,2600,625
2013/06/14,623,630,623,630,1100,630
2013/06/17,631,635,631,635,200,635
2013/06/18,624,627,624,627,2400,627
2013/06/19,634,650,634,650,2800,650
2013/06/20,654,654,630,631,2700,631
2013/06/21,630,630,619,627,4400,627
2013/06/24,626,640,626,640,1300,640
2013/06/25,632,635,622,635,5100,635
2013/06/26,635,640,621,621,5600,621
2013/06/27,625,625,612,612,1300,612
2013/06/28,616,625,616,625,800,625
2013/07/01,627,635,627,628,1500,628
2013/07/02,640,642,640,642,2900,642
2013/07/03,639,649,638,640,2900,640
2013/07/04,649,664,649,664,2800,664
2013/07/05,651,665,650,665,2600,665
2013/07/08,666,667,648,652,10900,652
2013/07/09,652,652,644,647,1800,647
2013/07/10,650,650,650,650,200,650
2013/07/11,643,650,643,650,1500,650
2013/07/12,659,659,656,658,600,658
2013/07/16,650,651,648,651,3300,651
2013/07/17,651,651,641,645,2200,645
2013/07/18,636,647,636,647,5200,647
2013/07/19,648,648,648,648,200,648
2013/07/22,648,650,648,648,1000,648
2013/07/23,645,646,645,645,1600,645
2013/07/24,645,653,625,635,10800,635
2013/07/25,640,654,636,654,2300,654
2013/07/26,644,645,644,645,3500,645
2013/07/29,635,635,624,634,2100,634
2013/07/30,625,630,624,630,3900,630
2013/07/31,630,635,630,635,300,635
2013/08/01,637,637,636,636,200,636
2013/08/02,639,639,630,638,1500,638
2013/08/06,627,627,627,627,200,627
2013/08/07,627,634,624,634,1400,634
2013/08/09,616,635,616,635,6800,635
2013/08/12,616,620,616,620,1200,620
2013/08/13,625,625,620,623,800,623
2013/08/14,629,629,620,620,800,620
2013/08/15,621,621,616,618,3400,618
2013/08/16,618,618,616,616,1200,616
2013/08/19,620,625,615,625,2200,625
2013/08/20,625,625,620,620,800,620
2013/08/21,620,620,610,610,10200,610
2013/08/22,616,616,615,615,200,615
2013/08/23,617,625,612,625,1000,625
2013/08/26,625,625,618,618,3600,618
2013/08/27,613,613,611,612,400,612
2013/08/28,610,610,601,605,1200,605
2013/08/29,606,606,603,603,300,603
2013/08/30,610,631,606,631,6000,631
2013/09/02,629,629,629,629,100,629
2013/09/03,628,628,626,626,500,626
2013/09/04,625,625,615,625,1200,625
2013/09/05,622,622,620,620,1100,620
2013/09/06,616,617,616,617,200,617
2013/09/09,625,630,619,629,2800,629
2013/09/10,629,630,620,628,2800,628
2013/09/11,629,634,627,627,5800,627
2013/09/12,625,625,605,624,6200,624
2013/09/13,634,636,625,636,1900,636
2013/09/17,636,680,636,642,21100,642
2013/09/18,654,745,641,730,128500,730
2013/09/19,800,833,705,710,163600,710
2013/09/20,740,742,704,706,26900,706
2013/09/24,704,704,681,681,24300,681
2013/09/25,682,682,658,668,19200,668
2013/09/26,675,698,668,683,20900,683
2013/09/27,692,692,672,677,6400,677
2013/09/30,677,677,660,669,8200,669
2013/10/01,664,670,653,664,7500,664
2013/10/02,658,666,645,650,11400,650
2013/10/03,650,671,642,643,20900,643
2013/10/04,640,645,634,642,11500,642
2013/10/07,638,645,633,640,2400,640
2013/10/08,639,639,618,631,14000,631
2013/10/09,633,634,630,633,3800,633
2013/10/10,637,644,635,638,3100,638
2013/10/11,640,649,638,638,8400,638
2013/10/15,640,645,631,637,6000,637
2013/10/16,639,644,639,640,2700,640
2013/10/17,643,666,640,658,14700,658
2013/10/18,651,654,648,651,4000,651
2013/10/21,653,670,653,670,5100,670
2013/10/22,675,677,666,670,12500,670
2013/10/23,671,672,660,665,7200,665
2013/10/24,664,664,653,660,6400,660
2013/10/25,660,660,652,657,4100,657
2013/10/28,660,684,659,672,28800,672
2013/10/29,701,772,683,772,239900,772
2013/10/30,727,740,687,701,142100,701
2013/10/31,694,694,645,666,49900,666
2013/11/01,667,668,652,665,24300,665
2013/11/05,670,674,650,655,18300,655
2013/11/06,659,668,654,660,11000,660
2013/11/07,663,686,663,672,18300,672
2013/11/08,671,671,652,661,10100,661
2013/11/11,666,668,661,661,8900,661
2013/11/12,660,664,654,658,17400,658
2013/11/13,663,663,655,662,2900,662
2013/11/14,662,670,658,665,6300,665
2013/11/15,662,670,660,670,13400,670
2013/11/18,675,675,668,673,14800,673
2013/11/19,670,673,664,670,5600,670
2013/11/20,670,672,658,661,17400,661
2013/11/21,667,671,656,662,13700,662
2013/11/22,665,675,650,651,37400,651
2013/11/25,656,658,650,656,29300,656
2013/11/26,657,662,656,660,15800,660
2013/11/27,664,727,663,676,195000,676
2013/11/28,675,675,660,668,64800,668
2013/11/29,668,680,666,680,21400,680
2013/12/02,679,681,669,674,36200,674
2013/12/03,674,676,670,672,17200,672
2013/12/04,673,673,662,667,30500,667
2013/12/05,667,668,665,667,18500,667
2013/12/06,667,671,665,671,20100,671
2013/12/09,674,677,672,676,16200,676
2013/12/10,678,679,668,676,31400,676
2013/12/11,676,677,669,673,16400,673
2013/12/12,674,681,673,677,17200,677
2013/12/13,676,679,675,678,9600,678
2013/12/16,679,680,666,668,23500,668
2013/12/17,667,672,666,668,14000,668
2013/12/18,668,670,666,668,6100,668
2013/12/19,672,673,668,668,10400,668
2013/12/20,674,700,668,671,59800,671
2013/12/24,673,680,672,673,19400,673
2013/12/25,676,676,670,675,20300,675
2013/12/26,677,685,677,682,18900,682
2013/12/27,685,690,683,690,21900,690
2013/12/30,696,735,696,735,67600,735
2014/01/06,745,745,720,740,56400,740
2014/01/07,740,744,730,740,32200,740
2014/01/08,750,796,750,793,133300,793
2014/01/09,808,813,770,775,93100,775
2014/01/10,780,782,765,780,36100,780
2014/01/14,751,765,744,756,39400,756
2014/01/15,760,765,755,759,23000,759
2014/01/16,766,769,752,754,42600,754
2014/01/17,751,761,750,754,25800,754
2014/01/20,758,760,753,755,18800,755
2014/01/21,764,790,756,790,34300,790
2014/01/22,789,795,772,787,38500,787
2014/01/23,790,791,775,777,44600,777
2014/01/24,766,780,758,769,34000,769
2014/01/27,754,786,750,773,99400,773
2014/01/28,770,785,762,775,32800,775
2014/01/29,779,827,731,782,160400,782
2014/01/30,770,786,769,771,29800,771
2014/01/31,775,786,743,752,56500,752
2014/02/03,750,767,678,688,97200,688
2014/02/04,669,674,648,650,120200,650
2014/02/05,665,680,650,659,36600,659
2014/02/06,666,670,654,667,14900,667
2014/02/07,680,685,671,679,13300,679
2014/02/10,688,700,680,685,13700,685
2014/02/12,686,699,676,688,22900,688
2014/02/13,685,685,673,676,11200,676
2014/02/14,679,679,654,665,39200,665
2014/02/17,667,679,663,673,24600,673
2014/02/18,683,689,675,676,8100,676
2014/02/19,688,690,681,683,6200,683
2014/02/20,685,685,656,666,15900,666
2014/02/21,668,688,668,679,11200,679
2014/02/24,685,690,679,682,13700,682
2014/02/25,685,694,685,689,8900,689
2014/02/26,692,695,689,690,12500,690
2014/02/27,693,695,683,685,21000,685
2014/02/28,686,686,680,681,8500,681
2014/03/03,682,684,673,681,17600,681
2014/03/04,679,682,673,676,7900,676
2014/03/05,680,684,676,678,6500,678
2014/03/06,683,688,678,686,6200,686
2014/03/07,684,687,681,685,15500,685
2014/03/10,687,695,686,689,12000,689
2014/03/11,696,696,688,691,4300,691
2014/03/12,692,692,681,685,17300,685
2014/03/13,683,687,678,685,7000,685
2014/03/14,680,680,665,673,24100,673
2014/03/17,673,679,667,673,17500,673
2014/03/18,678,683,672,676,7900,676
2014/03/19,680,682,662,679,12900,679
2014/03/20,670,680,663,668,15600,668
2014/03/24,675,675,665,670,20800,670
2014/03/25,668,679,664,678,21300,678
2014/03/26,678,684,668,673,16100,673
2014/03/27,640,646,632,646,5700,646
2014/03/28,644,659,640,655,10500,655
2014/03/31,655,657,647,657,6000,657
2014/04/01,660,660,647,659,8700,659
2014/04/02,660,660,651,656,13300,656
2014/04/03,653,654,644,653,16800,653
2014/04/04,651,661,648,654,9200,654
2014/04/07,653,653,643,645,8900,645
2014/04/08,643,643,630,638,14900,638
2014/04/09,636,636,621,622,23200,622
2014/04/10,626,637,622,625,8700,625
2014/04/11,618,624,610,610,21700,610
2014/04/14,611,624,611,624,4600,624
2014/04/15,623,639,621,622,5600,622
2014/04/16,622,640,622,640,9300,640
2014/04/17,635,645,635,645,5200,645
2014/04/18,645,645,640,645,2300,645
2014/04/21,647,649,642,642,4500,642
2014/04/22,644,644,633,633,9300,633
2014/04/23,637,637,628,628,3500,628
2014/04/24,637,637,628,630,6900,630
2014/04/25,644,655,640,653,9400,653
2014/04/28,653,655,648,648,8300,648
2014/04/30,648,648,639,644,3300,644
2014/05/01,638,645,638,644,2500,644
2014/05/02,652,652,641,641,8500,641
2014/05/07,643,646,641,642,1300,642
2014/05/08,642,645,635,635,9400,635
2014/05/09,640,650,640,650,5300,650
2014/05/12,665,666,642,652,17000,652
2014/05/13,658,658,643,657,5700,657
2014/05/14,654,662,650,662,2000,662
2014/05/15,652,652,641,649,8300,649
2014/05/16,646,646,631,639,11000,639
2014/05/19,645,649,630,644,7900,644
2014/05/20,648,649,632,642,2600,642
2014/05/21,636,645,636,645,2400,645
2014/05/22,643,649,637,648,8100,648
2014/05/23,652,652,647,647,4000,647
2014/05/26,649,657,649,653,6600,653
2014/05/27,639,645,638,641,85400,641
2014/05/28,644,646,641,646,16100,646
2014/05/29,645,654,645,651,15900,651
2014/05/30,653,656,648,656,13400,656
2014/06/02,657,661,655,656,22900,656
2014/06/03,660,661,653,655,30400,655
2014/06/04,655,659,653,656,11100,656
2014/06/05,657,666,657,666,17400,666
2014/06/06,661,672,660,671,20400,671
2014/06/09,677,680,673,680,25200,680
2014/06/10,681,684,670,676,43900,676
2014/06/11,680,680,665,675,16800,675
2014/06/12,670,685,668,685,12900,685
2014/06/13,679,688,675,688,13400,688
2014/06/16,689,695,687,695,16200,695
2014/06/17,697,714,695,714,28900,714
2014/06/18,715,729,700,715,40200,715
2014/06/19,715,720,708,719,17700,719
2014/06/20,711,715,705,706,20600,706
2014/06/23,708,710,695,709,17000,709
2014/06/24,707,707,685,702,26500,702
2014/06/25,694,704,686,704,16100,704
2014/06/26,704,704,696,701,14800,701
2014/06/27,696,699,686,693,15500,693
2014/06/30,692,696,683,692,9700,692
2014/07/01,693,697,690,695,8400,695
2014/07/02,697,700,696,699,5700,699
2014/07/03,699,708,697,708,15800,708
2014/07/04,708,708,703,704,6900,704
2014/07/07,709,712,706,707,21500,707
2014/07/08,707,710,702,705,21600,705
2014/07/09,705,705,699,701,11400,701
2014/07/10,701,704,697,697,15900,697
2014/07/11,695,702,692,698,9800,698
2014/07/14,698,706,697,703,7400,703
2014/07/15,708,710,704,707,10700,707
2014/07/16,706,711,706,706,11700,706
2014/07/17,707,711,702,702,8000,702
2014/07/18,700,714,697,709,29400,709
2014/07/22,717,725,710,722,22800,722
2014/07/23,722,723,717,720,10900,720
2014/07/24,720,722,712,713,12800,713
2014/07/25,713,719,710,715,17900,715
2014/07/28,715,729,715,729,24100,729
2014/07/29,727,736,720,727,18300,727
2014/07/30,724,730,723,726,11300,726
2014/07/31,728,728,716,716,9800,716
2014/08/01,705,714,705,706,12800,706
2014/08/04,708,714,705,714,11300,714
2014/08/05,719,721,708,709,19800,709
2014/08/06,709,710,701,705,13700,705
2014/08/07,705,708,692,701,10400,701
2014/08/08,703,703,687,695,15800,695
2014/08/11,699,705,698,700,9500,700
2014/08/12,704,708,703,704,14900,704
2014/08/13,700,705,699,702,2700,702
2014/08/14,703,705,695,705,6300,705
2014/08/15,706,713,702,709,14500,709
2014/08/18,708,708,700,706,19400,706
2014/08/19,713,749,710,738,101600,738
2014/08/20,750,769,731,761,97500,761
2014/08/21,763,773,747,755,53100,755
2014/08/22,764,764,735,741,57900,741
2014/08/25,748,750,729,750,38300,750
2014/08/26,750,757,729,745,51700,745
2014/08/27,745,747,730,746,30300,746
2014/08/28,755,896,753,821,749300,821
2014/08/29,806,819,769,779,189800,779
2014/09/01,798,848,785,816,139400,816
2014/09/02,826,847,785,798,116000,798
2014/09/03,798,814,786,792,47900,792
2014/09/04,790,797,772,772,52700,772
2014/09/05,775,775,757,761,52000,761
2014/09/08,764,769,761,762,18300,762
2014/09/09,762,787,762,783,31000,783
2014/09/10,775,775,760,766,25600,766
2014/09/11,772,782,762,776,22600,776
2014/09/12,777,784,772,777,21200,777
2014/09/16,780,785,772,777,12900,777
2014/09/17,780,799,778,788,23500,788
2014/09/18,794,868,775,779,338000,779
2014/09/19,786,800,781,798,52300,798
2014/09/22,813,834,804,824,67600,824
2014/09/24,850,959,833,919,508200,919
2014/09/25,1068,1069,903,949,1065300,949
2014/09/26,910,934,883,927,243700,927
2014/09/29,957,1077,934,1021,570100,1021
2014/09/30,1000,1172,986,1085,575100,1085
2014/10/01,1084,1149,915,995,541500,995
2014/10/02,950,988,920,920,161300,920
2014/10/03,924,968,884,957,152100,957
2014/10/06,945,975,926,930,70800,930
2014/10/07,922,922,875,895,104500,895
2014/10/08,871,890,855,882,55200,882
2014/10/09,876,892,818,820,84900,820
2014/10/10,805,835,800,819,76200,819
2014/10/14,800,830,791,807,57500,807
2014/10/15,815,829,805,811,20800,811
2014/10/16,790,795,779,779,51100,779
2014/10/17,790,919,778,811,236400,811
2014/10/20,848,854,823,841,65800,841
2014/10/21,830,830,791,798,49100,798
2014/10/22,807,852,807,850,62300,850
2014/10/23,826,849,824,840,21800,840
2014/10/24,846,850,823,830,32100,830
2014/10/27,840,855,833,842,25400,842
2014/10/28,847,848,835,840,17900,840
2014/10/29,851,887,850,880,42400,880
2014/10/30,894,894,847,858,45300,858
2014/10/31,903,960,875,930,184400,930
2014/11/04,929,944,895,910,87100,910
2014/11/05,890,904,882,898,28800,898
2014/11/06,909,909,863,877,45600,877
2014/11/07,889,905,875,896,32000,896
2014/11/10,881,881,852,877,31000,877
2014/11/11,878,880,836,843,74000,843
2014/11/12,848,860,840,848,36400,848
2014/11/13,843,844,835,837,26200,837
2014/11/14,839,848,836,841,17700,841
2014/11/17,840,869,838,846,28100,846
2014/11/18,846,856,835,845,30100,845
2014/11/19,842,853,842,844,27800,844
2014/11/20,850,869,850,860,46300,860
2014/11/21,860,886,853,871,35700,871
2014/11/25,884,920,866,910,83800,910
2014/11/26,910,910,886,897,42000,897
2014/11/27,897,897,863,880,46200,880
2014/11/28,887,902,884,884,25100,884
2014/12/01,898,935,887,933,53200,933
2014/12/02,918,923,910,913,15600,913
2014/12/03,918,918,892,894,28300,894
2014/12/04,892,904,881,896,29400,896
2014/12/05,899,916,889,909,16500,909
2014/12/08,909,920,900,901,27800,901
2014/12/09,902,902,871,875,44600,875
2014/12/10,875,894,870,893,40600,893
2014/12/11,897,914,886,905,43000,905
2014/12/12,896,905,890,894,12200,894
2014/12/15,890,899,885,895,16300,895
2014/12/16,884,884,872,873,28200,873
2014/12/17,870,880,865,874,19000,874
2014/12/18,880,880,865,873,12800,873
2014/12/19,879,888,874,885,17800,885
2014/12/22,891,891,875,891,23100,891
2014/12/24,905,923,898,904,46200,904
2014/12/25,904,915,892,908,21400,908
2014/12/26,905,935,905,927,68400,927
2014/12/29,922,928,897,906,36400,906
2014/12/30,902,913,898,904,13800,904
2015/01/05,901,901,888,892,25500,892
2015/01/06,885,888,871,881,35500,881
2015/01/07,881,891,878,889,11100,889
2015/01/08,896,899,892,896,13500,896
2015/01/09,896,920,896,906,55400,906
2015/01/13,893,901,887,890,21900,890
2015/01/14,886,893,881,881,14400,881
2015/01/15,881,893,881,884,7700,884
2015/01/16,879,879,850,874,62000,874
2015/01/19,878,878,857,860,19900,860
2015/01/20,862,862,844,850,31400,850
2015/01/21,852,854,833,843,29800,843
2015/01/22,840,840,830,834,22000,834
2015/01/23,838,849,825,842,27400,842
2015/01/26,844,852,843,848,10400,848
2015/01/27,849,853,848,851,10600,851
2015/01/28,848,855,847,855,9000,855
2015/01/29,850,857,836,846,23100,846
2015/01/30,841,850,835,840,11100,840
2015/02/02,838,843,834,836,6500,836
2015/02/03,845,845,823,827,19300,827
2015/02/04,828,836,828,830,6200,830
2015/02/05,830,831,812,822,19000,822
2015/02/06,822,827,820,826,8400,826
2015/02/09,837,837,826,835,18800,835
2015/02/10,806,821,797,817,37600,817
2015/02/12,818,834,818,834,14900,834
2015/02/13,835,837,824,837,5400,837
2015/02/16,834,840,826,840,13500,840
2015/02/17,834,845,828,833,11100,833
2015/02/18,834,843,830,839,7900,839
2015/02/19,839,840,830,837,12200,837
2015/02/20,831,840,831,840,4700,840
2015/02/23,843,847,840,841,11900,841
2015/02/24,843,846,841,846,3400,846
2015/02/25,848,862,843,855,22400,855
2015/02/26,857,867,857,863,8900,863
2015/02/27,868,876,867,870,12300,870
2015/03/02,877,877,865,876,20300,876
2015/03/03,877,877,866,866,8800,866
2015/03/04,864,864,853,855,6900,855
2015/03/05,853,861,853,861,3400,861
2015/03/06,858,866,857,863,3700,863
2015/03/09,863,871,861,870,11700,870
2015/03/10,869,869,862,866,4000,866
2015/03/11,860,867,860,866,1700,866
2015/03/12,866,867,863,867,3500,867
2015/03/13,868,876,864,875,12800,875
2015/03/16,879,897,878,897,36400,897
2015/03/17,893,899,881,895,31700,895
2015/03/18,890,894,879,879,27100,879
2015/03/19,880,885,865,878,33100,878
2015/03/20,878,885,873,885,10900,885
2015/03/23,885,890,882,889,26300,889
2015/03/24,885,885,868,875,29200,875
2015/03/25,876,878,869,873,16200,873
2015/03/26,873,882,867,870,25300,870
2015/03/27,855,861,846,846,20900,846
2015/03/30,844,844,820,828,24100,828
2015/03/31,829,844,826,831,11100,831
2015/04/01,834,845,834,839,9100,839
2015/04/02,839,853,837,847,9100,847
2015/04/03,850,857,847,849,4300,849
2015/04/06,849,854,846,854,8100,854
2015/04/07,854,854,845,849,8600,849
2015/04/08,844,853,844,848,7900,848
2015/04/09,844,852,844,852,8100,852
2015/04/10,852,864,850,858,29800,858
2015/04/13,858,861,857,859,6200,859
2015/04/14,858,858,847,857,7600,857
2015/04/15,854,862,851,862,30500,862
2015/04/16,862,869,853,855,13700,855
2015/04/17,859,863,848,859,24300,859
2015/04/20,850,860,849,850,10900,850
2015/04/21,848,870,848,862,28600,862
2015/04/22,832,855,832,846,63600,846
2015/04/23,842,860,842,859,21700,859
2015/04/24,856,860,848,855,9500,855
2015/04/27,855,855,818,832,33800,832
2015/04/28,828,831,827,827,11000,827
2015/04/30,827,827,817,820,15500,820
2015/05/01,820,820,801,812,15100,812
2015/05/07,808,821,808,821,5800,821
2015/05/08,820,821,815,819,5900,819
2015/05/11,819,826,816,821,7300,821
2015/05/12,820,820,800,808,20300,808
2015/05/13,808,812,803,808,9600,808
2015/05/14,803,810,802,805,11900,805
2015/05/15,819,820,810,815,11300,815
2015/05/18,815,817,809,813,8500,813
2015/05/19,819,821,809,821,5500,821
2015/05/20,822,826,821,825,6600,825
2015/05/21,824,824,818,820,4100,820
2015/05/22,821,826,817,822,7300,822
2015/05/25,823,832,823,826,10300,826
2015/05/26,835,836,833,835,13500,835
2015/05/27,835,837,834,834,6200,834
2015/05/28,838,841,836,837,3500,837
2015/05/29,836,837,832,836,6200,836
2015/06/01,836,841,834,841,6300,841
2015/06/02,845,864,845,854,26600,854
2015/06/03,855,855,848,852,4300,852
2015/06/04,850,852,846,848,5100,848
2015/06/05,852,854,848,852,3700,852
2015/06/08,858,869,858,865,19000,865
2015/06/09,868,870,843,845,37500,845
2015/06/10,841,846,841,841,8600,841
2015/06/11,841,841,838,838,5300,838
2015/06/12,837,850,835,849,9300,849
2015/06/15,849,851,846,848,6100,848
2015/06/16,848,850,842,848,7400,848
2015/06/17,851,851,846,849,1400,849
2015/06/18,846,849,841,849,3200,849
2015/06/19,848,855,848,850,18100,850
2015/06/22,850,857,843,855,23800,855
2015/06/23,860,877,856,865,28700,865
2015/06/24,865,865,857,857,5700,857
2015/06/25,853,864,853,861,4200,861
2015/06/26,861,863,854,854,4400,854
2015/06/29,849,849,823,837,17200,837
2015/06/30,837,849,837,843,10500,843
2015/07/01,846,855,844,855,7500,855
2015/07/02,855,869,848,869,9100,869
2015/07/03,869,874,855,868,7100,868
2015/07/06,864,870,852,853,25000,853
2015/07/07,861,865,859,859,6700,859
2015/07/08,864,864,816,858,18500,858
2015/07/09,826,838,812,838,11500,838
2015/07/10,838,842,831,833,1800,833
2015/07/13,835,842,833,842,3000,842
2015/07/14,855,855,843,848,6300,848
2015/07/15,848,858,848,858,5500,858
2015/07/16,859,859,847,858,6100,858
2015/07/17,858,858,845,857,9400,857
2015/07/21,863,875,858,867,12100,867
2015/07/22,861,861,850,855,2800,855
2015/07/23,855,865,850,865,10900,865
2015/07/24,860,875,855,862,10700,862
2015/07/27,862,865,858,861,9100,861
2015/07/28,854,858,846,854,3100,854
2015/07/29,855,863,850,858,4700,858
2015/07/30,858,858,853,855,1700,855
2015/07/31,853,855,850,853,4300,853
2015/08/03,854,863,851,855,4800,855
2015/08/04,855,873,854,863,13900,863
2015/08/05,833,854,829,838,16000,838
2015/08/06,838,840,824,831,18500,831
2015/08/07,833,834,826,828,3600,828
2015/08/10,830,835,815,818,15100,818
2015/08/11,820,829,818,824,3900,824
2015/08/12,819,830,817,817,4400,817
2015/08/13,816,826,816,826,2600,826
2015/08/14,823,834,822,834,1000,834
2015/08/17,830,830,822,822,600,822
2015/08/18,826,830,825,830,1300,830
2015/08/19,829,830,824,824,3600,824
2015/08/20,822,822,815,815,6700,815
2015/08/21,811,814,803,805,19200,805
2015/08/24,775,787,751,760,25500,760
2015/08/25,702,785,699,720,16000,720
2015/08/26,730,750,730,740,9300,740
2015/08/27,770,770,755,765,4100,765
2015/08/28,773,789,766,778,13500,778
2015/08/31,787,795,776,795,2800,795
2015/09/01,780,780,741,761,12000,761
2015/09/02,746,773,746,755,1900,755
2015/09/03,742,753,742,742,5200,742
2015/09/04,754,755,721,721,5900,721
2015/09/07,721,732,700,708,8400,708
2015/09/08,709,712,706,709,2500,709
2015/09/09,716,730,716,730,4800,730
2015/09/10,730,734,722,731,2100,731
2015/09/11,727,742,727,742,3400,742
2015/09/14,755,755,741,742,3100,742
2015/09/15,748,752,748,750,4400,750
2015/09/16,752,761,752,752,1000,752
2015/09/17,752,772,752,772,1600,772
2015/09/18,769,769,760,769,500,769
2015/09/24,769,769,764,768,10900,768
2015/09/25,768,768,750,762,3500,762
2015/09/28,762,779,762,765,7000,765
2015/09/29,765,765,748,763,1800,763
2015/09/30,760,770,745,770,7100,770
2015/10/01,773,774,760,769,1800,769
2015/10/02,772,777,760,774,6700,774
2015/10/05,774,776,766,776,1500,776
2015/10/06,776,776,768,775,2200,775
2015/10/07,775,775,770,770,600,770
2015/10/08,770,777,766,769,6700,769
2015/10/09,769,773,769,771,3900,771
2015/10/13,771,771,771,771,1000,771
2015/10/14,771,787,771,773,7400,773
2015/10/15,777,786,773,774,5300,774
2015/10/16,779,780,770,771,8500,771
