2010/01/04,11600,12100,11280,11750,3677,1175
2010/01/05,11510,11750,11220,11220,1680,1122
2010/01/06,11000,11620,10950,11570,1621,1157
2010/01/07,11770,12130,11600,12020,4965,1202
2010/01/08,12080,12190,11720,11740,2719,1174
2010/01/12,12190,12190,11840,12030,3041,1203
2010/01/13,12010,12050,11660,11670,2577,1167
2010/01/14,11370,11930,11370,11800,813,1180
2010/01/15,11910,11980,11610,11710,1628,1171
2010/01/18,11000,11250,10910,11010,6632,1101
2010/01/19,11200,11390,11100,11240,1944,1124
2010/01/20,11250,11280,10520,10720,2587,1072
2010/01/21,10720,10950,10630,10910,2339,1091
2010/01/22,10720,10730,10480,10650,4783,1065
2010/01/25,10500,10940,10250,10390,6750,1039
2010/01/26,10200,10210,9970,9980,38011,998
2010/01/27,9990,9990,9980,9980,25843,998
2010/01/28,9990,10100,9810,9810,9067,981
2010/01/29,9810,9990,9800,9890,5215,989
2010/02/01,9980,9980,9850,9950,4732,995
2010/02/02,9650,9850,9220,9290,11378,929
2010/02/03,9300,9440,9180,9290,9229,929
2010/02/04,9210,9360,9020,9240,5977,924
2010/02/05,8960,8960,8480,8540,11791,854
2010/02/08,8500,8500,8080,8160,10430,816
2010/02/09,7860,8380,7860,8160,6254,816
2010/02/10,8290,8320,8190,8240,2787,824
2010/02/12,8360,8810,8350,8740,4395,874
2010/02/15,8740,8850,8420,8510,6260,851
2010/02/16,8660,8660,8250,8350,3112,835
2010/02/17,8410,8440,8240,8310,2931,831
2010/02/18,8230,8380,8060,8110,5182,811
2010/02/19,8040,8310,8040,8160,4225,816
2010/02/22,8240,8280,8000,8210,4025,821
2010/02/23,8200,8220,8090,8160,2673,816
2010/02/24,8150,8500,8110,8470,6043,847
2010/02/25,8530,8570,8350,8440,4060,844
2010/02/26,8170,8350,8150,8260,4164,826
2010/03/01,8170,8270,8110,8210,2689,821
2010/03/02,8170,8200,7950,8060,3223,806
2010/03/03,7910,7970,7820,7970,4573,797
2010/03/04,7850,7940,7780,7790,3295,779
2010/03/05,7780,7950,7740,7900,2642,790
2010/03/08,7990,8060,7900,7940,3453,794
2010/03/09,8000,8000,7610,7760,4657,776
2010/03/10,7680,7740,7590,7590,4201,759
2010/03/11,7440,7520,7050,7400,10054,740
2010/03/12,7480,7700,7350,7540,8306,754
2010/03/15,7690,7800,7630,7800,4904,780
2010/03/16,7930,7960,7810,7870,6324,787
2010/03/17,7900,8900,7900,8690,24812,869
2010/03/18,8840,9280,8710,8710,18803,871
2010/03/19,8900,8900,8490,8540,5881,854
2010/03/23,8540,9120,8540,8860,10495,886
2010/03/24,9050,9100,8920,9050,7520,905
2010/03/25,9000,9010,8500,8920,6622,892
2010/03/26,9050,9080,8700,8820,4272,882
2010/03/29,8750,8870,8550,8810,3713,881
2010/03/30,8870,8900,8700,8830,2759,883
2010/03/31,8680,8810,8610,8620,4127,862
2010/04/01,8800,9100,8690,9070,10292,907
2010/04/02,9350,9400,9050,9110,7319,911
2010/04/05,9210,9350,8980,9350,5109,935
2010/04/06,9360,9840,9300,9700,13257,970
2010/04/07,9730,9730,9150,9400,5898,940
2010/04/08,9400,9440,9240,9280,3798,928
2010/04/09,9280,9310,9200,9280,2586,928
2010/04/12,9290,9330,9210,9210,2942,921
2010/04/13,9220,9290,9120,9210,3987,921
2010/04/14,9280,9340,9200,9300,3950,930
2010/04/15,9350,9500,9300,9450,3811,945
2010/04/16,9530,9530,9380,9450,3666,945
2010/04/19,9300,9340,9120,9210,3460,921
2010/04/20,9150,9280,9030,9250,2156,925
2010/04/21,9280,9320,9160,9210,2313,921
2010/04/22,9220,9500,9220,9470,6097,947
2010/04/23,9580,9860,9500,9720,10011,972
2010/04/26,9720,9770,9470,9530,7420,953
2010/04/27,9570,9670,9380,9420,3146,942
2010/04/28,9420,9460,9310,9430,3101,943
2010/04/30,9500,9510,9360,9410,3407,941
2010/05/06,9180,9310,9120,9270,3967,927
2010/05/07,8670,8850,8390,8690,5438,869
2010/05/10,8670,9000,8580,8970,3416,897
2010/05/11,9120,9120,8660,8680,3154,868
2010/05/12,8830,9000,8700,8750,2016,875
2010/05/13,8860,8960,8740,8870,2186,887
2010/05/14,8830,8920,8790,8880,4479,888
2010/05/17,8130,8220,7380,7400,25659,740
2010/05/18,7550,7570,7080,7220,15125,722
2010/05/19,7180,7300,7000,7240,9467,724
2010/05/20,7310,7340,7080,7180,4456,718
2010/05/21,7000,7130,6910,7010,8470,701
2010/05/24,7020,7050,6910,6970,4710,697
2010/05/25,7000,7150,6640,6700,10018,670
2010/05/26,7000,7200,6850,7160,10575,716
2010/05/27,7110,7170,6930,7170,3058,717
2010/05/28,7230,7450,7180,7250,3937,725
2010/05/31,7200,7250,7100,7170,4849,717
2010/06/01,7150,7230,7100,7190,4357,719
2010/06/02,7080,7180,7060,7110,2841,711
2010/06/03,7200,7230,7070,7140,2627,714
2010/06/04,7150,7250,7150,7200,2676,720
2010/06/07,7200,7220,6900,7050,3474,705
2010/06/08,6900,7110,6900,7000,2892,700
2010/06/09,7190,7300,6960,6960,3646,696
2010/06/10,7060,7100,6970,7010,3044,701
2010/06/11,7080,7090,6980,7000,3061,700
2010/06/14,7040,7290,7020,7210,3337,721
2010/06/15,7120,7270,7050,7120,3402,712
2010/06/16,7130,7240,7100,7200,2479,720
2010/06/17,7250,7260,7080,7110,2048,711
2010/06/18,7050,7070,6860,6920,4825,692
2010/06/21,6820,6990,6820,6940,1530,694
2010/06/22,6990,6990,6820,6890,1729,689
2010/06/23,6850,7600,6850,7450,12836,745
2010/06/24,7750,7750,7350,7350,5982,735
2010/06/25,7260,7260,7090,7200,3453,720
2010/06/28,7100,7150,6830,6830,3263,683
2010/06/29,6640,6830,6510,6670,5542,667
2010/06/30,6400,6460,6350,6390,5873,639
2010/07/01,6350,6430,6040,6100,5049,610
2010/07/02,6040,6230,5850,6010,4423,601
2010/07/05,6110,6650,6000,6500,9349,650
2010/07/06,6500,6510,6210,6400,3345,640
2010/07/07,6250,6400,6150,6220,4648,622
2010/07/08,6260,6330,6150,6220,2282,622
2010/07/09,6170,6220,6050,6120,2164,612
2010/07/12,6070,6140,6070,6070,1230,607
2010/07/13,6060,6120,6000,6020,2407,602
2010/07/14,6080,6100,5930,6000,3196,600
2010/07/15,5930,6000,5860,5880,4048,588
2010/07/16,5870,5900,5570,5720,5797,572
2010/07/20,5420,5660,5420,5520,3687,552
2010/07/21,5630,5650,5450,5480,2099,548
2010/07/22,5330,5380,5120,5180,5019,518
2010/07/23,5240,5540,5210,5390,3931,539
2010/07/26,5400,5490,5280,5320,2464,532
2010/07/27,5220,5420,5210,5320,1818,532
2010/07/28,5250,5430,5250,5370,3583,537
2010/07/29,5320,5480,5310,5350,2770,535
2010/07/30,5310,5350,5050,5090,4287,509
2010/08/02,5050,5100,4885,4900,6069,490
2010/08/03,4970,4995,4890,4950,3244,495
2010/08/06,4900,4925,4810,4870,3354,487
2010/08/09,4905,5380,4905,5260,14264,526
2010/08/10,5340,5400,5110,5200,4216,520
2010/08/12,4860,4860,4560,4640,6240,464
2010/08/13,4610,4620,4350,4510,7239,451
2010/08/17,4275,4380,4120,4180,6254,418
2010/08/18,4220,4250,4110,4140,3965,414
2010/08/20,4635,4790,4535,4600,12969,460
2010/08/23,4600,5240,4540,5050,17354,505
2010/08/24,5220,5380,5060,5240,15826,524
2010/08/27,4805,4870,4615,4820,4675,482
2010/08/30,4960,5040,4880,4980,4409,498
2010/08/31,4960,5230,4960,5070,9311,507
2010/09/01,4980,5230,4980,5030,5117,503
2010/09/03,4725,4930,4700,4790,3392,479
2010/09/09,4580,4650,4570,4590,2403,459
2010/09/14,4950,5460,4870,5330,22312,533
2010/09/15,5230,5340,5100,5140,7841,514
2010/09/16,5150,5200,5020,5200,2832,520
2010/09/17,5280,5860,5200,5680,12429,568
2010/09/21,5980,6500,5680,5720,24204,572
2010/09/22,5800,6400,5760,6110,14557,611
2010/09/24,6200,6220,5930,6010,6897,601
2010/09/27,6150,6170,5740,5940,5711,594
2010/09/28,5900,6190,5810,6040,5857,604
2010/09/29,6060,6140,5950,6070,2482,607
2010/09/30,6170,6230,5910,5960,6062,596
2010/10/01,5910,5980,5640,5780,4414,578
2010/10/04,5720,5720,5310,5420,4816,542
2010/10/05,5420,5540,5310,5500,4338,550
2010/10/06,5330,5760,5330,5600,7501,560
2010/10/07,5500,5940,5470,5920,6424,592
2010/10/08,6020,6140,5970,6130,9121,613
2010/10/12,6200,6250,5980,6060,4826,606
2010/10/13,6120,6120,5790,5900,4916,590
2010/10/14,5900,6190,5880,6060,5236,606
2010/10/15,6000,6070,5780,5800,3451,580
2010/10/18,5880,6060,5790,5950,2903,595
2010/10/19,5940,6010,5800,5870,3673,587
2010/10/20,5810,5930,5800,5840,3575,584
2010/10/21,5940,5940,5840,5900,2806,590
2010/10/22,5830,5900,5610,5660,5593,566
2010/10/25,5600,5650,5460,5470,3224,547
2010/10/26,5370,5560,5340,5350,4441,535
2010/10/27,5450,5450,5320,5340,3230,534
2010/10/28,5250,5360,5050,5330,10522,533
2010/10/29,5130,5330,5040,5060,3198,506
2010/11/01,4995,4995,4765,4800,3745,480
2010/11/02,4735,4850,4685,4710,2649,471
2010/11/04,4780,5270,4710,5190,6225,519
2010/11/05,5250,5490,5100,5200,4911,520
2010/11/08,5150,5190,4710,4940,4792,494
2010/11/10,4815,4940,4815,4920,2361,492
2010/11/11,4990,5150,4930,5150,3160,515
2010/11/12,5100,5110,4990,5030,2781,503
2010/11/16,4960,5050,4915,5030,2383,503
2010/11/17,4935,5060,4930,5050,1090,505
2010/11/18,5100,5190,5090,5180,2766,518
2010/11/19,5300,5300,5200,5290,3490,529
2010/11/22,5300,5430,5250,5380,4624,538
2010/11/24,5280,5510,5250,5470,4859,547
2010/11/25,5660,5800,5570,5800,4006,580
2010/11/26,5840,6100,5840,6100,7530,610
2010/11/29,6160,6160,5800,6010,7119,601
2010/11/30,5940,6070,5860,6010,5039,601
2010/12/01,5940,6070,5880,5990,2242,599
2010/12/02,6020,6080,5910,5920,3833,592
2010/12/03,5970,6020,5930,5940,1790,594
2010/12/06,6000,6180,5970,6090,4735,609
2010/12/07,6010,6090,5930,6090,4416,609
2010/12/08,6110,6190,6010,6090,3599,609
2010/12/09,6090,6100,5970,6000,4111,600
2010/12/10,6000,6050,5980,6030,4310,603
2010/12/13,6050,6200,5900,6180,4183,618
2010/12/14,6220,6500,6040,6180,14592,618
2010/12/15,6180,6590,6180,6590,11802,659
2010/12/16,6690,6880,6480,6540,9307,654
2010/12/17,6500,6590,6400,6530,4383,653
2010/12/20,6600,6720,6530,6530,6072,653
2010/12/21,6560,6620,6540,6580,3302,658
2010/12/22,6640,7090,6640,6840,10697,684
2010/12/24,6900,6940,6660,6780,4690,678
2010/12/27,6750,7740,6750,7480,13702,748
2010/12/28,7490,7630,7080,7240,9550,724
2010/12/29,7380,8740,7380,8260,31354,826
2010/12/30,8330,8960,7890,8050,19632,805
2011/01/04,8150,8690,8150,8410,11487,841
2011/01/05,8530,8550,8040,8160,11346,816
2011/01/06,8270,8280,7680,7900,17372,790
2011/01/07,7900,7900,7680,7900,8061,790
2011/01/11,7910,7910,7480,7600,11682,760
2011/01/12,7600,7850,7460,7540,8486,754
2011/01/13,7580,7700,7530,7570,7355,757
2011/01/14,7700,7700,7600,7660,4046,766
2011/01/17,7650,8240,7640,7850,16259,785
2011/01/18,8000,8170,7760,7830,8683,783
2011/01/19,7940,8100,7850,8100,8157,810
2011/01/20,8160,8180,7830,8050,5817,805
2011/01/21,8050,8200,7700,7800,12709,780
2011/01/24,7850,8240,7820,8200,14259,820
2011/01/25,8250,8350,8070,8140,6693,814
2011/01/26,8150,8200,7940,8030,5400,803
2011/01/27,8030,8140,7940,8040,5532,804
2011/01/28,8040,8050,7810,7950,5297,795
2011/01/31,7800,7800,7560,7630,5825,763
2011/02/01,7640,7750,7640,7650,2687,765
2011/02/02,7660,7680,7260,7450,8744,745
2011/02/03,7530,7750,7350,7750,4753,775
2011/02/04,7900,7990,7710,7980,6159,798
2011/02/07,8430,8430,8090,8200,10663,820
2011/02/08,8190,8250,8030,8080,4523,808
2011/02/09,8080,8580,8080,8500,15154,850
2011/02/10,8480,8480,8260,8350,4172,835
2011/02/14,8350,8400,8200,8310,4901,831
2011/02/15,8300,8430,8170,8250,4592,825
2011/02/16,8200,8270,8060,8080,4330,808
2011/02/17,8080,8170,8060,8120,3109,812
2011/02/18,8090,8340,8090,8310,5042,831
2011/02/21,8360,8900,8360,8670,18834,867
2011/02/22,8500,8500,8180,8330,10452,833
2011/02/23,8200,8800,8180,8610,13148,861
2011/02/24,8560,8610,8110,8120,10298,812
2011/02/25,8110,8380,8110,8180,5960,818
2011/02/28,8250,8330,8160,8320,3620,832
2011/03/01,8270,8600,8270,8520,7245,852
2011/03/02,8370,8460,8230,8250,7133,825
2011/03/03,8210,8310,8210,8220,4171,822
2011/03/04,8350,8350,8100,8170,6490,817
2011/03/07,8100,8180,8050,8110,4086,811
2011/03/08,8050,8230,8050,8100,3082,810
2011/03/09,8080,8310,8080,8140,5537,814
2011/03/10,8120,8140,7650,7840,6157,784
2011/03/11,7730,7920,7730,7730,5123,773
2011/03/14,6230,6590,6230,6230,7611,623
2011/03/15,5230,5230,5230,5230,1128,523
2011/03/16,4930,5490,4860,5010,20110,501
2011/03/17,4770,5360,4650,5300,14165,530
2011/03/18,5500,6280,5500,6280,9448,628
2011/03/22,6780,6780,6050,6200,12502,620
2011/03/23,6400,6490,6250,6370,7352,637
2011/03/24,6290,6290,5910,5930,8388,593
2011/03/25,5990,6110,5940,6030,4953,603
2011/03/28,6130,6130,5810,5880,2359,588
2011/03/29,5790,6000,5780,5990,2468,599
2011/03/30,6010,6040,5850,6000,2360,600
2011/03/31,6050,6120,5820,5960,3880,596
2011/04/01,5960,6000,5800,5840,2716,584
2011/04/04,5840,5940,5780,5810,2218,581
2011/04/05,5820,5840,5570,5600,3480,560
2011/04/06,5600,5600,5190,5310,6239,531
2011/04/07,5260,5270,5120,5150,7197,515
2011/04/08,5070,5310,4995,5180,8686,518
2011/04/11,5310,5660,5200,5430,9314,543
2011/04/12,5440,5480,5290,5430,7755,543
2011/04/13,5370,5560,5290,5510,4191,551
2011/04/14,5590,5590,5410,5510,5729,551
2011/04/15,5590,5590,5340,5340,2948,534
2011/04/18,5440,5750,5410,5630,4521,563
2011/04/19,5530,5830,5500,5730,4470,573
2011/04/20,5700,5850,5660,5750,4833,575
2011/04/21,5800,5830,5700,5700,2137,570
2011/04/22,5780,5790,5580,5650,4101,565
2011/04/25,5650,5710,5520,5540,3338,554
2011/04/26,5630,5800,5510,5740,5117,574
2011/04/27,5780,5790,5550,5670,3605,567
2011/04/28,5630,5700,5570,5640,3192,564
2011/05/02,5790,5810,5680,5780,4952,578
2011/05/06,5770,5880,5710,5880,1717,588
2011/05/09,5700,5820,5700,5800,2767,580
2011/05/10,5760,5980,5750,5970,3687,597
2011/05/11,6000,6080,5930,5950,4136,595
2011/05/12,5870,5920,5770,5840,3001,584
2011/05/13,5890,5900,5600,5670,3326,567
2011/05/16,5220,5400,5120,5150,7456,515
2011/05/17,5250,5250,4780,4900,8576,490
2011/05/18,4940,4985,4870,4920,5146,492
2011/05/23,4860,4865,4785,4790,4471,479
2011/05/27,4775,4995,4720,4960,5956,496
2011/05/30,4990,5040,4815,4940,5385,494
2011/05/31,5100,5310,5020,5200,6312,520
2011/06/01,5190,5590,5130,5590,6071,559
2011/06/02,5410,5580,5360,5460,5065,546
2011/06/03,5480,5570,5240,5260,4899,526
2011/06/06,5300,5360,5050,5260,4531,526
2011/06/07,5150,5400,5110,5290,2239,529
2011/06/08,5190,5430,5180,5280,3351,528
2011/06/09,5280,5300,5110,5160,2016,516
2011/06/10,5410,5450,5320,5320,5440,532
2011/06/13,5300,5550,5300,5470,3420,547
2011/06/14,5390,5580,5390,5510,3640,551
2011/06/15,5520,5570,5410,5430,2514,543
2011/06/16,5490,5530,5400,5400,2259,540
2011/06/17,5420,5470,5240,5240,1664,524
2011/06/20,5200,5340,5170,5340,2178,534
2011/06/21,5280,5410,5280,5410,1183,541
2011/06/22,5380,5520,5380,5510,2438,551
2011/06/23,5450,5500,5290,5450,1683,545
2011/06/24,5350,5520,5350,5510,1805,551
2011/06/27,5440,5570,5410,5500,2357,550
2011/06/28,5480,5900,5480,5840,5686,584
2011/06/29,5900,5950,5780,5930,3606,593
2011/06/30,5950,5970,5660,5890,4176,589
2011/07/01,5890,5890,5670,5810,2685,581
2011/07/04,5900,5930,5810,5900,2971,590
2011/07/05,5910,6100,5900,6000,7737,600
2011/07/06,5920,6050,5920,6010,2969,601
2011/07/07,6090,6400,6080,6300,8214,630
2011/07/08,6300,6380,6120,6130,4437,613
2011/07/11,6100,6200,5900,6020,5368,602
2011/07/12,5890,6150,5850,6050,4460,605
2011/07/13,5950,6300,5950,6210,2754,621
2011/07/14,6270,6290,6070,6070,2143,607
2011/07/15,6000,6030,5950,6000,2232,600
2011/07/19,5990,5990,5850,5860,3104,586
2011/07/20,5930,5930,5770,5930,2993,593
2011/07/21,5850,5870,5730,5770,2697,577
2011/07/22,5840,5850,5770,5820,1120,582
2011/07/25,5760,5820,5330,5750,4237,575
2011/07/26,5760,5820,5760,5820,1401,582
2011/07/27,5800,6030,5700,6000,4145,600
2011/07/28,5970,6170,5900,6090,4616,609
2011/07/29,6000,6100,5760,5760,2444,576
2011/08/01,5760,6100,5750,5930,1681,593
2011/08/02,5930,5930,5750,5800,2411,580
2011/08/03,5690,5750,5630,5730,2304,573
2011/08/04,5670,5730,5590,5600,2447,560
2011/08/05,5400,5500,5270,5500,3172,550
2011/08/08,5420,5430,5080,5130,3450,513
2011/08/09,4860,5130,4730,5090,4934,509
2011/08/10,5290,5330,5030,5150,2588,515
2011/08/11,4980,5250,4980,5250,1796,525
2011/08/12,5180,5250,5110,5150,1268,515
2011/08/15,5300,5370,5150,5200,1515,520
2011/08/16,5180,5350,5160,5310,2595,531
2011/08/17,5240,5330,5220,5270,1193,527
2011/08/18,5300,5330,5260,5290,1362,529
2011/08/19,5110,5240,5070,5190,2307,519
2011/08/22,5100,5290,4950,4950,2683,495
2011/08/23,4955,5280,4955,5100,2657,510
2011/08/24,5120,5170,4965,5020,3394,502
2011/08/25,5070,5100,5040,5040,2682,504
2011/08/26,5080,5080,5050,5080,856,508
2011/08/29,5080,5100,5040,5080,2238,508
2011/08/30,5090,5130,5060,5080,2821,508
2011/08/31,5060,5110,5060,5070,1503,507
2011/09/01,5080,5090,5050,5080,3070,508
2011/09/02,5070,5080,5000,5050,2016,505
2011/09/05,5010,5040,4955,4980,1342,498
2011/09/06,4900,4965,4800,4810,4449,481
2011/09/07,4900,5050,4840,5000,3877,500
2011/09/08,5000,5020,4895,4930,1417,493
2011/09/12,4665,4830,4620,4720,3530,472
2011/09/13,4710,4900,4710,4840,1439,484
2011/09/14,4775,4900,4710,4740,2306,474
2011/09/15,4730,4770,4700,4740,2234,474
2011/09/16,4785,4810,4765,4800,5340,480
2011/09/20,4775,4805,4705,4800,1757,480
2011/09/21,4795,4795,4700,4740,1638,474
2011/09/22,4690,4750,4625,4660,3585,466
2011/09/26,4630,4695,4510,4550,2324,455
2011/09/27,4575,4650,4505,4650,1479,465
2011/09/28,4690,4800,4650,4800,3562,480
2011/09/29,4710,5050,4710,5050,4920,505
2011/09/30,5050,5090,4985,5070,1896,507
2011/10/03,5000,5010,4890,4920,2300,492
2011/10/07,4650,4655,4515,4520,5454,452
2011/10/11,4580,4675,4525,4600,4173,460
2011/10/17,4985,5070,4950,4980,2258,498
2011/10/18,4880,4995,4840,4930,1696,493
2011/10/19,4900,4935,4850,4890,2414,489
2011/10/20,4890,4890,4745,4770,1858,477
2011/10/21,4760,4820,4715,4720,834,472
2011/10/31,5060,5070,4895,4900,8510,490
2011/11/01,4825,5200,4825,5020,5951,502
2011/11/02,4920,5070,4895,4940,3720,494
2011/11/04,5110,5110,4965,4990,2448,499
2011/11/11,4655,4655,4535,4580,1447,458
2011/11/14,4650,4655,4570,4600,833,460
2011/11/15,4635,4635,4550,4580,1263,458
2011/11/16,4560,4645,4560,4590,1602,459
2011/11/17,4540,4595,4530,4590,972,459
2011/11/21,4250,4300,4150,4290,2494,429
2011/11/24,4260,4325,4190,4210,2075,421
2011/11/25,4160,4300,4125,4180,2373,418
2011/11/28,4205,4245,4150,4230,1242,423
2011/11/29,4300,4410,4255,4410,2416,441
2011/12/02,4345,4435,4345,4430,1675,443
2011/12/05,4500,4550,4430,4490,1841,449
2011/12/08,4520,4750,4500,4730,2696,473
2011/12/13,4870,4955,4840,4950,3154,495
2011/12/14,4990,5030,4910,4910,2913,491
2011/12/15,4970,4970,4770,4770,1725,477
2011/12/16,4750,4875,4700,4850,1548,485
2011/12/26,4700,4700,4570,4610,1624,461
2011/12/28,4550,4640,4530,4550,1005,455
2011/12/30,4570,4710,4570,4690,2264,469
2012/01/06,4870,4890,4790,4800,1444,480
2012/01/10,4850,4895,4795,4800,959,480
2012/01/11,4810,4980,4795,4960,1909,496
2012/01/13,4965,5240,4960,5100,6261,510
2012/01/16,5150,5230,5050,5160,5053,516
2012/01/17,5200,5350,5090,5130,8396,513
2012/01/18,5240,5540,5200,5480,10794,548
2012/01/19,5570,5590,5300,5500,4890,550
2012/01/20,5590,5590,5410,5590,2639,559
2012/01/23,5540,5540,5230,5400,3834,540
2012/01/24,5450,5640,5300,5510,6426,551
2012/01/25,5560,5640,5410,5450,3009,545
2012/01/26,5550,5550,5420,5480,2480,548
2012/01/27,5380,5430,5220,5320,6649,532
2012/01/30,5350,5700,5320,5510,6591,551
2012/01/31,5530,5740,5420,5720,5827,572
2012/02/01,5740,5870,5700,5760,4012,576
2012/02/02,5700,5840,5660,5790,3173,579
2012/02/03,5800,5840,5730,5790,4486,579
2012/02/06,5540,5870,5500,5850,7154,585
2012/02/07,5870,6160,5820,6150,8030,615
2012/02/08,6260,6420,6170,6420,5892,642
2012/02/09,6410,6450,6270,6290,9781,629
2012/02/10,6320,6360,6100,6160,6849,616
2012/02/13,5900,6060,5880,6000,5680,600
2012/02/14,6000,6400,5850,6390,8138,639
2012/02/15,6490,7120,6460,6940,20853,694
2012/02/16,6930,7020,6680,6780,6900,678
2012/02/17,6950,7360,6840,7340,16669,734
2012/02/20,7310,7480,7090,7110,7290,711
2012/02/21,6960,7170,6800,6880,7995,688
2012/02/22,7140,7340,7040,7330,4761,733
2012/02/23,7300,7300,7130,7160,4264,716
2012/02/24,7140,7270,7000,7270,3535,727
2012/02/27,7180,7190,6950,7060,4328,706
2012/02/28,7090,7090,6850,6960,7491,696
2012/02/29,7010,7150,6860,6880,3574,688
2012/03/01,6980,7060,6740,6790,4648,679
2012/03/02,6730,6990,6730,6910,4495,691
2012/03/05,7070,7140,6960,6980,4653,698
2012/03/06,7010,7250,7010,7230,5878,723
2012/03/07,7060,7400,7060,7390,7365,739
2012/03/08,7350,7760,7350,7730,10397,773
2012/03/09,7800,7820,7610,7640,7026,764
2012/03/12,7580,7590,7440,7490,5067,749
2012/03/13,7420,7600,7400,7430,5581,743
2012/03/14,7510,7900,7510,7860,7820,786
2012/03/15,7700,7810,7630,7640,7403,764
2012/03/16,7760,7760,7650,7700,3858,770
2012/03/19,7760,7840,7750,7760,4512,776
2012/03/21,7800,7860,7560,7700,7995,770
2012/03/22,7700,7900,7640,7650,2640,765
2012/03/23,7500,7760,7500,7670,2793,767
2012/03/26,7520,7690,7380,7380,4225,738
2012/03/27,7550,7640,7470,7640,2964,764
2012/03/28,7560,7760,7490,7690,2444,769
2012/03/29,7800,7880,7750,7830,4884,783
2012/03/30,7730,7970,7730,7970,3516,797
2012/04/02,7960,8070,7930,8030,2535,803
2012/04/03,8040,8150,8040,8100,4663,810
2012/04/04,8100,8210,7710,7830,6876,783
2012/04/05,7830,8400,7760,8310,8584,831
2012/04/06,8310,8380,8270,8350,5438,835
2012/04/09,8280,8400,8250,8260,4875,826
2012/04/10,8400,8920,8380,8860,13599,886
2012/04/11,8670,8950,8080,8430,8988,843
2012/04/12,8180,8400,8180,8230,3479,823
2012/04/13,8400,8700,8400,8630,5850,863
2012/04/16,8650,9190,8650,8910,10032,891
2012/04/17,9170,9590,8940,9400,13424,940
2012/04/18,9430,9900,9430,9900,17066,990
2012/04/19,9990,10000,9500,9570,13756,957
2012/04/20,9400,9590,9110,9530,8517,953
2012/04/23,9400,9760,9260,9520,7167,952
2012/04/24,9500,9500,9210,9350,4292,935
2012/04/25,9350,9560,9350,9490,3577,949
2012/04/26,9500,9500,9260,9280,5113,928
2012/04/27,9200,9490,9200,9220,3102,922
2012/05/01,9200,9370,9030,9070,2366,907
2012/05/02,9080,9680,9080,9250,4517,925
2012/05/07,9110,9370,8730,8780,4801,878
2012/05/08,8660,9000,8610,8900,4006,890
2012/05/09,8850,8990,8510,8760,5674,876
2012/05/10,8590,9570,8590,9540,5918,954
2012/05/11,9400,9520,8810,8910,7646,891
2012/05/14,7560,8190,7410,7410,17347,741
2012/05/15,7170,7170,6600,7030,15495,703
2012/05/16,6980,7160,6780,6860,7522,686
2012/05/17,7010,7240,6760,7180,6225,718
2012/05/18,6920,7170,6870,6940,4118,694
2012/05/21,6970,7550,6970,7520,5545,752
2012/05/22,7370,7500,7200,7240,5726,724
2012/05/23,7540,7600,7210,7220,5659,722
2012/05/24,7230,7490,7190,7350,3081,735
2012/05/25,7490,8490,7480,7870,11796,787
2012/05/28,7570,7670,7350,7420,4963,742
2012/05/29,7120,7430,7020,7360,4931,736
2012/05/30,7530,7930,7530,7870,6801,787
2012/05/31,7570,7800,7440,7780,3548,778
2012/06/01,7780,7880,7500,7540,3569,754
2012/06/04,7340,7350,6970,6970,4476,697
2012/06/05,6900,7260,6900,7180,3842,718
2012/06/06,7200,7500,7050,7340,4736,734
2012/06/07,7350,7420,7130,7210,4793,721
2012/06/08,7060,7180,7010,7050,5862,705
2012/06/11,7040,7380,7040,7240,4295,724
2012/06/12,7100,7280,7070,7240,3192,724
2012/06/13,7380,7380,7220,7230,1355,723
2012/06/14,7100,7240,7070,7120,3014,712
2012/06/15,7200,7300,7110,7120,2001,712
2012/06/18,7150,7770,7150,7400,5679,740
2012/06/19,7320,7400,7150,7170,4934,717
2012/06/20,7250,7500,7210,7480,2997,748
2012/06/21,7440,7720,7380,7670,3873,767
2012/06/22,7800,7800,7490,7690,3450,769
2012/06/25,7840,7840,7530,7570,3599,757
2012/06/26,7520,7640,7460,7500,2687,750
2012/06/27,7350,7440,7140,7290,4664,729
2012/06/28,7350,7480,7150,7210,5044,721
2012/06/29,7130,7320,7110,7190,3963,719
2012/07/02,7250,7280,7200,7200,2932,720
2012/07/03,7250,7360,7140,7190,3286,719
2012/07/04,7200,7300,7200,7270,1215,727
2012/07/05,7350,7350,7210,7300,1222,730
2012/07/06,7260,7290,7160,7250,2324,725
2012/07/09,7170,7200,7130,7150,1743,715
2012/07/10,7130,7200,7070,7070,2955,707
2012/07/11,7060,7120,7060,7120,840,712
2012/07/12,7100,7110,6890,6890,2517,689
2012/07/13,6890,6930,6810,6850,2098,685
2012/07/17,6850,7030,6800,6860,2404,686
2012/07/18,6850,6870,6500,6550,3055,655
2012/07/19,6680,6830,6610,6740,3006,674
2012/07/20,6980,6990,6670,6680,2365,668
2012/07/23,6780,6780,6560,6560,1608,656
2012/07/24,6550,6660,6510,6510,1295,651
2012/07/25,6500,6580,6310,6340,2299,634
2012/07/26,6190,6490,6190,6360,2348,636
2012/07/27,6510,6510,6330,6450,2634,645
2012/07/30,6480,6570,6470,6530,1631,653
2012/07/31,6500,6550,6450,6540,2265,654
2012/08/01,6570,6710,6550,6600,2575,660
2012/08/02,6630,6980,6550,6940,1945,694
2012/08/03,7040,7150,6780,6960,2997,696
2012/08/06,7100,7170,6990,7060,2214,706
2012/08/07,7060,7060,6820,6920,1659,692
2012/08/08,6910,7000,6780,6840,2251,684
2012/08/09,6880,7090,6870,7090,3410,709
2012/08/10,7090,7090,6870,6920,1465,692
2012/08/13,6930,7000,6860,6860,1191,686
2012/08/14,6960,7010,6860,6970,1798,697
2012/08/15,7100,7100,6900,7000,1625,700
2012/08/16,7070,7270,7020,7270,3157,727
2012/08/17,7300,7320,7150,7220,1265,722
2012/08/20,7170,7170,6920,6920,2500,692
2012/08/21,6920,7040,6920,6970,591,697
2012/08/22,6970,6980,6880,6930,1036,693
2012/08/23,6930,6970,6900,6930,658,693
2012/08/24,6950,6980,6880,6890,561,689
2012/08/27,6850,6920,6650,6660,1543,666
2012/08/28,6690,6740,6550,6710,2527,671
2012/08/29,6630,6730,6500,6500,2478,650
2012/08/30,6690,6690,6420,6450,2014,645
2012/08/31,6400,6580,6360,6580,880,658
2012/09/03,6580,6670,6510,6580,949,658
2012/09/04,6530,6750,6520,6700,1334,670
2012/09/05,6770,6770,6620,6660,1498,666
2012/09/06,6720,6730,6570,6600,903,660
2012/09/07,6600,6690,6590,6620,778,662
2012/09/10,6650,6800,6610,6770,1340,677
2012/09/11,6670,6740,6610,6720,686,672
2012/09/12,6720,6810,6690,6780,997,678
2012/09/13,6780,6810,6720,6760,688,676
2012/09/14,6790,6820,6700,6710,1787,671
2012/09/18,6820,6840,6710,6770,1480,677
2012/09/19,6800,6820,6700,6780,1911,678
2012/09/20,6730,6930,6730,6930,1794,693
2012/09/21,6650,6790,6580,6630,7338,663
2012/09/24,6640,6700,6400,6510,2613,651
2012/09/25,6510,6690,6510,6690,1317,669
2012/09/26,6680,6720,6540,6710,1508,671
2012/09/27,6680,6690,6570,6650,982,665
2012/09/28,6690,6790,6620,6650,1860,665
2012/10/01,6650,6740,6560,6720,1237,672
2012/10/02,6760,6770,6630,6750,2490,675
2012/10/03,6780,6780,6630,6670,2019,667
2012/10/04,6570,6780,6540,6670,2684,667
2012/10/05,6790,6790,6680,6750,1175,675
2012/10/09,6760,6930,6760,6790,2393,679
2012/10/10,6770,6770,6560,6580,2796,658
2012/10/11,6590,6620,6440,6450,3078,645
2012/10/12,6460,6520,6360,6370,2435,637
2012/10/15,6400,6500,6400,6460,843,646
2012/10/16,6560,6720,6510,6690,1919,669
2012/10/17,6760,6870,6700,6870,2791,687
2012/10/18,6780,6880,6610,6680,1758,668
2012/10/19,6600,6830,6600,6800,1930,680
2012/10/22,6670,6780,6430,6540,5758,654
2012/10/23,6580,6610,6500,6500,3719,650
2012/10/24,6500,6640,6480,6610,3421,661
2012/10/25,6600,6840,6560,6800,3106,680
2012/10/26,6740,6770,6560,6590,2790,659
2012/10/29,6560,6740,6560,6730,1860,673
2012/10/30,6660,6750,6590,6600,3481,660
2012/10/31,6600,6700,6520,6550,5196,655
2012/11/01,6600,6860,6550,6660,6054,666
2012/11/02,6700,6850,6680,6830,5379,683
2012/11/05,6900,7600,6840,7600,9548,760
2012/11/06,7690,8040,7410,7900,10431,790
2012/11/07,8120,8130,7540,7680,4800,768
2012/11/08,7400,7760,7380,7570,4357,757
2012/11/09,7430,7540,7320,7390,2711,739
2012/11/12,7500,8080,7470,7930,5810,793
2012/11/13,8080,8450,7980,8100,12676,810
2012/11/14,8220,8220,7810,8010,4524,801
2012/11/15,8000,8080,7760,7970,1632,797
2012/11/16,8060,8180,7830,7990,3006,799
2012/11/19,8100,8400,8070,8250,5688,825
2012/11/20,8100,8230,8090,8110,1291,811
2012/11/21,8230,8770,8190,8490,9729,849
2012/11/22,8640,8750,8220,8740,8567,874
2012/11/26,8750,8800,8560,8600,4206,860
2012/11/27,8600,8900,8600,8890,5098,889
2012/11/28,8750,8860,8250,8270,6873,827
2012/11/29,8420,8710,8420,8680,5468,868
2012/11/30,8770,8770,8510,8630,4246,863
2012/12/03,8540,8640,8500,8610,1753,861
2012/12/04,8510,8700,8510,8700,3176,870
2012/12/05,8770,8770,8650,8740,4529,874
2012/12/06,8750,8900,8730,8850,4216,885
2012/12/07,8710,8830,8620,8650,4306,865
2012/12/10,8600,8600,8220,8350,2570,835
2012/12/11,8500,8530,8360,8450,2099,845
2012/12/12,8470,8550,8420,8470,1245,847
2012/12/13,8540,8540,8410,8420,1936,842
2012/12/14,8380,8400,8240,8240,3979,824
2012/12/17,8200,8310,8180,8250,2250,825
2012/12/18,8000,8230,8000,8150,3636,815
2012/12/19,8050,8290,8050,8190,4137,819
2012/12/20,8200,8230,8100,8150,3434,815
2012/12/21,8200,8500,8080,8160,7686,816
2012/12/25,8090,8200,8020,8160,3238,816
2012/12/26,8200,8400,8110,8320,5976,832
2012/12/27,8470,8470,8260,8310,3951,831
2012/12/28,8390,8590,8000,8510,4901,851
2013/01/04,8710,8830,8600,8630,3965,863
2013/01/07,8500,8740,8480,8560,3050,856
2013/01/08,8650,8800,8450,8710,3303,871
2013/01/09,8690,9180,8670,9180,5957,918
2013/01/10,9300,9300,9010,9220,4500,922
2013/01/11,9220,9300,9110,9150,2501,915
2013/01/15,9170,9410,9060,9290,5447,929
2013/01/16,9220,9400,8950,9240,3996,924
2013/01/17,9180,9350,8700,9110,4177,911
2013/01/18,9110,9280,9060,9210,3447,921
2013/01/21,9260,9470,9170,9390,4131,939
2013/01/22,9540,9630,9100,9250,5912,925
2013/01/23,9110,9380,9100,9160,4591,916
2013/01/24,9100,9150,8880,9000,6626,900
2013/01/25,9150,9500,9100,9490,4843,949
2013/01/28,9510,9870,9350,9760,9822,976
2013/01/29,9800,9860,9490,9540,4883,954
2013/01/30,9680,9770,9400,9710,3828,971
2013/01/31,9680,9680,9400,9540,4316,954
2013/02/01,9500,9550,9350,9440,2992,944
2013/02/04,9400,9590,9390,9500,2587,950
2013/02/05,9550,9580,9360,9420,2562,942
2013/02/06,9490,9570,9410,9500,2949,950
2013/02/07,9430,9560,9430,9520,2661,952
2013/02/08,9440,9490,9240,9320,3382,932
2013/02/12,9320,9460,9240,9240,2552,924
2013/02/13,9260,9610,9210,9350,7093,935
2013/02/14,9700,10280,9300,9610,14245,961
2013/02/15,9690,9710,9000,9210,7685,921
2013/02/18,9250,9430,9200,9390,2981,939
2013/02/19,9410,9630,9410,9560,3998,956
2013/02/20,9550,9600,9460,9540,6566,954
2013/02/21,9540,9920,9540,9700,9915,970
2013/02/22,9600,9770,9500,9740,9380,974
2013/02/25,9830,10500,9830,10470,19119,1047
2013/02/26,10360,10560,10140,10280,7750,1028
2013/02/27,10280,10950,10280,10580,10544,1058
2013/02/28,10800,10950,10650,10700,5144,1070
2013/03/01,11220,12200,11100,11430,25495,1143
2013/03/04,12200,12220,11730,11930,14799,1193
2013/03/05,12100,12340,11550,11630,9716,1163
2013/03/06,11690,12070,11530,11820,6326,1182
2013/03/07,12300,12660,12170,12410,13436,1241
2013/03/08,12320,12470,12110,12240,8232,1224
2013/03/11,12380,12390,11700,11800,10506,1180
2013/03/12,11720,12060,11640,11830,8017,1183
2013/03/13,11800,12250,11780,11820,9560,1182
2013/03/14,11740,11940,11440,11550,16245,1155
2013/03/15,11800,12110,11740,12030,9751,1203
2013/03/18,12150,12350,11890,11890,6474,1189
2013/03/19,12090,12110,11850,11970,5905,1197
2013/03/21,12100,12930,12000,12700,12380,1270
2013/03/22,12700,12770,12360,12360,5884,1236
2013/03/25,12660,12660,12330,12380,7727,1238
2013/03/26,12510,12730,12200,12430,6759,1243
2013/03/27,12600,13470,12550,13050,13111,1305
2013/03/28,12910,13670,12620,13590,12362,1359
2013/03/29,13800,14900,13800,14620,34796,1462
2013/04/01,14620,14900,13450,13750,18577,1375
2013/04/02,12850,14220,12290,13670,22000,1367
2013/04/03,13520,14500,13520,14330,11909,1433
2013/04/04,14410,15000,13900,14970,15321,1497
2013/04/05,15020,15480,14500,14700,24284,1470
2013/04/08,15000,17700,14990,17180,39659,1718
2013/04/09,18780,18900,17720,18630,28374,1863
2013/04/10,18550,18830,17500,18360,30650,1836
2013/04/11,18850,19950,17770,18260,24446,1826
2013/04/12,17860,18250,17700,17980,11056,1798
2013/04/15,17700,17700,16750,17070,11445,1707
2013/04/16,16270,18300,16270,18050,19431,1805
2013/04/17,18070,19630,18060,19550,27155,1955
2013/04/18,19790,20250,18250,18330,24355,1833
2013/04/19,18280,19090,18280,18610,9087,1861
2013/04/22,18780,19700,18770,19440,12749,1944
2013/04/23,19200,19480,18900,19080,8805,1908
2013/04/24,19400,19790,19250,19510,10586,1951
2013/04/25,19620,19840,19150,19720,11920,1972
2013/04/26,19720,19720,18750,18770,12060,1877
2013/04/30,18720,20700,18710,20110,22902,2011
2013/05/01,20500,23500,20450,21640,34588,2164
2013/05/02,21500,22300,20620,21450,18513,2145
2013/05/07,21500,22270,20820,21420,16923,2142
2013/05/08,21420,21900,20690,20830,14314,2083
2013/05/09,23350,23350,22190,22890,22035,2289
2013/05/10,23350,23500,22000,22500,13716,2250
2013/05/13,26500,27500,25300,27500,37616,2750
2013/05/14,28000,28290,24650,25720,40832,2572
2013/05/15,25460,26000,22500,23060,31728,2306
2013/05/16,22060,22810,19160,20700,40944,2070
2013/05/17,21300,22640,20380,22050,26669,2205
2013/05/20,22000,22150,20880,21160,21727,2116
2013/05/21,21160,21190,20060,20280,15630,2028
2013/05/22,20020,20150,19030,19150,22827,1915
2013/05/23,19220,20200,17800,18310,28338,1831
2013/05/24,17770,18700,17210,18000,24463,1800
2013/05/27,17520,20790,17510,19720,33047,1972
2013/05/28,19280,20000,19000,19490,13125,1949
2013/05/29,19520,20500,19500,20050,12047,2005
2013/05/30,19610,20350,18200,19210,11180,1921
2013/05/31,19210,20220,19210,19400,6459,1940
2013/06/03,19610,20140,18600,18740,10178,1874
2013/06/04,18410,19090,17530,18930,8364,1893
2013/06/05,19460,20000,18200,18300,7873,1830
2013/06/06,17900,18220,16700,17080,14337,1708
2013/06/07,16500,17200,15810,16700,12337,1670
2013/06/10,18700,20700,18420,20700,20134,2070
2013/06/11,20900,21380,19750,20470,20479,2047
2013/06/12,19520,20720,19520,20690,10093,2069
2013/06/13,20190,20340,19200,19800,7934,1980
2013/06/14,20700,22170,20700,20830,21761,2083
2013/06/17,20910,21820,20720,21770,11709,2177
2013/06/18,22270,23780,22270,23300,17016,2330
2013/06/19,24300,24450,22290,22900,13832,2290
2013/06/20,22600,23990,22590,23500,9400,2350
2013/06/21,22350,23000,22010,22790,10846,2279
2013/06/24,22790,23300,21830,22300,6160,2230
2013/06/25,21800,21950,20800,21350,10425,2135
2013/06/26,22000,22000,20000,20200,7032,2020
2013/06/27,20070,21550,19000,21300,13451,2130
2013/06/28,20800,22240,20800,22110,10047,2211
2013/07/01,22010,22670,21850,22100,5465,2210
2013/07/02,22200,23700,22190,23390,10796,2339
2013/07/03,23450,24350,23200,24060,18472,2406
2013/07/04,23900,23900,23230,23400,4791,2340
2013/07/05,23500,23750,23060,23410,7155,2341
2013/07/08,23500,24770,23130,23300,11646,2330
2013/07/09,23720,25300,23720,24730,18598,2473
2013/07/10,25220,25220,23800,23920,6232,2392
2013/07/11,23950,24530,23560,24130,5508,2413
2013/07/12,24060,24180,22880,23150,9014,2315
2013/07/16,23600,23950,23150,23310,5504,2331
2013/07/17,23300,24800,22700,22930,12289,2293
2013/07/18,23200,24500,23060,24260,13154,2426
2013/07/19,24540,24800,23310,23690,6976,2369
2013/07/22,23600,23980,23090,23540,4476,2354
2013/07/23,23210,23760,23110,23730,3434,2373
2013/07/24,23550,24290,23550,23920,5079,2392
2013/07/25,23810,23980,23420,23450,3835,2345
2013/07/26,23580,23750,23200,23340,4607,2334
2013/07/29,23340,23580,22000,22090,4528,2209
2013/07/30,21450,23250,21440,23030,4453,2303
2013/07/31,22700,23200,22130,22740,4623,2274
2013/08/01,22700,23500,22010,23440,3573,2344
2013/08/02,23380,23700,22960,23690,5436,2369
2013/08/05,23550,23930,23260,23450,3346,2345
2013/08/06,23210,23510,22710,23170,3774,2317
2013/08/07,23000,23000,22200,22280,5720,2228
2013/08/08,22610,23280,22350,22370,6956,2237
2013/08/09,23000,23000,22260,22460,3190,2246
2013/08/12,22280,22280,20180,20210,6563,2021
2013/08/13,19710,20760,19600,19990,8190,1999
2013/08/14,20480,20630,19800,20410,5537,2041
2013/08/15,20300,20850,19650,20680,4177,2068
2013/08/16,20280,21700,20280,21190,4944,2119
2013/08/19,20980,21490,20980,21430,2460,2143
2013/08/20,21100,22170,21020,21030,3872,2103
2013/08/21,21030,21760,20670,21260,3376,2126
2013/08/22,21260,21260,20670,20870,2240,2087
2013/08/23,21120,21120,20000,20180,4965,2018
2013/08/26,20150,20760,20080,20390,2039,2039
2013/08/27,20330,20330,19950,20060,3108,2006
2013/08/28,19400,20030,18970,18970,4106,1897
2013/08/29,19060,20000,19060,19320,3745,1932
2013/08/30,19400,19570,18910,19290,4870,1929
2013/09/02,18600,19610,18600,19490,3127,1949
2013/09/03,19870,20160,19580,20130,2976,2013
2013/09/04,19620,20080,19450,20080,4742,2008
2013/09/05,19970,19970,19270,19360,4605,1936
2013/09/06,19300,19490,18630,18790,5715,1879
2013/09/09,19190,19450,18440,18700,6619,1870
2013/09/10,18600,18860,18520,18650,5858,1865
2013/09/11,18660,19070,18490,18570,6586,1857
2013/09/12,18710,19550,18710,19060,11544,1906
2013/09/13,19460,19900,18890,19300,6337,1930
2013/09/17,19350,19790,19300,19440,3338,1944
2013/09/18,20990,22470,20220,21620,23480,2162
2013/09/19,21700,21940,20610,20820,6226,2082
2013/09/20,20950,21410,20720,21350,4554,2135
2013/09/24,20500,21250,20200,21100,6923,2110
2013/09/25,20600,21070,20300,20890,6528,2089
2013/09/26,2098,2099,2020,2050,37300,2050
2013/09/27,2150,2429,2149,2353,168900,2353
2013/09/30,2403,2438,2253,2328,83800,2328
2013/10/01,2321,2321,2200,2201,70500,2201
2013/10/02,2160,2200,2093,2153,54800,2153
2013/10/03,2103,2160,2070,2071,47000,2071
2013/10/04,2035,2050,1982,2029,77500,2029
2013/10/07,1993,2010,1932,1962,91200,1962
2013/10/08,1916,1997,1906,1991,79700,1991
2013/10/09,1991,2058,1965,2012,106800,2012
2013/10/10,2037,2060,1972,2047,91000,2047
2013/10/11,2070,2070,1982,2010,76300,2010
2013/10/15,2011,2020,1990,2006,41400,2006
2013/10/16,2000,2002,1941,1960,71400,1960
2013/10/17,1987,2032,1985,2008,56800,2008
2013/10/18,2010,2029,1980,2023,52500,2023
2013/10/21,2023,2045,2010,2030,35600,2030
2013/10/22,2021,2045,1990,1999,47100,1999
2013/10/23,2010,2033,1988,1998,62100,1998
2013/10/24,1990,2005,1967,2000,63600,2000
2013/10/25,2000,2000,1961,1968,33000,1968
2013/10/28,1978,1993,1915,1925,74600,1925
2013/10/29,1944,1986,1933,1975,120300,1975
2013/10/30,1989,1996,1946,1976,127800,1976
2013/10/31,2060,2260,1981,2009,542400,2009
2013/11/01,1994,1998,1901,1915,143900,1915
2013/11/05,1930,1945,1793,1816,217800,1816
2013/11/06,1845,1899,1827,1847,138100,1847
2013/11/07,1855,1873,1818,1828,49900,1828
2013/11/08,1800,1812,1741,1765,134500,1765
2013/11/11,1800,1950,1800,1814,267300,1814
2013/11/12,1801,1854,1762,1782,213300,1782
2013/11/13,1792,1890,1787,1885,245500,1885
2013/11/14,1884,1905,1838,1845,143200,1845
2013/11/15,1845,1895,1845,1874,155500,1874
2013/11/18,1900,1910,1855,1880,101200,1880
2013/11/19,1891,1924,1860,1889,149200,1889
2013/11/20,1900,1917,1807,1818,243500,1818
2013/11/21,1822,1868,1817,1851,191100,1851
2013/11/22,1895,1948,1885,1924,217700,1924
2013/11/25,1945,2089,1944,2027,313100,2027
2013/11/26,2033,2136,2015,2090,250900,2090
2013/11/27,2050,2081,2013,2018,97000,2018
2013/11/28,2017,2041,2000,2031,49500,2031
2013/11/29,2039,2063,1988,2001,66200,2001
2013/12/02,2051,2134,2047,2101,117200,2101
2013/12/03,2112,2171,2112,2138,114300,2138
2013/12/04,2110,2299,2108,2210,244200,2210
2013/12/05,2208,2299,2187,2206,160500,2206
2013/12/06,2156,2320,2155,2296,171300,2296
2013/12/09,2321,2329,2220,2311,125400,2311
2013/12/10,2299,2358,2270,2284,111000,2284
2013/12/11,2260,2280,2224,2237,84700,2237
2013/12/12,2230,2252,2182,2195,65100,2195
2013/12/13,2179,2215,2161,2176,57300,2176
2013/12/16,2226,2226,2154,2158,78800,2158
2013/12/17,2155,2224,2155,2214,79500,2214
2013/12/18,2182,2218,2182,2213,43000,2213
2013/12/19,2211,2220,2150,2174,69400,2174
2013/12/20,2158,2174,2135,2154,71900,2154
2013/12/24,2170,2170,2091,2096,69800,2096
2013/12/25,2098,2178,2098,2171,172500,2171
2013/12/26,2171,2318,2170,2291,167400,2291
2013/12/27,2280,2322,2241,2298,60400,2298
2013/12/30,2303,2324,2256,2290,59000,2290
2014/01/06,2280,2280,2235,2258,54400,2258
2014/01/07,2264,2281,2203,2231,36500,2231
2014/01/08,2231,2268,2225,2259,38900,2259
2014/01/09,2260,2260,2203,2218,36400,2218
2014/01/10,2230,2255,2215,2227,58200,2227
2014/01/14,2230,2241,2168,2190,97600,2190
2014/01/15,2239,2239,2184,2219,47200,2219
2014/01/16,2230,2297,2230,2278,121500,2278
2014/01/17,2296,2381,2287,2355,131800,2355
2014/01/20,2380,2469,2360,2450,101500,2450
2014/01/21,2480,2480,2340,2365,115700,2365
2014/01/22,2415,2449,2325,2360,87600,2360
2014/01/23,2448,2448,2321,2335,117300,2335
2014/01/24,2302,2352,2302,2325,74600,2325
2014/01/27,2250,2273,2210,2236,121600,2236
2014/01/28,2268,2329,2239,2241,84200,2241
2014/01/29,2251,2393,2251,2382,109300,2382
2014/01/30,2349,2385,2298,2368,136800,2368
2014/01/31,2343,2425,2304,2406,147400,2406
2014/02/03,2306,2378,2248,2288,160300,2288
2014/02/04,2188,2259,2099,2161,169000,2161
2014/02/05,2180,2274,2090,2160,99300,2160
2014/02/06,2165,2236,2142,2172,86900,2172
2014/02/07,2280,2383,2256,2270,136100,2270
2014/02/10,2284,2350,2166,2295,120800,2295
2014/02/12,2309,2332,2263,2277,46600,2277
2014/02/13,2273,2286,2172,2214,128000,2214
2014/02/14,2203,2215,2073,2094,124200,2094
2014/02/17,2096,2226,2093,2184,91400,2184
2014/02/18,2188,2210,2120,2204,34500,2204
2014/02/19,2204,2204,2135,2155,38800,2155
2014/02/20,2156,2174,2088,2102,63600,2102
2014/02/21,2131,2207,2120,2194,60000,2194
2014/02/24,2210,2271,2170,2240,66200,2240
2014/02/25,2250,2265,2204,2255,31700,2255
2014/02/26,2212,2246,2195,2207,39600,2207
2014/02/27,2207,2207,2134,2140,61200,2140
2014/02/28,2125,2171,2111,2148,39100,2148
2014/03/03,2111,2188,2098,2183,64100,2183
2014/03/04,2131,2135,2090,2108,132500,2108
2014/03/05,2110,2158,2098,2143,94900,2143
2014/03/06,2130,2161,2097,2143,88000,2143
2014/03/07,2143,2214,2119,2197,92300,2197
2014/03/10,2201,2205,2120,2124,127100,2124
2014/03/11,2120,2149,2115,2140,82000,2140
2014/03/12,2100,2127,2096,2112,80800,2112
2014/03/13,2127,2129,2068,2075,73400,2075
2014/03/14,2057,2063,2016,2052,121900,2052
2014/03/17,2002,2014,1981,1994,109700,1994
2014/03/18,2020,2090,1991,2083,126100,2083
2014/03/19,2033,2065,1996,2054,95300,2054
2014/03/20,2021,2150,2014,2041,132400,2041
2014/03/24,2010,2127,2010,2075,158200,2075
2014/03/25,2040,2085,1990,2006,180400,2006
2014/03/26,1990,1993,1896,1905,154100,1905
2014/03/27,1860,1896,1800,1875,279900,1875
2014/03/28,1850,1950,1850,1947,143600,1947
2014/03/31,1941,1975,1903,1971,119100,1971
2014/04/01,1956,1983,1933,1979,114600,1979
2014/04/02,1979,2010,1963,1991,114200,1991
2014/04/03,1991,2031,1984,1996,83400,1996
2014/04/04,1962,1974,1920,1931,101000,1931
2014/04/07,1910,1951,1910,1940,55700,1940
2014/04/08,1910,1919,1878,1894,91600,1894
2014/04/09,1880,1946,1879,1926,154600,1926
2014/04/10,1927,1941,1848,1862,86900,1862
2014/04/11,1830,1861,1818,1845,80300,1845
2014/04/14,1850,1871,1828,1832,127100,1832
2014/04/15,1832,1855,1795,1804,136900,1804
2014/04/16,1804,1830,1795,1807,95600,1807
2014/04/17,1839,1878,1832,1860,124400,1860
2014/04/18,1882,1950,1864,1942,90100,1942
2014/04/21,1950,2020,1948,2018,147200,2018
2014/04/22,1999,2026,1934,1936,86300,1936
2014/04/23,1958,1970,1922,1948,52400,1948
2014/04/24,1948,2005,1948,1975,72900,1975
2014/04/25,1975,1988,1938,1974,29000,1974
2014/04/28,1934,1945,1922,1932,48000,1932
2014/04/30,1914,1952,1914,1929,80700,1929
2014/05/01,1970,1976,1927,1945,39900,1945
2014/05/02,1950,1965,1937,1944,39400,1944
2014/05/07,1912,1921,1882,1883,35700,1883
2014/05/08,1864,1900,1864,1884,26700,1884
2014/05/09,1870,1894,1855,1869,39400,1869
2014/05/12,1629,1649,1469,1469,431500,1469
2014/05/13,1477,1478,1388,1402,325400,1402
2014/05/14,1392,1392,1306,1319,417800,1319
2014/05/15,1325,1345,1269,1311,395000,1311
2014/05/16,1313,1371,1311,1337,247400,1337
2014/05/19,1357,1418,1311,1317,261900,1317
2014/05/20,1302,1329,1277,1283,110100,1283
2014/05/21,1270,1307,1242,1281,258700,1281
2014/05/22,1281,1341,1280,1316,126300,1316
2014/05/23,1346,1385,1341,1351,141000,1351
2014/05/26,1367,1389,1351,1360,106900,1360
2014/05/27,1376,1411,1361,1364,155000,1364
2014/05/28,1365,1374,1341,1348,82700,1348
2014/05/29,1329,1337,1323,1329,74000,1329
2014/05/30,1339,1410,1335,1372,121600,1372
2014/06/02,1379,1435,1376,1399,145200,1399
2014/06/03,1402,1421,1385,1387,170600,1387
2014/06/04,1411,1562,1404,1458,550900,1458
2014/06/05,1429,1487,1409,1434,352600,1434
2014/06/06,1458,1470,1425,1433,200300,1433
2014/06/09,1472,1473,1436,1441,178900,1441
2014/06/10,1453,1457,1410,1418,134100,1418
2014/06/11,1412,1434,1398,1418,79800,1418
2014/06/12,1415,1426,1402,1415,75100,1415
2014/06/13,1390,1463,1390,1437,140300,1437
2014/06/16,1442,1455,1405,1414,108200,1414
2014/06/17,1414,1422,1370,1418,227100,1418
2014/06/18,1390,1420,1388,1402,132200,1402
2014/06/19,1395,1430,1381,1422,161200,1422
2014/06/20,1464,1478,1408,1417,206000,1417
2014/06/23,1404,1415,1383,1390,127900,1390
2014/06/24,1401,1404,1383,1390,69600,1390
2014/06/25,1395,1399,1371,1371,69700,1371
2014/06/26,1375,1389,1359,1367,61000,1367
2014/06/27,1362,1367,1324,1349,100500,1349
2014/06/30,1342,1384,1342,1381,55300,1381
2014/07/01,1374,1394,1364,1382,60900,1382
2014/07/02,1383,1409,1380,1381,65900,1381
2014/07/03,1382,1394,1362,1371,66000,1371
2014/07/04,1388,1393,1371,1384,50100,1384
2014/07/07,1369,1386,1366,1369,44400,1369
2014/07/08,1366,1384,1345,1378,83100,1378
2014/07/09,1375,1375,1350,1370,71400,1370
2014/07/10,1373,1379,1344,1346,94800,1346
2014/07/11,1328,1343,1315,1327,70200,1327
2014/07/14,1320,1336,1319,1328,39100,1328
2014/07/15,1318,1342,1318,1337,41100,1337
2014/07/16,1343,1344,1309,1312,61900,1312
2014/07/17,1305,1351,1304,1328,105200,1328
2014/07/18,1307,1327,1289,1316,123000,1316
2014/07/22,1316,1324,1273,1278,135600,1278
2014/07/23,1278,1295,1236,1251,207800,1251
2014/07/24,1251,1260,1225,1250,144900,1250
2014/07/25,1260,1283,1243,1269,130600,1269
2014/07/28,1260,1268,1245,1258,76500,1258
2014/07/29,1255,1285,1246,1259,93000,1259
2014/07/30,1250,1260,1220,1228,210500,1228
2014/07/31,1244,1247,1221,1227,72900,1227
2014/08/01,1218,1237,1195,1200,167300,1200
2014/08/04,1220,1223,1205,1218,60900,1218
2014/08/05,1215,1233,1208,1212,61000,1212
2014/08/06,1196,1205,1150,1158,133300,1158
2014/08/07,1158,1234,1158,1227,116300,1227
2014/08/08,1201,1237,1179,1187,71100,1187
2014/08/11,1201,1250,1167,1173,182100,1173
2014/08/12,1171,1242,1171,1216,219800,1216
2014/08/13,1232,1239,1220,1223,85800,1223
2014/08/14,1223,1243,1215,1223,76200,1223
2014/08/15,1224,1256,1223,1247,72300,1247
2014/08/18,1260,1367,1252,1355,281500,1355
2014/08/19,1332,1356,1312,1350,119600,1350
2014/08/20,1326,1353,1326,1329,67800,1329
2014/08/21,1342,1350,1311,1325,48000,1325
2014/08/22,1336,1349,1312,1333,79300,1333
2014/08/25,1348,1348,1318,1339,50000,1339
2014/08/26,1335,1339,1314,1317,35600,1317
2014/08/27,1305,1327,1293,1296,89300,1296
2014/08/28,1296,1318,1287,1310,37200,1310
2014/08/29,1297,1305,1281,1298,35400,1298
2014/09/01,1298,1317,1296,1302,23000,1302
2014/09/02,1300,1307,1266,1278,101100,1278
2014/09/03,1288,1292,1276,1286,36800,1286
2014/09/04,1296,1311,1283,1286,30700,1286
2014/09/05,1298,1298,1274,1280,38500,1280
2014/09/08,1275,1319,1272,1317,59900,1317
2014/09/09,1317,1322,1288,1291,44200,1291
2014/09/10,1284,1293,1279,1289,41900,1289
2014/09/11,1300,1302,1273,1281,48400,1281
2014/09/12,1288,1295,1245,1249,79900,1249
2014/09/16,1279,1305,1254,1260,91300,1260
2014/09/17,1254,1280,1254,1258,46500,1258
2014/09/18,1255,1292,1255,1266,34400,1266
2014/09/19,1266,1281,1239,1243,74300,1243
2014/09/22,1243,1252,1226,1228,36400,1228
2014/09/24,1223,1237,1211,1215,67200,1215
2014/09/25,1215,1219,1195,1198,78700,1198
2014/09/26,1210,1220,1197,1201,44400,1201
2014/09/29,1203,1212,1181,1188,32600,1188
2014/09/30,1209,1209,1171,1174,43100,1174
2014/10/01,1176,1184,1156,1159,52500,1159
2014/10/02,1159,1160,1140,1140,82400,1140
2014/10/03,1147,1174,1131,1134,66600,1134
2014/10/06,1155,1167,1150,1162,51200,1162
2014/10/07,1165,1165,1142,1142,48700,1142
2014/10/08,1119,1176,1111,1173,94800,1173
2014/10/09,1185,1190,1135,1141,85800,1141
2014/10/10,1120,1121,1091,1094,94500,1094
2014/10/14,1075,1103,1047,1049,114100,1049
2014/10/15,1055,1074,1044,1058,52900,1058
2014/10/16,1030,1039,1003,1010,65300,1010
2014/10/17,1008,1051,1008,1029,83700,1029
2014/10/20,1070,1070,1030,1061,74500,1061
2014/10/21,1031,1049,1025,1037,39000,1037
2014/10/22,1051,1085,1051,1079,34000,1079
2014/10/23,1084,1084,1063,1067,22100,1067
2014/10/24,1051,1061,1000,1037,102200,1037
2014/10/27,1049,1059,1039,1046,36500,1046
2014/10/28,1040,1062,1039,1059,33200,1059
2014/10/29,1059,1081,1051,1070,44900,1070
2014/10/30,1075,1125,1075,1106,131200,1106
2014/10/31,1118,1152,1098,1146,94200,1146
2014/11/04,1170,1182,1128,1168,105900,1168
2014/11/05,1138,1155,1134,1147,43800,1147
2014/11/06,1132,1145,1113,1121,63600,1121
2014/11/07,1111,1139,1104,1131,63700,1131
2014/11/10,1122,1139,1103,1115,118800,1115
2014/11/11,1133,1145,1097,1118,98400,1118
2014/11/12,1120,1130,1097,1097,60000,1097
2014/11/13,1097,1123,1097,1118,46300,1118
2014/11/14,1127,1141,1108,1140,49700,1140
2014/11/17,1127,1136,1097,1099,57700,1099
2014/11/18,1096,1137,1096,1131,45300,1131
2014/11/19,1124,1129,1106,1122,39300,1122
2014/11/20,1110,1113,1092,1093,43100,1093
2014/11/21,1082,1095,1076,1089,44100,1089
2014/11/25,1095,1109,1095,1107,109900,1107
2014/11/26,1101,1109,1095,1095,39000,1095
2014/11/27,1095,1096,1059,1059,83000,1059
2014/11/28,1058,1060,1031,1037,81700,1037
2014/12/01,1040,1056,1030,1039,68200,1039
2014/12/02,1027,1062,1026,1059,73300,1059
2014/12/03,1069,1082,1060,1075,66100,1075
2014/12/04,1085,1089,1066,1078,47900,1078
2014/12/05,1061,1112,1044,1107,133100,1107
2014/12/08,1105,1106,1080,1088,58200,1088
2014/12/09,1068,1071,1033,1035,98400,1035
2014/12/10,1029,1031,1017,1024,94900,1024
2014/12/11,1005,1017,1003,1015,105500,1015
2014/12/12,1008,1011,998,999,129200,999
2014/12/15,990,1006,984,994,58400,994
2014/12/16,980,983,963,967,86600,967
2014/12/17,956,980,956,972,48500,972
2014/12/18,995,1001,962,968,90500,968
2014/12/19,973,975,945,966,115900,966
2014/12/22,961,976,942,960,109600,960
2014/12/24,960,966,951,954,105100,954
2014/12/25,956,959,932,942,105800,942
2014/12/26,940,978,940,975,90500,975
2014/12/29,989,994,968,980,43800,980
2014/12/30,980,994,976,980,69400,980
2015/01/05,995,1017,983,1004,99000,1004
2015/01/06,993,997,977,980,68500,980
2015/01/07,975,990,970,978,70100,978
2015/01/08,988,991,965,972,100600,972
2015/01/09,965,974,956,958,68600,958
2015/01/13,958,979,952,977,84900,977
2015/01/14,964,978,951,951,84700,951
2015/01/15,948,956,943,953,75600,953
2015/01/16,944,945,921,929,120200,929
2015/01/19,929,950,916,944,90100,944
2015/01/20,936,973,935,960,68700,960
2015/01/21,957,957,931,933,96800,933
2015/01/22,938,938,917,927,100800,927
2015/01/23,926,944,926,943,34700,943
2015/01/26,949,956,938,943,42300,943
2015/01/27,939,952,939,942,28800,942
2015/01/28,936,975,936,972,65900,972
2015/01/29,972,975,942,944,68700,944
2015/01/30,968,968,945,962,41700,962
2015/02/02,960,960,940,941,33900,941
2015/02/03,940,950,929,932,48800,932
2015/02/04,949,957,940,941,37200,941
2015/02/05,933,944,924,932,53900,932
2015/02/06,934,936,928,931,35600,931
2015/02/09,901,970,897,970,188800,970
2015/02/10,960,1006,960,983,202600,983
2015/02/12,993,1050,988,1044,233300,1044
2015/02/13,1044,1050,1002,1004,99600,1004
2015/02/16,1000,1014,985,1000,64300,1000
2015/02/17,990,1044,990,1017,130700,1017
2015/02/18,1003,1040,1001,1014,86400,1014
2015/02/19,1014,1036,1014,1024,89400,1024
2015/02/20,1030,1032,1004,1007,96100,1007
2015/02/23,1024,1028,1008,1009,82900,1009
2015/02/24,1003,1068,996,1059,184100,1059
2015/02/25,1076,1118,1075,1109,170700,1109
2015/02/26,1120,1124,1080,1086,93300,1086
2015/02/27,1081,1089,1046,1055,127700,1055
2015/03/02,1053,1063,1040,1052,71100,1052
2015/03/03,1058,1064,1021,1031,106500,1031
2015/03/04,1016,1021,994,997,199600,997
2015/03/05,991,1021,978,985,136500,985
2015/03/06,976,983,974,977,78300,977
2015/03/09,976,976,953,957,126900,957
2015/03/10,959,960,934,935,171700,935
2015/03/11,935,955,935,940,109500,940
2015/03/12,952,952,932,936,85000,936
2015/03/13,952,952,926,927,137700,927
2015/03/16,927,927,903,907,171200,907
2015/03/17,907,909,897,900,99200,900
2015/03/18,904,907,895,900,88700,900
2015/03/19,902,906,893,897,100900,897
2015/03/20,897,907,896,900,93400,900
2015/03/23,902,907,900,906,110200,906
2015/03/24,905,909,887,891,229700,891
2015/03/25,900,900,892,900,84900,900
2015/03/26,899,914,897,911,96200,911
2015/03/27,904,914,900,900,67300,900
2015/03/30,901,910,900,907,70800,907
2015/03/31,909,918,903,904,67300,904
2015/04/01,911,922,907,915,116100,915
2015/04/02,910,920,908,912,84400,912
2015/04/03,917,923,910,915,68100,915
2015/04/06,916,950,916,930,191900,930
2015/04/07,931,945,924,940,157400,940
2015/04/08,935,963,935,962,130900,962
2015/04/09,967,968,945,959,72700,959
2015/04/10,950,956,929,939,101100,939
2015/04/13,950,955,942,952,48200,952
2015/04/14,960,987,956,986,167200,986
2015/04/15,978,983,961,976,69300,976
2015/04/16,971,995,963,995,89600,995
2015/04/17,996,996,985,985,72300,985
2015/04/20,976,976,944,945,91900,945
2015/04/21,947,959,946,958,68000,958
2015/04/22,959,962,943,947,55900,947
2015/04/23,949,966,949,962,27900,962
2015/04/24,955,967,953,955,32000,955
2015/04/27,954,967,946,954,21300,954
2015/04/28,966,980,960,972,64400,972
2015/04/30,974,984,968,984,81000,984
2015/05/01,984,995,974,994,93400,994
2015/05/07,980,982,956,958,89700,958
2015/05/08,958,980,958,977,77600,977
2015/05/11,977,988,974,975,27700,975
2015/05/12,970,989,964,987,52900,987
2015/05/13,986,990,980,982,30000,982
2015/05/14,981,983,946,950,93500,950
2015/05/15,890,899,852,857,364100,857
2015/05/18,846,850,828,849,235900,849
2015/05/19,849,849,818,822,339500,822
2015/05/20,822,822,804,807,307600,807
2015/05/21,802,803,785,788,295200,788
2015/05/22,813,813,796,805,195100,805
2015/05/25,816,816,788,793,191500,793
2015/05/26,798,798,783,786,166000,786
2015/05/27,790,792,781,787,96900,787
2015/05/28,785,791,785,788,59200,788
2015/05/29,785,787,782,785,75000,785
2015/06/01,789,793,785,789,61500,789
2015/06/02,787,787,782,785,68600,785
2015/06/03,785,808,785,804,150800,804
2015/06/04,809,809,796,800,70500,800
2015/06/05,804,804,790,794,82300,794
2015/06/08,794,802,794,796,47800,796
2015/06/09,800,804,791,801,106700,801
2015/06/10,799,806,796,802,63600,802
2015/06/11,805,808,792,796,91900,796
2015/06/12,791,802,791,796,110100,796
2015/06/15,796,825,796,821,193000,821
2015/06/16,816,829,816,823,83100,823
2015/06/17,830,833,811,814,63400,814
2015/06/18,818,818,797,798,54300,798
2015/06/19,798,802,795,798,77700,798
2015/06/22,798,805,797,800,57100,800
2015/06/23,800,808,799,802,62100,802
2015/06/24,802,807,797,800,71000,800
2015/06/25,797,803,795,800,50800,800
2015/06/26,797,805,795,801,51400,801
2015/06/29,790,798,785,790,72400,790
2015/06/30,789,800,784,799,51800,799
2015/07/01,796,802,795,799,21900,799
2015/07/02,801,806,798,800,23600,800
2015/07/03,801,809,797,806,56100,806
2015/07/06,814,814,786,796,70800,796
2015/07/07,802,809,800,807,33500,807
2015/07/08,807,807,790,792,52700,792
2015/07/09,784,790,770,782,77100,782
2015/07/10,782,791,781,789,36000,789
2015/07/13,795,808,795,806,33800,806
2015/07/14,814,822,810,813,45000,813
2015/07/15,820,826,814,817,47400,817
2015/07/16,817,817,805,809,26100,809
2015/07/17,801,813,801,807,35300,807
2015/07/21,804,813,802,810,37000,810
2015/07/22,800,808,795,795,36300,795
2015/07/23,795,799,795,799,21900,799
2015/07/24,799,801,794,796,45800,796
2015/07/27,792,795,785,786,83700,786
2015/07/28,786,797,781,793,24600,793
2015/07/29,791,793,782,788,48800,788
2015/07/30,791,798,786,794,47000,794
2015/07/31,800,800,791,793,24800,793
2015/08/03,793,799,792,796,26900,796
2015/08/04,797,799,789,795,24500,795
2015/08/05,796,796,786,794,33900,794
2015/08/06,794,799,789,796,34100,796
2015/08/07,795,795,783,789,53900,789
2015/08/10,797,824,792,816,100100,816
2015/08/11,816,823,803,823,76800,823
2015/08/12,825,835,812,833,76300,833
2015/08/13,830,838,819,834,61000,834
2015/08/14,835,835,827,833,49700,833
2015/08/17,837,848,823,834,54600,834
2015/08/18,837,849,832,848,87400,848
2015/08/19,849,860,836,848,68200,848
2015/08/20,847,847,812,823,44000,823
2015/08/21,809,816,789,789,65500,789
2015/08/24,772,779,731,734,129100,734
2015/08/25,710,774,701,708,113800,708
2015/08/26,709,740,709,736,62200,736
2015/08/27,741,755,732,733,24900,733
2015/08/28,747,769,741,757,33900,757
2015/08/31,772,774,753,768,29400,768
2015/09/01,766,773,738,739,26400,739
2015/09/02,715,750,715,732,38100,732
2015/09/03,737,754,737,742,53600,742
2015/09/04,743,743,713,720,52300,720
2015/09/07,713,725,703,720,24600,720
2015/09/08,722,735,710,711,25500,711
2015/09/09,722,767,711,753,53000,753
2015/09/10,733,770,733,745,18200,745
2015/09/11,737,774,737,756,37200,756
2015/09/14,767,767,745,746,12000,746
2015/09/15,747,754,743,745,15200,745
2015/09/16,745,747,718,737,39100,737
2015/09/17,733,736,726,730,25000,730
2015/09/18,719,726,701,705,78700,705
2015/09/24,686,707,684,687,45100,687
2015/09/25,690,703,683,693,27900,693
2015/09/28,688,695,672,680,60000,680
2015/09/29,672,672,650,650,64600,650
2015/09/30,650,672,650,663,34600,663
2015/10/01,673,680,663,665,23200,665
2015/10/02,672,672,661,671,23100,671
2015/10/05,676,689,669,684,27900,684
2015/10/06,690,707,690,703,40900,703
2015/10/07,695,707,691,701,27700,701
2015/10/08,697,702,694,700,25000,700
2015/10/09,693,705,690,697,55300,697
2015/10/13,691,695,690,693,23600,693
2015/10/14,689,695,684,689,26300,689
2015/10/15,685,694,680,684,36600,684
2015/10/16,687,712,687,697,70600,697
