2010/01/04,17700,18100,17000,18000,130,90
2010/01/15,16900,17000,16880,17000,65,85
2010/01/20,17690,17850,17500,17800,151,89
2010/01/21,17800,21800,17800,21800,1244,109
2010/01/22,24000,26800,23300,26800,2107,134
2010/01/28,23000,26490,23000,25600,2205,128
2010/01/29,24500,25700,24160,25000,965,125
2010/03/17,22200,25200,22000,23200,1741,116
2010/03/29,34500,36100,33550,33600,1544,168
2010/03/30,36400,38000,34600,36000,3682,180
2010/04/01,34000,34100,32550,33000,1409,165
2010/04/05,32500,33750,32500,32800,990,164
2010/04/09,32650,33300,32500,33200,1229,166
2010/04/12,33500,33500,32450,33000,999,165
2010/04/22,30250,30550,29610,30000,724,150
2010/04/23,30150,30500,29400,29400,660,147
2010/04/26,29750,30500,29500,30200,704,151
2010/04/28,29700,29700,29000,29200,777,146
2010/05/14,25210,25750,24510,25200,735,126
2010/05/17,25600,25610,23860,25000,1108,125
2010/05/18,25500,25500,23210,25000,930,125
2010/05/25,21500,22000,20510,21200,500,106
2010/06/10,25560,26980,25020,26000,1709,130
2010/06/11,25850,26510,25560,25600,918,128
2010/06/18,34000,34050,31850,33000,6153,165
2010/06/21,32900,39000,31800,35000,19156,175
2010/06/22,33600,35200,32400,33000,6442,165
2010/07/08,29050,32000,28900,29200,4383,146
2010/07/20,27500,28330,27060,27400,1380,137
2010/07/27,27020,27790,26850,27200,817,136
2010/08/02,27830,28140,27000,27000,1151,135
2010/08/16,24910,25100,23650,24600,1150,123
2010/08/17,23600,24000,21790,22000,1601,110
2010/08/20,20600,22480,20600,22000,1725,110
2010/09/13,26850,27290,26400,26400,1382,132
2010/09/22,24000,24360,23460,24000,975,120
2010/11/04,21500,22460,21490,21600,514,108
2010/11/10,23150,23720,22990,23200,590,116
2010/11/22,22340,22430,21950,22400,389,112
2010/12/17,21770,22020,21770,22000,323,110
2010/12/20,21940,22100,21850,22000,280,110
2010/12/28,22000,22100,21840,22000,297,110
2011/01/28,22230,22230,21970,22000,334,110
2011/02/03,22200,22440,21970,22400,166,112
2011/02/10,21890,22110,21810,22000,109,110
2011/02/17,22120,22520,22000,22400,463,112
2011/02/28,22000,22000,21590,21600,246,108
2011/03/08,21830,22240,21800,22200,580,111
2011/03/14,16610,18430,16610,17200,2110,86
2011/03/15,14200,14410,13200,13200,1396,66
2011/03/16,12300,14490,12300,13800,1547,69
2011/03/18,15190,15660,14900,15400,598,77
2011/03/30,16160,17600,16000,17000,336,85
2011/05/16,17240,17900,16740,17600,161,88
2011/05/18,17580,18490,17300,18000,158,90
2011/05/19,17910,18980,17460,18000,488,90
2011/05/25,17270,17770,17270,17400,101,87
2011/06/06,18440,18440,17340,17600,130,88
2011/06/10,17310,17310,16900,17000,96,85
2011/06/22,17500,17850,17300,17600,84,88
2011/06/28,17650,17800,17400,17400,54,87
2011/07/05,17500,17790,17400,17400,181,87
2011/07/21,17330,17330,17200,17200,50,86
2011/08/11,14450,14500,14100,14400,83,72
2011/08/29,15240,15240,14950,15000,90,75
2011/08/30,15100,15220,14740,15000,58,75
2011/09/07,17360,17950,17200,17800,1005,89
2011/09/21,17890,17900,17000,17200,529,86
2011/10/03,15840,16220,15520,16000,129,80
2011/10/17,16000,16000,15710,15800,122,79
2011/10/26,16400,16850,16400,16800,330,84
2011/11/11,17500,17800,17350,17600,365,88
2011/11/17,16020,16750,15910,16200,289,81
2011/11/24,15500,15500,15000,15400,330,77
2011/12/01,15110,15220,15000,15200,182,76
2012/01/05,14710,14930,14690,14800,45,74
2012/01/13,14590,14700,14510,14600,188,73
2012/01/18,14290,14560,14290,14400,217,72
2012/01/26,15010,15080,14820,15000,125,75
2012/02/15,14980,15180,14980,15000,198,75
2012/03/08,15320,15550,15320,15400,61,77
2012/03/23,15530,15530,15350,15400,109,77
2012/03/27,15350,15400,15230,15400,191,77
2012/03/30,15630,19400,15510,18000,5032,90
2012/04/02,17310,17600,16500,17000,2522,85
2012/04/13,16760,16990,16710,16800,144,84
2012/04/25,17420,17420,16450,17200,343,86
2012/05/09,17550,17590,17340,17400,229,87
2012/05/24,15490,15490,14750,15000,349,75
2012/05/31,15600,15600,15000,15000,225,75
2012/07/03,15600,16500,15470,15800,389,79
2012/07/05,16440,16660,16010,16400,266,82
2012/07/10,15210,15610,15210,15400,190,77
2012/07/30,15280,15280,15010,15200,32,76
2012/08/09,15390,15500,14820,15400,150,77
2012/08/22,16010,16150,15950,16000,123,80
2012/09/26,156,170,156,166,32900,83
2012/09/28,159,162,158,160,18200,80
2012/10/05,355,363,292,310,3000800,155
2012/10/11,419,440,381,390,4510500,195
2012/10/12,385,385,320,324,1193000,162
2012/10/16,322,332,304,314,560800,157
2012/10/17,310,341,303,314,1086000,157
2012/10/18,310,319,305,308,298700,154
2012/10/19,329,369,318,334,3371100,167
2012/10/23,337,343,330,342,319700,171
2012/10/24,350,422,339,400,4541700,200
2012/10/25,399,415,365,380,1596100,190
2012/10/26,375,404,370,386,1040700,193
2012/10/29,384,415,380,396,721100,198
2012/10/31,395,408,387,390,504800,195
2012/11/02,389,389,375,378,194600,189
2012/11/05,383,385,365,370,188000,185
2012/11/06,372,372,355,360,169600,180
2012/11/07,368,384,355,378,293800,189
2012/11/13,343,343,314,314,246700,157
2012/11/15,330,375,330,360,964300,180
2012/11/16,359,369,348,352,193800,176
2012/11/21,362,374,355,356,303800,178
2012/11/28,359,361,346,350,79400,175
2012/11/30,340,344,337,340,73800,170
2012/12/03,340,343,332,334,90300,167
2012/12/05,342,359,341,352,169200,176
2012/12/06,352,368,350,368,244700,184
2012/12/13,340,343,335,338,63600,169
2012/12/17,333,340,328,328,67700,164
2012/12/18,330,331,324,328,86300,164
2012/12/19,326,328,317,320,146800,160
2012/12/20,321,328,317,320,82700,160
2012/12/25,313,314,307,312,75000,156
2012/12/26,310,323,308,320,110900,160
2012/12/27,325,329,320,324,59600,162
2013/01/07,329,348,328,342,146300,171
2013/01/08,347,347,325,340,75400,170
2013/01/09,336,361,334,352,208400,176
2013/01/10,352,355,348,352,94100,176
2013/01/15,355,372,355,366,315500,183
2013/01/18,349,362,345,356,69100,178
2013/01/21,360,385,356,384,343600,192
2013/01/28,396,417,385,400,230600,200
2013/01/30,392,407,386,390,195700,195
2013/01/31,387,389,381,384,98900,192
2013/02/05,385,392,385,386,71800,193
2013/02/06,389,394,388,388,105300,194
2013/02/12,392,410,389,406,436300,203
2013/02/13,411,413,386,408,290400,204
2013/02/14,406,453,387,394,2019200,197
2013/02/15,391,400,361,378,325700,189
2013/02/18,372,387,372,376,109600,188
2013/02/25,392,411,385,396,185100,198
2013/02/26,388,394,387,390,63600,195
2013/02/28,385,391,380,390,57500,195
2013/03/05,400,402,397,400,58800,200
2013/03/07,414,414,400,404,160500,202
2013/03/11,401,405,399,402,53500,201
2013/03/18,403,403,395,396,73400,198
2013/03/22,434,442,412,418,303800,209
2013/04/01,540,542,431,438,545600,219
2013/04/02,428,478,408,470,397100,235
2013/04/03,486,515,472,504,296500,252
2013/04/04,487,524,475,506,173200,253
2013/04/08,486,493,475,490,131800,245
2013/04/12,545,556,535,550,123000,275
2013/04/15,560,650,556,650,893600,325
2013/04/16,630,642,590,624,461600,312
2013/04/17,650,724,650,724,244100,362
2013/04/18,814,844,724,776,989400,388
2013/04/22,725,755,711,732,250700,366
2013/04/30,781,812,777,806,136400,403
2013/05/01,820,833,792,800,210700,400
2013/05/02,788,821,788,810,138300,405
2013/05/08,821,833,810,824,177400,412
2013/05/09,832,974,832,974,600600,487
2013/05/10,950,970,832,860,762600,430
2013/05/13,850,851,797,808,351100,404
2013/05/14,803,811,787,796,216100,398
2013/05/15,790,803,720,734,267000,367
2013/05/16,710,729,648,694,306500,347
2013/05/17,700,737,674,716,151700,358
2013/05/21,715,716,676,694,177700,347
2013/05/23,653,686,579,600,227000,300
2013/05/27,634,660,597,644,135300,322
2013/05/31,677,685,654,656,66900,328
2013/06/03,627,673,625,638,67200,319
2013/06/07,610,640,560,606,203700,303
2013/06/10,646,695,632,688,120400,344
2013/06/12,746,833,727,804,317600,402
2013/06/18,778,815,745,814,107200,407
2013/06/20,789,835,778,814,208200,407
2013/06/24,811,832,810,828,73700,414
2013/06/25,825,825,798,802,81200,401
2013/06/28,806,824,806,814,67100,407
2013/07/01,803,863,802,856,152200,428
2013/07/10,1465,1510,1329,1358,467300,679
2013/07/16,1225,1254,1167,1240,379800,620
2013/07/17,1211,1225,1178,1198,136300,599
2013/07/23,1140,1200,1127,1154,236300,577
2013/07/24,1145,1189,1125,1180,116800,590
2013/07/26,1165,1370,1143,1208,1170500,604
2013/07/29,1155,1174,1060,1144,303300,572
2013/08/05,1133,1262,1133,1220,375600,610
2013/08/09,1280,1280,1179,1202,115500,601
2013/08/12,1172,1187,1080,1086,139400,543
2013/08/13,1092,1165,1092,1144,94500,572
2013/08/15,1130,1140,1077,1100,108800,550
2013/08/21,1120,1140,1080,1102,59900,551
2013/08/28,638,714,636,662,482000,662
2013/08/29,690,762,674,762,1105600,762
2013/08/30,749,912,721,721,4119400,721
2013/09/02,722,854,721,788,2454700,788
2013/09/03,848,930,833,909,1726700,909
2013/09/04,882,1000,860,889,1432900,889
2013/09/05,880,939,870,900,695100,900
2013/09/06,915,920,835,850,421900,850
2013/09/09,850,881,818,852,628100,852
2013/09/10,843,882,785,790,433000,790
2013/09/11,782,857,776,825,553300,825
2013/09/12,810,838,808,819,157700,819
2013/09/13,808,882,808,879,682100,879
2013/09/17,880,924,860,915,622800,915
2013/09/18,923,940,888,893,279500,893
2013/09/19,900,923,893,912,198200,912
2013/09/20,900,911,886,898,120600,898
2013/09/24,884,998,861,923,779200,923
2013/09/25,908,915,871,873,230900,873
2013/09/26,882,899,874,882,140200,882
2013/09/27,864,889,860,874,272500,874
2013/09/30,859,900,858,898,216500,898
2013/10/01,887,930,881,895,343700,895
2013/10/02,896,994,896,962,948200,962
2013/10/03,1002,1112,939,1112,2088700,1112
2013/10/04,1140,1336,996,1017,2998500,1017
2013/10/07,987,1003,875,894,1413400,894
2013/10/08,886,931,875,894,568600,894
2013/10/09,879,936,867,904,463200,904
2013/10/10,913,928,880,888,476600,888
2013/10/11,900,903,878,886,265000,886
2013/10/15,890,910,882,887,300000,887
2013/10/16,876,910,874,885,341100,885
2013/10/17,891,904,881,888,246100,888
2013/10/18,883,897,883,893,161100,893
2013/10/21,896,902,887,893,126500,893
2013/10/22,887,893,885,888,135800,888
2013/10/23,902,949,894,903,646700,903
2013/10/24,897,912,892,909,174300,909
2013/10/25,910,925,890,896,232300,896
2013/10/28,899,917,892,902,191100,902
2013/10/29,894,902,888,892,118500,892
2013/10/30,893,896,863,865,236700,865
2013/10/31,866,874,796,812,528400,812
2013/11/01,814,824,751,761,498400,761
2013/11/05,784,784,758,768,243700,768
2013/11/06,763,814,760,785,313300,785
2013/11/07,778,809,710,725,800600,725
2013/11/08,720,747,710,727,724900,727
2013/11/11,718,730,654,669,606300,669
2013/11/12,671,719,662,707,318400,707
2013/11/13,691,746,686,710,318700,710
2013/11/14,713,772,713,752,439400,752
2013/11/15,743,775,743,769,320800,769
2013/11/18,791,907,787,870,1163800,870
2013/11/19,909,965,909,917,1556900,917
2013/11/20,903,915,870,886,444000,886
2013/11/21,881,890,855,868,232200,868
2013/11/22,857,896,857,874,275800,874
2013/11/25,865,889,864,867,121600,867
2013/11/26,863,864,813,853,187600,853
2013/11/27,838,886,838,851,238800,851
2013/11/28,861,874,846,854,154000,854
2013/11/29,856,868,848,865,130100,865
2013/12/02,857,870,848,854,87800,854
2013/12/03,857,862,850,856,94500,856
2013/12/04,856,869,845,863,159800,863
2013/12/05,868,875,850,851,133300,851
2013/12/06,840,848,826,829,189500,829
2013/12/09,839,854,832,845,101800,845
2013/12/10,852,863,846,847,102700,847
2013/12/11,849,854,845,850,119900,850
2013/12/12,846,850,828,840,146600,840
2013/12/13,840,840,810,820,114400,820
2013/12/16,816,817,780,805,140400,805
2013/12/17,805,837,805,829,121100,829
2013/12/18,820,837,820,831,76900,831
2013/12/19,840,840,827,832,128000,832
2013/12/20,817,868,817,856,226700,856
2013/12/24,856,863,838,841,138000,841
2013/12/25,826,895,821,876,247100,876
2013/12/26,880,899,876,892,141900,892
2013/12/27,900,900,865,886,67700,886
2013/12/30,885,890,871,886,138700,886
2014/01/06,878,893,864,883,119800,883
2014/01/07,885,885,855,862,78200,862
2014/01/08,864,880,849,871,191800,871
2014/01/09,873,873,857,867,54800,867
2014/01/10,865,906,865,900,279200,900
2014/01/14,900,925,880,899,192700,899
2014/01/15,908,919,872,888,154500,888
2014/01/16,882,933,882,887,213700,887
2014/01/17,884,905,876,894,108900,894
2014/01/20,908,909,892,896,57800,896
2014/01/21,909,914,879,883,104800,883
2014/01/22,896,904,877,881,147900,881
2014/01/23,889,979,881,899,1602300,899
2014/01/24,890,923,850,858,863800,858
2014/01/27,830,837,790,793,424400,793
2014/01/28,797,818,765,769,275600,769
2014/01/29,770,790,770,782,186100,782
2014/01/30,767,771,734,748,206900,748
2014/01/31,752,774,710,726,147600,726
2014/02/03,707,710,668,670,276900,670
2014/02/04,630,656,600,625,390900,625
2014/02/05,705,710,594,617,292100,617
2014/02/06,621,675,616,663,142100,663
2014/02/07,673,682,657,665,163900,665
2014/02/10,691,710,681,701,198400,701
2014/02/12,725,776,706,720,591200,720
2014/02/13,709,711,673,679,248800,679
2014/02/14,678,686,620,642,205600,642
2014/02/17,649,653,620,640,100000,640
2014/02/18,640,666,631,659,89300,659
2014/02/19,663,697,654,690,173100,690
2014/02/20,688,688,660,662,107400,662
2014/02/21,669,683,667,678,68900,678
2014/02/24,681,692,670,683,59100,683
2014/02/25,692,692,676,682,51000,682
2014/02/26,681,695,677,685,114100,685
2014/02/27,679,686,666,669,71500,669
2014/02/28,665,677,658,671,77200,671
2014/03/03,665,669,650,660,83900,660
2014/03/04,660,668,655,666,49600,666
2014/03/05,681,692,675,687,96400,687
2014/03/06,689,720,681,712,198500,712
2014/03/07,720,817,719,768,605400,768
2014/03/10,790,813,781,803,427000,803
2014/03/11,798,807,775,795,140300,795
2014/03/12,786,786,767,773,79300,773
2014/03/13,760,783,755,757,69800,757
2014/03/14,735,745,715,720,109300,720
2014/03/17,710,723,670,676,116100,676
2014/03/18,703,776,689,776,528300,776
2014/03/19,755,829,699,706,855400,706
2014/03/20,701,720,673,704,264000,704
2014/03/24,702,748,701,732,165900,732
2014/03/25,732,734,679,687,186200,687
2014/03/26,705,710,682,683,80400,683
2014/03/27,670,678,654,671,123900,671
2014/03/28,662,715,662,712,109200,712
2014/03/31,726,754,712,747,179100,747
2014/04/01,765,765,738,758,127800,758
2014/04/02,770,785,758,765,132400,765
2014/04/03,755,768,732,736,195300,736
2014/04/04,722,729,712,724,113500,724
2014/04/07,732,754,715,719,83400,719
2014/04/08,704,713,700,700,72100,700
2014/04/09,691,722,688,718,112500,718
2014/04/10,719,723,695,698,112100,698
2014/04/11,666,711,663,699,162700,699
2014/04/14,689,699,669,670,138300,670
2014/04/15,680,689,650,650,119100,650
2014/04/16,650,681,650,679,85400,679
2014/04/17,698,709,684,693,112900,693
2014/04/18,693,699,690,692,51300,692
2014/04/21,706,717,692,696,88300,696
2014/04/22,706,712,690,690,54400,690
2014/04/23,700,700,671,685,47400,685
2014/04/24,690,704,672,675,120000,675
2014/04/25,675,682,660,662,83900,662
2014/04/28,658,666,637,654,134600,654
2014/04/30,663,665,637,645,106500,645
2014/05/01,652,666,637,648,146600,648
2014/05/02,652,662,645,661,67000,661
2014/05/07,652,658,638,640,100200,640
2014/05/08,642,646,618,627,107600,627
2014/05/09,634,634,599,605,184000,605
2014/05/12,599,602,553,555,294800,555
2014/05/13,565,597,561,594,136800,594
2014/05/14,602,642,595,629,251200,629
2014/05/15,614,614,586,592,202800,592
2014/05/16,590,593,576,578,118900,578
2014/05/19,578,583,536,539,171300,539
2014/05/20,539,593,539,588,143200,588
2014/05/21,578,578,564,570,56900,570
2014/05/22,582,598,579,582,87800,582
2014/05/23,585,585,562,570,135800,570
2014/05/26,574,590,573,585,246600,585
2014/05/27,586,592,570,570,188300,570
2014/05/28,578,588,573,578,200300,578
2014/05/29,583,633,581,615,762800,615
2014/05/30,617,617,595,597,260000,597
2014/06/02,610,612,597,604,144200,604
2014/06/03,613,621,602,619,186400,619
2014/06/04,634,668,632,668,477400,668
2014/06/05,670,766,664,721,1244300,721
2014/06/06,722,736,691,710,311300,710
2014/06/09,709,720,701,702,140600,702
2014/06/10,704,710,677,677,185500,677
2014/06/11,672,728,672,717,302200,717
2014/06/12,698,725,697,713,152500,713
2014/06/13,702,730,702,716,230400,716
2014/06/16,720,728,709,716,109200,716
2014/06/17,717,720,705,708,52200,708
2014/06/18,714,717,706,708,89500,708
2014/06/19,713,714,703,710,64200,710
2014/06/20,710,714,685,687,106700,687
2014/06/23,688,704,687,701,72600,701
2014/06/24,691,707,691,700,47800,700
2014/06/25,700,705,689,690,55500,690
2014/06/26,700,738,695,735,346600,735
2014/06/27,740,743,715,726,232100,726
2014/06/30,739,755,730,748,239400,748
2014/07/01,755,773,754,762,251900,762
2014/07/02,762,776,762,768,149700,768
2014/07/03,777,778,768,772,138300,772
2014/07/04,778,778,750,765,97100,765
2014/07/07,750,779,750,768,115300,768
2014/07/08,773,778,764,772,76500,772
2014/07/09,760,770,732,748,113200,748
2014/07/10,754,754,729,732,58800,732
2014/07/11,717,735,705,730,121900,730
2014/07/14,730,730,714,716,72400,716
2014/07/15,711,727,708,714,112400,714
2014/07/16,750,750,714,715,160000,715
2014/07/17,719,725,700,704,175800,704
2014/07/18,700,700,685,688,100800,688
2014/07/22,684,688,669,672,131300,672
2014/07/23,669,703,669,696,99800,696
2014/07/24,700,702,677,679,85400,679
2014/07/25,679,691,674,686,47000,686
2014/07/28,690,694,687,691,28100,691
2014/07/29,691,696,690,693,28200,693
2014/07/30,692,695,679,683,102100,683
2014/07/31,691,696,685,689,51800,689
2014/08/01,674,690,674,677,55700,677
2014/08/04,679,684,675,676,33100,676
2014/08/05,676,684,673,675,47800,675
2014/08/06,675,682,670,671,73700,671
2014/08/07,677,715,673,709,161000,709
2014/08/08,678,678,623,675,505700,675
2014/08/11,678,690,641,685,180400,685
2014/08/12,675,693,673,686,60000,686
2014/08/13,676,688,669,682,49700,682
2014/08/14,683,692,658,666,113700,666
2014/08/15,667,690,657,660,192100,660
2014/08/18,675,734,674,715,453100,715
2014/08/19,720,742,720,742,254900,742
2014/08/20,748,773,733,740,225500,740
2014/08/21,740,762,740,745,93500,745
2014/08/22,750,767,742,761,81500,761
2014/08/25,770,779,754,776,168800,776
2014/08/26,780,819,736,755,477300,755
2014/08/27,780,805,771,805,261200,805
2014/08/28,805,830,798,812,230100,812
2014/08/29,812,837,797,835,181700,835
2014/09/01,840,892,840,891,321900,891
2014/09/02,900,924,882,892,295700,892
2014/09/03,895,925,895,917,172300,917
2014/09/04,915,915,860,865,208800,865
2014/09/05,888,900,864,881,153400,881
2014/09/08,900,938,892,931,253100,931
2014/09/09,931,940,913,920,124500,920
2014/09/10,920,920,880,889,70100,889
2014/09/11,887,890,850,858,136800,858
2014/09/12,866,907,864,881,265800,881
2014/09/16,900,945,900,918,268500,918
2014/09/17,917,957,910,951,328200,951
2014/09/18,960,967,940,948,138000,948
2014/09/19,940,963,940,953,107300,953
2014/09/22,949,958,946,950,54000,950
2014/09/24,950,954,945,952,73600,952
2014/09/25,950,954,939,953,152200,953
2014/09/26,928,942,888,896,181700,896
2014/09/29,900,902,856,860,190400,860
2014/09/30,861,872,830,843,149900,843
2014/10/01,843,857,833,836,132600,836
2014/10/02,830,830,787,792,115600,792
2014/10/03,808,824,801,813,66300,813
2014/10/06,821,848,821,839,77400,839
2014/10/07,826,827,808,809,87500,809
2014/10/08,780,786,762,768,176800,768
2014/10/09,783,788,743,743,72600,743
2014/10/10,717,730,707,723,106500,723
2014/10/14,717,722,700,708,78200,708
2014/10/15,705,717,695,705,79900,705
2014/10/16,687,709,682,688,63100,688
2014/10/17,702,718,700,706,98200,706
2014/10/20,744,750,735,747,81300,747
2014/10/21,756,777,751,763,134700,763
2014/10/22,778,789,760,763,84500,763
2014/10/23,774,774,746,757,46100,757
2014/10/24,772,772,751,761,39700,761
2014/10/27,774,775,761,768,41100,768
2014/10/28,772,775,758,771,50600,771
2014/10/29,800,821,774,786,225600,786
2014/10/30,820,888,802,871,418200,871
2014/10/31,910,930,896,901,309500,901
2014/11/04,923,945,905,922,271400,922
2014/11/05,922,938,920,930,145600,930
2014/11/06,930,967,893,903,389100,903
2014/11/07,908,921,900,908,85300,908
2014/11/10,919,924,900,917,77900,917
2014/11/11,935,950,922,938,209500,938
2014/11/12,947,953,911,911,180400,911
2014/11/13,908,912,884,911,105900,911
2014/11/14,926,938,910,925,115800,925
2014/11/17,820,851,796,830,463800,830
2014/11/18,842,844,807,825,285300,825
2014/11/19,839,849,833,835,172700,835
2014/11/20,835,847,819,820,120100,820
2014/11/21,809,816,788,796,244200,796
2014/11/25,795,827,779,818,183300,818
2014/11/26,803,805,793,798,110200,798
2014/11/27,804,827,799,822,185500,822
2014/11/28,831,844,826,834,213600,834
2014/12/01,843,887,842,879,257600,879
2014/12/02,864,876,847,866,121800,866
2014/12/03,869,876,857,860,157500,860
2014/12/04,860,872,856,863,85400,863
2014/12/05,852,870,827,864,144500,864
2014/12/08,872,876,848,850,124600,850
2014/12/09,838,849,826,828,110600,828
2014/12/10,810,833,805,825,70700,825
2014/12/11,804,823,800,819,60400,819
2014/12/12,812,860,811,838,120000,838
2014/12/15,820,831,806,808,48600,808
2014/12/16,800,805,775,782,98900,782
2014/12/17,767,796,767,788,77600,788
2014/12/18,800,801,779,785,73600,785
2014/12/19,785,811,785,790,101800,790
2014/12/22,785,799,782,788,63100,788
2014/12/24,790,797,765,768,150200,768
2014/12/25,774,787,770,774,57400,774
2014/12/26,778,798,778,794,63000,794
2014/12/29,798,806,781,802,78300,802
2014/12/30,800,800,788,793,46900,793
2015/01/05,794,801,790,798,31700,798
2015/01/06,783,794,771,773,90900,773
2015/01/07,768,780,765,767,57500,767
2015/01/08,770,777,763,774,50500,774
2015/01/09,773,776,766,770,52400,770
2015/01/13,760,769,756,766,35100,766
2015/01/14,765,766,755,759,32300,759
2015/01/15,755,775,753,772,54500,772
2015/01/16,765,767,742,754,50100,754
2015/01/19,753,767,751,765,18000,765
2015/01/20,771,790,762,789,58200,789
2015/01/21,790,791,779,781,34700,781
2015/01/22,779,781,764,777,42100,777
2015/01/23,780,780,765,768,35100,768
2015/01/26,787,787,772,776,23000,776
2015/01/27,784,787,777,784,30800,784
2015/01/28,784,798,781,796,34500,796
2015/01/29,793,793,776,781,28800,781
2015/01/30,777,782,763,778,46800,778
2015/02/02,765,775,762,763,12200,763
2015/02/03,767,767,742,748,35800,748
2015/02/04,751,764,751,760,28700,760
2015/02/05,751,757,748,755,21200,755
2015/02/06,761,769,760,765,62200,765
2015/02/09,769,774,761,763,35800,763
2015/02/10,757,763,754,756,30200,756
2015/02/12,760,767,755,765,73300,765
2015/02/13,731,752,720,740,104700,740
2015/02/16,737,740,724,730,82800,730
2015/02/17,735,735,727,730,55600,730
2015/02/18,734,751,732,740,58400,740
2015/02/19,745,757,742,755,45700,755
2015/02/20,760,816,760,789,197800,789
2015/02/23,800,823,796,810,145600,810
2015/02/24,812,826,800,815,83000,815
2015/02/25,829,850,814,848,89600,848
2015/02/26,842,845,833,841,37000,841
2015/02/27,833,844,826,844,59800,844
2015/03/02,848,848,834,835,21500,835
2015/03/03,842,843,822,833,33600,833
2015/03/04,820,822,792,806,63300,806
2015/03/05,806,837,806,828,63400,828
2015/03/06,820,827,810,816,60600,816
2015/03/09,818,826,811,812,27700,812
2015/03/10,809,819,801,814,33600,814
2015/03/11,805,825,805,818,28600,818
2015/03/12,829,829,811,813,23500,813
2015/03/13,800,815,800,809,43700,809
2015/03/16,811,819,811,815,44100,815
2015/03/17,825,825,803,805,20500,805
2015/03/18,813,813,802,807,11100,807
2015/03/19,804,809,799,800,22300,800
2015/03/20,800,802,789,793,50400,793
2015/03/23,800,807,793,805,19600,805
2015/03/24,794,806,778,787,38500,787
2015/03/25,777,787,760,767,56100,767
2015/03/26,761,773,760,764,42900,764
2015/03/27,764,779,764,765,21800,765
2015/03/30,770,777,756,764,21100,764
2015/03/31,773,777,764,774,35200,774
2015/04/01,774,777,760,773,41300,773
2015/04/02,769,778,764,771,59000,771
2015/04/03,775,783,765,781,36700,781
2015/04/06,796,804,785,801,36400,801
2015/04/07,796,801,791,794,13000,794
2015/04/08,804,804,791,797,48400,797
2015/04/09,803,803,790,790,16400,790
2015/04/10,782,785,767,774,45700,774
2015/04/13,784,785,770,773,16000,773
2015/04/14,775,778,770,776,14500,776
2015/04/15,775,778,764,766,47100,766
2015/04/16,774,775,765,772,19900,772
2015/04/17,777,777,765,767,21400,767
2015/04/20,774,774,758,760,31600,760
2015/04/21,758,910,757,790,1633700,790
2015/04/22,802,823,764,780,383800,780
2015/04/23,780,780,763,764,118300,764
2015/04/24,764,767,743,752,155100,752
2015/04/27,764,768,751,763,59800,763
2015/04/28,761,771,760,762,57700,762
2015/04/30,759,760,740,745,121000,745
2015/05/01,746,750,729,748,120400,748
2015/05/07,737,746,728,735,51400,735
2015/05/08,738,738,730,731,106800,731
2015/05/11,733,738,729,734,105300,734
2015/05/12,726,730,699,707,173600,707
2015/05/13,701,702,694,696,95600,696
2015/05/14,700,706,695,699,97800,699
2015/05/15,705,709,696,700,48600,700
2015/05/18,708,709,690,697,79500,697
2015/05/19,700,702,696,700,53200,700
2015/05/20,699,709,699,700,88800,700
2015/05/21,702,710,699,706,106400,706
2015/05/22,714,724,709,722,67200,722
2015/05/25,730,738,725,733,66300,733
2015/05/26,744,761,739,758,181000,758
2015/05/27,749,754,741,746,106400,746
2015/05/28,751,751,728,728,77100,728
2015/05/29,726,728,719,723,46000,723
2015/06/01,729,733,725,732,45100,732
2015/06/02,755,755,738,747,217800,747
2015/06/03,750,750,737,746,54000,746
2015/06/04,744,746,738,740,67300,740
2015/06/05,744,747,739,742,57500,742
2015/06/08,744,749,742,743,64200,743
2015/06/09,744,745,734,734,61600,734
2015/06/10,730,751,730,750,93400,750
2015/06/11,754,760,742,758,129900,758
2015/06/12,760,767,752,765,131900,765
2015/06/15,765,765,754,757,147300,757
2015/06/16,754,770,740,744,175900,744
2015/06/17,753,764,749,760,147400,760
2015/06/18,771,773,762,770,100400,770
2015/06/19,771,772,763,764,50800,764
2015/06/22,767,772,761,764,52400,764
2015/06/23,762,769,751,756,98400,756
2015/06/24,762,764,759,761,71300,761
2015/06/25,763,764,760,760,30800,760
2015/06/26,759,760,751,751,36900,751
2015/06/29,730,736,720,725,83900,725
2015/06/30,716,734,696,698,148000,698
2015/07/01,703,710,703,706,86500,706
2015/07/02,710,716,708,712,46700,712
2015/07/03,715,717,707,708,50600,708
2015/07/06,708,716,707,710,44200,710
2015/07/07,715,726,715,723,27900,723
2015/07/08,753,753,694,695,113700,695
2015/07/09,672,687,651,685,77800,685
2015/07/10,690,703,669,695,55300,695
2015/07/13,695,710,692,696,49900,696
2015/07/14,708,712,704,710,30600,710
2015/07/15,713,713,678,701,111700,701
2015/07/16,712,714,707,709,39200,709
2015/07/17,715,715,703,707,30900,707
2015/07/21,715,715,705,709,23300,709
2015/07/22,703,710,702,704,25600,704
2015/07/23,710,710,700,702,37800,702
2015/07/24,702,702,690,691,69100,691
2015/07/27,691,698,667,670,83300,670
2015/07/28,667,673,658,668,70900,668
2015/07/29,674,676,664,667,30200,667
2015/07/30,675,684,671,681,27000,681
2015/07/31,690,693,679,684,22500,684
2015/08/03,682,683,672,680,22700,680
2015/08/04,675,675,660,669,31200,669
2015/08/05,662,673,658,662,39300,662
2015/08/06,666,671,661,661,45900,661
2015/08/07,663,671,663,666,20600,666
2015/08/10,654,661,642,650,110200,650
2015/08/11,650,659,639,653,106100,653
2015/08/12,650,658,642,642,32800,642
2015/08/13,642,649,636,638,22100,638
2015/08/14,631,634,617,620,94900,620
2015/08/17,611,616,603,609,67000,609
2015/08/18,609,624,603,605,53700,605
2015/08/19,615,615,600,602,61800,602
2015/08/20,603,613,602,610,60200,610
2015/08/21,607,612,592,607,91100,607
2015/08/24,587,608,560,561,133200,561
2015/08/25,491,565,488,517,234000,517
2015/08/26,557,558,530,553,85700,553
2015/08/27,573,580,562,566,72300,566
2015/08/28,582,597,576,595,69400,595
2015/08/31,600,605,588,595,70800,595
2015/09/01,605,605,575,577,93200,577
2015/09/02,567,575,556,569,76300,569
2015/09/03,574,580,563,565,14100,565
2015/09/04,563,566,516,522,80800,522
2015/09/07,512,518,498,504,58400,504
2015/09/08,498,533,484,485,142300,485
2015/09/09,501,503,483,490,127700,490
2015/09/10,485,485,469,473,142400,473
2015/09/11,473,482,470,480,133800,480
2015/09/14,483,486,466,466,81300,466
2015/09/15,466,466,448,450,136800,450
2015/09/16,458,458,446,450,74900,450
2015/09/17,457,466,452,461,59400,461
2015/09/18,469,470,451,452,51200,452
2015/09/24,450,450,441,442,45300,442
2015/09/25,444,447,432,445,61800,445
2015/09/28,453,459,444,446,69000,446
2015/09/29,441,441,411,417,109500,417
2015/09/30,429,497,428,451,1231100,451
2015/10/01,454,458,430,439,220700,439
2015/10/02,479,519,460,519,2575700,519
2015/10/05,529,536,501,505,1335000,505
2015/10/06,494,515,484,487,390500,487
2015/10/07,480,499,464,497,386800,497
2015/10/08,496,498,486,493,154000,493
2015/10/09,500,508,478,500,257300,500
2015/10/13,490,497,485,489,112900,489
2015/10/14,489,490,477,484,123500,484
2015/10/15,480,502,478,489,80100,489
2015/10/16,490,499,488,496,82500,496
