2010/01/04,76,76,75,75,5000,75
2010/01/05,75,75,74,74,3000,74
2010/01/06,75,76,75,75,17500,75
2010/01/07,75,76,75,76,5500,76
2010/01/08,76,76,76,76,10500,76
2010/01/12,77,77,76,76,11500,76
2010/01/13,76,76,75,75,16500,75
2010/01/14,75,75,74,75,7500,75
2010/01/15,75,76,75,76,4000,76
2010/01/18,76,77,76,76,6000,76
2010/01/19,76,76,75,75,8500,75
2010/01/20,75,77,75,76,12000,76
2010/01/21,76,76,75,76,6500,76
2010/01/22,76,76,76,76,3500,76
2010/01/25,76,77,75,77,15500,77
2010/01/26,79,79,76,77,37500,77
2010/01/27,77,84,76,83,43000,83
2010/01/28,85,85,80,82,36000,82
2010/01/29,82,82,78,79,10500,79
2010/02/01,80,80,78,78,7000,78
2010/02/02,78,79,78,78,5000,78
2010/02/03,78,79,78,79,8000,79
2010/02/04,78,78,76,78,13000,78
2010/02/05,78,79,78,78,5500,78
2010/02/08,78,78,78,78,7000,78
2010/02/09,77,77,75,77,9000,77
2010/02/10,75,75,72,75,13000,75
2010/02/12,75,76,75,76,4000,76
2010/02/15,76,76,74,74,16000,74
2010/02/16,75,75,74,75,4500,75
2010/02/17,75,75,74,75,12500,75
2010/02/18,75,75,75,75,11000,75
2010/02/19,75,76,75,76,2000,76
2010/02/22,75,75,74,75,15000,75
2010/02/23,75,75,74,74,1000,74
2010/02/24,75,76,72,73,17000,73
2010/02/25,74,76,74,76,17000,76
2010/02/26,76,76,76,76,22000,76
2010/03/01,75,75,75,75,4500,75
2010/03/02,75,75,75,75,3000,75
2010/03/03,76,76,75,76,12500,76
2010/03/04,76,77,75,75,11000,75
2010/03/05,76,77,75,75,7000,75
2010/03/08,75,78,75,77,36500,77
2010/03/09,77,80,77,79,29500,79
2010/03/10,79,80,78,79,15500,79
2010/03/11,76,78,75,76,63000,76
2010/03/12,77,77,74,77,27500,77
2010/03/15,77,77,76,76,16500,76
2010/03/16,75,77,75,77,19500,77
2010/03/17,77,77,75,76,9000,76
2010/03/18,78,78,76,76,33500,76
2010/03/19,76,77,76,76,16500,76
2010/03/23,75,77,75,75,20000,75
2010/03/24,75,76,75,75,11500,75
2010/03/25,75,78,75,78,16500,78
2010/03/26,83,101,81,88,1252000,88
2010/03/29,86,87,79,81,181000,81
2010/03/30,82,84,81,81,123500,81
2010/03/31,82,84,81,84,59500,84
2010/04/01,83,85,83,83,23000,83
2010/04/02,85,85,82,83,21500,83
2010/04/05,85,85,83,84,31500,84
2010/04/06,84,85,84,84,20000,84
2010/04/07,85,86,84,86,44000,86
2010/04/08,87,88,85,88,24500,88
2010/04/09,87,87,86,87,20000,87
2010/04/12,86,87,85,87,26000,87
2010/04/13,87,87,85,85,21500,85
2010/04/14,85,86,85,86,14000,86
2010/04/15,86,86,86,86,14000,86
2010/04/16,86,87,85,85,23000,85
2010/04/19,87,87,85,85,23000,85
2010/04/20,85,86,83,84,43500,84
2010/04/21,85,85,80,84,68500,84
2010/04/22,82,83,81,81,68000,81
2010/04/23,83,84,81,84,32500,84
2010/04/26,84,85,83,83,43500,83
2010/04/27,85,85,82,83,34000,83
2010/04/28,83,84,82,84,61000,84
2010/04/30,84,84,82,83,21500,83
2010/05/06,83,83,82,82,21000,82
2010/05/07,81,82,81,82,85000,82
2010/05/10,82,82,81,81,15500,81
2010/05/11,82,82,80,80,35000,80
2010/05/12,80,82,80,82,17000,82
2010/05/13,81,81,80,81,14500,81
2010/05/14,81,81,80,80,13000,80
2010/05/17,80,80,78,79,28500,79
2010/05/18,79,80,78,78,13500,78
2010/05/19,78,78,78,78,19000,78
2010/05/20,78,79,77,77,13500,77
2010/05/21,75,77,75,75,28000,75
2010/05/24,77,77,77,77,3500,77
2010/05/25,77,78,76,78,22000,78
2010/05/26,78,78,77,77,29000,77
2010/05/27,77,79,76,79,14500,79
2010/05/28,73,75,71,71,134500,71
2010/05/31,67,69,65,68,155000,68
2010/06/01,67,68,66,67,47000,67
2010/06/02,66,67,66,66,39500,66
2010/06/03,66,67,65,67,24000,67
2010/06/04,66,66,65,66,20500,66
2010/06/07,65,67,64,64,48000,64
2010/06/08,64,64,62,62,45500,62
2010/06/09,62,62,60,60,47000,60
2010/06/10,60,60,59,59,28500,59
2010/06/11,59,60,58,58,20000,58
2010/06/14,58,60,58,60,31000,60
2010/06/15,61,62,60,61,32500,61
2010/06/16,60,61,59,61,39000,61
2010/06/17,60,61,60,60,22000,60
2010/06/18,61,61,60,60,20000,60
2010/06/21,59,60,58,59,27500,59
2010/06/22,59,60,58,59,19000,59
2010/06/23,59,59,59,59,10500,59
2010/06/24,59,59,57,58,24000,58
2010/06/25,58,59,58,59,21000,59
2010/06/28,60,60,58,59,37500,59
2010/06/29,58,59,58,58,6500,58
2010/06/30,57,59,55,57,40500,57
2010/07/01,56,56,54,54,14000,54
2010/07/02,54,55,53,54,16000,54
2010/07/05,54,54,53,53,12000,53
2010/07/06,53,53,52,53,15500,53
2010/07/07,52,52,49,50,35500,50
2010/07/08,49,51,49,50,27000,50
2010/07/09,52,52,49,50,30500,50
2010/07/12,50,50,48,48,12500,48
2010/07/13,49,50,48,48,11500,48
2010/07/14,48,49,47,47,12500,47
2010/07/15,47,48,46,46,30000,46
2010/07/16,46,46,42,44,30500,44
2010/07/20,42,43,42,42,22000,42
2010/07/21,42,42,38,39,55000,39
2010/07/22,38,38,35,37,71500,37
2010/07/23,36,37,35,37,44000,37
2010/07/26,42,42,38,39,91000,39
2010/07/27,38,40,35,35,117500,35
2010/07/28,50,54,42,45,808500,45
2010/07/29,44,47,41,44,149500,44
2010/07/30,44,44,40,42,97000,42
2010/08/02,42,42,38,39,59000,39
2010/08/03,40,40,38,39,34000,39
2010/08/04,38,38,36,38,82500,38
2010/08/05,38,38,37,37,52000,37
2010/08/06,37,38,35,38,51500,38
2010/08/09,37,37,36,36,51500,36
2010/08/10,35,38,35,36,51500,36
2010/08/11,36,36,35,35,78000,35
2010/08/12,34,34,32,34,59000,34
2010/08/13,33,33,32,33,22000,33
2010/08/16,33,34,32,32,34500,32
2010/08/17,32,32,32,32,11000,32
2010/08/18,33,42,33,35,902000,35
2010/08/19,35,35,30,34,361500,34
2010/08/20,33,34,32,33,90000,33
2010/08/23,34,34,31,32,48500,32
2010/08/24,32,32,30,30,67500,30
2010/08/25,30,32,30,32,87500,32
2010/08/26,34,34,31,31,73500,31
2010/08/27,32,34,30,30,100500,30
2010/08/30,31,34,31,33,67500,33
2010/08/31,33,35,31,32,113000,32
2010/09/01,32,43,32,41,1609500,41
2010/09/02,39,52,36,47,1808500,47
2010/09/03,47,70,47,70,5691500,70
2010/09/06,67,70,57,60,6333000,60
2010/09/07,57,70,55,70,4976500,70
2010/09/08,71,83,65,67,13369500,67
2010/09/09,73,79,64,79,9593500,79
2010/09/10,76,79,62,63,13001500,63
2010/09/13,58,62,52,52,5426000,52
2010/09/14,56,58,50,51,3906000,51
2010/09/15,53,54,50,52,1932000,52
2010/09/16,51,54,48,51,1922000,51
2010/09/17,50,55,50,52,1633000,52
2010/09/21,52,52,49,50,1353000,50
2010/09/22,50,55,48,52,1426500,52
2010/09/24,55,57,53,54,2140500,54
2010/09/27,54,55,49,51,1265000,51
2010/09/28,50,51,47,47,736500,47
2010/09/29,45,48,45,46,1104000,46
2010/09/30,46,50,46,49,1120500,49
2010/10/01,51,53,47,48,1405500,48
2010/10/04,49,49,45,47,596000,47
2010/10/05,45,47,43,43,616000,43
2010/10/06,44,45,42,43,519500,43
2010/10/07,43,44,43,44,162500,44
2010/10/08,43,43,41,42,290000,42
2010/10/12,43,44,38,38,540000,38
2010/10/13,38,42,38,41,692000,41
2010/10/14,41,41,39,39,254000,39
2010/10/15,38,40,38,39,230500,39
2010/10/18,39,39,36,36,249500,36
2010/10/19,37,38,35,37,143000,37
2010/10/20,36,38,36,38,81500,38
2010/10/21,37,40,36,39,248000,39
2010/10/22,39,41,39,40,228000,40
2010/10/25,45,47,41,43,1190500,43
2010/10/26,43,43,41,42,176000,42
2010/10/27,42,42,40,41,83000,41
2010/10/28,40,40,37,37,346000,37
2010/10/29,37,39,37,39,264000,39
2010/11/01,39,39,33,35,329500,35
2010/11/02,34,36,33,35,363000,35
2010/11/04,35,37,35,36,109000,36
2010/11/05,36,37,34,34,345500,34
2010/11/08,34,37,34,37,205000,37
2010/11/09,37,39,37,38,190500,38
2010/11/10,38,39,37,37,93000,37
2010/11/11,38,41,37,40,320500,40
2010/11/12,40,41,39,39,149500,39
2010/11/15,40,40,39,39,81500,39
2010/11/16,40,40,39,40,54500,40
2010/11/17,39,40,38,40,114000,40
2010/11/18,40,42,39,42,118500,42
2010/11/19,42,42,40,40,98500,40
2010/11/22,40,41,40,41,64000,41
2010/11/24,40,40,37,40,164000,40
2010/11/25,40,40,38,40,88500,40
2010/11/26,41,41,39,40,88500,40
2010/11/29,40,41,40,40,26000,40
2010/11/30,41,41,39,40,81500,40
2010/12/01,39,40,38,39,161000,39
2010/12/02,40,40,39,40,19500,40
2010/12/03,40,43,40,43,265500,43
2010/12/06,45,52,44,51,1588500,51
2010/12/07,54,56,51,56,1935000,56
2010/12/08,56,57,52,53,1301500,53
2010/12/09,53,53,49,52,522000,52
2010/12/10,51,51,49,49,218500,49
2010/12/13,49,52,48,52,236500,52
2010/12/14,51,51,49,49,218000,49
2010/12/15,53,53,49,50,772500,50
2010/12/16,51,52,50,51,446500,51
2010/12/17,51,52,49,52,250500,52
2010/12/20,52,52,49,49,141500,49
2010/12/21,50,50,47,49,177500,49
2010/12/22,50,50,49,49,98000,49
2010/12/24,48,49,47,49,96000,49
2010/12/27,48,48,47,48,68000,48
2010/12/28,47,49,47,48,104500,48
2010/12/29,48,49,47,48,60500,48
2010/12/30,48,48,45,48,258500,48
2011/01/04,50,50,48,49,132500,49
2011/01/05,50,50,48,49,70500,49
2011/01/06,50,51,49,50,153500,50
2011/01/07,50,57,50,55,1522500,55
2011/01/11,59,59,54,54,864500,54
2011/01/12,54,56,54,56,248000,56
2011/01/13,56,56,52,54,344000,54
2011/01/14,54,54,53,53,100500,53
2011/01/17,53,53,51,52,153000,52
2011/01/18,52,55,52,54,228000,54
2011/01/19,54,56,52,53,251000,53
2011/01/20,53,55,52,52,120500,52
2011/01/21,52,54,51,52,127500,52
2011/01/24,51,53,50,52,108500,52
2011/01/25,52,52,51,52,41500,52
2011/01/26,53,53,50,51,150500,51
2011/01/27,53,54,52,54,56500,54
2011/01/28,54,54,51,52,93500,52
2011/01/31,52,52,50,51,111000,51
2011/02/01,51,52,51,52,26500,52
2011/02/02,52,54,52,53,96500,53
2011/02/03,53,57,53,56,750500,56
2011/02/04,57,63,56,61,1521000,61
2011/02/07,64,64,59,61,1081500,61
2011/02/08,60,60,57,57,418500,57
2011/02/09,56,60,54,59,555000,59
2011/02/10,58,59,57,57,114500,57
2011/02/14,57,58,56,58,71500,58
2011/02/15,59,63,59,62,470000,62
2011/02/16,61,64,60,64,360000,64
2011/02/17,63,63,60,60,323500,60
2011/02/18,60,63,59,62,254000,62
2011/02/21,63,73,63,71,2219500,71
2011/02/22,69,72,67,68,972000,68
2011/02/23,69,75,68,75,1021000,75
2011/02/24,75,86,75,82,3692000,82
2011/02/25,80,82,76,78,496500,78
2011/02/28,80,82,71,76,784000,76
2011/03/01,76,79,75,78,307000,78
2011/03/02,76,77,75,76,201000,76
2011/03/03,77,80,75,80,262000,80
2011/03/04,80,80,78,80,181500,80
2011/03/07,79,80,78,78,154000,78
2011/03/08,78,79,78,78,42000,78
2011/03/09,79,79,75,76,167500,76
2011/03/10,76,79,74,79,350500,79
2011/03/11,92,108,88,105,18897500,105
2011/03/14,80,84,67,68,3319500,68
2011/03/15,64,65,38,52,3227000,52
2011/03/16,53,64,50,60,1958500,60
2011/03/17,52,64,52,63,938500,63
2011/03/18,64,72,64,69,995500,69
2011/03/22,78,79,72,72,983000,72
2011/03/23,70,71,66,68,446500,68
2011/03/24,67,69,65,65,318000,65
2011/03/25,65,65,60,61,689500,61
2011/03/28,62,62,57,57,315000,57
2011/03/29,58,61,56,61,171000,61
2011/03/30,62,66,62,66,248500,66
2011/03/31,65,65,62,64,236000,64
2011/04/01,64,64,62,63,118000,63
2011/04/04,63,63,61,61,100500,61
2011/04/05,61,61,58,58,155000,58
2011/04/06,58,59,58,59,89000,59
2011/04/07,59,64,58,61,223500,61
2011/04/08,60,61,60,60,110500,60
2011/04/11,60,63,59,63,112000,63
2011/04/12,61,61,59,59,68500,59
2011/04/13,60,62,59,62,138000,62
2011/04/14,61,64,60,64,214000,64
2011/04/15,62,63,62,62,107000,62
2011/04/18,61,62,60,60,131000,60
2011/04/19,61,65,61,65,395000,65
2011/04/20,66,72,66,67,1038000,67
2011/04/21,67,67,64,64,231500,64
2011/04/22,64,64,63,64,99500,64
2011/04/25,63,66,63,66,165000,66
2011/04/26,66,66,63,63,142500,63
2011/04/27,64,64,62,62,75500,62
2011/04/28,63,63,61,61,136500,61
2011/05/02,62,63,61,63,69500,63
2011/05/06,62,63,61,62,50000,62
2011/05/09,64,67,63,65,323500,65
2011/05/10,66,68,65,67,131000,67
2011/05/11,66,67,65,67,269500,67
2011/05/12,66,67,66,67,81500,67
2011/05/13,67,72,64,68,732500,68
2011/05/16,65,65,60,61,477000,61
2011/05/17,61,63,60,63,210500,63
2011/05/18,62,63,60,63,164000,63
2011/05/19,63,63,63,63,31000,63
2011/05/20,62,65,62,65,91000,65
2011/05/23,63,64,62,62,90000,62
2011/05/24,62,63,62,63,28000,63
2011/05/25,64,64,61,61,101500,61
2011/05/26,63,63,62,63,75000,63
2011/05/27,63,63,62,62,26500,62
2011/05/30,63,64,63,64,61000,64
2011/05/31,63,64,63,64,26000,64
2011/06/01,64,64,63,63,82000,63
2011/06/02,63,66,62,64,137000,64
2011/06/03,64,65,64,64,68000,64
2011/06/06,64,69,64,67,408500,67
2011/06/07,68,73,68,68,482500,68
2011/06/08,70,75,70,73,1153000,73
2011/06/09,74,74,69,70,518500,70
2011/06/10,70,72,70,72,197000,72
2011/06/13,72,75,71,75,378000,75
2011/06/14,94,95,76,76,6233500,76
2011/06/15,75,75,69,70,1183500,70
2011/06/16,71,74,69,72,691500,72
2011/06/17,71,72,69,70,217000,70
2011/06/20,71,73,69,72,218000,72
2011/06/21,72,72,70,72,62500,72
2011/06/22,72,73,72,73,78500,73
2011/06/23,73,73,71,72,66000,72
2011/06/24,72,73,71,73,60500,73
2011/06/27,73,73,72,73,103000,73
2011/06/28,72,72,72,72,10000,72
2011/06/29,72,72,70,72,88000,72
2011/06/30,73,73,72,72,46000,72
2011/07/01,71,72,71,72,98500,72
2011/07/04,73,80,73,76,1322500,76
2011/07/05,74,75,73,74,138500,74
2011/07/06,78,84,78,81,1583000,81
2011/07/07,79,80,78,80,288000,80
2011/07/08,81,81,79,80,145000,80
2011/07/11,80,80,79,80,97500,80
2011/07/12,80,80,78,78,140000,78
2011/07/13,78,80,78,80,164000,80
2011/07/14,79,79,78,79,33000,79
2011/07/15,80,80,78,79,74500,79
2011/07/19,80,80,79,79,38500,79
2011/07/20,80,81,79,81,103000,81
2011/07/21,80,81,80,80,112500,80
2011/07/22,81,86,81,84,572500,84
2011/07/25,83,85,82,85,183000,85
2011/07/26,84,85,83,84,339500,84
2011/07/27,84,84,82,82,70000,82
2011/07/28,82,83,79,82,244500,82
2011/07/29,82,83,80,80,130000,80
2011/08/01,79,83,79,83,37500,83
2011/08/02,82,83,82,82,34000,82
2011/08/03,81,81,80,80,92000,80
2011/08/04,81,81,80,81,22500,81
2011/08/05,75,79,72,78,309000,78
2011/08/08,78,79,74,76,98000,76
2011/08/09,72,80,70,80,246500,80
2011/08/10,81,81,77,79,127000,79
2011/08/11,77,81,74,81,118500,81
2011/08/12,81,81,77,78,70500,78
2011/08/15,79,80,78,80,79500,80
2011/08/16,80,81,79,81,52000,81
2011/08/17,80,83,80,83,110000,83
2011/08/18,83,83,82,83,122000,83
2011/08/19,81,81,78,79,191500,79
2011/08/22,79,81,78,79,94500,79
2011/08/23,80,80,78,78,74500,78
2011/08/24,79,80,78,78,35500,78
2011/08/25,78,79,78,79,69500,79
2011/08/26,79,79,78,79,52000,79
2011/08/29,79,81,78,80,76500,80
2011/08/30,80,88,80,87,271500,87
2011/08/31,86,88,85,86,302000,86
2011/09/01,87,90,87,88,259500,88
2011/09/02,90,94,89,94,373000,94
2011/09/05,92,96,90,91,650000,91
2011/09/06,90,90,85,87,514500,87
2011/09/07,88,92,88,92,233000,92
2011/09/08,94,98,91,95,423500,95
2011/09/09,94,105,94,102,1732000,102
2011/09/12,100,108,97,104,977000,104
2011/09/13,98,106,92,94,2806500,94
2011/09/14,93,97,91,93,815000,93
2011/09/15,96,97,90,91,522500,91
2011/09/16,81,81,75,78,3547500,78
2011/09/20,77,78,75,75,612000,75
2011/09/21,75,77,74,75,427000,75
2011/09/22,74,74,70,71,668000,71
2011/09/26,69,70,65,65,785000,65
2011/09/27,67,67,60,64,643000,64
2011/09/28,65,66,63,65,247000,65
2011/09/29,65,67,63,67,242000,67
2011/09/30,67,70,65,67,395000,67
2011/10/03,67,67,63,63,215000,63
2011/10/04,64,65,63,63,212000,63
2011/10/05,63,64,61,61,170000,61
2011/10/06,63,65,62,64,235000,64
2011/10/07,64,64,63,64,113000,64
2011/10/11,65,66,63,65,155500,65
2011/10/12,65,66,63,66,253500,66
2011/10/13,67,67,65,66,259000,66
2011/10/14,66,66,65,66,158000,66
2011/10/17,67,67,65,65,90500,65
2011/10/18,65,66,64,65,207500,65
2011/10/19,65,67,64,66,158000,66
2011/10/20,65,66,64,64,186000,64
2011/10/21,64,65,64,65,42500,65
2011/10/24,65,69,65,68,216000,68
2011/10/25,67,68,65,65,80500,65
2011/10/26,66,68,65,68,161000,68
2011/10/27,67,68,66,67,123500,67
2011/10/28,67,68,66,67,153000,67
2011/10/31,67,71,67,71,373500,71
2011/11/01,69,73,68,72,441500,72
2011/11/02,70,71,68,68,253000,68
2011/11/04,70,72,70,71,115000,71
2011/11/07,71,71,69,70,65000,70
2011/11/08,70,71,67,67,201000,67
2011/11/09,67,70,66,68,143000,68
2011/11/10,68,71,67,70,200500,70
2011/11/11,69,70,68,69,131000,69
2011/11/14,70,71,69,70,92500,70
2011/11/15,71,71,69,69,58500,69
2011/11/16,70,70,69,69,79500,69
2011/11/17,70,70,69,69,56500,69
2011/11/18,68,68,67,68,100500,68
2011/11/21,68,70,68,69,47500,69
2011/11/22,68,69,68,69,50500,69
2011/11/24,68,68,66,68,110000,68
2011/11/25,68,69,66,68,198500,68
2011/11/28,69,73,69,72,263000,72
2011/11/29,72,73,71,72,64000,72
2011/11/30,72,72,71,72,69000,72
2011/12/01,72,77,72,77,254000,77
2011/12/02,76,82,75,80,891000,80
2011/12/05,84,84,79,80,240000,80
2011/12/06,80,80,74,74,404500,74
2011/12/07,76,78,76,78,194000,78
2011/12/08,77,78,76,76,76000,76
2011/12/09,76,76,74,76,161000,76
2011/12/12,75,76,72,75,210000,75
2011/12/13,74,77,74,77,211500,77
2011/12/14,70,71,68,69,579500,69
2011/12/15,69,70,68,68,190000,68
2011/12/16,69,69,67,68,127500,68
2011/12/19,68,69,68,69,65000,69
2011/12/20,67,68,66,67,110500,67
2011/12/21,66,68,66,68,82500,68
2011/12/22,68,68,66,66,88000,66
2011/12/26,68,69,67,68,61000,68
2011/12/27,68,69,67,68,91000,68
2011/12/28,69,70,68,70,101500,70
2011/12/29,70,70,69,70,94000,70
2011/12/30,70,70,69,70,99000,70
2012/01/04,70,71,70,71,27500,71
2012/01/05,70,71,70,71,86500,71
2012/01/06,71,71,68,69,153500,69
2012/01/10,69,69,67,69,67500,69
2012/01/11,68,71,68,69,122000,69
2012/01/12,69,71,69,70,120500,70
2012/01/13,70,72,70,70,127500,70
2012/01/16,70,72,69,71,177500,71
2012/01/17,72,75,72,73,167000,73
2012/01/18,74,74,71,72,199000,72
2012/01/19,74,74,72,73,60500,73
2012/01/20,73,73,72,73,12500,73
2012/01/23,73,73,71,71,101000,71
2012/01/24,71,72,70,71,48500,71
2012/01/25,71,72,71,71,58500,71
2012/01/26,71,71,70,71,91500,71
2012/01/27,70,70,69,69,98000,69
2012/01/30,69,71,69,70,43500,70
2012/01/31,70,70,69,70,17500,70
2012/02/01,72,73,70,71,157000,71
2012/02/02,70,70,70,70,23000,70
2012/02/03,70,71,69,70,38000,70
2012/02/06,70,71,70,71,30500,71
2012/02/07,71,71,70,71,17000,71
2012/02/08,71,71,71,71,48500,71
2012/02/09,72,75,71,75,394000,75
2012/02/10,75,75,72,73,168000,73
2012/02/13,74,74,73,74,116500,74
2012/02/14,73,78,73,76,343000,76
2012/02/15,77,78,76,78,122500,78
2012/02/16,79,82,78,82,158000,82
2012/02/17,82,83,79,79,264500,79
2012/02/20,80,80,76,76,121000,76
2012/02/21,77,81,77,81,71000,81
2012/02/22,80,82,79,82,152000,82
2012/02/23,81,82,80,81,75500,81
2012/02/24,81,83,80,82,107500,82
2012/02/27,83,83,81,82,64000,82
2012/02/28,81,82,80,82,44000,82
2012/02/29,82,83,80,80,90500,80
2012/03/01,80,80,78,78,156000,78
2012/03/02,78,79,76,79,76500,79
2012/03/05,79,82,79,82,139500,82
2012/03/06,82,82,79,80,144500,80
2012/03/07,80,82,79,82,131000,82
2012/03/08,82,90,80,88,691000,88
2012/03/09,90,91,87,88,430000,88
2012/03/12,87,87,78,80,754000,80
2012/03/13,94,98,88,90,4787000,90
2012/03/14,90,91,86,90,762500,90
2012/03/15,86,89,83,83,914500,83
2012/03/16,86,87,83,86,440000,86
2012/03/19,85,86,84,84,175500,84
2012/03/21,83,83,82,83,194000,83
2012/03/22,83,90,83,89,1527000,89
2012/03/23,86,89,85,89,226000,89
2012/03/26,88,88,85,85,169000,85
2012/03/27,85,85,83,85,97500,85
2012/03/28,85,87,85,87,93000,87
2012/03/29,86,87,85,86,80000,86
2012/03/30,87,95,87,94,2879500,94
2012/04/02,92,95,92,94,582500,94
2012/04/03,94,94,88,89,843500,89
2012/04/04,89,90,85,86,383000,86
2012/04/05,85,89,84,87,221500,87
2012/04/06,87,87,85,87,65500,87
2012/04/09,86,87,84,86,229500,86
2012/04/10,87,88,86,88,146500,88
2012/04/11,86,86,83,86,243000,86
2012/04/12,86,86,84,86,201000,86
2012/04/13,87,89,87,89,165500,89
2012/04/16,89,92,88,89,323000,89
2012/04/17,91,92,89,89,154500,89
2012/04/18,91,94,90,94,462000,94
2012/04/19,93,96,93,94,628000,94
2012/04/20,93,95,91,92,448000,92
2012/04/23,93,93,91,91,183500,91
2012/04/24,92,107,92,102,2366500,102
2012/04/25,101,103,98,98,811000,98
2012/04/26,100,105,99,101,426500,101
2012/04/27,103,110,102,102,1250000,102
2012/05/01,103,103,99,100,267500,100
2012/05/02,102,104,101,104,228000,104
2012/05/07,103,103,98,98,166000,98
2012/05/08,98,100,97,100,100500,100
2012/05/09,99,100,94,98,181000,98
2012/05/10,98,98,95,96,165500,96
2012/05/11,95,95,93,94,90000,94
2012/05/14,95,95,87,87,165000,87
2012/05/15,84,85,76,83,516000,83
2012/05/16,81,86,81,81,155000,81
2012/05/17,81,85,80,85,138000,85
2012/05/18,81,82,80,80,95500,80
2012/05/21,80,82,80,81,93000,81
2012/05/22,83,84,82,84,101500,84
2012/05/23,83,84,80,80,100000,80
2012/05/24,82,83,81,83,26500,83
2012/05/25,83,85,82,82,185000,82
2012/05/28,83,83,80,80,159500,80
2012/05/29,80,83,78,81,164000,81
2012/05/30,83,83,80,81,124000,81
2012/05/31,80,83,79,82,104000,82
2012/06/01,83,83,80,81,61500,81
2012/06/04,79,80,78,78,106500,78
2012/06/05,78,79,78,79,54000,79
2012/06/06,80,83,80,82,167000,82
2012/06/07,83,90,83,89,396500,89
2012/06/08,88,90,86,89,284500,89
2012/06/11,92,95,91,93,340500,93
2012/06/12,103,104,94,94,2748500,94
2012/06/13,96,97,94,97,451500,97
2012/06/14,96,96,91,92,501500,92
2012/06/15,94,94,91,91,189500,91
2012/06/18,93,95,92,94,232500,94
2012/06/19,93,93,91,92,136000,92
2012/06/20,93,93,91,92,183500,92
2012/06/21,93,93,91,92,268500,92
2012/06/22,90,92,90,92,214000,92
2012/06/25,91,93,91,91,157000,91
2012/06/26,92,92,89,90,170500,90
2012/06/27,90,91,89,90,160000,90
2012/06/28,91,92,90,90,191000,90
2012/06/29,90,92,89,92,165000,92
2012/07/02,93,95,92,95,305500,95
2012/07/03,95,98,95,96,355500,96
2012/07/04,97,98,96,98,181000,98
2012/07/05,97,102,97,100,480500,100
2012/07/06,101,101,99,99,448500,99
2012/07/09,99,101,99,100,233000,100
2012/07/10,101,101,98,99,334500,99
2012/07/11,98,100,96,100,372000,100
2012/07/12,100,106,100,103,1249500,103
2012/07/13,104,108,102,108,778000,108
2012/07/17,108,110,106,106,585000,106
2012/07/18,105,106,102,103,371000,103
2012/07/19,104,105,100,100,264000,100
2012/07/20,101,103,98,99,288500,99
2012/07/23,99,99,95,95,344500,95
2012/07/24,94,97,94,96,170000,96
2012/07/25,95,95,93,93,237500,93
2012/07/26,96,96,94,95,158000,95
2012/07/27,96,96,92,94,175500,94
2012/07/30,94,95,91,91,164500,91
2012/07/31,93,94,91,94,113500,94
2012/08/01,93,94,91,91,146000,91
2012/08/02,93,94,92,93,52000,93
2012/08/03,93,93,91,91,110000,91
2012/08/06,93,94,93,93,72000,93
2012/08/07,94,94,93,93,90500,93
2012/08/08,93,95,93,94,118500,94
2012/08/09,95,100,94,100,553500,100
2012/08/10,100,100,97,98,144500,98
2012/08/13,98,99,96,97,163000,97
2012/08/14,98,98,96,96,156000,96
2012/08/15,97,108,96,99,1108500,99
2012/08/16,99,100,97,99,247500,99
2012/08/17,102,106,101,105,429000,105
2012/08/20,105,108,105,105,278000,105
2012/08/21,104,105,102,104,114500,104
2012/08/22,104,105,103,104,123500,104
2012/08/23,104,107,104,106,185000,106
2012/08/24,105,105,103,104,174500,104
2012/08/27,106,106,105,106,134000,106
2012/08/28,105,106,102,102,218500,102
2012/08/29,103,103,101,101,71000,101
2012/08/30,103,103,99,101,288000,101
2012/08/31,102,103,102,102,40500,102
2012/09/03,104,106,102,104,146000,104
2012/09/04,104,105,103,105,91500,105
2012/09/05,107,118,107,112,3208500,112
2012/09/06,109,113,107,111,973000,111
2012/09/07,113,115,110,114,765500,114
2012/09/10,109,113,108,113,989000,113
2012/09/11,113,117,112,116,1636500,116
2012/09/12,112,113,109,112,1299500,112
2012/09/13,112,114,110,110,630000,110
2012/09/14,106,106,100,101,1462500,101
2012/09/18,101,103,100,101,344000,101
2012/09/19,107,119,104,117,2594000,117
2012/09/20,115,115,107,111,2147500,111
2012/09/21,113,116,110,112,694000,112
2012/09/24,113,113,110,112,355000,112
2012/09/25,110,112,107,109,500000,109
2012/09/26,109,115,105,111,826500,111
2012/09/27,110,112,110,111,208500,111
2012/09/28,111,111,108,109,251000,109
2012/10/01,108,108,105,107,434000,107
2012/10/02,108,108,106,107,91000,107
2012/10/03,107,107,106,106,186000,106
2012/10/04,107,109,107,107,250500,107
2012/10/05,107,108,104,106,318500,106
2012/10/09,105,106,103,103,189000,103
2012/10/10,102,104,102,103,121000,103
2012/10/11,104,106,103,104,74500,104
2012/10/12,104,107,103,104,157000,104
2012/10/15,106,108,106,106,224000,106
2012/10/16,106,108,106,108,107000,108
2012/10/17,109,109,106,106,119500,106
2012/10/18,107,107,106,107,75000,107
2012/10/19,107,107,106,107,124000,107
2012/10/22,106,108,106,107,144500,107
2012/10/23,108,108,107,108,53000,108
2012/10/24,107,111,107,111,235000,111
2012/10/25,112,114,111,114,272000,114
2012/10/26,114,114,109,111,289500,111
2012/10/29,111,112,109,110,103500,110
2012/10/30,110,110,109,109,124000,109
2012/10/31,108,109,107,109,89000,109
2012/11/01,109,109,106,109,208500,109
2012/11/02,110,111,109,110,78000,110
2012/11/05,110,112,110,112,86500,112
2012/11/06,112,117,112,116,915000,116
2012/11/07,115,115,111,111,331000,111
2012/11/08,110,112,109,109,123500,109
2012/11/09,107,110,104,109,333000,109
2012/11/12,109,111,109,111,58000,111
2012/11/13,109,110,106,107,368500,107
2012/11/14,105,108,105,107,43500,107
2012/11/15,106,109,106,109,100000,109
2012/11/16,108,109,106,108,101000,108
2012/11/19,109,110,108,109,142000,109
2012/11/20,107,108,107,108,118000,108
2012/11/21,108,111,107,110,214000,110
2012/11/22,111,113,110,113,211500,113
2012/11/26,112,113,111,111,238500,111
2012/11/27,110,112,110,112,99500,112
2012/11/28,111,111,109,111,138500,111
2012/11/29,111,112,110,111,116500,111
2012/11/30,110,111,109,110,58500,110
2012/12/03,110,111,110,110,82500,110
2012/12/04,110,111,109,110,87000,110
2012/12/05,110,111,109,110,124000,110
2012/12/06,111,111,109,110,52000,110
2012/12/07,111,111,109,110,168000,110
2012/12/10,110,111,109,110,122000,110
2012/12/11,110,111,108,110,201000,110
2012/12/12,111,113,111,112,281000,112
2012/12/13,112,112,108,109,548000,109
2012/12/14,108,108,107,108,254000,108
2012/12/17,108,108,105,107,123000,107
2012/12/18,105,107,104,106,199500,106
2012/12/19,107,107,101,105,217000,105
2012/12/20,105,106,104,106,178500,106
2012/12/21,106,106,104,104,181000,104
2012/12/25,104,105,103,105,125000,105
2012/12/26,105,105,103,104,170500,104
2012/12/27,104,105,104,105,123000,105
2012/12/28,105,108,104,108,134000,108
2013/01/04,108,109,108,109,131500,109
2013/01/07,108,109,106,108,204500,108
2013/01/08,108,108,106,106,70000,106
2013/01/09,106,108,106,108,93000,108
2013/01/10,107,108,107,108,76000,108
2013/01/11,109,111,108,111,237000,111
2013/01/15,112,117,111,115,445000,115
2013/01/16,115,115,109,109,301500,109
2013/01/17,110,112,108,109,278000,109
2013/01/18,110,111,109,110,100500,110
2013/01/21,111,111,110,110,115000,110
2013/01/22,110,111,109,110,116500,110
2013/01/23,110,110,108,109,96000,109
2013/01/24,109,111,108,111,224000,111
2013/01/25,112,114,111,114,230000,114
2013/01/28,115,115,113,114,186500,114
2013/01/29,114,116,114,116,238500,116
2013/01/30,118,125,118,119,1569000,119
2013/01/31,119,121,118,121,243000,121
2013/02/01,120,126,120,124,610000,124
2013/02/04,131,134,127,130,881500,130
2013/02/05,126,130,126,127,453500,127
2013/02/06,129,131,127,129,225500,129
2013/02/07,127,129,125,126,187000,126
2013/02/08,125,126,122,122,251500,122
2013/02/12,122,123,118,119,218500,119
2013/02/13,120,121,118,118,215500,118
2013/02/14,118,120,116,120,168500,120
2013/02/15,120,120,111,113,356000,113
2013/02/18,113,117,113,117,225500,117
2013/02/19,116,117,116,117,214000,117
2013/02/20,116,120,116,119,408000,119
2013/02/21,119,121,118,118,423000,118
2013/02/22,118,119,116,119,211500,119
2013/02/25,119,122,119,122,227500,122
2013/02/26,118,123,117,123,315500,123
2013/02/27,123,125,121,122,412500,122
2013/02/28,125,125,122,123,172500,123
2013/03/01,124,127,124,126,332000,126
2013/03/04,126,129,126,127,228000,127
2013/03/05,127,128,125,127,183000,127
2013/03/06,129,135,128,133,818000,133
2013/03/07,130,131,127,130,405000,130
2013/03/08,130,133,128,131,394500,131
2013/03/11,135,136,132,136,575000,136
2013/03/12,133,134,124,126,941500,126
2013/03/13,125,127,124,126,239500,126
2013/03/14,127,130,126,127,522500,127
2013/03/15,127,129,126,129,163500,129
2013/03/18,129,129,126,126,174500,126
2013/03/19,127,129,127,128,160000,128
2013/03/21,128,130,128,129,123500,129
2013/03/22,129,130,128,128,97000,128
2013/03/25,129,129,128,128,64500,128
2013/03/26,130,131,126,129,155000,129
2013/03/27,129,130,128,129,67500,129
2013/03/28,130,130,128,130,86500,130
2013/03/29,131,134,131,132,271500,132
2013/04/01,134,134,126,127,211500,127
2013/04/02,126,127,122,126,177000,126
2013/04/03,126,130,126,130,143000,130
2013/04/04,129,129,126,129,74500,129
2013/04/05,130,131,127,129,177500,129
2013/04/08,131,131,128,130,125500,130
2013/04/09,130,131,128,130,145500,130
2013/04/10,130,132,130,131,156500,131
2013/04/11,132,133,130,132,177000,132
2013/04/12,131,131,129,130,76500,130
2013/04/15,131,132,130,131,59500,131
2013/04/16,128,131,128,129,211500,129
2013/04/17,131,132,129,132,153000,132
2013/04/18,131,182,131,163,5174000,163
2013/04/19,158,159,152,153,1081500,153
2013/04/22,152,167,149,163,965000,163
2013/04/23,159,160,155,159,360000,159
2013/04/24,162,173,160,164,988500,164
2013/04/25,165,165,159,162,363000,162
2013/04/26,165,191,163,185,3006500,185
2013/04/30,194,198,182,189,1910000,189
2013/05/01,184,189,174,178,944000,178
2013/05/02,176,182,173,179,384000,179
2013/05/07,186,190,179,189,673500,189
2013/05/08,192,208,189,200,2161500,200
2013/05/09,199,202,191,192,501500,192
2013/05/10,197,201,185,201,379500,201
2013/05/13,199,201,194,195,354500,195
2013/05/14,196,198,194,195,133000,195
2013/05/15,194,196,175,182,472000,182
2013/05/16,178,184,165,184,424500,184
2013/05/17,180,197,180,195,350500,195
2013/05/20,200,201,195,197,229000,197
2013/05/21,197,197,190,191,219000,191
2013/05/22,192,192,183,186,157500,186
2013/05/23,184,186,171,171,233500,171
2013/05/24,172,180,166,179,164500,179
2013/05/27,174,179,170,177,125000,177
2013/05/28,172,176,172,176,56000,176
2013/05/29,177,185,176,184,211000,184
2013/05/30,180,188,177,183,288000,183
2013/05/31,182,186,181,186,112500,186
2013/06/03,182,185,182,183,102500,183
2013/06/04,182,185,180,185,149000,185
2013/06/05,185,201,185,188,1028000,188
2013/06/06,182,188,170,178,566500,178
2013/06/07,171,173,158,168,323000,168
2013/06/10,171,180,171,179,209500,179
2013/06/11,182,186,177,183,210000,183
2013/06/12,179,187,174,184,217000,184
2013/06/13,159,173,159,167,335500,167
2013/06/14,167,170,159,159,222500,159
2013/06/17,159,168,159,168,203000,168
2013/06/18,170,170,166,167,56000,167
2013/06/19,166,169,166,168,80000,168
2013/06/20,165,166,164,165,41500,165
2013/06/21,162,162,159,160,102000,160
2013/06/24,160,160,152,153,188000,153
2013/06/25,143,150,139,145,522500,145
2013/06/26,150,150,118,123,475000,123
2013/06/27,130,144,127,140,1101500,140
2013/06/28,136,148,135,148,425000,148
2013/07/01,147,160,146,160,343000,160
2013/07/02,157,163,157,160,195500,160
2013/07/03,159,159,152,158,179500,158
2013/07/04,156,159,155,156,98000,156
2013/07/05,155,157,154,156,99500,156
2013/07/08,158,159,157,158,138000,158
2013/07/09,160,160,157,159,109000,159
2013/07/10,160,161,156,159,230500,159
2013/07/11,155,158,155,158,82000,158
2013/07/12,159,159,157,158,126000,158
2013/07/16,159,159,156,157,42500,157
2013/07/17,157,157,156,157,33000,157
2013/07/18,157,159,157,157,68000,157
2013/07/19,158,163,151,157,480000,157
2013/07/22,156,158,155,156,90000,156
2013/07/23,157,157,154,154,88500,154
2013/07/24,156,163,156,163,436000,163
2013/07/25,164,164,159,161,246000,161
2013/07/26,159,159,156,157,349500,157
2013/07/29,155,155,146,146,155000,146
2013/07/30,147,150,142,149,104500,149
2013/07/31,150,150,148,148,69500,148
2013/08/01,150,152,147,149,43100,149
2013/08/02,150,152,149,149,55600,149
2013/08/05,152,159,151,154,154000,154
2013/08/06,153,157,153,156,52900,156
2013/08/07,154,155,152,153,29400,153
2013/08/08,154,155,152,154,45300,154
2013/08/09,152,154,150,151,37900,151
2013/08/12,149,153,147,149,65800,149
2013/08/13,148,151,148,150,86700,150
2013/08/14,150,150,148,150,36000,150
2013/08/15,150,153,149,153,60000,153
2013/08/16,154,154,150,151,47400,151
2013/08/19,152,152,149,150,20800,150
2013/08/20,150,151,148,149,15200,149
2013/08/21,149,149,148,149,31500,149
2013/08/22,149,149,148,148,14200,148
2013/08/23,149,151,148,150,16100,150
2013/08/26,152,152,149,151,18500,151
2013/08/27,150,150,147,148,44500,148
2013/08/28,145,147,143,147,50900,147
2013/08/29,147,150,144,148,70300,148
2013/08/30,148,148,146,147,17900,147
2013/09/02,147,148,145,148,32800,148
2013/09/03,149,151,148,150,63200,150
2013/09/04,150,151,148,151,63900,151
2013/09/05,152,152,146,149,49500,149
2013/09/06,148,150,147,148,25500,148
2013/09/09,153,160,151,158,136700,158
2013/09/10,159,164,159,164,159200,164
2013/09/11,164,166,159,164,275300,164
2013/09/12,165,166,162,163,205500,163
2013/09/13,168,168,157,162,539500,162
2013/09/17,166,168,165,167,175500,167
2013/09/18,168,168,164,164,79500,164
2013/09/19,164,166,164,166,66300,166
2013/09/20,163,167,159,164,122900,164
2013/09/24,163,164,162,164,33200,164
2013/09/25,162,164,160,160,30500,160
2013/09/26,163,164,159,160,78500,160
2013/09/27,162,163,159,162,75300,162
2013/09/30,161,162,158,160,98100,160
2013/10/01,161,164,160,163,155900,163
2013/10/02,164,185,164,167,750400,167
2013/10/03,173,179,167,178,329700,178
2013/10/04,175,176,164,174,443900,174
2013/10/07,169,170,153,153,1152300,153
2013/10/08,148,152,144,147,733800,147
2013/10/09,144,152,142,151,1111300,151
2013/10/10,151,155,151,152,843300,152
2013/10/11,159,161,153,160,2165100,160
2013/10/15,163,175,157,166,1524600,166
2013/10/16,163,167,161,164,1326800,164
2013/10/17,166,168,164,165,688100,165
2013/10/18,166,166,160,163,878600,163
2013/10/21,163,174,163,172,1467700,172
2013/10/22,168,168,161,162,1573600,162
2013/10/23,162,163,159,159,1070600,159
2013/10/24,160,160,158,158,700800,158
2013/10/25,154,160,154,157,4713400,157
2013/10/28,159,159,155,156,836100,156
2013/10/29,156,156,154,154,635600,154
2013/10/30,155,155,153,154,711000,154
2013/10/31,154,155,151,153,634600,153
2013/11/01,153,153,147,150,745500,150
2013/11/05,151,151,148,150,320400,150
2013/11/06,149,152,149,151,332600,151
2013/11/07,150,152,146,148,794900,148
2013/11/08,148,148,146,147,545700,147
2013/11/11,147,149,146,146,406500,146
2013/11/12,146,150,144,149,749300,149
2013/11/13,152,153,150,152,426100,152
2013/11/14,152,154,150,150,519700,150
2013/11/15,150,152,149,149,430000,149
2013/11/18,150,152,149,152,398600,152
2013/11/19,152,152,150,150,167600,150
2013/11/20,150,152,149,150,316600,150
2013/11/21,150,150,147,149,432400,149
2013/11/22,148,149,146,148,717500,148
2013/11/25,149,151,147,149,935700,149
2013/11/26,150,150,148,150,392300,150
2013/11/27,149,151,148,149,486600,149
2013/11/28,150,150,148,148,310400,148
2013/11/29,149,150,148,150,386100,150
2013/12/02,151,157,150,156,1720600,156
2013/12/03,158,158,155,157,1000300,157
2013/12/04,156,157,153,156,769900,156
2013/12/05,155,158,155,156,1024100,156
2013/12/06,157,157,154,155,477400,155
2013/12/09,156,157,155,156,424700,156
2013/12/10,156,157,154,154,385000,154
2013/12/11,153,154,150,153,927500,153
2013/12/12,149,152,148,149,994300,149
2013/12/13,151,151,148,150,293700,150
2013/12/16,151,152,148,149,889900,149
2013/12/17,149,151,149,150,360800,150
2013/12/18,151,152,149,151,533000,151
2013/12/19,150,151,150,151,325300,151
2013/12/20,151,156,150,155,1094500,155
2013/12/24,155,155,150,151,1082500,151
2013/12/25,151,154,151,154,756700,154
2013/12/26,155,158,154,158,904600,158
2013/12/27,161,162,159,161,2261400,161
2013/12/30,164,165,162,162,2449100,162
2014/01/06,165,166,163,165,2299700,165
2014/01/07,167,174,165,173,6768000,173
2014/01/08,175,176,167,169,3791400,169
2014/01/09,168,169,164,166,2116700,166
2014/01/10,166,170,165,169,1449200,169
2014/01/14,167,171,165,170,2258000,170
2014/01/15,174,178,172,176,5554600,176
2014/01/16,178,178,173,174,2905900,174
2014/01/17,175,177,171,177,2096700,177
2014/01/20,178,183,176,183,3872100,183
2014/01/21,183,184,178,178,3755400,178
2014/01/22,179,181,176,180,2023800,180
2014/01/23,179,181,175,177,1613600,177
2014/01/24,194,198,183,189,23924200,189
2014/01/27,189,207,186,201,19686000,201
2014/01/28,205,209,191,192,11141600,192
2014/01/29,195,202,188,202,6401500,202
2014/01/30,194,196,190,192,4309200,192
2014/01/31,195,202,187,191,4648300,191
2014/02/03,186,188,174,175,3330400,175
2014/02/04,160,168,155,163,4648200,163
2014/02/05,168,171,158,164,2540700,164
2014/02/06,163,176,162,173,2132100,173
2014/02/07,174,183,174,181,2881100,181
2014/02/10,184,187,183,184,1768100,184
2014/02/12,184,186,182,184,958500,184
2014/02/13,182,183,177,178,1038200,178
2014/02/14,178,179,169,172,1169900,172
2014/02/17,173,177,171,176,686000,176
2014/02/18,176,180,175,180,733700,180
2014/02/19,179,182,177,181,679600,181
2014/02/20,180,180,174,177,968700,177
2014/02/21,178,180,176,178,315000,178
2014/02/24,178,182,177,178,533400,178
2014/02/25,180,183,179,181,483400,181
2014/02/26,181,184,179,183,711500,183
2014/02/27,183,186,175,175,3678200,175
2014/02/28,178,179,167,169,1972000,169
2014/03/03,165,168,160,166,1481800,166
2014/03/04,164,167,163,165,857300,165
2014/03/05,167,168,166,166,708500,166
2014/03/06,167,172,167,171,764000,171
2014/03/07,173,174,169,171,691400,171
2014/03/10,171,173,169,171,780000,171
2014/03/11,171,172,168,170,647700,170
2014/03/12,169,171,167,169,906800,169
2014/03/13,164,167,162,165,1314200,165
2014/03/14,160,162,158,159,1034100,159
2014/03/17,160,162,157,157,484700,157
2014/03/18,159,161,159,160,317200,160
2014/03/19,161,163,159,160,421300,160
2014/03/20,160,161,152,154,1093500,154
2014/03/24,152,157,152,156,761900,156
2014/03/25,155,155,150,150,777700,150
2014/03/26,152,154,151,153,613200,153
2014/03/27,152,156,149,154,627700,154
2014/03/28,154,159,154,158,551000,158
2014/03/31,159,161,158,161,217000,161
2014/04/01,161,162,159,161,438700,161
2014/04/02,162,165,161,162,717900,162
2014/04/03,164,165,162,163,582500,163
2014/04/04,163,164,161,163,280900,163
2014/04/07,162,162,159,160,351600,160
2014/04/08,159,161,158,160,353300,160
2014/04/09,159,160,157,158,329000,158
2014/04/10,162,163,158,159,456600,159
2014/04/11,158,159,155,158,386800,158
2014/04/14,157,160,157,159,214400,159
2014/04/15,160,164,158,162,509100,162
2014/04/16,163,165,161,164,533900,164
2014/04/17,164,164,162,162,357300,162
2014/04/18,164,165,163,164,324800,164
2014/04/21,165,165,162,163,242700,163
2014/04/22,163,163,161,161,360100,161
2014/04/23,162,165,162,162,376300,162
2014/04/24,162,163,161,161,205200,161
2014/04/25,162,163,160,160,283300,160
2014/04/28,160,165,159,162,493200,162
2014/04/30,162,163,161,162,291300,162
2014/05/01,163,170,162,169,1315800,169
2014/05/02,167,169,166,167,319800,167
2014/05/07,167,168,164,166,317100,166
2014/05/08,166,167,164,164,226300,164
2014/05/09,165,167,163,167,322900,167
2014/05/12,168,168,165,165,154900,165
2014/05/13,166,167,164,164,392600,164
2014/05/14,165,167,163,165,420100,165
2014/05/15,165,166,164,164,171700,164
2014/05/16,164,164,160,161,492200,161
2014/05/19,162,162,155,158,672900,158
2014/05/20,157,160,157,158,217300,158
2014/05/21,157,159,157,157,156500,157
2014/05/22,160,161,159,160,165300,160
2014/05/23,160,163,160,162,152800,162
2014/05/26,163,166,163,165,492700,165
2014/05/27,164,166,164,165,244200,165
2014/05/28,163,165,163,164,385500,164
2014/05/29,164,165,162,165,282000,165
2014/05/30,163,165,163,164,327600,164
2014/06/02,164,169,164,168,632000,168
2014/06/03,169,170,167,167,576900,167
2014/06/04,168,171,167,170,558000,170
2014/06/05,171,172,169,172,630000,172
2014/06/06,173,175,172,174,708900,174
2014/06/09,175,178,175,177,955800,177
2014/06/10,177,177,174,176,835900,176
2014/06/11,175,177,174,177,681000,177
2014/06/12,171,176,169,173,1765700,173
2014/06/13,174,176,173,176,612400,176
2014/06/16,176,176,173,174,561000,174
2014/06/17,175,176,174,176,399000,176
2014/06/18,176,177,174,174,541300,174
2014/06/19,176,178,175,176,980600,176
2014/06/20,177,181,176,180,1204100,180
2014/06/23,182,183,180,181,807000,181
2014/06/24,182,184,180,183,867700,183
2014/06/25,184,184,181,182,875200,182
2014/06/26,182,185,182,185,808100,185
2014/06/27,185,185,182,184,866400,184
2014/06/30,184,191,184,190,2124400,190
2014/07/01,190,193,189,191,1477000,191
2014/07/02,193,193,192,192,675300,192
2014/07/03,193,194,192,193,1000800,193
2014/07/04,193,194,192,193,577700,193
2014/07/07,193,194,192,193,523200,193
2014/07/08,193,194,191,193,569900,193
2014/07/09,192,193,190,191,682500,191
2014/07/10,191,192,185,186,1305700,186
2014/07/11,183,185,182,185,814100,185
2014/07/14,185,188,185,187,396500,187
2014/07/15,188,189,187,188,456200,188
2014/07/16,188,194,187,194,2007100,194
2014/07/17,194,195,188,189,1967100,189
2014/07/18,186,189,185,187,962700,187
2014/07/22,190,192,189,190,831200,190
2014/07/23,190,191,188,189,604400,189
2014/07/24,189,190,188,190,1063400,190
2014/07/25,190,190,187,188,1310200,188
2014/07/28,188,189,186,186,2581600,186
2014/07/29,179,182,177,179,2512200,179
2014/07/30,180,181,178,180,600300,180
2014/07/31,180,180,176,176,707600,176
2014/08/01,176,176,171,176,571700,176
2014/08/04,175,176,174,174,373200,174
2014/08/05,174,175,172,172,444600,172
2014/08/06,172,172,169,171,475800,171
2014/08/07,170,171,169,171,392600,171
2014/08/08,169,170,165,168,628100,168
2014/08/11,170,172,170,172,194700,172
2014/08/12,173,173,170,170,195300,170
2014/08/13,170,173,169,173,255300,173
2014/08/14,172,173,170,173,209100,173
2014/08/15,173,174,171,173,272600,173
2014/08/18,174,180,174,178,544400,178
2014/08/19,179,179,176,177,231800,177
2014/08/20,175,176,173,175,617300,175
2014/08/21,174,175,173,175,280500,175
2014/08/22,172,174,172,174,433800,174
2014/08/25,174,175,172,173,318100,173
2014/08/26,173,173,171,172,195300,172
2014/08/27,171,172,170,172,369500,172
2014/08/28,172,172,170,171,241300,171
2014/08/29,171,172,170,172,191000,172
2014/09/01,172,173,170,171,342500,171
2014/09/02,171,172,170,170,228800,170
2014/09/03,170,172,169,172,452300,172
2014/09/04,172,172,170,170,134600,170
2014/09/05,170,171,170,170,236400,170
2014/09/08,172,175,171,175,451800,175
2014/09/09,174,175,173,173,326500,173
2014/09/10,172,172,168,170,745000,170
2014/09/11,172,173,169,169,583900,169
2014/09/12,173,173,169,169,764200,169
2014/09/16,169,169,165,166,762600,166
2014/09/17,166,167,164,165,857200,165
2014/09/18,165,168,165,168,462900,168
2014/09/19,167,168,167,168,193200,168
2014/09/22,167,168,166,168,255000,168
2014/09/24,168,168,166,168,353500,168
2014/09/25,168,168,166,168,237900,168
2014/09/26,167,170,166,170,373100,170
2014/09/29,171,175,171,175,706500,175
2014/09/30,175,175,170,172,497600,172
2014/10/01,170,177,170,175,1239100,175
2014/10/02,174,178,173,175,1242400,175
2014/10/03,175,178,175,176,545600,176
2014/10/06,178,180,176,180,593200,180
2014/10/07,179,180,174,175,580300,175
2014/10/08,172,175,171,173,263800,173
2014/10/09,174,175,170,170,365400,170
2014/10/10,170,170,168,169,293000,169
2014/10/14,166,170,165,166,369300,166
2014/10/15,168,170,167,170,156800,170
2014/10/16,166,170,164,164,509400,164
2014/10/17,165,167,164,164,267000,164
2014/10/20,168,170,167,169,381500,169
2014/10/21,169,171,168,169,385800,169
2014/10/22,171,178,170,178,746400,178
2014/10/23,177,178,173,175,458600,175
2014/10/24,176,177,170,170,401700,170
2014/10/27,172,173,171,171,143500,171
2014/10/28,173,173,170,172,96900,172
2014/10/29,172,173,171,171,134900,171
2014/10/30,174,174,172,173,135000,173
2014/10/31,173,176,172,175,371100,175
2014/11/04,179,179,175,176,406300,176
2014/11/05,175,176,174,176,190300,176
2014/11/06,176,177,175,176,197500,176
2014/11/07,175,176,174,175,170000,175
2014/11/10,175,176,174,176,124200,176
2014/11/11,175,176,175,176,146300,176
2014/11/12,176,180,175,176,806500,176
2014/11/13,176,177,176,177,214800,177
2014/11/14,177,177,175,177,269000,177
2014/11/17,177,177,175,175,168300,175
2014/11/18,175,176,174,175,270400,175
2014/11/19,175,176,174,174,279100,174
2014/11/20,175,176,174,176,231200,176
2014/11/21,176,176,174,175,222500,175
2014/11/25,176,176,174,174,375900,174
2014/11/26,175,176,174,175,195700,175
2014/11/27,176,180,175,179,618600,179
2014/11/28,180,180,178,178,340400,178
2014/12/01,179,180,178,178,206600,178
2014/12/02,179,179,178,178,197000,178
2014/12/03,180,183,179,179,1154600,179
2014/12/04,181,182,179,181,495300,181
2014/12/05,180,181,179,179,394100,179
2014/12/08,180,181,179,179,419900,179
2014/12/09,178,180,178,180,220000,180
2014/12/10,179,179,178,178,335000,178
2014/12/11,180,181,177,179,1005000,179
2014/12/12,181,181,179,180,326700,180
2014/12/15,180,180,178,178,224200,178
2014/12/16,178,179,175,175,327500,175
2014/12/17,173,176,173,175,294100,175
2014/12/18,176,177,175,175,192400,175
2014/12/19,177,177,175,177,314900,177
2014/12/22,177,178,176,177,365400,177
2014/12/24,177,178,177,177,243200,177
2014/12/25,178,178,176,177,322000,177
2014/12/26,178,180,177,180,399300,180
2014/12/29,181,183,179,180,704900,180
2014/12/30,180,182,179,182,535700,182
2015/01/05,182,186,181,183,1082400,183
2015/01/06,181,182,179,181,774400,181
2015/01/07,180,181,180,180,294700,180
2015/01/08,181,181,180,181,268800,181
2015/01/09,181,182,179,179,460400,179
2015/01/13,179,181,179,180,308700,180
2015/01/14,180,183,179,181,724500,181
2015/01/15,179,181,179,180,457200,180
2015/01/16,178,178,176,177,631400,177
2015/01/19,180,180,177,179,267300,179
2015/01/20,179,180,178,180,252600,180
2015/01/21,179,180,178,178,306800,178
2015/01/22,179,180,178,178,352600,178
2015/01/23,178,178,175,177,754000,177
2015/01/26,177,178,176,176,584000,176
2015/01/27,176,177,175,176,2612300,176
2015/01/28,172,176,171,174,1389000,174
2015/01/29,174,175,172,173,435500,173
2015/01/30,172,174,172,174,340400,174
2015/02/02,174,175,173,173,423600,173
2015/02/03,175,175,172,173,310100,173
2015/02/04,173,174,172,173,437800,173
2015/02/05,173,174,172,173,151800,173
2015/02/06,174,174,172,173,178200,173
2015/02/09,173,174,171,172,283100,172
2015/02/10,171,173,170,171,423000,171
2015/02/12,171,172,171,171,142600,171
2015/02/13,172,172,170,170,394600,170
2015/02/16,171,172,170,171,180600,171
2015/02/17,171,172,171,171,275900,171
2015/02/18,171,173,171,173,254100,173
2015/02/19,173,177,172,177,750400,177
2015/02/20,175,176,175,176,211300,176
2015/02/23,177,177,175,177,383300,177
2015/02/24,177,178,175,177,463200,177
2015/02/25,177,177,176,177,215900,177
2015/02/26,177,178,176,177,287000,177
2015/02/27,177,178,176,177,391500,177
2015/03/02,178,180,178,180,765500,180
2015/03/03,179,180,177,179,527800,179
2015/03/04,179,179,177,178,341100,178
2015/03/05,178,179,178,179,170700,179
2015/03/06,179,182,178,178,1317400,178
2015/03/09,178,179,177,178,358700,178
2015/03/10,178,181,178,181,538700,181
2015/03/11,180,182,179,181,610500,181
2015/03/12,180,180,178,178,672100,178
2015/03/13,178,185,178,183,1459800,183
2015/03/16,184,190,183,189,2551100,189
2015/03/17,191,192,186,187,1975700,187
2015/03/18,188,190,187,189,1482100,189
2015/03/19,189,190,188,189,343100,189
2015/03/20,189,200,189,196,4293700,196
2015/03/23,198,200,191,198,2414300,198
2015/03/24,201,207,199,206,4662700,206
2015/03/25,203,205,199,204,2530500,204
2015/03/26,201,203,197,200,814200,200
2015/03/27,198,203,197,198,1047800,198
2015/03/30,198,200,196,199,437100,199
2015/03/31,199,200,197,199,429300,199
2015/04/01,197,205,197,204,1737700,204
2015/04/02,203,204,200,202,624100,202
2015/04/03,202,203,199,203,761600,203
2015/04/06,202,214,202,213,3527500,213
2015/04/07,210,213,208,212,1415400,212
2015/04/08,211,216,204,204,2526000,204
2015/04/09,205,213,205,213,1073100,213
2015/04/10,212,213,209,210,487800,210
2015/04/13,211,212,209,211,776400,211
2015/04/14,211,212,210,211,353100,211
2015/04/15,211,211,209,210,245000,210
2015/04/16,210,210,206,209,470000,209
2015/04/17,209,209,204,206,499200,206
2015/04/20,204,208,204,207,397600,207
2015/04/21,207,208,206,207,287600,207
2015/04/22,205,206,202,202,536200,202
2015/04/23,203,205,203,204,233300,204
2015/04/24,206,208,206,207,496800,207
2015/04/27,206,208,206,206,155600,206
2015/04/28,205,206,202,202,766800,202
2015/04/30,202,205,201,204,389300,204
2015/05/01,202,202,200,201,222600,201
2015/05/07,201,201,199,199,215200,199
2015/05/08,200,205,199,204,342800,204
2015/05/11,205,207,203,205,240900,205
2015/05/12,205,206,204,205,117700,205
2015/05/13,204,205,203,203,114300,203
2015/05/14,204,205,203,204,264100,204
2015/05/15,204,205,203,204,189800,204
2015/05/18,204,204,202,203,134200,203
2015/05/19,203,210,203,208,708500,208
2015/05/20,208,209,206,207,168200,207
2015/05/21,208,209,205,205,179000,205
2015/05/22,205,205,204,205,153700,205
2015/05/25,205,206,204,205,134500,205
2015/05/26,206,208,205,206,232800,206
2015/05/27,206,207,205,206,192400,206
2015/05/28,206,208,206,206,117000,206
2015/05/29,208,208,206,206,167900,206
2015/06/01,207,207,203,203,674100,203
2015/06/02,204,205,203,203,123500,203
2015/06/03,204,205,203,203,129400,203
2015/06/04,204,206,204,204,196900,204
2015/06/05,204,206,204,205,118400,205
2015/06/08,206,209,206,209,285700,209
2015/06/09,209,209,205,205,389700,205
2015/06/10,208,209,206,206,435500,206
2015/06/11,213,216,206,209,1840400,209
2015/06/12,210,210,206,206,547300,206
2015/06/15,207,209,206,209,257300,209
2015/06/16,209,209,206,206,280300,206
2015/06/17,206,208,204,204,339600,204
2015/06/18,204,204,202,203,391900,203
2015/06/19,204,205,202,202,270000,202
2015/06/22,204,205,203,205,161300,205
2015/06/23,206,207,205,205,207800,205
2015/06/24,206,207,205,206,222700,206
2015/06/25,206,207,204,204,422100,204
2015/06/26,205,206,204,205,326800,205
2015/06/29,204,205,199,201,654500,201
2015/06/30,203,203,201,202,265300,202
2015/07/01,203,205,202,205,254600,205
2015/07/02,205,209,204,207,404900,207
2015/07/03,208,208,203,203,588500,203
2015/07/06,203,205,202,203,351000,203
2015/07/07,204,209,203,206,484500,206
2015/07/08,207,207,202,202,570200,202
2015/07/09,200,200,192,200,999600,200
2015/07/10,199,200,196,198,478900,198
2015/07/13,201,203,200,203,172500,203
2015/07/14,203,206,203,206,380900,206
2015/07/15,205,206,204,205,151300,205
2015/07/16,204,205,204,205,173800,205
2015/07/17,204,206,204,206,185000,206
2015/07/21,207,210,207,209,774500,209
2015/07/22,208,208,205,207,509400,207
2015/07/23,208,208,206,207,291900,207
2015/07/24,207,207,205,206,522200,206
2015/07/27,207,207,204,205,1010000,205
2015/07/28,204,206,203,204,1598600,204
2015/07/29,200,202,199,202,1073000,202
2015/07/30,201,202,199,200,421400,200
2015/07/31,199,200,198,199,304100,199
2015/08/03,199,200,198,200,271800,200
2015/08/04,199,200,198,199,153500,199
2015/08/05,200,200,198,199,138700,199
2015/08/06,199,199,198,199,164700,199
2015/08/07,199,199,198,199,110500,199
2015/08/10,198,199,197,198,239000,198
2015/08/11,198,199,193,197,662900,197
2015/08/12,196,197,193,196,565300,196
2015/08/13,195,196,193,193,282300,193
2015/08/14,194,197,194,196,198200,196
2015/08/17,197,199,195,197,169800,197
2015/08/18,198,200,197,198,260100,198
2015/08/19,198,198,195,195,327900,195
2015/08/20,196,196,194,194,179800,194
2015/08/21,189,190,185,186,1063500,186
2015/08/24,180,186,171,172,1062400,172
2015/08/25,163,178,161,166,1084500,166
2015/08/26,170,179,167,179,405100,179
2015/08/27,180,183,178,179,284000,179
2015/08/28,183,186,182,185,324700,185
2015/08/31,186,187,184,187,333400,187
2015/09/01,187,188,178,179,337500,179
2015/09/02,175,182,173,178,295500,178
2015/09/03,183,184,177,178,175200,178
2015/09/04,179,179,174,176,358600,176
2015/09/07,175,178,172,176,266800,176
2015/09/08,183,183,177,177,332600,177
2015/09/09,182,183,180,183,247700,183
2015/09/10,185,187,183,187,451700,187
2015/09/11,187,191,187,188,754500,188
2015/09/14,190,191,186,187,443800,187
2015/09/15,189,191,188,190,379700,190
2015/09/16,189,190,188,188,158400,188
2015/09/17,189,190,182,189,320500,189
2015/09/18,188,191,187,191,373500,191
2015/09/24,189,191,186,186,204300,186
2015/09/25,186,190,185,188,270300,188
2015/09/28,189,190,187,190,129200,190
2015/09/29,187,188,184,184,219400,184
2015/09/30,187,188,184,188,124700,188
2015/10/01,188,191,187,190,283000,190
2015/10/02,190,191,188,189,253800,189
2015/10/05,189,194,189,194,554000,194
2015/10/06,194,200,193,200,728700,200
2015/10/07,200,200,197,199,500600,199
2015/10/08,200,200,199,200,192400,200
2015/10/09,200,201,199,201,439800,201
2015/10/13,201,206,199,206,1004100,206
2015/10/14,205,207,203,203,634900,203
2015/10/15,201,206,200,205,609900,205
2015/10/16,205,206,203,203,310700,203
