2010/01/04,386,393,386,388,373000,388
2010/01/05,394,394,388,390,428000,390
2010/01/06,390,391,384,388,366000,388
2010/01/07,389,390,387,389,270000,389
2010/01/08,392,398,390,395,837000,395
2010/01/12,400,421,398,421,2746000,421
2010/01/13,417,420,410,411,855000,411
2010/01/14,412,416,409,415,620000,415
2010/01/15,417,422,412,419,1098000,419
2010/01/18,416,416,411,412,322000,412
2010/01/19,412,412,405,406,399000,406
2010/01/20,406,406,401,403,495000,403
2010/01/21,398,406,393,404,464000,404
2010/01/22,394,399,392,398,477000,398
2010/01/25,392,396,389,393,461000,393
2010/01/26,391,392,380,381,844000,381
2010/01/27,378,381,373,374,581000,374
2010/01/28,373,373,368,371,371000,371
2010/01/29,368,371,367,369,373000,369
2010/02/01,364,367,359,360,420000,360
2010/02/02,368,392,366,391,1853000,391
2010/02/03,390,408,388,405,1600000,405
2010/02/04,403,420,394,404,2805000,404
2010/02/05,386,396,382,382,1492000,382
2010/02/08,380,392,380,381,2862000,381
2010/02/09,377,377,367,369,1601000,369
2010/02/10,371,379,368,371,2300000,371
2010/02/12,370,373,363,367,827000,367
2010/02/15,366,367,361,361,799000,361
2010/02/16,361,363,353,354,1079000,354
2010/02/17,362,372,357,364,2450000,364
2010/02/18,364,365,360,362,582000,362
2010/02/19,362,368,357,357,845000,357
2010/02/22,362,367,360,362,720000,362
2010/02/23,360,364,359,360,469000,360
2010/02/24,356,359,354,354,712000,354
2010/02/25,356,358,351,352,626000,352
2010/02/26,350,352,348,348,708000,348
2010/03/01,347,354,347,348,646000,348
2010/03/02,349,352,349,350,368000,350
2010/03/03,351,355,351,352,404000,352
2010/03/04,353,356,349,349,503000,349
2010/03/05,354,356,351,353,634000,353
2010/03/08,357,358,354,357,489000,357
2010/03/09,359,359,355,355,452000,355
2010/03/10,355,356,353,354,532000,354
2010/03/11,357,371,356,370,1603000,370
2010/03/12,370,370,364,367,854000,367
2010/03/15,368,369,364,365,739000,365
2010/03/16,365,365,361,361,581000,361
2010/03/17,362,364,360,362,863000,362
2010/03/18,363,364,362,364,512000,364
2010/03/19,365,366,363,365,579000,365
2010/03/23,367,369,357,360,1109000,360
2010/03/24,360,362,353,354,1193000,354
2010/03/25,354,356,352,355,710000,355
2010/03/26,354,360,354,360,950000,360
2010/03/29,356,364,355,362,924000,362
2010/03/30,366,372,365,372,1078000,372
2010/03/31,372,373,367,370,1069000,370
2010/04/01,370,373,368,371,756000,371
2010/04/02,374,374,370,372,559000,372
2010/04/05,374,375,370,371,525000,371
2010/04/06,371,373,365,367,906000,367
2010/04/07,367,372,366,371,609000,371
2010/04/08,369,373,366,367,825000,367
2010/04/09,367,372,367,371,509000,371
2010/04/12,375,377,372,372,1029000,372
2010/04/13,374,374,365,367,967000,367
2010/04/14,369,369,366,367,633000,367
2010/04/15,370,371,367,371,596000,371
2010/04/16,369,370,365,365,559000,365
2010/04/19,359,361,358,358,571000,358
2010/04/20,360,361,356,356,478000,356
2010/04/21,359,364,359,364,490000,364
2010/04/22,364,364,357,360,761000,360
2010/04/23,364,365,359,365,485000,365
2010/04/26,366,370,366,368,516000,368
2010/04/27,369,372,366,371,568000,371
2010/04/28,365,366,362,362,562000,362
2010/04/30,365,368,364,368,475000,368
2010/05/06,361,362,356,360,763000,360
2010/05/07,344,347,338,342,1162000,342
2010/05/10,341,379,341,376,3432000,376
2010/05/11,377,377,367,368,1936000,368
2010/05/12,370,372,366,369,671000,369
2010/05/13,370,373,368,372,698000,372
2010/05/14,368,380,367,377,1137000,377
2010/05/17,375,375,365,370,604000,370
2010/05/18,373,373,361,364,788000,364
2010/05/19,360,360,353,360,624000,360
2010/05/20,355,361,355,356,443000,356
2010/05/21,345,348,341,344,936000,344
2010/05/24,344,348,341,345,623000,345
2010/05/25,346,346,338,339,620000,339
2010/05/26,346,351,344,346,1419000,346
2010/05/27,344,348,340,347,1447000,347
2010/05/28,352,355,350,353,923000,353
2010/05/31,353,365,352,363,795000,363
2010/06/01,363,364,358,358,749000,358
2010/06/02,362,374,359,369,1386000,369
2010/06/03,373,376,371,376,940000,376
2010/06/04,376,383,375,380,1317000,380
2010/06/07,374,374,369,369,849000,369
2010/06/08,369,381,369,379,1167000,379
2010/06/09,378,380,374,376,808000,376
2010/06/10,377,385,374,384,795000,384
2010/06/11,389,390,385,388,929000,388
2010/06/14,389,393,389,392,626000,392
2010/06/15,390,392,387,392,650000,392
2010/06/16,393,395,392,394,478000,394
2010/06/17,394,394,390,393,491000,393
2010/06/18,393,397,387,389,1106000,389
2010/06/21,391,394,389,390,377000,390
2010/06/22,382,384,380,381,581000,381
2010/06/23,379,379,374,376,625000,376
2010/06/24,372,377,371,375,445000,375
2010/06/25,373,373,368,369,383000,369
2010/06/28,366,369,362,363,339000,363
2010/06/29,360,365,354,355,473000,355
2010/06/30,351,356,347,354,455000,354
2010/07/01,354,354,349,350,348000,350
2010/07/02,347,353,345,350,562000,350
2010/07/05,353,358,352,356,311000,356
2010/07/06,351,359,350,358,418000,358
2010/07/07,359,359,355,357,282000,357
2010/07/08,363,367,363,364,364000,364
2010/07/09,366,373,363,370,435000,370
2010/07/12,380,383,371,372,806000,372
2010/07/13,373,373,366,371,430000,371
2010/07/14,375,377,371,376,467000,376
2010/07/15,370,374,366,369,476000,369
2010/07/16,366,366,355,356,332000,356
2010/07/20,352,358,350,355,222000,355
2010/07/21,357,359,351,353,265000,353
2010/07/22,351,353,350,352,220000,352
2010/07/23,359,360,349,350,484000,350
2010/07/26,355,357,354,354,123000,354
2010/07/27,355,357,352,354,291000,354
2010/07/28,357,363,357,363,205000,363
2010/07/29,357,362,357,360,169000,360
2010/07/30,359,359,353,356,282000,356
2010/08/02,354,358,351,352,205000,352
2010/08/03,356,357,353,357,193000,357
2010/08/04,360,367,354,365,1171000,365
2010/08/05,368,370,364,365,536000,365
2010/08/06,364,368,363,366,331000,366
2010/08/09,359,362,356,359,387000,359
2010/08/10,359,361,350,351,530000,351
2010/08/11,347,348,344,344,221000,344
2010/08/12,338,340,334,339,428000,339
2010/08/13,337,343,336,341,215000,341
2010/08/16,338,342,337,340,140000,340
2010/08/17,336,342,336,342,158000,342
2010/08/18,345,347,340,343,260000,343
2010/08/19,342,344,339,340,239000,340
2010/08/20,337,341,337,338,210000,338
2010/08/23,339,343,337,339,285000,339
2010/08/24,340,347,340,346,673000,346
2010/08/25,345,347,343,346,377000,346
2010/08/26,346,347,341,345,447000,345
2010/08/27,342,353,342,353,405000,353
2010/08/30,354,357,353,355,403000,355
2010/08/31,347,350,345,346,301000,346
2010/09/01,347,347,344,347,401000,347
2010/09/02,349,350,340,344,421000,344
2010/09/03,345,350,345,350,238000,350
2010/09/06,352,357,350,357,246000,357
2010/09/07,354,357,353,355,197000,355
2010/09/08,347,349,346,349,171000,349
2010/09/09,350,355,350,353,327000,353
2010/09/10,357,359,354,355,394000,355
2010/09/13,357,359,355,358,169000,358
2010/09/14,355,358,353,355,182000,355
2010/09/15,354,360,352,358,175000,358
2010/09/16,360,360,356,358,102000,358
2010/09/17,358,362,358,362,198000,362
2010/09/21,364,366,359,359,281000,359
2010/09/22,363,364,361,363,172000,363
2010/09/24,364,368,361,362,392000,362
2010/09/27,367,371,364,371,475000,371
2010/09/28,369,374,367,370,367000,370
2010/09/29,368,373,368,372,209000,372
2010/09/30,370,373,365,367,144000,367
2010/10/01,366,369,363,364,303000,364
2010/10/04,364,371,364,367,306000,367
2010/10/05,368,370,363,369,364000,369
2010/10/06,369,371,367,371,374000,371
2010/10/07,370,373,368,373,262000,373
2010/10/08,369,375,369,373,270000,373
2010/10/12,374,375,362,362,235000,362
2010/10/13,362,370,362,363,258000,363
2010/10/14,367,371,365,369,144000,369
2010/10/15,366,367,365,366,133000,366
2010/10/18,364,370,353,366,249000,366
2010/10/19,363,371,363,369,173000,369
2010/10/20,363,366,360,363,188000,363
2010/10/21,366,366,360,363,266000,363
2010/10/22,357,367,357,365,209000,365
2010/10/25,368,369,362,368,175000,368
2010/10/26,365,367,361,364,232000,364
2010/10/27,362,364,358,360,253000,360
2010/10/28,358,371,356,370,682000,370
2010/10/29,367,374,367,371,812000,371
2010/11/01,367,368,363,366,319000,366
2010/11/02,364,370,363,367,357000,367
2010/11/04,370,373,359,363,798000,363
2010/11/05,364,366,360,361,540000,361
2010/11/08,363,364,360,362,352000,362
2010/11/09,362,366,361,365,374000,365
2010/11/10,362,367,360,362,406000,362
2010/11/11,362,363,360,361,392000,361
2010/11/12,360,364,360,361,319000,361
2010/11/15,361,362,359,359,259000,359
2010/11/16,359,360,350,355,330000,355
2010/11/17,354,357,352,356,290000,356
2010/11/18,356,361,354,360,303000,360
2010/11/19,362,363,358,360,335000,360
2010/11/22,360,360,357,359,354000,359
2010/11/24,359,359,354,356,422000,356
2010/11/25,358,366,356,364,475000,364
2010/11/26,365,367,361,361,247000,361
2010/11/29,365,367,362,363,321000,363
2010/11/30,366,372,364,364,934000,364
2010/12/01,363,364,361,363,330000,363
2010/12/02,368,369,366,368,412000,368
2010/12/03,369,370,367,370,249000,370
2010/12/06,372,374,371,373,336000,373
2010/12/07,373,373,369,372,222000,372
2010/12/08,373,373,370,373,289000,373
2010/12/09,373,375,372,374,226000,374
2010/12/10,376,376,373,374,576000,374
2010/12/13,378,379,373,378,561000,378
2010/12/14,381,385,380,384,599000,384
2010/12/15,388,389,387,389,474000,389
2010/12/16,386,393,386,390,528000,390
2010/12/17,389,398,389,396,783000,396
2010/12/20,393,396,390,391,389000,391
2010/12/21,410,416,403,407,1931000,407
2010/12/22,404,407,398,400,1012000,400
2010/12/24,397,398,393,396,521000,396
2010/12/27,391,396,391,393,404000,393
2010/12/28,393,402,393,399,763000,399
2010/12/29,400,402,399,401,390000,401
2010/12/30,400,400,397,397,298000,397
2011/01/04,400,413,400,411,1293000,411
2011/01/05,412,416,411,416,880000,416
2011/01/06,417,419,415,417,808000,417
2011/01/07,419,422,417,418,1032000,418
2011/01/11,418,426,418,423,887000,423
2011/01/12,426,430,425,425,841000,425
2011/01/13,429,431,425,429,634000,429
2011/01/14,430,434,426,431,914000,431
2011/01/17,435,438,430,432,960000,432
2011/01/18,432,437,427,436,459000,436
2011/01/19,436,447,436,447,901000,447
2011/01/20,445,452,444,444,888000,444
2011/01/21,441,441,424,425,1148000,425
2011/01/24,430,432,425,430,362000,430
2011/01/25,433,444,431,440,652000,440
2011/01/26,439,444,436,436,634000,436
2011/01/27,436,441,432,440,508000,440
2011/01/28,441,441,432,433,367000,433
2011/01/31,421,433,421,428,312000,428
2011/02/01,429,432,428,431,294000,431
2011/02/02,436,444,435,440,538000,440
2011/02/03,435,443,435,441,338000,441
2011/02/04,445,453,435,443,1689000,443
2011/02/07,443,443,428,432,1423000,432
2011/02/08,433,434,425,426,934000,426
2011/02/09,429,431,424,426,326000,426
2011/02/10,427,431,424,425,479000,425
2011/02/14,426,427,419,421,598000,421
2011/02/15,422,426,422,426,361000,426
2011/02/16,423,424,420,421,529000,421
2011/02/17,421,425,421,425,466000,425
2011/02/18,424,424,421,422,307000,422
2011/02/21,423,423,419,421,348000,421
2011/02/22,417,418,411,411,326000,411
2011/02/23,411,419,411,415,664000,415
2011/02/24,414,414,403,406,485000,406
2011/02/25,402,410,401,409,524000,409
2011/02/28,408,415,405,414,317000,414
2011/03/01,416,418,413,415,410000,415
2011/03/02,407,410,406,406,350000,406
2011/03/03,409,413,408,411,268000,411
2011/03/04,409,417,409,411,428000,411
2011/03/07,412,412,403,404,258000,404
2011/03/08,403,408,403,404,257000,404
2011/03/09,406,409,405,406,240000,406
2011/03/10,403,404,397,397,333000,397
2011/03/11,393,394,389,389,755000,389
2011/03/14,349,373,343,358,858000,358
2011/03/15,342,347,278,302,1187000,302
2011/03/16,304,328,304,326,897000,326
2011/03/17,305,330,300,321,842000,321
2011/03/18,322,342,322,338,926000,338
2011/03/22,362,365,356,361,552000,361
2011/03/23,360,363,354,356,422000,356
2011/03/24,358,361,357,358,324000,358
2011/03/25,362,362,356,359,323000,359
2011/03/28,362,362,356,362,280000,362
2011/03/29,358,365,355,363,402000,363
2011/03/30,363,379,362,379,519000,379
2011/03/31,378,380,372,380,314000,380
2011/04/01,374,378,372,372,312000,372
2011/04/04,371,372,364,367,244000,367
2011/04/05,368,368,353,357,292000,357
2011/04/06,355,358,347,352,329000,352
2011/04/07,350,355,346,346,304000,346
2011/04/08,343,354,342,351,319000,351
2011/04/11,349,357,349,351,232000,351
2011/04/12,348,351,344,345,221000,345
2011/04/13,345,351,345,348,229000,348
2011/04/14,349,354,347,351,235000,351
2011/04/15,351,353,347,349,318000,349
2011/04/18,345,350,345,347,159000,347
2011/04/19,345,347,344,345,150000,345
2011/04/20,347,351,347,350,154000,350
2011/04/21,351,353,344,347,274000,347
2011/04/22,343,348,343,348,165000,348
2011/04/25,349,352,346,346,221000,346
2011/04/26,345,347,344,344,204000,344
2011/04/27,343,350,343,349,338000,349
2011/04/28,349,355,348,354,245000,354
2011/05/02,356,363,355,362,200000,362
2011/05/06,357,357,353,356,256000,356
2011/05/09,356,356,352,354,178000,354
2011/05/10,355,363,353,359,593000,359
2011/05/11,360,363,356,356,319000,356
2011/05/12,353,357,351,351,193000,351
2011/05/13,350,350,341,343,336000,343
2011/05/16,341,344,340,340,197000,340
2011/05/17,341,342,339,340,265000,340
2011/05/18,340,348,340,345,214000,345
2011/05/19,344,345,340,340,206000,340
2011/05/20,340,342,339,340,253000,340
2011/05/23,340,342,336,340,240000,340
2011/05/24,339,341,338,340,203000,340
2011/05/25,341,341,336,337,163000,337
2011/05/26,339,341,336,339,305000,339
2011/05/27,337,342,337,340,183000,340
2011/05/30,337,345,337,342,220000,342
2011/05/31,339,348,339,347,222000,347
2011/06/01,343,350,342,350,333000,350
2011/06/02,344,348,343,347,214000,347
2011/06/03,345,346,341,341,191000,341
2011/06/06,341,341,336,337,194000,337
2011/06/07,336,341,336,339,212000,339
2011/06/08,337,341,337,340,120000,340
2011/06/09,339,339,337,338,107000,338
2011/06/10,338,343,337,337,362000,337
2011/06/13,336,338,336,337,91000,337
2011/06/14,336,341,335,340,172000,340
2011/06/15,341,342,340,340,144000,340
2011/06/16,337,340,336,336,138000,336
2011/06/17,336,337,330,332,260000,332
2011/06/20,331,335,331,332,113000,332
2011/06/21,336,336,331,332,214000,332
2011/06/22,334,342,334,340,267000,340
2011/06/23,338,342,337,337,142000,337
2011/06/24,341,347,339,347,454000,347
2011/06/27,343,345,340,340,234000,340
2011/06/28,341,342,339,341,147000,341
2011/06/29,344,345,340,344,178000,344
2011/06/30,347,352,341,352,338000,352
2011/07/01,353,358,353,353,241000,353
2011/07/04,358,362,358,360,237000,360
2011/07/05,360,362,357,359,201000,359
2011/07/06,356,362,356,362,182000,362
2011/07/07,363,364,361,362,188000,362
2011/07/08,363,364,360,363,149000,363
2011/07/11,359,363,359,362,188000,362
2011/07/12,363,364,357,358,284000,358
2011/07/13,360,364,360,362,313000,362
2011/07/14,359,362,358,359,163000,359
2011/07/15,357,361,357,360,212000,360
2011/07/19,360,365,358,362,202000,362
2011/07/20,366,366,362,362,146000,362
2011/07/21,363,363,358,359,116000,359
2011/07/22,360,362,358,362,171000,362
2011/07/25,365,365,360,360,152000,360
2011/07/26,362,364,359,363,94000,363
2011/07/27,361,362,357,358,179000,358
2011/07/28,356,358,353,355,164000,355
2011/07/29,354,356,351,351,113000,351
2011/08/01,351,355,351,354,129000,354
2011/08/02,354,354,350,351,165000,351
2011/08/03,348,386,342,381,2115000,381
2011/08/04,380,381,375,376,1142000,376
2011/08/05,365,366,359,362,805000,362
2011/08/08,360,363,357,360,551000,360
2011/08/09,356,358,343,351,1020000,351
2011/08/10,357,359,350,354,670000,354
2011/08/11,346,355,346,354,526000,354
2011/08/12,360,365,355,357,631000,357
2011/08/15,363,363,356,360,350000,360
2011/08/16,363,366,362,364,398000,364
2011/08/17,361,374,361,369,628000,369
2011/08/18,369,371,365,367,470000,367
2011/08/19,361,364,360,361,331000,361
2011/08/22,361,363,355,356,456000,356
2011/08/23,358,360,354,356,346000,356
2011/08/24,359,361,351,352,436000,352
2011/08/25,359,363,357,360,334000,360
2011/08/26,360,366,360,366,412000,366
2011/08/29,366,370,364,368,285000,368
2011/08/30,370,374,370,373,319000,373
2011/08/31,373,377,371,375,274000,375
2011/09/01,376,382,376,381,329000,381
2011/09/02,380,386,377,385,555000,385
2011/09/05,385,385,378,380,272000,380
2011/09/06,379,379,374,378,436000,378
2011/09/07,381,392,380,391,451000,391
2011/09/08,395,395,391,394,383000,394
2011/09/09,392,395,391,394,462000,394
2011/09/12,390,390,387,388,320000,388
2011/09/13,388,398,388,396,359000,396
2011/09/14,398,401,388,391,745000,391
2011/09/15,392,397,392,397,302000,397
2011/09/16,398,404,397,404,430000,404
2011/09/20,404,405,399,403,380000,403
2011/09/21,405,405,397,401,378000,401
2011/09/22,397,397,380,386,503000,386
2011/09/26,385,385,376,378,396000,378
2011/09/27,383,396,382,396,297000,396
2011/09/28,396,404,394,403,333000,403
2011/09/29,400,407,398,407,261000,407
2011/09/30,407,407,395,407,392000,407
2011/10/03,400,409,399,405,557000,405
2011/10/04,402,402,395,396,463000,396
2011/10/05,396,396,384,386,617000,386
2011/10/06,390,398,390,396,304000,396
2011/10/07,396,402,396,401,343000,401
2011/10/11,401,406,400,400,440000,400
2011/10/12,398,402,393,399,613000,399
2011/10/13,399,402,397,400,373000,400
2011/10/14,398,398,390,390,429000,390
2011/10/17,394,404,392,400,420000,400
2011/10/18,396,398,391,391,243000,391
2011/10/19,394,396,385,389,299000,389
2011/10/20,389,389,382,385,269000,385
2011/10/21,382,386,379,379,235000,379
2011/10/24,383,385,378,383,238000,383
2011/10/25,379,383,370,372,630000,372
2011/10/26,367,373,365,370,394000,370
2011/10/27,364,373,362,371,587000,371
2011/10/28,381,381,372,375,739000,375
2011/10/31,369,379,369,371,446000,371
2011/11/01,363,371,363,369,356000,369
2011/11/02,362,370,358,363,636000,363
2011/11/04,365,366,356,356,496000,356
2011/11/07,353,363,351,363,271000,363
2011/11/08,363,363,356,359,246000,359
2011/11/09,363,365,359,364,249000,364
2011/11/10,352,359,352,355,219000,355
2011/11/11,355,357,352,354,175000,354
2011/11/14,360,361,355,358,195000,358
2011/11/15,359,365,358,363,293000,363
2011/11/16,365,366,363,364,238000,364
2011/11/17,361,374,361,372,433000,372
2011/11/18,365,378,365,377,370000,377
2011/11/21,378,387,378,383,415000,383
2011/11/22,380,390,380,387,358000,387
2011/11/24,385,390,381,384,353000,384
2011/11/25,386,389,379,379,282000,379
2011/11/28,380,386,379,383,244000,383
2011/11/29,383,388,381,388,437000,388
2011/11/30,388,388,380,387,310000,387
2011/12/01,390,390,384,387,433000,387
2011/12/02,388,395,385,395,324000,395
2011/12/05,397,397,390,393,189000,393
2011/12/06,389,390,385,385,199000,385
2011/12/07,384,389,382,387,173000,387
2011/12/08,393,393,383,385,322000,385
2011/12/09,378,382,378,380,392000,380
2011/12/12,387,392,384,387,302000,387
2011/12/13,383,389,383,387,212000,387
2011/12/14,385,389,382,388,172000,388
2011/12/15,389,389,380,381,254000,381
2011/12/16,381,383,377,377,189000,377
2011/12/19,373,376,367,374,264000,374
2011/12/20,374,379,374,378,226000,378
2011/12/21,384,388,382,385,181000,385
2011/12/22,385,386,381,382,226000,382
2011/12/26,389,389,381,383,96000,383
2011/12/27,379,384,376,383,202000,383
2011/12/28,382,388,382,383,166000,383
2011/12/29,381,384,378,382,147000,382
2011/12/30,383,393,381,393,177000,393
2012/01/04,394,399,393,397,282000,397
2012/01/05,396,396,390,392,199000,392
2012/01/06,390,391,385,389,134000,389
2012/01/10,393,394,386,389,337000,389
2012/01/11,388,389,384,385,173000,385
2012/01/12,385,385,381,382,184000,382
2012/01/13,386,389,383,388,208000,388
2012/01/16,383,385,380,385,105000,385
2012/01/17,384,386,379,384,192000,384
2012/01/18,385,390,384,386,187000,386
2012/01/19,387,389,386,389,172000,389
2012/01/20,390,395,388,393,271000,393
2012/01/23,394,394,388,392,110000,392
2012/01/24,393,393,387,389,133000,389
2012/01/25,391,396,391,396,245000,396
2012/01/26,393,394,392,393,140000,393
2012/01/27,393,394,390,392,91000,392
2012/01/30,390,395,388,390,206000,390
2012/01/31,389,391,384,387,163000,387
2012/02/01,388,394,386,392,282000,392
2012/02/02,392,394,391,393,213000,393
2012/02/03,391,402,391,400,456000,400
2012/02/06,406,407,400,405,345000,405
2012/02/07,402,405,401,403,152000,403
2012/02/08,402,404,401,403,188000,403
2012/02/09,400,403,400,403,164000,403
2012/02/10,402,402,392,393,399000,393
2012/02/13,395,398,395,398,222000,398
2012/02/14,396,400,394,399,112000,399
2012/02/15,398,402,397,401,249000,401
2012/02/16,399,402,399,399,127000,399
2012/02/17,400,403,399,402,227000,402
2012/02/20,401,412,399,404,819000,404
2012/02/21,401,405,401,404,231000,404
2012/02/22,405,408,403,407,313000,407
2012/02/23,406,408,405,406,203000,406
2012/02/24,408,408,403,404,202000,404
2012/02/27,403,404,400,402,305000,402
2012/02/28,401,406,400,404,348000,404
2012/02/29,401,405,399,400,374000,400
2012/03/01,401,403,396,400,376000,400
2012/03/02,403,407,400,407,339000,407
2012/03/05,408,408,402,403,189000,403
2012/03/06,403,405,400,402,171000,402
2012/03/07,398,404,396,403,240000,403
2012/03/08,404,407,402,404,215000,404
2012/03/09,406,407,403,404,458000,404
2012/03/12,405,405,401,402,130000,402
2012/03/13,401,404,399,399,155000,399
2012/03/14,402,405,399,404,364000,404
2012/03/15,405,410,403,406,261000,406
2012/03/16,406,408,403,404,254000,404
2012/03/19,405,408,404,406,228000,406
2012/03/21,405,407,404,404,140000,404
2012/03/22,403,407,402,405,144000,405
2012/03/23,406,406,402,405,175000,405
2012/03/26,406,406,400,401,192000,401
2012/03/27,404,409,401,409,323000,409
2012/03/28,405,405,400,402,227000,402
2012/03/29,400,405,399,403,140000,403
2012/03/30,405,406,402,403,191000,403
2012/04/02,405,406,398,401,285000,401
2012/04/03,400,402,398,400,115000,400
2012/04/04,398,399,393,394,227000,394
2012/04/05,392,394,391,393,169000,393
2012/04/06,391,392,387,392,184000,392
2012/04/09,385,391,385,388,138000,388
2012/04/10,387,389,385,385,140000,385
2012/04/11,383,384,378,382,216000,382
2012/04/12,388,393,383,391,193000,391
2012/04/13,388,390,386,388,163000,388
2012/04/16,382,390,382,387,121000,387
2012/04/17,385,388,383,386,143000,386
2012/04/18,390,395,389,394,193000,394
2012/04/19,390,392,389,389,77000,389
2012/04/20,393,404,391,402,328000,402
2012/04/23,406,409,404,406,420000,406
2012/04/24,404,411,403,410,292000,410
2012/04/25,414,415,407,408,220000,408
2012/04/26,408,414,406,414,328000,414
2012/04/27,411,413,401,402,259000,402
2012/05/01,404,404,396,396,250000,396
2012/05/02,396,400,395,399,190000,399
2012/05/07,391,397,389,394,177000,394
2012/05/08,394,394,391,394,130000,394
2012/05/09,391,399,384,394,429000,394
2012/05/10,391,397,389,392,261000,392
2012/05/11,390,392,386,387,179000,387
2012/05/14,384,385,380,380,111000,380
2012/05/15,377,377,366,369,368000,369
2012/05/16,367,368,362,364,234000,364
2012/05/17,360,366,358,362,349000,362
2012/05/18,355,356,351,355,272000,355
2012/05/21,355,362,355,359,282000,359
2012/05/22,360,364,359,359,157000,359
2012/05/23,359,361,353,355,353000,355
2012/05/24,351,355,349,353,205000,353
2012/05/25,356,356,349,351,176000,351
2012/05/28,350,352,345,346,116000,346
2012/05/29,347,365,347,365,417000,365
2012/05/30,365,370,353,367,440000,367
2012/05/31,361,375,361,373,287000,373
2012/06/01,369,374,368,374,327000,374
2012/06/04,366,374,364,371,378000,371
2012/06/05,374,380,373,379,315000,379
2012/06/06,381,391,381,387,390000,387
2012/06/07,390,395,384,394,341000,394
2012/06/08,395,395,386,393,626000,393
2012/06/11,393,397,389,392,283000,392
2012/06/12,385,390,383,388,262000,388
2012/06/13,389,394,387,388,222000,388
2012/06/14,384,390,383,388,182000,388
2012/06/15,388,392,386,387,249000,387
2012/06/18,388,394,388,392,200000,392
2012/06/19,387,394,386,388,227000,388
2012/06/20,386,391,384,389,398000,389
2012/06/21,390,393,387,390,367000,390
2012/06/22,385,387,383,384,246000,384
2012/06/25,387,387,380,380,308000,380
2012/06/26,378,382,375,376,318000,376
2012/06/27,376,381,374,381,218000,381
2012/06/28,382,389,380,387,385000,387
2012/06/29,386,401,382,397,461000,397
2012/07/02,402,403,394,398,237000,398
2012/07/03,400,415,400,411,482000,411
2012/07/04,411,411,403,403,344000,403
2012/07/05,405,405,402,404,136000,404
2012/07/06,404,408,402,405,200000,405
2012/07/09,401,407,400,407,132000,407
2012/07/10,406,408,404,404,218000,404
2012/07/11,406,406,398,401,237000,401
2012/07/12,399,402,397,398,175000,398
2012/07/13,401,405,400,403,362000,403
2012/07/17,400,401,397,398,155000,398
2012/07/18,397,399,393,393,168000,393
2012/07/19,397,399,392,394,143000,394
2012/07/20,391,393,386,390,137000,390
2012/07/23,388,389,382,383,190000,383
2012/07/24,381,385,380,381,254000,381
2012/07/25,380,385,375,377,262000,377
2012/07/26,382,383,377,382,136000,382
2012/07/27,387,389,386,387,88000,387
2012/07/30,386,386,381,383,162000,383
2012/07/31,380,381,378,379,180000,379
2012/08/01,377,380,376,379,133000,379
2012/08/02,377,385,371,374,587000,374
2012/08/03,369,376,369,371,217000,371
2012/08/06,378,384,377,383,208000,383
2012/08/07,382,387,382,385,204000,385
2012/08/08,385,389,383,384,167000,384
2012/08/09,384,388,383,388,214000,388
2012/08/10,385,388,378,380,143000,380
2012/08/13,377,378,371,372,218000,372
2012/08/14,372,377,372,376,199000,376
2012/08/15,373,376,370,376,210000,376
2012/08/16,374,382,374,380,158000,380
2012/08/17,381,388,380,384,174000,384
2012/08/20,384,389,384,386,211000,386
2012/08/21,388,388,380,381,228000,381
2012/08/22,380,381,378,378,143000,378
2012/08/23,377,382,376,380,221000,380
2012/08/24,378,378,374,376,182000,376
2012/08/27,381,384,378,378,168000,378
2012/08/28,378,378,374,376,287000,376
2012/08/29,373,376,371,371,185000,371
2012/08/30,372,374,370,373,106000,373
2012/08/31,372,376,371,372,213000,372
2012/09/03,371,377,368,369,261000,369
2012/09/04,371,373,367,370,142000,370
2012/09/05,370,370,364,364,159000,364
2012/09/06,362,362,357,358,156000,358
2012/09/07,363,366,360,365,189000,365
2012/09/10,362,365,362,365,82000,365
2012/09/11,360,364,360,363,119000,363
2012/09/12,365,381,365,379,445000,379
2012/09/13,380,383,377,378,214000,378
2012/09/14,380,385,379,381,381000,381
2012/09/18,381,388,379,383,262000,383
2012/09/19,384,385,376,378,316000,378
2012/09/20,378,379,373,374,220000,374
2012/09/21,374,376,371,373,251000,373
2012/09/24,373,378,371,378,248000,378
2012/09/25,381,385,380,385,386000,385
2012/09/26,378,378,372,375,245000,375
2012/09/27,372,376,369,373,260000,373
2012/09/28,373,377,371,376,374000,376
2012/10/01,370,371,363,364,401000,364
2012/10/02,367,367,356,356,288000,356
2012/10/03,357,357,352,352,189000,352
2012/10/04,353,360,353,358,228000,358
2012/10/05,359,369,355,368,443000,368
2012/10/09,367,372,362,362,269000,362
2012/10/10,360,362,357,358,158000,358
2012/10/11,358,371,358,365,405000,365
2012/10/12,365,372,364,370,175000,370
2012/10/15,368,374,367,371,178000,371
2012/10/16,370,376,370,374,167000,374
2012/10/17,378,379,373,378,218000,378
2012/10/18,379,381,378,379,136000,379
2012/10/19,377,384,376,382,268000,382
2012/10/22,381,383,377,380,101000,380
2012/10/23,380,380,371,376,166000,376
2012/10/24,371,374,369,372,132000,372
2012/10/25,374,381,372,381,178000,381
2012/10/26,377,379,373,376,113000,376
2012/10/29,378,381,374,380,121000,380
2012/10/30,378,382,374,375,169000,375
2012/10/31,374,384,374,381,196000,381
2012/11/01,381,387,378,383,255000,383
2012/11/02,385,387,383,385,169000,385
2012/11/05,386,386,379,381,131000,381
2012/11/06,378,379,377,379,69000,379
2012/11/07,378,380,373,374,201000,374
2012/11/08,371,372,367,369,114000,369
2012/11/09,365,371,364,368,164000,368
2012/11/12,365,367,361,361,115000,361
2012/11/13,361,364,359,363,128000,363
2012/11/14,365,367,362,362,69000,362
2012/11/15,364,373,364,372,171000,372
2012/11/16,371,376,370,375,90000,375
2012/11/19,376,378,370,372,176000,372
2012/11/20,377,378,373,376,121000,376
2012/11/21,378,388,377,380,306000,380
2012/11/22,388,388,380,385,197000,385
2012/11/26,384,388,382,383,205000,383
2012/11/27,384,385,381,382,163000,382
2012/11/28,374,378,372,372,219000,372
2012/11/29,373,383,373,378,215000,378
2012/11/30,379,381,373,374,202000,374
2012/12/03,378,379,371,373,394000,373
2012/12/04,373,374,371,373,245000,373
2012/12/05,370,373,367,367,368000,367
2012/12/06,373,375,371,375,323000,375
2012/12/07,376,377,373,375,245000,375
2012/12/10,383,383,374,376,211000,376
2012/12/11,374,376,372,373,197000,373
2012/12/12,374,376,371,371,311000,371
2012/12/13,379,379,373,374,439000,374
2012/12/14,377,379,374,376,559000,376
2012/12/17,379,380,374,375,306000,375
2012/12/18,374,377,373,373,361000,373
2012/12/19,375,381,374,380,469000,380
2012/12/20,381,389,378,385,623000,385
2012/12/21,387,388,380,381,453000,381
2012/12/25,389,389,378,382,283000,382
2012/12/26,382,388,381,386,254000,386
2012/12/27,388,392,386,386,342000,386
2012/12/28,386,389,384,387,276000,387
2013/01/04,398,398,391,395,327000,395
2013/01/07,396,400,391,392,631000,392
2013/01/08,391,395,386,387,326000,387
2013/01/09,386,393,385,391,401000,391
2013/01/10,391,395,391,392,355000,392
2013/01/11,397,398,391,394,357000,394
2013/01/15,399,400,395,396,396000,396
2013/01/16,396,398,392,393,394000,393
2013/01/17,394,399,392,399,401000,399
2013/01/18,406,409,401,408,486000,408
2013/01/21,410,415,409,414,368000,414
2013/01/22,413,413,403,408,460000,408
2013/01/23,405,407,396,397,472000,397
2013/01/24,394,406,394,406,278000,406
2013/01/25,410,423,410,420,773000,420
2013/01/28,424,426,419,421,426000,421
2013/01/29,418,424,417,418,290000,418
2013/01/30,421,424,419,421,294000,421
2013/01/31,420,423,416,421,380000,421
2013/02/01,422,428,422,424,297000,424
2013/02/04,426,430,424,426,281000,426
2013/02/05,421,423,412,413,338000,413
2013/02/06,418,422,412,415,458000,415
2013/02/07,414,420,413,418,487000,418
2013/02/08,417,417,412,413,318000,413
2013/02/12,415,419,412,412,400000,412
2013/02/13,413,414,403,406,277000,406
2013/02/14,403,410,401,403,309000,403
2013/02/15,401,402,397,402,365000,402
2013/02/18,405,416,405,414,360000,414
2013/02/19,412,422,412,418,292000,418
2013/02/20,422,424,420,422,355000,422
2013/02/21,422,428,420,426,434000,426
2013/02/22,420,429,420,428,405000,428
2013/02/25,432,440,432,435,561000,435
2013/02/26,430,437,428,431,355000,431
2013/02/27,433,436,428,432,391000,432
2013/02/28,434,443,434,441,399000,441
2013/03/01,440,451,440,448,480000,448
2013/03/04,452,453,448,452,450000,452
2013/03/05,454,457,447,450,301000,450
2013/03/06,452,454,447,453,265000,453
2013/03/07,454,456,444,448,364000,448
2013/03/08,449,450,446,450,630000,450
2013/03/11,452,454,448,450,358000,450
2013/03/12,450,450,443,444,430000,444
2013/03/13,440,444,438,442,259000,442
2013/03/14,442,452,442,450,328000,450
2013/03/15,455,468,453,468,840000,468
2013/03/18,468,468,459,460,356000,460
2013/03/19,463,478,463,475,353000,475
2013/03/21,479,486,479,484,446000,484
2013/03/22,478,480,470,470,367000,470
2013/03/25,481,481,470,470,341000,470
2013/03/26,470,474,466,470,322000,470
2013/03/27,465,469,465,467,256000,467
2013/03/28,468,469,458,464,276000,464
2013/03/29,465,465,460,460,241000,460
2013/04/01,460,460,437,437,345000,437
2013/04/02,433,436,422,433,434000,433
2013/04/03,435,460,435,459,649000,459
2013/04/04,462,465,442,457,1104000,457
2013/04/05,470,475,456,462,965000,462
2013/04/08,469,477,460,464,700000,464
2013/04/09,466,467,451,453,882000,453
2013/04/10,456,462,454,456,657000,456
2013/04/11,462,479,461,478,1055000,478
2013/04/12,478,480,473,476,664000,476
2013/04/15,479,493,477,487,1077000,487
2013/04/16,480,482,463,465,1285000,465
2013/04/17,473,476,470,474,419000,474
2013/04/18,490,490,465,466,1302000,466
2013/04/19,471,475,462,471,560000,471
2013/04/22,479,482,476,481,636000,481
2013/04/23,480,482,475,479,569000,479
2013/04/24,480,488,474,487,1131000,487
2013/04/25,492,508,492,506,1538000,506
2013/04/26,513,517,503,506,982000,506
2013/04/30,516,536,515,524,1307000,524
2013/05/01,530,530,500,512,960000,512
2013/05/02,507,513,505,510,384000,510
2013/05/07,520,532,520,531,881000,531
2013/05/08,531,531,520,522,608000,522
2013/05/09,522,550,520,534,1398000,534
2013/05/10,545,549,530,540,1085000,540
2013/05/13,544,544,531,541,709000,541
2013/05/14,544,553,540,549,781000,549
2013/05/15,554,560,544,552,1019000,552
2013/05/16,552,552,526,535,671000,535
2013/05/17,534,545,530,539,501000,539
2013/05/20,546,563,541,553,896000,553
2013/05/21,563,577,558,562,1376000,562
2013/05/22,564,570,552,554,967000,554
2013/05/23,555,563,515,515,1138000,515
2013/05/24,521,529,502,522,952000,522
2013/05/27,521,521,498,508,605000,508
2013/05/28,499,513,497,504,625000,504
2013/05/29,515,558,515,542,2261000,542
2013/05/30,530,539,510,513,944000,513
2013/05/31,530,545,525,539,1015000,539
2013/06/03,526,532,514,518,708000,518
2013/06/04,515,529,508,526,953000,526
2013/06/05,526,539,518,518,907000,518
2013/06/06,508,519,497,499,869000,499
2013/06/07,491,499,477,488,863000,488
2013/06/10,518,528,515,525,597000,525
2013/06/11,526,536,521,529,856000,529
2013/06/12,519,525,513,519,637000,519
2013/06/13,519,519,503,505,1004000,505
2013/06/14,517,524,508,509,1020000,509
2013/06/17,509,529,509,528,429000,528
2013/06/18,527,531,522,526,459000,526
2013/06/19,536,542,524,533,627000,533
2013/06/20,530,532,523,530,383000,530
2013/06/21,511,530,505,527,733000,527
2013/06/24,531,531,521,528,291000,528
2013/06/25,534,535,525,533,822000,533
2013/06/26,538,540,520,527,402000,527
2013/06/27,529,544,529,544,558000,544
2013/06/28,549,558,546,557,898000,557
2013/07/01,557,560,553,559,443000,559
2013/07/02,563,573,557,573,854000,573
2013/07/03,574,594,568,594,1348000,594
2013/07/04,594,594,585,590,928000,590
2013/07/05,593,599,589,596,672000,596
2013/07/08,597,598,579,579,395000,579
2013/07/09,587,587,579,584,480000,584
2013/07/10,585,594,583,591,479000,591
2013/07/11,592,594,585,594,587000,594
2013/07/12,599,602,597,601,709000,601
2013/07/16,603,607,598,603,528000,603
2013/07/17,603,609,599,609,660000,609
2013/07/18,609,621,608,618,974000,618
2013/07/19,621,624,595,602,879000,602
2013/07/22,608,608,594,602,507000,602
2013/07/23,601,622,599,621,767000,621
2013/07/24,622,630,618,621,743000,621
2013/07/25,624,625,616,620,478000,620
2013/07/26,615,618,611,612,534000,612
2013/07/29,597,598,565,578,632000,578
2013/07/30,574,602,574,601,519000,601
2013/07/31,601,604,592,592,309000,592
2013/08/01,590,620,570,613,763000,613
2013/08/02,619,637,610,632,1248000,632
2013/08/05,627,638,622,634,663000,634
2013/08/06,634,650,626,647,922000,647
2013/08/07,639,640,628,632,629000,632
2013/08/08,628,633,616,617,423000,617
2013/08/09,615,628,613,622,829000,622
2013/08/12,620,626,615,618,220000,618
2013/08/13,622,630,615,629,271000,629
2013/08/14,630,630,616,628,303000,628
2013/08/15,624,624,614,615,251000,615
2013/08/16,612,627,602,620,366000,620
2013/08/19,620,624,613,621,183000,621
2013/08/20,615,625,611,611,216000,611
2013/08/21,611,614,603,610,231000,610
2013/08/22,605,614,602,612,162000,612
2013/08/23,625,625,616,618,241000,618
2013/08/26,618,618,611,615,176000,615
2013/08/27,610,617,607,614,358000,614
2013/08/28,598,604,594,600,386000,600
2013/08/29,601,603,597,602,167000,602
2013/08/30,603,609,587,587,407000,587
2013/09/02,591,599,588,593,342000,593
2013/09/03,599,615,597,614,402000,614
2013/09/04,604,620,602,620,284000,620
2013/09/05,620,622,611,614,254000,614
2013/09/06,614,616,597,603,296000,603
2013/09/09,618,618,611,618,296000,618
2013/09/10,619,622,616,620,332000,620
2013/09/11,622,624,616,618,272000,618
2013/09/12,618,620,615,620,251000,620
2013/09/13,617,630,616,627,588000,627
2013/09/17,629,639,628,631,387000,631
2013/09/18,638,639,634,637,300000,637
2013/09/19,641,647,638,647,457000,647
2013/09/20,648,648,640,646,405000,646
2013/09/24,643,645,637,644,315000,644
2013/09/25,645,645,639,643,353000,643
2013/09/26,635,648,635,648,382000,648
2013/09/27,648,650,642,643,533000,643
2013/09/30,629,637,625,631,297000,631
2013/10/01,631,652,631,648,908000,648
2013/10/02,643,651,643,649,753000,649
2013/10/03,648,649,638,641,503000,641
2013/10/04,632,639,630,636,342000,636
2013/10/07,636,641,629,630,370000,630
2013/10/08,626,630,618,629,402000,629
2013/10/09,627,640,623,639,296000,639
2013/10/10,641,648,637,642,497000,642
2013/10/11,650,653,645,652,561000,652
2013/10/15,652,657,651,654,423000,654
2013/10/16,650,659,647,658,295000,658
2013/10/17,660,669,660,667,1012000,667
2013/10/18,665,665,659,664,494000,664
2013/10/21,663,673,662,672,408000,672
2013/10/22,673,673,665,670,261000,670
2013/10/23,671,671,656,657,420000,657
2013/10/24,651,663,650,661,420000,661
2013/10/25,662,662,648,649,688000,649
2013/10/28,652,661,650,661,463000,661
2013/10/29,660,683,655,677,1403000,677
2013/10/30,682,689,678,681,1042000,681
2013/10/31,679,687,677,681,378000,681
2013/11/01,681,703,675,702,1205000,702
2013/11/05,710,726,698,721,2298000,721
2013/11/06,714,728,705,723,1346000,723
2013/11/07,720,722,708,709,594000,709
2013/11/08,700,705,695,703,373000,703
2013/11/11,713,713,701,706,415000,706
2013/11/12,709,716,706,711,422000,711
2013/11/13,706,710,699,702,395000,702
2013/11/14,704,714,704,709,348000,709
2013/11/15,713,716,707,714,427000,714
2013/11/18,716,717,705,708,404000,708
2013/11/19,705,713,701,705,281000,705
2013/11/20,706,707,701,705,312000,705
2013/11/21,707,715,702,707,341000,707
2013/11/22,711,711,700,703,454000,703
2013/11/25,704,705,698,701,396000,701
2013/11/26,695,700,691,696,461000,696
2013/11/27,688,693,687,688,266000,688
2013/11/28,697,707,697,704,648000,704
2013/11/29,701,704,697,702,376000,702
2013/12/02,703,706,701,703,404000,703
2013/12/03,708,711,704,707,728000,707
2013/12/04,698,704,692,698,478000,698
2013/12/05,701,709,698,698,638000,698
2013/12/06,703,706,694,700,449000,700
2013/12/09,709,710,705,709,509000,709
2013/12/10,710,726,707,724,1272000,724
2013/12/11,724,734,717,731,860000,731
2013/12/12,726,727,721,725,498000,725
2013/12/13,727,740,723,733,1209000,733
2013/12/16,729,733,718,727,624000,727
2013/12/17,732,740,730,739,652000,739
2013/12/18,738,747,734,746,859000,746
2013/12/19,746,748,740,744,765000,744
2013/12/20,741,741,728,730,793000,730
2013/12/24,729,734,707,710,1102000,710
2013/12/25,710,714,700,704,760000,704
2013/12/26,714,730,710,729,517000,729
2013/12/27,734,739,725,738,420000,738
2013/12/30,742,750,742,748,451000,748
2014/01/06,748,760,745,757,514000,757
2014/01/07,761,772,757,764,727000,764
2014/01/08,770,770,758,763,405000,763
2014/01/09,760,763,754,763,308000,763
2014/01/10,762,766,753,765,483000,765
2014/01/14,757,757,745,749,442000,749
2014/01/15,768,768,756,764,472000,764
2014/01/16,767,774,763,765,332000,765
2014/01/17,763,776,762,773,434000,773
2014/01/20,776,777,770,772,333000,772
2014/01/21,775,776,770,771,247000,771
2014/01/22,772,775,765,774,311000,774
2014/01/23,774,774,753,753,528000,753
2014/01/24,742,745,731,735,453000,735
2014/01/27,712,722,707,708,464000,708
2014/01/28,706,718,706,707,544000,707
2014/01/29,717,737,717,736,316000,736
2014/01/30,722,736,717,732,537000,732
2014/01/31,733,739,717,723,369000,723
2014/02/03,711,716,703,709,460000,709
2014/02/04,688,692,674,676,1206000,676
2014/02/05,686,700,655,665,1163000,665
2014/02/06,665,682,663,673,859000,673
2014/02/07,690,703,684,702,716000,702
2014/02/10,712,712,701,705,377000,705
2014/02/12,707,715,703,712,291000,712
2014/02/13,714,714,702,706,250000,706
2014/02/14,704,707,682,692,481000,692
2014/02/17,692,694,676,690,423000,690
2014/02/18,696,706,688,705,441000,705
2014/02/19,703,707,694,697,485000,697
2014/02/20,694,697,677,680,367000,680
2014/02/21,695,706,693,705,347000,705
2014/02/24,701,715,694,703,368000,703
2014/02/25,714,716,706,715,423000,715
2014/02/26,709,712,704,705,234000,705
2014/02/27,706,709,689,691,585000,691
2014/02/28,696,696,686,694,415000,694
2014/03/03,694,713,686,709,814000,709
2014/03/04,701,727,700,725,735000,725
2014/03/05,727,745,725,739,855000,739
2014/03/06,738,741,726,734,689000,734
2014/03/07,740,741,729,740,524000,740
2014/03/10,740,740,730,733,507000,733
2014/03/11,734,742,729,740,420000,740
2014/03/12,725,731,723,724,279000,724
2014/03/13,723,737,723,727,332000,727
2014/03/14,710,716,696,697,872000,697
2014/03/17,698,705,694,698,437000,698
2014/03/18,708,713,700,711,333000,711
2014/03/19,716,747,716,732,900000,732
2014/03/20,733,737,702,703,681000,703
2014/03/24,703,732,698,725,835000,725
2014/03/25,734,749,729,730,647000,730
2014/03/26,730,737,725,736,367000,736
2014/03/27,715,736,711,733,629000,733
2014/03/28,728,738,725,737,326000,737
2014/03/31,745,748,734,747,440000,747
2014/04/01,749,760,744,759,493000,759
2014/04/02,759,762,752,754,518000,754
2014/04/03,747,752,743,752,419000,752
2014/04/04,751,754,742,748,304000,748
2014/04/07,733,737,727,728,433000,728
2014/04/08,725,727,714,714,305000,714
2014/04/09,710,710,698,700,480000,700
2014/04/10,707,714,698,702,322000,702
2014/04/11,689,694,686,688,345000,688
2014/04/14,686,694,686,686,268000,686
2014/04/15,696,696,686,689,370000,689
2014/04/16,698,714,695,714,415000,714
2014/04/17,719,722,713,717,284000,717
2014/04/18,718,731,713,731,303000,731
2014/04/21,730,739,727,730,199000,730
2014/04/22,735,735,722,723,195000,723
2014/04/23,728,730,717,721,340000,721
2014/04/24,722,722,707,712,369000,712
2014/04/25,713,717,707,715,398000,715
2014/04/28,714,714,703,709,212000,709
2014/04/30,717,718,704,708,300000,708
2014/05/01,715,723,713,723,264000,723
2014/05/02,720,720,712,714,179000,714
2014/05/07,720,735,699,699,556000,699
2014/05/08,699,736,692,732,1035000,732
2014/05/09,729,747,729,741,741000,741
2014/05/12,737,743,729,730,503000,730
2014/05/13,737,745,736,739,400000,739
2014/05/14,738,749,738,747,332000,747
2014/05/15,743,748,738,745,314000,745
2014/05/16,736,739,734,736,345000,736
2014/05/19,736,739,731,732,341000,732
2014/05/20,738,750,736,745,412000,745
2014/05/21,743,750,739,745,389000,745
2014/05/22,746,760,744,758,519000,758
2014/05/23,762,770,762,768,498000,768
2014/05/26,768,782,768,782,536000,782
2014/05/27,779,787,777,782,366000,782
2014/05/28,780,787,779,785,450000,785
2014/05/29,782,792,779,787,428000,787
2014/05/30,783,791,778,786,773000,786
2014/06/02,787,792,780,782,873000,782
2014/06/03,785,785,770,773,803000,773
2014/06/04,773,773,758,765,721000,765
2014/06/05,765,767,753,757,708000,757
2014/06/06,758,769,758,766,764000,766
2014/06/09,767,770,755,757,683000,757
2014/06/10,754,761,752,757,520000,757
2014/06/11,757,762,748,750,539000,750
2014/06/12,755,759,737,740,850000,740
2014/06/13,730,753,730,751,855000,751
2014/06/16,751,751,739,740,376000,740
2014/06/17,743,744,737,739,547000,739
2014/06/18,733,738,728,737,802000,737
2014/06/19,741,743,735,739,676000,739
2014/06/20,739,739,722,722,1315000,722
2014/06/23,722,731,722,726,799000,726
2014/06/24,732,741,730,736,699000,736
2014/06/25,736,737,725,726,500000,726
2014/06/26,730,734,726,727,292000,727
2014/06/27,728,730,717,722,517000,722
2014/06/30,722,726,718,724,523000,724
2014/07/01,724,742,723,740,638000,740
2014/07/02,747,749,738,738,368000,738
2014/07/03,737,742,735,737,407000,737
2014/07/04,744,745,735,739,475000,739
2014/07/07,740,742,731,733,376000,733
2014/07/08,732,736,722,733,421000,733
2014/07/09,729,734,725,729,254000,729
2014/07/10,727,730,721,722,376000,722
2014/07/11,715,717,710,715,235000,715
2014/07/14,719,719,713,716,272000,716
2014/07/15,716,722,716,720,326000,720
2014/07/16,717,719,713,713,370000,713
2014/07/17,712,713,703,705,508000,705
2014/07/18,698,707,693,701,257000,701
2014/07/22,705,711,704,710,215000,710
2014/07/23,717,720,712,716,479000,716
2014/07/24,719,722,712,717,338000,717
2014/07/25,722,730,722,728,367000,728
2014/07/28,729,734,727,731,307000,731
2014/07/29,727,733,727,731,205000,731
2014/07/30,725,736,725,732,225000,732
2014/07/31,736,736,724,725,207000,725
2014/08/01,719,726,718,718,271000,718
2014/08/04,708,718,704,712,479000,712
2014/08/05,716,719,707,713,451000,713
2014/08/06,728,732,710,711,602000,711
2014/08/07,709,729,704,713,357000,713
2014/08/08,710,712,692,695,476000,695
2014/08/11,702,705,697,703,265000,703
2014/08/12,705,711,701,703,187000,703
2014/08/13,703,711,700,708,225000,708
2014/08/14,708,713,708,711,170000,711
2014/08/15,707,716,706,714,291000,714
2014/08/18,709,716,705,705,279000,705
2014/08/19,706,712,706,710,270000,710
2014/08/20,706,711,705,708,222000,708
2014/08/21,710,719,709,718,348000,718
2014/08/22,721,725,718,722,273000,722
2014/08/25,727,730,719,728,255000,728
2014/08/26,728,728,710,711,415000,711
2014/08/27,714,720,714,720,232000,720
2014/08/28,718,718,709,712,147000,712
2014/08/29,709,714,707,712,230000,712
2014/09/01,708,719,708,716,177000,716
2014/09/02,716,730,716,729,348000,729
2014/09/03,728,729,714,715,322000,715
2014/09/04,715,715,706,712,366000,712
2014/09/05,714,719,708,712,287000,712
2014/09/08,715,715,702,706,310000,706
2014/09/09,706,710,703,704,194000,704
2014/09/10,702,708,696,708,281000,708
2014/09/11,711,712,696,697,401000,697
2014/09/12,687,689,675,679,1433000,679
2014/09/16,680,695,680,693,469000,693
2014/09/17,690,691,681,682,469000,682
2014/09/18,682,684,674,675,749000,675
2014/09/19,677,685,675,681,646000,681
2014/09/22,685,686,678,682,336000,682
2014/09/24,676,684,676,683,526000,683
2014/09/25,690,696,683,696,535000,696
2014/09/26,683,694,671,694,625000,694
2014/09/29,695,695,686,687,232000,687
2014/09/30,687,687,680,684,436000,684
2014/10/01,693,695,687,694,366000,694
2014/10/02,686,690,675,676,455000,676
2014/10/03,675,688,675,681,403000,681
2014/10/06,688,693,683,683,231000,683
2014/10/07,682,686,679,679,261000,679
2014/10/08,670,679,665,675,375000,675
2014/10/09,675,678,671,671,421000,671
2014/10/10,661,668,661,666,539000,666
2014/10/14,656,658,644,648,680000,648
2014/10/15,646,649,641,645,812000,645
2014/10/16,635,681,635,661,2068000,661
2014/10/17,659,700,659,673,2671000,673
2014/10/20,681,697,678,696,740000,696
2014/10/21,697,699,686,692,654000,692
2014/10/22,699,707,696,705,635000,705
2014/10/23,701,707,698,703,326000,703
2014/10/24,709,709,700,707,397000,707
2014/10/27,708,717,707,714,298000,714
2014/10/28,710,712,702,706,372000,706
2014/10/29,707,714,703,713,284000,713
2014/10/30,711,717,709,714,449000,714
2014/10/31,717,733,710,732,830000,732
2014/11/04,742,743,728,729,524000,729
2014/11/05,726,737,718,730,560000,730
2014/11/06,727,734,718,726,373000,726
2014/11/07,727,728,721,725,369000,725
2014/11/10,717,730,717,729,406000,729
2014/11/11,729,736,724,735,558000,735
2014/11/12,735,741,732,735,578000,735
2014/11/13,732,750,731,748,668000,748
2014/11/14,757,757,747,756,545000,756
2014/11/17,745,752,741,743,650000,743
2014/11/18,744,759,741,754,428000,754
2014/11/19,752,755,747,748,472000,748
2014/11/20,749,753,746,750,465000,750
2014/11/21,751,755,744,752,414000,752
2014/11/25,752,754,744,749,562000,749
2014/11/26,749,754,748,749,246000,749
2014/11/27,744,744,734,736,346000,736
2014/11/28,736,751,736,748,467000,748
2014/12/01,748,755,746,750,295000,750
2014/12/02,747,753,742,751,423000,751
2014/12/03,750,753,747,750,446000,750
2014/12/04,754,757,750,756,470000,756
2014/12/05,751,754,746,753,316000,753
2014/12/08,753,755,748,751,320000,751
2014/12/09,749,757,746,748,364000,748
2014/12/10,739,750,729,731,363000,731
2014/12/11,720,735,720,733,312000,733
2014/12/12,738,742,734,734,600000,734
2014/12/15,723,740,723,735,415000,735
2014/12/16,720,729,718,721,387000,721
2014/12/17,720,742,720,739,574000,739
2014/12/18,750,755,741,742,856000,742
2014/12/19,753,757,751,754,744000,754
2014/12/22,757,760,753,758,505000,758
2014/12/24,763,777,763,776,528000,776
2014/12/25,773,773,766,769,229000,769
2014/12/26,769,771,763,769,152000,769
2014/12/29,769,772,759,766,203000,766
2014/12/30,768,769,760,764,198000,764
2015/01/05,757,768,753,760,252000,760
2015/01/06,745,752,738,744,867000,744
2015/01/07,734,752,734,743,464000,743
2015/01/08,747,755,746,749,435000,749
2015/01/09,749,760,748,756,328000,756
2015/01/13,744,752,741,750,242000,750
2015/01/14,743,757,743,746,190000,746
2015/01/15,741,755,741,752,231000,752
2015/01/16,740,744,727,731,288000,731
2015/01/19,732,742,730,741,175000,741
2015/01/20,741,752,740,751,229000,751
2015/01/21,751,752,743,743,291000,743
2015/01/22,742,744,736,741,180000,741
2015/01/23,750,755,746,755,168000,755
2015/01/26,743,752,741,750,165000,750
2015/01/27,758,761,751,761,221000,761
2015/01/28,759,767,753,765,256000,765
2015/01/29,760,765,754,755,207000,755
2015/01/30,758,764,756,758,281000,758
2015/02/02,748,754,745,751,145000,751
2015/02/03,752,756,743,745,287000,745
2015/02/04,745,766,745,762,305000,762
2015/02/05,763,771,754,761,341000,761
2015/02/06,770,782,767,779,503000,779
2015/02/09,778,779,768,774,284000,774
2015/02/10,777,788,777,788,505000,788
2015/02/12,796,807,791,803,650000,803
2015/02/13,807,808,795,800,364000,800
2015/02/16,803,811,803,807,232000,807
2015/02/17,807,809,800,808,256000,808
2015/02/18,808,818,807,808,340000,808
2015/02/19,814,851,812,845,765000,845
2015/02/20,845,850,836,845,314000,845
2015/02/23,850,853,840,851,516000,851
2015/02/24,854,854,848,850,307000,850
2015/02/25,849,852,844,848,246000,848
2015/02/26,845,851,840,848,256000,848
2015/02/27,850,860,841,843,393000,843
2015/03/02,836,847,827,828,380000,828
2015/03/03,828,835,821,830,209000,830
2015/03/04,830,834,826,832,182000,832
2015/03/05,828,834,822,825,134000,825
2015/03/06,821,830,819,826,165000,826
2015/03/09,820,827,816,818,276000,818
2015/03/10,818,830,817,819,324000,819
2015/03/11,819,829,819,826,219000,826
2015/03/12,831,839,831,838,270000,838
2015/03/13,853,864,844,859,774000,859
2015/03/16,857,865,852,864,387000,864
2015/03/17,870,875,860,869,399000,869
2015/03/18,871,894,866,892,519000,892
2015/03/19,886,892,866,879,542000,879
2015/03/20,882,917,874,913,767000,913
2015/03/23,919,923,910,917,412000,917
2015/03/24,907,914,893,897,322000,897
2015/03/25,893,900,888,896,506000,896
2015/03/26,892,892,880,885,269000,885
2015/03/27,880,897,876,882,479000,882
2015/03/30,887,896,881,891,402000,891
2015/03/31,902,911,887,892,415000,892
2015/04/01,883,894,881,885,658000,885
2015/04/02,887,899,884,892,521000,892
2015/04/03,901,906,895,906,498000,906
2015/04/06,902,916,900,914,586000,914
2015/04/07,919,928,917,925,573000,925
2015/04/08,925,932,922,928,596000,928
2015/04/09,923,925,911,919,582000,919
2015/04/10,919,928,913,925,420000,925
2015/04/13,925,925,909,922,328000,922
2015/04/14,913,925,913,917,275000,917
2015/04/15,908,916,903,905,241000,905
2015/04/16,911,915,897,906,268000,906
2015/04/17,910,913,900,909,256000,909
2015/04/20,913,913,901,903,221000,903
2015/04/21,902,919,899,917,201000,917
2015/04/22,920,936,920,929,442000,929
2015/04/23,922,926,918,923,383000,923
2015/04/24,925,938,922,934,406000,934
2015/04/27,930,934,924,927,295000,927
2015/04/28,930,936,926,934,398000,934
2015/04/30,924,930,920,924,357000,924
2015/05/01,911,928,911,920,429000,920
2015/05/07,919,933,916,930,244000,930
2015/05/08,924,944,916,931,501000,931
2015/05/11,946,1002,946,996,957000,996
2015/05/12,995,1000,991,998,431000,998
2015/05/13,998,999,980,982,380000,982
2015/05/14,973,978,957,959,547000,959
2015/05/15,966,974,960,961,444000,961
2015/05/18,961,976,961,966,432000,966
2015/05/19,971,976,967,972,333000,972
2015/05/20,976,985,975,979,349000,979
2015/05/21,985,987,977,980,379000,980
2015/05/22,981,982,974,976,236000,976
2015/05/25,979,1004,979,994,456000,994
2015/05/26,991,994,983,983,364000,983
2015/05/27,983,984,961,965,495000,965
2015/05/28,968,968,957,959,318000,959
2015/05/29,964,967,956,960,663000,960
2015/06/01,953,966,951,964,446000,964
2015/06/02,964,965,956,958,416000,958
2015/06/03,961,972,957,967,501000,967
2015/06/04,973,977,967,971,324000,971
2015/06/05,968,976,968,972,296000,972
2015/06/08,973,973,966,970,301000,970
2015/06/09,970,978,966,968,400000,968
2015/06/10,971,974,959,962,407000,962
2015/06/11,961,977,955,976,557000,976
2015/06/12,975,977,968,971,644000,971
2015/06/15,958,965,957,957,284000,957
2015/06/16,957,959,953,956,314000,956
2015/06/17,957,964,955,960,430000,960
2015/06/18,960,961,947,948,384000,948
2015/06/19,953,976,949,965,981000,965
2015/06/22,960,973,958,971,493000,971
2015/06/23,978,999,975,997,600000,997
2015/06/24,997,1007,993,1002,635000,1002
2015/06/25,992,1001,990,995,199000,995
2015/06/26,995,1000,987,998,241000,998
2015/06/29,968,989,968,984,489000,984
2015/06/30,984,987,977,983,254000,983
2015/07/01,982,988,972,985,271000,985
2015/07/02,996,997,990,996,253000,996
2015/07/03,1000,1009,992,1007,446000,1007
2015/07/06,998,1001,986,989,409000,989
2015/07/07,1000,1018,998,1015,450000,1015
2015/07/08,1013,1013,977,977,411000,977
2015/07/09,960,970,943,965,481000,965
2015/07/10,967,983,959,965,640000,965
2015/07/13,984,1004,980,1004,417000,1004
2015/07/14,1018,1031,1004,1024,500000,1024
2015/07/15,1026,1038,1021,1029,523000,1029
2015/07/16,1025,1058,1023,1056,368000,1056
2015/07/17,1056,1057,1042,1047,256000,1047
2015/07/21,1056,1057,1046,1054,330000,1054
2015/07/22,1038,1059,1038,1051,224000,1051
2015/07/23,1053,1071,1046,1069,322000,1069
2015/07/24,1069,1077,1067,1068,188000,1068
2015/07/27,1063,1066,1047,1050,255000,1050
2015/07/28,1035,1041,1029,1034,428000,1034
2015/07/29,1037,1041,1030,1035,196000,1035
2015/07/30,1036,1052,1034,1038,259000,1038
2015/07/31,1029,1043,1024,1027,326000,1027
2015/08/03,1022,1043,1019,1041,276000,1041
2015/08/04,1039,1049,1012,1018,438000,1018
2015/08/05,1018,1029,993,1024,503000,1024
2015/08/06,1024,1033,1020,1020,284000,1020
2015/08/07,1012,1016,1003,1007,352000,1007
2015/08/10,1050,1095,1037,1087,1007000,1087
2015/08/11,1096,1099,1060,1073,530000,1073
2015/08/12,1043,1062,1029,1035,711000,1035
2015/08/13,1017,1036,1013,1032,607000,1032
2015/08/14,1018,1024,1009,1013,570000,1013
2015/08/17,1008,1024,1006,1015,416000,1015
2015/08/18,1021,1032,1015,1025,338000,1025
2015/08/19,1020,1024,1000,1002,398000,1002
2015/08/20,994,1010,993,994,297000,994
2015/08/21,962,983,962,972,447000,972
2015/08/24,930,948,915,915,825000,915
2015/08/25,869,910,861,862,1056000,862
2015/08/26,859,891,853,885,718000,885
2015/08/27,895,915,886,889,1012000,889
2015/08/28,919,930,903,903,2183000,903
2015/08/31,903,908,889,904,935000,904
2015/09/01,900,900,872,872,546000,872
2015/09/02,852,869,847,851,530000,851
2015/09/03,855,859,839,841,481000,841
2015/09/04,849,849,813,820,562000,820
2015/09/07,814,830,806,823,412000,823
2015/09/08,823,833,805,805,327000,805
2015/09/09,833,856,829,850,647000,850
2015/09/10,840,852,830,848,537000,848
2015/09/11,878,878,853,866,809000,866
2015/09/14,861,863,839,846,337000,846
2015/09/15,850,861,847,851,248000,851
2015/09/16,857,857,833,836,301000,836
2015/09/17,847,847,832,843,330000,843
2015/09/18,843,845,821,832,523000,832
2015/09/24,815,825,807,808,421000,808
2015/09/25,807,837,807,837,561000,837
2015/09/28,830,839,817,829,396000,829
2015/09/29,814,820,800,801,501000,801
2015/09/30,806,827,806,818,342000,818
2015/10/01,824,837,819,831,370000,831
2015/10/02,822,828,816,821,392000,821
2015/10/05,830,846,828,839,288000,839
2015/10/06,839,851,834,842,318000,842
2015/10/07,838,850,837,847,327000,847
2015/10/08,844,848,827,830,477000,830
2015/10/09,836,858,835,855,389000,855
2015/10/13,847,858,842,854,356000,854
2015/10/14,844,845,826,828,402000,828
2015/10/15,821,844,821,843,341000,843
2015/10/16,848,854,842,843,369000,843
