2011/03/11,1050,1066,1050,1060,24100,1060
2011/03/14,1060,1060,1051,1051,20100,1051
2011/03/15,1020,1020,990,990,400,990
2011/03/16,990,1060,990,1060,10100,1060
2011/03/17,1060,1060,1040,1040,4700,1040
2011/03/18,1050,1061,1050,1060,10600,1060
2011/03/22,1078,1100,1078,1098,11600,1098
2011/03/23,1100,1105,1098,1100,12400,1100
2011/03/24,1100,1150,1100,1115,16000,1115
2011/03/25,1120,1129,1120,1120,6500,1120
2011/03/28,1120,1139,1120,1120,6100,1120
2011/03/29,1130,1130,1085,1085,5000,1085
2011/03/30,1139,1139,1100,1100,6200,1100
2011/03/31,1100,1100,1100,1100,1500,1100
2011/04/01,1091,1091,1090,1090,300,1090
2011/04/04,1090,1091,1086,1086,2900,1086
2011/04/05,1080,1080,1080,1080,100,1080
2011/04/06,1068,1068,1060,1060,800,1060
2011/04/07,1061,1071,1060,1060,700,1060
2011/04/08,1060,1063,1050,1063,2400,1063
2011/04/11,1081,1081,1060,1060,600,1060
2011/04/12,1058,1060,1058,1060,200,1060
2011/04/13,1040,1040,1033,1037,600,1037
2011/04/14,1036,1096,1036,1096,1300,1096
2011/04/15,1050,1051,1050,1050,1400,1050
2011/04/18,1050,1050,1046,1046,300,1046
2011/04/19,1060,1060,1060,1060,100,1060
2011/04/20,1060,1061,1058,1058,3900,1058
2011/04/22,1041,1041,1041,1041,100,1041
2011/04/25,1041,1043,1041,1043,1100,1043
2011/04/26,1058,1089,1058,1081,700,1081
2011/04/27,1081,1100,1080,1080,6200,1080
2011/05/02,1080,1080,1065,1065,900,1065
2011/05/06,1060,1060,1060,1060,100,1060
2011/05/09,1090,1090,1060,1060,500,1060
2011/05/10,1090,1100,1071,1100,600,1100
2011/05/11,1100,1111,1060,1101,5000,1101
2011/05/12,1140,1140,1071,1085,2200,1085
2011/05/13,1063,1063,1063,1063,500,1063
2011/05/16,1064,1122,1064,1118,1800,1118
2011/05/17,1073,1097,1071,1097,700,1097
2011/05/18,1067,1092,1067,1092,1800,1092
2011/05/19,1087,1087,1061,1079,1100,1079
2011/05/20,1079,1080,1079,1079,2900,1079
2011/05/23,1088,1090,1088,1090,200,1090
2011/05/24,1090,1090,1090,1090,100,1090
2011/05/25,1090,1090,1070,1075,2400,1075
2011/05/26,1060,1060,1060,1060,100,1060
2011/05/27,1060,1089,1060,1089,600,1089
2011/05/30,1060,1060,1060,1060,500,1060
2011/05/31,1087,1087,1065,1087,600,1087
2011/06/01,1087,1087,1075,1075,500,1075
2011/06/03,1075,1075,1075,1075,100,1075
2011/06/06,1061,1061,1061,1061,500,1061
2011/06/07,1061,1061,1060,1060,400,1060
2011/06/08,1078,1078,1076,1076,200,1076
2011/06/09,1062,1062,1062,1062,400,1062
2011/06/13,1062,1069,1062,1069,900,1069
2011/06/14,1071,1073,1069,1070,4700,1070
2011/06/15,1062,1064,1062,1064,1400,1064
2011/06/17,1080,1080,1067,1067,600,1067
2011/06/20,1068,1071,1068,1070,1600,1070
2011/06/21,1084,1084,1084,1084,1000,1084
2011/06/22,1085,1085,1084,1084,3400,1084
2011/06/23,1090,1100,1090,1100,1400,1100
2011/06/24,1088,1100,1088,1100,800,1100
2011/06/27,1100,1100,1094,1094,1500,1094
2011/06/28,1095,1095,1095,1095,200,1095
2011/06/29,1100,1115,1100,1115,2400,1115
2011/06/30,1100,1100,1090,1100,4000,1100
2011/07/01,1100,1100,1100,1100,2100,1100
2011/07/04,1120,1120,1081,1102,2100,1102
2011/07/06,1115,1115,1104,1115,1900,1115
2011/07/07,1140,1148,1104,1120,3100,1120
2011/07/08,1120,1148,1120,1130,5400,1130
2011/07/11,1132,1140,1110,1140,1700,1140
2011/07/12,1140,1140,1140,1140,500,1140
2011/07/13,1140,1140,1126,1126,700,1126
2011/07/14,1126,1126,1115,1120,1900,1120
2011/07/15,1120,1125,1112,1123,1400,1123
2011/07/19,1124,1128,1120,1128,1000,1128
2011/07/20,1131,1139,1128,1138,7100,1138
2011/07/21,1138,1138,1120,1127,10300,1127
2011/07/22,1130,1136,1120,1136,2100,1136
2011/07/25,1136,1136,1135,1135,6300,1135
2011/07/26,1123,1125,1120,1122,1000,1122
2011/07/27,1120,1122,1120,1120,800,1120
2011/07/28,1140,1140,1115,1120,2900,1120
2011/07/29,1110,1120,1100,1120,1600,1120
2011/08/01,1100,1100,1090,1090,1400,1090
2011/08/02,1100,1119,1090,1090,1700,1090
2011/08/03,1090,1090,1050,1050,1000,1050
2011/08/04,1050,1100,1050,1100,500,1100
2011/08/05,1060,1060,1060,1060,600,1060
2011/08/10,1060,1060,1060,1060,300,1060
2011/08/11,1040,1040,1030,1040,900,1040
2011/08/12,1040,1041,1020,1035,700,1035
2011/08/15,1040,1060,1040,1060,400,1060
2011/08/16,1060,1065,1060,1065,300,1065
2011/08/17,1065,1065,1061,1061,400,1061
2011/08/18,1061,1061,1051,1055,400,1055
2011/08/19,1050,1060,1020,1031,2200,1031
2011/08/22,1036,1062,1033,1062,1100,1062
2011/08/23,1059,1070,1020,1070,4100,1070
2011/08/24,1058,1058,1058,1058,200,1058
2011/08/25,1058,1058,1058,1058,1000,1058
2011/08/26,1058,1058,1058,1058,200,1058
2011/08/29,1058,1058,1058,1058,200,1058
2011/09/02,1058,1058,1058,1058,500,1058
2011/09/05,1034,1040,1034,1040,200,1040
2011/09/06,1040,1041,1038,1038,600,1038
2011/09/09,1040,1040,1040,1040,300,1040
2011/09/12,1040,1040,1040,1040,200,1040
2011/09/13,1040,1040,1039,1039,300,1039
2011/09/14,1040,1040,1021,1021,600,1021
2011/09/15,1030,1030,1030,1030,500,1030
2011/09/16,1049,1049,1049,1049,100,1049
2011/09/20,1049,1049,1049,1049,2200,1049
2011/09/21,1050,1050,1050,1050,100,1050
2011/09/22,1050,1050,1050,1050,100,1050
2011/09/26,1050,1050,1050,1050,1800,1050
2011/09/27,1050,1050,1050,1050,1600,1050
2011/09/28,1035,1035,1035,1035,100,1035
2011/09/29,1045,1045,1045,1045,100,1045
2011/09/30,1045,1045,1045,1045,200,1045
2011/10/03,1045,1045,1045,1045,600,1045
2011/10/05,1045,1045,1045,1045,200,1045
2011/10/13,1040,1061,1040,1061,400,1061
2011/10/14,1040,1040,1040,1040,100,1040
2011/10/17,1050,1050,1050,1050,1000,1050
2011/10/18,1050,1050,1050,1050,800,1050
2011/10/20,1050,1069,1050,1069,1000,1069
2011/10/21,1069,1069,1069,1069,2200,1069
2011/10/24,1069,1069,1069,1069,100,1069
2011/10/25,1075,1075,1069,1069,1000,1069
2011/10/26,1069,1069,1039,1039,1000,1039
2011/10/28,1069,1069,1069,1069,400,1069
2011/10/31,1069,1110,1031,1038,3400,1038
2011/11/02,1032,1032,1020,1020,800,1020
2011/11/04,1023,1023,1023,1023,300,1023
2011/11/10,1016,1016,1015,1016,700,1016
2011/11/16,1030,1030,1030,1030,200,1030
2011/11/17,1035,1041,1035,1041,300,1041
2011/11/18,1041,1089,1039,1089,1400,1089
2011/11/21,1060,1060,1026,1055,2800,1055
2011/11/24,1041,1046,1041,1046,200,1046
2011/11/25,1046,1046,1046,1046,1400,1046
2011/11/29,1046,1046,1046,1046,100,1046
2011/11/30,1046,1046,1001,1001,1100,1001
2011/12/01,1000,1030,1000,1005,2200,1005
2011/12/02,1030,1030,1030,1030,1400,1030
2011/12/05,1030,1030,1030,1030,1100,1030
2011/12/06,1020,1020,1020,1020,100,1020
2011/12/07,1030,1030,1030,1030,200,1030
2011/12/08,1029,1029,1029,1029,100,1029
2011/12/09,1030,1030,1030,1030,500,1030
2011/12/12,1030,1030,1030,1030,2500,1030
2011/12/14,1030,1050,1030,1050,1400,1050
2011/12/15,1040,1045,1040,1041,1000,1041
2011/12/16,1053,1053,1050,1050,200,1050
2011/12/19,1050,1063,1047,1063,2900,1063
2011/12/20,1063,1064,1063,1063,8700,1063
2011/12/21,1063,1063,1063,1063,200,1063
2011/12/22,1065,1065,1065,1065,100,1065
2011/12/26,1065,1088,1065,1088,3100,1088
2011/12/27,1088,1088,1088,1088,4400,1088
2011/12/28,1089,1089,1077,1077,300,1077
2011/12/29,1065,1065,1065,1065,600,1065
2011/12/30,1063,1063,1061,1063,1300,1063
2012/01/04,1063,1063,1063,1063,100,1063
2012/01/05,1090,1090,1070,1070,1100,1070
2012/01/06,1070,1070,1070,1070,400,1070
2012/01/11,1042,1060,1042,1060,1300,1060
2012/01/12,1055,1060,1054,1060,400,1060
2012/01/13,1060,1060,1060,1060,100,1060
2012/01/16,1052,1052,1052,1052,100,1052
2012/01/17,1052,1052,1050,1050,700,1050
2012/01/18,1054,1054,1054,1054,100,1054
2012/01/19,1059,1080,1059,1080,1600,1080
2012/01/20,1080,1080,1080,1080,2600,1080
2012/01/25,1080,1088,1065,1071,2600,1071
2012/01/26,1068,1068,1068,1068,200,1068
2012/01/27,1067,1079,1067,1079,600,1079
2012/01/30,1050,1080,1050,1080,2800,1080
2012/01/31,1080,1080,1080,1080,1600,1080
2012/02/02,1070,1084,1070,1084,2000,1084
2012/02/03,1084,1084,1084,1084,1000,1084
2012/02/06,1086,1086,1073,1073,300,1073
2012/02/07,1080,1080,1080,1080,400,1080
2012/02/08,1080,1082,1080,1080,1100,1080
2012/02/09,1080,1080,1080,1080,200,1080
2012/02/10,1085,1090,1085,1090,2800,1090
2012/02/14,1096,1096,1095,1095,200,1095
2012/02/15,1097,1101,1097,1100,2100,1100
2012/02/16,1101,1115,1101,1115,1400,1115
2012/02/17,1115,1120,1115,1115,1200,1115
2012/02/20,1115,1119,1114,1119,4000,1119
2012/02/21,1107,1119,1105,1119,1500,1119
2012/02/22,1120,1120,1120,1120,500,1120
2012/02/23,1115,1125,1115,1125,600,1125
2012/02/24,1125,1134,1115,1115,2800,1115
2012/02/28,1120,1120,1116,1120,900,1120
2012/02/29,1120,1130,1120,1121,1600,1121
2012/03/01,1140,1140,1131,1135,2300,1135
2012/03/02,1137,1137,1137,1137,600,1137
2012/03/05,1137,1138,1137,1138,400,1138
2012/03/06,1138,1139,1138,1139,1300,1139
2012/03/07,1136,1136,1135,1135,1800,1135
2012/03/08,1134,1141,1134,1141,2000,1141
2012/03/09,1141,1143,1140,1142,2400,1142
2012/03/12,1147,1147,1141,1147,2100,1147
2012/03/13,1150,1171,1150,1155,6000,1155
2012/03/14,1180,1180,1180,1180,2500,1180
2012/03/15,1170,1174,1170,1174,200,1174
2012/03/16,1174,1175,1174,1175,2200,1175
2012/03/19,1175,1189,1162,1189,6500,1189
2012/03/21,1175,1180,1175,1175,4900,1175
2012/03/22,1185,1185,1185,1185,200,1185
2012/03/23,1175,1200,1170,1200,11200,1200
2012/03/26,1201,1216,1200,1200,4800,1200
2012/03/27,1181,1199,1181,1183,21400,1183
2012/03/28,1178,1178,1160,1160,1100,1160
2012/04/02,1135,1136,1054,1092,3500,1092
2012/04/03,1120,1162,1120,1157,600,1157
2012/04/04,1156,1156,1115,1139,1600,1139
2012/04/05,1153,1153,1106,1106,1100,1106
2012/04/06,1133,1133,1133,1133,200,1133
2012/04/09,1154,1154,1143,1143,300,1143
2012/04/10,1113,1113,1113,1113,600,1113
2012/04/11,1113,1125,1104,1117,3100,1117
2012/04/12,1142,1142,1140,1141,700,1141
2012/04/13,1138,1150,1138,1138,2700,1138
2012/04/16,1147,1147,1130,1145,2500,1145
2012/04/17,1147,1148,1147,1148,1000,1148
2012/04/18,1150,1150,1140,1140,1400,1140
2012/04/19,1153,1170,1153,1170,500,1170
2012/04/20,1170,1170,1160,1163,2700,1163
2012/04/23,1157,1163,1119,1163,3400,1163
2012/04/24,1155,1155,1125,1135,900,1135
2012/04/25,1137,1137,1136,1136,200,1136
2012/04/26,1140,1140,1140,1140,100,1140
2012/04/27,1141,1159,1141,1159,400,1159
2012/05/01,1159,1159,1135,1135,2700,1135
2012/05/07,1159,1159,1159,1159,100,1159
2012/05/08,1150,1150,1150,1150,200,1150
2012/05/11,1142,1142,1140,1140,200,1140
2012/05/14,1135,1135,1111,1111,600,1111
2012/05/17,1115,1115,1115,1115,100,1115
2012/05/18,1140,1140,1110,1110,800,1110
2012/05/21,1110,1110,1110,1110,800,1110
2012/05/22,1110,1110,1110,1110,500,1110
2012/05/24,1110,1110,1110,1110,2000,1110
2012/05/25,1110,1110,1110,1110,1400,1110
2012/05/28,1110,1110,1091,1091,1200,1091
2012/06/01,1100,1100,1100,1100,600,1100
2012/06/04,1100,1100,1060,1060,1900,1060
2012/06/05,1060,1060,1060,1060,400,1060
2012/06/11,1090,1100,1090,1100,500,1100
2012/06/12,1106,1106,1080,1080,3800,1080
2012/06/14,1080,1080,1080,1080,500,1080
2012/06/15,1100,1120,1100,1120,800,1120
2012/06/18,1140,1140,1140,1140,400,1140
2012/06/19,1140,1140,1140,1140,100,1140
2012/06/20,1138,1138,1125,1125,2700,1125
2012/06/21,1105,1110,1103,1104,1100,1104
2012/06/22,1106,1107,1105,1107,500,1107
2012/06/25,1107,1110,1070,1089,4700,1089
2012/06/28,1052,1070,1043,1060,6700,1060
2012/06/29,1090,1090,1089,1089,600,1089
2012/07/02,1089,1090,1089,1090,2900,1090
2012/07/03,1090,1090,1090,1090,200,1090
2012/07/06,1120,1120,1090,1100,1300,1100
2012/07/11,1113,1113,1113,1113,100,1113
2012/07/12,1110,1113,1110,1110,1300,1110
2012/07/13,1110,1120,1110,1120,300,1120
2012/07/17,1109,1120,1109,1115,600,1115
2012/07/18,1116,1159,1116,1159,2900,1159
2012/07/19,1150,1159,1149,1158,3100,1158
2012/07/20,1158,1158,1145,1145,8700,1145
2012/07/23,1130,1131,1101,1130,1700,1130
2012/07/24,1130,1149,1130,1149,600,1149
2012/07/25,1144,1144,1114,1120,4300,1120
2012/07/26,1120,1120,1120,1120,1900,1120
2012/07/30,1120,1120,1120,1120,700,1120
2012/07/31,1120,1120,1100,1100,1700,1100
2012/08/01,1120,1120,1120,1120,200,1120
2012/08/02,1120,1120,1120,1120,1200,1120
2012/08/06,1102,1102,1100,1100,700,1100
2012/08/07,1120,1120,1120,1120,200,1120
2012/08/09,1120,1120,1120,1120,300,1120
2012/08/13,1110,1110,1110,1110,100,1110
2012/08/14,1120,1120,1120,1120,100,1120
2012/08/15,1100,1100,1090,1090,1600,1090
2012/08/16,1120,1120,1120,1120,500,1120
2012/08/17,1120,1120,1108,1108,300,1108
2012/08/20,1108,1110,1108,1110,1800,1110
2012/08/21,1110,1110,1110,1110,2500,1110
2012/08/22,1110,1110,1110,1110,100,1110
2012/08/23,1100,1119,1100,1100,1500,1100
2012/08/27,1100,1116,1100,1116,1400,1116
2012/08/28,1116,1116,1116,1116,1200,1116
2012/08/30,1104,1104,1104,1104,300,1104
2012/08/31,1090,1090,1090,1090,2900,1090
2012/09/03,1100,1100,1090,1090,400,1090
2012/09/04,1120,1120,1100,1100,400,1100
2012/09/05,1100,1100,1100,1100,1300,1100
2012/09/06,1125,1125,1105,1105,5100,1105
2012/09/07,1098,1100,1061,1100,4500,1100
2012/09/10,1082,1082,1082,1082,200,1082
2012/09/12,1080,1080,1080,1080,200,1080
2012/09/18,1050,1070,1050,1060,4900,1060
2012/09/19,1079,1079,1079,1079,100,1079
2012/09/20,1079,1080,1079,1079,6100,1079
2012/09/21,1072,1072,1072,1072,300,1072
2012/09/24,1072,1080,1072,1080,800,1080
2012/09/25,1080,1081,1060,1060,3400,1060
2012/09/28,1040,1040,1040,1040,1000,1040
2012/10/01,1045,1045,1043,1043,1000,1043
2012/10/02,1043,1043,1043,1043,1000,1043
2012/10/03,1060,1060,1041,1041,300,1041
2012/10/09,1002,1035,1000,1011,7000,1011
2012/10/10,1010,1010,1010,1010,100,1010
2012/10/16,1010,1020,1010,1020,200,1020
2012/10/17,1029,1029,1025,1025,200,1025
2012/10/18,1055,1100,1025,1100,2300,1100
2012/10/19,1070,1090,1050,1090,1600,1090
2012/10/22,1089,1089,1089,1089,2500,1089
2012/10/23,1085,1085,1085,1085,1000,1085
2012/10/25,1090,1090,1090,1090,100,1090
2012/10/26,1090,1090,1050,1070,2700,1070
2012/10/31,1050,1050,1050,1050,2300,1050
2012/11/02,1080,1080,1031,1052,1900,1052
2012/11/06,1050,1050,1050,1050,1400,1050
2012/11/07,1031,1050,1031,1050,1600,1050
2012/11/08,1050,1050,1050,1050,200,1050
2012/11/09,1050,1050,1050,1050,1000,1050
2012/11/14,1050,1060,1050,1060,300,1060
2012/11/16,1056,1070,1056,1070,1900,1070
2012/11/19,1070,1093,1070,1079,800,1079
2012/11/20,1079,1079,1067,1067,2800,1067
2012/11/21,1057,1057,1057,1057,500,1057
2012/11/22,1067,1079,1067,1079,700,1079
2012/11/26,1079,1079,1065,1065,2100,1065
2012/11/27,1070,1070,1060,1070,900,1070
2012/11/28,1068,1068,1068,1068,200,1068
2012/11/29,1066,1066,1066,1066,400,1066
2012/11/30,1066,1080,1061,1061,1600,1061
2012/12/04,1070,1070,1070,1070,300,1070
2012/12/06,1070,1073,1070,1073,500,1073
2012/12/10,1089,1100,1089,1100,1500,1100
2012/12/11,1100,1101,1100,1100,2900,1100
2012/12/13,1090,1092,1090,1092,400,1092
2012/12/14,1099,1100,1099,1100,1200,1100
2012/12/17,1100,1113,1100,1113,4200,1113
2012/12/18,1100,1115,1100,1115,2100,1115
2012/12/19,1115,1145,1106,1145,2300,1145
2012/12/20,1145,1145,1115,1130,9900,1130
2012/12/21,1126,1168,1126,1168,1200,1168
2012/12/25,1168,1168,1168,1168,1500,1168
2012/12/26,1170,1179,1170,1179,1700,1179
2012/12/27,1179,1202,1179,1198,2100,1198
2012/12/28,1198,1198,1172,1173,2700,1173
2013/01/04,1173,1175,1173,1175,700,1175
2013/01/07,1176,1189,1176,1189,600,1189
2013/01/08,1189,1189,1189,1189,400,1189
2013/01/10,1189,1240,1180,1180,1500,1180
2013/01/15,1200,1230,1200,1200,3300,1200
2013/01/16,1181,1186,1150,1180,2400,1180
2013/01/18,1180,1245,1180,1245,2400,1245
2013/01/21,1238,1238,1200,1200,2700,1200
2013/01/23,1200,1200,1200,1200,500,1200
2013/01/24,1201,1231,1201,1231,200,1231
2013/01/25,1231,1249,1210,1210,2000,1210
2013/01/28,1220,1220,1220,1220,100,1220
2013/01/29,1212,1212,1212,1212,100,1212
2013/01/30,1212,1212,1211,1212,1100,1212
2013/02/01,1221,1245,1221,1245,1500,1245
2013/02/04,1245,1260,1245,1260,2300,1260
2013/02/05,1260,1260,1260,1260,500,1260
2013/02/06,1260,1290,1260,1260,1400,1260
2013/02/07,1290,1290,1251,1285,700,1285
2013/02/08,1284,1288,1260,1288,1500,1288
2013/02/12,1288,1288,1288,1288,100,1288
2013/02/14,1259,1259,1259,1259,100,1259
2013/02/15,1251,1251,1250,1250,300,1250
2013/02/18,1250,1250,1210,1240,1500,1240
2013/02/19,1260,1260,1250,1250,1300,1250
2013/02/20,1250,1269,1250,1269,2600,1269
2013/02/21,1269,1269,1264,1264,2300,1264
2013/02/22,1255,1270,1250,1270,2400,1270
2013/02/25,1270,1280,1250,1280,4900,1280
2013/02/26,1288,1289,1288,1289,700,1289
2013/02/27,1289,1289,1235,1236,1600,1236
2013/02/28,1243,1250,1243,1244,300,1244
2013/03/01,1255,1255,1250,1250,300,1250
2013/03/04,1260,1291,1260,1291,3200,1291
2013/03/05,1295,1297,1292,1297,2600,1297
2013/03/06,1297,1310,1297,1310,3800,1310
2013/03/07,1315,1330,1314,1330,1100,1330
2013/03/08,1308,1310,1308,1308,1400,1308
2013/03/11,1338,1350,1338,1350,1400,1350
2013/03/12,1350,1350,1338,1338,1500,1338
2013/03/13,1345,1350,1345,1350,700,1350
2013/03/14,1345,1350,1345,1350,400,1350
2013/03/15,1355,1380,1355,1380,3100,1380
2013/03/18,1350,1400,1350,1400,1600,1400
2013/03/19,1449,1449,1421,1421,1400,1421
2013/03/21,1421,1450,1421,1450,3300,1450
2013/03/22,1450,1459,1450,1459,4400,1459
2013/03/25,1465,1493,1462,1493,2500,1493
2013/03/26,1499,1500,1495,1495,13800,1495
2013/03/27,1495,1495,1495,1495,1100,1495
2013/03/28,1495,1495,1340,1396,6700,1396
2013/03/29,1385,1430,1380,1430,900,1430
2013/04/01,1430,1430,1400,1400,1800,1400
2013/04/03,1390,1390,1370,1370,400,1370
2013/04/04,1400,1400,1370,1370,700,1370
2013/04/05,1370,1444,1351,1444,5100,1444
2013/04/08,1450,1450,1450,1450,400,1450
2013/04/09,1450,1455,1431,1431,400,1431
2013/04/11,1455,1455,1435,1455,500,1455
2013/04/12,1460,1465,1460,1465,400,1465
2013/04/15,1465,1465,1465,1465,300,1465
2013/04/16,1426,1460,1426,1460,1600,1460
2013/04/17,1470,1470,1470,1470,600,1470
2013/04/19,1440,1500,1440,1500,1400,1500
2013/04/22,1501,1501,1470,1470,6300,1470
2013/04/23,1471,1498,1470,1498,4500,1498
2013/04/24,1472,1498,1472,1476,2300,1476
2013/04/25,1477,1498,1477,1498,300,1498
2013/04/26,1498,1505,1470,1471,5400,1471
2013/04/30,1471,1493,1471,1493,500,1493
2013/05/01,1493,1518,1491,1491,3300,1491
2013/05/02,1461,1461,1460,1460,2100,1460
2013/05/07,1461,1475,1461,1470,2700,1470
2013/05/08,1460,1470,1450,1470,5500,1470
2013/05/09,1470,1470,1470,1470,300,1470
2013/05/10,1472,1472,1450,1470,1200,1470
2013/05/13,1465,1480,1465,1471,1500,1471
2013/05/14,1470,1550,1470,1550,7000,1550
2013/05/15,1588,1619,1587,1590,16300,1590
2013/05/16,1555,1590,1550,1589,4300,1589
2013/05/17,1549,1590,1549,1565,4100,1565
2013/05/20,1570,1580,1570,1580,1100,1580
2013/05/21,1580,1602,1580,1602,3000,1602
2013/05/22,1602,1619,1602,1619,1800,1619
2013/05/23,1622,1623,1580,1580,4800,1580
2013/05/24,1590,1630,1580,1590,4100,1590
2013/05/27,1609,1609,1512,1579,2000,1579
2013/05/28,1519,1550,1519,1550,600,1550
2013/05/29,1550,1550,1530,1530,300,1530
2013/05/30,1530,1530,1520,1530,500,1530
2013/05/31,1530,1530,1530,1530,100,1530
2013/06/03,1529,1530,1451,1454,1800,1454
2013/06/04,1511,1511,1499,1500,500,1500
2013/06/05,1499,1509,1499,1509,200,1509
2013/06/07,1450,1450,1350,1350,2100,1350
2013/06/10,1320,1470,1320,1428,2300,1428
2013/06/11,1429,1441,1341,1425,3500,1425
2013/06/12,1341,1356,1300,1356,1500,1356
2013/06/14,1395,1440,1395,1420,2200,1420
2013/06/17,1450,1450,1420,1450,900,1450
2013/06/18,1450,1450,1450,1450,200,1450
2013/06/19,1457,1500,1457,1500,1100,1500
2013/06/20,1500,1520,1500,1520,2100,1520
2013/06/21,1480,1490,1402,1472,2500,1472
2013/06/24,1422,1480,1422,1480,600,1480
2013/06/25,1480,1500,1453,1453,1500,1453
2013/06/28,1453,1453,1453,1453,300,1453
2013/07/01,1458,1458,1458,1458,700,1458
2013/07/02,1460,1473,1460,1464,500,1464
2013/07/03,1463,1463,1425,1426,1800,1426
2013/07/04,1439,1445,1439,1445,200,1445
2013/07/05,1431,1455,1425,1426,2000,1426
2013/07/08,1426,1426,1420,1422,1700,1422
2013/07/09,1422,1422,1400,1400,4000,1400
2013/07/10,1400,1421,1400,1421,1400,1421
2013/07/11,1400,1400,1400,1400,1000,1400
2013/07/12,1404,1420,1404,1420,1000,1420
2013/07/16,1440,1470,1440,1470,1300,1470
2013/07/17,1470,1470,1441,1470,400,1470
2013/07/18,1461,1464,1450,1463,1900,1463
2013/07/19,1463,1500,1445,1500,2800,1500
2013/07/22,1497,1497,1494,1494,7500,1494
2013/07/25,1473,1482,1473,1482,400,1482
2013/07/26,1485,1500,1475,1500,6800,1500
2013/07/29,1507,1530,1450,1490,4900,1490
2013/07/30,1480,1480,1452,1470,500,1470
2013/07/31,1477,1482,1470,1475,1300,1475
2013/08/01,1492,1493,1475,1493,700,1493
2013/08/02,1495,1495,1471,1471,500,1471
2013/08/05,1500,1500,1481,1490,1600,1490
2013/08/06,1500,1500,1500,1500,1000,1500
2013/08/07,1490,1497,1490,1497,400,1497
2013/08/08,1490,1494,1489,1490,1200,1490
2013/08/09,1498,1500,1488,1488,1600,1488
2013/08/12,1500,1600,1496,1500,8700,1500
2013/08/13,1500,1598,1500,1569,9900,1569
2013/08/14,1648,1969,1622,1861,184600,1861
2013/08/15,1821,1980,1761,1959,119600,1959
2013/08/16,1910,2050,1820,1853,115700,1853
2013/08/19,1855,1950,1855,1899,39700,1899
2013/08/20,1902,1905,1770,1803,54500,1803
2013/08/21,1790,1840,1755,1824,22100,1824
2013/08/22,1788,1980,1785,1916,44700,1916
2013/08/23,1903,1960,1870,1937,24400,1937
2013/08/26,1950,1950,1902,1927,26800,1927
2013/08/27,1925,1930,1903,1930,8500,1930
2013/08/28,1905,1927,1886,1927,13800,1927
2013/08/29,1912,1955,1902,1911,13900,1911
2013/08/30,1943,1943,1896,1920,12100,1920
2013/09/02,1906,1910,1821,1900,16600,1900
2013/09/03,1877,1909,1866,1909,5100,1909
2013/09/04,1910,1913,1880,1895,5500,1895
2013/09/05,1904,1904,1835,1879,12600,1879
2013/09/06,1861,1888,1831,1867,13300,1867
2013/09/09,1867,1867,1780,1823,20100,1823
2013/09/10,1823,1823,1779,1789,7800,1789
2013/09/11,1770,1777,1625,1685,29600,1685
2013/09/12,1686,1688,1655,1655,6800,1655
2013/09/13,1655,1655,1600,1620,10200,1620
2013/09/17,1656,1709,1645,1709,17900,1709
2013/09/18,1789,1792,1676,1715,12200,1715
2013/09/19,1716,1734,1681,1703,7000,1703
2013/09/20,1710,1735,1707,1729,9400,1729
2013/09/24,1744,1757,1729,1755,9100,1755
2013/09/25,1755,1771,1725,1725,7400,1725
2013/09/26,1710,1728,1700,1724,4500,1724
2013/09/27,1727,1749,1717,1744,4400,1744
2013/09/30,1694,1737,1691,1704,6100,1704
2013/10/01,1702,1702,1671,1680,4200,1680
2013/10/02,1667,1690,1630,1630,4300,1630
2013/10/03,1606,1634,1601,1629,5400,1629
2013/10/04,1603,1603,1500,1571,20800,1571
2013/10/07,1532,1538,1506,1525,5500,1525
2013/10/08,1470,1535,1461,1535,9100,1535
2013/10/09,1518,1545,1495,1531,3100,1531
2013/10/10,1571,1600,1560,1600,4600,1600
2013/10/11,1573,1626,1573,1603,3000,1603
2013/10/15,1660,1660,1600,1639,3800,1639
2013/10/16,1639,1698,1639,1655,4900,1655
2013/10/17,1689,1689,1655,1660,5300,1660
2013/10/18,1673,1711,1600,1711,16500,1711
2013/10/21,1715,1825,1715,1801,17500,1801
2013/10/22,1810,1820,1711,1798,16200,1798
2013/10/23,1800,1800,1751,1780,7300,1780
2013/10/24,1794,1818,1779,1815,5900,1815
2013/10/25,1820,1845,1509,1600,64200,1600
2013/10/28,1640,1640,1606,1610,18600,1610
2013/10/29,1602,1613,1590,1613,5800,1613
2013/10/30,1603,1619,1580,1583,6700,1583
2013/10/31,1583,1583,1550,1565,4600,1565
2013/11/01,1553,1560,1545,1545,4300,1545
2013/11/05,1548,1570,1548,1548,1400,1548
2013/11/06,1550,1580,1550,1555,2800,1555
2013/11/07,1555,1555,1545,1550,5700,1550
2013/11/08,1551,1551,1531,1532,1500,1532
2013/11/11,1532,1545,1520,1545,2100,1545
2013/11/12,1545,1545,1545,1545,400,1545
2013/11/13,1535,1555,1535,1550,1400,1550
2013/11/14,1535,1542,1521,1529,5500,1529
2013/11/15,1553,1558,1531,1551,3000,1551
2013/11/18,1530,1555,1530,1555,400,1555
2013/11/19,1553,1555,1553,1554,1300,1554
2013/11/20,1552,1552,1531,1549,3300,1549
2013/11/21,1548,1555,1534,1555,5200,1555
2013/11/22,1530,1552,1530,1550,11000,1550
2013/11/25,1546,1570,1546,1569,7100,1569
2013/11/26,1560,1577,1553,1553,5700,1553
2013/11/27,1573,1580,1547,1565,3000,1565
2013/11/28,1574,1574,1554,1568,4400,1568
2013/11/29,1561,1572,1555,1570,4700,1570
2013/12/02,1573,1578,1562,1562,9400,1562
2013/12/03,1568,1590,1567,1583,54900,1583
2013/12/04,1586,1586,1565,1572,12000,1572
2013/12/05,1566,1574,1566,1568,4600,1568
2013/12/06,1566,1574,1566,1573,3700,1573
2013/12/09,1575,1582,1573,1578,5700,1578
2013/12/10,1575,1580,1567,1579,20000,1579
2013/12/11,1579,1581,1577,1577,12300,1577
2013/12/12,1569,1579,1569,1575,4000,1575
2013/12/13,1570,1574,1501,1560,15400,1560
2013/12/16,1550,1560,1516,1516,7700,1516
2013/12/17,1510,1550,1494,1495,17300,1495
2013/12/18,1495,1500,1491,1491,3500,1491
2013/12/19,1500,1510,1492,1510,9700,1510
2013/12/20,1508,1508,1490,1491,15400,1491
2013/12/24,1485,1490,1468,1468,12700,1468
2013/12/25,1468,1468,1439,1440,17500,1440
2013/12/26,1460,1515,1442,1513,8700,1513
2013/12/27,1546,1546,1499,1499,4200,1499
2013/12/30,1539,1560,1535,1560,6100,1560
2014/01/06,1562,1640,1560,1614,7800,1614
2014/01/07,1614,1614,1600,1600,3100,1600
2014/01/08,1600,1606,1586,1592,2300,1592
2014/01/09,1586,1586,1553,1553,2600,1553
2014/01/10,1553,1556,1500,1545,5000,1545
2014/01/14,1545,1567,1540,1560,2700,1560
2014/01/15,1545,1578,1544,1570,3700,1570
2014/01/16,1570,1588,1548,1583,7300,1583
2014/01/17,1586,1594,1565,1594,1800,1594
2014/01/20,1594,1600,1583,1591,4300,1591
2014/01/21,1610,1610,1590,1590,1900,1590
2014/01/22,1600,1605,1585,1602,2800,1602
2014/01/23,1585,1586,1563,1579,2100,1579
2014/01/24,1574,1600,1566,1595,2400,1595
2014/01/27,1579,1588,1558,1588,2400,1588
2014/01/28,1587,1610,1540,1601,7500,1601
2014/01/29,1599,1609,1572,1595,6800,1595
2014/01/30,1585,1585,1530,1535,4900,1535
2014/01/31,1573,1573,1517,1517,3600,1517
2014/02/03,1501,1518,1471,1481,7200,1481
2014/02/04,1445,1455,1357,1416,12000,1416
2014/02/05,1455,1485,1422,1435,1200,1435
2014/02/06,1460,1460,1446,1446,600,1446
2014/02/07,1447,1480,1447,1470,1600,1470
2014/02/10,1480,1480,1480,1480,200,1480
2014/02/12,1479,1495,1479,1490,2400,1490
2014/02/13,1475,1480,1464,1464,3000,1464
2014/02/14,1450,1450,1412,1422,4300,1422
2014/02/17,1422,1422,1422,1422,100,1422
2014/02/18,1452,1452,1427,1427,1700,1427
2014/02/19,1446,1446,1435,1444,1400,1444
2014/02/20,1444,1447,1427,1428,6300,1428
2014/02/21,1454,1454,1433,1433,300,1433
2014/02/24,1429,1439,1429,1439,2300,1439
2014/02/25,1439,1460,1439,1448,3500,1448
2014/02/26,1449,1449,1448,1448,800,1448
2014/02/27,1454,1454,1449,1449,900,1449
2014/02/28,1449,1453,1448,1450,2900,1450
2014/03/03,1450,1454,1419,1454,5000,1454
2014/03/04,1450,1450,1435,1435,2400,1435
2014/03/05,1450,1450,1445,1445,1100,1445
2014/03/06,1453,1453,1453,1453,800,1453
2014/03/07,1452,1460,1452,1460,1200,1460
2014/03/10,1459,1460,1452,1452,1900,1452
2014/03/11,1455,1455,1444,1445,1800,1445
2014/03/12,1445,1445,1440,1440,1600,1440
2014/03/14,1420,1440,1420,1440,4000,1440
2014/03/18,1430,1431,1425,1426,800,1426
2014/03/19,1427,1443,1427,1443,1400,1443
2014/03/20,1439,1439,1422,1422,5800,1422
2014/03/24,1429,1430,1420,1424,3200,1424
2014/03/25,1425,1425,1423,1423,2700,1423
2014/03/26,1421,1440,1405,1436,17100,1436
2014/03/27,1331,1394,1331,1369,5800,1369
2014/03/28,1370,1373,1350,1367,4400,1367
2014/03/31,1379,1425,1373,1403,4000,1403
2014/04/01,1420,1421,1405,1405,1100,1405
2014/04/02,1407,1410,1405,1405,1500,1405
2014/04/03,1401,1401,1401,1401,600,1401
2014/04/04,1406,1406,1405,1405,300,1405
2014/04/07,1405,1405,1390,1390,1500,1390
2014/04/08,1388,1388,1380,1380,400,1380
2014/04/09,1379,1380,1331,1331,4300,1331
2014/04/10,1361,1374,1345,1374,1900,1374
2014/04/11,1350,1350,1345,1345,1100,1345
2014/04/15,1350,1352,1350,1352,300,1352
2014/04/16,1359,1359,1351,1351,800,1351
2014/04/17,1362,1387,1355,1387,1100,1387
2014/04/18,1387,1397,1365,1397,1700,1397
2014/04/21,1397,1429,1397,1425,2300,1425
2014/04/22,1425,1428,1385,1385,2600,1385
2014/04/23,1390,1420,1386,1410,1300,1410
2014/04/24,1400,1425,1400,1410,500,1410
2014/04/25,1411,1411,1411,1411,100,1411
2014/04/28,1411,1412,1411,1411,1200,1411
2014/04/30,1411,1411,1411,1411,100,1411
2014/05/01,1411,1412,1411,1412,400,1412
2014/05/02,1412,1412,1401,1401,1400,1401
2014/05/07,1407,1407,1400,1400,1700,1400
2014/05/08,1390,1401,1355,1401,2000,1401
2014/05/09,1390,1390,1390,1390,700,1390
2014/05/12,1370,1390,1370,1390,2000,1390
2014/05/13,1370,1389,1350,1381,4000,1381
2014/05/14,1400,1450,1400,1415,2900,1415
2014/05/15,1411,1420,1411,1420,1600,1420
2014/05/16,1419,1419,1416,1416,300,1416
2014/05/19,1416,1416,1385,1385,2200,1385
2014/05/20,1386,1403,1386,1403,500,1403
2014/05/21,1403,1403,1381,1383,2300,1383
2014/05/26,1390,1390,1386,1386,1700,1386
2014/05/27,1400,1400,1398,1400,1600,1400
2014/05/28,1390,1390,1390,1390,200,1390
2014/05/29,1390,1445,1390,1417,1500,1417
2014/05/30,1419,1419,1400,1400,800,1400
2014/06/02,1407,1407,1407,1407,100,1407
2014/06/03,1412,1427,1412,1425,3800,1425
2014/06/04,1425,1425,1425,1425,500,1425
2014/06/05,1439,1439,1428,1428,700,1428
2014/06/06,1426,1426,1426,1426,500,1426
2014/06/09,1442,1442,1442,1442,100,1442
2014/06/10,1445,1445,1442,1444,400,1444
2014/06/11,1447,1484,1447,1484,2400,1484
2014/06/12,1484,1484,1484,1484,2600,1484
2014/06/13,1455,1477,1451,1477,700,1477
2014/06/16,1475,1479,1446,1479,3700,1479
2014/06/17,1472,1472,1460,1463,300,1463
2014/06/18,1460,1470,1437,1459,1500,1459
2014/06/19,1458,1460,1441,1460,1500,1460
2014/06/20,1460,1460,1460,1460,3400,1460
2014/06/23,1560,1560,1550,1550,5400,1550
2014/06/24,1510,1518,1481,1518,3000,1518
2014/06/25,1518,1518,1518,1518,1100,1518
2014/06/26,1538,1538,1501,1510,1900,1510
2014/06/27,1516,1516,1480,1480,3800,1480
2014/06/30,1480,1500,1480,1500,1200,1500
2014/07/01,1529,1529,1524,1527,1400,1527
2014/07/02,1527,1549,1490,1549,8200,1549
2014/07/04,1521,1521,1487,1488,7600,1488
2014/07/07,1484,1525,1484,1520,2500,1520
2014/07/08,1507,1541,1501,1507,3600,1507
2014/07/09,1492,1506,1491,1506,2400,1506
2014/07/10,1507,1513,1500,1500,1000,1500
2014/07/11,1490,1490,1490,1490,800,1490
2014/07/14,1492,1494,1492,1493,500,1493
2014/07/15,1495,1495,1493,1494,500,1494
2014/07/16,1500,1518,1500,1501,2400,1501
2014/07/17,1508,1509,1504,1504,1500,1504
2014/07/18,1499,1508,1480,1508,3900,1508
2014/07/22,1508,1538,1508,1538,4800,1538
2014/07/23,1538,1538,1530,1530,4900,1530
2014/07/24,1533,1550,1533,1550,1300,1550
2014/07/25,1550,1550,1550,1550,3200,1550
2014/07/28,1542,1550,1485,1495,6500,1495
2014/07/29,1495,1497,1491,1496,900,1496
2014/07/30,1505,1510,1496,1510,2100,1510
2014/07/31,1510,1546,1510,1546,1400,1546
2014/08/01,1466,1500,1466,1483,3500,1483
2014/08/04,1476,1494,1476,1494,800,1494
2014/08/05,1486,1500,1486,1500,900,1500
2014/08/06,1490,1490,1490,1490,300,1490
2014/08/07,1472,1472,1472,1472,200,1472
2014/08/08,1480,1489,1480,1489,600,1489
2014/08/11,1540,1540,1460,1461,2200,1461
2014/08/12,1462,1462,1462,1462,200,1462
2014/08/13,1459,1475,1456,1474,1300,1474
2014/08/14,1466,1466,1465,1465,200,1465
2014/08/18,1471,1471,1470,1470,400,1470
2014/08/20,1473,1490,1473,1490,2800,1490
2014/08/21,1490,1490,1490,1490,200,1490
2014/08/22,1482,1482,1480,1480,400,1480
2014/08/25,1490,1491,1490,1491,600,1491
2014/08/26,1492,1492,1491,1491,1300,1491
2014/08/27,1491,1491,1491,1491,100,1491
2014/08/28,1491,1491,1490,1490,700,1490
2014/08/29,1490,1499,1490,1499,1100,1499
2014/09/01,1500,1500,1499,1499,900,1499
2014/09/02,1485,1485,1485,1485,100,1485
2014/09/03,1495,1495,1483,1483,400,1483
2014/09/04,1480,1482,1480,1480,400,1480
2014/09/05,1480,1480,1480,1480,400,1480
2014/09/08,1488,1488,1488,1488,500,1488
2014/09/09,1490,1495,1490,1494,1200,1494
2014/09/10,1490,1490,1490,1490,1000,1490
2014/09/11,1490,1510,1490,1510,1100,1510
2014/09/12,1520,1520,1510,1510,1700,1510
2014/09/16,1488,1490,1479,1485,2800,1485
2014/09/17,1485,1485,1478,1478,1600,1478
2014/09/18,1481,1481,1481,1481,100,1481
2014/09/22,1490,1495,1490,1491,900,1491
2014/09/24,1491,1508,1491,1508,1700,1508
2014/09/25,1508,1510,1508,1510,3600,1510
2014/09/26,1465,1490,1465,1490,1100,1490
2014/09/29,1481,1484,1481,1484,500,1484
2014/09/30,1484,1484,1484,1484,100,1484
2014/10/01,1484,1484,1480,1484,1300,1484
2014/10/02,1465,1465,1444,1451,5300,1451
2014/10/06,1459,1460,1459,1460,300,1460
2014/10/07,1464,1464,1464,1464,100,1464
2014/10/08,1464,1484,1464,1484,200,1484
2014/10/09,1470,1470,1470,1470,100,1470
2014/10/10,1450,1465,1450,1465,2500,1465
2014/10/14,1450,1450,1442,1442,800,1442
2014/10/16,1400,1430,1400,1430,1600,1430
2014/10/17,1417,1417,1417,1417,100,1417
2014/10/20,1418,1421,1400,1403,3300,1403
2014/10/21,1410,1437,1410,1437,500,1437
2014/10/22,1410,1415,1410,1415,200,1415
2014/10/23,1420,1420,1420,1420,200,1420
2014/10/24,1437,1437,1410,1410,2400,1410
2014/10/27,1425,1440,1425,1440,1800,1440
2014/10/28,1440,1441,1440,1441,1300,1441
2014/10/29,1441,1441,1441,1441,500,1441
2014/10/31,1440,1460,1440,1460,1500,1460
2014/11/04,1460,1470,1450,1450,2800,1450
2014/11/05,1465,1465,1450,1450,600,1450
2014/11/06,1450,1469,1450,1468,500,1468
2014/11/07,1452,1452,1452,1452,200,1452
2014/11/10,1422,1424,1422,1424,1100,1424
2014/11/11,1426,1429,1426,1429,600,1429
2014/11/12,1444,1451,1440,1450,4000,1450
2014/11/13,1440,1451,1440,1451,1200,1451
2014/11/14,1447,1451,1443,1444,1400,1444
2014/11/17,1441,1466,1440,1466,2300,1466
2014/11/18,1467,1467,1467,1467,100,1467
2014/11/19,1488,1488,1487,1487,800,1487
2014/11/20,1487,1494,1487,1494,5700,1494
2014/11/21,1487,1498,1487,1490,700,1490
2014/11/25,1495,1498,1487,1498,4300,1498
2014/11/26,1498,1500,1497,1500,2800,1500
2014/11/27,1500,1500,1500,1500,2000,1500
2014/11/28,1490,1490,1490,1490,100,1490
2014/12/01,1500,1500,1470,1490,4800,1490
2014/12/02,1470,1475,1470,1475,1200,1475
2014/12/03,1461,1477,1456,1464,2900,1464
2014/12/04,1491,1495,1491,1492,1700,1492
2014/12/05,1499,1499,1470,1492,2800,1492
2014/12/08,1499,1500,1499,1499,1300,1499
2014/12/09,1490,1500,1490,1490,2200,1490
2014/12/10,1485,1487,1485,1487,1200,1487
2014/12/11,1490,1509,1490,1509,900,1509
2014/12/12,1509,1509,1509,1509,1700,1509
2014/12/15,1519,1519,1516,1516,200,1516
2014/12/16,1501,1501,1490,1490,1800,1490
2014/12/17,1485,1495,1480,1495,4200,1495
2014/12/18,1492,1510,1490,1510,2600,1510
2014/12/19,1518,1549,1496,1528,5400,1528
2014/12/22,1528,1530,1528,1530,10700,1530
2014/12/24,1530,1530,1517,1517,700,1517
2014/12/25,1517,1539,1517,1539,2600,1539
2014/12/26,1539,1539,1526,1538,2700,1538
2014/12/29,1530,1530,1529,1529,500,1529
2014/12/30,1517,1542,1517,1542,1000,1542
2015/01/05,1542,1542,1509,1509,1500,1509
2015/01/06,1509,1509,1509,1509,1400,1509
2015/01/07,1504,1525,1504,1525,600,1525
2015/01/08,1509,1526,1506,1526,6400,1526
2015/01/13,1486,1502,1476,1497,3200,1497
2015/01/14,1524,1524,1520,1521,1000,1521
2015/01/15,1500,1507,1500,1507,3700,1507
2015/01/16,1500,1527,1500,1525,1000,1525
2015/01/20,1516,1516,1460,1500,8600,1500
2015/01/21,1500,1500,1487,1487,300,1487
2015/01/22,1483,1525,1481,1503,2000,1503
2015/01/23,1492,1492,1490,1490,600,1490
2015/01/26,1496,1498,1490,1490,1300,1490
2015/01/27,1490,1500,1490,1493,1200,1493
2015/01/28,1493,1518,1493,1493,2500,1493
2015/01/29,1495,1525,1493,1525,2200,1525
2015/01/30,1520,1520,1500,1500,2200,1500
2015/02/02,1500,1529,1500,1516,1600,1516
2015/02/03,1530,1530,1519,1519,300,1519
2015/02/04,1515,1515,1515,1515,100,1515
2015/02/05,1501,1519,1492,1492,2100,1492
2015/02/06,1491,1499,1491,1499,2300,1499
2015/02/09,1500,1500,1494,1494,900,1494
2015/02/12,1499,1499,1499,1499,200,1499
2015/02/13,1500,1500,1500,1500,1000,1500
2015/02/16,1500,1500,1500,1500,1200,1500
2015/02/17,1502,1502,1502,1502,100,1502
2015/02/18,1517,1517,1514,1514,700,1514
2015/02/20,1514,1520,1514,1517,2100,1517
2015/02/23,1520,1520,1517,1517,3600,1517
2015/02/24,1520,1520,1520,1520,500,1520
2015/02/25,1520,1520,1520,1520,500,1520
2015/02/26,1525,1528,1525,1527,1400,1527
2015/02/27,1527,1541,1527,1541,1200,1541
2015/03/02,1541,1541,1528,1528,1900,1528
2015/03/04,1540,1540,1540,1540,1000,1540
2015/03/06,1520,1523,1443,1501,7000,1501
2015/03/09,1510,1516,1510,1516,2000,1516
2015/03/11,1510,1510,1501,1501,500,1501
2015/03/12,1510,1510,1490,1491,1300,1491
2015/03/13,1508,1510,1502,1502,800,1502
2015/03/16,1510,1555,1510,1555,3200,1555
2015/03/17,1550,1550,1533,1540,1900,1540
2015/03/18,1521,1559,1521,1550,2200,1550
2015/03/19,1550,1559,1550,1559,3400,1559
2015/03/20,1559,1579,1559,1579,3800,1579
2015/03/23,1579,1580,1579,1580,900,1580
2015/03/24,1585,1585,1585,1585,2200,1585
2015/03/25,1523,1544,1523,1526,8100,1526
2015/03/26,1527,1540,1527,1530,14400,1530
2015/03/27,1532,1570,1507,1507,4800,1507
2015/03/30,1507,1510,1507,1510,1100,1510
2015/03/31,1535,1535,1514,1514,1000,1514
2015/04/01,1514,1514,1514,1514,500,1514
2015/04/02,1522,1522,1522,1522,300,1522
2015/04/03,1522,1522,1522,1522,300,1522
2015/04/06,1502,1506,1502,1506,2800,1506
2015/04/07,1511,1511,1501,1501,500,1501
2015/04/08,1500,1509,1499,1499,2300,1499
2015/04/09,1504,1505,1499,1503,900,1503
2015/04/10,1508,1508,1508,1508,200,1508
2015/04/13,1508,1508,1501,1507,700,1507
2015/04/14,1500,1507,1498,1507,5600,1507
2015/04/15,1500,1500,1500,1500,300,1500
2015/04/16,1507,1507,1507,1507,300,1507
2015/04/17,1498,1498,1498,1498,800,1498
2015/04/20,1498,1498,1498,1498,2600,1498
2015/04/21,1498,1498,1490,1490,15800,1490
2015/04/22,1487,1494,1480,1480,1800,1480
2015/04/23,1495,1495,1495,1495,800,1495
2015/04/24,1487,1487,1486,1486,500,1486
2015/04/27,1486,1488,1486,1488,1100,1488
2015/04/28,1488,1500,1488,1488,2000,1488
2015/04/30,1488,1490,1488,1490,300,1490
2015/05/01,1490,1490,1490,1490,1200,1490
2015/05/07,1489,1489,1489,1489,1000,1489
2015/05/08,1492,1492,1488,1488,500,1488
2015/05/11,1496,1496,1484,1484,5600,1484
2015/05/12,1488,1490,1482,1489,1000,1489
2015/05/13,1485,1490,1485,1490,400,1490
2015/05/14,1499,1500,1499,1500,3100,1500
2015/05/15,1500,1500,1490,1499,500,1499
2015/05/18,1495,1500,1490,1490,3100,1490
2015/05/19,1490,1490,1486,1486,1900,1486
2015/05/20,1486,1499,1486,1499,900,1499
2015/05/21,1499,1500,1499,1500,3200,1500
2015/05/22,1499,1499,1499,1499,100,1499
2015/05/25,1499,1500,1490,1490,3800,1490
2015/05/26,1485,1486,1482,1484,3400,1484
2015/05/27,1484,1484,1484,1484,100,1484
2015/05/28,1493,1493,1493,1493,1000,1493
2015/05/29,1485,1485,1485,1485,300,1485
2015/06/01,1490,1490,1485,1485,400,1485
2015/06/02,1490,1490,1481,1481,2000,1481
2015/06/03,1487,1487,1479,1479,1900,1479
2015/06/04,1480,1480,1480,1480,400,1480
2015/06/05,1480,1480,1480,1480,200,1480
2015/06/08,1480,1488,1477,1488,9300,1488
2015/06/09,1488,1489,1478,1481,1400,1481
2015/06/10,1480,1481,1480,1481,200,1481
2015/06/11,1484,1490,1484,1490,1000,1490
2015/06/12,1490,1490,1490,1490,1800,1490
2015/06/15,1485,1485,1485,1485,200,1485
2015/06/16,1489,1492,1489,1490,2600,1490
2015/06/17,1490,1490,1480,1487,1200,1487
2015/06/18,1488,1488,1485,1485,1200,1485
2015/06/19,1488,1488,1481,1481,1400,1481
2015/06/22,1486,1487,1485,1487,1300,1487
2015/06/23,1485,1495,1481,1481,6600,1481
2015/06/24,1481,1485,1481,1485,400,1485
2015/06/25,1486,1487,1480,1481,3800,1481
2015/06/26,1488,1488,1481,1481,500,1481
2015/06/29,1490,1490,1479,1489,4500,1489
2015/06/30,1489,1490,1480,1485,3200,1485
2015/07/01,1480,1490,1480,1485,2300,1485
2015/07/02,1497,1497,1481,1483,2200,1483
2015/07/03,1482,1494,1482,1494,200,1494
2015/07/06,1494,1494,1494,1494,500,1494
2015/07/07,1490,1490,1489,1490,1500,1490
2015/07/08,1485,1490,1481,1481,4200,1481
2015/07/09,1480,1485,1475,1475,6600,1475
2015/07/10,1480,1486,1480,1486,800,1486
2015/07/13,1486,1489,1486,1489,1600,1489
2015/07/14,1490,1500,1490,1490,3600,1490
2015/07/15,1500,1520,1490,1520,4800,1520
2015/07/16,1504,1518,1500,1518,6100,1518
2015/07/17,1529,1530,1504,1528,4300,1528
2015/07/21,1528,1531,1528,1528,5900,1528
2015/07/22,1528,1528,1528,1528,3400,1528
2015/07/23,1510,1511,1501,1503,2000,1503
2015/07/24,1497,1500,1490,1500,2400,1500
2015/07/27,1510,1530,1500,1501,5900,1501
2015/07/28,1501,1505,1501,1505,4700,1505
2015/07/29,1500,1500,1500,1500,700,1500
2015/07/30,1500,1500,1483,1496,6200,1496
2015/07/31,1498,1498,1498,1498,100,1498
2015/08/03,1498,1498,1498,1498,400,1498
2015/08/04,1500,1500,1498,1498,1200,1498
2015/08/06,1500,1500,1486,1498,2300,1498
2015/08/07,1495,1495,1485,1485,1600,1485
2015/08/10,1485,1487,1482,1483,5800,1483
2015/08/11,1482,1490,1481,1481,6000,1481
2015/08/12,1481,1485,1478,1478,3800,1478
2015/08/13,1470,1474,1468,1468,2100,1468
2015/08/14,1468,1470,1468,1468,500,1468
2015/08/17,1470,1480,1469,1480,2100,1480
2015/08/18,1480,1480,1473,1479,700,1479
2015/08/19,1475,1480,1475,1475,700,1475
2015/08/20,1475,1480,1470,1470,4700,1470
2015/08/21,1466,1469,1454,1457,4500,1457
2015/08/24,1460,1460,1442,1442,5500,1442
2015/08/25,1439,1445,1400,1405,8000,1405
2015/08/26,1401,1440,1401,1440,1700,1440
2015/08/27,1431,1450,1431,1433,700,1433
2015/08/28,1450,1450,1450,1450,200,1450
2015/08/31,1450,1453,1450,1453,2100,1453
2015/09/01,1453,1453,1445,1445,1400,1445
2015/09/02,1445,1445,1442,1442,800,1442
2015/09/03,1443,1443,1443,1443,100,1443
2015/09/04,1442,1442,1436,1436,500,1436
2015/09/07,1435,1435,1430,1430,1100,1430
2015/09/09,1440,1450,1440,1450,1300,1450
2015/09/10,1420,1420,1411,1420,2000,1420
2015/09/11,1430,1430,1430,1430,400,1430
2015/09/14,1431,1435,1431,1435,1100,1435
2015/09/15,1435,1435,1434,1435,500,1435
2015/09/16,1435,1440,1435,1440,1000,1440
2015/09/17,1440,1440,1440,1440,100,1440
2015/09/18,1440,1445,1440,1445,1000,1445
2015/09/24,1445,1448,1445,1448,800,1448
2015/09/25,1448,1455,1448,1455,1900,1455
2015/09/28,1456,1456,1409,1432,3500,1432
2015/09/30,1432,1432,1432,1432,600,1432
2015/10/02,1440,1448,1440,1448,1000,1448
2015/10/05,1420,1420,1420,1420,100,1420
2015/10/06,1423,1423,1400,1400,4000,1400
2015/10/07,1403,1403,1403,1403,100,1403
2015/10/08,1410,1410,1410,1410,1000,1410
2015/10/09,1404,1411,1404,1404,1100,1404
2015/10/13,1404,1410,1404,1410,1400,1410
2015/10/14,1415,1415,1415,1415,1000,1415
2015/10/15,1420,1420,1411,1411,800,1411
2015/10/16,1405,1405,1405,1405,2100,1405
