2010/01/04,922,930,922,926,1300,926
2010/01/05,924,930,924,928,1900,928
2010/01/06,951,951,927,927,1800,927
2010/01/07,928,929,920,920,1700,920
2010/01/08,925,929,925,929,400,929
2010/01/12,925,925,919,919,3100,919
2010/01/13,919,919,911,911,2300,911
2010/01/14,911,912,910,912,900,912
2010/01/15,910,926,910,926,2400,926
2010/01/18,926,928,926,928,1000,928
2010/01/19,928,929,926,929,800,929
2010/01/20,957,957,930,930,2800,930
2010/01/21,935,940,935,939,1700,939
2010/01/22,936,939,934,939,1300,939
2010/01/25,933,938,925,938,2500,938
2010/01/26,923,924,923,923,900,923
2010/01/27,912,912,910,912,1200,912
2010/01/28,912,912,910,910,500,910
2010/01/29,910,910,910,910,500,910
2010/02/01,911,911,902,910,1500,910
2010/02/02,916,918,916,918,300,918
2010/02/03,923,923,918,923,900,923
2010/02/04,925,930,924,924,1300,924
2010/02/05,930,930,925,925,1600,925
2010/02/08,928,930,928,930,400,930
2010/02/09,921,928,907,928,2800,928
2010/02/10,927,927,892,900,2300,900
2010/02/12,896,897,892,892,500,892
2010/02/15,894,902,894,894,1700,894
2010/02/16,906,910,899,910,900,910
2010/02/17,917,917,907,914,500,914
2010/02/18,918,920,914,920,1600,920
2010/02/19,926,926,922,922,1300,922
2010/02/22,923,923,919,919,2100,919
2010/02/23,918,918,905,905,900,905
2010/02/24,904,905,900,905,2000,905
2010/02/25,919,919,906,910,7900,910
2010/02/26,907,907,890,890,2000,890
2010/03/01,890,895,890,890,900,890
2010/03/02,894,895,894,895,300,895
2010/03/03,895,895,895,895,1500,895
2010/03/04,895,902,894,902,1700,902
2010/03/05,902,902,899,899,2500,899
2010/03/08,899,899,899,899,500,899
2010/03/09,899,899,898,899,1600,899
2010/03/10,902,902,893,893,4500,893
2010/03/11,892,892,892,892,100,892
2010/03/12,895,899,895,899,1100,899
2010/03/15,900,903,895,896,2700,896
2010/03/16,896,900,895,899,1900,899
2010/03/17,900,900,890,892,3400,892
2010/03/18,892,897,892,897,4000,897
2010/03/19,895,897,894,894,3600,894
2010/03/23,895,909,895,909,6900,909
2010/03/24,905,914,904,914,3800,914
2010/03/25,908,929,904,929,6900,929
2010/03/26,933,934,931,934,2200,934
2010/03/29,936,977,936,974,5400,974
2010/03/30,974,975,966,968,3200,968
2010/03/31,968,975,960,960,6000,960
2010/04/01,966,972,964,970,12300,970
2010/04/02,970,970,966,970,6800,970
2010/04/05,966,967,963,963,7200,963
2010/04/06,961,961,958,961,3400,961
2010/04/07,965,970,965,970,1200,970
2010/04/08,975,975,971,975,4100,975
2010/04/09,975,980,975,980,1900,980
2010/04/12,980,990,980,990,2700,990
2010/04/13,995,996,991,993,1800,993
2010/04/14,997,999,995,999,2100,999
2010/04/15,999,1005,999,1005,4000,1005
2010/04/16,1009,1009,998,999,1800,999
2010/04/19,996,998,994,998,1300,998
2010/04/20,1008,1008,990,993,4100,993
2010/04/21,1008,1008,988,991,3300,991
2010/04/22,997,1004,997,1000,800,1000
2010/04/23,981,998,981,988,4300,988
2010/04/26,990,999,990,997,2300,997
2010/04/27,997,1006,997,1006,1600,1006
2010/04/28,1003,1009,999,1005,2200,1005
2010/04/30,1005,1009,996,1009,4900,1009
2010/05/06,1009,1009,1003,1003,3100,1003
2010/05/07,995,1009,981,999,6900,999
2010/05/10,1004,1005,1000,1004,2500,1004
2010/05/11,1008,1008,1000,1007,2400,1007
2010/05/12,1006,1006,1006,1006,100,1006
2010/05/13,1000,1003,1000,1001,900,1001
2010/05/14,1001,1005,998,998,1800,998
2010/05/17,1005,1005,997,997,1500,997
2010/05/18,992,997,980,997,3700,997
2010/05/19,997,997,983,996,1000,996
2010/05/20,996,998,987,987,2300,987
2010/05/21,981,994,979,980,2300,980
2010/05/24,986,990,985,990,2400,990
2010/05/25,989,989,940,940,4600,940
2010/05/26,941,960,941,944,3500,944
2010/05/27,922,922,885,893,2600,893
2010/05/28,882,891,882,888,1600,888
2010/05/31,888,888,883,883,1800,883
2010/06/01,897,905,897,900,1600,900
2010/06/02,905,905,905,905,400,905
2010/06/03,920,920,905,907,900,907
2010/06/04,908,912,881,892,2900,892
2010/06/07,871,872,871,872,2200,872
2010/06/08,888,888,886,886,900,886
2010/06/09,886,888,886,888,400,888
2010/06/10,902,902,899,899,1700,899
2010/06/11,903,903,888,898,400,898
2010/06/14,880,894,880,894,2000,894
2010/06/15,900,904,900,904,500,904
2010/06/16,919,919,888,900,2400,900
2010/06/17,890,905,890,896,2800,896
2010/06/18,881,889,881,889,1500,889
2010/06/21,890,891,890,891,2100,891
2010/06/22,891,895,891,895,900,895
2010/06/23,891,893,891,893,1700,893
2010/06/24,893,895,890,895,1800,895
2010/06/25,894,894,890,890,2900,890
2010/06/28,888,890,885,885,800,885
2010/06/30,890,890,885,885,900,885
2010/07/01,888,894,888,890,700,890
2010/07/02,895,900,895,900,2100,900
2010/07/05,900,900,887,887,2200,887
2010/07/06,888,890,885,885,600,885
2010/07/07,855,865,855,861,5800,861
2010/07/08,865,865,865,865,800,865
2010/07/09,865,885,865,885,1000,885
2010/07/12,870,870,860,860,3300,860
2010/07/14,866,868,865,868,1500,868
2010/07/15,870,870,866,867,1200,867
2010/07/16,860,860,858,858,2500,858
2010/07/20,873,873,859,863,2000,863
2010/07/21,869,880,869,880,2900,880
2010/07/22,885,910,885,910,2200,910
2010/07/23,896,900,896,900,6400,900
2010/07/26,876,876,858,858,1900,858
2010/07/27,855,856,850,855,900,855
2010/07/28,855,877,855,857,1100,857
2010/07/29,857,860,856,857,900,857
2010/07/30,872,872,872,872,200,872
2010/08/02,872,872,872,872,1500,872
2010/08/03,870,870,870,870,200,870
2010/08/04,870,880,869,880,500,880
2010/08/05,890,890,879,879,1600,879
2010/08/06,878,878,878,878,100,878
2010/08/09,890,890,880,890,500,890
2010/08/10,900,900,852,865,3300,865
2010/08/12,867,867,867,867,100,867
2010/08/13,852,869,852,856,1400,856
2010/08/16,886,886,854,854,1300,854
2010/08/17,854,854,854,854,500,854
2010/08/18,878,878,855,860,700,860
2010/08/19,877,877,868,874,800,874
2010/08/20,884,884,880,880,2000,880
2010/08/23,890,890,880,890,500,890
2010/08/24,888,893,885,893,1800,893
2010/08/25,892,892,886,886,2600,886
2010/08/26,885,890,885,890,500,890
2010/08/27,889,890,889,890,300,890
2010/08/30,890,894,887,894,800,894
2010/08/31,890,896,890,896,500,896
2010/09/01,898,900,896,900,1100,900
2010/09/02,900,900,892,892,200,892
2010/09/03,895,899,895,899,1100,899
2010/09/06,910,910,895,900,3000,900
2010/09/07,900,911,900,911,1800,911
2010/09/08,925,925,900,920,1200,920
2010/09/09,925,925,915,918,1500,918
2010/09/10,927,927,916,916,2800,916
2010/09/13,915,920,915,920,300,920
2010/09/14,930,930,930,930,100,930
2010/09/15,934,934,920,933,1200,933
2010/09/16,933,933,930,933,900,933
2010/09/17,934,935,933,935,3100,935
2010/09/21,950,950,943,947,3400,947
2010/09/22,954,968,954,956,1900,956
2010/09/24,971,971,971,971,6600,971
2010/09/27,969,969,928,968,1000,968
2010/09/28,967,972,967,972,800,972
2010/09/29,972,972,952,967,1500,967
2010/09/30,961,971,961,971,1500,971
2010/10/01,971,971,966,966,1400,966
2010/10/04,967,967,962,962,1300,962
2010/10/05,947,947,942,942,2200,942
2010/10/06,942,942,942,942,100,942
2010/10/07,948,953,948,953,200,953
2010/10/08,953,962,952,962,900,962
2010/10/12,940,958,940,958,3000,958
2010/10/13,950,950,950,950,400,950
2010/10/14,950,950,950,950,300,950
2010/10/15,950,950,950,950,800,950
2010/10/18,945,945,938,938,900,938
2010/10/19,930,930,923,923,2100,923
2010/10/20,925,932,918,932,1700,932
2010/10/22,925,933,925,933,1300,933
2010/10/25,933,933,910,918,3400,918
2010/10/26,911,915,910,915,1000,915
2010/10/27,907,910,907,910,2200,910
2010/10/28,914,915,914,915,200,915
2010/10/29,920,925,920,924,800,924
2010/11/01,925,925,925,925,700,925
2010/11/02,925,925,924,924,700,924
2010/11/04,926,926,923,923,900,923
2010/11/05,922,922,920,922,2900,922
2010/11/08,922,922,920,922,900,922
2010/11/09,922,923,920,923,1600,923
2010/11/10,910,922,910,920,2500,920
2010/11/11,920,920,919,919,900,919
2010/11/12,918,920,918,920,500,920
2010/11/15,919,919,917,918,1100,918
2010/11/16,915,916,915,916,1100,916
2010/11/17,917,917,911,911,1700,911
2010/11/18,913,916,912,916,900,916
2010/11/19,915,917,915,917,1100,917
2010/11/22,917,930,917,922,3500,922
2010/11/24,920,921,920,921,3100,921
2010/11/25,918,920,917,920,7200,920
2010/11/26,866,900,866,900,5200,900
2010/11/29,882,885,880,880,1700,880
2010/11/30,880,895,880,895,1400,895
2010/12/01,895,895,881,881,1900,881
2010/12/02,894,894,880,880,900,880
2010/12/03,880,880,875,879,800,879
2010/12/06,894,894,884,889,1800,889
2010/12/07,891,891,891,891,400,891
2010/12/08,892,896,892,896,500,896
2010/12/09,899,900,896,896,1700,896
2010/12/10,925,925,920,920,5500,920
2010/12/13,910,910,900,900,1400,900
2010/12/14,895,895,890,895,1800,895
2010/12/15,895,896,894,896,3100,896
2010/12/16,892,900,891,891,1100,891
2010/12/17,897,900,897,900,600,900
2010/12/20,901,908,901,903,2800,903
2010/12/21,910,918,910,915,1000,915
2010/12/22,918,928,918,928,2800,928
2010/12/24,898,900,894,900,6600,900
2010/12/27,900,900,892,899,500,899
2010/12/28,895,900,893,900,500,900
2010/12/29,895,900,894,900,900,900
2010/12/30,900,900,900,900,200,900
2011/01/04,900,901,898,901,1400,901
2011/01/05,900,900,899,900,1900,900
2011/01/06,901,901,894,894,1700,894
2011/01/07,892,892,892,892,600,892
2011/01/11,893,900,890,890,3000,890
2011/01/12,892,896,892,896,600,896
2011/01/13,892,892,891,891,1000,891
2011/01/14,895,895,891,891,1600,891
2011/01/17,905,906,900,900,2900,900
2011/01/18,897,897,894,897,1600,897
2011/01/19,895,899,895,897,2200,897
2011/01/20,897,899,897,899,2200,899
2011/01/21,899,900,893,893,1200,893
2011/01/24,903,903,900,902,3800,902
2011/01/25,909,909,902,902,3000,902
2011/01/26,902,902,895,901,1900,901
2011/01/27,893,896,890,891,4500,891
2011/01/28,900,900,895,895,400,895
2011/01/31,899,900,893,900,500,900
2011/02/01,900,900,896,896,700,896
2011/02/03,899,899,895,899,700,899
2011/02/04,895,895,895,895,200,895
2011/02/07,900,900,897,897,2200,897
2011/02/08,897,897,897,897,100,897
2011/02/09,900,900,898,898,1900,898
2011/02/10,900,900,900,900,1300,900
2011/02/14,900,900,898,898,800,898
2011/02/15,901,901,900,900,1400,900
2011/02/16,900,900,900,900,600,900
2011/02/17,900,900,898,898,1500,898
2011/02/18,899,900,899,899,800,899
2011/02/21,898,900,896,896,2900,896
2011/02/22,897,900,897,900,600,900
2011/02/23,900,900,895,895,2700,895
2011/02/24,900,900,896,900,1000,900
2011/02/25,901,902,898,900,7600,900
2011/02/28,895,900,892,892,1900,892
2011/03/01,900,900,900,900,300,900
2011/03/02,900,900,898,898,1300,898
2011/03/03,900,900,897,900,700,900
2011/03/04,900,901,900,901,800,901
2011/03/07,920,920,920,920,2300,920
2011/03/08,910,910,899,905,1500,905
2011/03/09,910,910,905,910,900,910
2011/03/10,919,919,916,916,2700,916
2011/03/11,906,906,905,905,200,905
2011/03/14,870,870,821,841,3800,841
2011/03/15,827,830,800,801,5600,801
2011/03/16,756,811,756,811,1800,811
2011/03/17,800,810,800,805,800,805
2011/03/18,806,810,800,807,2600,807
2011/03/22,912,912,884,884,3500,884
2011/03/23,860,898,860,898,700,898
2011/03/24,890,890,890,890,200,890
2011/03/25,900,900,891,900,2800,900
2011/03/28,900,900,880,880,1600,880
2011/03/29,880,890,880,890,300,890
2011/03/30,890,899,890,899,400,899
2011/03/31,900,900,899,900,800,900
2011/04/01,900,900,896,896,1400,896
2011/04/04,905,911,905,911,800,911
2011/04/05,912,912,906,911,1500,911
2011/04/06,911,911,909,909,400,909
2011/04/07,909,909,909,909,200,909
2011/04/08,912,912,908,912,1500,912
2011/04/11,912,912,911,911,2600,911
2011/04/12,900,905,900,903,2300,903
2011/04/13,903,912,903,912,200,912
2011/04/14,911,911,911,911,100,911
2011/04/15,915,915,905,906,900,906
2011/04/18,910,910,903,910,1200,910
2011/04/19,910,919,910,919,1100,919
2011/04/20,919,919,917,917,1600,917
2011/04/21,917,920,917,918,900,918
2011/04/22,918,919,918,918,700,918
2011/04/25,920,920,913,913,3300,913
2011/04/26,913,919,913,919,600,919
2011/04/27,919,920,912,912,1100,912
2011/04/28,912,915,912,914,1000,914
2011/05/02,918,919,918,919,1000,919
2011/05/06,919,920,916,918,3100,918
2011/05/09,918,920,915,918,2600,918
2011/05/10,911,912,911,912,1700,912
2011/05/11,918,918,909,910,1500,910
2011/05/12,917,919,910,919,800,919
2011/05/13,912,920,912,920,700,920
2011/05/16,920,920,919,920,1000,920
2011/05/17,906,906,905,905,2100,905
2011/05/18,905,910,905,910,1600,910
2011/05/19,913,917,905,915,2100,915
2011/05/20,920,920,911,913,2700,913
2011/05/23,915,919,915,917,1400,917
2011/05/24,917,918,916,918,1600,918
2011/05/25,919,919,908,916,2900,916
2011/05/26,916,921,912,921,4100,921
2011/05/27,882,895,877,893,4500,893
2011/05/30,887,887,881,881,200,881
2011/05/31,881,885,878,879,1100,879
2011/06/01,879,885,879,879,900,879
2011/06/02,881,881,879,879,300,879
2011/06/03,881,882,870,876,1800,876
2011/06/06,893,895,880,880,1800,880
2011/06/07,870,870,868,869,1500,869
2011/06/08,863,870,863,870,500,870
2011/06/09,875,880,875,880,300,880
2011/06/10,885,885,885,885,1200,885
2011/06/13,890,890,890,890,200,890
2011/06/14,886,886,885,885,300,885
2011/06/15,890,890,880,880,1000,880
2011/06/16,890,890,883,883,300,883
2011/06/17,890,898,889,898,600,898
2011/06/20,898,898,898,898,1500,898
2011/06/21,898,898,890,890,200,890
2011/06/22,895,895,895,895,200,895
2011/06/23,891,909,891,909,1200,909
2011/06/24,910,910,909,909,2100,909
2011/06/27,908,908,908,908,100,908
2011/06/28,893,893,889,891,300,891
2011/06/29,899,906,899,904,600,904
2011/06/30,900,906,897,906,600,906
2011/07/01,906,908,906,906,600,906
2011/07/04,906,907,905,907,500,907
2011/07/05,907,910,907,908,2400,908
2011/07/06,901,908,901,907,500,907
2011/07/07,898,902,898,898,1400,898
2011/07/08,899,909,899,909,1000,909
2011/07/11,902,908,901,908,1700,908
2011/07/12,900,900,897,897,700,897
2011/07/13,893,893,886,886,1000,886
2011/07/14,886,898,886,887,1000,887
2011/07/15,900,900,888,890,1500,890
2011/07/19,896,906,892,906,800,906
2011/07/20,906,906,902,904,2900,904
2011/07/21,902,908,901,907,2200,907
2011/07/22,908,915,903,913,4300,913
2011/07/25,887,900,887,892,8600,892
2011/07/26,889,890,888,890,900,890
2011/07/27,889,901,889,901,300,901
2011/07/28,890,890,889,889,1300,889
2011/07/29,888,888,888,888,700,888
2011/08/01,888,888,883,887,1500,887
2011/08/02,885,885,882,884,800,884
2011/08/03,882,882,870,873,1900,873
2011/08/04,874,874,873,874,1300,874
2011/08/05,873,873,873,873,1900,873
2011/08/08,875,876,875,875,700,875
2011/08/09,873,873,864,865,1500,865
2011/08/10,890,890,890,890,1600,890
2011/08/11,875,876,875,876,300,876
2011/08/12,871,873,871,873,700,873
2011/08/15,890,890,876,880,1400,880
2011/08/16,880,880,880,880,100,880
2011/08/17,880,882,880,882,200,882
2011/08/18,890,890,886,886,400,886
2011/08/19,885,885,884,885,1300,885
2011/08/22,888,888,885,885,2100,885
2011/08/24,883,885,883,885,600,885
2011/08/25,878,880,878,880,2200,880
2011/08/29,887,890,880,880,700,880
2011/08/30,884,884,884,884,100,884
2011/08/31,885,885,882,882,900,882
2011/09/01,880,880,880,880,1100,880
2011/09/05,893,893,893,893,1200,893
2011/09/06,883,883,881,883,800,883
2011/09/07,890,892,890,892,1000,892
2011/09/08,891,891,891,891,300,891
2011/09/09,891,891,882,882,600,882
2011/09/12,892,892,888,890,1800,890
2011/09/13,886,886,886,886,100,886
2011/09/14,886,893,886,893,600,893
2011/09/15,894,899,893,899,1300,899
2011/09/16,899,900,899,900,1000,900
2011/09/20,908,910,899,910,3400,910
2011/09/21,903,920,903,920,1400,920
2011/09/22,965,965,905,911,6800,911
2011/09/26,909,909,892,892,2400,892
2011/09/27,891,891,891,891,100,891
2011/09/28,891,900,891,900,200,900
2011/09/29,918,918,918,918,200,918
2011/09/30,918,919,917,917,600,917
2011/10/03,920,920,915,915,1300,915
2011/10/04,915,915,914,915,300,915
2011/10/05,920,920,917,917,3100,917
2011/10/06,912,919,912,919,1200,919
2011/10/07,919,922,919,922,1300,922
2011/10/11,939,940,939,940,2400,940
2011/10/12,930,930,925,930,700,930
2011/10/13,925,925,920,920,500,920
2011/10/14,911,920,902,920,500,920
2011/10/17,936,936,907,908,3400,908
2011/10/18,911,916,911,916,500,916
2011/10/19,928,928,919,926,900,926
2011/10/20,934,934,915,915,1600,915
2011/10/21,911,914,911,914,700,914
2011/10/24,916,925,916,925,1500,925
2011/10/25,934,934,919,919,2000,919
2011/10/26,917,920,917,917,500,917
2011/10/27,916,918,916,918,200,918
2011/10/28,920,920,920,920,400,920
2011/10/31,919,930,919,930,400,930
2011/11/01,930,930,927,927,800,927
2011/11/02,930,930,927,927,300,927
2011/11/04,931,932,929,932,1200,932
2011/11/07,933,933,932,932,3300,932
2011/11/08,932,934,932,934,500,934
2011/11/09,934,935,934,935,500,935
2011/11/10,933,933,929,929,2100,929
2011/11/11,926,929,918,920,1500,920
2011/11/14,928,933,928,933,600,933
2011/11/15,935,935,935,935,600,935
2011/11/16,935,936,932,933,800,933
2011/11/17,936,936,932,932,300,932
2011/11/18,934,936,931,936,1600,936
2011/11/21,921,929,916,925,5900,925
2011/11/22,919,930,918,930,800,930
2011/11/24,920,928,920,928,1100,928
2011/11/25,929,929,917,926,5500,926
2011/11/28,882,885,874,884,4600,884
2011/11/29,877,888,877,888,800,888
2011/11/30,887,887,877,877,1300,877
2011/12/01,892,892,876,877,2000,877
2011/12/02,877,885,876,879,1000,879
2011/12/05,877,886,877,886,1900,886
2011/12/06,886,887,881,881,700,881
2011/12/07,881,888,871,871,1300,871
2011/12/08,872,880,872,873,500,873
2011/12/09,892,892,885,889,5500,889
2011/12/12,875,884,875,875,2700,875
2011/12/13,875,884,875,875,600,875
2011/12/14,875,886,875,886,300,886
2011/12/15,887,887,885,885,1000,885
2011/12/16,888,889,888,889,700,889
2011/12/19,889,889,878,878,3300,878
2011/12/20,884,889,884,885,2500,885
2011/12/21,889,900,889,889,2000,889
2011/12/22,871,876,871,876,3200,876
2011/12/26,876,876,867,869,1100,869
2011/12/27,869,869,860,860,2000,860
2011/12/28,860,860,855,855,500,855
2011/12/30,867,870,863,870,400,870
2012/01/04,871,874,870,871,1200,871
2012/01/05,871,871,860,860,3800,860
2012/01/06,869,870,860,869,1400,869
2012/01/10,862,862,856,856,3500,856
2012/01/11,850,866,849,852,2000,852
2012/01/13,856,861,856,856,700,856
2012/01/16,857,857,857,857,700,857
2012/01/17,860,860,858,858,600,858
2012/01/18,856,856,844,844,3100,844
2012/01/19,859,859,840,855,1800,855
2012/01/20,848,848,847,848,2000,848
2012/01/23,848,854,848,854,700,854
2012/01/24,858,859,852,859,1400,859
2012/01/25,863,863,863,863,2100,863
2012/01/26,861,862,861,862,300,862
2012/01/27,862,862,862,862,100,862
2012/01/30,862,863,862,863,400,863
2012/01/31,867,867,867,867,400,867
2012/02/01,867,870,860,860,2000,860
2012/02/02,863,867,858,858,600,858
2012/02/03,868,873,863,873,600,873
2012/02/06,872,872,867,872,1700,872
2012/02/07,867,874,867,874,900,874
2012/02/08,874,877,874,877,600,877
2012/02/09,874,880,874,880,700,880
2012/02/10,872,880,872,872,1800,872
2012/02/13,872,872,872,872,600,872
2012/02/14,872,872,872,872,500,872
2012/02/15,876,900,871,900,1500,900
2012/02/16,898,898,888,891,300,891
2012/02/17,895,905,894,905,1300,905
2012/02/20,875,898,875,891,5400,891
2012/02/21,899,902,899,902,500,902
2012/02/22,902,905,901,905,800,905
2012/02/23,907,918,905,916,2900,916
2012/02/24,940,940,925,925,7100,925
2012/02/27,925,925,910,920,2300,920
2012/02/28,892,904,892,904,3500,904
2012/02/29,891,904,891,896,4000,896
2012/03/01,897,903,897,903,600,903
2012/03/02,903,907,897,907,1900,907
2012/03/05,922,922,911,911,2300,911
2012/03/06,911,911,911,911,200,911
2012/03/07,911,911,908,910,700,910
2012/03/08,909,910,909,910,300,910
2012/03/09,907,916,907,908,1300,908
2012/03/12,920,926,911,926,2700,926
2012/03/13,914,917,902,906,3300,906
2012/03/14,919,919,898,898,1700,898
2012/03/15,912,912,906,906,1200,906
2012/03/16,907,911,906,907,500,907
2012/03/19,911,916,911,916,600,916
2012/03/21,920,920,918,918,3100,918
2012/03/22,918,924,915,924,1900,924
2012/03/23,921,921,921,921,1900,921
2012/03/26,908,908,908,908,1100,908
2012/03/27,910,912,905,905,1300,905
2012/03/28,915,940,915,918,4000,918
2012/03/29,925,940,919,940,1700,940
2012/03/30,940,991,933,991,4100,991
2012/04/02,985,985,962,970,3500,970
2012/04/03,970,973,963,963,1500,963
2012/04/04,974,974,966,970,900,970
2012/04/05,970,970,963,968,2100,968
2012/04/06,969,969,964,965,600,965
2012/04/09,965,968,964,968,800,968
2012/04/10,970,970,960,960,2000,960
2012/04/11,950,950,948,948,1200,948
2012/04/12,948,950,948,950,400,950
2012/04/13,960,960,951,960,900,960
2012/04/16,950,950,949,950,2100,950
2012/04/17,945,950,945,949,1900,949
2012/04/18,948,949,948,949,1400,949
2012/04/19,944,949,944,948,1400,948
2012/04/20,950,950,945,950,1800,950
2012/04/23,950,950,949,950,1000,950
2012/04/24,948,950,944,950,2600,950
2012/04/25,950,950,946,948,3200,948
2012/04/26,950,950,949,950,2600,950
2012/04/27,950,950,947,950,1500,950
2012/05/01,950,950,949,949,2400,949
2012/05/02,948,960,946,960,2000,960
2012/05/07,950,950,944,944,3400,944
2012/05/08,948,950,947,950,600,950
2012/05/09,946,947,945,947,900,947
2012/05/10,950,950,945,945,1500,945
2012/05/11,944,944,942,942,800,942
2012/05/14,943,943,936,936,2100,936
2012/05/15,936,936,925,925,1400,925
2012/05/16,925,940,915,940,1400,940
2012/05/17,933,933,920,920,200,920
2012/05/18,925,930,925,930,700,930
2012/05/21,942,942,932,932,1600,932
2012/05/22,934,936,933,936,300,936
2012/05/23,933,933,932,932,800,932
2012/05/24,933,938,932,938,1200,938
2012/05/25,939,939,929,931,4000,931
2012/05/28,927,929,902,929,3900,929
2012/05/29,881,900,876,884,3400,884
2012/05/30,882,882,882,882,200,882
2012/05/31,888,888,887,887,200,887
2012/06/01,887,892,887,892,500,892
2012/06/04,892,895,887,895,900,895
2012/06/05,897,897,890,890,1500,890
2012/06/06,890,890,885,885,300,885
2012/06/07,895,896,886,886,800,886
2012/06/08,886,886,880,880,2400,880
2012/06/11,880,884,875,876,1900,876
2012/06/12,876,883,872,883,500,883
2012/06/13,884,884,884,884,200,884
2012/06/14,885,897,883,897,400,897
2012/06/15,897,897,885,890,900,890
2012/06/18,897,899,897,899,1000,899
2012/06/19,899,899,890,899,700,899
2012/06/20,902,902,900,900,1900,900
2012/06/21,905,905,897,905,600,905
2012/06/22,909,910,909,909,800,909
2012/06/25,930,951,928,944,2800,944
2012/06/26,936,936,911,935,300,935
2012/06/27,921,925,921,925,300,925
2012/06/28,910,917,910,917,300,917
2012/06/29,918,934,918,934,300,934
2012/07/02,932,932,924,928,900,928
2012/07/03,921,921,921,921,200,921
2012/07/04,926,931,926,931,500,931
2012/07/05,935,935,930,930,1100,930
2012/07/09,930,930,928,928,400,928
2012/07/10,942,942,930,930,1200,930
2012/07/11,930,941,930,941,300,941
2012/07/12,930,930,930,930,100,930
2012/07/13,925,925,925,925,1000,925
2012/07/17,925,925,921,925,2200,925
2012/07/18,921,921,910,910,1100,910
2012/07/19,910,910,900,900,2000,900
2012/07/20,907,907,907,907,1600,907
2012/07/23,920,926,920,920,1200,920
2012/07/24,920,945,920,938,1700,938
2012/07/25,950,950,920,920,5800,920
2012/07/26,920,920,919,920,400,920
2012/07/27,920,920,920,920,100,920
2012/07/30,919,919,911,915,300,915
2012/07/31,930,930,930,930,200,930
2012/08/01,930,932,930,932,500,932
2012/08/02,935,935,932,933,1000,933
2012/08/03,934,935,934,935,1100,935
2012/08/06,944,944,942,942,1500,942
2012/08/07,942,942,935,935,200,935
2012/08/08,936,936,935,935,300,935
2012/08/09,936,936,936,936,500,936
2012/08/10,936,936,936,936,1500,936
2012/08/13,915,915,914,915,3500,915
2012/08/14,924,924,920,920,400,920
2012/08/15,925,925,925,925,800,925
2012/08/16,925,925,920,925,700,925
2012/08/17,920,925,920,924,900,924
2012/08/20,925,925,915,915,3200,915
2012/08/21,920,920,920,920,100,920
2012/08/22,920,920,904,904,1000,904
2012/08/23,919,920,910,910,1200,910
2012/08/24,920,920,907,907,3200,907
2012/08/27,907,907,907,907,200,907
2012/08/28,912,912,912,912,100,912
2012/08/29,917,917,917,917,100,917
2012/08/30,918,919,918,919,300,919
2012/08/31,917,918,908,908,1600,908
2012/09/03,914,914,914,914,300,914
2012/09/04,914,914,914,914,400,914
2012/09/05,919,919,919,919,1000,919
2012/09/06,919,924,919,923,400,923
2012/09/07,927,929,925,929,700,929
2012/09/10,929,929,918,920,1700,920
2012/09/11,917,917,917,917,1200,917
2012/09/12,923,923,919,919,300,919
2012/09/13,920,924,920,924,300,924
2012/09/14,924,924,921,921,200,921
2012/09/18,920,930,919,927,2100,927
2012/09/19,930,934,929,934,1100,934
2012/09/20,933,934,932,934,5200,934
2012/09/21,932,933,931,933,1300,933
2012/09/24,932,934,930,934,5300,934
2012/09/25,920,925,920,925,9100,925
2012/09/26,929,930,915,930,1100,930
2012/09/27,925,930,925,930,300,930
2012/09/28,932,933,932,933,200,933
2012/10/01,933,933,933,933,1100,933
2012/10/02,932,932,932,932,300,932
2012/10/03,932,932,927,929,700,929
2012/10/04,929,930,929,930,900,930
2012/10/05,933,933,931,932,2400,932
2012/10/09,933,933,932,933,1000,933
2012/10/10,934,936,934,936,3100,936
2012/10/11,936,940,936,940,1100,940
2012/10/12,940,940,925,939,1800,939
2012/10/15,941,941,941,941,1000,941
2012/10/16,930,930,919,919,2300,919
2012/10/17,937,937,931,931,200,931
2012/10/18,931,937,923,932,900,932
2012/10/19,937,938,937,938,700,938
2012/10/22,938,938,930,930,3100,930
2012/10/23,930,936,930,936,600,936
2012/10/24,933,938,933,938,800,938
2012/10/25,939,940,939,940,2700,940
2012/10/26,939,940,938,940,300,940
2012/10/29,940,940,939,939,2700,939
2012/10/30,939,939,938,938,500,938
2012/10/31,938,940,938,940,1600,940
2012/11/01,940,941,939,939,1100,939
2012/11/02,940,941,940,940,1400,940
2012/11/05,940,940,936,940,2800,940
2012/11/06,937,940,937,939,400,939
2012/11/07,933,937,930,936,1400,936
2012/11/08,933,934,933,934,500,934
2012/11/09,937,937,937,937,400,937
2012/11/12,938,938,937,937,1300,937
2012/11/13,937,938,935,938,700,938
2012/11/14,936,936,936,936,100,936
2012/11/15,937,937,936,936,1000,936
2012/11/16,935,938,931,935,3000,935
2012/11/19,938,938,933,933,1800,933
2012/11/20,933,935,933,933,2900,933
2012/11/21,934,937,933,937,2500,937
2012/11/22,938,939,937,939,5800,939
2012/11/26,933,938,932,936,2900,936
2012/11/27,926,936,926,936,5900,936
2012/11/28,910,910,905,908,5200,908
2012/11/29,908,910,905,907,3700,907
2012/11/30,906,914,905,914,2700,914
2012/12/03,914,914,910,910,1700,910
2012/12/04,916,917,914,915,1700,915
2012/12/05,915,915,911,911,2400,911
2012/12/06,913,918,913,918,500,918
2012/12/07,918,921,916,921,2900,921
2012/12/10,920,920,909,909,7000,909
2012/12/11,910,915,909,915,800,915
2012/12/12,909,909,900,900,4700,900
2012/12/13,900,902,899,900,1400,900
2012/12/14,899,899,891,893,1500,893
2012/12/17,900,900,898,898,800,898
2012/12/18,898,898,895,895,2300,895
2012/12/19,900,902,899,902,1600,902
2012/12/20,904,910,904,905,4100,905
2012/12/21,906,914,904,911,2500,911
2012/12/25,911,911,901,911,4400,911
2012/12/26,910,919,909,919,800,919
2012/12/27,911,919,911,919,200,919
2012/12/28,911,915,905,915,2100,915
2013/01/04,916,934,915,930,6900,930
2013/01/07,930,933,921,933,3500,933
2013/01/08,933,933,925,925,500,925
2013/01/09,933,934,929,929,900,929
2013/01/10,935,935,929,929,1900,929
2013/01/11,929,930,927,930,400,930
2013/01/15,932,932,928,928,1000,928
2013/01/16,928,930,928,930,500,930
2013/01/17,930,935,930,931,500,931
2013/01/18,932,935,930,935,1100,935
2013/01/21,925,928,925,927,2600,927
2013/01/22,927,935,927,932,300,932
2013/01/23,931,934,927,934,700,934
2013/01/24,935,936,906,922,4700,922
2013/01/25,922,929,922,922,3100,922
2013/01/28,925,925,922,923,1200,923
2013/01/29,922,925,922,925,1100,925
2013/01/30,925,925,922,922,1000,922
2013/01/31,925,925,923,923,2000,923
2013/02/01,924,924,920,920,3600,920
2013/02/04,920,923,919,920,6600,920
2013/02/05,921,938,921,938,2500,938
2013/02/06,925,935,925,927,2200,927
2013/02/07,928,935,928,935,900,935
2013/02/08,935,935,931,931,600,931
2013/02/12,935,935,926,928,4500,928
2013/02/13,929,929,928,928,1400,928
2013/02/14,929,929,928,929,400,929
2013/02/15,930,930,923,926,3600,926
2013/02/18,928,928,920,926,3600,926
2013/02/19,926,927,923,924,1200,924
2013/02/20,925,932,925,932,2100,932
2013/02/21,932,932,929,930,4100,930
2013/02/22,933,950,933,941,6000,941
2013/02/25,926,936,926,936,12900,936
2013/02/26,939,939,932,932,800,932
2013/02/27,934,940,934,940,2400,940
2013/02/28,940,943,939,943,1000,943
2013/03/01,945,945,940,940,2500,940
2013/03/04,948,950,946,946,2900,946
2013/03/05,950,950,940,944,5900,944
2013/03/06,949,949,944,946,2000,946
2013/03/07,950,959,950,958,1200,958
2013/03/08,960,974,952,963,5900,963
2013/03/11,978,978,967,978,3900,978
2013/03/12,978,978,965,967,2200,967
2013/03/13,969,990,968,974,4400,974
2013/03/14,980,985,980,985,800,985
2013/03/15,990,990,985,985,4300,985
2013/03/18,993,995,980,980,2200,980
2013/03/19,990,994,990,992,2100,992
2013/03/21,999,1001,990,1000,6600,1000
2013/03/22,1002,1010,1002,1010,3400,1010
2013/03/25,1024,1024,1000,1005,9700,1005
2013/03/26,1005,1005,1001,1005,1300,1005
2013/03/27,1008,1028,1007,1028,4400,1028
2013/03/28,1052,1052,1030,1050,4600,1050
2013/03/29,1045,1048,1034,1040,3300,1040
2013/04/01,1050,1060,1036,1042,7600,1042
2013/04/02,1036,1043,1030,1030,3600,1030
2013/04/03,1023,1038,1020,1025,3000,1025
2013/04/04,1030,1037,1025,1033,1000,1033
2013/04/05,1042,1044,1030,1044,5000,1044
2013/04/08,1044,1045,1040,1043,2800,1043
2013/04/09,1045,1047,1035,1044,4100,1044
2013/04/10,1035,1040,1035,1036,2500,1036
2013/04/11,1046,1047,1040,1044,1100,1044
2013/04/12,1045,1045,1040,1040,2800,1040
2013/04/15,1048,1049,1041,1049,4800,1049
2013/04/16,1047,1050,1038,1047,5600,1047
2013/04/17,1049,1050,1048,1048,1200,1048
2013/04/18,1048,1051,1048,1050,2400,1050
2013/04/19,1050,1053,1049,1051,1400,1051
2013/04/22,1056,1057,1049,1049,8600,1049
2013/04/23,1050,1058,1050,1058,8000,1058
2013/04/24,1059,1064,1054,1064,5100,1064
2013/04/25,1065,1069,1064,1069,11700,1069
2013/04/26,1069,1070,1068,1068,6500,1068
2013/04/30,1070,1076,1069,1076,4200,1076
2013/05/01,1076,1080,1074,1080,4600,1080
2013/05/02,1080,1081,1076,1081,5800,1081
2013/05/07,1100,1100,1090,1093,7200,1093
2013/05/08,1094,1099,1090,1099,7600,1099
2013/05/09,1100,1100,1081,1081,11300,1081
2013/05/10,1081,1099,1060,1084,11600,1084
2013/05/13,1096,1096,1089,1095,4200,1095
2013/05/14,1095,1095,1085,1085,3800,1085
2013/05/15,1094,1094,1081,1086,7900,1086
2013/05/16,1092,1092,1067,1067,8900,1067
2013/05/17,1061,1080,1061,1070,4700,1070
2013/05/20,1071,1080,1071,1079,7600,1079
2013/05/21,1075,1080,1069,1070,8500,1070
2013/05/22,1071,1071,1069,1070,4600,1070
2013/05/23,1068,1071,1065,1065,4100,1065
2013/05/24,1065,1067,1059,1060,4300,1060
2013/05/27,1060,1060,1051,1060,7200,1060
2013/05/28,1042,1070,1033,1070,10900,1070
2013/05/29,1000,1010,975,1000,14500,1000
2013/05/30,985,989,977,977,4600,977
2013/05/31,980,984,971,971,3500,971
2013/06/03,967,971,950,955,4800,955
2013/06/04,951,951,940,950,2900,950
2013/06/05,950,950,948,948,2000,948
2013/06/06,930,930,915,915,3200,915
2013/06/07,915,915,880,900,7100,900
2013/06/10,929,929,929,929,1300,929
2013/06/11,923,950,923,946,1300,946
2013/06/12,950,950,926,950,2400,950
2013/06/13,930,930,929,930,400,930
2013/06/14,945,945,930,932,800,932
2013/06/17,933,935,932,935,800,935
2013/06/18,945,946,941,946,1600,946
2013/06/19,942,965,942,950,1100,950
2013/06/20,965,969,965,969,2000,969
2013/06/21,963,963,933,945,1800,945
2013/06/24,956,964,950,960,900,960
2013/06/25,984,984,961,961,2000,961
2013/06/26,970,970,970,970,100,970
2013/06/27,956,956,952,952,200,952
2013/06/28,961,964,961,961,600,961
2013/07/01,968,970,968,970,600,970
2013/07/02,984,988,973,986,2700,986
2013/07/03,987,990,987,990,1500,990
2013/07/04,999,1008,993,993,3100,993
2013/07/05,1010,1010,994,1001,3500,1001
2013/07/08,1002,1014,1002,1005,3100,1005
2013/07/09,1013,1013,1001,1002,4300,1002
2013/07/10,1014,1014,1003,1004,5300,1004
2013/07/11,1008,1008,1004,1006,900,1006
2013/07/12,1005,1008,1002,1002,3400,1002
2013/07/16,1008,1008,1002,1002,800,1002
2013/07/17,1002,1005,1000,1000,2300,1000
2013/07/18,1000,1000,999,999,1400,999
2013/07/19,999,999,997,999,1500,999
2013/07/22,1005,1005,1000,1000,2700,1000
2013/07/23,1008,1009,1002,1007,2400,1007
2013/07/24,1007,1010,1000,1010,3800,1010
2013/07/25,998,1008,995,997,6500,997
2013/07/26,997,1000,997,1000,200,1000
2013/07/29,1010,1010,999,999,1400,999
2013/07/30,999,1005,999,1000,2100,1000
2013/07/31,993,993,993,993,1000,993
2013/08/01,996,996,996,996,1000,996
2013/08/02,1000,1005,998,1005,900,1005
2013/08/05,1011,1011,1005,1005,2300,1005
2013/08/06,1006,1010,1006,1010,700,1010
2013/08/07,1006,1007,1006,1007,500,1007
2013/08/08,1006,1006,1006,1006,300,1006
2013/08/09,1007,1010,1005,1010,500,1010
2013/08/12,1012,1012,1005,1005,1900,1005
2013/08/13,1006,1010,995,1010,3800,1010
2013/08/14,999,1005,999,1005,300,1005
2013/08/15,1009,1009,1001,1001,1200,1001
2013/08/16,1000,1000,999,1000,500,1000
2013/08/19,1000,1000,999,999,1200,999
2013/08/20,1010,1010,995,995,2900,995
2013/08/21,999,999,997,997,1400,997
2013/08/22,998,1009,996,1009,700,1009
2013/08/23,1010,1010,996,996,1800,996
2013/08/26,1009,1009,1000,1000,1000,1000
2013/08/27,1000,1007,1000,1003,3100,1003
2013/08/28,998,1007,998,1007,1800,1007
2013/08/29,1007,1007,995,997,2600,997
2013/08/30,997,1007,997,1006,800,1006
2013/09/02,1006,1007,996,998,1900,998
2013/09/03,1006,1007,1004,1007,500,1007
2013/09/04,1007,1010,1005,1010,3500,1010
2013/09/05,1016,1016,954,991,15000,991
2013/09/06,992,992,992,992,100,992
2013/09/09,1005,1005,999,1004,1700,1004
2013/09/10,1010,1010,999,999,4000,999
2013/09/11,1000,1001,999,999,5400,999
2013/09/12,1003,1003,1001,1001,900,1001
2013/09/13,1000,1001,1000,1000,1000,1000
2013/09/17,1005,1007,1001,1001,3500,1001
2013/09/18,1007,1007,1007,1007,1700,1007
2013/09/19,1008,1009,1005,1008,2200,1008
2013/09/20,1008,1009,1008,1008,3900,1008
2013/09/24,1010,1010,1009,1010,2700,1010
2013/09/25,1010,1010,1009,1010,9400,1010
2013/09/26,1007,1015,1007,1015,7700,1015
2013/09/27,1015,1029,1015,1028,3900,1028
2013/09/30,1025,1031,1021,1025,3900,1025
2013/10/01,1030,1039,1030,1039,4400,1039
2013/10/02,1039,1047,1039,1040,2700,1040
2013/10/03,1049,1049,1039,1049,2100,1049
2013/10/04,1048,1048,1046,1048,2800,1048
2013/10/07,1047,1050,1047,1049,4000,1049
2013/10/08,1049,1049,1038,1038,2300,1038
2013/10/09,1030,1035,1025,1035,1700,1035
2013/10/10,1040,1047,1020,1047,2600,1047
2013/10/11,1047,1047,1033,1033,900,1033
2013/10/15,1045,1045,1033,1033,1600,1033
2013/10/16,1021,1035,1021,1030,1800,1030
2013/10/17,1030,1035,1028,1032,1100,1032
2013/10/18,1034,1043,1034,1043,1200,1043
2013/10/21,1030,1039,1030,1038,4500,1038
2013/10/22,1035,1035,1031,1035,2100,1035
2013/10/23,1035,1035,1033,1033,1200,1033
2013/10/24,1033,1037,1027,1030,4300,1030
2013/10/25,1030,1030,1023,1024,4900,1024
2013/10/28,1022,1032,1022,1032,2700,1032
2013/10/29,1032,1039,1030,1034,1400,1034
2013/10/30,1039,1039,1034,1035,1600,1035
2013/10/31,1043,1045,1040,1045,2400,1045
2013/11/01,1045,1046,1041,1041,1900,1041
2013/11/05,1040,1041,1033,1033,5600,1033
2013/11/06,1033,1039,1033,1035,1300,1035
2013/11/07,1036,1043,1036,1037,3300,1037
2013/11/08,1035,1045,1035,1040,3500,1040
2013/11/11,1033,1040,1033,1037,4800,1037
2013/11/12,1036,1042,1025,1030,3400,1030
2013/11/13,1035,1039,1032,1032,1500,1032
2013/11/14,1038,1038,1031,1031,3100,1031
2013/11/15,1031,1036,1030,1034,2800,1034
2013/11/18,1034,1038,1034,1038,3400,1038
2013/11/19,1037,1038,1034,1037,3000,1037
2013/11/20,1037,1038,1031,1031,3900,1031
2013/11/21,1037,1037,1032,1034,2200,1034
2013/11/22,1034,1036,1029,1035,10200,1035
2013/11/25,1039,1039,1035,1035,5900,1035
2013/11/26,1035,1041,1035,1041,10200,1041
2013/11/27,992,1010,992,999,15700,999
2013/11/28,1000,1002,999,1000,2900,1000
2013/11/29,1001,1003,999,1003,2800,1003
2013/12/02,1003,1004,1000,1000,2700,1000
2013/12/03,1001,1001,999,1000,2800,1000
2013/12/04,1000,1003,999,1002,2900,1002
2013/12/05,999,1003,999,1000,3600,1000
2013/12/06,1001,1005,1000,1000,1400,1000
2013/12/09,1005,1005,994,1001,9500,1001
2013/12/10,999,1006,999,1006,5800,1006
2013/12/11,1005,1005,999,999,1100,999
2013/12/12,999,1006,999,1003,1000,1003
2013/12/13,1000,1003,999,1003,800,1003
2013/12/16,1004,1004,999,999,1700,999
2013/12/17,1000,1001,999,999,1700,999
2013/12/18,1000,1000,995,996,4600,996
2013/12/19,998,1004,996,998,3400,998
2013/12/20,1000,1002,999,999,3500,999
2013/12/24,999,1000,994,999,4300,999
2013/12/25,1000,1000,989,989,10500,989
2013/12/26,996,1003,990,1003,3200,1003
2013/12/27,1003,1003,997,997,1100,997
2013/12/30,1005,1020,999,1018,3800,1018
2014/01/06,1038,1038,1018,1018,3800,1018
2014/01/07,1030,1030,1018,1029,1600,1029
2014/01/08,1030,1032,1020,1032,3200,1032
2014/01/09,1032,1034,1021,1025,1900,1025
2014/01/10,1033,1033,1026,1029,1500,1029
2014/01/14,1040,1041,1031,1035,7200,1035
2014/01/15,1045,1050,1043,1043,5600,1043
2014/01/16,1044,1050,1040,1050,4400,1050
2014/01/17,1050,1055,1050,1055,2200,1055
2014/01/20,1061,1061,1050,1050,4300,1050
2014/01/21,1051,1054,1050,1052,800,1052
2014/01/22,1055,1055,1050,1054,1300,1054
2014/01/23,1055,1055,1048,1055,1400,1055
2014/01/24,1059,1059,1044,1045,2800,1045
2014/01/27,1040,1040,1031,1039,900,1039
2014/01/28,1035,1040,1035,1040,1200,1040
2014/01/29,1041,1060,1041,1060,4500,1060
2014/01/30,1033,1053,1033,1053,1500,1053
2014/01/31,1058,1058,1045,1055,1300,1055
2014/02/03,1054,1054,1039,1050,1800,1050
2014/02/04,1038,1039,960,1014,8200,1014
2014/02/05,1020,1020,984,995,3200,995
2014/02/06,995,1020,995,1020,500,1020
2014/02/07,1037,1037,1025,1025,1600,1025
2014/02/10,1044,1044,1044,1044,1000,1044
2014/02/12,1044,1044,1032,1032,1400,1032
2014/02/13,1032,1045,1032,1037,700,1037
2014/02/14,1007,1013,1000,1000,3800,1000
2014/02/17,1014,1015,1007,1007,2100,1007
2014/02/18,1008,1015,1008,1011,1300,1011
2014/02/19,1015,1025,1015,1025,900,1025
2014/02/20,1043,1043,1030,1030,3500,1030
2014/02/21,1030,1031,1030,1030,900,1030
2014/02/24,1035,1045,1032,1045,2800,1045
2014/02/25,1052,1052,1038,1038,7900,1038
2014/02/26,1049,1049,1049,1049,100,1049
2014/02/27,1050,1050,1047,1047,1200,1047
2014/02/28,1040,1040,1033,1033,1900,1033
2014/03/03,1043,1043,1033,1040,1700,1040
2014/03/04,1042,1059,1040,1059,6100,1059
2014/03/05,1065,1071,1059,1070,7900,1070
2014/03/06,1070,1072,1060,1061,1600,1061
2014/03/07,1085,1124,1069,1086,41200,1086
2014/03/10,1100,1103,1058,1080,9900,1080
2014/03/11,1080,1080,1051,1051,4500,1051
2014/03/12,1051,1060,1050,1052,1900,1052
2014/03/13,1062,1068,1054,1054,800,1054
2014/03/14,1052,1054,1040,1054,2600,1054
2014/03/17,1060,1065,1048,1049,3400,1049
2014/03/18,1056,1056,1000,1055,4400,1055
2014/03/19,1064,1064,1022,1043,2700,1043
2014/03/20,1060,1060,1023,1024,4600,1024
2014/03/24,1053,1053,1025,1040,2500,1040
2014/03/25,1050,1050,1033,1039,2400,1039
2014/03/26,1045,1059,1045,1047,4200,1047
2014/03/27,1068,1071,1047,1060,5900,1060
2014/03/28,1066,1080,1066,1080,3900,1080
2014/03/31,1079,1085,1075,1082,4400,1082
2014/04/01,1092,1093,1083,1083,5300,1083
2014/04/02,1090,1098,1083,1083,5700,1083
2014/04/03,1087,1088,1083,1083,1600,1083
2014/04/04,1090,1090,1083,1085,1600,1085
2014/04/07,1092,1092,1083,1083,2000,1083
2014/04/08,1080,1080,1060,1070,5900,1070
2014/04/09,1078,1080,1060,1060,3400,1060
2014/04/10,1080,1084,1051,1051,2500,1051
2014/04/11,1042,1069,1041,1065,3900,1065
2014/04/14,1072,1075,1069,1070,1600,1070
2014/04/15,1070,1070,1056,1056,1800,1056
2014/04/16,1058,1067,1056,1059,3500,1059
2014/04/17,1061,1070,1060,1063,2700,1063
2014/04/18,1063,1075,1063,1074,2700,1074
2014/04/21,1071,1072,1058,1062,5000,1062
2014/04/22,1065,1072,1060,1060,1700,1060
2014/04/23,1060,1070,1056,1062,2000,1062
2014/04/24,1063,1069,1059,1064,4500,1064
2014/04/25,1070,1070,1061,1070,3400,1070
2014/04/28,1070,1080,1067,1078,3100,1078
2014/04/30,1077,1077,1070,1075,2500,1075
2014/05/01,1075,1075,1067,1073,3800,1073
2014/05/02,1070,1072,1065,1070,4600,1070
2014/05/07,1072,1076,1072,1072,3200,1072
2014/05/08,1073,1075,1065,1065,3600,1065
2014/05/09,1061,1067,1061,1064,3100,1064
2014/05/12,1065,1068,1062,1063,4900,1063
2014/05/13,1067,1067,1055,1067,8400,1067
2014/05/14,1065,1065,1060,1063,1700,1063
2014/05/15,1050,1063,1050,1062,4500,1062
2014/05/16,1062,1063,1056,1063,3300,1063
2014/05/19,1063,1065,1061,1065,2900,1065
2014/05/20,1064,1065,1060,1060,4200,1060
2014/05/21,1060,1071,1060,1070,4400,1070
2014/05/22,1065,1073,1060,1071,4900,1071
2014/05/23,1070,1073,1060,1065,7500,1065
2014/05/26,1065,1076,1065,1074,7000,1074
2014/05/27,1077,1078,1067,1075,9800,1075
2014/05/28,1017,1040,1017,1033,7700,1033
2014/05/29,1033,1035,1030,1032,3100,1032
2014/05/30,1032,1036,1032,1032,1400,1032
2014/06/02,1042,1042,1036,1036,2400,1036
2014/06/03,1039,1044,1037,1040,2000,1040
2014/06/04,1040,1048,1040,1048,1400,1048
2014/06/05,1049,1051,1049,1049,3200,1049
2014/06/06,1052,1052,1050,1050,800,1050
2014/06/09,1052,1053,1050,1053,2200,1053
2014/06/10,1054,1055,1050,1055,1600,1055
2014/06/11,1056,1056,1053,1053,600,1053
2014/06/12,1053,1057,1053,1053,1200,1053
2014/06/13,1052,1057,1051,1057,900,1057
2014/06/16,1058,1058,1046,1047,2100,1047
2014/06/17,1040,1053,1040,1042,2700,1042
2014/06/18,1044,1053,1044,1053,900,1053
2014/06/19,1052,1052,1046,1051,1500,1051
2014/06/20,1052,1054,1047,1047,2000,1047
2014/06/23,1047,1053,1046,1051,1600,1051
2014/06/24,1052,1052,1040,1046,3100,1046
2014/06/25,1055,1055,1044,1047,2000,1047
2014/06/26,1051,1055,1051,1054,500,1054
2014/06/27,1051,1055,1051,1055,600,1055
2014/06/30,1055,1056,1055,1056,1100,1056
2014/07/01,1057,1059,1057,1057,1900,1057
2014/07/02,1060,1065,1059,1062,3800,1062
2014/07/03,1064,1064,1061,1061,1900,1061
2014/07/04,1069,1069,1063,1069,2100,1069
2014/07/07,1065,1074,1065,1066,4000,1066
2014/07/08,1065,1070,1062,1065,2200,1065
2014/07/09,1071,1087,1070,1087,8200,1087
2014/07/10,1090,1090,1064,1064,9200,1064
2014/07/11,1060,1065,1058,1065,2100,1065
2014/07/14,1065,1069,1065,1069,800,1069
2014/07/15,1098,1098,1069,1074,2900,1074
2014/07/16,1070,1080,1070,1072,1200,1072
2014/07/17,1085,1085,1066,1070,1800,1070
2014/07/18,1080,1081,1070,1077,1700,1077
2014/07/22,1073,1080,1073,1078,3600,1078
2014/07/23,1080,1080,1072,1078,3000,1078
2014/07/24,1076,1087,1073,1087,3500,1087
2014/07/25,1094,1094,1085,1085,5600,1085
2014/07/28,1091,1094,1086,1086,1900,1086
2014/07/29,1089,1089,1087,1087,1500,1087
2014/07/30,1027,1065,1027,1061,14900,1061
2014/07/31,1070,1070,1068,1068,1400,1068
2014/08/01,1068,1068,1063,1068,2600,1068
2014/08/04,1068,1077,1068,1073,1500,1073
2014/08/05,1073,1084,1072,1081,3100,1081
2014/08/06,1081,1087,1080,1080,2200,1080
2014/08/07,1086,1094,1072,1072,3300,1072
2014/08/08,1089,1089,1070,1078,2100,1078
2014/08/11,1089,1089,1078,1083,2200,1083
2014/08/12,1088,1088,1073,1081,2600,1081
2014/08/13,1092,1092,1081,1090,900,1090
2014/08/14,1092,1092,1081,1081,1100,1081
2014/08/15,1082,1086,1082,1086,1000,1086
2014/08/18,1086,1089,1080,1080,1400,1080
2014/08/19,1089,1089,1080,1083,2700,1083
2014/08/20,1087,1089,1080,1080,2800,1080
2014/08/21,1083,1090,1082,1090,500,1090
2014/08/22,1084,1089,1084,1089,1700,1089
2014/08/25,1085,1090,1084,1088,3100,1088
2014/08/26,1095,1095,1086,1086,5000,1086
2014/08/27,1089,1091,1085,1085,3900,1085
2014/08/28,1075,1080,1075,1080,2200,1080
2014/08/29,1094,1094,1081,1092,1000,1092
2014/09/01,1100,1106,1094,1100,6700,1100
2014/09/02,1105,1105,1100,1101,3700,1101
2014/09/03,1101,1103,1100,1100,2300,1100
2014/09/04,1104,1105,1100,1100,2900,1100
2014/09/05,1100,1104,1100,1104,3000,1104
2014/09/08,1106,1106,1100,1101,1200,1101
2014/09/09,1108,1109,1095,1098,2600,1098
2014/09/10,1106,1106,1095,1100,2800,1100
2014/09/11,1099,1100,1095,1095,2400,1095
2014/09/12,1094,1095,1090,1095,1600,1095
2014/09/16,1095,1095,1090,1090,1500,1090
2014/09/17,1090,1095,1090,1090,2400,1090
2014/09/18,1091,1094,1090,1090,1800,1090
2014/09/19,1095,1095,1090,1094,4100,1094
2014/09/22,1095,1095,1092,1092,3800,1092
2014/09/24,1094,1094,1090,1094,4900,1094
2014/09/25,1095,1095,1090,1095,8000,1095
2014/09/26,1095,1107,1095,1107,3000,1107
2014/09/29,1105,1105,1100,1105,6700,1105
2014/09/30,1100,1105,1100,1102,5800,1102
2014/10/01,1100,1105,1100,1105,3800,1105
2014/10/02,1103,1103,1098,1099,2100,1099
2014/10/03,1108,1110,1105,1105,2300,1105
2014/10/06,1108,1112,1106,1112,5600,1112
2014/10/07,1108,1110,1108,1109,1200,1109
2014/10/08,1109,1111,1107,1107,700,1107
2014/10/09,1108,1113,1106,1112,2400,1112
2014/10/10,1112,1116,1106,1106,2600,1106
2014/10/14,1105,1113,1099,1099,3400,1099
2014/10/15,1100,1103,1096,1103,1500,1103
2014/10/16,1107,1107,1092,1092,2700,1092
2014/10/17,1099,1099,1086,1092,2000,1092
2014/10/20,1104,1111,1100,1109,3400,1109
2014/10/21,1109,1109,1101,1101,1100,1101
2014/10/22,1108,1109,1100,1100,700,1100
2014/10/23,1105,1109,1105,1108,300,1108
2014/10/24,1110,1110,1100,1107,2800,1107
2014/10/27,1110,1113,1107,1112,3000,1112
2014/10/28,1108,1112,1108,1112,2100,1112
2014/10/29,1112,1118,1109,1114,2300,1114
2014/10/30,1114,1114,1111,1113,4000,1113
2014/10/31,1110,1114,1110,1112,2300,1112
2014/11/04,1114,1115,1112,1113,6600,1113
2014/11/05,1113,1113,1107,1113,5900,1113
2014/11/06,1112,1114,1110,1110,3900,1110
2014/11/07,1115,1118,1114,1118,3900,1118
2014/11/10,1118,1119,1111,1118,4900,1118
2014/11/11,1118,1120,1116,1120,2500,1120
2014/11/12,1120,1124,1120,1123,3200,1123
2014/11/13,1123,1128,1120,1128,3500,1128
2014/11/14,1123,1129,1123,1128,3400,1128
2014/11/17,1128,1140,1125,1139,6900,1139
2014/11/18,1139,1139,1133,1133,2800,1133
2014/11/19,1134,1139,1132,1137,4900,1137
2014/11/20,1134,1138,1126,1127,7200,1127
2014/11/21,1127,1136,1126,1136,4400,1136
2014/11/25,1133,1159,1133,1159,15900,1159
2014/11/26,1098,1105,1090,1104,17800,1104
2014/11/27,1104,1105,1098,1098,3900,1098
2014/11/28,1098,1099,1095,1095,3300,1095
2014/12/01,1095,1100,1095,1096,3600,1096
2014/12/02,1096,1100,1095,1095,2500,1095
2014/12/03,1096,1099,1095,1096,3100,1096
2014/12/04,1098,1098,1092,1096,3700,1096
2014/12/05,1099,1099,1094,1099,1900,1099
2014/12/08,1099,1099,1092,1096,5300,1096
2014/12/09,1096,1097,1093,1097,2800,1097
2014/12/10,1105,1105,1081,1086,8100,1086
2014/12/11,1085,1088,1080,1084,2800,1084
2014/12/12,1084,1088,1084,1088,600,1088
2014/12/15,1089,1089,1080,1088,3100,1088
2014/12/16,1088,1088,1080,1080,1300,1080
2014/12/17,1085,1086,1080,1080,1600,1080
2014/12/18,1085,1085,1081,1081,600,1081
2014/12/19,1079,1088,1078,1084,2900,1084
2014/12/22,1085,1085,1083,1084,1900,1084
2014/12/24,1085,1088,1082,1087,3900,1087
2014/12/25,1089,1089,1080,1080,3200,1080
2014/12/26,1094,1095,1091,1095,1300,1095
2014/12/29,1100,1100,1091,1091,3000,1091
2014/12/30,1095,1100,1093,1100,2000,1100
2015/01/05,1102,1102,1100,1101,4300,1101
2015/01/06,1100,1100,1097,1097,1300,1097
2015/01/07,1095,1095,1092,1092,400,1092
2015/01/08,1094,1104,1094,1104,4800,1104
2015/01/09,1104,1107,1104,1104,1800,1104
2015/01/13,1104,1104,1100,1101,2500,1101
2015/01/14,1106,1106,1104,1105,1000,1105
2015/01/15,1107,1108,1104,1104,1200,1104
2015/01/16,1107,1111,1100,1105,2900,1105
2015/01/19,1107,1110,1107,1110,1000,1110
2015/01/20,1100,1100,1099,1100,7900,1100
2015/01/21,1100,1100,1096,1096,1500,1096
2015/01/22,1096,1099,1096,1099,1200,1099
2015/01/23,1100,1101,1099,1100,3700,1100
2015/01/26,1101,1102,1100,1101,1200,1101
2015/01/27,1102,1106,1092,1096,5000,1096
2015/01/28,1100,1110,1096,1110,2000,1110
2015/01/29,1101,1119,1101,1119,2300,1119
2015/01/30,1119,1121,1117,1120,5100,1120
2015/02/02,1127,1127,1118,1118,1600,1118
2015/02/03,1120,1120,1111,1111,2100,1111
2015/02/04,1125,1128,1116,1128,2300,1128
2015/02/05,1128,1128,1114,1115,2300,1115
2015/02/06,1112,1120,1110,1120,1200,1120
2015/02/09,1125,1127,1123,1127,1200,1127
2015/02/10,1128,1128,1122,1128,2100,1128
2015/02/12,1128,1130,1125,1127,2500,1127
2015/02/13,1127,1127,1125,1125,1700,1125
2015/02/16,1125,1130,1125,1130,3000,1130
2015/02/17,1132,1133,1130,1130,1700,1130
2015/02/18,1133,1136,1130,1133,3000,1133
2015/02/19,1134,1138,1134,1138,1900,1138
2015/02/20,1149,1149,1143,1144,5600,1144
2015/02/23,1143,1148,1143,1143,2600,1143
2015/02/24,1145,1150,1145,1150,5700,1150
2015/02/25,1152,1157,1152,1153,8500,1153
2015/02/26,1153,1160,1150,1160,4100,1160
2015/02/27,1160,1164,1160,1164,1900,1164
2015/03/02,1175,1178,1169,1169,3100,1169
2015/03/03,1175,1189,1174,1187,4800,1187
2015/03/04,1190,1192,1187,1192,3400,1192
2015/03/05,1194,1194,1166,1174,5700,1174
2015/03/06,1164,1192,1164,1176,2000,1176
2015/03/09,1171,1193,1171,1193,1800,1193
2015/03/10,1187,1189,1176,1176,3500,1176
2015/03/11,1176,1179,1155,1155,2700,1155
2015/03/12,1152,1163,1150,1162,2800,1162
2015/03/13,1171,1185,1171,1173,1000,1173
2015/03/16,1177,1200,1177,1200,5100,1200
2015/03/17,1199,1199,1193,1198,1600,1198
2015/03/18,1199,1200,1197,1200,5200,1200
2015/03/19,1205,1209,1204,1209,2800,1209
2015/03/20,1212,1217,1212,1217,4300,1217
2015/03/23,1219,1230,1219,1221,6200,1221
2015/03/24,1226,1227,1221,1227,3700,1227
2015/03/25,1231,1284,1230,1230,8400,1230
2015/03/26,1234,1257,1219,1220,6200,1220
2015/03/27,1220,1257,1220,1240,3000,1240
2015/03/30,1242,1261,1241,1261,7200,1261
2015/03/31,1250,1266,1237,1260,7800,1260
2015/04/01,1240,1243,1237,1243,4800,1243
2015/04/02,1243,1250,1243,1248,1700,1248
2015/04/03,1259,1262,1253,1260,5000,1260
2015/04/06,1265,1280,1250,1273,10800,1273
2015/04/07,1278,1279,1270,1276,2600,1276
2015/04/08,1276,1295,1264,1295,4200,1295
2015/04/09,1307,1317,1303,1310,5300,1310
2015/04/10,1307,1308,1300,1300,3800,1300
2015/04/13,1321,1325,1318,1325,4200,1325
2015/04/14,1320,1320,1310,1316,4200,1316
2015/04/15,1320,1320,1310,1310,1900,1310
2015/04/16,1310,1310,1276,1285,5900,1285
2015/04/17,1287,1287,1256,1268,6200,1268
2015/04/20,1568,1568,1568,1568,28200,1568
2015/04/21,1570,1698,1511,1691,153200,1691
2015/04/22,1699,1699,1605,1690,44600,1690
2015/04/23,1680,1744,1652,1702,45000,1702
2015/04/24,1708,1847,1708,1847,56700,1847
2015/04/27,1851,2100,1847,1961,141000,1961
2015/04/28,1980,2025,1805,1825,52100,1825
2015/04/30,1789,1790,1690,1780,51700,1780
2015/05/01,1768,1773,1726,1762,12900,1762
2015/05/07,1784,1836,1767,1835,27100,1835
2015/05/08,1895,1895,1860,1885,18200,1885
2015/05/11,1904,1905,1851,1865,11000,1865
2015/05/12,1864,1870,1845,1865,17100,1865
2015/05/13,1864,1865,1805,1859,16400,1859
2015/05/14,1850,1850,1819,1828,9100,1828
2015/05/15,1825,1889,1802,1865,33800,1865
2015/05/18,1865,1866,1840,1840,16600,1840
2015/05/19,1850,1868,1838,1859,17100,1859
2015/05/20,1861,1870,1852,1854,12700,1854
2015/05/21,1852,1869,1852,1858,8200,1858
2015/05/22,1850,1862,1824,1862,21600,1862
2015/05/25,1842,1876,1840,1867,24700,1867
2015/05/26,1852,1876,1847,1866,30000,1866
2015/05/27,1827,1859,1781,1794,48700,1794
2015/05/28,1794,1875,1776,1820,156900,1820
2015/05/29,1820,1876,1798,1839,143000,1839
2015/06/01,1799,1815,1725,1728,42400,1728
2015/06/02,1726,1726,1673,1673,34000,1673
2015/06/03,1656,1656,1607,1613,30300,1613
2015/06/04,1640,1645,1601,1605,18300,1605
2015/06/05,1636,1636,1600,1612,22600,1612
2015/06/08,1612,1640,1612,1633,9500,1633
2015/06/09,1606,1612,1585,1585,19200,1585
2015/06/10,1580,1582,1562,1569,8500,1569
2015/06/11,1599,1609,1550,1606,7900,1606
2015/06/12,1625,1625,1606,1622,11200,1622
2015/06/15,1614,1619,1611,1612,4700,1612
2015/06/16,1611,1611,1578,1606,6300,1606
2015/06/17,1587,1604,1587,1597,2700,1597
2015/06/18,1595,1596,1590,1590,5000,1590
2015/06/19,1586,1605,1586,1604,4400,1604
2015/06/22,1600,1625,1600,1607,9400,1607
2015/06/23,1607,1615,1597,1607,7500,1607
2015/06/24,1607,1607,1595,1602,5200,1602
2015/06/25,1601,1601,1592,1593,4600,1593
2015/06/26,1592,1598,1582,1593,4200,1593
2015/06/29,1581,1589,1552,1556,5700,1556
2015/06/30,1552,1574,1550,1574,5200,1574
2015/07/01,1574,1574,1548,1570,15800,1570
2015/07/02,1561,1572,1560,1572,3400,1572
2015/07/03,1573,1573,1564,1567,5200,1567
2015/07/06,1552,1558,1536,1539,7400,1539
2015/07/07,1539,1550,1531,1541,7200,1541
2015/07/08,1541,1541,1500,1500,6300,1500
2015/07/09,1460,1477,1400,1450,7800,1450
2015/07/10,1450,1465,1450,1453,5400,1453
2015/07/13,1450,1477,1450,1470,10200,1470
2015/07/14,1469,1489,1469,1485,3700,1485
2015/07/15,1485,1520,1485,1499,9000,1499
2015/07/16,1499,1517,1498,1516,13800,1516
2015/07/17,1513,1516,1495,1503,5000,1503
2015/07/21,1503,1514,1503,1510,4600,1510
2015/07/22,1505,1505,1491,1495,3400,1495
2015/07/23,1495,1505,1495,1504,3900,1504
2015/07/24,1498,1502,1490,1502,5100,1502
2015/07/27,1500,1500,1478,1485,4200,1485
2015/07/28,1477,1480,1470,1475,3100,1475
2015/07/29,1475,1502,1471,1487,4500,1487
2015/07/30,1492,1505,1492,1504,13500,1504
2015/07/31,1508,1508,1500,1504,5000,1504
2015/08/03,1504,1527,1501,1527,6800,1527
2015/08/04,1534,1566,1534,1566,5600,1566
2015/08/05,1574,1597,1574,1594,9800,1594
2015/08/06,1603,1607,1594,1606,7400,1606
2015/08/07,1607,1608,1595,1605,5100,1605
2015/08/10,1595,1625,1595,1618,6700,1618
2015/08/11,1620,1624,1605,1607,2000,1607
2015/08/12,1607,1610,1605,1606,2900,1606
2015/08/13,1604,1608,1602,1605,2400,1605
2015/08/14,1598,1604,1598,1600,1800,1600
2015/08/17,1601,1619,1601,1610,3300,1610
2015/08/18,1596,1604,1585,1604,3800,1604
2015/08/19,1618,1618,1605,1608,2500,1608
2015/08/20,1618,1618,1610,1610,2800,1610
2015/08/21,1557,1610,1557,1559,5500,1559
2015/08/24,1500,1500,1400,1426,11800,1426
2015/08/25,1333,1426,1307,1342,14800,1342
2015/08/26,1342,1425,1335,1417,5400,1417
2015/08/27,1415,1444,1415,1431,5000,1431
2015/08/28,1450,1500,1447,1491,4900,1491
2015/08/31,1500,1503,1491,1499,6400,1499
2015/09/01,1500,1529,1499,1509,8300,1509
2015/09/02,1498,1518,1476,1505,3800,1505
2015/09/03,1511,1526,1511,1517,1600,1517
2015/09/04,1515,1517,1440,1478,6800,1478
2015/09/07,1503,1503,1440,1440,4600,1440
2015/09/08,1440,1472,1402,1411,2200,1411
2015/09/09,1422,1468,1422,1468,3400,1468
2015/09/10,1499,1499,1438,1476,2600,1476
2015/09/11,1430,1484,1430,1477,6100,1477
2015/09/14,1499,1499,1477,1482,1900,1482
2015/09/15,1495,1495,1484,1484,1800,1484
2015/09/16,1488,1492,1476,1489,1800,1489
2015/09/17,1495,1495,1446,1473,4300,1473
2015/09/18,1473,1494,1473,1493,1200,1493
2015/09/24,1508,1508,1495,1501,6500,1501
2015/09/25,1513,1513,1471,1480,7500,1480
2015/09/28,1510,1515,1505,1507,4800,1507
2015/09/29,1508,1514,1501,1505,6200,1505
2015/09/30,1487,1505,1487,1490,3400,1490
2015/10/01,1491,1507,1491,1498,2300,1498
2015/10/02,1498,1509,1498,1509,2300,1509
2015/10/05,1509,1509,1493,1493,4900,1493
2015/10/06,1499,1509,1499,1506,2600,1506
2015/10/07,1505,1509,1500,1509,3400,1509
2015/10/08,1505,1506,1492,1496,2900,1496
2015/10/09,1506,1510,1490,1510,3500,1510
2015/10/13,1504,1508,1500,1508,2700,1508
2015/10/14,1500,1500,1491,1494,3600,1494
2015/10/15,1499,1501,1496,1501,1200,1501
2015/10/16,1500,1510,1500,1508,3200,1508
