2010/01/04,1048,1202,1048,1169,682000,1169
2010/01/05,1155,1155,1113,1115,318000,1115
2010/01/06,1090,1130,1090,1110,205000,1110
2010/01/07,1111,1128,1094,1097,221000,1097
2010/01/08,1097,1118,1094,1103,143000,1103
2010/01/12,1104,1106,1079,1092,262000,1092
2010/01/13,1089,1091,1074,1075,258000,1075
2010/01/14,1076,1076,1044,1062,315000,1062
2010/01/15,1068,1068,1050,1054,132000,1054
2010/01/18,1060,1060,1050,1057,147000,1057
2010/01/19,1059,1070,1054,1062,128000,1062
2010/01/20,1068,1069,1061,1066,109000,1066
2010/01/21,1071,1074,1060,1060,148000,1060
2010/01/22,1060,1060,1042,1048,137000,1048
2010/01/25,1030,1043,1030,1037,125000,1037
2010/01/26,1047,1047,1014,1014,188000,1014
2010/01/27,1028,1046,1025,1039,260000,1039
2010/01/28,1031,1048,1027,1044,150000,1044
2010/01/29,1040,1050,1030,1030,163000,1030
2010/02/01,1045,1046,1029,1044,152000,1044
2010/02/02,1050,1050,1033,1041,147000,1041
2010/02/03,1035,1048,1035,1043,99000,1043
2010/02/04,1036,1050,1036,1048,137000,1048
2010/02/05,1037,1038,1028,1028,55000,1028
2010/02/08,1016,1028,1016,1019,117000,1019
2010/02/09,1010,1024,1010,1014,107000,1014
2010/02/10,1016,1016,1005,1009,109000,1009
2010/02/12,1001,1002,955,968,563000,968
2010/02/15,968,971,956,962,171000,962
2010/02/16,962,968,959,963,152000,963
2010/02/17,972,984,971,981,254000,981
2010/02/18,996,1035,990,1024,466000,1024
2010/02/19,1025,1025,1002,1006,289000,1006
2010/02/22,1036,1038,1012,1018,239000,1018
2010/02/23,1017,1017,985,1004,403000,1004
2010/02/24,1003,1004,987,1001,158000,1001
2010/02/25,1008,1009,990,1001,155000,1001
2010/02/26,1001,1008,993,999,109000,999
2010/03/01,1014,1014,997,1002,184000,1002
2010/03/02,990,997,988,995,155000,995
2010/03/03,996,1002,989,993,111000,993
2010/03/04,997,1002,981,987,281000,987
2010/03/05,987,999,986,997,161000,997
2010/03/08,1019,1022,1006,1008,260000,1008
2010/03/09,1015,1019,1004,1005,200000,1005
2010/03/10,1000,1011,985,996,236000,996
2010/03/11,1009,1009,996,1000,104000,1000
2010/03/12,1000,1000,993,994,241000,994
2010/03/15,998,1003,994,998,128000,998
2010/03/16,1002,1004,994,994,103000,994
2010/03/17,999,1001,994,996,111000,996
2010/03/18,1000,1001,997,998,92000,998
2010/03/19,1003,1012,996,1009,230000,1009
2010/03/23,1020,1020,1006,1006,192000,1006
2010/03/24,1025,1032,1017,1021,208000,1021
2010/03/25,1014,1025,1008,1022,217000,1022
2010/03/26,1032,1034,1019,1034,278000,1034
2010/03/29,1032,1048,1023,1031,250000,1031
2010/03/30,1044,1044,1025,1042,230000,1042
2010/03/31,1050,1059,1043,1059,204000,1059
2010/04/01,1060,1060,1039,1050,327000,1050
2010/04/02,1064,1069,1045,1049,277000,1049
2010/04/05,1055,1058,1041,1053,160000,1053
2010/04/06,1060,1060,1042,1049,214000,1049
2010/04/07,1050,1068,1042,1062,182000,1062
2010/04/08,1062,1072,1057,1066,185000,1066
2010/04/09,1066,1071,1057,1070,149000,1070
2010/04/12,1075,1080,1067,1069,188000,1069
2010/04/13,1070,1077,1052,1070,221000,1070
2010/04/14,1072,1080,1062,1076,187000,1076
2010/04/15,1079,1087,1070,1074,106000,1074
2010/04/16,1075,1077,1065,1074,161000,1074
2010/04/19,1057,1063,1031,1054,259000,1054
2010/04/20,1061,1065,1051,1064,169000,1064
2010/04/21,1070,1070,1042,1061,288000,1061
2010/04/22,1062,1073,1050,1067,231000,1067
2010/04/23,1061,1085,1061,1085,206000,1085
2010/04/26,1086,1094,1085,1091,168000,1091
2010/04/27,1091,1091,1075,1082,184000,1082
2010/04/28,1070,1070,1042,1062,204000,1062
2010/04/30,1055,1086,1053,1082,209000,1082
2010/05/06,1071,1082,1057,1071,248000,1071
2010/05/07,1060,1062,1032,1044,249000,1044
2010/05/10,1044,1078,1026,1060,159000,1060
2010/05/11,1047,1067,1047,1057,374000,1057
2010/05/12,1057,1060,1037,1042,225000,1042
2010/05/13,1062,1064,1038,1045,247000,1045
2010/05/14,1057,1066,1048,1052,343000,1052
2010/05/17,992,1020,962,997,760000,997
2010/05/18,1012,1029,1003,1011,402000,1011
2010/05/19,1017,1018,998,1006,297000,1006
2010/05/20,1010,1027,1008,1010,198000,1010
2010/05/21,982,994,971,972,369000,972
2010/05/24,981,999,980,982,234000,982
2010/05/25,983,987,967,972,192000,972
2010/05/26,982,982,965,966,217000,966
2010/05/27,965,966,950,955,224000,955
2010/05/28,963,975,963,968,143000,968
2010/05/31,972,995,972,986,91000,986
2010/06/01,1000,1000,987,989,105000,989
2010/06/02,975,986,966,971,196000,971
2010/06/03,980,983,973,975,114000,975
2010/06/04,976,979,961,970,164000,970
2010/06/07,950,957,948,951,79000,951
2010/06/08,951,963,943,957,93000,957
2010/06/09,948,956,944,951,108000,951
2010/06/10,951,952,939,944,98000,944
2010/06/11,957,962,951,958,123000,958
2010/06/14,953,956,944,950,173000,950
2010/06/15,941,942,916,924,281000,924
2010/06/16,924,962,924,957,292000,957
2010/06/17,965,965,952,960,152000,960
2010/06/18,969,995,969,993,254000,993
2010/06/21,996,996,975,977,204000,977
2010/06/22,978,984,963,976,280000,976
2010/06/23,976,976,962,966,235000,966
2010/06/24,959,971,954,963,184000,963
2010/06/25,964,988,964,988,249000,988
2010/06/28,997,1005,995,996,142000,996
2010/06/29,996,1013,993,1001,157000,1001
2010/06/30,998,1010,989,1010,209000,1010
2010/07/01,1030,1035,1022,1026,393000,1026
2010/07/02,1033,1042,1029,1037,229000,1037
2010/07/05,1038,1047,1025,1040,194000,1040
2010/07/06,1037,1037,1022,1034,180000,1034
2010/07/07,1033,1065,1030,1060,373000,1060
2010/07/08,1070,1071,1036,1042,277000,1042
2010/07/09,1023,1028,982,986,683000,986
2010/07/12,1004,1015,995,1009,300000,1009
2010/07/13,1023,1026,995,998,206000,998
2010/07/14,1013,1013,996,1008,165000,1008
2010/07/15,1009,1009,995,997,96000,997
2010/07/16,1001,1009,985,986,87000,986
2010/07/20,962,985,962,980,155000,980
2010/07/21,991,995,982,991,96000,991
2010/07/22,993,993,981,989,88000,989
2010/07/23,1003,1003,989,994,82000,994
2010/07/26,1004,1004,988,994,63000,994
2010/07/27,1038,1048,1034,1042,398000,1042
2010/07/28,1048,1050,1024,1037,214000,1037
2010/07/29,1038,1054,1038,1046,225000,1046
2010/07/30,1049,1060,1041,1059,260000,1059
2010/08/02,1069,1088,1068,1082,332000,1082
2010/08/03,1085,1090,1081,1082,358000,1082
2010/08/04,1085,1090,1082,1087,295000,1087
2010/08/05,1092,1124,1092,1106,374000,1106
2010/08/06,1107,1109,1095,1102,177000,1102
2010/08/09,1102,1102,1071,1096,245000,1096
2010/08/10,1084,1085,1064,1072,218000,1072
2010/08/11,1075,1112,1075,1105,346000,1105
2010/08/12,1081,1089,1075,1086,174000,1086
2010/08/13,1081,1082,1072,1078,135000,1078
2010/08/16,1079,1097,1078,1093,127000,1093
2010/08/17,1094,1101,1090,1100,105000,1100
2010/08/18,1111,1111,1088,1098,101000,1098
2010/08/19,1103,1109,1086,1091,90000,1091
2010/08/20,1091,1091,1068,1072,95000,1072
2010/08/23,1071,1078,1060,1069,66000,1069
2010/08/24,1050,1081,1048,1080,164000,1080
2010/08/25,1046,1086,1046,1074,161000,1074
2010/08/26,1085,1098,1082,1097,135000,1097
2010/08/27,1098,1116,1089,1113,151000,1113
2010/08/30,1127,1130,1111,1118,106000,1118
2010/08/31,1113,1113,1077,1082,182000,1082
2010/09/01,1077,1090,1050,1072,214000,1072
2010/09/02,1073,1077,1045,1060,347000,1060
2010/09/03,1046,1069,1046,1051,196000,1051
2010/09/06,1051,1079,1051,1077,92000,1077
2010/09/07,1062,1090,1062,1087,133000,1087
2010/09/08,1087,1091,1083,1084,155000,1084
2010/09/09,1099,1099,1085,1098,81000,1098
2010/09/10,1120,1134,1102,1105,213000,1105
2010/09/13,1115,1118,1096,1098,104000,1098
2010/09/14,1101,1128,1101,1124,222000,1124
2010/09/15,1124,1124,1103,1119,154000,1119
2010/09/16,1121,1121,1094,1103,149000,1103
2010/09/17,1112,1124,1109,1109,154000,1109
2010/09/21,1109,1115,1094,1105,126000,1105
2010/09/22,1106,1117,1098,1106,117000,1106
2010/09/24,1100,1100,1087,1096,195000,1096
2010/09/27,1096,1117,1096,1104,111000,1104
2010/09/28,1103,1152,1103,1134,400000,1134
2010/09/29,1127,1151,1123,1144,279000,1144
2010/09/30,1145,1164,1132,1160,305000,1160
2010/10/01,1161,1193,1161,1178,439000,1178
2010/10/04,1199,1207,1190,1201,370000,1201
2010/10/05,1192,1197,1175,1190,362000,1190
2010/10/06,1187,1189,1175,1185,365000,1185
2010/10/07,1180,1204,1178,1200,239000,1200
2010/10/08,1188,1196,1185,1188,371000,1188
2010/10/12,1189,1198,1157,1157,273000,1157
2010/10/13,1172,1195,1168,1193,353000,1193
2010/10/14,1197,1207,1190,1193,303000,1193
2010/10/15,1194,1194,1176,1177,196000,1177
2010/10/18,1185,1197,1184,1197,123000,1197
2010/10/19,1198,1210,1195,1207,179000,1207
2010/10/20,1204,1204,1177,1199,175000,1199
2010/10/21,1186,1192,1175,1186,248000,1186
2010/10/22,1181,1199,1180,1197,155000,1197
2010/10/25,1187,1194,1176,1180,123000,1180
2010/10/26,1145,1185,1145,1180,277000,1180
2010/10/27,1171,1176,1159,1164,267000,1164
2010/10/28,1152,1167,1133,1145,321000,1145
2010/10/29,1137,1148,1113,1140,314000,1140
2010/11/01,1137,1144,1124,1129,175000,1129
2010/11/02,1123,1134,1111,1127,233000,1127
2010/11/04,1128,1155,1112,1146,636000,1146
2010/11/05,1166,1171,1122,1123,331000,1123
2010/11/08,1127,1137,1115,1134,330000,1134
2010/11/09,1135,1150,1127,1140,218000,1140
2010/11/10,1153,1161,1135,1144,170000,1144
2010/11/11,1153,1153,1115,1131,269000,1131
2010/11/12,1135,1140,1121,1122,212000,1122
2010/11/15,1134,1135,1121,1126,140000,1126
2010/11/16,1127,1129,1102,1107,230000,1107
2010/11/17,1107,1114,1102,1111,93000,1111
2010/11/18,1105,1137,1104,1134,224000,1134
2010/11/19,1134,1134,1102,1111,345000,1111
2010/11/22,1122,1122,1112,1120,98000,1120
2010/11/24,1118,1135,1113,1116,226000,1116
2010/11/25,1128,1128,1116,1121,207000,1121
2010/11/26,1130,1130,1115,1116,57000,1116
2010/11/29,1113,1121,1098,1103,267000,1103
2010/11/30,1104,1108,1088,1091,281000,1091
2010/12/01,1097,1103,1090,1098,86000,1098
2010/12/02,1116,1116,1086,1092,204000,1092
2010/12/03,1090,1111,1090,1099,203000,1099
2010/12/06,1093,1107,1093,1100,105000,1100
2010/12/07,1088,1105,1088,1104,146000,1104
2010/12/08,1110,1119,1099,1114,182000,1114
2010/12/09,1104,1116,1104,1113,132000,1113
2010/12/10,1104,1112,1095,1110,242000,1110
2010/12/13,1111,1113,1101,1112,140000,1112
2010/12/14,1112,1112,1090,1101,198000,1101
2010/12/15,1103,1112,1100,1112,169000,1112
2010/12/16,1119,1119,1090,1110,389000,1110
2010/12/17,1110,1121,1103,1115,234000,1115
2010/12/20,1106,1124,1106,1111,345000,1111
2010/12/21,1118,1134,1118,1129,199000,1129
2010/12/22,1130,1143,1130,1136,244000,1136
2010/12/24,1147,1170,1143,1166,370000,1166
2010/12/27,1169,1179,1151,1153,342000,1153
2010/12/28,1154,1166,1145,1160,104000,1160
2010/12/29,1161,1176,1153,1171,163000,1171
2010/12/30,1163,1168,1158,1162,134000,1162
2011/01/04,1174,1174,1140,1166,280000,1166
2011/01/05,1166,1166,1143,1143,234000,1143
2011/01/06,1144,1146,1136,1139,137000,1139
2011/01/07,1146,1146,1132,1132,139000,1132
2011/01/11,1143,1149,1139,1147,186000,1147
2011/01/12,1146,1146,1129,1135,186000,1135
2011/01/13,1135,1142,1127,1134,144000,1134
2011/01/14,1139,1154,1137,1146,207000,1146
2011/01/17,1146,1158,1142,1154,145000,1154
2011/01/18,1154,1157,1148,1149,134000,1149
2011/01/19,1149,1151,1142,1146,73000,1146
2011/01/20,1140,1150,1138,1147,129000,1147
2011/01/21,1140,1157,1135,1144,268000,1144
2011/01/24,1141,1160,1140,1158,163000,1158
2011/01/25,1158,1181,1152,1172,233000,1172
2011/01/26,1172,1172,1159,1162,105000,1162
2011/01/27,1160,1162,1149,1155,102000,1155
2011/01/28,1152,1164,1150,1157,202000,1157
2011/01/31,1157,1157,1140,1154,115000,1154
2011/02/01,1150,1150,1139,1144,93000,1144
2011/02/02,1143,1152,1140,1144,166000,1144
2011/02/03,1138,1141,1130,1138,79000,1138
2011/02/04,1137,1150,1136,1148,106000,1148
2011/02/07,1142,1148,1134,1146,137000,1146
2011/02/08,1140,1145,1115,1123,262000,1123
2011/02/09,1105,1122,1103,1112,300000,1112
2011/02/10,1112,1122,1106,1119,235000,1119
2011/02/14,1128,1128,1110,1115,138000,1115
2011/02/15,1115,1129,1114,1123,127000,1123
2011/02/16,1131,1131,1108,1120,163000,1120
2011/02/17,1115,1119,1109,1113,207000,1113
2011/02/18,1120,1120,1112,1115,90000,1115
2011/02/21,1119,1119,1112,1113,45000,1113
2011/02/22,1113,1120,1107,1108,133000,1108
2011/02/23,1108,1113,1102,1102,72000,1102
2011/02/24,1100,1100,1084,1087,117000,1087
2011/02/25,1080,1082,1063,1073,164000,1073
2011/02/28,1073,1079,1065,1076,117000,1076
2011/03/01,1079,1085,1069,1072,123000,1072
2011/03/02,1060,1069,1054,1066,242000,1066
2011/03/03,1096,1175,1093,1151,861000,1151
2011/03/04,1181,1181,1145,1147,423000,1147
2011/03/07,1147,1154,1126,1131,182000,1131
2011/03/08,1132,1143,1126,1126,138000,1126
2011/03/09,1127,1131,1120,1129,129000,1129
2011/03/10,1112,1121,1100,1103,127000,1103
2011/03/11,1088,1104,1079,1082,312000,1082
2011/03/14,1050,1079,990,1001,167000,1001
2011/03/15,971,971,706,825,624000,825
2011/03/16,930,954,890,954,381000,954
2011/03/17,900,975,883,964,535000,964
2011/03/18,970,999,963,986,200000,986
2011/03/22,1001,1004,985,998,137000,998
2011/03/23,1013,1026,996,999,104000,999
2011/03/24,1065,1076,1030,1030,171000,1030
2011/03/25,1059,1059,1035,1045,125000,1045
2011/03/28,1046,1046,1025,1035,96000,1035
2011/03/29,1049,1052,1044,1050,85000,1050
2011/03/30,1050,1057,1039,1057,94000,1057
2011/03/31,1065,1068,1057,1067,108000,1067
2011/04/01,1091,1094,1034,1048,182000,1048
2011/04/04,1061,1066,1045,1048,147000,1048
2011/04/05,1060,1064,1024,1033,186000,1033
2011/04/06,1034,1034,1020,1024,81000,1024
2011/04/07,1026,1026,1011,1021,68000,1021
2011/04/08,1021,1042,1016,1036,138000,1036
2011/04/11,1020,1036,1020,1031,83000,1031
2011/04/12,1011,1016,1005,1012,83000,1012
2011/04/13,1004,1018,1004,1016,39000,1016
2011/04/14,1002,1015,998,1009,131000,1009
2011/04/15,1003,1009,1000,1001,57000,1001
2011/04/18,999,1009,995,1004,81000,1004
2011/04/19,999,1015,996,1006,89000,1006
2011/04/20,1025,1026,1018,1020,58000,1020
2011/04/21,1022,1051,1022,1046,183000,1046
2011/04/22,1046,1053,1040,1040,114000,1040
2011/04/25,1038,1040,1026,1030,92000,1030
2011/04/26,1041,1043,1026,1028,71000,1028
2011/04/27,1031,1035,1020,1024,119000,1024
2011/04/28,1019,1047,1015,1046,133000,1046
2011/05/02,1045,1058,1041,1055,93000,1055
2011/05/06,1054,1063,1049,1062,65000,1062
2011/05/09,1062,1062,1051,1055,44000,1055
2011/05/10,1045,1048,1040,1045,73000,1045
2011/05/11,1041,1045,1026,1036,72000,1036
2011/05/12,1025,1035,1019,1027,87000,1027
2011/05/13,1013,1013,971,982,261000,982
2011/05/16,979,994,975,978,75000,978
2011/05/17,980,998,972,976,153000,976
2011/05/18,974,988,971,973,118000,973
2011/05/19,967,982,960,971,133000,971
2011/05/20,973,975,966,971,180000,971
2011/05/23,972,972,964,967,65000,967
2011/05/24,967,997,965,993,157000,993
2011/05/25,993,1005,988,997,138000,997
2011/05/26,1014,1021,1005,1014,172000,1014
2011/05/27,1014,1024,1010,1014,152000,1014
2011/05/30,1013,1022,1004,1018,174000,1018
2011/05/31,1020,1034,1020,1026,164000,1026
2011/06/01,1029,1030,1020,1030,88000,1030
2011/06/02,1025,1027,1018,1021,72000,1021
2011/06/03,1019,1020,1006,1007,73000,1007
2011/06/06,999,1007,991,994,142000,994
2011/06/07,995,1002,994,1000,85000,1000
2011/06/08,1000,1006,995,1002,65000,1002
2011/06/09,1002,1002,990,995,63000,995
2011/06/10,1001,1002,989,996,172000,996
2011/06/13,990,996,985,991,75000,991
2011/06/14,991,998,988,993,89000,993
2011/06/15,990,997,985,994,85000,994
2011/06/16,991,1006,990,995,132000,995
2011/06/17,995,995,976,979,120000,979
2011/06/20,980,983,969,983,99000,983
2011/06/21,981,1001,978,1001,114000,1001
2011/06/22,999,1008,997,1006,77000,1006
2011/06/23,996,1014,991,1009,62000,1009
2011/06/24,1016,1029,1015,1018,77000,1018
2011/06/27,1035,1035,1023,1024,114000,1024
2011/06/28,1030,1030,996,1015,110000,1015
2011/06/29,1008,1031,1001,1025,129000,1025
2011/06/30,1002,1028,1000,1024,171000,1024
2011/07/01,1038,1038,1012,1016,109000,1016
2011/07/04,1019,1024,1004,1013,119000,1013
2011/07/05,1002,1013,1002,1010,122000,1010
2011/07/06,1005,1014,1003,1014,65000,1014
2011/07/07,1014,1023,1005,1019,107000,1019
2011/07/08,1020,1026,1018,1025,96000,1025
2011/07/11,1026,1037,1005,1026,144000,1026
2011/07/12,1026,1030,1020,1025,106000,1025
2011/07/13,1030,1050,1029,1044,311000,1044
2011/07/14,1043,1104,1043,1080,366000,1080
2011/07/15,1086,1096,1070,1079,158000,1079
2011/07/19,1087,1101,1078,1088,179000,1088
2011/07/20,1099,1105,1080,1087,128000,1087
2011/07/21,1075,1075,1054,1069,170000,1069
2011/07/22,1069,1097,1060,1084,159000,1084
2011/07/25,1085,1108,1081,1102,213000,1102
2011/07/26,1109,1116,1101,1109,148000,1109
2011/07/27,1110,1114,1093,1111,175000,1111
2011/07/28,1096,1108,1081,1103,208000,1103
2011/07/29,1088,1097,1081,1091,182000,1091
2011/08/01,1091,1115,1082,1109,236000,1109
2011/08/02,1094,1100,1087,1094,132000,1094
2011/08/03,1094,1094,1072,1078,114000,1078
2011/08/04,1079,1095,1079,1090,107000,1090
2011/08/05,1060,1070,1050,1056,136000,1056
2011/08/08,1027,1027,995,1014,271000,1014
2011/08/09,995,1007,984,1007,157000,1007
2011/08/10,1011,1021,996,1005,198000,1005
2011/08/11,984,999,974,996,206000,996
2011/08/12,1000,1003,979,987,248000,987
2011/08/15,1002,1005,993,1000,101000,1000
2011/08/16,999,999,985,991,102000,991
2011/08/17,993,993,984,989,89000,989
2011/08/18,984,1010,982,1005,173000,1005
2011/08/19,994,1010,994,1004,114000,1004
2011/08/22,986,987,979,980,170000,980
2011/08/23,980,983,970,977,141000,977
2011/08/24,974,984,968,973,169000,973
2011/08/25,982,982,960,961,112000,961
2011/08/26,951,968,951,960,199000,960
2011/08/29,958,964,945,953,210000,953
2011/08/30,961,961,927,940,313000,940
2011/08/31,944,964,944,960,149000,960
2011/09/01,970,975,962,965,78000,965
2011/09/02,958,962,956,960,86000,960
2011/09/05,960,963,952,956,62000,956
2011/09/06,958,974,958,961,156000,961
2011/09/07,968,968,961,962,103000,962
2011/09/08,964,975,964,973,46000,973
2011/09/09,974,979,964,968,139000,968
2011/09/12,953,960,933,937,135000,937
2011/09/13,950,955,943,943,75000,943
2011/09/14,948,951,944,945,76000,945
2011/09/15,945,948,932,932,116000,932
2011/09/16,941,965,938,958,91000,958
2011/09/20,943,954,939,940,103000,940
2011/09/21,941,966,940,945,105000,945
2011/09/22,940,949,932,942,103000,942
2011/09/26,947,948,922,926,123000,926
2011/09/27,927,954,927,941,152000,941
2011/09/28,940,959,940,951,112000,951
2011/09/29,950,988,947,988,115000,988
2011/09/30,990,1005,990,999,101000,999
2011/10/03,995,997,976,982,70000,982
2011/10/04,968,970,942,945,145000,945
2011/10/05,946,946,903,905,180000,905
2011/10/06,916,927,911,925,84000,925
2011/10/07,937,950,932,934,128000,934
2011/10/11,947,947,916,922,309000,922
2011/10/12,936,951,930,946,169000,946
2011/10/13,947,950,941,947,118000,947
2011/10/14,935,948,922,923,118000,923
2011/10/17,931,936,928,931,97000,931
2011/10/18,930,935,918,918,208000,918
2011/10/19,917,921,912,917,225000,917
2011/10/20,914,917,909,914,87000,914
2011/10/21,915,917,907,913,54000,913
2011/10/24,922,931,916,925,99000,925
2011/10/25,923,930,904,913,173000,913
2011/10/26,910,918,907,910,123000,910
2011/10/27,905,918,905,915,110000,915
2011/10/28,928,941,906,906,314000,906
2011/10/31,902,932,900,916,219000,916
2011/11/01,905,915,895,896,148000,896
2011/11/02,892,893,871,875,138000,875
2011/11/04,880,887,875,882,68000,882
2011/11/07,889,889,879,884,90000,884
2011/11/08,884,899,869,887,209000,887
2011/11/09,889,931,889,928,219000,928
2011/11/10,913,922,902,910,99000,910
2011/11/11,909,930,904,912,97000,912
2011/11/14,913,935,912,919,72000,919
2011/11/15,913,919,906,911,63000,911
2011/11/16,909,918,905,905,53000,905
2011/11/17,900,906,895,904,62000,904
2011/11/18,885,891,884,888,80000,888
2011/11/21,884,885,877,880,49000,880
2011/11/22,874,888,868,886,95000,886
2011/11/24,871,886,871,874,77000,874
2011/11/25,870,888,870,878,67000,878
2011/11/28,884,884,863,876,96000,876
2011/11/29,876,884,871,884,70000,884
2011/11/30,883,883,867,879,66000,879
2011/12/01,882,882,862,863,107000,863
2011/12/02,865,875,855,866,123000,866
2011/12/05,866,871,856,870,80000,870
2011/12/06,870,873,867,871,97000,871
2011/12/07,877,903,875,903,135000,903
2011/12/08,903,904,891,901,65000,901
2011/12/09,890,904,890,903,85000,903
2011/12/12,933,959,923,950,133000,950
2011/12/13,950,950,927,930,88000,930
2011/12/14,935,935,924,925,64000,925
2011/12/15,925,927,914,914,33000,914
2011/12/16,914,922,910,913,65000,913
2011/12/19,913,913,884,895,50000,895
2011/12/20,909,909,888,902,35000,902
2011/12/21,908,929,904,928,56000,928
2011/12/22,928,935,923,928,24000,928
2011/12/26,935,935,927,931,23000,931
2011/12/27,925,938,910,936,42000,936
2011/12/28,927,932,921,926,38000,926
2011/12/29,926,935,915,934,29000,934
2011/12/30,937,951,937,951,48000,951
2012/01/04,953,967,949,950,57000,950
2012/01/05,944,945,934,937,53000,937
2012/01/06,935,936,921,925,16000,925
2012/01/10,925,930,925,927,29000,927
2012/01/11,930,935,928,930,21000,930
2012/01/12,930,934,909,916,35000,916
2012/01/13,916,930,916,929,40000,929
2012/01/16,928,928,919,920,15000,920
2012/01/17,921,929,921,924,35000,924
2012/01/18,926,926,911,919,35000,919
2012/01/19,922,928,910,916,47000,916
2012/01/20,920,925,915,922,45000,922
2012/01/23,916,919,903,905,46000,905
2012/01/24,904,912,903,904,51000,904
2012/01/25,910,915,901,910,102000,910
2012/01/26,916,923,911,921,54000,921
2012/01/27,921,922,904,906,33000,906
2012/01/30,907,907,900,900,37000,900
2012/01/31,900,905,888,895,54000,895
2012/02/01,902,902,891,898,35000,898
2012/02/02,898,910,898,899,48000,899
2012/02/03,891,900,884,886,55000,886
2012/02/06,897,898,880,883,52000,883
2012/02/07,905,935,890,929,208000,929
2012/02/08,933,935,929,935,54000,935
2012/02/09,933,954,931,941,127000,941
2012/02/10,946,950,946,949,29000,949
2012/02/13,945,949,941,941,39000,941
2012/02/14,945,952,945,951,44000,951
2012/02/15,951,957,945,955,65000,955
2012/02/16,955,957,950,950,52000,950
2012/02/17,957,957,949,951,98000,951
2012/02/20,951,956,942,945,90000,945
2012/02/21,936,953,930,953,85000,953
2012/02/22,958,969,952,964,75000,964
2012/02/23,964,967,958,965,68000,965
2012/02/24,968,980,968,973,95000,973
2012/02/27,982,982,970,975,46000,975
2012/02/28,977,986,975,983,58000,983
2012/02/29,988,995,983,984,65000,984
2012/03/01,989,995,975,979,69000,979
2012/03/02,994,999,993,996,42000,996
2012/03/05,1001,1004,999,1000,21000,1000
2012/03/06,998,1014,998,1013,46000,1013
2012/03/07,1004,1012,1000,1007,34000,1007
2012/03/08,996,1010,996,1010,28000,1010
2012/03/09,1010,1017,1002,1014,112000,1014
2012/03/12,1010,1011,1005,1006,58000,1006
2012/03/13,1009,1010,997,1002,74000,1002
2012/03/14,1005,1006,988,995,68000,995
2012/03/15,994,1008,990,1006,106000,1006
2012/03/16,1008,1008,998,1004,52000,1004
2012/03/19,1005,1008,1001,1005,34000,1005
2012/03/21,994,1005,994,1001,62000,1001
2012/03/22,1001,1008,996,1007,36000,1007
2012/03/23,1009,1060,1004,1039,235000,1039
2012/03/26,1040,1042,1030,1030,68000,1030
2012/03/27,1030,1035,1025,1029,82000,1029
2012/03/28,1028,1038,1017,1020,76000,1020
2012/03/29,1025,1036,1000,1013,117000,1013
2012/03/30,1018,1026,1009,1021,90000,1021
2012/04/02,1021,1024,1006,1015,83000,1015
2012/04/03,1020,1020,1006,1006,34000,1006
2012/04/04,1000,1010,995,995,58000,995
2012/04/05,991,999,988,988,43000,988
2012/04/06,988,988,979,988,42000,988
2012/04/09,980,988,974,977,40000,977
2012/04/10,976,981,971,978,20000,978
2012/04/11,970,973,961,970,72000,970
2012/04/12,990,1019,980,1011,216000,1011
2012/04/13,1011,1024,1006,1012,196000,1012
2012/04/16,1001,1005,996,996,43000,996
2012/04/17,999,1005,994,1004,81000,1004
2012/04/18,1009,1012,1001,1009,107000,1009
2012/04/19,999,1012,999,1002,67000,1002
2012/04/20,993,1008,992,998,50000,998
2012/04/23,997,1006,996,996,54000,996
2012/04/24,992,995,985,986,53000,986
2012/04/25,991,1029,991,1023,123000,1023
2012/04/26,1020,1022,1010,1020,145000,1020
2012/04/27,1020,1025,1007,1013,99000,1013
2012/05/01,1013,1013,1003,1004,61000,1004
2012/05/02,999,1010,991,1003,121000,1003
2012/05/07,987,995,981,985,78000,985
2012/05/08,985,1008,985,1007,86000,1007
2012/05/09,1004,1015,991,1002,93000,1002
2012/05/10,995,1002,989,998,40000,998
2012/05/11,985,994,927,930,182000,930
2012/05/14,930,930,904,915,90000,915
2012/05/15,900,935,900,926,112000,926
2012/05/16,935,935,913,920,54000,920
2012/05/17,911,919,906,913,73000,913
2012/05/18,901,901,886,890,94000,890
2012/05/21,893,907,883,891,140000,891
2012/05/22,892,904,888,894,86000,894
2012/05/23,885,901,877,887,120000,887
2012/05/24,893,902,881,882,60000,882
2012/05/25,879,890,878,885,79000,885
2012/05/28,884,886,869,870,100000,870
2012/05/29,860,860,839,852,56000,852
2012/05/30,848,865,840,862,79000,862
2012/05/31,865,881,856,880,121000,880
2012/06/01,865,881,865,875,103000,875
2012/06/04,873,873,860,867,94000,867
2012/06/05,868,878,857,861,168000,861
2012/06/06,870,881,870,878,107000,878
2012/06/07,884,902,884,900,93000,900
2012/06/08,899,905,893,904,129000,904
2012/06/11,905,916,889,896,79000,896
2012/06/12,896,896,874,884,60000,884
2012/06/13,884,899,882,885,63000,885
2012/06/14,890,890,880,884,64000,884
2012/06/15,889,911,889,897,82000,897
2012/06/18,906,911,904,906,91000,906
2012/06/19,906,910,885,888,78000,888
2012/06/20,892,900,891,900,69000,900
2012/06/21,900,912,899,912,35000,912
2012/06/22,911,911,885,887,137000,887
2012/06/25,899,901,890,900,62000,900
2012/06/26,901,903,893,895,99000,895
2012/06/27,899,904,891,903,98000,903
2012/06/28,905,935,905,932,146000,932
2012/06/29,938,1008,938,1000,211000,1000
2012/07/02,1002,1003,953,983,138000,983
2012/07/03,978,1000,978,993,67000,993
2012/07/04,987,989,976,984,63000,984
2012/07/05,984,985,964,966,59000,966
2012/07/06,966,967,947,953,61000,953
2012/07/09,938,957,938,954,39000,954
2012/07/10,954,958,951,952,72000,952
2012/07/11,956,956,940,946,43000,946
2012/07/12,946,946,929,933,96000,933
2012/07/13,944,947,929,942,59000,942
2012/07/17,941,955,928,949,63000,949
2012/07/18,937,952,937,947,39000,947
2012/07/19,948,959,945,955,78000,955
2012/07/20,955,955,943,943,51000,943
2012/07/23,941,952,931,931,58000,931
2012/07/24,940,940,923,925,35000,925
2012/07/25,925,935,919,921,57000,921
2012/07/26,936,936,922,933,74000,933
2012/07/27,938,975,934,970,86000,970
2012/07/30,969,973,966,967,67000,967
2012/07/31,967,969,960,963,48000,963
2012/08/01,964,970,948,967,58000,967
2012/08/02,967,967,952,965,39000,965
2012/08/03,950,956,944,947,43000,947
2012/08/06,949,969,946,955,62000,955
2012/08/07,943,948,937,940,67000,940
2012/08/08,950,967,926,934,279000,934
2012/08/09,934,934,891,920,266000,920
2012/08/10,903,932,903,932,215000,932
2012/08/13,934,947,931,945,53000,945
2012/08/14,947,974,945,974,111000,974
2012/08/15,975,977,965,966,54000,966
2012/08/16,966,970,953,967,55000,967
2012/08/17,973,974,960,965,63000,965
2012/08/20,963,968,958,963,28000,963
2012/08/21,971,981,963,964,65000,964
2012/08/22,973,973,948,960,72000,960
2012/08/23,960,963,954,959,66000,959
2012/08/24,959,959,942,956,133000,956
2012/08/27,967,980,959,959,108000,959
2012/08/28,960,978,960,964,122000,964
2012/08/29,954,968,954,965,60000,965
2012/08/30,965,967,955,962,40000,962
2012/08/31,961,961,934,946,93000,946
2012/09/03,945,958,942,942,49000,942
2012/09/04,944,945,928,935,64000,935
2012/09/05,925,935,920,928,93000,928
2012/09/06,941,941,921,928,67000,928
2012/09/07,938,946,929,939,59000,939
2012/09/10,924,937,924,931,49000,931
2012/09/11,918,941,914,937,55000,937
2012/09/12,938,957,938,952,57000,952
2012/09/13,952,952,941,951,31000,951
2012/09/14,958,959,940,950,94000,950
2012/09/18,955,957,941,953,53000,953
2012/09/19,952,962,948,959,68000,959
2012/09/20,950,956,944,947,111000,947
2012/09/21,945,962,945,960,51000,960
2012/09/24,955,976,955,976,69000,976
2012/09/25,969,988,969,988,99000,988
2012/09/26,975,988,972,977,93000,977
2012/09/27,965,995,964,992,110000,992
2012/09/28,997,1007,982,994,128000,994
2012/10/01,1007,1007,985,995,105000,995
2012/10/02,996,996,980,985,58000,985
2012/10/03,980,982,960,962,65000,962
2012/10/04,954,973,954,971,67000,971
2012/10/05,976,991,968,984,76000,984
2012/10/09,969,979,956,958,118000,958
2012/10/10,938,947,933,938,68000,938
2012/10/11,937,953,937,945,65000,945
2012/10/12,940,949,910,918,141000,918
2012/10/15,918,932,914,922,64000,922
2012/10/16,925,927,913,917,90000,917
2012/10/17,920,945,920,929,49000,929
2012/10/18,934,937,923,926,67000,926
2012/10/19,923,925,911,917,84000,917
2012/10/22,912,946,910,933,75000,933
2012/10/23,931,938,923,934,73000,934
2012/10/24,932,936,925,928,69000,928
2012/10/25,928,946,928,944,93000,944
2012/10/26,950,987,948,985,326000,985
2012/10/29,980,982,955,959,170000,959
2012/10/30,959,975,956,956,92000,956
2012/10/31,961,967,953,962,50000,962
2012/11/01,962,963,957,961,65000,961
2012/11/02,974,984,960,980,91000,980
2012/11/05,976,983,974,975,81000,975
2012/11/06,980,980,964,971,73000,971
2012/11/07,973,980,959,979,70000,979
2012/11/08,978,979,968,977,65000,977
2012/11/09,976,989,970,979,69000,979
2012/11/12,976,984,962,963,51000,963
2012/11/13,970,998,966,992,124000,992
2012/11/14,990,992,985,986,52000,986
2012/11/15,996,1000,987,994,58000,994
2012/11/16,996,996,981,992,150000,992
2012/11/19,1000,1023,999,999,105000,999
2012/11/20,998,1011,998,1007,47000,1007
2012/11/21,1000,1013,1000,1006,39000,1006
2012/11/22,1016,1018,996,1006,130000,1006
2012/11/26,1013,1024,1008,1011,155000,1011
2012/11/27,1015,1038,1012,1017,168000,1017
2012/11/28,1017,1020,999,1012,99000,1012
2012/11/29,1011,1011,1000,1008,69000,1008
2012/11/30,1018,1018,1004,1009,83000,1009
2012/12/03,1019,1020,998,1009,94000,1009
2012/12/04,1016,1025,1014,1022,57000,1022
2012/12/05,1020,1020,1009,1014,87000,1014
2012/12/06,1020,1020,1000,1004,91000,1004
2012/12/07,1004,1004,994,999,57000,999
2012/12/10,991,993,971,988,134000,988
2012/12/11,1003,1003,977,978,119000,978
2012/12/12,993,996,960,965,194000,965
2012/12/13,980,980,965,968,150000,968
2012/12/14,974,988,966,970,219000,970
2012/12/17,974,984,963,966,111000,966
2012/12/18,970,973,953,953,178000,953
2012/12/19,958,973,947,972,252000,972
2012/12/20,972,983,967,969,193000,969
2012/12/21,974,982,969,973,196000,973
2012/12/25,992,994,983,988,145000,988
2012/12/26,994,995,985,991,164000,991
2012/12/27,990,993,982,982,102000,982
2012/12/28,976,983,972,973,112000,973
2013/01/04,993,1003,987,1002,95000,1002
2013/01/07,1012,1017,996,1000,173000,1000
2013/01/08,1000,1019,998,1006,119000,1006
2013/01/09,999,1019,999,1013,88000,1013
2013/01/10,1018,1035,1013,1035,106000,1035
2013/01/11,1049,1098,1045,1085,277000,1085
2013/01/15,1099,1111,1077,1085,165000,1085
2013/01/16,1085,1100,1074,1097,203000,1097
2013/01/17,1096,1099,1036,1047,330000,1047
2013/01/18,1072,1101,1061,1094,294000,1094
2013/01/21,1089,1104,1086,1097,118000,1097
2013/01/22,1090,1110,1077,1092,161000,1092
2013/01/23,1088,1130,1083,1107,186000,1107
2013/01/24,1101,1165,1100,1161,327000,1161
2013/01/25,1169,1169,1130,1144,214000,1144
2013/01/28,1156,1158,1131,1138,121000,1138
2013/01/29,1140,1153,1137,1137,70000,1137
2013/01/30,1144,1166,1144,1163,117000,1163
2013/01/31,1148,1153,1123,1148,182000,1148
2013/02/01,1149,1155,1126,1129,156000,1129
2013/02/04,1130,1132,1103,1116,186000,1116
2013/02/05,1100,1127,1100,1107,95000,1107
2013/02/06,1138,1140,1100,1130,116000,1130
2013/02/07,1139,1140,1116,1124,100000,1124
2013/02/08,1169,1178,1134,1178,315000,1178
2013/02/12,1210,1236,1192,1194,300000,1194
2013/02/13,1191,1193,1174,1180,184000,1180
2013/02/14,1173,1182,1165,1174,141000,1174
2013/02/15,1171,1185,1171,1174,185000,1174
2013/02/18,1176,1191,1176,1186,116000,1186
2013/02/19,1185,1195,1180,1184,119000,1184
2013/02/20,1174,1198,1173,1192,146000,1192
2013/02/21,1186,1224,1186,1211,209000,1211
2013/02/22,1192,1210,1192,1197,110000,1197
2013/02/25,1197,1219,1197,1215,86000,1215
2013/02/26,1215,1227,1210,1215,156000,1215
2013/02/27,1235,1242,1214,1222,314000,1222
2013/02/28,1203,1230,1202,1226,204000,1226
2013/03/01,1235,1277,1230,1257,249000,1257
2013/03/04,1271,1286,1256,1258,145000,1258
2013/03/05,1276,1280,1242,1251,171000,1251
2013/03/06,1258,1260,1241,1250,120000,1250
2013/03/07,1269,1278,1262,1271,82000,1271
2013/03/08,1289,1294,1280,1289,274000,1289
2013/03/11,1395,1395,1330,1350,268000,1350
2013/03/12,1380,1380,1321,1328,237000,1328
2013/03/13,1310,1321,1304,1315,173000,1315
2013/03/14,1326,1335,1292,1324,309000,1324
2013/03/15,1320,1371,1320,1371,217000,1371
2013/03/18,1351,1354,1342,1342,127000,1342
2013/03/19,1344,1366,1344,1358,161000,1358
2013/03/21,1362,1367,1355,1359,280000,1359
2013/03/22,1355,1366,1351,1351,282000,1351
2013/03/25,1362,1389,1362,1373,264000,1373
2013/03/26,1359,1385,1356,1365,198000,1365
2013/03/27,1333,1349,1333,1346,122000,1346
2013/03/28,1335,1341,1323,1339,120000,1339
2013/03/29,1323,1347,1321,1336,127000,1336
2013/04/01,1327,1347,1277,1280,171000,1280
2013/04/02,1262,1297,1216,1266,366000,1266
2013/04/03,1277,1330,1277,1313,214000,1313
2013/04/04,1329,1437,1300,1422,502000,1422
2013/04/05,1422,1455,1407,1424,564000,1424
2013/04/08,1402,1441,1402,1432,232000,1432
2013/04/09,1423,1432,1395,1411,308000,1411
2013/04/10,1398,1410,1389,1403,337000,1403
2013/04/11,1389,1407,1376,1402,563000,1402
2013/04/12,1380,1390,1376,1378,263000,1378
2013/04/15,1371,1381,1354,1362,331000,1362
2013/04/16,1341,1368,1331,1360,301000,1360
2013/04/17,1340,1370,1340,1355,375000,1355
2013/04/18,1364,1380,1345,1377,277000,1377
2013/04/19,1374,1388,1350,1379,326000,1379
2013/04/22,1409,1415,1389,1396,333000,1396
2013/04/23,1390,1397,1373,1380,208000,1380
2013/04/24,1380,1408,1374,1403,298000,1403
2013/04/25,1404,1440,1403,1437,228000,1437
2013/04/26,1437,1437,1399,1407,319000,1407
2013/04/30,1449,1528,1447,1513,674000,1513
2013/05/01,1500,1519,1476,1496,331000,1496
2013/05/02,1497,1510,1487,1507,236000,1507
2013/05/07,1537,1569,1531,1566,283000,1566
2013/05/08,1584,1625,1556,1558,721000,1558
2013/05/09,1558,1638,1552,1632,841000,1632
2013/05/10,1700,1712,1560,1585,749000,1585
2013/05/13,1625,1651,1561,1635,493000,1635
2013/05/14,1700,1703,1660,1666,386000,1666
2013/05/15,1667,1722,1667,1712,494000,1712
2013/05/16,1673,1690,1598,1635,363000,1635
2013/05/17,1695,1720,1628,1711,422000,1711
2013/05/20,1831,1831,1744,1746,409000,1746
2013/05/21,1729,1757,1720,1726,297000,1726
2013/05/22,1712,1715,1686,1699,276000,1699
2013/05/23,1728,1740,1614,1614,443000,1614
2013/05/24,1581,1681,1578,1626,390000,1626
2013/05/27,1633,1672,1586,1622,293000,1622
2013/05/28,1580,1605,1567,1579,225000,1579
2013/05/29,1614,1668,1595,1640,256000,1640
2013/05/30,1638,1661,1581,1594,222000,1594
2013/05/31,1639,1645,1592,1605,203000,1605
2013/06/03,1592,1645,1560,1567,290000,1567
2013/06/04,1527,1540,1502,1521,237000,1521
2013/06/05,1505,1562,1505,1514,172000,1514
2013/06/06,1474,1526,1430,1456,230000,1456
2013/06/07,1396,1500,1393,1439,333000,1439
2013/06/10,1451,1500,1451,1488,159000,1488
2013/06/11,1489,1570,1488,1553,230000,1553
2013/06/12,1543,1569,1490,1554,287000,1554
2013/06/13,1597,1597,1520,1521,347000,1521
2013/06/14,1584,1584,1530,1545,307000,1545
2013/06/17,1516,1592,1516,1588,178000,1588
2013/06/18,1589,1595,1535,1569,125000,1569
2013/06/19,1610,1627,1592,1624,196000,1624
2013/06/20,1591,1610,1559,1588,209000,1588
2013/06/21,1559,1600,1522,1589,225000,1589
2013/06/24,1591,1662,1570,1653,307000,1653
2013/06/25,1614,1635,1551,1592,254000,1592
2013/06/26,1593,1598,1519,1550,160000,1550
2013/06/27,1543,1592,1527,1584,193000,1584
2013/06/28,1600,1653,1580,1652,218000,1652
2013/07/01,1640,1688,1633,1673,147000,1673
2013/07/02,1700,1783,1698,1765,401000,1765
2013/07/03,1735,1738,1710,1714,241000,1714
2013/07/04,1714,1750,1713,1740,208000,1740
2013/07/05,1740,1755,1731,1746,177000,1746
2013/07/08,1736,1768,1731,1756,179000,1756
2013/07/09,1756,1779,1750,1763,227000,1763
2013/07/10,1757,1768,1718,1734,173000,1734
2013/07/11,1715,1749,1710,1735,146000,1735
2013/07/12,1731,1755,1723,1738,165000,1738
2013/07/16,1733,1754,1728,1733,104000,1733
2013/07/17,1720,1764,1720,1759,184000,1759
2013/07/18,1759,1769,1748,1758,137000,1758
2013/07/19,1762,1771,1745,1755,218000,1755
2013/07/22,1755,1794,1735,1792,178000,1792
2013/07/23,1790,1800,1776,1794,152000,1794
2013/07/24,1795,1817,1766,1816,169000,1816
2013/07/25,1816,1824,1805,1814,269000,1814
2013/07/26,1790,1800,1770,1787,241000,1787
2013/07/29,1761,1770,1703,1713,175000,1713
2013/07/30,1682,1718,1682,1692,305000,1692
2013/07/31,1696,1702,1666,1669,128000,1669
2013/08/01,1670,1710,1670,1696,190000,1696
2013/08/02,1736,1746,1696,1746,143000,1746
2013/08/05,1707,1739,1707,1734,78000,1734
2013/08/06,1724,1724,1654,1686,251000,1686
2013/08/07,1678,1686,1611,1614,324000,1614
2013/08/08,1550,1658,1541,1624,480000,1624
2013/08/09,1624,1643,1614,1636,195000,1636
2013/08/12,1630,1645,1615,1629,112000,1629
2013/08/13,1667,1697,1638,1655,192000,1655
2013/08/14,1695,1695,1640,1693,229000,1693
2013/08/15,1614,1679,1614,1644,138000,1644
2013/08/16,1637,1640,1619,1621,93000,1621
2013/08/19,1636,1636,1613,1622,61000,1622
2013/08/20,1606,1652,1600,1607,149000,1607
2013/08/21,1624,1640,1583,1608,57000,1608
2013/08/22,1631,1632,1600,1613,88000,1613
2013/08/23,1653,1670,1625,1651,144000,1651
2013/08/26,1652,1666,1628,1653,75000,1653
2013/08/27,1652,1652,1611,1620,95000,1620
2013/08/28,1613,1650,1592,1633,190000,1633
2013/08/29,1634,1650,1619,1645,165000,1645
2013/08/30,1645,1648,1608,1627,173000,1627
2013/09/02,1604,1641,1604,1626,91000,1626
2013/09/03,1650,1700,1650,1698,100000,1698
2013/09/04,1665,1705,1660,1692,136000,1692
2013/09/05,1692,1692,1655,1660,58000,1660
2013/09/06,1678,1680,1616,1655,124000,1655
2013/09/09,1670,1728,1670,1716,148000,1716
2013/09/10,1712,1738,1689,1720,138000,1720
2013/09/11,1713,1724,1684,1688,105000,1688
2013/09/12,1697,1753,1683,1747,221000,1747
2013/09/13,1750,1764,1719,1753,218000,1753
2013/09/17,1758,1785,1753,1769,174000,1769
2013/09/18,1754,1774,1702,1725,399000,1725
2013/09/19,1725,1772,1725,1771,100000,1771
2013/09/20,1771,1798,1771,1792,147000,1792
2013/09/24,1785,1803,1738,1795,290000,1795
2013/09/25,1756,1789,1748,1766,106000,1766
2013/09/26,1726,1755,1632,1722,242000,1722
2013/09/27,1733,1782,1731,1752,123000,1752
2013/09/30,1728,1728,1689,1692,243000,1692
2013/10/01,1713,1717,1703,1709,224000,1709
2013/10/02,1715,1717,1641,1649,294000,1649
2013/10/03,1622,1658,1622,1625,227000,1625
2013/10/04,1623,1654,1608,1617,165000,1617
2013/10/07,1616,1623,1592,1602,176000,1602
2013/10/08,1604,1628,1587,1611,169000,1611
2013/10/09,1616,1637,1600,1631,178000,1631
2013/10/10,1636,1660,1634,1647,167000,1647
2013/10/11,1680,1680,1665,1675,182000,1675
2013/10/15,1676,1688,1656,1668,299000,1668
2013/10/16,1663,1680,1662,1672,108000,1672
2013/10/17,1679,1690,1667,1676,98000,1676
2013/10/18,1677,1696,1671,1693,113000,1693
2013/10/21,1710,1720,1700,1714,206000,1714
2013/10/22,1709,1715,1700,1707,118000,1707
2013/10/23,1718,1722,1686,1688,132000,1688
2013/10/24,1693,1720,1680,1715,135000,1715
2013/10/25,1710,1710,1670,1673,160000,1673
2013/10/28,1675,1696,1674,1687,138000,1687
2013/10/29,1697,1713,1676,1705,264000,1705
2013/10/30,1706,1718,1687,1690,279000,1690
2013/10/31,1691,1708,1688,1690,156000,1690
2013/11/01,1690,1690,1644,1653,111000,1653
2013/11/05,1689,1689,1625,1635,234000,1635
2013/11/06,1615,1664,1615,1634,119000,1634
2013/11/07,1636,1663,1634,1654,141000,1654
2013/11/08,1680,1724,1672,1720,259000,1720
2013/11/11,1729,1744,1721,1737,183000,1737
2013/11/12,1743,1772,1739,1768,316000,1768
2013/11/13,1775,1793,1771,1779,253000,1779
2013/11/14,1768,1794,1755,1785,239000,1785
2013/11/15,1777,1793,1763,1785,241000,1785
2013/11/18,1780,1792,1762,1774,179000,1774
2013/11/19,1769,1770,1740,1765,124000,1765
2013/11/20,1760,1770,1721,1765,129000,1765
2013/11/21,1770,1809,1770,1809,238000,1809
2013/11/22,1810,1816,1763,1795,205000,1795
2013/11/25,1800,1833,1800,1830,219000,1830
2013/11/26,1834,1883,1820,1869,345000,1869
2013/11/27,1857,1877,1851,1860,235000,1860
2013/11/28,1870,1894,1867,1879,213000,1879
2013/11/29,1880,1883,1845,1857,130000,1857
2013/12/02,1878,1954,1878,1945,412000,1945
2013/12/03,1945,2010,1937,1996,524000,1996
2013/12/04,1991,2042,1938,2033,782000,2033
2013/12/05,2034,2095,2028,2088,607000,2088
2013/12/06,2100,2111,2045,2058,545000,2058
2013/12/09,2043,2052,1985,2000,486000,2000
2013/12/10,1980,2000,1973,1982,291000,1982
2013/12/11,1989,1989,1950,1960,209000,1960
2013/12/12,1932,1956,1930,1946,122000,1946
2013/12/13,1941,2001,1940,1989,405000,1989
2013/12/16,1995,2000,1935,1937,342000,1937
2013/12/17,1948,1970,1924,1936,229000,1936
2013/12/18,1948,1948,1924,1944,278000,1944
2013/12/19,1940,1968,1940,1956,348000,1956
2013/12/20,1926,1952,1926,1942,258000,1942
2013/12/24,1882,1938,1882,1904,329000,1904
2013/12/25,1889,1910,1883,1889,249000,1889
2013/12/26,1910,1963,1895,1957,206000,1957
2013/12/27,1950,2006,1924,2002,381000,2002
2013/12/30,2000,2050,2000,2049,225000,2049
2014/01/06,2050,2072,1997,2032,163000,2032
2014/01/07,2047,2056,2010,2021,117000,2021
2014/01/08,1971,1971,1906,1944,660000,1944
2014/01/09,2000,2009,1948,1952,426000,1952
2014/01/10,1964,2068,1962,2065,523000,2065
2014/01/14,2065,2073,2012,2032,344000,2032
2014/01/15,2069,2069,2032,2065,181000,2065
2014/01/16,2071,2089,2059,2073,111000,2073
2014/01/17,2077,2089,2062,2078,117000,2078
2014/01/20,2088,2095,2049,2061,194000,2061
2014/01/21,2086,2100,2056,2088,233000,2088
2014/01/22,2089,2093,2033,2063,214000,2063
2014/01/23,2068,2082,2050,2060,260000,2060
2014/01/24,2048,2055,2023,2035,261000,2035
2014/01/27,1990,2028,1968,2000,215000,2000
2014/01/28,2001,2031,1990,2002,191000,2002
2014/01/29,2012,2063,2012,2063,117000,2063
2014/01/30,2056,2056,1990,2006,205000,2006
2014/01/31,2020,2047,1991,2008,156000,2008
2014/02/03,2000,2000,1949,1967,237000,1967
2014/02/04,1924,1924,1871,1873,258000,1873
2014/02/05,1885,1910,1859,1899,187000,1899
2014/02/06,1893,1913,1831,1835,211000,1835
2014/02/07,1960,1960,1887,1936,237000,1936
2014/02/10,1962,1984,1955,1974,177000,1974
2014/02/12,1971,1998,1945,1955,255000,1955
2014/02/13,1941,1951,1914,1919,237000,1919
2014/02/14,1925,1965,1886,1907,250000,1907
2014/02/17,1912,1954,1894,1948,133000,1948
2014/02/18,1964,2003,1943,1991,162000,1991
2014/02/19,1990,2000,1954,1954,201000,1954
2014/02/20,1953,1984,1940,1957,138000,1957
2014/02/21,1962,1990,1956,1982,117000,1982
2014/02/24,1961,1987,1932,1956,132000,1956
2014/02/25,1961,1962,1935,1953,317000,1953
2014/02/26,1933,1950,1912,1917,271000,1917
2014/02/27,1919,1922,1880,1894,262000,1894
2014/02/28,1904,1957,1884,1949,324000,1949
2014/03/03,1963,1963,1916,1922,151000,1922
2014/03/04,1904,1937,1888,1919,205000,1919
2014/03/05,1950,1965,1923,1925,157000,1925
2014/03/06,1920,1973,1916,1965,248000,1965
2014/03/07,1952,1975,1944,1953,154000,1953
2014/03/10,1946,1980,1943,1958,386000,1958
2014/03/11,1967,2013,1961,2010,343000,2010
2014/03/12,2000,2032,1990,2005,474000,2005
2014/03/13,1994,2049,1990,2011,336000,2011
2014/03/14,1961,1977,1929,1930,396000,1930
2014/03/17,1921,1947,1893,1897,255000,1897
2014/03/18,1935,1967,1913,1947,319000,1947
2014/03/19,1971,1982,1929,1945,290000,1945
2014/03/20,1921,1941,1905,1910,311000,1910
2014/03/24,1900,1947,1858,1866,506000,1866
2014/03/25,1863,1889,1850,1862,390000,1862
2014/03/26,1852,1878,1826,1837,349000,1837
2014/03/27,1820,1849,1780,1832,335000,1832
2014/03/28,1832,1898,1827,1880,401000,1880
2014/03/31,1902,1964,1902,1957,587000,1957
2014/04/01,1968,1970,1922,1939,429000,1939
2014/04/02,1939,1941,1892,1902,283000,1902
2014/04/03,1892,1915,1890,1891,216000,1891
2014/04/04,1875,1884,1860,1866,136000,1866
2014/04/07,1850,1864,1833,1838,135000,1838
2014/04/08,1817,1824,1793,1797,182000,1797
2014/04/09,1771,1786,1734,1743,395000,1743
2014/04/10,1778,1785,1756,1769,311000,1769
2014/04/11,1779,1781,1750,1769,384000,1769
2014/04/14,1761,1797,1757,1787,385000,1787
2014/04/15,1788,1799,1755,1777,166000,1777
2014/04/16,1795,1826,1791,1826,226000,1826
2014/04/17,1833,1842,1807,1823,220000,1823
2014/04/18,1835,1841,1819,1836,228000,1836
2014/04/21,1836,1848,1818,1828,116000,1828
2014/04/22,1828,1839,1799,1803,155000,1803
2014/04/23,1827,1828,1805,1819,286000,1819
2014/04/24,1819,1835,1791,1801,342000,1801
2014/04/25,1801,1856,1800,1844,438000,1844
2014/04/28,1820,1828,1791,1800,203000,1800
2014/04/30,1819,1819,1786,1799,128000,1799
2014/05/01,1822,1852,1812,1849,151000,1849
2014/05/02,1833,1876,1833,1854,122000,1854
2014/05/07,1853,1853,1820,1829,227000,1829
2014/05/08,1824,1843,1818,1821,165000,1821
2014/05/09,1790,1848,1790,1813,136000,1813
2014/05/12,1895,1934,1892,1910,403000,1910
2014/05/13,1942,1963,1905,1908,223000,1908
2014/05/14,1916,1977,1916,1961,400000,1961
2014/05/15,1961,1979,1947,1976,249000,1976
2014/05/16,1960,1961,1929,1958,315000,1958
2014/05/19,1947,1959,1899,1914,95000,1914
2014/05/20,1943,1943,1915,1925,174000,1925
2014/05/21,1925,1925,1907,1919,117000,1919
2014/05/22,1930,1973,1923,1958,246000,1958
2014/05/23,1955,1971,1932,1960,93000,1960
2014/05/26,1961,1999,1948,1999,155000,1999
2014/05/27,1980,1998,1975,1979,104000,1979
2014/05/28,1977,1996,1977,1988,173000,1988
2014/05/29,1987,1993,1961,1990,159000,1990
2014/05/30,1982,1988,1975,1982,198000,1982
2014/06/02,1982,2004,1976,1989,384000,1989
2014/06/03,1989,2003,1966,1974,330000,1974
2014/06/04,1980,1981,1956,1971,278000,1971
2014/06/05,1971,1981,1959,1970,202000,1970
2014/06/06,1970,1986,1955,1982,197000,1982
2014/06/09,1971,1984,1963,1970,137000,1970
2014/06/10,1970,1974,1956,1970,161000,1970
2014/06/11,1952,1986,1952,1983,85000,1983
2014/06/12,1955,1975,1945,1960,221000,1960
2014/06/13,1952,1995,1948,1991,257000,1991
2014/06/16,2391,2391,2312,2391,619000,2391
2014/06/17,2460,2720,2414,2615,2703000,2615
2014/06/18,2660,2930,2660,2896,2620000,2896
2014/06/19,2855,2883,2830,2851,999000,2851
2014/06/20,2855,2969,2855,2885,1101000,2885
2014/06/23,2857,2895,2850,2871,470000,2871
2014/06/24,2860,3095,2858,3015,1320000,3015
2014/06/25,2970,2994,2890,2982,882000,2982
2014/06/26,2932,2965,2899,2934,498000,2934
2014/06/27,2929,2988,2917,2944,275000,2944
2014/06/30,2980,2989,2933,2956,281000,2956
2014/07/01,2978,2993,2953,2966,333000,2966
2014/07/02,2962,2984,2937,2973,314000,2973
2014/07/03,2958,2969,2906,2939,272000,2939
2014/07/04,2945,3005,2939,2992,300000,2992
2014/07/07,3035,3055,2965,2974,297000,2974
2014/07/08,2971,2995,2956,2983,279000,2983
2014/07/09,2965,3030,2955,2975,376000,2975
2014/07/10,2957,2957,2916,2927,265000,2927
2014/07/11,2910,2974,2905,2960,205000,2960
2014/07/14,2980,2996,2966,2983,140000,2983
2014/07/15,2949,2976,2921,2927,209000,2927
2014/07/16,2910,2929,2895,2900,140000,2900
2014/07/17,2892,2894,2755,2763,677000,2763
2014/07/18,2765,2879,2765,2860,478000,2860
2014/07/22,2860,2889,2832,2874,250000,2874
2014/07/23,2855,2920,2855,2900,288000,2900
2014/07/24,2860,2928,2860,2908,220000,2908
2014/07/25,2908,3040,2903,2992,395000,2992
2014/07/28,2975,3065,2975,3040,360000,3040
2014/07/29,3040,3075,3035,3040,257000,3040
2014/07/30,3000,3015,2950,2957,237000,2957
2014/07/31,2965,3040,2963,2965,142000,2965
2014/08/01,2957,2983,2935,2943,169000,2943
2014/08/04,2921,2975,2921,2949,127000,2949
2014/08/05,2936,2978,2921,2932,132000,2932
2014/08/06,2909,2954,2909,2940,186000,2940
2014/08/07,2936,2952,2905,2938,122000,2938
2014/08/08,2958,2958,2862,2878,198000,2878
2014/08/11,2890,2974,2873,2964,161000,2964
2014/08/12,2960,2967,2869,2871,389000,2871
2014/08/13,2866,2926,2866,2908,114000,2908
2014/08/14,2866,2888,2830,2863,281000,2863
2014/08/15,2896,2896,2848,2855,154000,2855
2014/08/18,2894,2912,2857,2901,147000,2901
2014/08/19,2895,2901,2861,2872,206000,2872
2014/08/20,2863,2938,2863,2929,162000,2929
2014/08/21,2948,2967,2934,2966,143000,2966
2014/08/22,2976,2980,2923,2939,100000,2939
2014/08/25,2978,2978,2938,2953,90000,2953
2014/08/26,2955,2996,2952,2982,136000,2982
2014/08/27,3000,3230,3000,3210,937000,3210
2014/08/28,3210,3555,3210,3520,946000,3520
2014/08/29,3450,3475,3150,3305,979000,3305
2014/09/01,3310,3410,3275,3395,315000,3395
2014/09/02,3430,3480,3330,3415,332000,3415
2014/09/03,3375,3375,3150,3240,502000,3240
2014/09/04,3270,3275,3170,3185,324000,3185
2014/09/05,3155,3200,3140,3165,197000,3165
2014/09/08,3200,3260,3160,3215,213000,3215
2014/09/09,3245,3245,3195,3215,164000,3215
2014/09/10,3165,3210,3115,3165,242000,3165
2014/09/11,3140,3165,3105,3110,261000,3110
2014/09/12,3090,3090,3055,3080,384000,3080
2014/09/16,3065,3145,3065,3125,237000,3125
2014/09/17,3110,3190,3090,3105,214000,3105
2014/09/18,3105,3115,3030,3035,279000,3035
2014/09/19,3050,3110,3040,3070,1276000,3070
2014/09/22,3070,3125,3060,3125,301000,3125
2014/09/24,3120,3165,3110,3150,284000,3150
2014/09/25,3120,3245,3115,3240,490000,3240
2014/09/26,3205,3255,3205,3245,250000,3245
2014/09/29,3245,3290,3210,3280,260000,3280
2014/09/30,3300,3340,3285,3320,307000,3320
2014/10/01,3380,3470,3360,3370,577000,3370
2014/10/02,3405,3410,3335,3360,471000,3360
2014/10/03,3335,3390,3240,3295,423000,3295
2014/10/06,3375,3385,3335,3350,135000,3350
2014/10/07,3385,3385,3255,3270,332000,3270
2014/10/08,3210,3260,3210,3230,145000,3230
2014/10/09,3275,3275,3135,3135,158000,3135
2014/10/10,3065,3100,3040,3090,287000,3090
2014/10/14,3055,3085,3020,3040,177000,3040
2014/10/15,3110,3120,3045,3075,346000,3075
2014/10/16,3020,3075,3005,3010,251000,3010
2014/10/17,3005,3025,2911,2913,292000,2913
2014/10/20,2963,3095,2948,3095,312000,3095
2014/10/21,3095,3130,3030,3050,250000,3050
2014/10/22,3120,3200,3100,3200,260000,3200
2014/10/23,3200,3275,3165,3200,351000,3200
2014/10/24,3270,3290,3225,3240,241000,3240
2014/10/27,3240,3290,3215,3260,105000,3260
2014/10/28,3235,3265,3160,3165,268000,3165
2014/10/29,3145,3190,3085,3175,313000,3175
2014/10/30,3160,3200,3160,3165,199000,3165
2014/10/31,3180,3285,3180,3230,305000,3230
2014/11/04,3300,3325,3205,3220,425000,3220
2014/11/05,3215,3245,3190,3235,302000,3235
2014/11/06,3235,3245,3145,3180,148000,3180
2014/11/07,3135,3215,3120,3175,474000,3175
2014/11/10,3175,3215,3150,3195,129000,3195
2014/11/11,3200,3215,3105,3130,247000,3130
2014/11/12,3130,3175,3130,3140,229000,3140
2014/11/13,3205,3325,3205,3275,413000,3275
2014/11/14,3340,3340,3270,3315,276000,3315
2014/11/17,3315,3315,3200,3245,316000,3245
2014/11/18,3305,3355,3295,3355,216000,3355
2014/11/19,3355,3370,3305,3305,263000,3305
2014/11/20,3345,3345,3290,3305,265000,3305
2014/11/21,3370,3525,3360,3510,463000,3510
2014/11/25,3580,3585,3465,3480,331000,3480
2014/11/26,3490,3565,3450,3450,229000,3450
2014/11/27,3455,3465,3405,3405,189000,3405
2014/11/28,3410,3475,3400,3455,221000,3455
2014/12/01,3455,3505,3455,3505,178000,3505
2014/12/02,3530,3870,3515,3850,870000,3850
2014/12/03,3800,3910,3655,3705,768000,3705
2014/12/04,3670,3675,3580,3605,348000,3605
2014/12/05,3585,3640,3575,3635,177000,3635
2014/12/08,3680,3715,3630,3685,206000,3685
2014/12/09,3685,3780,3680,3765,305000,3765
2014/12/10,3750,3875,3740,3785,460000,3785
2014/12/11,3740,3875,3720,3855,356000,3855
2014/12/12,3815,3885,3815,3825,280000,3825
2014/12/15,3755,3835,3755,3770,213000,3770
2014/12/16,3765,3810,3730,3805,328000,3805
2014/12/17,3875,3875,3800,3830,266000,3830
2014/12/18,3950,3975,3910,3950,370000,3950
2014/12/19,3980,4005,3925,3950,235000,3950
2014/12/22,3895,3955,3895,3930,170000,3930
2014/12/24,3990,3990,3780,3885,369000,3885
2014/12/25,3915,3920,3865,3920,204000,3920
2014/12/26,3955,3955,3890,3900,95000,3900
2014/12/29,3900,3905,3830,3885,154000,3885
2014/12/30,3955,3955,3880,3890,97000,3890
2015/01/05,3820,3865,3800,3850,130000,3850
2015/01/06,3835,3865,3780,3780,133000,3780
2015/01/07,3810,3840,3780,3800,131000,3800
2015/01/08,3890,3990,3845,3955,368000,3955
2015/01/09,3960,3965,3825,3865,145000,3865
2015/01/13,3820,3840,3775,3835,240000,3835
2015/01/14,3785,3810,3745,3785,267000,3785
2015/01/15,3820,3880,3815,3850,175000,3850
2015/01/16,3845,3845,3720,3805,246000,3805
2015/01/19,3840,3860,3785,3855,158000,3855
2015/01/20,3880,3950,3865,3950,165000,3950
2015/01/21,3895,3925,3805,3890,157000,3890
2015/01/22,3910,3910,3775,3800,154000,3800
2015/01/23,3850,3850,3685,3700,284000,3700
2015/01/26,3680,3695,3650,3680,220000,3680
2015/01/27,3725,3785,3690,3780,213000,3780
2015/01/28,3750,3810,3705,3805,83000,3805
2015/01/29,3800,3845,3770,3805,90000,3805
2015/01/30,3865,3935,3850,3905,242000,3905
2015/02/02,3890,3965,3875,3950,168000,3950
2015/02/03,3990,3995,3900,3935,299000,3935
2015/02/04,3900,3945,3875,3910,173000,3910
2015/02/05,3860,3890,3805,3845,239000,3845
2015/02/06,3915,3930,3870,3895,190000,3895
2015/02/09,3945,4000,3895,3925,203000,3925
2015/02/10,3925,3925,3875,3895,157000,3895
2015/02/12,3975,4050,3915,4010,374000,4010
2015/02/13,3955,3990,3885,3895,253000,3895
2015/02/16,3860,3865,3655,3705,348000,3705
2015/02/17,3755,3820,3725,3805,287000,3805
2015/02/18,3855,3855,3795,3840,161000,3840
2015/02/19,3840,3880,3825,3880,112000,3880
2015/02/20,3920,3955,3900,3940,145000,3940
2015/02/23,3890,3940,3870,3910,154000,3910
2015/02/24,3875,3930,3855,3900,186000,3900
2015/02/25,3925,3930,3890,3915,163000,3915
2015/02/26,3935,3935,3880,3915,220000,3915
2015/02/27,3945,4135,3925,4020,510000,4020
2015/03/02,4020,4085,3955,3955,191000,3955
2015/03/03,4000,4075,4000,4055,189000,4055
2015/03/04,4105,4245,4045,4225,378000,4225
2015/03/05,4200,4435,4190,4410,438000,4410
2015/03/06,4410,4530,4335,4390,392000,4390
2015/03/09,4320,4375,4280,4305,246000,4305
2015/03/10,4440,4605,4420,4600,588000,4600
2015/03/11,4590,4615,4505,4540,344000,4540
2015/03/12,4540,4770,4520,4715,412000,4715
2015/03/13,4715,4790,4420,4425,793000,4425
2015/03/16,4355,4395,4175,4245,658000,4245
2015/03/17,4245,4315,4230,4245,451000,4245
2015/03/18,4245,4270,4175,4190,334000,4190
2015/03/19,4140,4165,4065,4090,421000,4090
2015/03/20,4050,4095,4045,4090,455000,4090
2015/03/23,4165,4165,4040,4095,405000,4095
2015/03/24,4065,4150,4065,4135,551000,4135
2015/03/25,4260,4295,4190,4255,351000,4255
2015/03/26,4125,4195,4010,4140,593000,4140
2015/03/27,4195,4270,4080,4115,325000,4115
2015/03/30,4170,4295,4155,4275,277000,4275
2015/03/31,4345,4415,4310,4375,370000,4375
2015/04/01,4420,4420,4300,4405,506000,4405
2015/04/02,4490,4500,4360,4380,275000,4380
2015/04/03,4310,4365,4290,4365,155000,4365
2015/04/06,4345,4420,4345,4405,136000,4405
2015/04/07,4465,4470,4395,4435,229000,4435
2015/04/08,4335,4445,4305,4430,385000,4430
2015/04/09,4395,4455,4370,4440,336000,4440
2015/04/10,4440,4440,4315,4365,222000,4365
2015/04/13,4320,4370,4305,4340,120000,4340
2015/04/14,4290,4355,4290,4335,174000,4335
2015/04/15,4280,4315,4180,4185,339000,4185
2015/04/16,4185,4235,4130,4220,347000,4220
2015/04/17,4170,4190,3920,3930,486000,3930
2015/04/20,3900,4025,3900,3980,294000,3980
2015/04/21,4030,4030,3960,3995,286000,3995
2015/04/22,4010,4010,3960,4010,288000,4010
2015/04/23,4060,4130,3990,4115,338000,4115
2015/04/24,4055,4205,4055,4175,272000,4175
2015/04/27,4110,4205,4105,4195,235000,4195
2015/04/28,4180,4185,4125,4145,210000,4145
2015/04/30,4055,4075,3965,3990,228000,3990
2015/05/01,4000,4015,3945,3995,434000,3995
2015/05/07,3930,3990,3895,3930,214000,3930
2015/05/08,3900,3985,3870,3940,302000,3940
2015/05/11,4000,4010,3925,3975,169000,3975
2015/05/12,3800,3870,3555,3765,1095000,3765
2015/05/13,3775,3805,3710,3790,411000,3790
2015/05/14,3720,3880,3720,3820,601000,3820
2015/05/15,3880,3970,3870,3950,435000,3950
2015/05/18,3995,4080,3980,4040,306000,4040
2015/05/19,4060,4120,4060,4090,280000,4090
2015/05/20,4040,4095,4035,4065,183000,4065
2015/05/21,3995,4035,3965,3975,263000,3975
2015/05/22,3925,3970,3910,3925,299000,3925
2015/05/25,3900,3940,3880,3900,132000,3900
2015/05/26,3845,3930,3845,3885,198000,3885
2015/05/27,3870,3885,3815,3825,263000,3825
2015/05/28,3865,3865,3800,3825,287000,3825
2015/05/29,3820,3855,3770,3795,348000,3795
2015/06/01,3865,3975,3845,3955,362000,3955
2015/06/02,3930,3980,3905,3975,200000,3975
2015/06/03,3930,3950,3880,3915,262000,3915
2015/06/04,3905,3915,3815,3860,314000,3860
2015/06/05,3875,3885,3840,3855,107000,3855
2015/06/08,3835,3835,3770,3775,152000,3775
2015/06/09,3715,3735,3660,3670,316000,3670
2015/06/10,3685,3700,3625,3640,279000,3640
2015/06/11,3690,3700,3615,3660,344000,3660
2015/06/12,3720,3755,3700,3715,341000,3715
2015/06/15,3715,3800,3705,3785,201000,3785
2015/06/16,3755,3800,3745,3760,144000,3760
2015/06/17,3760,3775,3740,3765,104000,3765
2015/06/18,3760,3875,3755,3805,313000,3805
2015/06/19,3860,3885,3815,3835,360000,3835
2015/06/22,3775,3880,3775,3880,136000,3880
2015/06/23,3900,3970,3900,3970,327000,3970
2015/06/24,3915,3980,3915,3960,308000,3960
2015/06/25,3905,3955,3870,3885,142000,3885
2015/06/26,3855,3905,3835,3880,233000,3880
2015/06/29,3805,3870,3755,3770,346000,3770
2015/06/30,3805,3825,3735,3750,254000,3750
2015/07/01,3775,3920,3755,3910,224000,3910
2015/07/02,3965,4125,3940,4120,464000,4120
2015/07/03,4100,4115,4070,4085,198000,4085
2015/07/06,4040,4110,4035,4055,225000,4055
2015/07/07,4060,4115,3990,4035,283000,4035
2015/07/08,4000,4000,3900,3935,308000,3935
2015/07/09,3820,3970,3725,3935,434000,3935
2015/07/10,3930,3995,3855,3875,215000,3875
2015/07/13,3900,3900,3800,3825,251000,3825
2015/07/14,3895,3920,3795,3820,362000,3820
2015/07/15,3820,4010,3820,4000,366000,4000
2015/07/16,3925,3970,3915,3950,342000,3950
2015/07/17,3890,3925,3830,3900,339000,3900
2015/07/21,3940,3960,3890,3910,192000,3910
2015/07/22,3875,3895,3825,3880,239000,3880
2015/07/23,3905,3935,3865,3920,216000,3920
2015/07/24,3935,3940,3880,3895,172000,3895
2015/07/27,3930,3950,3885,3930,277000,3930
2015/07/28,3925,3975,3890,3930,216000,3930
2015/07/29,3975,4095,3965,4065,290000,4065
2015/07/30,3995,4060,3980,4040,165000,4040
2015/07/31,4005,4155,3980,4140,354000,4140
2015/08/03,4170,4315,4170,4300,471000,4300
2015/08/04,4320,4380,4255,4360,468000,4360
2015/08/05,4320,4420,4250,4320,539000,4320
2015/08/06,4325,4380,4245,4260,406000,4260
2015/08/07,4220,4335,4220,4230,249000,4230
2015/08/10,4090,4430,4090,4410,407000,4410
2015/08/11,4340,4420,4325,4400,357000,4400
2015/08/12,4360,4395,4300,4300,429000,4300
2015/08/13,4270,4295,4160,4200,297000,4200
2015/08/14,4225,4295,4155,4280,268000,4280
2015/08/17,4210,4320,4210,4310,179000,4310
2015/08/18,4310,4420,4280,4415,190000,4415
2015/08/19,4345,4405,4325,4370,389000,4370
2015/08/20,4260,4365,4235,4240,213000,4240
2015/08/21,4130,4200,4110,4135,307000,4135
2015/08/24,4065,4130,3910,3910,344000,3910
2015/08/25,3840,3985,3720,3755,390000,3755
2015/08/26,3770,3890,3765,3830,266000,3830
2015/08/27,3930,4000,3870,3890,216000,3890
2015/08/28,3890,4075,3890,4075,220000,4075
2015/08/31,4075,4195,4025,4170,353000,4170
2015/09/01,4170,4230,4055,4060,447000,4060
2015/09/02,4005,4345,3970,4270,665000,4270
2015/09/03,4340,4500,4340,4425,530000,4425
2015/09/04,4425,4470,4195,4270,488000,4270
2015/09/07,4400,4400,4230,4260,425000,4260
2015/09/08,4330,4330,4085,4085,299000,4085
2015/09/09,4155,4410,4150,4410,315000,4410
2015/09/10,4285,4395,4255,4365,319000,4365
2015/09/11,4255,4425,4255,4370,370000,4370
2015/09/14,4430,4490,4385,4385,225000,4385
2015/09/15,4450,4505,4390,4465,268000,4465
2015/09/16,4540,4545,4460,4510,371000,4510
2015/09/17,4500,4580,4370,4555,545000,4555
2015/09/18,4560,4595,4440,4460,448000,4460
2015/09/24,4390,4485,4355,4405,333000,4405
2015/09/25,4335,4475,4335,4460,241000,4460
2015/09/28,4470,4535,4450,4470,199000,4470
2015/09/29,4360,4380,4180,4190,433000,4190
2015/09/30,4250,4330,4200,4305,414000,4305
2015/10/01,4395,4395,4245,4370,284000,4370
2015/10/02,4380,4380,4190,4260,260000,4260
2015/10/05,4300,4425,4270,4415,203000,4415
2015/10/06,4430,4475,4315,4465,185000,4465
2015/10/07,4465,4465,4235,4370,263000,4370
2015/10/08,4440,4440,4120,4145,441000,4145
2015/10/09,4190,4290,4150,4280,313000,4280
2015/10/13,4275,4485,4205,4455,344000,4455
2015/10/14,4400,4455,4385,4410,287000,4410
2015/10/15,4390,4530,4390,4495,258000,4495
2015/10/16,4530,4675,4515,4565,281000,4565
