2010/01/04,1742,1757,1735,1742,456300,1742
2010/01/05,1755,1755,1713,1717,1360900,1717
2010/01/06,1720,1739,1717,1729,1215400,1729
2010/01/07,1724,1728,1711,1717,888300,1717
2010/01/08,1736,1736,1691,1702,2193000,1702
2010/01/12,1694,1700,1681,1688,1169600,1688
2010/01/13,1681,1690,1655,1660,1872600,1660
2010/01/14,1666,1681,1655,1674,1609000,1674
2010/01/15,1665,1671,1658,1670,1341600,1670
2010/01/18,1661,1668,1636,1651,1347700,1651
2010/01/19,1660,1670,1651,1652,949200,1652
2010/01/20,1660,1674,1659,1662,946500,1662
2010/01/21,1654,1666,1653,1664,1391400,1664
2010/01/22,1665,1679,1637,1657,1614100,1657
2010/01/25,1662,1662,1645,1647,1262500,1647
2010/01/26,1640,1645,1625,1629,1143100,1629
2010/01/27,1630,1654,1625,1637,940800,1637
2010/01/28,1637,1650,1625,1638,752700,1638
2010/01/29,1622,1636,1609,1612,971900,1612
2010/02/01,1613,1637,1594,1627,1103300,1627
2010/02/02,1628,1637,1611,1626,755300,1626
2010/02/03,1643,1752,1638,1750,4096700,1750
2010/02/04,1766,1767,1736,1752,2551700,1752
2010/02/05,1750,1771,1736,1766,2556300,1766
2010/02/08,1771,1801,1760,1787,2349800,1787
2010/02/09,1755,1766,1738,1742,1490900,1742
2010/02/10,1712,1737,1712,1724,1529400,1724
2010/02/12,1729,1746,1720,1742,1439300,1742
2010/02/15,1740,1746,1720,1728,710900,1728
2010/02/16,1723,1740,1721,1724,461000,1724
2010/02/17,1730,1740,1722,1734,716900,1734
2010/02/18,1738,1767,1724,1764,1265200,1764
2010/02/19,1750,1756,1728,1732,855300,1732
2010/02/22,1752,1768,1743,1752,978400,1752
2010/02/23,1723,1742,1722,1734,985600,1734
2010/02/24,1725,1740,1716,1740,1487800,1740
2010/02/25,1745,1746,1720,1726,732000,1726
2010/02/26,1712,1732,1710,1715,864300,1715
2010/03/01,1720,1735,1714,1726,627500,1726
2010/03/02,1723,1733,1720,1729,699600,1729
2010/03/03,1720,1726,1711,1719,623200,1719
2010/03/04,1723,1724,1697,1701,844800,1701
2010/03/05,1719,1743,1708,1727,1073000,1727
2010/03/08,1743,1745,1727,1735,713900,1735
2010/03/09,1731,1735,1724,1726,313700,1726
2010/03/10,1717,1734,1717,1724,561200,1724
2010/03/11,1722,1737,1722,1737,484800,1737
2010/03/12,1764,1765,1745,1753,4062000,1753
2010/03/15,1757,1764,1743,1749,437600,1749
2010/03/16,1730,1746,1730,1740,423000,1740
2010/03/17,1758,1765,1750,1761,773900,1761
2010/03/18,1754,1766,1751,1759,532800,1759
2010/03/19,1760,1775,1758,1772,557100,1772
2010/03/23,1778,1786,1767,1767,576400,1767
2010/03/24,1768,1780,1753,1760,645900,1760
2010/03/25,1769,1773,1757,1759,662500,1759
2010/03/26,1770,1783,1761,1781,841300,1781
2010/03/29,1754,1771,1749,1767,616700,1767
2010/03/30,1755,1766,1750,1761,762400,1761
2010/03/31,1762,1762,1749,1758,1244900,1758
2010/04/01,1779,1794,1763,1790,1782400,1790
2010/04/02,1798,1801,1789,1798,823600,1798
2010/04/05,1804,1816,1790,1793,667100,1793
2010/04/06,1795,1814,1790,1801,929400,1801
2010/04/07,1809,1825,1805,1818,942900,1818
2010/04/08,1810,1819,1809,1812,670400,1812
2010/04/09,1801,1823,1801,1822,2136200,1822
2010/04/12,1823,1835,1820,1824,570900,1824
2010/04/13,1814,1829,1807,1812,662200,1812
2010/04/14,1825,1834,1815,1821,715000,1821
2010/04/15,1824,1834,1823,1832,501800,1832
2010/04/16,1820,1830,1793,1807,867400,1807
2010/04/19,1772,1797,1772,1786,761700,1786
2010/04/20,1791,1813,1791,1807,628900,1807
2010/04/21,1808,1833,1808,1830,710200,1830
2010/04/22,1805,1809,1786,1794,761200,1794
2010/04/23,1814,1814,1758,1767,1373300,1767
2010/04/26,1768,1776,1747,1761,1250900,1761
2010/04/27,1764,1765,1727,1734,1235000,1734
2010/04/28,1700,1706,1677,1699,1800500,1699
2010/04/30,1716,1730,1698,1704,1127600,1704
2010/05/06,1664,1679,1632,1666,1945900,1666
2010/05/07,1604,1629,1600,1614,1523400,1614
2010/05/10,1635,1647,1603,1644,1291000,1644
2010/05/11,1650,1667,1642,1655,1208400,1655
2010/05/12,1663,1669,1632,1642,1012100,1642
2010/05/13,1655,1660,1632,1656,1271500,1656
2010/05/14,1622,1660,1612,1640,1611300,1640
2010/05/17,1607,1621,1603,1614,1105600,1614
2010/05/18,1628,1644,1620,1631,825900,1631
2010/05/19,1610,1632,1605,1612,1018200,1612
2010/05/20,1606,1619,1601,1614,854700,1614
2010/05/21,1585,1588,1562,1573,1567800,1573
2010/05/24,1561,1596,1548,1575,1247700,1575
2010/05/25,1567,1586,1558,1575,1349500,1575
2010/05/26,1597,1624,1585,1597,1876400,1597
2010/05/27,1571,1581,1548,1564,1336600,1564
2010/05/28,1594,1603,1563,1579,1703700,1579
2010/05/31,1573,1620,1570,1612,1336900,1612
2010/06/01,1613,1613,1570,1607,791600,1607
2010/06/02,1586,1604,1583,1594,1156900,1594
2010/06/03,1612,1621,1596,1605,872500,1605
2010/06/04,1614,1615,1597,1603,678300,1603
2010/06/07,1563,1576,1561,1572,774700,1572
2010/06/08,1551,1581,1548,1576,744700,1576
2010/06/09,1553,1567,1544,1564,1193100,1564
2010/06/10,1567,1589,1566,1584,790100,1584
2010/06/11,1635,1637,1620,1635,5056600,1635
2010/06/14,1641,1649,1620,1630,1133600,1630
2010/06/15,1630,1643,1611,1643,855400,1643
2010/06/16,1658,1658,1641,1645,699300,1645
2010/06/17,1635,1650,1635,1643,544100,1643
2010/06/18,1635,1642,1621,1633,1271000,1633
2010/06/21,1645,1647,1631,1643,797200,1643
2010/06/22,1644,1647,1633,1641,922400,1641
2010/06/23,1621,1625,1605,1609,1130000,1609
2010/06/24,1605,1616,1597,1613,923400,1613
2010/06/25,1611,1625,1602,1621,1012600,1621
2010/06/28,1615,1631,1605,1608,618600,1608
2010/06/29,1615,1617,1596,1602,572700,1602
2010/06/30,1579,1608,1575,1584,1021700,1584
2010/07/01,1544,1571,1544,1545,1563900,1545
2010/07/02,1540,1545,1525,1534,1281600,1534
2010/07/05,1540,1559,1538,1553,686800,1553
2010/07/06,1550,1590,1534,1586,1447500,1586
2010/07/07,1573,1577,1564,1573,588700,1573
2010/07/08,1611,1611,1594,1605,858200,1605
2010/07/09,1621,1621,1590,1594,1065900,1594
2010/07/12,1583,1592,1571,1572,538700,1572
2010/07/13,1588,1589,1569,1573,715600,1573
2010/07/14,1598,1621,1587,1619,1018300,1619
2010/07/15,1600,1614,1590,1603,739500,1603
2010/07/16,1604,1610,1562,1564,717600,1564
2010/07/20,1547,1573,1538,1557,583000,1557
2010/07/21,1553,1553,1540,1544,1016000,1544
2010/07/22,1537,1548,1518,1528,1277600,1528
2010/07/23,1560,1563,1534,1541,1100800,1541
2010/07/26,1548,1548,1526,1532,768600,1532
2010/07/27,1533,1535,1507,1520,1095800,1520
2010/07/28,1536,1543,1524,1538,1119100,1538
2010/07/29,1530,1535,1519,1521,824900,1521
2010/07/30,1520,1525,1510,1512,842200,1512
2010/08/02,1511,1530,1505,1506,705400,1506
2010/08/03,1524,1524,1510,1523,840200,1523
2010/08/04,1522,1523,1501,1506,763200,1506
2010/08/05,1516,1529,1514,1520,743500,1520
2010/08/06,1508,1515,1505,1515,484900,1515
2010/08/09,1507,1517,1506,1516,546900,1516
2010/08/10,1520,1522,1505,1510,519600,1510
2010/08/11,1500,1501,1472,1476,582400,1476
2010/08/12,1450,1465,1442,1455,891900,1455
2010/08/13,1452,1475,1447,1464,1130600,1464
2010/08/16,1450,1484,1449,1482,530900,1482
2010/08/17,1469,1483,1465,1477,472500,1477
2010/08/18,1490,1499,1474,1488,583200,1488
2010/08/19,1491,1495,1472,1482,784800,1482
2010/08/20,1478,1485,1451,1454,904400,1454
2010/08/23,1456,1464,1450,1463,742600,1463
2010/08/24,1463,1473,1454,1468,702200,1468
2010/08/25,1466,1466,1430,1438,1019100,1438
2010/08/26,1438,1445,1430,1445,664300,1445
2010/08/27,1430,1458,1428,1454,533300,1454
2010/08/30,1475,1492,1470,1474,494900,1474
2010/08/31,1455,1461,1432,1434,694300,1434
2010/09/01,1434,1458,1424,1454,845200,1454
2010/09/02,1471,1474,1444,1468,565800,1468
2010/09/03,1479,1485,1473,1476,501100,1476
2010/09/06,1489,1499,1483,1497,548300,1497
2010/09/07,1487,1487,1472,1476,466900,1476
2010/09/08,1468,1472,1455,1464,450700,1464
2010/09/09,1485,1502,1472,1502,1007300,1502
2010/09/10,1517,1544,1500,1528,2716800,1528
2010/09/13,1535,1551,1529,1529,967600,1529
2010/09/14,1525,1530,1508,1515,637300,1515
2010/09/15,1516,1569,1512,1553,1384600,1553
2010/09/16,1571,1573,1515,1519,1097100,1519
2010/09/17,1527,1542,1510,1520,1030200,1520
2010/09/21,1531,1540,1517,1528,569600,1528
2010/09/22,1522,1556,1520,1551,674100,1551
2010/09/24,1552,1560,1537,1549,948200,1549
2010/09/27,1560,1560,1537,1541,639800,1541
2010/09/28,1537,1553,1534,1543,506700,1543
2010/09/29,1553,1571,1547,1561,883800,1561
2010/09/30,1565,1570,1534,1534,781000,1534
2010/10/01,1543,1568,1543,1551,803300,1551
2010/10/04,1556,1556,1542,1547,649200,1547
2010/10/05,1528,1563,1517,1554,848300,1554
2010/10/06,1556,1571,1545,1571,978400,1571
2010/10/07,1555,1579,1555,1576,832500,1576
2010/10/08,1578,1578,1541,1541,1345000,1541
2010/10/12,1553,1558,1511,1512,666600,1512
2010/10/13,1516,1521,1497,1504,1003900,1504
2010/10/14,1508,1522,1495,1510,829800,1510
2010/10/15,1511,1511,1495,1500,626000,1500
2010/10/18,1499,1516,1496,1512,448100,1512
2010/10/19,1519,1545,1519,1537,736300,1537
2010/10/20,1521,1526,1508,1517,697600,1517
2010/10/21,1525,1533,1503,1522,544000,1522
2010/10/22,1521,1529,1516,1522,452500,1522
2010/10/25,1487,1505,1479,1490,941000,1490
2010/10/26,1480,1506,1468,1495,1324800,1495
2010/10/27,1521,1528,1459,1476,1200100,1476
2010/10/28,1469,1469,1433,1441,1374300,1441
2010/10/29,1415,1423,1390,1409,1454600,1409
2010/11/01,1410,1426,1401,1403,774800,1403
2010/11/02,1415,1449,1409,1416,777800,1416
2010/11/04,1428,1435,1410,1416,796200,1416
2010/11/05,1437,1449,1424,1431,964100,1431
2010/11/08,1440,1440,1417,1427,1043300,1427
2010/11/09,1426,1452,1421,1449,1264800,1449
2010/11/10,1445,1455,1435,1448,846400,1448
2010/11/11,1455,1461,1443,1452,697300,1452
2010/11/12,1450,1465,1446,1452,773600,1452
2010/11/15,1465,1468,1455,1465,548600,1465
2010/11/16,1471,1478,1452,1461,698900,1461
2010/11/17,1451,1486,1449,1480,859200,1480
2010/11/18,1486,1531,1484,1520,1443600,1520
2010/11/19,1540,1547,1516,1531,868800,1531
2010/11/22,1555,1555,1535,1543,399500,1543
2010/11/24,1530,1540,1517,1532,586900,1532
2010/11/25,1533,1534,1518,1524,682500,1524
2010/11/26,1518,1534,1516,1516,374400,1516
2010/11/29,1521,1538,1521,1530,406600,1530
2010/11/30,1533,1550,1510,1511,893600,1511
2010/12/01,1511,1512,1497,1505,676800,1505
2010/12/02,1531,1534,1506,1507,923700,1507
2010/12/03,1525,1525,1500,1504,639000,1504
2010/12/06,1510,1511,1497,1502,425300,1502
2010/12/07,1503,1507,1488,1495,823100,1495
2010/12/08,1506,1507,1489,1490,1181000,1490
2010/12/09,1499,1509,1494,1504,768400,1504
2010/12/10,1544,1544,1489,1499,3800000,1499
2010/12/13,1506,1514,1501,1512,443100,1512
2010/12/14,1504,1517,1504,1516,596100,1516
2010/12/15,1512,1529,1511,1525,783500,1525
2010/12/16,1524,1536,1518,1533,607400,1533
2010/12/17,1533,1537,1526,1526,866000,1526
2010/12/20,1526,1527,1513,1515,638400,1515
2010/12/21,1516,1532,1515,1532,667300,1532
2010/12/22,1519,1530,1519,1528,707000,1528
2010/12/24,1523,1526,1514,1517,505400,1517
2010/12/27,1514,1529,1513,1525,569900,1525
2010/12/28,1513,1516,1503,1503,361800,1503
2010/12/29,1505,1515,1502,1515,285400,1515
2010/12/30,1507,1509,1488,1490,552400,1490
2011/01/04,1510,1517,1502,1513,597900,1513
2011/01/05,1514,1514,1501,1502,382000,1502
2011/01/06,1511,1512,1499,1505,790600,1505
2011/01/07,1503,1509,1501,1505,335100,1505
2011/01/11,1494,1504,1491,1496,488600,1496
2011/01/12,1497,1500,1492,1493,422000,1493
2011/01/13,1501,1501,1489,1496,586900,1496
2011/01/14,1466,1487,1466,1472,1828000,1472
2011/01/17,1473,1477,1469,1474,502600,1474
2011/01/18,1468,1475,1466,1467,494900,1467
2011/01/19,1470,1481,1468,1473,680100,1473
2011/01/20,1466,1480,1464,1467,712900,1467
2011/01/21,1476,1501,1473,1496,1440300,1496
2011/01/24,1508,1522,1500,1521,986900,1521
2011/01/25,1539,1543,1523,1543,1394100,1543
2011/01/26,1540,1557,1531,1549,1197100,1549
2011/01/27,1545,1549,1528,1532,879800,1532
2011/01/28,1524,1537,1511,1515,613800,1515
2011/01/31,1505,1516,1497,1511,684400,1511
2011/02/01,1513,1532,1500,1523,635200,1523
2011/02/02,1527,1530,1513,1528,633700,1528
2011/02/03,1500,1506,1478,1502,1439800,1502
2011/02/04,1520,1531,1515,1520,860800,1520
2011/02/07,1523,1532,1521,1528,472500,1528
2011/02/08,1537,1543,1529,1539,614800,1539
2011/02/09,1560,1562,1549,1550,970700,1550
2011/02/10,1542,1558,1541,1554,791300,1554
2011/02/14,1561,1568,1553,1565,827800,1565
2011/02/15,1580,1608,1579,1594,1397700,1594
2011/02/16,1594,1594,1572,1581,932700,1581
2011/02/17,1596,1622,1585,1616,1496900,1616
2011/02/18,1623,1628,1611,1623,1174100,1623
2011/02/21,1620,1622,1600,1610,720900,1610
2011/02/22,1588,1598,1579,1585,851900,1585
2011/02/23,1594,1597,1578,1580,724200,1580
2011/02/24,1581,1611,1574,1580,991000,1580
2011/02/25,1590,1595,1570,1582,870800,1582
2011/02/28,1569,1574,1551,1570,872200,1570
2011/03/01,1569,1584,1559,1580,846800,1580
2011/03/02,1555,1572,1546,1546,642800,1546
2011/03/03,1548,1556,1542,1555,454800,1555
2011/03/04,1578,1579,1565,1573,640800,1573
2011/03/07,1560,1560,1540,1540,622000,1540
2011/03/08,1545,1554,1539,1544,342100,1544
2011/03/09,1544,1560,1544,1556,424800,1556
2011/03/10,1546,1557,1541,1545,403200,1545
2011/03/11,1525,1542,1520,1520,3437400,1520
2011/03/14,1480,1515,1460,1468,1090300,1468
2011/03/15,1400,1405,1250,1263,2318100,1263
2011/03/16,1353,1436,1317,1424,4572700,1424
2011/03/17,1394,1443,1357,1410,2894900,1410
2011/03/18,1410,1437,1391,1402,1687300,1402
2011/03/22,1432,1435,1385,1415,2196300,1415
2011/03/23,1388,1429,1360,1371,2624400,1371
2011/03/24,1375,1388,1367,1369,1218200,1369
2011/03/25,1392,1406,1377,1400,1203800,1400
2011/03/28,1412,1423,1404,1418,1078000,1418
2011/03/29,1402,1416,1382,1406,1906500,1406
2011/03/30,1397,1399,1377,1398,1456800,1398
2011/03/31,1408,1432,1398,1432,1597400,1432
2011/04/01,1440,1464,1437,1449,2037700,1449
2011/04/04,1456,1469,1453,1453,1274600,1453
2011/04/05,1457,1459,1410,1425,1156900,1425
2011/04/06,1430,1439,1411,1419,1060800,1419
2011/04/07,1432,1435,1401,1413,858700,1413
2011/04/08,1417,1427,1401,1418,2197500,1418
2011/04/11,1401,1438,1401,1435,1443600,1435
2011/04/12,1413,1413,1390,1400,979200,1400
2011/04/13,1390,1402,1383,1394,1087200,1394
2011/04/14,1375,1385,1365,1380,1708900,1380
2011/04/15,1371,1375,1364,1369,1056900,1369
2011/04/18,1370,1388,1367,1378,792300,1378
2011/04/19,1367,1371,1347,1352,1197000,1352
2011/04/20,1350,1360,1344,1352,1402400,1352
2011/04/21,1365,1389,1344,1381,2025000,1381
2011/04/22,1367,1371,1343,1346,2068600,1346
2011/04/25,1351,1351,1324,1328,2030200,1328
2011/04/26,1320,1326,1307,1309,1596900,1309
2011/04/27,1339,1347,1306,1314,3101000,1314
2011/04/28,1314,1339,1307,1335,2197900,1335
2011/05/02,1340,1356,1335,1349,1390000,1349
2011/05/06,1339,1344,1328,1336,2012600,1336
2011/05/09,1340,1352,1338,1348,1648200,1348
2011/05/10,1350,1353,1331,1332,1522500,1332
2011/05/11,1337,1346,1332,1344,1758400,1344
2011/05/12,1340,1352,1324,1325,1307700,1325
2011/05/13,1327,1331,1294,1303,2180600,1303
2011/05/16,1294,1311,1291,1301,1361700,1301
2011/05/17,1308,1328,1307,1320,1530400,1320
2011/05/18,1323,1338,1320,1329,1118900,1329
2011/05/19,1334,1338,1326,1329,736700,1329
2011/05/20,1330,1341,1327,1328,715800,1328
2011/05/23,1329,1336,1316,1322,637900,1322
2011/05/24,1323,1339,1323,1338,801000,1338
2011/05/25,1343,1345,1327,1333,622500,1333
2011/05/26,1336,1344,1332,1339,871600,1339
2011/05/27,1332,1342,1328,1332,722600,1332
2011/05/30,1324,1329,1314,1318,991100,1318
2011/05/31,1318,1340,1313,1335,1285800,1335
2011/06/01,1335,1343,1324,1339,1064200,1339
2011/06/02,1331,1351,1322,1345,1918500,1345
2011/06/03,1335,1343,1327,1333,1242600,1333
2011/06/06,1334,1335,1312,1317,712600,1317
2011/06/07,1315,1320,1308,1318,764400,1318
2011/06/08,1312,1316,1305,1316,473400,1316
2011/06/09,1311,1316,1307,1315,809600,1315
2011/06/10,1325,1335,1310,1316,2781600,1316
2011/06/13,1309,1319,1306,1310,531400,1310
2011/06/14,1317,1324,1303,1307,1293500,1307
2011/06/15,1314,1318,1307,1316,779700,1316
2011/06/16,1314,1321,1307,1307,860800,1307
2011/06/17,1316,1320,1302,1305,1061000,1305
2011/06/20,1306,1311,1301,1309,645900,1309
2011/06/21,1310,1314,1304,1309,675700,1309
2011/06/22,1317,1329,1315,1326,928800,1326
2011/06/23,1319,1337,1319,1328,854700,1328
2011/06/24,1339,1343,1330,1333,693400,1333
2011/06/27,1325,1327,1310,1311,925700,1311
2011/06/28,1309,1310,1302,1305,897700,1305
2011/06/29,1307,1315,1304,1313,903000,1313
2011/06/30,1314,1321,1313,1316,1034300,1316
2011/07/01,1316,1320,1308,1313,796600,1313
2011/07/04,1321,1322,1314,1317,741400,1317
2011/07/05,1319,1328,1318,1326,616700,1326
2011/07/06,1330,1336,1323,1336,886700,1336
2011/07/07,1328,1339,1326,1336,532200,1336
2011/07/08,1357,1361,1343,1357,1730600,1357
2011/07/11,1350,1356,1347,1350,725400,1350
2011/07/12,1349,1353,1338,1343,580200,1343
2011/07/13,1336,1356,1336,1354,771900,1354
2011/07/14,1350,1367,1345,1363,906700,1363
2011/07/15,1359,1387,1359,1385,1288500,1385
2011/07/19,1377,1380,1359,1361,1128800,1361
2011/07/20,1375,1380,1370,1380,890500,1380
2011/07/21,1400,1403,1377,1388,1667200,1388
2011/07/22,1395,1405,1388,1402,1191100,1402
2011/07/25,1408,1408,1392,1394,951300,1394
2011/07/26,1394,1410,1393,1398,726600,1398
2011/07/27,1392,1405,1383,1398,1127200,1398
2011/07/28,1400,1424,1385,1385,3857100,1385
2011/07/29,1386,1400,1359,1368,1552900,1368
2011/08/01,1375,1405,1374,1384,1118100,1384
2011/08/02,1377,1380,1360,1378,662100,1378
2011/08/03,1363,1371,1350,1352,769900,1352
2011/08/04,1354,1375,1350,1356,765200,1356
2011/08/05,1319,1329,1313,1317,1085900,1317
2011/08/08,1299,1305,1292,1297,1297000,1297
2011/08/09,1260,1269,1236,1267,2328500,1267
2011/08/10,1297,1302,1284,1299,1843900,1299
2011/08/11,1285,1302,1271,1301,1534500,1301
2011/08/12,1301,1305,1281,1295,1654600,1295
2011/08/15,1305,1309,1285,1296,1178300,1296
2011/08/16,1296,1296,1274,1279,1729400,1279
2011/08/17,1269,1289,1266,1282,722700,1282
2011/08/18,1280,1298,1275,1294,743400,1294
2011/08/19,1271,1293,1268,1284,812300,1284
2011/08/22,1280,1298,1277,1290,782900,1290
2011/08/23,1301,1312,1287,1299,1281800,1299
2011/08/24,1299,1304,1286,1291,835600,1291
2011/08/25,1313,1314,1286,1288,678800,1288
2011/08/26,1285,1297,1279,1285,756500,1285
2011/08/29,1286,1308,1280,1295,896500,1295
2011/08/30,1312,1313,1297,1305,744600,1305
2011/08/31,1297,1338,1297,1334,1322400,1334
2011/09/01,1348,1359,1316,1324,1321100,1324
2011/09/02,1310,1335,1310,1322,1716000,1322
2011/09/05,1309,1328,1309,1321,1178300,1321
2011/09/06,1314,1328,1310,1311,1170800,1311
2011/09/07,1319,1329,1309,1318,1085700,1318
2011/09/08,1319,1345,1319,1341,649500,1341
2011/09/09,1334,1353,1332,1346,2932200,1346
2011/09/12,1319,1334,1314,1319,799200,1319
2011/09/13,1329,1337,1320,1329,706500,1329
2011/09/14,1327,1335,1312,1320,634800,1320
2011/09/15,1309,1324,1290,1297,1809400,1297
2011/09/16,1314,1317,1308,1313,689200,1313
2011/09/20,1305,1317,1302,1314,883200,1314
2011/09/21,1321,1328,1309,1310,478500,1310
2011/09/22,1311,1315,1303,1311,1017600,1311
2011/09/26,1313,1344,1304,1304,1475600,1304
2011/09/27,1316,1342,1313,1338,1046200,1338
2011/09/28,1339,1355,1330,1338,1288800,1338
2011/09/29,1339,1351,1321,1330,1302700,1330
2011/09/30,1331,1340,1314,1319,1455500,1319
2011/10/03,1312,1324,1307,1311,1130300,1311
2011/10/04,1305,1312,1252,1270,2381000,1270
2011/10/05,1268,1268,1232,1235,2183800,1235
2011/10/06,1236,1266,1236,1261,1159600,1261
2011/10/07,1271,1272,1255,1258,1340400,1258
2011/10/11,1281,1281,1248,1252,1176400,1252
2011/10/12,1253,1261,1233,1236,942100,1236
2011/10/13,1242,1246,1232,1240,890600,1240
2011/10/14,1231,1233,1211,1220,1638100,1220
2011/10/17,1247,1247,1233,1243,623500,1243
2011/10/18,1244,1248,1231,1232,376400,1232
2011/10/19,1262,1268,1254,1261,903600,1261
2011/10/20,1262,1263,1237,1249,848800,1249
2011/10/21,1240,1243,1230,1232,511400,1232
2011/10/24,1230,1243,1221,1234,1243000,1234
2011/10/25,1240,1240,1214,1214,699000,1214
2011/10/26,1203,1207,1178,1199,933000,1199
2011/10/27,1229,1231,1193,1202,921300,1202
2011/10/28,1215,1227,1212,1225,849700,1225
2011/10/31,1226,1247,1219,1237,1219700,1237
2011/11/01,1238,1238,1215,1223,1031400,1223
2011/11/02,1216,1218,1181,1182,1418300,1182
2011/11/04,1196,1196,1170,1175,942200,1175
2011/11/07,1174,1186,1169,1174,540900,1174
2011/11/08,1175,1185,1173,1177,493500,1177
2011/11/09,1187,1203,1185,1202,719700,1202
2011/11/10,1185,1194,1178,1186,1026000,1186
2011/11/11,1196,1228,1186,1191,1406300,1191
2011/11/14,1208,1215,1200,1210,527000,1210
2011/11/15,1210,1217,1199,1204,624300,1204
2011/11/16,1208,1208,1195,1197,506900,1197
2011/11/17,1194,1196,1172,1181,772700,1181
2011/11/18,1177,1180,1172,1174,805700,1174
2011/11/21,1176,1194,1174,1186,623500,1186
2011/11/22,1175,1184,1162,1167,823200,1167
2011/11/24,1153,1161,1140,1143,645900,1143
2011/11/25,1130,1148,1129,1135,693200,1135
2011/11/28,1145,1148,1130,1132,413600,1132
2011/11/29,1137,1146,1128,1146,503800,1146
2011/11/30,1143,1166,1141,1166,947600,1166
2011/12/01,1189,1192,1166,1176,992700,1176
2011/12/02,1187,1221,1187,1216,1406100,1216
2011/12/05,1217,1244,1216,1243,767400,1243
2011/12/06,1227,1240,1225,1225,638900,1225
2011/12/07,1225,1234,1209,1229,1092300,1229
2011/12/08,1221,1244,1217,1240,801400,1240
2011/12/09,1216,1238,1216,1233,3703500,1233
2011/12/12,1244,1253,1235,1251,722200,1251
2011/12/13,1232,1246,1218,1234,675400,1234
2011/12/14,1224,1246,1222,1236,770300,1236
2011/12/15,1229,1244,1229,1237,678300,1237
2011/12/16,1237,1258,1233,1247,941500,1247
2011/12/19,1247,1258,1241,1248,716000,1248
2011/12/20,1249,1252,1239,1245,750600,1245
2011/12/21,1256,1277,1247,1277,975000,1277
2011/12/22,1277,1289,1270,1276,783400,1276
2011/12/26,1290,1293,1278,1282,445200,1282
2011/12/27,1280,1282,1274,1278,427100,1278
2011/12/28,1261,1265,1232,1260,1092000,1260
2011/12/29,1259,1273,1249,1271,726400,1271
2011/12/30,1273,1277,1263,1269,548100,1269
2012/01/04,1270,1282,1231,1236,2576800,1236
2012/01/05,1223,1223,1210,1216,1596500,1216
2012/01/06,1217,1228,1200,1206,1141800,1206
2012/01/10,1210,1224,1202,1206,788800,1206
2012/01/11,1210,1212,1193,1204,784000,1204
2012/01/12,1205,1205,1187,1191,775200,1191
2012/01/13,1206,1222,1202,1217,1951300,1217
2012/01/16,1205,1205,1195,1200,495400,1200
2012/01/17,1204,1209,1188,1194,747700,1194
2012/01/18,1194,1205,1181,1196,991900,1196
2012/01/19,1202,1207,1191,1197,1037300,1197
2012/01/20,1216,1216,1194,1196,1061400,1196
2012/01/23,1198,1213,1195,1210,792800,1210
2012/01/24,1210,1219,1201,1215,739700,1215
2012/01/25,1217,1217,1191,1194,1336200,1194
2012/01/26,1196,1204,1195,1197,722500,1197
2012/01/27,1200,1204,1185,1185,1362400,1185
2012/01/30,1184,1202,1176,1202,714300,1202
2012/01/31,1205,1213,1199,1211,909200,1211
2012/02/01,1215,1224,1205,1214,809200,1214
2012/02/02,1235,1267,1226,1254,1707100,1254
2012/02/03,1248,1249,1223,1226,1339700,1226
2012/02/06,1238,1239,1226,1229,767000,1229
2012/02/07,1225,1243,1225,1233,806300,1233
2012/02/08,1240,1245,1235,1240,1182100,1240
2012/02/09,1248,1248,1233,1244,1315400,1244
2012/02/10,1244,1247,1236,1243,1370900,1243
2012/02/13,1247,1250,1238,1241,770600,1241
2012/02/14,1243,1251,1233,1248,901600,1248
2012/02/15,1244,1260,1241,1252,1451600,1252
2012/02/16,1253,1259,1245,1250,947900,1250
2012/02/17,1269,1271,1256,1265,831100,1265
2012/02/20,1280,1283,1271,1271,666100,1271
2012/02/21,1274,1290,1272,1282,785900,1282
2012/02/22,1287,1294,1280,1282,1741300,1282
2012/02/23,1290,1299,1286,1298,1447500,1298
2012/02/24,1302,1302,1282,1288,1193300,1288
2012/02/27,1299,1312,1286,1308,1219700,1308
2012/02/28,1300,1317,1299,1317,862700,1317
2012/02/29,1315,1357,1314,1330,2088200,1330
2012/03/01,1329,1346,1321,1330,1247700,1330
2012/03/02,1330,1349,1327,1347,869200,1347
2012/03/05,1342,1365,1341,1356,1279000,1356
2012/03/06,1341,1376,1341,1372,1917300,1372
2012/03/07,1379,1397,1353,1362,1240700,1362
2012/03/08,1374,1381,1362,1373,832800,1373
2012/03/09,1394,1394,1369,1383,3511600,1383
2012/03/12,1398,1399,1383,1387,890300,1387
2012/03/13,1395,1407,1390,1395,1386200,1395
2012/03/14,1410,1410,1391,1391,1100300,1391
2012/03/15,1397,1420,1392,1416,1420900,1416
2012/03/16,1415,1419,1407,1412,681900,1412
2012/03/19,1415,1438,1414,1434,1079800,1434
2012/03/21,1436,1439,1426,1436,894800,1436
2012/03/22,1435,1449,1434,1447,1057100,1447
2012/03/23,1438,1486,1438,1474,1511200,1474
2012/03/26,1469,1481,1465,1468,1098500,1468
2012/03/27,1488,1500,1484,1497,1195000,1497
2012/03/28,1495,1510,1485,1507,957600,1507
2012/03/29,1498,1515,1490,1513,830700,1513
2012/03/30,1510,1527,1510,1526,1144900,1526
2012/04/02,1527,1538,1517,1522,1442700,1522
2012/04/03,1513,1514,1470,1475,1478300,1475
2012/04/04,1476,1504,1467,1470,1222700,1470
2012/04/05,1471,1501,1461,1469,1478900,1469
2012/04/06,1467,1483,1464,1476,687500,1476
2012/04/09,1465,1476,1451,1452,617900,1452
2012/04/10,1449,1467,1440,1453,1111100,1453
2012/04/11,1440,1450,1423,1438,1448900,1438
2012/04/12,1432,1437,1417,1421,992600,1421
2012/04/13,1392,1435,1392,1425,3339200,1425
2012/04/16,1412,1449,1409,1431,830900,1431
2012/04/17,1442,1460,1426,1456,1088000,1456
2012/04/18,1456,1468,1447,1464,1073700,1464
2012/04/19,1450,1451,1421,1435,1135800,1435
2012/04/20,1420,1429,1417,1423,1064500,1423
2012/04/23,1430,1472,1426,1455,1336900,1455
2012/04/24,1444,1464,1438,1445,1446700,1445
2012/04/25,1499,1499,1444,1466,2296400,1466
2012/04/26,1473,1474,1449,1470,1042500,1470
2012/04/27,1460,1466,1436,1444,1435600,1444
2012/05/01,1445,1462,1440,1444,757200,1444
2012/05/02,1448,1461,1445,1457,598700,1457
2012/05/07,1427,1455,1417,1449,1003100,1449
2012/05/08,1459,1468,1449,1457,1288100,1457
2012/05/09,1453,1490,1439,1467,1468200,1467
2012/05/10,1466,1480,1465,1471,921400,1471
2012/05/11,1475,1475,1457,1460,1016100,1460
2012/05/14,1461,1468,1437,1438,654100,1438
2012/05/15,1428,1452,1417,1441,880700,1441
2012/05/16,1442,1458,1436,1458,747200,1458
2012/05/17,1451,1456,1413,1419,1028500,1419
2012/05/18,1400,1438,1384,1406,1514200,1406
2012/05/21,1411,1422,1399,1401,866500,1401
2012/05/22,1406,1417,1400,1402,567700,1402
2012/05/23,1400,1413,1379,1388,965700,1388
2012/05/24,1393,1428,1388,1402,1133400,1402
2012/05/25,1419,1441,1411,1430,807800,1430
2012/05/28,1432,1443,1428,1437,657000,1437
2012/05/29,1428,1432,1403,1415,731500,1415
2012/05/30,1403,1410,1388,1406,997100,1406
2012/05/31,1397,1418,1396,1415,1121500,1415
2012/06/01,1407,1426,1402,1423,625900,1423
2012/06/04,1393,1412,1388,1410,1467200,1410
2012/06/05,1415,1419,1396,1403,1555800,1403
2012/06/06,1411,1415,1385,1400,1411300,1400
2012/06/07,1401,1422,1385,1414,1236800,1414
2012/06/08,1406,1413,1397,1407,3115500,1407
2012/06/11,1423,1431,1416,1425,774800,1425
2012/06/12,1412,1421,1399,1406,1308400,1406
2012/06/13,1413,1418,1398,1414,606900,1414
2012/06/14,1411,1418,1400,1408,918400,1408
2012/06/15,1410,1430,1408,1413,650700,1413
2012/06/18,1427,1435,1408,1412,717500,1412
2012/06/19,1405,1418,1398,1407,1032800,1407
2012/06/20,1411,1437,1411,1431,871300,1431
2012/06/21,1431,1452,1431,1447,694400,1447
2012/06/22,1435,1461,1434,1450,772300,1450
2012/06/25,1458,1466,1447,1459,614200,1459
2012/06/26,1452,1474,1452,1462,780100,1462
2012/06/27,1450,1462,1438,1460,612500,1460
2012/06/28,1469,1494,1463,1486,798400,1486
2012/06/29,1476,1512,1469,1507,852300,1507
2012/07/02,1508,1510,1485,1498,571200,1498
2012/07/03,1498,1532,1498,1526,671100,1526
2012/07/04,1519,1532,1513,1523,548900,1523
2012/07/05,1513,1527,1504,1506,422800,1506
2012/07/06,1505,1518,1488,1493,529700,1493
2012/07/09,1482,1530,1481,1516,605200,1516
2012/07/10,1517,1528,1507,1508,701000,1508
2012/07/11,1500,1507,1493,1507,464500,1507
2012/07/12,1507,1523,1504,1507,755700,1507
2012/07/13,1497,1514,1494,1495,1187800,1495
2012/07/17,1496,1538,1486,1529,1122600,1529
2012/07/18,1538,1561,1535,1544,1268800,1544
2012/07/19,1544,1575,1544,1566,1117100,1566
2012/07/20,1543,1569,1537,1537,981200,1537
2012/07/23,1524,1561,1523,1527,632300,1527
2012/07/24,1528,1538,1523,1528,627000,1528
2012/07/25,1529,1560,1523,1543,900900,1543
2012/07/26,1548,1548,1506,1526,815500,1526
2012/07/27,1501,1501,1466,1486,1060500,1486
2012/07/30,1486,1524,1486,1520,638400,1520
2012/07/31,1520,1528,1506,1511,571900,1511
2012/08/01,1525,1550,1517,1545,820600,1545
2012/08/02,1544,1555,1532,1536,1132000,1536
2012/08/03,1518,1530,1497,1498,749100,1498
2012/08/06,1513,1537,1503,1524,846600,1524
2012/08/07,1519,1549,1514,1545,589600,1545
2012/08/08,1555,1575,1552,1565,1102200,1565
2012/08/09,1564,1577,1540,1571,1002400,1571
2012/08/10,1555,1567,1543,1545,756000,1545
2012/08/13,1539,1568,1536,1556,463200,1556
2012/08/14,1563,1565,1531,1543,1507300,1543
2012/08/15,1543,1547,1528,1547,637200,1547
2012/08/16,1551,1564,1547,1557,538000,1557
2012/08/17,1555,1559,1543,1545,436100,1545
2012/08/20,1547,1566,1541,1556,509500,1556
2012/08/21,1559,1566,1546,1557,438900,1557
2012/08/22,1560,1572,1556,1568,448100,1568
2012/08/23,1572,1590,1563,1586,853500,1586
2012/08/24,1587,1587,1558,1577,625300,1577
2012/08/27,1580,1599,1574,1585,654400,1585
2012/08/28,1599,1599,1569,1574,887700,1574
2012/08/29,1580,1595,1567,1579,680200,1579
2012/08/30,1583,1585,1557,1561,379400,1561
2012/08/31,1554,1578,1552,1560,699300,1560
2012/09/03,1552,1554,1531,1531,670600,1531
2012/09/04,1528,1537,1515,1520,719000,1520
2012/09/05,1529,1555,1523,1543,849500,1543
2012/09/06,1563,1578,1539,1543,945300,1543
2012/09/07,1561,1563,1541,1548,649000,1548
2012/09/10,1543,1555,1535,1551,490800,1551
2012/09/11,1552,1561,1534,1550,515600,1550
2012/09/12,1558,1585,1554,1585,506700,1585
2012/09/13,1586,1588,1572,1583,474500,1583
2012/09/14,1600,1606,1571,1579,2299800,1579
2012/09/18,1587,1600,1576,1592,889600,1592
2012/09/19,1602,1602,1582,1587,752200,1587
2012/09/20,1577,1591,1573,1581,1097500,1581
2012/09/21,1590,1615,1579,1607,643200,1607
2012/09/24,1601,1619,1598,1603,1002200,1603
2012/09/25,1592,1623,1586,1622,947200,1622
2012/09/26,1614,1644,1614,1619,643400,1619
2012/09/27,1621,1655,1616,1653,764800,1653
2012/09/28,1654,1665,1618,1635,801800,1635
2012/10/01,1623,1626,1601,1614,522600,1614
2012/10/02,1612,1621,1599,1608,515400,1608
2012/10/03,1618,1633,1599,1602,1092400,1602
2012/10/04,1612,1628,1606,1622,871100,1622
2012/10/05,1621,1629,1603,1617,770700,1617
2012/10/09,1618,1649,1615,1640,932200,1640
2012/10/10,1615,1618,1571,1582,1760100,1582
2012/10/11,1577,1592,1569,1578,1307900,1578
2012/10/12,1550,1605,1550,1588,1833200,1588
2012/10/15,1595,1622,1592,1606,948100,1606
2012/10/16,1607,1632,1592,1626,893800,1626
2012/10/17,1632,1673,1630,1662,1185100,1662
2012/10/18,1677,1698,1674,1693,856300,1693
2012/10/19,1688,1692,1671,1683,611200,1683
2012/10/22,1680,1718,1675,1710,989900,1710
2012/10/23,1692,1712,1680,1681,944400,1681
2012/10/24,1660,1661,1602,1624,2632600,1624
2012/10/25,1623,1661,1610,1660,1823700,1660
2012/10/26,1651,1656,1621,1622,1219100,1622
2012/10/29,1622,1624,1610,1619,1039700,1619
2012/10/30,1622,1629,1604,1604,1079100,1604
2012/10/31,1610,1626,1605,1618,902200,1618
2012/11/01,1619,1636,1607,1631,772700,1631
2012/11/02,1629,1649,1624,1639,649800,1639
2012/11/05,1636,1639,1621,1630,376500,1630
2012/11/06,1629,1656,1623,1653,724500,1653
2012/11/07,1664,1665,1613,1627,674300,1627
2012/11/08,1618,1626,1600,1620,461900,1620
2012/11/09,1604,1634,1603,1619,851100,1619
2012/11/12,1600,1607,1589,1593,616400,1593
2012/11/13,1600,1600,1566,1578,602600,1578
2012/11/14,1569,1609,1568,1603,616300,1603
2012/11/15,1608,1608,1576,1592,640300,1592
2012/11/16,1588,1607,1586,1607,548000,1607
2012/11/19,1617,1644,1607,1640,658000,1640
2012/11/20,1651,1652,1627,1630,647600,1630
2012/11/21,1641,1654,1631,1653,676700,1653
2012/11/22,1669,1670,1635,1643,1026300,1643
2012/11/26,1643,1645,1625,1638,1175200,1638
2012/11/27,1640,1663,1637,1640,1430300,1640
2012/11/28,1639,1650,1632,1635,995300,1635
2012/11/29,1643,1645,1632,1640,877900,1640
2012/11/30,1639,1647,1627,1634,1586800,1634
2012/12/03,1640,1647,1637,1639,840400,1639
2012/12/04,1639,1647,1630,1642,767400,1642
2012/12/05,1633,1651,1630,1648,1032700,1648
2012/12/06,1654,1663,1644,1647,1118400,1647
2012/12/07,1642,1647,1636,1637,827700,1637
2012/12/10,1644,1650,1638,1649,993500,1649
2012/12/11,1650,1656,1638,1649,1012200,1649
2012/12/12,1653,1658,1641,1650,1006500,1650
2012/12/13,1659,1659,1637,1644,994500,1644
2012/12/14,1640,1655,1633,1635,3556100,1635
2012/12/17,1660,1679,1649,1676,1825300,1676
2012/12/18,1676,1680,1649,1651,1473900,1651
2012/12/19,1663,1675,1643,1675,1083300,1675
2012/12/20,1678,1681,1656,1661,1062100,1661
2012/12/21,1682,1682,1639,1640,1622000,1640
2012/12/25,1670,1672,1648,1656,758900,1656
2012/12/26,1644,1648,1624,1648,1077600,1648
2012/12/27,1657,1668,1647,1660,950600,1660
2012/12/28,1664,1665,1647,1651,942200,1651
2013/01/04,1688,1688,1655,1683,1139800,1683
2013/01/07,1683,1689,1672,1673,899100,1673
2013/01/08,1685,1711,1679,1691,900300,1691
2013/01/09,1679,1707,1666,1699,1057300,1699
2013/01/10,1700,1717,1700,1705,1070800,1705
2013/01/11,1725,1758,1722,1744,2105900,1744
2013/01/15,1749,1806,1747,1797,1110100,1797
2013/01/16,1800,1806,1766,1768,1066900,1768
2013/01/17,1775,1776,1733,1767,1627900,1767
2013/01/18,1795,1815,1792,1812,1078400,1812
2013/01/21,1813,1814,1775,1775,849500,1775
2013/01/22,1782,1794,1751,1772,1031300,1772
2013/01/23,1760,1776,1735,1735,847000,1735
2013/01/24,1713,1759,1703,1756,1207100,1756
2013/01/25,1769,1798,1761,1790,1173600,1790
2013/01/28,1807,1820,1768,1771,791900,1771
2013/01/29,1743,1780,1743,1762,936700,1762
2013/01/30,1790,1818,1773,1818,1412600,1818
2013/01/31,1820,1888,1820,1881,1682100,1881
2013/02/01,1864,1884,1851,1852,912600,1852
2013/02/04,1854,1876,1841,1842,526500,1842
2013/02/05,1838,1872,1835,1840,1046600,1840
2013/02/06,1871,1937,1866,1927,1437900,1927
2013/02/07,1924,1925,1905,1917,1093000,1917
2013/02/08,1879,1939,1878,1913,2209400,1913
2013/02/12,1949,1980,1949,1966,952600,1966
2013/02/13,1967,1980,1922,1933,674100,1933
2013/02/14,1951,1975,1941,1958,1184900,1958
2013/02/15,1956,1978,1938,1942,1066000,1942
2013/02/18,1960,1994,1957,1984,1034900,1984
2013/02/19,1966,1991,1965,1970,971600,1970
2013/02/20,1989,2003,1981,2000,1164600,2000
2013/02/21,1983,2013,1979,1987,956200,1987
2013/02/22,1980,2018,1978,2013,1049900,2013
2013/02/25,2027,2060,2025,2057,1012000,2057
2013/02/26,2007,2017,1991,2004,1398800,2004
2013/02/27,1997,2012,1964,1966,860900,1966
2013/02/28,1968,2016,1960,2005,1369600,2005
2013/03/01,1987,2040,1985,2032,928500,2032
2013/03/04,2048,2084,2046,2077,978700,2077
2013/03/05,2088,2089,2063,2071,708900,2071
2013/03/06,2100,2190,2095,2177,1771400,2177
2013/03/07,2191,2204,2175,2204,1529000,2204
2013/03/08,2226,2244,2206,2225,4426700,2225
2013/03/11,2214,2214,2177,2188,1111900,2188
2013/03/12,2202,2229,2202,2211,1160600,2211
2013/03/13,2185,2214,2178,2189,897000,2189
2013/03/14,2205,2240,2181,2233,787800,2233
2013/03/15,2250,2279,2239,2264,1054600,2264
2013/03/18,2214,2221,2186,2197,1277200,2197
2013/03/19,2196,2227,2166,2214,1236600,2214
2013/03/21,2189,2238,2187,2226,1727000,2226
2013/03/22,2214,2240,2176,2179,1428200,2179
2013/03/25,2208,2237,2169,2179,1938800,2179
2013/03/26,2157,2183,2148,2149,1422400,2149
2013/03/27,2137,2150,2105,2147,1569300,2147
2013/03/28,2063,2110,2063,2092,2568500,2092
2013/03/29,2105,2144,2105,2133,917300,2133
2013/04/01,2143,2161,2067,2069,1492500,2069
2013/04/02,2077,2135,2005,2070,1436800,2070
2013/04/03,2078,2133,2054,2124,2301700,2124
2013/04/04,2141,2328,2118,2325,5543900,2325
2013/04/05,2375,2396,2250,2300,3148700,2300
2013/04/08,2400,2471,2364,2455,3078100,2455
2013/04/09,2499,2514,2412,2423,1740700,2423
2013/04/10,2423,2440,2391,2404,1639700,2404
2013/04/11,2390,2436,2380,2389,1895600,2389
2013/04/12,2413,2417,2340,2357,2281900,2357
2013/04/15,2420,2440,2371,2415,2220800,2415
2013/04/16,2382,2442,2357,2430,1724400,2430
2013/04/17,2433,2488,2424,2472,1698500,2472
2013/04/18,2422,2516,2388,2474,3275600,2474
2013/04/19,2464,2478,2412,2415,2095900,2415
2013/04/22,2429,2466,2422,2447,946000,2447
2013/04/23,2445,2494,2436,2477,1218300,2477
2013/04/24,2499,2550,2479,2550,2163000,2550
2013/04/25,2500,2530,2484,2516,1630300,2516
2013/04/26,2480,2490,2451,2461,1771900,2461
2013/04/30,2451,2451,2395,2427,1769200,2427
2013/05/01,2406,2440,2400,2420,895400,2420
2013/05/02,2370,2416,2365,2401,1695700,2401
2013/05/07,2460,2516,2438,2504,1722500,2504
2013/05/08,2504,2524,2482,2487,1187700,2487
2013/05/09,2451,2469,2404,2404,1231700,2404
2013/05/10,2454,2467,2418,2425,1594100,2425
2013/05/13,2431,2453,2416,2449,1019400,2449
2013/05/14,2435,2487,2431,2461,904500,2461
2013/05/15,2485,2511,2447,2505,1545800,2505
2013/05/16,2500,2514,2455,2459,1295200,2459
2013/05/17,2450,2466,2435,2442,1139000,2442
2013/05/20,2430,2455,2409,2422,1124300,2422
2013/05/21,2422,2437,2395,2428,881700,2428
2013/05/22,2420,2450,2403,2433,849000,2433
2013/05/23,2452,2490,2299,2299,2238500,2299
2013/05/24,2300,2331,2161,2254,2105200,2254
2013/05/27,2174,2218,2140,2191,1278200,2191
2013/05/28,2150,2179,2114,2138,1412300,2138
2013/05/29,2150,2178,2112,2159,1634000,2159
2013/05/30,2100,2108,2026,2040,2415200,2040
2013/05/31,2055,2089,2035,2045,1922800,2045
2013/06/03,2001,2048,1981,1987,2237700,1987
2013/06/04,2022,2042,1974,2006,2057100,2006
2013/06/05,2007,2055,1944,1944,1906800,1944
2013/06/06,1913,2049,1913,2012,2832800,2012
2013/06/07,2005,2019,1948,1988,2035700,1988
2013/06/10,2007,2061,1995,2061,1142300,2061
2013/06/11,2065,2099,2036,2081,1746600,2081
2013/06/12,2048,2054,2000,2049,1120300,2049
2013/06/13,1999,2050,1900,1900,1730900,1900
2013/06/14,1926,2005,1926,1971,3155600,1971
2013/06/17,1952,2033,1945,2033,1015800,2033
2013/06/18,2018,2028,1964,1981,912300,1981
2013/06/19,2018,2051,2010,2048,1114300,2048
2013/06/20,1999,2029,1960,1965,1694600,1965
2013/06/21,1946,2026,1914,2014,1484000,2014
2013/06/24,2025,2031,1961,1962,1065600,1962
2013/06/25,1984,1994,1926,1962,1113000,1962
2013/06/26,1971,1975,1902,1906,858000,1906
2013/06/27,1927,1975,1921,1971,965400,1971
2013/06/28,1979,2065,1971,2056,1115800,2056
2013/07/01,2061,2070,2015,2049,966200,2049
2013/07/02,2051,2065,2019,2048,1034000,2048
2013/07/03,2040,2053,2019,2043,1334500,2043
2013/07/04,2049,2070,2036,2065,755300,2065
2013/07/05,2066,2089,2055,2072,1025000,2072
2013/07/08,2086,2108,2047,2047,990100,2047
2013/07/09,2087,2104,2066,2099,838400,2099
2013/07/10,2094,2109,2065,2079,803500,2079
2013/07/11,2061,2088,2050,2085,756500,2085
2013/07/12,2109,2154,2097,2146,1890100,2146
2013/07/16,2147,2154,2096,2105,1676400,2105
2013/07/17,2085,2114,2085,2106,984800,2106
2013/07/18,2109,2151,2108,2149,1049600,2149
2013/07/19,2167,2178,2096,2110,1206400,2110
2013/07/22,2126,2133,2097,2113,603400,2113
2013/07/23,2118,2143,2098,2139,771400,2139
2013/07/24,2138,2153,2114,2130,826500,2130
2013/07/25,2180,2187,2134,2152,1308400,2152
2013/07/26,2152,2152,2086,2086,1253200,2086
2013/07/29,2051,2061,1966,1970,1554100,1970
2013/07/30,1966,1988,1905,1986,5040600,1986
2013/07/31,1946,1994,1917,1945,2215000,1945
2013/08/01,1938,1997,1938,1988,1092100,1988
2013/08/02,2004,2074,1980,2073,1194500,2073
2013/08/05,2047,2077,2031,2045,736900,2045
2013/08/06,2045,2062,2002,2062,965400,2062
2013/08/07,2025,2039,2003,2007,1318000,2007
2013/08/08,2019,2073,1994,2005,1443800,2005
2013/08/09,2000,2041,1996,2033,1599100,2033
2013/08/12,2027,2033,1990,1993,870700,1993
2013/08/13,2029,2109,2018,2099,1261900,2099
2013/08/14,2072,2091,2036,2090,1147700,2090
2013/08/15,2075,2103,2044,2056,1090700,2056
2013/08/16,2020,2076,2020,2049,596400,2049
2013/08/19,2049,2076,2031,2074,682700,2074
2013/08/20,2066,2072,2014,2019,860200,2019
2013/08/21,2038,2038,1989,2016,608200,2016
2013/08/22,1990,2024,1983,2015,861000,2015
2013/08/23,2069,2093,2052,2070,834600,2070
2013/08/26,2070,2085,2055,2064,449200,2064
2013/08/27,2055,2073,2044,2052,688100,2052
2013/08/28,2005,2029,1989,2016,786500,2016
2013/08/29,2027,2030,2002,2019,549400,2019
2013/08/30,2030,2040,2001,2018,1041600,2018
2013/09/02,2019,2096,2012,2081,953500,2081
2013/09/03,2098,2121,2076,2120,883800,2120
2013/09/04,2086,2133,2082,2131,700500,2131
2013/09/05,2134,2134,2101,2128,523100,2128
2013/09/06,2123,2125,2075,2082,505400,2082
2013/09/09,2141,2144,2099,2128,491900,2128
2013/09/10,2128,2143,2098,2116,994700,2116
2013/09/11,2118,2130,2088,2091,1030500,2091
2013/09/12,2083,2093,2070,2075,543400,2075
2013/09/13,2065,2100,2061,2085,2122700,2085
2013/09/17,2074,2097,2019,2020,1093100,2020
2013/09/18,2027,2051,2016,2026,949200,2026
2013/09/19,2060,2060,2032,2047,990500,2047
2013/09/20,2059,2077,2035,2077,1311600,2077
2013/09/24,2059,2082,2050,2073,629900,2073
2013/09/25,2074,2090,2039,2041,1408500,2041
2013/09/26,2033,2034,1997,2006,1936800,2006
2013/09/27,2008,2024,2007,2019,1222700,2019
2013/09/30,2003,2027,1993,2014,934700,2014
2013/10/01,2019,2027,2003,2006,602300,2006
2013/10/02,2011,2012,1956,1968,1231400,1968
2013/10/03,1965,1993,1953,1956,932600,1956
2013/10/04,1940,1983,1940,1957,764300,1957
2013/10/07,1952,1964,1924,1927,758500,1927
2013/10/08,1920,1953,1910,1942,918800,1942
2013/10/09,1950,1969,1936,1962,707500,1962
2013/10/10,1970,2005,1969,2004,629000,2004
2013/10/11,2054,2080,2031,2055,1924800,2055
2013/10/15,2060,2078,2035,2049,711100,2049
2013/10/16,2046,2062,2037,2057,554500,2057
2013/10/17,2095,2098,2074,2091,652600,2091
2013/10/18,2092,2096,2076,2093,710100,2093
2013/10/21,2100,2146,2097,2143,974200,2143
2013/10/22,2150,2208,2144,2188,1473600,2188
2013/10/23,2211,2236,2169,2169,1624500,2169
2013/10/24,2169,2187,2133,2177,900300,2177
2013/10/25,2175,2192,2125,2126,1210900,2126
2013/10/28,2200,2200,2138,2183,958500,2183
2013/10/29,2200,2215,2180,2188,1149200,2188
2013/10/30,2222,2244,2191,2206,1506700,2206
2013/10/31,2250,2327,2245,2304,2216900,2304
2013/11/01,2310,2320,2279,2286,1196800,2286
2013/11/05,2290,2294,2236,2246,1128400,2246
2013/11/06,2229,2270,2213,2251,799700,2251
2013/11/07,2252,2273,2232,2246,833000,2246
2013/11/08,2209,2260,2209,2247,882700,2247
2013/11/11,2277,2296,2270,2285,675400,2285
2013/11/12,2300,2325,2281,2325,914300,2325
2013/11/13,2303,2322,2285,2309,969200,2309
2013/11/14,2308,2374,2306,2338,1489200,2338
2013/11/15,2360,2393,2350,2388,1271500,2388
2013/11/18,2390,2402,2370,2390,1021000,2390
2013/11/19,2379,2386,2352,2374,734500,2374
2013/11/20,2385,2400,2339,2346,1199800,2346
2013/11/21,2379,2394,2359,2390,1062400,2390
2013/11/22,2410,2430,2395,2419,1733600,2419
2013/11/25,2430,2459,2408,2458,1146100,2458
2013/11/26,2465,2482,2433,2452,1217200,2452
2013/11/27,2450,2467,2436,2449,818400,2449
2013/11/28,2459,2460,2435,2457,977800,2457
2013/11/29,2442,2454,2421,2445,737000,2445
2013/12/02,2430,2478,2430,2476,1021500,2476
2013/12/03,2481,2504,2464,2496,2029600,2496
2013/12/04,2459,2464,2416,2426,1041900,2426
2013/12/05,2401,2430,2382,2382,1093800,2382
2013/12/06,2359,2396,2357,2387,932100,2387
2013/12/09,2420,2429,2408,2424,865000,2424
2013/12/10,2405,2407,2383,2388,1199600,2388
2013/12/11,2363,2385,2351,2365,1035400,2365
2013/12/12,2352,2364,2312,2327,1254600,2327
2013/12/13,2320,2375,2313,2348,3408000,2348
2013/12/16,2336,2357,2309,2313,942900,2313
2013/12/17,2334,2341,2314,2339,1067200,2339
2013/12/18,2306,2318,2257,2265,3040300,2265
2013/12/19,2300,2307,2264,2306,2469600,2306
2013/12/20,2288,2313,2283,2291,1429400,2291
2013/12/24,2292,2303,2284,2292,1216700,2292
2013/12/25,2292,2298,2276,2293,1472600,2293
2013/12/26,2280,2283,2258,2282,1137900,2282
2013/12/27,2289,2292,2268,2275,1015700,2275
2013/12/30,2287,2329,2280,2325,1181100,2325
2014/01/06,2293,2327,2277,2281,1647500,2281
2014/01/07,2270,2295,2260,2273,1302000,2273
2014/01/08,2266,2337,2266,2337,1022600,2337
2014/01/09,2316,2335,2286,2290,1622400,2290
2014/01/10,2300,2323,2284,2316,2018500,2316
2014/01/14,2269,2274,2221,2225,1749400,2225
2014/01/15,2258,2285,2241,2284,1045100,2284
2014/01/16,2262,2299,2262,2278,846100,2278
2014/01/17,2262,2297,2262,2287,1075500,2287
2014/01/20,2285,2291,2251,2255,505500,2255
2014/01/21,2278,2319,2276,2301,726200,2301
2014/01/22,2285,2320,2278,2316,978400,2316
2014/01/23,2324,2325,2257,2263,1337700,2263
2014/01/24,2229,2244,2174,2184,1604100,2184
2014/01/27,2170,2176,2109,2115,1492600,2115
2014/01/28,2112,2164,2107,2160,1452300,2160
2014/01/29,2169,2248,2167,2242,1290300,2242
2014/01/30,2152,2205,2152,2205,1359600,2205
2014/01/31,2231,2353,2231,2344,3098000,2344
2014/02/03,2326,2337,2282,2325,1901600,2325
2014/02/04,2275,2298,2230,2230,1955800,2230
2014/02/05,2209,2224,2179,2204,1603400,2204
2014/02/06,2190,2223,2189,2190,1018100,2190
2014/02/07,2225,2265,2213,2263,1137800,2263
2014/02/10,2265,2276,2245,2263,1073900,2263
2014/02/12,2262,2287,2250,2276,1129000,2276
2014/02/13,2290,2316,2251,2260,778300,2260
2014/02/14,2260,2320,2241,2258,1631000,2258
2014/02/17,2256,2271,2216,2240,713700,2240
2014/02/18,2273,2324,2252,2317,931300,2317
2014/02/19,2267,2338,2267,2318,609200,2318
2014/02/20,2337,2360,2307,2349,1525600,2349
2014/02/21,2410,2474,2400,2454,2105900,2454
2014/02/24,2453,2477,2408,2446,1052800,2446
2014/02/25,2482,2517,2456,2516,1776800,2516
2014/02/26,2499,2549,2486,2547,1645000,2547
2014/02/27,2550,2619,2545,2586,2678400,2586
2014/02/28,2598,2619,2567,2598,1498100,2598
2014/03/03,2566,2566,2520,2552,1181100,2552
2014/03/04,2490,2547,2465,2538,1598600,2538
2014/03/05,2549,2596,2531,2547,1345600,2547
2014/03/06,2586,2598,2552,2581,1317200,2581
2014/03/07,2596,2625,2575,2598,1303400,2598
2014/03/10,2569,2594,2539,2565,1050100,2565
2014/03/11,2565,2584,2535,2579,1284100,2579
2014/03/12,2557,2557,2521,2525,923400,2525
2014/03/13,2548,2560,2505,2511,910900,2511
2014/03/14,2441,2449,2384,2404,3108000,2404
2014/03/17,2361,2412,2359,2386,798500,2386
2014/03/18,2402,2448,2402,2422,1052000,2422
2014/03/19,2484,2528,2454,2497,1808900,2497
2014/03/20,2497,2514,2464,2479,2147300,2479
2014/03/24,2504,2554,2488,2529,1402900,2529
2014/03/25,2523,2558,2515,2516,728000,2516
2014/03/26,2534,2551,2502,2529,1121300,2529
2014/03/27,2564,2622,2552,2617,1715500,2617
2014/03/28,2590,2616,2585,2612,665600,2612
2014/03/31,2632,2643,2613,2635,1124200,2635
2014/04/01,2636,2650,2609,2637,1348400,2637
2014/04/02,2621,2645,2594,2611,1310300,2611
2014/04/03,2622,2684,2611,2658,1103800,2658
2014/04/04,2650,2685,2650,2682,937700,2682
2014/04/07,2648,2669,2642,2651,672900,2651
2014/04/08,2614,2614,2524,2546,1902600,2546
2014/04/09,2484,2509,2462,2486,2477200,2486
2014/04/10,2524,2540,2509,2523,1355200,2523
2014/04/11,2444,2455,2413,2415,2829600,2415
2014/04/14,2412,2462,2405,2435,1037800,2435
2014/04/15,2479,2485,2433,2435,719900,2435
2014/04/16,2461,2480,2445,2480,968000,2480
2014/04/17,2465,2499,2458,2489,659300,2489
2014/04/18,2534,2547,2496,2546,756200,2546
2014/04/21,2565,2586,2528,2530,653900,2530
2014/04/22,2538,2555,2503,2503,582000,2503
2014/04/23,2533,2566,2510,2561,818000,2561
2014/04/24,2560,2562,2501,2522,775500,2522
2014/04/25,2600,2659,2595,2603,1478500,2603
2014/04/28,2573,2590,2561,2586,754000,2586
2014/04/30,2638,2640,2564,2577,925000,2577
2014/05/01,2626,2675,2623,2670,990500,2670
2014/05/02,2680,2695,2666,2685,983200,2685
2014/05/07,2636,2664,2609,2624,1165400,2624
2014/05/08,2638,2674,2625,2658,636500,2658
2014/05/09,2642,2678,2635,2659,715400,2659
2014/05/12,2658,2670,2634,2634,735400,2634
2014/05/13,2680,2698,2658,2676,729100,2676
2014/05/14,2691,2696,2676,2691,561100,2691
2014/05/15,2651,2682,2633,2673,559300,2673
2014/05/16,2611,2641,2603,2633,789000,2633
2014/05/19,2640,2700,2636,2667,997900,2667
2014/05/20,2688,2717,2674,2695,791900,2695
2014/05/21,2698,2759,2693,2735,987500,2735
2014/05/22,2752,2775,2745,2771,945300,2771
2014/05/23,2790,2829,2789,2804,903500,2804
2014/05/26,2800,2820,2776,2820,728100,2820
2014/05/27,2814,2860,2810,2826,987700,2826
2014/05/28,2835,2876,2830,2841,759500,2841
2014/05/29,2800,2831,2767,2800,854800,2800
2014/05/30,2794,2800,2714,2722,1865300,2722
2014/06/02,2706,2752,2700,2749,1590800,2749
2014/06/03,2786,2794,2759,2775,713500,2775
2014/06/04,2791,2807,2777,2802,700700,2802
2014/06/05,2805,2814,2773,2782,830800,2782
2014/06/06,2800,2800,2766,2785,953100,2785
2014/06/09,2815,2820,2776,2804,719700,2804
2014/06/10,2819,2819,2773,2778,637100,2778
2014/06/11,2794,2798,2776,2787,843400,2787
2014/06/12,2754,2777,2721,2746,1043000,2746
2014/06/13,2707,2783,2707,2772,1684100,2772
2014/06/16,2776,2776,2726,2734,778300,2734
2014/06/17,2762,2774,2744,2748,717200,2748
2014/06/18,2763,2800,2755,2792,644300,2792
2014/06/19,2789,2839,2787,2836,632400,2836
2014/06/20,2822,2889,2822,2853,1325500,2853
2014/06/23,2853,2877,2841,2853,730500,2853
2014/06/24,2859,2899,2845,2888,686900,2888
2014/06/25,2888,2896,2870,2884,550400,2884
2014/06/26,2897,2897,2873,2888,897100,2888
2014/06/27,2898,2899,2800,2848,1079500,2848
2014/06/30,2848,2863,2814,2855,1142100,2855
2014/07/01,2867,2935,2859,2909,968900,2909
2014/07/02,2908,2928,2898,2911,449000,2911
2014/07/03,2921,2921,2876,2889,682500,2889
2014/07/04,2916,2916,2835,2861,956900,2861
2014/07/07,2867,2873,2837,2838,688100,2838
2014/07/08,2831,2871,2811,2847,736100,2847
2014/07/09,2809,2860,2809,2858,502800,2858
2014/07/10,2860,2884,2847,2847,463200,2847
2014/07/11,2808,2867,2797,2846,893500,2846
2014/07/14,2818,2859,2811,2846,879500,2846
2014/07/15,2840,2918,2825,2893,1289000,2893
2014/07/16,2903,2953,2902,2932,970800,2932
2014/07/17,2932,2939,2901,2920,452600,2920
2014/07/18,3000,3075,2958,3005,1584100,3005
2014/07/22,2993,3020,2972,2999,815400,2999
2014/07/23,2999,3030,2981,3010,451100,3010
2014/07/24,3020,3065,2986,3050,1451400,3050
2014/07/25,3060,3380,3025,3350,3195500,3350
2014/07/28,3250,3340,3250,3325,2222600,3325
2014/07/29,3275,3380,3275,3350,1506500,3350
2014/07/30,3375,3495,3360,3490,1802800,3490
2014/07/31,3495,3510,3415,3460,1112700,3460
2014/08/01,3395,3435,3390,3405,1119300,3405
2014/08/04,3385,3465,3385,3445,749900,3445
2014/08/05,3475,3480,3410,3425,795400,3425
2014/08/06,3380,3400,3325,3340,1254400,3340
2014/08/07,3325,3415,3315,3410,1644500,3410
2014/08/08,3385,3445,3310,3345,1977400,3345
2014/08/11,3370,3395,3295,3300,2040500,3300
2014/08/12,3320,3345,3295,3335,1061100,3335
2014/08/13,3315,3355,3265,3295,1076700,3295
2014/08/14,3330,3350,3310,3315,1100700,3315
2014/08/15,3290,3345,3290,3315,811600,3315
2014/08/18,4015,4015,3685,3825,17517400,3825
2014/08/19,3750,3765,3625,3745,9510800,3745
2014/08/20,3665,3705,3640,3680,3077200,3680
2014/08/21,3705,3780,3670,3775,4367400,3775
2014/08/22,3730,3740,3650,3660,4255900,3660
2014/08/25,3345,3385,3310,3325,6310300,3325
2014/08/26,3360,3365,3315,3320,2174900,3320
2014/08/27,3300,3335,3275,3325,1429600,3325
2014/08/28,3300,3345,3290,3330,1456300,3330
2014/08/29,3325,3345,3265,3295,1733500,3295
2014/09/01,3290,3305,3270,3275,787000,3275
2014/09/02,3280,3280,3165,3180,2303400,3180
2014/09/03,3175,3190,3130,3155,1842200,3155
2014/09/04,3150,3165,3125,3125,900300,3125
2014/09/05,3205,3210,3150,3160,1248200,3160
2014/09/08,3170,3185,3125,3140,910400,3140
2014/09/09,3160,3175,3120,3120,1099700,3120
2014/09/10,3100,3170,3100,3150,1208500,3150
2014/09/11,3195,3230,3180,3220,1150800,3220
2014/09/12,3225,3240,3200,3215,2524500,3215
2014/09/16,3225,3225,3175,3190,1086900,3190
2014/09/17,3205,3245,3190,3200,815100,3200
2014/09/18,3220,3220,3185,3185,993200,3185
2014/09/19,3195,3245,3185,3220,1121200,3220
2014/09/22,3200,3200,3160,3165,863800,3165
2014/09/24,3170,3185,3120,3120,1277800,3120
2014/09/25,3165,3170,3125,3135,1176200,3135
2014/09/26,3110,3210,3110,3190,1620800,3190
2014/09/29,3190,3225,3155,3205,1553700,3205
2014/09/30,3210,3210,3150,3175,1794600,3175
2014/10/01,3210,3210,3135,3140,2289300,3140
2014/10/02,3165,3195,3100,3110,2406400,3110
2014/10/03,3080,3135,3045,3135,2311200,3135
2014/10/06,3180,3290,3165,3265,2186000,3265
2014/10/07,3260,3295,3225,3235,2073200,3235
2014/10/08,3250,3320,3235,3310,2140900,3310
2014/10/09,3330,3375,3290,3300,1890500,3300
2014/10/10,3295,3340,3285,3295,2094800,3295
2014/10/14,3220,3275,3200,3240,1656800,3240
2014/10/15,3240,3260,3185,3200,1230300,3200
2014/10/16,3115,3195,3110,3160,1448900,3160
2014/10/17,3190,3190,2999,3000,2258700,3000
2014/10/20,3080,3170,3080,3150,1443300,3150
2014/10/21,3125,3160,3055,3055,1351500,3055
2014/10/22,3090,3180,3085,3180,1423900,3180
2014/10/23,3145,3200,3135,3190,997700,3190
2014/10/24,3255,3265,3210,3260,799000,3260
2014/10/27,3300,3310,3175,3220,846900,3220
2014/10/28,3250,3255,3205,3215,840500,3215
2014/10/29,3215,3225,3150,3220,957000,3220
2014/10/30,3245,3290,3230,3260,1042600,3260
2014/10/31,3300,3450,3300,3415,2858900,3415
2014/11/04,3490,3495,3415,3425,1807000,3425
2014/11/05,3425,3485,3405,3470,1638100,3470
2014/11/06,3455,3475,3375,3390,1490700,3390
2014/11/07,3440,3445,3400,3420,1300900,3420
2014/11/10,3390,3410,3360,3375,937900,3375
2014/11/11,3365,3455,3355,3440,1115700,3440
2014/11/12,3455,3500,3440,3450,1168900,3450
2014/11/13,3450,3470,3405,3445,977300,3445
2014/11/14,3480,3480,3345,3390,2280000,3390
2014/11/17,3375,3380,3230,3250,1729200,3250
2014/11/18,3315,3360,3310,3340,968300,3340
2014/11/19,3340,3375,3305,3310,1078500,3310
2014/11/20,3325,3330,3290,3300,731200,3300
2014/11/21,3285,3300,3250,3275,964400,3275
2014/11/25,3275,3280,3210,3225,2675300,3225
2014/11/26,3210,3230,3195,3205,1164400,3205
2014/11/27,3185,3220,3140,3185,1775200,3185
2014/11/28,3240,3250,3205,3215,1139200,3215
2014/12/01,3205,3275,3200,3265,1045900,3265
2014/12/02,3245,3265,3230,3240,841800,3240
2014/12/03,3205,3215,3155,3160,1405600,3160
2014/12/04,3175,3185,3115,3135,1281000,3135
2014/12/05,3120,3225,3120,3220,1301600,3220
2014/12/08,3215,3245,3205,3225,1089400,3225
2014/12/09,3225,3300,3220,3280,1674600,3280
2014/12/10,3255,3275,3125,3150,1600900,3150
2014/12/11,3100,3105,3035,3060,1888200,3060
2014/12/12,3035,3055,2982,2993,3343500,2993
2014/12/15,2963,2999,2953,2954,1409200,2954
2014/12/16,2930,2955,2897,2903,2239400,2903
2014/12/17,2920,3095,2911,3060,2693000,3060
2014/12/18,3110,3135,3060,3085,1468400,3085
2014/12/19,3155,3175,3125,3150,1629400,3150
2014/12/22,3080,3085,3000,3010,2232300,3010
2014/12/24,3065,3065,3005,3045,1026100,3045
2014/12/25,3050,3060,3040,3050,530800,3050
2014/12/26,3020,3060,3020,3050,407900,3050
2014/12/29,3070,3070,2978,3025,721500,3025
2014/12/30,3000,3005,2964,2964,912700,2964
2015/01/05,2950,3015,2922,3000,919700,3000
2015/01/06,2931,2956,2883,2887,1855000,2887
2015/01/07,2862,2931,2862,2902,1287600,2902
2015/01/08,2907,3025,2902,3010,1594000,3010
2015/01/09,3070,3130,3065,3115,2879500,3115
2015/01/13,3125,3175,3120,3175,2275200,3175
2015/01/14,3145,3185,3130,3150,1738900,3150
2015/01/15,3150,3230,3150,3230,2471300,3230
2015/01/16,3100,3160,3055,3150,4146500,3150
2015/01/19,3145,3175,3110,3125,1291800,3125
2015/01/20,3125,3220,3110,3215,932900,3215
2015/01/21,3195,3205,3115,3150,1092600,3150
2015/01/22,3135,3140,3075,3130,1338600,3130
2015/01/23,3150,3150,3085,3115,831100,3115
2015/01/26,3080,3105,3045,3090,689600,3090
2015/01/27,3125,3165,3100,3165,849900,3165
2015/01/28,3165,3245,3135,3240,1296200,3240
2015/01/29,3410,3520,3390,3405,2892800,3405
2015/01/30,3420,3585,3420,3525,2857700,3525
2015/02/02,3515,3545,3495,3535,972900,3535
2015/02/03,3505,3520,3395,3420,1719000,3420
2015/02/04,3420,3495,3350,3475,1583000,3475
2015/02/05,3440,3465,3405,3425,1092600,3425
2015/02/06,3485,3520,3475,3490,1040200,3490
2015/02/09,3500,3505,3450,3505,990500,3505
2015/02/10,3455,3470,3395,3445,1050000,3445
2015/02/12,3510,3560,3490,3525,1426000,3525
2015/02/13,3515,3530,3485,3500,1226700,3500
2015/02/16,3480,3495,3400,3445,796400,3445
2015/02/17,3405,3435,3385,3410,816500,3410
2015/02/18,3410,3460,3355,3440,1246300,3440
2015/02/19,3470,3530,3460,3485,937800,3485
2015/02/20,3485,3495,3440,3455,879200,3455
2015/02/23,3500,3565,3500,3535,1711500,3535
2015/02/24,3530,3530,3455,3485,1257800,3485
2015/02/25,3575,3660,3545,3560,1955400,3560
2015/02/26,3525,3605,3525,3590,956700,3590
2015/02/27,3690,3695,3625,3645,1484400,3645
2015/03/02,3625,3660,3590,3605,742100,3605
2015/03/03,3660,3700,3655,3685,1364300,3685
2015/03/04,3685,3760,3665,3705,1467200,3705
2015/03/05,3690,3765,3690,3745,1189600,3745
2015/03/06,3775,3850,3765,3820,1431200,3820
2015/03/09,3795,3810,3725,3730,800900,3730
2015/03/10,3725,3775,3665,3715,1260500,3715
2015/03/11,3685,3775,3685,3740,863100,3740
2015/03/12,3800,3915,3795,3900,1733500,3900
2015/03/13,3900,3905,3780,3825,2760600,3825
2015/03/16,3780,3800,3675,3685,1917200,3685
2015/03/17,3730,3825,3710,3805,1419200,3805
2015/03/18,3785,3840,3780,3805,715200,3805
2015/03/19,3760,3800,3755,3785,903100,3785
2015/03/20,3775,3800,3745,3765,843500,3765
2015/03/23,3735,3815,3725,3730,958400,3730
2015/03/24,3770,3945,3770,3895,2408500,3895
2015/03/25,3910,3915,3835,3895,1156100,3895
2015/03/26,3830,3885,3800,3865,1104600,3865
2015/03/27,3855,3905,3810,3855,773700,3855
2015/03/30,3830,3930,3805,3900,912900,3900
2015/03/31,3940,3940,3785,3785,1530400,3785
2015/04/01,3770,3805,3715,3765,1447600,3765
2015/04/02,3785,3815,3745,3760,1213900,3760
2015/04/03,3755,3785,3745,3775,429100,3775
2015/04/06,3740,3815,3735,3805,420800,3805
2015/04/07,3845,3915,3795,3905,1079900,3905
2015/04/08,3925,3960,3875,3960,910000,3960
2015/04/09,3925,4000,3920,4000,819200,4000
2015/04/10,3995,3995,3915,3925,1274200,3925
2015/04/13,3950,3950,3880,3935,596700,3935
2015/04/14,3900,3930,3855,3865,573200,3865
2015/04/15,3865,3870,3720,3750,1655500,3750
2015/04/16,3755,3775,3705,3775,749500,3775
2015/04/17,3765,3770,3705,3720,755500,3720
2015/04/20,3655,3735,3645,3685,1360900,3685
2015/04/21,3690,3765,3675,3755,1127300,3755
2015/04/22,3810,3905,3770,3885,1317400,3885
2015/04/23,3875,3915,3820,3840,1134300,3840
2015/04/24,3890,3895,3800,3805,626400,3805
2015/04/27,3825,3830,3765,3780,606600,3780
2015/04/28,3840,3845,3740,3785,1116400,3785
2015/04/30,3700,3740,3640,3655,1940500,3655
2015/05/01,3670,3720,3660,3710,819200,3710
2015/05/07,3665,3705,3620,3685,1237000,3685
2015/05/08,3680,3710,3660,3690,1008000,3690
2015/05/11,3750,3755,3710,3750,786500,3750
2015/05/12,3760,3790,3730,3765,785300,3765
2015/05/13,3745,3750,3675,3750,939100,3750
2015/05/14,3845,3875,3710,3730,981800,3730
2015/05/15,3715,3770,3710,3760,608500,3760
2015/05/18,3760,3835,3750,3835,702900,3835
2015/05/19,3815,3900,3810,3885,1144000,3885
2015/05/20,3920,3925,3875,3895,854300,3895
2015/05/21,3855,3890,3820,3835,664200,3835
2015/05/22,3840,3855,3780,3810,541300,3810
2015/05/25,3820,3850,3805,3850,409000,3850
2015/05/26,3840,3850,3810,3815,568700,3815
2015/05/27,3820,3830,3770,3790,519100,3790
2015/05/28,3840,3860,3815,3825,804500,3825
2015/05/29,3795,3830,3720,3720,1629800,3720
2015/06/01,3720,3780,3710,3770,674700,3770
2015/06/02,3795,3880,3770,3875,1009600,3875
2015/06/03,3840,3855,3805,3815,733000,3815
2015/06/04,3780,3785,3750,3765,807600,3765
2015/06/05,3755,3765,3740,3755,606200,3755
2015/06/08,3795,3795,3760,3780,508200,3780
2015/06/09,3765,3805,3760,3760,906400,3760
2015/06/10,3780,3800,3740,3760,679700,3760
2015/06/11,3775,3885,3775,3885,867100,3885
2015/06/12,3940,3960,3865,3900,2153100,3900
2015/06/15,3835,3890,3830,3885,585300,3885
2015/06/16,3865,3875,3835,3840,426900,3840
2015/06/17,3830,3845,3785,3820,643000,3820
2015/06/18,3835,3860,3825,3840,616300,3840
2015/06/19,3840,3950,3820,3900,1266300,3900
2015/06/22,4000,4155,3995,4100,2539700,4100
2015/06/23,4060,4265,4060,4250,1597800,4250
2015/06/24,4240,4305,4225,4300,1278000,4300
2015/06/25,4290,4330,4270,4300,978200,4300
2015/06/26,4225,4315,4220,4280,939200,4280
2015/06/29,4180,4210,4140,4150,987200,4150
2015/06/30,4215,4295,4190,4225,1099600,4225
2015/07/01,4215,4250,4170,4235,563400,4235
2015/07/02,4290,4375,4280,4345,733900,4345
2015/07/03,4370,4400,4330,4375,765200,4375
2015/07/06,4310,4430,4290,4360,1028100,4360
2015/07/07,4425,4515,4410,4445,866700,4445
2015/07/08,4445,4510,4365,4365,923100,4365
2015/07/09,4250,4355,4210,4340,1168100,4340
2015/07/10,4340,4470,4295,4325,1787600,4325
2015/07/13,4345,4450,4300,4430,813500,4430
2015/07/14,4475,4490,4435,4450,563100,4450
2015/07/15,4495,4600,4465,4560,1240100,4560
2015/07/16,4570,4620,4525,4550,890700,4550
2015/07/17,4540,4600,4535,4570,762300,4570
2015/07/21,4580,4630,4575,4590,1120900,4590
2015/07/22,4595,4625,4535,4555,879800,4555
2015/07/23,4625,4730,4590,4715,1104300,4715
2015/07/24,4785,4785,4630,4655,1445900,4655
2015/07/27,4560,4615,4440,4485,1331800,4485
2015/07/28,4485,4525,4445,4480,866700,4480
2015/07/29,4530,4565,4480,4525,693900,4525
2015/07/30,4565,4585,4530,4560,1068200,4560
2015/07/31,4560,4565,4500,4510,794700,4510
2015/08/03,4515,4595,4510,4580,674300,4580
2015/08/04,4530,4675,4530,4635,992800,4635
2015/08/05,4750,4965,4670,4900,2066400,4900
2015/08/06,4895,5030,4875,4905,1760500,4905
2015/08/07,4835,4855,4725,4775,1291300,4775
2015/08/10,4795,4950,4785,4875,1003500,4875
2015/08/11,4835,4870,4730,4855,1137700,4855
2015/08/12,4835,4885,4720,4745,1087100,4745
2015/08/13,4840,5030,4820,4985,1663900,4985
2015/08/14,4970,5000,4900,4950,914800,4950
2015/08/17,4990,5080,4965,5030,951000,5030
2015/08/18,5060,5090,4965,5020,561200,5020
2015/08/19,5020,5070,4930,4940,665200,4940
2015/08/20,4940,4975,4835,4850,686800,4850
2015/08/21,4785,4795,4680,4695,778500,4695
2015/08/24,4575,4630,4440,4450,1524400,4450
2015/08/25,4380,4540,4280,4310,1855100,4310
2015/08/26,4245,4430,4230,4420,1498800,4420
2015/08/27,4485,4590,4470,4520,1078400,4520
2015/08/28,4650,4675,4545,4610,908000,4610
2015/08/31,4540,4560,4455,4535,1068100,4535
2015/09/01,4495,4510,4295,4295,931700,4295
2015/09/02,4210,4465,4205,4350,1649000,4350
2015/09/03,4360,4480,4270,4295,1492600,4295
2015/09/04,4310,4335,4120,4300,1722200,4300
2015/09/07,4285,4285,4175,4235,1224900,4235
2015/09/08,4265,4265,3950,3970,1330700,3970
2015/09/09,4095,4340,4070,4340,1529300,4340
2015/09/10,4175,4210,4100,4155,900900,4155
2015/09/11,4190,4315,4160,4260,2807100,4260
2015/09/14,4245,4305,4155,4155,903400,4155
2015/09/15,4205,4205,4095,4105,1372500,4105
2015/09/16,4145,4145,3980,4015,1290000,4015
2015/09/17,4055,4065,3955,3980,1194600,3980
2015/09/18,3985,4015,3900,3900,1511200,3900
2015/09/24,3850,3970,3820,3835,1231900,3835
2015/09/25,3870,3920,3805,3915,1177500,3915
2015/09/28,3850,3870,3760,3815,1339900,3815
2015/09/29,3750,3750,3580,3595,1712100,3595
2015/09/30,3620,3680,3580,3665,1357500,3665
2015/10/01,3765,3765,3595,3710,1500200,3710
2015/10/02,3685,3705,3605,3640,914200,3640
2015/10/05,3640,3710,3535,3680,1655900,3680
2015/10/06,3750,3790,3670,3725,1274500,3725
2015/10/07,3705,3710,3565,3625,1317000,3625
2015/10/08,3655,3660,3525,3535,2003700,3535
2015/10/09,3560,3635,3540,3635,2530100,3635
2015/10/13,3770,3795,3730,3755,2314200,3755
2015/10/14,3810,3825,3730,3745,1886000,3745
2015/10/15,3765,3855,3745,3815,1243800,3815
2015/10/16,3885,3935,3865,3880,1096600,3880
