2010/01/04,791,796,788,796,202000,1592
2010/01/05,798,800,787,788,456000,1576
2010/01/06,788,793,786,793,175000,1586
2010/01/07,790,793,786,790,158000,1580
2010/01/08,790,791,784,787,290000,1574
2010/01/12,781,784,771,777,434000,1554
2010/01/13,775,779,773,777,306000,1554
2010/01/14,778,784,776,783,245000,1566
2010/01/15,779,780,774,776,475000,1552
2010/01/18,776,781,775,778,279000,1556
2010/01/19,781,784,778,783,218000,1566
2010/01/20,787,787,782,786,249000,1572
2010/01/21,783,798,782,794,411000,1588
2010/01/22,790,790,781,786,277000,1572
2010/01/25,779,782,777,780,346000,1560
2010/01/26,776,777,769,769,572000,1538
2010/01/27,767,777,765,770,362000,1540
2010/01/28,771,775,765,773,215000,1546
2010/01/29,773,773,765,765,192000,1530
2010/02/01,765,775,758,773,366000,1546
2010/02/02,774,777,766,774,228000,1548
2010/02/03,777,783,775,781,256000,1562
2010/02/04,783,785,780,783,362000,1566
2010/02/05,780,781,774,774,431000,1548
2010/02/08,777,777,770,772,344000,1544
2010/02/09,771,771,763,766,325000,1532
2010/02/10,770,772,765,765,302000,1530
2010/02/12,766,770,766,769,318000,1538
2010/02/15,774,775,763,768,292000,1536
2010/02/16,769,774,765,767,267000,1534
2010/02/17,770,776,770,775,230000,1550
2010/02/18,780,785,777,785,312000,1570
2010/02/19,785,785,774,779,407000,1558
2010/02/22,786,791,783,785,357000,1570
2010/02/23,785,787,779,779,188000,1558
2010/02/24,776,785,775,783,359000,1566
2010/02/25,790,792,785,787,470000,1574
2010/02/26,790,791,786,788,252000,1576
2010/03/01,788,793,786,787,324000,1574
2010/03/02,787,791,787,789,218000,1578
2010/03/03,789,789,782,783,236000,1566
2010/03/04,783,784,776,776,383000,1552
2010/03/05,782,785,780,780,270000,1560
2010/03/08,790,790,782,782,274000,1564
2010/03/09,781,782,776,778,406000,1556
2010/03/10,779,779,772,772,282000,1544
2010/03/11,779,780,770,773,426000,1546
2010/03/12,773,776,771,772,500000,1544
2010/03/15,775,780,775,779,243000,1558
2010/03/16,782,782,777,777,234000,1554
2010/03/17,778,783,777,782,218000,1564
2010/03/18,785,793,784,790,207000,1580
2010/03/19,794,795,790,790,318000,1580
2010/03/23,792,794,790,790,304000,1580
2010/03/24,785,792,785,789,407000,1578
2010/03/25,787,790,786,788,305000,1576
2010/03/26,789,793,787,793,365000,1586
2010/03/29,771,775,764,774,314000,1548
2010/03/30,774,776,768,773,412000,1546
2010/03/31,773,775,768,771,345000,1542
2010/04/01,770,771,766,769,430000,1538
2010/04/02,771,772,767,769,277000,1538
2010/04/05,768,771,768,771,193000,1542
2010/04/06,771,774,768,768,247000,1536
2010/04/07,770,780,770,778,323000,1556
2010/04/08,775,780,774,777,236000,1554
2010/04/09,777,782,775,782,252000,1564
2010/04/12,779,781,778,778,193000,1556
2010/04/13,778,778,772,775,277000,1550
2010/04/14,775,779,773,774,227000,1548
2010/04/15,775,777,771,773,300000,1546
2010/04/16,773,773,769,771,203000,1542
2010/04/19,765,768,765,767,246000,1534
2010/04/20,767,767,764,767,216000,1534
2010/04/21,766,769,765,768,324000,1536
2010/04/22,765,765,758,762,299000,1524
2010/04/23,760,764,758,764,300000,1528
2010/04/26,763,766,761,763,290000,1526
2010/04/27,767,767,763,763,268000,1526
2010/04/28,760,761,754,755,405000,1510
2010/04/30,760,763,757,763,269000,1526
2010/05/06,759,759,750,753,399000,1506
2010/05/07,746,746,736,736,513000,1472
2010/05/10,736,744,734,744,280000,1488
2010/05/11,752,781,750,767,460000,1534
2010/05/12,772,783,769,777,1019000,1554
2010/05/13,780,790,777,790,566000,1580
2010/05/14,785,792,780,788,514000,1576
2010/05/17,790,792,784,792,648000,1584
2010/05/18,792,796,789,794,516000,1588
2010/05/19,790,794,784,789,368000,1578
2010/05/20,790,790,784,789,414000,1578
2010/05/21,774,782,770,775,534000,1550
2010/05/24,775,787,774,784,444000,1568
2010/05/25,784,788,779,782,400000,1564
2010/05/26,782,784,774,774,547000,1548
2010/05/27,770,770,755,756,838000,1512
2010/05/28,766,767,758,762,356000,1524
2010/05/31,761,782,761,778,402000,1556
2010/06/01,773,782,770,778,271000,1556
2010/06/02,779,787,776,780,278000,1560
2010/06/03,785,788,780,785,264000,1570
2010/06/04,782,785,782,783,242000,1566
2010/06/07,775,780,775,777,236000,1554
2010/06/08,792,797,784,794,511000,1588
2010/06/09,797,797,793,795,419000,1590
2010/06/10,797,812,793,811,750000,1622
2010/06/11,815,816,808,814,384000,1628
2010/06/14,814,815,809,811,303000,1622
2010/06/15,806,812,799,812,317000,1624
2010/06/16,817,825,811,823,466000,1646
2010/06/17,823,834,821,833,489000,1666
2010/06/18,833,833,823,830,414000,1660
2010/06/21,833,833,826,833,342000,1666
2010/06/22,836,845,836,841,584000,1682
2010/06/23,828,833,826,830,294000,1660
2010/06/24,828,847,826,845,461000,1690
2010/06/25,846,850,839,845,565000,1690
2010/06/28,849,862,847,854,449000,1708
2010/06/29,852,852,841,846,367000,1692
2010/06/30,859,883,855,881,1311000,1762
2010/07/01,880,892,869,871,1268000,1742
2010/07/02,876,884,874,881,556000,1762
2010/07/05,882,888,882,883,446000,1766
2010/07/06,883,885,876,880,553000,1760
2010/07/07,878,878,869,876,480000,1752
2010/07/08,881,893,880,882,568000,1764
2010/07/09,882,885,874,877,369000,1754
2010/07/12,877,888,875,876,333000,1752
2010/07/13,876,880,862,863,447000,1726
2010/07/14,866,875,866,873,333000,1746
2010/07/15,873,874,861,863,363000,1726
2010/07/16,865,874,851,854,477000,1708
2010/07/20,862,874,860,866,408000,1732
2010/07/21,866,872,859,863,444000,1726
2010/07/22,864,873,864,872,332000,1744
2010/07/23,875,883,869,874,408000,1748
2010/07/26,875,875,867,869,283000,1738
2010/07/27,868,878,868,872,249000,1744
2010/07/28,874,875,870,874,178000,1748
2010/07/29,867,871,865,865,216000,1730
2010/07/30,865,865,851,854,313000,1708
2010/08/02,853,863,851,854,196000,1708
2010/08/03,862,862,845,858,272000,1716
2010/08/04,857,860,843,844,498000,1688
2010/08/05,850,863,846,862,401000,1724
2010/08/06,864,885,864,881,498000,1762
2010/08/09,882,895,882,895,442000,1790
2010/08/10,897,904,888,893,464000,1786
2010/08/11,896,902,890,894,496000,1788
2010/08/12,883,889,879,886,341000,1772
2010/08/13,886,893,884,890,326000,1780
2010/08/16,890,902,884,901,314000,1802
2010/08/17,901,907,894,903,438000,1806
2010/08/18,905,914,905,911,610000,1822
2010/08/19,911,914,908,910,420000,1820
2010/08/20,910,910,903,904,392000,1808
2010/08/23,904,909,902,907,312000,1814
2010/08/24,907,923,907,921,534000,1842
2010/08/25,920,921,910,913,456000,1826
2010/08/26,914,919,911,919,354000,1838
2010/08/27,919,930,914,918,1049000,1836
2010/08/30,920,936,919,930,473000,1860
2010/08/31,930,934,908,910,556000,1820
2010/09/01,910,921,907,920,432000,1840
2010/09/02,926,927,912,918,306000,1836
2010/09/03,918,928,918,924,268000,1848
2010/09/06,924,949,924,948,530000,1896
2010/09/07,948,948,938,942,399000,1884
2010/09/08,939,940,913,924,551000,1848
2010/09/09,926,931,914,918,564000,1836
2010/09/10,916,924,901,903,899000,1806
2010/09/13,903,904,884,887,965000,1774
2010/09/14,889,889,875,876,795000,1752
2010/09/15,870,882,869,875,865000,1750
2010/09/16,885,891,877,881,532000,1762
2010/09/17,886,891,882,887,346000,1774
2010/09/21,894,895,889,890,331000,1780
2010/09/22,894,896,889,892,245000,1784
2010/09/24,892,895,888,888,336000,1776
2010/09/27,888,892,886,890,297000,1780
2010/09/28,872,880,866,880,292000,1760
2010/09/29,876,886,876,885,367000,1770
2010/09/30,878,888,870,870,401000,1740
2010/10/01,869,881,868,877,401000,1754
2010/10/04,885,885,867,869,494000,1738
2010/10/05,868,887,864,884,544000,1768
2010/10/06,887,898,882,888,524000,1776
2010/10/07,891,896,880,884,326000,1768
2010/10/08,883,893,879,879,355000,1758
2010/10/12,881,881,852,854,333000,1708
2010/10/13,856,877,856,866,453000,1732
2010/10/14,873,885,870,882,454000,1764
2010/10/15,883,883,872,880,326000,1760
2010/10/18,880,897,880,891,327000,1782
2010/10/19,892,905,891,901,410000,1802
2010/10/20,902,902,886,899,501000,1798
2010/10/21,899,904,892,897,319000,1794
2010/10/22,891,902,890,901,197000,1802
2010/10/25,895,900,887,888,281000,1776
2010/10/26,880,892,879,881,509000,1762
2010/10/27,879,888,876,883,305000,1766
2010/10/28,876,884,876,876,504000,1752
2010/10/29,869,886,863,882,317000,1764
2010/11/01,880,880,868,872,338000,1744
2010/11/02,872,876,868,874,220000,1748
2010/11/04,874,942,874,936,947000,1872
2010/11/05,936,938,909,912,1016000,1824
2010/11/08,911,926,901,926,407000,1852
2010/11/09,926,939,924,933,344000,1866
2010/11/10,928,938,922,929,227000,1858
2010/11/11,914,927,912,915,343000,1830
2010/11/12,917,924,911,914,190000,1828
2010/11/15,914,917,910,914,179000,1828
2010/11/16,914,914,900,906,372000,1812
2010/11/17,894,901,894,899,319000,1798
2010/11/18,904,937,902,932,715000,1864
2010/11/19,933,935,927,932,344000,1864
2010/11/22,934,939,930,937,257000,1874
2010/11/24,927,940,921,936,270000,1872
2010/11/25,933,935,923,930,184000,1860
2010/11/26,922,931,918,928,202000,1856
2010/11/29,920,924,916,919,342000,1838
2010/11/30,920,927,917,917,358000,1834
2010/12/01,917,925,916,925,234000,1850
2010/12/02,928,932,918,920,340000,1840
2010/12/03,934,934,919,923,301000,1846
2010/12/06,927,928,922,928,250000,1856
2010/12/07,922,932,914,932,360000,1864
2010/12/08,932,944,927,942,387000,1884
2010/12/09,942,947,940,944,181000,1888
2010/12/10,947,947,938,942,356000,1884
2010/12/13,937,948,935,946,202000,1892
2010/12/14,950,959,946,958,362000,1916
2010/12/15,961,965,953,965,284000,1930
2010/12/16,963,981,963,978,479000,1956
2010/12/17,976,990,975,989,397000,1978
2010/12/20,999,1000,982,987,426000,1974
2010/12/21,982,989,977,986,283000,1972
2010/12/22,983,987,978,980,235000,1960
2010/12/24,980,995,980,991,308000,1982
2010/12/27,993,995,989,990,176000,1980
2010/12/28,986,994,986,990,172000,1980
2010/12/29,990,992,986,991,199000,1982
2010/12/30,990,992,986,986,130000,1972
2011/01/04,995,1003,987,1000,279000,2000
2011/01/05,1000,1000,989,997,252000,1994
2011/01/06,996,997,990,991,172000,1982
2011/01/07,991,994,989,989,149000,1978
2011/01/11,992,1007,992,1004,327000,2008
2011/01/12,1003,1024,1000,1003,442000,2006
2011/01/13,1006,1016,1005,1016,261000,2032
2011/01/14,1008,1024,1008,1022,321000,2044
2011/01/17,1023,1028,1021,1021,194000,2042
2011/01/18,1021,1021,1015,1017,143000,2034
2011/01/19,1012,1012,1006,1011,157000,2022
2011/01/20,1012,1018,1009,1018,186000,2036
2011/01/21,1013,1038,1011,1020,454000,2040
2011/01/24,1020,1041,1014,1039,441000,2078
2011/01/25,1037,1048,1035,1045,275000,2090
2011/01/26,1044,1044,1025,1029,343000,2058
2011/01/27,1032,1046,1032,1044,313000,2088
2011/01/28,1039,1044,1035,1035,216000,2070
2011/01/31,1022,1037,1018,1034,207000,2068
2011/02/01,1038,1040,1029,1039,211000,2078
2011/02/02,1043,1049,1039,1047,255000,2094
2011/02/03,1032,1049,1032,1049,256000,2098
2011/02/04,1047,1077,1047,1056,448000,2112
2011/02/07,1057,1060,1053,1057,344000,2114
2011/02/08,1047,1048,1031,1035,557000,2070
2011/02/09,1043,1049,1042,1045,312000,2090
2011/02/10,1042,1045,1039,1043,285000,2086
2011/02/14,1053,1057,1047,1052,344000,2104
2011/02/15,1059,1068,1052,1064,257000,2128
2011/02/16,1069,1075,1065,1066,363000,2132
2011/02/17,1071,1072,1059,1067,314000,2134
2011/02/18,1063,1068,1060,1064,296000,2128
2011/02/21,1059,1071,1059,1064,231000,2128
2011/02/22,1064,1064,1058,1061,267000,2122
2011/02/23,1061,1066,1056,1056,243000,2112
2011/02/24,1059,1061,1052,1053,271000,2106
2011/02/25,1047,1047,1027,1039,389000,2078
2011/02/28,1034,1043,1023,1043,352000,2086
2011/03/01,1043,1059,1040,1049,283000,2098
2011/03/02,1038,1038,1025,1026,240000,2052
2011/03/03,1026,1039,1016,1036,356000,2072
2011/03/04,1045,1046,1031,1032,245000,2064
2011/03/07,1036,1036,1025,1026,211000,2052
2011/03/08,1027,1034,1022,1031,247000,2062
2011/03/09,1039,1051,1036,1048,456000,2096
2011/03/10,1052,1058,1039,1043,482000,2086
2011/03/11,1037,1038,1028,1029,487000,2058
2011/03/14,941,1005,939,954,536000,1908
2011/03/15,937,943,827,835,786000,1670
2011/03/16,850,900,841,899,698000,1798
2011/03/17,874,947,865,937,898000,1874
2011/03/18,939,958,939,941,417000,1882
2011/03/22,971,983,954,978,509000,1956
2011/03/23,980,984,957,961,378000,1922
2011/03/24,966,970,958,965,310000,1930
2011/03/25,980,983,962,980,291000,1960
2011/03/28,980,982,972,982,252000,1964
2011/03/29,962,972,950,971,266000,1942
2011/03/30,956,971,951,970,445000,1940
2011/03/31,980,996,974,994,375000,1988
2011/04/01,1009,1017,992,992,361000,1984
2011/04/04,1002,1008,989,992,247000,1984
2011/04/05,992,1000,982,988,326000,1976
2011/04/06,993,993,980,981,189000,1962
2011/04/07,990,1006,987,1006,560000,2012
2011/04/08,1009,1045,1008,1034,632000,2068
2011/04/11,1037,1038,1018,1030,232000,2060
2011/04/12,1030,1035,1021,1032,341000,2064
2011/04/13,1033,1039,1025,1034,427000,2068
2011/04/14,1031,1034,1022,1033,351000,2066
2011/04/15,1032,1033,1020,1024,385000,2048
2011/04/18,1025,1032,1024,1029,137000,2058
2011/04/19,1030,1042,1029,1042,333000,2084
2011/04/20,1041,1047,1034,1040,298000,2080
2011/04/21,1039,1042,1033,1040,172000,2080
2011/04/22,1039,1043,1034,1035,166000,2070
2011/04/25,1027,1033,1026,1028,165000,2056
2011/04/26,1022,1023,1016,1023,153000,2046
2011/04/27,1024,1029,1019,1027,214000,2054
2011/04/28,1029,1048,1023,1047,284000,2094
2011/05/02,1043,1057,1041,1055,192000,2110
2011/05/06,1052,1058,1044,1056,204000,2112
2011/05/09,1056,1058,1051,1054,215000,2108
2011/05/10,1057,1070,1055,1066,234000,2132
2011/05/11,1067,1078,1061,1064,246000,2128
2011/05/12,1066,1089,1055,1087,1028000,2174
2011/05/13,1095,1102,1074,1089,676000,2178
2011/05/16,1085,1096,1083,1085,250000,2170
2011/05/17,1085,1089,1080,1080,225000,2160
2011/05/18,1080,1094,1080,1086,277000,2172
2011/05/19,1099,1155,1098,1144,1481000,2288
2011/05/20,1137,1146,1125,1134,615000,2268
2011/05/23,1134,1148,1134,1142,380000,2284
2011/05/24,1139,1166,1138,1155,431000,2310
2011/05/25,1156,1156,1138,1143,461000,2286
2011/05/26,1144,1157,1144,1147,270000,2294
2011/05/27,1148,1158,1143,1147,209000,2294
2011/05/30,1143,1146,1134,1139,239000,2278
2011/05/31,1140,1159,1134,1146,689000,2292
2011/06/01,1146,1165,1136,1163,470000,2326
2011/06/02,1159,1165,1150,1163,321000,2326
2011/06/03,1163,1163,1143,1147,353000,2294
2011/06/06,1145,1158,1144,1151,275000,2302
2011/06/07,1158,1158,1146,1147,271000,2294
2011/06/08,1147,1157,1143,1156,272000,2312
2011/06/09,1156,1161,1148,1160,257000,2320
2011/06/10,1162,1175,1157,1168,457000,2336
2011/06/13,1174,1174,1160,1164,217000,2328
2011/06/14,1165,1185,1164,1179,398000,2358
2011/06/15,1179,1183,1174,1181,284000,2362
2011/06/16,1179,1179,1164,1164,238000,2328
2011/06/17,1165,1176,1135,1135,443000,2270
2011/06/20,1136,1157,1136,1147,213000,2294
2011/06/21,1144,1154,1136,1144,153000,2288
2011/06/22,1138,1139,1098,1116,803000,2232
2011/06/23,1115,1131,1114,1126,329000,2252
2011/06/24,1126,1130,1111,1115,224000,2230
2011/06/27,1105,1105,1095,1101,289000,2202
2011/06/28,1101,1103,1094,1099,255000,2198
2011/06/29,1110,1116,1102,1116,191000,2232
2011/06/30,1120,1127,1116,1127,367000,2254
2011/07/01,1135,1143,1127,1127,300000,2254
2011/07/04,1125,1134,1125,1131,260000,2262
2011/07/05,1139,1139,1117,1121,313000,2242
2011/07/06,1120,1128,1113,1126,217000,2252
2011/07/07,1120,1122,1114,1122,176000,2244
2011/07/08,1119,1123,1115,1115,292000,2230
2011/07/11,1106,1115,1103,1111,279000,2222
2011/07/12,1104,1109,1099,1106,440000,2212
2011/07/13,1108,1117,1102,1102,337000,2204
2011/07/14,1102,1107,1098,1101,132000,2202
2011/07/15,1102,1110,1102,1106,353000,2212
2011/07/19,1106,1110,1101,1102,300000,2204
2011/07/20,1115,1116,1098,1102,377000,2204
2011/07/21,1106,1106,1094,1097,186000,2194
2011/07/22,1100,1105,1093,1101,390000,2202
2011/07/25,1105,1120,1102,1114,358000,2228
2011/07/26,1119,1136,1118,1122,443000,2244
2011/07/27,1124,1124,1104,1111,325000,2222
2011/07/28,1104,1113,1100,1106,294000,2212
2011/07/29,1108,1108,1088,1089,375000,2178
2011/08/01,1089,1109,1089,1094,256000,2188
2011/08/02,1090,1090,1085,1087,209000,2174
2011/08/03,1070,1077,1061,1062,394000,2124
2011/08/04,1060,1077,1057,1065,273000,2130
2011/08/05,1045,1047,1026,1038,529000,2076
2011/08/08,1040,1055,1035,1045,595000,2090
2011/08/09,1025,1054,1017,1052,564000,2104
2011/08/10,1055,1061,1049,1053,425000,2106
2011/08/11,1053,1070,1050,1065,380000,2130
2011/08/12,1075,1079,1067,1074,303000,2148
2011/08/15,1076,1082,1067,1075,220000,2150
2011/08/16,1076,1081,1070,1081,256000,2162
2011/08/17,1088,1092,1081,1088,322000,2176
2011/08/18,1089,1103,1088,1100,324000,2200
2011/08/19,1092,1099,1085,1091,285000,2182
2011/08/22,1091,1102,1091,1098,350000,2196
2011/08/23,1098,1107,1096,1101,504000,2202
2011/08/24,1102,1102,1079,1084,330000,2168
2011/08/25,1084,1088,1066,1066,282000,2132
2011/08/26,1079,1079,1060,1066,310000,2132
2011/08/29,1068,1088,1068,1080,429000,2160
2011/08/30,1080,1082,1063,1071,307000,2142
2011/08/31,1066,1071,1059,1066,284000,2132
2011/09/01,1067,1072,1053,1059,253000,2118
2011/09/02,1052,1063,1047,1060,150000,2120
2011/09/05,1053,1060,1053,1057,79000,2114
2011/09/06,1058,1071,1058,1062,203000,2124
2011/09/07,1064,1066,1048,1062,269000,2124
2011/09/08,1060,1069,1058,1069,273000,2138
2011/09/09,1061,1067,1060,1062,344000,2124
2011/09/12,1045,1051,1041,1046,341000,2092
2011/09/13,1055,1055,1044,1045,224000,2090
2011/09/14,1045,1049,1036,1037,181000,2074
2011/09/15,1042,1053,1037,1043,315000,2086
2011/09/16,1046,1049,1041,1049,207000,2098
2011/09/20,1051,1052,1042,1043,208000,2086
2011/09/21,1045,1047,1037,1037,213000,2074
2011/09/22,1037,1040,1026,1029,285000,2058
2011/09/26,1027,1039,1014,1023,362000,2046
2011/09/27,1039,1039,1021,1036,278000,2072
2011/09/28,1036,1051,1024,1048,392000,2096
2011/09/29,1048,1069,1047,1069,370000,2138
2011/09/30,1067,1081,1062,1081,548000,2162
2011/10/03,1081,1088,1068,1080,328000,2160
2011/10/04,1067,1081,1060,1068,202000,2136
2011/10/05,1057,1058,1012,1014,445000,2028
2011/10/06,1018,1028,1018,1023,211000,2046
2011/10/07,1032,1032,1009,1009,264000,2018
2011/10/11,1012,1021,998,1009,260000,2018
2011/10/12,1004,1015,995,1000,229000,2000
2011/10/13,1000,1003,992,994,273000,1988
2011/10/14,990,991,960,960,339000,1920
2011/10/17,966,997,966,996,355000,1992
2011/10/18,995,995,974,976,197000,1952
2011/10/19,978,1003,978,999,219000,1998
2011/10/20,1006,1009,990,997,229000,1994
2011/10/21,1006,1006,999,1000,140000,2000
2011/10/24,1007,1016,1004,1011,312000,2022
2011/10/25,1015,1016,997,1002,239000,2004
2011/10/26,993,998,982,992,230000,1984
2011/10/27,985,1008,985,992,239000,1984
2011/10/28,999,1019,998,1010,640000,2020
2011/10/31,1005,1026,986,989,290000,1978
2011/11/01,985,994,975,976,317000,1952
2011/11/02,968,973,955,963,234000,1926
2011/11/04,971,979,966,974,237000,1948
2011/11/07,980,985,969,977,237000,1954
2011/11/08,987,992,980,983,157000,1966
2011/11/09,999,1010,990,1010,283000,2020
2011/11/10,1000,1001,988,998,233000,1996
2011/11/11,998,998,977,981,224000,1962
2011/11/14,986,994,983,990,189000,1980
2011/11/15,997,1005,990,994,310000,1988
2011/11/16,986,991,975,975,144000,1950
2011/11/17,977,977,964,971,184000,1942
2011/11/18,962,973,962,970,220000,1940
2011/11/21,972,977,963,972,136000,1944
2011/11/22,970,971,963,966,192000,1932
2011/11/24,952,954,945,945,205000,1890
2011/11/25,941,951,938,938,219000,1876
2011/11/28,935,939,919,923,336000,1846
2011/11/29,923,933,920,933,245000,1866
2011/11/30,924,938,921,934,323000,1868
2011/12/01,964,964,936,936,256000,1872
2011/12/02,950,964,944,962,223000,1924
2011/12/05,972,986,968,979,248000,1958
2011/12/06,973,974,963,965,181000,1930
2011/12/07,969,986,968,983,200000,1966
2011/12/08,978,1009,976,1005,275000,2010
2011/12/09,995,1006,995,1002,297000,2004
2011/12/12,1018,1020,1004,1010,246000,2020
2011/12/13,1006,1022,1002,1015,261000,2030
2011/12/14,1015,1021,1008,1010,253000,2020
2011/12/15,1006,1007,988,992,263000,1984
2011/12/16,992,1013,986,986,235000,1972
2011/12/19,992,1024,987,1021,412000,2042
2011/12/20,1034,1035,1007,1011,301000,2022
2011/12/21,1021,1026,1011,1025,202000,2050
2011/12/22,1020,1034,1020,1024,265000,2048
2011/12/26,1025,1031,1022,1028,150000,2056
2011/12/27,1023,1025,1017,1023,65000,2046
2011/12/28,1024,1026,1018,1021,127000,2042
2011/12/29,1021,1022,1012,1019,151000,2038
2011/12/30,1015,1026,1015,1023,119000,2046
2012/01/04,1020,1036,1020,1024,265000,2048
2012/01/05,1017,1029,1017,1028,161000,2056
2012/01/06,1021,1021,999,1007,252000,2014
2012/01/10,1008,1020,1003,1003,181000,2006
2012/01/11,1010,1012,1003,1005,86000,2010
2012/01/12,1005,1006,981,983,265000,1966
2012/01/13,993,1001,990,1001,218000,2002
2012/01/16,998,998,986,993,118000,1986
2012/01/17,995,997,992,997,135000,1994
2012/01/18,993,1006,987,999,130000,1998
2012/01/19,1000,1009,996,998,173000,1996
2012/01/20,1000,1006,1000,1000,121000,2000
2012/01/23,1000,1001,992,1001,146000,2002
2012/01/24,1001,1008,999,1004,147000,2008
2012/01/25,1000,1006,996,997,258000,1994
2012/01/26,1005,1007,998,999,131000,1998
2012/01/27,1000,1003,996,1000,99000,2000
2012/01/30,1003,1006,999,1004,101000,2008
2012/01/31,1005,1009,1000,1003,179000,2006
2012/02/01,1001,1009,1001,1004,119000,2008
2012/02/02,1010,1020,1006,1011,145000,2022
2012/02/03,1011,1013,1008,1009,118000,2018
2012/02/06,1010,1015,1007,1011,178000,2022
2012/02/07,1016,1028,1013,1026,259000,2052
2012/02/08,1025,1025,1007,1011,271000,2022
2012/02/09,1007,1012,1004,1005,249000,2010
2012/02/10,1006,1006,996,998,246000,1996
2012/02/13,998,1002,997,999,142000,1998
2012/02/14,1003,1020,1003,1015,295000,2030
2012/02/15,1023,1023,1010,1015,183000,2030
2012/02/16,1015,1020,1005,1008,198000,2016
2012/02/17,1012,1017,1010,1013,163000,2026
2012/02/20,1013,1016,1008,1008,177000,2016
2012/02/21,1008,1020,1008,1018,141000,2036
2012/02/22,1018,1030,1015,1029,235000,2058
2012/02/23,1030,1039,1028,1032,242000,2064
2012/02/24,1034,1037,1026,1028,205000,2056
2012/02/27,1034,1035,1026,1032,211000,2064
2012/02/28,1034,1041,1033,1040,280000,2080
2012/02/29,1044,1047,1027,1029,457000,2058
2012/03/01,1031,1033,1010,1021,344000,2042
2012/03/02,1033,1050,1029,1049,424000,2098
2012/03/05,1049,1066,1049,1052,278000,2104
2012/03/06,1051,1064,1050,1060,202000,2120
2012/03/07,1052,1070,1052,1070,377000,2140
2012/03/08,1075,1078,1061,1065,201000,2130
2012/03/09,1071,1077,1062,1066,310000,2132
2012/03/12,1067,1069,1058,1063,282000,2126
2012/03/13,1066,1068,1054,1054,222000,2108
2012/03/14,1068,1068,1053,1053,203000,2106
2012/03/15,1056,1064,1055,1063,176000,2126
2012/03/16,1059,1063,1057,1059,128000,2118
2012/03/19,1062,1064,1060,1061,139000,2122
2012/03/21,1065,1065,1051,1055,366000,2110
2012/03/22,1056,1067,1056,1061,164000,2122
2012/03/23,1061,1066,1055,1060,216000,2120
2012/03/26,1063,1063,1056,1057,292000,2114
2012/03/27,1061,1065,1058,1065,289000,2130
2012/03/28,1046,1046,1030,1041,285000,2082
2012/03/29,1040,1055,1040,1051,185000,2102
2012/03/30,1054,1054,1039,1043,399000,2086
2012/04/02,1045,1045,1030,1038,302000,2076
2012/04/03,1045,1045,1014,1016,291000,2032
2012/04/04,1013,1019,1006,1014,249000,2028
2012/04/05,1008,1013,1003,1003,141000,2006
2012/04/06,997,1003,996,1001,161000,2002
2012/04/09,1000,1002,991,991,138000,1982
2012/04/10,991,996,989,992,250000,1984
2012/04/11,985,995,981,990,222000,1980
2012/04/12,998,998,983,984,208000,1968
2012/04/13,983,991,981,985,242000,1970
2012/04/16,987,1002,982,996,285000,1992
2012/04/17,994,1000,991,996,170000,1992
2012/04/18,1000,1009,997,1009,327000,2018
2012/04/19,1010,1010,997,999,151000,1998
2012/04/20,1004,1007,1000,1000,194000,2000
2012/04/23,997,1004,997,1000,192000,2000
2012/04/24,995,999,991,992,135000,1984
2012/04/25,1000,1003,995,999,147000,1998
2012/04/26,998,1003,990,992,169000,1984
2012/04/27,991,994,982,988,252000,1976
2012/05/01,991,994,982,983,166000,1966
2012/05/02,983,994,980,994,252000,1988
2012/05/07,980,991,978,984,181000,1968
2012/05/08,980,984,974,978,263000,1956
2012/05/09,973,975,969,969,224000,1938
2012/05/10,963,974,958,962,241000,1924
2012/05/11,962,967,951,952,208000,1904
2012/05/14,960,981,939,973,895000,1946
2012/05/15,976,999,976,981,795000,1962
2012/05/16,994,997,985,995,760000,1990
2012/05/17,999,1011,999,1005,746000,2010
2012/05/18,1005,1011,996,999,577000,1998
2012/05/21,1000,1015,999,1014,361000,2028
2012/05/22,1018,1024,1016,1019,394000,2038
2012/05/23,1021,1024,1015,1018,326000,2036
2012/05/24,1015,1021,1005,1010,211000,2020
2012/05/25,1010,1023,1009,1018,212000,2036
2012/05/28,1011,1013,1007,1008,249000,2016
2012/05/29,1007,1013,1001,1011,282000,2022
2012/05/30,999,1015,997,1009,346000,2018
2012/05/31,997,1020,997,1020,441000,2040
2012/06/01,1020,1027,1016,1023,313000,2046
2012/06/04,1015,1029,1015,1027,303000,2054
2012/06/05,1027,1044,1021,1041,413000,2082
2012/06/06,1039,1046,1023,1030,404000,2060
2012/06/07,1030,1043,1025,1040,203000,2080
2012/06/08,1042,1042,1029,1037,232000,2074
2012/06/11,1039,1039,1025,1026,204000,2052
2012/06/12,1026,1032,1019,1029,209000,2058
2012/06/13,1030,1038,1030,1031,158000,2062
2012/06/14,1031,1033,1011,1013,327000,2026
2012/06/15,1014,1049,1014,1041,552000,2082
2012/06/18,1048,1056,1048,1051,285000,2102
2012/06/19,1062,1072,1058,1063,415000,2126
2012/06/20,1080,1085,1077,1078,322000,2156
2012/06/21,1078,1087,1075,1086,392000,2172
2012/06/22,1082,1099,1078,1096,321000,2192
2012/06/25,1086,1098,1086,1091,195000,2182
2012/06/26,1086,1106,1086,1088,297000,2176
2012/06/27,1090,1098,1085,1098,190000,2196
2012/06/28,1093,1107,1093,1103,241000,2206
2012/06/29,1096,1122,1096,1118,246000,2236
2012/07/02,1124,1127,1111,1111,202000,2222
2012/07/03,1112,1131,1112,1131,252000,2262
2012/07/04,1133,1133,1122,1126,234000,2252
2012/07/05,1140,1141,1124,1128,209000,2256
2012/07/06,1129,1129,1101,1107,199000,2214
2012/07/09,1102,1121,1102,1119,133000,2238
2012/07/10,1120,1131,1116,1129,266000,2258
2012/07/11,1132,1132,1112,1118,314000,2236
2012/07/12,1116,1126,1111,1120,193000,2240
2012/07/13,1121,1135,1121,1129,208000,2258
2012/07/17,1129,1138,1125,1133,245000,2266
2012/07/18,1140,1148,1129,1133,264000,2266
2012/07/19,1140,1148,1135,1147,213000,2294
2012/07/20,1148,1148,1120,1122,262000,2244
2012/07/23,1111,1124,1105,1105,179000,2210
2012/07/24,1110,1117,1101,1105,303000,2210
2012/07/25,1101,1117,1096,1106,202000,2212
2012/07/26,1113,1114,1096,1112,238000,2224
2012/07/27,1113,1114,1098,1102,78000,2204
2012/07/30,1105,1111,1096,1111,132000,2222
2012/07/31,1110,1118,1105,1111,151000,2222
2012/08/01,1101,1114,1101,1113,182000,2226
2012/08/02,1113,1132,1113,1125,242000,2250
2012/08/03,1110,1118,1076,1077,251000,2154
2012/08/06,1080,1097,1079,1096,227000,2192
2012/08/07,1096,1105,1091,1100,275000,2200
2012/08/08,1104,1111,1099,1103,244000,2206
2012/08/09,1110,1117,1101,1114,324000,2228
2012/08/10,1114,1117,1103,1111,130000,2222
2012/08/13,1107,1114,1106,1107,117000,2214
2012/08/14,1107,1129,1105,1126,175000,2252
2012/08/15,1126,1127,1120,1126,60000,2252
2012/08/16,1126,1132,1117,1120,238000,2240
2012/08/17,1125,1127,1111,1115,259000,2230
2012/08/20,1109,1119,1108,1111,182000,2222
2012/08/21,1114,1127,1114,1116,217000,2232
2012/08/22,1116,1125,1110,1123,199000,2246
2012/08/23,1128,1130,1121,1127,257000,2254
2012/08/24,1127,1131,1123,1129,160000,2258
2012/08/27,1135,1138,1129,1130,125000,2260
2012/08/28,1130,1133,1120,1122,139000,2244
2012/08/29,1123,1132,1117,1119,137000,2238
2012/08/30,1118,1126,1117,1124,182000,2248
2012/08/31,1122,1130,1115,1120,255000,2240
2012/09/03,1121,1127,1114,1114,154000,2228
2012/09/04,1117,1122,1113,1119,218000,2238
2012/09/05,1119,1124,1108,1109,249000,2218
2012/09/06,1109,1109,1091,1097,260000,2194
2012/09/07,1101,1114,1101,1108,182000,2216
2012/09/10,1114,1119,1110,1119,138000,2238
2012/09/11,1119,1126,1115,1116,218000,2232
2012/09/12,1117,1135,1117,1135,262000,2270
2012/09/13,1136,1143,1133,1142,204000,2284
2012/09/14,1150,1159,1146,1148,460000,2296
2012/09/18,1178,1178,1158,1161,406000,2322
2012/09/19,1177,1177,1155,1165,458000,2330
2012/09/20,1170,1184,1159,1169,425000,2338
2012/09/21,1169,1192,1165,1189,327000,2378
2012/09/24,1190,1198,1177,1182,315000,2364
2012/09/25,1168,1185,1168,1175,375000,2350
2012/09/26,1150,1181,1150,1172,224000,2344
2012/09/27,1161,1184,1161,1177,215000,2354
2012/09/28,1181,1181,1159,1166,198000,2332
2012/10/01,1167,1170,1147,1168,261000,2336
2012/10/02,1166,1168,1156,1159,185000,2318
2012/10/03,1159,1159,1143,1151,170000,2302
2012/10/04,1157,1170,1151,1168,229000,2336
2012/10/05,1180,1193,1174,1176,301000,2352
2012/10/09,1177,1191,1177,1179,200000,2358
2012/10/10,1172,1180,1157,1159,189000,2318
2012/10/11,1157,1178,1154,1170,228000,2340
2012/10/12,1178,1186,1173,1176,150000,2352
2012/10/15,1175,1180,1164,1169,156000,2338
2012/10/16,1172,1176,1162,1168,196000,2336
2012/10/17,1177,1197,1177,1189,188000,2378
2012/10/18,1200,1219,1198,1218,280000,2436
2012/10/19,1210,1215,1197,1199,146000,2398
2012/10/22,1192,1209,1192,1205,181000,2410
2012/10/23,1211,1218,1202,1212,204000,2424
2012/10/24,1225,1229,1210,1228,369000,2456
2012/10/25,1228,1263,1228,1262,540000,2524
2012/10/26,1250,1259,1244,1256,223000,2512
2012/10/29,1245,1258,1239,1240,130000,2480
2012/10/30,1235,1246,1233,1233,160000,2466
2012/10/31,1229,1246,1215,1237,187000,2474
2012/11/01,1233,1249,1228,1241,263000,2482
2012/11/02,1241,1259,1241,1258,109000,2516
2012/11/05,1251,1257,1246,1248,135000,2496
2012/11/06,1248,1278,1237,1276,198000,2552
2012/11/07,1285,1305,1282,1295,366000,2590
2012/11/08,1291,1300,1280,1288,258000,2576
2012/11/09,1279,1283,1271,1272,98000,2544
2012/11/12,1261,1269,1251,1253,162000,2506
2012/11/13,1250,1266,1248,1265,160000,2530
2012/11/14,1265,1299,1255,1297,263000,2594
2012/11/15,1273,1288,1270,1273,209000,2546
2012/11/16,1275,1277,1261,1274,205000,2548
2012/11/19,1279,1294,1278,1293,133000,2586
2012/11/20,1298,1298,1281,1289,191000,2578
2012/11/21,1282,1284,1268,1269,279000,2538
2012/11/22,1275,1275,1253,1258,280000,2516
2012/11/26,1251,1266,1243,1253,230000,2506
2012/11/27,1243,1266,1243,1261,342000,2522
2012/11/28,1256,1290,1256,1284,270000,2568
2012/11/29,1282,1307,1279,1302,310000,2604
2012/11/30,1309,1318,1287,1291,310000,2582
2012/12/03,1287,1306,1287,1293,222000,2586
2012/12/04,1300,1306,1291,1298,211000,2596
2012/12/05,1299,1303,1288,1289,285000,2578
2012/12/06,1298,1308,1294,1303,220000,2606
2012/12/07,1303,1303,1293,1294,158000,2588
2012/12/10,1310,1317,1294,1304,211000,2608
2012/12/11,1304,1304,1286,1296,109000,2592
2012/12/12,1297,1298,1272,1276,211000,2552
2012/12/13,1261,1276,1260,1265,280000,2530
2012/12/14,1254,1290,1253,1256,272000,2512
2012/12/17,1256,1271,1251,1263,228000,2526
2012/12/18,1279,1295,1274,1288,347000,2576
2012/12/19,1289,1295,1281,1294,374000,2588
2012/12/20,1296,1315,1295,1308,408000,2616
2012/12/21,1308,1310,1297,1299,312000,2598
2012/12/25,1299,1303,1286,1287,206000,2574
2012/12/26,1287,1298,1282,1291,136000,2582
2012/12/27,1293,1299,1284,1289,166000,2578
2012/12/28,1279,1285,1266,1271,193000,2542
2013/01/04,1287,1313,1287,1312,309000,2624
2013/01/07,1315,1320,1303,1306,216000,2612
2013/01/08,1301,1331,1301,1322,244000,2644
2013/01/09,1324,1349,1324,1343,317000,2686
2013/01/10,1343,1352,1322,1343,237000,2686
2013/01/11,1352,1361,1333,1335,422000,2670
2013/01/15,1344,1382,1344,1377,344000,2754
2013/01/16,1384,1390,1364,1376,334000,2752
2013/01/17,1353,1371,1353,1362,388000,2724
2013/01/18,1353,1376,1353,1371,492000,2742
2013/01/21,1371,1379,1366,1369,166000,2738
2013/01/22,1364,1386,1357,1368,234000,2736
2013/01/23,1359,1375,1358,1367,181000,2734
2013/01/24,1367,1395,1366,1395,174000,2790
2013/01/25,1395,1436,1395,1432,278000,2864
2013/01/28,1431,1444,1427,1430,278000,2860
2013/01/29,1430,1470,1429,1458,369000,2916
2013/01/30,1476,1483,1460,1477,350000,2954
2013/01/31,1482,1506,1466,1501,336000,3002
2013/02/01,1500,1506,1488,1502,250000,3004
2013/02/04,1503,1511,1487,1495,220000,2990
2013/02/05,1507,1539,1500,1529,425000,3058
2013/02/06,1532,1532,1466,1476,555000,2952
2013/02/07,1475,1487,1431,1449,540000,2898
2013/02/08,1450,1478,1438,1464,347000,2928
2013/02/12,1466,1485,1466,1474,290000,2948
2013/02/13,1475,1497,1466,1476,269000,2952
2013/02/14,1469,1481,1464,1465,291000,2930
2013/02/15,1469,1482,1460,1477,493000,2954
2013/02/18,1469,1503,1468,1494,265000,2988
2013/02/19,1504,1549,1501,1539,433000,3078
2013/02/20,1545,1550,1525,1545,358000,3090
2013/02/21,1535,1555,1535,1536,336000,3072
2013/02/22,1530,1557,1521,1554,608000,3108
2013/02/25,1560,1640,1560,1629,787000,3258
2013/02/26,1631,1642,1615,1633,411000,3266
2013/02/27,1625,1636,1598,1603,523000,3206
2013/02/28,1605,1625,1578,1613,638000,3226
2013/03/01,1605,1642,1585,1631,521000,3262
2013/03/04,1627,1690,1627,1675,905000,3350
2013/03/05,1715,1774,1704,1727,825000,3454
2013/03/06,1711,1741,1696,1728,575000,3456
2013/03/07,1713,1732,1700,1723,542000,3446
2013/03/08,1720,1732,1709,1720,577000,3440
2013/03/11,1720,1724,1710,1717,295000,3434
2013/03/12,1720,1740,1716,1724,441000,3448
2013/03/13,1728,1729,1690,1721,713000,3442
2013/03/14,1712,1720,1679,1708,757000,3416
2013/03/15,1715,1743,1714,1721,1470000,3442
2013/03/18,1712,1712,1665,1684,747000,3368
2013/03/19,1685,1705,1681,1690,548000,3380
2013/03/21,1671,1676,1603,1676,1378000,3352
2013/03/22,1676,1693,1652,1655,558000,3310
2013/03/25,1675,1695,1668,1689,434000,3378
2013/03/26,1693,1699,1684,1695,412000,3390
2013/03/27,1699,1706,1683,1706,386000,3412
2013/03/28,1716,1716,1685,1707,360000,3414
2013/03/29,1715,1728,1695,1724,371000,3448
2013/04/01,1725,1725,1597,1602,481000,3204
2013/04/02,1587,1625,1535,1584,540000,3168
2013/04/03,1580,1639,1571,1638,364000,3276
2013/04/04,1638,1699,1585,1697,330000,3394
2013/04/05,1700,1719,1669,1684,499000,3368
2013/04/08,1705,1726,1677,1724,495000,3448
2013/04/09,1724,1745,1715,1722,542000,3444
2013/04/10,1705,1712,1670,1675,544000,3350
2013/04/11,1677,1692,1668,1687,291000,3374
2013/04/12,1687,1689,1653,1659,337000,3318
2013/04/15,1654,1660,1620,1639,265000,3278
2013/04/16,1620,1663,1614,1642,491000,3284
2013/04/17,1643,1683,1642,1680,340000,3360
2013/04/18,1694,1720,1680,1714,594000,3428
2013/04/19,1719,1727,1694,1715,302000,3430
2013/04/22,1734,1738,1694,1697,285000,3394
2013/04/23,1700,1733,1700,1730,355000,3460
2013/04/24,1731,1756,1721,1756,354000,3512
2013/04/25,1754,1775,1741,1766,275000,3532
2013/04/26,1755,1763,1708,1719,276000,3438
2013/04/30,1708,1731,1699,1729,311000,3458
2013/05/01,1761,1766,1725,1745,329000,3490
2013/05/02,1755,1797,1755,1786,524000,3572
2013/05/07,1797,1837,1795,1829,560000,3658
2013/05/08,1849,1883,1845,1847,595000,3694
2013/05/09,1849,1849,1718,1778,378000,3556
2013/05/10,1778,1796,1753,1763,312000,3526
2013/05/13,1762,1833,1745,1817,563000,3634
2013/05/14,1790,1796,1770,1775,424000,3550
2013/05/15,1775,1780,1717,1735,602000,3470
2013/05/16,1735,1736,1684,1705,382000,3410
2013/05/17,1705,1744,1705,1736,252000,3472
2013/05/20,1748,1749,1714,1723,292000,3446
2013/05/21,1733,1733,1711,1715,281000,3430
2013/05/22,1710,1727,1699,1717,385000,3434
2013/05/23,1712,1728,1622,1627,638000,3254
2013/05/24,1627,1655,1590,1634,625000,3268
2013/05/27,1600,1666,1558,1638,450000,3276
2013/05/28,1642,1661,1615,1629,457000,3258
2013/05/29,1633,1633,1582,1584,1049000,3168
2013/05/30,1560,1564,1467,1475,768000,2950
2013/05/31,1505,1514,1458,1479,550000,2958
2013/06/03,1474,1504,1460,1468,609000,2936
2013/06/04,1473,1500,1464,1476,626000,2952
2013/06/05,1474,1520,1451,1451,388000,2902
2013/06/06,1452,1471,1427,1443,580000,2886
2013/06/07,1410,1429,1386,1403,527000,2806
2013/06/10,1419,1459,1419,1452,442000,2904
2013/06/11,1490,1513,1467,1476,343000,2952
2013/06/12,1461,1461,1416,1438,487000,2876
2013/06/13,1438,1439,1383,1385,481000,2770
2013/06/14,1400,1439,1400,1413,532000,2826
2013/06/17,1411,1475,1403,1468,230000,2936
2013/06/18,1498,1498,1422,1430,350000,2860
2013/06/19,1483,1483,1430,1444,433000,2888
2013/06/20,1448,1450,1414,1421,307000,2842
2013/06/21,1414,1433,1385,1433,228000,2866
2013/06/24,1433,1437,1396,1400,275000,2800
2013/06/25,1393,1448,1386,1436,616000,2872
2013/06/26,1421,1436,1392,1393,240000,2786
2013/06/27,1395,1430,1387,1429,281000,2858
2013/06/28,1430,1471,1430,1471,242000,2942
2013/07/01,1488,1498,1457,1487,202000,2974
2013/07/02,1508,1508,1484,1506,137000,3012
2013/07/03,1546,1549,1511,1522,349000,3044
2013/07/04,1531,1531,1519,1526,187000,3052
2013/07/05,1537,1540,1524,1534,160000,3068
2013/07/08,1541,1547,1518,1520,156000,3040
2013/07/09,1533,1536,1507,1535,197000,3070
2013/07/10,1519,1540,1518,1533,240000,3066
2013/07/11,1518,1556,1518,1536,186000,3072
2013/07/12,1537,1555,1529,1533,205000,3066
2013/07/16,1530,1552,1530,1543,202000,3086
2013/07/17,1534,1566,1534,1560,213000,3120
2013/07/18,1560,1579,1552,1568,249000,3136
2013/07/19,1580,1585,1561,1568,212000,3136
2013/07/22,1586,1595,1561,1593,201000,3186
2013/07/23,1598,1628,1586,1624,251000,3248
2013/07/24,1616,1627,1600,1608,196000,3216
2013/07/25,1609,1626,1592,1606,200000,3212
2013/07/26,1589,1590,1565,1571,132000,3142
2013/07/29,1551,1553,1518,1529,218000,3058
2013/07/30,1528,1570,1500,1530,285000,3060
2013/07/31,1518,1544,1509,1520,184000,3040
2013/08/01,1515,1550,1512,1550,240000,3100
2013/08/02,1552,1597,1552,1597,260000,3194
2013/08/05,1590,1619,1588,1604,195000,3208
2013/08/06,1609,1609,1585,1600,398000,3200
2013/08/07,1600,1601,1570,1573,292000,3146
2013/08/08,1574,1615,1573,1579,346000,3158
2013/08/09,1592,1610,1590,1600,328000,3200
2013/08/12,1590,1590,1540,1560,308000,3120
2013/08/13,1559,1577,1547,1571,243000,3142
2013/08/14,1563,1564,1500,1543,541000,3086
2013/08/15,1507,1517,1502,1505,514000,3010
2013/08/16,1496,1507,1478,1495,291000,2990
2013/08/19,1495,1519,1495,1515,235000,3030
2013/08/20,1531,1546,1515,1516,397000,3032
2013/08/21,1517,1517,1484,1499,205000,2998
2013/08/22,1500,1558,1500,1530,262000,3060
2013/08/23,1538,1563,1537,1556,254000,3112
2013/08/26,1556,1576,1550,1557,129000,3114
2013/08/27,1558,1569,1544,1546,196000,3092
2013/08/28,1531,1535,1504,1529,159000,3058
2013/08/29,1522,1527,1511,1518,139000,3036
2013/08/30,1535,1540,1501,1501,211000,3002
2013/09/02,1501,1520,1501,1505,205000,3010
2013/09/03,1520,1547,1520,1540,242000,3080
2013/09/04,1520,1540,1520,1535,129000,3070
2013/09/05,1536,1540,1523,1527,138000,3054
2013/09/06,1543,1544,1506,1509,191000,3018
2013/09/09,1535,1547,1517,1535,136000,3070
2013/09/10,1535,1545,1523,1531,179000,3062
2013/09/11,1528,1540,1498,1501,361000,3002
2013/09/12,1501,1502,1482,1496,220000,2992
2013/09/13,1483,1497,1471,1482,367000,2964
2013/09/17,1483,1492,1473,1473,252000,2946
2013/09/18,1476,1490,1473,1477,183000,2954
2013/09/19,1479,1491,1472,1486,346000,2972
2013/09/20,1499,1500,1490,1498,231000,2996
2013/09/24,1495,1513,1495,1498,287000,2996
2013/09/25,1497,1505,1495,1500,252000,3000
2013/09/26,1491,1491,1475,1486,217000,2972
2013/09/27,1486,1496,1476,1491,250000,2982
2013/09/30,1491,1494,1481,1489,215000,2978
2013/10/01,1494,1502,1490,1498,216000,2996
2013/10/02,1500,1500,1478,1481,234000,2962
2013/10/03,1476,1486,1475,1475,211000,2950
2013/10/04,1466,1468,1442,1457,337000,2914
2013/10/07,1457,1472,1457,1462,281000,2924
2013/10/08,1450,1457,1426,1449,358000,2898
2013/10/09,1431,1472,1430,1467,291000,2934
2013/10/10,1469,1493,1469,1493,299000,2986
2013/10/11,1495,1510,1477,1485,395000,2970
2013/10/15,1492,1504,1487,1501,336000,3002
2013/10/16,1500,1510,1499,1507,209000,3014
2013/10/17,1508,1528,1507,1528,250000,3056
2013/10/18,1533,1535,1522,1528,230000,3056
2013/10/21,1516,1542,1515,1541,207000,3082
2013/10/22,1540,1540,1511,1530,382000,3060
2013/10/23,1512,1533,1504,1504,384000,3008
2013/10/24,1511,1527,1505,1523,216000,3046
2013/10/25,1523,1523,1500,1507,290000,3014
2013/10/28,1516,1526,1509,1525,205000,3050
2013/10/29,1524,1533,1510,1524,260000,3048
2013/10/30,1527,1546,1515,1540,795000,3080
2013/10/31,1540,1543,1528,1534,267000,3068
2013/11/01,1534,1537,1511,1528,337000,3056
2013/11/05,1526,1532,1513,1523,242000,3046
2013/11/06,1512,1576,1512,1537,275000,3074
2013/11/07,1547,1554,1539,1549,273000,3098
2013/11/08,1539,1547,1534,1538,244000,3076
2013/11/11,1547,1558,1541,1557,274000,3114
2013/11/12,1557,1570,1548,1570,200000,3140
2013/11/13,1570,1574,1558,1565,208000,3130
2013/11/14,1566,1574,1556,1561,228000,3122
2013/11/15,1560,1570,1558,1562,317000,3124
2013/11/18,1563,1573,1563,1568,193000,3136
2013/11/19,1567,1575,1563,1572,150000,3144
2013/11/20,1572,1580,1569,1575,301000,3150
2013/11/21,1579,1583,1566,1573,202000,3146
2013/11/22,1579,1589,1573,1586,282000,3172
2013/11/25,1595,1596,1582,1592,167000,3184
2013/11/26,1588,1588,1578,1579,163000,3158
2013/11/27,1580,1581,1531,1564,197000,3128
2013/11/28,1561,1571,1549,1553,145000,3106
2013/11/29,1553,1560,1540,1551,207000,3102
2013/12/02,1550,1562,1543,1547,256000,3094
2013/12/03,1550,1557,1534,1536,322000,3072
2013/12/04,1536,1543,1518,1524,398000,3048
2013/12/05,1524,1531,1513,1513,316000,3026
2013/12/06,1519,1542,1515,1535,462000,3070
2013/12/09,1543,1550,1540,1544,279000,3088
2013/12/10,1546,1550,1540,1547,204000,3094
2013/12/11,1545,1549,1530,1539,226000,3078
2013/12/12,1540,1542,1525,1531,186000,3062
2013/12/13,1535,1539,1525,1527,486000,3054
2013/12/16,1518,1522,1498,1506,301000,3012
2013/12/17,1513,1516,1502,1516,270000,3032
2013/12/18,1498,1516,1498,1507,337000,3014
2013/12/19,1510,1521,1506,1520,409000,3040
2013/12/20,1520,1524,1510,1513,316000,3026
2013/12/24,1513,1515,1490,1495,365000,2990
2013/12/25,1487,1494,1480,1490,539000,2980
2013/12/26,1510,1534,1499,1532,274000,3064
2013/12/27,1530,1556,1518,1556,297000,3112
2013/12/30,1565,1584,1556,1580,177000,3160
2014/01/06,1583,1588,1561,1565,313000,3130
2014/01/07,1588,1588,1562,1565,191000,3130
2014/01/08,1566,1588,1566,1588,162000,3176
2014/01/09,1587,1589,1575,1583,200000,3166
2014/01/10,1583,1590,1573,1590,194000,3180
2014/01/14,1583,1587,1543,1580,245000,3160
2014/01/15,1584,1622,1576,1620,372000,3240
2014/01/16,1622,1682,1622,1658,586000,3316
2014/01/17,1678,1690,1667,1687,381000,3374
2014/01/20,1688,1688,1669,1679,329000,3358
2014/01/21,1679,1688,1668,1672,179000,3344
2014/01/22,1672,1676,1655,1673,238000,3346
2014/01/23,1683,1687,1665,1665,231000,3330
2014/01/24,1641,1653,1622,1627,370000,3254
2014/01/27,1612,1638,1600,1604,199000,3208
2014/01/28,1602,1616,1593,1594,279000,3188
2014/01/29,1597,1678,1597,1676,384000,3352
2014/01/30,1750,1750,1647,1653,527000,3306
2014/01/31,1647,1667,1627,1642,422000,3284
2014/02/03,1641,1659,1623,1630,294000,3260
2014/02/04,1590,1593,1558,1559,462000,3118
2014/02/05,1562,1591,1547,1575,425000,3150
2014/02/06,1538,1568,1526,1528,340000,3056
2014/02/07,1557,1567,1530,1549,300000,3098
2014/02/10,1571,1615,1563,1597,335000,3194
2014/02/12,1595,1610,1577,1605,202000,3210
2014/02/13,1605,1620,1597,1609,191000,3218
2014/02/14,1608,1620,1571,1592,361000,3184
2014/02/17,1580,1610,1579,1595,121000,3190
2014/02/18,1590,1617,1580,1610,246000,3220
2014/02/19,1570,1611,1564,1605,448000,3210
2014/02/20,1577,1582,1552,1564,460000,3128
2014/02/21,1579,1597,1576,1592,259000,3184
2014/02/24,1571,1599,1565,1583,302000,3166
2014/02/25,1583,1591,1574,1586,251000,3172
2014/02/26,1574,1596,1574,1580,170000,3160
2014/02/27,1577,1580,1562,1565,277000,3130
2014/02/28,1576,1576,1553,1570,194000,3140
2014/03/03,1558,1579,1536,1545,205000,3090
2014/03/04,1545,1566,1532,1562,213000,3124
2014/03/05,1570,1578,1558,1566,215000,3132
2014/03/06,1558,1578,1558,1574,126000,3148
2014/03/07,1581,1602,1579,1600,292000,3200
2014/03/10,1605,1612,1583,1587,334000,3174
2014/03/11,1586,1600,1583,1596,164000,3192
2014/03/12,1580,1580,1561,1565,197000,3130
2014/03/13,1555,1561,1544,1548,206000,3096
2014/03/14,1512,1544,1500,1505,386000,3010
2014/03/17,1502,1521,1479,1481,200000,2962
2014/03/18,1507,1532,1496,1520,184000,3040
2014/03/19,1512,1557,1512,1539,266000,3078
2014/03/20,1552,1556,1510,1512,330000,3024
2014/03/24,1552,1576,1533,1537,525000,3074
2014/03/25,1560,1574,1553,1557,371000,3114
2014/03/26,1576,1597,1563,1581,514000,3162
2014/03/27,1568,1593,1555,1591,435000,3182
2014/03/28,1598,1631,1584,1631,409000,3262
2014/03/31,1617,1637,1589,1632,493000,3264
2014/04/01,1636,1639,1613,1638,240000,3276
2014/04/02,1642,1643,1621,1623,276000,3246
2014/04/03,1630,1643,1623,1632,158000,3264
2014/04/04,1632,1634,1621,1627,152000,3254
2014/04/07,1626,1627,1606,1611,218000,3222
2014/04/08,1580,1595,1536,1547,752000,3094
2014/04/09,1530,1563,1524,1559,532000,3118
2014/04/10,1573,1595,1563,1585,380000,3170
2014/04/11,1545,1585,1542,1566,326000,3132
2014/04/14,1566,1654,1566,1629,844000,3258
2014/04/15,1628,1646,1607,1641,515000,3282
2014/04/16,1637,1658,1624,1651,305000,3302
2014/04/17,1654,1704,1649,1684,635000,3368
2014/04/18,1696,1734,1651,1721,553000,3442
2014/04/21,1720,1738,1710,1718,300000,3436
2014/04/22,1721,1737,1721,1726,260000,3452
2014/04/23,1737,1760,1732,1758,295000,3516
2014/04/24,1758,1780,1753,1764,342000,3528
2014/04/25,1756,1779,1751,1756,261000,3512
2014/04/28,1753,1773,1745,1772,298000,3544
2014/04/30,1773,1778,1758,1762,298000,3524
2014/05/01,1748,1831,1741,1824,598000,3648
2014/05/02,1823,1835,1804,1830,380000,3660
2014/05/07,1824,1832,1808,1809,315000,3618
2014/05/08,1802,1822,1796,1810,282000,3620
2014/05/09,1789,1822,1789,1808,256000,3616
2014/05/12,1790,1850,1772,1794,632000,3588
2014/05/13,1810,1887,1810,1870,897000,3740
2014/05/14,1870,1926,1863,1920,620000,3840
2014/05/15,1920,1947,1900,1937,629000,3874
2014/05/16,1900,1916,1881,1902,317000,3804
2014/05/19,1934,1955,1915,1922,384000,3844
2014/05/20,1922,1942,1911,1927,387000,3854
2014/05/21,1910,1923,1883,1900,532000,3800
2014/05/22,1900,1930,1895,1905,495000,3810
2014/05/23,1932,2034,1932,2017,1128000,4034
2014/05/26,2017,2063,1980,2061,612000,4122
2014/05/27,2050,2073,2036,2040,301000,4080
2014/05/28,2020,2043,2017,2033,481000,4066
2014/05/29,2020,2023,1989,2007,485000,4014
2014/05/30,2017,2040,2004,2030,334000,4060
2014/06/02,2030,2059,2027,2058,308000,4116
2014/06/03,2077,2110,2076,2102,418000,4204
2014/06/04,2102,2135,2099,2134,367000,4268
2014/06/05,2137,2142,2108,2124,290000,4248
2014/06/06,2115,2138,2097,2104,463000,4208
2014/06/09,2120,2120,2076,2078,297000,4156
2014/06/10,2095,2126,2083,2084,476000,4168
2014/06/11,2089,2109,2088,2101,380000,4202
2014/06/12,2100,2110,2089,2096,368000,4192
2014/06/13,2094,2131,2081,2120,457000,4240
2014/06/16,2130,2131,2069,2075,324000,4150
2014/06/17,2096,2142,2087,2111,548000,4222
2014/06/18,2113,2133,2077,2091,477000,4182
2014/06/19,2119,2147,2101,2142,340000,4284
2014/06/20,2149,2153,2130,2136,399000,4272
2014/06/23,2149,2151,2102,2119,252000,4238
2014/06/24,2119,2140,2100,2134,265000,4268
2014/06/25,2139,2149,2127,2127,211000,4254
2014/06/26,2127,2152,2120,2137,265000,4274
2014/06/27,2137,2137,2100,2117,311000,4234
2014/06/30,2103,2144,2103,2144,291000,4288
2014/07/01,2148,2184,2131,2160,290000,4320
2014/07/02,2181,2229,2178,2193,345000,4386
2014/07/03,2190,2202,2176,2181,195000,4362
2014/07/04,2204,2209,2170,2182,119000,4364
2014/07/07,2198,2198,2169,2171,127000,4342
2014/07/08,2195,2195,2151,2177,441000,4354
2014/07/09,2154,2173,2143,2153,189000,4306
2014/07/10,2153,2172,2146,2146,142000,4292
2014/07/11,2138,2172,2130,2157,178000,4314
2014/07/14,2125,2150,2125,2140,185000,4280
2014/07/15,2140,2164,2130,2162,272000,4324
2014/07/16,2142,2190,2142,2159,229000,4318
2014/07/17,2161,2170,2142,2154,203000,4308
2014/07/18,2137,2152,2133,2138,162000,4276
2014/07/22,2163,2164,2145,2157,196000,4314
2014/07/23,2152,2163,2141,2157,230000,4314
2014/07/24,2164,2175,2146,2162,306000,4324
2014/07/25,2173,2199,2173,2199,293000,4398
2014/07/28,2204,2243,2204,2225,353000,4450
2014/07/29,2243,2292,2239,2265,385000,4530
2014/07/30,2287,2294,2265,2291,425000,4582
2014/07/31,2299,2328,2295,2309,456000,4618
2014/08/01,2300,2315,2272,2272,281000,4544
2014/08/04,2265,2310,2261,2287,231000,4574
2014/08/05,2294,2344,2294,2337,324000,4674
2014/08/06,2383,2436,2383,2408,601000,4816
2014/08/07,2402,2421,2383,2403,359000,4806
2014/08/08,2383,2389,2321,2332,324000,4664
2014/08/11,2382,2400,2359,2398,225000,4796
2014/08/12,2418,2428,2403,2411,261000,4822
2014/08/13,2405,2407,2367,2399,214000,4798
2014/08/14,2418,2426,2397,2421,157000,4842
2014/08/15,2428,2431,2413,2427,215000,4854
2014/08/18,2444,2447,2428,2443,308000,4886
2014/08/19,2470,2489,2460,2487,365000,4974
2014/08/20,2487,2507,2476,2494,246000,4988
2014/08/21,2494,2509,2484,2507,256000,5014
2014/08/22,2510,2570,2510,2562,469000,5124
2014/08/25,2596,2624,2570,2604,440000,5208
2014/08/26,2611,2613,2556,2573,418000,5146
2014/08/27,2562,2600,2512,2580,441000,5160
2014/08/28,2589,2673,2589,2655,581000,5310
2014/08/29,2638,2653,2619,2621,304000,5242
2014/09/01,2620,2675,2617,2669,292000,5338
2014/09/02,2678,2695,2664,2679,320000,5358
2014/09/03,2700,2737,2655,2670,437000,5340
2014/09/04,2660,2681,2574,2591,438000,5182
2014/09/05,2571,2571,2492,2528,645000,5056
2014/09/08,2565,2568,2523,2533,302000,5066
2014/09/09,2530,2550,2502,2508,317000,5016
2014/09/10,2476,2549,2470,2539,537000,5078
2014/09/11,2538,2547,2514,2519,269000,5038
2014/09/12,2529,2546,2504,2519,338000,5038
2014/09/16,2524,2555,2520,2538,305000,5076
2014/09/17,2556,2596,2555,2567,234000,5134
2014/09/18,2571,2591,2557,2560,184000,5120
2014/09/19,2585,2589,2555,2563,191000,5126
2014/09/22,2555,2555,2521,2551,269000,5102
2014/09/24,2508,2546,2508,2544,398000,5088
2014/09/25,2555,2570,2514,2550,368000,5100
2014/09/26,2476,2505,2467,2488,570000,4976
2014/09/29,2475,2498,2453,2483,479000,4966
2014/09/30,2458,2480,2443,2475,478000,4950
2014/10/01,2508,2524,2465,2491,340000,4982
2014/10/02,2491,2497,2444,2470,450000,4940
2014/10/03,2450,2505,2450,2489,281000,4978
2014/10/06,2524,2558,2524,2545,229000,5090
2014/10/07,2530,2550,2520,2523,182000,5046
2014/10/08,2473,2511,2471,2499,214000,4998
2014/10/09,2510,2510,2486,2499,281000,4998
2014/10/10,2453,2494,2422,2433,277000,4866
2014/10/14,2375,2430,2375,2422,299000,4844
2014/10/15,2412,2458,2392,2412,365000,4824
2014/10/16,2372,2404,2362,2362,214000,4724
2014/10/17,2349,2356,2279,2283,381000,4566
2014/10/20,2335,2398,2335,2391,242000,4782
2014/10/21,2378,2459,2378,2456,550000,4912
2014/10/22,2500,2561,2500,2561,551000,5122
2014/10/23,2547,2582,2535,2575,414000,5150
2014/10/24,2585,2619,2582,2610,254000,5220
2014/10/27,2619,2670,2619,2658,233000,5316
2014/10/28,2632,2663,2632,2655,176000,5310
2014/10/29,2653,2677,2653,2675,279000,5350
2014/10/30,2656,2697,2656,2667,499000,5334
2014/10/31,2698,2794,2693,2778,404000,5556
2014/11/04,2800,2820,2771,2803,347000,5606
2014/11/05,2784,2787,2722,2759,412000,5518
2014/11/06,2774,2780,2705,2765,342000,5530
2014/11/07,2760,2764,2709,2719,228000,5438
2014/11/10,2699,2714,2686,2695,154000,5390
2014/11/11,2678,2698,2634,2647,469000,5294
2014/11/12,2644,2675,2634,2662,353000,5324
2014/11/13,2665,2698,2639,2695,202000,5390
2014/11/14,2701,2714,2654,2669,262000,5338
2014/11/17,2641,2641,2592,2598,205000,5196
2014/11/18,2625,2670,2621,2670,171000,5340
2014/11/19,2698,2716,2650,2658,213000,5316
2014/11/20,2674,2674,2632,2636,177000,5272
2014/11/21,2635,2654,2598,2639,216000,5278
2014/11/25,2642,2658,2600,2600,257000,5200
2014/11/26,2593,2602,2572,2572,223000,5144
2014/11/27,2560,2565,2537,2553,232000,5106
2014/11/28,2550,2572,2496,2520,418000,5040
2014/12/01,2533,2570,2521,2539,260000,5078
2014/12/02,2540,2588,2540,2582,197000,5164
2014/12/03,2599,2621,2587,2614,316000,5228
2014/12/04,2614,2646,2614,2636,220000,5272
2014/12/05,2635,2635,2574,2596,189000,5192
2014/12/08,2579,2594,2548,2554,248000,5108
2014/12/09,2530,2546,2516,2519,129000,5038
2014/12/10,2477,2491,2443,2460,271000,4920
2014/12/11,2439,2485,2402,2473,387000,4946
2014/12/12,2457,2533,2457,2487,342000,4974
2014/12/15,2464,2508,2450,2453,266000,4906
2014/12/16,2452,2452,2411,2414,263000,4828
2014/12/17,2400,2431,2400,2406,288000,4812
2014/12/18,2478,2490,2422,2430,522000,4860
2014/12/19,2450,2452,2345,2357,801000,4714
2014/12/22,2379,2379,2311,2331,560000,4662
2014/12/24,2340,2365,2304,2319,436000,4638
2014/12/25,2290,2319,2289,2318,222000,4636
2014/12/26,2366,2388,2325,2383,346000,4766
2014/12/29,2357,2375,2314,2350,383000,4700
2014/12/30,2340,2349,2333,2337,169000,4674
2015/01/05,2320,2321,2300,2305,221000,4610
2015/01/06,2280,2300,2243,2246,292000,4492
2015/01/07,2234,2270,2221,2235,361000,4470
2015/01/08,2265,2306,2260,2293,230000,4586
2015/01/09,2304,2327,2287,2298,198000,4596
2015/01/13,2299,2354,2287,2352,178000,4704
2015/01/14,2328,2348,2301,2308,185000,4616
2015/01/15,2313,2378,2313,2363,279000,4726
2015/01/16,2337,2370,2304,2367,345000,4734
2015/01/19,2399,2461,2380,2456,401000,4912
2015/01/20,2481,2502,2469,2500,300000,5000
2015/01/21,2472,2493,2454,2488,219000,4976
2015/01/22,2514,2519,2464,2513,343000,5026
2015/01/23,2549,2553,2487,2524,313000,5048
2015/01/26,2488,2516,2466,2476,265000,4952
2015/01/27,2479,2518,2479,2512,251000,5024
2015/01/28,2510,2582,2509,2568,474000,5136
2015/01/29,2501,2560,2482,2510,348000,5020
2015/01/30,2511,2581,2507,2521,385000,5042
2015/02/02,2488,2557,2473,2554,192000,5108
2015/02/03,2592,2671,2592,2634,554000,5268
2015/02/04,2684,2708,2648,2677,621000,5354
2015/02/05,2627,2800,2588,2779,589000,5558
2015/02/06,2929,3280,2929,3175,2214000,6350
2015/02/09,3125,3165,3075,3160,723000,6320
2015/02/10,3175,3335,3170,3330,919000,6660
2015/02/12,3345,3460,3330,3380,1076000,6760
2015/02/13,3390,3460,3385,3410,520000,6820
2015/02/16,3380,3440,3230,3280,679000,6560
2015/02/17,3250,3295,3205,3275,508000,6550
2015/02/18,3325,3360,3265,3325,437000,6650
2015/02/19,3325,3415,3305,3415,456000,6830
2015/02/20,3430,3480,3430,3470,392000,6940
2015/02/23,3440,3480,3440,3475,359000,6950
2015/02/24,3480,3500,3465,3480,380000,6960
2015/02/25,3465,3495,3450,3490,218000,6980
2015/02/26,3480,3540,3455,3525,720000,7050
2015/02/27,3515,3570,3515,3535,402000,7070
2015/03/02,3515,3630,3515,3575,521000,7150
2015/03/03,3645,3750,3640,3730,554000,7460
2015/03/04,3700,3705,3600,3630,460000,7260
2015/03/05,3630,3770,3630,3735,412000,7470
2015/03/06,3700,3790,3610,3645,875000,7290
2015/03/09,3620,3625,3535,3545,397000,7090
2015/03/10,3525,3595,3470,3545,635000,7090
2015/03/11,3490,3585,3490,3565,362000,7130
2015/03/12,3565,3810,3565,3790,751000,7580
2015/03/13,3830,3850,3715,3790,681000,7580
2015/03/16,3750,3770,3695,3720,383000,7440
2015/03/17,3740,3775,3700,3720,636000,7440
2015/03/18,3720,3785,3670,3700,820000,7400
2015/03/19,3655,3680,3550,3585,502000,7170
2015/03/20,3585,3595,3515,3555,778000,7110
2015/03/23,3625,3700,3600,3665,643000,7330
2015/03/24,3660,3775,3655,3770,842000,7540
2015/03/25,3800,3930,3795,3885,819000,7770
2015/03/26,3865,3865,3660,3680,586000,7360
2015/03/27,3680,3730,3260,3390,1880000,6780
2015/03/30,3320,3365,3300,3340,1118000,6680
2015/03/31,3450,3515,3410,3480,737000,6960
2015/04/01,3485,3595,3425,3565,774000,7130
2015/04/02,3620,3700,3600,3615,583000,7230
2015/04/03,3595,3595,3520,3545,472000,7090
2015/04/06,3555,3720,3545,3705,565000,7410
2015/04/07,3675,3830,3640,3820,861000,7640
2015/04/08,4380,4395,4050,4280,1939000,8560
2015/04/09,4280,4750,4270,4705,2560000,9410
2015/04/10,4705,4745,4470,4610,1822000,9220
2015/04/13,4540,4655,4505,4635,653000,9270
2015/04/14,4550,4600,4510,4550,537000,9100
2015/04/15,4480,4615,4465,4605,837000,9210
2015/04/16,4560,4615,4510,4590,630000,9180
2015/04/17,4535,4555,4420,4430,771000,8860
2015/04/20,4360,4540,4360,4395,571000,8790
2015/04/21,4350,4500,4305,4475,749000,8950
2015/04/22,4450,4480,4420,4475,477000,8950
2015/04/23,4435,4500,4390,4480,646000,8960
2015/04/24,4450,4640,4400,4610,666000,9220
2015/04/27,4575,4720,4565,4600,674000,9200
2015/04/28,4575,4590,4445,4445,468000,8890
2015/04/30,4320,4370,4240,4285,779000,8570
2015/05/01,4245,4270,4145,4175,690000,8350
2015/05/07,4200,4325,4095,4120,734000,8240
2015/05/08,4060,4170,4045,4080,424000,8160
2015/05/11,4170,4215,4140,4170,387000,8340
2015/05/12,4190,4375,3825,4055,774000,8110
2015/05/13,4005,4095,3945,4075,716000,8150
2015/05/14,4090,4280,4090,4180,612000,8360
2015/05/15,4220,4385,4205,4370,568000,8740
2015/05/18,4340,4365,4255,4315,472000,8630
2015/05/19,4245,4310,4205,4230,473000,8460
2015/05/20,4290,4430,4290,4380,468000,8760
2015/05/21,4355,4390,4340,4365,277000,8730
2015/05/22,4405,4430,4355,4370,247000,8740
2015/05/25,4370,4400,4270,4270,278000,8540
2015/05/26,4260,4270,4150,4170,380000,8340
2015/05/27,4150,4240,4105,4115,479000,8230
2015/05/28,4155,4155,4045,4100,384000,8200
2015/05/29,4105,4135,4045,4075,464000,8150
2015/06/01,4005,4090,4005,4070,481000,8140
2015/06/02,4090,4150,4065,4090,595000,8180
2015/06/03,4030,4045,3940,4010,770000,8020
2015/06/04,4010,4010,3895,3925,702000,7850
2015/06/05,3885,3990,3885,3945,652000,7890
2015/06/08,3940,3945,3885,3890,360000,7780
2015/06/09,3835,3995,3830,3950,636000,7900
2015/06/10,3925,3980,3910,3945,489000,7890
2015/06/11,3950,4135,3950,4120,736000,8240
2015/06/12,4195,4215,4010,4055,901000,8110
2015/06/15,4055,4110,4020,4090,331000,8180
2015/06/16,4080,4095,4050,4050,240000,8100
2015/06/17,4105,4110,4040,4065,416000,8130
2015/06/18,4095,4315,4095,4235,909000,8470
2015/06/19,4300,4300,4190,4190,652000,8380
2015/06/22,4190,4275,4165,4210,511000,8420
2015/06/23,4230,4265,4180,4250,281000,8500
2015/06/24,4290,4450,4260,4430,707000,8860
2015/06/25,4425,4475,4360,4425,557000,8850
2015/06/26,4390,4475,4380,4420,418000,8840
2015/06/29,4315,4405,4240,4245,562000,8490
2015/06/30,4280,4330,4255,4275,441000,8550
2015/07/01,4255,4300,4100,4295,484000,8590
2015/07/02,4350,4495,4350,4465,542000,8930
2015/07/03,4495,4495,4395,4455,304000,8910
2015/07/06,4385,4570,4385,4450,550000,8900
2015/07/07,4535,4635,4520,4625,606000,9250
2015/07/08,4580,4625,4400,4400,522000,8800
2015/07/09,4300,4320,4135,4290,797000,8580
2015/07/10,4395,4490,4310,4365,545000,8730
2015/07/13,4450,4590,4425,4585,595000,9170
2015/07/14,4575,4670,4485,4580,646000,9160
2015/07/15,4615,4710,4590,4685,458000,9370
2015/07/16,4700,4850,4690,4765,599000,9530
2015/07/17,4775,4820,4720,4745,256000,9490
2015/07/21,4830,4920,4820,4910,443000,9820
2015/07/22,4880,4895,4720,4770,354000,9540
2015/07/23,4735,4855,4635,4830,460000,9660
2015/07/24,4900,5040,4865,5010,639000,10020
2015/07/27,4950,5020,4680,4730,939000,9460
2015/07/28,4630,4710,4600,4655,738000,9310
2015/07/29,4715,4830,4685,4805,711000,9610
2015/07/30,4815,4855,4580,4610,655000,9220
2015/07/31,4620,4640,4575,4625,344000,9250
2015/08/03,4680,4830,4660,4825,502000,9650
2015/08/04,4880,4930,4810,4920,471000,9840
2015/08/05,4865,5450,4785,5330,1303000,10660
2015/08/06,5630,5940,5340,5420,1383000,10840
2015/08/07,5440,5600,5440,5560,772000,11120
2015/08/10,5500,5950,5490,5940,1028000,11880
2015/08/11,5840,6000,5700,5990,1171000,11980
2015/08/12,5940,6300,5820,5870,1030000,11740
2015/08/13,5850,6050,5740,5930,635000,11860
2015/08/14,5950,6020,5920,5990,280000,11980
2015/08/17,5990,6190,5980,6160,446000,12320
2015/08/18,6260,6360,5890,6100,1179000,12200
2015/08/19,6030,6200,5970,6170,856000,12340
2015/08/20,6090,6250,6090,6110,561000,12220
2015/08/21,5950,5970,5770,5790,752000,11580
2015/08/24,5490,5700,5310,5340,1053000,10680
2015/08/25,5150,5690,5090,5360,1198000,10720
2015/08/26,5460,5550,5360,5490,654000,10980
2015/08/27,5650,5760,5430,5480,765000,10960
2015/08/28,5650,5670,5490,5670,861000,11340
2015/08/31,5680,5740,5570,5730,478000,11460
2015/09/01,5750,5830,5480,5500,700000,11000
2015/09/02,5410,5730,5410,5600,859000,11200
2015/09/03,5770,6300,5720,6160,1474000,12320
2015/09/04,6080,6120,5700,5840,1595000,11680
2015/09/07,5740,5850,5660,5760,686000,11520
2015/09/08,5760,5770,5230,5250,1264000,10500
2015/09/09,5530,5610,5340,5610,1037000,11220
2015/09/10,5490,5570,5410,5570,673000,11140
2015/09/11,5500,5940,5500,5810,1043000,11620
2015/09/14,5800,6000,5730,5760,739000,11520
2015/09/15,5770,5930,5740,5880,566000,11760
2015/09/16,5890,5930,5700,5860,597000,11720
2015/09/17,5860,5930,5740,5890,598000,11780
2015/09/18,5900,6080,5850,5920,894000,11840
2015/09/24,5790,5970,5770,5770,873000,11540
2015/09/25,5760,5920,5620,5920,701000,11840
2015/09/28,11830,11930,11500,11620,426400,11620
2015/09/29,11320,11580,10630,10730,499800,10730
2015/09/30,10850,11190,10820,11050,340300,11050
2015/10/01,10610,10650,8690,9630,1872100,9630
2015/10/02,9700,9850,9210,9340,977200,9340
2015/10/05,9120,9670,9120,9610,612800,9610
2015/10/06,9610,9730,9370,9620,419300,9620
2015/10/07,9550,9570,8940,9040,577600,9040
2015/10/08,8890,8900,8560,8670,756600,8670
2015/10/09,8710,8800,8410,8630,615000,8630
2015/10/13,8520,8820,8420,8740,508800,8740
2015/10/14,8830,8880,8640,8660,358200,8660
2015/10/15,8660,9080,8650,8830,434200,8830
2015/10/16,8840,9030,8790,8860,290300,8860
