2010/01/04,256,256,256,256,1000,256
2010/01/05,266,268,258,268,3000,268
2010/01/06,261,261,261,261,1000,261
2010/01/07,263,263,262,262,2000,262
2010/01/08,264,264,264,264,4000,264
2010/01/12,263,264,262,262,6000,262
2010/01/13,262,262,260,262,6000,262
2010/01/14,262,263,262,263,3000,263
2010/01/15,263,263,261,261,5000,261
2010/01/18,260,260,260,260,1000,260
2010/01/19,263,265,263,265,2000,265
2010/01/20,265,265,265,265,2000,265
2010/01/21,265,265,263,263,5000,263
2010/01/22,263,263,263,263,1000,263
2010/01/25,263,268,263,268,4000,268
2010/01/27,263,263,263,263,2000,263
2010/01/28,262,262,262,262,8000,262
2010/02/01,262,263,262,263,3000,263
2010/02/02,261,261,261,261,1000,261
2010/02/03,263,264,262,262,5000,262
2010/02/04,263,264,259,260,12000,260
2010/02/05,260,261,259,261,6000,261
2010/02/08,260,264,260,264,6000,264
2010/02/09,262,262,262,262,2000,262
2010/02/10,259,267,259,267,3000,267
2010/02/12,261,265,260,260,15000,260
2010/02/15,261,263,260,263,13000,263
2010/02/16,264,264,261,261,3000,261
2010/02/17,263,265,261,265,6000,265
2010/02/19,264,264,263,263,2000,263
2010/02/22,264,264,263,263,3000,263
2010/02/23,268,268,268,268,1000,268
2010/02/24,266,266,265,265,3000,265
2010/02/25,267,267,261,262,7000,262
2010/02/26,263,264,263,264,5000,264
2010/03/01,267,267,264,264,4000,264
2010/03/02,263,263,263,263,2000,263
2010/03/03,264,264,263,263,4000,263
2010/03/04,265,265,265,265,2000,265
2010/03/05,265,265,261,263,12000,263
2010/03/08,264,265,263,263,8000,263
2010/03/09,267,267,267,267,3000,267
2010/03/10,266,266,263,263,7000,263
2010/03/11,266,266,265,265,5000,265
2010/03/12,265,266,265,265,6000,265
2010/03/15,266,270,266,270,16000,270
2010/03/16,270,272,270,272,13000,272
2010/03/17,273,275,272,273,17000,273
2010/03/18,273,277,271,271,13000,271
2010/03/19,276,277,271,274,9000,274
2010/03/23,277,278,277,277,9000,277
2010/03/24,280,280,278,278,4000,278
2010/03/25,278,285,278,285,16000,285
2010/03/26,285,290,283,289,21000,289
2010/03/29,279,279,270,270,16000,270
2010/03/30,271,272,271,271,5000,271
2010/03/31,268,269,268,269,2000,269
2010/04/01,269,271,269,270,6000,270
2010/04/02,270,271,270,270,8000,270
2010/04/05,271,271,270,270,4000,270
2010/04/06,268,268,268,268,1000,268
2010/04/07,267,270,267,270,5000,270
2010/04/08,270,270,270,270,3000,270
2010/04/09,270,270,268,268,5000,268
2010/04/12,268,273,268,273,3000,273
2010/04/13,270,270,269,269,6000,269
2010/04/14,272,272,267,268,15000,268
2010/04/15,268,269,267,267,8000,267
2010/04/16,268,268,267,268,6000,268
2010/04/19,267,267,266,266,4000,266
2010/04/20,265,265,265,265,13000,265
2010/04/21,265,266,262,263,7000,263
2010/04/22,267,267,262,265,5000,265
2010/04/23,263,263,263,263,3000,263
2010/04/26,262,265,262,265,8000,265
2010/04/27,263,264,263,264,2000,264
2010/04/28,262,262,262,262,2000,262
2010/04/30,265,266,263,263,5000,263
2010/05/07,263,263,260,262,13000,262
2010/05/10,262,262,260,260,6000,260
2010/05/11,264,265,260,265,6000,265
2010/05/12,261,266,261,266,2000,266
2010/05/13,262,262,262,262,2000,262
2010/05/14,267,267,263,263,3000,263
2010/05/17,263,263,263,263,1000,263
2010/05/18,263,263,262,262,5000,262
2010/05/19,262,262,260,260,5000,260
2010/05/20,256,257,256,257,4000,257
2010/05/21,254,254,246,250,4000,250
2010/05/24,251,251,251,251,2000,251
2010/05/25,251,251,247,247,4000,247
2010/05/26,240,247,240,244,12000,244
2010/05/27,244,244,240,240,10000,240
2010/05/28,242,249,241,245,8000,245
2010/05/31,241,249,241,249,3000,249
2010/06/01,246,246,246,246,1000,246
2010/06/02,245,245,245,245,2000,245
2010/06/03,252,252,252,252,1000,252
2010/06/07,246,248,246,248,2000,248
2010/06/08,243,243,242,242,3000,242
2010/06/10,242,242,242,242,1000,242
2010/06/11,245,245,243,245,3000,245
2010/06/14,252,252,252,252,1000,252
2010/06/15,254,254,248,248,6000,248
2010/06/16,250,254,250,251,3000,251
2010/06/17,250,250,250,250,2000,250
2010/06/21,250,257,250,250,7000,250
2010/06/22,251,251,250,250,7000,250
2010/06/23,248,248,248,248,1000,248
2010/06/24,248,248,245,245,3000,245
2010/06/25,247,247,247,247,2000,247
2010/06/28,247,249,245,249,4000,249
2010/06/30,245,245,240,240,6000,240
2010/07/01,240,240,240,240,2000,240
2010/07/02,240,240,236,237,12000,237
2010/07/05,238,240,238,240,3000,240
2010/07/06,240,240,240,240,1000,240
2010/07/07,239,240,239,240,3000,240
2010/07/08,240,240,237,237,9000,237
2010/07/09,236,245,236,238,20000,238
2010/07/12,238,238,238,238,2000,238
2010/07/13,237,237,237,237,5000,237
2010/07/14,238,240,238,238,8000,238
2010/07/15,239,241,238,239,5000,239
2010/07/16,239,239,239,239,5000,239
2010/07/20,239,239,235,235,4000,235
2010/07/21,236,236,236,236,1000,236
2010/07/22,236,236,235,235,2000,235
2010/07/23,235,240,234,240,4000,240
2010/07/26,242,244,241,244,4000,244
2010/07/27,244,244,244,244,5000,244
2010/07/28,240,242,240,242,3000,242
2010/07/29,239,239,239,239,1000,239
2010/07/30,240,240,240,240,2000,240
2010/08/05,240,240,238,240,3000,240
2010/08/10,240,241,240,241,2000,241
2010/08/12,238,238,235,235,5000,235
2010/08/13,237,237,230,235,8000,235
2010/08/16,237,237,237,237,1000,237
2010/08/17,237,237,237,237,2000,237
2010/08/18,235,235,235,235,2000,235
2010/08/20,240,240,240,240,1000,240
2010/08/23,240,248,240,240,4000,240
2010/08/24,232,232,225,230,9000,230
2010/08/25,230,237,230,234,7000,234
2010/08/26,228,229,221,229,13000,229
2010/08/27,224,228,224,228,2000,228
2010/08/30,229,247,229,247,14000,247
2010/08/31,245,254,233,238,13000,238
2010/09/01,246,258,246,257,5000,257
2010/09/02,251,255,250,250,3000,250
2010/09/03,250,250,240,240,10000,240
2010/09/07,247,247,247,247,1000,247
2010/09/08,250,250,250,250,3000,250
2010/09/09,242,245,242,242,5000,242
2010/09/10,241,247,241,247,2000,247
2010/09/13,244,244,244,244,2000,244
2010/09/14,247,247,247,247,1000,247
2010/09/15,247,250,247,248,13000,248
2010/09/16,248,248,242,242,3000,242
2010/09/17,245,245,245,245,1000,245
2010/09/21,243,246,242,246,4000,246
2010/09/22,246,247,246,246,3000,246
2010/09/24,246,254,246,254,8000,254
2010/09/27,254,254,254,254,1000,254
2010/09/28,254,254,254,254,3000,254
2010/09/29,246,246,246,246,1000,246
2010/09/30,244,244,244,244,1000,244
2010/10/01,242,242,234,235,9000,235
2010/10/05,231,231,229,229,6000,229
2010/10/06,231,238,231,238,3000,238
2010/10/07,231,233,230,230,9000,230
2010/10/08,230,233,230,232,5000,232
2010/10/12,230,232,230,232,2000,232
2010/10/13,237,237,229,229,9000,229
2010/10/14,228,228,228,228,1000,228
2010/10/15,231,231,231,231,1000,231
2010/10/18,231,231,229,231,5000,231
2010/10/19,230,230,225,225,12000,225
2010/10/20,225,230,225,230,6000,230
2010/10/21,227,235,227,227,7000,227
2010/10/22,226,227,225,226,7000,226
2010/10/25,226,226,226,226,5000,226
2010/10/26,225,225,223,223,5000,223
2010/10/27,226,226,224,224,2000,224
2010/10/28,223,223,223,223,2000,223
2010/10/29,225,226,225,226,2000,226
2010/11/01,225,225,220,221,9000,221
2010/11/02,227,227,224,224,2000,224
2010/11/04,221,260,221,260,40000,260
2010/11/05,290,330,281,320,350000,320
2010/11/08,315,320,283,292,149000,292
2010/11/09,286,304,283,290,48000,290
2010/11/10,282,282,270,278,34000,278
2010/11/11,272,279,270,276,30000,276
2010/11/12,268,271,260,271,34000,271
2010/11/15,271,271,263,270,15000,270
2010/11/16,265,270,265,270,6000,270
2010/11/17,265,266,260,262,20000,262
2010/11/18,262,265,262,265,8000,265
2010/11/19,267,269,264,264,14000,264
2010/11/22,259,260,251,256,41000,256
2010/11/24,251,255,251,252,4000,252
2010/11/25,253,255,253,255,10000,255
2010/11/26,255,255,252,252,8000,252
2010/11/29,256,256,252,252,2000,252
2010/11/30,252,255,252,252,17000,252
2010/12/01,254,256,254,254,7000,254
2010/12/02,254,270,254,267,32000,267
2010/12/03,266,266,258,258,9000,258
2010/12/06,257,257,253,254,13000,254
2010/12/07,255,255,254,254,8000,254
2010/12/08,253,256,253,253,17000,253
2010/12/09,251,254,251,251,13000,251
2010/12/10,251,253,251,251,13000,251
2010/12/13,254,256,250,256,17000,256
2010/12/14,256,257,254,255,18000,255
2010/12/15,256,257,254,254,10000,254
2010/12/16,253,256,252,256,10000,256
2010/12/17,253,256,253,255,7000,255
2010/12/20,255,283,255,275,84000,275
2010/12/21,275,275,261,264,39000,264
2010/12/22,265,266,258,264,24000,264
2010/12/24,263,263,260,260,12000,260
2010/12/27,260,261,260,261,13000,261
2010/12/28,264,265,261,261,7000,261
2010/12/29,263,265,263,265,5000,265
2010/12/30,262,265,261,265,5000,265
2011/01/04,265,270,264,270,9000,270
2011/01/05,267,267,266,266,8000,266
2011/01/06,266,266,264,264,9000,264
2011/01/07,264,267,264,267,4000,267
2011/01/11,265,265,264,264,5000,264
2011/01/12,267,267,264,264,8000,264
2011/01/13,264,264,260,260,17000,260
2011/01/14,262,275,261,275,34000,275
2011/01/17,283,329,281,321,179000,321
2011/01/18,315,315,296,300,110000,300
2011/01/19,299,341,299,338,216000,338
2011/01/20,334,337,328,330,65000,330
2011/01/21,326,330,321,330,69000,330
2011/01/24,341,350,316,343,121000,343
2011/01/25,347,357,337,348,111000,348
2011/01/26,343,345,340,341,35000,341
2011/01/27,340,340,330,337,36000,337
2011/01/28,327,327,318,320,30000,320
2011/01/31,317,321,306,312,21000,312
2011/02/01,312,312,306,312,16000,312
2011/02/02,308,318,308,314,15000,314
2011/02/03,315,319,310,319,12000,319
2011/02/04,321,323,321,322,5000,322
2011/02/07,320,321,314,315,5000,315
2011/02/08,310,315,310,315,3000,315
2011/02/09,311,319,311,312,12000,312
2011/02/10,310,319,310,311,11000,311
2011/02/14,311,317,311,312,17000,312
2011/02/15,310,317,310,317,23000,317
2011/02/16,317,317,310,311,16000,311
2011/02/17,312,315,308,308,11000,308
2011/02/18,312,312,307,312,11000,312
2011/02/21,312,324,311,316,61000,316
2011/02/22,320,323,316,316,20000,316
2011/02/23,312,320,310,312,21000,312
2011/02/24,310,310,308,309,16000,309
2011/02/25,310,317,309,317,18000,317
2011/02/28,318,325,317,323,16000,323
2011/03/01,332,335,327,335,26000,335
2011/03/02,335,335,325,325,21000,325
2011/03/03,329,335,328,332,17000,332
2011/03/04,332,336,330,330,25000,330
2011/03/07,330,348,330,340,55000,340
2011/03/08,340,345,336,340,17000,340
2011/03/09,338,341,333,339,18000,339
2011/03/10,334,338,328,331,10000,331
2011/03/11,328,333,322,322,20000,322
2011/03/14,274,300,274,281,41000,281
2011/03/15,281,287,251,251,30000,251
2011/03/16,251,286,251,265,40000,265
2011/03/17,252,270,252,268,18000,268
2011/03/18,270,286,270,286,9000,286
2011/03/22,305,305,303,305,13000,305
2011/03/23,305,305,303,304,11000,304
2011/03/25,312,312,302,310,15000,310
2011/03/28,310,328,300,310,64000,310
2011/03/29,335,335,321,325,72000,325
2011/03/30,326,335,325,325,22000,325
2011/03/31,327,329,320,324,17000,324
2011/04/01,316,316,311,312,10000,312
2011/04/04,312,312,306,309,6000,309
2011/04/05,310,310,302,302,10000,302
2011/04/06,301,301,299,300,8000,300
2011/04/07,300,300,296,296,6000,296
2011/04/08,296,296,290,291,5000,291
2011/04/11,291,301,291,301,6000,301
2011/04/12,301,301,301,301,4000,301
2011/04/13,300,300,300,300,1000,300
2011/04/14,300,300,300,300,2000,300
2011/04/15,300,300,292,292,7000,292
2011/04/18,290,290,290,290,1000,290
2011/04/19,290,290,290,290,2000,290
2011/04/20,290,293,290,290,6000,290
2011/04/21,290,290,288,290,6000,290
2011/04/22,290,290,286,286,6000,286
2011/04/26,286,286,286,286,1000,286
2011/04/27,290,290,290,290,3000,290
2011/04/28,292,292,290,290,5000,290
2011/05/02,289,289,285,285,3000,285
2011/05/06,285,286,285,285,4000,285
2011/05/09,287,287,287,287,1000,287
2011/05/10,290,290,290,290,3000,290
2011/05/11,288,288,287,287,3000,287
2011/05/12,285,319,285,285,19000,285
2011/05/13,283,288,272,272,15000,272
2011/05/16,272,272,272,272,3000,272
2011/05/17,272,276,272,276,2000,276
2011/05/18,279,280,279,279,3000,279
2011/05/19,279,280,279,280,4000,280
2011/05/20,287,287,282,282,3000,282
2011/05/23,276,281,276,281,9000,281
2011/05/25,278,283,278,283,2000,283
2011/05/26,283,283,280,280,2000,280
2011/05/27,277,277,277,277,3000,277
2011/05/30,276,276,276,276,2000,276
2011/05/31,276,276,275,275,3000,275
2011/06/02,274,276,274,276,3000,276
2011/06/03,275,279,275,279,2000,279
2011/06/06,272,272,272,272,1000,272
2011/06/08,272,272,272,272,1000,272
2011/06/09,279,279,279,279,2000,279
2011/06/10,285,285,280,285,4000,285
2011/06/13,280,280,280,280,2000,280
2011/06/14,279,279,276,276,3000,276
2011/06/15,278,287,277,277,6000,277
2011/06/16,277,277,277,277,2000,277
2011/06/17,277,277,277,277,3000,277
2011/06/20,277,277,277,277,1000,277
2011/06/21,277,277,262,262,11000,262
2011/06/22,267,282,267,275,13000,275
2011/06/23,275,280,272,278,10000,278
2011/06/24,273,276,271,276,4000,276
2011/06/27,284,322,284,311,64000,311
2011/06/28,315,317,302,311,26000,311
2011/06/29,312,315,301,314,21000,314
2011/06/30,314,315,310,314,11000,314
2011/07/01,314,317,310,314,12000,314
2011/07/04,313,313,310,310,7000,310
2011/07/05,310,310,306,306,11000,306
2011/07/06,312,312,302,304,7000,304
2011/07/07,305,308,305,308,10000,308
2011/07/08,310,327,310,327,76000,327
2011/07/11,327,340,326,335,60000,335
2011/07/12,334,334,328,334,24000,334
2011/07/13,334,336,329,333,10000,333
2011/07/14,333,333,326,329,18000,329
2011/07/15,329,330,326,327,9000,327
2011/07/19,327,327,317,323,10000,323
2011/07/20,320,328,320,328,10000,328
2011/07/21,323,337,321,337,17000,337
2011/07/22,329,335,325,326,9000,326
2011/07/25,329,329,326,326,5000,326
2011/07/26,326,326,323,323,4000,323
2011/07/27,317,318,316,318,13000,318
2011/07/28,315,319,315,316,6000,316
2011/07/29,319,319,315,315,8000,315
2011/08/01,310,320,310,316,10000,316
2011/08/02,315,315,313,315,5000,315
2011/08/03,307,307,296,296,15000,296
2011/08/04,298,308,298,307,6000,307
2011/08/05,307,307,299,299,5000,299
2011/08/08,298,298,290,295,9000,295
2011/08/09,276,298,276,298,13000,298
2011/08/10,296,302,296,301,5000,301
2011/08/11,298,299,296,299,5000,299
2011/08/12,299,299,299,299,2000,299
2011/08/15,300,300,298,298,10000,298
2011/08/16,295,295,295,295,2000,295
2011/08/17,295,295,295,295,1000,295
2011/08/18,303,303,295,295,3000,295
2011/08/19,295,295,295,295,3000,295
2011/08/22,296,297,293,293,8000,293
2011/08/23,293,294,290,294,5000,294
2011/08/24,305,305,305,305,7000,305
2011/08/25,305,305,296,298,4000,298
2011/08/26,294,295,293,293,9000,293
2011/08/29,297,297,291,291,18000,291
2011/08/30,291,297,291,292,8000,292
2011/08/31,291,293,288,288,7000,288
2011/09/01,293,293,292,293,12000,293
2011/09/02,295,295,291,291,9000,291
2011/09/05,289,289,285,285,22000,285
2011/09/06,286,293,280,280,22000,280
2011/09/07,281,283,281,283,4000,283
2011/09/08,287,288,285,285,6000,285
2011/09/09,282,286,282,284,4000,284
2011/09/12,284,286,283,286,7000,286
2011/09/14,283,290,283,290,6000,290
2011/09/15,290,291,283,290,6000,290
2011/09/16,290,290,287,287,3000,287
2011/09/20,290,305,289,305,15000,305
2011/09/21,297,297,295,295,3000,295
2011/09/22,287,287,287,287,1000,287
2011/09/26,287,287,286,286,4000,286
2011/09/27,286,288,285,285,3000,285
2011/09/28,286,286,285,285,2000,285
2011/09/29,285,295,281,295,12000,295
2011/09/30,295,295,287,287,3000,287
2011/10/03,290,291,290,291,2000,291
2011/10/04,283,284,283,284,3000,284
2011/10/05,282,288,282,288,4000,288
2011/10/06,285,285,284,284,4000,284
2011/10/07,284,284,282,282,4000,282
2011/10/11,281,282,281,282,3000,282
2011/10/12,282,285,282,282,4000,282
2011/10/13,288,288,285,285,4000,285
2011/10/14,293,293,285,290,4000,290
2011/10/17,290,290,290,290,4000,290
2011/10/18,290,290,290,290,6000,290
2011/10/19,290,290,290,290,3000,290
2011/10/20,290,292,290,292,2000,292
2011/10/21,290,293,290,293,3000,293
2011/10/24,300,300,295,295,6000,295
2011/10/25,295,299,295,299,7000,299
2011/10/26,299,299,292,294,5000,294
2011/10/27,295,301,294,298,24000,298
2011/10/28,298,301,298,300,25000,300
2011/10/31,300,303,300,303,5000,303
2011/11/01,305,308,300,308,14000,308
2011/11/02,303,303,301,301,5000,301
2011/11/04,301,302,301,302,4000,302
2011/11/07,307,318,307,315,24000,315
2011/11/08,312,313,308,308,12000,308
2011/11/09,310,313,308,310,10000,310
2011/11/10,311,313,311,313,18000,313
2011/11/11,312,313,310,313,12000,313
2011/11/14,315,322,315,318,33000,318
2011/11/15,318,318,315,316,7000,316
2011/11/16,324,324,310,315,31000,315
2011/11/17,323,332,317,331,56000,331
2011/11/18,335,340,330,336,33000,336
2011/11/21,336,339,335,335,15000,335
2011/11/22,329,330,321,330,16000,330
2011/11/24,325,327,322,323,19000,323
2011/11/25,324,328,324,325,6000,325
2011/11/28,340,340,331,331,9000,331
2011/11/29,331,332,323,323,9000,323
2011/11/30,324,324,320,321,17000,321
2011/12/01,323,332,310,314,44000,314
2011/12/02,317,319,310,319,12000,319
2011/12/05,318,318,307,312,11000,312
2011/12/06,307,311,307,310,7000,310
2011/12/07,310,310,310,310,1000,310
2011/12/08,310,310,310,310,3000,310
2011/12/09,308,313,308,313,7000,313
2011/12/12,318,320,315,320,10000,320
2011/12/13,321,336,320,330,28000,330
2011/12/14,330,330,326,326,6000,326
2011/12/15,327,327,325,325,9000,325
2011/12/16,330,330,322,322,3000,322
2011/12/19,326,329,320,325,9000,325
2011/12/20,321,321,320,321,8000,321
2011/12/21,325,325,323,323,10000,323
2011/12/22,322,325,321,325,5000,325
2011/12/26,326,330,325,330,16000,330
2011/12/27,323,326,322,323,10000,323
2011/12/28,324,324,324,324,2000,324
2011/12/29,326,330,326,327,14000,327
2011/12/30,330,336,330,330,18000,330
2012/01/04,332,335,330,330,5000,330
2012/01/05,330,331,326,331,11000,331
2012/01/06,329,329,329,329,1000,329
2012/01/10,328,328,328,328,3000,328
2012/01/11,327,329,327,329,10000,329
2012/01/12,329,329,326,326,3000,326
2012/01/13,326,326,325,325,4000,325
2012/01/16,325,326,323,323,6000,323
2012/01/17,322,324,318,318,20000,318
2012/01/18,316,319,312,319,18000,319
2012/01/19,317,318,316,317,4000,317
2012/01/20,315,327,315,327,6000,327
2012/01/23,321,329,321,325,7000,325
2012/01/24,325,327,324,327,5000,327
2012/01/25,327,329,326,329,11000,329
2012/01/26,328,329,328,329,11000,329
2012/01/30,329,329,326,327,12000,327
2012/01/31,329,329,327,327,8000,327
2012/02/01,327,331,327,331,18000,331
2012/02/02,329,330,329,330,6000,330
2012/02/03,329,335,328,330,26000,330
2012/02/06,332,336,331,336,15000,336
2012/02/07,336,348,336,343,32000,343
2012/02/08,343,359,343,352,34000,352
2012/02/09,356,359,336,354,43000,354
2012/02/10,354,358,353,358,26000,358
2012/02/13,360,368,358,360,99000,360
2012/02/14,359,361,350,350,47000,350
2012/02/15,350,354,350,352,24000,352
2012/02/16,352,352,350,350,15000,350
2012/02/17,350,352,350,350,17000,350
2012/02/20,351,352,349,349,16000,349
2012/02/21,348,349,348,349,7000,349
2012/02/22,345,349,345,349,12000,349
2012/02/23,348,350,348,349,11000,349
2012/02/24,352,355,352,355,12000,355
2012/02/27,357,360,357,357,32000,357
2012/02/28,357,359,357,359,5000,359
2012/02/29,363,363,360,360,11000,360
2012/03/01,363,363,359,360,13000,360
2012/03/02,357,360,357,357,11000,357
2012/03/05,360,361,357,359,8000,359
2012/03/06,357,360,353,355,19000,355
2012/03/07,350,355,350,355,22000,355
2012/03/08,354,365,354,365,43000,365
2012/03/09,365,368,364,366,20000,366
2012/03/12,368,368,366,367,22000,367
2012/03/13,367,369,357,366,28000,366
2012/03/14,366,369,363,368,14000,368
2012/03/15,369,369,365,367,26000,367
2012/03/16,365,367,365,366,11000,366
2012/03/19,366,368,366,367,22000,367
2012/03/21,368,369,367,368,10000,368
2012/03/22,369,371,367,369,19000,369
2012/03/23,368,370,366,370,18000,370
2012/03/26,370,370,369,370,17000,370
2012/03/27,371,378,370,378,34000,378
2012/03/28,363,376,360,370,31000,370
2012/03/29,368,368,362,367,13000,367
2012/03/30,366,366,355,357,17000,357
2012/04/02,356,356,352,352,12000,352
2012/04/03,346,346,332,346,47000,346
2012/04/04,340,344,340,344,2000,344
2012/04/05,344,345,338,345,21000,345
2012/04/06,345,345,336,338,20000,338
2012/04/09,335,339,333,334,5000,334
2012/04/10,332,333,330,330,15000,330
2012/04/11,330,330,330,330,8000,330
2012/04/12,330,330,330,330,5000,330
2012/04/13,330,330,326,326,15000,326
2012/04/16,326,326,310,324,33000,324
2012/04/17,321,321,318,320,14000,320
2012/04/18,322,322,318,319,11000,319
2012/04/19,319,340,319,336,24000,336
2012/04/20,339,339,332,332,3000,332
2012/04/23,335,350,335,343,31000,343
2012/04/24,339,339,332,332,23000,332
2012/04/25,343,343,333,333,11000,333
2012/04/26,333,333,327,329,26000,329
2012/04/27,330,330,326,326,3000,326
2012/05/01,328,328,323,323,30000,323
2012/05/02,325,327,325,325,6000,325
2012/05/07,322,324,320,320,13000,320
2012/05/08,319,319,318,318,6000,318
2012/05/09,318,321,318,318,7000,318
2012/05/10,319,323,318,323,5000,323
2012/05/11,320,323,318,319,9000,319
2012/05/14,313,314,308,308,9000,308
2012/05/15,305,305,298,300,17000,300
2012/05/16,300,308,300,306,16000,306
2012/05/17,314,314,304,304,6000,304
2012/05/18,309,309,300,300,25000,300
2012/05/21,300,303,300,300,8000,300
2012/05/22,300,306,300,306,4000,306
2012/05/23,306,306,306,306,3000,306
2012/05/24,304,304,303,303,2000,303
2012/05/25,303,305,300,304,9000,304
2012/05/28,303,303,303,303,1000,303
2012/05/29,306,306,303,303,3000,303
2012/05/30,305,313,305,313,17000,313
2012/05/31,315,319,313,313,21000,313
2012/06/01,319,320,310,310,11000,310
2012/06/04,316,330,312,330,22000,330
2012/06/05,336,345,331,345,46000,345
2012/06/06,380,402,371,395,435000,395
2012/06/07,400,400,372,385,169000,385
2012/06/08,380,388,373,374,58000,374
2012/06/11,390,419,390,408,158000,408
2012/06/12,400,410,397,408,106000,408
2012/06/13,408,408,398,399,45000,399
2012/06/14,402,402,381,391,67000,391
2012/06/15,387,405,385,391,94000,391
2012/06/18,393,405,393,403,40000,403
2012/06/19,396,396,392,394,22000,394
2012/06/20,396,399,392,392,14000,392
2012/06/21,395,397,394,396,32000,396
2012/06/22,392,396,390,392,13000,392
2012/06/25,393,395,392,392,12000,392
2012/06/26,388,396,382,385,31000,385
2012/06/27,382,385,380,380,32000,380
2012/06/28,383,385,382,385,12000,385
2012/06/29,385,387,380,383,20000,383
2012/07/02,383,390,383,387,26000,387
2012/07/03,387,395,386,395,13000,395
2012/07/04,397,397,389,390,25000,390
2012/07/05,391,391,388,390,4000,390
2012/07/06,386,391,383,383,14000,383
2012/07/09,381,383,381,383,15000,383
2012/07/10,382,383,380,380,17000,380
2012/07/11,380,383,377,377,21000,377
2012/07/12,377,382,377,377,9000,377
2012/07/13,377,380,377,377,5000,377
2012/07/17,379,380,377,380,7000,380
2012/07/18,380,380,377,377,10000,377
2012/07/19,380,380,376,376,7000,376
2012/07/20,376,379,374,378,13000,378
2012/07/23,378,380,370,370,16000,370
2012/07/24,362,368,360,360,19000,360
2012/07/25,360,360,360,360,4000,360
2012/07/26,360,368,357,357,15000,357
2012/07/27,368,375,368,375,5000,375
2012/07/30,375,385,361,375,50000,375
2012/07/31,376,376,370,370,6000,370
2012/08/01,364,364,363,363,5000,363
2012/08/02,365,367,365,367,2000,367
2012/08/03,362,362,361,361,5000,361
2012/08/06,361,362,361,361,5000,361
2012/08/07,360,360,355,355,4000,355
2012/08/08,360,363,356,356,7000,356
2012/08/09,367,367,363,363,6000,363
2012/08/10,361,361,361,361,6000,361
2012/08/13,356,356,352,352,21000,352
2012/08/14,355,355,352,353,8000,353
2012/08/15,355,355,354,354,2000,354
2012/08/16,356,360,356,360,7000,360
2012/08/17,361,362,358,362,8000,362
2012/08/20,364,365,358,360,5000,360
2012/08/21,360,360,354,355,10000,355
2012/08/22,355,356,355,355,7000,355
2012/08/23,355,356,355,355,6000,355
2012/08/24,355,356,354,354,8000,354
2012/08/27,354,355,354,354,7000,354
2012/08/28,355,355,351,351,6000,351
2012/08/29,351,354,351,353,6000,353
2012/08/30,353,353,352,352,3000,352
2012/08/31,355,355,348,348,8000,348
2012/09/03,347,347,343,344,14000,344
2012/09/04,342,344,340,340,10000,340
2012/09/05,340,340,335,335,11000,335
2012/09/06,333,343,333,335,10000,335
2012/09/07,347,348,340,340,4000,340
2012/09/10,356,356,341,349,4000,349
2012/09/11,350,350,345,345,5000,345
2012/09/12,342,345,342,345,6000,345
2012/09/13,350,354,350,354,13000,354
2012/09/14,353,353,350,350,2000,350
2012/09/18,350,351,350,350,3000,350
2012/09/19,354,354,350,351,12000,351
2012/09/20,352,352,348,348,6000,348
2012/09/21,355,355,343,343,8000,343
2012/09/24,343,351,343,344,9000,344
2012/09/25,346,346,345,345,4000,345
2012/09/26,349,349,343,343,5000,343
2012/09/27,340,347,340,347,9000,347
2012/09/28,350,350,344,344,3000,344
2012/10/02,348,348,344,344,9000,344
2012/10/03,344,345,343,343,4000,343
2012/10/04,343,343,342,342,4000,342
2012/10/05,341,365,340,365,34000,365
2012/10/09,389,389,367,380,67000,380
2012/10/10,378,378,368,368,32000,368
2012/10/11,368,368,368,368,2000,368
2012/10/12,364,365,358,362,12000,362
2012/10/15,362,362,358,360,4000,360
2012/10/16,360,360,352,353,19000,353
2012/10/17,355,355,353,353,5000,353
2012/10/18,353,356,351,356,5000,356
2012/10/22,360,360,356,359,3000,359
2012/10/23,359,360,358,358,5000,358
2012/10/24,358,362,355,358,9000,358
2012/10/25,358,364,358,363,5000,363
2012/10/26,363,365,360,365,8000,365
2012/10/29,365,369,365,369,3000,369
2012/10/30,368,380,368,380,26000,380
2012/10/31,379,389,370,378,49000,378
2012/11/01,378,380,376,376,6000,376
2012/11/02,381,381,370,373,13000,373
2012/11/05,373,376,373,376,10000,376
2012/11/06,371,371,370,370,4000,370
2012/11/07,370,370,370,370,5000,370
2012/11/08,368,372,363,372,12000,372
2012/11/09,364,370,362,370,4000,370
2012/11/12,368,368,362,362,6000,362
2012/11/13,360,360,353,355,17000,355
2012/11/14,353,353,343,346,26000,346
2012/11/15,352,352,347,349,4000,349
2012/11/16,355,358,353,353,9000,353
2012/11/19,353,358,350,357,17000,357
2012/11/20,357,357,352,353,9000,353
2012/11/21,357,357,352,352,4000,352
2012/11/22,352,352,351,351,13000,351
2012/11/26,350,359,349,352,23000,352
2012/11/27,357,358,352,352,7000,352
2012/11/28,352,352,350,351,8000,351
2012/11/29,351,352,350,351,9000,351
2012/11/30,412,429,383,390,385000,390
2012/12/03,398,398,378,385,66000,385
2012/12/04,380,385,374,374,22000,374
2012/12/05,375,379,375,378,14000,378
2012/12/06,376,386,376,386,20000,386
2012/12/07,385,385,381,383,9000,383
2012/12/10,383,383,380,380,10000,380
2012/12/11,380,380,375,375,13000,375
2012/12/12,375,380,374,374,13000,374
2012/12/13,380,380,370,376,20000,376
2012/12/14,376,376,372,373,12000,373
2012/12/17,375,376,373,373,10000,373
2012/12/18,373,375,373,373,10000,373
2012/12/19,375,377,374,376,24000,376
2012/12/20,377,380,376,379,15000,379
2012/12/21,381,383,375,375,26000,375
2012/12/25,376,379,376,376,18000,376
2012/12/26,376,382,376,381,19000,381
2012/12/27,380,385,378,378,30000,378
2012/12/28,378,378,376,378,17000,378
2013/01/04,384,387,382,387,16000,387
2013/01/07,395,397,391,393,34000,393
2013/01/08,394,394,389,390,18000,390
2013/01/09,392,394,387,392,30000,392
2013/01/10,393,396,393,395,22000,395
2013/01/11,397,398,395,396,19000,396
2013/01/15,398,405,398,401,19000,401
2013/01/16,405,405,399,401,32000,401
2013/01/17,400,400,394,394,15000,394
2013/01/18,397,397,393,393,35000,393
2013/01/21,393,395,392,392,14000,392
2013/01/22,392,396,392,395,9000,395
2013/01/23,394,394,393,393,6000,393
2013/01/24,394,420,394,409,118000,409
2013/01/25,408,408,400,404,35000,404
2013/01/28,404,412,403,407,48000,407
2013/01/29,407,407,402,403,25000,403
2013/01/30,404,406,394,400,57000,400
2013/01/31,401,405,401,403,10000,403
2013/02/01,403,403,400,403,15000,403
2013/02/04,399,403,399,403,31000,403
2013/02/05,403,405,400,401,35000,401
2013/02/06,404,404,400,400,20000,400
2013/02/07,400,401,398,398,18000,398
2013/02/08,398,398,394,395,33000,395
2013/02/12,396,398,392,397,24000,397
2013/02/13,397,397,393,394,21000,394
2013/02/14,391,393,391,392,13000,392
2013/02/15,392,393,390,390,21000,390
2013/02/18,391,395,391,393,16000,393
2013/02/19,392,393,390,390,16000,390
2013/02/20,395,415,391,415,149000,415
2013/02/21,441,453,424,438,278000,438
2013/02/22,430,435,423,423,45000,423
2013/02/25,415,420,415,418,57000,418
2013/02/26,415,415,408,415,32000,415
2013/02/27,418,421,418,421,18000,421
2013/02/28,425,425,410,418,26000,418
2013/03/01,413,418,413,418,13000,418
2013/03/04,418,421,418,418,18000,418
2013/03/05,419,422,419,420,16000,420
2013/03/06,423,428,422,425,14000,425
2013/03/07,430,434,425,430,32000,430
2013/03/08,433,434,431,434,17000,434
2013/03/11,442,455,442,449,105000,449
2013/03/12,455,457,449,450,70000,450
2013/03/13,443,453,441,449,52000,449
2013/03/14,452,452,445,447,25000,447
2013/03/15,448,450,445,447,25000,447
2013/03/18,447,448,444,445,23000,445
2013/03/19,486,490,461,468,186000,468
2013/03/21,468,470,461,466,61000,466
2013/03/22,477,478,469,473,42000,473
2013/03/25,477,481,475,481,61000,481
2013/03/26,481,484,475,481,67000,481
2013/03/27,466,473,466,471,39000,471
2013/03/28,470,470,450,455,37000,455
2013/03/29,452,455,448,452,22000,452
2013/04/01,445,445,424,424,38000,424
2013/04/02,418,432,411,430,30000,430
2013/04/03,437,438,430,430,10000,430
2013/04/04,426,431,426,428,10000,428
2013/04/05,440,440,433,440,21000,440
2013/04/08,440,460,428,451,82000,451
2013/04/09,451,457,444,444,22000,444
2013/04/10,444,447,443,447,10000,447
2013/04/11,447,450,443,443,20000,443
2013/04/12,440,445,440,441,18000,441
2013/04/15,441,445,441,443,14000,443
2013/04/16,443,445,441,445,22000,445
2013/04/17,450,450,446,447,19000,447
2013/04/18,447,448,445,446,12000,446
2013/04/19,455,478,454,469,146000,469
2013/04/22,472,491,463,491,252000,491
2013/04/23,500,504,482,490,214000,490
2013/04/24,490,490,480,482,71000,482
2013/04/25,481,487,474,487,71000,487
2013/04/26,481,487,478,478,37000,478
2013/04/30,490,490,477,485,60000,485
2013/05/01,485,490,482,486,47000,486
2013/05/02,490,490,485,488,43000,488
2013/05/07,488,510,485,503,144000,503
2013/05/08,505,522,480,500,212000,500
2013/05/09,510,580,510,567,494000,567
2013/05/10,655,665,631,665,664000,665
2013/05/13,662,662,592,611,401000,611
2013/05/14,600,660,596,629,282000,629
2013/05/15,638,640,552,609,233000,609
2013/05/16,601,601,550,575,175000,575
2013/05/17,560,607,557,607,124000,607
2013/05/20,625,625,602,607,85000,607
2013/05/21,610,614,608,612,103000,612
2013/05/22,712,712,712,712,203000,712
2013/05/23,731,747,671,720,827000,720
2013/05/24,735,870,725,862,711000,862
2013/05/27,802,849,745,745,466000,745
2013/05/28,737,775,676,727,248000,727
2013/05/29,735,770,735,745,136000,745
2013/05/30,730,740,693,702,103000,702
2013/05/31,711,730,686,706,82000,706
2013/06/03,685,694,662,662,120000,662
2013/06/04,642,661,615,653,175000,653
2013/06/05,653,671,614,629,112000,629
2013/06/06,609,616,543,566,242000,566
2013/06/07,526,549,525,542,198000,542
2013/06/10,579,607,573,607,77000,607
2013/06/11,605,619,600,602,68000,602
2013/06/12,582,605,582,598,56000,598
2013/06/13,576,588,565,565,79000,565
2013/06/14,569,580,566,570,38000,570
2013/06/17,572,599,572,593,84000,593
2013/06/18,594,607,594,602,65000,602
2013/06/19,605,611,601,606,41000,606
2013/06/20,605,611,603,609,25000,609
2013/06/21,600,605,590,596,80000,596
2013/06/24,600,600,590,592,21000,592
2013/06/25,590,590,572,573,34000,573
2013/06/26,577,577,557,557,70000,557
2013/06/27,557,559,532,559,54000,559
2013/06/28,558,579,557,571,23000,571
2013/07/01,571,579,570,575,33000,575
2013/07/02,578,590,578,586,32000,586
2013/07/03,585,595,580,590,73000,590
2013/07/04,596,598,592,593,29000,593
2013/07/05,593,597,589,589,41000,589
2013/07/08,592,598,589,589,56000,589
2013/07/09,598,599,589,599,48000,599
2013/07/10,600,625,600,620,173000,620
2013/07/11,625,688,625,686,285000,686
2013/07/12,702,714,675,682,229000,682
2013/07/16,704,706,689,703,125000,703
2013/07/17,700,712,692,697,113000,697
2013/07/18,690,690,653,684,97000,684
2013/07/19,677,684,653,656,137000,656
2013/07/22,676,684,670,675,70000,675
2013/07/23,666,674,666,672,20000,672
2013/07/24,682,682,662,662,34000,662
2013/07/25,668,675,659,665,26000,665
2013/07/26,660,665,655,655,33000,655
2013/07/29,645,645,631,641,66000,641
2013/07/30,635,650,635,645,30000,645
2013/07/31,645,655,644,648,18000,648
2013/08/01,649,651,645,649,32000,649
2013/08/02,659,673,659,673,51000,673
2013/08/05,675,677,671,673,35000,673
2013/08/06,673,676,670,675,17000,675
2013/08/07,676,678,671,676,39000,676
2013/08/08,673,678,673,674,30000,674
2013/08/09,674,680,672,674,50000,674
2013/08/12,671,671,655,655,34000,655
2013/08/13,655,665,646,665,39000,665
2013/08/14,661,701,660,697,134000,697
2013/08/15,710,729,708,723,197000,723
2013/08/16,729,771,725,765,305000,765
2013/08/19,800,842,788,830,532000,830
2013/08/20,844,853,779,789,422000,789
2013/08/21,795,837,792,822,255000,822
2013/08/22,820,895,820,895,551000,895
2013/08/23,1045,1045,1045,1045,473000,1045
2013/08/26,1105,1288,1045,1188,1694000,1188
2013/08/27,1187,1190,1100,1110,521000,1110
2013/08/28,1002,1035,1000,1014,448000,1014
2013/08/29,1014,1028,950,988,256000,988
2013/08/30,978,1000,952,969,167000,969
2013/09/02,962,970,904,923,205000,923
2013/09/03,923,996,908,984,266000,984
2013/09/04,978,1019,956,993,140000,993
2013/09/05,993,993,952,968,94000,968
2013/09/06,962,974,945,961,59000,961
2013/09/09,970,976,940,940,108000,940
2013/09/10,949,949,910,925,123000,925
2013/09/11,922,922,860,910,278000,910
2013/09/12,890,948,890,903,301000,903
2013/09/13,903,920,893,912,70000,912
2013/09/17,915,948,912,915,85000,915
2013/09/18,914,936,908,915,60000,915
2013/09/19,914,933,910,927,53000,927
2013/09/20,918,926,915,916,49000,916
2013/09/24,916,935,913,930,61000,930
2013/09/25,930,930,916,916,54000,916
2013/09/26,916,939,916,935,47000,935
2013/09/27,936,936,916,919,41000,919
2013/09/30,920,929,917,921,23000,921
2013/10/01,920,922,912,913,35000,913
2013/10/02,917,918,896,903,74000,903
2013/10/03,903,910,895,898,39000,898
2013/10/04,895,902,866,897,86000,897
2013/10/07,890,897,881,885,45000,885
2013/10/08,871,880,870,874,29000,874
2013/10/09,871,911,871,908,59000,908
2013/10/10,908,909,901,904,35000,904
2013/10/11,911,920,910,914,48000,914
2013/10/15,914,914,902,902,44000,902
2013/10/16,901,903,898,898,25000,898
2013/10/17,915,915,904,904,23000,904
2013/10/18,905,915,902,909,28000,909
2013/10/21,907,914,907,913,24000,913
2013/10/22,915,915,909,913,21000,913
2013/10/23,910,912,905,905,27000,905
2013/10/24,905,914,904,912,28000,912
2013/10/25,910,910,905,908,19000,908
2013/10/28,912,915,909,910,51000,910
2013/10/29,910,912,909,912,14000,912
2013/10/30,908,914,902,902,48000,902
2013/10/31,908,913,904,904,34000,904
2013/11/01,904,911,903,910,37000,910
2013/11/05,913,915,911,915,39000,915
2013/11/06,915,915,912,912,17000,912
2013/11/07,915,940,913,940,85000,940
2013/11/08,935,943,920,920,70000,920
2013/11/11,920,936,900,906,105000,906
2013/11/12,899,901,888,900,60000,900
2013/11/13,891,906,891,900,29000,900
2013/11/14,905,906,898,899,25000,899
2013/11/15,896,903,896,898,38000,898
2013/11/18,900,902,897,897,28000,897
2013/11/19,897,899,891,892,42000,892
2013/11/20,892,894,890,892,32000,892
2013/11/21,892,901,890,893,45000,893
2013/11/22,898,899,890,890,33000,890
2013/11/25,890,895,885,887,70000,887
2013/11/26,885,887,880,881,34000,881
2013/11/27,881,885,880,880,35000,880
2013/11/28,881,884,880,882,23000,882
2013/11/29,882,882,876,880,42000,880
2013/12/02,877,880,875,875,31000,875
2013/12/03,871,874,868,868,46000,868
2013/12/04,867,880,863,874,62000,874
2013/12/05,871,871,850,851,58000,851
2013/12/06,849,851,826,827,57000,827
2013/12/09,821,824,808,811,76000,811
2013/12/10,810,813,805,806,52000,806
2013/12/11,801,810,781,782,80000,782
2013/12/12,794,830,784,824,119000,824
2013/12/13,828,842,822,839,57000,839
2013/12/16,839,839,814,814,24000,814
2013/12/17,810,810,795,800,67000,800
2013/12/18,800,804,795,799,36000,799
2013/12/19,802,805,798,798,54000,798
2013/12/20,787,795,781,785,64000,785
2013/12/24,781,783,778,778,65000,778
2013/12/25,777,778,771,778,68000,778
2013/12/26,774,807,774,807,43000,807
2013/12/27,808,815,808,815,46000,815
2013/12/30,823,825,819,822,18000,822
2014/01/06,836,839,826,836,48000,836
2014/01/07,836,839,833,835,16000,835
2014/01/08,835,843,835,838,18000,838
2014/01/09,839,890,836,890,130000,890
2014/01/10,875,875,836,863,73000,863
2014/01/14,863,868,840,854,42000,854
2014/01/15,854,865,848,848,12000,848
2014/01/16,846,852,840,852,29000,852
2014/01/17,844,847,835,841,38000,841
2014/01/20,835,840,835,835,70000,835
2014/01/21,837,840,821,825,67000,825
2014/01/22,825,827,817,820,37000,820
2014/01/23,821,830,821,830,22000,830
2014/01/24,829,829,817,819,32000,819
2014/01/27,794,795,786,791,80000,791
2014/01/28,790,795,787,793,50000,793
2014/01/29,795,800,792,796,38000,796
2014/01/30,794,798,780,798,61000,798
2014/01/31,799,799,771,781,51000,781
2014/02/03,783,783,751,751,65000,751
2014/02/04,699,720,680,685,197000,685
2014/02/05,691,704,690,697,103000,697
2014/02/06,699,700,690,699,44000,699
2014/02/07,711,711,690,696,77000,696
2014/02/10,692,694,685,689,68000,689
2014/02/12,690,706,690,699,87000,699
2014/02/13,700,700,650,659,135000,659
2014/02/14,663,667,656,659,54000,659
2014/02/17,659,659,649,653,40000,653
2014/02/18,659,670,659,660,36000,660
2014/02/19,660,669,660,668,45000,668
2014/02/20,661,680,661,670,62000,670
2014/02/21,675,684,675,680,68000,680
2014/02/24,682,685,677,680,48000,680
2014/02/25,681,688,680,680,48000,680
2014/02/26,677,780,677,780,546000,780
2014/02/27,750,774,735,748,277000,748
2014/02/28,740,754,738,753,72000,753
2014/03/03,767,767,731,756,65000,756
2014/03/04,741,748,726,747,36000,747
2014/03/05,742,745,737,737,25000,737
2014/03/06,735,740,729,733,27000,733
2014/03/07,734,737,732,734,18000,734
2014/03/10,734,745,731,735,14000,735
2014/03/11,732,743,732,743,11000,743
2014/03/12,740,740,730,733,19000,733
2014/03/13,738,744,738,741,9000,741
2014/03/14,730,733,707,717,35000,717
2014/03/17,712,713,692,706,43000,706
2014/03/18,709,716,676,700,48000,700
2014/03/19,699,699,689,689,23000,689
2014/03/20,685,686,678,679,31000,679
2014/03/24,739,745,724,735,56000,735
2014/03/25,726,734,710,718,20000,718
2014/03/26,720,721,707,716,16000,716
2014/03/27,694,706,684,702,21000,702
2014/03/28,702,706,692,705,13000,705
2014/03/31,705,710,705,705,7000,705
2014/04/01,705,717,705,710,21000,710
2014/04/02,709,713,701,701,38000,701
2014/04/03,706,706,700,700,12000,700
2014/04/04,699,705,699,703,7000,703
2014/04/07,702,702,702,702,2000,702
2014/04/08,713,723,711,723,37000,723
2014/04/09,718,718,701,701,19000,701
2014/04/10,711,711,694,694,19000,694
2014/04/11,695,696,681,695,17000,695
2014/04/14,695,701,689,692,8000,692
2014/04/15,693,698,690,690,12000,690
2014/04/16,700,700,692,695,9000,695
2014/04/17,700,702,697,698,17000,698
2014/04/18,695,699,695,699,5000,699
2014/04/21,695,695,688,690,18000,690
2014/04/22,690,691,688,690,10000,690
2014/04/23,688,691,687,687,13000,687
2014/04/24,686,693,681,681,14000,681
2014/04/25,681,685,680,685,14000,685
2014/04/28,685,685,677,677,3000,677
2014/04/30,690,690,670,670,24000,670
2014/05/01,666,678,664,668,27000,668
2014/05/02,667,668,666,667,8000,667
2014/05/07,667,667,665,665,5000,665
2014/05/08,667,675,667,667,8000,667
2014/05/09,665,670,664,665,14000,665
2014/05/12,663,663,661,662,7000,662
2014/05/13,674,674,653,654,17000,654
2014/05/14,653,662,652,662,7000,662
2014/05/15,662,662,654,655,12000,655
2014/05/16,650,654,647,653,31000,653
2014/05/19,649,649,643,643,15000,643
2014/05/20,644,645,641,641,17000,641
2014/05/21,640,640,630,638,15000,638
2014/05/22,639,666,632,634,43000,634
2014/05/23,633,639,633,635,10000,635
2014/05/26,636,639,636,639,7000,639
2014/05/27,639,654,639,653,19000,653
2014/05/28,658,658,653,653,5000,653
2014/05/29,653,753,653,753,101000,753
2014/05/30,828,830,754,780,423000,780
2014/06/02,780,784,732,747,114000,747
2014/06/03,758,758,740,742,48000,742
2014/06/04,741,742,722,730,41000,730
2014/06/05,728,728,716,718,28000,718
2014/06/06,718,724,717,723,18000,723
2014/06/09,725,728,721,722,16000,722
2014/06/10,720,720,704,711,29000,711
2014/06/11,706,737,703,726,24000,726
2014/06/12,725,725,714,720,12000,720
2014/06/13,720,725,720,725,7000,725
2014/06/16,727,745,723,728,38000,728
2014/06/17,740,764,730,730,78000,730
2014/06/18,737,740,728,729,21000,729
2014/06/19,734,759,729,750,35000,750
2014/06/20,741,749,741,743,19000,743
2014/06/23,745,745,732,732,17000,732
2014/06/24,732,740,732,739,11000,739
2014/06/25,739,748,738,740,20000,740
2014/06/26,755,755,739,739,25000,739
2014/06/27,735,745,730,731,28000,731
2014/06/30,731,741,731,735,20000,735
2014/07/01,736,748,736,736,17000,736
2014/07/02,737,753,737,738,31000,738
2014/07/03,739,746,736,736,20000,736
2014/07/04,735,736,730,730,18000,730
2014/07/07,738,738,730,730,6000,730
2014/07/08,730,734,730,734,4000,734
2014/07/09,731,733,725,725,17000,725
2014/07/10,725,725,721,721,4000,721
2014/07/11,720,720,710,710,18000,710
2014/07/14,710,717,705,712,12000,712
2014/07/15,727,727,713,713,11000,713
2014/07/16,713,722,713,713,8000,713
2014/07/17,712,719,712,718,6000,718
2014/07/18,713,714,711,711,9000,711
2014/07/22,711,720,710,720,13000,720
2014/07/23,714,714,710,710,7000,710
2014/07/24,708,714,706,712,7000,712
2014/07/25,712,713,706,709,13000,709
2014/07/28,718,718,705,715,21000,715
2014/07/29,709,710,705,705,14000,705
2014/07/30,705,705,705,705,5000,705
2014/07/31,708,709,703,703,20000,703
2014/08/01,702,707,702,703,9000,703
2014/08/04,703,706,701,703,15000,703
2014/08/05,703,705,702,702,4000,702
2014/08/06,702,707,701,702,12000,702
2014/08/07,701,701,700,700,9000,700
2014/08/08,700,700,695,695,21000,695
2014/08/11,695,700,695,696,15000,696
2014/08/12,696,696,690,690,18000,690
2014/08/13,690,699,688,699,7000,699
2014/08/14,692,692,690,692,6000,692
2014/08/15,693,693,693,693,5000,693
2014/08/18,702,702,696,701,10000,701
2014/08/19,701,701,701,701,2000,701
2014/08/20,701,704,698,699,7000,699
2014/08/21,699,705,699,704,9000,704
2014/08/22,705,710,703,703,9000,703
2014/08/25,703,705,700,702,38000,702
2014/08/26,699,699,696,699,12000,699
2014/08/27,699,699,692,695,15000,695
2014/08/28,695,695,689,689,17000,689
2014/08/29,690,694,688,694,17000,694
2014/09/01,697,699,692,698,20000,698
2014/09/02,700,700,693,694,17000,694
2014/09/03,696,700,694,694,21000,694
2014/09/04,694,694,691,693,10000,693
2014/09/05,694,698,690,694,30000,694
2014/09/08,691,691,690,690,10000,690
2014/09/09,690,693,686,693,17000,693
2014/09/10,693,693,688,689,10000,689
2014/09/11,689,697,689,691,21000,691
2014/09/12,691,692,688,692,15000,692
2014/09/16,694,694,686,687,18000,687
2014/09/17,684,686,681,682,25000,682
2014/09/18,684,684,680,680,11000,680
2014/09/19,685,685,680,680,14000,680
2014/09/22,680,685,680,680,17000,680
2014/09/24,680,684,680,684,11000,684
2014/09/25,683,684,680,680,20000,680
2014/09/26,677,680,674,680,14000,680
2014/09/29,675,677,671,671,11000,671
2014/09/30,671,671,668,669,9000,669
2014/10/01,669,669,667,668,7000,668
2014/10/02,666,666,629,632,129000,632
2014/10/03,635,639,630,636,49000,636
2014/10/06,638,654,638,650,21000,650
2014/10/07,648,650,641,641,10000,641
2014/10/08,641,645,636,645,18000,645
2014/10/09,645,645,635,638,23000,638
2014/10/10,635,635,629,629,20000,629
2014/10/14,624,690,616,642,156000,642
2014/10/15,649,668,644,650,20000,650
2014/10/16,640,640,635,635,23000,635
2014/10/17,635,640,630,635,23000,635
2014/10/20,636,646,636,643,8000,643
2014/10/21,639,639,628,634,15000,634
2014/10/22,635,639,630,630,9000,630
2014/10/23,628,630,627,627,12000,627
2014/10/24,627,631,627,631,11000,631
2014/10/27,631,632,620,627,21000,627
2014/10/28,629,629,622,622,7000,622
2014/10/29,625,625,620,620,6000,620
2014/10/30,620,641,620,639,36000,639
2014/10/31,641,641,629,629,18000,629
2014/11/04,640,640,631,637,21000,637
2014/11/05,635,638,633,636,10000,636
2014/11/06,637,644,637,641,26000,641
2014/11/07,642,642,635,635,10000,635
2014/11/10,635,650,635,640,24000,640
2014/11/11,640,645,637,641,31000,641
2014/11/12,641,644,639,639,12000,639
2014/11/13,637,641,633,637,15000,637
2014/11/14,636,638,634,634,13000,634
2014/11/17,634,635,630,632,15000,632
2014/11/18,632,636,630,630,19000,630
2014/11/19,630,632,629,629,15000,629
2014/11/20,630,630,628,629,7000,629
2014/11/21,629,632,628,631,8000,631
2014/11/25,636,660,636,644,51000,644
2014/11/26,644,644,641,641,12000,641
2014/11/27,648,648,644,645,18000,645
2014/11/28,645,650,643,643,46000,643
2014/12/01,646,646,643,643,8000,643
2014/12/02,647,647,641,642,18000,642
2014/12/03,642,647,641,642,30000,642
2014/12/04,643,643,635,640,39000,640
2014/12/05,640,640,637,637,7000,637
2014/12/08,637,637,633,633,23000,633
2014/12/09,632,632,626,626,35000,626
2014/12/10,626,628,625,625,21000,625
2014/12/11,624,625,620,625,26000,625
2014/12/12,626,630,625,626,26000,626
2014/12/15,626,626,619,619,35000,619
2014/12/16,619,619,609,610,65000,610
2014/12/17,611,616,610,616,17000,616
2014/12/18,616,620,611,611,22000,611
2014/12/19,611,614,609,609,37000,609
2014/12/22,609,609,601,602,57000,602
2014/12/24,601,603,600,602,84000,602
2014/12/25,601,602,599,599,64000,599
2014/12/26,604,604,600,602,12000,602
2014/12/29,604,612,604,609,33000,609
2014/12/30,613,614,610,614,19000,614
2015/01/05,614,621,614,617,13000,617
2015/01/06,614,618,612,618,16000,618
2015/01/07,611,612,611,612,4000,612
2015/01/08,612,617,610,617,9000,617
2015/01/09,617,618,617,617,6000,617
2015/01/13,611,611,610,611,4000,611
2015/01/14,611,611,604,604,14000,604
2015/01/15,605,611,604,609,12000,609
2015/01/16,609,609,603,604,9000,604
2015/01/19,606,612,606,610,12000,610
2015/01/20,607,619,607,619,12000,619
2015/01/21,615,615,611,611,5000,611
2015/01/22,620,620,612,618,11000,618
2015/01/23,621,621,612,612,10000,612
2015/01/26,618,618,613,615,6000,615
2015/01/27,615,615,614,614,7000,614
2015/01/28,614,614,613,614,9000,614
2015/01/29,618,618,614,614,5000,614
2015/01/30,614,615,613,615,10000,615
2015/02/02,610,610,600,606,53000,606
2015/02/03,600,606,600,603,25000,603
2015/02/04,605,608,603,607,9000,607
2015/02/05,605,607,604,604,5000,604
2015/02/06,606,606,604,604,8000,604
2015/02/09,605,605,600,604,28000,604
2015/02/10,601,605,601,602,5000,602
2015/02/12,604,608,604,606,7000,606
2015/02/13,608,614,608,612,36000,612
2015/02/16,615,615,612,614,22000,614
2015/02/17,616,616,610,611,15000,611
2015/02/18,614,614,609,612,16000,612
2015/02/19,610,610,606,606,19000,606
2015/02/20,608,609,604,604,24000,604
2015/02/23,606,606,604,604,10000,604
2015/02/24,603,612,602,607,33000,607
2015/02/25,605,609,605,607,10000,607
2015/02/26,606,608,605,606,10000,606
2015/02/27,605,610,605,606,11000,606
2015/03/02,607,706,605,651,657000,651
2015/03/03,654,655,630,641,86000,641
2015/03/04,636,637,630,631,14000,631
2015/03/05,630,631,625,625,25000,625
2015/03/06,629,630,615,616,43000,616
2015/03/09,619,623,612,612,36000,612
2015/03/10,613,617,611,611,28000,611
2015/03/11,611,619,611,614,7000,614
2015/03/12,618,621,616,618,13000,618
2015/03/13,620,630,620,627,21000,627
2015/03/16,634,647,627,634,38000,634
2015/03/17,642,644,633,634,35000,634
2015/03/18,642,642,633,638,20000,638
2015/03/19,631,636,631,634,12000,634
2015/03/20,630,638,630,630,17000,630
2015/03/23,633,638,633,635,20000,635
2015/03/24,632,639,631,639,18000,639
2015/03/25,639,639,635,639,9000,639
2015/03/26,639,639,635,635,16000,635
2015/03/27,622,628,618,618,46000,618
2015/03/30,618,625,615,625,7000,625
2015/03/31,620,620,616,616,9000,616
2015/04/01,614,618,612,618,12000,618
2015/04/02,615,615,613,615,5000,615
2015/04/03,618,619,618,619,16000,619
2015/04/06,610,612,610,611,11000,611
2015/04/07,611,614,611,612,5000,612
2015/04/08,614,616,611,613,15000,613
2015/04/09,612,618,612,618,7000,618
2015/04/10,617,617,611,612,15000,612
2015/04/13,612,613,612,613,4000,613
2015/04/14,614,615,613,613,7000,613
2015/04/15,613,618,613,615,16000,615
2015/04/16,615,615,611,612,20000,612
2015/04/17,613,613,612,612,5000,612
2015/04/20,611,612,609,609,14000,609
2015/04/21,610,611,609,609,10000,609
2015/04/22,609,610,609,610,8000,610
2015/04/23,612,613,612,613,7000,613
2015/04/24,613,613,610,610,2000,610
2015/04/27,614,615,611,615,19000,615
2015/04/28,615,615,611,612,15000,612
2015/04/30,612,612,610,612,8000,612
2015/05/01,610,610,609,610,8000,610
2015/05/07,610,670,609,613,180000,613
2015/05/08,620,620,611,611,23000,611
2015/05/11,611,612,611,612,7000,612
2015/05/12,612,614,612,614,5000,614
2015/05/13,614,615,614,615,7000,615
2015/05/14,614,650,612,613,88000,613
2015/05/15,613,613,611,611,17000,611
2015/05/18,611,612,611,612,10000,612
2015/05/19,614,617,610,610,29000,610
2015/05/20,612,615,610,614,22000,614
2015/05/21,614,614,611,614,9000,614
2015/05/22,614,615,614,615,3000,615
2015/05/25,615,615,611,614,24000,614
2015/05/26,616,623,615,616,50000,616
2015/05/27,616,616,614,614,11000,614
2015/05/28,618,618,614,617,16000,617
2015/05/29,616,616,612,615,16000,615
2015/06/01,616,618,616,616,5000,616
2015/06/02,616,617,615,616,9000,616
2015/06/03,614,614,610,611,40000,611
2015/06/04,610,613,610,613,7000,613
2015/06/05,612,613,611,613,5000,613
2015/06/08,633,633,619,619,49000,619
2015/06/09,618,619,616,616,8000,616
2015/06/10,616,616,616,616,2000,616
2015/06/11,622,622,617,617,13000,617
2015/06/12,619,619,614,614,15000,614
2015/06/15,615,617,614,617,16000,617
2015/06/16,618,618,615,616,15000,616
2015/06/17,617,617,611,613,24000,613
2015/06/18,611,612,611,611,18000,611
2015/06/19,611,615,611,614,20000,614
2015/06/22,611,612,608,612,34000,612
2015/06/23,609,614,608,614,24000,614
2015/06/24,614,614,611,614,8000,614
2015/06/25,613,614,611,611,6000,611
2015/06/26,612,612,611,611,2000,611
2015/06/29,608,613,607,608,28000,608
2015/06/30,607,611,605,611,17000,611
2015/07/01,608,612,608,612,8000,612
2015/07/02,610,613,610,612,8000,612
2015/07/03,609,610,608,608,9000,608
2015/07/06,608,611,608,610,11000,610
2015/07/07,624,624,612,612,92000,612
2015/07/08,612,614,598,598,79000,598
2015/07/09,590,597,585,595,44000,595
2015/07/10,598,604,596,598,19000,598
2015/07/13,604,604,598,598,8000,598
2015/07/14,599,605,599,602,16000,602
2015/07/15,606,606,598,598,19000,598
2015/07/16,605,607,604,607,12000,607
2015/07/17,608,614,607,610,12000,610
2015/07/21,614,615,610,614,24000,614
2015/07/22,616,616,611,613,28000,613
2015/07/23,620,623,618,623,52000,623
2015/07/24,623,624,617,623,38000,623
2015/07/27,625,628,621,623,23000,623
2015/07/28,614,620,614,617,11000,617
2015/07/29,617,627,617,619,22000,619
2015/07/30,616,618,615,618,6000,618
2015/07/31,614,614,614,614,4000,614
2015/08/03,616,616,611,611,8000,611
2015/08/04,612,615,610,610,17000,610
2015/08/05,613,620,610,619,33000,619
2015/08/06,619,619,613,613,10000,613
2015/08/07,611,613,611,612,13000,612
2015/08/10,615,618,609,610,34000,610
2015/08/11,613,620,612,614,76000,614
2015/08/12,613,614,606,608,34000,608
2015/08/13,610,613,608,612,13000,612
2015/08/14,610,610,602,609,22000,609
2015/08/17,609,612,606,608,16000,608
2015/08/18,606,607,606,606,4000,606
2015/08/19,607,610,606,606,6000,606
2015/08/20,605,605,603,603,14000,603
2015/08/21,601,607,597,598,29000,598
2015/08/24,595,597,580,580,33000,580
2015/08/25,560,579,539,559,55000,559
2015/08/26,569,578,563,575,9000,575
2015/08/27,578,599,578,599,15000,599
2015/08/28,600,600,590,591,6000,591
2015/08/31,591,595,589,589,31000,589
2015/09/01,589,589,582,585,9000,585
2015/09/02,566,573,566,571,26000,571
2015/09/03,576,583,574,574,6000,574
2015/09/04,572,573,568,568,9000,568
2015/09/07,566,566,550,555,20000,555
2015/09/08,565,566,560,561,6000,561
2015/09/09,567,570,563,570,19000,570
2015/09/10,566,566,560,560,9000,560
2015/09/11,551,557,550,553,48000,553
2015/09/14,553,559,553,555,4000,555
2015/09/15,559,559,556,556,4000,556
2015/09/16,556,560,556,556,7000,556
2015/09/17,558,558,555,557,7000,557
2015/09/18,555,560,555,556,11000,556
2015/09/24,555,558,553,558,6000,558
2015/09/25,558,560,555,560,6000,560
2015/09/28,555,555,555,555,1000,555
2015/09/29,554,554,545,545,11000,545
2015/09/30,548,548,546,546,6000,546
2015/10/01,541,545,541,542,21000,542
2015/10/02,542,546,542,542,7000,542
2015/10/05,543,545,543,545,6000,545
2015/10/06,549,553,547,551,15000,551
2015/10/07,545,552,544,549,11000,549
2015/10/08,547,556,547,548,9000,548
2015/10/09,554,555,554,554,5000,554
2015/10/13,560,564,555,561,11000,561
2015/10/14,561,561,561,561,1000,561
2015/10/15,553,565,553,565,4000,565
2015/10/16,556,567,556,560,6000,560
