2010/01/04,233,239,233,239,10000,239
2010/01/05,247,250,243,244,43000,244
2010/01/06,250,251,243,251,30000,251
2010/01/07,251,258,251,258,31000,258
2010/01/08,259,265,259,260,22000,260
2010/01/12,260,264,260,262,28000,262
2010/01/13,262,264,259,264,40000,264
2010/01/14,266,269,261,264,44000,264
2010/01/15,261,262,261,261,14000,261
2010/01/18,260,261,258,258,20000,258
2010/01/19,257,257,241,252,39000,252
2010/01/20,250,252,250,251,14000,251
2010/01/21,248,251,248,250,13000,250
2010/01/22,251,251,246,247,15000,247
2010/01/25,242,243,242,243,7000,243
2010/01/26,245,246,245,245,11000,245
2010/01/27,237,241,237,241,12000,241
2010/01/28,240,241,240,240,14000,240
2010/01/29,240,240,226,226,43000,226
2010/02/01,228,243,228,243,43000,243
2010/02/02,241,241,231,240,29000,240
2010/02/03,240,240,240,240,19000,240
2010/02/04,240,240,231,238,19000,238
2010/02/05,238,238,231,237,13000,237
2010/02/08,235,235,232,232,11000,232
2010/02/09,232,234,228,229,24000,229
2010/02/10,229,231,229,230,5000,230
2010/02/12,237,237,231,231,16000,231
2010/02/15,232,232,229,229,13000,229
2010/02/16,237,237,229,230,28000,230
2010/02/17,232,232,228,230,16000,230
2010/02/18,230,231,230,230,13000,230
2010/02/19,230,234,230,230,4000,230
2010/02/22,229,230,229,229,14000,229
2010/02/23,229,229,228,229,6000,229
2010/02/24,230,230,229,229,11000,229
2010/02/25,229,229,228,228,13000,228
2010/02/26,231,231,226,229,37000,229
2010/03/01,229,230,229,230,13000,230
2010/03/02,230,235,230,235,15000,235
2010/03/03,231,236,231,233,10000,233
2010/03/04,233,235,233,235,5000,235
2010/03/05,235,235,231,234,21000,234
2010/03/08,235,238,233,233,18000,233
2010/03/09,233,233,231,231,6000,231
2010/03/10,233,234,232,233,12000,233
2010/03/11,233,233,231,233,8000,233
2010/03/12,233,245,233,243,29000,243
2010/03/15,248,248,245,245,11000,245
2010/03/16,249,250,249,250,12000,250
2010/03/17,251,256,248,248,8000,248
2010/03/18,254,254,246,246,19000,246
2010/03/19,249,249,248,248,6000,248
2010/03/23,248,248,240,241,13000,241
2010/03/24,248,248,241,242,29000,242
2010/03/25,246,246,245,246,16000,246
2010/03/26,246,246,238,244,46000,244
2010/03/29,244,244,236,239,16000,239
2010/03/30,242,249,241,247,31000,247
2010/03/31,249,250,247,250,21000,250
2010/04/01,249,249,246,248,24000,248
2010/04/02,250,250,246,248,21000,248
2010/04/05,248,250,243,250,43000,250
2010/04/06,250,252,247,251,27000,251
2010/04/07,251,254,251,253,9000,253
2010/04/08,251,255,251,254,20000,254
2010/04/09,254,256,253,255,9000,255
2010/04/12,255,255,251,251,18000,251
2010/04/13,251,252,248,248,18000,248
2010/04/14,248,252,248,248,27000,248
2010/04/15,248,253,248,253,7000,253
2010/04/16,253,253,250,250,16000,250
2010/04/19,249,249,240,240,15000,240
2010/04/20,240,243,239,239,32000,239
2010/04/21,246,246,239,241,25000,241
2010/04/22,247,247,240,243,20000,243
2010/04/23,242,243,241,241,37000,241
2010/04/26,248,249,247,247,51000,247
2010/04/27,247,251,247,251,43000,251
2010/04/28,251,251,242,242,30000,242
2010/04/30,243,247,243,243,28000,243
2010/05/06,243,243,238,240,14000,240
2010/05/07,240,240,228,235,45000,235
2010/05/10,235,242,234,240,15000,240
2010/05/11,242,244,240,240,13000,240
2010/05/12,246,246,244,245,25000,245
2010/05/13,245,246,243,243,7000,243
2010/05/14,248,248,237,237,11000,237
2010/05/17,237,248,237,248,56000,248
2010/05/18,248,248,245,248,17000,248
2010/05/19,245,245,243,244,20000,244
2010/05/20,239,240,237,239,7000,239
2010/05/21,231,234,231,231,19000,231
2010/05/24,232,234,227,233,23000,233
2010/05/25,239,239,238,239,21000,239
2010/05/26,232,233,228,232,19000,232
2010/05/27,227,228,227,228,8000,228
2010/05/28,235,235,227,231,31000,231
2010/05/31,231,233,229,232,18000,232
2010/06/01,232,237,232,237,5000,237
2010/06/02,235,235,229,231,7000,231
2010/06/03,231,235,231,235,7000,235
2010/06/04,235,235,234,234,9000,234
2010/06/07,232,232,232,232,8000,232
2010/06/08,228,231,227,228,22000,228
2010/06/09,229,229,228,229,13000,229
2010/06/10,226,228,226,228,24000,228
2010/06/11,233,233,227,229,35000,229
2010/06/14,229,229,228,228,21000,228
2010/06/15,229,229,227,229,13000,229
2010/06/16,229,231,229,230,9000,230
2010/06/17,233,234,229,234,18000,234
2010/06/18,234,244,234,244,17000,244
2010/06/21,245,247,244,244,16000,244
2010/06/22,242,242,238,241,6000,241
2010/06/23,237,239,235,239,6000,239
2010/06/24,242,242,241,241,3000,241
2010/06/25,241,241,238,239,9000,239
2010/06/28,242,244,240,242,25000,242
2010/06/29,243,245,241,242,23000,242
2010/06/30,234,236,232,236,16000,236
2010/07/01,239,242,232,241,15000,241
2010/07/02,246,246,242,243,19000,243
2010/07/05,244,244,243,244,9000,244
2010/07/06,241,245,241,244,8000,244
2010/07/07,245,245,243,245,10000,245
2010/07/08,246,246,246,246,10000,246
2010/07/09,246,247,242,245,17000,245
2010/07/12,247,247,244,245,5000,245
2010/07/13,243,248,243,247,9000,247
2010/07/14,247,248,247,248,7000,248
2010/07/15,248,248,248,248,6000,248
2010/07/16,248,248,244,244,4000,244
2010/07/21,243,243,227,227,16000,227
2010/07/22,234,234,230,231,11000,231
2010/07/23,233,237,231,232,16000,232
2010/07/26,236,236,235,236,4000,236
2010/07/27,235,238,235,238,5000,238
2010/07/28,238,238,235,236,5000,236
2010/07/29,234,238,234,237,12000,237
2010/07/30,237,237,233,236,12000,236
2010/08/02,233,235,233,235,4000,235
2010/08/03,239,239,235,235,21000,235
2010/08/04,234,234,234,234,4000,234
2010/08/05,235,235,234,235,8000,235
2010/08/06,236,237,234,236,7000,236
2010/08/09,234,234,234,234,1000,234
2010/08/10,238,238,235,235,4000,235
2010/08/11,235,235,235,235,4000,235
2010/08/12,235,236,235,236,5000,236
2010/08/13,234,237,234,234,8000,234
2010/08/16,230,233,230,233,3000,233
2010/08/17,235,235,235,235,7000,235
2010/08/18,235,235,235,235,6000,235
2010/08/19,235,235,233,233,4000,233
2010/08/20,234,234,233,234,9000,234
2010/08/23,234,234,233,233,3000,233
2010/08/24,233,233,231,231,18000,231
2010/08/25,228,228,224,225,22000,225
2010/08/26,225,225,220,221,16000,221
2010/08/27,217,223,217,223,11000,223
2010/08/30,228,228,226,226,15000,226
2010/08/31,221,223,218,218,13000,218
2010/09/01,218,218,212,213,34000,213
2010/09/02,214,214,211,211,15000,211
2010/09/03,211,212,210,210,8000,210
2010/09/06,211,213,211,213,10000,213
2010/09/07,214,216,214,214,13000,214
2010/09/08,213,214,213,213,7000,213
2010/09/09,221,221,218,218,10000,218
2010/09/10,223,223,220,220,25000,220
2010/09/13,220,220,217,217,14000,217
2010/09/14,216,216,215,215,9000,215
2010/09/15,213,214,212,213,11000,213
2010/09/16,214,214,212,212,5000,212
2010/09/17,215,219,215,215,8000,215
2010/09/21,215,215,214,215,8000,215
2010/09/22,218,223,217,217,14000,217
2010/09/24,215,218,215,216,10000,216
2010/09/27,219,221,218,220,12000,220
2010/09/28,220,221,220,221,5000,221
2010/09/29,221,221,217,218,13000,218
2010/09/30,216,218,216,218,8000,218
2010/10/01,214,216,214,216,2000,216
2010/10/04,216,216,214,216,6000,216
2010/10/05,216,216,212,214,5000,214
2010/10/06,214,214,210,210,25000,210
2010/10/07,209,209,205,208,21000,208
2010/10/08,208,208,206,208,16000,208
2010/10/12,208,208,203,203,19000,203
2010/10/13,202,203,202,203,13000,203
2010/10/14,203,203,203,203,17000,203
2010/10/15,202,202,201,202,23000,202
2010/10/18,201,202,201,202,45000,202
2010/10/19,200,204,200,204,11000,204
2010/10/20,204,205,200,205,23000,205
2010/10/21,205,205,201,204,8000,204
2010/10/22,204,205,204,205,14000,205
2010/10/25,201,202,200,202,21000,202
2010/10/26,203,203,200,200,9000,200
2010/10/27,198,199,196,198,24000,198
2010/10/28,200,203,200,202,10000,202
2010/10/29,204,204,200,202,28000,202
2010/11/01,209,209,199,199,5000,199
2010/11/02,204,204,202,202,7000,202
2010/11/04,200,201,199,199,12000,199
2010/11/05,199,202,198,201,30000,201
2010/11/08,199,202,198,202,18000,202
2010/11/09,202,202,200,200,22000,200
2010/11/10,200,203,200,202,10000,202
2010/11/11,204,207,204,205,15000,205
2010/11/12,206,207,206,207,12000,207
2010/11/15,206,207,206,207,6000,207
2010/11/16,207,207,205,205,10000,205
2010/11/17,205,205,204,205,7000,205
2010/11/18,205,210,205,210,20000,210
2010/11/19,212,213,210,210,10000,210
2010/11/22,210,215,210,215,17000,215
2010/11/24,215,225,208,224,36000,224
2010/11/25,224,224,222,222,10000,222
2010/11/26,224,224,221,222,6000,222
2010/11/29,220,221,220,221,9000,221
2010/11/30,214,218,214,215,31000,215
2010/12/01,211,215,211,213,14000,213
2010/12/02,215,215,212,213,15000,213
2010/12/03,213,213,211,212,12000,212
2010/12/06,210,217,210,216,30000,216
2010/12/07,218,222,216,217,37000,217
2010/12/08,215,217,214,214,39000,214
2010/12/09,216,217,215,217,27000,217
2010/12/10,217,219,217,219,41000,219
2010/12/13,221,225,220,223,43000,223
2010/12/14,225,226,225,226,19000,226
2010/12/15,226,227,224,225,9000,225
2010/12/16,225,231,225,231,32000,231
2010/12/17,234,234,231,233,30000,233
2010/12/20,234,237,232,237,46000,237
2010/12/21,239,243,239,241,46000,241
2010/12/22,244,246,242,245,24000,245
2010/12/24,248,248,243,243,54000,243
2010/12/27,242,242,240,242,19000,242
2010/12/28,240,240,240,240,12000,240
2010/12/29,232,238,231,238,57000,238
2010/12/30,233,235,233,234,5000,234
2011/01/04,235,237,235,236,6000,236
2011/01/05,240,242,234,236,13000,236
2011/01/06,243,244,237,239,16000,239
2011/01/07,237,242,237,241,19000,241
2011/01/11,242,245,233,245,22000,245
2011/01/12,241,244,240,241,11000,241
2011/01/13,242,242,238,239,13000,239
2011/01/14,237,241,236,239,14000,239
2011/01/17,239,240,238,240,6000,240
2011/01/18,243,243,241,241,4000,241
2011/01/19,243,243,242,242,11000,242
2011/01/20,242,243,242,242,9000,242
2011/01/21,242,243,242,242,14000,242
2011/01/24,242,242,241,241,11000,241
2011/01/25,244,244,241,242,27000,242
2011/01/26,242,242,240,240,12000,240
2011/01/27,240,240,240,240,7000,240
2011/01/28,234,243,234,241,17000,241
2011/01/31,240,241,237,239,18000,239
2011/02/01,243,245,239,241,30000,241
2011/02/02,241,243,241,242,10000,242
2011/02/03,241,241,239,239,12000,239
2011/02/04,244,244,237,239,12000,239
2011/02/07,240,243,240,241,10000,241
2011/02/08,241,241,240,240,7000,240
2011/02/09,239,239,237,238,20000,238
2011/02/10,238,238,234,237,12000,237
2011/02/14,238,242,238,242,4000,242
2011/02/15,245,247,243,244,8000,244
2011/02/16,243,245,240,240,18000,240
2011/02/17,241,241,237,238,30000,238
2011/02/18,239,240,238,238,15000,238
2011/02/21,239,245,239,245,33000,245
2011/02/22,243,243,239,239,9000,239
2011/02/23,239,242,237,239,11000,239
2011/02/24,238,240,237,237,19000,237
2011/02/25,238,241,238,238,16000,238
2011/02/28,240,240,238,239,14000,239
2011/03/01,244,245,244,245,11000,245
2011/03/02,246,246,243,244,21000,244
2011/03/03,244,258,244,256,31000,256
2011/03/04,262,262,257,257,33000,257
2011/03/07,259,262,257,260,53000,260
2011/03/08,263,264,259,259,26000,259
2011/03/09,259,259,254,254,13000,254
2011/03/10,256,256,251,251,8000,251
2011/03/11,251,251,249,249,47000,249
2011/03/14,201,229,201,222,40000,222
2011/03/15,206,217,142,169,96000,169
2011/03/16,164,177,164,172,81000,172
2011/03/17,180,217,180,196,172000,196
2011/03/18,204,208,200,207,74000,207
2011/03/22,215,220,212,216,96000,216
2011/03/23,217,220,205,214,83000,214
2011/03/24,216,216,211,213,30000,213
2011/03/25,217,217,212,214,28000,214
2011/03/28,212,212,209,212,35000,212
2011/03/29,207,214,207,214,14000,214
2011/03/30,214,214,208,210,80000,210
2011/03/31,215,215,209,210,44000,210
2011/04/01,212,212,209,210,19000,210
2011/04/04,210,210,210,210,12000,210
2011/04/05,208,210,206,207,36000,207
2011/04/06,204,204,200,200,13000,200
2011/04/07,199,200,198,200,20000,200
2011/04/08,200,208,199,201,17000,201
2011/04/11,204,205,201,205,13000,205
2011/04/12,210,210,201,206,18000,206
2011/04/13,205,207,204,204,9000,204
2011/04/14,205,254,205,248,160000,248
2011/04/15,236,240,223,226,147000,226
2011/04/18,226,232,226,230,24000,230
2011/04/19,226,226,214,223,31000,223
2011/04/20,223,227,223,225,9000,225
2011/04/21,225,225,219,221,13000,221
2011/04/22,223,223,217,220,26000,220
2011/04/25,217,222,215,215,23000,215
2011/04/26,215,215,210,212,14000,212
2011/04/27,220,220,207,215,21000,215
2011/04/28,215,218,212,212,21000,212
2011/05/02,219,222,213,214,44000,214
2011/05/06,214,225,214,225,15000,225
2011/05/09,224,224,217,217,20000,217
2011/05/10,217,221,217,221,9000,221
2011/05/11,219,222,219,222,7000,222
2011/05/12,222,223,219,219,19000,219
2011/05/13,219,221,215,215,17000,215
2011/05/16,214,222,213,219,35000,219
2011/05/17,213,216,209,214,30000,214
2011/05/18,217,218,214,215,11000,215
2011/05/19,210,211,208,208,16000,208
2011/05/20,209,209,207,207,12000,207
2011/05/23,206,206,200,200,8000,200
2011/05/24,202,202,201,202,8000,202
2011/05/26,203,203,202,202,9000,202
2011/05/27,206,206,196,203,24000,203
2011/05/30,203,203,199,200,9000,200
2011/05/31,200,201,200,201,6000,201
2011/06/01,202,202,198,198,12000,198
2011/06/02,197,200,195,200,39000,200
2011/06/03,200,203,200,202,15000,202
2011/06/06,202,202,194,198,13000,198
2011/06/07,201,201,196,198,8000,198
2011/06/08,195,197,194,197,10000,197
2011/06/09,194,194,191,191,14000,191
2011/06/10,192,194,192,193,22000,193
2011/06/13,189,189,187,188,15000,188
2011/06/14,186,189,182,189,28000,189
2011/06/15,190,195,186,194,25000,194
2011/06/16,190,190,188,188,6000,188
2011/06/17,193,193,190,190,17000,190
2011/06/20,188,188,182,183,12000,183
2011/06/21,186,188,185,188,10000,188
2011/06/22,188,190,188,190,10000,190
2011/06/23,191,191,185,190,21000,190
2011/06/24,191,191,183,189,29000,189
2011/06/27,188,188,186,188,13000,188
2011/06/28,191,191,188,189,6000,189
2011/06/29,188,189,186,189,14000,189
2011/06/30,188,193,187,193,18000,193
2011/07/01,193,193,191,191,11000,191
2011/07/04,193,196,193,193,17000,193
2011/07/05,193,199,193,195,5000,195
2011/07/06,195,197,194,197,12000,197
2011/07/07,201,202,199,202,14000,202
2011/07/08,198,202,198,198,14000,198
2011/07/11,199,200,196,199,14000,199
2011/07/12,198,198,195,196,9000,196
2011/07/13,197,198,195,197,21000,197
2011/07/14,194,194,192,192,17000,192
2011/07/15,192,194,192,194,13000,194
2011/07/19,194,195,193,194,15000,194
2011/07/20,195,198,195,198,16000,198
2011/07/21,197,198,197,198,5000,198
2011/07/22,202,202,196,198,15000,198
2011/07/25,197,197,196,197,3000,197
2011/07/26,194,195,190,194,25000,194
2011/07/27,193,193,189,189,23000,189
2011/07/28,189,189,187,188,20000,188
2011/07/29,186,186,184,184,18000,184
2011/08/01,181,183,181,183,14000,183
2011/08/02,183,183,181,181,6000,181
2011/08/03,177,177,175,176,30000,176
2011/08/04,176,180,176,179,7000,179
2011/08/05,179,179,177,177,10000,177
2011/08/08,177,177,174,175,10000,175
2011/08/09,172,172,165,168,19000,168
2011/08/10,172,172,171,171,12000,171
2011/08/11,169,171,169,171,9000,171
2011/08/12,176,178,174,178,10000,178
2011/08/15,181,186,180,181,11000,181
2011/08/16,177,184,177,184,16000,184
2011/08/17,183,183,179,179,9000,179
2011/08/18,182,183,179,180,12000,180
2011/08/19,180,184,177,184,14000,184
2011/08/22,184,184,179,182,8000,182
2011/08/23,184,184,175,183,12000,183
2011/08/24,185,185,183,183,8000,183
2011/08/25,185,185,181,181,7000,181
2011/08/26,183,184,183,183,4000,183
2011/08/29,180,182,180,181,6000,181
2011/08/30,183,183,181,183,10000,183
2011/08/31,182,182,180,180,4000,180
2011/09/01,182,182,181,181,4000,181
2011/09/02,181,182,181,182,11000,182
2011/09/05,181,181,175,175,13000,175
2011/09/06,176,177,175,177,10000,177
2011/09/07,174,176,174,176,7000,176
2011/09/08,175,177,174,174,7000,174
2011/09/09,173,175,173,175,17000,175
2011/09/12,171,171,168,168,6000,168
2011/09/13,168,172,166,166,11000,166
2011/09/14,164,168,164,168,5000,168
2011/09/15,167,167,167,167,9000,167
2011/09/16,170,170,167,168,15000,168
2011/09/20,163,168,163,168,6000,168
2011/09/21,168,169,165,169,7000,169
2011/09/22,169,169,156,163,21000,163
2011/09/26,163,164,163,164,34000,164
2011/09/27,169,174,169,172,9000,172
2011/09/28,172,176,171,176,18000,176
2011/09/29,177,177,171,171,8000,171
2011/09/30,175,175,171,173,15000,173
2011/10/03,169,170,164,164,20000,164
2011/10/04,162,162,161,162,21000,162
2011/10/05,161,162,161,161,9000,161
2011/10/06,162,162,161,161,3000,161
2011/10/07,161,162,161,161,6000,161
2011/10/11,164,168,163,164,8000,164
2011/10/12,162,163,162,163,4000,163
2011/10/13,163,165,163,165,22000,165
2011/10/14,165,168,165,165,4000,165
2011/10/17,170,170,165,169,5000,169
2011/10/18,169,169,165,168,9000,168
2011/10/19,168,168,168,168,2000,168
2011/10/20,165,165,161,162,13000,162
2011/10/21,159,160,159,160,9000,160
2011/10/24,163,163,160,162,13000,162
2011/10/25,161,162,156,161,25000,161
2011/10/26,161,161,158,159,6000,159
2011/10/27,159,159,158,159,8000,159
2011/10/28,159,163,159,163,18000,163
2011/10/31,163,163,160,160,6000,160
2011/11/01,160,163,160,161,5000,161
2011/11/02,160,160,160,160,6000,160
2011/11/04,158,159,158,159,2000,159
2011/11/07,157,157,157,157,2000,157
2011/11/08,157,159,157,159,3000,159
2011/11/09,156,158,152,158,22000,158
2011/11/10,156,156,143,152,23000,152
2011/11/11,152,152,150,150,19000,150
2011/11/14,151,151,151,151,2000,151
2011/11/15,151,151,150,150,6000,150
2011/11/16,149,149,149,149,2000,149
2011/11/17,151,154,151,151,9000,151
2011/11/18,153,153,153,153,3000,153
2011/11/21,154,154,154,154,1000,154
2011/11/22,153,157,152,152,20000,152
2011/11/24,152,154,152,153,22000,153
2011/11/25,153,154,153,154,4000,154
2011/11/28,158,159,158,159,4000,159
2011/11/29,159,159,158,158,2000,158
2011/11/30,161,171,161,161,36000,161
2011/12/01,165,165,165,165,14000,165
2011/12/02,165,165,165,165,8000,165
2011/12/05,163,165,163,165,5000,165
2011/12/06,165,168,165,167,5000,167
2011/12/07,169,169,162,163,7000,163
2011/12/08,167,167,165,167,15000,167
2011/12/09,167,167,165,167,18000,167
2011/12/12,169,169,168,168,12000,168
2011/12/13,168,170,168,170,7000,170
2011/12/14,171,174,170,174,17000,174
2011/12/15,172,172,170,172,6000,172
2011/12/16,174,174,171,171,3000,171
2011/12/19,168,169,168,169,6000,169
2011/12/20,172,180,171,178,14000,178
2011/12/21,182,186,182,183,34000,183
2011/12/22,181,187,181,187,14000,187
2011/12/26,187,187,185,186,17000,186
2011/12/27,188,188,183,185,27000,185
2011/12/28,184,184,184,184,1000,184
2011/12/29,187,187,184,186,12000,186
2011/12/30,185,186,184,186,7000,186
2012/01/04,181,186,181,186,8000,186
2012/01/05,184,184,184,184,8000,184
2012/01/06,180,181,180,180,11000,180
2012/01/10,180,180,178,178,3000,178
2012/01/11,176,178,175,178,8000,178
2012/01/12,174,175,170,171,10000,171
2012/01/13,173,178,173,173,8000,173
2012/01/16,178,178,170,170,14000,170
2012/01/17,174,178,174,178,3000,178
2012/01/18,181,181,175,175,14000,175
2012/01/19,178,178,173,173,8000,173
2012/01/20,173,180,173,180,15000,180
2012/01/23,179,179,173,177,10000,177
2012/01/24,177,180,177,180,5000,180
2012/01/25,180,181,179,181,15000,181
2012/01/26,181,186,180,182,24000,182
2012/01/27,183,183,182,182,8000,182
2012/01/30,179,179,179,179,3000,179
2012/01/31,179,229,179,208,953000,208
2012/02/01,205,207,196,199,157000,199
2012/02/02,199,203,197,197,51000,197
2012/02/03,197,197,190,194,28000,194
2012/02/06,191,193,189,189,30000,189
2012/02/07,193,193,187,191,33000,191
2012/02/08,189,194,189,194,42000,194
2012/02/09,198,199,194,198,46000,198
2012/02/10,198,198,196,197,21000,197
2012/02/13,198,201,198,198,19000,198
2012/02/14,203,207,201,204,42000,204
2012/02/15,204,205,202,204,27000,204
2012/02/16,205,205,202,204,33000,204
2012/02/17,206,206,202,203,28000,203
2012/02/20,205,205,203,203,23000,203
2012/02/21,205,205,203,205,8000,205
2012/02/22,208,210,205,208,24000,208
2012/02/23,208,209,206,209,22000,209
2012/02/24,209,209,207,207,7000,207
2012/02/27,206,229,206,223,313000,223
2012/02/28,223,226,222,226,57000,226
2012/02/29,225,225,222,222,79000,222
2012/03/01,222,245,222,244,642000,244
2012/03/02,243,243,239,241,267000,241
2012/03/05,241,250,240,243,321000,243
2012/03/06,245,249,242,244,152000,244
2012/03/07,242,254,242,253,183000,253
2012/03/08,255,273,255,264,608000,264
2012/03/09,263,266,256,256,281000,256
2012/03/12,258,267,258,263,179000,263
2012/03/13,262,265,257,257,82000,257
2012/03/14,257,258,240,245,160000,245
2012/03/15,242,248,239,244,135000,244
2012/03/16,244,245,237,242,138000,242
2012/03/19,243,243,239,242,40000,242
2012/03/21,241,243,240,240,30000,240
2012/03/22,240,242,239,240,46000,240
2012/03/23,239,240,234,237,74000,237
2012/03/26,236,239,235,237,33000,237
2012/03/27,237,241,237,241,19000,241
2012/03/28,239,239,235,236,19000,236
2012/03/29,239,248,239,247,105000,247
2012/03/30,248,248,246,248,47000,248
2012/04/02,248,252,244,248,42000,248
2012/04/03,244,245,239,242,21000,242
2012/04/04,239,244,239,241,50000,241
2012/04/05,239,239,236,238,12000,238
2012/04/06,239,239,234,235,19000,235
2012/04/09,235,238,231,238,20000,238
2012/04/10,238,238,234,235,18000,235
2012/04/11,233,237,226,226,34000,226
2012/04/12,226,226,219,226,32000,226
2012/04/13,225,233,222,233,43000,233
2012/04/16,229,229,227,227,8000,227
2012/04/17,225,227,222,227,22000,227
2012/04/18,227,227,226,227,6000,227
2012/04/19,227,227,227,227,1000,227
2012/04/20,225,229,225,227,9000,227
2012/04/23,235,235,227,231,12000,231
2012/04/24,232,232,229,230,8000,230
2012/04/25,227,227,227,227,1000,227
2012/04/26,230,230,226,227,11000,227
2012/04/27,224,226,221,221,11000,221
2012/05/01,221,221,212,212,18000,212
2012/05/02,212,212,206,206,8000,206
2012/05/07,202,204,201,201,16000,201
2012/05/08,203,208,203,207,7000,207
2012/05/09,203,207,202,205,11000,205
2012/05/10,202,205,202,205,7000,205
2012/05/11,205,212,205,206,15000,206
2012/05/14,206,206,206,206,1000,206
2012/05/15,201,201,187,189,17000,189
2012/05/16,190,195,185,188,24000,188
2012/05/17,188,188,181,184,15000,184
2012/05/18,185,185,177,182,16000,182
2012/05/21,187,191,187,191,6000,191
2012/05/22,191,191,190,190,5000,190
2012/05/23,190,190,185,185,9000,185
2012/05/24,190,190,186,187,7000,187
2012/05/25,191,194,190,194,16000,194
2012/05/28,204,204,196,200,7000,200
2012/05/29,200,200,196,196,2000,196
2012/05/30,196,196,186,191,5000,191
2012/05/31,188,189,188,189,3000,189
2012/06/01,192,192,187,187,5000,187
2012/06/04,177,178,175,176,16000,176
2012/06/05,177,179,177,179,4000,179
2012/06/06,178,184,178,184,5000,184
2012/06/07,183,185,182,185,10000,185
2012/06/08,185,185,182,184,30000,184
2012/06/11,188,189,188,188,4000,188
2012/06/12,193,199,193,199,6000,199
2012/06/13,199,199,194,194,6000,194
2012/06/14,197,197,193,195,6000,195
2012/06/15,195,195,190,191,6000,191
2012/06/18,194,197,194,196,6000,196
2012/06/19,201,201,194,194,14000,194
2012/06/20,195,198,195,198,7000,198
2012/06/21,201,203,201,203,9000,203
2012/06/22,195,202,195,202,3000,202
2012/06/25,197,202,197,200,6000,200
2012/06/26,202,202,197,198,9000,198
2012/06/27,199,201,199,199,5000,199
2012/06/28,204,207,204,204,11000,204
2012/06/29,201,221,200,221,22000,221
2012/07/02,226,228,223,224,16000,224
2012/07/03,223,224,223,224,8000,224
2012/07/04,224,228,224,224,9000,224
2012/07/05,226,227,222,224,12000,224
2012/07/06,224,225,222,222,8000,222
2012/07/09,218,218,217,217,4000,217
2012/07/10,224,224,217,217,4000,217
2012/07/11,215,215,209,209,4000,209
2012/07/12,210,215,210,212,7000,212
2012/07/13,208,208,201,201,23000,201
2012/07/17,205,213,205,213,12000,213
2012/07/18,215,218,215,218,6000,218
2012/07/19,222,222,218,219,5000,219
2012/07/20,214,214,210,210,8000,210
2012/07/23,205,206,203,204,5000,204
2012/07/24,201,201,195,200,5000,200
2012/07/25,188,192,187,192,12000,192
2012/07/26,193,198,192,193,8000,193
2012/07/27,195,199,195,199,4000,199
2012/07/30,196,198,196,198,2000,198
2012/07/31,196,209,196,209,5000,209
2012/08/01,209,209,208,209,3000,209
2012/08/02,205,205,205,205,2000,205
2012/08/06,210,210,200,209,13000,209
2012/08/07,211,212,211,212,6000,212
2012/08/08,209,211,209,210,23000,210
2012/08/09,211,212,210,212,8000,212
2012/08/10,211,214,211,214,19000,214
2012/08/13,211,212,211,212,5000,212
2012/08/14,212,213,210,211,11000,211
2012/08/15,210,212,210,212,11000,212
2012/08/16,211,213,211,213,7000,213
2012/08/17,213,215,212,214,19000,214
2012/08/20,210,219,210,216,8000,216
2012/08/21,216,216,210,210,29000,210
2012/08/22,208,210,208,208,10000,208
2012/08/23,208,210,208,210,6000,210
2012/08/24,207,210,207,210,9000,210
2012/08/27,212,212,205,208,13000,208
2012/08/28,207,208,207,208,4000,208
2012/08/29,208,209,208,208,9000,208
2012/08/30,209,209,209,209,2000,209
2012/08/31,205,206,205,205,20000,205
2012/09/03,205,205,204,205,17000,205
2012/09/04,205,206,204,206,17000,206
2012/09/05,206,209,205,209,13000,209
2012/09/06,209,210,209,210,19000,210
2012/09/07,206,213,206,209,46000,209
2012/09/10,209,213,209,209,20000,209
2012/09/11,214,214,204,211,26000,211
2012/09/12,208,211,208,209,23000,209
2012/09/13,209,211,209,211,15000,211
2012/09/14,211,212,211,212,45000,212
2012/09/18,212,212,211,211,8000,211
2012/09/19,212,214,210,213,20000,213
2012/09/20,212,212,209,209,23000,209
2012/09/21,205,208,204,208,10000,208
2012/09/24,210,210,209,210,9000,210
2012/09/25,218,218,212,215,5000,215
2012/09/26,213,213,211,212,8000,212
2012/09/27,212,214,210,210,7000,210
2012/09/28,207,208,207,208,5000,208
2012/10/01,205,205,203,204,11000,204
2012/10/02,205,205,205,205,3000,205
2012/10/03,205,206,205,205,3000,205
2012/10/04,205,206,205,205,14000,205
2012/10/05,206,206,206,206,1000,206
2012/10/09,205,208,204,204,14000,204
2012/10/10,203,211,203,205,10000,205
2012/10/11,205,207,203,203,4000,203
2012/10/12,203,211,203,206,10000,206
2012/10/15,206,206,206,206,1000,206
2012/10/16,206,209,206,209,5000,209
2012/10/17,212,212,210,210,5000,210
2012/10/18,213,213,213,213,3000,213
2012/10/19,207,213,207,212,24000,212
2012/10/22,211,217,211,217,20000,217
2012/10/23,220,220,218,218,6000,218
2012/10/24,219,219,219,219,3000,219
2012/10/25,216,223,216,223,24000,223
2012/10/26,228,228,222,223,28000,223
2012/10/29,220,223,220,223,8000,223
2012/10/30,221,228,219,228,21000,228
2012/10/31,220,221,210,216,21000,216
2012/11/01,221,221,220,220,6000,220
2012/11/02,220,223,220,223,8000,223
2012/11/05,223,223,220,223,5000,223
2012/11/06,224,224,221,221,5000,221
2012/11/07,220,222,220,222,8000,222
2012/11/08,225,225,222,222,5000,222
2012/11/09,222,222,222,222,12000,222
2012/11/12,220,220,218,218,12000,218
2012/11/13,215,215,214,214,9000,214
2012/11/14,213,213,213,213,1000,213
2012/11/15,212,212,212,212,3000,212
2012/11/16,217,217,212,212,4000,212
2012/11/19,213,213,211,211,19000,211
2012/11/20,213,213,211,211,8000,211
2012/11/21,216,216,213,213,6000,213
2012/11/22,216,219,216,218,11000,218
2012/11/26,221,221,215,215,8000,215
2012/11/27,215,220,215,220,15000,220
2012/11/28,217,220,217,220,7000,220
2012/11/29,218,220,218,219,10000,219
2012/11/30,220,223,220,223,26000,223
2012/12/03,224,224,220,221,13000,221
2012/12/04,222,224,222,222,14000,222
2012/12/05,220,228,220,228,13000,228
2012/12/06,228,235,227,232,17000,232
2012/12/07,235,235,228,228,12000,228
2012/12/10,235,235,226,228,12000,228
2012/12/11,231,231,222,225,20000,225
2012/12/12,225,231,225,230,22000,230
2012/12/13,233,233,225,228,30000,228
2012/12/14,230,230,227,228,50000,228
2012/12/17,230,230,225,226,39000,226
2012/12/18,228,228,223,226,28000,226
2012/12/19,225,228,225,227,20000,227
2012/12/20,227,230,223,230,36000,230
2012/12/21,234,234,230,232,8000,232
2012/12/25,239,239,230,235,20000,235
2012/12/26,235,235,233,235,18000,235
2012/12/27,235,235,233,233,10000,233
2012/12/28,232,234,231,234,8000,234
2013/01/04,235,240,233,237,55000,237
2013/01/07,241,241,238,238,7000,238
2013/01/08,238,240,237,237,10000,237
2013/01/09,234,235,232,233,9000,233
2013/01/10,233,237,233,237,10000,237
2013/01/11,237,239,237,238,38000,238
2013/01/15,241,244,241,244,33000,244
2013/01/16,242,242,241,241,19000,241
2013/01/17,241,241,240,241,20000,241
2013/01/18,245,247,241,246,43000,246
2013/01/21,246,247,243,247,42000,247
2013/01/22,247,252,247,252,45000,252
2013/01/23,252,260,252,254,32000,254
2013/01/24,255,257,255,257,14000,257
2013/01/25,259,260,252,254,46000,254
2013/01/28,259,259,250,253,37000,253
2013/01/29,256,256,255,256,6000,256
2013/01/30,255,257,255,257,6000,257
2013/01/31,254,255,253,254,16000,254
2013/02/01,252,254,252,254,14000,254
2013/02/04,251,253,251,253,25000,253
2013/02/05,251,251,250,250,10000,250
2013/02/06,248,250,238,249,70000,249
2013/02/07,247,251,243,249,10000,249
2013/02/08,252,252,250,250,11000,250
2013/02/12,254,254,246,246,8000,246
2013/02/13,246,246,243,243,11000,243
2013/02/14,240,244,240,244,13000,244
2013/02/15,236,237,234,234,23000,234
2013/02/18,236,245,236,242,13000,242
2013/02/19,245,247,245,246,19000,246
2013/02/20,250,251,246,251,12000,251
2013/02/21,251,256,250,256,33000,256
2013/02/22,256,257,250,251,16000,251
2013/02/25,252,263,252,262,61000,262
2013/02/26,256,260,256,260,6000,260
2013/02/27,256,256,255,255,5000,255
2013/02/28,253,254,251,254,8000,254
2013/03/01,254,255,254,255,7000,255
2013/03/04,251,257,251,254,6000,254
2013/03/05,257,257,251,251,10000,251
2013/03/06,250,250,249,250,13000,250
2013/03/07,250,330,250,330,713000,330
2013/03/08,378,410,371,390,7395000,390
2013/03/11,380,381,333,342,1747000,342
2013/03/12,336,338,324,327,506000,327
2013/03/13,323,334,321,332,214000,332
2013/03/14,336,344,332,335,163000,335
2013/03/15,334,334,325,327,103000,327
2013/03/18,320,320,302,305,147000,305
2013/03/19,318,319,313,317,78000,317
2013/03/21,313,319,310,319,92000,319
2013/03/22,316,316,311,312,51000,312
2013/03/25,309,309,299,300,124000,300
2013/03/26,299,303,297,299,77000,299
2013/03/27,302,302,295,297,32000,297
2013/03/28,300,302,296,298,32000,298
2013/03/29,299,301,297,297,41000,297
2013/04/01,297,297,278,278,56000,278
2013/04/02,270,271,256,269,69000,269
2013/04/03,272,288,270,285,47000,285
2013/04/04,279,287,276,287,40000,287
2013/04/05,294,298,287,296,84000,296
2013/04/08,296,314,296,314,72000,314
2013/04/09,319,319,307,314,74000,314
2013/04/10,309,309,304,306,23000,306
2013/04/11,306,310,302,305,42000,305
2013/04/12,299,300,297,298,38000,298
2013/04/15,298,298,295,295,18000,295
2013/04/16,291,300,291,292,42000,292
2013/04/17,299,301,295,299,17000,299
2013/04/18,302,304,300,301,35000,301
2013/04/19,301,304,298,301,10000,301
2013/04/22,303,305,302,305,54000,305
2013/04/23,315,317,310,313,72000,313
2013/04/24,314,319,312,319,61000,319
2013/04/25,322,324,317,320,85000,320
2013/04/26,322,337,320,324,99000,324
2013/04/30,327,335,320,330,54000,330
2013/05/01,330,330,328,329,23000,329
2013/05/02,328,328,322,323,24000,323
2013/05/07,325,330,325,329,28000,329
2013/05/08,329,329,326,328,44000,328
2013/05/09,328,329,325,326,55000,326
2013/05/10,329,329,326,327,34000,327
2013/05/13,326,329,325,327,32000,327
2013/05/14,327,327,321,324,36000,324
2013/05/15,327,333,300,303,170000,303
2013/05/16,319,319,291,299,128000,299
2013/05/17,306,315,297,307,57000,307
2013/05/20,316,324,316,322,56000,322
2013/05/21,323,324,312,313,39000,313
2013/05/22,316,317,313,316,34000,316
2013/05/23,318,318,300,302,69000,302
2013/05/24,301,301,283,290,48000,290
2013/05/27,297,303,290,290,60000,290
2013/05/28,278,283,276,276,74000,276
2013/05/29,286,295,285,292,18000,292
2013/05/30,284,295,277,277,52000,277
2013/05/31,286,292,278,278,20000,278
2013/06/03,284,295,278,292,41000,292
2013/06/04,295,296,290,296,24000,296
2013/06/05,296,296,291,293,22000,293
2013/06/06,286,286,272,272,28000,272
2013/06/07,276,276,255,259,58000,259
2013/06/10,260,269,260,266,68000,266
2013/06/11,272,277,263,263,34000,263
2013/06/12,264,268,263,268,26000,268
2013/06/13,269,269,258,261,48000,261
2013/06/14,260,263,256,260,54000,260
2013/06/17,255,264,255,264,19000,264
2013/06/18,270,276,268,269,16000,269
2013/06/19,283,283,275,276,13000,276
2013/06/20,275,280,273,273,10000,273
2013/06/21,272,272,266,271,15000,271
2013/06/24,275,275,272,272,7000,272
2013/06/25,275,283,275,275,28000,275
2013/06/26,275,278,256,273,20000,273
2013/06/27,275,275,257,263,40000,263
2013/06/28,263,268,263,268,18000,268
2013/07/01,268,277,263,277,13000,277
2013/07/02,279,279,277,279,8000,279
2013/07/03,279,279,277,278,11000,278
2013/07/04,278,278,272,274,6000,274
2013/07/05,278,280,277,280,9000,280
2013/07/08,283,283,281,281,12000,281
2013/07/09,281,281,280,281,7000,281
2013/07/10,282,282,278,278,8000,278
2013/07/11,277,280,277,280,6000,280
2013/07/12,278,281,277,281,14000,281
2013/07/16,281,284,281,282,17000,282
2013/07/17,284,315,284,304,104000,304
2013/07/18,306,316,303,312,106000,312
2013/07/19,316,317,305,306,108000,306
2013/07/22,306,306,301,302,14000,302
2013/07/23,297,302,297,300,13000,300
2013/07/24,303,305,297,302,21000,302
2013/07/25,300,302,298,298,13000,298
2013/07/26,298,298,294,296,15000,296
2013/07/29,280,287,272,272,66000,272
2013/07/30,277,278,271,273,49000,273
2013/07/31,272,280,267,269,108000,269
2013/08/01,273,275,272,272,33000,272
2013/08/02,288,294,282,286,78000,286
2013/08/05,290,292,286,290,39000,290
2013/08/06,290,291,286,287,45000,287
2013/08/07,287,289,282,284,17000,284
2013/08/08,284,288,280,280,16000,280
2013/08/09,279,279,267,271,47000,271
2013/08/12,270,270,266,266,52000,266
2013/08/13,267,270,266,266,28000,266
2013/08/14,268,276,268,272,25000,272
2013/08/15,273,275,270,272,19000,272
2013/08/16,273,278,273,274,14000,274
2013/08/19,272,272,270,270,17000,270
2013/08/20,270,270,269,269,15000,269
2013/08/21,270,270,267,269,18000,269
2013/08/22,269,269,268,269,9000,269
2013/08/23,270,273,270,272,5000,272
2013/08/26,274,278,270,270,20000,270
2013/08/27,267,268,267,267,9000,267
2013/08/28,266,270,263,264,12000,264
2013/08/29,262,267,262,262,16000,262
2013/08/30,262,262,260,260,18000,260
2013/09/02,262,262,259,259,7000,259
2013/09/03,259,262,258,262,27000,262
2013/09/04,261,262,259,262,24000,262
2013/09/05,263,263,261,261,34000,261
2013/09/06,258,258,249,250,125000,250
2013/09/09,251,253,250,250,64000,250
2013/09/10,253,255,253,255,42000,255
2013/09/11,255,255,253,253,33000,253
2013/09/12,253,254,249,250,74000,250
2013/09/13,251,253,251,252,78000,252
2013/09/17,254,261,254,259,76000,259
2013/09/18,259,266,259,263,52000,263
2013/09/19,264,271,264,271,58000,271
2013/09/20,273,273,265,266,38000,266
2013/09/24,268,288,268,280,77000,280
2013/09/25,287,287,282,284,77000,284
2013/09/26,283,290,283,287,53000,287
2013/09/27,292,295,287,292,27000,292
2013/09/30,287,291,285,291,33000,291
2013/10/01,286,288,282,282,36000,282
2013/10/02,286,286,275,275,41000,275
2013/10/03,276,281,275,275,16000,275
2013/10/04,270,276,265,275,26000,275
2013/10/07,271,272,268,268,17000,268
2013/10/08,262,278,262,270,39000,270
2013/10/09,268,270,268,270,15000,270
2013/10/10,269,272,269,272,25000,272
2013/10/11,277,277,269,277,30000,277
2013/10/15,279,282,278,280,20000,280
2013/10/16,276,282,276,281,10000,281
2013/10/17,285,286,284,285,38000,285
2013/10/18,285,285,282,282,10000,282
2013/10/21,286,303,286,295,100000,295
2013/10/22,295,309,295,303,106000,303
2013/10/23,303,305,300,300,58000,300
2013/10/24,300,300,294,297,29000,297
2013/10/25,295,295,290,294,38000,294
2013/10/28,296,299,294,297,17000,297
2013/10/29,297,297,290,292,48000,292
2013/10/30,294,303,290,291,78000,291
2013/10/31,292,303,292,295,95000,295
2013/11/01,282,282,254,264,210000,264
2013/11/05,265,272,265,268,43000,268
2013/11/06,268,279,266,272,25000,272
2013/11/07,274,274,268,268,17000,268
2013/11/08,267,269,267,268,23000,268
2013/11/11,274,274,268,269,29000,269
2013/11/12,271,272,263,272,28000,272
2013/11/13,272,274,272,274,11000,274
2013/11/14,271,274,269,269,42000,269
2013/11/15,270,273,270,271,19000,271
2013/11/18,272,274,271,272,22000,272
2013/11/19,272,272,265,270,18000,270
2013/11/20,268,271,268,271,22000,271
2013/11/21,271,273,270,271,16000,271
2013/11/22,274,276,273,275,56000,275
2013/11/25,275,279,275,279,38000,279
2013/11/26,280,281,278,279,26000,279
2013/11/27,279,281,278,279,31000,279
2013/11/28,281,281,278,279,18000,279
2013/11/29,280,289,280,286,61000,286
2013/12/02,290,295,286,295,46000,295
2013/12/03,295,295,290,290,13000,290
2013/12/04,290,291,285,285,13000,285
2013/12/05,283,284,283,284,14000,284
2013/12/06,290,290,285,288,14000,288
2013/12/09,295,295,279,293,38000,293
2013/12/10,290,290,288,289,8000,289
2013/12/11,291,291,288,291,19000,291
2013/12/12,288,288,283,284,8000,284
2013/12/13,276,282,276,281,60000,281
2013/12/16,278,278,275,277,13000,277
2013/12/17,274,274,270,272,24000,272
2013/12/18,273,273,268,270,30000,270
2013/12/19,270,274,270,273,21000,273
2013/12/20,271,271,268,268,13000,268
2013/12/24,268,271,267,270,42000,270
2013/12/25,266,268,264,264,30000,264
2013/12/26,269,272,269,270,20000,270
2013/12/27,271,276,271,276,20000,276
2013/12/30,276,283,276,283,37000,283
2014/01/06,280,288,280,281,26000,281
2014/01/07,281,281,280,280,5000,280
2014/01/08,283,283,280,283,20000,283
2014/01/09,283,283,281,283,12000,283
2014/01/10,280,281,280,281,20000,281
2014/01/14,281,285,278,285,30000,285
2014/01/15,283,287,281,286,24000,286
2014/01/16,289,293,288,291,45000,291
2014/01/17,290,294,288,291,29000,291
2014/01/20,295,299,292,293,32000,293
2014/01/21,295,298,293,295,39000,295
2014/01/22,295,295,292,293,14000,293
2014/01/23,296,296,293,293,21000,293
2014/01/24,291,291,280,283,38000,283
2014/01/27,282,282,272,274,41000,274
2014/01/28,274,283,271,273,44000,273
2014/01/29,273,284,273,283,52000,283
2014/01/30,280,280,275,276,32000,276
2014/01/31,292,292,272,275,24000,275
2014/02/03,271,280,271,273,13000,273
2014/02/04,257,268,257,257,73000,257
2014/02/05,261,267,259,260,40000,260
2014/02/06,265,266,260,263,10000,263
2014/02/07,264,276,264,266,21000,266
2014/02/10,271,271,267,268,9000,268
2014/02/12,269,273,269,272,6000,272
2014/02/13,270,274,268,268,24000,268
2014/02/14,269,269,263,264,23000,264
2014/02/17,271,271,267,267,10000,267
2014/02/18,267,277,267,277,10000,277
2014/02/19,278,278,271,275,6000,275
2014/02/20,277,277,269,270,20000,270
2014/02/21,270,274,270,273,7000,273
2014/02/24,275,275,274,274,5000,274
2014/02/25,278,282,278,281,13000,281
2014/02/26,281,281,281,281,1000,281
2014/02/27,278,280,278,278,11000,278
2014/02/28,272,275,272,275,5000,275
2014/03/03,268,268,265,266,13000,266
2014/03/04,269,275,269,275,6000,275
2014/03/05,274,274,274,274,5000,274
2014/03/06,277,277,277,277,1000,277
2014/03/07,279,279,276,278,8000,278
2014/03/10,278,278,275,276,17000,276
2014/03/11,275,277,275,276,5000,276
2014/03/12,268,272,268,271,11000,271
2014/03/13,273,275,273,274,17000,274
2014/03/14,270,270,265,266,61000,266
2014/03/17,266,266,262,262,15000,262
2014/03/18,269,269,263,269,14000,269
2014/03/19,274,274,263,265,9000,265
2014/03/20,264,265,262,264,7000,264
2014/03/24,264,269,264,267,11000,267
2014/03/25,275,275,260,264,21000,264
2014/03/26,265,265,256,257,53000,257
2014/03/27,255,261,255,255,12000,255
2014/03/28,261,261,257,257,11000,257
2014/03/31,257,258,257,258,4000,258
2014/04/01,261,265,260,263,36000,263
2014/04/02,264,267,264,267,10000,267
2014/04/03,263,269,263,267,19000,267
2014/04/04,267,269,265,266,4000,266
2014/04/07,266,267,266,267,7000,267
2014/04/08,263,266,262,264,9000,264
2014/04/09,260,261,256,258,34000,258
2014/04/10,260,260,257,257,5000,257
2014/04/11,254,254,250,250,30000,250
2014/04/14,251,252,250,252,15000,252
2014/04/15,255,255,254,254,5000,254
2014/04/16,256,256,253,254,5000,254
2014/04/17,254,254,253,254,5000,254
2014/04/18,255,257,255,257,7000,257
2014/04/21,254,255,254,254,14000,254
2014/04/22,258,258,254,254,9000,254
2014/04/23,254,255,254,255,2000,255
2014/04/24,251,254,251,253,21000,253
2014/04/25,252,254,252,254,13000,254
2014/04/28,254,255,254,255,13000,255
2014/04/30,255,255,255,255,8000,255
2014/05/01,252,253,251,253,10000,253
2014/05/02,253,253,253,253,6000,253
2014/05/07,253,257,253,257,19000,257
2014/05/08,259,259,254,259,12000,259
2014/05/09,260,262,260,260,30000,260
2014/05/12,266,266,259,261,10000,261
2014/05/13,264,264,264,264,3000,264
2014/05/14,264,264,264,264,1000,264
2014/05/15,263,264,259,260,34000,260
2014/05/16,259,259,252,252,29000,252
2014/05/19,252,254,248,248,20000,248
2014/05/20,248,248,239,239,24000,239
2014/05/21,239,245,238,238,48000,238
2014/05/22,241,244,239,244,7000,244
2014/05/23,248,250,244,244,25000,244
2014/05/26,253,253,246,246,15000,246
2014/05/27,251,251,247,247,5000,247
2014/05/28,248,249,246,246,12000,246
2014/05/29,254,254,249,250,11000,250
2014/05/30,250,250,248,249,7000,249
2014/06/02,249,253,249,252,10000,252
2014/06/03,252,252,246,248,20000,248
2014/06/04,250,250,248,248,10000,248
2014/06/05,247,251,247,249,12000,249
2014/06/06,253,253,249,250,9000,250
2014/06/09,250,252,247,249,21000,249
2014/06/10,248,249,248,249,2000,249
2014/06/11,248,255,248,249,14000,249
2014/06/12,251,251,251,251,2000,251
2014/06/13,249,253,249,253,34000,253
2014/06/16,253,260,252,253,16000,253
2014/06/17,254,257,254,257,6000,257
2014/06/18,257,262,257,259,20000,259
2014/06/19,261,263,260,263,24000,263
2014/06/20,261,263,260,261,12000,261
2014/06/23,265,267,263,267,28000,267
2014/06/24,269,269,267,269,27000,269
2014/06/25,269,269,268,268,14000,268
2014/06/26,265,267,264,265,18000,265
2014/06/27,268,268,263,264,6000,264
2014/06/30,263,268,263,268,11000,268
2014/07/01,268,268,261,262,30000,262
2014/07/02,265,265,261,264,11000,264
2014/07/03,264,265,264,264,8000,264
2014/07/04,264,267,263,267,21000,267
2014/07/07,267,269,267,267,25000,267
2014/07/08,267,269,267,269,10000,269
2014/07/09,266,269,266,266,13000,266
2014/07/10,264,265,263,263,10000,263
2014/07/11,263,265,263,265,23000,265
2014/07/14,265,267,261,267,5000,267
2014/07/15,264,266,263,264,21000,264
2014/07/16,264,266,262,263,21000,263
2014/07/17,261,263,261,263,2000,263
2014/07/18,263,263,259,259,10000,259
2014/07/22,259,263,259,263,8000,263
2014/07/23,261,262,261,261,8000,261
2014/07/24,261,262,261,262,14000,262
2014/07/25,263,264,262,264,19000,264
2014/07/28,264,264,262,262,4000,262
2014/07/29,262,263,262,263,10000,263
2014/07/30,261,261,260,260,4000,260
2014/07/31,263,263,262,262,6000,262
2014/08/01,259,260,241,245,105000,245
2014/08/04,246,249,246,248,45000,248
2014/08/05,248,249,247,248,18000,248
2014/08/06,248,248,246,247,13000,247
2014/08/07,250,251,246,246,12000,246
2014/08/08,246,250,245,247,37000,247
2014/08/11,248,248,248,248,2000,248
2014/08/12,251,251,247,247,21000,247
2014/08/13,249,249,247,248,9000,248
2014/08/14,248,251,247,251,12000,251
2014/08/15,251,251,250,251,6000,251
2014/08/18,253,256,253,256,13000,256
2014/08/19,256,256,254,254,5000,254
2014/08/20,254,258,254,258,19000,258
2014/08/21,259,263,255,263,28000,263
2014/08/22,263,263,258,258,22000,258
2014/08/25,258,259,258,259,4000,259
2014/08/26,258,258,256,256,5000,256
2014/08/27,256,256,256,256,1000,256
2014/08/28,256,257,254,257,11000,257
2014/08/29,257,260,256,258,19000,258
2014/09/01,258,261,258,261,3000,261
2014/09/02,258,260,255,259,41000,259
2014/09/03,260,261,257,259,20000,259
2014/09/04,258,259,258,259,6000,259
2014/09/05,257,260,256,259,12000,259
2014/09/08,260,260,258,260,8000,260
2014/09/09,261,261,260,260,12000,260
2014/09/10,261,261,260,261,12000,261
2014/09/11,262,263,261,262,11000,262
2014/09/12,260,261,260,261,41000,261
2014/09/16,262,263,258,259,14000,259
2014/09/17,262,263,260,261,29000,261
2014/09/18,262,262,260,262,5000,262
2014/09/19,263,265,255,263,41000,263
2014/09/22,261,263,261,263,9000,263
2014/09/24,264,264,262,263,8000,263
2014/09/25,262,265,262,265,31000,265
2014/09/26,260,263,260,262,10000,262
2014/09/29,259,261,259,261,6000,261
2014/09/30,262,262,261,261,14000,261
2014/10/01,262,264,260,263,29000,263
2014/10/02,259,259,255,256,15000,256
2014/10/03,255,260,255,256,30000,256
2014/10/06,260,260,257,260,9000,260
2014/10/07,261,261,257,257,22000,257
2014/10/08,249,253,249,253,23000,253
2014/10/09,254,254,251,251,14000,251
2014/10/10,250,250,245,245,44000,245
2014/10/14,241,242,237,239,52000,239
2014/10/15,239,242,239,240,33000,240
2014/10/16,240,240,236,236,19000,236
2014/10/17,236,236,236,236,4000,236
2014/10/20,242,242,240,240,9000,240
2014/10/21,240,241,240,240,11000,240
2014/10/22,240,241,239,240,10000,240
2014/10/23,241,241,241,241,4000,241
2014/10/24,247,247,246,246,12000,246
2014/10/27,249,249,244,248,18000,248
2014/10/28,245,248,244,248,6000,248
2014/10/29,245,247,245,247,8000,247
2014/10/30,248,249,241,241,32000,241
2014/10/31,244,252,243,249,43000,249
2014/11/04,260,260,253,259,44000,259
2014/11/05,259,263,258,263,38000,263
2014/11/06,265,265,258,261,17000,261
2014/11/07,263,263,257,259,8000,259
2014/11/10,260,264,260,263,13000,263
2014/11/11,264,264,263,263,24000,263
2014/11/12,264,266,260,262,17000,262
2014/11/13,262,265,262,265,15000,265
2014/11/14,268,270,266,268,41000,268
2014/11/17,265,265,263,264,9000,264
2014/11/18,267,269,267,269,22000,269
2014/11/19,270,273,265,272,33000,272
2014/11/20,273,273,271,271,7000,271
2014/11/21,272,277,271,271,48000,271
2014/11/25,277,280,274,278,28000,278
2014/11/26,274,278,274,277,23000,277
2014/11/27,275,280,273,280,31000,280
2014/11/28,280,280,276,277,27000,277
2014/12/01,281,281,278,278,16000,278
2014/12/02,279,286,279,286,27000,286
2014/12/03,288,293,286,289,42000,289
2014/12/04,289,308,289,301,82000,301
2014/12/05,300,303,299,302,55000,302
2014/12/08,302,308,300,307,56000,307
2014/12/09,307,307,299,299,40000,299
2014/12/10,299,299,292,292,42000,292
2014/12/11,295,300,285,300,46000,300
2014/12/12,294,296,293,293,34000,293
2014/12/15,293,293,290,290,12000,290
2014/12/16,282,282,272,272,33000,272
2014/12/17,272,275,271,271,21000,271
2014/12/18,278,278,276,278,7000,278
2014/12/19,279,279,276,279,14000,279
2014/12/22,277,279,273,276,21000,276
2014/12/24,280,280,277,278,20000,278
2014/12/25,279,286,275,283,34000,283
2014/12/26,283,283,282,282,10000,282
2014/12/29,283,290,282,289,8000,289
2014/12/30,290,290,284,286,7000,286
2015/01/05,286,289,286,289,10000,289
2015/01/06,286,286,279,279,16000,279
2015/01/07,278,278,277,278,8000,278
2015/01/08,271,277,271,273,8000,273
2015/01/09,273,277,273,276,8000,276
2015/01/13,271,277,271,274,6000,274
2015/01/14,274,279,273,273,7000,273
2015/01/15,273,275,272,275,8000,275
2015/01/16,275,275,272,272,11000,272
2015/01/19,275,275,269,269,14000,269
2015/01/20,270,272,269,270,11000,270
2015/01/21,269,269,265,265,28000,265
2015/01/22,268,268,260,260,20000,260
2015/01/23,262,266,262,264,13000,264
2015/01/26,265,270,265,268,5000,268
2015/01/27,270,272,270,272,7000,272
2015/01/28,272,274,270,270,16000,270
2015/01/29,270,274,270,274,9000,274
2015/01/30,271,275,268,268,18000,268
2015/02/02,271,272,271,271,8000,271
2015/02/03,271,271,268,269,7000,269
2015/02/04,271,271,271,271,2000,271
2015/02/05,272,272,270,272,8000,272
2015/02/06,268,268,264,267,23000,267
2015/02/09,269,269,266,266,7000,266
2015/02/10,269,270,268,270,8000,270
2015/02/12,270,270,266,266,15000,266
2015/02/13,270,271,263,271,48000,271
2015/02/16,268,270,266,269,16000,269
2015/02/17,270,271,268,271,14000,271
2015/02/18,275,278,270,271,38000,271
2015/02/19,273,280,273,279,29000,279
2015/02/20,283,283,274,277,35000,277
2015/02/23,280,282,276,281,32000,281
2015/02/24,281,285,281,284,25000,284
2015/02/25,285,285,281,282,18000,282
2015/02/26,283,294,283,288,41000,288
2015/02/27,285,289,285,289,27000,289
2015/03/02,289,289,287,288,13000,288
2015/03/03,290,291,290,291,5000,291
2015/03/04,291,294,277,291,26000,291
2015/03/05,291,293,286,288,18000,288
2015/03/06,287,290,286,286,16000,286
2015/03/09,284,287,282,282,14000,282
2015/03/10,287,287,282,284,7000,284
2015/03/11,281,289,281,288,16000,288
2015/03/12,289,289,286,289,15000,289
2015/03/13,294,294,289,291,24000,291
2015/03/16,290,291,289,291,26000,291
2015/03/17,293,294,293,293,11000,293
2015/03/18,295,295,290,291,28000,291
2015/03/19,289,289,286,286,35000,286
2015/03/20,286,288,283,286,34000,286
2015/03/23,285,288,285,288,12000,288
2015/03/24,288,289,288,289,7000,289
2015/03/25,290,290,287,287,11000,287
2015/03/26,287,289,286,289,11000,289
2015/03/27,283,286,283,285,12000,285
2015/03/30,284,287,284,284,10000,284
2015/03/31,286,286,282,282,12000,282
2015/04/01,280,281,268,275,29000,275
2015/04/02,271,281,270,277,45000,277
2015/04/03,276,277,274,274,17000,274
2015/04/06,275,275,275,275,1000,275
2015/04/07,280,280,277,278,9000,278
2015/04/08,280,280,273,276,23000,276
2015/04/09,275,276,274,274,12000,274
2015/04/10,274,276,272,273,25000,273
2015/04/13,275,277,275,277,12000,277
2015/04/14,278,278,274,275,22000,275
2015/04/15,277,277,277,277,5000,277
2015/04/16,276,278,276,277,5000,277
2015/04/17,279,279,276,276,11000,276
2015/04/20,275,275,274,274,10000,274
2015/04/21,274,275,274,274,7000,274
2015/04/22,274,275,273,275,11000,275
2015/04/23,275,277,274,275,19000,275
2015/04/24,274,275,273,274,27000,274
2015/04/27,276,276,274,275,6000,275
2015/04/28,275,275,273,274,22000,274
2015/04/30,273,277,273,273,16000,273
2015/05/01,274,274,272,272,3000,272
2015/05/07,272,274,272,272,10000,272
2015/05/08,272,274,272,273,10000,273
2015/05/11,272,274,272,274,13000,274
2015/05/12,272,274,272,273,13000,273
2015/05/13,273,278,273,276,10000,276
2015/05/14,274,277,274,274,12000,274
2015/05/15,276,276,268,272,38000,272
2015/05/18,274,276,272,272,18000,272
2015/05/19,273,276,272,275,58000,275
2015/05/20,272,275,271,274,26000,274
2015/05/21,276,276,273,273,28000,273
2015/05/22,275,284,275,283,58000,283
2015/05/25,287,289,287,287,55000,287
2015/05/26,288,290,288,289,22000,289
2015/05/27,289,290,288,289,30000,289
2015/05/28,289,290,288,289,31000,289
2015/05/29,289,291,288,290,20000,290
2015/06/01,287,293,287,288,20000,288
2015/06/02,290,290,289,290,18000,290
2015/06/03,290,293,288,288,29000,288
2015/06/04,287,288,287,288,21000,288
2015/06/05,285,287,285,285,24000,285
2015/06/08,285,287,284,285,31000,285
2015/06/09,285,285,281,281,18000,281
2015/06/10,281,283,281,282,12000,282
2015/06/11,282,283,280,280,44000,280
2015/06/12,282,282,280,281,32000,281
2015/06/15,281,281,280,280,4000,280
2015/06/16,280,280,280,280,14000,280
2015/06/17,278,278,275,275,3000,275
2015/06/18,279,279,276,278,10000,278
2015/06/19,280,281,280,281,10000,281
2015/06/22,283,283,281,283,19000,283
2015/06/23,283,285,281,285,12000,285
2015/06/24,283,283,281,281,23000,281
2015/06/25,281,282,280,280,12000,280
2015/06/26,282,282,280,280,7000,280
2015/06/29,279,279,275,275,24000,275
2015/06/30,274,277,274,276,13000,276
2015/07/01,274,278,274,277,15000,277
2015/07/02,280,284,277,279,12000,279
2015/07/03,279,282,278,278,5000,278
2015/07/06,278,279,278,279,13000,279
2015/07/07,278,280,278,278,12000,278
2015/07/08,279,279,274,274,15000,274
2015/07/09,273,275,270,271,19000,271
2015/07/10,271,274,271,274,26000,274
2015/07/13,274,284,274,283,19000,283
2015/07/14,283,283,281,281,3000,281
2015/07/15,282,283,281,281,17000,281
2015/07/16,279,279,279,279,2000,279
2015/07/17,280,283,280,283,6000,283
2015/07/21,281,285,280,280,16000,280
2015/07/22,278,283,278,280,8000,280
2015/07/23,283,283,279,279,14000,279
2015/07/24,280,283,280,282,8000,282
2015/07/27,283,286,279,280,52000,280
2015/07/28,279,282,279,282,5000,282
2015/07/29,283,283,281,283,8000,283
2015/07/30,281,281,278,278,11000,278
2015/07/31,278,285,278,285,23000,285
2015/08/03,286,286,283,286,28000,286
2015/08/04,285,288,285,286,22000,286
2015/08/05,287,288,287,287,17000,287
2015/08/06,290,290,287,290,27000,290
2015/08/07,290,291,285,291,26000,291
2015/08/10,286,289,285,289,7000,289
2015/08/11,290,290,283,284,24000,284
2015/08/12,284,290,284,290,36000,290
2015/08/13,291,308,290,303,107000,303
2015/08/14,303,315,303,315,149000,315
2015/08/17,319,329,319,329,162000,329
2015/08/18,335,342,324,330,157000,330
2015/08/19,325,325,308,309,124000,309
2015/08/20,309,309,300,306,55000,306
2015/08/21,299,303,294,299,73000,299
2015/08/24,291,293,265,283,75000,283
2015/08/25,270,275,234,266,119000,266
2015/08/26,271,272,266,269,22000,269
2015/08/27,274,274,259,268,46000,268
2015/08/28,277,278,272,272,38000,272
2015/08/31,272,277,265,277,26000,277
2015/09/01,278,293,275,278,76000,278
2015/09/02,270,281,270,278,14000,278
2015/09/03,278,278,269,270,36000,270
2015/09/04,270,270,265,265,24000,265
2015/09/07,265,273,265,266,23000,266
2015/09/08,267,267,260,262,36000,262
2015/09/09,262,274,262,268,20000,268
2015/09/10,264,265,261,265,15000,265
2015/09/11,264,269,264,267,37000,267
2015/09/14,268,269,263,265,14000,265
2015/09/15,270,273,266,267,15000,267
2015/09/16,271,271,267,268,5000,268
2015/09/17,269,269,269,269,1000,269
2015/09/18,268,268,265,265,11000,265
2015/09/24,268,268,265,265,15000,265
2015/09/25,268,269,267,267,8000,267
2015/09/28,268,272,268,269,19000,269
2015/09/29,267,267,252,253,41000,253
2015/09/30,261,261,256,259,19000,259
2015/10/01,258,261,258,260,17000,260
2015/10/02,258,260,256,256,15000,256
2015/10/05,257,263,257,261,16000,261
2015/10/06,268,268,264,264,14000,264
2015/10/07,262,266,262,266,14000,266
2015/10/08,266,269,266,267,20000,267
2015/10/09,268,274,268,274,45000,274
2015/10/13,278,280,276,280,47000,280
2015/10/14,281,281,274,275,37000,275
2015/10/15,276,283,276,282,24000,282
2015/10/16,284,286,284,284,19000,284
